GCF_022318385.1_ASM2231838v1,S10_LN_i_82052_dp_f_0.8506460726026541,82052,
GCF_022318385.1_ASM2231838v1,S24_LN_i_10668_dp_f_1.2058226192510257,10668,
GCF_022318385.1_ASM2231838v1,S30_LN_i_1232_dp_f_7.071791759352129,1232,
GCF_025147325.1_ASM2514732v1,S52_LN_i_8269_dp_f_2.257792564170004,8269,
GCF_905331345.2_AI3010v1_cpp,S29_LN_i_2142_dp_f_1.5750709549035196,2142,
GCF_023370115.1_ASM2337011v1,S18_LN_i_22703_dp_f_0.8818362722118972,22703,
GCF_023370115.1_ASM2337011v1,S19_LN_i_20692_dp_f_0.8271636575360255,20692,
GCF_021398655.1_ASM2139865v1,S55_LN_i_1321_dp_f_108.91728638491864,1321,
GCF_018588605.2_ASM1858860v2,S91_LN_i_1406_dp_f_0.3990120604320718,1406,
GCF_022023995.1_ASM2202399v1,S63_LN_i_5388_dp_f_0.9651971271393642,5388,
GCF_022370755.2_ASM2237075v2,S25_LN_i_55847_dp_f_1.744992508121485,55847,
GCF_022370755.2_ASM2237075v2,S26_LN_i_28764_dp_f_1.7301428648676427,28764,
GCF_022370755.2_ASM2237075v2,S28_LN_i_21259_dp_f_1.781534567578252,21259,
GCF_022370755.2_ASM2237075v2,S32_LN_i_4682_dp_f_1.8322315871191623,4682,
GCF_022370755.2_ASM2237075v2,S37_LN_i_2283_dp_f_1.5416950275728534,2283,
GCF_021586915.1_ASM2158691v1,S36_LN_i_1966_dp_f_73.27237009364234,1966,
GCF_021586915.1_ASM2158691v1,S40_LN_i_1535_dp_f_96.36525559477451,1535,
GCF_022695635.1_ASM2269563v1,S34_LN_i_27649_dp_f_2.8348848881750954,27649,
GCF_022695635.1_ASM2269563v1,S36_LN_i_26519_dp_f_1.0688005326980698,26519,
GCF_022695635.1_ASM2269563v1,S37_LN_i_26255_dp_f_3.375781344645681,26255,
GCF_022695635.1_ASM2269563v1,S43_LN_i_9186_dp_f_1.0277645039040484,9186,
GCF_022695635.1_ASM2269563v1,S44_LN_i_7507_dp_f_0.958203913754411,7507,
GCF_022695635.1_ASM2269563v1,S45_LN_i_6583_dp_f_4.763549379359618,6583,
GCF_022695635.1_ASM2269563v1,S46_LN_i_4749_dp_f_1.097555890681324,4749,
GCF_022695635.1_ASM2269563v1,S51_LN_i_2800_dp_f_2.1461793806141185,2800,
GCF_022695635.1_ASM2269563v1,S52_LN_i_2787_dp_f_0.8680007701019309,2787,
GCF_022695635.1_ASM2269563v1,S53_LN_i_2701_dp_f_2.6011175031327114,2701,
GCF_025370975.1_ASM2537097v1,S17_LN_i_118836_dp_f_2.482259073729719,118836,
GCF_022592275.1_ASM2259227v1,S49_LN_i_2616_dp_f_29.52997497161369,2616,
GCF_025148285.1_ASM2514828v1,S46_LN_i_2263_dp_f_4.318001548575272,2263,
GCF_025148285.1_ASM2514828v1,S47_LN_i_2080_dp_f_0.988600109597699,2080,
GCF_025148285.1_ASM2514828v1,S52_LN_i_1552_dp_f_1.4781320058685394,1552,
GCF_025148285.1_ASM2514828v1,S54_LN_i_1413_dp_f_1.5024020938565135,1413,
GCF_021496035.1_ASM2149603v1,S51_LN_i_1410_dp_f_2.889078761694088,1410,
GCF_025369755.1_ASM2536975v1,S6_LN_i_72762_dp_f_1.3628127601005813,72762,
GCF_025369755.1_ASM2536975v1,S23_LN_i_30708_dp_f_1.1967209861918182,30708,
GCF_025369755.1_ASM2536975v1,S58_LN_i_10284_dp_f_0.5559761652388135,10284,
GCF_025369755.1_ASM2536975v1,S83_LN_i_4890_dp_f_0.5780286493501476,4890,
GCF_025369755.1_ASM2536975v1,S84_LN_i_4789_dp_f_0.42743595882655766,4789,
GCF_025369755.1_ASM2536975v1,S87_LN_i_4442_dp_f_0.5138833619873664,4442,
GCF_025369755.1_ASM2536975v1,S91_LN_i_3994_dp_f_1.1103337155822328,3994,
GCF_025369755.1_ASM2536975v1,S99_LN_i_2912_dp_f_0.49074875710570265,2912,
GCF_025369755.1_ASM2536975v1,S109_LN_i_2373_dp_f_0.5216710540410967,2373,
GCF_025369755.1_ASM2536975v1,S114_LN_i_2097_dp_f_1.4742959273809042,2097,
GCF_025369755.1_ASM2536975v1,S125_LN_i_1610_dp_f_0.5091435049004543,1610,
GCF_025369755.1_ASM2536975v1,S133_LN_i_1294_dp_f_0.49771844822166456,1294,
GCF_020002335.2_ASM2000233v2,S50_LN_i_36981_dp_f_2.347058245545082,36981,
GCF_020002335.2_ASM2000233v2,S171_LN_i_1934_dp_f_2.1213490381308646,1934,
GCF_023205075.1_ASM2320507v1,S32_LN_i_19406_dp_f_10.183736648146382,19406,
GCF_020641365.2_ASM2064136v2,S19_LN_i_27660_dp_f_0.929687739582519,27660,
GCF_020641365.2_ASM2064136v2,S20_LN_i_19194_dp_f_1.0733060470010194,19194,
GCF_024918795.1_ASM2491879v1,S60_LN_i_1060_dp_f_18.19833706639477,1060,
GCF_021545335.1_ASM2154533v1,S2_LN_i_654289_dp_f_0.6811178128217955,654289,
GCF_021545335.1_ASM2154533v1,S7_LN_i_490489_dp_f_0.7993993096156105,490489,
GCF_021545335.1_ASM2154533v1,S10_LN_i_308638_dp_f_0.7521235508369875,308638,
GCF_021545335.1_ASM2154533v1,S12_LN_i_286604_dp_f_0.9320998145899925,286604,
GCF_021545335.1_ASM2154533v1,S20_LN_i_196428_dp_f_0.87073974493019,196428,
GCF_021545335.1_ASM2154533v1,S24_LN_i_165079_dp_f_0.895755806324669,165079,
GCF_021545335.1_ASM2154533v1,S28_LN_i_120365_dp_f_0.9796315668176461,120365,
GCF_021545335.1_ASM2154533v1,S33_LN_i_85409_dp_f_0.636921455152148,85409,
GCF_022343705.1_ASM2234370v1,S41_LN_i_2125_dp_f_13.682102848874612,2125,
GCF_025146135.1_ASM2514613v1,S8_LN_i_29919_dp_f_0.7703121383767584,29919,
GCF_025146135.1_ASM2514613v1,S9_LN_i_22717_dp_f_0.7269660404194968,22717,
GCF_022869765.1_ASM2286976v1,S20_LN_i_58060_dp_f_0.8124002589923376,58060,
GCF_022869765.1_ASM2286976v1,S21_LN_i_57624_dp_f_0.8096313618438689,57624,
GCF_022869765.1_ASM2286976v1,S23_LN_i_46995_dp_f_1.6243692919881016,46995,
GCF_022869765.1_ASM2286976v1,S27_LN_i_40949_dp_f_1.0164266014444412,40949,
GCF_022869765.1_ASM2286976v1,S31_LN_i_29185_dp_f_1.6202310020442585,29185,
GCF_022869765.1_ASM2286976v1,S35_LN_i_21110_dp_f_2.047761689418785,21110,
GCF_022869765.1_ASM2286976v1,S36_LN_i_17956_dp_f_4.047464788997194,17956,
GCF_022869765.1_ASM2286976v1,S37_LN_i_16093_dp_f_1.4964458331527355,16093,
GCF_022869765.1_ASM2286976v1,S39_LN_i_13433_dp_f_1.9884767270567445,13433,
GCF_022869765.1_ASM2286976v1,S41_LN_i_8958_dp_f_1.978016690036809,8958,
GCF_022869765.1_ASM2286976v1,S44_LN_i_5817_dp_f_1.5641784171666762,5817,
GCF_022869765.1_ASM2286976v1,S47_LN_i_5214_dp_f_3.860263636192258,5214,
GCF_022869765.1_ASM2286976v1,S50_LN_i_2378_dp_f_11.988366183351943,2378,
GCF_022869765.1_ASM2286976v1,S51_LN_i_2344_dp_f_6.239063807879259,2344,
GCF_022869765.1_ASM2286976v1,S52_LN_i_2236_dp_f_2.1056235317898135,2236,
GCF_022869765.1_ASM2286976v1,S53_LN_i_2035_dp_f_2.0377380354541685,2035,
GCF_022869765.1_ASM2286976v1,S54_LN_i_1961_dp_f_1.361478854749942,1961,
GCF_022869765.1_ASM2286976v1,S55_LN_i_1891_dp_f_2.154250490561509,1891,
GCF_022869765.1_ASM2286976v1,S56_LN_i_1490_dp_f_1.0614325742597852,1490,
GCF_022869765.1_ASM2286976v1,S58_LN_i_1474_dp_f_3.0342383909673982,1474,
GCF_022869765.1_ASM2286976v1,S59_LN_i_1374_dp_f_1.675828108527851,1374,
GCF_022869765.1_ASM2286976v1,S60_LN_i_1374_dp_f_2.5016089431711865,1374,
GCF_022869765.1_ASM2286976v1,S61_LN_i_1356_dp_f_2.014240752756136,1356,
GCF_022869765.1_ASM2286976v1,S64_LN_i_1169_dp_f_2.0966239378365827,1169,
GCF_022370635.1_ASM2237063v1,S48_LN_i_18460_dp_f_0.755426449416755,18460,
GCF_021899855.1_ASM2189985v1,S21_LN_i_5401_dp_f_9.520165756099741,5401,
GCF_021899855.1_ASM2189985v1,S29_LN_i_2141_dp_f_0.37461957764743536,2141,
GCF_021899855.1_ASM2189985v1,S33_LN_i_1725_dp_f_0.9680386189246839,1725,
GCF_023509295.1_ASM2350929v1,S7_LN_i_5386_dp_f_1.4131736169416105,5386,
GCF_023572865.1_ASM2357286v1,S15_LN_i_1686_dp_f_0.9676687456881375,1686,
GCF_023734115.1_ASM2373411v1,S17_LN_i_5386_dp_f_2.3057410223542805,5386,
GCF_022220405.1_ASM2222040v1,S70_LN_i_2495_dp_f_87.4606291545976,2495,
GCF_024722515.1_ASM2472251v1,S49_LN_i_1262_dp_f_0.9730880132179626,1262,
GCF_022819325.1_ASM2281932v1,S19_LN_i_5386_dp_f_0.9274724679698776,5386,
GCF_022349985.1_ASM2234998v1,S28_LN_i_2667_dp_f_1.1335307614000212,2667,
GCF_022430545.2_ASM2243054v2,S15_LN_i_153938_dp_f_0.9714157017465254,153938,
GCF_022430545.2_ASM2243054v2,S22_LN_i_82216_dp_f_0.7325612816383718,82216,
GCF_022430545.2_ASM2243054v2,S24_LN_i_71082_dp_f_0.7541221338238039,71082,
GCF_022430545.2_ASM2243054v2,S29_LN_i_24702_dp_f_1.359217020997846,24702,
GCF_022430545.2_ASM2243054v2,S30_LN_i_18450_dp_f_0.3887149070247925,18450,
GCF_022430545.2_ASM2243054v2,S31_LN_i_13579_dp_f_1.9146649222292933,13579,
GCF_022430545.2_ASM2243054v2,S34_LN_i_4121_dp_f_3.4022494897575384,4121,
GCF_022430545.2_ASM2243054v2,S36_LN_i_3819_dp_f_0.9881184986957471,3819,
GCF_022430545.2_ASM2243054v2,S37_LN_i_3200_dp_f_0.96107494110825,3200,
GCF_022374875.1_ASM2237487v1,S27_LN_i_27693_dp_f_2.3133523188532514,27693,
GCF_022374875.1_ASM2237487v1,S28_LN_i_25570_dp_f_2.5166208180526835,25570,
GCF_022374875.1_ASM2237487v1,S31_LN_i_8500_dp_f_2.3972998699054533,8500,
GCF_022374875.1_ASM2237487v1,S32_LN_i_8236_dp_f_2.2269867487398614,8236,
GCF_022374875.1_ASM2237487v1,S33_LN_i_7845_dp_f_2.4519926983855127,7845,
GCF_022374875.1_ASM2237487v1,S37_LN_i_4687_dp_f_2.4931789078030824,4687,
GCF_022374875.1_ASM2237487v1,S38_LN_i_4427_dp_f_2.4065254910501106,4427,
GCF_022374875.1_ASM2237487v1,S39_LN_i_3904_dp_f_2.3971611992615673,3904,
GCF_022374875.1_ASM2237487v1,S40_LN_i_3715_dp_f_2.4365220702745067,3715,
GCF_022374875.1_ASM2237487v1,S41_LN_i_3699_dp_f_2.5275838455721433,3699,
GCF_022374875.1_ASM2237487v1,S49_LN_i_1530_dp_f_2.424868148234976,1530,
GCF_022374875.1_ASM2237487v1,S50_LN_i_1491_dp_f_4.843886827175139,1491,
GCF_022374875.1_ASM2237487v1,S54_LN_i_1368_dp_f_2.2608073207265624,1368,
GCF_024086695.1_ASM2408669v1,S14_LN_i_149751_dp_f_1.2908078241801082,149751,
GCF_025145645.1_ASM2514564v1,S32_LN_i_1741_dp_f_2.3155952400362447,1741,
GCF_025149465.1_ASM2514946v1,S79_LN_i_2387_dp_f_0.45824469730057615,2387,
GCF_025149465.1_ASM2514946v1,S87_LN_i_1400_dp_f_1.1369245070810068,1400,
GCF_021513055.1_ASM2151305v1,S51_LN_i_2255_dp_f_760.7950470149282,2255,
GCF_025232235.1_ASM2523223v1,S24_LN_i_1597_dp_f_1.231638317497023,1597,
GCF_023547145.1_ASM2354714v1,S23_LN_i_5386_dp_f_18.54847814935591,5386,
GCF_000484505.2_ASM48450v2,S22_LN_i_5386_dp_f_3.357885507417824,5386,
GCF_023205955.1_ASM2320595v1,S14_LN_i_53522_dp_f_0.9062038227177003,53522,
GCF_023205955.1_ASM2320595v1,S16_LN_i_43361_dp_f_5.251573178325792,43361,
GCF_023205955.1_ASM2320595v1,S19_LN_i_29564_dp_f_0.9183732278158444,29564,
GCF_023205955.1_ASM2320595v1,S21_LN_i_13872_dp_f_0.9458526420488366,13872,
GCF_023205955.1_ASM2320595v1,S22_LN_i_13811_dp_f_0.9202999230421124,13811,
GCF_023205955.1_ASM2320595v1,S23_LN_i_12163_dp_f_0.921248307147141,12163,
GCF_023205955.1_ASM2320595v1,S24_LN_i_8980_dp_f_0.9172822909148023,8980,
GCF_023205955.1_ASM2320595v1,S26_LN_i_6978_dp_f_0.9417283675049473,6978,
GCF_023205955.1_ASM2320595v1,S28_LN_i_6233_dp_f_0.9064226616938836,6233,
GCF_023205955.1_ASM2320595v1,S29_LN_i_5330_dp_f_0.9054920197176314,5330,
GCF_023205955.1_ASM2320595v1,S30_LN_i_4949_dp_f_0.8722815230843067,4949,
GCF_023205955.1_ASM2320595v1,S31_LN_i_4715_dp_f_0.8798172621699677,4715,
GCF_023205955.1_ASM2320595v1,S32_LN_i_3394_dp_f_0.9275909616880265,3394,
GCF_023205955.1_ASM2320595v1,S34_LN_i_2823_dp_f_0.9234561143347688,2823,
GCF_023205955.1_ASM2320595v1,S35_LN_i_2749_dp_f_0.8512919950101216,2749,
GCF_023205955.1_ASM2320595v1,S36_LN_i_1797_dp_f_0.9815330937857598,1797,
GCF_023205955.1_ASM2320595v1,S37_LN_i_1678_dp_f_0.8394810281760281,1678,
GCF_023205955.1_ASM2320595v1,S39_LN_i_1446_dp_f_0.9775345472728613,1446,
GCF_023205955.1_ASM2320595v1,S41_LN_i_1142_dp_f_0.9140305943299434,1142,
GCF_023205955.1_ASM2320595v1,S42_LN_i_1029_dp_f_0.9123163799662387,1029,
GCF_021561035.1_ASM2156103v1,S29_LN_i_39720_dp_f_1.800241450608917,39720,
GCF_021561035.1_ASM2156103v1,S33_LN_i_30049_dp_f_2.887785235501917,30049,
GCF_021561035.1_ASM2156103v1,S50_LN_i_3325_dp_f_1.6749141005642616,3325,
GCF_021561035.1_ASM2156103v1,S54_LN_i_2434_dp_f_1.7984042731858514,2434,
GCF_021561035.1_ASM2156103v1,S56_LN_i_1535_dp_f_4.629367116211219,1535,
GCF_021561035.1_ASM2156103v1,S60_LN_i_1243_dp_f_3.2239992322255326,1243,
GCF_024053515.2_ASM2405351v2,S13_LN_i_5531_dp_f_5.7103266646923485,5531,
GCF_023169825.1_ASM2316982v1,S49_LN_i_8790_dp_f_1.3148296286414762,8790,
GCF_023169825.1_ASM2316982v1,S67_LN_i_1629_dp_f_1.4633475144808148,1629,
GCF_023651955.1_ASM2365195v1,S39_LN_i_8226_dp_f_0.9097168368579811,8226,
GCF_025146415.1_ASM2514641v1,S65_LN_i_2218_dp_f_0.5250585847615826,2218,
GCF_022845695.1_ASM2284569v1,S14_LN_i_1521_dp_f_0.8339403466149147,1521,
GCF_024741855.1_ASM2474185v1,S16_LN_i_1990_dp_f_0.03816247593470101,1990,
GCF_025232205.1_ASM2523220v1,S15_LN_i_2347_dp_f_1.6720617242154732,2347,
GCF_023509255.1_ASM2350925v1,S19_LN_i_5386_dp_f_0.8261477453336,5386,
GCF_025232535.1_ASM2523253v1,S14_LN_i_2347_dp_f_2.5938692099237945,2347,
GCF_023008225.1_ASM2300822v1,S50_LN_i_1667_dp_f_5.58496311563384,1667,
GCF_025147485.1_ASM2514748v1,S31_LN_i_45427_dp_f_1.20217483849023,45427,
GCF_025147485.1_ASM2514748v1,S54_LN_i_6023_dp_f_1.228493909400467,6023,
GCF_025147485.1_ASM2514748v1,S57_LN_i_4996_dp_f_1.3041196552225074,4996,
GCF_025147485.1_ASM2514748v1,S66_LN_i_1203_dp_f_1.1028603562444907,1203,
GCF_022921695.1_ASM2292169v1,S24_LN_i_5044_dp_f_0.45888313423096316,5044,
GCF_021729985.1_ASM2172998v1,S33_LN_i_44765_dp_f_3.5611348295436733,44765,
GCF_023509275.1_ASM2350927v1,S11_LN_i_5386_dp_f_1.5518574604170703,5386,
GCF_023757925.1_ASM2375792v1,S1_LN_i_1151642_dp_f_0.9849190324093174,1151642,
GCF_023757925.1_ASM2375792v1,S2_LN_i_847009_dp_f_1.0,847009,
GCF_023757925.1_ASM2375792v1,S3_LN_i_483359_dp_f_1.074374550947133,483359,
GCF_023757925.1_ASM2375792v1,S4_LN_i_409747_dp_f_1.0589151947600601,409747,
GCF_023757925.1_ASM2375792v1,S5_LN_i_267822_dp_f_1.0341860635038873,267822,
GCF_023757925.1_ASM2375792v1,S6_LN_i_208024_dp_f_1.0267442062752012,208024,
GCF_023757925.1_ASM2375792v1,S7_LN_i_167165_dp_f_1.0891262690259622,167165,
GCF_023757925.1_ASM2375792v1,S8_LN_i_88806_dp_f_1.0899950554893707,88806,
GCF_023757925.1_ASM2375792v1,S9_LN_i_55695_dp_f_0.9651439821926335,55695,
GCF_023757925.1_ASM2375792v1,S10_LN_i_51093_dp_f_1.0845448794727404,51093,
GCF_023757925.1_ASM2375792v1,S11_LN_i_42168_dp_f_0.970704699600573,42168,
GCF_023757925.1_ASM2375792v1,S13_LN_i_29303_dp_f_1.0534712421421648,29303,
GCF_023757925.1_ASM2375792v1,S17_LN_i_1361_dp_f_0.9913383504469792,1361,
GCF_020641095.2_ASM2064109v2,S14_LN_i_48377_dp_f_0.5792608678032091,48377,
GCF_025252385.1_ASM2525238v1,S68_LN_i_8331_dp_f_6.846615682779592,8331,
GCF_025252385.1_ASM2525238v1,S73_LN_i_6225_dp_f_5.174347985466555,6225,
GCF_025252385.1_ASM2525238v1,S90_LN_i_3156_dp_f_13.494178355949972,3156,
GCF_025252385.1_ASM2525238v1,S97_LN_i_2483_dp_f_4.859991524167233,2483,
GCF_024126335.1_ASM2412633v1,S40_LN_i_5386_dp_f_0.4075634824919104,5386,
GCF_023920105.1_ASM2392010v1,S22_LN_i_8780_dp_f_41.95875506166345,8780,
GCF_024758665.1_ASM2475866v1,S18_LN_i_8088_dp_f_0.8984892686662422,8088,
GCF_024758665.1_ASM2475866v1,S21_LN_i_1942_dp_f_7.713654955567664,1942,
GCF_015265495.1_ASM1526549v2,S76_LN_i_1070_dp_f_0.7218548066392012,1070,
GCF_025232315.1_ASM2523231v1,S17_LN_i_1275_dp_f_4.037762093951859,1275,
GCF_023823085.1_ASM2382308v1,S22_LN_i_6162_dp_f_220.01108058103506,6162,
GCF_023823085.1_ASM2382308v1,S24_LN_i_4958_dp_f_0.4886401112987172,4958,
GCF_023823085.1_ASM2382308v1,S25_LN_i_4195_dp_f_0.37765335007549783,4195,
GCF_023823085.1_ASM2382308v1,S27_LN_i_3829_dp_f_0.6916667372464119,3829,
GCF_023823085.1_ASM2382308v1,S28_LN_i_3502_dp_f_0.5378310814670052,3502,
GCF_023823085.1_ASM2382308v1,S29_LN_i_3419_dp_f_3.491007921462096,3419,
GCF_932530395.1_mada_104,S86_LN_i_1231_dp_f_0.6071656155430836,1231,
GCF_024206775.1_ASM2420677v1,S21_LN_i_11368_dp_f_1.115465217859845,11368,
GCF_021496345.1_ASM2149634v1,S28_LN_i_14806_dp_f_5.536815102682604,14806,
GCF_021496345.1_ASM2149634v1,S31_LN_i_9141_dp_f_3.5936072974621345,9141,
GCF_022846195.1_ASM2284619v1,S54_LN_i_5386_dp_f_14.353214896652867,5386,
GCF_023573005.1_ASM2357300v1,S70_LN_i_2188_dp_f_1.0559353230589001,2188,
GCF_024297125.1_ASM2429712v1,S4_LN_i_369731_dp_f_0.7880946117709077,369731,
GCF_024297125.1_ASM2429712v1,S7_LN_i_292414_dp_f_0.7941380650564192,292414,
GCF_024297125.1_ASM2429712v1,S19_LN_i_156333_dp_f_0.8154133685606524,156333,
GCF_024297125.1_ASM2429712v1,S21_LN_i_122082_dp_f_0.8528691337251533,122082,
GCF_024297125.1_ASM2429712v1,S26_LN_i_85246_dp_f_0.941239177941948,85246,
GCF_024297125.1_ASM2429712v1,S29_LN_i_64673_dp_f_1.0120898217680918,64673,
GCF_024297125.1_ASM2429712v1,S31_LN_i_48835_dp_f_0.8582907802504353,48835,
GCF_024297125.1_ASM2429712v1,S32_LN_i_46271_dp_f_0.9198972905310149,46271,
GCF_024297125.1_ASM2429712v1,S33_LN_i_43863_dp_f_1.01327553514172,43863,
GCF_024297125.1_ASM2429712v1,S34_LN_i_41562_dp_f_0.9474405103114015,41562,
GCF_024297125.1_ASM2429712v1,S36_LN_i_33163_dp_f_1.104758401242074,33163,
GCF_024297125.1_ASM2429712v1,S37_LN_i_31251_dp_f_0.9630042737580125,31251,
GCF_024297125.1_ASM2429712v1,S38_LN_i_27788_dp_f_0.8413416472769482,27788,
GCF_024297125.1_ASM2429712v1,S40_LN_i_19362_dp_f_0.8612718377396944,19362,
GCF_024297125.1_ASM2429712v1,S41_LN_i_12412_dp_f_0.9932537567578291,12412,
GCF_024297125.1_ASM2429712v1,S42_LN_i_8120_dp_f_1.0103443495126,8120,
GCF_024297125.1_ASM2429712v1,S43_LN_i_8029_dp_f_0.7920532657770366,8029,
GCF_024297125.1_ASM2429712v1,S44_LN_i_6680_dp_f_0.36818038517365237,6680,
GCF_024297125.1_ASM2429712v1,S45_LN_i_6491_dp_f_0.8708578190496343,6491,
GCF_024297125.1_ASM2429712v1,S46_LN_i_3361_dp_f_0.5779682753430864,3361,
GCF_024297125.1_ASM2429712v1,S48_LN_i_3057_dp_f_0.2770019445952135,3057,
GCF_024297125.1_ASM2429712v1,S49_LN_i_2719_dp_f_0.44129021253064615,2719,
GCF_024297125.1_ASM2429712v1,S50_LN_i_2715_dp_f_0.31903880826963993,2715,
GCF_024297125.1_ASM2429712v1,S51_LN_i_2546_dp_f_0.8474823194766264,2546,
GCF_024297125.1_ASM2429712v1,S52_LN_i_2188_dp_f_0.9718768799793978,2188,
GCF_024297125.1_ASM2429712v1,S53_LN_i_2057_dp_f_0.38691310675696045,2057,
GCF_024297125.1_ASM2429712v1,S54_LN_i_1877_dp_f_0.34383069862726456,1877,
GCF_024297125.1_ASM2429712v1,S55_LN_i_1851_dp_f_1.7672109710509973,1851,
GCF_024297125.1_ASM2429712v1,S56_LN_i_1833_dp_f_1.2242825958197079,1833,
GCF_024297125.1_ASM2429712v1,S57_LN_i_1833_dp_f_1.0867386648982345,1833,
GCF_024297125.1_ASM2429712v1,S58_LN_i_1794_dp_f_0.4459902745967746,1794,
GCF_024297125.1_ASM2429712v1,S59_LN_i_1699_dp_f_0.27711939847658534,1699,
GCF_024297125.1_ASM2429712v1,S61_LN_i_1444_dp_f_0.9410235070089417,1444,
GCF_024297125.1_ASM2429712v1,S62_LN_i_1444_dp_f_1.0267744883061265,1444,
GCF_024297125.1_ASM2429712v1,S63_LN_i_1386_dp_f_2.885297285702999,1386,
GCF_024297125.1_ASM2429712v1,S64_LN_i_1364_dp_f_0.7248086134422411,1364,
GCF_024297125.1_ASM2429712v1,S65_LN_i_1359_dp_f_0.5217956841330543,1359,
GCF_024297125.1_ASM2429712v1,S66_LN_i_1227_dp_f_0.48940886493478275,1227,
GCF_024297125.1_ASM2429712v1,S67_LN_i_1192_dp_f_0.4037027648517784,1192,
GCF_024297125.1_ASM2429712v1,S68_LN_i_1157_dp_f_1.5632203889701521,1157,
GCF_024297125.1_ASM2429712v1,S69_LN_i_1140_dp_f_0.5639074968737741,1140,
GCF_024297125.1_ASM2429712v1,S70_LN_i_1035_dp_f_0.5960040396332156,1035,
GCF_024297125.1_ASM2429712v1,S71_LN_i_1022_dp_f_0.9959840401071058,1022,
GCF_024297125.1_ASM2429712v1,S72_LN_i_1019_dp_f_0.38737819794411293,1019,
GCF_021733585.2_ASM2173358v3,S1_LN_i_156434_dp_f_1.0384943092381964,156434,
GCF_021733585.2_ASM2173358v3,S45_LN_i_45030_dp_f_0.8467102989358029,45030,
GCF_021733585.2_ASM2173358v3,S48_LN_i_41578_dp_f_2.107980655682903,41578,
GCF_021733585.2_ASM2173358v3,S98_LN_i_6439_dp_f_1.0410558654806252,6439,
GCF_021733585.2_ASM2173358v3,S108_LN_i_2004_dp_f_1.6580274854305355,2004,
GCF_021869705.1_ASM2186970v1,S13_LN_i_100894_dp_f_0.0942303930833787,100894,
GCF_021869705.1_ASM2186970v1,S15_LN_i_83756_dp_f_0.09730019590585996,83756,
GCF_021869705.1_ASM2186970v1,S17_LN_i_78303_dp_f_0.0776554886529439,78303,
GCF_021869705.1_ASM2186970v1,S18_LN_i_56275_dp_f_0.09524852431101623,56275,
GCF_021869705.1_ASM2186970v1,S21_LN_i_46676_dp_f_0.09152531301741432,46676,
GCF_021869705.1_ASM2186970v1,S24_LN_i_36495_dp_f_0.09400152070618877,36495,
GCF_021869705.1_ASM2186970v1,S25_LN_i_35579_dp_f_0.09390751142000621,35579,
GCF_021869705.1_ASM2186970v1,S27_LN_i_33015_dp_f_0.10843421194854712,33015,
GCF_021869705.1_ASM2186970v1,S28_LN_i_30295_dp_f_0.09734842164667408,30295,
GCF_021869705.1_ASM2186970v1,S30_LN_i_22790_dp_f_0.0949543068696693,22790,
GCF_021869705.1_ASM2186970v1,S32_LN_i_17457_dp_f_0.07602122784347558,17457,
GCF_000364165.2_ASM36416v2,S59_LN_i_1030_dp_f_0.9443636842013855,1030,
GCF_024804185.1_ASM2480418v1,S23_LN_i_15072_dp_f_0.4580803605068996,15072,
GCF_024804185.1_ASM2480418v1,S44_LN_i_2142_dp_f_0.28373288280585607,2142,
GCF_022318445.1_ASM2231844v1,S10_LN_i_81989_dp_f_0.7281053505548429,81989,
GCF_022318445.1_ASM2231844v1,S25_LN_i_10668_dp_f_1.0851757982124883,10668,
GCF_022318445.1_ASM2231844v1,S30_LN_i_1232_dp_f_5.173311442200046,1232,
GCF_022845635.1_ASM2284563v1,S17_LN_i_2142_dp_f_0.8696656972181562,2142,
GCF_024137845.1_ASM2413784v1,S12_LN_i_7327_dp_f_4.956241180973761,7327,
GCF_023517795.1_ASM2351779v1,S19_LN_i_39542_dp_f_81.5986154350266,39542,
GCF_022318485.1_ASM2231848v1,S17_LN_i_40685_dp_f_1.1377597100611672,40685,
GCF_023509315.1_ASM2350931v1,S24_LN_i_5386_dp_f_1.9385898246688062,5386,
GCF_024158965.2_ASM2415896v2,S70_LN_i_9157_dp_f_1.3762810619854606,9157,
GCF_024158965.2_ASM2415896v2,S73_LN_i_7947_dp_f_1.4667229421046646,7947,
GCF_024158965.2_ASM2415896v2,S93_LN_i_4178_dp_f_1.4350951792233106,4178,
GCF_024158965.2_ASM2415896v2,S97_LN_i_3468_dp_f_1.1020980177130137,3468,
GCF_024158965.2_ASM2415896v2,S102_LN_i_3107_dp_f_1.272517078078254,3107,
GCF_024158965.2_ASM2415896v2,S110_LN_i_2342_dp_f_1.357028904213388,2342,
GCF_024158965.2_ASM2415896v2,S126_LN_i_1250_dp_f_1.3894213104774646,1250,
GCF_025151535.1_ASM2515153v1,S18_LN_i_62441_dp_f_1.463743362106065,62441,
GCF_025151535.1_ASM2515153v1,S24_LN_i_44346_dp_f_1.1769078431698505,44346,
GCF_025151535.1_ASM2515153v1,S34_LN_i_29410_dp_f_0.9984932720998917,29410,
GCF_025151535.1_ASM2515153v1,S42_LN_i_17114_dp_f_1.3278246175928923,17114,
GCF_025151535.1_ASM2515153v1,S46_LN_i_13486_dp_f_0.8929841122833059,13486,
GCF_025151535.1_ASM2515153v1,S51_LN_i_11799_dp_f_1.229273038043985,11799,
GCF_025151535.1_ASM2515153v1,S57_LN_i_8270_dp_f_1.0255991450572846,8270,
GCF_025151535.1_ASM2515153v1,S58_LN_i_6784_dp_f_1.2658955721990293,6784,
GCF_025151535.1_ASM2515153v1,S63_LN_i_5322_dp_f_0.9366598601232109,5322,
GCF_025151535.1_ASM2515153v1,S81_LN_i_1699_dp_f_0.8847468192244871,1699,
