GCF_906464835.1_TM6294,.,NZ_OD940431.1,S1_LN_i_905823_dp_f_1.0,905823,1.0
GCF_906464835.1_TM6294,.,NZ_OD940431.1,S2_LN_i_488503_dp_f_0.8760840593979646,488503,1.0
GCF_906464835.1_TM6294,.,NZ_OD940431.1,S3_LN_i_265150_dp_f_1.5789532263305641,265150,1.0
GCF_906464835.1_TM6294,.,NZ_OD940431.1,S4_LN_i_230280_dp_f_1.139824688995258,230280,1.0
GCF_906464835.1_TM6294,.,NZ_OD940431.1,S5_LN_i_185906_dp_f_1.2310803492445237,185906,1.0
GCF_906464835.1_TM6294,.,NZ_OD940431.1,S6_LN_i_164744_dp_f_1.4609146884483073,164744,1.0
GCF_906464835.1_TM6294,.,NZ_OD940431.1,S7_LN_i_160628_dp_f_1.2984835587090489,160628,1.0
GCF_906464835.1_TM6294,.,NZ_OD940431.1,S8_LN_i_155897_dp_f_1.408009605572136,155897,1.0
GCF_906464835.1_TM6294,.,NZ_OD940431.1,S9_LN_i_61574_dp_f_1.3560494312109312,61574,1.0
GCF_906464835.1_TM6294,.,NZ_OD940431.1,S10_LN_i_53007_dp_f_1.3211745836194693,53007,1.0
GCF_906464835.1_TM6294,.,NZ_OD940431.1,S11_LN_i_50825_dp_f_1.1666795337694442,50825,1.0
GCF_906464835.1_TM6294,.,NZ_OD940432.1,S12_LN_i_50157_dp_f_1.373712125045581,50157,1.0
GCF_906464835.1_TM6294,.,NZ_OD940431.1,S13_LN_i_16137_dp_f_0.760764419982169,16137,1.0
GCF_906464835.1_TM6294,.,NZ_OD940433.1,S14_LN_i_16090_dp_f_0.9460638296782145,16090,1.0
GCF_906464835.1_TM6294,.,NZ_OD940433.1,S15_LN_i_15475_dp_f_1.1598793224648476,15475,1.0
GCF_906464835.1_TM6294,.,NZ_OD940432.1,S16_LN_i_14853_dp_f_1.3742197548690516,14853,1.0
GCF_906464835.1_TM6294,.,NZ_OD940431.1,S17_LN_i_9002_dp_f_2.910551248060695,9002,1.0
GCF_906464835.1_TM6294,.,NZ_OD940433.1,S17_LN_i_9002_dp_f_2.910551248060695,9002,1.0
GCF_906464835.1_TM6294,.,NZ_OD940432.1,S18_LN_i_4347_dp_f_1.401568041878913,4347,1.0
GCF_906464835.1_TM6294,.,NZ_OD940431.1,S19_LN_i_4270_dp_f_1.370774964979723,4270,1.0
GCF_906464835.1_TM6294,.,NZ_OD940431.1,S20_LN_i_3983_dp_f_1.499955317666544,3983,1.0
GCF_906464835.1_TM6294,.,NZ_OD940431.1,S21_LN_i_3283_dp_f_6.850689682447743,3283,1.0
GCF_906464835.1_TM6294,.,NZ_OD940431.1,S21_LN_i_3283_dp_f_6.850689682447743,3283,1.0
GCF_906464835.1_TM6294,.,NZ_OD940431.1,S21_LN_i_3283_dp_f_6.850689682447743,3283,1.0
GCF_906464835.1_TM6294,.,NZ_OD940431.1,S21_LN_i_3283_dp_f_6.850689682447743,3283,1.0
GCF_906464835.1_TM6294,.,NZ_OD940431.1,S22_LN_i_3091_dp_f_1.6624438844321772,3091,1.0
GCF_906464835.1_TM6294,.,NZ_OD940433.1,S23_LN_i_3091_dp_f_1.220733938332731,3091,1.0
GCF_906464835.1_TM6294,.,NZ_OD940433.1,S24_LN_i_2926_dp_f_2.5970279726326457,2926,1.0
GCF_906464835.1_TM6294,.,NZ_OD940431.1,S24_LN_i_2926_dp_f_2.5970279726326457,2926,1.0
GCF_906464835.1_TM6294,.,NZ_OD940431.1,S25_LN_i_2361_dp_f_2.18766747722859,2361,1.0
GCF_906464835.1_TM6294,.,NZ_OD940433.1,S25_LN_i_2361_dp_f_2.18766747722859,2361,1.0
GCF_906464835.1_TM6294,.,NZ_OD940431.1,S26_LN_i_2009_dp_f_0.9821214485519142,2009,1.0
GCF_906464835.1_TM6294,.,NZ_OD940431.1,S27_LN_i_1831_dp_f_6.63002169968656,1831,1.0
GCF_906464835.1_TM6294,.,NZ_OD940431.1,S27_LN_i_1831_dp_f_6.63002169968656,1831,1.0
GCF_906464835.1_TM6294,.,NZ_OD940431.1,S27_LN_i_1831_dp_f_6.63002169968656,1831,1.0
GCF_906464835.1_TM6294,.,NZ_OD940431.1,S27_LN_i_1831_dp_f_6.63002169968656,1831,1.0
GCF_906464835.1_TM6294,.,NZ_OD940431.1,S28_LN_i_1730_dp_f_0.8144555241457104,1730,1.0
GCF_906464835.1_TM6294,.,NZ_OD940431.1,S29_LN_i_1350_dp_f_3.861523828627728,1350,1.0
GCF_906464835.1_TM6294,.,NZ_OD940431.1,S29_LN_i_1350_dp_f_3.861523828627728,1350,1.0
GCF_906464835.1_TM6294,.,NZ_OD940431.1,S29_LN_i_1350_dp_f_3.861523828627728,1350,1.0
GCF_906464835.1_TM6294,.,NZ_OD940432.1,S30_LN_i_1181_dp_f_2.9519484000901004,1181,1.0
GCF_906464835.1_TM6294,.,NZ_OD940432.1,S30_LN_i_1181_dp_f_2.9519484000901004,1181,1.0
GCF_906464835.1_TM6294,.,NZ_OD940432.1,S30_LN_i_1181_dp_f_2.9519484000901004,1181,1.0
GCF_022648425.1_ASM2264842v1,.,NZ_CP076493.1,S1_LN_i_316105_dp_f_0.9092387317128994,316105,1.0
GCF_022648425.1_ASM2264842v1,.,NZ_CP076493.1,S2_LN_i_200587_dp_f_1.0513454881571374,200587,1.0
GCF_022648425.1_ASM2264842v1,.,NZ_CP076493.1,S3_LN_i_191050_dp_f_1.0335780836587671,191050,1.0
GCF_022648425.1_ASM2264842v1,.,NZ_CP076493.1,S4_LN_i_190156_dp_f_1.0,190156,1.0
GCF_022648425.1_ASM2264842v1,.,NZ_CP076493.1,S5_LN_i_188829_dp_f_1.0154615627515087,188829,1.0
GCF_022648425.1_ASM2264842v1,.,NZ_CP076493.1,S6_LN_i_181955_dp_f_0.9521163465624944,181955,1.0
GCF_022648425.1_ASM2264842v1,.,NZ_CP076493.1,S7_LN_i_159891_dp_f_1.0218001877737055,159891,1.0
GCF_022648425.1_ASM2264842v1,.,NZ_CP076493.1,S8_LN_i_143356_dp_f_0.9667303499149049,143356,1.0
GCF_022648425.1_ASM2264842v1,.,NZ_CP076493.1,S9_LN_i_131875_dp_f_0.9540778628644889,131875,1.0
GCF_022648425.1_ASM2264842v1,.,NZ_CP076493.1,S10_LN_i_105182_dp_f_0.990510960839975,105182,1.0
GCF_022648425.1_ASM2264842v1,.,NZ_CP076493.1,S11_LN_i_99800_dp_f_0.9664447017452512,99800,1.0
GCF_022648425.1_ASM2264842v1,.,NZ_CP076493.1,S12_LN_i_97941_dp_f_1.030409330458492,97941,1.0
GCF_022648425.1_ASM2264842v1,.,NZ_CP076493.1,S13_LN_i_97116_dp_f_1.005411402944696,97116,1.0
GCF_022648425.1_ASM2264842v1,.,NZ_CP076493.1,S14_LN_i_96741_dp_f_0.934548279347085,96741,1.0
GCF_022648425.1_ASM2264842v1,.,NZ_CP076493.1,S15_LN_i_73841_dp_f_0.9935553891385192,73841,1.0
GCF_022648425.1_ASM2264842v1,.,NZ_CP076493.1,S16_LN_i_73030_dp_f_1.0266857521289545,73030,1.0
GCF_022648425.1_ASM2264842v1,.,NZ_CP076493.1,S17_LN_i_68051_dp_f_1.0511630960537954,68051,1.0
GCF_022648425.1_ASM2264842v1,.,NZ_CP076493.1,S18_LN_i_60165_dp_f_1.000818341712346,60165,1.0
GCF_022648425.1_ASM2264842v1,.,NZ_CP076493.1,S19_LN_i_56975_dp_f_0.9749205508887571,56975,1.0
GCF_022648425.1_ASM2264842v1,.,NZ_CP076493.1,S20_LN_i_51875_dp_f_1.0247191854766093,51875,1.0
GCF_022648425.1_ASM2264842v1,.,NZ_CP076493.1,S21_LN_i_48769_dp_f_1.0262875424332785,48769,1.0
GCF_022648425.1_ASM2264842v1,.,NZ_CP076493.1,S22_LN_i_37917_dp_f_0.9095742053939488,37917,1.0
GCF_022648425.1_ASM2264842v1,.,NZ_CP076495.1,S23_LN_i_37750_dp_f_1.4852839999088272,37750,1.0
GCF_022648425.1_ASM2264842v1,.,NZ_CP076496.1,S24_LN_i_32753_dp_f_1.364648755005677,32753,0.99
GCF_022648425.1_ASM2264842v1,.,NZ_CP076493.1,S25_LN_i_30032_dp_f_0.9857364194275186,30032,1.0
GCF_022648425.1_ASM2264842v1,.,NZ_CP076493.1,S26_LN_i_28234_dp_f_0.9597823393018364,28234,1.0
GCF_022648425.1_ASM2264842v1,.,NZ_CP076494.1,S27_LN_i_27144_dp_f_1.4130699012645018,27144,1.0
GCF_022648425.1_ASM2264842v1,.,NZ_CP076493.1,S28_LN_i_20171_dp_f_1.0146323171068954,20171,1.0
GCF_022648425.1_ASM2264842v1,.,NZ_CP076494.1,S29_LN_i_19448_dp_f_1.6323593965235386,19448,1.0
GCF_022648425.1_ASM2264842v1,.,NZ_CP076493.1,S30_LN_i_19263_dp_f_1.0079448204478494,19263,1.0
GCF_022648425.1_ASM2264842v1,.,NZ_CP076493.1,S31_LN_i_18999_dp_f_0.9650503408935963,18999,1.0
GCF_022648425.1_ASM2264842v1,.,NZ_CP076493.1,S32_LN_i_18034_dp_f_2.148153714774959,18034,1.0
GCF_022648425.1_ASM2264842v1,.,NZ_CP076493.1,S32_LN_i_18034_dp_f_2.148153714774959,18034,0.99
GCF_022648425.1_ASM2264842v1,.,NZ_CP076493.1,S33_LN_i_17022_dp_f_0.9978698382096656,17022,1.0
GCF_022648425.1_ASM2264842v1,.,NZ_CP076493.1,S34_LN_i_16964_dp_f_1.0124172560172495,16964,1.0
GCF_022648425.1_ASM2264842v1,.,NZ_CP076495.1,S35_LN_i_14390_dp_f_1.4787642097431093,14390,1.0
GCF_022648425.1_ASM2264842v1,.,NZ_CP076493.1,S36_LN_i_13215_dp_f_0.9654688627280188,13215,1.0
GCF_022648425.1_ASM2264842v1,.,NZ_CP076493.1,S37_LN_i_13120_dp_f_0.9534214636321273,13120,1.0
GCF_022648425.1_ASM2264842v1,.,NZ_CP076494.1,S38_LN_i_12935_dp_f_1.417018153058751,12935,1.0
GCF_022648425.1_ASM2264842v1,.,NZ_CP076493.1,S39_LN_i_12441_dp_f_0.8654335392370891,12441,1.0
GCF_022648425.1_ASM2264842v1,.,NZ_CP076494.1,S40_LN_i_10931_dp_f_1.3992909961486595,10931,1.0
GCF_022648425.1_ASM2264842v1,.,NZ_CP076494.1,S41_LN_i_10342_dp_f_1.6846684114293748,10342,1.0
GCF_022648425.1_ASM2264842v1,.,NZ_CP076493.1,S42_LN_i_9961_dp_f_0.9028007819090499,9961,1.0
GCF_022648425.1_ASM2264842v1,.,NZ_CP076497.1,S43_LN_i_6853_dp_f_1.7949329250262298,6853,1.0
GCF_022648425.1_ASM2264842v1,.,NZ_CP076493.1,S44_LN_i_5681_dp_f_0.9571311438547457,5681,1.0
GCF_022648425.1_ASM2264842v1,.,NZ_CP076497.1,S45_LN_i_5433_dp_f_1.7636461815151256,5433,1.0
GCF_022648425.1_ASM2264842v1,.,NZ_CP076494.1,S46_LN_i_5032_dp_f_1.4760228855495727,5032,1.0
GCF_022648425.1_ASM2264842v1,.,NZ_CP076493.1,S47_LN_i_4877_dp_f_1.0541710176918075,4877,1.0
GCF_022648425.1_ASM2264842v1,.,NZ_CP076494.1,S48_LN_i_4873_dp_f_1.6918615306729883,4873,1.0
GCF_022648425.1_ASM2264842v1,.,NZ_CP076493.1,S49_LN_i_4821_dp_f_1.052961518895148,4821,1.0
GCF_022648425.1_ASM2264842v1,.,NZ_CP076493.1,S50_LN_i_4666_dp_f_2.061764165536041,4666,1.0
GCF_022648425.1_ASM2264842v1,.,NZ_CP076493.1,S50_LN_i_4666_dp_f_2.061764165536041,4666,1.0
GCF_022648425.1_ASM2264842v1,.,NZ_CP076497.1,S51_LN_i_4414_dp_f_1.7192617568014967,4414,1.0
GCF_022648425.1_ASM2264842v1,.,NZ_CP076494.1,S52_LN_i_4395_dp_f_1.5560928432934709,4395,0.99
GCF_022648425.1_ASM2264842v1,.,NZ_CP076493.1,S53_LN_i_4193_dp_f_0.9458577052608806,4193,1.0
GCF_022648425.1_ASM2264842v1,.,NZ_CP076497.1,S54_LN_i_4147_dp_f_1.6718203985884428,4147,1.0
GCF_022648425.1_ASM2264842v1,.,NZ_CP076494.1,S55_LN_i_3945_dp_f_3.3934258900440923,3945,1.0
GCF_022648425.1_ASM2264842v1,.,NZ_CP076497.1,S55_LN_i_3945_dp_f_3.3934258900440923,3945,1.0
GCF_022648425.1_ASM2264842v1,.,NZ_CP076493.1,S56_LN_i_3445_dp_f_0.9116974584989119,3445,1.0
GCF_022648425.1_ASM2264842v1,.,NZ_CP076493.1,S57_LN_i_3283_dp_f_4.361565232229471,3283,1.0
GCF_022648425.1_ASM2264842v1,.,NZ_CP076493.1,S57_LN_i_3283_dp_f_4.361565232229471,3283,1.0
GCF_022648425.1_ASM2264842v1,.,NZ_CP076493.1,S57_LN_i_3283_dp_f_4.361565232229471,3283,1.0
GCF_022648425.1_ASM2264842v1,.,NZ_CP076493.1,S57_LN_i_3283_dp_f_4.361565232229471,3283,1.0
GCF_022648425.1_ASM2264842v1,.,NZ_CP076493.1,S58_LN_i_2929_dp_f_1.9173143305610472,2929,1.0
GCF_022648425.1_ASM2264842v1,.,NZ_CP076493.1,S58_LN_i_2929_dp_f_1.9173143305610472,2929,1.0
GCF_022648425.1_ASM2264842v1,.,NZ_CP076497.1,S59_LN_i_2864_dp_f_1.74464236203432,2864,1.0
GCF_022648425.1_ASM2264842v1,.,NZ_CP076493.1,S60_LN_i_2824_dp_f_2.137868744213077,2824,1.0
GCF_022648425.1_ASM2264842v1,.,NZ_CP076493.1,S60_LN_i_2824_dp_f_2.137868744213077,2824,1.0
GCF_022648425.1_ASM2264842v1,.,NZ_CP076496.1,S61_LN_i_2324_dp_f_2.524926626522801,2324,1.0
GCF_022648425.1_ASM2264842v1,.,NZ_CP076493.1,S61_LN_i_2324_dp_f_2.524926626522801,2324,1.0
GCF_022648425.1_ASM2264842v1,.,NZ_CP076496.1,S62_LN_i_2316_dp_f_2.2580193952502126,2316,1.0
GCF_022648425.1_ASM2264842v1,.,NZ_CP076493.1,S62_LN_i_2316_dp_f_2.2580193952502126,2316,1.0
GCF_022648425.1_ASM2264842v1,.,NZ_CP076494.1,S63_LN_i_2045_dp_f_1.3321107045545193,2045,1.0
GCF_022648425.1_ASM2264842v1,.,NZ_CP076494.1,S64_LN_i_2034_dp_f_3.2080095741466526,2034,1.0
GCF_022648425.1_ASM2264842v1,.,NZ_CP076494.1,S64_LN_i_2034_dp_f_3.2080095741466526,2034,1.0
GCF_022648425.1_ASM2264842v1,.,NZ_CP076493.1,S65_LN_i_1868_dp_f_0.9625985476843096,1868,1.0
GCF_022648425.1_ASM2264842v1,.,NZ_CP076493.1,S66_LN_i_1830_dp_f_2.130954482450934,1830,1.0
GCF_022648425.1_ASM2264842v1,.,NZ_CP076493.1,S66_LN_i_1830_dp_f_2.130954482450934,1830,1.0
GCF_022648425.1_ASM2264842v1,.,NZ_CP076493.1,S67_LN_i_1738_dp_f_4.470979580194723,1738,1.0
GCF_022648425.1_ASM2264842v1,.,NZ_CP076493.1,S67_LN_i_1738_dp_f_4.470979580194723,1738,1.0
GCF_022648425.1_ASM2264842v1,.,NZ_CP076493.1,S67_LN_i_1738_dp_f_4.470979580194723,1738,1.0
GCF_022648425.1_ASM2264842v1,.,NZ_CP076493.1,S67_LN_i_1738_dp_f_4.470979580194723,1738,1.0
GCF_022648425.1_ASM2264842v1,.,NZ_CP076496.1,S68_LN_i_1715_dp_f_2.355192420645522,1715,1.0
GCF_022648425.1_ASM2264842v1,.,NZ_CP076493.1,S69_LN_i_1396_dp_f_2.2269909893790825,1396,1.0
GCF_022648425.1_ASM2264842v1,.,NZ_CP076493.1,S69_LN_i_1396_dp_f_2.2269909893790825,1396,1.0
GCF_022648425.1_ASM2264842v1,.,NZ_CP076496.1,S70_LN_i_1349_dp_f_2.6177463871986864,1349,1.0
GCF_022648425.1_ASM2264842v1,.,NZ_CP076493.1,S70_LN_i_1349_dp_f_2.6177463871986864,1349,1.0
GCF_022648425.1_ASM2264842v1,.,NZ_CP076494.1,S71_LN_i_1301_dp_f_2.6169654002595317,1301,1.0
GCF_022648425.1_ASM2264842v1,.,NZ_CP076493.1,S71_LN_i_1301_dp_f_2.6169654002595317,1301,1.0
GCF_022648425.1_ASM2264842v1,.,NZ_CP076493.1,S72_LN_i_1271_dp_f_1.045797661118362,1271,1.0
GCF_022648425.1_ASM2264842v1,.,NZ_CP076496.1,S73_LN_i_1271_dp_f_1.417837075751687,1271,1.0
GCF_022648425.1_ASM2264842v1,.,NZ_CP076497.1,S74_LN_i_1229_dp_f_1.7594854783171823,1229,1.0
GCF_022648425.1_ASM2264842v1,.,NZ_CP076493.1,S75_LN_i_1204_dp_f_7.938025785519129,1204,1.0
GCF_022648425.1_ASM2264842v1,.,NZ_CP076493.1,S75_LN_i_1204_dp_f_7.938025785519129,1204,1.0
GCF_022648425.1_ASM2264842v1,.,NZ_CP076493.1,S75_LN_i_1204_dp_f_7.938025785519129,1204,1.0
GCF_022648425.1_ASM2264842v1,.,NZ_CP076493.1,S75_LN_i_1204_dp_f_7.938025785519129,1204,1.0
GCF_022648425.1_ASM2264842v1,.,NZ_CP076493.1,S75_LN_i_1204_dp_f_7.938025785519129,1204,1.0
GCF_022648425.1_ASM2264842v1,.,NZ_CP076493.1,S75_LN_i_1204_dp_f_7.938025785519129,1204,1.0
GCF_022648425.1_ASM2264842v1,.,NZ_CP076493.1,S75_LN_i_1204_dp_f_7.938025785519129,1204,1.0
GCF_022648425.1_ASM2264842v1,.,NZ_CP076493.1,S75_LN_i_1204_dp_f_7.938025785519129,1204,1.0
GCF_022648425.1_ASM2264842v1,.,NZ_CP076496.1,S76_LN_i_1112_dp_f_1.3773918202689162,1112,1.0
GCF_022648425.1_ASM2264842v1,.,NZ_CP076493.1,S77_LN_i_1110_dp_f_1.0631277337496208,1110,1.0
GCF_022648425.1_ASM2264842v1,.,NZ_CP076496.1,S78_LN_i_1063_dp_f_2.559084551774705,1063,1.0
GCF_022648425.1_ASM2264842v1,.,NZ_CP076493.1,S78_LN_i_1063_dp_f_2.559084551774705,1063,1.0
GCF_022648425.1_ASM2264842v1,.,NZ_CP076497.1,S79_LN_i_1040_dp_f_4.024967878401844,1040,1.0
GCF_022648425.1_ASM2264842v1,.,NZ_CP076493.1,S79_LN_i_1040_dp_f_4.024967878401844,1040,1.0
GCF_022648425.1_ASM2264842v1,.,NZ_CP076493.1,S79_LN_i_1040_dp_f_4.024967878401844,1040,1.0
GCF_022648425.1_ASM2264842v1,.,NZ_CP076493.1,S80_LN_i_1024_dp_f_8.340976013800454,1024,1.0
GCF_022648425.1_ASM2264842v1,.,NZ_CP076497.1,S80_LN_i_1024_dp_f_8.340976013800454,1024,1.0
GCF_022648425.1_ASM2264842v1,.,NZ_CP076493.1,S80_LN_i_1024_dp_f_8.340976013800454,1024,1.0
GCF_022648425.1_ASM2264842v1,.,NZ_CP076493.1,S80_LN_i_1024_dp_f_8.340976013800454,1024,1.0
GCF_022648425.1_ASM2264842v1,.,NZ_CP076493.1,S80_LN_i_1024_dp_f_8.340976013800454,1024,1.0
GCF_022648425.1_ASM2264842v1,.,NZ_CP076493.1,S80_LN_i_1024_dp_f_8.340976013800454,1024,1.0
GCF_022648425.1_ASM2264842v1,.,NZ_CP076494.1,S80_LN_i_1024_dp_f_8.340976013800454,1024,1.0
GCF_906464925.1_BX5936,.,NZ_OD940434.1,S1_LN_i_507454_dp_f_0.7248434521645332,507454,1.0
GCF_906464925.1_BX5936,.,NZ_OD940434.1,S2_LN_i_272655_dp_f_1.3478539966724208,272655,1.0
GCF_906464925.1_BX5936,.,NZ_OD940434.1,S3_LN_i_211119_dp_f_0.9663099677161839,211119,1.0
GCF_906464925.1_BX5936,.,NZ_OD940434.1,S4_LN_i_193734_dp_f_1.02347693290508,193734,1.0
GCF_906464925.1_BX5936,.,NZ_OD940434.1,S5_LN_i_165576_dp_f_1.3151715215501167,165576,1.0
GCF_906464925.1_BX5936,.,NZ_OD940434.1,S6_LN_i_162261_dp_f_1.2224270987531312,162261,1.0
GCF_906464925.1_BX5936,.,NZ_OD940434.1,S7_LN_i_137135_dp_f_1.4086493694891964,137135,1.0
GCF_906464925.1_BX5936,.,NZ_OD940434.1,S8_LN_i_133874_dp_f_1.0,133874,1.0
GCF_906464925.1_BX5936,.,NZ_OD940434.1,S9_LN_i_125607_dp_f_0.882840685816104,125607,1.0
GCF_906464925.1_BX5936,.,NZ_OD940434.1,S10_LN_i_118330_dp_f_0.8634009606226701,118330,1.0
GCF_906464925.1_BX5936,.,NZ_OD940434.1,S11_LN_i_107510_dp_f_1.0809827689303386,107510,1.0
GCF_906464925.1_BX5936,.,NZ_OD940434.1,S12_LN_i_73599_dp_f_0.7632278483154861,73599,1.0
GCF_906464925.1_BX5936,.,NZ_OD940434.1,S13_LN_i_72041_dp_f_0.8253463000097675,72041,1.0
GCF_906464925.1_BX5936,.,NZ_OD940434.1,S14_LN_i_66696_dp_f_1.1304039067824043,66696,1.0
GCF_906464925.1_BX5936,.,NZ_OD940434.1,S15_LN_i_64687_dp_f_1.0581088960629979,64687,1.0
GCF_906464925.1_BX5936,.,NZ_OD940434.1,S16_LN_i_61653_dp_f_1.1849254682791566,61653,1.0
GCF_906464925.1_BX5936,.,NZ_OD940434.1,S17_LN_i_54234_dp_f_0.7907928134273694,54234,1.0
GCF_906464925.1_BX5936,.,NZ_OD940434.1,S18_LN_i_51571_dp_f_0.7172364831191445,51571,1.0
GCF_906464925.1_BX5936,.,NZ_OD940436.1,S19_LN_i_50393_dp_f_1.2333378116744025,50393,1.0
GCF_906464925.1_BX5936,.,NZ_OD940435.1,S20_LN_i_41703_dp_f_1.1490382330826103,41703,1.0
GCF_906464925.1_BX5936,.,NZ_OD940434.1,S21_LN_i_32611_dp_f_0.8328558143738056,32611,1.0
GCF_906464925.1_BX5936,.,NZ_OD940434.1,S22_LN_i_25926_dp_f_1.1523640848859094,25926,1.0
GCF_906464925.1_BX5936,.,NZ_OD940434.1,S23_LN_i_21664_dp_f_0.8338617882117946,21664,1.0
GCF_906464925.1_BX5936,.,NZ_OD940434.1,S24_LN_i_20391_dp_f_1.2740659731191095,20391,1.0
GCF_906464925.1_BX5936,.,NZ_OD940434.1,S25_LN_i_17172_dp_f_0.9495512833910407,17172,1.0
GCF_906464925.1_BX5936,.,NZ_OD940434.1,S26_LN_i_15353_dp_f_0.8319697945210779,15353,1.0
GCF_906464925.1_BX5936,.,NZ_OD940435.1,S27_LN_i_11753_dp_f_0.9908899391070597,11753,1.0
GCF_906464925.1_BX5936,.,NZ_OD940435.1,S28_LN_i_9978_dp_f_0.7170813398305814,9978,1.0
GCF_906464925.1_BX5936,.,NZ_OD940434.1,S29_LN_i_8425_dp_f_1.2077451830738055,8425,1.0
GCF_906464925.1_BX5936,.,NZ_OD940434.1,S30_LN_i_7544_dp_f_0.9953908318247862,7544,1.0
GCF_906464925.1_BX5936,.,NZ_OD940434.1,S31_LN_i_6924_dp_f_0.3072467813111421,6924,1.0
GCF_906464925.1_BX5936,.,NZ_OD940434.1,S32_LN_i_6428_dp_f_0.6639334188975315,6428,1.0
GCF_906464925.1_BX5936,.,NZ_OD940434.1,S33_LN_i_6390_dp_f_0.7676734998193416,6390,1.0
GCF_906464925.1_BX5936,.,NZ_OD940434.1,S34_LN_i_3283_dp_f_7.358491953214545,3283,1.0
GCF_906464925.1_BX5936,.,NZ_OD940434.1,S34_LN_i_3283_dp_f_7.358491953214545,3283,1.0
GCF_906464925.1_BX5936,.,NZ_OD940434.1,S34_LN_i_3283_dp_f_7.358491953214545,3283,1.0
GCF_906464925.1_BX5936,.,NZ_OD940434.1,S34_LN_i_3283_dp_f_7.358491953214545,3283,1.0
GCF_906464925.1_BX5936,.,NZ_OD940434.1,S35_LN_i_2114_dp_f_0.5277937436646944,2114,1.0
GCF_906464925.1_BX5936,.,NZ_OD940434.1,S36_LN_i_1679_dp_f_7.514934684594672,1679,1.0
GCF_906464925.1_BX5936,.,NZ_OD940434.1,S36_LN_i_1679_dp_f_7.514934684594672,1679,1.0
GCF_906464925.1_BX5936,.,NZ_OD940434.1,S36_LN_i_1679_dp_f_7.514934684594672,1679,1.0
GCF_906464925.1_BX5936,.,NZ_OD940434.1,S36_LN_i_1679_dp_f_7.514934684594672,1679,1.0
GCF_906464925.1_BX5936,.,NZ_OD940434.1,S37_LN_i_1276_dp_f_8.50220448568089,1276,1.0
GCF_906464925.1_BX5936,.,NZ_OD940434.1,S37_LN_i_1276_dp_f_8.50220448568089,1276,1.0
GCF_906464925.1_BX5936,.,NZ_OD940434.1,S37_LN_i_1276_dp_f_8.50220448568089,1276,1.0
GCF_906464925.1_BX5936,.,NZ_OD940434.1,S37_LN_i_1276_dp_f_8.50220448568089,1276,1.0
GCF_906464925.1_BX5936,.,NZ_OD940434.1,S37_LN_i_1276_dp_f_8.50220448568089,1276,1.0
GCF_906464925.1_BX5936,.,NZ_OD940435.1,S37_LN_i_1276_dp_f_8.50220448568089,1276,1.0
GCF_906464925.1_BX5936,.,NZ_OD940434.1,S38_LN_i_1201_dp_f_14.481055148971473,1201,1.0
GCF_906464925.1_BX5936,.,NZ_OD940434.1,S38_LN_i_1201_dp_f_14.481055148971473,1201,1.0
GCF_906464925.1_BX5936,.,NZ_OD940434.1,S38_LN_i_1201_dp_f_14.481055148971473,1201,1.0
GCF_906464925.1_BX5936,.,NZ_OD940434.1,S38_LN_i_1201_dp_f_14.481055148971473,1201,1.0
GCF_906464925.1_BX5936,.,NZ_OD940434.1,S38_LN_i_1201_dp_f_14.481055148971473,1201,1.0
GCF_906464925.1_BX5936,.,NZ_OD940434.1,S38_LN_i_1201_dp_f_14.481055148971473,1201,1.0
GCF_906464925.1_BX5936,.,NZ_OD940434.1,S38_LN_i_1201_dp_f_14.481055148971473,1201,1.0
GCF_906464925.1_BX5936,.,NZ_OD940434.1,S38_LN_i_1201_dp_f_14.481055148971473,1201,1.0
GCF_906464925.1_BX5936,.,NZ_OD940434.1,S38_LN_i_1201_dp_f_14.481055148971473,1201,1.0
GCF_906464925.1_BX5936,.,NZ_OD940434.1,S38_LN_i_1201_dp_f_14.481055148971473,1201,1.0
GCF_906464865.1_WE0438,.,NZ_OD940420.1,S1_LN_i_685398_dp_f_0.7370140289762144,685398,1.0
GCF_906464865.1_WE0438,.,NZ_OD940420.1,S2_LN_i_514542_dp_f_1.0,514542,1.0
GCF_906464865.1_WE0438,.,NZ_OD940420.1,S3_LN_i_261412_dp_f_1.2236424602803453,261412,1.0
GCF_906464865.1_WE0438,.,NZ_OD940420.1,S4_LN_i_225429_dp_f_1.2024323823288015,225429,1.0
GCF_906464865.1_WE0438,.,NZ_OD940420.1,S5_LN_i_219867_dp_f_0.7785251954610468,219867,1.0
GCF_906464865.1_WE0438,.,NZ_OD940420.1,S6_LN_i_216849_dp_f_1.0668440841929412,216849,1.0
GCF_906464865.1_WE0438,.,NZ_OD940420.1,S7_LN_i_149071_dp_f_1.1621813072982223,149071,1.0
GCF_906464865.1_WE0438,.,NZ_OD940420.1,S8_LN_i_143992_dp_f_1.0274753747851697,143992,1.0
GCF_906464865.1_WE0438,.,NZ_OD940420.1,S9_LN_i_135434_dp_f_0.8252003959881073,135434,1.0
GCF_906464865.1_WE0438,.,NZ_OD940420.1,S10_LN_i_87190_dp_f_0.8240624079935851,87190,1.0
GCF_906464865.1_WE0438,.,NZ_OD940420.1,S11_LN_i_56673_dp_f_1.089738210428618,56673,1.0
GCF_906464865.1_WE0438,.,NZ_OD940421.1,S12_LN_i_40888_dp_f_0.8849466921433575,40888,1.0
GCF_906464865.1_WE0438,.,NZ_OD940420.1,S13_LN_i_40720_dp_f_1.1859284516866944,40720,1.0
GCF_906464865.1_WE0438,.,NZ_OD940420.1,S14_LN_i_33947_dp_f_0.7790158193936024,33947,1.0
GCF_906464865.1_WE0438,.,NZ_OD940420.1,S15_LN_i_25888_dp_f_1.1440812015220017,25888,1.0
GCF_906464865.1_WE0438,.,NZ_OD940420.1,S16_LN_i_20449_dp_f_0.8872669633084682,20449,1.0
GCF_906464865.1_WE0438,.,NZ_OD940420.1,S17_LN_i_19553_dp_f_1.0206426379637283,19553,1.0
GCF_906464865.1_WE0438,.,NZ_OD940420.1,S18_LN_i_18307_dp_f_0.935683794423697,18307,1.0
GCF_906464865.1_WE0438,.,NZ_OD940420.1,S19_LN_i_17863_dp_f_0.876864312885119,17863,1.0
GCF_906464865.1_WE0438,.,NZ_OD940420.1,S20_LN_i_15494_dp_f_1.1488191590046226,15494,1.0
GCF_906464865.1_WE0438,.,NZ_OD940420.1,S21_LN_i_10018_dp_f_0.9881534447266632,10018,1.0
GCF_906464865.1_WE0438,.,NZ_OD940421.1,S22_LN_i_6391_dp_f_1.1217239656664046,6391,1.0
GCF_906464865.1_WE0438,.,NZ_OD940420.1,S23_LN_i_5884_dp_f_0.6346699859821028,5884,1.0
GCF_906464865.1_WE0438,.,NZ_OD940421.1,S24_LN_i_4380_dp_f_1.0430819299638125,4380,1.0
GCF_906464865.1_WE0438,.,NZ_OD940420.1,S25_LN_i_3653_dp_f_1.9761030502634074,3653,1.0
GCF_906464865.1_WE0438,.,NZ_OD940420.1,S25_LN_i_3653_dp_f_1.9761030502634074,3653,1.0
GCF_906464865.1_WE0438,.,NZ_OD940420.1,S26_LN_i_3283_dp_f_5.037073104431827,3283,1.0
GCF_906464865.1_WE0438,.,NZ_OD940420.1,S26_LN_i_3283_dp_f_5.037073104431827,3283,1.0
GCF_906464865.1_WE0438,.,NZ_OD940420.1,S26_LN_i_3283_dp_f_5.037073104431827,3283,1.0
GCF_906464865.1_WE0438,.,NZ_OD940420.1,S26_LN_i_3283_dp_f_5.037073104431827,3283,1.0
GCF_906464865.1_WE0438,.,NZ_OD940421.1,S27_LN_i_3080_dp_f_1.7947348086891957,3080,1.0
GCF_906464865.1_WE0438,.,NZ_OD940420.1,S27_LN_i_3080_dp_f_1.7947348086891957,3080,1.0
GCF_906464865.1_WE0438,.,NZ_OD940420.1,S28_LN_i_2453_dp_f_0.6373900763486142,2453,1.0
GCF_906464865.1_WE0438,.,NZ_OD940420.1,S29_LN_i_1835_dp_f_5.194820244584958,1835,1.0
GCF_906464865.1_WE0438,.,NZ_OD940420.1,S29_LN_i_1835_dp_f_5.194820244584958,1835,1.0
GCF_906464865.1_WE0438,.,NZ_OD940420.1,S29_LN_i_1835_dp_f_5.194820244584958,1835,1.0
GCF_906464865.1_WE0438,.,NZ_OD940420.1,S29_LN_i_1835_dp_f_5.194820244584958,1835,1.0
GCF_906464865.1_WE0438,.,NZ_OD940420.1,S30_LN_i_1589_dp_f_2.1226583384236855,1589,1.0
GCF_906464865.1_WE0438,.,NZ_OD940420.1,S30_LN_i_1589_dp_f_2.1226583384236855,1589,1.0
GCF_906464865.1_WE0438,.,NZ_OD940420.1,S31_LN_i_1587_dp_f_1.5291977980821625,1587,1.0
GCF_906464865.1_WE0438,.,NZ_OD940420.1,S31_LN_i_1587_dp_f_1.5291977980821625,1587,1.0
GCF_906464865.1_WE0438,.,NZ_OD940420.1,S32_LN_i_1513_dp_f_2.0357494838096986,1513,1.0
GCF_906464865.1_WE0438,.,NZ_OD940420.1,S32_LN_i_1513_dp_f_2.0357494838096986,1513,1.0
GCF_906464865.1_WE0438,.,NZ_OD940420.1,S33_LN_i_1049_dp_f_0.7895486857700464,1049,1.0
GCF_906464865.1_WE0438,.,NZ_OD940421.1,S34_LN_i_1049_dp_f_0.7186806215257183,1049,1.0
GCF_906464875.1_BX8117,.,NZ_OD940437.1,S1_LN_i_544484_dp_f_0.8561540429043163,544484,1.0
GCF_906464875.1_BX8117,.,NZ_OD940437.1,S2_LN_i_424568_dp_f_1.1801698410804498,424568,1.0
GCF_906464875.1_BX8117,.,NZ_OD940437.1,S3_LN_i_406349_dp_f_0.9814070289799107,406349,1.0
GCF_906464875.1_BX8117,.,NZ_OD940437.1,S4_LN_i_377356_dp_f_0.8941915457002181,377356,1.0
GCF_906464875.1_BX8117,.,NZ_OD940437.1,S5_LN_i_374279_dp_f_1.0,374279,1.0
GCF_906464875.1_BX8117,.,NZ_OD940437.1,S6_LN_i_251834_dp_f_1.1807306083254958,251834,0.1,1,25151
GCF_906464875.1_BX8117,.,NZ_OD940438.1,S6_LN_i_251834_dp_f_1.1807306083254958,251834,0.04,25152,36239
GCF_906464875.1_BX8117,.,NZ_OD940438.1,S6_LN_i_251834_dp_f_1.1807306083254958,251834,0.21,36240,89621
GCF_906464875.1_BX8117,.,NZ_OD940437.1,S6_LN_i_251834_dp_f_1.1807306083254958,251834,0.64,89622,251834
GCF_906464875.1_BX8117,.,NZ_OD940437.1,S7_LN_i_149243_dp_f_1.2098417276894355,149243,1.0
GCF_906464875.1_BX8117,.,NZ_OD940437.1,S8_LN_i_105428_dp_f_1.0209324963082038,105428,1.0
GCF_906464875.1_BX8117,.,NZ_OD940437.1,S9_LN_i_104867_dp_f_1.1653034308922643,104867,1.0
GCF_906464875.1_BX8117,.,NZ_OD940437.1,S10_LN_i_103545_dp_f_1.070191432637454,103545,1.0
GCF_906464875.1_BX8117,.,NZ_OD940437.1,S11_LN_i_65239_dp_f_0.9761713599249598,65239,1.0
GCF_906464875.1_BX8117,.,NZ_OD940439.1,S12_LN_i_15910_dp_f_1.094205476980342,15910,1.0
GCF_906464875.1_BX8117,.,NZ_OD940439.1,S13_LN_i_14670_dp_f_1.2171657990375155,14670,1.0
GCF_906464875.1_BX8117,.,NZ_OD940437.1,S14_LN_i_8313_dp_f_0.7819568412103693,8313,1.0
GCF_906464875.1_BX8117,.,NZ_OD940437.1,S15_LN_i_7823_dp_f_0.8835048904071773,7823,1.0
GCF_906464875.1_BX8117,.,NZ_OD940437.1,S16_LN_i_7646_dp_f_0.7200141198187981,7646,1.0
GCF_906464875.1_BX8117,.,NZ_OD940439.1,S17_LN_i_5153_dp_f_1.2572585991195961,5153,1.0
GCF_906464875.1_BX8117,.,NZ_OD940437.1,S18_LN_i_4368_dp_f_1.1696145587221727,4368,1.0
GCF_906464875.1_BX8117,.,NZ_OD940437.1,S19_LN_i_3279_dp_f_6.108034890529427,3279,1.0
GCF_906464875.1_BX8117,.,NZ_OD940437.1,S19_LN_i_3279_dp_f_6.108034890529427,3279,1.0
GCF_906464875.1_BX8117,.,NZ_OD940437.1,S19_LN_i_3279_dp_f_6.108034890529427,3279,1.0
GCF_906464875.1_BX8117,.,NZ_OD940437.1,S19_LN_i_3279_dp_f_6.108034890529427,3279,1.0
GCF_906464875.1_BX8117,.,NZ_OD940437.1,S20_LN_i_1784_dp_f_0.8799376294824938,1784,1.0
GCF_906464875.1_BX8117,.,NZ_OD940437.1,S21_LN_i_1763_dp_f_6.019433440746977,1763,1.0
GCF_906464875.1_BX8117,.,NZ_OD940437.1,S21_LN_i_1763_dp_f_6.019433440746977,1763,1.0
GCF_906464875.1_BX8117,.,NZ_OD940437.1,S21_LN_i_1763_dp_f_6.019433440746977,1763,1.0
GCF_906464875.1_BX8117,.,NZ_OD940437.1,S21_LN_i_1763_dp_f_6.019433440746977,1763,1.0
GCF_906464875.1_BX8117,.,NZ_OD940437.1,S22_LN_i_1709_dp_f_0.47453169287534286,1709,1.0
GCF_906464875.1_BX8117,.,NZ_OD940437.1,S23_LN_i_1681_dp_f_5.30910159124342,1681,1.0
GCF_906464875.1_BX8117,.,NZ_OD940437.1,S23_LN_i_1681_dp_f_5.30910159124342,1681,1.0
GCF_906464875.1_BX8117,.,NZ_OD940437.1,S23_LN_i_1681_dp_f_5.30910159124342,1681,1.0
GCF_906464875.1_BX8117,.,NZ_OD940437.1,S23_LN_i_1681_dp_f_5.30910159124342,1681,1.0
GCF_906464875.1_BX8117,.,NZ_OD940439.1,S24_LN_i_1291_dp_f_1.054021583724877,1291,1.0
GCF_906464875.1_BX8117,.,NZ_OD940437.1,S24_LN_i_1291_dp_f_1.054021583724877,1291,1.0
GCF_013344605.1_ASM1334460v1,.,NZ_CP046108.1,S1_LN_i_459780_dp_f_1.1046637162013049,459780,1.0
GCF_013344605.1_ASM1334460v1,.,NZ_CP046108.1,S2_LN_i_432837_dp_f_0.8424293708192345,432837,1.0
GCF_013344605.1_ASM1334460v1,.,NZ_CP046108.1,S3_LN_i_248913_dp_f_0.9629544107052488,248913,1.0
GCF_013344605.1_ASM1334460v1,.,NZ_CP046108.1,S4_LN_i_208837_dp_f_0.8957793660348831,208837,1.0
GCF_013344605.1_ASM1334460v1,.,NZ_CP046108.1,S5_LN_i_199268_dp_f_0.9613751462244396,199268,1.0
GCF_013344605.1_ASM1334460v1,.,NZ_CP046108.1,S6_LN_i_178291_dp_f_1.1429864240869752,178291,1.0
GCF_013344605.1_ASM1334460v1,.,NZ_CP046108.1,S7_LN_i_167132_dp_f_1.207648048205913,167132,1.0
GCF_013344605.1_ASM1334460v1,.,NZ_CP046108.1,S8_LN_i_161551_dp_f_1.3692699355876707,161551,1.0
GCF_013344605.1_ASM1334460v1,.,NZ_CP046108.1,S9_LN_i_157654_dp_f_1.2896946709642498,157654,1.0
GCF_013344605.1_ASM1334460v1,.,NZ_CP046108.1,S10_LN_i_142696_dp_f_1.0,142696,1.0
GCF_013344605.1_ASM1334460v1,.,NZ_CP046108.1,S11_LN_i_119918_dp_f_0.9124263500445828,119918,1.0
GCF_013344605.1_ASM1334460v1,.,NZ_CP046108.1,S12_LN_i_88789_dp_f_0.9437150359436159,88789,1.0
GCF_013344605.1_ASM1334460v1,.,NZ_CP046108.1,S13_LN_i_77181_dp_f_1.0215148531483211,77181,1.0
GCF_013344605.1_ASM1334460v1,.,NZ_CP046109.1,S14_LN_i_64052_dp_f_3.805030358063741,64052,1.0
GCF_013344605.1_ASM1334460v1,.,NZ_CP046108.1,S15_LN_i_57342_dp_f_1.3846471988091986,57342,1.0
GCF_013344605.1_ASM1334460v1,.,NZ_CP046108.1,S16_LN_i_38181_dp_f_1.2449010340729705,38181,1.0
GCF_013344605.1_ASM1334460v1,.,NZ_CP046108.1,S17_LN_i_29107_dp_f_1.296492165650743,29107,1.0
GCF_013344605.1_ASM1334460v1,.,NZ_CP046108.1,S18_LN_i_25751_dp_f_1.2976929412586387,25751,1.0
GCF_013344605.1_ASM1334460v1,.,NZ_CP046110.1,S19_LN_i_24973_dp_f_3.3800278860293367,24973,1.0
GCF_013344605.1_ASM1334460v1,.,NZ_CP046108.1,S20_LN_i_21508_dp_f_1.4119356293464684,21508,1.0
GCF_013344605.1_ASM1334460v1,.,NZ_CP046110.1,S21_LN_i_15883_dp_f_2.975720199847982,15883,1.0
GCF_013344605.1_ASM1334460v1,.,NZ_CP046108.1,S22_LN_i_15356_dp_f_1.1951294396046759,15356,1.0
GCF_013344605.1_ASM1334460v1,.,NZ_CP046108.1,S23_LN_i_11339_dp_f_0.8631979743099677,11339,1.0
GCF_013344605.1_ASM1334460v1,.,NZ_CP046108.1,S24_LN_i_5992_dp_f_1.0250989802513883,5992,1.0
GCF_013344605.1_ASM1334460v1,.,NZ_CP046110.1,S25_LN_i_5882_dp_f_6.062133387442284,5882,1.0
GCF_013344605.1_ASM1334460v1,.,NZ_CP046108.1,S25_LN_i_5882_dp_f_6.062133387442284,5882,1.0
GCF_013344605.1_ASM1334460v1,.,NZ_CP046109.1,S25_LN_i_5882_dp_f_6.062133387442284,5882,1.0
GCF_013344605.1_ASM1334460v1,.,NZ_CP046108.1,S26_LN_i_4798_dp_f_0.9454095229742133,4798,1.0
GCF_013344605.1_ASM1334460v1,.,NZ_CP046108.1,S27_LN_i_3283_dp_f_5.501922236975118,3283,1.0
GCF_013344605.1_ASM1334460v1,.,NZ_CP046108.1,S27_LN_i_3283_dp_f_5.501922236975118,3283,1.0
GCF_013344605.1_ASM1334460v1,.,NZ_CP046108.1,S27_LN_i_3283_dp_f_5.501922236975118,3283,1.0
GCF_013344605.1_ASM1334460v1,.,NZ_CP046108.1,S27_LN_i_3283_dp_f_5.501922236975118,3283,1.0
GCF_013344605.1_ASM1334460v1,.,NZ_CP046109.1,S28_LN_i_2251_dp_f_7.244211154449122,2251,1.0
GCF_013344605.1_ASM1334460v1,.,NZ_CP046110.1,S28_LN_i_2251_dp_f_7.244211154449122,2251,1.0
GCF_013344605.1_ASM1334460v1,.,NZ_CP046108.1,S29_LN_i_2248_dp_f_0.5219093331160216,2248,1.0
GCF_013344605.1_ASM1334460v1,.,NZ_CP046108.1,S30_LN_i_1834_dp_f_5.084601767978865,1834,1.0
GCF_013344605.1_ASM1334460v1,.,NZ_CP046108.1,S30_LN_i_1834_dp_f_5.084601767978865,1834,1.0
GCF_013344605.1_ASM1334460v1,.,NZ_CP046108.1,S30_LN_i_1834_dp_f_5.084601767978865,1834,1.0
GCF_013344605.1_ASM1334460v1,.,NZ_CP046108.1,S30_LN_i_1834_dp_f_5.084601767978865,1834,1.0
GCF_013344605.1_ASM1334460v1,.,NZ_CP046108.1,S31_LN_i_1756_dp_f_0.8877765858328932,1756,1.0
GCF_013344605.1_ASM1334460v1,.,NZ_CP046108.1,S32_LN_i_1536_dp_f_0.7217253791798834,1536,1.0
GCF_013344605.1_ASM1334460v1,.,NZ_CP046108.1,S33_LN_i_1514_dp_f_3.193917706978237,1514,1.0
GCF_013344605.1_ASM1334460v1,.,NZ_CP046108.1,S33_LN_i_1514_dp_f_3.193917706978237,1514,1.0
GCF_013344605.1_ASM1334460v1,.,NZ_CP046108.1,S33_LN_i_1514_dp_f_3.193917706978237,1514,1.0
GCF_013344605.1_ASM1334460v1,.,NZ_CP046110.1,S34_LN_i_1244_dp_f_4.715931545958041,1244,1.0
GCF_013344605.1_ASM1334460v1,.,NZ_CP046108.1,S34_LN_i_1244_dp_f_4.715931545958041,1244,1.0
GCF_906464915.2_WE0254,.,NZ_OD940440.2,S1_LN_i_744717_dp_f_1.0,744717,1.0
GCF_906464915.2_WE0254,.,NZ_OD940440.2,S2_LN_i_287764_dp_f_1.2735476606374245,287764,1.0
GCF_906464915.2_WE0254,.,NZ_OD940440.2,S3_LN_i_272720_dp_f_0.8819030165766072,272720,1.0
GCF_906464915.2_WE0254,.,NZ_OD940440.2,S4_LN_i_219296_dp_f_1.0137670592542565,219296,1.0
GCF_906464915.2_WE0254,.,NZ_OD940440.2,S5_LN_i_216882_dp_f_0.7766975330711828,216882,1.0
GCF_906464915.2_WE0254,.,NZ_OD940440.2,S6_LN_i_194327_dp_f_1.2406108840828143,194327,1.0
GCF_906464915.2_WE0254,.,NZ_OD940440.2,S7_LN_i_186469_dp_f_1.210042453305032,186469,1.0
GCF_906464915.2_WE0254,.,NZ_OD940440.2,S8_LN_i_152646_dp_f_0.7769649519539473,152646,1.0
GCF_906464915.2_WE0254,.,NZ_OD940440.2,S9_LN_i_119494_dp_f_1.1269540120847819,119494,1.0
GCF_906464915.2_WE0254,.,NZ_OD940440.2,S10_LN_i_90467_dp_f_1.1563665769372178,90467,1.0
GCF_906464915.2_WE0254,.,NZ_OD940440.2,S11_LN_i_89681_dp_f_1.053833815823321,89681,1.0
GCF_906464915.2_WE0254,.,NZ_OD940440.2,S12_LN_i_86196_dp_f_0.8294913577488341,86196,1.0
GCF_906464915.2_WE0254,.,NZ_OD940440.2,S13_LN_i_72693_dp_f_1.3183830180082863,72693,1.0
GCF_906464915.2_WE0254,.,NZ_OU538996.1,S14_LN_i_41395_dp_f_0.8302707840552145,41395,1.0
GCF_906464915.2_WE0254,.,NZ_OD940440.2,S15_LN_i_27593_dp_f_1.1537143979410658,27593,1.0
GCF_906464915.2_WE0254,.,NZ_OU538997.1,S16_LN_i_27141_dp_f_0.2496881396381818,27141,1.0
GCF_906464915.2_WE0254,.,NZ_OU538997.1,S17_LN_i_25741_dp_f_0.3342222510960683,25741,1.0
GCF_906464915.2_WE0254,.,NZ_OU538997.1,S18_LN_i_15355_dp_f_0.29704041445094037,15355,1.0
GCF_906464915.2_WE0254,.,NZ_OD940440.2,S19_LN_i_15240_dp_f_1.1002324400564003,15240,1.0
GCF_906464915.2_WE0254,.,NZ_OU538996.1,S20_LN_i_14303_dp_f_0.8154592773753466,14303,1.0
GCF_906464915.2_WE0254,.,NZ_OD940440.2,S21_LN_i_13572_dp_f_1.0981817306800883,13572,1.0
GCF_906464915.2_WE0254,.,NZ_OU538996.1,S22_LN_i_13543_dp_f_0.6531429503793275,13543,1.0
GCF_906464915.2_WE0254,.,NZ_OU538996.1,S23_LN_i_6668_dp_f_0.8108588354669691,6668,1.0
GCF_906464915.2_WE0254,.,NZ_OU538997.1,S24_LN_i_6549_dp_f_0.2633433155163981,6549,1.0
GCF_906464915.2_WE0254,.,NZ_OD940440.2,S25_LN_i_5542_dp_f_1.094966978484227,5542,1.0
GCF_906464915.2_WE0254,.,NZ_OD940440.2,S26_LN_i_3249_dp_f_5.921950125710581,3249,1.0
GCF_906464915.2_WE0254,.,NZ_OD940440.2,S26_LN_i_3249_dp_f_5.921950125710581,3249,1.0
GCF_906464915.2_WE0254,.,NZ_OD940440.2,S26_LN_i_3249_dp_f_5.921950125710581,3249,1.0
GCF_906464915.2_WE0254,.,NZ_OD940440.2,S26_LN_i_3249_dp_f_5.921950125710581,3249,1.0
GCF_906464915.2_WE0254,.,NZ_OD940440.2,S27_LN_i_1782_dp_f_6.1484717919445515,1782,1.0
GCF_906464915.2_WE0254,.,NZ_OD940440.2,S27_LN_i_1782_dp_f_6.1484717919445515,1782,1.0
GCF_906464915.2_WE0254,.,NZ_OD940440.2,S27_LN_i_1782_dp_f_6.1484717919445515,1782,1.0
GCF_906464915.2_WE0254,.,NZ_OD940440.2,S27_LN_i_1782_dp_f_6.1484717919445515,1782,1.0
GCF_906464915.2_WE0254,.,NZ_OD940440.2,S28_LN_i_1517_dp_f_5.560511072863734,1517,1.0
GCF_906464915.2_WE0254,.,NZ_OD940440.2,S28_LN_i_1517_dp_f_5.560511072863734,1517,1.0
GCF_906464915.2_WE0254,.,NZ_OD940440.2,S28_LN_i_1517_dp_f_5.560511072863734,1517,1.0
GCF_906464915.2_WE0254,.,NZ_OD940440.2,S28_LN_i_1517_dp_f_5.560511072863734,1517,1.0
GCF_906464915.2_WE0254,.,NZ_OD940440.2,S28_LN_i_1517_dp_f_5.560511072863734,1517,1.0
GCF_906464915.2_WE0254,.,NZ_OD940440.2,S29_LN_i_1455_dp_f_1.2594127349091018,1455,1.0
GCF_906464915.2_WE0254,.,NZ_OU538996.1,S30_LN_i_1278_dp_f_2.5065097058183836,1278,1.0
GCF_906464915.2_WE0254,.,NZ_OU538996.1,S30_LN_i_1278_dp_f_2.5065097058183836,1278,1.0
GCF_906464915.2_WE0254,.,NZ_OU538996.1,S30_LN_i_1278_dp_f_2.5065097058183836,1278,1.0
GCF_022648595.1_ASM2264859v1,.,NZ_CP076498.1,S1_LN_i_316105_dp_f_0.9127411935872176,316105,1.0
GCF_022648595.1_ASM2264859v1,.,NZ_CP076498.1,S2_LN_i_200587_dp_f_1.0610307136288222,200587,1.0
GCF_022648595.1_ASM2264859v1,.,NZ_CP076498.1,S3_LN_i_191050_dp_f_1.0424229529604851,191050,1.0
GCF_022648595.1_ASM2264859v1,.,NZ_CP076498.1,S4_LN_i_190156_dp_f_1.0,190156,1.0
GCF_022648595.1_ASM2264859v1,.,NZ_CP076498.1,S5_LN_i_188829_dp_f_1.0272139084273244,188829,1.0
GCF_022648595.1_ASM2264859v1,.,NZ_CP076498.1,S6_LN_i_181955_dp_f_0.9519790972404776,181955,1.0
GCF_022648595.1_ASM2264859v1,.,NZ_CP076498.1,S7_LN_i_159891_dp_f_1.0316104121025773,159891,1.0
GCF_022648595.1_ASM2264859v1,.,NZ_CP076498.1,S8_LN_i_143356_dp_f_0.975576183922969,143356,1.0
GCF_022648595.1_ASM2264859v1,.,NZ_CP076498.1,S9_LN_i_131875_dp_f_0.9567594706492315,131875,1.0
GCF_022648595.1_ASM2264859v1,.,NZ_CP076498.1,S10_LN_i_105182_dp_f_0.9985338949455457,105182,1.0
GCF_022648595.1_ASM2264859v1,.,NZ_CP076498.1,S11_LN_i_99800_dp_f_0.9854291580952181,99800,1.0
GCF_022648595.1_ASM2264859v1,.,NZ_CP076498.1,S12_LN_i_97941_dp_f_1.0415941008211531,97941,1.0
GCF_022648595.1_ASM2264859v1,.,NZ_CP076498.1,S13_LN_i_97116_dp_f_1.0097014361156142,97116,1.0
GCF_022648595.1_ASM2264859v1,.,NZ_CP076498.1,S14_LN_i_96741_dp_f_0.93934213936517,96741,1.0
GCF_022648595.1_ASM2264859v1,.,NZ_CP076498.1,S15_LN_i_73841_dp_f_1.0053130599430455,73841,1.0
GCF_022648595.1_ASM2264859v1,.,NZ_CP076498.1,S16_LN_i_73030_dp_f_1.0249650475893046,73030,1.0
GCF_022648595.1_ASM2264859v1,.,NZ_CP076498.1,S17_LN_i_68051_dp_f_1.071301194728738,68051,1.0
GCF_022648595.1_ASM2264859v1,.,NZ_CP076498.1,S18_LN_i_60165_dp_f_0.9938555440661001,60165,1.0
GCF_022648595.1_ASM2264859v1,.,NZ_CP076498.1,S19_LN_i_56975_dp_f_0.9757574080250832,56975,1.0
GCF_022648595.1_ASM2264859v1,.,NZ_CP076498.1,S20_LN_i_51875_dp_f_1.0274040623295615,51875,1.0
GCF_022648595.1_ASM2264859v1,.,NZ_CP076498.1,S21_LN_i_48769_dp_f_1.0417513459702432,48769,1.0
GCF_022648595.1_ASM2264859v1,.,NZ_CP076498.1,S22_LN_i_37917_dp_f_0.9021551316560111,37917,1.0
GCF_022648595.1_ASM2264859v1,.,NZ_CP076500.1,S23_LN_i_37750_dp_f_1.5270371980897557,37750,1.0
GCF_022648595.1_ASM2264859v1,.,NZ_CP076501.1,S24_LN_i_32753_dp_f_1.3968566163910725,32753,1.0
GCF_022648595.1_ASM2264859v1,.,NZ_CP076498.1,S25_LN_i_30032_dp_f_0.9952079458864281,30032,1.0
GCF_022648595.1_ASM2264859v1,.,NZ_CP076498.1,S26_LN_i_28234_dp_f_0.954120631610278,28234,1.0
GCF_022648595.1_ASM2264859v1,.,NZ_CP076499.1,S27_LN_i_27144_dp_f_1.442388355099325,27144,1.0
GCF_022648595.1_ASM2264859v1,.,NZ_CP076498.1,S28_LN_i_20171_dp_f_1.040772220493811,20171,1.0
GCF_022648595.1_ASM2264859v1,.,NZ_CP076499.1,S29_LN_i_19448_dp_f_1.693646144596407,19448,1.0
GCF_022648595.1_ASM2264859v1,.,NZ_CP076498.1,S30_LN_i_19263_dp_f_1.0110618877299657,19263,1.0
GCF_022648595.1_ASM2264859v1,.,NZ_CP076498.1,S31_LN_i_18999_dp_f_0.9527136296033392,18999,1.0
GCF_022648595.1_ASM2264859v1,.,NZ_CP076498.1,S32_LN_i_18034_dp_f_2.159639681614865,18034,1.0
GCF_022648595.1_ASM2264859v1,.,NZ_CP076498.1,S32_LN_i_18034_dp_f_2.159639681614865,18034,1.0
GCF_022648595.1_ASM2264859v1,.,NZ_CP076498.1,S33_LN_i_17022_dp_f_1.0153146922583949,17022,1.0
GCF_022648595.1_ASM2264859v1,.,NZ_CP076498.1,S34_LN_i_16929_dp_f_1.0209593826647145,16929,1.0
GCF_022648595.1_ASM2264859v1,.,NZ_CP076500.1,S35_LN_i_14390_dp_f_1.5296394533033564,14390,1.0
GCF_022648595.1_ASM2264859v1,.,NZ_CP076498.1,S36_LN_i_13215_dp_f_0.9528441382548578,13215,1.0
GCF_022648595.1_ASM2264859v1,.,NZ_CP076498.1,S37_LN_i_13120_dp_f_0.9625122686965523,13120,1.0
GCF_022648595.1_ASM2264859v1,.,NZ_CP076499.1,S38_LN_i_12935_dp_f_1.4768982696705568,12935,1.0
GCF_022648595.1_ASM2264859v1,.,NZ_CP076498.1,S39_LN_i_12441_dp_f_0.8814724061306912,12441,1.0
GCF_022648595.1_ASM2264859v1,.,NZ_CP076499.1,S40_LN_i_10931_dp_f_1.4496703226158214,10931,1.0
GCF_022648595.1_ASM2264859v1,.,NZ_CP076499.1,S41_LN_i_10342_dp_f_1.6741145377647262,10342,1.0
GCF_022648595.1_ASM2264859v1,.,NZ_CP076498.1,S42_LN_i_9961_dp_f_0.9159302961479384,9961,1.0
GCF_022648595.1_ASM2264859v1,.,NZ_CP076502.1,S43_LN_i_6853_dp_f_1.7458451192622242,6853,1.0
GCF_022648595.1_ASM2264859v1,.,NZ_CP076498.1,S44_LN_i_5716_dp_f_0.9634347168125751,5716,1.0
GCF_022648595.1_ASM2264859v1,.,NZ_CP076502.1,S45_LN_i_5433_dp_f_1.7593905914414314,5433,1.0
GCF_022648595.1_ASM2264859v1,.,NZ_CP076499.1,S46_LN_i_5032_dp_f_1.490427811521517,5032,1.0
GCF_022648595.1_ASM2264859v1,.,NZ_CP076498.1,S47_LN_i_4877_dp_f_1.0865825617065417,4877,1.0
GCF_022648595.1_ASM2264859v1,.,NZ_CP076499.1,S48_LN_i_4873_dp_f_1.7232843877185817,4873,1.0
GCF_022648595.1_ASM2264859v1,.,NZ_CP076498.1,S49_LN_i_4821_dp_f_1.0442610733055924,4821,1.0
GCF_022648595.1_ASM2264859v1,.,NZ_CP076498.1,S50_LN_i_4666_dp_f_2.0741689720174703,4666,1.0
GCF_022648595.1_ASM2264859v1,.,NZ_CP076498.1,S50_LN_i_4666_dp_f_2.0741689720174703,4666,1.0
GCF_022648595.1_ASM2264859v1,.,NZ_CP076502.1,S51_LN_i_4414_dp_f_1.7571966036893871,4414,1.0
GCF_022648595.1_ASM2264859v1,.,NZ_CP076499.1,S52_LN_i_4395_dp_f_1.565951491352115,4395,1.0
GCF_022648595.1_ASM2264859v1,.,NZ_CP076498.1,S53_LN_i_4193_dp_f_0.9320011089128106,4193,1.0
GCF_022648595.1_ASM2264859v1,.,NZ_CP076502.1,S54_LN_i_4147_dp_f_1.7433689516264754,4147,1.0
GCF_022648595.1_ASM2264859v1,.,NZ_CP076499.1,S55_LN_i_3945_dp_f_3.511444505906534,3945,1.0
GCF_022648595.1_ASM2264859v1,.,NZ_CP076502.1,S55_LN_i_3945_dp_f_3.511444505906534,3945,1.0
GCF_022648595.1_ASM2264859v1,.,NZ_CP076498.1,S56_LN_i_3445_dp_f_0.9016672267196193,3445,1.0
GCF_022648595.1_ASM2264859v1,.,NZ_CP076498.1,S57_LN_i_3283_dp_f_4.49933762946104,3283,1.0
GCF_022648595.1_ASM2264859v1,.,NZ_CP076498.1,S57_LN_i_3283_dp_f_4.49933762946104,3283,1.0
GCF_022648595.1_ASM2264859v1,.,NZ_CP076498.1,S57_LN_i_3283_dp_f_4.49933762946104,3283,1.0
GCF_022648595.1_ASM2264859v1,.,NZ_CP076498.1,S57_LN_i_3283_dp_f_4.49933762946104,3283,1.0
GCF_022648595.1_ASM2264859v1,.,NZ_CP076498.1,S58_LN_i_2929_dp_f_1.974106681261908,2929,1.0
GCF_022648595.1_ASM2264859v1,.,NZ_CP076498.1,S58_LN_i_2929_dp_f_1.974106681261908,2929,1.0
GCF_022648595.1_ASM2264859v1,.,NZ_CP076502.1,S59_LN_i_2864_dp_f_1.6946609956943315,2864,1.0
GCF_022648595.1_ASM2264859v1,.,NZ_CP076498.1,S60_LN_i_2824_dp_f_2.0866612324582845,2824,1.0
GCF_022648595.1_ASM2264859v1,.,NZ_CP076498.1,S60_LN_i_2824_dp_f_2.0866612324582845,2824,1.0
GCF_022648595.1_ASM2264859v1,.,NZ_CP076501.1,S61_LN_i_2324_dp_f_2.600092575639878,2324,1.0
GCF_022648595.1_ASM2264859v1,.,NZ_CP076501.1,S62_LN_i_2316_dp_f_2.2375967644650463,2316,1.0
GCF_022648595.1_ASM2264859v1,.,NZ_CP076498.1,S62_LN_i_2316_dp_f_2.2375967644650463,2316,1.0
GCF_022648595.1_ASM2264859v1,.,NZ_CP076499.1,S63_LN_i_2045_dp_f_1.3370205944430515,2045,1.0
GCF_022648595.1_ASM2264859v1,.,NZ_CP076499.1,S64_LN_i_2034_dp_f_3.39545382181882,2034,1.0
GCF_022648595.1_ASM2264859v1,.,NZ_CP076499.1,S64_LN_i_2034_dp_f_3.39545382181882,2034,1.0
GCF_022648595.1_ASM2264859v1,.,NZ_CP076498.1,S65_LN_i_1868_dp_f_0.8806490688270554,1868,1.0
GCF_022648595.1_ASM2264859v1,.,NZ_CP076498.1,S66_LN_i_1830_dp_f_2.1540876913252394,1830,1.0
GCF_022648595.1_ASM2264859v1,.,NZ_CP076498.1,S66_LN_i_1830_dp_f_2.1540876913252394,1830,1.0
GCF_022648595.1_ASM2264859v1,.,NZ_CP076498.1,S67_LN_i_1738_dp_f_4.450153679373707,1738,1.0
GCF_022648595.1_ASM2264859v1,.,NZ_CP076498.1,S67_LN_i_1738_dp_f_4.450153679373707,1738,1.0
GCF_022648595.1_ASM2264859v1,.,NZ_CP076498.1,S67_LN_i_1738_dp_f_4.450153679373707,1738,1.0
GCF_022648595.1_ASM2264859v1,.,NZ_CP076498.1,S67_LN_i_1738_dp_f_4.450153679373707,1738,1.0
GCF_022648595.1_ASM2264859v1,.,NZ_CP076501.1,S68_LN_i_1715_dp_f_2.435801961831103,1715,1.0
GCF_022648595.1_ASM2264859v1,.,NZ_CP076498.1,S69_LN_i_1396_dp_f_2.2021697302415597,1396,1.0
GCF_022648595.1_ASM2264859v1,.,NZ_CP076498.1,S69_LN_i_1396_dp_f_2.2021697302415597,1396,1.0
GCF_022648595.1_ASM2264859v1,.,NZ_CP076501.1,S70_LN_i_1349_dp_f_2.4910181215945046,1349,1.0
GCF_022648595.1_ASM2264859v1,.,NZ_CP076498.1,S70_LN_i_1349_dp_f_2.4910181215945046,1349,1.0
GCF_022648595.1_ASM2264859v1,.,NZ_CP076499.1,S71_LN_i_1301_dp_f_2.627707630795585,1301,1.0
GCF_022648595.1_ASM2264859v1,.,NZ_CP076498.1,S71_LN_i_1301_dp_f_2.627707630795585,1301,1.0
GCF_022648595.1_ASM2264859v1,.,NZ_CP076498.1,S72_LN_i_1271_dp_f_1.0914295014338598,1271,1.0
GCF_022648595.1_ASM2264859v1,.,NZ_CP076501.1,S73_LN_i_1271_dp_f_1.434308729486372,1271,1.0
GCF_022648595.1_ASM2264859v1,.,NZ_CP076502.1,S74_LN_i_1229_dp_f_1.7934185641787803,1229,1.0
GCF_022648595.1_ASM2264859v1,.,NZ_CP076498.1,S75_LN_i_1204_dp_f_7.802491456700458,1204,1.0
GCF_022648595.1_ASM2264859v1,.,NZ_CP076498.1,S75_LN_i_1204_dp_f_7.802491456700458,1204,1.0
GCF_022648595.1_ASM2264859v1,.,NZ_CP076498.1,S75_LN_i_1204_dp_f_7.802491456700458,1204,1.0
GCF_022648595.1_ASM2264859v1,.,NZ_CP076498.1,S75_LN_i_1204_dp_f_7.802491456700458,1204,1.0
GCF_022648595.1_ASM2264859v1,.,NZ_CP076498.1,S75_LN_i_1204_dp_f_7.802491456700458,1204,1.0
GCF_022648595.1_ASM2264859v1,.,NZ_CP076498.1,S75_LN_i_1204_dp_f_7.802491456700458,1204,1.0
GCF_022648595.1_ASM2264859v1,.,NZ_CP076498.1,S75_LN_i_1204_dp_f_7.802491456700458,1204,1.0
GCF_022648595.1_ASM2264859v1,.,NZ_CP076498.1,S75_LN_i_1204_dp_f_7.802491456700458,1204,1.0
GCF_022648595.1_ASM2264859v1,.,NZ_CP076501.1,S76_LN_i_1112_dp_f_1.3442340840737383,1112,1.0
GCF_022648595.1_ASM2264859v1,.,NZ_CP076498.1,S77_LN_i_1110_dp_f_1.0735335708901306,1110,1.0
GCF_022648595.1_ASM2264859v1,.,NZ_CP076501.1,S78_LN_i_1063_dp_f_2.658864995990042,1063,1.0
GCF_022648595.1_ASM2264859v1,.,NZ_CP076498.1,S78_LN_i_1063_dp_f_2.658864995990042,1063,1.0
GCF_022648595.1_ASM2264859v1,.,NZ_CP076498.1,S79_LN_i_1040_dp_f_4.128245767425912,1040,1.0
GCF_022648595.1_ASM2264859v1,.,NZ_CP076502.1,S79_LN_i_1040_dp_f_4.128245767425912,1040,1.0
GCF_022648595.1_ASM2264859v1,.,NZ_CP076498.1,S79_LN_i_1040_dp_f_4.128245767425912,1040,1.0
GCF_022648595.1_ASM2264859v1,.,NZ_CP076498.1,S80_LN_i_1024_dp_f_8.432595458148493,1024,1.0
GCF_022648595.1_ASM2264859v1,.,NZ_CP076498.1,S80_LN_i_1024_dp_f_8.432595458148493,1024,1.0
GCF_022648595.1_ASM2264859v1,.,NZ_CP076498.1,S80_LN_i_1024_dp_f_8.432595458148493,1024,1.0
GCF_022648595.1_ASM2264859v1,.,NZ_CP076502.1,S80_LN_i_1024_dp_f_8.432595458148493,1024,1.0
GCF_022648595.1_ASM2264859v1,.,NZ_CP076498.1,S80_LN_i_1024_dp_f_8.432595458148493,1024,1.0
GCF_022648595.1_ASM2264859v1,.,NZ_CP076498.1,S80_LN_i_1024_dp_f_8.432595458148493,1024,1.0
GCF_022648595.1_ASM2264859v1,.,NZ_CP076499.1,S80_LN_i_1024_dp_f_8.432595458148493,1024,1.0
GCF_022648285.1_ASM2264828v1,.,NZ_CP076488.1,S1_LN_i_316105_dp_f_0.9025929378505629,316105,1.0
GCF_022648285.1_ASM2264828v1,.,NZ_CP076488.1,S2_LN_i_200587_dp_f_1.0526854442360463,200587,1.0
GCF_022648285.1_ASM2264828v1,.,NZ_CP076488.1,S3_LN_i_191018_dp_f_1.0309975936577633,191018,1.0
GCF_022648285.1_ASM2264828v1,.,NZ_CP076488.1,S4_LN_i_190156_dp_f_1.0,190156,1.0
GCF_022648285.1_ASM2264828v1,.,NZ_CP076488.1,S5_LN_i_188829_dp_f_1.0175562727637513,188829,1.0
GCF_022648285.1_ASM2264828v1,.,NZ_CP076488.1,S6_LN_i_181955_dp_f_0.9523545452119484,181955,1.0
GCF_022648285.1_ASM2264828v1,.,NZ_CP076488.1,S7_LN_i_159891_dp_f_1.0222143698267372,159891,1.0
GCF_022648285.1_ASM2264828v1,.,NZ_CP076488.1,S8_LN_i_143356_dp_f_0.9587235821765443,143356,1.0
GCF_022648285.1_ASM2264828v1,.,NZ_CP076488.1,S9_LN_i_131875_dp_f_0.9453666540734562,131875,1.0
GCF_022648285.1_ASM2264828v1,.,NZ_CP076488.1,S10_LN_i_105184_dp_f_0.9956973956564078,105184,1.0
GCF_022648285.1_ASM2264828v1,.,NZ_CP076488.1,S11_LN_i_99800_dp_f_0.9748210990541236,99800,1.0
GCF_022648285.1_ASM2264828v1,.,NZ_CP076488.1,S12_LN_i_97941_dp_f_1.0406013059238313,97941,1.0
GCF_022648285.1_ASM2264828v1,.,NZ_CP076488.1,S13_LN_i_97116_dp_f_1.0045614857189487,97116,1.0
GCF_022648285.1_ASM2264828v1,.,NZ_CP076488.1,S14_LN_i_96741_dp_f_0.9251509564942079,96741,1.0
GCF_022648285.1_ASM2264828v1,.,NZ_CP076488.1,S15_LN_i_73841_dp_f_0.9922550295918642,73841,1.0
GCF_022648285.1_ASM2264828v1,.,NZ_CP076488.1,S16_LN_i_73030_dp_f_1.0193895266573405,73030,1.0
GCF_022648285.1_ASM2264828v1,.,NZ_CP076488.1,S17_LN_i_68051_dp_f_1.0503198694471014,68051,1.0
GCF_022648285.1_ASM2264828v1,.,NZ_CP076488.1,S18_LN_i_60165_dp_f_1.0127485838183903,60165,1.0
GCF_022648285.1_ASM2264828v1,.,NZ_CP076488.1,S19_LN_i_56975_dp_f_0.9794890113528679,56975,1.0
GCF_022648285.1_ASM2264828v1,.,NZ_CP076488.1,S20_LN_i_51906_dp_f_1.0258896777763584,51906,1.0
GCF_022648285.1_ASM2264828v1,.,NZ_CP076488.1,S21_LN_i_48769_dp_f_1.027495792305708,48769,1.0
GCF_022648285.1_ASM2264828v1,.,NZ_CP076488.1,S22_LN_i_37917_dp_f_0.9137199100670842,37917,1.0
GCF_022648285.1_ASM2264828v1,.,NZ_CP076490.1,S23_LN_i_37750_dp_f_1.5582357408421974,37750,1.0
GCF_022648285.1_ASM2264828v1,.,NZ_CP076491.1,S24_LN_i_32753_dp_f_1.4335403067851604,32753,0.97,1,31893
GCF_022648285.1_ASM2264828v1,.,NZ_CP076488.1,S24_LN_i_32753_dp_f_1.4335403067851604,32753,0.03,31894,32737
GCF_022648285.1_ASM2264828v1,.,NZ_CP076488.1,S25_LN_i_30032_dp_f_1.010917746678732,30032,1.0
GCF_022648285.1_ASM2264828v1,.,NZ_CP076488.1,S26_LN_i_28234_dp_f_0.9526971869254152,28234,1.0
GCF_022648285.1_ASM2264828v1,.,NZ_CP076489.1,S27_LN_i_27144_dp_f_1.4711968635308361,27144,1.0
GCF_022648285.1_ASM2264828v1,.,NZ_CP076488.1,S28_LN_i_20171_dp_f_1.0248101610942646,20171,1.0
GCF_022648285.1_ASM2264828v1,.,NZ_CP076489.1,S29_LN_i_19448_dp_f_1.7233700190716406,19448,1.0
GCF_022648285.1_ASM2264828v1,.,NZ_CP076488.1,S30_LN_i_19263_dp_f_0.9945686444333173,19263,1.0
GCF_022648285.1_ASM2264828v1,.,NZ_CP076488.1,S31_LN_i_18999_dp_f_0.9475605874407708,18999,1.0
GCF_022648285.1_ASM2264828v1,.,NZ_CP076488.1,S32_LN_i_18034_dp_f_2.1944590124347902,18034,1.0
GCF_022648285.1_ASM2264828v1,.,NZ_CP076488.1,S32_LN_i_18034_dp_f_2.1944590124347902,18034,1.0
GCF_022648285.1_ASM2264828v1,.,NZ_CP076488.1,S33_LN_i_17022_dp_f_1.02641726367729,17022,1.0
GCF_022648285.1_ASM2264828v1,.,NZ_CP076488.1,S34_LN_i_16965_dp_f_1.005438888821957,16965,1.0
GCF_022648285.1_ASM2264828v1,.,NZ_CP076490.1,S35_LN_i_14390_dp_f_1.5337221428893808,14390,1.0
GCF_022648285.1_ASM2264828v1,.,NZ_CP076488.1,S36_LN_i_13120_dp_f_0.9897382797078196,13120,1.0
GCF_022648285.1_ASM2264828v1,.,NZ_CP076489.1,S37_LN_i_12935_dp_f_1.4868911446880284,12935,1.0
GCF_022648285.1_ASM2264828v1,.,NZ_CP076488.1,S38_LN_i_12441_dp_f_0.8889287524310902,12441,1.0
GCF_022648285.1_ASM2264828v1,.,NZ_CP076489.1,S39_LN_i_10931_dp_f_1.4438956636211546,10931,1.0
GCF_022648285.1_ASM2264828v1,.,NZ_CP076489.1,S40_LN_i_10342_dp_f_1.7406902792841459,10342,1.0
GCF_022648285.1_ASM2264828v1,.,NZ_CP076488.1,S41_LN_i_9961_dp_f_0.9060778308457463,9961,1.0
GCF_022648285.1_ASM2264828v1,.,NZ_CP076488.1,S42_LN_i_8687_dp_f_0.9998667032495022,8687,1.0
GCF_022648285.1_ASM2264828v1,.,NZ_CP076492.1,S43_LN_i_6853_dp_f_1.8765964234655723,6853,1.0
GCF_022648285.1_ASM2264828v1,.,NZ_CP076488.1,S44_LN_i_5680_dp_f_0.9673413303839145,5680,1.0
GCF_022648285.1_ASM2264828v1,.,NZ_CP076492.1,S45_LN_i_5433_dp_f_1.8728668218630964,5433,1.0
GCF_022648285.1_ASM2264828v1,.,NZ_CP076489.1,S46_LN_i_5032_dp_f_1.5338656452090864,5032,1.0
GCF_022648285.1_ASM2264828v1,.,NZ_CP076488.1,S47_LN_i_4877_dp_f_1.0261260204323195,4877,1.0
GCF_022648285.1_ASM2264828v1,.,NZ_CP076489.1,S48_LN_i_4873_dp_f_1.7444204077197776,4873,1.0
GCF_022648285.1_ASM2264828v1,.,NZ_CP076488.1,S49_LN_i_4821_dp_f_1.0329861682386183,4821,1.0
GCF_022648285.1_ASM2264828v1,.,NZ_CP076488.1,S50_LN_i_4666_dp_f_2.1191410603202283,4666,1.0
GCF_022648285.1_ASM2264828v1,.,NZ_CP076488.1,S50_LN_i_4666_dp_f_2.1191410603202283,4666,1.0
GCF_022648285.1_ASM2264828v1,.,NZ_CP076488.1,S51_LN_i_4534_dp_f_0.9890294861808949,4534,1.0
GCF_022648285.1_ASM2264828v1,.,NZ_CP076492.1,S52_LN_i_4414_dp_f_1.874529662304775,4414,1.0
GCF_022648285.1_ASM2264828v1,.,NZ_CP076489.1,S53_LN_i_4395_dp_f_1.650409741540051,4395,1.0
GCF_022648285.1_ASM2264828v1,.,NZ_CP076488.1,S54_LN_i_4193_dp_f_0.9484635611802164,4193,1.0
GCF_022648285.1_ASM2264828v1,.,NZ_CP076492.1,S55_LN_i_4147_dp_f_1.871575760088877,4147,1.0
GCF_022648285.1_ASM2264828v1,.,NZ_CP076489.1,S56_LN_i_3945_dp_f_3.616804826417698,3945,1.0
GCF_022648285.1_ASM2264828v1,.,NZ_CP076492.1,S56_LN_i_3945_dp_f_3.616804826417698,3945,1.0
GCF_022648285.1_ASM2264828v1,.,NZ_CP076488.1,S57_LN_i_3445_dp_f_0.9480756093405768,3445,1.0
GCF_022648285.1_ASM2264828v1,.,NZ_CP076488.1,S58_LN_i_3283_dp_f_4.461145845585305,3283,1.0
GCF_022648285.1_ASM2264828v1,.,NZ_CP076488.1,S58_LN_i_3283_dp_f_4.461145845585305,3283,1.0
GCF_022648285.1_ASM2264828v1,.,NZ_CP076488.1,S58_LN_i_3283_dp_f_4.461145845585305,3283,1.0
GCF_022648285.1_ASM2264828v1,.,NZ_CP076488.1,S58_LN_i_3283_dp_f_4.461145845585305,3283,1.0
GCF_022648285.1_ASM2264828v1,.,NZ_CP076488.1,S59_LN_i_2929_dp_f_1.965594223440034,2929,1.0
GCF_022648285.1_ASM2264828v1,.,NZ_CP076488.1,S59_LN_i_2929_dp_f_1.965594223440034,2929,1.0
GCF_022648285.1_ASM2264828v1,.,NZ_CP076492.1,S60_LN_i_2865_dp_f_1.8596291315062294,2865,1.0
GCF_022648285.1_ASM2264828v1,.,NZ_CP076488.1,S61_LN_i_2824_dp_f_2.053564124688247,2824,1.0
GCF_022648285.1_ASM2264828v1,.,NZ_CP076488.1,S61_LN_i_2824_dp_f_2.053564124688247,2824,1.0
GCF_022648285.1_ASM2264828v1,.,NZ_CP076491.1,S62_LN_i_2324_dp_f_2.628063971774861,2324,1.0
GCF_022648285.1_ASM2264828v1,.,NZ_CP076488.1,S62_LN_i_2324_dp_f_2.628063971774861,2324,1.0
GCF_022648285.1_ASM2264828v1,.,NZ_CP076491.1,S63_LN_i_2316_dp_f_2.3011160437476676,2316,1.0
GCF_022648285.1_ASM2264828v1,.,NZ_CP076488.1,S63_LN_i_2316_dp_f_2.3011160437476676,2316,1.0
GCF_022648285.1_ASM2264828v1,.,NZ_CP076489.1,S64_LN_i_2045_dp_f_1.3900431542104472,2045,1.0
GCF_022648285.1_ASM2264828v1,.,NZ_CP076489.1,S65_LN_i_2034_dp_f_3.3698654109253545,2034,1.0
GCF_022648285.1_ASM2264828v1,.,NZ_CP076489.1,S65_LN_i_2034_dp_f_3.3698654109253545,2034,1.0
GCF_022648285.1_ASM2264828v1,.,NZ_CP076488.1,S66_LN_i_1868_dp_f_0.9785739900245399,1868,1.0
GCF_022648285.1_ASM2264828v1,.,NZ_CP076488.1,S67_LN_i_1830_dp_f_2.113843648430931,1830,1.0
GCF_022648285.1_ASM2264828v1,.,NZ_CP076488.1,S67_LN_i_1830_dp_f_2.113843648430931,1830,1.0
GCF_022648285.1_ASM2264828v1,.,NZ_CP076491.1,S68_LN_i_1715_dp_f_2.411738804976862,1715,1.0
GCF_022648285.1_ASM2264828v1,.,NZ_CP076488.1,S69_LN_i_1396_dp_f_2.203994646655064,1396,1.0
GCF_022648285.1_ASM2264828v1,.,NZ_CP076488.1,S69_LN_i_1396_dp_f_2.203994646655064,1396,1.0
GCF_022648285.1_ASM2264828v1,.,NZ_CP076491.1,S70_LN_i_1349_dp_f_2.6033109147276465,1349,1.0
GCF_022648285.1_ASM2264828v1,.,NZ_CP076488.1,S70_LN_i_1349_dp_f_2.6033109147276465,1349,1.0
GCF_022648285.1_ASM2264828v1,.,NZ_CP076488.1,S71_LN_i_1318_dp_f_4.451756961622083,1318,1.0
GCF_022648285.1_ASM2264828v1,.,NZ_CP076488.1,S71_LN_i_1318_dp_f_4.451756961622083,1318,1.0
GCF_022648285.1_ASM2264828v1,.,NZ_CP076488.1,S71_LN_i_1318_dp_f_4.451756961622083,1318,1.0
GCF_022648285.1_ASM2264828v1,.,NZ_CP076488.1,S71_LN_i_1318_dp_f_4.451756961622083,1318,1.0
GCF_022648285.1_ASM2264828v1,.,NZ_CP076489.1,S72_LN_i_1301_dp_f_2.6670000155563263,1301,1.0
GCF_022648285.1_ASM2264828v1,.,NZ_CP076488.1,S72_LN_i_1301_dp_f_2.6670000155563263,1301,1.0
GCF_022648285.1_ASM2264828v1,.,NZ_CP076491.1,S73_LN_i_1271_dp_f_1.5347525612256117,1271,1.0
GCF_022648285.1_ASM2264828v1,.,NZ_CP076488.1,S74_LN_i_1271_dp_f_0.9864892085874251,1271,1.0
GCF_022648285.1_ASM2264828v1,.,NZ_CP076492.1,S75_LN_i_1229_dp_f_1.9163488889787286,1229,1.0
GCF_022648285.1_ASM2264828v1,.,NZ_CP076488.1,S76_LN_i_1201_dp_f_8.701867799907793,1201,1.0
GCF_022648285.1_ASM2264828v1,.,NZ_CP076488.1,S76_LN_i_1201_dp_f_8.701867799907793,1201,1.0
GCF_022648285.1_ASM2264828v1,.,NZ_CP076488.1,S76_LN_i_1201_dp_f_8.701867799907793,1201,1.0
GCF_022648285.1_ASM2264828v1,.,NZ_CP076488.1,S76_LN_i_1201_dp_f_8.701867799907793,1201,1.0
GCF_022648285.1_ASM2264828v1,.,NZ_CP076488.1,S76_LN_i_1201_dp_f_8.701867799907793,1201,1.0
GCF_022648285.1_ASM2264828v1,.,NZ_CP076488.1,S76_LN_i_1201_dp_f_8.701867799907793,1201,1.0
GCF_022648285.1_ASM2264828v1,.,NZ_CP076488.1,S76_LN_i_1201_dp_f_8.701867799907793,1201,1.0
GCF_022648285.1_ASM2264828v1,.,NZ_CP076488.1,S76_LN_i_1201_dp_f_8.701867799907793,1201,1.0
GCF_022648285.1_ASM2264828v1,.,NZ_CP076488.1,S76_LN_i_1201_dp_f_8.701867799907793,1201,1.0
GCF_022648285.1_ASM2264828v1,.,NZ_CP076491.1,S77_LN_i_1112_dp_f_1.5163388088439784,1112,1.0
GCF_022648285.1_ASM2264828v1,.,NZ_CP076488.1,S78_LN_i_1110_dp_f_1.0595585109395254,1110,1.0
GCF_022648285.1_ASM2264828v1,.,NZ_CP076491.1,S79_LN_i_1063_dp_f_2.6475839350848815,1063,1.0
GCF_022648285.1_ASM2264828v1,.,NZ_CP076488.1,S79_LN_i_1063_dp_f_2.6475839350848815,1063,1.0
GCF_022648285.1_ASM2264828v1,.,NZ_CP076492.1,S80_LN_i_1040_dp_f_4.008731486998882,1040,1.0
GCF_022648285.1_ASM2264828v1,.,NZ_CP076488.1,S80_LN_i_1040_dp_f_4.008731486998882,1040,1.0
GCF_022648285.1_ASM2264828v1,.,NZ_CP076488.1,S80_LN_i_1040_dp_f_4.008731486998882,1040,1.0
GCF_022648285.1_ASM2264828v1,.,NZ_CP076488.1,S81_LN_i_1024_dp_f_8.528442125539081,1024,1.0
GCF_022648285.1_ASM2264828v1,.,NZ_CP076488.1,S81_LN_i_1024_dp_f_8.528442125539081,1024,1.0
GCF_022648285.1_ASM2264828v1,.,NZ_CP076492.1,S81_LN_i_1024_dp_f_8.528442125539081,1024,1.0
GCF_022648285.1_ASM2264828v1,.,NZ_CP076488.1,S81_LN_i_1024_dp_f_8.528442125539081,1024,1.0
GCF_022648285.1_ASM2264828v1,.,NZ_CP076488.1,S81_LN_i_1024_dp_f_8.528442125539081,1024,1.0
GCF_022648285.1_ASM2264828v1,.,NZ_CP076488.1,S81_LN_i_1024_dp_f_8.528442125539081,1024,1.0
GCF_022648285.1_ASM2264828v1,.,NZ_CP076489.1,S81_LN_i_1024_dp_f_8.528442125539081,1024,1.0
GCF_013344665.1_ASM1334466v1,.,NZ_CP046113.1,S1_LN_i_1116402_dp_f_0.85502873384023,1116402,1.0
GCF_013344665.1_ASM1334466v1,.,NZ_CP046113.1,S2_LN_i_367296_dp_f_1.096407368470583,367296,1.0
GCF_013344665.1_ASM1334466v1,.,NZ_CP046113.1,S3_LN_i_293421_dp_f_1.2476158888969995,293421,1.0
GCF_013344665.1_ASM1334466v1,.,NZ_CP046113.1,S4_LN_i_261156_dp_f_1.3242192169687952,261156,1.0
GCF_013344665.1_ASM1334466v1,.,NZ_CP046113.1,S5_LN_i_218480_dp_f_1.0,218480,1.0
GCF_013344665.1_ASM1334466v1,.,NZ_CP046113.1,S6_LN_i_158753_dp_f_1.0291373529547168,158753,1.0
GCF_013344665.1_ASM1334466v1,.,NZ_CP046113.1,S7_LN_i_158505_dp_f_1.0154593339194964,158505,1.0
GCF_013344665.1_ASM1334466v1,.,NZ_CP046113.1,S8_LN_i_61896_dp_f_1.1103040656902996,61896,1.0
GCF_013344665.1_ASM1334466v1,.,NZ_CP046113.1,S9_LN_i_11838_dp_f_1.101898942090028,11838,1.0
GCF_013344665.1_ASM1334466v1,.,NZ_CP046113.1,S10_LN_i_3283_dp_f_6.394459059374593,3283,1.0
GCF_013344665.1_ASM1334466v1,.,NZ_CP046113.1,S10_LN_i_3283_dp_f_6.394459059374593,3283,1.0
GCF_013344665.1_ASM1334466v1,.,NZ_CP046113.1,S10_LN_i_3283_dp_f_6.394459059374593,3283,1.0
GCF_013344665.1_ASM1334466v1,.,NZ_CP046113.1,S10_LN_i_3283_dp_f_6.394459059374593,3283,1.0
GCF_013344665.1_ASM1334466v1,.,NZ_CP046113.1,S11_LN_i_1830_dp_f_2.400313229833641,1830,1.0
GCF_013344665.1_ASM1334466v1,.,NZ_CP046113.1,S11_LN_i_1830_dp_f_2.400313229833641,1830,1.0
GCF_013344665.1_ASM1334466v1,.,NZ_CP046113.1,S12_LN_i_1812_dp_f_5.84198587981697,1812,1.0
GCF_013344665.1_ASM1334466v1,.,NZ_CP046113.1,S12_LN_i_1812_dp_f_5.84198587981697,1812,1.0
GCF_013344665.1_ASM1334466v1,.,NZ_CP046113.1,S12_LN_i_1812_dp_f_5.84198587981697,1812,1.0
GCF_013344665.1_ASM1334466v1,.,NZ_CP046113.1,S12_LN_i_1812_dp_f_5.84198587981697,1812,1.0
GCF_013344645.1_ASM1334464v1,.,NZ_CP046112.1,S1_LN_i_632184_dp_f_1.0,632184,1.0
GCF_013344645.1_ASM1334464v1,.,NZ_CP046112.1,S2_LN_i_374127_dp_f_0.8678665680116151,374127,1.0
GCF_013344645.1_ASM1334464v1,.,NZ_CP046112.1,S3_LN_i_320683_dp_f_1.1848625156664878,320683,1.0
GCF_013344645.1_ASM1334464v1,.,NZ_CP046112.1,S4_LN_i_233141_dp_f_0.8737958172714418,233141,1.0
GCF_013344645.1_ASM1334464v1,.,NZ_CP046112.1,S5_LN_i_227087_dp_f_1.021424444407216,227087,1.0
GCF_013344645.1_ASM1334464v1,.,NZ_CP046112.1,S6_LN_i_178656_dp_f_0.8000635300616876,178656,1.0
GCF_013344645.1_ASM1334464v1,.,NZ_CP046112.1,S7_LN_i_172639_dp_f_1.218715517957777,172639,1.0
GCF_013344645.1_ASM1334464v1,.,NZ_CP046112.1,S8_LN_i_151748_dp_f_1.019443499698707,151748,1.0
GCF_013344645.1_ASM1334464v1,.,NZ_CP046112.1,S9_LN_i_81824_dp_f_1.2361134351059375,81824,1.0
GCF_013344645.1_ASM1334464v1,.,NZ_CP046112.1,S10_LN_i_80209_dp_f_1.2117935427845163,80209,1.0
GCF_013344645.1_ASM1334464v1,.,NZ_CP046112.1,S11_LN_i_73027_dp_f_1.164992210452788,73027,1.0
GCF_013344645.1_ASM1334464v1,.,NZ_CP046112.1,S12_LN_i_66561_dp_f_1.1177440474933091,66561,1.0
GCF_013344645.1_ASM1334464v1,.,NZ_CP046112.1,S13_LN_i_57665_dp_f_1.131233413254343,57665,1.0
GCF_013344645.1_ASM1334464v1,.,NZ_CP046112.1,S14_LN_i_46599_dp_f_1.1026391372492692,46599,1.0
GCF_013344645.1_ASM1334464v1,.,NZ_CP046112.1,S15_LN_i_35724_dp_f_2.1541512758608348,35724,1.0
GCF_013344645.1_ASM1334464v1,.,NZ_CP046112.1,S16_LN_i_34102_dp_f_1.199464357199132,34102,1.0
GCF_013344645.1_ASM1334464v1,.,NZ_CP046112.1,S17_LN_i_27158_dp_f_0.9746118920781989,27158,1.0
GCF_013344645.1_ASM1334464v1,.,NZ_CP046112.1,S18_LN_i_25795_dp_f_1.1555151289867742,25795,1.0
GCF_013344645.1_ASM1334464v1,.,NZ_CP046112.1,S19_LN_i_25715_dp_f_0.9950674348983367,25715,1.0
GCF_013344645.1_ASM1334464v1,.,NZ_CP046112.1,S20_LN_i_19529_dp_f_0.9666511478937445,19529,1.0
GCF_013344645.1_ASM1334464v1,.,NZ_CP046112.1,S21_LN_i_15351_dp_f_1.1267022122543924,15351,1.0
GCF_013344645.1_ASM1334464v1,.,NZ_CP046112.1,S22_LN_i_7864_dp_f_0.9914738779886858,7864,1.0
GCF_013344645.1_ASM1334464v1,.,NZ_CP046112.1,S23_LN_i_5993_dp_f_0.9752358423339312,5993,1.0
GCF_013344645.1_ASM1334464v1,.,NZ_CP046112.1,S24_LN_i_3143_dp_f_5.69716428632502,3143,1.0
GCF_013344645.1_ASM1334464v1,.,NZ_CP046112.1,S24_LN_i_3143_dp_f_5.69716428632502,3143,1.0
GCF_013344645.1_ASM1334464v1,.,NZ_CP046112.1,S24_LN_i_3143_dp_f_5.69716428632502,3143,1.0
GCF_013344645.1_ASM1334464v1,.,NZ_CP046112.1,S24_LN_i_3143_dp_f_5.69716428632502,3143,1.0
GCF_013344645.1_ASM1334464v1,.,NZ_CP046112.1,S25_LN_i_1798_dp_f_5.599170903237108,1798,1.0
GCF_013344645.1_ASM1334464v1,.,NZ_CP046112.1,S25_LN_i_1798_dp_f_5.599170903237108,1798,1.0
GCF_013344645.1_ASM1334464v1,.,NZ_CP046112.1,S25_LN_i_1798_dp_f_5.599170903237108,1798,1.0
GCF_013344645.1_ASM1334464v1,.,NZ_CP046112.1,S25_LN_i_1798_dp_f_5.599170903237108,1798,1.0
GCF_013344645.1_ASM1334464v1,.,NZ_CP046112.1,S26_LN_i_1467_dp_f_2.2434406371576285,1467,1.0
GCF_013344645.1_ASM1334464v1,.,NZ_CP046112.1,S26_LN_i_1467_dp_f_2.2434406371576285,1467,1.0
GCF_013344645.1_ASM1334464v1,.,NZ_CP046112.1,S27_LN_i_1226_dp_f_1.9310142923770066,1226,1.0
GCF_013344645.1_ASM1334464v1,.,NZ_CP046112.1,S27_LN_i_1226_dp_f_1.9310142923770066,1226,1.0
GCF_013344645.1_ASM1334464v1,.,NZ_CP046112.1,S28_LN_i_1035_dp_f_2.583887727508099,1035,1.0
GCF_021655635.1_ASM2165563v1,.,NZ_AP025270.1,S1_LN_i_912634_dp_f_0.962714733757452,912634,1.0
GCF_021655635.1_ASM2165563v1,.,NZ_AP025270.1,S2_LN_i_411787_dp_f_1.0,411787,1.0
GCF_021655635.1_ASM2165563v1,.,NZ_AP025270.1,S3_LN_i_403700_dp_f_1.016329968543853,403700,1.0
GCF_021655635.1_ASM2165563v1,.,NZ_AP025270.1,S4_LN_i_307934_dp_f_0.9937494739591785,307934,1.0
GCF_021655635.1_ASM2165563v1,.,NZ_AP025270.1,S5_LN_i_270251_dp_f_1.0108918370029847,270251,1.0
GCF_021655635.1_ASM2165563v1,.,NZ_AP025270.1,S6_LN_i_217964_dp_f_1.001815465230607,217964,1.0
GCF_021655635.1_ASM2165563v1,.,NZ_AP025270.1,S7_LN_i_82658_dp_f_1.0165003594147524,82658,1.0
GCF_021655635.1_ASM2165563v1,.,NZ_AP025270.1,S8_LN_i_62198_dp_f_1.0104903936580172,62198,1.0
GCF_021655635.1_ASM2165563v1,.,NZ_AP025270.1,S9_LN_i_49395_dp_f_0.9701573407511266,49395,1.0
GCF_021655635.1_ASM2165563v1,.,NZ_AP025271.1,S10_LN_i_37717_dp_f_0.9748610275573345,37717,1.0
GCF_021655635.1_ASM2165563v1,.,NZ_AP025272.1,S11_LN_i_28224_dp_f_1.5355886988755907,28224,1.0
GCF_021655635.1_ASM2165563v1,.,NZ_AP025272.1,S12_LN_i_27486_dp_f_1.5081027380741523,27486,1.0
GCF_021655635.1_ASM2165563v1,.,NZ_AP025270.1,S13_LN_i_25752_dp_f_1.0351403065011866,25752,1.0
GCF_021655635.1_ASM2165563v1,.,NZ_AP025270.1,S14_LN_i_19755_dp_f_0.9929492514379142,19755,1.0
GCF_021655635.1_ASM2165563v1,.,NZ_AP025271.1,S15_LN_i_13459_dp_f_0.9907185040826917,13459,1.0
GCF_021655635.1_ASM2165563v1,.,NZ_AP025271.1,S16_LN_i_5100_dp_f_1.0262435652906077,5100,1.0
GCF_021655635.1_ASM2165563v1,.,NZ_AP025270.1,S17_LN_i_3143_dp_f_3.3981495901366667,3143,1.0
GCF_021655635.1_ASM2165563v1,.,NZ_AP025270.1,S17_LN_i_3143_dp_f_3.3981495901366667,3143,1.0
GCF_021655635.1_ASM2165563v1,.,NZ_AP025270.1,S17_LN_i_3143_dp_f_3.3981495901366667,3143,1.0
GCF_021655635.1_ASM2165563v1,.,NZ_AP025270.1,S17_LN_i_3143_dp_f_3.3981495901366667,3143,1.0
GCF_021655635.1_ASM2165563v1,.,NZ_AP025271.1,S18_LN_i_2772_dp_f_0.9088083093338201,2772,1.0
GCF_021655635.1_ASM2165563v1,.,NZ_AP025270.1,S19_LN_i_1815_dp_f_3.3778884555425304,1815,1.0
GCF_021655635.1_ASM2165563v1,.,NZ_AP025270.1,S19_LN_i_1815_dp_f_3.3778884555425304,1815,1.0
GCF_021655635.1_ASM2165563v1,.,NZ_AP025270.1,S19_LN_i_1815_dp_f_3.3778884555425304,1815,1.0
GCF_021655635.1_ASM2165563v1,.,NZ_AP025270.1,S19_LN_i_1815_dp_f_3.3778884555425304,1815,1.0
GCF_021655635.1_ASM2165563v1,.,NZ_AP025272.1,S20_LN_i_1474_dp_f_1.647685583188601,1474,1.0
GCF_021655635.1_ASM2165563v1,.,NZ_AP025272.1,S21_LN_i_1468_dp_f_1.6366036260339507,1468,1.0
GCF_020844125.1_ASM2084412v1,.,NZ_CP063980.1,S1_LN_i_1085803_dp_f_0.911622457611687,1085803,1.0
GCF_020844125.1_ASM2084412v1,.,NZ_CP063980.1,S2_LN_i_396505_dp_f_1.0729774580150275,396505,1.0
GCF_020844125.1_ASM2084412v1,.,NZ_CP063980.1,S3_LN_i_291393_dp_f_1.136480815651137,291393,1.0
GCF_020844125.1_ASM2084412v1,.,NZ_CP063980.1,S4_LN_i_270264_dp_f_1.0320381745959621,270264,1.0
GCF_020844125.1_ASM2084412v1,.,NZ_CP063980.1,S5_LN_i_260820_dp_f_1.2128623062357102,260820,1.0
GCF_020844125.1_ASM2084412v1,.,NZ_CP063980.1,S6_LN_i_240459_dp_f_1.0,240459,1.0
GCF_020844125.1_ASM2084412v1,.,NZ_CP063981.1,S7_LN_i_56701_dp_f_0.5446848012487913,56701,1.0
GCF_020844125.1_ASM2084412v1,.,NZ_CP063980.1,S8_LN_i_45839_dp_f_1.0823505296659899,45839,1.0
GCF_020844125.1_ASM2084412v1,.,NZ_CP063980.1,S9_LN_i_36343_dp_f_1.083345120612824,36343,1.0
GCF_020844125.1_ASM2084412v1,.,NZ_CP063980.1,S10_LN_i_32267_dp_f_1.2120566294529904,32267,1.0
GCF_020844125.1_ASM2084412v1,.,NZ_CP063980.1,S11_LN_i_30019_dp_f_1.0760041256667237,30019,1.0
GCF_020844125.1_ASM2084412v1,.,NZ_CP063980.1,S12_LN_i_18789_dp_f_0.9797308048690424,18789,1.0
GCF_020844125.1_ASM2084412v1,.,NZ_CP063980.1,S13_LN_i_5643_dp_f_1.605790075601862,5643,1.0
GCF_020844125.1_ASM2084412v1,.,NZ_CP063981.1,S13_LN_i_5643_dp_f_1.605790075601862,5643,1.0
GCF_020844125.1_ASM2084412v1,.,NZ_CP063980.1,S15_LN_i_4084_dp_f_1.1544420156784208,4084,1.0
GCF_020844125.1_ASM2084412v1,.,NZ_CP063980.1,S16_LN_i_3283_dp_f_5.060849728360367,3283,1.0
GCF_020844125.1_ASM2084412v1,.,NZ_CP063980.1,S16_LN_i_3283_dp_f_5.060849728360367,3283,1.0
GCF_020844125.1_ASM2084412v1,.,NZ_CP063980.1,S16_LN_i_3283_dp_f_5.060849728360367,3283,1.0
GCF_020844125.1_ASM2084412v1,.,NZ_CP063980.1,S16_LN_i_3283_dp_f_5.060849728360367,3283,1.0
GCF_020844125.1_ASM2084412v1,.,NZ_CP063980.1,S17_LN_i_1811_dp_f_5.286240992619944,1811,1.0
GCF_020844125.1_ASM2084412v1,.,NZ_CP063980.1,S17_LN_i_1811_dp_f_5.286240992619944,1811,1.0
GCF_020844125.1_ASM2084412v1,.,NZ_CP063980.1,S17_LN_i_1811_dp_f_5.286240992619944,1811,1.0
GCF_020844125.1_ASM2084412v1,.,NZ_CP063980.1,S17_LN_i_1811_dp_f_5.286240992619944,1811,1.0
GCF_020844125.1_ASM2084412v1,.,NZ_CP063981.1,S18_LN_i_1734_dp_f_1.413616965149895,1734,1.0
GCF_020844125.1_ASM2084412v1,.,NZ_CP063980.1,S18_LN_i_1734_dp_f_1.413616965149895,1734,1.0
GCF_020844125.1_ASM2084412v1,.,NZ_CP063980.1,S19_LN_i_1292_dp_f_2.2948619945771904,1292,1.0
GCF_020844125.1_ASM2084412v1,.,NZ_CP063980.1,S19_LN_i_1292_dp_f_2.2948619945771904,1292,1.0
GCF_020844125.1_ASM2084412v1,.,NZ_CP063981.1,S20_LN_i_1018_dp_f_0.5020666244086284,1018,1.0
GCF_013344625.1_ASM1334462v1,.,NZ_CP046111.1,S1_LN_i_632184_dp_f_1.0,632184,1.0
GCF_013344625.1_ASM1334462v1,.,NZ_CP046111.1,S2_LN_i_374127_dp_f_0.8684805385333388,374127,1.0
GCF_013344625.1_ASM1334462v1,.,NZ_CP046111.1,S3_LN_i_320683_dp_f_1.1753966341702857,320683,1.0
GCF_013344625.1_ASM1334462v1,.,NZ_CP046111.1,S4_LN_i_233141_dp_f_0.8660503676351271,233141,1.0
GCF_013344625.1_ASM1334462v1,.,NZ_CP046111.1,S5_LN_i_224003_dp_f_1.0383866513378095,224003,1.0
GCF_013344625.1_ASM1334462v1,.,NZ_CP046111.1,S6_LN_i_178656_dp_f_0.8195606584773563,178656,1.0
GCF_013344625.1_ASM1334462v1,.,NZ_CP046111.1,S7_LN_i_172639_dp_f_1.1999390451993162,172639,1.0
GCF_013344625.1_ASM1334462v1,.,NZ_CP046111.1,S8_LN_i_151748_dp_f_1.0192707640634409,151748,1.0
GCF_013344625.1_ASM1334462v1,.,NZ_CP046111.1,S9_LN_i_81824_dp_f_1.2067238119778045,81824,1.0
GCF_013344625.1_ASM1334462v1,.,NZ_CP046111.1,S10_LN_i_80209_dp_f_1.2181355719705884,80209,1.0
GCF_013344625.1_ASM1334462v1,.,NZ_CP046111.1,S11_LN_i_73027_dp_f_1.168720613419751,73027,1.0
GCF_013344625.1_ASM1334462v1,.,NZ_CP046111.1,S12_LN_i_66561_dp_f_1.1070297308195125,66561,1.0
GCF_013344625.1_ASM1334462v1,.,NZ_CP046111.1,S13_LN_i_57665_dp_f_1.1203468305152946,57665,1.0
GCF_013344625.1_ASM1334462v1,.,NZ_CP046111.1,S14_LN_i_46599_dp_f_1.1227908719307655,46599,1.0
GCF_013344625.1_ASM1334462v1,.,NZ_CP046111.1,S15_LN_i_35844_dp_f_2.209813950321071,35844,1.0
GCF_013344625.1_ASM1334462v1,.,NZ_CP046111.1,S16_LN_i_34102_dp_f_1.1779160858926427,34102,1.0
GCF_013344625.1_ASM1334462v1,.,NZ_CP046111.1,S17_LN_i_27158_dp_f_0.90424953143725,27158,1.0
GCF_013344625.1_ASM1334462v1,.,NZ_CP046111.1,S18_LN_i_25795_dp_f_1.1521103257154908,25795,1.0
GCF_013344625.1_ASM1334462v1,.,NZ_CP046111.1,S19_LN_i_25715_dp_f_0.9981750644389673,25715,1.0
GCF_013344625.1_ASM1334462v1,.,NZ_CP046111.1,S20_LN_i_19423_dp_f_0.9689010206000778,19423,1.0
GCF_013344625.1_ASM1334462v1,.,NZ_CP046111.1,S21_LN_i_15351_dp_f_1.0627222797322728,15351,1.0
GCF_013344625.1_ASM1334462v1,.,NZ_CP046111.1,S22_LN_i_7864_dp_f_0.9876260154036655,7864,1.0
GCF_013344625.1_ASM1334462v1,.,NZ_CP046111.1,S23_LN_i_5993_dp_f_0.9087874672910896,5993,1.0
GCF_013344625.1_ASM1334462v1,.,NZ_CP046111.1,S24_LN_i_3250_dp_f_5.428763712488065,3250,1.0
GCF_013344625.1_ASM1334462v1,.,NZ_CP046111.1,S24_LN_i_3250_dp_f_5.428763712488065,3250,1.0
GCF_013344625.1_ASM1334462v1,.,NZ_CP046111.1,S24_LN_i_3250_dp_f_5.428763712488065,3250,1.0
GCF_013344625.1_ASM1334462v1,.,NZ_CP046111.1,S24_LN_i_3250_dp_f_5.428763712488065,3250,1.0
GCF_013344625.1_ASM1334462v1,.,NZ_CP046111.1,S25_LN_i_1798_dp_f_4.926315301241393,1798,1.0
GCF_013344625.1_ASM1334462v1,.,NZ_CP046111.1,S25_LN_i_1798_dp_f_4.926315301241393,1798,1.0
GCF_013344625.1_ASM1334462v1,.,NZ_CP046111.1,S25_LN_i_1798_dp_f_4.926315301241393,1798,1.0
GCF_013344625.1_ASM1334462v1,.,NZ_CP046111.1,S25_LN_i_1798_dp_f_4.926315301241393,1798,1.0
GCF_013344625.1_ASM1334462v1,.,NZ_CP046111.1,S26_LN_i_1467_dp_f_2.1445347566232513,1467,1.0
GCF_013344625.1_ASM1334462v1,.,NZ_CP046111.1,S26_LN_i_1467_dp_f_2.1445347566232513,1467,1.0
GCF_013344625.1_ASM1334462v1,.,NZ_CP046111.1,S27_LN_i_1226_dp_f_1.9548859166824186,1226,1.0
GCF_013344625.1_ASM1334462v1,.,NZ_CP046111.1,S27_LN_i_1226_dp_f_1.9548859166824186,1226,1.0
GCF_013344625.1_ASM1334462v1,.,NZ_CP046111.1,S28_LN_i_1035_dp_f_2.584620317812504,1035,1.0
GCF_013344625.1_ASM1334462v1,.,NZ_CP046111.1,S29_LN_i_1005_dp_f_10.183537355058236,1005,1.0
GCF_013344625.1_ASM1334462v1,.,NZ_CP046111.1,S29_LN_i_1005_dp_f_10.183537355058236,1005,1.0
GCF_013344625.1_ASM1334462v1,.,NZ_CP046111.1,S29_LN_i_1005_dp_f_10.183537355058236,1005,1.0
GCF_013344625.1_ASM1334462v1,.,NZ_CP046111.1,S29_LN_i_1005_dp_f_10.183537355058236,1005,1.0
GCF_013344625.1_ASM1334462v1,.,NZ_CP046111.1,S29_LN_i_1005_dp_f_10.183537355058236,1005,1.0
GCF_013344625.1_ASM1334462v1,.,NZ_CP046111.1,S29_LN_i_1005_dp_f_10.183537355058236,1005,1.0
GCF_013344625.1_ASM1334462v1,.,NZ_CP046111.1,S29_LN_i_1005_dp_f_10.183537355058236,1005,1.0
GCF_013344625.1_ASM1334462v1,.,NZ_CP046111.1,S29_LN_i_1005_dp_f_10.183537355058236,1005,1.0
GCF_013344625.1_ASM1334462v1,.,NZ_CP046111.1,S29_LN_i_1005_dp_f_10.183537355058236,1005,1.0
GCF_013344625.1_ASM1334462v1,.,NZ_CP046111.1,S29_LN_i_1005_dp_f_10.183537355058236,1005,1.0
GCF_018986755.2_ASM1898675v2,.,NZ_CP075604.2,S1_LN_i_295185_dp_f_0.9439997194753977,295185,1.0
GCF_018986755.2_ASM1898675v2,.,NZ_CP075604.2,S2_LN_i_212092_dp_f_0.9994219607428936,212092,1.0
GCF_018986755.2_ASM1898675v2,.,NZ_CP075604.2,S3_LN_i_189786_dp_f_1.0074435408970552,189786,1.0
GCF_018986755.2_ASM1898675v2,.,NZ_CP075604.2,S4_LN_i_185405_dp_f_1.0044087283783028,185405,1.0
GCF_018986755.2_ASM1898675v2,.,NZ_CP075604.2,S5_LN_i_174016_dp_f_0.9842101204084222,174016,1.0
GCF_018986755.2_ASM1898675v2,.,NZ_CP075604.2,S6_LN_i_161964_dp_f_0.9751083134827943,161964,1.0
GCF_018986755.2_ASM1898675v2,.,NZ_CP075604.2,S7_LN_i_131034_dp_f_1.0088328275778924,131034,1.0
GCF_018986755.2_ASM1898675v2,.,NZ_CP075604.2,S8_LN_i_119730_dp_f_1.0,119730,1.0
GCF_018986755.2_ASM1898675v2,.,NZ_CP075604.2,S9_LN_i_118604_dp_f_1.0066783967763602,118604,1.0
GCF_018986755.2_ASM1898675v2,.,NZ_CP075604.2,S10_LN_i_102250_dp_f_1.018590378148773,102250,1.0
GCF_018986755.2_ASM1898675v2,.,NZ_CP075604.2,S11_LN_i_99298_dp_f_0.9803356412079669,99298,1.0
GCF_018986755.2_ASM1898675v2,.,NZ_CP075604.2,S12_LN_i_97031_dp_f_1.0145852948213905,97031,1.0
GCF_018986755.2_ASM1898675v2,.,NZ_CP075604.2,S13_LN_i_82712_dp_f_1.0090598112873932,82712,1.0
GCF_018986755.2_ASM1898675v2,.,NZ_CP075604.2,S14_LN_i_76497_dp_f_0.9997243699115814,76497,1.0
GCF_018986755.2_ASM1898675v2,.,NZ_CP075604.2,S15_LN_i_66141_dp_f_0.9749291485862656,66141,1.0
GCF_018986755.2_ASM1898675v2,.,NZ_CP075604.2,S16_LN_i_63336_dp_f_1.0471804948791352,63336,1.0
GCF_018986755.2_ASM1898675v2,.,NZ_CP075604.2,S17_LN_i_61833_dp_f_0.9412076358026745,61833,1.0
GCF_018986755.2_ASM1898675v2,.,NZ_CP075604.2,S18_LN_i_58923_dp_f_0.9583072518443372,58923,1.0
GCF_018986755.2_ASM1898675v2,.,NZ_CP075604.2,S19_LN_i_55903_dp_f_1.020306549746494,55903,1.0
GCF_018986755.2_ASM1898675v2,.,NZ_CP075604.2,S20_LN_i_54391_dp_f_1.0437390834040448,54391,1.0
GCF_018986755.2_ASM1898675v2,.,NZ_CP075604.2,S21_LN_i_54083_dp_f_0.9851962834755565,54083,1.0
GCF_018986755.2_ASM1898675v2,.,NZ_CP075604.2,S22_LN_i_51009_dp_f_0.9897821005476963,51009,1.0
GCF_018986755.2_ASM1898675v2,.,NZ_CP075604.2,S23_LN_i_50328_dp_f_1.0350242360273825,50328,1.0
GCF_018986755.2_ASM1898675v2,.,NZ_CP075606.1,S24_LN_i_37935_dp_f_1.6412953465492437,37935,1.0
GCF_018986755.2_ASM1898675v2,.,NZ_CP075604.2,S25_LN_i_37106_dp_f_0.9923144611890745,37106,1.0
GCF_018986755.2_ASM1898675v2,.,NZ_CP075604.2,S26_LN_i_36801_dp_f_1.0345776105114664,36801,1.0
GCF_018986755.2_ASM1898675v2,.,NZ_CP075604.2,S27_LN_i_35106_dp_f_1.0188875088567335,35106,1.0
GCF_018986755.2_ASM1898675v2,.,NZ_CP075604.2,S28_LN_i_34792_dp_f_0.963533188278396,34792,1.0
GCF_018986755.2_ASM1898675v2,.,NZ_CP075604.2,S29_LN_i_34200_dp_f_0.9826887614494481,34200,1.0
GCF_018986755.2_ASM1898675v2,.,NZ_CP075605.1,S30_LN_i_32010_dp_f_2.2301899648410215,32010,1.0
GCF_018986755.2_ASM1898675v2,.,NZ_CP075604.2,S31_LN_i_31718_dp_f_1.0414130403515578,31718,1.0
GCF_018986755.2_ASM1898675v2,.,NZ_CP075604.2,S32_LN_i_31538_dp_f_0.9584440639783823,31538,1.0
GCF_018986755.2_ASM1898675v2,.,NZ_CP075604.2,S33_LN_i_29038_dp_f_0.9896625708477321,29038,1.0
GCF_018986755.2_ASM1898675v2,.,NZ_CP075604.2,S34_LN_i_26194_dp_f_1.036622083806666,26194,1.0
GCF_018986755.2_ASM1898675v2,.,NZ_CP075604.2,S35_LN_i_25735_dp_f_0.9999015291260253,25735,1.0
GCF_018986755.2_ASM1898675v2,.,NZ_CP075604.2,S36_LN_i_25526_dp_f_0.9918763492497806,25526,1.0
GCF_018986755.2_ASM1898675v2,.,NZ_CP075604.2,S37_LN_i_23296_dp_f_1.0823165454728778,23296,1.0
GCF_018986755.2_ASM1898675v2,.,NZ_CP075607.1,S38_LN_i_23189_dp_f_1.1370707202501376,23189,1.0
GCF_018986755.2_ASM1898675v2,.,NZ_CP075604.2,S39_LN_i_22444_dp_f_0.9451632098284731,22444,1.0
GCF_018986755.2_ASM1898675v2,.,NZ_CP075606.1,S40_LN_i_21628_dp_f_1.5956036210210387,21628,1.0
GCF_018986755.2_ASM1898675v2,.,NZ_CP075607.1,S41_LN_i_19146_dp_f_1.0963976350103914,19146,1.0
GCF_018986755.2_ASM1898675v2,.,NZ_CP075604.2,S42_LN_i_17706_dp_f_0.9459280526437269,17706,1.0
GCF_018986755.2_ASM1898675v2,.,NZ_CP075604.2,S43_LN_i_16682_dp_f_0.9257754924942712,16682,1.0
GCF_018986755.2_ASM1898675v2,.,NZ_CP075604.2,S44_LN_i_15961_dp_f_1.0628224049807609,15961,1.0
GCF_018986755.2_ASM1898675v2,.,NZ_CP075604.2,S45_LN_i_15355_dp_f_0.9906488013208252,15355,1.0
GCF_018986755.2_ASM1898675v2,.,NZ_CP075604.2,S46_LN_i_13588_dp_f_0.9417141275662193,13588,1.0
GCF_018986755.2_ASM1898675v2,.,NZ_CP075604.2,S47_LN_i_13331_dp_f_0.9550302270239619,13331,1.0
GCF_018986755.2_ASM1898675v2,.,NZ_CP075604.2,S48_LN_i_11652_dp_f_1.0273664597992902,11652,1.0
GCF_018986755.2_ASM1898675v2,.,NZ_CP075608.1,S49_LN_i_10990_dp_f_1.7621443893249717,10990,1.0
GCF_018986755.2_ASM1898675v2,.,NZ_CP075604.2,S50_LN_i_10501_dp_f_2.1091833367645965,10501,1.0
GCF_018986755.2_ASM1898675v2,.,NZ_CP075604.2,S50_LN_i_10501_dp_f_2.1091833367645965,10501,1.0
GCF_018986755.2_ASM1898675v2,.,NZ_CP075604.2,S51_LN_i_9671_dp_f_0.984786642676295,9671,1.0
GCF_018986755.2_ASM1898675v2,.,NZ_CP075604.2,S52_LN_i_9637_dp_f_0.9979735911522691,9637,1.0
GCF_018986755.2_ASM1898675v2,.,NZ_CP075604.2,S53_LN_i_9457_dp_f_1.0370452729415292,9457,1.0
GCF_018986755.2_ASM1898675v2,.,NZ_CP075604.2,S54_LN_i_9395_dp_f_0.9579931400260736,9395,1.0
GCF_018986755.2_ASM1898675v2,.,NZ_CP075608.1,S55_LN_i_8994_dp_f_1.542195702173418,8994,1.0
GCF_018986755.2_ASM1898675v2,.,NZ_CP075605.1,S56_LN_i_7447_dp_f_2.1386121379538654,7447,1.0
GCF_018986755.2_ASM1898675v2,.,NZ_CP075605.1,S57_LN_i_7192_dp_f_2.132082183811055,7192,1.0
GCF_018986755.2_ASM1898675v2,.,NZ_CP075604.2,S58_LN_i_7010_dp_f_0.9356555180554643,7010,1.0
GCF_018986755.2_ASM1898675v2,.,NZ_CP075605.1,S59_LN_i_6446_dp_f_2.247174852953925,6446,1.0
GCF_018986755.2_ASM1898675v2,.,NZ_CP075604.2,S60_LN_i_5616_dp_f_1.0200799096542001,5616,1.0
GCF_018986755.2_ASM1898675v2,.,NZ_CP075605.1,S61_LN_i_5074_dp_f_2.052252297890986,5074,1.0
GCF_018986755.2_ASM1898675v2,.,NZ_CP075606.1,S62_LN_i_4577_dp_f_1.8261655765656206,4577,1.0
GCF_018986755.2_ASM1898675v2,.,NZ_CP075609.1,S63_LN_i_4375_dp_f_1.8065905878534458,4375,1.0
GCF_018986755.2_ASM1898675v2,.,NZ_CP075604.2,S64_LN_i_4045_dp_f_2.074595466825084,4045,1.0
GCF_018986755.2_ASM1898675v2,.,NZ_CP075604.2,S64_LN_i_4045_dp_f_2.074595466825084,4045,1.0
GCF_018986755.2_ASM1898675v2,.,NZ_CP075604.2,S65_LN_i_3781_dp_f_0.9404756329748032,3781,1.0
GCF_018986755.2_ASM1898675v2,.,NZ_CP075604.2,S66_LN_i_3707_dp_f_1.0114855033299943,3707,1.0
GCF_018986755.2_ASM1898675v2,.,NZ_CP075604.2,S67_LN_i_3283_dp_f_3.855334652234351,3283,1.0
GCF_018986755.2_ASM1898675v2,.,NZ_CP075604.2,S67_LN_i_3283_dp_f_3.855334652234351,3283,1.0
GCF_018986755.2_ASM1898675v2,.,NZ_CP075604.2,S67_LN_i_3283_dp_f_3.855334652234351,3283,1.0
GCF_018986755.2_ASM1898675v2,.,NZ_CP075604.2,S67_LN_i_3283_dp_f_3.855334652234351,3283,1.0
GCF_018986755.2_ASM1898675v2,.,NZ_CP075604.2,S68_LN_i_3163_dp_f_0.9253769947101604,3163,1.0
GCF_018986755.2_ASM1898675v2,.,NZ_CP075605.1,S69_LN_i_2819_dp_f_2.1610297245574284,2819,1.0
GCF_018986755.2_ASM1898675v2,.,NZ_CP075604.2,S70_LN_i_2288_dp_f_0.8863718273945972,2288,1.0
GCF_018986755.2_ASM1898675v2,.,NZ_CP075610.1,S71_LN_i_2056_dp_f_0.5688832234592769,2056,0.88
GCF_018986755.2_ASM1898675v2,.,NZ_CP075605.1,S72_LN_i_1980_dp_f_2.154588521830443,1980,1.0
GCF_018986755.2_ASM1898675v2,.,NZ_CP075604.2,S73_LN_i_1916_dp_f_0.918948849437052,1916,1.0
GCF_018986755.2_ASM1898675v2,.,NZ_CP075604.2,S74_LN_i_1799_dp_f_3.6487309283859526,1799,1.0
GCF_018986755.2_ASM1898675v2,.,NZ_CP075604.2,S74_LN_i_1799_dp_f_3.6487309283859526,1799,1.0
GCF_018986755.2_ASM1898675v2,.,NZ_CP075604.2,S74_LN_i_1799_dp_f_3.6487309283859526,1799,1.0
GCF_018986755.2_ASM1898675v2,.,NZ_CP075604.2,S74_LN_i_1799_dp_f_3.6487309283859526,1799,1.0
GCF_018986755.2_ASM1898675v2,.,NZ_CP075604.2,S75_LN_i_1449_dp_f_5.336275334773973,1449,1.0
GCF_018986755.2_ASM1898675v2,.,NZ_CP075604.2,S75_LN_i_1449_dp_f_5.336275334773973,1449,1.0
GCF_018986755.2_ASM1898675v2,.,NZ_CP075604.2,S75_LN_i_1449_dp_f_5.336275334773973,1449,1.0
GCF_018986755.2_ASM1898675v2,.,NZ_CP075604.2,S75_LN_i_1449_dp_f_5.336275334773973,1449,1.0
GCF_018986755.2_ASM1898675v2,.,NZ_CP075604.2,S75_LN_i_1449_dp_f_5.336275334773973,1449,1.0
GCF_018986755.2_ASM1898675v2,.,NZ_CP075604.2,S76_LN_i_1448_dp_f_1.16262607192615,1448,1.0
GCF_018986755.2_ASM1898675v2,.,NZ_CP075604.2,S77_LN_i_1440_dp_f_18.208103612958215,1440,1.0
GCF_018986755.2_ASM1898675v2,.,NZ_CP075604.2,S77_LN_i_1440_dp_f_18.208103612958215,1440,1.0
GCF_018986755.2_ASM1898675v2,.,NZ_CP075604.2,S77_LN_i_1440_dp_f_18.208103612958215,1440,1.0
GCF_018986755.2_ASM1898675v2,.,NZ_CP075604.2,S77_LN_i_1440_dp_f_18.208103612958215,1440,1.0
GCF_018986755.2_ASM1898675v2,.,NZ_CP075604.2,S77_LN_i_1440_dp_f_18.208103612958215,1440,1.0
GCF_018986755.2_ASM1898675v2,.,NZ_CP075604.2,S77_LN_i_1440_dp_f_18.208103612958215,1440,1.0
GCF_018986755.2_ASM1898675v2,.,NZ_CP075604.2,S77_LN_i_1440_dp_f_18.208103612958215,1440,1.0
GCF_018986755.2_ASM1898675v2,.,NZ_CP075604.2,S77_LN_i_1440_dp_f_18.208103612958215,1440,1.0
GCF_018986755.2_ASM1898675v2,.,NZ_CP075605.1,S77_LN_i_1440_dp_f_18.208103612958215,1440,1.0
GCF_018986755.2_ASM1898675v2,.,NZ_CP075604.2,S77_LN_i_1440_dp_f_18.208103612958215,1440,1.0
GCF_018986755.2_ASM1898675v2,.,NZ_CP075604.2,S77_LN_i_1440_dp_f_18.208103612958215,1440,1.0
GCF_018986755.2_ASM1898675v2,.,NZ_CP075604.2,S77_LN_i_1440_dp_f_18.208103612958215,1440,1.0
GCF_018986755.2_ASM1898675v2,.,NZ_CP075604.2,S77_LN_i_1440_dp_f_18.208103612958215,1440,1.0
GCF_018986755.2_ASM1898675v2,.,NZ_CP075604.2,S77_LN_i_1440_dp_f_18.208103612958215,1440,1.0
GCF_018986755.2_ASM1898675v2,.,NZ_CP075604.2,S77_LN_i_1440_dp_f_18.208103612958215,1440,1.0
GCF_018986755.2_ASM1898675v2,.,NZ_CP075604.2,S77_LN_i_1440_dp_f_18.208103612958215,1440,1.0
GCF_018986755.2_ASM1898675v2,.,NZ_CP075604.2,S77_LN_i_1440_dp_f_18.208103612958215,1440,1.0
GCF_018986755.2_ASM1898675v2,.,NZ_CP075605.1,S78_LN_i_1413_dp_f_2.408699239025333,1413,1.0
GCF_018986755.2_ASM1898675v2,.,NZ_CP075604.2,S79_LN_i_1304_dp_f_1.8254852144951874,1304,1.0
GCF_018986755.2_ASM1898675v2,.,NZ_CP075604.2,S79_LN_i_1304_dp_f_1.8254852144951874,1304,1.0
GCF_018986755.2_ASM1898675v2,.,NZ_CP075605.1,S80_LN_i_1291_dp_f_3.5477591102002966,1291,1.0
GCF_018986755.2_ASM1898675v2,.,NZ_CP075604.2,S80_LN_i_1291_dp_f_3.5477591102002966,1291,1.0
GCF_018986755.2_ASM1898675v2,.,NZ_CP075604.2,S81_LN_i_1201_dp_f_21.80548291324166,1201,1.0
GCF_018986755.2_ASM1898675v2,.,NZ_CP075605.1,S81_LN_i_1201_dp_f_21.80548291324166,1201,1.0
GCF_018986755.2_ASM1898675v2,.,NZ_CP075604.2,S81_LN_i_1201_dp_f_21.80548291324166,1201,1.0
GCF_018986755.2_ASM1898675v2,.,NZ_CP075605.1,S81_LN_i_1201_dp_f_21.80548291324166,1201,1.0
GCF_018986755.2_ASM1898675v2,.,NZ_CP075604.2,S81_LN_i_1201_dp_f_21.80548291324166,1201,1.0
GCF_018986755.2_ASM1898675v2,.,NZ_CP075604.2,S81_LN_i_1201_dp_f_21.80548291324166,1201,1.0
GCF_018986755.2_ASM1898675v2,.,NZ_CP075604.2,S81_LN_i_1201_dp_f_21.80548291324166,1201,1.0
GCF_018986755.2_ASM1898675v2,.,NZ_CP075606.1,S81_LN_i_1201_dp_f_21.80548291324166,1201,1.0
GCF_018986755.2_ASM1898675v2,.,NZ_CP075604.2,S81_LN_i_1201_dp_f_21.80548291324166,1201,1.0
GCF_018986755.2_ASM1898675v2,.,NZ_CP075604.2,S81_LN_i_1201_dp_f_21.80548291324166,1201,1.0
GCF_018986755.2_ASM1898675v2,.,NZ_CP075604.2,S81_LN_i_1201_dp_f_21.80548291324166,1201,1.0
GCF_018986755.2_ASM1898675v2,.,NZ_CP075604.2,S81_LN_i_1201_dp_f_21.80548291324166,1201,1.0
GCF_018986755.2_ASM1898675v2,.,NZ_CP075604.2,S81_LN_i_1201_dp_f_21.80548291324166,1201,1.0
GCF_018986755.2_ASM1898675v2,.,NZ_CP075605.1,S81_LN_i_1201_dp_f_21.80548291324166,1201,1.0
GCF_018986755.2_ASM1898675v2,.,NZ_CP075604.2,S81_LN_i_1201_dp_f_21.80548291324166,1201,1.0
GCF_018986755.2_ASM1898675v2,.,NZ_CP075604.2,S81_LN_i_1201_dp_f_21.80548291324166,1201,1.0
GCF_018986755.2_ASM1898675v2,.,NZ_CP075604.2,S82_LN_i_1155_dp_f_1.9011785382975612,1155,1.0
GCF_018986755.2_ASM1898675v2,.,NZ_CP075604.2,S82_LN_i_1155_dp_f_1.9011785382975612,1155,1.0
GCF_018986755.2_ASM1898675v2,.,NZ_CP075604.2,S83_LN_i_1102_dp_f_1.0634439103324025,1102,1.0
GCF_018986755.2_ASM1898675v2,.,NZ_CP075604.2,S84_LN_i_1065_dp_f_3.4023650976025044,1065,1.0
GCF_018986755.2_ASM1898675v2,.,NZ_CP075604.2,S84_LN_i_1065_dp_f_3.4023650976025044,1065,1.0
GCF_018986755.2_ASM1898675v2,.,NZ_CP075604.2,S84_LN_i_1065_dp_f_3.4023650976025044,1065,1.0
GCF_018986755.2_ASM1898675v2,.,NZ_CP075604.2,S85_LN_i_1009_dp_f_1.1286390412176692,1009,1.0
GCF_906464895.1_WE0851,.,NZ_OD940422.1,S1_LN_i_369565_dp_f_1.1933942441614347,369565,1.0
GCF_906464895.1_WE0851,.,NZ_OD940422.1,S2_LN_i_336068_dp_f_0.9855294678681653,336068,1.0
GCF_906464895.1_WE0851,.,NZ_OD940422.1,S3_LN_i_233232_dp_f_0.7998198517205275,233232,1.0
GCF_906464895.1_WE0851,.,NZ_OD940422.1,S4_LN_i_225310_dp_f_0.8508097217256785,225310,1.0
GCF_906464895.1_WE0851,.,NZ_OD940422.1,S5_LN_i_194880_dp_f_1.3436653372007161,194880,1.0
GCF_906464895.1_WE0851,.,NZ_OD940422.1,S6_LN_i_160701_dp_f_1.1874091906231268,160701,1.0
GCF_906464895.1_WE0851,.,NZ_OD940422.1,S7_LN_i_142007_dp_f_1.0153248773044652,142007,1.0
GCF_906464895.1_WE0851,.,NZ_OD940422.1,S8_LN_i_122495_dp_f_1.0,122495,1.0
GCF_906464895.1_WE0851,.,NZ_OD940422.1,S9_LN_i_111328_dp_f_1.0164295188886607,111328,1.0
GCF_906464895.1_WE0851,.,NZ_OD940422.1,S10_LN_i_94978_dp_f_0.9126248497328381,94978,1.0
GCF_906464895.1_WE0851,.,NZ_OD940422.1,S11_LN_i_88438_dp_f_1.0241794420380381,88438,1.0
GCF_906464895.1_WE0851,.,NZ_OD940422.1,S12_LN_i_84053_dp_f_1.335501228915866,84053,1.0
GCF_906464895.1_WE0851,.,NZ_OD940422.1,S13_LN_i_82219_dp_f_0.8016391997929,82219,1.0
GCF_906464895.1_WE0851,.,NZ_OD940422.1,S14_LN_i_66638_dp_f_1.1276363674053913,66638,1.0
GCF_906464895.1_WE0851,.,NZ_OD940422.1,S15_LN_i_65581_dp_f_1.146477551237627,65581,1.0
GCF_906464895.1_WE0851,.,NZ_OD940422.1,S16_LN_i_65332_dp_f_0.8746828950001236,65332,1.0
GCF_906464895.1_WE0851,.,NZ_OD940422.1,S17_LN_i_61670_dp_f_0.8549183115199221,61670,1.0
GCF_906464895.1_WE0851,.,NZ_OD940422.1,S18_LN_i_55053_dp_f_1.0799862074834705,55053,1.0
GCF_906464895.1_WE0851,.,NZ_OD940423.1,S19_LN_i_43709_dp_f_0.7156513809190045,43709,1.0
GCF_906464895.1_WE0851,.,NZ_OD940422.1,S20_LN_i_36586_dp_f_1.0328513973439224,36586,1.0
GCF_906464895.1_WE0851,.,NZ_OD940422.1,S21_LN_i_33867_dp_f_1.1668660576604863,33867,1.0
GCF_906464895.1_WE0851,.,NZ_OD940422.1,S22_LN_i_23753_dp_f_1.2080003307669906,23753,1.0
GCF_906464895.1_WE0851,.,NZ_OD940422.1,S23_LN_i_17155_dp_f_1.0254506796628706,17155,1.0
GCF_906464895.1_WE0851,.,NZ_OD940422.1,S24_LN_i_15354_dp_f_0.9384497631298689,15354,1.0
GCF_906464895.1_WE0851,.,NZ_OD940422.1,S25_LN_i_10952_dp_f_1.0201769335205946,10952,1.0
GCF_906464895.1_WE0851,.,NZ_OD940424.1,S26_LN_i_10176_dp_f_2.853513607978123,10176,1.0
GCF_906464895.1_WE0851,.,NZ_OD940422.1,S27_LN_i_6874_dp_f_0.39717907405922603,6874,1.0
GCF_906464895.1_WE0851,.,NZ_OD940423.1,S28_LN_i_6487_dp_f_0.9670414373205565,6487,1.0
GCF_906464895.1_WE0851,.,NZ_OD940424.1,S29_LN_i_6304_dp_f_2.376399255991613,6304,1.0
GCF_906464895.1_WE0851,.,NZ_OD940423.1,S30_LN_i_6146_dp_f_0.8452094725824826,6146,1.0
GCF_906464895.1_WE0851,.,NZ_OD940425.1,S31_LN_i_6023_dp_f_0.9826789302577732,6023,0.96
GCF_906464895.1_WE0851,.,NZ_OD940424.1,S32_LN_i_3402_dp_f_3.640733032009154,3402,1.0
GCF_906464895.1_WE0851,.,NZ_OD940422.1,S33_LN_i_3283_dp_f_6.715816470583321,3283,1.0
GCF_906464895.1_WE0851,.,NZ_OD940422.1,S33_LN_i_3283_dp_f_6.715816470583321,3283,1.0
GCF_906464895.1_WE0851,.,NZ_OD940422.1,S33_LN_i_3283_dp_f_6.715816470583321,3283,1.0
GCF_906464895.1_WE0851,.,NZ_OD940422.1,S33_LN_i_3283_dp_f_6.715816470583321,3283,1.0
GCF_906464895.1_WE0851,.,NZ_OD940422.1,S34_LN_i_2374_dp_f_0.6756995447742036,2374,1.0
GCF_906464895.1_WE0851,.,NZ_OD940427.1,S35_LN_i_1958_dp_f_0.5142097826279285,1958,1.0
GCF_906464895.1_WE0851,.,NZ_OD940426.1,S36_LN_i_1919_dp_f_1.12629049059351,1919,1.0
GCF_906464895.1_WE0851,.,NZ_OD940422.1,S37_LN_i_1791_dp_f_6.720269512763921,1791,1.0
GCF_906464895.1_WE0851,.,NZ_OD940422.1,S37_LN_i_1791_dp_f_6.720269512763921,1791,1.0
GCF_906464895.1_WE0851,.,NZ_OD940422.1,S37_LN_i_1791_dp_f_6.720269512763921,1791,1.0
GCF_906464895.1_WE0851,.,NZ_OD940422.1,S37_LN_i_1791_dp_f_6.720269512763921,1791,1.0
GCF_906464895.1_WE0851,.,NZ_OD940428.1,S38_LN_i_1340_dp_f_0.9980810356132505,1340,1.0
GCF_906464895.1_WE0851,.,NZ_OD940422.1,S39_LN_i_1338_dp_f_6.645569628989075,1338,1.0
GCF_906464895.1_WE0851,.,NZ_OD940422.1,S39_LN_i_1338_dp_f_6.645569628989075,1338,1.0
GCF_906464895.1_WE0851,.,NZ_OD940422.1,S39_LN_i_1338_dp_f_6.645569628989075,1338,1.0
GCF_906464895.1_WE0851,.,NZ_OD940422.1,S39_LN_i_1338_dp_f_6.645569628989075,1338,1.0
GCF_906464895.1_WE0851,.,NZ_OD940422.1,S40_LN_i_1324_dp_f_17.89497193595983,1324,1.0
GCF_906464895.1_WE0851,.,NZ_OD940422.1,S40_LN_i_1324_dp_f_17.89497193595983,1324,1.0
GCF_906464895.1_WE0851,.,NZ_OD940422.1,S40_LN_i_1324_dp_f_17.89497193595983,1324,1.0
GCF_906464895.1_WE0851,.,NZ_OD940422.1,S40_LN_i_1324_dp_f_17.89497193595983,1324,1.0
GCF_906464895.1_WE0851,.,NZ_OD940422.1,S40_LN_i_1324_dp_f_17.89497193595983,1324,1.0
GCF_906464895.1_WE0851,.,NZ_OD940422.1,S40_LN_i_1324_dp_f_17.89497193595983,1324,1.0
GCF_906464895.1_WE0851,.,NZ_OD940422.1,S40_LN_i_1324_dp_f_17.89497193595983,1324,1.0
GCF_906464895.1_WE0851,.,NZ_OD940422.1,S40_LN_i_1324_dp_f_17.89497193595983,1324,1.0
GCF_906464895.1_WE0851,.,NZ_OD940422.1,S40_LN_i_1324_dp_f_17.89497193595983,1324,1.0
GCF_906464895.1_WE0851,.,NZ_OD940422.1,S40_LN_i_1324_dp_f_17.89497193595983,1324,1.0
GCF_906464895.1_WE0851,.,NZ_OD940422.1,S40_LN_i_1324_dp_f_17.89497193595983,1324,1.0
GCF_906464895.1_WE0851,.,NZ_OD940422.1,S40_LN_i_1324_dp_f_17.89497193595983,1324,1.0
GCF_906464895.1_WE0851,.,NZ_OD940422.1,S40_LN_i_1324_dp_f_17.89497193595983,1324,1.0
GCF_906464895.1_WE0851,.,NZ_OD940422.1,S41_LN_i_1282_dp_f_0.32039761354800267,1282,1.0
GCF_906464895.1_WE0851,.,NZ_OD940423.1,S42_LN_i_1279_dp_f_1.8397545201517094,1279,1.0
GCF_906464895.1_WE0851,.,NZ_OD940423.1,S42_LN_i_1279_dp_f_1.8397545201517094,1279,1.0
GCF_906464895.1_WE0851,.,NZ_OD940424.1,S43_LN_i_1236_dp_f_2.091595907512582,1236,1.0
GCF_906464895.1_WE0851,.,NZ_OD940422.1,S44_LN_i_1016_dp_f_7.093477591442423,1016,1.0
GCF_906464895.1_WE0851,.,NZ_OD940422.1,S44_LN_i_1016_dp_f_7.093477591442423,1016,1.0
GCF_906464895.1_WE0851,.,NZ_OD940422.1,S44_LN_i_1016_dp_f_7.093477591442423,1016,1.0
GCF_906464895.1_WE0851,.,NZ_OD940422.1,S44_LN_i_1016_dp_f_7.093477591442423,1016,1.0
GCF_906464895.1_WE0851,.,NZ_OD940422.1,S44_LN_i_1016_dp_f_7.093477591442423,1016,1.0
