>NC_010605.1 Acinetobacter baumannii ACICU plasmid pACICU1, complete sequence	28279
>NC_010606.1 Acinetobacter baumannii ACICU plasmid pACICU2, complete sequence	64366
>NC_011585.2 Acinetobacter baumannii AB0057 plasmid pAB0057, complete sequence	8731
>NC_010401.1 Acinetobacter baumannii AYE plasmid p1ABAYE, complete sequence	5644
>NC_010402.1 Acinetobacter baumannii AYE plasmid p2ABAYE, complete sequence	9661
>NC_010404.1 Acinetobacter baumannii AYE plasmid p3ABAYE, complete sequence	94413
>NC_010403.1 Acinetobacter baumannii AYE plasmid p4ABAYE, complete sequence	2726
>NC_020525.1 Acinetobacter baumannii D1279779 plasmid pD1279779, complete sequence	7416
>NC_017848.1 Acinetobacter baumannii MDR-TJ plasmid pABTJ1, complete sequence	77528
>NC_020524.1 Acinetobacter baumannii MDR-TJ plasmid pABTJ2, complete sequence	110967
>NC_017163.1 Acinetobacter baumannii 1656-2 plasmid ABKp1, complete sequence	74451
>NC_017164.1 Acinetobacter baumannii 1656-2 plasmid ABKp2, complete sequence	8041
>NC_021727.1 Acinetobacter baumannii BJAB07104 plasmid p1BJAB07104, complete sequence	70170
>NC_021728.1 Acinetobacter baumannii BJAB07104 plasmid p2BJAB07104, complete sequence	20139
>NC_021734.1 Acinetobacter baumannii BJAB0715 plasmid pBJAB0715, complete sequence	52268
>NC_021730.1 Acinetobacter baumannii BJAB0868 plasmid p1BJAB0868, complete sequence	8721
>NC_021731.1 Acinetobacter baumannii BJAB0868 plasmid p2BJAB0868, complete sequence	70167
>NC_021732.1 Acinetobacter baumannii BJAB0868 plasmid p3BJAB0868, complete sequence	20139
>NZ_CP017152.1 Acinetobacter baumannii DU202 chromosome, complete genome	4178958
>NC_019985.2 Acinetobacter baumannii ZW85-1 plasmid pAbNDM-1, complete sequence	48368
>NC_023031.1 Acinetobacter baumannii ZW85-1 plasmid ZW85p2, complete sequence	113866
>NZ_CP007535.2 Acinetobacter baumannii strain AC29 chromosome, complete genome	3851648
>NZ_CP008850.1 Acinetobacter baumannii strain AC29 plasmid pAC29a, complete sequence	8737
>NZ_CP008851.1 Acinetobacter baumannii strain AC29 plasmid pAC29b, complete sequence	74749
>NZ_CP009256.1 Acinetobacter baumannii strain AB31 chromosome, complete genome	3803317
>NZ_CP009257.1 Acinetobacter baumannii strain AB30 chromosome, complete genome	4335793
>NZ_CP009534.1 Acinetobacter baumannii strain Strain AbH12O-A2 chromosome, complete genome	3875775
>NZ_CP007712.1 Acinetobacter baumannii LAC-4 chromosome, complete genome	3954354
>NZ_CP007713.1 Acinetobacter baumannii LAC-4 plasmid pABLAC1, complete sequence	8006
>NZ_CP007714.1 Acinetobacter baumannii LAC-4 plasmid pABLAC2, complete sequence	6076
>NZ_CP010397.1 Acinetobacter baumannii strain 6200 chromosome, complete genome	3902527
>NZ_CP010398.1 Acinetobacter baumannii strain 6200 plasmid p6200-114.848kb, complete sequence	114848
>NZ_CP010399.1 Acinetobacter baumannii strain 6200 plasmid p6200-47.274kb, complete sequence	47274
>NZ_CP010400.1 Acinetobacter baumannii strain 6200 plasmid p6200-9.327kb, complete sequence	9327
>NZ_AP013357.1 Acinetobacter baumannii NCGM 237 chromosome, complete genome	4021920
>NZ_AP014649.1 Acinetobacter baumannii strain IOMTU433 chromosome, complete genome	4000970
>NZ_AP014650.1 Acinetobacter baumannii strain IOMTU433 plasmid pIOMTU433, complete sequence	189354
>NZ_CP010781.1 Acinetobacter baumannii strain A1 chromosome, complete genome	3909008
>NZ_CP010782.1 Acinetobacter baumannii strain A1 plasmid pA1-1, complete sequence	8731
>NZ_CP015483.1 Acinetobacter baumannii strain ORAB01 chromosome 1, complete sequence	3971435
>NZ_CP015484.1 Acinetobacter baumannii strain ORAB01 plasmid pORAB01-1, complete sequence	110965
>NZ_CP015485.1 Acinetobacter baumannii strain ORAB01 plasmid pORAB01-2, complete sequence	24022
>NZ_CP015486.1 Acinetobacter baumannii strain ORAB01 plasmid pORAB01-3, complete sequence	15198
>NZ_CP008706.1 Acinetobacter baumannii strain AB5075-UW chromosome, complete genome	3972672
>NZ_CP008707.1 Acinetobacter baumannii strain AB5075-UW plasmid p1AB5075, complete sequence	83610
>NZ_CP008708.1 Acinetobacter baumannii strain AB5075-UW plasmid p2AB5075, complete sequence	8731
>NZ_CP008709.1 Acinetobacter baumannii strain AB5075-UW plasmid p3AB5075, complete sequence	1967
>NZ_CP010779.1 Acinetobacter baumannii strain XH386 chromosome, complete genome	4087343
>NZ_CP010780.1 Acinetobacter baumannii strain XH386 plasmid pAB386, complete sequence	112157
>NZ_CP021342.1 Acinetobacter baumannii strain B8342 chromosome, complete genome	3947826
>NZ_CP012006.1 Acinetobacter baumannii strain Ab04-mff chromosome, complete genome	3935688
>NZ_CP012007.1 Acinetobacter baumannii strain Ab04-mff plasmid pAB04-1, complete sequence	169023
>NZ_CP012008.1 Acinetobacter baumannii strain Ab04-mff plasmid pAB04-2, complete sequence	87569
>NZ_CP012004.1 Acinetobacter baumannii strain ATCC 17978-mff chromosome, complete genome	3857743
>NZ_CP012005.1 Acinetobacter baumannii strain ATCC 17978-mff plasmid pAB3, complete sequence	148955
>NZ_CP021347.1 Acinetobacter baumannii strain B8300 chromosome, complete genome	3824908
>NZ_CP021348.1 Acinetobacter baumannii strain B8300 plasmid pB8300, complete sequence	25150
>NZ_LN868200.1 Acinetobacter baumannii isolate R2090 chromosome I, complete sequence	3819158
>NZ_CP012952.1 Acinetobacter baumannii strain D36 chromosome, complete genome	4063596
>NZ_CP012953.1 Acinetobacter baumannii strain D36 plasmid pD36-1 clone GC1, complete sequence	4754
>NZ_CP012955.1 Acinetobacter baumannii strain D36 plasmid pD36-3 clone GC1, complete sequence	9276
>NZ_CP012956.1 Acinetobacter baumannii strain D36 plasmid pD36-4 clone GC1, complete sequence	47457
>NZ_CP012954.1 Acinetobacter baumannii strain D36 plasmid pRAY* (pD36-2) clone GC1, complete sequence	6078
>NZ_LN865143.1 Acinetobacter baumannii isolate CIP70.10 chromosome I, complete sequence	3928513
>NZ_LN865144.1 Acinetobacter baumannii isolate CIP70.10 plasmid II, complete sequence	7742
>NZ_CP013924.1 Acinetobacter baumannii strain KBN10P02143 chromosome, complete genome	4086879
>NZ_CP013925.1 Acinetobacter baumannii strain KBN10P02143 plasmid pKBN10P02143, complete sequence	52517
>NZ_LN997846.1 Acinetobacter baumannii isolate R2091 chromosome I, complete sequence	3939746
>NZ_LN997847.1 Acinetobacter baumannii isolate R2091 plasmid II, complete sequence	7742
>NZ_CP014215.1 Acinetobacter baumannii strain YU-R612 chromosome, complete genome	4075545
>NZ_CP014216.1 Acinetobacter baumannii strain YU-R612 plasmid unnamed1, complete sequence	74241
>NZ_CP014217.1 Acinetobacter baumannii strain YU-R612 plasmid unnamed2, complete sequence	5465
>NZ_CP014538.1 Acinetobacter baumannii strain XH860 chromosome, complete genome	3846621
>NZ_CP014539.1 Acinetobacter baumannii strain XH859 chromosome, complete genome	3977071
>NZ_CP014540.1 Acinetobacter baumannii strain XH857 chromosome, complete genome	3879636
>NZ_CP014541.1 Acinetobacter baumannii strain XH856 chromosome, complete genome	3908399
>NZ_CP014528.1 Acinetobacter baumannii strain XH858 chromosome, complete genome	4172609
>NZ_CP018664.1 Acinetobacter baumannii strain ATCC 17978 chromosome, complete genome	4004792
>NZ_CP015364.1 Acinetobacter baumannii strain 3207 chromosome, complete genome	3998012
>NZ_CP015365.1 Acinetobacter baumannii strain 3207 plasmid pAba3207a, complete sequence	13478
>NZ_CP015366.1 Acinetobacter baumannii strain 3207 plasmid pAba3207b, complete sequence	80546
>NZ_CP035049.1 Acinetobacter baumannii strain ABUH773 chromosome, complete genome	3873900
>NZ_CP035050.1 Acinetobacter baumannii strain ABUH773 plasmid p11.8Kbp, complete sequence	11810
>NZ_CP035045.1 Acinetobacter baumannii strain ABUH793 chromosome, complete genome	3915869
>NZ_CP035048.1 Acinetobacter baumannii strain ABUH793 plasmid p10.9Kbp, complete sequence	10945
>NZ_CP035047.1 Acinetobacter baumannii strain ABUH793 plasmid p74.1Kbp, complete sequence	74091
>NZ_CP035046.1 Acinetobacter baumannii strain ABUH793 plasmid p107.0Kbp, complete sequence	106963
>NZ_CP035051.1 Acinetobacter baumannii strain ABUH763 chromosome, complete genome	3929411
>NZ_CP035053.1 Acinetobacter baumannii strain ABUH763 plasmid p11.0Kbp, complete sequence	10967
>NZ_CP035052.1 Acinetobacter baumannii strain ABUH763 plasmid p74.1Kbp, complete sequence	74091
>NZ_CP035043.1 Acinetobacter baumannii strain ABUH796 chromosome, complete genome	3930797
>NZ_CP035044.1 Acinetobacter baumannii strain ABUH796 plasmid p13.0Kbp, complete sequence	12952
>NZ_CP012587.1 Acinetobacter baumannii strain CA-17 chromosome, complete genome	3719282
>NZ_CP017642.1 Acinetobacter baumannii strain KAB01 chromosome, complete genome	3963217
>NZ_CP017643.1 Acinetobacter baumannii strain KAB01 plasmid unnamed, complete sequence	70875
>NZ_CP017644.1 Acinetobacter baumannii strain KAB02 chromosome, complete genome	4004978
>NZ_CP017645.1 Acinetobacter baumannii strain KAB02 plasmid unnamed, complete sequence	81227
>NZ_CP017646.1 Acinetobacter baumannii strain KAB03 chromosome, complete genome	3983069
>NZ_CP017647.1 Acinetobacter baumannii strain KAB03 plasmid unnamed, complete sequence	73891
>NZ_CP017648.1 Acinetobacter baumannii strain KAB04 chromosome, complete genome	4006639
>NZ_CP017649.1 Acinetobacter baumannii strain KAB04 plasmid unnamed, complete sequence	121485
>NZ_CP017650.1 Acinetobacter baumannii strain KAB05 chromosome, complete genome	3967717
>NZ_CP017651.1 Acinetobacter baumannii strain KAB05 plasmid unnamed, complete sequence	70884
>NZ_CP017652.1 Acinetobacter baumannii strain KAB06 chromosome, complete genome	3967831
>NZ_CP017653.1 Acinetobacter baumannii strain KAB06 plasmid unnamed, complete sequence	70884
>NZ_CP017654.1 Acinetobacter baumannii strain KAB07 chromosome, complete genome	3982361
>NZ_CP017655.1 Acinetobacter baumannii strain KAB07 plasmid pKAB07, complete sequence	72073
>NZ_CP017656.1 Acinetobacter baumannii strain KAB08 chromosome, complete genome	3973763
>NZ_CP017657.1 Acinetobacter baumannii strain KAB08 plasmid unnamed, complete sequence	101406
>NZ_CP018143.1 Acinetobacter baumannii strain HRAB-85 chromosome, complete genome	4021072
>NZ_CP018144.1 Acinetobacter baumannii strain HRAB-85 plasmid unnamed, complete sequence	77513
>NZ_AP023077.1 Acinetobacter baumannii strain OCU_Ac16a chromosome, complete genome	3992063
>NZ_AP023078.1 Acinetobacter baumannii strain OCU_Ac16a plasmid pOCU_Ac16a_1, complete sequence	73028
>NZ_AP023079.1 Acinetobacter baumannii strain OCU_Ac16a plasmid pOCU_Ac16a_2, complete sequence	41087
>NZ_AP023080.1 Acinetobacter baumannii strain OCU_Ac16a plasmid pOCU_Ac16a_3, complete sequence	13096
>NZ_CP018256.1 Acinetobacter baumannii strain AF-673 chromosome, complete genome	3982140
>NZ_CP018257.1 Acinetobacter baumannii strain AF-673 plasmid pAF-673, complete sequence	110964
>NZ_CP018254.1 Acinetobacter baumannii strain AF-401 chromosome, complete genome	4250048
>NZ_CP018255.1 Acinetobacter baumannii strain AF-401 plasmid pAF-401, complete sequence	17583
>NZ_CP018421.1 Acinetobacter baumannii strain XDR-BJ83 isolate male patient chromosome, complete genome	4011552
>NZ_CP018422.1 Acinetobacter baumannii strain XDR-BJ83 isolate male patient plasmid pBJ83, complete sequence	69069
>NZ_CP018677.1 Acinetobacter baumannii strain LAC4 chromosome, complete genome	3974606
>NZ_CP018678.1 Acinetobacter baumannii strain LAC4 plasmid pALAC4-1, complete sequence	8006
>NZ_CP018679.1 Acinetobacter baumannii strain LAC4 plasmid pALAC4-2, complete sequence	6078
>NZ_CP016295.1 Acinetobacter baumannii strain CMC-CR-MDR-Ab4 chromosome, complete genome	3970947
>NZ_CP016296.1 Acinetobacter baumannii strain CMC-CR-MDR-Ab4 plasmid pCMCVTAb1-Ab4, complete sequence	110968
>NZ_CP016297.1 Acinetobacter baumannii strain CMC-CR-MDR-Ab4 plasmid pCMCVTAb2-Ab4, complete sequence	74090
>NZ_CP016298.1 Acinetobacter baumannii strain CMC-MDR-Ab59 chromosome, complete genome	3965390
>NZ_CP016299.1 Acinetobacter baumannii strain CMC-MDR-Ab59 plasmid pCMCVTAb1-Ab59, complete sequence	110967
>NZ_CP016300.1 Acinetobacter baumannii strain CMC-CR-MDR-Ab66 chromosome, complete genome	3990003
>NZ_CP016301.1 Acinetobacter baumannii strain CMC-CR-MDR-Ab66 plasmid pCMCVTAb1-Ab66, complete sequence	110967
>NZ_CP016302.1 Acinetobacter baumannii strain CMC-CR-MDR-Ab66 plasmid pCMCVTAb2-Ab66, complete sequence	73188
>NZ_CP019034.1 Acinetobacter baumannii strain AB042 chromosome, complete genome	4004719
>NZ_CP020584.1 Acinetobacter baumannii strain JBA13 chromosome, complete genome	3974901
>NZ_CP020582.1 Acinetobacter baumannii strain JBA13 plasmid pJBA13_1, complete sequence	90972
>NZ_CP020586.1 Acinetobacter baumannii strain CBA7 chromosome, complete genome	3996455
>NZ_CP020585.1 Acinetobacter baumannii strain CBA7 plasmid pCBA7_1, complete sequence	111999
>NZ_CP020590.1 Acinetobacter baumannii strain 15A34 chromosome, complete genome	3866657
>NZ_CP020589.1 Acinetobacter baumannii strain 15A34 plasmid p15A34_1, complete sequence	72076
>NZ_CP020574.1 Acinetobacter baumannii strain 15A5 chromosome, complete genome	3966348
>NZ_CP020573.1 Acinetobacter baumannii strain 15A5 plasmid p15A5_1, complete sequence	74241
>NZ_CP020575.1 Acinetobacter baumannii strain 15A5 plasmid p15A5_2, complete sequence	8718
>NZ_CP020592.1 Acinetobacter baumannii strain USA2 chromosome, complete genome	3913358
>NZ_CP020593.1 Acinetobacter baumannii strain USA2 plasmid pUSA2_1, complete sequence	74241
>NZ_CP020591.1 Acinetobacter baumannii strain SSA6 chromosome, complete genome	3884414
>NZ_CP020597.1 Acinetobacter baumannii strain HWBA8 chromosome, complete genome	4077713
>NZ_CP020596.1 Acinetobacter baumannii strain HWBA8 plasmid pHWBA8_1, complete sequence	195838
>NZ_CP020598.1 Acinetobacter baumannii strain WKA02 chromosome, complete genome	3870945
>NZ_CP020595.1 Acinetobacter baumannii strain USA15 chromosome, complete genome	3930178
>NZ_CP020594.1 Acinetobacter baumannii strain USA15 plasmid pUSA15_1, complete sequence	98301
>NZ_CP020579.1 Acinetobacter baumannii strain SAA14 chromosome, complete genome	3972565
>NZ_CP020578.1 Acinetobacter baumannii strain SSA12 chromosome, complete genome	3982722
>NZ_CP020577.1 Acinetobacter baumannii strain SSA12 plasmid pSSA12_1, complete sequence	73264
>NZ_CP020576.1 Acinetobacter baumannii strain SSA12 plasmid pSSA12_2, complete sequence	8730
>NZ_CP020581.1 Acinetobacter baumannii strain SSMA17 chromosome, complete genome	3932204
>NZ_CP020580.1 Acinetobacter baumannii strain SSMA17 plasmid pSSMA17_1, complete sequence	90973
>NZ_CP015121.1 Acinetobacter baumannii strain ab736 chromosome, complete genome	3980886
>NZ_CP015122.1 Acinetobacter baumannii strain ab736 plasmid unnamed, complete sequence	9539
>NZ_CP021782.1 Acinetobacter baumannii strain A85 chromosome, complete genome	4039997
>NZ_CP021783.1 Acinetobacter baumannii strain A85 plasmid pA85-1, complete sequence	2726
>NZ_CP021784.1 Acinetobacter baumannii strain A85 plasmid pA85-1a, complete sequence	2343
>NZ_CP021785.1 Acinetobacter baumannii strain A85 plasmid pA85-1b, complete sequence	4484
>NZ_CP021786.1 Acinetobacter baumannii strain A85 plasmid pA85-2, complete sequence	8731
>NZ_CP021787.1 Acinetobacter baumannii strain A85 plasmid pA85-3, complete sequence	86334
>NZ_CP018332.1 Acinetobacter baumannii strain A1296 chromosome, complete genome	3686342
>NZ_CP018333.1 Acinetobacter baumannii strain A1296 isolate A1296 plasmid pA1296_1, complete sequence	112773
>NZ_CP018334.1 Acinetobacter baumannii strain A1296 isolate A1296 plasmid pA1296_2, complete sequence	11586
>NZ_CP024418.1 Acinetobacter baumannii strain A388 chromosome, complete genome	3999012
>NZ_CP024419.1 Acinetobacter baumannii strain A388 plasmid pA388, complete sequence	33036
>NZ_CP024576.1 Acinetobacter baumannii strain AbPK1 chromosome, complete genome	4052889
>NZ_CP024577.1 Acinetobacter baumannii strain AbPK1 plasmid pAbPK1a, complete sequence	15113
>NZ_CP024578.1 Acinetobacter baumannii strain AbPK1 plasmid pAbPK1b, complete sequence	79335
>NZ_CP024124.1 Acinetobacter baumannii strain AYP-A2 chromosome, complete genome	3991735
>NZ_CP024125.1 Acinetobacter baumannii strain AYP-A2 plasmid pAYP-A2, complete sequence	110967
>NZ_CP024611.1 Acinetobacter baumannii strain Ab4977 chromosome, complete genome	3966912
>NZ_CP024613.1 Acinetobacter baumannii strain Ab4568 chromosome, complete genome	4000452
>NZ_CP024612.1 Acinetobacter baumannii strain Ab4653 chromosome, complete genome	3913931
>NZ_CP001172.1 Acinetobacter baumannii AB307-0294 chromosome, complete genome	3759495
>NZ_CP025266.1 Acinetobacter baumannii isolate SMC_Paed_Ab_BL01 chromosome, complete genome	3983848
>NZ_CP025267.1 Acinetobacter baumannii isolate SMC_Paed_Ab_BL01 plasmid pSMC_AB_BL01_1, complete sequence	74241
>NZ_CP026125.1 Acinetobacter baumannii strain ABNIH28 chromosome, complete genome	3787376
>NZ_CP026128.1 Acinetobacter baumannii strain ABNIH28 plasmid pABA-1fe1, complete sequence	110754
>NZ_CP026129.1 Acinetobacter baumannii strain ABNIH28 plasmid pABA-2f10, complete sequence	130044
>NZ_CP026127.1 Acinetobacter baumannii strain ABNIH28 plasmid pNDM-0285, complete sequence	39359
>NZ_CP026126.1 Acinetobacter baumannii strain ABNIH28 plasmid pABA-6973, complete sequence	11305
>NZ_CP026707.1 Acinetobacter baumannii strain AR_0056 chromosome, complete genome	3993843
>NZ_CP026705.1 Acinetobacter baumannii strain AR_0056 plasmid tig00000058_pilon, complete sequence	113706
>NZ_CP026706.1 Acinetobacter baumannii strain AR_0056 plasmid tig00000059_pilon, complete sequence	72105
>NZ_CP026708.1 Acinetobacter baumannii strain AR_0056 plasmid tig00000534_pilon, complete sequence	8731
>NZ_CP026711.1 Acinetobacter baumannii strain AR_0063 chromosome, complete genome	4028761
>NZ_CP026712.1 Acinetobacter baumannii strain AR_0063 plasmid unitig_2_pilon, complete sequence	72990
>NZ_CP026761.1 Acinetobacter baumannii strain AR_0078 chromosome, complete genome	3871930
>NZ_CP026750.2 Acinetobacter baumannii strain WCHAB005133 chromosome, complete genome	3893621
>NZ_CP026748.1 Acinetobacter baumannii strain WCHAB005133 plasmid p1_005133, complete sequence	5602
>NZ_CP026749.2 Acinetobacter baumannii strain WCHAB005133 plasmid pOXA58_005133, complete sequence	42455
>NZ_CP027528.1 Acinetobacter baumannii strain AR_0083 chromosome, complete genome	4149444
>NZ_CP027529.1 Acinetobacter baumannii strain AR_0083 plasmid unnamed, complete sequence	8731
>NZ_CP027246.2 Acinetobacter baumannii strain WCHAB005078 chromosome, complete genome	3990012
>NZ_CP027243.1 Acinetobacter baumannii strain WCHAB005078 plasmid p1_005078, complete sequence	70796
>NZ_CP027244.1 Acinetobacter baumannii strain WCHAB005078 plasmid p2_005078, complete sequence	8731
>NZ_CP027245.2 Acinetobacter baumannii strain WCHAB005078 plasmid pOXA58_005078, complete sequence	70509
>NZ_CP027530.1 Acinetobacter baumannii strain AR_0088 chromosome, complete genome	4040515
>NZ_CP027531.1 Acinetobacter baumannii strain AR_0088 plasmid unnamed1, complete sequence	146698
>NZ_CP027532.1 Acinetobacter baumannii strain AR_0088 plasmid unnamed2, complete sequence	41087
>NZ_CP027607.1 Acinetobacter baumannii strain AR_0102 chromosome, complete genome	3944627
>NZ_CP027608.1 Acinetobacter baumannii strain AR_0102 plasmid unnamed1, complete sequence	106967
>NZ_CP027609.1 Acinetobacter baumannii strain AR_0102 plasmid unnamed2, complete sequence	8731
>NZ_CP027611.1 Acinetobacter baumannii strain AR_0101 chromosome, complete genome	4233827
>NZ_CP027610.1 Acinetobacter baumannii strain AR_0101 plasmid unnamed, complete sequence	16095
>NZ_CP027123.1 Acinetobacter baumannii strain AR_0056 chromosome, complete genome	3993838
>NZ_CP027122.1 Acinetobacter baumannii strain AR_0056 plasmid unnamed1, complete sequence	113706
>NZ_CP027121.1 Acinetobacter baumannii strain AR_0056 plasmid unnamed2, complete sequence	72105
>NZ_CP027124.1 Acinetobacter baumannii strain AR_0056 plasmid unnamed3, complete sequence	8731
>NZ_CP029569.1 Acinetobacter baumannii strain DA33098 chromosome, complete genome	3975885
>NZ_CP029570.1 Acinetobacter baumannii strain DA33098 plasmid pDA33098-108, complete sequence	108151
>NZ_CP029571.1 Acinetobacter baumannii strain DA33098 plasmid pDA33098-71, complete sequence	71234
>NZ_CP029573.1 Acinetobacter baumannii strain DA33098 plasmid pDA33098-9, complete sequence	8963
>NZ_CP029572.1 Acinetobacter baumannii strain DA33098 plasmid pDA33098-9-2, complete sequence	8771
>NZ_CP021321.1 Acinetobacter baumannii strain XH731 chromosome, complete genome	3914578
>NZ_CP021322.1 Acinetobacter baumannii strain XH731 plasmid pXH731, complete sequence	64557
>NZ_CP021326.1 Acinetobacter baumannii strain XH386 chromosome, complete genome	4108882
>NZ_CP021327.1 Acinetobacter baumannii strain XH386 plasmid pXH386, complete sequence	112155
>NZ_CP019217.1 Acinetobacter baumannii strain XH731 chromosome, complete genome	3909773
>NZ_CP019218.1 Acinetobacter baumannii strain XH731 plasmid pXH731, complete sequence	64554
>NZ_CP030083.1 Acinetobacter baumannii strain Aba chromosome, complete genome	3911735
>NZ_CP030084.1 Acinetobacter baumannii strain Aba plasmid unnamed1, complete sequence	8732
>NZ_CP030106.1 Acinetobacter baumannii strain DA33382 chromosome, complete genome	3947407
>NZ_CP030108.1 Acinetobacter baumannii strain DA33382 plasmid pDA33382-2, complete sequence	2359
>NZ_CP030107.1 Acinetobacter baumannii strain DA33382 plasmid pDA33382-2-2, complete sequence	2372
>NZ_CP030109.1 Acinetobacter baumannii strain DA33382 plasmid pDA33382-85, complete sequence	84678
>NZ_CP026338.1 Acinetobacter baumannii strain 810CP chromosome, complete genome	4089681
>NZ_CP026340.1 Acinetobacter baumannii strain 810CP plasmid pAba810CPa, complete sequence	5281
>NZ_CP026339.1 Acinetobacter baumannii strain 810CP plasmid pAba810CPb, complete sequence	16095
>NZ_CP022283.1 Acinetobacter baumannii strain 7804 chromosome, complete genome	4159217
>NZ_CP022284.1 Acinetobacter baumannii strain 7804 plasmid pAba7804a, complete sequence	12381
>NZ_CP022285.1 Acinetobacter baumannii strain 7804 plasmid pAba7804b, complete sequence	170420
>NZ_CP027178.1 Acinetobacter baumannii strain AR_0070 chromosome, complete genome	4093545
>NZ_CP027179.1 Acinetobacter baumannii strain AR_0070 plasmid unnamed1, complete sequence	39535
>NZ_CP027180.1 Acinetobacter baumannii strain AR_0070 plasmid unnamed2, complete sequence	73018
>NZ_CP027181.1 Acinetobacter baumannii strain AR_0070 plasmid unnamed3, complete sequence	6078
>NZ_CP027182.1 Acinetobacter baumannii strain AR_0070 plasmid unnamed4, complete sequence	105127
>NZ_CP023031.1 Acinetobacter baumannii strain 7847 chromosome, complete genome	3986569
>NZ_CP023032.1 Acinetobacter baumannii strain 7847 plasmid pAba7847a, complete sequence	13478
>NZ_CP023033.1 Acinetobacter baumannii strain 7847 plasmid pAba7847b, complete sequence	80546
>NZ_CP023020.1 Acinetobacter baumannii strain 9201 chromosome, complete genome	4119128
>NZ_CP023021.1 Acinetobacter baumannii strain 9201 plasmid pAba9201a, complete sequence	9024
>NZ_CP023022.1 Acinetobacter baumannii strain 10324 chromosome, complete genome	3736581
>NZ_CP023023.1 Acinetobacter baumannii strain 10324 plasmid pAba10324a, complete sequence	5300
>NZ_CP023024.1 Acinetobacter baumannii strain 10324 plasmid pAba10324b, complete sequence	7143
>NZ_CP023025.1 Acinetobacter baumannii strain 10324 plasmid pAba10324c, complete sequence	113420
>NZ_CP023026.1 Acinetobacter baumannii strain 10042 chromosome, complete genome	4031086
>NZ_CP023027.1 Acinetobacter baumannii strain 10042 plasmid pAba10042a, complete sequence	10062
>NZ_CP023028.1 Acinetobacter baumannii strain 10042 plasmid pAba10042b, complete sequence	110728
>NZ_CP023029.1 Acinetobacter baumannii strain 9102 chromosome, complete genome	3971623
>NZ_CP023030.1 Acinetobacter baumannii strain 9102 plasmid pAba9102a, complete sequence	95206
>NZ_CP023034.1 Acinetobacter baumannii strain 5845 chromosome, complete genome	3980012
>NZ_CP023035.1 Acinetobacter baumannii strain 5845 plasmid pAba5845a, complete sequence	9935
>NZ_CP027183.1 Acinetobacter baumannii strain AR_0052 chromosome, complete genome	4078507
>NZ_CP027185.1 Acinetobacter baumannii strain AR_0052 plasmid unnamed1, complete sequence	105128
>NZ_CP027184.1 Acinetobacter baumannii strain AR_0052 plasmid unnamed2, complete sequence	60699
>NZ_CP027187.1 Acinetobacter baumannii strain AR_0052 plasmid unnamed3, complete sequence	6078
>NZ_CP027186.1 Acinetobacter baumannii strain AR_0052 plasmid unnamed4	38505
>NZ_CP023140.1 Acinetobacter baumannii strain XH906 chromosome, complete genome	3891370
>NZ_CP033754.1 Acinetobacter baumannii strain FDAARGOS_540 chromosome, complete genome	3803345
>NZ_CP033753.1 Acinetobacter baumannii strain FDAARGOS_540 plasmid unnamed1, complete sequence	86551
>NZ_CP033752.1 Acinetobacter baumannii strain FDAARGOS_540 plasmid unnamed2, complete sequence	13195
>NZ_CP033751.1 Acinetobacter baumannii strain FDAARGOS_540 plasmid unnamed3	7181
>NZ_CP033768.1 Acinetobacter baumannii strain FDAARGOS_533 chromosome, complete genome	3781536
>NZ_CP033769.1 Acinetobacter baumannii strain FDAARGOS_533 plasmid unnamed1, complete sequence	97783
>NZ_CP033770.1 Acinetobacter baumannii strain FDAARGOS_533 plasmid unnamed2, complete sequence	6078
>NZ_CP033869.1 Acinetobacter baumannii strain MRSN15313 chromosome, complete genome	4193847
>NZ_CP033872.1 Acinetobacter baumannii strain MRSN15313 plasmid pAb-MCR4.3, complete sequence	35502
>NZ_CP033871.1 Acinetobacter baumannii strain MRSN15313 plasmid p597A-14.8, complete sequence	14807
>NZ_CP033870.1 Acinetobacter baumannii strain MRSN15313 plasmid p597A-6.7, complete sequence	6667
>NZ_CP034242.1 Acinetobacter baumannii isolate 09A16CRGN0014 chromosome, complete genome	3943275
>NZ_CP034243.1 Acinetobacter baumannii isolate 09A16CRGN003B chromosome, complete genome	3943105
>NZ_CP039341.1 Acinetobacter baumannii strain TG31986 chromosome, complete genome	4049647
>NZ_CP039342.1 Acinetobacter baumannii strain TG31986 plasmid pTG31986, complete sequence	55269
>NZ_CP039518.1 Acinetobacter baumannii strain TG22653 chromosome, complete genome	3891074
>NZ_CP039519.1 Acinetobacter baumannii strain TG22653 plasmid pTG22653, complete sequence	127784
>NZ_CP039520.1 Acinetobacter baumannii strain TG22627 chromosome, complete genome	3915428
>NZ_CP039521.1 Acinetobacter baumannii strain TG22627 plasmid pTG22627, complete sequence	5602
>NZ_CP039343.1 Acinetobacter baumannii strain TG31302 chromosome, complete genome	4044095
>NZ_CP039344.1 Acinetobacter baumannii strain TG31302 plasmid pTG31302, complete sequence	55268
>NZ_CP039993.1 Acinetobacter baumannii strain TG22182 chromosome, complete genome	3975485
>NZ_CP039994.1 Acinetobacter baumannii strain TG22182 plasmid pTG22182_1, complete sequence	71233
>NZ_CP039995.1 Acinetobacter baumannii strain TG22182 plasmid pTG22182_2, complete sequence	5602
>NZ_CP039930.1 Acinetobacter baumannii strain TG29392 chromosome, complete genome	3963137
>NZ_CP039931.1 Acinetobacter baumannii strain TG29392 plasmid pTG29392_1, complete sequence	84785
>NZ_CP039932.1 Acinetobacter baumannii strain TG29392 plasmid pTG29392_2, complete sequence	55269
>NZ_CP039933.1 Acinetobacter baumannii strain TG29392 plasmid pTG29392_3, complete sequence	10255
>NZ_CP034092.1 Acinetobacter baumannii strain A52 chromosome, complete genome	3864628
>NZ_CP034093.1 Acinetobacter baumannii strain A52 plasmid pA52-1, complete sequence	110713
>NZ_CP034094.1 Acinetobacter baumannii strain A52 plasmid pA52-2, complete sequence	27452
>NZ_CP034095.1 Acinetobacter baumannii strain A52 plasmid pA52-3, complete sequence	8420
>NZ_CP034096.1 Acinetobacter baumannii strain A52 plasmid pA52-4, complete sequence	3610
>NZ_CP034097.1 Acinetobacter baumannii strain A52 plasmid pA52-OXA-72, complete sequence	8493
>NZ_CP035184.1 Acinetobacter baumannii strain 11A1314CRGN088 chromosome, complete genome	3937511
>NZ_CP035183.1 Acinetobacter baumannii strain 11A14CRGN003 chromosome, complete genome	3940649
>NZ_CP035185.1 Acinetobacter baumannii strain 11A1213CRGN055 chromosome, complete genome	3934099
>NZ_CP035186.1 Acinetobacter baumannii strain 11A1213CRGN008 chromosome, complete genome	3944921
>NZ_CP031444.1 Acinetobacter baumannii strain MDR-UNC chromosome, complete genome	3935403
>NZ_CP031445.1 Acinetobacter baumannii strain MDR-UNC plasmid unnamed1, complete sequence	112216
>NZ_CP031446.1 Acinetobacter baumannii strain MDR-UNC plasmid pAB120, complete sequence	10879
>NZ_CP028138.1 Acinetobacter baumannii strain NCIMB 8209 chromosome, complete genome	3751581
>NZ_CP028139.1 Acinetobacter baumannii strain NCIMB 8209 plasmid pAbNCIMB8209_134, complete sequence	133709
>NZ_CP038262.1 Acinetobacter baumannii strain LEV1449/17Ec chromosome, complete genome	3708164
>NZ_CP038265.1 Acinetobacter baumannii strain LEV1449/17Ec plasmid pEC_mcr4.3, complete sequence	43093
>NZ_CP038264.1 Acinetobacter baumannii strain LEV1449/17Ec plasmid pEC_gr6, complete sequence	76956
>NZ_CP038263.1 Acinetobacter baumannii strain LEV1449/17Ec plasmid pEC_gr13, complete sequence	128013
>NZ_CP038258.1 Acinetobacter baumannii strain 39741 chromosome, complete genome	3752576
>NZ_CP038260.1 Acinetobacter baumannii strain 39741 plasmid pEH_gr3, complete sequence	25856
>NZ_CP038261.1 Acinetobacter baumannii strain 39741 plasmid pEH_mcr4.3, complete sequence	18786
>NZ_CP038259.1 Acinetobacter baumannii strain 39741 plasmid pEH_gr13, complete sequence	135229
>NZ_CP038500.1 Acinetobacter baumannii strain CIAT758 chromosome, complete genome	4017696
>NZ_CP038501.1 Acinetobacter baumannii strain CIAT758 plasmid unnamed1, complete sequence	78125
>NZ_CP038502.1 Acinetobacter baumannii strain CIAT758 plasmid unnamed2, complete sequence	47417
>NZ_CP038503.1 Acinetobacter baumannii strain CIAT758 plasmid unnamed3, complete sequence	29128
>NZ_CP038644.1 Acinetobacter baumannii strain ACN21 chromosome, complete genome	3827138
>NZ_CP038645.1 Acinetobacter baumannii strain ACN21 plasmid unnamed1, complete sequence	116047
>NZ_CP038646.1 Acinetobacter baumannii strain ACN21 plasmid unnamed2, complete sequence	57333
>NZ_CP038647.1 Acinetobacter baumannii strain ACN21 plasmid unnamed3, complete sequence	9909
>NZ_CP038648.1 Acinetobacter baumannii strain ACN21 plasmid unnamed4, complete sequence	9205
>NZ_CP038649.1 Acinetobacter baumannii strain ACN21 plasmid unnamed5, complete sequence	7396
>NZ_CP038650.1 Acinetobacter baumannii strain ACN21 plasmid unnamed6, complete sequence	6944
>NZ_CP038651.1 Acinetobacter baumannii strain ACN21 plasmid unnamed7, complete sequence	5844
>NZ_CP038652.1 Acinetobacter baumannii strain ACN21 plasmid unnamed8, complete sequence	5734
>NZ_CP039025.2 Acinetobacter baumannii ATCC 17978 substr. PMR-High chromosome, complete genome	3955017
>NZ_CP039024.1 Acinetobacter baumannii ATCC 17978 substr. PMR-High plasmid unnamed1	30876
>NZ_CP039026.1 Acinetobacter baumannii ATCC 17978 substr. PMR-High plasmid unnamed2	30410
>NZ_CP040047.1 Acinetobacter baumannii strain VB1190 chromosome, complete genome	3294487
>NZ_CP040048.1 Acinetobacter baumannii strain VB1190 plasmid unnamed1, complete sequence	657699
>NZ_CP040049.1 Acinetobacter baumannii strain VB1190 plasmid unnamed2, complete sequence	16479
>NZ_CP040050.1 Acinetobacter baumannii strain VB16141 chromosome, complete genome	4082961
>NZ_CP040051.1 Acinetobacter baumannii strain VB16141 plasmid unnamed1, complete sequence	189343
>NZ_CP040052.1 Acinetobacter baumannii strain VB16141 plasmid unnamed2, complete sequence	5681
>NZ_CP040080.1 Acinetobacter baumannii strain SP304 chromosome, complete genome	3766238
>NZ_CP040081.1 Acinetobacter baumannii strain SP304 plasmid unnamed1, complete sequence	11933
>NZ_CP040082.1 Acinetobacter baumannii strain SP304 plasmid unnamed2, complete sequence	9605
>NZ_CP040083.1 Acinetobacter baumannii strain SP304 plasmid unnamed3, complete sequence	9185
>NZ_CP040084.1 Acinetobacter baumannii strain VB33071 chromosome, complete genome	3977630
>NZ_CP040085.1 Acinetobacter baumannii strain VB33071 plasmid unnamed1, complete sequence	23294
>NZ_CP040086.1 Acinetobacter baumannii strain VB33071 plasmid unnamed2, complete sequence	11194
>NZ_CP040087.1 Acinetobacter baumannii strain VB35575 chromosome, complete genome	4031418
>NZ_CP040088.1 Acinetobacter baumannii strain VB35575 plasmid unnamed1, complete sequence	11194
>NZ_CP040259.1 Acinetobacter baumannii strain P7774 chromosome, complete genome	4143962
>NZ_CP040260.1 Acinetobacter baumannii strain P7774 plasmid unnamed1, complete sequence	202283
>NZ_CP040261.1 Acinetobacter baumannii strain P7774 plasmid unnamed2, complete sequence	14880
>NZ_CP040262.1 Acinetobacter baumannii strain P7774 plasmid unnamed3, complete sequence	5464
>NZ_CP031380.1 Acinetobacter baumannii ACICU chromosome, complete genome	3919274
>NZ_CP031381.2 Acinetobacter baumannii ACICU plasmid pACICU1b, complete sequence	24268
>NZ_CP031382.1 Acinetobacter baumannii ACICU plasmid pACICU2, complete sequence	70101
>NZ_CP040425.1 Acinetobacter baumannii strain PB364 chromosome, complete genome	4014051
>NZ_CP040426.1 Acinetobacter baumannii strain PB364 plasmid pPB364_1, complete sequence	111449
>NZ_CP040427.1 Acinetobacter baumannii strain PB364 plasmid pPB364_2, complete sequence	10967
>NZ_CP041035.1 Acinetobacter baumannii strain 11W359501 chromosome, complete genome	4130187
>NZ_CP041587.1 Acinetobacter baumannii strain J9 chromosome, complete genome	3798644
>NZ_CP041588.1 Acinetobacter baumannii strain J9 plasmid pJ9-1, complete sequence	6078
>NZ_CP041589.1 Acinetobacter baumannii strain J9 plasmid pJ9-2, complete sequence	10967
>NZ_CP041590.1 Acinetobacter baumannii strain J9 plasmid pJ9-3, complete sequence	145071
>NZ_CP032055.1 Acinetobacter baumannii strain A320 (RUH134) chromosome, complete genome	3896541
>NZ_CP019114.1 Acinetobacter baumannii strain MDR-CQ chromosome, complete genome	3927258
>NZ_CP019115.1 Acinetobacter baumannii strain MDR-CQ plasmid pMDR-CQ, complete sequence	75390
>NZ_CP042841.1 Acinetobacter baumannii strain ATCC BAA-1790 chromosome, complete genome	3963235
>NZ_CP042842.1 Acinetobacter baumannii strain ATCC BAA-1790 plasmid unnamed, complete sequence	67023
>NZ_CP067103.1 Acinetobacter baumannii strain ATCC BAA-1790 plasmid pNC2, complete sequence	10955
>NZ_CP043180.1 Acinetobacter baumannii strain PG20180064 chromosome, complete genome	3843574
>NZ_CP043419.1 Acinetobacter baumannii strain 11A1213CRGN064 chromosome, complete genome	3935331
>NZ_CP043417.1 Acinetobacter baumannii strain N13-03449 chromosome, complete genome	3936362
>NZ_CP043418.1 Acinetobacter baumannii strain 11A1314CRGN089 chromosome, complete genome	3935083
>NZ_CP043910.1 Acinetobacter baumannii strain AB043 chromosome, complete genome	3961713
>NZ_CP043953.1 Acinetobacter baumannii strain K09-14 chromosome, complete genome	3972439
>NZ_CP043954.1 Acinetobacter baumannii strain K09-14 plasmid pK09-14, complete sequence	7791
>NZ_CP044356.1 Acinetobacter baumannii strain CAM180-1 chromosome, complete genome	3815016
>NZ_CP044357.1 Acinetobacter baumannii strain CAM180-1 plasmid pCAM180A, complete sequence	92034
>NZ_CP044358.1 Acinetobacter baumannii strain CAM180-1 plasmid pCAM180B, complete sequence	16096
>NZ_CP032743.1 Acinetobacter baumannii strain C25 chromosome, complete genome	3949489
>NZ_CP032741.1 Acinetobacter baumannii strain C25 plasmid unnamed1	51223
>NZ_CP032742.1 Acinetobacter baumannii strain C25 plasmid unnamed2	28674
>NZ_CP042556.1 Acinetobacter baumannii strain E47 chromosome, complete genome	3806017
>NZ_CP042557.1 Acinetobacter baumannii strain E47 plasmid pE47_001, complete sequence	327867
>NZ_CP042558.1 Acinetobacter baumannii strain E47 plasmid pE47_002, complete sequence	59744
>NZ_CP042559.1 Acinetobacter baumannii strain E47 plasmid pE47_003, complete sequence	8795
>NZ_CP042560.1 Acinetobacter baumannii strain E47 plasmid pE47_004, complete sequence	7703
>NZ_CP042561.1 Acinetobacter baumannii strain E47 plasmid pE47_005, complete sequence	5234
>NZ_CP042562.1 Acinetobacter baumannii strain E47 plasmid pE47_006, complete sequence	5039
>NZ_CP042563.1 Acinetobacter baumannii strain E47 plasmid pE47_007, complete sequence	4715
>NZ_CP042564.1 Acinetobacter baumannii strain E47 plasmid pE47_008, complete sequence	3065
>NZ_CP042565.1 Acinetobacter baumannii strain E47 plasmid pE47_009, complete sequence	2427
>NZ_CP045110.1 Acinetobacter baumannii strain ATCC 19606 chromosome, complete genome	3981941
>NZ_CP045108.1 Acinetobacter baumannii strain ATCC 19606 plasmid p1ATCC19606, complete sequence	7655
>NZ_CP045109.1 Acinetobacter baumannii strain ATCC 19606 plasmid p2ATCC19606, complete sequence	9540
>NZ_CP045528.1 Acinetobacter baumannii strain 6507 chromosome, complete genome	4092125
>NZ_CP033243.1 Acinetobacter baumannii strain 7835 chromosome, complete genome	4006665
>NZ_CP033244.1 Acinetobacter baumannii strain 7835 plasmid pAba7835a, complete sequence	8536
>NZ_CP033245.1 Acinetobacter baumannii strain 7835 plasmid pAba7835b, complete sequence	80548
>NZ_CP042931.1 Acinetobacter baumannii strain ABCR01 chromosome, complete genome	4030371
>NZ_CP046536.1 Acinetobacter baumannii strain XL380 chromosome, complete genome	3807241
>NZ_CP046537.1 Acinetobacter baumannii strain XL380 plasmid unnamed, complete sequence	112007
>NZ_CP046654.1 Acinetobacter baumannii strain ATCC 19606 chromosome, complete genome	3980848
>NZ_CP046655.1 Acinetobacter baumannii strain ATCC 19606 plasmid pMAC, complete sequence	9540
>NZ_CP045428.1 Acinetobacter baumannii strain AbCAN2 chromosome, complete genome	3809822
>NZ_CP049363.1 Acinetobacter baumannii strain ATCC 17978 chromosome, complete genome	3854994
>NZ_CP049364.1 Acinetobacter baumannii strain ATCC 17978 plasmid pAB1, complete sequence	21761
>NZ_CP049365.1 Acinetobacter baumannii strain ATCC 17978 plasmid pAB2, complete sequence	8031
>NZ_CP050904.1 Acinetobacter baumannii strain DT-Ab057 chromosome, complete genome	3998421
>NZ_CP050905.1 Acinetobacter baumannii strain DT-Ab057 plasmid unnamed1, complete sequence	110967
>NZ_CP050906.1 Acinetobacter baumannii strain DT-Ab057 plasmid unnamed2, complete sequence	8731
>NZ_CP050907.1 Acinetobacter baumannii strain DT-Ab022 chromosome, complete genome	4038616
>NZ_CP050908.1 Acinetobacter baumannii strain DT-Ab022 plasmid unnamed1, complete sequence	110967
>NZ_CP050909.1 Acinetobacter baumannii strain DT-Ab022 plasmid unnamed2, complete sequence	71194
>NZ_CP050910.1 Acinetobacter baumannii strain DT-Ab022 plasmid unnamed3, complete sequence	8731
>NZ_CP050911.1 Acinetobacter baumannii strain DT-Ab020 chromosome, complete genome	4067565
>NZ_CP050912.1 Acinetobacter baumannii strain DT-Ab020 plasmid unnamed1, complete sequence	71194
>NZ_CP050913.1 Acinetobacter baumannii strain DT-Ab020 plasmid unnamed2, complete sequence	8731
>NZ_CP050914.1 Acinetobacter baumannii strain DT-Ab007 chromosome, complete genome	3958415
>NZ_CP050915.1 Acinetobacter baumannii strain DT-Ab007 plasmid unnamed1, complete sequence	92021
>NZ_CP050916.1 Acinetobacter baumannii strain DT-Ab003 chromosome, complete genome	4015142
>NZ_CP050917.1 Acinetobacter baumannii strain DT-Ab003 plasmid unnamed1, complete sequence	71194
>NZ_CP050918.1 Acinetobacter baumannii strain DT-Ab003 plasmid unnamed2, complete sequence	8731
>NZ_CP051862.1 Acinetobacter baumannii strain Ab-C102 chromosome, complete genome	3763047
>NZ_CP051863.1 Acinetobacter baumannii strain Ab-C102 plasmid pAb-C102_1, complete sequence	90089
>NZ_CP051864.1 Acinetobacter baumannii strain Ab-C102 plasmid pAb-C102_2, complete sequence	67097
>NZ_CP051865.1 Acinetobacter baumannii strain Ab-C102 plasmid pAb-C102_3, complete sequence	19853
>NZ_CP051869.1 Acinetobacter baumannii strain Ab-D10a-a chromosome, complete genome	4100469
>NZ_CP051870.1 Acinetobacter baumannii strain Ab-D10a-a plasmid pAb-D10a-a_1, complete sequence	48239
>NZ_CP051871.1 Acinetobacter baumannii strain Ab-D10a-a plasmid pAb-D10a-a_2, complete sequence	8495
>NZ_CP051872.1 Acinetobacter baumannii strain Ab-D10a-a plasmid pAb-D10a-a_3, complete sequence	8215
>NZ_CP051873.1 Acinetobacter baumannii strain Ab-D10a-a plasmid pAb-D10a-a_4, complete sequence	6619
>NZ_CP051874.1 Acinetobacter baumannii strain Ab-D10a-a plasmid pAb-D10a-a_5, complete sequence	2697
>NZ_CP051875.1 Acinetobacter baumannii strain Ab-B004d-c chromosome, complete genome	4091477
>NZ_CP051876.1 Acinetobacter baumannii strain Ab-B004d-c plasmid pAb-B004d-c_1, complete sequence	48239
>NZ_CP051877.1 Acinetobacter baumannii strain Ab-B004d-c plasmid pAb-B004d-c_2, complete sequence	8495
>NZ_CP051878.1 Acinetobacter baumannii strain Ab-B004d-c plasmid pAb-B004d-c_3, complete sequence	8215
>NZ_CP051879.1 Acinetobacter baumannii strain Ab-B004d-c plasmid pAb-B004d-c_4, complete sequence	2697
>NZ_CP051866.1 Acinetobacter baumannii strain Ab-C63 chromosome, complete genome	3873866
>NZ_CP051867.1 Acinetobacter baumannii strain Ab-C63 plasmid pAb-C63_1, complete sequence	81353
>NZ_CP051868.1 Acinetobacter baumannii strain Ab-C63 plasmid pAb-C63_2, complete sequence	10662
>NZ_CP050385.1 Acinetobacter baumannii strain VB82 chromosome, complete genome	4210906
>NZ_CP050386.1 Acinetobacter baumannii strain VB82 plasmid pVB82_1, complete sequence	215278
>NZ_CP050387.1 Acinetobacter baumannii strain VB82 plasmid pVB82_2, complete sequence	7540
>NZ_CP050388.1 Acinetobacter baumannii strain VB473 chromosome, complete genome	3948250
>NZ_CP050389.1 Acinetobacter baumannii strain VB473 plasmid pVB473_1, complete sequence	16470
>NZ_CP050390.1 Acinetobacter baumannii strain VB723 chromosome, complete genome	3919631
>NZ_CP050391.1 Acinetobacter baumannii strain VB723 plasmid pVB723_1, complete sequence	8731
>NZ_CP050400.1 Acinetobacter baumannii strain VB11737 chromosome, complete genome	3982992
>NZ_CP050392.1 Acinetobacter baumannii strain VB11737 plasmid pVB11737_1, complete sequence	70712
>NZ_CP050393.1 Acinetobacter baumannii strain VB11737 plasmid pVB11737_2, complete sequence	8731
>NZ_CP050394.1 Acinetobacter baumannii strain VB11737 plasmid pVB11737_3, complete sequence	3383
>NZ_CP050395.1 Acinetobacter baumannii strain VB11737 plasmid pVB11737_4, complete sequence	2673
>NZ_CP050396.1 Acinetobacter baumannii strain VB11737 plasmid pVB11737_5, complete sequence	1359
>NZ_CP050397.1 Acinetobacter baumannii strain VB11737 plasmid pVB11737_6, complete sequence	1025
>NZ_CP050398.1 Acinetobacter baumannii strain VB11737 plasmid pVB11737_7, complete sequence	607
>NZ_CP050399.1 Acinetobacter baumannii strain VB11737 plasmid pVB11737_8, complete sequence	359
>NZ_CP050401.1 Acinetobacter baumannii strain VB2181 chromosome, complete genome	3943808
>NZ_CP050402.1 Acinetobacter baumannii strain VB2181 plasmid pVB2181, complete sequence	8731
>NZ_CP050403.1 Acinetobacter baumannii strain VB2486 chromosome, complete genome	4137731
>NZ_CP050404.1 Acinetobacter baumannii strain VB2486 plasmid pVB2486_1, complete sequence	99090
>NZ_CP050405.1 Acinetobacter baumannii strain VB2486 plasmid pVB2486_2, complete sequence	14906
>NZ_CP050406.1 Acinetobacter baumannii strain VB2486 plasmid pVB2486_3, complete sequence	12574
>NZ_CP050407.1 Acinetobacter baumannii strain VB2486 plasmid pVB2486_4, complete sequence	5679
>NZ_CP050408.1 Acinetobacter baumannii strain VB2486 plasmid pVB2486_5, complete sequence	5432
>NZ_CP050409.1 Acinetobacter baumannii strain VB2486 plasmid pVB2486_6, complete sequence	2457
>NZ_CP050421.1 Acinetobacter baumannii strain VB2200 chromosome, complete genome	4000714
>NZ_CP050422.1 Acinetobacter baumannii strain VB2200 plasmid pVB2200_1, complete sequence	8731
>NZ_CP050423.1 Acinetobacter baumannii strain VB2200 plasmid pVB2200_2, complete sequence	5679
>NZ_CP050410.1 Acinetobacter baumannii strain PM1912235 chromosome, complete genome	3926441
>NZ_CP050411.1 Acinetobacter baumannii strain PM1912235 plasmid pPM192235_1, complete sequence	8731
>NZ_CP050412.1 Acinetobacter baumannii strain PM192696 chromosome, complete genome	3966715
>NZ_CP050413.1 Acinetobacter baumannii strain PM192696 plasmid pPM192696_1, complete sequence	70098
>NZ_CP050414.1 Acinetobacter baumannii strain PM192696 plasmid pPM192696_2, complete sequence	8732
>NZ_CP050415.1 Acinetobacter baumannii strain PM193665 chromosome, complete genome	3948262
>NZ_CP050416.1 Acinetobacter baumannii strain PM193665 plasmid pPM193665_1, complete sequence	150385
>NZ_CP050417.1 Acinetobacter baumannii strain PM193665 plasmid pPM193665_2, complete sequence	52509
>NZ_CP050418.1 Acinetobacter baumannii strain PM193665 plasmid pPM193665_3, complete sequence	18783
>NZ_CP050419.1 Acinetobacter baumannii strain PM193665 plasmid pPM193665_4, complete sequence	7540
>NZ_CP050420.1 Acinetobacter baumannii strain PM193665 plasmid pPM193665_5, complete sequence	2762
>NZ_CP050425.1 Acinetobacter baumannii strain PM194188 chromosome, complete genome	4002798
>NZ_CP050426.1 Acinetobacter baumannii strain PM194188 plasmid pPM194122_1, complete sequence	150385
>NZ_CP050427.1 Acinetobacter baumannii strain PM194188 plasmid pPM194122_2, complete sequence	18783
>NZ_CP050428.1 Acinetobacter baumannii strain PM194188 plasmid pPM194122_3, complete sequence	7695
>NZ_CP050429.1 Acinetobacter baumannii strain PM194188 plasmid pPM194122_4, complete sequence	7540
>NZ_CP050430.1 Acinetobacter baumannii strain PM194188 plasmid pPM194122_5, complete sequence	2762
>NZ_CP050431.1 Acinetobacter baumannii strain PM194188 plasmid pPM194122_6, complete sequence	2419
>NZ_CP050432.1 Acinetobacter baumannii strain PM194229 chromosome, complete genome	3886190
>NZ_CP050433.1 Acinetobacter baumannii strain PM194229 plasmid pPM194229_1, complete sequence	226394
>NZ_CP050434.1 Acinetobacter baumannii strain PM194229 plasmid pPM194229_2, complete sequence	10967
>NZ_CP050435.1 Acinetobacter baumannii strain PM194229 plasmid pPM194229_3, complete sequence	9847
>NZ_CP050523.1 Acinetobacter baumannii strain VB7036 chromosome, complete genome	4052480
>NZ_CP050524.1 Acinetobacter baumannii strain VB7036 plasmid pVB7036_1, complete sequence	8730
>NZ_CP050525.1 Acinetobacter baumannii strain VB7036 plasmid pVB7036_2, complete sequence	1764
>NZ_CP050526.1 Acinetobacter baumannii strain VB2139 chromosome, complete genome	4000831
>NZ_CP050527.1 Acinetobacter baumannii strain VB2139 plasmid pVB2139_1, complete sequence	8731
>NZ_CP050528.1 Acinetobacter baumannii strain VB2139 plasmid pVB2139_2, complete sequence	5679
>NZ_CP050529.1 Acinetobacter baumannii strain VB2139 plasmid pVB2139_3, complete sequence	2682
>NZ_CP051474.1 Acinetobacter baumannii strain VB2107 chromosome, complete genome	4001402
>NZ_CP051475.1 Acinetobacter baumannii strain VB2107 plasmid pVB2107_1, complete sequence	8731
>NZ_CP051476.1 Acinetobacter baumannii strain VB2107 plasmid pVB2107_2, complete sequence	6974
>NZ_CP051477.1 Acinetobacter baumannii strain VB2107 plasmid pVB2107_3, complete sequence	3432
>NZ_CP048827.1 Acinetobacter baumannii strain ABF9692 chromosome, complete genome	3861977
>NZ_CP048828.1 Acinetobacter baumannii strain ABF9692 plasmid pABF9692, complete sequence	264805
>NZ_CP041148.1 Acinetobacter baumannii strain CUVET-MIC596 chromosome, complete genome	3998399
>NZ_CP041149.1 Acinetobacter baumannii strain CUVET-MIC596 plasmid pCUVET596, complete sequence	82016
>NZ_CP054302.1 Acinetobacter baumannii strain MS14413 chromosome, complete genome	4082498
>NZ_CP053098.1 Acinetobacter baumannii ATCC 17978 chromosome, complete genome	4005343
>NZ_CP053099.1 Acinetobacter baumannii ATCC 17978 plasmid unnamed1, complete sequence	13409
>NZ_CP053100.1 Acinetobacter baumannii ATCC 17978 plasmid unnamed2, complete sequence	11302
>NZ_CP056784.2 Acinetobacter baumannii strain TP1 chromosome, complete genome	3864540
>NZ_CP056785.1 Acinetobacter baumannii strain TP1 plasmid pTP1A, complete sequence	8731
>NZ_CP046898.1 Acinetobacter baumannii strain A1429 chromosome, complete genome	3929775
>NZ_CP046901.1 Acinetobacter baumannii strain A1429 plasmid pA1429a, complete sequence	7852
>NZ_CP046900.1 Acinetobacter baumannii strain A1429 plasmid pA1429b, complete sequence	19147
>NZ_CP046899.1 Acinetobacter baumannii strain A1429 plasmid pA1429c, complete sequence	205113
>NZ_CP044517.1 Acinetobacter baumannii strain 31FS3-2 chromosome, complete genome	3925111
>NZ_CP044518.1 Acinetobacter baumannii strain 31FS3-2 plasmid p31FS3-2-1, complete sequence	6099
>NZ_CP044519.1 Acinetobacter baumannii strain 29FS20 chromosome, complete genome	4054239
>NZ_CP044520.1 Acinetobacter baumannii strain 29FS20 plasmid p29FS20-1, complete sequence	66277
>NZ_CP044521.1 Acinetobacter baumannii strain 29FS20 plasmid p29FS20-2, complete sequence	12731
>NZ_CP053215.1 Acinetobacter baumannii strain DT0544C chromosome, complete genome	3912346
>NZ_CP053216.1 Acinetobacter baumannii strain DT0544C plasmid unnamed1, complete sequence	55394
>NZ_CP053217.1 Acinetobacter baumannii strain DT0544C plasmid unnamed2, complete sequence	3968
>NZ_CP053218.1 Acinetobacter baumannii strain DT01139C chromosome, complete genome	3699225
>NZ_CP053219.1 Acinetobacter baumannii strain DT01139C plasmid unnamed1, complete sequence	97161
>NZ_CP053220.1 Acinetobacter baumannii strain DT01139C plasmid unnamed2, complete sequence	63650
>NZ_CP053221.1 Acinetobacter baumannii strain DT01139C plasmid unnamed3, complete sequence	9613
>NZ_CP059386.1 Acinetobacter baumannii strain 36-1512 chromosome, complete genome	3800835
>NZ_CP059387.1 Acinetobacter baumannii strain 36-1512 plasmid p1.36-1512, complete sequence	113330
>NZ_CP059388.1 Acinetobacter baumannii strain 36-1512 plasmid p2.36-1512, complete sequence	9458
>NZ_CP059389.1 Acinetobacter baumannii strain 36-1512 plasmid p3.36-1512, complete sequence	5688
>NZ_CP059390.1 Acinetobacter baumannii strain 36-1512 plasmid p4.36-1512, complete sequence	4721
>NZ_AP022077.1 Acinetobacter baumannii strain WP4-W18-ESBL-11 chromosome, complete genome	3943032
>NZ_AP022238.1 Acinetobacter baumannii strain WP8-W18-ESBL-11 chromosome, complete genome	3727647
>NZ_AP022239.1 Acinetobacter baumannii strain WP8-W18-ESBL-11 plasmid pWP8-W18-ESBL-11_1, complete sequence	114365
>NZ_AP022240.1 Acinetobacter baumannii strain WP8-W18-ESBL-11 plasmid pWP8-W18-ESBL-11_2, complete sequence	10735
>NZ_CP059479.1 Acinetobacter baumannii strain 17-84 chromosome, complete genome	3914011
>NZ_CP059478.1 Acinetobacter baumannii strain 17-84 plasmid p17-84_OXA, complete sequence	108715
>NZ_CP060285.1 Acinetobacter baumannii strain XYAB2018 chromosome, complete genome	3909403
>NZ_CP047973.1 Acinetobacter baumannii strain DETAB-P2 chromosome, complete genome	3892871
>NZ_CP047974.1 Acinetobacter baumannii strain DETAB-P2 plasmid pDETAB1, complete sequence	103751
>NZ_CP047975.1 Acinetobacter baumannii strain DETAB-P2 plasmid pDETAB2, complete sequence	100072
>NZ_CP047976.1 Acinetobacter baumannii strain DETAB-P2 plasmid pDETAB3, complete sequence	9132
>NZ_CP059039.1 Acinetobacter baumannii strain A118 chromosome, complete genome	3750370
>NZ_CP059040.1 Acinetobacter baumannii strain ATCC 19606 chromosome, complete genome	3980852
>NZ_CP059041.1 Acinetobacter baumannii strain ATCC 17978 chromosome, complete genome	4006609
>NZ_CP059042.1 Acinetobacter baumannii strain ATCC 17978 plasmid unnamed, complete sequence	16502
>NZ_CP061517.1 Acinetobacter baumannii strain CFSAN093709 chromosome, complete genome	4040626
>NZ_CP061518.1 Acinetobacter baumannii strain CFSAN093709 plasmid pCFSAN093709, complete sequence	110965
>NZ_CP061514.1 Acinetobacter baumannii strain CFSAN093710 chromosome, complete genome	3984725
>NZ_CP061515.1 Acinetobacter baumannii strain CFSAN093710 plasmid pCFSAN093710_1, complete sequence	110967
>NZ_CP061516.1 Acinetobacter baumannii strain CFSAN093710 plasmid pCFSAN093710_2, complete sequence	83626
>NZ_CP061525.1 Acinetobacter baumannii strain CFSAN093705 chromosome, complete genome	4031161
>NZ_CP061526.1 Acinetobacter baumannii strain CFSAN093705 plasmid pCFSAN093705, complete sequence	14639
>NZ_CP061523.1 Acinetobacter baumannii strain CFSAN093706 chromosome, complete genome	3984712
>NZ_CP061524.1 Acinetobacter baumannii strain CFSAN093706 plasmid pCFSAN093706, complete sequence	110967
>NZ_CP061521.1 Acinetobacter baumannii strain CFSAN093707 chromosome, complete genome	3938042
>NZ_CP061522.1 Acinetobacter baumannii strain CFSAN093707 plasmid pCFSAN093707, complete sequence	110964
>NZ_CP061519.1 Acinetobacter baumannii strain CFSAN093708 chromosome, complete genome	4037191
>NZ_CP061520.1 Acinetobacter baumannii strain CFSAN093708 plasmid pCFSAN093708, complete sequence	110967
>NZ_CP059300.1 Acinetobacter baumannii strain AC1633 chromosome, complete genome	4364474
>NZ_CP059301.1 Acinetobacter baumannii strain AC1633 plasmid pAC1633-1, complete sequence	174292
>NZ_CP059303.1 Acinetobacter baumannii strain AC1633 plasmid pAC1633-2, complete sequence	12651
>NZ_CP059304.1 Acinetobacter baumannii strain AC1633 plasmid pAC1633-3, complete sequence	9950
>NZ_CP059302.1 Acinetobacter baumannii strain AC1633 plasmid pAC1633-4, complete sequence	5210
>NZ_CP062919.1 Acinetobacter baumannii strain Res13-Abat-PEA21-P4-01-A chromosome, complete genome	3747579
>NZ_CP062922.1 Acinetobacter baumannii strain Res13-Abat-PEA21-P4-01-A plasmid unnamednovel_1, complete sequence	14288
>NZ_CP062923.1 Acinetobacter baumannii strain Res13-Abat-PEA21-P4-01-A plasmid unnamednovel_2, complete sequence	5242
>NZ_CP062920.1 Acinetobacter baumannii strain Res13-Abat-PEA21-P4-01-A plasmid unnamed1774, complete sequence	113139
>NZ_CP062921.1 Acinetobacter baumannii strain Res13-Abat-PEA21-P4-01-A plasmid unnamed1836, complete sequence	72831
>NZ_CP060732.1 Acinetobacter baumannii strain abA1 chromosome, complete genome	4103762
>NZ_CP060011.1 Acinetobacter baumannii strain TP2 chromosome, complete genome	3870560
>NZ_CP060012.1 Acinetobacter baumannii strain TP2 plasmid pTP2A, complete sequence	8731
>NZ_CP060013.1 Acinetobacter baumannii strain TP3 chromosome, complete genome	3871732
>NZ_CP060014.1 Acinetobacter baumannii strain TP3 plasmid pTP3A, complete sequence	8731
>NZ_CP065432.1 Acinetobacter baumannii strain ATCC 17961 chromosome, complete genome	4016386
>NZ_CP065433.1 Acinetobacter baumannii strain ATCC 17961 plasmid pAB17961-1, complete sequence	9395
>NZ_CP065434.1 Acinetobacter baumannii strain ATCC 17961 plasmid pAB17961-2, complete sequence	6667
>NZ_CP066016.1 Acinetobacter baumannii strain FDAARGOS_1036 chromosome, complete genome	4040084
>NZ_CP066017.1 Acinetobacter baumannii strain FDAARGOS_1036 plasmid unnamed	10308
>NZ_CP066229.1 Acinetobacter baumannii strain G20AB011 chromosome, complete genome	3991754
>NZ_CP066230.1 Acinetobacter baumannii strain G20AB011 plasmid pG20AB011-1, complete sequence	73339
>NZ_CP066231.1 Acinetobacter baumannii strain G20AB011 plasmid pG20AB011-2, complete sequence	8731
>NZ_CP066232.1 Acinetobacter baumannii strain G20AB010 chromosome, complete genome	3995262
>NZ_CP066233.1 Acinetobacter baumannii strain G20AB010 plasmid pG20AB010-1, complete sequence	73360
>NZ_CP066234.1 Acinetobacter baumannii strain G20AB010 plasmid pG20AB010-2	19616
>NZ_CP066237.1 Acinetobacter baumannii strain G20AB007 chromosome, complete genome	3996492
>NZ_CP066238.1 Acinetobacter baumannii strain G20AB007 plasmid pG20AB007-1, complete sequence	73361
>NZ_CP066239.1 Acinetobacter baumannii strain G20AB007 plasmid pG20AB007-2, complete sequence	11508
>NZ_CP066240.1 Acinetobacter baumannii strain G20AB007 plasmid pG20AB007-3, complete sequence	8731
>NZ_CP066235.1 Acinetobacter baumannii strain G20AB009 chromosome, complete genome	4002997
>NZ_CP066236.1 Acinetobacter baumannii strain G20AB009 plasmid pG20AB009-1, complete sequence	73361
>NZ_CP060029.1 Acinetobacter baumannii strain AbCTX1 chromosome, complete genome	4088883
>NZ_CP060504.1 Acinetobacter baumannii strain AbCTX9 chromosome, complete genome	3898606
>NZ_CP092030.1 Acinetobacter baumannii strain AbCTX9 plasmid pAbCTX9, complete sequence	15266
>NZ_CP060505.1 Acinetobacter baumannii strain AbCTX5 chromosome, complete genome	3883244
>NZ_CP092029.1 Acinetobacter baumannii strain AbCTX5 plasmid pAbCTX5, complete sequence	15266
>NZ_CP059729.1 Acinetobacter baumannii strain AbCTX13 chromosome, complete genome	4068815
>NZ_CP059731.1 Acinetobacter baumannii strain AbCTX13 plasmid pAbCTX13_17kb, complete sequence	17003
>NZ_CP059730.1 Acinetobacter baumannii strain AbCTX13 plasmid pAbCTX13_7kb, complete sequence	7055
>NZ_AP024415.1 Acinetobacter baumannii strain NIPH17_0019 chromosome, complete genome	4011788
>NZ_CP069840.1 Acinetobacter baumannii strain FDAARGOS_1360 chromosome, complete genome	3978309
>NZ_CP069841.1 Acinetobacter baumannii strain FDAARGOS_1360 plasmid unnamed1, complete sequence	76933
>NZ_CP069842.1 Acinetobacter baumannii strain FDAARGOS_1360 plasmid unnamed2, complete sequence	14879
>NZ_CP069851.1 Acinetobacter baumannii strain FDAARGOS_1359 chromosome, complete genome	3889550
>NZ_CP069852.1 Acinetobacter baumannii strain FDAARGOS_1359 plasmid unnamed, complete sequence	8731
>NZ_CP070362.2 Acinetobacter baumannii strain AB5075-VUB chromosome, complete genome	4001634
>NZ_CP070363.1 Acinetobacter baumannii strain AB5075-VUB plasmid pAB5075-VUB_1, complete sequence	1967
>NZ_CP070364.1 Acinetobacter baumannii strain AB5075-VUB plasmid pAB5075-VUB_2, complete sequence	8731
>NZ_CP070365.1 Acinetobacter baumannii strain AB5075-VUB plasmid pAB5075-VUB_3, complete sequence	83362
>NZ_CP070358.1 Acinetobacter baumannii strain AB5075-VUB-itrA::ISAba13 chromosome, complete genome	4016329
>NZ_CP070359.1 Acinetobacter baumannii strain AB5075-VUB-itrA::ISAba13 plasmid pAB5075-VUB-itrA_1, complete sequence	1967
>NZ_CP070360.1 Acinetobacter baumannii strain AB5075-VUB-itrA::ISAba13 plasmid pAB5075-VUB-itrA_2, complete sequence	8731
>NZ_CP070361.1 Acinetobacter baumannii strain AB5075-VUB-itrA::ISAba13 plasmid pAB5075-VUB-itrA_3, complete sequence	87892
>NZ_CP059350.1 Acinetobacter baumannii strain 2018BJAB2 chromosome, complete genome	3968880
>NZ_CP082219.1 Acinetobacter baumannii strain 2018BJAB2 plasmid p2018BJAB2, complete sequence	78023
>NZ_CP059349.1 Acinetobacter baumannii strain 2014TJAB1 chromosome, complete genome	3909225
>NZ_CP082222.1 Acinetobacter baumannii strain 2014TJAB1 plasmid p2014TJAB1, complete sequence	77531
>NZ_CP059359.1 Acinetobacter baumannii strain 2018TJAB1 chromosome, complete genome	3952161
>NZ_CP082221.1 Acinetobacter baumannii strain 2018TJAB1 plasmid p2018TJAB1, complete sequence	78022
>NZ_CP059353.1 Acinetobacter baumannii strain 2016LNAB1 chromosome, complete genome	3917538
>NZ_CP082891.1 Acinetobacter baumannii strain 2016LNAB1 plasmid p2016LNAB1-1, complete sequence	110967
>NZ_CP082892.1 Acinetobacter baumannii strain 2016LNAB1 plasmid p2016LNAB1-2, complete sequence	77530
>NZ_CP082893.1 Acinetobacter baumannii strain 2016LNAB1 plasmid p2016LNAB1-3, complete sequence	11205
>NZ_CP059351.1 Acinetobacter baumannii strain 2018BJAB1 chromosome, complete genome	3917843
>NZ_CP082220.1 Acinetobacter baumannii strain 2018BJAB1 plasmid p2018BJAB1, complete sequence	78024
>NZ_CP059352.1 Acinetobacter baumannii strain 2014LNAB1 chromosome, complete genome	4031466
>NZ_CP082888.1 Acinetobacter baumannii strain 2014LNAB1 plasmid p2014LNAB1-1, complete sequence	110998
>NZ_CP082889.1 Acinetobacter baumannii strain 2014LNAB1 plasmid p2014LNAB1-2, complete sequence	77537
>NZ_CP082890.1 Acinetobacter baumannii strain 2014LNAB1 plasmid p2014LNAB1-3, complete sequence	11194
>NZ_CP059355.1 Acinetobacter baumannii strain 2016BJAB1 chromosome, complete genome	3903779
>NZ_CP082226.1 Acinetobacter baumannii strain 2016BJAB1 plasmid p2016BJAB1, complete sequence	77943
>NZ_CP059354.1 Acinetobacter baumannii strain 2014BJAB1 chromosome, complete genome	4069635
>NZ_CP082225.1 Acinetobacter baumannii strain 2014BJAB1 plasmid p2014BJAB1, complete sequence	77530
>NZ_CP059356.1 Acinetobacter baumannii strain 2018HBAB1 chromosome, complete genome	4035631
>NZ_CP082894.1 Acinetobacter baumannii strain 2018HBAB1 plasmid p2018HBAB1-1, complete sequence	110968
>NZ_CP082895.1 Acinetobacter baumannii strain 2018HBAB1 plasmid p2018HBAB1-2, complete sequence	78023
>NZ_CP059357.1 Acinetobacter baumannii strain 2018HLJAB2 chromosome, complete genome	3939144
>NZ_CP082228.1 Acinetobacter baumannii strain 2018HLJAB2 plasmid p2018HLJAB2, complete sequence	78030
>NZ_CP059358.1 Acinetobacter baumannii strain 2018HLJAB1 chromosome, complete genome	3939099
>NZ_CP072122.1 Acinetobacter baumannii strain KSK1 chromosome, complete genome	4038785
>NZ_CP072123.1 Acinetobacter baumannii strain KSK1 plasmid p1KSK1, complete sequence	218105
>NZ_CP072124.1 Acinetobacter baumannii strain KSK1 plasmid p2KSK1, complete sequence	87529
>NZ_CP072125.1 Acinetobacter baumannii strain KSK1 plasmid p3KSK1, complete sequence	7540
>NZ_CP072126.1 Acinetobacter baumannii strain KSK1 plasmid p4KSK1, complete sequence	5679
>NZ_CP072270.1 Acinetobacter baumannii strain KSK6 chromosome, complete genome	4091200
>NZ_CP072271.1 Acinetobacter baumannii strain KSK6 plasmid p1KSK6, complete sequence	218105
>NZ_CP072272.1 Acinetobacter baumannii strain KSK6 plasmid p2KSK6, complete sequence	68224
>NZ_CP072273.1 Acinetobacter baumannii strain KSK6 plasmid p3KSK6, complete sequence	7540
>NZ_CP072274.1 Acinetobacter baumannii strain KSK6 plasmid p4KSK6, complete sequence	5679
>NZ_CP072275.1 Acinetobacter baumannii strain KSK7 chromosome, complete genome	4095769
>NZ_CP072276.1 Acinetobacter baumannii strain KSK7 plasmid p1KSK7, complete sequence	218105
>NZ_CP072277.1 Acinetobacter baumannii strain KSK7 plasmid p2KSK7, complete sequence	68225
>NZ_CP072278.1 Acinetobacter baumannii strain KSK7 plasmid p3KSK7, complete sequence	7540
>NZ_CP072279.1 Acinetobacter baumannii strain KSK7 plasmid p4KSK7, complete sequence	5679
>NZ_CP072280.1 Acinetobacter baumannii strain KSK10 chromosome, complete genome	4096957
>NZ_CP072281.1 Acinetobacter baumannii strain KSK10 plasmid p1KSK10, complete sequence	218105
>NZ_CP072282.1 Acinetobacter baumannii strain KSK10 plasmid p2KSK10, complete sequence	87529
>NZ_CP072283.1 Acinetobacter baumannii strain KSK10 plasmid p3KSK10, complete sequence	7540
>NZ_CP072284.1 Acinetobacter baumannii strain KSK10 plasmid p4KSK10, complete sequence	5679
>NZ_CP072285.1 Acinetobacter baumannii strain KSK11 chromosome, complete genome	4080146
>NZ_CP072286.1 Acinetobacter baumannii strain KSK11 plasmid p1KSK11, complete sequence	218105
>NZ_CP072287.1 Acinetobacter baumannii strain KSK11 plasmid p2KSK11, complete sequence	87529
>NZ_CP072288.1 Acinetobacter baumannii strain KSK11 plasmid p3KSK11, complete sequence	7540
>NZ_CP072289.1 Acinetobacter baumannii strain KSK11 plasmid p4KSK11, complete sequence	5679
>NZ_CP072290.1 Acinetobacter baumannii strain KSK18 chromosome, complete genome	4095769
>NZ_CP072291.1 Acinetobacter baumannii strain KSK18 plasmid p1KSK18, complete sequence	218105
>NZ_CP072292.1 Acinetobacter baumannii strain KSK18 plasmid p2KSK18, complete sequence	68225
>NZ_CP072293.1 Acinetobacter baumannii strain KSK18 plasmid p3KSK18, complete sequence	7540
>NZ_CP072294.1 Acinetobacter baumannii strain KSK18 plasmid p4KSK18, complete sequence	5679
>NZ_CP072295.1 Acinetobacter baumannii strain KSK19 chromosome, complete genome	4095778
>NZ_CP072296.1 Acinetobacter baumannii strain KSK19 plasmid p1KSK19, complete sequence	218105
>NZ_CP072297.1 Acinetobacter baumannii strain KSK19 plasmid p2KSK19, complete sequence	87529
>NZ_CP072298.1 Acinetobacter baumannii strain KSK19 plasmid p3KSK19, complete sequence	7540
>NZ_CP072299.1 Acinetobacter baumannii strain KSK19 plasmid p4KSK19, complete sequence	5679
>NZ_CP072300.1 Acinetobacter baumannii strain KSK20 chromosome, complete genome	4095769
>NZ_CP072301.1 Acinetobacter baumannii strain KSK20 plasmid p1KSK20, complete sequence	218105
>NZ_CP072302.1 Acinetobacter baumannii strain KSK20 plasmid p2KSK20, complete sequence	68309
>NZ_CP072303.1 Acinetobacter baumannii strain KSK20 plasmid p3KSK20, complete sequence	7540
>NZ_CP072304.1 Acinetobacter baumannii strain KSK20 plasmid p4KSK20, complete sequence	5679
>NZ_CP072305.1 Acinetobacter baumannii strain KSK Sensitive chromosome, complete genome	3841218
>NZ_CP072306.1 Acinetobacter baumannii strain KSK Sensitive plasmid p1KSKSensitive, complete sequence	55356
>NZ_CP072307.1 Acinetobacter baumannii strain KSK Sensitive plasmid p2KSKSensitive, complete sequence	6520
>NZ_CP072398.1 Acinetobacter baumannii strain KSK2 chromosome, complete genome	4081424
>NZ_CP072399.1 Acinetobacter baumannii strain KSK2 plasmid p1KSK2, complete sequence	218105
>NZ_CP072400.1 Acinetobacter baumannii strain KSK2 plasmid p2KSK2, complete sequence	87529
>NZ_CP072401.1 Acinetobacter baumannii strain KSK2 plasmid p3KSK2, complete sequence	7540
>NZ_CP072402.1 Acinetobacter baumannii strain KSK2 plasmid p4KSK2, complete sequence	5679
>NZ_CP072526.1 Acinetobacter baumannii strain DETAB-E227 chromosome, complete genome	3749053
>NZ_CP072527.1 Acinetobacter baumannii strain DETAB-E227 plasmid pDETAB4, complete sequence	113682
>NZ_CP072528.1 Acinetobacter baumannii strain DETAB-E227 plasmid pDETAB5, complete sequence	97035
>NZ_CP072529.1 Acinetobacter baumannii strain DETAB-E227 plasmid pDETAB6, complete sequence	7145
>NZ_CP073060.1 Acinetobacter baumannii strain DETAB-P39 chromosome, complete genome	3877093
>NZ_CP073061.1 Acinetobacter baumannii strain DETAB-P39 plasmid pDETAB13, complete sequence	91083
>NZ_CP075321.1 Acinetobacter baumannii strain DD520 chromosome, complete genome	3973595
>NZ_CP075322.1 Acinetobacter baumannii strain DD520 plasmid pDD520, complete sequence	110967
>NZ_CP071763.1 Acinetobacter baumannii strain Cl415 chromosome, complete genome	3965259
>NZ_CP071764.1 Acinetobacter baumannii strain Cl415 plasmid p1cl415, complete sequence	2277
>NZ_CP071765.1 Acinetobacter baumannii strain Cl415 plasmid p2Cl415, complete sequence	8731
>NZ_CP048849.1 Acinetobacter baumannii strain D4 chromosome, complete genome	4173759
>NZ_CP048851.1 Acinetobacter baumannii strain D4 plasmid pD4, complete sequence	132632
>NZ_CP048850.1 Acinetobacter baumannii strain D4 plasmid pD4-1, complete sequence	2277
>NZ_CP048131.1 Acinetobacter baumannii strain D46 chromosome, complete genome	4027041
>NZ_CP048132.1 Acinetobacter baumannii strain D46 plasmid pD46-1, complete sequence	6078
>NZ_CP048133.1 Acinetobacter baumannii strain D46 plasmid pD46-2, complete sequence	8731
>NZ_CP048134.1 Acinetobacter baumannii strain D46 plasmid pD46-3, complete sequence	74916
>NZ_CP048135.1 Acinetobacter baumannii strain D46 plasmid pD46-4, complete sequence	208004
>NZ_CP049240.1 Acinetobacter baumannii strain Ax270 chromosome, complete genome	3764882
>NZ_CP049314.1 Acinetobacter baumannii strain Ex003 chromosome, complete genome	3935232
>NZ_CP049315.1 Acinetobacter baumannii strain Ex003 plasmid pEx003, complete sequence	11844
>NZ_CP060994.1 Acinetobacter baumannii strain CAb-65 chromosome, complete genome	3778436
>NZ_CP060995.1 Acinetobacter baumannii strain CAb-65 plasmid unnamed1, complete sequence	91773
>NZ_CP060996.1 Acinetobacter baumannii strain CAb-65 plasmid unnamed2, complete sequence	13325
>NZ_CP058289.1 Acinetobacter baumannii ATCC 19606 = CIP 70.34 = JCM 6841 strain ATCC 19606 chromosome, complete genome	3927723
>NZ_CP058291.1 Acinetobacter baumannii ATCC 19606 = CIP 70.34 = JCM 6841 strain ATCC 19606 plasmid pMAC, complete sequence	9540
>NZ_CP058290.1 Acinetobacter baumannii ATCC 19606 = CIP 70.34 = JCM 6841 strain ATCC 19606 plasmid pAbTS2, complete sequence	7655
>NZ_CP079942.1 Acinetobacter baumannii strain B10 chromosome, complete genome	4010274
>NZ_CP079931.1 Acinetobacter baumannii strain 17978UN chromosome, complete genome	3902119
>NZ_CP079933.1 Acinetobacter baumannii strain 17978UN plasmid pAB1, complete sequence	13409
>NZ_CP079934.1 Acinetobacter baumannii strain 17978UN plasmid pAB2, complete sequence	11302
>NZ_CP079932.1 Acinetobacter baumannii strain 17978UN plasmid pAB3, complete sequence	148955
>NZ_CP077801.1 Acinetobacter baumannii strain 40288 chromosome, complete genome	4084922
>NZ_CP077802.1 Acinetobacter baumannii strain 40288 plasmid unnamed, complete sequence	145711
>NZ_CP080452.1 Acinetobacter baumannii strain MRSN 56 chromosome, complete genome	4033258
>NZ_CP080453.1 Acinetobacter baumannii strain MRSN 56 plasmid pMRSN56-1, complete sequence	2178
>NZ_CP080454.1 Acinetobacter baumannii strain MRSN 56 plasmid pMRSN56-2, complete sequence	2725
>NZ_CP080455.1 Acinetobacter baumannii strain MRSN 56 plasmid pMRSN56-3, complete sequence	6772
>NZ_CP080456.1 Acinetobacter baumannii strain MRSN 56 plasmid pMRSN56-4, complete sequence	8731
>NZ_AP024802.1 Acinetobacter baumannii strain OCU Ac18 chromosome, complete genome	3920683
>NZ_AP024803.1 Acinetobacter baumannii strain OCU Ac18 plasmid pOCUAc18-1, complete sequence	90090
>NZ_AP024812.1 Acinetobacter baumannii strain OCU Ac18 plasmid pOCUAc18-10, complete sequence	2444
>NZ_AP024813.1 Acinetobacter baumannii strain OCU Ac18 plasmid pOCUAc18-11, complete sequence	2278
>NZ_AP024804.1 Acinetobacter baumannii strain OCU Ac18 plasmid pOCUAc18-2, complete sequence	12817
>NZ_AP024805.1 Acinetobacter baumannii strain OCU Ac18 plasmid pOCUAc18-3, complete sequence	10831
>NZ_AP024806.1 Acinetobacter baumannii strain OCU Ac18 plasmid pOCUAc18-4, complete sequence	8948
>NZ_AP024807.1 Acinetobacter baumannii strain OCU Ac18 plasmid pOCUAc18-5, complete sequence	7104
>NZ_AP024808.1 Acinetobacter baumannii strain OCU Ac18 plasmid pOCUAc18-6, complete sequence	5049
>NZ_AP024809.1 Acinetobacter baumannii strain OCU Ac18 plasmid pOCUAc18-7, complete sequence	4293
>NZ_AP024810.1 Acinetobacter baumannii strain OCU Ac18 plasmid pOCUAc18-8, complete sequence	3948
>NZ_AP024811.1 Acinetobacter baumannii strain OCU Ac18 plasmid pOCUAc18-9, complete sequence	3496
>NZ_CP059542.1 Acinetobacter baumannii strain E-011922 chromosome, complete genome	3970467
>NZ_CP059545.1 Acinetobacter baumannii strain E-011922 plasmid p1E-011922, complete sequence	7369
>NZ_CP059544.1 Acinetobacter baumannii strain E-011922 plasmid p2E-011922, complete sequence	11020
>NZ_CP059543.1 Acinetobacter baumannii strain E-011922 plasmid p3E-011922, complete sequence	117806
>NZ_CP059546.1 Acinetobacter baumannii strain 10_4 chromosome, complete genome	3816508
>NZ_CP059547.1 Acinetobacter baumannii strain 10_3 chromosome, complete genome	3810320
>NZ_CP059548.1 Acinetobacter baumannii strain B9 chromosome, complete genome	3776716
>NZ_CP061705.1 Acinetobacter baumannii strain E-072658 chromosome, complete genome	3483338
>NZ_CP061713.1 Acinetobacter baumannii strain E-072658 plasmid p1E072658, complete sequence	4483
>NZ_CP061712.1 Acinetobacter baumannii strain E-072658 plasmid p2E072658, complete sequence	6018
>NZ_CP061711.1 Acinetobacter baumannii strain E-072658 plasmid p3E072658, complete sequence	6763
>NZ_CP061710.1 Acinetobacter baumannii strain E-072658 plasmid p4E072658, complete sequence	7989
>NZ_CP061709.1 Acinetobacter baumannii strain E-072658 plasmid p5E072658, complete sequence	15545
>NZ_CP061708.1 Acinetobacter baumannii strain E-072658 plasmid p6E072658, complete sequence	18806
>NZ_CP061707.1 Acinetobacter baumannii strain E-072658 plasmid p7E072658, complete sequence	19661
>NZ_CP061706.1 Acinetobacter baumannii strain E-072658 plasmid p8E072658, complete sequence	119750
>NZ_CP083181.1 Acinetobacter baumannii strain AB43 chromosome, complete genome	3854806
>NZ_CP083182.1 Acinetobacter baumannii strain AB43 plasmid unnamed, complete sequence	104309
>NZ_CP082952.1 Acinetobacter baumannii strain Cl300 chromosome, complete genome	4007379
>NZ_CP082953.1 Acinetobacter baumannii strain Cl300 plasmid pCl300, complete sequence	9205
>NZ_CP084297.1 Acinetobacter baumannii strain LHC22-2 chromosome, complete genome	3893116
>NZ_CP084299.1 Acinetobacter baumannii strain LHC22-2 plasmid pLHC22-2-6.9k, complete sequence	6942
>NZ_CP084298.1 Acinetobacter baumannii strain LHC22-2 plasmid pLHC22-2-tetX-162k, complete sequence	162264
>NZ_CP084733.1 Acinetobacter baumannii strain HKU3 chromosome, complete genome	3989953
>NZ_CP084734.1 Acinetobacter baumannii strain HKU3 plasmid pHKU3a, complete sequence	8731
>NZ_CP084735.1 Acinetobacter baumannii strain HKU3 plasmid pHKU3b, complete sequence	69524
>NZ_CP084730.1 Acinetobacter baumannii strain HKU4 chromosome, complete genome	3989720
>NZ_CP084731.1 Acinetobacter baumannii strain HKU4 plasmid pHKU4a, complete sequence	8731
>NZ_CP084732.1 Acinetobacter baumannii strain HKU4 plasmid pHKU4b, complete sequence	69524
>NZ_CP084727.1 Acinetobacter baumannii strain HKU5 chromosome, complete genome	3989875
>NZ_CP084728.1 Acinetobacter baumannii strain HKU5 plasmid pHKU5a, complete sequence	8731
>NZ_CP084729.1 Acinetobacter baumannii strain HKU5 plasmid pHKU5b, complete sequence	69524
>NZ_CP084724.1 Acinetobacter baumannii strain HKU6 chromosome, complete genome	3991008
>NZ_CP084725.1 Acinetobacter baumannii strain HKU6 plasmid pHKU6a, complete sequence	8731
>NZ_CP084726.1 Acinetobacter baumannii strain HKU6 plasmid pHKU6b, complete sequence	69524
>NZ_CP084721.1 Acinetobacter baumannii strain HKU7 chromosome, complete genome	3991015
>NZ_CP084722.1 Acinetobacter baumannii strain HKU7 plasmid pHKU7a, complete sequence	8731
>NZ_CP084723.1 Acinetobacter baumannii strain HKU7 plasmid pHKU7b, complete sequence	69524
>NZ_CP085788.1 Acinetobacter baumannii strain RCH52 chromosome, complete genome	4023505
>NZ_CP085789.1 Acinetobacter baumannii strain RCH52 plasmid pRCH52-1, complete sequence	11164
>NZ_CP085790.1 Acinetobacter baumannii strain RCH52 plasmid pRCH52-2, complete sequence	7039
>NZ_CP086759.1 Acinetobacter baumannii strain ACI713 chromosome, complete genome	3935674
>NZ_CP074585.1 Acinetobacter baumannii strain ATCC 19606 chromosome, complete genome	3980901
>NZ_CP074586.1 Acinetobacter baumannii strain ATCC 19606 plasmid unnamed, complete sequence	18598
>NZ_CP074710.1 Acinetobacter baumannii strain ATCC 17978 chromosome, complete genome	3929655
>NZ_CP074709.1 Acinetobacter baumannii strain ATCC 17978 plasmid unnamed1, complete sequence	148956
>NZ_CP074708.1 Acinetobacter baumannii strain ATCC 17978 plasmid unnamed2, complete sequence	26481
>NZ_CP074707.1 Acinetobacter baumannii strain ATCC 17978 plasmid unnamed3, complete sequence	20351
>NZ_CP074712.1 Acinetobacter baumannii strain ATCC 17978 plasmid unnamed4, complete sequence	11303
>NZ_CP074711.1 Acinetobacter baumannii strain ATCC 17978 plasmid unnamed5, complete sequence	38118
>NZ_CP087594.1 Acinetobacter baumannii strain SHOU-Ab01 chromosome, complete genome	3891862
>NZ_CP087595.1 Acinetobacter baumannii strain SHOU-Ab01 plasmid pAb01-1, complete sequence	8571
>NZ_CP087596.1 Acinetobacter baumannii strain SHOU-Ab01 plasmid pAb01-2, complete sequence	5870
>NZ_CP090182.1 Acinetobacter baumannii strain AB1343 chromosome, complete genome	3910435
>NZ_CP090183.1 Acinetobacter baumannii strain AB1343 plasmid pAB1343, complete sequence	11179
>NZ_CP090607.1 Acinetobacter baumannii strain MRSN 58 chromosome, complete genome	4264976
>NZ_CP054416.1 Acinetobacter baumannii strain AB79 chromosome, complete genome	4061278
>NZ_CP054417.1 Acinetobacter baumannii strain AB79 plasmid unnamed1, complete sequence	11194
>NZ_CP091172.1 Acinetobacter baumannii strain MRSN57 chromosome, complete genome	4125503
>NZ_CP091328.1 Acinetobacter baumannii strain BM2333 chromosome, complete genome	4055807
>NZ_CP091329.1 Acinetobacter baumannii strain BM2333 plasmid p1, complete sequence	22388
>NZ_CP054560.1 Acinetobacter baumannii strain YC103 chromosome, complete genome	4021945
>NZ_CP054561.1 Acinetobacter baumannii strain YC103 plasmid pYC103-1, complete sequence	10832
>NZ_CP091452.1 Acinetobacter baumannii strain AB329 chromosome, complete genome	3948028
>NZ_CP091453.1 Acinetobacter baumannii strain AB329 chromosome pAB329a, complete sequence	8731
>NZ_CP091454.1 Acinetobacter baumannii strain AB329 chromosome pAB329b, complete sequence	82120
>NZ_CP091465.1 Acinetobacter baumannii strain NCCP 16007 chromosome, complete genome	3853966
>NZ_CP091466.1 Acinetobacter baumannii strain NCCP 16007 plasmid unnamed, complete sequence	8808
>NZ_CP091596.1 Acinetobacter baumannii strain Nord4-2 chromosome, complete genome	4161539
>NZ_CP091598.1 Acinetobacter baumannii strain Nord4-2 plasmid pR32_1, complete sequence	117234
>NZ_CP091595.1 Acinetobacter baumannii strain Nord4-2 plasmid pR32_2, complete sequence	73145
>NZ_CP091597.1 Acinetobacter baumannii strain Nord4-2 plasmid pR32_3, complete sequence	11378
>NZ_CP058729.1 Acinetobacter baumannii strain M164-3 chromosome, complete genome	3812291
>NZ_CP058730.1 Acinetobacter baumannii strain M164-3 plasmid pM164-3.1, complete sequence	110272
>NZ_CP058731.1 Acinetobacter baumannii strain M164-3 plasmid pM164-3.2, complete sequence	7730
>NZ_CP059474.1 Acinetobacter baumannii strain M175-3 chromosome, complete genome	3792708
>NZ_CP059475.1 Acinetobacter baumannii strain M175-3 plasmid pM175-3.1, complete sequence	113429
>NZ_CP059476.1 Acinetobacter baumannii strain M175-3 plasmid pM175-3.2, complete sequence	57742
>NZ_CP092485.1 Acinetobacter baumannii strain AB2877 chromosome, complete genome	3887026
>NZ_CP092486.1 Acinetobacter baumannii strain AB2877 plasmid pAB2877, complete sequence	8731
>NZ_CP091359.1 Acinetobacter baumannii strain AB180-VUB chromosome, complete genome	3918856
>NZ_CP091360.1 Acinetobacter baumannii strain AB179-VUB chromosome, complete genome	3638126
>NZ_CP091361.1 Acinetobacter baumannii strain AB177-VUB chromosome, complete genome	4014141
>NZ_CP091362.1 Acinetobacter baumannii strain AB176-VUB chromosome, complete genome	4033979
>NZ_CP091363.1 Acinetobacter baumannii strain AB175-VUB chromosome, complete genome	3897771
>NZ_CP091364.1 Acinetobacter baumannii strain AB173-VUB chromosome, complete genome	4118848
>NZ_CP091365.1 Acinetobacter baumannii strain AB172-VUB chromosome, complete genome	3996138
>NZ_CP091366.1 Acinetobacter baumannii strain AB171-VUB chromosome, complete genome	3974863
>NZ_CP091367.1 Acinetobacter baumannii strain AB169-VUB chromosome, complete genome	4106222
>NZ_CP091368.1 Acinetobacter baumannii strain AB167-VUB chromosome, complete genome	3976873
>NZ_CP091369.1 Acinetobacter baumannii strain AB40-VUB chromosome, complete genome	4015626
>NZ_CP091370.1 Acinetobacter baumannii strain AB39-VUB chromosome, complete genome	4021915
>NZ_CP091371.1 Acinetobacter baumannii strain AB36-VUB chromosome, complete genome	3991978
>NZ_CP091372.1 Acinetobacter baumannii strain AB32-VUB chromosome, complete genome	3952921
>NZ_CP091373.1 Acinetobacter baumannii strain AB21-VUB chromosome, complete genome	4058269
>NZ_CP091374.1 Acinetobacter baumannii strain AB20-VUB chromosome, complete genome	3952334
>NZ_CP091375.1 Acinetobacter baumannii strain AB16-VUB chromosome, complete genome	3995974
>NZ_CP091376.1 Acinetobacter baumannii strain AB14-VUB chromosome, complete genome	3846634
>NZ_CP091377.1 Acinetobacter baumannii strain AB9-VUB chromosome, complete genome	3817333
>NZ_CP091378.1 Acinetobacter baumannii strain AB3-VUB chromosome, complete genome	3834704
>NZ_CP091333.1 Acinetobacter baumannii strain DSM30011-VUB chromosome, complete genome	3996233
>NZ_CP091334.1 Acinetobacter baumannii strain ATCC19606-VUB chromosome, complete genome	3980154
>NZ_CP091335.1 Acinetobacter baumannii strain ATCC17978-VUB chromosome, complete genome	3901878
>NZ_CP091336.1 Acinetobacter baumannii strain AB233-VUB chromosome, complete genome	3871059
>NZ_CP091337.1 Acinetobacter baumannii strain AB232-VUB chromosome, complete genome	3860400
>NZ_CP091338.1 Acinetobacter baumannii strain AB231-VUB chromosome, complete genome	3996446
>NZ_CP091339.1 Acinetobacter baumannii strain AB229-VUB chromosome, complete genome	3875531
>NZ_CP091340.1 Acinetobacter baumannii strain AB227-VUB chromosome, complete genome	3874353
>NZ_CP091341.1 Acinetobacter baumannii strain AB226-VUB chromosome, complete genome	4008883
>NZ_CP091342.1 Acinetobacter baumannii strain AB224-VUB chromosome, complete genome	4012438
>NZ_CP091343.1 Acinetobacter baumannii strain AB222-VUB chromosome, complete genome	3930310
>NZ_CP091344.1 Acinetobacter baumannii strain AB220-VUB chromosome, complete genome	3995387
>NZ_CP091345.1 Acinetobacter baumannii strain AB219-VUB chromosome, complete genome	3937922
>NZ_CP091346.1 Acinetobacter baumannii strain AB217-VUB chromosome, complete genome	4068658
>NZ_CP091347.1 Acinetobacter baumannii strain AB216-VUB chromosome, complete genome	3913930
>NZ_CP091348.1 Acinetobacter baumannii strain AB214-VUB chromosome, complete genome	3964332
>NZ_CP091349.1 Acinetobacter baumannii strain AB213-VUB chromosome, complete genome	3921587
>NZ_CP091350.1 Acinetobacter baumannii strain AB212-VUB chromosome, complete genome	3922329
>NZ_CP091351.1 Acinetobacter baumannii strain AB194-VUB chromosome, complete genome	3845163
>NZ_CP091352.1 Acinetobacter baumannii strain AB193-VUB chromosome, complete genome	3905527
>NZ_CP091353.1 Acinetobacter baumannii strain AB189-VUB chromosome, complete genome	3963068
>NZ_CP091354.1 Acinetobacter baumannii strain AB188-VUB chromosome, complete genome	3846813
>NZ_CP091355.1 Acinetobacter baumannii strain AB187-VUB chromosome, complete genome	3845339
>NZ_CP091356.1 Acinetobacter baumannii strain AB186-VUB chromosome, complete genome	3902067
>NZ_CP091357.1 Acinetobacter baumannii strain AB183-VUB chromosome, complete genome	3997993
>NZ_CP091358.1 Acinetobacter baumannii strain AB181-VUB chromosome, complete genome	4103179
>NZ_CP091173.1 Acinetobacter baumannii strain AB5116 chromosome, complete genome	3907300
>NZ_CP094283.1 Acinetobacter baumannii strain NY5301 chromosome, complete genome	4036993
>NZ_CP094284.1 Acinetobacter baumannii strain NY5301 plasmid pNY5301-1, complete sequence	110967
>NZ_CP094285.1 Acinetobacter baumannii strain NY5301 plasmid pNY5301-2, complete sequence	71194
>NZ_CP094286.1 Acinetobacter baumannii strain NY5301 plasmid pNY5301-3, complete sequence	8731
>NZ_CP094287.1 Acinetobacter baumannii strain NY5301 plasmid pNY5301-4, complete sequence	2762
>NZ_CP065051.1 Acinetobacter baumannii strain 2016GDAB1 chromosome, complete genome	3876694
>NZ_CP065052.1 Acinetobacter baumannii strain 2016GDAB1 plasmid p5637, complete sequence	72156
>NZ_CP064375.1 Acinetobacter baumannii strain PartI-Abaumannii-RM8376 isolate ATCC isolate chromosome, complete genome	3980879
>NZ_CP095091.1 Acinetobacter baumannii strain AB4451 chromosome, complete genome	3921433
>NZ_CP095092.1 Acinetobacter baumannii strain AB4451 plasmid pAB4451, complete sequence	11178
>NZ_LT594095.1 Acinetobacter baumannii strain BAL062 chromosome 1, complete sequence	4042750
>NZ_LT594096.1 Acinetobacter baumannii strain BAL062 plasmid 2, complete sequence	8015
>NZ_LT605059.1 Acinetobacter baumannii strain NCTC7364 chromosome 1, complete sequence	3980027
>NZ_LT605060.1 Acinetobacter baumannii strain NCTC7364 plasmid 2, complete sequence	148956
>NZ_LS483472.1 Acinetobacter baumannii strain NCTC13421 chromosome 1, complete sequence	4044162
