GCF_002973755.2_ASM297375v2,NZ_CP044317.1
GCF_002973755.2_ASM297375v2,NZ_CP044318.1
GCF_002973755.2_ASM297375v2,NZ_CP044319.1
GCF_002973755.2_ASM297375v2,NZ_CP044320.1
GCF_002973755.2_ASM297375v2,NZ_CP044321.1
GCF_002973755.2_ASM297375v2,NZ_CP044322.1
GCF_002973755.2_ASM297375v2,NZ_CP044323.1
GCF_002973755.2_ASM297375v2,NZ_CP044324.1
GCF_002973755.2_ASM297375v2,NZ_CP044325.1
GCF_002973755.2_ASM297375v2,NZ_CP044326.1
GCF_002973755.2_ASM297375v2,NZ_CP044327.1
GCF_007917035.2_ASM791703v3,NZ_CP041262.2
GCF_007917035.2_ASM791703v3,NZ_CP041263.2
GCF_007917035.2_ASM791703v3,NZ_CP041264.2
GCF_007917035.2_ASM791703v3,NZ_CP041269.2
GCF_007917035.2_ASM791703v3,NZ_CP041265.2
GCF_007917035.2_ASM791703v3,NZ_CP041266.2
GCF_007917035.2_ASM791703v3,NZ_CP041267.2
GCF_007917035.2_ASM791703v3,NZ_CP041268.2
GCF_007917315.3_ASM791731v3,NZ_CP041271.2
GCF_007917315.3_ASM791731v3,NZ_CP041272.1
GCF_007917315.3_ASM791731v3,NZ_CP041273.1
GCF_007917315.3_ASM791731v3,NZ_CP041279.2
GCF_007917315.3_ASM791731v3,NZ_CP041274.1
GCF_007917315.3_ASM791731v3,NZ_CP041275.1
GCF_007917315.3_ASM791731v3,NZ_CP041276.1
GCF_007917315.3_ASM791731v3,NZ_CP041277.1
GCF_007917315.3_ASM791731v3,NZ_CP041278.1
GCF_007923785.2_ASM792378v2,NZ_CP038173.1
GCF_007923865.2_ASM792386v2,NZ_CP038167.1
GCF_007923885.2_ASM792388v2,NZ_CP038171.1
GCF_007923905.2_ASM792390v2,NZ_CP038176.1
GCF_007923925.2_ASM792392v2,NZ_CP038165.1
GCF_007923945.2_ASM792394v2,NZ_CP038162.1
GCF_007923965.2_ASM792396v2,NZ_CP038175.1
GCF_009734005.1_ASM973400v2,NZ_CP038997.1
GCF_009938285.1_ASM993828v1,NZ_AP022342.1
GCF_009938285.1_ASM993828v1,NZ_AP022343.1
GCF_009938285.1_ASM993828v1,NZ_AP022344.1
GCF_010120755.1_ASM1012075v1,NZ_CP039730.1
GCF_012045365.1_ASM1204536v1,NZ_CP050649.1
GCF_012045505.1_ASM1204550v1,NZ_CP050651.1
GCF_012932975.2_ASM1293297v2,NZ_CP059785.1
GCF_012932975.2_ASM1293297v2,NZ_CP059786.1
GCF_012932975.2_ASM1293297v2,NZ_CP059787.1
GCF_012932975.2_ASM1293297v2,NZ_CP059788.1
GCF_012932975.2_ASM1293297v2,NZ_CP059789.1
GCF_012932975.2_ASM1293297v2,NZ_CP059790.1
GCF_012932975.2_ASM1293297v2,NZ_CP059791.1
GCF_012932975.2_ASM1293297v2,NZ_CP059792.1
GCF_012932985.2_ASM1293298v2,NZ_CP059807.1
GCF_012932985.2_ASM1293298v2,NZ_CP059808.1
GCF_012932985.2_ASM1293298v2,NZ_CP059809.1
GCF_012932985.2_ASM1293298v2,NZ_CP059810.1
GCF_012932985.2_ASM1293298v2,NZ_CP059811.1
GCF_012932985.2_ASM1293298v2,NZ_CP059812.1
GCF_012932985.2_ASM1293298v2,NZ_CP059813.1
GCF_012932985.2_ASM1293298v2,NZ_CP059814.1
GCF_012932985.2_ASM1293298v2,NZ_CP059815.1
GCF_012933055.2_ASM1293305v2,NZ_CP059794.1
GCF_012933055.2_ASM1293305v2,NZ_CP059803.1
GCF_012933055.2_ASM1293305v2,NZ_CP059804.1
GCF_012933055.2_ASM1293305v2,NZ_CP059805.1
GCF_012933055.2_ASM1293305v2,NZ_CP059795.1
GCF_012933055.2_ASM1293305v2,NZ_CP059796.1
GCF_012933055.2_ASM1293305v2,NZ_CP059797.1
GCF_012933055.2_ASM1293305v2,NZ_CP059798.1
GCF_012933055.2_ASM1293305v2,NZ_CP059799.1
GCF_012933055.2_ASM1293305v2,NZ_CP059800.1
GCF_012933055.2_ASM1293305v2,NZ_CP059801.1
GCF_012933055.2_ASM1293305v2,NZ_CP059802.1
GCF_012933075.2_ASM1293307v2,NZ_CP059817.1
GCF_012933075.2_ASM1293307v2,NZ_CP059818.1
GCF_012933075.2_ASM1293307v2,NZ_CP059819.1
GCF_012933075.2_ASM1293307v2,NZ_CP059820.1
GCF_012933075.2_ASM1293307v2,NZ_CP059821.1
GCF_012933075.2_ASM1293307v2,NZ_CP059822.1
GCF_012933165.2_ASM1293316v2,NZ_CP059748.1
GCF_012933165.2_ASM1293316v2,NZ_CP059749.1
GCF_012933165.2_ASM1293316v2,NZ_CP059750.1
GCF_012933165.2_ASM1293316v2,NZ_CP059751.1
GCF_012933165.2_ASM1293316v2,NZ_CP059752.1
GCF_012933165.2_ASM1293316v2,NZ_CP059753.1
GCF_012933165.2_ASM1293316v2,NZ_CP059754.1
GCF_012933195.2_ASM1293319v2,NZ_CP061818.1
GCF_012933195.2_ASM1293319v2,NZ_CP061827.1
GCF_012933195.2_ASM1293319v2,NZ_CP061820.1
GCF_012933195.2_ASM1293319v2,NZ_CP061821.1
GCF_012933195.2_ASM1293319v2,NZ_CP061822.1
GCF_012933195.2_ASM1293319v2,NZ_CP061823.1
GCF_012933195.2_ASM1293319v2,NZ_CP061824.1
GCF_012933195.2_ASM1293319v2,NZ_CP061825.1
GCF_012933195.2_ASM1293319v2,NZ_CP061826.1
GCF_012933195.2_ASM1293319v2,NZ_CP061819.1
GCF_012933245.2_ASM1293324v2,NZ_CP059740.1
GCF_012933245.2_ASM1293324v2,NZ_CP059741.1
GCF_012933245.2_ASM1293324v2,NZ_CP059742.1
GCF_012933245.2_ASM1293324v2,NZ_CP059743.1
GCF_012933245.2_ASM1293324v2,NZ_CP059744.1
GCF_012933245.2_ASM1293324v2,NZ_CP059745.1
GCF_012933245.2_ASM1293324v2,NZ_CP059746.1
GCF_012933265.2_ASM1293326v2,NZ_CP059773.1
GCF_012933265.2_ASM1293326v2,NZ_CP059782.1
GCF_012933265.2_ASM1293326v2,NZ_CP059783.1
GCF_012933265.2_ASM1293326v2,NZ_CP059774.1
GCF_012933265.2_ASM1293326v2,NZ_CP059775.1
GCF_012933265.2_ASM1293326v2,NZ_CP059776.1
GCF_012933265.2_ASM1293326v2,NZ_CP059777.1
GCF_012933265.2_ASM1293326v2,NZ_CP059778.1
GCF_012933265.2_ASM1293326v2,NZ_CP059779.1
GCF_012933265.2_ASM1293326v2,NZ_CP059780.1
GCF_012933265.2_ASM1293326v2,NZ_CP059781.1
GCF_012933285.2_ASM1293328v2,NZ_CP059765.1
GCF_012933285.2_ASM1293328v2,NZ_CP059766.1
GCF_012933285.2_ASM1293328v2,NZ_CP059767.1
GCF_012933285.2_ASM1293328v2,NZ_CP059768.1
GCF_012933285.2_ASM1293328v2,NZ_CP059769.1
GCF_012933285.2_ASM1293328v2,NZ_CP059770.1
GCF_012933285.2_ASM1293328v2,NZ_CP059771.1
GCF_012933295.2_ASM1293329v2,NZ_CP059824.1
GCF_012933295.2_ASM1293329v2,NZ_CP059825.1
GCF_012933295.2_ASM1293329v2,NZ_CP059826.1
GCF_012933295.2_ASM1293329v2,NZ_CP059827.1
GCF_012933295.2_ASM1293329v2,NZ_CP059828.1
GCF_012933345.2_ASM1293334v2,NZ_CP059756.1
GCF_012933345.2_ASM1293334v2,NZ_CP059757.1
GCF_012933345.2_ASM1293334v2,NZ_CP059758.1
GCF_012933345.2_ASM1293334v2,NZ_CP059759.1
GCF_012933345.2_ASM1293334v2,NZ_CP059760.1
GCF_012933345.2_ASM1293334v2,NZ_CP059761.1
GCF_012933345.2_ASM1293334v2,NZ_CP059762.1
GCF_012933345.2_ASM1293334v2,NZ_CP059763.1
GCF_014490015.1_ASM1449001v1,NZ_CP060862.1
GCF_014490015.1_ASM1449001v1,NZ_CP060863.1
GCF_014490015.1_ASM1449001v1,NZ_CP060864.1
GCF_014490015.1_ASM1449001v1,NZ_CP060865.1
GCF_014874615.1_ASM1487461v1,NZ_CP062266.1
GCF_014874615.1_ASM1487461v1,NZ_CP062275.1
GCF_014874615.1_ASM1487461v1,NZ_CP062276.1
GCF_014874615.1_ASM1487461v1,NZ_CP062277.1
GCF_014874615.1_ASM1487461v1,NZ_CP062267.1
GCF_014874615.1_ASM1487461v1,NZ_CP062268.1
GCF_014874615.1_ASM1487461v1,NZ_CP062269.1
GCF_014874615.1_ASM1487461v1,NZ_CP062270.1
GCF_014874615.1_ASM1487461v1,NZ_CP062271.1
GCF_014874615.1_ASM1487461v1,NZ_CP062272.1
GCF_014874615.1_ASM1487461v1,NZ_CP062273.1
GCF_014874615.1_ASM1487461v1,NZ_CP062274.1
GCF_015325925.1_ASM1532592v1,NZ_CP064050.1
GCF_015325925.1_ASM1532592v1,NZ_CP064051.1
GCF_015325925.1_ASM1532592v1,NZ_CP064052.1
GCF_015325925.1_ASM1532592v1,NZ_CP064053.1
GCF_015377765.1_ASM1537776v1,NZ_CP045603.1
GCF_015476295.1_ASM1547629v1,NZ_CP064344.1
GCF_015476295.1_ASM1547629v1,NZ_CP064345.1
GCF_015476295.1_ASM1547629v1,NZ_CP064346.1
GCF_015476295.1_ASM1547629v1,NZ_CP064347.1
GCF_015476295.1_ASM1547629v1,NZ_CP064348.1
GCF_015476295.1_ASM1547629v1,NZ_CP064349.1
GCF_015999405.1_ASM1599940v1,NZ_CP065525.1
GCF_015999405.1_ASM1599940v1,NZ_CP065524.1
GCF_015999405.1_ASM1599940v1,NZ_CP065526.1
GCF_015999425.1_ASM1599942v1,NZ_CP065529.1
GCF_015999425.1_ASM1599942v1,NZ_CP065530.1
GCF_015999425.1_ASM1599942v1,NZ_CP065528.1
GCF_015999605.1_ASM1599960v1,NZ_CP065553.1
GCF_015999605.1_ASM1599960v1,NZ_CP065549.1
GCF_015999605.1_ASM1599960v1,NZ_CP065550.1
GCF_015999605.1_ASM1599960v1,NZ_CP065548.1
GCF_015999605.1_ASM1599960v1,NZ_CP065552.1
GCF_015999605.1_ASM1599960v1,NZ_CP065551.1
GCF_016126675.1_ASM1612667v1,NZ_CP065935.1
GCF_016126675.1_ASM1612667v1,NZ_CP065929.1
GCF_016126675.1_ASM1612667v1,NZ_CP065932.1
GCF_016126675.1_ASM1612667v1,NZ_CP065934.1
GCF_016126675.1_ASM1612667v1,NZ_CP065931.1
GCF_016126675.1_ASM1612667v1,NZ_CP065930.1
GCF_016126675.1_ASM1612667v1,NZ_CP065933.1
GCF_016406345.1_ASM1640634v1,NZ_CP066472.1
GCF_016406345.1_ASM1640634v1,NZ_CP066469.1
GCF_016406345.1_ASM1640634v1,NZ_CP066468.1
GCF_016406345.1_ASM1640634v1,NZ_CP066467.1
GCF_016406345.1_ASM1640634v1,NZ_CP066471.1
GCF_016406345.1_ASM1640634v1,NZ_CP066470.1
GCF_016406365.1_ASM1640636v1,NZ_CP066420.1
GCF_016406365.1_ASM1640636v1,NZ_CP066418.1
GCF_016406365.1_ASM1640636v1,NZ_CP066417.1
GCF_016406365.1_ASM1640636v1,NZ_CP066416.1
GCF_016406365.1_ASM1640636v1,NZ_CP066419.1
GCF_016406385.1_ASM1640638v1,NZ_CP066425.1
GCF_016406385.1_ASM1640638v1,NZ_CP066422.1
GCF_016406385.1_ASM1640638v1,NZ_CP066424.1
GCF_016406385.1_ASM1640638v1,NZ_CP066426.1
GCF_016406385.1_ASM1640638v1,NZ_CP066423.1
GCF_016406405.1_ASM1640640v1,NZ_CP066442.1
GCF_016406405.1_ASM1640640v1,NZ_CP066435.1
GCF_016406405.1_ASM1640640v1,NZ_CP066438.1
GCF_016406405.1_ASM1640640v1,NZ_CP066441.1
GCF_016406405.1_ASM1640640v1,NZ_CP066437.1
GCF_016406405.1_ASM1640640v1,NZ_CP066436.1
GCF_016406405.1_ASM1640640v1,NZ_CP066440.1
GCF_016406405.1_ASM1640640v1,NZ_CP066439.1
GCF_016406425.1_ASM1640642v1,NZ_CP066456.1
GCF_016406425.1_ASM1640642v1,NZ_CP066452.1
GCF_016406425.1_ASM1640642v1,NZ_CP066454.1
GCF_016406425.1_ASM1640642v1,NZ_CP066453.1
GCF_016406425.1_ASM1640642v1,NZ_CP066455.1
GCF_016406445.1_ASM1640644v1,NZ_CP066390.1
GCF_016406445.1_ASM1640644v1,NZ_CP066392.1
GCF_016406445.1_ASM1640644v1,NZ_CP066395.1
GCF_016406445.1_ASM1640644v1,NZ_CP066394.1
GCF_016406445.1_ASM1640644v1,NZ_CP066391.1
GCF_016406445.1_ASM1640644v1,NZ_CP066393.1
GCF_016406465.1_ASM1640646v1,NZ_CP066400.1
GCF_016406465.1_ASM1640646v1,NZ_CP066399.1
GCF_016406465.1_ASM1640646v1,NZ_CP066401.1
GCF_016406465.1_ASM1640646v1,NZ_CP066406.1
GCF_016406465.1_ASM1640646v1,NZ_CP066405.1
GCF_016406465.1_ASM1640646v1,NZ_CP066398.1
GCF_016406465.1_ASM1640646v1,NZ_CP066397.1
GCF_016406465.1_ASM1640646v1,NZ_CP066408.1
GCF_016406465.1_ASM1640646v1,NZ_CP066404.1
GCF_016406465.1_ASM1640646v1,NZ_CP066403.1
GCF_016406465.1_ASM1640646v1,NZ_CP066407.1
GCF_016406465.1_ASM1640646v1,NZ_CP066402.1
GCF_016406485.1_ASM1640648v1,NZ_CP066383.1
GCF_016406485.1_ASM1640648v1,NZ_CP066382.1
GCF_016406485.1_ASM1640648v1,NZ_CP066385.1
GCF_016406485.1_ASM1640648v1,NZ_CP066388.1
GCF_016406485.1_ASM1640648v1,NZ_CP066387.1
GCF_016406485.1_ASM1640648v1,NZ_CP066386.1
GCF_016406485.1_ASM1640648v1,NZ_CP066384.1
GCF_016406505.1_ASM1640650v1,NZ_CP066458.1
GCF_016406505.1_ASM1640650v1,NZ_CP066465.1
GCF_016406505.1_ASM1640650v1,NZ_CP066461.1
GCF_016406505.1_ASM1640650v1,NZ_CP066464.1
GCF_016406505.1_ASM1640650v1,NZ_CP066463.1
GCF_016406505.1_ASM1640650v1,NZ_CP066462.1
GCF_016406505.1_ASM1640650v1,NZ_CP066460.1
GCF_016406505.1_ASM1640650v1,NZ_CP066459.1
GCF_016406525.1_ASM1640652v1,NZ_CP066450.1
GCF_016406525.1_ASM1640652v1,NZ_CP066444.1
GCF_016406525.1_ASM1640652v1,NZ_CP066449.1
GCF_016406525.1_ASM1640652v1,NZ_CP066446.1
GCF_016406525.1_ASM1640652v1,NZ_CP066445.1
GCF_016406525.1_ASM1640652v1,NZ_CP066448.1
GCF_016406525.1_ASM1640652v1,NZ_CP066447.1
GCF_016406545.1_ASM1640654v1,NZ_CP066414.1
GCF_016406545.1_ASM1640654v1,NZ_CP066412.1
GCF_016406545.1_ASM1640654v1,NZ_CP066410.1
GCF_016406545.1_ASM1640654v1,NZ_CP066411.1
GCF_016406545.1_ASM1640654v1,NZ_CP066413.1
GCF_016406565.1_ASM1640656v1,NZ_CP066433.1
GCF_016406565.1_ASM1640656v1,NZ_CP066428.1
GCF_016406565.1_ASM1640656v1,NZ_CP066432.1
GCF_016406565.1_ASM1640656v1,NZ_CP066429.1
GCF_016406565.1_ASM1640656v1,NZ_CP066430.1
GCF_016406565.1_ASM1640656v1,NZ_CP066431.1
GCF_016406585.1_ASM1640658v1,NZ_CP066485.1
GCF_016406585.1_ASM1640658v1,NZ_CP066481.1
GCF_016406585.1_ASM1640658v1,NZ_CP066483.1
GCF_016406585.1_ASM1640658v1,NZ_CP066482.1
GCF_016406585.1_ASM1640658v1,NZ_CP066484.1
GCF_016406605.1_ASM1640660v1,NZ_CP066474.1
GCF_016406605.1_ASM1640660v1,NZ_CP066479.1
GCF_016406605.1_ASM1640660v1,NZ_CP066478.1
GCF_016406605.1_ASM1640660v1,NZ_CP066477.1
GCF_016406605.1_ASM1640660v1,NZ_CP066476.1
GCF_016406605.1_ASM1640660v1,NZ_CP066475.1
GCF_016415025.1_ASM1641502v1,NZ_CP066575.1
GCF_016415025.1_ASM1641502v1,NZ_CP066569.1
GCF_016415025.1_ASM1641502v1,NZ_CP066571.1
GCF_016415025.1_ASM1641502v1,NZ_CP066574.1
GCF_016415025.1_ASM1641502v1,NZ_CP066573.1
GCF_016415025.1_ASM1641502v1,NZ_CP066570.1
GCF_016415025.1_ASM1641502v1,NZ_CP066572.1
GCF_016415105.1_ASM1641510v1,NZ_CP066584.1
GCF_016415105.1_ASM1641510v1,NZ_CP066585.1
GCF_016415105.1_ASM1641510v1,NZ_CP066590.1
GCF_016415105.1_ASM1641510v1,NZ_CP066586.1
GCF_016415105.1_ASM1641510v1,NZ_CP066587.1
GCF_016415105.1_ASM1641510v1,NZ_CP066589.1
GCF_016415105.1_ASM1641510v1,NZ_CP066588.1
GCF_016415285.1_ASM1641528v1,NZ_CP066582.1
GCF_016415285.1_ASM1641528v1,NZ_CP066580.1
GCF_016415285.1_ASM1641528v1,NZ_CP066577.1
GCF_016415285.1_ASM1641528v1,NZ_CP066579.1
GCF_016415285.1_ASM1641528v1,NZ_CP066578.1
GCF_016415285.1_ASM1641528v1,NZ_CP066581.1
GCF_016415325.1_ASM1641532v1,NZ_CP066595.1
GCF_016415325.1_ASM1641532v1,NZ_CP066592.1
GCF_016415325.1_ASM1641532v1,NZ_CP066594.1
GCF_016415325.1_ASM1641532v1,NZ_CP066593.1
GCF_016415325.1_ASM1641532v1,NZ_CP066597.1
GCF_016415325.1_ASM1641532v1,NZ_CP066596.1
GCF_016415345.1_ASM1641534v1,NZ_CP066603.1
GCF_016415345.1_ASM1641534v1,NZ_CP066599.1
GCF_016415345.1_ASM1641534v1,NZ_CP066600.1
GCF_016415345.1_ASM1641534v1,NZ_CP066605.1
GCF_016415345.1_ASM1641534v1,NZ_CP066604.1
GCF_016415345.1_ASM1641534v1,NZ_CP066602.1
GCF_016415345.1_ASM1641534v1,NZ_CP066601.1
GCF_016415365.1_ASM1641536v1,NZ_CP066620.1
GCF_016415365.1_ASM1641536v1,NZ_CP066621.1
GCF_016415365.1_ASM1641536v1,NZ_CP066615.1
GCF_016415365.1_ASM1641536v1,NZ_CP066617.1
GCF_016415365.1_ASM1641536v1,NZ_CP066619.1
GCF_016415365.1_ASM1641536v1,NZ_CP066616.1
GCF_016415365.1_ASM1641536v1,NZ_CP066618.1
GCF_016415385.1_ASM1641538v1,NZ_CP066613.1
GCF_016415385.1_ASM1641538v1,NZ_CP066607.1
GCF_016415385.1_ASM1641538v1,NZ_CP066608.1
GCF_016415385.1_ASM1641538v1,NZ_CP066610.1
GCF_016415385.1_ASM1641538v1,NZ_CP066612.1
GCF_016415385.1_ASM1641538v1,NZ_CP066609.1
GCF_016415385.1_ASM1641538v1,NZ_CP066611.1
GCF_016415405.1_ASM1641540v1,NZ_CP066644.1
GCF_016415405.1_ASM1641540v1,NZ_CP066641.1
GCF_016415405.1_ASM1641540v1,NZ_CP066643.1
GCF_016415405.1_ASM1641540v1,NZ_CP066640.1
GCF_016415405.1_ASM1641540v1,NZ_CP066639.1
GCF_016415405.1_ASM1641540v1,NZ_CP066642.1
GCF_016415405.1_ASM1641540v1,NZ_CP066638.1
GCF_016415425.1_ASM1641542v1,NZ_CP066652.1
GCF_016415425.1_ASM1641542v1,NZ_CP066646.1
GCF_016415425.1_ASM1641542v1,NZ_CP066648.1
GCF_016415425.1_ASM1641542v1,NZ_CP066649.1
GCF_016415425.1_ASM1641542v1,NZ_CP066647.1
GCF_016415425.1_ASM1641542v1,NZ_CP066651.1
GCF_016415425.1_ASM1641542v1,NZ_CP066650.1
GCF_016415445.1_ASM1641544v1,NZ_CP066630.1
GCF_016415445.1_ASM1641544v1,NZ_CP066631.1
GCF_016415445.1_ASM1641544v1,NZ_CP066632.1
GCF_016415445.1_ASM1641544v1,NZ_CP066633.1
GCF_016415445.1_ASM1641544v1,NZ_CP066634.1
GCF_016415445.1_ASM1641544v1,NZ_CP066635.1
GCF_016415445.1_ASM1641544v1,NZ_CP066636.1
GCF_016415465.1_ASM1641546v1,NZ_CP066623.1
GCF_016415465.1_ASM1641546v1,NZ_CP066624.1
GCF_016415465.1_ASM1641546v1,NZ_CP066625.1
GCF_016415465.1_ASM1641546v1,NZ_CP066626.1
GCF_016415465.1_ASM1641546v1,NZ_CP066627.1
GCF_016415465.1_ASM1641546v1,NZ_CP066628.1
GCF_016415485.1_ASM1641548v1,NZ_CP066674.1
GCF_016415485.1_ASM1641548v1,NZ_CP066675.1
GCF_016415485.1_ASM1641548v1,NZ_CP066676.1
GCF_016415485.1_ASM1641548v1,NZ_CP066677.1
GCF_016415485.1_ASM1641548v1,NZ_CP066678.1
GCF_016415485.1_ASM1641548v1,NZ_CP066679.1
GCF_016415505.1_ASM1641550v1,NZ_CP066660.1
GCF_016415505.1_ASM1641550v1,NZ_CP066661.1
GCF_016415505.1_ASM1641550v1,NZ_CP066662.1
GCF_016415505.1_ASM1641550v1,NZ_CP066663.1
GCF_016415505.1_ASM1641550v1,NZ_CP066664.1
GCF_016415505.1_ASM1641550v1,NZ_CP066665.1
GCF_016415505.1_ASM1641550v1,NZ_CP066666.1
GCF_016415545.1_ASM1641554v1,NZ_CP066654.1
GCF_016415545.1_ASM1641554v1,NZ_CP066655.1
GCF_016415545.1_ASM1641554v1,NZ_CP066656.1
GCF_016415545.1_ASM1641554v1,NZ_CP066657.1
GCF_016415545.1_ASM1641554v1,NZ_CP066658.1
GCF_016415565.1_ASM1641556v1,NZ_CP066668.1
GCF_016415565.1_ASM1641556v1,NZ_CP066669.1
GCF_016415565.1_ASM1641556v1,NZ_CP066670.1
GCF_016415565.1_ASM1641556v1,NZ_CP066671.1
GCF_016415565.1_ASM1641556v1,NZ_CP066672.1
GCF_016743855.1_ASM1674385v1,NZ_CP068245.1
GCF_016743855.1_ASM1674385v1,NZ_CP068246.1
GCF_016864255.1_ASM1686425v1,NZ_CP046167.1
GCF_016864255.1_ASM1686425v1,NZ_CP046168.1
GCF_016864255.1_ASM1686425v1,NZ_CP046169.1
GCF_016864255.1_ASM1686425v1,NZ_CP046170.1
GCF_017584065.1_ASM1758406v1,NZ_CP071930.1
GCF_017584065.1_ASM1758406v1,NZ_CP071929.1
GCF_017584065.1_ASM1758406v1,NZ_CP071928.1
GCF_017584065.1_ASM1758406v1,NZ_CP071927.1
GCF_017584065.1_ASM1758406v1,NZ_CP071926.1
GCF_017584065.1_ASM1758406v1,NZ_CP071925.1
GCF_017584065.1_ASM1758406v1,NZ_CP071924.1
GCF_017603725.1_ASM1760372v1,NZ_CP071959.1
GCF_017603725.1_ASM1760372v1,NZ_CP071960.1
GCF_017603725.1_ASM1760372v1,NZ_CP071961.1
GCF_017603725.1_ASM1760372v1,NZ_CP071962.1
GCF_017603725.1_ASM1760372v1,NZ_CP071963.1
GCF_017603725.1_ASM1760372v1,NZ_CP071964.1
GCF_017603725.1_ASM1760372v1,NZ_CP071965.1
GCF_017603725.1_ASM1760372v1,NZ_CP071966.1
GCF_017603725.1_ASM1760372v1,NZ_CP071967.1
GCF_017603725.1_ASM1760372v1,NZ_CP071968.1
GCF_017603725.1_ASM1760372v1,NZ_CP071969.1
GCF_017815655.1_ASM1781565v1,NZ_CP072580.1
GCF_017815655.1_ASM1781565v1,NZ_CP072581.1
GCF_017815655.1_ASM1781565v1,NZ_CP072582.1
GCF_017815655.1_ASM1781565v1,NZ_CP072583.1
GCF_017815655.1_ASM1781565v1,NZ_CP072584.1
GCF_017815655.1_ASM1781565v1,NZ_CP072585.1
GCF_017815675.1_ASM1781567v1,NZ_CP072568.1
GCF_017815675.1_ASM1781567v1,NZ_CP072577.1
GCF_017815675.1_ASM1781567v1,NZ_CP072578.1
GCF_017815675.1_ASM1781567v1,NZ_CP072569.1
GCF_017815675.1_ASM1781567v1,NZ_CP072570.1
GCF_017815675.1_ASM1781567v1,NZ_CP072571.1
GCF_017815675.1_ASM1781567v1,NZ_CP072572.1
GCF_017815675.1_ASM1781567v1,NZ_CP072573.1
GCF_017815675.1_ASM1781567v1,NZ_CP072574.1
GCF_017815675.1_ASM1781567v1,NZ_CP072575.1
GCF_017815675.1_ASM1781567v1,NZ_CP072576.1
GCF_017815695.1_ASM1781569v1,NZ_CP072587.1
GCF_017815695.1_ASM1781569v1,NZ_CP072588.1
GCF_017815695.1_ASM1781569v1,NZ_CP072589.1
GCF_017815695.1_ASM1781569v1,NZ_CP072590.1
GCF_017815695.1_ASM1781569v1,NZ_CP072591.1
GCF_017815695.1_ASM1781569v1,NZ_CP072592.1
GCF_017815695.1_ASM1781569v1,NZ_CP072593.1
GCF_017815695.1_ASM1781569v1,NZ_CP072594.1
GCF_017815695.1_ASM1781569v1,NZ_CP072595.1
GCF_017897965.1_ASM1789796v1,NZ_CP072732.1
GCF_017897965.1_ASM1789796v1,NZ_CP072741.1
GCF_017897965.1_ASM1789796v1,NZ_CP072733.1
GCF_017897965.1_ASM1789796v1,NZ_CP072734.1
GCF_017897965.1_ASM1789796v1,NZ_CP072735.1
GCF_017897965.1_ASM1789796v1,NZ_CP072736.1
GCF_017897965.1_ASM1789796v1,NZ_CP072737.1
GCF_017897965.1_ASM1789796v1,NZ_CP072738.1
GCF_017897965.1_ASM1789796v1,NZ_CP072739.1
GCF_017897965.1_ASM1789796v1,NZ_CP072740.1
GCF_017898005.1_ASM1789800v1,NZ_CP072721.1
GCF_017898005.1_ASM1789800v1,NZ_CP072730.1
GCF_017898005.1_ASM1789800v1,NZ_CP072722.1
GCF_017898005.1_ASM1789800v1,NZ_CP072723.1
GCF_017898005.1_ASM1789800v1,NZ_CP072724.1
GCF_017898005.1_ASM1789800v1,NZ_CP072725.1
GCF_017898005.1_ASM1789800v1,NZ_CP072726.1
GCF_017898005.1_ASM1789800v1,NZ_CP072727.1
GCF_017898005.1_ASM1789800v1,NZ_CP072728.1
GCF_017898005.1_ASM1789800v1,NZ_CP072729.1
GCF_017898025.1_ASM1789802v1,NZ_CP072708.1
GCF_017898025.1_ASM1789802v1,NZ_CP072717.1
GCF_017898025.1_ASM1789802v1,NZ_CP072718.1
GCF_017898025.1_ASM1789802v1,NZ_CP072719.1
GCF_017898025.1_ASM1789802v1,NZ_CP072709.1
GCF_017898025.1_ASM1789802v1,NZ_CP072710.1
GCF_017898025.1_ASM1789802v1,NZ_CP072711.1
GCF_017898025.1_ASM1789802v1,NZ_CP072712.1
GCF_017898025.1_ASM1789802v1,NZ_CP072713.1
GCF_017898025.1_ASM1789802v1,NZ_CP072714.1
GCF_017898025.1_ASM1789802v1,NZ_CP072715.1
GCF_017898025.1_ASM1789802v1,NZ_CP072716.1
GCF_018219285.1_ASM1821928v1,NZ_CP064407.1
GCF_018219285.1_ASM1821928v1,NZ_CP064408.1
GCF_018219285.1_ASM1821928v1,NZ_CP064409.1
GCF_018219285.1_ASM1821928v1,NZ_CP064410.1
GCF_018219285.1_ASM1821928v1,NZ_CP064411.1
GCF_018219285.1_ASM1821928v1,NZ_CP064412.1
GCF_018219285.1_ASM1821928v1,NZ_CP064413.1
GCF_018219285.1_ASM1821928v1,NZ_CP064414.1
GCF_018219285.1_ASM1821928v1,NZ_CP064415.1
GCF_018219285.1_ASM1821928v1,NZ_CP064416.1
GCF_018219325.1_ASM1821932v1,NZ_CP064425.1
GCF_018219325.1_ASM1821932v1,NZ_CP064426.1
GCF_018219325.1_ASM1821932v1,NZ_CP064427.1
GCF_018219325.1_ASM1821932v1,NZ_CP064428.1
GCF_018219325.1_ASM1821932v1,NZ_CP064429.1
GCF_018219325.1_ASM1821932v1,NZ_CP064430.1
GCF_018219325.1_ASM1821932v1,NZ_CP064431.1
GCF_018279145.1_ASM1827914v1,NZ_CP047328.1
GCF_018279145.1_ASM1827914v1,NZ_CP047329.1
GCF_018279145.1_ASM1827914v1,NZ_CP047327.1
GCF_018516845.1_ASM1851684v1,NZ_CP065753.1
GCF_018516925.1_ASM1851692v1,NZ_CP065755.1
GCF_018516925.1_ASM1851692v1,NZ_CP065756.1
GCF_018516925.1_ASM1851692v1,NZ_CP065757.1
GCF_018516925.1_ASM1851692v1,NZ_CP065758.1
GCF_018516925.1_ASM1851692v1,NZ_CP065759.1
GCF_018516925.1_ASM1851692v1,NZ_CP065760.1
GCF_018516925.1_ASM1851692v1,NZ_CP065761.1
GCF_018516925.1_ASM1851692v1,NZ_CP065762.1
GCF_018516925.1_ASM1851692v1,NZ_CP065763.1
GCF_018517045.1_ASM1851704v1,NZ_CP065768.1
GCF_018517045.1_ASM1851704v1,NZ_CP065769.1
GCF_018517065.1_ASM1851706v1,NZ_CP065771.1
GCF_018517065.1_ASM1851706v1,NZ_CP065772.1
GCF_018517085.1_ASM1851708v1,NZ_CP065774.1
GCF_018517085.1_ASM1851708v1,NZ_CP065775.1
GCF_018517085.1_ASM1851708v1,NZ_CP065776.1
GCF_018517105.1_ASM1851710v1,NZ_CP065778.1
GCF_018517105.1_ASM1851710v1,NZ_CP065779.1
GCF_018517105.1_ASM1851710v1,NZ_CP065780.1
GCF_018517105.1_ASM1851710v1,NZ_CP065781.1
GCF_018517105.1_ASM1851710v1,NZ_CP065782.1
GCF_018517105.1_ASM1851710v1,NZ_CP065783.1
GCF_018517185.1_ASM1851718v1,NZ_CP066216.1
GCF_018517185.1_ASM1851718v1,NZ_CP066217.1
GCF_019175425.1_ASM1917542v1,NZ_CP072879.1
GCF_019175425.1_ASM1917542v1,NZ_CP072880.1
GCF_019175445.1_ASM1917544v1,NZ_CP072882.1
GCF_019175445.1_ASM1917544v1,NZ_CP072883.1
GCF_019175465.1_ASM1917546v1,NZ_CP072885.1
GCF_019175465.1_ASM1917546v1,NZ_CP072886.1
GCF_019175465.1_ASM1917546v1,NZ_CP072887.1
GCF_019175525.1_ASM1917552v1,NZ_CP072895.1
GCF_019175525.1_ASM1917552v1,NZ_CP072896.1
GCF_019356355.1_ASM1935635v1,NZ_CP079928.1
GCF_019356355.1_ASM1935635v1,NZ_CP079929.1
GCF_019456555.1_ASM1945655v1,NZ_CP074106.1
GCF_019456575.1_ASM1945657v1,NZ_CP074108.1
GCF_019456595.1_ASM1945659v1,NZ_CP074110.1
GCF_019977495.1_ASM1997749v1,NZ_AP024832.1
GCF_019977495.1_ASM1997749v1,NZ_AP024833.1
GCF_019977495.1_ASM1997749v1,NZ_AP024834.1
GCF_019977495.1_ASM1997749v1,NZ_AP024835.1
GCF_019977495.1_ASM1997749v1,NZ_AP024836.1
GCF_019977575.1_ASM1997757v1,NZ_AP024838.1
GCF_019977575.1_ASM1997757v1,NZ_AP024839.1
GCF_019977575.1_ASM1997757v1,NZ_AP024840.1
GCF_019977575.1_ASM1997757v1,NZ_AP024841.1
GCF_019977575.1_ASM1997757v1,NZ_AP024842.1
GCF_019977575.1_ASM1997757v1,NZ_AP024843.1
GCF_020091325.1_ASM2009132v1,NZ_CP083474.1
GCF_020091325.1_ASM2009132v1,NZ_CP083475.1
GCF_020091325.1_ASM2009132v1,NZ_CP083476.1
GCF_020091325.1_ASM2009132v1,NZ_CP083477.1
GCF_020162155.1_ASM2016215v1,NZ_CP083913.1
GCF_020162155.1_ASM2016215v1,NZ_CP083914.1
GCF_020162155.1_ASM2016215v1,NZ_CP083915.1
GCF_020162155.1_ASM2016215v1,NZ_CP083916.1
GCF_020162155.1_ASM2016215v1,NZ_CP083917.1
GCF_020162155.1_ASM2016215v1,NZ_CP083918.1
GCF_020162155.1_ASM2016215v1,NZ_CP083919.1
GCF_020162175.1_ASM2016217v1,NZ_CP083921.1
GCF_020162175.1_ASM2016217v1,NZ_CP083922.1
GCF_020162175.1_ASM2016217v1,NZ_CP083923.1
GCF_020162175.1_ASM2016217v1,NZ_CP083924.1
GCF_020162175.1_ASM2016217v1,NZ_CP083925.1
GCF_020162175.1_ASM2016217v1,NZ_CP083926.1
GCF_020162175.1_ASM2016217v1,NZ_CP083927.1
GCF_020162175.1_ASM2016217v1,NZ_CP083928.1
GCF_020162175.1_ASM2016217v1,NZ_CP083929.1
GCF_020736585.1_ASM2073658v1,NZ_CP085895.1
GCF_020736585.1_ASM2073658v1,NZ_CP085897.1
GCF_020736585.1_ASM2073658v1,NZ_CP085898.1
GCF_020736585.1_ASM2073658v1,NZ_CP085899.1
GCF_020736585.1_ASM2073658v1,NZ_CP085900.1
GCF_020736585.1_ASM2073658v1,NZ_CP085901.1
GCF_020736585.1_ASM2073658v1,NZ_CP085902.1
GCF_020736585.1_ASM2073658v1,NZ_CP085903.1
GCF_020736585.1_ASM2073658v1,NZ_CP085904.1
GCF_020736585.1_ASM2073658v1,NZ_CP085905.1
GCF_020736585.1_ASM2073658v1,NZ_CP085896.1
GCF_020736625.1_ASM2073662v1,NZ_CP085907.1
GCF_020736625.1_ASM2073662v1,NZ_CP085909.1
GCF_020736625.1_ASM2073662v1,NZ_CP085910.1
GCF_020736625.1_ASM2073662v1,NZ_CP085911.1
GCF_020736625.1_ASM2073662v1,NZ_CP085912.1
GCF_020736625.1_ASM2073662v1,NZ_CP085913.1
GCF_020736625.1_ASM2073662v1,NZ_CP085914.1
GCF_020736625.1_ASM2073662v1,NZ_CP085915.1
GCF_020736625.1_ASM2073662v1,NZ_CP085916.1
GCF_020736625.1_ASM2073662v1,NZ_CP085917.1
GCF_020736625.1_ASM2073662v1,NZ_CP085908.1
GCF_021172105.3_ASM2117210v3,NZ_CP089093.2
GCF_021172105.3_ASM2117210v3,NZ_CP092374.1
GCF_021172105.3_ASM2117210v3,NZ_CP092375.1
GCF_021172105.3_ASM2117210v3,NZ_CP092376.1
GCF_021172105.3_ASM2117210v3,NZ_CP092377.1
GCF_021172105.3_ASM2117210v3,NZ_CP092378.1
GCF_021228615.1_ASM2122861v1,NZ_CP089320.1
GCF_021228615.1_ASM2122861v1,NZ_CP089321.1
GCF_021228615.1_ASM2122861v1,NZ_CP089322.1
GCF_021228615.1_ASM2122861v1,NZ_CP089323.1
GCF_021228615.1_ASM2122861v1,NZ_CP089324.1
GCF_021398505.1_ASM2139850v1,NZ_CP083180.1
GCF_021560195.1_ASM2156019v1,NZ_CP091103.1
GCF_021560195.1_ASM2156019v1,NZ_CP091101.1
GCF_021560195.1_ASM2156019v1,NZ_CP091102.1
GCF_021713095.1_ASM2171309v1,NZ_CP091302.1
GCF_021713095.1_ASM2171309v1,NZ_CP091303.1
GCF_021713095.1_ASM2171309v1,NZ_CP091304.1
GCF_021713095.1_ASM2171309v1,NZ_CP091305.1
GCF_021713095.1_ASM2171309v1,NZ_CP091306.1
GCF_021899455.1_ASM2189945v1,NZ_CP091578.1
GCF_021899455.1_ASM2189945v1,NZ_CP091579.1
GCF_021899455.1_ASM2189945v1,NZ_CP091580.1
GCF_021899455.1_ASM2189945v1,NZ_CP091581.1
GCF_022647825.1_ASM2264782v1,NZ_CP076472.1
GCF_022647825.1_ASM2264782v1,NZ_CP076473.1
GCF_022647825.1_ASM2264782v1,NZ_CP076474.1
GCF_022647825.1_ASM2264782v1,NZ_CP076475.1
GCF_022647825.1_ASM2264782v1,NZ_CP076476.1
GCF_022647945.1_ASM2264794v1,NZ_CP076478.1
GCF_022647945.1_ASM2264794v1,NZ_CP076479.1
GCF_022647945.1_ASM2264794v1,NZ_CP076480.1
GCF_022647945.1_ASM2264794v1,NZ_CP076481.1
GCF_022647945.1_ASM2264794v1,NZ_CP076482.1
GCF_022648125.1_ASM2264812v1,NZ_CP076484.1
GCF_022648125.1_ASM2264812v1,NZ_CP076485.1
GCF_022648125.1_ASM2264812v1,NZ_CP076486.1
GCF_022648125.1_ASM2264812v1,NZ_CP076487.1
GCF_022691445.1_ASM2269144v1,NZ_CP092570.1
GCF_022691445.1_ASM2269144v1,NZ_CP092571.1
GCF_022691445.1_ASM2269144v1,NZ_CP092572.1
GCF_022691445.1_ASM2269144v1,NZ_CP092573.1
GCF_022699225.1_ASM2269922v1,NZ_CP093942.1
GCF_022699225.1_ASM2269922v1,NZ_CP093943.1
GCF_022699225.1_ASM2269922v1,NZ_CP093944.1
GCF_022699225.1_ASM2269922v1,NZ_CP093945.1
GCF_022699225.1_ASM2269922v1,NZ_CP093946.1
GCF_022699545.1_ASM2269954v1,NZ_CP093954.1
GCF_022699545.1_ASM2269954v1,NZ_CP093955.1
GCF_022699545.1_ASM2269954v1,NZ_CP093956.1
GCF_022699565.1_ASM2269956v1,NZ_CP093948.1
GCF_022699565.1_ASM2269956v1,NZ_CP093949.1
GCF_022699565.1_ASM2269956v1,NZ_CP093950.1
GCF_022699565.1_ASM2269956v1,NZ_CP093951.1
GCF_022699565.1_ASM2269956v1,NZ_CP093952.1
GCF_022749455.1_ASM2274945v1,NZ_CP094231.1
GCF_022749455.1_ASM2274945v1,NZ_CP094232.1
GCF_022749455.1_ASM2274945v1,NZ_CP094233.1
GCF_022749455.1_ASM2274945v1,NZ_CP094234.1
GCF_022749455.1_ASM2274945v1,NZ_CP094235.1
GCF_022749455.1_ASM2274945v1,NZ_CP094236.1
GCF_023182815.2_ASM2318281v2,NZ_CP110295.1
GCF_023182815.2_ASM2318281v2,NZ_CP096051.1
GCF_023182835.2_ASM2318283v2,NZ_CP110361.1
GCF_023182835.2_ASM2318283v2,NZ_CP096052.1
GCF_023204955.1_ASM2320495v1,NZ_CP096212.1
GCF_023204955.1_ASM2320495v1,NZ_CP096213.1
GCF_023204955.1_ASM2320495v1,NZ_CP096214.1
GCF_023204955.1_ASM2320495v1,NZ_CP096215.1
GCF_023204955.1_ASM2320495v1,NZ_CP096216.1
GCF_023204955.1_ASM2320495v1,NZ_CP096217.1
GCF_023204955.1_ASM2320495v1,NZ_CP096218.1
GCF_023204975.1_ASM2320497v1,NZ_CP096220.1
GCF_023204975.1_ASM2320497v1,NZ_CP096221.1
GCF_023204975.1_ASM2320497v1,NZ_CP096222.1
GCF_023204975.1_ASM2320497v1,NZ_CP096223.1
GCF_023204975.1_ASM2320497v1,NZ_CP096224.1
GCF_023204975.1_ASM2320497v1,NZ_CP096225.1
GCF_023204975.1_ASM2320497v1,NZ_CP096226.1
GCF_023299325.1_ASM2329932v1,NZ_CP097015.1
GCF_023299325.1_ASM2329932v1,NZ_CP097016.1
GCF_023299725.1_ASM2329972v1,NZ_CP097023.1
GCF_023299725.1_ASM2329972v1,NZ_CP097024.1
GCF_023299725.1_ASM2329972v1,NZ_CP097025.1
GCF_023299725.1_ASM2329972v1,NZ_CP097026.1
GCF_023299745.1_ASM2329974v1,NZ_CP097028.1
GCF_023299745.1_ASM2329974v1,NZ_CP097029.1
GCF_023299805.1_ASM2329980v1,NZ_CP097062.1
GCF_023299805.1_ASM2329980v1,NZ_CP097063.1
GCF_023299805.1_ASM2329980v1,NZ_CP097064.1
GCF_023299805.1_ASM2329980v1,NZ_CP097065.1
GCF_023375205.1_ASM2337520v1,NZ_CP088192.1
GCF_023375205.1_ASM2337520v1,NZ_CP088193.1
GCF_023375205.1_ASM2337520v1,NZ_CP088194.1
GCF_023375225.1_ASM2337522v1,NZ_CP088196.1
GCF_023375225.1_ASM2337522v1,NZ_CP088197.1
GCF_023375345.1_ASM2337534v1,NZ_CP091207.1
GCF_023375345.1_ASM2337534v1,NZ_CP091208.1
GCF_023375345.1_ASM2337534v1,NZ_CP091209.1
GCF_023375365.1_ASM2337536v1,NZ_CP091211.1
GCF_023375365.1_ASM2337536v1,NZ_CP091212.1
GCF_023375385.1_ASM2337538v1,NZ_CP091214.1
GCF_023375385.1_ASM2337538v1,NZ_CP091215.1
GCF_023375385.1_ASM2337538v1,NZ_CP091216.1
GCF_023375405.1_ASM2337540v1,NZ_CP091218.1
GCF_023375405.1_ASM2337540v1,NZ_CP091219.1
GCF_023375405.1_ASM2337540v1,NZ_CP091220.1
GCF_023375425.1_ASM2337542v1,NZ_CP091222.1
GCF_023375425.1_ASM2337542v1,NZ_CP091223.1
GCF_023375445.1_ASM2337544v1,NZ_CP091225.1
GCF_023375445.1_ASM2337544v1,NZ_CP091226.1
GCF_023658035.1_ASM2365803v1,NZ_CP058892.1
GCF_023658035.1_ASM2365803v1,NZ_CP058893.1
GCF_023658035.1_ASM2365803v1,NZ_CP058894.1
GCF_023658035.1_ASM2365803v1,NZ_CP058895.1
GCF_024665675.1_ASM2466567v1,NZ_CP102535.1
GCF_025913595.1_ASM2591359v1,NZ_CP109800.1
GCF_025913595.1_ASM2591359v1,NZ_CP109799.1
GCF_025916235.1_ASM2591623v1,NZ_CP109841.1
GCF_025916235.1_ASM2591623v1,NZ_CP109842.1
GCF_025916235.1_ASM2591623v1,NZ_CP109840.1
GCF_025916235.1_ASM2591623v1,NZ_CP109838.1
GCF_025998395.1_ASM2599839v1,NZ_AP026773.1
GCF_025998395.1_ASM2599839v1,NZ_AP026774.1
GCF_025998395.1_ASM2599839v1,NZ_AP026775.1
GCF_025998395.1_ASM2599839v1,NZ_AP026776.1
GCF_025998395.1_ASM2599839v1,NZ_AP026777.1
GCF_025998395.1_ASM2599839v1,NZ_AP026778.1
GCF_025998395.1_ASM2599839v1,NZ_AP026779.1
GCF_026073115.1_ASM2607311v1,NZ_AP026568.1
GCF_026073115.1_ASM2607311v1,NZ_AP026567.1
GCF_026073115.1_ASM2607311v1,NZ_AP026569.1
GCF_026073115.1_ASM2607311v1,NZ_AP026570.1
GCF_026073115.1_ASM2607311v1,NZ_AP026571.1
GCF_026073115.1_ASM2607311v1,NZ_AP026572.1
GCF_026073415.1_ASM2607341v1,NZ_AP026602.1
GCF_026073415.1_ASM2607341v1,NZ_AP026603.1
GCF_026073435.1_ASM2607343v1,NZ_AP026605.1
GCF_026073435.1_ASM2607343v1,NZ_AP026607.1
GCF_026073435.1_ASM2607343v1,NZ_AP026608.1
GCF_026073435.1_ASM2607343v1,NZ_AP026609.1
GCF_026073435.1_ASM2607343v1,NZ_AP026610.1
GCF_026073435.1_ASM2607343v1,NZ_AP026611.1
GCF_026073435.1_ASM2607343v1,NZ_AP026606.1
GCF_026073455.1_ASM2607345v1,NZ_AP026613.1
GCF_026073455.1_ASM2607345v1,NZ_AP026615.1
GCF_026073455.1_ASM2607345v1,NZ_AP026616.1
GCF_026073455.1_ASM2607345v1,NZ_AP026614.1
GCF_026073625.1_ASM2607362v1,NZ_AP026657.1
GCF_026073625.1_ASM2607362v1,NZ_AP026656.1
GCF_026073625.1_ASM2607362v1,NZ_AP026658.1
GCF_026073625.1_ASM2607362v1,NZ_AP026659.1
GCF_026073735.1_ASM2607373v1,NZ_AP026662.1
GCF_026073735.1_ASM2607373v1,NZ_AP026661.1
GCF_026073735.1_ASM2607373v1,NZ_AP026663.1
GCF_026073735.1_ASM2607373v1,NZ_AP026664.1
GCF_026073735.1_ASM2607373v1,NZ_AP026665.1
GCF_026073915.1_ASM2607391v1,NZ_AP026668.1
GCF_026073915.1_ASM2607391v1,NZ_AP026667.1
GCF_026073915.1_ASM2607391v1,NZ_AP026669.1
GCF_026073915.1_ASM2607391v1,NZ_AP026670.1
GCF_026409165.1_ASM2640916v1,NZ_CP112863.1
GCF_026409165.1_ASM2640916v1,NZ_CP112864.1
GCF_026409165.1_ASM2640916v1,NZ_CP112865.1
GCF_026427575.1_ASM2642757v1,NZ_CP099980.1
GCF_027286245.1_ASM2728624v1,NZ_CP114618.1
GCF_027286245.1_ASM2728624v1,NZ_CP114619.1
GCF_027286245.1_ASM2728624v1,NZ_CP114620.1
GCF_027286245.1_ASM2728624v1,NZ_CP114621.1
GCF_027286245.1_ASM2728624v1,NZ_CP114622.1
GCF_027286245.1_ASM2728624v1,NZ_CP114623.1
GCF_027944535.1_ASM2794453v1,NZ_CP116024.1
GCF_027944535.1_ASM2794453v1,NZ_CP116025.1
GCF_028335205.1_ASM2833520v1,NZ_CP116515.1
GCF_028335205.1_ASM2833520v1,NZ_CP116516.1
GCF_028335225.1_ASM2833522v1,NZ_CP116535.1
GCF_028335225.1_ASM2833522v1,NZ_CP116533.1
GCF_028335225.1_ASM2833522v1,NZ_CP116534.1
GCF_028335245.1_ASM2833524v1,NZ_CP116518.1
GCF_028335245.1_ASM2833524v1,NZ_CP116519.1
GCF_028335265.1_ASM2833526v1,NZ_CP116521.1
GCF_028335265.1_ASM2833526v1,NZ_CP116522.1
GCF_028335465.1_ASM2833546v1,NZ_CP116524.1
GCF_028335465.1_ASM2833546v1,NZ_CP116525.1
GCF_028335465.1_ASM2833546v1,NZ_CP116526.1
GCF_028335465.1_ASM2833546v1,NZ_CP116527.1
GCF_028335485.1_ASM2833548v1,NZ_CP116529.1
GCF_028335485.1_ASM2833548v1,NZ_CP116530.1
GCF_028335485.1_ASM2833548v1,NZ_CP116531.1
GCF_028335525.1_ASM2833552v1,NZ_CP116537.1
GCF_028335525.1_ASM2833552v1,NZ_CP116538.1
GCF_028335525.1_ASM2833552v1,NZ_CP116539.1
GCF_028335565.1_ASM2833556v1,NZ_CP116541.1
GCF_028335565.1_ASM2833556v1,NZ_CP116542.1
GCF_028335585.1_ASM2833558v1,NZ_CP116544.1
GCF_028335585.1_ASM2833558v1,NZ_CP116545.1
GCF_028335605.1_ASM2833560v1,NZ_CP116547.1
GCF_028335605.1_ASM2833560v1,NZ_CP116548.1
GCF_028335625.1_ASM2833562v1,NZ_CP116550.1
GCF_028335625.1_ASM2833562v1,NZ_CP116551.1
GCF_028335625.1_ASM2833562v1,NZ_CP116552.1
GCF_028891525.1_ASM2889152v1,NZ_CP118550.1
GCF_028891525.1_ASM2889152v1,NZ_CP118549.1
GCF_028891525.1_ASM2889152v1,NZ_CP118551.1
GCF_029023785.1_ASM2902378v1,NZ_CP118956.1
GCF_029167665.1_ASM2916766v1,NZ_CP119151.1
GCF_029167665.1_ASM2916766v1,NZ_CP119152.1
GCF_029167665.1_ASM2916766v1,NZ_CP119153.1
GCF_029167665.1_ASM2916766v1,NZ_CP119154.1
GCF_029167665.1_ASM2916766v1,NZ_CP119155.1
GCF_029167665.1_ASM2916766v1,NZ_CP119156.1
GCF_029167665.1_ASM2916766v1,NZ_CP119157.1
GCF_029167665.1_ASM2916766v1,NZ_CP119158.1
GCF_030064735.1_ASM3006473v1,NZ_CP109759.1
GCF_030064735.1_ASM3006473v1,NZ_CP109760.1
GCF_907163255.1_AUS2001,NZ_OU015346.1
GCF_907163255.1_AUS2001,NZ_OU015347.1
GCF_907163255.1_AUS2001,NZ_OU015348.1
GCF_907163255.1_AUS2001,NZ_OU015349.1
GCF_907163315.1_AUS2002,NZ_OU015351.1
GCF_907163315.1_AUS2002,NZ_OU015352.1
GCF_907163315.1_AUS2002,NZ_OU015353.1
GCF_907163315.1_AUS2002,NZ_OU015354.1
GCF_907165365.1_USZ_VRE32_P32_hybrid_assembly,NZ_OU015710.1
GCF_907165365.1_USZ_VRE32_P32_hybrid_assembly,NZ_OU015709.1
GCF_907165365.1_USZ_VRE32_P32_hybrid_assembly,NZ_OU015711.1
GCF_907165365.1_USZ_VRE32_P32_hybrid_assembly,NZ_OU015712.1
GCF_907165365.1_USZ_VRE32_P32_hybrid_assembly,NZ_OU015713.1
GCF_907165365.1_USZ_VRE32_P32_hybrid_assembly,NZ_OU015714.1
GCF_907165365.1_USZ_VRE32_P32_hybrid_assembly,NZ_OU015715.1
GCF_907165365.1_USZ_VRE32_P32_hybrid_assembly,NZ_OU015716.1
GCF_907176135.1_USZ_VRE5_P5_hybrid_assembly,NZ_OU015947.1
GCF_907176135.1_USZ_VRE5_P5_hybrid_assembly,NZ_OU015948.1
GCF_907176135.1_USZ_VRE5_P5_hybrid_assembly,NZ_OU015949.1
GCF_907176135.1_USZ_VRE5_P5_hybrid_assembly,NZ_OU015950.1
GCF_907176135.1_USZ_VRE5_P5_hybrid_assembly,NZ_OU015951.1
GCF_907176135.1_USZ_VRE5_P5_hybrid_assembly,NZ_OU015952.1
GCF_907176135.1_USZ_VRE5_P5_hybrid_assembly,NZ_OU015953.1
GCF_907176135.1_USZ_VRE5_P5_hybrid_assembly,NZ_OU015954.1
GCF_907176815.1_USZ_VRE67_P60_hybrid_assembly,NZ_OU016028.1
GCF_907176815.1_USZ_VRE67_P60_hybrid_assembly,NZ_OU016029.1
GCF_907176815.1_USZ_VRE67_P60_hybrid_assembly,NZ_OU016030.1
GCF_907176815.1_USZ_VRE67_P60_hybrid_assembly,NZ_OU016031.1
GCF_907176815.1_USZ_VRE67_P60_hybrid_assembly,NZ_OU016032.1
GCF_907176815.1_USZ_VRE67_P60_hybrid_assembly,NZ_OU016033.1
GCF_907176815.1_USZ_VRE67_P60_hybrid_assembly,NZ_OU016034.1
GCF_907176815.1_USZ_VRE67_P60_hybrid_assembly,NZ_OU016035.1
GCF_907177285.1_USZ_VRE53_P46_hybrid_assembly,NZ_OU016038.1
GCF_907177285.1_USZ_VRE53_P46_hybrid_assembly,NZ_OU016037.1
GCF_907177285.1_USZ_VRE53_P46_hybrid_assembly,NZ_OU016039.1
GCF_907177285.1_USZ_VRE53_P46_hybrid_assembly,NZ_OU016040.1
GCF_907177285.1_USZ_VRE53_P46_hybrid_assembly,NZ_OU016041.1
GCF_907177285.1_USZ_VRE53_P46_hybrid_assembly,NZ_OU016042.1
GCF_907177285.1_USZ_VRE53_P46_hybrid_assembly,NZ_OU016043.1
GCF_907177285.1_USZ_VRE53_P46_hybrid_assembly,NZ_OU016044.1
GCF_907177285.1_USZ_VRE53_P46_hybrid_assembly,NZ_OU016045.1
