GCA_000167875.2_ASM16787v2,CP035751.1
GCA_000167875.2_ASM16787v2,CP035755.1
GCA_000464955.2_ASM46495v2,CP023541.1
GCA_000493755.1_ASM49375v1,CP006784.1
GCA_000520035.1_ASM52003v1,CP006027.1
GCA_000520055.1_ASM52005v1,CP006262.1
GCA_000597845.1_ASM59784v1,CP007265.1
GCA_000599625.1_ASM59962v1,CP007390.1
GCA_000599645.1_ASM59964v1,CP007391.1
GCA_000599665.1_ASM59966v1,CP007392.1
GCA_000599685.1_ASM59968v1,CP007393.1
GCA_000599705.1_ASM59970v1,CP007394.1
GCA_000618005.3_ASM61800v3,CP051001.1
GCA_000618905.3_ASM61890v3,CP050998.1
GCA_000714595.1_ASM71459v1,CP007799.1
GCA_000725265.1_ASM72526v1,CP005998.1
GCA_000732965.1_ASM73296v1,CP008957.1
GCA_000784925.1_ASM78492v1,CP009859.1
GCA_000800215.1_ASM80021v1,CP009644.1
GCA_000801205.1_ASM80120v1,CP009685.1
GCA_000833635.2_ASM83363v2,CP011124.1
GCA_000931565.1_ASM93156v1,CP010876.1
GCA_000968515.1_ASM96851v1,CP011134.1
GCA_000974405.1_ASM97440v1,CP010438.1
GCA_000974465.1_ASM97446v1,CP010439.1
GCA_000974505.1_ASM97450v1,CP010440.1
GCA_000974535.1_ASM97453v1,CP010441.1
GCA_000974575.1_ASM97457v1,CP010442.1
GCA_000974825.1_ASM97482v1,CP010443.1
GCA_000974865.1_ASM97486v1,CP010444.1
GCA_000974885.1_ASM97488v1,CP010445.1
GCA_000986765.1_ASM98676v1,CP011331.1
GCA_001007915.1_ASM100791v1,CP011416.1
GCA_001021635.2_ASM102163v2,CP006834.2
GCA_001043215.1_ASM104321v1,CP011495.1
GCA_001280325.1_ASM128032v1,CP012635.1
GCA_001280345.1_ASM128034v1,CP012625.1
GCA_001280385.1_ASM128038v1,CP012633.1
GCA_001280405.1_ASM128040v1,CP012631.1
GCA_001307215.1_ASM130721v1,CP012802.1
GCA_001420955.1_ASM142095v1,CP013025.1
GCA_001442495.1_ASM144249v1,CP013112.1
GCA_001469815.1_ASM146981v1,CP013658.1
GCA_001513615.1_ASM151361v1,CP013831.1
GCA_001513635.1_ASM151363v1,CP013835.1
GCA_001513655.1_ASM151365v1,CP013837.1
GCA_001542675.2_ASM154267v2,CP014197.1
GCA_001544635.1_ASM154463v1,CP014225.1
GCA_001558995.2_ASM155899v2,CP014314.1
GCA_001559615.2_ASM155961v2,CP014268.2
GCA_001559635.1_ASM155963v1,CP014269.1
GCA_001559655.1_ASM155965v1,CP014270.1
GCA_001559675.1_ASM155967v1,CP014272.1
GCA_001566335.1_ASM156633v1,CP014348.1
GCA_001566615.1_ASM156661v1,CP014495.1
GCA_001566635.1_ASM156663v1,CP014488.1
GCA_001566655.1_ASM156665v1,CP014492.1
GCA_001566675.1_ASM156667v1,CP014497.1
GCA_001577325.1_ASM157732v1,CP014522.1
GCA_001593565.1_ASM159356v1,CP014316.1
GCA_001610755.1_ASM161075v1,CP011061.1
GCA_001612475.1_ASM161247v1,CP015020.1
GCA_001612495.1_ASM161249v1,CP015023.1
GCA_001617565.1_ASM161756v1,CP015138.1
GCA_001618325.1_ASM161832v1,CP015069.1
GCA_001618345.2_ASM161834v2,CP015074.2
GCA_001618365.1_ASM161836v1,CP015076.1
GCA_001644725.1_ASM164472v1,CP015240.1
GCA_001644745.1_ASM164474v1,CP015241.1
GCA_001645235.2_ASM164523v2,CP024479.1
GCA_001650275.1_ASM165027v1,CP015832.1
GCA_001650295.1_ASM165029v1,CP015831.1
GCA_001651925.2_ASM165192v2,CP015846.1
GCA_001651945.2_ASM165194v2,CP015842.1
GCA_001651965.2_ASM165196v2,CP015843.2
GCA_001660565.1_ASM166056v1,CP015995.1
GCA_001663475.1_ASM166347v1,CP015159.1
GCA_001675145.1_ASM167514v1,CP014667.1
GCA_001677475.1_ASM167747v1,CP015229.1
GCA_001677495.1_ASM167749v1,CP015228.1
GCA_001677515.1_ASM167751v1,CP013662.1
GCA_001678965.1_ASM167896v1,CP013663.1
GCA_001679985.1_ASM167998v1,CP015912.1
GCA_001682305.2_ASM168230v2,CP016182.2
GCA_001683435.1_ASM168343v1,CP016358.1
GCA_001693315.1_ASM169331v1,CP016497.1
GCA_001693635.1_ASM169363v1,CP016546.1
GCA_001695515.1_ASM169551v1,CP016625.1
GCA_001721125.1_ASM172112v1,CP012693.1
GCA_001721205.1_ASM172120v1,CP014670.1
GCA_001721225.1_ASM172122v1,CP014583.1
GCA_001721525.1_ASM172152v1,CP015834.1
GCA_001723505.1_ASM172350v1,CP017100.1
GCA_001735705.1_ASM173570v1,CP016404.1
GCA_001750845.1_ASM175084v1,CP013190.1
GCA_001753445.1_ASM175344v1,CP017434.1
GCA_001753465.1_ASM175346v1,CP017436.1
GCA_001753485.1_ASM175348v1,CP017444.1
GCA_001753505.1_ASM175350v1,CP017438.1
GCA_001753525.1_ASM175352v1,CP017446.1
GCA_001753545.1_ASM175354v1,CP017440.1
GCA_001753565.1_ASM175356v1,CP017442.1
GCA_001806265.1_ASM180626v1,CP017249.1
GCA_001806285.1_ASM180628v1,CP017251.1
GCA_001860505.1_ASM186050v1,CP013483.1
GCA_001865295.1_ASM186529v1,CP017669.1
GCA_001874485.1_ASM187448v1,CP015085.1
GCA_001874485.1_ASM187448v1,CP015087.1
GCA_001874485.1_ASM187448v1,CP015088.1
GCA_001886535.1_ASM188653v1,CP018103.1
GCA_001886555.1_ASM188655v1,CP018115.1
GCA_001886575.1_ASM188657v1,CP018121.1
GCA_001886755.1_ASM188675v1,CP018109.1
GCA_001886895.1_ASM188689v1,CP013185.1
GCA_001886935.1_ASM188693v1,CP016628.1
GCA_001888075.1_ASM188807v1,CP017844.1
GCA_001890205.1_ASM189020v1,CP018237.1
GCA_001890225.1_ASM189022v1,CP018239.1
GCA_001890245.1_ASM189024v1,CP018245.1
GCA_001890265.1_ASM189026v1,CP018243.1
GCA_001890285.1_ASM189028v1,CP018252.1
GCA_001890305.1_ASM189030v1,CP018247.1
GCA_001890325.1_ASM189032v1,CP018241.1
GCA_001890345.1_ASM189034v1,CP018250.1
GCA_001890365.1_ASM189036v1,CP018206.1
GCA_001932515.1_ASM193251v1,CP018801.1
GCA_001969285.4_ASM196928v4,CP019213.3
GCA_002007705.1_ASM200770v1,CP019778.1
GCA_002009315.1_ASM200931v1,CP019903.1
GCA_002011945.1_ASM201194v1,CP018948.1
GCA_002011965.1_ASM201196v1,CP018953.1
GCA_002011985.1_ASM201198v1,CP018957.1
GCA_002012005.1_ASM201200v1,CP018965.1
GCA_002012025.1_ASM201202v1,CP018970.1
GCA_002012045.1_ASM201204v1,CP018976.1
GCA_002012065.1_ASM201206v1,CP018979.1
GCA_002012085.1_ASM201208v1,CP018991.1
GCA_002012105.1_ASM201210v1,CP018995.1
GCA_002012125.1_ASM201212v1,CP019005.1
GCA_002012145.1_ASM201214v1,CP019008.1
GCA_002012165.1_ASM201216v1,CP019015.1
GCA_002012185.1_ASM201218v1,CP018962.1
GCA_002012205.1_ASM201220v1,CP018983.1
GCA_002012225.1_ASM201222v1,CP019029.1
GCA_002012245.1_ASM201224v1,CP019000.1
GCA_002012265.1_ASM201226v1,CP019012.1
GCA_002012305.1_ASM201230v1,CP019020.1
GCA_002024865.1_ASM202486v1,CP019777.1
GCA_002055605.1_ASM205560v1,CP020092.1
GCA_002055635.1_ASM205563v1,CP020048.1
GCA_002056065.1_ASM205606v1,CP020058.1
GCA_002056145.1_ASM205614v1,CP020055.1
GCA_002056635.1_ASM205663v1,CP020116.1
GCA_002057245.1_ASM205724v1,CP020106.1
GCA_002057355.1_ASM205735v1,CP020107.1
GCA_002058765.1_ASM205876v1,CP019944.1
GCA_002077195.1_ASM207719v1,CP017220.1
GCA_002079225.1_ASM207922v1,CP020543.1
GCA_002090355.1_ASM209035v1,CP020368.1
GCA_002116715.2_ASM211671v2,CP020933.1
GCA_002118095.1_ASM211809v1,CP013952.1
GCA_002142675.1_ASM214267v1,CP021202.1
GCA_002142695.1_ASM214269v1,CP021175.1
GCA_002142715.1_ASM214271v1,CP021207.1
GCA_002156825.1_ASM215682v1,CP021335.1
GCA_002156845.1_ASM215684v1,CP021339.1
GCA_002157245.1_ASM215724v1,CP021179.1
GCA_002163655.1_ASM216365v1,CP018323.1
GCA_002163695.1_ASM216369v1,CP018840.1
GCA_002163935.1_ASM216393v1,CP019560.1
GCA_002163955.1_ASM216395v1,CP019558.1
GCA_002164595.2_ASM216459v2,CP032879.1
GCA_002164635.4_ASM216463v4,CP022229.3
GCA_002164645.3_ASM216464v3,CP028589.2
GCA_002164865.2_ASM216486v2,CP034966.1
GCA_002164975.2_ASM216497v2,CP034958.1
GCA_002165095.2_ASM216509v2,CP032892.1
GCA_002165115.2_ASM216511v2,CP032426.1
GCA_002180055.1_ASM218005v1,CP021532.1
GCA_002180095.1_ASM218009v1,CP021535.1
GCA_002180135.1_ASM218013v1,CP021683.1
GCA_002180195.1_ASM218019v1,CP021689.1
GCA_002180215.1_ASM218021v1,CP021691.1
GCA_002180275.1_ASM218027v1,CP021722.1
GCA_002192275.1_ASM219227v1,CP021732.1
GCA_002192295.1_ASM219229v1,CP021736.1
GCA_002193095.1_ASM219309v1,CP021454.1
GCA_002196475.1_ASM219647v1,CP021840.1
GCA_002196495.1_ASM219649v1,CP021844.1
GCA_002201835.1_ASM220183v1,CP021879.1
GCA_002202175.1_ASM220217v1,CP021935.1
GCA_002208865.2_ASM220886v2,CP022050.2
GCA_002209105.2_ASM220910v2,CP022086.2
GCA_002211725.1_ASM221172v1,CP022154.1
GCA_002214205.1_ASM221420v1,CP022164.1
GCA_002214745.2_ASM221474v2,CP016828.1
GCA_002215095.1_ASM221509v1,CP011915.1
GCA_002215115.1_ASM221511v1,CP012112.1
GCA_002215155.1_ASM221515v1,CP014752.1
GCA_002220215.1_ASM222021v1,CP022393.1
GCA_002220265.1_ASM222026v1,CP016755.1
GCA_002237285.1_ASM223728v1,CP012378.1
GCA_002237305.1_ASM223730v1,CP012379.1
GCA_002237325.1_ASM223732v1,CP012380.1
GCA_002246595.3_ASM224659v3,CP041110.1
GCA_002249955.1_ASM224995v1,CP022689.1
GCA_002269325.1_ASM226932v1,CP022912.1
GCA_002278115.2_ASM227811v2,CP023142.1
GCA_002285755.1_ASM228575v1,CP021288.1
GCA_002302315.1_ASM230231v1,CP023346.1
GCA_002302335.1_ASM230233v1,CP023349.1
GCA_002310555.1_ASM231055v1,CP023359.1
GCA_002310575.1_ASM231057v1,CP023357.1
GCA_002310595.1_ASM231059v1,CP023364.1
GCA_002310615.1_ASM231061v1,CP023386.1
GCA_002310635.1_ASM231063v1,CP023388.1
GCA_002310655.1_ASM231065v1,CP023353.1
GCA_002310675.1_ASM231067v1,CP023377.1
GCA_002310695.1_ASM231069v1,CP023366.1
GCA_002310715.1_ASM231071v1,CP023383.1
GCA_002310735.1_ASM231073v1,CP023371.1
GCA_002357875.1_ASM235787v1,AP017620.1
GCA_002357895.1_ASM235789v1,AP017617.1
GCA_002357915.1_ASM235791v1,AP017610.1
GCA_002393365.1_ASM239336v1,CP023535.1
GCA_002393465.1_ASM239346v1,CP023531.1
GCA_002494365.2_ASM249436v2,CP030919.1
GCA_002587005.1_ASM258700v1,CP023815.1
GCA_002589795.1_ASM258979v1,CP023899.1
GCA_002591135.1_ASM259113v1,CP023960.1
GCA_002716885.1_ASM271688v1,CP015244.1
GCA_002741175.1_ASM274117v1,CP024228.1
GCA_002741195.1_ASM274119v1,CP024232.1
GCA_002741215.1_ASM274121v1,CP024239.1
GCA_002741255.1_ASM274125v1,CP024240.1
GCA_002741275.1_ASM274127v1,CP024252.1
GCA_002741295.1_ASM274129v1,CP024256.1
GCA_002741315.1_ASM274131v1,CP024257.1
GCA_002741335.1_ASM274133v1,CP024260.1
GCA_002741355.1_ASM274135v1,CP024278.1
GCA_002741435.1_ASM274143v1,CP024223.1
GCA_002741455.1_ASM274145v1,CP024243.1
GCA_002741475.1_ASM274147v1,CP024245.1
GCA_002741495.1_ASM274149v1,CP024263.1
GCA_002741515.1_ASM274151v1,CP024266.1
GCA_002741535.1_ASM274153v1,CP024269.1
GCA_002741555.1_ASM274155v1,CP024273.1
GCA_002741575.1_ASM274157v1,CP024275.1
GCA_002741595.1_ASM274159v1,CP024289.1
GCA_002761835.1_ASM276183v1,CP024090.1
GCA_002763995.1_ASM276399v1,CP024720.1
GCA_002764015.1_ASM276401v1,CP024717.1
GCA_002786655.1_ASM278665v1,CP024830.1
GCA_002787215.1_ASM278721v1,CP024851.1
GCA_002787315.1_ASM278731v1,CP024859.1
GCA_002787545.1_ASM278754v1,CP024815.1
GCA_002787645.1_ASM278764v1,CP024826.1
GCA_002787935.1_ASM278793v1,CP024821.1
GCA_002788115.1_ASM278811v1,CP024862.1
GCA_002788295.1_ASM278829v1,CP024855.1
GCA_002796445.1_ASM279644v1,CP024889.1
GCA_002796585.1_ASM279658v1,CP024886.1
GCA_002803805.2_ASM280380v2,CP024978.1
GCA_002811555.3_ASM281155v3,CP027205.2
GCA_002812545.1_ASM281254v1,CP025048.1
GCA_002844165.1_ASM284416v1,CP022407.1
GCA_002844685.1_ASM284468v1,CP025328.1
GCA_002846135.1_ASM284613v1,CP025401.1
GCA_002848225.1_ASM284822v1,CP025520.1
GCA_002850675.5_ASM285067v5,CP025950.4
GCA_002853655.1_ASM285365v1,CP024134.1
GCA_002853715.1_ASM285371v1,CP024138.1
GCA_002853805.1_ASM285380v1,CP024141.1
GCA_002853965.1_ASM285396v1,CP024155.1
GCA_002854065.1_ASM285406v1,CP024147.1
GCA_002855325.1_ASM285532v1,CP024127.1
GCA_002855415.1_ASM285541v1,CP024131.1
GCA_002860085.1_ASM286008v1,CP019051.1
GCA_002860105.1_ASM286010v1,CP019071.1
GCA_002863665.1_ASM286366v1,CP024056.1
GCA_002863685.1_ASM286368v1,CP024618.1
GCA_002863845.1_ASM286384v1,CP022279.1
GCA_002863885.1_ASM286388v1,CP023673.1
GCA_002870165.1_ASM287016v1,CP025627.1
GCA_002879975.1_ASM287997v1,CP025747.1
GCA_002893905.2_ASM289390v2,CP025753.1
GCA_002899475.1_ASM289947v1,CP026085.1
GCA_002903105.1_ASM290310v1,CP026202.1
GCA_002903125.1_ASM290312v1,CP026199.1
GCA_002925525.1_YDC107,CP025707.1
GCA_002925525.1_YDC107,CP025712.1
GCA_002925525.1_YDC107,CP025713.1
GCA_002934025.1_ASM293402v1,CP026612.1
GCA_002934895.1_ASM293489v1,CP026399.1
GCA_002944935.1_ASM294493v1,CP014111.1
GCA_002945135.3_ASM294513v3,CP026580.3
GCA_002946715.1_ASM294671v1,CP026723.1
GCA_002948655.1_ASM294865v1,CP026755.1
GCA_002951655.1_ASM295165v1,CP019273.1
GCA_002951675.1_ASM295167v1,CP019243.1
GCA_002951695.1_ASM295169v1,CP019245.1
GCA_002951715.1_ASM295171v1,CP019250.1
GCA_002951735.1_ASM295173v1,CP019280.1
GCA_002951755.1_ASM295175v1,CP019256.1
GCA_002951775.1_ASM295177v1,CP019259.1
GCA_002951795.1_ASM295179v1,CP019267.1
GCA_002951855.1_ASM295185v1,CP019455.1
GCA_002952095.1_ASM295209v1,CP021726.1
GCA_002952695.1_ASM295269v1,CP025318.1
GCA_002953455.1_ASM295345v1,CP026473.1
GCA_002968935.1_ASM296893v1,CP019271.1
GCA_002983645.1_ASM298364v1,CP027394.1
GCA_002993265.1_ASM299326v1,CP027430.1
GCA_002996665.1_ASM299666v1,CP027255.1
GCA_002996945.1_ASM299694v1,CP027534.1
GCA_003013205.1_ASM301320v1,CP027105.1
GCA_003017375.1_ASM301737v1,CP027219.1
GCA_003017455.1_ASM301745v1,CP027221.1
GCA_003017555.1_ASM301755v1,CP027307.1
GCA_003017615.1_ASM301761v1,CP027310.1
GCA_003017675.2_ASM301767v2,CP027319.1
GCA_003017765.1_ASM301776v1,CP027323.1
GCA_003017805.1_ASM301780v1,CP027325.1
GCA_003017915.1_ASM301791v1,CP027338.1
GCA_003017935.1_ASM301793v1,CP027340.1
GCA_003017955.1_ASM301795v1,CP027344.1
GCA_003017975.1_ASM301797v1,CP027347.1
GCA_003017995.1_ASM301799v1,CP027368.1
GCA_003018015.1_ASM301801v1,CP027376.1
GCA_003018035.1_ASM301803v1,CP027390.1
GCA_003018055.1_ASM301805v1,CP027442.1
GCA_003018075.1_ASM301807v1,CP027445.1
GCA_003018095.1_ASM301809v1,CP027452.1
GCA_003018115.1_ASM301811v1,CP027457.1
GCA_003018135.1_ASM301813v1,CP027472.1
GCA_003018155.1_ASM301815v1,CP027548.1
GCA_003018195.1_ASM301819v1,CP027366.1
GCA_003018215.1_ASM301821v1,CP027371.1
GCA_003018235.1_ASM301823v1,CP027437.1
GCA_003018255.1_ASM301825v1,CP027440.1
GCA_003018275.1_ASM301827v1,CP027449.1
GCA_003018315.1_ASM301831v1,CP027555.1
GCA_003018355.1_ASM301835v1,CP027584.1
GCA_003018375.1_ASM301837v1,CP027587.1
GCA_003018395.1_ASM301839v1,CP027591.1
GCA_003018435.1_ASM301843v1,CP027675.1
GCA_003018455.1_ASM301845v1,CP027599.1
GCA_003018475.1_ASM301847v1,CP027550.1
GCA_003018495.1_ASM301849v1,CP027552.1
GCA_003018535.1_ASM301853v1,CP027573.1
GCA_003018555.1_ASM301855v1,CP027577.1
GCA_003018575.1_ASM301857v1,CP027582.1
GCA_003018595.1_ASM301859v1,CP027672.1
GCA_003018615.1_ASM301861v1,CP027586.1
GCA_003018635.1_ASM301863v1,CP027597.1
GCA_003018655.1_ASM301865v1,CP027312.1
GCA_003018695.1_ASM301869v1,CP027317.1
GCA_003018715.1_ASM301871v1,CP027331.1
GCA_003018755.1_ASM301875v1,CP027342.1
GCA_003018775.1_ASM301877v1,CP027351.1
GCA_003018795.1_ASM301879v1,CP027352.1
GCA_003018815.1_ASM301881v1,CP027355.1
GCA_003018835.2_ASM301883v2,CP027361.1
GCA_003018855.1_ASM301885v1,CP027373.1
GCA_003018875.1_ASM301887v1,CP027380.1
GCA_003018895.1_ASM301889v1,CP027387.1
GCA_003018915.1_ASM301891v1,CP027388.1
GCA_003018935.1_ASM301893v1,CP027435.1
GCA_003018955.1_ASM301895v1,CP027484.1
GCA_003018995.1_ASM301899v1,CP027362.1
GCA_003019015.1_ASM301901v1,CP027363.1
GCA_003019035.1_ASM301903v1,CP027447.1
GCA_003019055.1_ASM301905v1,CP027454.1
GCA_003019075.1_ASM301907v1,CP027459.1
GCA_003019095.1_ASM301909v1,CP027461.1
GCA_003019115.1_ASM301911v1,CP027462.1
GCA_003019155.1_ASM301915v1,CP027544.1
GCA_003019175.1_ASM301917v1,CP027546.1
GCA_003019195.1_ASM301919v1,CP027640.1
GCA_003019215.1_ASM301921v1,CP027766.1
GCA_003019235.1_ASM301923v1,CP027763.1
GCA_003020885.1_ASM302088v1,CP026853.1
GCA_003030025.1_ASM303002v1,CP028166.1
GCA_003030245.1_ASM303024v1,CP028192.1
GCA_003030365.1_ASM303036v1,CP027701.1
GCA_003031735.1_ASM303173v1,CP020509.1
GCA_003031775.1_ASM303177v1,CP020514.1
GCA_003031795.1_ASM303179v1,CP020516.1
GCA_003031815.1_ASM303181v1,CP020520.1
GCA_003033905.1_ASM303390v1,CP027118.1
GCA_003043915.1_ASM304391v1,CP027103.1
GCA_003044015.1_ASM304401v1,CP027104.1
GCA_003051985.2_ASM305198v2,CP028578.2
GCA_003052645.1_ASM305264v1,CP028702.1
GCA_003052665.1_ASM305266v1,CP028703.1
GCA_003076395.1_ASM307639v1,CP020545.1
GCA_003095635.1_ASM309563v1,CP029164.1
GCA_003111785.1_ASM311178v1,CP029180.1
GCA_003112145.1_ASM311214v1,CP028110.1
GCA_003112165.1_ASM311216v1,CP028112.1
GCA_003112185.1_ASM311218v1,CP028116.1
GCA_003112205.1_ASM311220v1,CP028122.1
GCA_003112225.1_ASM311222v1,CP028126.1
GCA_003112245.1_ASM311224v1,CP028117.1
GCA_003122105.1_ASM312210v1,CP029242.1
GCA_003150815.1_ASM315081v1,CP028704.1
GCA_003172465.2_ASM317246v2,CP034595.1
GCA_003176855.1_ASM317685v1,CP028381.1
GCA_003180975.1_ASM318097v1,CP029574.1
GCA_003180995.1_ASM318099v1,CP029579.1
GCA_003181035.1_ASM318103v1,CP029576.1
GCA_003194345.1_ASM319434v1,CP028483.1
GCA_003203755.1_ASM320375v1,CP029692.1
GCA_003204155.1_ASM320415v1,CP029741.1
GCA_003204955.1_ASM320495v1,CP029747.1
GCA_003231115.1_ASM323111v1,CP029492.1
GCA_003254065.1_ASM325406v1,CP029973.1
GCA_003268695.1_ASM326869v1,CP029369.1
GCA_003287245.1_ASM328724v1,CP029371.1
GCA_003288275.1_ASM328827v1,CP028432.1
GCA_003288295.1_ASM328829v1,CP028429.1
GCA_003290205.1_ASM329020v1,CP029981.1
GCA_003308955.1_ASM330895v1,CP030767.1
GCA_003308975.1_ASM330897v1,CP030768.1
GCA_003325975.1_ASM332597v1,CP030939.1
GCA_003336405.1_ASM333640v1,CP031105.1
GCA_003342715.1_ASM334271v1,CP031134.1
GCA_003344465.1_ASM334446v1,CP030111.1
GCA_003346835.1_ASM334683v1,CP031215.1
GCA_003351385.1_ASM335138v1,CP031231.1
GCA_003351485.1_ASM335148v1,CP031256.1
GCA_003352425.1_ASM335242v1,CP022664.1
GCA_003355175.1_ASM335517v1,CP031321.1
GCA_003367885.1_ASM336788v1,CP031214.1
GCA_003399775.2_ASM339977v2,CP042969.1
GCA_003399795.2_ASM339979v2,CP042973.1
GCA_003399845.2_ASM339984v2,CP042903.1
GCA_003399885.2_ASM339988v2,CP042899.1
GCA_003399895.2_ASM339989v2,CP042901.1
GCA_003399945.2_ASM339994v2,CP042893.1
GCA_003400045.2_ASM340004v2,CP042896.1
GCA_003402955.1_ASM340295v1,CP031546.1
GCA_003410275.1_ASM341027v1,CP031609.1
GCA_003413625.1_ASM341362v1,CP031653.1
GCA_003432305.1_ASM343230v1,CP031833.1
GCA_003443795.1_ASM344379v1,CP029687.1
GCA_003443815.1_ASM344381v1,CP030281.1
GCA_003491165.1_ASM349116v1,CP023061.1
GCA_003491265.1_ASM349126v1,CP022609.1
GCA_003546975.1_ASM354697v1,CP022686.1
GCA_003570765.1_ASM357076v1,CP012376.1
GCA_003571665.1_ASM357166v1,CP032201.1
GCA_003571685.1_ASM357168v1,CP032204.1
GCA_003571765.1_ASM357176v1,CP032237.1
GCA_003571785.1_ASM357178v1,CP032261.1
GCA_003571825.1_ASM357182v1,CP032265.1
GCA_003586065.1_EcRM9872,CP028379.1
GCA_003591595.1_ASM359159v1,CP022959.1
GCA_003627195.1_ASM362719v1,CP032667.1
GCA_003627855.1_ASM362785v1,CP032515.1
GCA_003667385.1_ASM366738v1,CP032986.1
GCA_003667405.1_ASM366740v1,CP032989.1
GCA_003667425.1_ASM366742v1,CP032992.1
GCA_003691425.1_ASM369142v1,CP033096.1
GCA_003697165.2_ASM369716v2,CP033092.2
GCA_003703795.1_ASM370379v1,CP033250.1
GCA_003711005.1_ASM371100v1,CP033378.1
GCA_003711045.1_ASM371104v1,CP033401.1
GCA_003717595.1_ASM371759v1,CP030240.1
GCA_003769125.2_ASM376912v2,CP043736.1
GCA_003790525.1_ASM379052v1,CP033635.1
GCA_003812625.1_ASM381262v1,CP033762.1
GCA_003812945.1_ASM381294v1,CP033850.1
GCA_003813145.1_ASM381314v1,CP033884.1
GCA_003856575.1_ASM385657v1,CP023834.1
GCA_003856615.1_ASM385661v1,CP023849.1
GCA_003856655.1_ASM385665v1,CP023826.1
GCA_003856675.1_ASM385667v1,CP023820.1
GCA_003856695.1_ASM385669v1,CP023844.1
GCA_003856995.1_ASM385699v1,CP022730.1
GCA_003925895.1_ASM392589v1,AP019189.1
GCA_003956165.1_ASM395616v1,CP025856.1
GCA_003956185.1_ASM395618v1,CP025862.1
GCA_003956205.1_ASM395620v1,CP025910.1
GCA_003956225.1_ASM395622v1,CP025913.1
GCA_003956245.1_ASM395624v1,CP025840.1
GCA_003956265.1_ASM395626v1,CP025851.1
GCA_003956285.1_ASM395628v1,CP025869.1
GCA_003956305.1_ASM395630v1,CP025903.1
GCA_003956325.1_ASM395632v1,CP025920.1
GCA_003956345.1_ASM395634v1,CP025842.1
GCA_003956365.1_ASM395636v1,CP025847.1
GCA_003956385.1_ASM395638v1,CP025849.1
GCA_003956405.1_ASM395640v1,CP025859.1
GCA_003956425.1_ASM395642v1,CP025865.1
GCA_003956445.1_ASM395644v1,CP025881.1
GCA_003956465.1_ASM395646v1,CP025892.1
GCA_003956485.1_ASM395648v1,CP025916.1
GCA_003966425.1_ASM396642v1,AP018796.1
GCA_003966445.1_ASM396644v1,AP018802.1
GCA_003966465.1_ASM396646v1,AP018808.1
GCA_003966775.1_ASM396677v1,AP018784.1
GCA_003966795.1_ASM396679v1,AP018488.1
GCA_003971215.1_ASM397121v1,CP034589.1
GCA_003991155.1_ASM399115v1,CP031293.1
GCA_003999795.1_ASM399979v1,CP034738.1
GCA_004006545.1_ASM400654v1,CP034784.1
GCA_004006575.1_ASM400657v1,CP034787.1
GCA_004010575.1_ASM401057v1,CP034803.1
GCA_004010595.1_ASM401059v1,CP034792.1
GCA_004010615.1_ASM401061v1,CP034797.1
GCA_004010635.1_ASM401063v1,CP034794.1
GCA_004010655.1_ASM401065v1,CP034799.1
GCA_004010675.1_ASM401067v1,CP034806.1
GCA_004010695.1_ASM401069v1,CP034801.1
GCA_004010715.1_ASM401071v1,CP034808.1
GCA_004011015.1_ASM401101v1,CP025573.1
GCA_004022505.2_ASM402250v2,CP034953.2
GCA_004088295.1_ASM408829v1,CP035123.1
GCA_004114395.1_ASM411439v1,CP034389.1
GCA_004118915.1_ASM411891v1,CP035366.1
GCA_004135125.1_ASM413512v1,CP035486.1
GCA_004135165.1_ASM413516v1,CP035477.1
GCA_004135775.1_ASM413577v1,CP034399.1
GCA_004135815.1_ASM413581v1,CP034404.1
GCA_004135855.1_ASM413585v1,CP026641.1
GCA_004135915.1_ASM413591v1,CP035516.1
GCA_004141955.1_ASM414195v1,CP035476.1
GCA_004193755.1_ASM419375v1,CP035720.1
GCA_004281435.2_ASM428143v2,CP043739.1
GCA_004295365.1_ASM429536v1,CP036177.1
GCA_004299805.1_ASM429980v1,CP036245.1
GCA_004301465.1_ASM430146v1,CP036202.1
GCA_004328685.1_ASM432868v1,CP035312.1
GCA_004358365.1_ASM435836v1,CP037945.1
GCA_004358385.1_ASM435838v1,CP037941.1
GCA_004358405.1_ASM435840v1,CP037943.1
GCA_004358985.1_ASM435898v1,CP029239.1
GCA_004368015.1_ASM436801v1,CP029057.1
GCA_004377995.2_ASM437799v2,CP054388.1
GCA_004405205.2_ASM440520v2,CP042336.1
GCA_004526255.1_ASM452625v1,CP038180.1
GCA_004564035.1_ASM456403v1,CP035498.1
GCA_004564175.1_ASM456417v1,CP020495.1
GCA_004759025.1_ASM475902v1,CP038505.1
GCA_004771135.1_ASM477113v1,CP028320.1
GCA_004771235.1_ASM477123v1,CP038791.1
GCA_004792495.1_ASM479249v1,CP038857.1
GCA_004801575.1_ASM480157v1,CP039298.1
GCA_004804185.1_ASM480418v1,CP039404.1
GCA_004804205.1_ASM480420v1,CP039403.1
GCA_004924255.1_ASM492425v1,CP037910.1
GCA_004924275.1_ASM492427v1,CP037903.1
GCA_004924355.1_ASM492435v1,CP038138.1
GCA_005014055.1_ASM501405v1,CP031898.1
GCA_005014075.1_ASM501407v1,CP031902.1
GCA_005037715.2_ASM503771v2,CP031910.1
GCA_005037725.2_ASM503772v2,CP031922.1
GCA_005037735.2_ASM503773v2,CP031913.1
GCA_005037775.2_ASM503777v2,CP031906.1
GCA_005037795.2_ASM503779v2,CP031908.1
GCA_005037805.2_ASM503780v2,CP031912.1
GCA_005037815.2_ASM503781v2,CP031919.1
GCA_005037845.2_ASM503784v2,CP031916.1
GCA_005156265.1_ASM515626v1,CP038453.1
GCA_005221505.1_ASM522150v1,CP028592.1
GCA_005221525.1_ASM522152v1,CP028600.1
GCA_005221545.1_ASM522154v1,CP028598.1
GCA_005221565.1_ASM522156v1,CP028596.1
GCA_005221585.1_ASM522158v1,CP028603.1
GCA_005221605.1_ASM522160v1,CP028614.1
GCA_005221625.1_ASM522162v1,CP028626.1
GCA_005221645.1_ASM522164v1,CP028629.1
GCA_005221665.1_ASM522166v1,CP028632.1
GCA_005221685.1_ASM522168v1,CP028635.1
GCA_005221705.1_ASM522170v1,CP028638.1
GCA_005221725.1_ASM522172v1,CP028641.1
GCA_005221745.1_ASM522174v1,CP028647.1
GCA_005221765.1_ASM522176v1,CP028650.1
GCA_005221785.1_ASM522178v1,CP028652.1
GCA_005221805.1_ASM522180v1,CP028659.1
GCA_005221825.1_ASM522182v1,CP028668.1
GCA_005221845.1_ASM522184v1,CP028674.1
GCA_005221865.1_ASM522186v1,CP028671.1
GCA_005221885.1_ASM522188v1,CP028607.1
GCA_005221905.1_ASM522190v1,CP028609.1
GCA_005221945.1_ASM522194v1,CP028620.1
GCA_005221985.1_ASM522198v1,CP028644.1
GCA_005222005.1_ASM522200v1,CP028654.1
GCA_005222045.1_ASM522204v1,CP028662.1
GCA_005222065.1_ASM522206v1,CP028665.1
GCA_005222265.1_ASM522226v1,CP028677.1
GCA_005222285.1_ASM522228v1,CP028683.1
GCA_005222305.1_ASM522230v1,CP028690.1
GCA_005222325.1_ASM522232v1,CP028693.1
GCA_005222345.1_ASM522234v1,CP028698.1
GCA_005222365.1_ASM522236v1,CP028700.1
GCA_005222385.1_ASM522238v1,CP028680.1
GCA_005222405.1_ASM522240v1,CP028685.1
GCA_005222425.1_ASM522242v1,CP028687.1
GCA_005222445.1_ASM522244v1,CP028695.1
GCA_005484365.1_ASM548436v1,CP035944.1
GCA_005671355.1_ASM567135v1,CP040397.1
GCA_005885915.1_ASM588591v1,CP040570.1
GCA_005885955.1_ASM588595v1,CP040572.1
GCA_005886035.1_ASM588603v1,CP040390.1
GCA_005890115.1_ASM589011v1,CP040643.1
GCA_006088875.1_ASM608887v1,CP029420.1
GCA_006337025.1_ASM633702v1,CP040886.1
GCA_006351885.1_ASM635188v1,CP040919.1
GCA_006352265.1_ASM635226v1,CP040067.1
GCA_006777045.1_ASM677704v1,CP041300.1
GCA_006777065.1_ASM677706v1,CP041302.1
GCA_006777085.1_ASM677708v1,CP041304.1
GCA_006874785.1_ASM687478v1,CP015853.1
GCA_006965465.1_ASM696546v1,CP041359.1
GCA_007012305.1_ASM701230v1,CP041392.1
GCA_007632435.1_ASM763243v1,CP041919.1
GCA_007833875.1_ASM783387v1,CP040456.1
GCA_007922655.1_ASM792265v1,CP041623.1
GCA_007990655.1_ASM799065v1,AP019761.1
GCA_007995175.1_ASM799517v1,CP042585.1
GCA_007997855.1_ASM799785v1,CP042599.1
GCA_007998005.1_ASM799800v1,CP042606.1
GCA_007998065.1_ASM799806v1,CP042615.1
GCA_007998085.1_ASM799808v1,CP042627.1
GCA_007998105.1_ASM799810v1,CP042638.1
GCA_007998125.1_ASM799812v1,CP042645.1
GCA_008027975.1_ASM802797v1,CP042871.1
GCA_008033295.1_ASM803329v1,CP042867.1
GCA_008033315.1_ASM803331v1,CP042865.1
GCA_008042015.2_ASM804201v2,CP042934.2
GCA_008064935.1_ASM806493v1,CP042947.1
GCA_008064955.1_ASM806495v1,CP042950.1
GCA_008064975.1_ASM806497v1,CP042953.1
GCA_008065435.1_ASM806543v1,CP042298.1
GCA_008065455.1_ASM806545v1,CP042350.1
GCA_008080655.1_ASM808065v1,CP040927.1
GCA_008086485.1_ASM808648v1,CP043015.1
GCA_008086505.1_ASM808650v1,CP043025.1
GCA_008086525.1_ASM808652v1,CP043011.1
GCA_008087645.1_ASM808764v1,CP043019.1
GCA_008124005.1_ASM812400v1,CP043217.1
GCA_008124085.1_ASM812408v1,CP043181.1
GCA_008124105.1_ASM812410v1,CP043185.1
GCA_008124125.1_ASM812412v1,CP043183.1
GCA_008124145.1_ASM812414v1,CP043187.1
GCA_008124205.1_ASM812420v1,CP043193.1
GCA_008124225.1_ASM812422v1,CP043195.1
GCA_008124245.1_ASM812424v1,CP043197.1
GCA_008124265.1_ASM812426v1,CP043201.1
GCA_008124285.1_ASM812428v1,CP043199.1
GCA_008124305.1_ASM812430v1,CP043205.1
GCA_008124325.1_ASM812432v1,CP043203.1
GCA_008124345.1_ASM812434v1,CP043207.1
GCA_008124365.1_ASM812436v1,CP043209.1
GCA_008124385.1_ASM812438v1,CP043211.1
GCA_008124405.1_ASM812440v1,CP043213.1
GCA_008124425.1_ASM812442v1,CP043227.1
GCA_008152105.1_ASM815210v1,CP041996.1
GCA_008275005.1_ASM827500v1,CP041988.1
GCA_008275025.1_ASM827502v1,CP041989.1
GCA_008275045.1_ASM827504v1,CP041990.1
GCA_008275065.1_ASM827506v1,CP041991.1
GCA_008275085.1_ASM827508v1,CP041992.1
GCA_008275105.1_ASM827510v1,CP041993.1
GCA_008329665.1_ASM832966v1,CP043478.1
GCA_008370755.1_ASM837075v1,CP041678.1
GCA_008375335.1_ASM837533v1,CP041627.1
GCA_008383145.1_ASM838314v1,CP043754.1
GCA_008383225.1_ASM838322v1,CP043752.1
GCA_008385205.1_ASM838520v1,CP043757.1
GCA_008385335.1_ASM838533v1,CP043750.1
GCA_008385405.1_ASM838540v1,CP043747.1
GCA_008386375.1_ASM838637v1,CP043742.1
GCA_008386415.1_ASM838641v1,CP043744.1
GCA_008386435.1_ASM838643v1,CP043733.1
GCA_008462425.1_ASM846242v1,CP043539.1
GCA_008632555.1_ASM863255v1,CP043946.1
GCA_008632575.1_ASM863257v1,CP043942.1
GCA_008632595.1_ASM863259v1,CP043950.1
GCA_008727135.1_ASM872713v1,CP044140.1
GCA_008727155.1_ASM872715v1,CP044143.1
GCA_008727175.1_ASM872717v1,CP044145.1
GCA_008727195.1_ASM872719v1,CP044148.1
GCA_008761455.2_ASM876145v2,CP044311.1
GCA_008761475.2_ASM876147v2,CP044312.1
GCA_008761495.2_ASM876149v2,CP044313.1
GCA_008761515.1_ASM876151v1,CP044314.1
GCA_008761535.3_ASM876153v3,CP044315.2
GCA_008802895.1_ASM880289v1,CP044350.1
GCA_008807135.1_ASM880713v1,CP041448.1
GCA_008807155.1_ASM880715v1,CP041442.1
GCA_008807295.1_ASM880729v1,CP041452.1
GCA_008807655.1_ASM880765v1,CP032145.1
GCA_008823185.1_ASM882318v1,CP042588.1
GCA_008824125.1_ASM882412v1,CP044410.1
GCA_008925965.1_ASM892596v1,CP032789.1
GCA_008926085.1_ASM892608v1,CP032791.1
GCA_008926105.1_ASM892610v1,CP032793.1
GCA_008926125.1_ASM892612v1,CP032795.1
GCA_008926145.1_ASM892614v1,CP032797.1
GCA_008926165.1_ASM892616v1,CP032801.1
GCA_008926185.1_ASM892618v1,CP032803.1
GCA_008926305.1_ASM892630v1,CP032805.1
GCA_008931135.1_ASM893113v1,CP032808.1
GCA_008931185.1_ASM893118v1,CP032811.1
GCA_008949495.1_ASM894949v1,CP043033.1
GCA_009002845.1_ASM900284v1,AP019706.1
GCA_009003065.1_ASM900306v1,AP019708.1
GCA_009176965.1_ASM917696v1,AP019675.1
GCA_009363035.1_ASM936303v1,CP045277.1
GCA_009395265.1_ASM939526v1,CP045457.1
GCA_009431955.1_ASM943195v1,CP040305.1
GCA_009432215.1_ASM943221v1,CP040307.1
GCA_009432415.1_ASM943241v1,CP040309.1
GCA_009432635.1_ASM943263v1,CP040311.1
GCA_009432795.1_ASM943279v1,CP040313.1
GCA_009432915.1_ASM943291v1,CP040314.1
GCA_009433135.1_ASM943313v1,CP040316.1
GCA_009577985.1_ASM957798v1,CP041337.1
GCA_009618015.1_ASM961801v1,AP019856.1
GCA_009627495.1_ASM962749v1,CP038494.1
GCA_009648495.1_ASM964849v1,CP045741.1
GCA_009650035.1_ASM965003v1,CP045827.1
GCA_009650175.1_ASM965017v1,CP045863.1
GCA_009663855.1_ASM966385v1,CP045977.1
GCA_009664305.1_ASM966430v1,CP035545.1
GCA_009664455.1_ASM966445v1,CP045975.1
GCA_009671045.1_ASM967104v1,CP046000.1
GCA_009671085.1_ASM967108v1,CP046003.1
GCA_009671105.1_ASM967110v1,CP046006.1
GCA_009671125.1_ASM967112v1,CP046009.1
GCA_009720465.1_ASM972046v1,CP041955.1
GCA_009720605.1_ASM972060v1,CP046259.1
GCA_009728565.1_ASM972856v1,CP023165.1
GCA_009738145.1_ASM973814v1,CP045190.1
GCA_009738455.1_ASM973845v1,CP046527.1
GCA_009761715.1_ASM976171v1,CP041031.1
GCA_009762365.1_ASM976236v1,CP044291.1
GCA_009762385.1_ASM976238v1,CP044293.1
GCA_009762415.1_ASM976241v1,CP044298.1
GCA_009762475.1_ASM976247v1,CP044305.1
GCA_009762495.1_ASM976249v1,CP044346.1
GCA_009762515.1_ASM976251v1,CP046676.1
GCA_009832885.1_ASM983288v1,CP047127.1
GCA_009832985.1_ASM983298v1,CP047231.1
GCA_009866925.3_ASM986692v3,CP026929.2
GCA_009866945.3_ASM986694v3,CP026932.2
GCA_009867015.2_ASM986701v2,CP026935.2
GCA_009867035.3_ASM986703v3,CP026939.2
GCA_009873355.1_ASM987335v1,CP041747.1
GCA_009873375.1_ASM987337v1,CP041749.1
GCA_009873435.1_ASM987343v1,CP042982.1
GCA_009905115.1_ASM990511v1,CP047571.1
GCA_009905135.1_ASM990513v1,CP047576.1
GCA_009905355.1_ASM990535v1,CP047594.1
GCA_009909465.1_ASM990946v1,CP047658.1
GCA_009909485.1_ASM990948v1,CP047665.1
GCA_009909505.1_ASM990950v1,CP047662.1
GCA_009913415.1_ASM991341v1,CP047876.1
GCA_009914295.1_ASM991429v1,CP041628.1
GCA_009931235.1_ASM993123v1,CP034384.1
GCA_009948655.1_ASM994865v1,CP041411.1
GCA_009951245.1_ASM995124v1,CP041433.1
GCA_009951745.1_ASM995174v1,CP041435.1
GCA_009952125.1_ASM995212v1,CP041437.1
GCA_010092405.1_ASM1009240v1,CP048025.1
GCA_010092965.1_ASM1009296v1,CP048107.1
GCA_010231855.1_ASM1023185v1,CP034936.1
GCA_010272415.1_ASM1027241v1,CP025967.1
GCA_010272695.1_ASM1027269v1,CP025970.1
GCA_010272895.1_ASM1027289v1,CP025973.1
GCA_010273135.1_ASM1027313v1,CP025976.1
GCA_010365325.1_ASM1036532v1,CP048304.1
GCA_010365345.1_ASM1036534v1,CP048310.1
GCA_010365365.1_ASM1036536v1,CP048322.1
GCA_010365385.1_ASM1036538v1,CP048337.1
GCA_010365405.1_ASM1036540v1,CP048326.1
GCA_010365425.1_ASM1036542v1,CP048330.1
GCA_010365465.1_ASM1036546v1,CP048344.1
GCA_010365485.1_ASM1036548v1,CP048359.1
GCA_010365505.1_ASM1036550v1,CP048371.1
GCA_010365525.1_ASM1036552v1,CP048367.1
GCA_010365545.1_ASM1036554v1,CP048376.1
GCA_010668985.1_ASM1066898v1,CP048603.1
GCA_010669005.1_ASM1066900v1,CP048604.1
GCA_010669025.1_ASM1066902v1,CP048605.1
GCA_010706435.1_ASM1070643v1,CP048647.1
GCA_010724935.1_ASM1072493v1,AP022351.1
GCA_011045235.1_ASM1104523v1,CP049204.1
GCA_011045255.1_ASM1104525v1,CP049196.1
GCA_011045275.1_ASM1104527v1,CP049197.1
GCA_011045295.1_ASM1104529v1,CP049198.1
GCA_011045455.1_ASM1104545v1,CP034253.1
GCA_011045475.1_ASM1104547v1,CP033158.1
GCA_011045895.1_ASM1104589v1,CP047461.1
GCA_011064575.1_ASM1106457v1,CP049343.1
GCA_011067085.1_ASM1106708v1,CP049348.1
GCA_011068385.1_ASM1106838v1,CP049612.1
GCA_011330935.1_ASM1133093v1,CP049077.1
GCA_011331065.1_ASM1133106v1,CP049081.1
GCA_011331215.1_ASM1133121v1,CP049085.1
GCA_011403355.1_ASM1140335v1,AP021890.1
GCA_011404215.1_ASM1140421v1,AP021891.1
GCA_011404355.1_ASM1140435v1,AP021892.1
GCA_011404475.1_ASM1140447v1,AP021893.1
GCA_011404595.1_ASM1140459v1,AP021894.1
GCA_011404755.1_ASM1140475v1,AP021895.1
GCA_011769865.1_ASM1176986v1,CP050382.1
GCA_011843745.2_ASM1184374v2,CP058231.1
GCA_011849985.2_ASM1184998v2,CP058233.1
GCA_011996085.1_ASM1199608v1,CP047378.1
GCA_012044775.1_ASM1204477v1,CP050646.1
GCA_012221365.1_ASM1222136v1,CP050862.1
GCA_012221565.1_ASM1222156v1,CP050865.1
GCA_012278675.1_ASM1227867v1,CP041284.1
GCA_012849755.1_ASM1284975v1,CP051631.1
GCA_012934435.1_ASM1293443v1,CP051753.1
GCA_012934455.1_ASM1293445v1,CP051738.1
GCA_012934475.1_ASM1293447v1,CP051735.1
GCA_012934495.1_ASM1293449v1,CP051733.1
GCA_012934515.1_ASM1293451v1,CP051727.1
GCA_012934535.1_ASM1293453v1,CP051725.1
GCA_012934555.1_ASM1293455v1,CP051719.1
GCA_012934575.1_ASM1293457v1,CP051716.1
GCA_012934595.1_ASM1293459v1,CP051714.1
GCA_012934615.1_ASM1293461v1,CP051711.1
GCA_012934635.1_ASM1293463v1,CP051706.1
GCA_012934655.2_ASM1293465v2,CP051700.1
GCA_012934675.1_ASM1293467v1,CP051698.1
GCA_012934695.1_ASM1293469v1,CP051751.1
GCA_012934715.1_ASM1293471v1,CP051694.1
GCA_012934735.1_ASM1293473v1,CP051692.1
GCA_012934765.1_ASM1293476v1,CP051688.1
GCA_012934785.1_ASM1293478v1,CP051744.1
GCA_012934815.1_ASM1293481v1,CP051749.1
GCA_012974805.1_ASM1297480v1,CP037449.1
GCA_013004045.1_ASM1300404v1,CP053080.1
GCA_013085185.1_ASM1308518v1,CP053234.1
GCA_013085205.1_ASM1308520v1,CP053245.1
GCA_013085865.1_ASM1308586v1,CP053281.1
GCA_013085905.3_ASM1308590v3,CP053251.2
GCA_013112335.1_ASM1311233v1,CP053259.1
GCA_013122565.1_ASM1312256v1,CP053258.1
GCA_013166855.1_ASM1316685v1,CP053592.1
GCA_013166875.1_ASM1316687v1,CP053594.1
GCA_013166895.1_ASM1316689v1,CP053597.1
GCA_013166915.1_ASM1316691v1,CP053595.1
GCA_013166935.1_ASM1316693v1,CP053599.1
GCA_013166955.1_ASM1316695v1,CP053600.1
GCA_013166975.1_ASM1316697v1,CP053601.1
GCA_013166995.1_ASM1316699v1,CP053603.1
GCA_013167015.1_ASM1316701v1,CP053602.1
GCA_013167035.1_ASM1316703v1,CP053604.1
GCA_013167055.1_ASM1316705v1,CP053605.1
GCA_013167075.1_ASM1316707v1,CP053607.1
GCA_013167135.1_ASM1316713v1,CP038282.1
GCA_013167155.1_ASM1316715v1,CP038284.1
GCA_013167175.1_ASM1316717v1,CP038287.1
GCA_013167195.1_ASM1316719v1,CP038290.1
GCA_013167235.1_ASM1316723v1,CP038292.1
GCA_013167255.1_ASM1316725v1,CP038295.1
GCA_013167275.1_ASM1316727v1,CP038300.1
GCA_013167295.1_ASM1316729v1,CP038302.1
GCA_013167315.1_ASM1316731v1,CP038305.1
GCA_013167335.1_ASM1316733v1,CP038309.1
GCA_013167355.1_ASM1316735v1,CP038313.1
GCA_013167375.1_ASM1316737v1,CP038316.1
GCA_013167395.1_ASM1316739v1,CP038319.1
GCA_013167415.1_ASM1316741v1,CP038321.1
GCA_013167435.1_ASM1316743v1,CP038324.1
GCA_013167455.1_ASM1316745v1,CP038328.1
GCA_013167475.1_ASM1316747v1,CP038333.1
GCA_013167495.1_ASM1316749v1,CP038336.1
GCA_013167515.1_ASM1316751v1,CP038339.1
GCA_013167535.1_ASM1316753v1,CP038342.1
GCA_013167555.1_ASM1316755v1,CP038344.1
GCA_013167575.1_ASM1316757v1,CP038346.1
GCA_013167595.1_ASM1316759v1,CP038349.1
GCA_013167615.1_ASM1316761v1,CP038351.1
GCA_013167635.1_ASM1316763v1,CP038353.1
GCA_013167655.1_ASM1316765v1,CP038355.1
GCA_013167675.1_ASM1316767v1,CP038357.1
GCA_013167695.1_ASM1316769v1,CP038360.1
GCA_013167715.1_ASM1316771v1,CP038363.1
GCA_013167735.1_ASM1316773v1,CP038366.1
GCA_013167755.1_ASM1316775v1,CP038369.1
GCA_013167775.1_ASM1316777v1,CP038372.1
GCA_013167795.1_ASM1316779v1,CP038374.1
GCA_013167815.1_ASM1316781v1,CP038376.1
GCA_013167875.1_ASM1316787v1,CP038380.1
GCA_013167935.1_ASM1316793v1,CP038383.1
GCA_013167975.1_ASM1316797v1,CP038386.1
GCA_013167995.1_ASM1316799v1,CP038389.1
GCA_013168015.1_ASM1316801v1,CP038394.1
GCA_013168035.1_ASM1316803v1,CP038398.1
GCA_013168055.1_ASM1316805v1,CP038402.1
GCA_013168075.1_ASM1316807v1,CP038405.1
GCA_013168095.1_ASM1316809v1,CP038408.1
GCA_013168115.1_ASM1316811v1,CP038412.1
GCA_013168135.1_ASM1316813v1,CP038414.1
GCA_013168155.1_ASM1316815v1,CP038416.1
GCA_013168175.1_ASM1316817v1,CP038419.1
GCA_013168195.1_ASM1316819v1,CP038421.1
GCA_013168215.1_ASM1316821v1,CP038423.1
GCA_013168235.1_ASM1316823v1,CP038425.1
GCA_013168255.1_ASM1316825v1,CP038428.1
GCA_013201175.1_ASM1320117v1,CP053720.1
GCA_013201195.1_ASM1320119v1,CP053723.1
GCA_013201215.1_ASM1320121v1,CP053730.1
GCA_013201235.1_ASM1320123v1,CP053736.1
GCA_013201255.1_ASM1320125v1,CP053731.1
GCA_013201505.1_ASM1320150v1,CP053785.1
GCA_013201525.1_ASM1320152v1,CP053787.1
GCA_013282195.1_ASM1328219v1,CP047609.1
GCA_013282275.1_ASM1328227v1,CP042878.1
GCA_013282315.1_ASM1328231v1,CP042892.1
GCA_013282335.1_ASM1328233v1,CP043406.1
GCA_013282355.1_ASM1328235v1,CP044403.1
GCA_013305705.1_ASM1330570v1,CP046396.1
GCA_013315675.1_ASM1331567v1,CP054345.1
GCA_013315695.1_ASM1331569v1,CP054353.1
GCA_013315715.1_ASM1331571v1,CP054363.1
GCA_013315735.1_ASM1331573v1,CP054368.1
GCA_013315755.1_ASM1331575v1,CP054371.1
GCA_013315835.1_ASM1331583v1,CP054314.1
GCA_013315855.1_ASM1331585v1,CP054317.1
GCA_013315875.1_ASM1331587v1,CP054319.1
GCA_013315915.1_ASM1331591v1,CP054328.1
GCA_013315935.1_ASM1331593v1,CP054335.1
GCA_013315975.1_ASM1331597v1,CP051765.1
GCA_013315995.1_ASM1331599v1,CP053284.1
GCA_013317085.1_ASM1331708v1,CP047405.1
GCA_013340785.1_ASM1334078v1,AP023190.1
GCA_013340805.1_ASM1334080v1,AP023197.1
GCA_013340825.1_ASM1334082v1,AP023205.1
GCA_013341335.1_ASM1334133v1,CP054449.1
GCA_013341355.1_ASM1334135v1,CP054454.1
GCA_013341375.1_ASM1334137v1,CP054457.1
GCA_013342925.1_ASM1334292v1,CP054556.1
GCA_013343595.1_ASM1334359v1,CP039834.1
GCA_013343615.1_ASM1334361v1,CP039837.1
GCA_013343635.1_ASM1334363v1,CP040107.1
GCA_013357345.1_ASM1335734v1,CP054940.1
GCA_013357365.1_ASM1335736v1,CP050498.1
GCA_013368055.1_ASM1336805v1,CP055158.1
GCA_013371685.1_ASM1337168v1,CP055251.1
GCA_013371725.1_ASM1337172v1,CP055256.1
GCA_013371745.1_ASM1337174v1,CP055259.1
GCA_013372305.1_ASM1337230v1,CP054214.1
GCA_013372325.1_ASM1337232v1,CP054219.1
GCA_013372345.1_ASM1337234v1,CP054224.1
GCA_013372365.1_ASM1337236v1,CP054227.1
GCA_013372385.1_ASM1337238v1,CP054230.1
GCA_013372405.1_ASM1337240v1,CP054232.1
GCA_013372425.1_ASM1337242v1,CP054236.1
GCA_013374235.1_ASM1337423v1,AP023219.1
GCA_013374255.1_ASM1337425v1,AP023224.1
GCA_013374275.1_ASM1337427v1,AP023226.1
GCA_013374295.1_ASM1337429v1,AP023230.1
GCA_013374315.1_ASM1337431v1,AP023235.1
GCA_013374335.1_ASM1337433v1,AP023237.1
GCA_013376515.1_ASM1337651v1,CP051158.1
GCA_013376575.1_ASM1337657v1,CP049967.1
GCA_013388275.1_ASM1338827v1,CP058223.1
GCA_013389615.1_ASM1338961v1,CP058308.1
GCA_013389695.1_ASM1338969v1,CP058302.1
GCA_013390265.1_ASM1339026v1,CP053296.1
GCA_013391825.1_ASM1339182v1,CP058355.1
GCA_013393825.1_ASM1339382v1,CP040090.1
GCA_013394575.1_ASM1339457v1,CP053079.1
GCA_013402855.1_ASM1340285v1,CP058571.1
GCA_013402895.1_ASM1340289v1,CP058574.1
GCA_013423805.1_ASM1342380v1,CP058948.1
GCA_013425935.1_ASM1342593v1,CP059043.1
GCA_013425955.1_ASM1342595v1,CP059003.1
GCA_013426075.1_ASM1342607v1,CP058651.1
GCA_013426095.1_ASM1342609v1,CP058656.1
GCA_013426115.1_ASM1342611v1,CP058661.1
GCA_013459015.1_ASM1345901v1,CP053851.1
GCA_013459175.1_ASM1345917v1,CP053852.1
GCA_013582235.1_ASM1358223v1,CP055748.1
GCA_013592195.1_ASM1359219v1,CP055624.1
GCA_013596065.1_ASM1359606v1,CP055669.1
GCA_013601135.1_ASM1360113v1,CP055713.1
GCA_013602835.1_ASM1360283v1,CP055724.1
GCA_013694285.1_ASM1369428v1,CP059288.1
GCA_013694325.1_ASM1369432v1,CP059281.1
GCA_013694345.1_ASM1369434v1,CP059283.1
GCA_013694465.1_ASM1369446v1,CP059279.1
GCA_013725375.1_ASM1372537v1,CP056237.1
GCA_013725775.1_ASM1372577v1,CP056242.1
GCA_013726815.1_ASM1372681v1,CP056248.1
GCA_013727075.1_ASM1372707v1,CP056249.1
GCA_013727815.1_ASM1372781v1,CP056263.1
GCA_013728735.1_ASM1372873v1,CP056273.1
GCA_013729295.1_ASM1372929v1,CP056278.1
GCA_013729535.1_ASM1372953v1,CP056282.1
GCA_013730915.1_ASM1373091v1,CP056299.1
GCA_013731515.1_ASM1373151v1,CP056304.1
GCA_013732175.1_ASM1373217v1,CP056315.1
GCA_013735655.1_ASM1373565v1,CP056412.1
GCA_013739975.1_ASM1373997v1,CP056404.1
GCA_013740395.1_ASM1374039v1,CP056446.1
GCA_013741635.1_ASM1374163v1,CP056598.1
GCA_013741855.1_ASM1374185v1,CP056608.1
GCA_013742135.1_ASM1374213v1,CP056613.1
GCA_013742835.1_ASM1374283v1,CP056625.1
GCA_013744185.1_ASM1374418v1,CP056655.1
GCA_013745955.1_ASM1374595v1,CP056357.1
GCA_013746875.1_ASM1374687v1,CP056396.1
GCA_013748455.1_ASM1374845v1,CP056470.1
GCA_013748665.1_ASM1374866v1,CP056492.1
GCA_013749295.1_ASM1374929v1,CP056524.1
GCA_013749975.1_ASM1374997v1,CP056556.1
GCA_013750375.1_ASM1375037v1,CP056565.1
GCA_013750815.1_ASM1375081v1,CP056569.1
GCA_013751075.1_ASM1375107v1,CP056578.1
GCA_013751495.1_ASM1375149v1,CP056584.1
GCA_013752075.1_ASM1375207v1,CP056604.1
GCA_013752295.1_ASM1375229v1,CP056618.1
GCA_013782445.1_ASM1378244v1,CP056190.1
GCA_013783465.1_ASM1378346v1,CP056348.1
GCA_013783685.1_ASM1378368v1,CP056355.1
GCA_013783905.1_ASM1378390v1,CP056370.1
GCA_013784085.1_ASM1378408v1,CP056392.1
GCA_013785265.1_ASM1378526v1,CP056481.1
GCA_013785465.1_ASM1378546v1,CP056551.1
GCA_013785665.1_ASM1378566v1,CP056564.1
GCA_013785825.1_ASM1378582v1,CP056594.1
GCA_013786125.1_ASM1378612v1,CP056620.1
GCA_013786165.1_ASM1378616v1,CP056632.1
GCA_013786785.1_ASM1378678v1,CP056662.1
GCA_013789905.1_ASM1378990v1,CP056786.1
GCA_013790145.1_ASM1379014v1,CP056794.1
GCA_013790245.1_ASM1379024v1,CP056800.1
GCA_013790285.1_ASM1379028v1,CP056810.1
GCA_013790405.1_ASM1379040v1,CP056816.1
GCA_013790635.1_ASM1379063v1,CP056821.1
GCA_013791815.1_ASM1379181v1,CP056846.1
GCA_013791985.1_ASM1379198v1,CP056842.1
GCA_013795065.1_ASM1379506v1,CP056865.1
GCA_013795285.1_ASM1379528v1,CP056867.1
GCA_013795545.1_ASM1379554v1,CP056870.1
GCA_013795795.1_ASM1379579v1,CP056873.1
GCA_013796065.1_ASM1379606v1,CP056876.1
GCA_013797045.1_ASM1379704v1,CP056894.1
GCA_013797825.1_ASM1379782v1,CP056902.1
GCA_013798625.1_ASM1379862v1,CP056914.1
GCA_013799025.1_ASM1379902v1,CP056920.1
GCA_013799205.1_ASM1379920v1,CP056921.1
GCA_013799505.1_ASM1379950v1,CP056928.1
GCA_013799665.1_ASM1379966v1,CP056933.1
GCA_013800125.1_ASM1380012v1,CP056940.1
GCA_013800705.1_ASM1380070v1,CP056947.1
GCA_013801205.1_ASM1380120v1,CP056955.1
GCA_013802065.1_ASM1380206v1,CP056974.1
GCA_013802345.1_ASM1380234v1,CP056985.1
GCA_013802585.1_ASM1380258v1,CP056997.1
GCA_013802865.1_ASM1380286v1,CP056991.1
GCA_013803045.1_ASM1380304v1,CP057002.1
GCA_013803305.1_ASM1380330v1,CP057007.1
GCA_013803545.1_ASM1380354v1,CP057010.1
GCA_013803745.1_ASM1380374v1,CP057012.1
GCA_013803905.1_ASM1380390v1,CP057016.1
GCA_013804065.1_ASM1380406v1,CP057014.1
GCA_013804245.1_ASM1380424v1,CP057018.1
GCA_013804445.1_ASM1380444v1,CP057020.1
GCA_013804645.1_ASM1380464v1,CP057022.1
GCA_013804865.1_ASM1380486v1,CP057024.1
GCA_013805085.1_ASM1380508v1,CP057028.1
GCA_013805285.1_ASM1380528v1,CP057026.1
GCA_013805505.1_ASM1380550v1,CP057031.1
GCA_013805885.1_ASM1380588v1,CP057038.1
GCA_013806085.1_ASM1380608v1,CP057045.1
GCA_013806305.1_ASM1380630v1,CP057040.1
GCA_013806525.1_ASM1380652v1,CP057050.1
GCA_013806725.1_ASM1380672v1,CP057055.1
GCA_013806925.1_ASM1380692v1,CP057057.1
GCA_013811655.1_ASM1381165v1,CP057062.1
GCA_013812015.1_ASM1381201v1,CP057072.1
GCA_013812225.1_ASM1381222v1,CP057075.1
GCA_013812425.1_ASM1381242v1,CP057085.1
GCA_013812575.1_ASM1381257v1,CP057087.1
GCA_013812745.1_ASM1381274v1,CP057090.1
GCA_013813585.1_ASM1381358v1,CP057109.1
GCA_013813735.1_ASM1381373v1,CP057112.1
GCA_013813895.1_ASM1381389v1,CP057115.1
GCA_013814055.1_ASM1381405v1,CP057119.1
GCA_013814285.1_ASM1381428v1,CP057123.1
GCA_013814665.1_ASM1381466v1,CP057126.1
GCA_013814885.1_ASM1381488v1,CP057129.1
GCA_013815235.1_ASM1381523v1,CP057133.1
GCA_013815445.1_ASM1381544v1,CP057137.1
GCA_013815865.1_ASM1381586v1,CP057139.1
GCA_013816045.1_ASM1381604v1,CP057141.1
GCA_013816205.1_ASM1381620v1,CP057144.1
GCA_013816945.1_ASM1381694v1,CP057152.1
GCA_013817105.1_ASM1381710v1,CP057154.1
GCA_013817315.1_ASM1381731v1,CP057160.1
GCA_013817645.1_ASM1381764v1,CP057163.1
GCA_013817865.1_ASM1381786v1,CP057166.1
GCA_013818065.1_ASM1381806v1,CP057167.1
GCA_013818265.1_ASM1381826v1,CP057171.1
GCA_013818475.1_ASM1381847v1,CP057173.1
GCA_013818685.1_ASM1381868v1,CP057175.1
GCA_013818885.1_ASM1381888v1,CP057207.1
GCA_013819805.1_ASM1381980v1,CP057223.1
GCA_013819985.1_ASM1381998v1,CP057225.1
GCA_013820695.1_ASM1382069v1,CP057234.1
GCA_013821045.1_ASM1382104v1,CP057247.1
GCA_013821185.1_ASM1382118v1,CP057250.1
GCA_013821385.1_ASM1382138v1,CP057254.1
GCA_013821835.1_ASM1382183v1,CP057259.1
GCA_013821965.1_ASM1382196v1,CP057262.1
GCA_013822225.1_ASM1382222v1,CP057267.1
GCA_013822325.1_ASM1382232v1,CP057270.1
GCA_013822435.1_ASM1382243v1,CP057273.1
GCA_013822575.1_ASM1382257v1,CP057276.1
GCA_013823125.1_ASM1382312v1,CP057176.1
GCA_013823335.1_ASM1382333v1,CP057178.1
GCA_013823545.1_ASM1382354v1,CP057185.1
GCA_013823705.1_ASM1382370v1,CP057186.1
GCA_013823865.1_ASM1382386v1,CP057188.1
GCA_013823975.1_ASM1382397v1,CP057190.1
GCA_013824185.1_ASM1382418v1,CP057192.1
GCA_013824345.1_ASM1382434v1,CP057194.1
GCA_013824535.1_ASM1382453v1,CP057200.1
GCA_013824695.1_ASM1382469v1,CP057204.1
GCA_013824825.1_ASM1382482v1,CP057281.1
GCA_013824985.1_ASM1382498v1,CP057287.1
GCA_013825245.1_ASM1382524v1,CP057293.1
GCA_013825525.1_ASM1382552v1,CP057302.1
GCA_013826725.1_ASM1382672v1,CP057334.1
GCA_013827205.1_ASM1382720v1,CP057336.1
GCA_013827445.1_ASM1382744v1,CP057342.1
GCA_013827685.1_ASM1382768v1,CP057340.1
GCA_013827905.1_ASM1382790v1,CP057344.1
GCA_013828065.1_ASM1382806v1,CP057347.1
GCA_013828205.1_ASM1382820v1,CP057345.1
GCA_013828415.1_ASM1382841v1,CP057349.1
GCA_013828815.1_ASM1382881v1,CP057354.1
GCA_013828985.1_ASM1382898v1,CP057364.1
GCA_013829445.1_ASM1382944v1,CP057368.1
GCA_013829665.1_ASM1382966v1,CP057371.1
GCA_013829905.1_ASM1382990v1,CP057378.1
GCA_013830125.1_ASM1383012v1,CP057380.1
GCA_013830345.1_ASM1383034v1,CP057384.1
GCA_013830545.1_ASM1383054v1,CP057390.1
GCA_013830785.1_ASM1383078v1,CP057396.1
GCA_013831005.1_ASM1383100v1,CP057402.1
GCA_013831265.1_ASM1383126v1,CP057408.1
GCA_013831545.1_ASM1383154v1,CP057417.1
GCA_013831785.1_ASM1383178v1,CP057429.1
GCA_013831995.1_ASM1383199v1,CP057420.1
GCA_013832285.1_ASM1383228v1,CP057423.1
GCA_013832525.1_ASM1383252v1,CP057432.1
GCA_013832805.1_ASM1383280v1,CP057435.1
GCA_013832965.1_ASM1383296v1,CP057438.1
GCA_013833155.1_ASM1383315v1,CP057441.1
GCA_013833345.1_ASM1383334v1,CP057444.1
GCA_013833585.1_ASM1383358v1,CP057447.1
GCA_013833985.1_ASM1383398v1,CP057453.1
GCA_013834305.1_ASM1383430v1,CP057455.1
GCA_013834965.1_ASM1383496v1,CP057465.1
GCA_013835205.1_ASM1383520v1,CP057468.1
GCA_013835405.1_ASM1383540v1,CP057470.1
GCA_013835585.1_ASM1383558v1,CP057473.1
GCA_013835785.1_ASM1383578v1,CP057475.1
GCA_013835945.1_ASM1383594v1,CP057479.1
GCA_013836945.1_ASM1383694v1,CP057484.1
GCA_013837165.1_ASM1383716v1,CP057485.1
GCA_013837385.1_ASM1383738v1,CP057487.1
GCA_013837545.1_ASM1383754v1,CP057491.1
GCA_013837755.1_ASM1383775v1,CP057493.1
GCA_013838005.1_ASM1383800v1,CP057500.1
GCA_013883175.1_ASM1388317v1,CP057507.1
GCA_013883375.1_ASM1388337v1,CP057510.1
GCA_013883815.1_ASM1388381v1,CP057516.1
GCA_013884015.1_ASM1388401v1,CP057512.1
GCA_013884255.1_ASM1388425v1,CP057520.1
GCA_013884475.1_ASM1388447v1,CP057525.1
GCA_013884735.1_ASM1388473v1,CP057523.1
GCA_013884935.1_ASM1388493v1,CP057535.1
GCA_013885155.1_ASM1388515v1,CP057539.1
GCA_013885335.1_ASM1388533v1,CP057555.1
GCA_013885595.1_ASM1388559v1,CP057545.1
GCA_013885915.1_ASM1388591v1,CP057559.1
GCA_013886475.1_ASM1388647v1,CP057570.1
GCA_013886595.1_ASM1388659v1,CP057577.1
GCA_013886735.1_ASM1388673v1,CP057580.1
GCA_013886795.1_ASM1388679v1,CP057574.1
GCA_013886835.1_ASM1388683v1,CP057582.1
GCA_013887055.1_ASM1388705v1,CP057584.1
GCA_013887315.1_ASM1388731v1,CP057587.1
GCA_013887475.1_ASM1388747v1,CP057589.1
GCA_013887755.1_ASM1388775v1,CP057594.1
GCA_013888015.1_ASM1388801v1,CP057597.1
GCA_013888235.1_ASM1388823v1,CP057600.1
GCA_013888395.1_ASM1388839v1,CP057603.1
GCA_013888615.1_ASM1388861v1,CP057605.1
GCA_013888815.1_ASM1388881v1,CP057608.1
GCA_013889395.1_ASM1388939v1,CP057612.1
GCA_013889615.1_ASM1388961v1,CP057617.1
GCA_013890055.1_ASM1389005v1,CP057626.1
GCA_013890395.1_ASM1389039v1,CP057621.1
GCA_013890795.1_ASM1389079v1,CP057634.1
GCA_013891215.1_ASM1389121v1,CP057638.1
GCA_013891425.1_ASM1389142v1,CP057640.1
GCA_013891675.1_ASM1389167v1,CP057643.1
GCA_013891895.1_ASM1389189v1,CP057645.1
GCA_013892175.1_ASM1389217v1,CP057650.1
GCA_013892635.1_ASM1389263v1,CP057660.1
GCA_013892855.1_ASM1389285v1,CP057665.1
GCA_013893055.1_ASM1389305v1,CP057669.1
GCA_013893255.1_ASM1389325v1,CP057673.1
GCA_013893495.1_ASM1389349v1,CP057677.1
GCA_013893695.1_ASM1389369v1,CP057684.1
GCA_013894415.1_ASM1389441v1,CP057690.1
GCA_013894775.1_ASM1389477v1,CP057693.1
GCA_013894975.1_ASM1389497v1,CP057696.1
GCA_013895235.1_ASM1389523v1,CP057705.1
GCA_013895455.1_ASM1389545v1,CP057713.1
GCA_013895855.1_ASM1389585v1,CP057717.1
GCA_013896095.1_ASM1389609v1,CP057725.1
GCA_013896295.1_ASM1389629v1,CP057729.1
GCA_013896515.1_ASM1389651v1,CP057731.1
GCA_013896775.1_ASM1389677v1,CP057738.1
GCA_013897255.1_ASM1389725v1,CP057751.1
GCA_013897395.1_ASM1389739v1,CP057767.1
GCA_013897665.1_ASM1389766v1,CP057759.1
GCA_013897915.1_ASM1389791v1,CP057773.1
GCA_013898135.1_ASM1389813v1,CP057778.1
GCA_013898635.1_ASM1389863v1,CP057784.1
GCA_013898775.1_ASM1389877v1,CP057790.1
GCA_013898915.1_ASM1389891v1,CP057802.1
GCA_013898935.1_ASM1389893v1,CP057796.1
GCA_013898995.1_ASM1389899v1,CP057818.1
GCA_013899015.1_ASM1389901v1,CP057826.1
GCA_013899055.1_ASM1389905v1,CP057829.1
GCA_013899075.1_ASM1389907v1,CP057831.1
GCA_013899095.1_ASM1389909v1,CP057838.1
GCA_013899115.1_ASM1389911v1,CP057833.1
GCA_013899145.1_ASM1389914v1,CP057843.1
GCA_013899165.1_ASM1389916v1,CP057839.1
GCA_013899185.1_ASM1389918v1,CP057841.1
GCA_013899205.1_ASM1389920v1,CP057812.1
GCA_013899225.1_ASM1389922v1,CP057849.1
GCA_013899245.1_ASM1389924v1,CP057854.1
GCA_013899265.1_ASM1389926v1,CP057860.1
GCA_013899285.1_ASM1389928v1,CP057861.1
GCA_013899445.1_ASM1389944v1,CP057869.1
GCA_013899465.1_ASM1389946v1,CP057873.1
GCA_013899485.1_ASM1389948v1,CP057876.1
GCA_013899525.1_ASM1389952v1,CP057878.1
GCA_013899545.1_ASM1389954v1,CP057879.1
GCA_013899585.1_ASM1389958v1,CP057882.1
GCA_013899605.1_ASM1389960v1,CP057885.1
GCA_013899625.1_ASM1389962v1,CP057888.1
GCA_013899645.1_ASM1389964v1,CP057891.1
GCA_013899665.1_ASM1389966v1,CP057893.1
GCA_013899705.1_ASM1389970v1,CP057900.1
GCA_013899725.1_ASM1389972v1,CP057901.1
GCA_013899745.1_ASM1389974v1,CP057905.1
GCA_013899765.1_ASM1389976v1,CP057911.1
GCA_013899785.1_ASM1389978v1,CP057906.1
GCA_013899805.1_ASM1389980v1,CP057915.1
GCA_013899825.1_ASM1389982v1,CP057916.1
GCA_013899865.1_ASM1389986v1,CP057922.1
GCA_013899885.1_ASM1389988v1,CP057927.1
GCA_013899905.1_ASM1389990v1,CP057930.1
GCA_013899925.1_ASM1389992v1,CP057932.1
GCA_013899945.1_ASM1389994v1,CP057936.1
GCA_013899965.1_ASM1389996v1,CP057941.1
GCA_013899985.1_ASM1389998v1,CP057946.1
GCA_013900005.1_ASM1390000v1,CP057942.1
GCA_013900025.1_ASM1390002v1,CP057951.1
GCA_013900045.1_ASM1390004v1,CP057953.1
GCA_013900065.1_ASM1390006v1,CP057957.1
GCA_013900105.1_ASM1390010v1,CP057961.1
GCA_013900125.1_ASM1390012v1,CP057964.1
GCA_013900145.1_ASM1390014v1,CP057962.1
GCA_013900165.1_ASM1390016v1,CP057967.1
GCA_013900185.1_ASM1390018v1,CP057978.1
GCA_013900205.1_ASM1390020v1,CP057970.1
GCA_013900225.1_ASM1390022v1,CP057973.1
GCA_013900245.1_ASM1390024v1,CP057975.1
GCA_013900265.1_ASM1390026v1,CP057980.1
GCA_013900285.1_ASM1390028v1,CP057983.1
GCA_013900305.1_ASM1390030v1,CP057987.1
GCA_013900325.1_ASM1390032v1,CP057990.1
GCA_013900345.1_ASM1390034v1,CP057993.1
GCA_013921705.1_ASM1392170v1,CP057995.1
GCA_013921965.1_ASM1392196v1,CP057996.1
GCA_013922265.1_ASM1392226v1,CP058007.1
GCA_013922565.1_ASM1392256v1,CP058004.1
GCA_013922765.1_ASM1392276v1,CP058019.1
GCA_013922965.1_ASM1392296v1,CP058036.1
GCA_013923405.1_ASM1392340v1,CP058070.1
GCA_013996575.1_ASM1399657v1,CP058025.1
GCA_013996855.1_ASM1399685v1,CP058031.1
GCA_014058445.1_ASM1405844v1,CP058682.1
GCA_014075335.1_ASM1407533v1,CP050047.1
GCA_014075475.1_ASM1407547v1,CP050044.1
GCA_014075595.1_ASM1407559v1,CP050040.1
GCA_014075795.1_ASM1407579v1,CP050036.1
GCA_014075915.1_ASM1407591v1,CP050031.1
GCA_014108885.1_ASM1410888v1,CP057994.1
GCA_014108905.1_ASM1410890v1,CP058009.1
GCA_014108925.1_ASM1410892v1,CP058012.1
GCA_014108945.1_ASM1410894v1,CP058014.1
GCA_014108965.1_ASM1410896v1,CP058027.1
GCA_014108985.1_ASM1410898v1,CP058040.1
GCA_014109005.1_ASM1410900v1,CP058046.1
GCA_014109025.1_ASM1410902v1,CP058052.1
GCA_014109045.1_ASM1410904v1,CP058063.1
GCA_014109065.1_ASM1410906v1,CP058074.1
GCA_014109085.1_ASM1410908v1,CP058072.1
GCA_014109105.1_ASM1410910v1,CP058076.1
GCA_014109125.1_ASM1410912v1,CP058078.1
GCA_014109285.1_ASM1410928v1,CP058080.1
GCA_014109385.1_ASM1410938v1,CP058083.1
GCA_014109545.1_ASM1410954v1,CP058087.1
GCA_014109625.1_ASM1410962v1,CP058090.1
GCA_014109645.1_ASM1410964v1,CP058093.1
GCA_014109665.1_ASM1410966v1,CP058104.1
GCA_014109685.1_ASM1410968v1,CP058101.1
GCA_014117345.1_ASM1411734v1,CP059840.1
GCA_014117405.1_ASM1411740v1,CP059723.1
GCA_014131475.1_ASM1413147v1,CP048606.1
GCA_014131495.1_ASM1413149v1,CP048853.1
GCA_014131515.1_ASM1413151v1,CP048855.1
GCA_014131535.1_ASM1413153v1,CP048857.1
GCA_014131555.1_ASM1413155v1,CP048860.1
GCA_014131575.1_ASM1413157v1,CP048863.1
GCA_014131595.1_ASM1413159v1,CP048865.1
GCA_014131615.1_ASM1413161v1,CP048867.1
GCA_014131635.1_ASM1413163v1,CP048870.1
GCA_014131655.1_ASM1413165v1,CP048873.1
GCA_014157395.1_ASM1415739v1,AP021935.1
GCA_014160155.1_ASM1416015v1,AP022107.1
GCA_014162235.1_ASM1416223v1,AP022221.1
GCA_014168595.1_ASM1416859v1,AP021914.1
GCA_014168675.1_ASM1416867v1,AP021933.1
GCA_014168735.1_ASM1416873v1,AP021944.1
GCA_014168755.1_ASM1416875v1,AP021946.1
GCA_014168775.1_ASM1416877v1,AP021963.1
GCA_014168835.1_ASM1416883v1,AP021998.1
GCA_014168855.1_ASM1416885v1,AP022003.1
GCA_014168935.1_ASM1416893v1,AP022030.1
GCA_014168955.1_ASM1416895v1,AP022032.1
GCA_014168975.1_ASM1416897v1,AP022036.1
GCA_014169015.1_ASM1416901v1,AP022044.1
GCA_014169035.1_ASM1416903v1,AP022049.1
GCA_014169095.1_ASM1416909v1,AP022064.1
GCA_014169115.1_ASM1416911v1,AP022069.1
GCA_014169155.1_ASM1416915v1,AP022095.1
GCA_014169175.1_ASM1416917v1,AP022098.1
GCA_014169195.1_ASM1416919v1,AP022105.1
GCA_014169275.1_ASM1416927v1,AP022120.1
GCA_014169395.1_ASM1416939v1,AP022159.1
GCA_014169415.1_ASM1416941v1,AP022161.1
GCA_014169435.1_ASM1416943v1,AP022171.1
GCA_014169455.1_ASM1416945v1,AP022173.1
GCA_014169475.1_ASM1416947v1,AP022177.1
GCA_014169575.1_ASM1416957v1,AP022207.1
GCA_014169595.1_ASM1416959v1,AP022215.1
GCA_014169615.1_ASM1416961v1,AP022222.1
GCA_014169695.1_ASM1416969v1,AP022245.1
GCA_014169775.1_ASM1416977v1,AP022261.1
GCA_014169855.1_ASM1416985v1,AP022287.1
GCA_014169895.1_ASM1416989v1,AP022295.1
GCA_014169915.1_ASM1416991v1,AP022298.1
GCA_014169995.1_ASM1416999v1,CP054282.1
GCA_014170595.1_ASM1417059v1,CP059904.1
GCA_014170615.1_ASM1417061v1,CP059907.1
GCA_014170675.1_ASM1417067v1,CP059917.1
GCA_014170695.1_ASM1417069v1,CP059922.1
GCA_014170715.1_ASM1417071v1,CP059925.1
GCA_014170735.1_ASM1417073v1,CP059929.1
GCA_014170945.1_ASM1417094v1,CP059944.1
GCA_014170975.1_ASM1417097v1,CP059947.1
GCA_014171015.1_ASM1417101v1,AP022087.1
GCA_014189395.1_ASM1418939v1,CP047277.1
GCA_014263375.1_ASM1426337v1,CP060121.1
