<?xml version='1.0' encoding='UTF-8' ?>
<svg xmlns='http://www.w3.org/2000/svg' xmlns:xlink='http://www.w3.org/1999/xlink' class='svglite' width='720.00pt' height='576.00pt' viewBox='0 0 720.00 576.00'>
<defs>
  <style type='text/css'><![CDATA[
    .svglite line, .svglite polyline, .svglite polygon, .svglite path, .svglite rect, .svglite circle {
      fill: none;
      stroke: #000000;
      stroke-linecap: round;
      stroke-linejoin: round;
      stroke-miterlimit: 10.00;
    }
    .svglite text {
      white-space: pre;
    }
  ]]></style>
</defs>
<rect width='100%' height='100%' style='stroke: none; fill: #FFFFFF;'/>
<defs>
  <clipPath id='cpMC4wMHw3MjAuMDB8MC4wMHw1NzYuMDA='>
    <rect x='0.00' y='0.00' width='720.00' height='576.00' />
  </clipPath>
</defs>
<g clip-path='url(#cpMC4wMHw3MjAuMDB8MC4wMHw1NzYuMDA=)'>
</g>
<defs>
  <clipPath id='cpNDUuNzR8NzE0LjUyfDExLjkwfDUyNy4xNA=='>
    <rect x='45.74' y='11.90' width='668.78' height='515.24' />
  </clipPath>
</defs>
<g clip-path='url(#cpNDUuNzR8NzE0LjUyfDExLjkwfDUyNy4xNA==)'>
<polyline points='45.74,448.30 714.52,448.30 ' style='stroke-width: 0.53; stroke: #EBEBEB; stroke-linecap: butt;' />
<polyline points='45.74,337.44 714.52,337.44 ' style='stroke-width: 0.53; stroke: #EBEBEB; stroke-linecap: butt;' />
<polyline points='45.74,226.59 714.52,226.59 ' style='stroke-width: 0.53; stroke: #EBEBEB; stroke-linecap: butt;' />
<polyline points='45.74,115.73 714.52,115.73 ' style='stroke-width: 0.53; stroke: #EBEBEB; stroke-linecap: butt;' />
<polyline points='167.33,527.14 167.33,11.90 ' style='stroke-width: 0.53; stroke: #EBEBEB; stroke-linecap: butt;' />
<polyline points='329.46,527.14 329.46,11.90 ' style='stroke-width: 0.53; stroke: #EBEBEB; stroke-linecap: butt;' />
<polyline points='491.59,527.14 491.59,11.90 ' style='stroke-width: 0.53; stroke: #EBEBEB; stroke-linecap: butt;' />
<polyline points='653.72,527.14 653.72,11.90 ' style='stroke-width: 0.53; stroke: #EBEBEB; stroke-linecap: butt;' />
<polyline points='45.74,503.72 714.52,503.72 ' style='stroke-width: 1.07; stroke: #EBEBEB; stroke-linecap: butt;' />
<polyline points='45.74,392.87 714.52,392.87 ' style='stroke-width: 1.07; stroke: #EBEBEB; stroke-linecap: butt;' />
<polyline points='45.74,282.01 714.52,282.01 ' style='stroke-width: 1.07; stroke: #EBEBEB; stroke-linecap: butt;' />
<polyline points='45.74,171.16 714.52,171.16 ' style='stroke-width: 1.07; stroke: #EBEBEB; stroke-linecap: butt;' />
<polyline points='45.74,60.30 714.52,60.30 ' style='stroke-width: 1.07; stroke: #EBEBEB; stroke-linecap: butt;' />
<rect x='76.14' y='472.50' width='20.27' height='31.23' style='stroke-width: 1.07; stroke-linecap: butt; stroke-linejoin: miter; fill: #B5B5B5;' />
<rect x='96.40' y='503.72' width='20.27' height='0.00' style='stroke-width: 1.07; stroke-linecap: butt; stroke-linejoin: miter; fill: #B5B5B5;' />
<rect x='116.67' y='503.72' width='20.27' height='0.00' style='stroke-width: 1.07; stroke-linecap: butt; stroke-linejoin: miter; fill: #B5B5B5;' />
<rect x='136.94' y='472.50' width='20.27' height='31.23' style='stroke-width: 1.07; stroke-linecap: butt; stroke-linejoin: miter; fill: #B5B5B5;' />
<rect x='157.20' y='253.91' width='20.27' height='249.81' style='stroke-width: 1.07; stroke-linecap: butt; stroke-linejoin: miter; fill: #B5B5B5;' />
<rect x='177.47' y='441.27' width='20.27' height='62.45' style='stroke-width: 1.07; stroke-linecap: butt; stroke-linejoin: miter; fill: #B5B5B5;' />
<rect x='197.73' y='285.14' width='20.27' height='218.59' style='stroke-width: 1.07; stroke-linecap: butt; stroke-linejoin: miter; fill: #B5B5B5;' />
<rect x='218.00' y='472.50' width='20.27' height='31.23' style='stroke-width: 1.07; stroke-linecap: butt; stroke-linejoin: miter; fill: #B5B5B5;' />
<rect x='238.27' y='503.72' width='20.27' height='0.00' style='stroke-width: 1.07; stroke-linecap: butt; stroke-linejoin: miter; fill: #B5B5B5;' />
<rect x='258.53' y='441.27' width='20.27' height='62.45' style='stroke-width: 1.07; stroke-linecap: butt; stroke-linejoin: miter; fill: #B5B5B5;' />
<rect x='278.80' y='503.72' width='20.27' height='0.00' style='stroke-width: 1.07; stroke-linecap: butt; stroke-linejoin: miter; fill: #B5B5B5;' />
<rect x='299.06' y='503.72' width='20.27' height='0.00' style='stroke-width: 1.07; stroke-linecap: butt; stroke-linejoin: miter; fill: #B5B5B5;' />
<rect x='319.33' y='503.72' width='20.27' height='0.00' style='stroke-width: 1.07; stroke-linecap: butt; stroke-linejoin: miter; fill: #B5B5B5;' />
<rect x='339.60' y='503.72' width='20.27' height='0.00' style='stroke-width: 1.07; stroke-linecap: butt; stroke-linejoin: miter; fill: #B5B5B5;' />
<rect x='359.86' y='503.72' width='20.27' height='0.00' style='stroke-width: 1.07; stroke-linecap: butt; stroke-linejoin: miter; fill: #B5B5B5;' />
<rect x='380.13' y='503.72' width='20.27' height='0.00' style='stroke-width: 1.07; stroke-linecap: butt; stroke-linejoin: miter; fill: #B5B5B5;' />
<rect x='400.40' y='503.72' width='20.27' height='0.00' style='stroke-width: 1.07; stroke-linecap: butt; stroke-linejoin: miter; fill: #B5B5B5;' />
<rect x='420.66' y='503.72' width='20.27' height='0.00' style='stroke-width: 1.07; stroke-linecap: butt; stroke-linejoin: miter; fill: #B5B5B5;' />
<rect x='440.93' y='441.27' width='20.27' height='62.45' style='stroke-width: 1.07; stroke-linecap: butt; stroke-linejoin: miter; fill: #B5B5B5;' />
<rect x='461.19' y='503.72' width='20.27' height='0.00' style='stroke-width: 1.07; stroke-linecap: butt; stroke-linejoin: miter; fill: #B5B5B5;' />
<rect x='481.46' y='441.27' width='20.27' height='62.45' style='stroke-width: 1.07; stroke-linecap: butt; stroke-linejoin: miter; fill: #B5B5B5;' />
<rect x='501.73' y='441.27' width='20.27' height='62.45' style='stroke-width: 1.07; stroke-linecap: butt; stroke-linejoin: miter; fill: #B5B5B5;' />
<rect x='521.99' y='66.55' width='20.27' height='437.18' style='stroke-width: 1.07; stroke-linecap: butt; stroke-linejoin: miter; fill: #B5B5B5;' />
<rect x='542.26' y='503.72' width='20.27' height='0.00' style='stroke-width: 1.07; stroke-linecap: butt; stroke-linejoin: miter; fill: #B5B5B5;' />
<rect x='562.52' y='410.04' width='20.27' height='93.68' style='stroke-width: 1.07; stroke-linecap: butt; stroke-linejoin: miter; fill: #B5B5B5;' />
<rect x='582.79' y='35.32' width='20.27' height='468.40' style='stroke-width: 1.07; stroke-linecap: butt; stroke-linejoin: miter; fill: #B5B5B5;' />
<rect x='603.06' y='441.27' width='20.27' height='62.45' style='stroke-width: 1.07; stroke-linecap: butt; stroke-linejoin: miter; fill: #B5B5B5;' />
<rect x='623.32' y='410.04' width='20.27' height='93.68' style='stroke-width: 1.07; stroke-linecap: butt; stroke-linejoin: miter; fill: #B5B5B5;' />
<rect x='643.59' y='441.27' width='20.27' height='62.45' style='stroke-width: 1.07; stroke-linecap: butt; stroke-linejoin: miter; fill: #B5B5B5;' />
<rect x='663.86' y='378.82' width='20.27' height='124.91' style='stroke-width: 1.07; stroke-linecap: butt; stroke-linejoin: miter; fill: #B5B5B5;' />
<polygon points='80.41,475.99 81.58,475.45 82.74,474.91 83.91,474.37 85.07,473.82 86.24,473.26 87.41,472.70 88.57,472.14 89.74,471.57 90.90,471.00 92.07,470.42 93.24,469.84 94.40,469.26 95.57,468.68 96.73,468.09 97.90,467.50 99.06,466.91 100.23,466.31 101.40,465.71 102.56,465.11 103.73,464.51 104.89,463.91 106.06,463.31 107.23,462.70 108.39,462.10 109.56,461.49 110.72,460.89 111.89,460.28 113.06,459.68 114.22,459.07 115.39,458.47 116.55,457.87 117.72,457.27 118.88,456.67 120.05,456.07 121.22,455.48 122.38,454.89 123.55,454.30 124.71,453.71 125.88,453.13 127.05,452.55 128.21,451.98 129.38,451.41 130.54,450.84 131.71,450.29 132.88,449.73 134.04,449.18 135.21,448.64 136.37,448.10 137.54,447.57 138.71,447.05 139.87,446.53 141.04,446.03 142.20,445.53 143.37,445.03 144.53,444.55 145.70,444.08 146.87,443.61 148.03,443.15 149.20,442.70 150.36,442.26 151.53,441.84 152.70,441.42 153.86,441.01 155.03,440.61 156.19,440.23 157.36,439.85 158.53,439.49 159.69,439.14 160.86,438.80 162.02,438.47 163.19,438.16 164.36,437.85 165.52,437.57 166.69,437.29 167.85,437.03 169.02,436.77 170.18,436.54 171.35,436.31 172.52,436.11 173.68,435.91 174.85,435.73 176.01,435.56 177.18,435.41 178.35,435.26 179.51,435.14 180.68,435.03 181.84,434.94 183.01,434.85 184.18,434.79 185.34,434.73 186.51,434.70 187.67,434.67 188.84,434.67 190.01,434.67 191.17,434.70 192.34,434.73 193.50,434.79 194.67,434.85 195.83,434.93 197.00,435.03 198.17,435.14 199.33,435.26 200.50,435.40 201.66,435.55 202.83,435.72 204.00,435.90 205.16,436.10 206.33,436.30 207.49,436.53 208.66,436.76 209.83,437.01 210.99,437.27 212.16,437.55 213.32,437.84 214.49,438.14 215.66,438.45 216.82,438.77 217.99,439.11 219.15,439.46 220.32,439.82 221.48,440.19 222.65,440.58 223.82,440.97 224.98,441.37 226.15,441.79 227.31,442.21 228.48,442.64 229.65,443.09 230.81,443.54 231.98,444.01 233.14,444.48 234.31,444.96 235.48,445.44 236.64,445.94 237.81,446.44 238.97,446.95 240.14,447.47 241.31,448.00 242.47,448.52 243.64,449.06 244.80,449.60 245.97,450.15 247.13,450.70 248.30,451.26 249.47,451.82 250.63,452.39 251.80,452.96 252.96,453.53 254.13,454.11 255.30,454.69 256.46,455.27 257.63,455.85 258.79,456.44 259.96,457.03 261.13,457.62 262.29,458.21 263.46,458.80 264.62,459.39 265.79,459.99 266.95,460.58 268.12,461.17 269.29,461.76 270.45,462.35 271.62,462.94 272.78,463.53 273.95,464.11 275.12,464.70 276.28,465.28 277.45,465.86 278.61,466.44 279.78,467.01 280.95,467.58 282.11,468.15 283.28,468.71 284.44,469.27 285.61,469.82 286.78,470.37 287.94,470.92 289.11,471.46 290.27,471.99 291.44,472.52 292.60,473.05 293.77,473.56 294.94,474.08 296.10,474.58 297.27,475.09 298.43,475.58 299.60,476.07 300.77,476.54 301.93,477.02 303.10,477.48 304.26,477.94 305.43,478.39 306.60,478.84 307.76,479.27 308.93,479.70 310.09,480.12 311.26,480.53 312.43,480.93 313.59,481.33 314.76,481.72 315.92,482.09 317.09,482.46 318.25,482.82 319.42,483.17 320.59,483.51 321.75,483.84 322.92,484.17 324.08,484.48 325.25,484.78 326.42,485.08 327.58,485.36 328.75,485.63 329.91,485.90 331.08,486.15 332.25,486.39 333.41,486.63 334.58,486.85 335.74,487.06 336.91,487.26 338.08,487.46 339.24,487.64 340.41,487.81 341.57,487.97 342.74,488.12 343.90,488.25 345.07,488.38 346.24,488.50 347.40,488.61 348.57,488.70 349.73,488.78 350.90,488.85 352.07,488.92 353.23,488.96 354.40,489.00 355.56,489.02 356.73,489.04 357.90,489.04 359.06,489.04 360.23,489.01 361.39,488.98 362.56,488.94 363.73,488.88 364.89,488.81 366.06,488.74 367.22,488.64 368.39,488.54 369.55,488.43 370.72,488.30 371.89,488.16 373.05,488.01 374.22,487.84 375.38,487.67 376.55,487.48 377.72,487.28 378.88,487.07 380.05,486.84 381.21,486.60 382.38,486.35 383.55,486.09 384.71,485.81 385.88,485.52 387.04,485.22 388.21,484.91 389.38,484.58 390.54,484.25 391.71,483.89 392.87,483.53 394.04,483.15 395.20,482.76 396.37,482.35 397.54,481.94 398.70,481.51 399.87,481.07 401.03,480.61 402.20,480.15 403.37,479.66 404.53,479.18 405.70,478.66 406.86,478.15 408.03,477.61 409.20,477.07 410.36,476.51 411.53,475.94 412.69,475.35 413.86,474.76 415.02,474.15 416.19,473.53 417.36,472.89 418.52,472.25 419.69,471.58 420.85,470.91 422.02,470.22 423.19,469.53 424.35,468.81 425.52,468.09 426.68,467.36 427.85,466.61 429.02,465.85 430.18,465.08 431.35,464.30 432.51,463.50 433.68,462.69 434.85,461.88 436.01,461.05 437.18,460.20 438.34,459.35 439.51,458.49 440.67,457.62 441.84,456.73 443.01,455.84 444.17,454.93 445.34,454.01 446.50,453.09 447.67,452.15 448.84,451.20 450.00,450.25 451.17,449.29 452.33,448.31 453.50,447.33 454.67,446.34 455.83,445.34 457.00,444.34 458.16,443.32 459.33,442.30 460.50,441.27 461.66,440.23 462.83,439.19 463.99,438.14 465.16,437.08 466.32,436.03 467.49,434.96 468.66,433.89 469.82,432.81 470.99,431.73 472.15,430.64 473.32,429.55 474.49,428.46 475.65,427.36 476.82,426.26 477.98,425.16 479.15,424.06 480.32,422.96 481.48,421.85 482.65,420.74 483.81,419.64 484.98,418.53 486.15,417.42 487.31,416.32 488.48,415.21 489.64,414.11 490.81,413.01 491.97,411.91 493.14,410.81 494.31,409.72 495.47,408.63 496.64,407.54 497.80,406.46 498.97,405.39 500.14,404.32 501.30,403.25 502.47,402.19 503.63,401.14 504.80,400.10 505.97,399.06 507.13,398.03 508.30,397.02 509.46,396.00 510.63,395.00 511.80,394.01 512.96,393.03 514.13,392.06 515.29,391.10 516.46,390.15 517.62,389.22 518.79,388.29 519.96,387.38 521.12,386.48 522.29,385.60 523.45,384.73 524.62,383.88 525.79,383.03 526.95,382.21 528.12,381.40 529.28,380.61 530.45,379.83 531.62,379.07 532.78,378.32 533.95,377.60 535.11,376.89 536.28,376.20 537.45,375.53 538.61,374.88 539.78,374.24 540.94,373.63 542.11,373.03 543.27,372.46 544.44,371.90 545.61,371.36 546.77,370.85 547.94,370.36 549.10,369.88 550.27,369.43 551.44,369.00 552.60,368.60 553.77,368.21 554.93,367.85 556.10,367.51 557.27,367.18 558.43,366.89 559.60,366.61 560.76,366.37 561.93,366.13 563.09,365.94 564.26,365.75 565.43,365.60 566.59,365.45 567.76,365.35 568.92,365.25 570.09,365.19 571.26,365.14 572.42,365.13 573.59,365.13 574.75,365.17 575.92,365.21 577.09,365.29 578.25,365.38 579.42,365.51 580.58,365.65 581.75,365.82 582.92,366.00 584.08,366.23 585.25,366.45 586.41,366.72 587.58,366.99 588.74,367.30 589.91,367.62 591.08,367.97 592.24,368.33 593.41,368.73 594.57,369.13 595.74,369.57 596.91,370.02 598.07,370.49 599.24,370.99 600.40,371.50 601.57,372.03 602.74,372.59 603.90,373.16 605.07,373.75 606.23,374.36 607.40,374.99 608.57,375.63 609.73,376.30 610.90,376.98 612.06,377.67 613.23,378.39 614.39,379.12 615.56,379.87 616.73,380.63 617.89,381.41 619.06,382.20 620.22,383.02 621.39,383.83 622.56,384.68 623.72,385.52 624.89,386.39 626.05,387.26 627.22,388.15 628.39,389.05 629.55,389.97 630.72,390.89 631.88,391.82 633.05,392.76 634.22,393.72 635.38,394.68 636.55,395.66 637.71,396.64 638.88,397.64 640.04,398.63 641.21,399.64 642.38,400.65 643.54,401.68 644.71,402.70 645.87,403.74 647.04,404.78 648.21,405.82 649.37,406.87 650.54,407.93 651.70,408.98 652.87,410.05 654.04,411.11 655.20,412.18 656.37,413.25 657.53,414.33 658.70,415.40 659.87,416.48 661.03,417.56 662.20,418.63 663.36,419.71 664.53,420.79 665.69,421.87 666.86,422.95 668.03,424.03 669.19,425.10 670.36,426.18 671.52,427.25 672.69,428.32 673.86,429.39 675.02,430.46 676.19,431.52 676.19,503.72 675.02,503.72 673.86,503.72 672.69,503.72 671.52,503.72 670.36,503.72 669.19,503.72 668.03,503.72 666.86,503.72 665.69,503.72 664.53,503.72 663.36,503.72 662.20,503.72 661.03,503.72 659.87,503.72 658.70,503.72 657.53,503.72 656.37,503.72 655.20,503.72 654.04,503.72 652.87,503.72 651.70,503.72 650.54,503.72 649.37,503.72 648.21,503.72 647.04,503.72 645.87,503.72 644.71,503.72 643.54,503.72 642.38,503.72 641.21,503.72 640.04,503.72 638.88,503.72 637.71,503.72 636.55,503.72 635.38,503.72 634.22,503.72 633.05,503.72 631.88,503.72 630.72,503.72 629.55,503.72 628.39,503.72 627.22,503.72 626.05,503.72 624.89,503.72 623.72,503.72 622.56,503.72 621.39,503.72 620.22,503.72 619.06,503.72 617.89,503.72 616.73,503.72 615.56,503.72 614.39,503.72 613.23,503.72 612.06,503.72 610.90,503.72 609.73,503.72 608.57,503.72 607.40,503.72 606.23,503.72 605.07,503.72 603.90,503.72 602.74,503.72 601.57,503.72 600.40,503.72 599.24,503.72 598.07,503.72 596.91,503.72 595.74,503.72 594.57,503.72 593.41,503.72 592.24,503.72 591.08,503.72 589.91,503.72 588.74,503.72 587.58,503.72 586.41,503.72 585.25,503.72 584.08,503.72 582.92,503.72 581.75,503.72 580.58,503.72 579.42,503.72 578.25,503.72 577.09,503.72 575.92,503.72 574.75,503.72 573.59,503.72 572.42,503.72 571.26,503.72 570.09,503.72 568.92,503.72 567.76,503.72 566.59,503.72 565.43,503.72 564.26,503.72 563.09,503.72 561.93,503.72 560.76,503.72 559.60,503.72 558.43,503.72 557.27,503.72 556.10,503.72 554.93,503.72 553.77,503.72 552.60,503.72 551.44,503.72 550.27,503.72 549.10,503.72 547.94,503.72 546.77,503.72 545.61,503.72 544.44,503.72 543.27,503.72 542.11,503.72 540.94,503.72 539.78,503.72 538.61,503.72 537.45,503.72 536.28,503.72 535.11,503.72 533.95,503.72 532.78,503.72 531.62,503.72 530.45,503.72 529.28,503.72 528.12,503.72 526.95,503.72 525.79,503.72 524.62,503.72 523.45,503.72 522.29,503.72 521.12,503.72 519.96,503.72 518.79,503.72 517.62,503.72 516.46,503.72 515.29,503.72 514.13,503.72 512.96,503.72 511.80,503.72 510.63,503.72 509.46,503.72 508.30,503.72 507.13,503.72 505.97,503.72 504.80,503.72 503.63,503.72 502.47,503.72 501.30,503.72 500.14,503.72 498.97,503.72 497.80,503.72 496.64,503.72 495.47,503.72 494.31,503.72 493.14,503.72 491.97,503.72 490.81,503.72 489.64,503.72 488.48,503.72 487.31,503.72 486.15,503.72 484.98,503.72 483.81,503.72 482.65,503.72 481.48,503.72 480.32,503.72 479.15,503.72 477.98,503.72 476.82,503.72 475.65,503.72 474.49,503.72 473.32,503.72 472.15,503.72 470.99,503.72 469.82,503.72 468.66,503.72 467.49,503.72 466.32,503.72 465.16,503.72 463.99,503.72 462.83,503.72 461.66,503.72 460.50,503.72 459.33,503.72 458.16,503.72 457.00,503.72 455.83,503.72 454.67,503.72 453.50,503.72 452.33,503.72 451.17,503.72 450.00,503.72 448.84,503.72 447.67,503.72 446.50,503.72 445.34,503.72 444.17,503.72 443.01,503.72 441.84,503.72 440.67,503.72 439.51,503.72 438.34,503.72 437.18,503.72 436.01,503.72 434.85,503.72 433.68,503.72 432.51,503.72 431.35,503.72 430.18,503.72 429.02,503.72 427.85,503.72 426.68,503.72 425.52,503.72 424.35,503.72 423.19,503.72 422.02,503.72 420.85,503.72 419.69,503.72 418.52,503.72 417.36,503.72 416.19,503.72 415.02,503.72 413.86,503.72 412.69,503.72 411.53,503.72 410.36,503.72 409.20,503.72 408.03,503.72 406.86,503.72 405.70,503.72 404.53,503.72 403.37,503.72 402.20,503.72 401.03,503.72 399.87,503.72 398.70,503.72 397.54,503.72 396.37,503.72 395.20,503.72 394.04,503.72 392.87,503.72 391.71,503.72 390.54,503.72 389.38,503.72 388.21,503.72 387.04,503.72 385.88,503.72 384.71,503.72 383.55,503.72 382.38,503.72 381.21,503.72 380.05,503.72 378.88,503.72 377.72,503.72 376.55,503.72 375.38,503.72 374.22,503.72 373.05,503.72 371.89,503.72 370.72,503.72 369.55,503.72 368.39,503.72 367.22,503.72 366.06,503.72 364.89,503.72 363.73,503.72 362.56,503.72 361.39,503.72 360.23,503.72 359.06,503.72 357.90,503.72 356.73,503.72 355.56,503.72 354.40,503.72 353.23,503.72 352.07,503.72 350.90,503.72 349.73,503.72 348.57,503.72 347.40,503.72 346.24,503.72 345.07,503.72 343.90,503.72 342.74,503.72 341.57,503.72 340.41,503.72 339.24,503.72 338.08,503.72 336.91,503.72 335.74,503.72 334.58,503.72 333.41,503.72 332.25,503.72 331.08,503.72 329.91,503.72 328.75,503.72 327.58,503.72 326.42,503.72 325.25,503.72 324.08,503.72 322.92,503.72 321.75,503.72 320.59,503.72 319.42,503.72 318.25,503.72 317.09,503.72 315.92,503.72 314.76,503.72 313.59,503.72 312.43,503.72 311.26,503.72 310.09,503.72 308.93,503.72 307.76,503.72 306.60,503.72 305.43,503.72 304.26,503.72 303.10,503.72 301.93,503.72 300.77,503.72 299.60,503.72 298.43,503.72 297.27,503.72 296.10,503.72 294.94,503.72 293.77,503.72 292.60,503.72 291.44,503.72 290.27,503.72 289.11,503.72 287.94,503.72 286.78,503.72 285.61,503.72 284.44,503.72 283.28,503.72 282.11,503.72 280.95,503.72 279.78,503.72 278.61,503.72 277.45,503.72 276.28,503.72 275.12,503.72 273.95,503.72 272.78,503.72 271.62,503.72 270.45,503.72 269.29,503.72 268.12,503.72 266.95,503.72 265.79,503.72 264.62,503.72 263.46,503.72 262.29,503.72 261.13,503.72 259.96,503.72 258.79,503.72 257.63,503.72 256.46,503.72 255.30,503.72 254.13,503.72 252.96,503.72 251.80,503.72 250.63,503.72 249.47,503.72 248.30,503.72 247.13,503.72 245.97,503.72 244.80,503.72 243.64,503.72 242.47,503.72 241.31,503.72 240.14,503.72 238.97,503.72 237.81,503.72 236.64,503.72 235.48,503.72 234.31,503.72 233.14,503.72 231.98,503.72 230.81,503.72 229.65,503.72 228.48,503.72 227.31,503.72 226.15,503.72 224.98,503.72 223.82,503.72 222.65,503.72 221.48,503.72 220.32,503.72 219.15,503.72 217.99,503.72 216.82,503.72 215.66,503.72 214.49,503.72 213.32,503.72 212.16,503.72 210.99,503.72 209.83,503.72 208.66,503.72 207.49,503.72 206.33,503.72 205.16,503.72 204.00,503.72 202.83,503.72 201.66,503.72 200.50,503.72 199.33,503.72 198.17,503.72 197.00,503.72 195.83,503.72 194.67,503.72 193.50,503.72 192.34,503.72 191.17,503.72 190.01,503.72 188.84,503.72 187.67,503.72 186.51,503.72 185.34,503.72 184.18,503.72 183.01,503.72 181.84,503.72 180.68,503.72 179.51,503.72 178.35,503.72 177.18,503.72 176.01,503.72 174.85,503.72 173.68,503.72 172.52,503.72 171.35,503.72 170.18,503.72 169.02,503.72 167.85,503.72 166.69,503.72 165.52,503.72 164.36,503.72 163.19,503.72 162.02,503.72 160.86,503.72 159.69,503.72 158.53,503.72 157.36,503.72 156.19,503.72 155.03,503.72 153.86,503.72 152.70,503.72 151.53,503.72 150.36,503.72 149.20,503.72 148.03,503.72 146.87,503.72 145.70,503.72 144.53,503.72 143.37,503.72 142.20,503.72 141.04,503.72 139.87,503.72 138.71,503.72 137.54,503.72 136.37,503.72 135.21,503.72 134.04,503.72 132.88,503.72 131.71,503.72 130.54,503.72 129.38,503.72 128.21,503.72 127.05,503.72 125.88,503.72 124.71,503.72 123.55,503.72 122.38,503.72 121.22,503.72 120.05,503.72 118.88,503.72 117.72,503.72 116.55,503.72 115.39,503.72 114.22,503.72 113.06,503.72 111.89,503.72 110.72,503.72 109.56,503.72 108.39,503.72 107.23,503.72 106.06,503.72 104.89,503.72 103.73,503.72 102.56,503.72 101.40,503.72 100.23,503.72 99.06,503.72 97.90,503.72 96.73,503.72 95.57,503.72 94.40,503.72 93.24,503.72 92.07,503.72 90.90,503.72 89.74,503.72 88.57,503.72 87.41,503.72 86.24,503.72 85.07,503.72 83.91,503.72 82.74,503.72 81.58,503.72 80.41,503.72 ' style='stroke-width: 0.00; stroke: none; stroke-linecap: butt; fill: #FF9933; fill-opacity: 0.50;' />
<polyline points='80.41,475.99 81.58,475.45 82.74,474.91 83.91,474.37 85.07,473.82 86.24,473.26 87.41,472.70 88.57,472.14 89.74,471.57 90.90,471.00 92.07,470.42 93.24,469.84 94.40,469.26 95.57,468.68 96.73,468.09 97.90,467.50 99.06,466.91 100.23,466.31 101.40,465.71 102.56,465.11 103.73,464.51 104.89,463.91 106.06,463.31 107.23,462.70 108.39,462.10 109.56,461.49 110.72,460.89 111.89,460.28 113.06,459.68 114.22,459.07 115.39,458.47 116.55,457.87 117.72,457.27 118.88,456.67 120.05,456.07 121.22,455.48 122.38,454.89 123.55,454.30 124.71,453.71 125.88,453.13 127.05,452.55 128.21,451.98 129.38,451.41 130.54,450.84 131.71,450.29 132.88,449.73 134.04,449.18 135.21,448.64 136.37,448.10 137.54,447.57 138.71,447.05 139.87,446.53 141.04,446.03 142.20,445.53 143.37,445.03 144.53,444.55 145.70,444.08 146.87,443.61 148.03,443.15 149.20,442.70 150.36,442.26 151.53,441.84 152.70,441.42 153.86,441.01 155.03,440.61 156.19,440.23 157.36,439.85 158.53,439.49 159.69,439.14 160.86,438.80 162.02,438.47 163.19,438.16 164.36,437.85 165.52,437.57 166.69,437.29 167.85,437.03 169.02,436.77 170.18,436.54 171.35,436.31 172.52,436.11 173.68,435.91 174.85,435.73 176.01,435.56 177.18,435.41 178.35,435.26 179.51,435.14 180.68,435.03 181.84,434.94 183.01,434.85 184.18,434.79 185.34,434.73 186.51,434.70 187.67,434.67 188.84,434.67 190.01,434.67 191.17,434.70 192.34,434.73 193.50,434.79 194.67,434.85 195.83,434.93 197.00,435.03 198.17,435.14 199.33,435.26 200.50,435.40 201.66,435.55 202.83,435.72 204.00,435.90 205.16,436.10 206.33,436.30 207.49,436.53 208.66,436.76 209.83,437.01 210.99,437.27 212.16,437.55 213.32,437.84 214.49,438.14 215.66,438.45 216.82,438.77 217.99,439.11 219.15,439.46 220.32,439.82 221.48,440.19 222.65,440.58 223.82,440.97 224.98,441.37 226.15,441.79 227.31,442.21 228.48,442.64 229.65,443.09 230.81,443.54 231.98,444.01 233.14,444.48 234.31,444.96 235.48,445.44 236.64,445.94 237.81,446.44 238.97,446.95 240.14,447.47 241.31,448.00 242.47,448.52 243.64,449.06 244.80,449.60 245.97,450.15 247.13,450.70 248.30,451.26 249.47,451.82 250.63,452.39 251.80,452.96 252.96,453.53 254.13,454.11 255.30,454.69 256.46,455.27 257.63,455.85 258.79,456.44 259.96,457.03 261.13,457.62 262.29,458.21 263.46,458.80 264.62,459.39 265.79,459.99 266.95,460.58 268.12,461.17 269.29,461.76 270.45,462.35 271.62,462.94 272.78,463.53 273.95,464.11 275.12,464.70 276.28,465.28 277.45,465.86 278.61,466.44 279.78,467.01 280.95,467.58 282.11,468.15 283.28,468.71 284.44,469.27 285.61,469.82 286.78,470.37 287.94,470.92 289.11,471.46 290.27,471.99 291.44,472.52 292.60,473.05 293.77,473.56 294.94,474.08 296.10,474.58 297.27,475.09 298.43,475.58 299.60,476.07 300.77,476.54 301.93,477.02 303.10,477.48 304.26,477.94 305.43,478.39 306.60,478.84 307.76,479.27 308.93,479.70 310.09,480.12 311.26,480.53 312.43,480.93 313.59,481.33 314.76,481.72 315.92,482.09 317.09,482.46 318.25,482.82 319.42,483.17 320.59,483.51 321.75,483.84 322.92,484.17 324.08,484.48 325.25,484.78 326.42,485.08 327.58,485.36 328.75,485.63 329.91,485.90 331.08,486.15 332.25,486.39 333.41,486.63 334.58,486.85 335.74,487.06 336.91,487.26 338.08,487.46 339.24,487.64 340.41,487.81 341.57,487.97 342.74,488.12 343.90,488.25 345.07,488.38 346.24,488.50 347.40,488.61 348.57,488.70 349.73,488.78 350.90,488.85 352.07,488.92 353.23,488.96 354.40,489.00 355.56,489.02 356.73,489.04 357.90,489.04 359.06,489.04 360.23,489.01 361.39,488.98 362.56,488.94 363.73,488.88 364.89,488.81 366.06,488.74 367.22,488.64 368.39,488.54 369.55,488.43 370.72,488.30 371.89,488.16 373.05,488.01 374.22,487.84 375.38,487.67 376.55,487.48 377.72,487.28 378.88,487.07 380.05,486.84 381.21,486.60 382.38,486.35 383.55,486.09 384.71,485.81 385.88,485.52 387.04,485.22 388.21,484.91 389.38,484.58 390.54,484.25 391.71,483.89 392.87,483.53 394.04,483.15 395.20,482.76 396.37,482.35 397.54,481.94 398.70,481.51 399.87,481.07 401.03,480.61 402.20,480.15 403.37,479.66 404.53,479.18 405.70,478.66 406.86,478.15 408.03,477.61 409.20,477.07 410.36,476.51 411.53,475.94 412.69,475.35 413.86,474.76 415.02,474.15 416.19,473.53 417.36,472.89 418.52,472.25 419.69,471.58 420.85,470.91 422.02,470.22 423.19,469.53 424.35,468.81 425.52,468.09 426.68,467.36 427.85,466.61 429.02,465.85 430.18,465.08 431.35,464.30 432.51,463.50 433.68,462.69 434.85,461.88 436.01,461.05 437.18,460.20 438.34,459.35 439.51,458.49 440.67,457.62 441.84,456.73 443.01,455.84 444.17,454.93 445.34,454.01 446.50,453.09 447.67,452.15 448.84,451.20 450.00,450.25 451.17,449.29 452.33,448.31 453.50,447.33 454.67,446.34 455.83,445.34 457.00,444.34 458.16,443.32 459.33,442.30 460.50,441.27 461.66,440.23 462.83,439.19 463.99,438.14 465.16,437.08 466.32,436.03 467.49,434.96 468.66,433.89 469.82,432.81 470.99,431.73 472.15,430.64 473.32,429.55 474.49,428.46 475.65,427.36 476.82,426.26 477.98,425.16 479.15,424.06 480.32,422.96 481.48,421.85 482.65,420.74 483.81,419.64 484.98,418.53 486.15,417.42 487.31,416.32 488.48,415.21 489.64,414.11 490.81,413.01 491.97,411.91 493.14,410.81 494.31,409.72 495.47,408.63 496.64,407.54 497.80,406.46 498.97,405.39 500.14,404.32 501.30,403.25 502.47,402.19 503.63,401.14 504.80,400.10 505.97,399.06 507.13,398.03 508.30,397.02 509.46,396.00 510.63,395.00 511.80,394.01 512.96,393.03 514.13,392.06 515.29,391.10 516.46,390.15 517.62,389.22 518.79,388.29 519.96,387.38 521.12,386.48 522.29,385.60 523.45,384.73 524.62,383.88 525.79,383.03 526.95,382.21 528.12,381.40 529.28,380.61 530.45,379.83 531.62,379.07 532.78,378.32 533.95,377.60 535.11,376.89 536.28,376.20 537.45,375.53 538.61,374.88 539.78,374.24 540.94,373.63 542.11,373.03 543.27,372.46 544.44,371.90 545.61,371.36 546.77,370.85 547.94,370.36 549.10,369.88 550.27,369.43 551.44,369.00 552.60,368.60 553.77,368.21 554.93,367.85 556.10,367.51 557.27,367.18 558.43,366.89 559.60,366.61 560.76,366.37 561.93,366.13 563.09,365.94 564.26,365.75 565.43,365.60 566.59,365.45 567.76,365.35 568.92,365.25 570.09,365.19 571.26,365.14 572.42,365.13 573.59,365.13 574.75,365.17 575.92,365.21 577.09,365.29 578.25,365.38 579.42,365.51 580.58,365.65 581.75,365.82 582.92,366.00 584.08,366.23 585.25,366.45 586.41,366.72 587.58,366.99 588.74,367.30 589.91,367.62 591.08,367.97 592.24,368.33 593.41,368.73 594.57,369.13 595.74,369.57 596.91,370.02 598.07,370.49 599.24,370.99 600.40,371.50 601.57,372.03 602.74,372.59 603.90,373.16 605.07,373.75 606.23,374.36 607.40,374.99 608.57,375.63 609.73,376.30 610.90,376.98 612.06,377.67 613.23,378.39 614.39,379.12 615.56,379.87 616.73,380.63 617.89,381.41 619.06,382.20 620.22,383.02 621.39,383.83 622.56,384.68 623.72,385.52 624.89,386.39 626.05,387.26 627.22,388.15 628.39,389.05 629.55,389.97 630.72,390.89 631.88,391.82 633.05,392.76 634.22,393.72 635.38,394.68 636.55,395.66 637.71,396.64 638.88,397.64 640.04,398.63 641.21,399.64 642.38,400.65 643.54,401.68 644.71,402.70 645.87,403.74 647.04,404.78 648.21,405.82 649.37,406.87 650.54,407.93 651.70,408.98 652.87,410.05 654.04,411.11 655.20,412.18 656.37,413.25 657.53,414.33 658.70,415.40 659.87,416.48 661.03,417.56 662.20,418.63 663.36,419.71 664.53,420.79 665.69,421.87 666.86,422.95 668.03,424.03 669.19,425.10 670.36,426.18 671.52,427.25 672.69,428.32 673.86,429.39 675.02,430.46 676.19,431.52 ' style='stroke-width: 1.07; stroke-linecap: butt;' />
<line x1='370.00' y1='527.14' x2='370.00' y2='11.90' style='stroke-width: 1.07; stroke-dasharray: 5.69,5.69; stroke-linecap: butt;' />
</g>
<g clip-path='url(#cpMC4wMHw3MjAuMDB8MC4wMHw1NzYuMDA=)'>
<text x='40.81' y='510.18' text-anchor='end' style='font-size: 18.00px;fill: #4D4D4D; font-family: "Arial";' textLength='10.01px' lengthAdjust='spacingAndGlyphs'>0</text>
<text x='40.81' y='399.32' text-anchor='end' style='font-size: 18.00px;fill: #4D4D4D; font-family: "Arial";' textLength='10.01px' lengthAdjust='spacingAndGlyphs'>1</text>
<text x='40.81' y='288.47' text-anchor='end' style='font-size: 18.00px;fill: #4D4D4D; font-family: "Arial";' textLength='10.01px' lengthAdjust='spacingAndGlyphs'>2</text>
<text x='40.81' y='177.61' text-anchor='end' style='font-size: 18.00px;fill: #4D4D4D; font-family: "Arial";' textLength='10.01px' lengthAdjust='spacingAndGlyphs'>3</text>
<text x='40.81' y='66.76' text-anchor='end' style='font-size: 18.00px;fill: #4D4D4D; font-family: "Arial";' textLength='10.01px' lengthAdjust='spacingAndGlyphs'>4</text>
<text x='86.27' y='544.99' text-anchor='middle' style='font-size: 18.00px;fill: #4D4D4D; font-family: "Arial";' textLength='25.02px' lengthAdjust='spacingAndGlyphs'>3.2</text>
<text x='248.40' y='544.99' text-anchor='middle' style='font-size: 18.00px;fill: #4D4D4D; font-family: "Arial";' textLength='25.02px' lengthAdjust='spacingAndGlyphs'>3.6</text>
<text x='410.53' y='544.99' text-anchor='middle' style='font-size: 18.00px;fill: #4D4D4D; font-family: "Arial";' textLength='25.02px' lengthAdjust='spacingAndGlyphs'>4.0</text>
<text x='572.66' y='544.99' text-anchor='middle' style='font-size: 18.00px;fill: #4D4D4D; font-family: "Arial";' textLength='25.02px' lengthAdjust='spacingAndGlyphs'>4.4</text>
<text x='380.13' y='566.10' text-anchor='middle' style='font-size: 20.00px; font-weight: bold; font-family: "Arial";' textLength='108.87px' lengthAdjust='spacingAndGlyphs'>log (length)</text>
<text transform='translate(22.75,269.52) rotate(-90)' text-anchor='middle' style='font-size: 24.00px; font-weight: bold; font-family: "Arial";' textLength='86.70px' lengthAdjust='spacingAndGlyphs'>Density</text>
<text x='380.13' y='6.20' text-anchor='middle' style='font-size: 0.00px; font-weight: bold; font-family: "Arial";' textLength='13.47px' lengthAdjust='spacingAndGlyphs'>Plasmids length distribution</text>
</g>
</svg>
