GCF_022846335.1_ASM2284633v1,.,NZ_AP025617.1,89
GCF_022674245.1_ASM2267424v1,.,NZ_CP080467.1,1082
GCF_022318385.1_ASM2231838v1,.,NZ_CP090881.1,620
GCF_025145845.1_ASM2514584v1,.,NZ_CP102253.1,321
GCF_025232655.1_ASM2523265v1,.,NZ_CP012250.1,324
GCF_022871085.1_ASM2287108v1,.,NZ_CP095020.1,5
GCF_022691665.1_ASM2269166v1,.,NZ_CP093554.1,2
GCF_023703815.1_ASM2370381v1,.,NZ_CP077805.1,116
GCF_905331365.1_AI3013v2_cpp,.,NZ_OW968417.1,170
GCF_022924495.1_ASM2292449v1,.,NZ_CP094139.1,574
GCF_024401155.1_ASM2440115v1,.,NZ_CP038804.1,600
GCF_022870725.1_ASM2287072v1,.,NZ_CP074348.1,93
GCF_023822665.1_ASM2382266v1,.,NZ_CP097846.1,11
GCF_018588605.2_ASM1858860v2,.,NZ_CP094386.1,37
GCF_021484865.1_ASM2148486v1,.,NZ_CP090575.1,287
GCF_022023995.1_ASM2202399v1,.,NZ_CP072790.1,236
GCF_024054255.2_ASM2405425v2,.,NZ_CP102714.1,43
GCF_022570475.1_ASM2257047v1,.,NZ_CP093032.1,54
GCF_022318505.1_ASM2231850v1,.,NZ_CP090887.1,1469
GCF_022370755.2_ASM2237075v2,.,NZ_CP092364.2,6
GCF_019704155.2_ASM1970415v2,.,NZ_AP024504.2,136
GCF_023330585.1_ASM2333058v1,.,NZ_CP097108.1,469
GCF_023300045.1_ASM2330004v1,.,NZ_CP097072.1,19
GCF_022922915.1_ASM2292291v1,.,NZ_CP094099.1,382
GCF_022846315.1_ASM2284631v1,.,NZ_AP025613.1,111
GCF_022695635.1_ASM2269563v1,.,NZ_CP063844.1,992
GCF_022220605.1_ASM2222060v1,.,NZ_CP076151.1,378
GCF_022317005.1_ASM2231700v1,.,NZ_CP081006.1,22
GCF_022569995.1_ASM2256999v1,.,NZ_CP093021.1,935
GCF_023572885.1_ASM2357288v1,.,NZ_CP097605.1,300
GCF_020172765.2_ASM2017276v2,.,NZ_CP083461.2,24
GCF_025146775.1_ASM2514677v1,.,NZ_CP102259.1,76
GCF_021398345.1_ASM2139834v1,.,NZ_CP071994.1,341
GCF_018588665.2_ASM1858866v2,.,NZ_CP094381.1,624
GCF_025148285.1_ASM2514828v1,.,NZ_CP102268.1,120
GCF_021496035.1_ASM2149603v1,.,NZ_CP090915.1,379
GCF_025151995.1_ASM2515199v1,.,NZ_CP102290.1,99
GCF_021459885.1_ASM2145988v1,.,NZ_CP090513.1,1
GCF_022069905.1_ASM2206990v1,.,NZ_CP035251.1,4
GCF_020002335.2_ASM2000233v2,.,NZ_CP091078.1,743
GCF_020002335.2_ASM2000233v2,.,NZ_CP091079.1,1
GCF_025232615.1_ASM2523261v1,.,NZ_CP012244.1,385
GCF_024206735.1_ASM2420673v1,.,NZ_CP100330.1,59
GCF_023572905.1_ASM2357290v1,.,NZ_CP097608.1,144
GCF_024400855.1_ASM2440085v1,.,NZ_CP038802.1,53
GCF_022220585.1_ASM2222058v1,.,NZ_CP076148.1,272
GCF_022871105.1_ASM2287110v1,.,NZ_CP095021.1,2
GCF_022220505.1_ASM2222050v1,.,NZ_CP076138.1,462
GCF_020641365.2_ASM2064136v2,.,NZ_CP104324.1,2825
GCF_905331265.2_AI2999v1_cpp,.,NZ_OW968328.1,183
GCF_021513375.1_ASM2151337v1,.,NZ_CP069323.1,315
GCF_022592155.1_ASM2259215v1,.,NZ_CP093239.1,83
GCF_025146135.1_ASM2514613v1,.,NZ_CP102255.1,711
GCF_022869765.1_ASM2286976v1,.,NZ_CP094998.1,4
GCF_024225115.1_ASM2422511v1,.,NZ_CP100497.1,245
GCF_022220925.1_ASM2222092v1,.,NZ_CP076164.1,378
GCF_002844715.2_ASM284471v2,.,NZ_CP092197.1,54
GCF_023374275.1_ASM2337427v1,.,NZ_CP097255.1,2
GCF_023612255.1_ASM2361225v1,.,NZ_CP063231.1,272
GCF_023734115.1_ASM2373411v1,.,NZ_AP025737.1,30
GCF_022221185.1_ASM2222118v1,.,NZ_CP076201.1,79
GCF_022221065.1_ASM2222106v1,.,NZ_CP076184.1,378
GCF_021513075.1_ASM2151307v1,.,NZ_CP090985.1,280
GCF_025232555.1_ASM2523255v1,.,NZ_CP012241.1,324
GCF_024734235.1_ASM2473423v1,.,NZ_CP102893.1,331
GCF_023573125.1_ASM2357312v1,.,NZ_CP097622.1,144
GCF_025311475.1_ASM2531147v1,.,NZ_CP104397.1,471
GCF_022924435.1_ASM2292443v1,.,NZ_CP094136.1,387
GCF_020641395.2_ASM2064139v2,.,NZ_CP104290.1,3918
GCF_022220405.1_ASM2222040v1,.,NZ_CP092042.1,167
GCF_022220405.1_ASM2222040v1,.,NZ_CP092044.1,106
GCF_025149915.1_ASM2514991v1,.,NZ_CP102278.1,102
GCF_024722515.1_ASM2472251v1,.,NZ_CP102778.1,77
GCF_022819325.1_ASM2281932v1,.,NZ_CP079858.1,112
GCF_021513095.1_ASM2151309v1,.,NZ_CP090998.1,7
GCF_020641075.2_ASM2064107v2,.,NZ_CP104286.1,126
GCF_022220685.1_ASM2222068v1,.,NZ_CP076728.1,380
GCF_022349985.1_ASM2234998v1,.,NZ_CP092251.1,5198
GCF_022923055.1_ASM2292305v1,.,NZ_CP094107.1,69
GCF_024758745.1_ASM2475874v1,.,NZ_CP097163.1,630
GCF_021918005.1_ASM2191800v1,.,NZ_CP089515.1,205
GCF_025232495.1_ASM2523249v1,.,NZ_CP012237.1,1355
GCF_022845815.1_ASM2284581v1,.,NZ_AP025569.1,3
GCF_022832855.1_ASM2283285v1,.,NZ_CP094844.1,83
GCF_021919345.1_ASM2191934v1,.,NZ_CP089293.1,93
GCF_024206675.1_ASM2420667v1,.,NZ_CP100336.1,59
GCF_024086695.1_ASM2408669v1,.,NZ_CP074347.1,1913
GCF_025232595.1_ASM2523259v1,.,NZ_CP012243.1,385
GCF_905338025.2_AN2363v1_cp,.,NZ_OW969781.1,483
GCF_022220525.1_ASM2222052v1,.,NZ_CP076141.1,258
GCF_021903635.1_ASM2190363v1,.,NZ_CP091381.1,18
GCF_025149465.1_ASM2514946v1,.,NZ_CP102275.1,258
GCF_905329885.2_AI2826v1_cpp,.,NZ_OW967263.1,57
GCF_023375175.1_ASM2337517v1,.,NZ_CP088187.1,157
GCF_024612035.1_ASM2461203v1,.,NZ_CP102513.1,63
GCF_021513055.1_ASM2151305v1,.,NZ_CP090989.1,415
GCF_022220645.1_ASM2222064v1,.,NZ_CP076157.1,378
GCF_025232235.1_ASM2523223v1,.,NZ_CP012228.1,1345
GCF_022923015.1_ASM2292301v1,.,NZ_CP094105.1,54
GCF_022318465.1_ASM2231846v1,.,NZ_CP090885.1,1424
GCF_023205955.1_ASM2320595v1,.,NZ_CP064042.1,28
GCF_025311455.1_ASM2531145v1,.,NZ_CP104396.1,387
GCF_022537925.1_ASM2253792v1,.,NZ_CP092389.1,1330
GCF_024918215.1_ASM2491821v1,.,NZ_CP103679.1,8
GCF_023651955.1_ASM2365195v1,.,NZ_CP069594.1,1093
GCF_022318525.1_ASM2231852v1,.,NZ_CP090888.1,179
GCF_022922515.1_ASM2292251v1,.,NZ_CP094095.1,390
GCF_023573565.1_ASM2357356v1,.,NZ_CP097649.1,45
GCF_022221205.1_ASM2222120v1,.,NZ_CP076204.1,88
GCF_025146415.1_ASM2514641v1,.,NZ_CP102257.1,106
GCF_024612015.1_ASM2461201v1,.,NZ_CP102512.1,393
GCF_002844755.2_ASM284475v2,.,NZ_CP092199.1,54
GCF_024800705.1_ASM2480070v1,.,NZ_CP103399.1,420
GCF_025349945.1_ASM2534994v1,.,NZ_CP104450.1,394
GCF_022069205.1_ASM2206920v1,.,NZ_CP035243.1,440
GCF_025232205.1_ASM2523220v1,.,NZ_CP012227.1,1013
GCF_024206795.1_ASM2420679v1,.,NZ_CP072994.1,30
GCF_014779555.2_ASM1477955v2,.,NZ_CP094357.1,97
GCF_022592395.1_ASM2259239v1,.,NZ_CP093242.1,100
GCF_025232275.1_ASM2523227v1,.,NZ_CP012230.1,324
GCF_022591895.1_ASM2259189v1,.,NZ_CP093249.1,47
GCF_022921755.1_ASM2292175v1,.,NZ_CP094067.1,18
GCF_903815225.1_hybrid_BB1455,.,NZ_LR813084.1,269
GCF_025232535.1_ASM2523253v1,.,NZ_CP012239.1,617
GCF_023347355.1_ASM2334735v1,.,NZ_CP094472.1,5520
GCF_024224355.1_ASM2422435v1,.,NZ_CP100482.1,44
GCF_022921895.1_ASM2292189v1,.,NZ_CP094079.1,25
GCF_024400725.1_ASM2440072v1,.,NZ_CP038801.1,1
GCF_022879575.1_ASM2287957v1,.,NZ_CP084260.1,180
GCF_021513535.1_ASM2151353v1,.,NZ_CP069331.1,112
GCF_023205595.1_ASM2320559v1,.,NZ_CP050930.1,46
GCF_022221105.1_ASM2222110v1,.,NZ_CP076190.1,964
GCF_022170825.1_ASM2217082v1,.,NZ_CP081878.1,1174
GCF_905329555.2_AI2744v1_cpp,.,NZ_OW967518.1,107
GCF_905322525.2_AI2623v1_cpp,.,NZ_OW967374.1,59
GCF_022869105.1_ASM2286910v1,.,NZ_CP094918.1,45
GCF_021496015.1_ASM2149601v1,.,NZ_CP090912.1,345
GCF_023206795.1_ASM2320679v1,.,NZ_CP075146.1,750
GCF_025232515.1_ASM2523251v1,.,NZ_CP012957.1,385
GCF_025232355.1_ASM2523235v1,.,NZ_CP012235.1,5
GCF_023699965.1_ASM2369996v1,.,NZ_CP077072.1,211
GCF_022648965.1_ASM2264896v1,.,NZ_CP093376.1,649
GCF_024206715.1_ASM2420671v1,.,NZ_CP100328.1,59
GCF_021513115.1_ASM2151311v1,.,NZ_CP090993.1,860
GCF_022879595.1_ASM2287959v1,.,NZ_CP084265.1,58
GCF_023920105.1_ASM2392010v1,.,NZ_CP083693.1,252
GCF_015265495.1_ASM1526549v2,.,NZ_CP063804.1,80
GCF_025232315.1_ASM2523231v1,.,NZ_CP012233.1,324
GCF_023823085.1_ASM2382308v1,.,NZ_CP084581.1,307
GCF_932530395.1_mada_104,.,NZ_OW052570.1,99
GCF_025232575.1_ASM2523257v1,.,NZ_CP012242.1,1865
GCF_024704525.1_ASM2470452v1,.,NZ_CP102780.1,26
GCF_022318405.1_ASM2231840v1,.,NZ_CP090882.1,1558
GCF_020641355.2_ASM2064135v2,.,NZ_CP104292.1,283
GCF_905338045.2_AI3057v1_cp,.,NZ_OW969904.1,138
GCF_905338045.2_AI3057v1_cp,.,NZ_OW969905.1,49
GCF_021733585.2_ASM2173358v3,.,NZ_CP090954.2,181
GCF_024205865.1_ASM2420586v1,.,NZ_CP073801.1,3
GCF_022845935.1_ASM2284593v1,.,NZ_AP025575.1,18
GCF_022014735.1_ASM2201473v1,.,NZ_CP091781.1,397
GCF_022870785.1_ASM2287078v1,.,NZ_CP087111.1,575
GCF_024804185.1_ASM2480418v1,.,NZ_CP101657.1,50
GCF_022591735.1_ASM2259173v1,.,NZ_CP093260.1,408
GCF_023573085.1_ASM2357308v1,.,NZ_CP097612.1,119
GCF_022318445.1_ASM2231844v1,.,NZ_CP090884.1,721
GCF_022179545.1_ASM2217954v1,.,NZ_AP025518.1,1151
GCF_022846335.1_ASM2284633v1,.,NZ_AP025617.1,89
GCF_023375285.1_ASM2337528v1,.,NZ_CP088203.1,204
GCF_905333885.2_AI2918v1_cp,.,NZ_OW969659.1,65
GCF_025215645.1_ASM2521564v1,.,NZ_CP012215.1,324
GCF_022318485.1_ASM2231848v1,.,NZ_CP090886.1,506
GCF_021496075.1_ASM2149607v1,.,NZ_CP090922.1,216
GCF_025151535.1_ASM2515153v1,.,NZ_CP102288.1,76
GCF_022879615.1_ASM2287961v1,.,NZ_CP084271.1,54
GCF_024346605.1_ASM2434660v1,.,NZ_CP098804.1,3
