GCF_015074905.1_ASM1507490v1,bin_component_3,NZ_CP063299.1,127
GCF_015074905.1_ASM1507490v1,bin_component_4,NZ_CP063300.1,127
GCF_015074905.1_ASM1507490v1,bin_component_2,NZ_CP063298.1,127
GCF_022655705.1_ASM2265570v1,bin_component_0,NZ_CP093393.1,77
GCF_021397675.1_ASM2139767v1,bin_component_1,NZ_CP090136.1,127
GCF_015159575.1_ASM1515957v1,bin_component_0,NZ_CP063331.1,127
GCF_001831555.2_ASM183155v2,bin_component_0,NZ_CP075140.1,77
GCF_001831555.2_ASM183155v2,bin_component_2,NZ_CP075140.1,231
GCF_001831985.2_ASM183198v2,bin_component_1,NZ_CP075136.1,41
GCF_001831985.2_ASM183198v2,bin_component_0,NZ_CP075135.1,165
GCF_016454265.1_ASM1645426v1,bin_component_0,NZ_CP051361.1,127
GCF_016454545.1_ASM1645454v1,bin_component_3,NZ_CP051399.1,127
GCF_016454545.1_ASM1645454v1,bin_component_4,NZ_CP051401.1,127
GCF_013415925.1_ASM1341592v1,bin_component_0,NZ_CP058810.1,254
GCF_013415925.1_ASM1341592v1,bin_component_0,NZ_CP058809.1,8
GCF_013415925.1_ASM1341592v1,bin_component_0,NZ_CP058811.1,247
GCF_022533545.1_ASM2253354v1,bin_component_0,NZ_CP092862.1,901
GCF_022533545.1_ASM2253354v1,bin_component_0,NZ_CP092861.1,230
GCF_016454425.1_ASM1645442v1,bin_component_1,NZ_CP051384.1,126
GCF_016454425.1_ASM1645442v1,bin_component_0,NZ_CP051385.1,245
GCF_019670285.1_ASM1967028v1,bin_component_0,NZ_AP023301.1,762
GCF_019670285.1_ASM1967028v1,bin_component_0,NZ_AP023302.1,127
GCF_019670385.1_ASM1967038v1,bin_component_0,NZ_AP023312.1,508
GCF_019670385.1_ASM1967038v1,bin_component_0,NZ_AP023311.1,127
GCF_003067925.2_ASM306792v2,bin_component_1,NZ_CP077699.1,762
GCF_003067925.2_ASM306792v2,bin_component_2,NZ_CP077701.1,127
GCF_003067765.2_ASM306776v2,bin_component_1,NZ_CP077698.1,127
GCF_016451985.1_ASM1645198v1,bin_component_0,NZ_CP051309.1,127
GCF_003068145.2_ASM306814v2,bin_component_3,NZ_CP077710.1,127
GCF_001756025.2_ASM175602v2,bin_component_2,NZ_CP074663.1,254
GCF_016028495.1_ASM1602849v1,bin_component_1,NZ_CP065718.1,77
GCF_016028495.1_ASM1602849v1,bin_component_0,NZ_CP065719.1,59
GCF_016028495.1_ASM1602849v1,bin_component_2,NZ_CP065718.1,224
GCF_019670345.1_ASM1967034v1,bin_component_0,NZ_AP023307.1,889
GCF_019670345.1_ASM1967034v1,bin_component_0,NZ_AP023308.1,127
GCF_001972545.2_ASM197254v2,bin_component_0,NZ_CP075119.1,7
GCF_016025415.1_ASM1602541v1,bin_component_1,NZ_CP065570.1,127
GCF_016025415.1_ASM1602541v1,bin_component_0,NZ_CP065568.1,889
GCF_016025415.1_ASM1602541v1,bin_component_2,NZ_CP065571.1,127
GCF_013161805.1_ASM1316180v1,bin_component_0,NZ_CP053576.1,92
GCF_022162985.1_ASM2216298v1,bin_component_0,NZ_CP091879.1,55
GCF_019670465.1_ASM1967046v1,bin_component_0,NZ_AP023319.1,1417
GCF_021397625.1_ASM2139762v1,bin_component_0,NZ_CP090138.1,1518
GCF_022936425.1_ASM2293642v1,bin_component_1,NZ_CP092011.1,77
GCF_001832255.2_ASM183225v2,bin_component_1,NZ_CP075128.1,77
GCF_001832255.2_ASM183225v2,bin_component_0,NZ_CP075128.1,717
GCF_015240855.1_ASM1524085v1,bin_component_1,NZ_CP063704.1,127
GCF_013162165.1_ASM1316216v1,bin_component_4,NZ_CP053582.1,110
GCF_013162165.1_ASM1316216v1,bin_component_0,NZ_CP053582.1,1083
GCF_016454665.1_ASM1645466v1,bin_component_1,NZ_CP051415.1,127
GCF_016454665.1_ASM1645466v1,bin_component_0,NZ_CP051414.1,127
GCF_003068025.2_ASM306802v2,bin_component_1,NZ_CP077708.1,127
GCF_003068025.2_ASM306802v2,bin_component_3,NZ_CP077706.1,254
GCF_003068025.2_ASM306802v2,bin_component_0,NZ_CP077707.1,254
GCF_003068025.2_ASM306802v2,bin_component_2,NZ_CP077709.1,127
GCF_014334175.1_ASM1433417v1,bin_component_2,NZ_CP060508.1,1323
GCF_001834965.2_ASM183496v2,bin_component_0,NZ_CP075126.1,154
GCF_001834965.2_ASM183496v2,bin_component_2,NZ_CP075125.1,154
GCF_016452165.1_ASM1645216v1,bin_component_1,NZ_CP053052.1,750
GCF_016452165.1_ASM1645216v1,bin_component_1,NZ_CP053053.1,242
GCF_016452165.1_ASM1645216v1,bin_component_2,NZ_CP054466.1,127
GCF_016454525.1_ASM1645452v1,bin_component_0,NZ_CP051396.1,254
GCF_022936385.1_ASM2293638v1,bin_component_0,NZ_CP092005.1,77
GCF_016889645.1_ASM1688964v1,bin_component_0,NZ_CP069519.1,77
GCF_022870605.1_ASM2287060v1,bin_component_1,NZ_CP058674.1,77
GCF_022870605.1_ASM2287060v1,bin_component_0,NZ_CP058672.1,943
GCF_022870605.1_ASM2287060v1,bin_component_0,NZ_CP058671.1,77
GCF_022870605.1_ASM2287060v1,bin_component_0,NZ_CP058673.1,229
GCF_001831915.2_ASM183191v2,bin_component_0,NZ_CP075137.1,211
GCF_016454705.1_ASM1645470v1,bin_component_0,NZ_CP051417.1,254
GCF_022655645.1_ASM2265564v1,bin_component_1,NZ_CP093386.1,77
GCF_022655645.1_ASM2265564v1,bin_component_2,NZ_CP093388.1,77
GCF_016452065.1_ASM1645206v1,bin_component_0,NZ_CP051319.1,508
GCF_016452065.1_ASM1645206v1,bin_component_0,NZ_CP051318.1,381
GCF_001833255.2_ASM183325v2,bin_component_1,NZ_CP075130.1,154
GCF_001833255.2_ASM183325v2,bin_component_1,NZ_CP075131.1,41
GCF_001833255.2_ASM183325v2,bin_component_0,NZ_CP075129.1,319
GCF_021397645.1_ASM2139764v1,bin_component_1,NZ_CP090142.1,121
GCF_021397645.1_ASM2139764v1,bin_component_2,NZ_CP090144.1,127
GCF_003064405.2_ASM306440v2,bin_component_3,NZ_CP077693.1,127
GCF_003064405.2_ASM306440v2,bin_component_0,NZ_CP077695.1,127
GCF_003064405.2_ASM306440v2,bin_component_2,NZ_CP077693.1,127
GCF_015074885.1_ASM1507488v1,bin_component_3,NZ_CP063293.1,127
GCF_015074885.1_ASM1507488v1,bin_component_2,NZ_CP063292.1,127
GCF_016454225.1_ASM1645422v1,bin_component_1,NZ_CP051355.1,127
GCF_016454225.1_ASM1645422v1,bin_component_0,NZ_CP051354.1,25
GCF_016454225.1_ASM1645422v1,bin_component_2,NZ_CP051353.1,254
GCF_003067445.2_ASM306744v2,bin_component_1,NZ_CP077704.1,381
GCF_003067445.2_ASM306744v2,bin_component_0,NZ_CP077705.1,127
GCF_016454345.1_ASM1645434v1,bin_component_1,NZ_CP051375.1,127
GCF_016454345.1_ASM1645434v1,bin_component_0,NZ_CP051373.1,259
GCF_020736305.1_ASM2073630v1,bin_component_0,NZ_CP085984.1,9
GCF_016454725.1_ASM1645472v1,bin_component_1,NZ_CP051424.1,27
GCF_016454725.1_ASM1645472v1,bin_component_3,NZ_CP051419.1,127
GCF_016454725.1_ASM1645472v1,bin_component_4,NZ_CP051423.1,127
GCF_016454725.1_ASM1645472v1,bin_component_5,NZ_CP051422.1,127
GCF_016454445.1_ASM1645444v1,bin_component_0,NZ_CP051387.1,259
GCF_001833225.2_ASM183322v2,bin_component_0,NZ_CP075134.1,599
GCF_016454365.1_ASM1645436v1,bin_component_1,NZ_CP051378.1,127
GCF_016454365.1_ASM1645436v1,bin_component_0,NZ_CP051379.1,127
GCF_022936365.1_ASM2293636v1,bin_component_1,NZ_CP092002.1,77
GCF_022936365.1_ASM2293636v1,bin_component_0,NZ_CP092001.1,77
GCF_022936365.1_ASM2293636v1,bin_component_2,NZ_CP092003.1,77
GCF_001833305.2_ASM183330v2,bin_component_0,NZ_CP075127.1,344
GCF_013348865.1_ASM1334886v1,bin_component_1,NZ_CP054715.1,381
GCF_013348865.1_ASM1334886v1,bin_component_0,NZ_CP054718.1,29655
GCF_013348865.1_ASM1334886v1,bin_component_0,NZ_CP054717.1,381
GCF_013348865.1_ASM1334886v1,bin_component_0,NZ_CP054716.1,2
GCF_016025435.1_ASM1602543v1,bin_component_1,NZ_CP065572.1,127
GCF_016127835.1_ASM1612783v1,bin_component_1,NZ_CP066047.1,77
GCF_016127835.1_ASM1612783v1,bin_component_0,NZ_CP066048.1,77
GCF_014334255.1_ASM1433425v1,bin_component_4,NZ_CP060525.1,127
GCF_014334255.1_ASM1433425v1,bin_component_0,NZ_CP060524.1,127
GCF_018340585.1_ASM1834058v1,bin_component_0,NZ_CP073716.1,77
GCF_014334235.1_ASM1433423v1,bin_component_0,NZ_CP060519.1,254
GCF_014334235.1_ASM1433423v1,bin_component_2,NZ_CP060521.1,127
GCF_015240995.1_ASM1524099v1,bin_component_0,NZ_CP063706.1,191
GCF_014858565.1_ASM1485856v1,bin_component_0,NZ_CP062227.1,127
GCF_019670245.1_ASM1967024v1,bin_component_1,NZ_AP023297.1,77
GCF_019670245.1_ASM1967024v1,bin_component_2,NZ_AP023298.1,77
GCF_006461325.2_ASM646132v2,bin_component_0,NZ_CP069166.1,616
GCF_016026715.1_ASM1602671v1,bin_component_1,NZ_CP065639.1,224
GCF_014250355.1_ASM1425035v1,bin_component_1,NZ_CP060169.1,308
GCF_014250355.1_ASM1425035v1,bin_component_3,NZ_CP060171.1,77
GCF_020736345.1_ASM2073634v1,bin_component_0,NZ_CP085987.1,127
GCF_016127435.1_ASM1612743v1,bin_component_1,NZ_CP066008.1,77
GCF_016025375.1_ASM1602537v1,bin_component_0,NZ_CP065565.1,127
GCF_001973785.2_ASM197378v2,bin_component_0,NZ_CP075123.1,6
