"species","isolate_count"
"Acinetobacter baumannii",358
"Campylobacter jejuni",242
"Clostridioides difficile",100
"Enterococcus faecalis",99
"Klebsiella pneumoniae",1090
"Listeria monocytogenes",274
"Neisseria meningitidis",123
"Pseudomonas aeruginosa",439
"Salmonella enterica",1078
"Staphylococcus aureus",800
"Streptococcus agalactiae",91
"Streptococcus pneumoniae",133
"Streptococcus pyogenes",249
