GCF_021398505.1,assembly,7
GCF_016406385.1,assembly,24
GCF_907176135.1,assembly,19
GCF_016406585.1,assembly,23
GCF_907177285.1,assembly,20
GCF_028335245.1,assembly,10
GCF_009938285.1,assembly,18
GCF_016415445.1,assembly,23
GCF_026409165.1,assembly,21
GCF_028335565.1,assembly,12
GCF_016415365.1,assembly,23
GCF_023375225.1,assembly,7
GCF_028335465.1,assembly,14
GCF_016406605.1,assembly,27
GCF_016126675.1,assembly,21
GCF_016415405.1,assembly,20
GCF_023375345.1,assembly,9
GCF_016406485.1,assembly,29
GCF_023375425.1,assembly,6
GCF_016406525.1,assembly,25
GCF_023299725.1,assembly,15
GCF_019977495.1,assembly,20
GCF_907176815.1,assembly,18
GCF_028335525.1,assembly,4
GCF_019175445.1,assembly,10
GCF_016415505.1,assembly,28
GCF_016406425.1,assembly,19
GCF_016415485.1,assembly,19
GCF_023299805.1,assembly,10
GCF_028335585.1,assembly,20
GCF_020162155.1,assembly,19
GCF_019977575.1,assembly,22
GCF_023375445.1,assembly,8
GCF_015476295.1,assembly,17
GCF_016415565.1,assembly,18
GCF_016406545.1,assembly,23
GCF_016415425.1,assembly,22
GCF_022647945.1,assembly,24
GCF_019456595.1,assembly,8
GCF_016415545.1,assembly,17
GCF_016406445.1,assembly,20
GCF_028335625.1,assembly,12
GCF_907165365.1,assembly,20
GCF_023375385.1,assembly,12
GCF_016415465.1,assembly,22
GCF_016415325.1,assembly,24
GCF_021228615.1,assembly,23
GCF_015325925.1,assembly,20
GCF_016406565.1,assembly,22
GCF_028335225.1,assembly,10
GCF_016406365.1,assembly,22
GCF_016406505.1,assembly,28
GCF_028335265.1,assembly,9
GCF_023375365.1,assembly,8
GCF_028335485.1,assembly,12
GCF_020162175.1,assembly,19
GCF_016406345.1,assembly,22
GCF_019175465.1,assembly,10
GCF_023375205.1,assembly,10
GCF_022648125.1,assembly,24
GCF_019456555.1,assembly,8
GCF_019456575.1,assembly,8
GCF_016406405.1,assembly,29
GCF_028335605.1,assembly,12
GCF_015999605.1,assembly,22
GCF_017584065.1,assembly,14
GCF_019175425.1,assembly,10
GCF_016406465.1,assembly,24
GCF_015999405.1,assembly,18
GCF_022647825.1,assembly,24
GCF_023375405.1,assembly,11
GCF_015999425.1,assembly,12
GCF_023299745.1,assembly,24
GCF_019175525.1,assembly,8
GCF_028335205.1,assembly,9
GCF_023299325.1,assembly,15
GCF_016415385.1,assembly,23
