GCF_013731735.1_ASM1373173v1,bin_component_0,NZ_CP056309.1,154
GCF_013731735.1_ASM1373173v1,bin_component_0,NZ_CP056310.1,154
GCF_013731735.1_ASM1373173v1,bin_component_0,NZ_CP056311.1,153
GCF_013731735.1_ASM1373173v1,bin_component_0,NZ_CP056307.1,847
GCF_021497265.1_ASM2149726v1,bin_component_0,NZ_CP053864.1,77
GCF_016904275.1_ASM1690427v1,bin_component_1,NZ_CP070085.1,77
GCF_016904275.1_ASM1690427v1,bin_component_0,NZ_CP070083.1,385
GCF_016904275.1_ASM1690427v1,bin_component_0,NZ_CP070087.1,130
GCF_016904275.1_ASM1690427v1,bin_component_0,NZ_CP070084.1,154
GCF_016903495.1_ASM1690349v1,bin_component_0,NZ_CP069941.1,308
GCF_016903495.1_ASM1690349v1,bin_component_2,NZ_CP069940.1,77
GCF_013724605.1_ASM1372460v1,bin_component_1,NZ_CP056227.1,77
GCF_013724605.1_ASM1372460v1,bin_component_0,NZ_CP056226.1,231
GCF_013724605.1_ASM1372460v1,bin_component_0,NZ_CP056225.1,231
GCF_013724605.1_ASM1372460v1,bin_component_0,NZ_CP056223.1,154
GCF_013724605.1_ASM1372460v1,bin_component_0,NZ_CP056222.1,77
GCF_904863055.1_INF022,bin_component_0,NZ_LR890210.1,165
GCF_904863055.1_INF022,bin_component_0,NZ_LR890211.1,55
GCF_001185665.2_ASM118566v3,bin_component_0,NZ_CP073055.1,110
GCF_001185665.2_ASM118566v3,bin_component_2,NZ_CP073059.1,55
GCF_904866335.1_INF266,bin_component_0,NZ_LR890650.1,220
GCF_013729075.1_ASM1372907v1,bin_component_1,NZ_CP056275.1,77
GCF_013729075.1_ASM1372907v1,bin_component_0,NZ_CP056276.1,154
GCF_013729075.1_ASM1372907v1,bin_component_0,NZ_CP056277.1,154
GCF_016903775.1_ASM1690377v1,bin_component_1,NZ_CP069962.1,693
GCF_904863275.1_INF188,bin_component_1,NZ_LR890311.1,55
GCF_904863115.1_INF329,bin_component_1,NZ_LR890242.1,55
GCF_904863115.1_INF329,bin_component_0,NZ_LR890240.1,55
GCF_904866445.1_INF305,bin_component_0,NZ_LR890703.1,110
GCF_904866445.1_INF305,bin_component_0,NZ_LR890704.1,217
GCF_904866445.1_INF305,bin_component_0,NZ_LR890707.1,110
GCF_904866445.1_INF305,bin_component_2,NZ_LR890709.1,55
GCF_904863335.1_KSB1_5B,bin_component_0,NZ_LR890354.1,90
GCF_904863335.1_KSB1_5B,bin_component_0,NZ_LR890355.1,452
GCF_022369815.1_ASM2236981v1,bin_component_1,NZ_CP070894.1,77
GCF_022369815.1_ASM2236981v1,bin_component_0,NZ_CP070893.1,385
GCF_904866415.1_INF201,bin_component_0,NZ_LR890688.1,55
GCF_013796485.1_ASM1379648v1,bin_component_1,NZ_CP056886.1,77
GCF_013796485.1_ASM1379648v1,bin_component_0,NZ_CP056885.1,154
GCF_013796485.1_ASM1379648v1,bin_component_0,NZ_CP056884.1,77
GCF_021057265.1_ASM2105726v1,bin_component_0,NZ_CP084985.1,1983
GCF_014905815.1_ASM1490581v1,bin_component_1,NZ_AP023457.1,127
GCF_014905815.1_ASM1490581v1,bin_component_0,NZ_AP023455.1,1519
GCF_014905815.1_ASM1490581v1,bin_component_2,NZ_AP023458.1,127
GCF_904864515.1_KSB2_2C,bin_component_1,NZ_LR890391.1,55
GCF_904864515.1_KSB2_2C,bin_component_0,NZ_LR890392.1,234
GCF_016903955.1_ASM1690395v1,bin_component_1,NZ_CP070017.1,77
GCF_013805705.1_ASM1380570v1,bin_component_1,NZ_CP057037.1,77
GCF_013805705.1_ASM1380570v1,bin_component_0,NZ_CP057036.1,152
GCF_904863325.1_INF354,bin_component_0,NZ_LR890371.1,4573
GCF_020525985.1_ASM2052598v1,bin_component_0,NZ_CP084843.1,384
GCF_020525985.1_ASM2052598v1,bin_component_0,NZ_CP084844.1,308
GCF_020525985.1_ASM2052598v1,bin_component_0,NZ_CP084847.1,221
GCF_020525985.1_ASM2052598v1,bin_component_0,NZ_CP084846.1,231
GCF_020525985.1_ASM2052598v1,bin_component_0,NZ_CP084848.1,77
GCF_016629585.1_ASM1662958v1,bin_component_1,NZ_AP024176.1,55
GCF_016629585.1_ASM1662958v1,bin_component_0,NZ_AP024173.1,55
GCF_016629585.1_ASM1662958v1,bin_component_0,NZ_AP024177.1,165
GCF_016629585.1_ASM1662958v1,bin_component_0,NZ_AP024175.1,110
GCF_016629585.1_ASM1662958v1,bin_component_0,NZ_AP024174.1,219
GCF_016629585.1_ASM1662958v1,bin_component_0,NZ_AP024180.1,55
GCF_018075085.1_ASM1807508v1,bin_component_5,NZ_CP072952.1,55
GCF_014189335.1_ASM1418933v1,bin_component_0,NZ_CP047272.1,1143
GCF_016903195.1_ASM1690319v1,bin_component_1,NZ_CP069850.1,77
GCF_016903195.1_ASM1690319v1,bin_component_0,NZ_CP069847.1,77
GCF_016903195.1_ASM1690319v1,bin_component_0,NZ_CP069846.1,231
GCF_016903195.1_ASM1690319v1,bin_component_0,NZ_CP069844.1,231
GCF_016903195.1_ASM1690319v1,bin_component_0,NZ_CP069848.1,459
GCF_016903195.1_ASM1690319v1,bin_component_0,NZ_CP069845.1,385
GCF_016903195.1_ASM1690319v1,bin_component_0,NZ_CP069849.1,231
GCF_904863365.1_INF049,bin_component_0,NZ_LR890361.1,380
GCF_904863365.1_INF049,bin_component_0,NZ_LR890363.1,329
GCF_904863365.1_INF049,bin_component_0,NZ_LR890362.1,110
GCF_904863365.1_INF049,bin_component_0,NZ_LR890368.1,50
GCF_904863365.1_INF049,bin_component_0,NZ_LR890360.1,55
GCF_904866485.1_KSB1_1H,bin_component_0,NZ_LR890723.1,165
GCF_003038135.2_ASM303813v2,bin_component_1,NZ_CP043356.1,77
GCF_003038135.2_ASM303813v2,bin_component_0,NZ_CP043353.1,77
GCF_003038135.2_ASM303813v2,bin_component_0,NZ_CP043355.1,77
GCF_003038135.2_ASM303813v2,bin_component_0,NZ_CP043354.1,231
GCF_014168655.1_ASM1416865v1,bin_component_0,NZ_AP021931.1,77
GCF_014168655.1_ASM1416865v1,bin_component_2,NZ_AP021932.1,77
GCF_016903235.1_ASM1690323v1,bin_component_9,NZ_CP069857.1,77
GCF_016903235.1_ASM1690323v1,bin_component_0,NZ_CP069855.1,385
GCF_016903235.1_ASM1690323v1,bin_component_0,NZ_CP069854.1,616
GCF_016903235.1_ASM1690323v1,bin_component_0,NZ_CP069856.1,77
GCF_016903235.1_ASM1690323v1,bin_component_0,NZ_CP069853.1,996
GCF_016903235.1_ASM1690323v1,bin_component_0,NZ_CP069858.1,34
GCF_013895695.1_ASM1389569v1,bin_component_0,NZ_CP057723.1,231
GCF_904863405.1_INF215,bin_component_0,NZ_LR890318.1,680
GCF_904863405.1_INF215,bin_component_0,NZ_LR890319.1,220
GCF_020526045.1_ASM2052604v1,bin_component_0,NZ_CP084873.1,46
GCF_904866325.1_INF299,bin_component_1,NZ_LR890639.1,55
GCF_904866325.1_INF299,bin_component_0,NZ_LR890633.1,110
GCF_904866325.1_INF299,bin_component_0,NZ_LR890634.1,217
GCF_904866325.1_INF299,bin_component_0,NZ_LR890637.1,110
GCF_904863225.1_KSB1_6J,bin_component_1,NZ_LR890230.1,55
GCF_904863225.1_KSB1_6J,bin_component_2,NZ_LR890232.1,55
GCF_016066475.1_ASM1606647v1,bin_component_1,NZ_CP065835.1,77
GCF_016066475.1_ASM1606647v1,bin_component_0,NZ_CP065834.1,154
GCF_013734035.1_ASM1373403v1,bin_component_1,NZ_CP056374.1,77
GCF_013734035.1_ASM1373403v1,bin_component_3,NZ_CP056377.1,77
GCF_013734035.1_ASM1373403v1,bin_component_4,NZ_CP056378.1,77
GCF_013734035.1_ASM1373403v1,bin_component_0,NZ_CP056375.1,77
GCF_013734035.1_ASM1373403v1,bin_component_2,NZ_CP056374.1,77
GCF_013734035.1_ASM1373403v1,bin_component_2,NZ_CP056373.1,77
GCF_013734035.1_ASM1373403v1,bin_component_5,NZ_CP056380.1,77
GCF_013736155.1_ASM1373615v1,bin_component_1,NZ_CP056436.1,77
GCF_013736155.1_ASM1373615v1,bin_component_0,NZ_CP056437.1,308
GCF_013736155.1_ASM1373615v1,bin_component_0,NZ_CP056435.1,1078
GCF_013736155.1_ASM1373615v1,bin_component_0,NZ_CP056434.1,616
GCF_013736155.1_ASM1373615v1,bin_component_2,NZ_CP056438.1,77
GCF_014169335.1_ASM1416933v1,bin_component_4,NZ_AP022141.1,77
GCF_014169335.1_ASM1416933v1,bin_component_0,NZ_AP022139.1,459
GCF_020149825.1_ASM2014982v1,bin_component_0,NZ_CP083785.1,55
GCF_020149825.1_ASM2014982v1,bin_component_2,NZ_CP083787.1,55
GCF_021228815.1_ASM2122881v1,bin_component_0,NZ_CP089384.1,317
GCF_904866255.1_INF223,bin_component_0,NZ_LR890597.1,165
GCF_904866425.1_INF065,bin_component_0,NZ_LR890666.1,495
GCF_016727425.1_ASM1672742v1,bin_component_1,NZ_CP068140.1,385
GCF_016727425.1_ASM1672742v1,bin_component_1,NZ_CP068139.1,199
GCF_016727425.1_ASM1672742v1,bin_component_0,NZ_CP068139.1,154
GCF_020526025.1_ASM2052602v1,bin_component_0,NZ_CP084872.1,50
GCF_021496545.1_ASM2149654v1,bin_component_1,NZ_CP055293.1,127
GCF_016904315.1_ASM1690431v1,bin_component_0,NZ_CP070093.1,462
GCF_016904315.1_ASM1690431v1,bin_component_8,NZ_CP070094.1,77
GCF_904865845.1_INF302,bin_component_0,NZ_LR890558.1,3853
GCF_904866395.1_INF321,bin_component_0,NZ_LR890670.1,381
GCF_904866395.1_INF321,bin_component_0,NZ_LR890671.1,440
GCF_904866395.1_INF321,bin_component_0,NZ_LR890669.1,2338
GCF_016903735.1_ASM1690373v1,bin_component_4,NZ_CP069949.1,77
GCF_016903735.1_ASM1690373v1,bin_component_2,NZ_CP069946.1,154
GCF_904864465.1_INF298,bin_component_1,NZ_LR890429.1,127
GCF_904864465.1_INF298,bin_component_3,NZ_LR890427.1,496
GCF_904864465.1_INF298,bin_component_4,NZ_LR890433.1,127
GCF_904864465.1_INF298,bin_component_0,NZ_LR890428.1,127
GCF_904864465.1_INF298,bin_component_0,NZ_LR890431.1,251
GCF_016903255.1_ASM1690325v1,bin_component_0,NZ_CP069862.1,482
GCF_016903255.1_ASM1690325v1,bin_component_0,NZ_CP069863.1,77
GCF_904866205.1_INF145,bin_component_1,NZ_LR890586.1,55
GCF_904866205.1_INF145,bin_component_0,NZ_LR890585.1,55
GCF_021166235.1_ASM2116623v1,bin_component_1,NZ_CP089028.1,308
GCF_021166235.1_ASM2116623v1,bin_component_1,NZ_CP089029.1,231
GCF_021166235.1_ASM2116623v1,bin_component_4,NZ_CP089026.1,77
GCF_016904095.1_ASM1690409v1,bin_component_0,NZ_CP070047.1,308
GCF_014170015.1_ASM1417001v1,bin_component_0,NZ_CP054286.1,1016
GCF_014170015.1_ASM1417001v1,bin_component_0,NZ_CP054287.1,1143
GCF_904866295.1_KSB2_1C,bin_component_0,NZ_LR890621.1,387
GCF_904866295.1_KSB2_1C,bin_component_0,NZ_LR890620.1,54
GCF_904864545.1_KSB1_9J,bin_component_1,NZ_LR890436.1,29
GCF_904864545.1_KSB1_9J,bin_component_2,NZ_LR890437.1,334
GCF_904866195.1_INF327,bin_component_1,NZ_LR890574.1,55
GCF_904866195.1_INF327,bin_component_0,NZ_LR890572.1,165
GCF_019798185.1_ASM1979818v1,bin_component_1,NZ_CP073793.1,508
GCF_019798185.1_ASM1979818v1,bin_component_3,NZ_CP073795.1,127
GCF_019798185.1_ASM1979818v1,bin_component_4,NZ_CP073796.1,127
GCF_019798185.1_ASM1979818v1,bin_component_0,NZ_CP073792.1,126
GCF_019798185.1_ASM1979818v1,bin_component_2,NZ_CP073794.1,127
GCF_016066295.1_ASM1606629v1,bin_component_0,NZ_CP065831.1,154
GCF_904863095.1_INF174,bin_component_2,NZ_LR890247.1,55
GCF_016904595.1_ASM1690459v1,bin_component_4,NZ_CP070160.1,77
GCF_904865785.1_INF142,bin_component_0,NZ_LR890549.1,275
GCF_904865785.1_INF142,bin_component_0,NZ_LR890548.1,688
GCF_904865785.1_INF142,bin_component_0,NZ_LR890550.1,328
GCF_904865785.1_INF142,bin_component_0,NZ_LR890551.1,60
GCF_904866475.1_KSB2_9B,bin_component_0,NZ_LR890711.1,110
GCF_904866475.1_KSB2_9B,bin_component_0,NZ_LR890713.1,110
GCF_904866475.1_KSB2_9B,bin_component_0,NZ_LR890712.1,6746
GCF_904865735.1_INF361,bin_component_1,NZ_LR890530.1,55
GCF_904865735.1_INF361,bin_component_0,NZ_LR890528.1,324
GCF_016903755.1_ASM1690375v1,bin_component_0,NZ_CP069961.1,77
GCF_017894305.1_ASM1789430v1,bin_component_0,NZ_CP058363.1,3457
GCF_017894305.1_ASM1789430v1,bin_component_0,NZ_CP058361.1,8
GCF_017894305.1_ASM1789430v1,bin_component_0,NZ_CP058362.1,8
GCF_015138775.1_ASM1513877v1,bin_component_1,NZ_AP022532.1,77
GCF_015138775.1_ASM1513877v1,bin_component_0,NZ_AP022530.1,77
GCF_016903115.1_ASM1690311v1,bin_component_3,NZ_CP069832.1,77
GCF_016903115.1_ASM1690311v1,bin_component_4,NZ_CP069836.1,77
GCF_016903115.1_ASM1690311v1,bin_component_0,NZ_CP069833.1,154
GCF_016903115.1_ASM1690311v1,bin_component_0,NZ_CP069829.1,77
GCF_016903115.1_ASM1690311v1,bin_component_0,NZ_CP069834.1,25
GCF_016903115.1_ASM1690311v1,bin_component_2,NZ_CP069830.1,77
GCF_904863195.1_INF133,bin_component_1,NZ_LR890195.1,55
GCF_904863195.1_INF133,bin_component_1,NZ_LR890196.1,54
GCF_904863195.1_INF133,bin_component_0,NZ_LR890191.1,276
GCF_904863195.1_INF133,bin_component_0,NZ_LR890192.1,327
GCF_904863195.1_INF133,bin_component_0,NZ_LR890193.1,220
GCF_904863195.1_INF133,bin_component_2,NZ_LR890194.1,55
GCF_904863435.1_KSB1_1B,bin_component_0,NZ_LR890296.1,55
GCF_904863435.1_KSB1_1B,bin_component_2,NZ_LR890297.1,55
GCF_013735895.1_ASM1373589v1,bin_component_1,NZ_CP056428.1,77
GCF_013735895.1_ASM1373589v1,bin_component_0,NZ_CP056426.1,456
GCF_013735895.1_ASM1373589v1,bin_component_0,NZ_CP056427.1,693
GCF_013735895.1_ASM1373589v1,bin_component_0,NZ_CP056429.1,28
GCF_020525645.1_ASM2052564v1,bin_component_1,NZ_CP084858.1,77
GCF_904865795.1_KSB2_10B,bin_component_0,NZ_LR890486.1,110
GCF_904865795.1_KSB2_10B,bin_component_2,NZ_LR890487.1,55
GCF_012029895.2_ASM1202989v2,bin_component_1,NZ_CP061380.1,77
GCF_012029895.2_ASM1202989v2,bin_component_0,NZ_CP061382.1,308
GCF_012029895.2_ASM1202989v2,bin_component_0,NZ_CP061381.1,230
GCF_012029895.2_ASM1202989v2,bin_component_2,NZ_CP061384.1,77
GCF_904866315.1_INF346,bin_component_3,NZ_LR890647.1,55
GCF_904866315.1_INF346,bin_component_0,NZ_LR890645.1,55
GCF_904866315.1_INF346,bin_component_2,NZ_LR890646.1,55
GCF_021655515.1_ASM2165551v1,bin_component_0,NZ_AP024579.1,127
GCF_021655515.1_ASM2165551v1,bin_component_0,NZ_AP024580.1,381
GCF_021655515.1_ASM2165551v1,bin_component_0,NZ_AP024581.1,127
GCF_904866535.1_KSB1_8C,bin_component_0,NZ_LR890752.1,55
GCF_013745295.1_ASM1374529v1,bin_component_3,NZ_CP056331.1,77
GCF_013745295.1_ASM1374529v1,bin_component_2,NZ_CP056330.1,77
GCF_013796245.1_ASM1379624v1,bin_component_1,NZ_CP056881.1,77
GCF_013796245.1_ASM1379624v1,bin_component_0,NZ_CP056880.1,231
GCF_013796245.1_ASM1379624v1,bin_component_0,NZ_CP056879.1,154
GCF_013796245.1_ASM1379624v1,bin_component_2,NZ_CP056882.1,77
GCF_019798005.1_ASM1979800v1,bin_component_1,NZ_CP073786.1,45
GCF_019798005.1_ASM1979800v1,bin_component_3,NZ_CP073787.1,55
GCF_019798005.1_ASM1979800v1,bin_component_2,NZ_CP073784.1,110
GCF_020149875.1_ASM2014987v1,bin_component_1,NZ_CP083778.1,55
GCF_020149875.1_ASM2014987v1,bin_component_3,NZ_CP083783.1,55
GCF_020149875.1_ASM2014987v1,bin_component_0,NZ_CP083777.1,110
GCF_020149875.1_ASM2014987v1,bin_component_0,NZ_CP083776.1,2183
GCF_020149875.1_ASM2014987v1,bin_component_0,NZ_CP083780.1,46
GCF_020149875.1_ASM2014987v1,bin_component_2,NZ_CP083775.1,110
GCF_013735155.1_ASM1373515v1,bin_component_1,NZ_CP056391.1,77
GCF_013735155.1_ASM1373515v1,bin_component_0,NZ_CP056390.1,74
GCF_016903295.1_ASM1690329v1,bin_component_9,NZ_CP069873.1,154
GCF_016903295.1_ASM1690329v1,bin_component_1,NZ_CP069877.1,77
GCF_016903295.1_ASM1690329v1,bin_component_3,NZ_CP069873.1,154
GCF_016903295.1_ASM1690329v1,bin_component_0,NZ_CP069873.1,2390
GCF_016903295.1_ASM1690329v1,bin_component_0,NZ_CP069874.1,18
GCF_016903295.1_ASM1690329v1,bin_component_2,NZ_CP069873.1,154
GCF_016903295.1_ASM1690329v1,bin_component_5,NZ_CP069873.1,154
GCF_016903895.1_ASM1690389v1,bin_component_0,NZ_CP069995.1,77
GCF_013826045.1_ASM1382604v1,bin_component_0,NZ_CP057317.1,154
GCF_016066025.1_ASM1606602v1,bin_component_0,NZ_CP065827.1,77
GCF_016903475.1_ASM1690347v1,bin_component_0,NZ_CP070172.1,785
GCF_016903475.1_ASM1690347v1,bin_component_0,NZ_CP070173.1,231
GCF_016903475.1_ASM1690347v1,bin_component_0,NZ_CP070174.1,231
GCF_020149785.1_ASM2014978v1,bin_component_3,NZ_CP083801.1,55
GCF_020149785.1_ASM2014978v1,bin_component_0,NZ_CP083798.1,165
GCF_020149785.1_ASM2014978v1,bin_component_0,NZ_CP083797.1,713
GCF_020149785.1_ASM2014978v1,bin_component_2,NZ_CP083800.1,55
GCF_904865715.1_KSB1_5H,bin_component_1,NZ_LR890506.1,34
GCF_904865715.1_KSB1_5H,bin_component_3,NZ_LR890507.1,55
GCF_904865715.1_KSB1_5H,bin_component_0,NZ_LR890502.1,217
GCF_904865715.1_KSB1_5H,bin_component_0,NZ_LR890501.1,220
GCF_904865715.1_KSB1_5H,bin_component_0,NZ_LR890505.1,110
GCF_020525905.1_ASM2052590v1,bin_component_0,NZ_CP084826.1,77
GCF_904863245.1_INF355,bin_component_1,NZ_LR890280.1,55
GCF_904863245.1_INF355,bin_component_0,NZ_LR890278.1,269
GCF_904866405.1_INF279,bin_component_0,NZ_LR890681.1,220
GCF_904866405.1_INF279,bin_component_0,NZ_LR890680.1,55
GCF_904866405.1_INF279,bin_component_0,NZ_LR890684.1,52
GCF_904866405.1_INF279,bin_component_0,NZ_LR890685.1,49
GCF_904863075.1_INF334,bin_component_0,NZ_LR890237.1,55
GCF_904863355.1_INF148,bin_component_1,NZ_LR890383.1,55
GCF_904863355.1_INF148,bin_component_0,NZ_LR890382.1,55
GCF_904866375.1_INF242,bin_component_0,NZ_LR890626.1,55
GCF_012030545.2_ASM1203054v2,bin_component_0,NZ_CP061386.1,231
GCF_012030545.2_ASM1203054v2,bin_component_0,NZ_CP061385.1,154
GCF_012030545.2_ASM1203054v2,bin_component_0,NZ_CP061387.1,77
GCF_003261955.3_ASM326195v3,bin_component_1,NZ_CP033393.2,77
GCF_003261955.3_ASM326195v3,bin_component_0,NZ_CP033394.2,539
GCF_003261955.3_ASM326195v3,bin_component_0,NZ_CP033395.2,352
GCF_002852785.2_ASM285278v2,bin_component_1,NZ_CP043360.1,77
GCF_002852785.2_ASM285278v2,bin_component_0,NZ_CP043359.1,231
GCF_002852785.2_ASM285278v2,bin_component_2,NZ_CP043361.1,77
GCF_904865695.1_INF319,bin_component_0,NZ_LR890543.1,55
GCF_013813035.1_ASM1381303v1,bin_component_0,NZ_CP057100.1,77
GCF_013737695.1_ASM1373769v1,bin_component_0,NZ_CP056533.1,231
GCF_013737695.1_ASM1373769v1,bin_component_0,NZ_CP056531.1,929
GCF_013737695.1_ASM1373769v1,bin_component_0,NZ_CP056532.1,385
GCF_013737695.1_ASM1373769v1,bin_component_0,NZ_CP056530.1,449
GCF_013737695.1_ASM1373769v1,bin_component_0,NZ_CP056537.1,19
GCF_013737695.1_ASM1373769v1,bin_component_0,NZ_CP056536.1,146
GCF_013737695.1_ASM1373769v1,bin_component_0,NZ_CP056534.1,77
GCF_013737695.1_ASM1373769v1,bin_component_0,NZ_CP056538.1,18
GCF_021655475.1_ASM2165547v1,bin_component_1,NZ_AP024574.1,127
GCF_021655475.1_ASM2165547v1,bin_component_0,NZ_AP024573.1,508
GCF_021655475.1_ASM2165547v1,bin_component_0,NZ_AP024575.1,254
GCF_013783245.1_ASM1378324v1,bin_component_0,NZ_CP056218.1,77
GCF_904866285.1_INF344,bin_component_0,NZ_LR890641.1,324
GCF_904864475.1_INF168,bin_component_1,NZ_LR890473.1,55
GCF_001718115.2_ASM171811v2,bin_component_0,NZ_CP089427.1,254
GCF_904865825.1_INF018,bin_component_1,NZ_LR890496.1,45
GCF_904865825.1_INF018,bin_component_2,NZ_LR890493.1,220
GCF_019797985.1_ASM1979798v1,bin_component_0,NZ_CP073628.1,594
GCF_904864535.1_INF313,bin_component_1,NZ_LR890419.1,55
GCF_904864535.1_INF313,bin_component_1,NZ_LR890420.1,23
GCF_904864535.1_INF313,bin_component_1,NZ_LR890421.1,49
GCF_904864535.1_INF313,bin_component_0,NZ_LR890417.1,275
GCF_016903395.1_ASM1690339v1,bin_component_1,NZ_CP069909.1,77
GCF_016903395.1_ASM1690339v1,bin_component_1,NZ_CP069905.1,21
GCF_016903395.1_ASM1690339v1,bin_component_0,NZ_CP069902.1,77
GCF_016903395.1_ASM1690339v1,bin_component_0,NZ_CP069904.1,767
GCF_016903395.1_ASM1690339v1,bin_component_0,NZ_CP069907.1,77
GCF_016903395.1_ASM1690339v1,bin_component_0,NZ_CP069903.1,316
GCF_904863395.1_INF250,bin_component_0,NZ_LR890376.1,275
GCF_904863395.1_INF250,bin_component_0,NZ_LR890375.1,55
GCF_013782105.1_ASM1378210v1,bin_component_1,NZ_CP056195.1,77
GCF_013782105.1_ASM1378210v1,bin_component_3,NZ_CP056197.1,77
GCF_013782105.1_ASM1378210v1,bin_component_0,NZ_CP056194.1,308
GCF_013782105.1_ASM1378210v1,bin_component_0,NZ_CP056192.1,369
GCF_013782105.1_ASM1378210v1,bin_component_2,NZ_CP056196.1,77
GCF_904865815.1_INF281,bin_component_1,NZ_LR890521.1,55
GCF_904865815.1_INF281,bin_component_0,NZ_LR890519.1,55
GCF_904865815.1_INF281,bin_component_0,NZ_LR890520.1,110
GCF_904865815.1_INF281,bin_component_2,NZ_LR890522.1,55
GCF_012029935.2_ASM1202993v2,bin_component_0,NZ_CP061404.1,277
GCF_012029935.2_ASM1202993v2,bin_component_0,NZ_CP061405.1,685
GCF_012029935.2_ASM1202993v2,bin_component_0,NZ_CP061406.1,308
GCF_020525845.1_ASM2052584v1,bin_component_0,NZ_CP084861.1,462
GCF_904863125.1_INF357,bin_component_1,NZ_LR890220.1,55
GCF_904863125.1_INF357,bin_component_3,NZ_LR890224.1,55
GCF_904863125.1_INF357,bin_component_2,NZ_LR890219.1,55
GCF_021655435.1_ASM2165543v1,bin_component_0,NZ_AP024569.1,127
GCF_021655495.1_ASM2165549v1,bin_component_0,NZ_AP024577.1,508
GCF_021655495.1_ASM2165549v1,bin_component_0,NZ_AP024578.1,254
GCF_904866465.1_INF161,bin_component_1,NZ_LR890719.1,165
GCF_020525485.1_ASM2052548v1,bin_component_0,NZ_CP084867.1,77
GCF_904866215.1_INF359,bin_component_0,NZ_LR890618.1,110
GCF_904866215.1_INF359,bin_component_0,NZ_LR890617.1,55
GCF_904864445.1_KSB1_6G,bin_component_1,NZ_LR890463.1,55
GCF_904864445.1_KSB1_6G,bin_component_0,NZ_LR890458.1,550
GCF_904864445.1_KSB1_6G,bin_component_0,NZ_LR890459.1,165
GCF_904865745.1_INF247,bin_component_0,NZ_LR890563.1,385
GCF_003937135.2_ASM393713v2,bin_component_0,NZ_CP078034.1,896
GCF_003937135.2_ASM393713v2,bin_component_0,NZ_CP078033.1,436
GCF_003937135.2_ASM393713v2,bin_component_0,NZ_CP078035.1,79
GCF_003937135.2_ASM393713v2,bin_component_0,NZ_CP078037.1,77
GCF_016904035.1_ASM1690403v1,bin_component_0,NZ_CP070039.1,205
GCF_904864645.1_INF079,bin_component_0,NZ_LR890465.1,876
GCF_020080145.1_ASM2008014v1,bin_component_0,NZ_CP083446.1,1501
GCF_020080145.1_ASM2008014v1,bin_component_0,NZ_CP083447.1,154
GCF_020080145.1_ASM2008014v1,bin_component_0,NZ_CP083445.1,77
GCF_904863295.1_KSB2_2B,bin_component_1,NZ_LR890343.1,52
GCF_904863295.1_KSB2_2B,bin_component_0,NZ_LR890344.1,234
GCF_904863295.1_KSB2_2B,bin_component_2,NZ_LR890346.1,55
GCF_016904415.1_ASM1690441v1,bin_component_1,NZ_CP070105.1,154
GCF_016904415.1_ASM1690441v1,bin_component_0,NZ_CP070105.1,308
GCF_016904415.1_ASM1690441v1,bin_component_5,NZ_CP070109.1,77
GCF_013811445.1_ASM1381144v1,bin_component_0,NZ_CP057067.1,276
GCF_016804025.1_ASM1680402v1,bin_component_1,NZ_CP053019.1,77
GCF_016804025.1_ASM1680402v1,bin_component_0,NZ_CP053017.1,1076
GCF_016804025.1_ASM1680402v1,bin_component_0,NZ_CP053018.1,77
GCF_016804025.1_ASM1680402v1,bin_component_2,NZ_CP053020.1,77
GCF_019798025.1_ASM1979802v1,bin_component_1,NZ_CP073790.1,127
GCF_019798025.1_ASM1979802v1,bin_component_0,NZ_CP073789.1,88
GCF_013704985.1_ASM1370498v1,bin_component_0,NZ_CP055452.1,635
GCF_013704985.1_ASM1370498v1,bin_component_2,NZ_CP055454.1,77
GCF_018283505.2_ASM1828350v2,bin_component_3,NZ_CP084396.1,77
GCF_014170935.1_ASM1417093v1,bin_component_3,NZ_AP022084.1,77
GCF_014170935.1_ASM1417093v1,bin_component_0,NZ_AP022082.1,627
GCF_020149895.1_ASM2014989v1,bin_component_1,NZ_CP083770.1,55
GCF_020149895.1_ASM2014989v1,bin_component_3,NZ_CP083772.1,55
GCF_020149895.1_ASM2014989v1,bin_component_4,NZ_CP083773.1,55
GCF_020149895.1_ASM2014989v1,bin_component_0,NZ_CP083768.1,550
GCF_020149895.1_ASM2014989v1,bin_component_0,NZ_CP083769.1,264
GCF_020149895.1_ASM2014989v1,bin_component_2,NZ_CP083771.1,55
GCF_020149895.1_ASM2014989v1,bin_component_5,NZ_CP083774.1,55
GCF_020525965.1_ASM2052596v1,bin_component_1,NZ_CP084841.1,77
GCF_020525965.1_ASM2052596v1,bin_component_0,NZ_CP084833.1,797
GCF_020525965.1_ASM2052596v1,bin_component_0,NZ_CP084831.1,299
GCF_020525965.1_ASM2052596v1,bin_component_0,NZ_CP084832.1,229
GCF_020525965.1_ASM2052596v1,bin_component_0,NZ_CP084834.1,2036
GCF_020525965.1_ASM2052596v1,bin_component_0,NZ_CP084830.1,77
GCF_020525965.1_ASM2052596v1,bin_component_0,NZ_CP084838.1,77
GCF_020525965.1_ASM2052596v1,bin_component_0,NZ_CP084840.1,75
GCF_020525965.1_ASM2052596v1,bin_component_0,NZ_CP084839.1,77
GCF_018310495.1_ASM1831049v1,bin_component_1,NZ_CP074091.1,77
GCF_018310495.1_ASM1831049v1,bin_component_0,NZ_CP074089.1,3
GCF_018310495.1_ASM1831049v1,bin_component_0,NZ_CP074088.1,154
GCF_018310495.1_ASM1831049v1,bin_component_0,NZ_CP074090.1,154
GCF_904863215.1_INF277,bin_component_0,NZ_LR890205.1,973
GCF_904863215.1_INF277,bin_component_2,NZ_LR890207.1,127
GCF_016904295.1_ASM1690429v1,bin_component_1,NZ_CP070088.1,308
GCF_016904295.1_ASM1690429v1,bin_component_0,NZ_CP070089.1,308
GCF_016904295.1_ASM1690429v1,bin_component_2,NZ_CP070091.1,77
GCF_016904295.1_ASM1690429v1,bin_component_2,NZ_CP070090.1,75
GCF_012029695.2_ASM1202969v2,bin_component_1,NZ_CP061389.1,385
GCF_012029695.2_ASM1202969v2,bin_component_0,NZ_CP061392.1,1700
GCF_012029695.2_ASM1202969v2,bin_component_0,NZ_CP061393.1,77
GCF_012029695.2_ASM1202969v2,bin_component_2,NZ_CP061395.1,77
GCF_904863425.1_INF348,bin_component_0,NZ_LR890325.1,110
GCF_022369925.1_ASM2236992v1,bin_component_1,NZ_CP071031.1,127
GCF_022369925.1_ASM2236992v1,bin_component_0,NZ_CP071030.1,635
GCF_904866505.1_INF323,bin_component_1,NZ_LR890739.1,55
GCF_904866505.1_INF323,bin_component_0,NZ_LR890738.1,165
GCF_904866505.1_INF323,bin_component_0,NZ_LR890735.1,165
GCF_904863135.1_INF310,bin_component_1,NZ_LR890260.1,36
GCF_904863135.1_INF310,bin_component_0,NZ_LR890255.1,110
GCF_904863135.1_INF310,bin_component_0,NZ_LR890256.1,217
GCF_904863135.1_INF310,bin_component_0,NZ_LR890259.1,110
GCF_904863135.1_INF310,bin_component_2,NZ_LR890261.1,55
GCF_020525865.1_ASM2052586v1,bin_component_0,NZ_CP084824.1,612
GCF_017639065.1_ASM1763906v1,bin_component_0,NZ_CP067256.1,77
GCF_017639065.1_ASM1763906v1,bin_component_0,NZ_CP067257.1,308
GCF_017639065.1_ASM1763906v1,bin_component_2,NZ_CP067260.1,77
GCF_012029975.2_ASM1202997v2,bin_component_3,NZ_CP061402.1,77
GCF_012029975.2_ASM1202997v2,bin_component_0,NZ_CP061400.1,77
GCF_012029975.2_ASM1202997v2,bin_component_0,NZ_CP061401.1,77
GCF_020526005.1_ASM2052600v1,bin_component_0,NZ_CP084854.1,77
GCF_920103885.1_DJ,bin_component_1,NZ_OV049812.1,44
GCF_920103885.1_DJ,bin_component_1,NZ_OV049811.1,44
GCF_920103885.1_DJ,bin_component_3,NZ_OV049809.1,77
GCF_920103885.1_DJ,bin_component_2,NZ_OV049810.1,77
GCF_014168575.1_ASM1416857v1,bin_component_0,NZ_AP021910.1,154
GCF_017894285.1_ASM1789428v1,bin_component_0,NZ_CP058360.1,77
GCF_021655415.1_ASM2165541v1,bin_component_0,NZ_AP025247.1,385
GCF_021655415.1_ASM2165541v1,bin_component_0,NZ_AP025246.1,77
GCF_904864625.1_INF171,bin_component_1,NZ_LR890448.1,55
GCF_904864625.1_INF171,bin_component_3,NZ_LR890450.1,55
GCF_904864625.1_INF171,bin_component_2,NZ_LR890449.1,55
GCF_904865755.1_INF341,bin_component_1,NZ_LR890492.1,55
GCF_904865755.1_INF341,bin_component_0,NZ_LR890491.1,220
GCF_013791265.1_ASM1379126v1,bin_component_1,NZ_CP056832.1,77
GCF_013791265.1_ASM1379126v1,bin_component_3,NZ_CP056833.1,77
GCF_013834745.1_ASM1383474v1,bin_component_0,NZ_CP057460.1,154
GCF_015694065.1_ASM1569406v1,bin_component_0,NZ_CP065174.1,1074
GCF_015694065.1_ASM1569406v1,bin_component_0,NZ_CP065173.1,77
GCF_015694085.1_ASM1569408v1,bin_component_1,NZ_CP065167.1,154
GCF_015694085.1_ASM1569408v1,bin_component_3,NZ_CP065169.1,77
GCF_015694085.1_ASM1569408v1,bin_component_4,NZ_CP065170.1,77
GCF_015694085.1_ASM1569408v1,bin_component_0,NZ_CP065168.1,344
GCF_904866555.1_INF102,bin_component_1,NZ_LR890729.1,55
GCF_904866555.1_INF102,bin_component_0,NZ_LR890728.1,174
GCF_904866555.1_INF102,bin_component_0,NZ_LR890727.1,55
GCF_904866555.1_INF102,bin_component_0,NZ_LR890730.1,110
GCF_904866555.1_INF102,bin_component_2,NZ_LR890731.1,55
GCF_013792545.1_ASM1379254v1,bin_component_1,NZ_CP056857.1,77
GCF_013792545.1_ASM1379254v1,bin_component_3,NZ_CP056860.1,77
GCF_013792545.1_ASM1379254v1,bin_component_0,NZ_CP056856.1,398
GCF_013792545.1_ASM1379254v1,bin_component_0,NZ_CP056858.1,231
GCF_013792545.1_ASM1379254v1,bin_component_0,NZ_CP056854.1,77
GCF_013792545.1_ASM1379254v1,bin_component_0,NZ_CP056855.1,230
GCF_013792545.1_ASM1379254v1,bin_component_2,NZ_CP056859.1,77
GCF_013611495.1_ASM1361149v1,bin_component_1,NZ_CP055513.1,77
GCF_013611495.1_ASM1361149v1,bin_component_0,NZ_CP055511.1,462
GCF_013611495.1_ASM1361149v1,bin_component_0,NZ_CP055512.1,154
GCF_013611495.1_ASM1361149v1,bin_component_0,NZ_CP055510.1,450
GCF_013611495.1_ASM1361149v1,bin_component_0,NZ_CP055509.1,770
