GCF_003261955.3_ASM326195v3,NODE_1_length_19524_cov_762.983185_component_0,19524,
GCF_003261955.3_ASM326195v3,NODE_3_length_16271_cov_770.396443_component_0,16271,
GCF_003261955.3_ASM326195v3,NODE_5_length_10302_cov_723.170758_component_0,10302,
GCF_003261955.3_ASM326195v3,NODE_17_length_3044_cov_785.507583_component_0,3044,
GCF_013735155.1_ASM1373515v1,NODE_4_length_2814_cov_2173.847643_component_0,2814,
GCF_016904415.1_ASM1690441v1,NODE_21_length_6468_cov_4.258801_component_1,6468,
GCF_016904415.1_ASM1690441v1,NODE_29_length_4856_cov_11182.706215_component_10,4856,
GCF_016904415.1_ASM1690441v1,NODE_31_length_4431_cov_4965.706477_component_11,4431,
GCF_016904415.1_ASM1690441v1,NODE_33_length_4170_cov_942.800635_component_12,4170,
GCF_016904415.1_ASM1690441v1,NODE_36_length_3580_cov_4.529832_component_1,3580,
GCF_016904415.1_ASM1690441v1,NODE_62_length_1522_cov_5.694118_component_13,1522,
GCF_016904415.1_ASM1690441v1,NODE_63_length_1385_cov_5.904434_component_14,1385,
GCF_016904415.1_ASM1690441v1,NODE_6_length_17399_cov_234.022919_component_0,17399,
GCF_016904415.1_ASM1690441v1,NODE_11_length_11015_cov_4.477235_component_0,11015,
GCF_016904415.1_ASM1690441v1,NODE_12_length_10617_cov_4.578653_component_0,10617,
GCF_016904415.1_ASM1690441v1,NODE_16_length_8036_cov_246.592914_component_0,8036,
GCF_016904415.1_ASM1690441v1,NODE_24_length_5818_cov_47.112176_component_0,5818,
GCF_016904415.1_ASM1690441v1,NODE_27_length_4895_cov_5.955998_component_0,4895,
GCF_016904415.1_ASM1690441v1,NODE_30_length_4813_cov_22.986486_component_0,4813,
GCF_016904415.1_ASM1690441v1,NODE_32_length_4187_cov_16.681022_component_0,4187,
GCF_016904415.1_ASM1690441v1,NODE_34_length_4131_cov_6.006907_component_0,4131,
GCF_016904415.1_ASM1690441v1,NODE_38_length_3248_cov_41.339640_component_0,3248,
GCF_016904415.1_ASM1690441v1,NODE_39_length_3156_cov_6.323482_component_0,3156,
GCF_016904415.1_ASM1690441v1,NODE_40_length_3134_cov_6.270854_component_0,3134,
GCF_016904415.1_ASM1690441v1,NODE_41_length_3065_cov_7.099063_component_0,3065,
GCF_016904415.1_ASM1690441v1,NODE_44_length_2682_cov_5.697505_component_0,2682,
GCF_016904415.1_ASM1690441v1,NODE_47_length_2120_cov_66.328439_component_0,2120,
GCF_016904415.1_ASM1690441v1,NODE_49_length_1963_cov_7.691410_component_0,1963,
GCF_016904415.1_ASM1690441v1,NODE_53_length_1784_cov_5.899238_component_0,1784,
GCF_016904415.1_ASM1690441v1,NODE_55_length_1728_cov_6.459116_component_0,1728,
GCF_016904415.1_ASM1690441v1,NODE_57_length_1626_cov_8.335055_component_0,1626,
GCF_016904415.1_ASM1690441v1,NODE_59_length_1557_cov_6.168911_component_0,1557,
GCF_016904415.1_ASM1690441v1,NODE_65_length_1260_cov_171.263736_component_0,1260,
GCF_016904415.1_ASM1690441v1,NODE_25_length_5713_cov_3224.542406_component_5,5713,
GCF_016904415.1_ASM1690441v1,NODE_42_length_2990_cov_202.611397_component_5,2990,
GCF_016904415.1_ASM1690441v1,NODE_66_length_1122_cov_6.082297_component_8,1122,
GCF_021496545.1_ASM2149654v1,NODE_6_length_18315_cov_216.318892_component_0,18315,
GCF_021496545.1_ASM2149654v1,NODE_7_length_12621_cov_220.519369_component_0,12621,
GCF_021496545.1_ASM2149654v1,NODE_8_length_7964_cov_370.838841_component_0,7964,
GCF_021496545.1_ASM2149654v1,NODE_9_length_5594_cov_229.320651_component_0,5594,
GCF_021496545.1_ASM2149654v1,NODE_10_length_5474_cov_252.986535_component_0,5474,
GCF_021496545.1_ASM2149654v1,NODE_11_length_5237_cov_199.839335_component_0,5237,
GCF_021496545.1_ASM2149654v1,NODE_12_length_5211_cov_222.324548_component_0,5211,
GCF_021496545.1_ASM2149654v1,NODE_13_length_3778_cov_206.460148_component_0,3778,
GCF_021496545.1_ASM2149654v1,NODE_14_length_3144_cov_225.757375_component_0,3144,
GCF_021496545.1_ASM2149654v1,NODE_15_length_2625_cov_206.960769_component_0,2625,
GCF_021496545.1_ASM2149654v1,NODE_16_length_2120_cov_199.315103_component_0,2120,
GCF_021496545.1_ASM2149654v1,NODE_17_length_1440_cov_382.355674_component_0,1440,
GCF_021496545.1_ASM2149654v1,NODE_20_length_1107_cov_260.197959_component_0,1107,
GCF_021496545.1_ASM2149654v1,NODE_21_length_1101_cov_157.751540_component_0,1101,
GCF_014170935.1_ASM1417093v1,NODE_8_length_3027_cov_543.838644_component_1,3027,
GCF_904865715.1_KSB1_5H,NODE_16_length_14771_cov_3.759310_component_0,14771,
GCF_904865715.1_KSB1_5H,NODE_18_length_10275_cov_3.687182_component_0,10275,
GCF_904865715.1_KSB1_5H,NODE_20_length_7314_cov_3.481747_component_0,7314,
GCF_904865715.1_KSB1_5H,NODE_21_length_6659_cov_3.366596_component_0,6659,
GCF_904865715.1_KSB1_5H,NODE_22_length_6135_cov_3.721546_component_0,6135,
GCF_904865715.1_KSB1_5H,NODE_26_length_3996_cov_4.500888_component_0,3996,
GCF_904865715.1_KSB1_5H,NODE_27_length_3317_cov_3.539546_component_0,3317,
GCF_904865715.1_KSB1_5H,NODE_29_length_2869_cov_3.128643_component_0,2869,
GCF_904865715.1_KSB1_5H,NODE_31_length_2613_cov_3.267396_component_0,2613,
GCF_904865715.1_KSB1_5H,NODE_33_length_2314_cov_3.246127_component_0,2314,
GCF_904865715.1_KSB1_5H,NODE_34_length_1952_cov_3.867686_component_0,1952,
GCF_904865715.1_KSB1_5H,NODE_37_length_1756_cov_3.670782_component_0,1756,
GCF_904865715.1_KSB1_5H,NODE_38_length_1670_cov_2.767802_component_0,1670,
GCF_904865715.1_KSB1_5H,NODE_39_length_1549_cov_3.700134_component_0,1549,
GCF_904865715.1_KSB1_5H,NODE_40_length_1508_cov_4.455609_component_0,1508,
GCF_904865715.1_KSB1_5H,NODE_41_length_1501_cov_4.027663_component_0,1501,
GCF_904865715.1_KSB1_5H,NODE_42_length_1476_cov_2.137227_component_0,1476,
GCF_904865715.1_KSB1_5H,NODE_43_length_1420_cov_5.880586_component_0,1420,
GCF_904865715.1_KSB1_5H,NODE_45_length_1297_cov_3.918680_component_0,1297,
GCF_904865715.1_KSB1_5H,NODE_46_length_1273_cov_2.280788_component_0,1273,
GCF_904865715.1_KSB1_5H,NODE_47_length_1212_cov_3.477096_component_0,1212,
GCF_904865715.1_KSB1_5H,NODE_49_length_1165_cov_2.791892_component_0,1165,
GCF_904865715.1_KSB1_5H,NODE_50_length_1121_cov_1.444653_component_0,1121,
GCF_904866505.1_INF323,NODE_18_length_1882_cov_80.575807_component_0,1882,
GCF_016903255.1_ASM1690325v1,NODE_12_length_1841_cov_1.716553_component_0,1841,
GCF_016903955.1_ASM1690395v1,NODE_7_length_5243_cov_9.087495_component_3,5243,
GCF_016903235.1_ASM1690323v1,NODE_2_length_44662_cov_14.931569_component_0,44662,
GCF_016903235.1_ASM1690323v1,NODE_5_length_39863_cov_11.132484_component_0,39863,
GCF_016903235.1_ASM1690323v1,NODE_9_length_29134_cov_29.396806_component_0,29134,
GCF_016903235.1_ASM1690323v1,NODE_10_length_26999_cov_133.553674_component_0,26999,
GCF_016903235.1_ASM1690323v1,NODE_11_length_26882_cov_27.696549_component_0,26882,
GCF_016903235.1_ASM1690323v1,NODE_12_length_26797_cov_37.851272_component_0,26797,
GCF_016903235.1_ASM1690323v1,NODE_13_length_26151_cov_13.376390_component_0,26151,
GCF_016903235.1_ASM1690323v1,NODE_14_length_24461_cov_9.013821_component_0,24461,
GCF_016903235.1_ASM1690323v1,NODE_16_length_22464_cov_11.948586_component_0,22464,
GCF_016903235.1_ASM1690323v1,NODE_18_length_21220_cov_26.392045_component_0,21220,
GCF_016903235.1_ASM1690323v1,NODE_19_length_20881_cov_58.392713_component_0,20881,
GCF_016903235.1_ASM1690323v1,NODE_21_length_20670_cov_13.910843_component_0,20670,
GCF_016903235.1_ASM1690323v1,NODE_22_length_17061_cov_13.994878_component_0,17061,
GCF_016903235.1_ASM1690323v1,NODE_24_length_14750_cov_12.643836_component_0,14750,
GCF_016903235.1_ASM1690323v1,NODE_26_length_13600_cov_6.558974_component_0,13600,
GCF_016903235.1_ASM1690323v1,NODE_27_length_13284_cov_21.195578_component_0,13284,
GCF_016903235.1_ASM1690323v1,NODE_29_length_12567_cov_13.325460_component_0,12567,
GCF_016903235.1_ASM1690323v1,NODE_35_length_10362_cov_24.006806_component_0,10362,
GCF_016903235.1_ASM1690323v1,NODE_39_length_8083_cov_15.803023_component_0,8083,
GCF_016903235.1_ASM1690323v1,NODE_40_length_7989_cov_11.610212_component_0,7989,
GCF_016903235.1_ASM1690323v1,NODE_42_length_7202_cov_36.950456_component_0,7202,
GCF_016903235.1_ASM1690323v1,NODE_43_length_7130_cov_22.476960_component_0,7130,
GCF_016903235.1_ASM1690323v1,NODE_44_length_7130_cov_12.253084_component_0,7130,
GCF_016903235.1_ASM1690323v1,NODE_45_length_6938_cov_17.141525_component_0,6938,
GCF_016903235.1_ASM1690323v1,NODE_46_length_6922_cov_8.799562_component_0,6922,
GCF_016903235.1_ASM1690323v1,NODE_52_length_6325_cov_11.948624_component_0,6325,
GCF_016903235.1_ASM1690323v1,NODE_54_length_5798_cov_17.692711_component_0,5798,
GCF_016903235.1_ASM1690323v1,NODE_57_length_5472_cov_13.904541_component_0,5472,
GCF_016903235.1_ASM1690323v1,NODE_59_length_5460_cov_13.358908_component_0,5460,
GCF_016903235.1_ASM1690323v1,NODE_62_length_4718_cov_24.636079_component_0,4718,
GCF_016903235.1_ASM1690323v1,NODE_64_length_4581_cov_7.429840_component_0,4581,
GCF_016903235.1_ASM1690323v1,NODE_68_length_3979_cov_12.789595_component_0,3979,
GCF_016903235.1_ASM1690323v1,NODE_70_length_3866_cov_10.710214_component_0,3866,
GCF_016903235.1_ASM1690323v1,NODE_71_length_3788_cov_6.661816_component_0,3788,
GCF_016903235.1_ASM1690323v1,NODE_75_length_3471_cov_12.235415_component_0,3471,
GCF_016903235.1_ASM1690323v1,NODE_77_length_3274_cov_5443.255552_component_0,3274,
GCF_016903235.1_ASM1690323v1,NODE_78_length_3151_cov_5.229018_component_0,3151,
GCF_016903235.1_ASM1690323v1,NODE_83_length_3008_cov_5.136813_component_0,3008,
GCF_016903235.1_ASM1690323v1,NODE_85_length_2809_cov_290.064788_component_0,2809,
GCF_016903235.1_ASM1690323v1,NODE_87_length_2663_cov_45.147332_component_0,2663,
GCF_016903235.1_ASM1690323v1,NODE_88_length_2654_cov_10.484672_component_0,2654,
GCF_016903235.1_ASM1690323v1,NODE_89_length_2603_cov_17.739905_component_0,2603,
GCF_016903235.1_ASM1690323v1,NODE_91_length_2479_cov_1.815570_component_0,2479,
GCF_016903235.1_ASM1690323v1,NODE_92_length_2473_cov_13.135643_component_0,2473,
GCF_016903235.1_ASM1690323v1,NODE_94_length_2369_cov_119.077225_component_0,2369,
GCF_016903235.1_ASM1690323v1,NODE_96_length_2298_cov_2.960378_component_0,2298,
GCF_016903235.1_ASM1690323v1,NODE_97_length_2295_cov_2.609558_component_0,2295,
GCF_016903235.1_ASM1690323v1,NODE_101_length_2114_cov_30.597938_component_0,2114,
GCF_016903235.1_ASM1690323v1,NODE_102_length_2040_cov_2.532858_component_0,2040,
GCF_016903235.1_ASM1690323v1,NODE_103_length_1912_cov_28.166213_component_0,1912,
GCF_016903235.1_ASM1690323v1,NODE_104_length_1899_cov_12.541712_component_0,1899,
GCF_016903235.1_ASM1690323v1,NODE_105_length_1873_cov_8.007238_component_0,1873,
GCF_016903235.1_ASM1690323v1,NODE_107_length_1869_cov_54.478795_component_0,1869,
GCF_016903235.1_ASM1690323v1,NODE_110_length_1731_cov_5.602781_component_0,1731,
GCF_016903235.1_ASM1690323v1,NODE_111_length_1718_cov_15.936015_component_0,1718,
GCF_016903235.1_ASM1690323v1,NODE_113_length_1676_cov_3.985616_component_0,1676,
GCF_016903235.1_ASM1690323v1,NODE_114_length_1663_cov_3.847415_component_0,1663,
GCF_016903235.1_ASM1690323v1,NODE_115_length_1557_cov_6.069155_component_0,1557,
GCF_016903235.1_ASM1690323v1,NODE_118_length_1417_cov_30.704478_component_0,1417,
GCF_016903235.1_ASM1690323v1,NODE_119_length_1345_cov_14.388013_component_0,1345,
GCF_016903235.1_ASM1690323v1,NODE_122_length_1336_cov_15.235107_component_0,1336,
GCF_016903235.1_ASM1690323v1,NODE_123_length_1325_cov_4.739583_component_0,1325,
GCF_016903235.1_ASM1690323v1,NODE_124_length_1324_cov_12.732157_component_0,1324,
GCF_016903235.1_ASM1690323v1,NODE_126_length_1309_cov_52.314935_component_0,1309,
GCF_016903235.1_ASM1690323v1,NODE_128_length_1278_cov_11.447960_component_0,1278,
GCF_016903235.1_ASM1690323v1,NODE_130_length_1276_cov_30.136781_component_0,1276,
GCF_016903235.1_ASM1690323v1,NODE_138_length_1107_cov_19.190291_component_0,1107,
GCF_016903235.1_ASM1690323v1,NODE_139_length_1099_cov_36.723092_component_0,1099,
GCF_016903235.1_ASM1690323v1,NODE_142_length_1080_cov_167.817547_component_0,1080,
GCF_016903235.1_ASM1690323v1,NODE_140_length_1097_cov_2.836275_component_6,1097,
GCF_016903235.1_ASM1690323v1,NODE_38_length_8699_cov_12.973788_component_5,8699,
GCF_016903235.1_ASM1690323v1,NODE_74_length_3553_cov_202.020426_component_5,3553,
GCF_001185665.2_ASM118566v3,NODE_10_length_1350_cov_13.587645_component_1,1350,
GCF_015694065.1_ASM1569406v1,NODE_9_length_4112_cov_711.183395_component_0,4112,
GCF_015694065.1_ASM1569406v1,NODE_11_length_3495_cov_558.053540_component_0,3495,
GCF_015694065.1_ASM1569406v1,NODE_12_length_3445_cov_1005.147565_component_0,3445,
GCF_015694065.1_ASM1569406v1,NODE_14_length_3260_cov_518.732642_component_0,3260,
GCF_015694065.1_ASM1569406v1,NODE_17_length_3058_cov_1499.032204_component_0,3058,
GCF_014168575.1_ASM1416857v1,NODE_14_length_2853_cov_365.858429_component_1,2853,
GCF_014168575.1_ASM1416857v1,NODE_17_length_1618_cov_163.105127_component_1,1618,
GCF_020525985.1_ASM2052598v1,NODE_60_length_1317_cov_369.713710_component_1,1317,
GCF_020525985.1_ASM2052598v1,NODE_19_length_3915_cov_9.805107_component_0,3915,
GCF_020525985.1_ASM2052598v1,NODE_21_length_3536_cov_11.307314_component_0,3536,
GCF_020525985.1_ASM2052598v1,NODE_22_length_3484_cov_74.019959_component_0,3484,
GCF_020525985.1_ASM2052598v1,NODE_32_length_2485_cov_38.850914_component_0,2485,
GCF_020525985.1_ASM2052598v1,NODE_35_length_2329_cov_11.509769_component_0,2329,
GCF_020525985.1_ASM2052598v1,NODE_39_length_2110_cov_78.736842_component_0,2110,
GCF_020525985.1_ASM2052598v1,NODE_43_length_2086_cov_74.406172_component_0,2086,
GCF_020525985.1_ASM2052598v1,NODE_57_length_1335_cov_120.620827_component_0,1335,
GCF_904864515.1_KSB2_2C,NODE_3_length_31899_cov_155.047167_component_1,31899,
GCF_904864515.1_KSB2_2C,NODE_7_length_9502_cov_138.447655_component_1,9502,
GCF_904863125.1_INF357,NODE_6_length_2294_cov_141.797678_component_1,2294,
GCF_016903495.1_ASM1690349v1,NODE_24_length_1300_cov_1.314800_component_0,1300,
GCF_016903495.1_ASM1690349v1,NODE_16_length_3135_cov_1203.411380_component_2,3135,
GCF_016903495.1_ASM1690349v1,NODE_25_length_1256_cov_1.383376_component_2,1256,
GCF_016903495.1_ASM1690349v1,NODE_26_length_1220_cov_109.056868_component_2,1220,
GCF_904863295.1_KSB2_2B,NODE_3_length_34783_cov_183.414248_component_1,34783,
GCF_904866215.1_INF359,NODE_9_length_4653_cov_155.947586_component_0,4653,
GCF_013731735.1_ASM1373173v1,NODE_22_length_1696_cov_2.437925_component_0,1696,
GCF_904865695.1_INF319,NODE_16_length_9961_cov_24.382395_component_0,9961,
GCF_904865695.1_INF319,NODE_17_length_9742_cov_21.768246_component_0,9742,
GCF_904865695.1_INF319,NODE_26_length_4012_cov_25.557493_component_0,4012,
GCF_904865695.1_INF319,NODE_33_length_1586_cov_42.807969_component_0,1586,
GCF_016727425.1_ASM1672742v1,NODE_1_length_306019_cov_8.029993_component_0,306019,
GCF_016727425.1_ASM1672742v1,NODE_2_length_150465_cov_8.932774_component_0,150465,
GCF_016727425.1_ASM1672742v1,NODE_3_length_142378_cov_8.619187_component_0,142378,
GCF_016727425.1_ASM1672742v1,NODE_4_length_134712_cov_10.091789_component_0,134712,
GCF_016727425.1_ASM1672742v1,NODE_5_length_126021_cov_7.809630_component_0,126021,
GCF_016727425.1_ASM1672742v1,NODE_6_length_118707_cov_7.099924_component_0,118707,
GCF_016727425.1_ASM1672742v1,NODE_7_length_112444_cov_9.923705_component_0,112444,
GCF_016727425.1_ASM1672742v1,NODE_8_length_108067_cov_10.536207_component_0,108067,
GCF_016727425.1_ASM1672742v1,NODE_9_length_105453_cov_8.389111_component_0,105453,
GCF_016727425.1_ASM1672742v1,NODE_10_length_105438_cov_6.022703_component_0,105438,
GCF_016727425.1_ASM1672742v1,NODE_11_length_97731_cov_8.574088_component_0,97731,
GCF_016727425.1_ASM1672742v1,NODE_12_length_96979_cov_12.787724_component_0,96979,
GCF_016727425.1_ASM1672742v1,NODE_13_length_92794_cov_8.873723_component_0,92794,
GCF_016727425.1_ASM1672742v1,NODE_14_length_88752_cov_5.826964_component_0,88752,
GCF_016727425.1_ASM1672742v1,NODE_15_length_86608_cov_6.368434_component_0,86608,
GCF_016727425.1_ASM1672742v1,NODE_16_length_81415_cov_7.273956_component_0,81415,
GCF_016727425.1_ASM1672742v1,NODE_17_length_79153_cov_6.503376_component_0,79153,
GCF_016727425.1_ASM1672742v1,NODE_18_length_75498_cov_6.520266_component_0,75498,
GCF_016727425.1_ASM1672742v1,NODE_19_length_73179_cov_5.472244_component_0,73179,
GCF_016727425.1_ASM1672742v1,NODE_20_length_70508_cov_5.848036_component_0,70508,
GCF_016727425.1_ASM1672742v1,NODE_21_length_70428_cov_6.502708_component_0,70428,
GCF_016727425.1_ASM1672742v1,NODE_22_length_69306_cov_6.980124_component_0,69306,
GCF_016727425.1_ASM1672742v1,NODE_23_length_67713_cov_6.412665_component_0,67713,
GCF_016727425.1_ASM1672742v1,NODE_24_length_65506_cov_6.279952_component_0,65506,
GCF_016727425.1_ASM1672742v1,NODE_25_length_65424_cov_5.562811_component_0,65424,
GCF_016727425.1_ASM1672742v1,NODE_26_length_65218_cov_7.064307_component_0,65218,
GCF_016727425.1_ASM1672742v1,NODE_27_length_64372_cov_7.922840_component_0,64372,
GCF_016727425.1_ASM1672742v1,NODE_28_length_63137_cov_7.024500_component_0,63137,
GCF_016727425.1_ASM1672742v1,NODE_30_length_58120_cov_6.393277_component_0,58120,
GCF_016727425.1_ASM1672742v1,NODE_31_length_57449_cov_6.130290_component_0,57449,
GCF_016727425.1_ASM1672742v1,NODE_32_length_56909_cov_6.750158_component_0,56909,
GCF_016727425.1_ASM1672742v1,NODE_33_length_56240_cov_7.384702_component_0,56240,
GCF_016727425.1_ASM1672742v1,NODE_34_length_54804_cov_8.089005_component_0,54804,
GCF_016727425.1_ASM1672742v1,NODE_35_length_54209_cov_9.461723_component_0,54209,
GCF_016727425.1_ASM1672742v1,NODE_36_length_53786_cov_9.552812_component_0,53786,
GCF_016727425.1_ASM1672742v1,NODE_37_length_53692_cov_7.667462_component_0,53692,
GCF_016727425.1_ASM1672742v1,NODE_38_length_49939_cov_6.887289_component_0,49939,
GCF_016727425.1_ASM1672742v1,NODE_39_length_49056_cov_9.442108_component_0,49056,
GCF_016727425.1_ASM1672742v1,NODE_40_length_45822_cov_7.721828_component_0,45822,
GCF_016727425.1_ASM1672742v1,NODE_41_length_45350_cov_6.095642_component_0,45350,
GCF_016727425.1_ASM1672742v1,NODE_42_length_44202_cov_6.058221_component_0,44202,
GCF_016727425.1_ASM1672742v1,NODE_43_length_43753_cov_5.965038_component_0,43753,
GCF_016727425.1_ASM1672742v1,NODE_44_length_43228_cov_7.488679_component_0,43228,
GCF_016727425.1_ASM1672742v1,NODE_45_length_42127_cov_6.522117_component_0,42127,
GCF_016727425.1_ASM1672742v1,NODE_46_length_40230_cov_5.776555_component_0,40230,
GCF_016727425.1_ASM1672742v1,NODE_47_length_39978_cov_5.906669_component_0,39978,
GCF_016727425.1_ASM1672742v1,NODE_48_length_36705_cov_5.805367_component_0,36705,
GCF_016727425.1_ASM1672742v1,NODE_49_length_35603_cov_6.372516_component_0,35603,
GCF_016727425.1_ASM1672742v1,NODE_50_length_33810_cov_12.074882_component_0,33810,
GCF_016727425.1_ASM1672742v1,NODE_51_length_32489_cov_6.027181_component_0,32489,
GCF_016727425.1_ASM1672742v1,NODE_52_length_32134_cov_7.005646_component_0,32134,
GCF_016727425.1_ASM1672742v1,NODE_53_length_30331_cov_5.944173_component_0,30331,
GCF_016727425.1_ASM1672742v1,NODE_54_length_29251_cov_10.722767_component_0,29251,
GCF_016727425.1_ASM1672742v1,NODE_55_length_29093_cov_7.183761_component_0,29093,
GCF_016727425.1_ASM1672742v1,NODE_57_length_23278_cov_8.780354_component_0,23278,
GCF_016727425.1_ASM1672742v1,NODE_58_length_21107_cov_5.882026_component_0,21107,
GCF_016727425.1_ASM1672742v1,NODE_59_length_20937_cov_6.347987_component_0,20937,
GCF_016727425.1_ASM1672742v1,NODE_60_length_20382_cov_8.929820_component_0,20382,
GCF_016727425.1_ASM1672742v1,NODE_61_length_19244_cov_10.628267_component_0,19244,
GCF_016727425.1_ASM1672742v1,NODE_62_length_18833_cov_6.748454_component_0,18833,
GCF_016727425.1_ASM1672742v1,NODE_63_length_17754_cov_7.001188_component_0,17754,
GCF_016727425.1_ASM1672742v1,NODE_64_length_17465_cov_5.325167_component_0,17465,
GCF_016727425.1_ASM1672742v1,NODE_65_length_16634_cov_5.936462_component_0,16634,
GCF_016727425.1_ASM1672742v1,NODE_66_length_15872_cov_6.305223_component_0,15872,
GCF_016727425.1_ASM1672742v1,NODE_67_length_15664_cov_7.267210_component_0,15664,
GCF_016727425.1_ASM1672742v1,NODE_68_length_14452_cov_5.593809_component_0,14452,
GCF_016727425.1_ASM1672742v1,NODE_69_length_13915_cov_5.743316_component_0,13915,
GCF_016727425.1_ASM1672742v1,NODE_70_length_13684_cov_6.368634_component_0,13684,
GCF_016727425.1_ASM1672742v1,NODE_71_length_13553_cov_6.455625_component_0,13553,
GCF_016727425.1_ASM1672742v1,NODE_72_length_13277_cov_11.153030_component_0,13277,
GCF_016727425.1_ASM1672742v1,NODE_73_length_12431_cov_10.662377_component_0,12431,
GCF_016727425.1_ASM1672742v1,NODE_74_length_12203_cov_7.361537_component_0,12203,
GCF_016727425.1_ASM1672742v1,NODE_75_length_12198_cov_7.463906_component_0,12198,
GCF_016727425.1_ASM1672742v1,NODE_76_length_11943_cov_5.837856_component_0,11943,
GCF_016727425.1_ASM1672742v1,NODE_77_length_11540_cov_9.124749_component_0,11540,
GCF_016727425.1_ASM1672742v1,NODE_78_length_11397_cov_6.400795_component_0,11397,
GCF_016727425.1_ASM1672742v1,NODE_79_length_9771_cov_8.851764_component_0,9771,
GCF_016727425.1_ASM1672742v1,NODE_80_length_9661_cov_6.247496_component_0,9661,
GCF_016727425.1_ASM1672742v1,NODE_81_length_9429_cov_5.755240_component_0,9429,
GCF_016727425.1_ASM1672742v1,NODE_82_length_8980_cov_8.171066_component_0,8980,
GCF_016727425.1_ASM1672742v1,NODE_84_length_8160_cov_5.744031_component_0,8160,
GCF_016727425.1_ASM1672742v1,NODE_86_length_7871_cov_6.702207_component_0,7871,
GCF_016727425.1_ASM1672742v1,NODE_87_length_7854_cov_7.100939_component_0,7854,
GCF_016727425.1_ASM1672742v1,NODE_88_length_7728_cov_6.365835_component_0,7728,
GCF_016727425.1_ASM1672742v1,NODE_89_length_7342_cov_6.586235_component_0,7342,
GCF_016727425.1_ASM1672742v1,NODE_92_length_6696_cov_8.573954_component_0,6696,
GCF_016727425.1_ASM1672742v1,NODE_93_length_6185_cov_5.745252_component_0,6185,
GCF_016727425.1_ASM1672742v1,NODE_94_length_6128_cov_7.242109_component_0,6128,
GCF_016727425.1_ASM1672742v1,NODE_95_length_5595_cov_7.077021_component_0,5595,
GCF_016727425.1_ASM1672742v1,NODE_96_length_5526_cov_7.084419_component_0,5526,
GCF_016727425.1_ASM1672742v1,NODE_98_length_5413_cov_8.328523_component_0,5413,
GCF_016727425.1_ASM1672742v1,NODE_101_length_4345_cov_7.052952_component_0,4345,
GCF_016727425.1_ASM1672742v1,NODE_103_length_3957_cov_8.441753_component_0,3957,
GCF_016727425.1_ASM1672742v1,NODE_104_length_3910_cov_6.240543_component_0,3910,
GCF_016727425.1_ASM1672742v1,NODE_106_length_3603_cov_8.916903_component_0,3603,
GCF_016727425.1_ASM1672742v1,NODE_107_length_3155_cov_7.985705_component_0,3155,
GCF_016727425.1_ASM1672742v1,NODE_110_length_2733_cov_13.647967_component_0,2733,
GCF_016727425.1_ASM1672742v1,NODE_111_length_2408_cov_6.955384_component_0,2408,
GCF_016727425.1_ASM1672742v1,NODE_112_length_2381_cov_7.062934_component_0,2381,
GCF_016727425.1_ASM1672742v1,NODE_113_length_2354_cov_6.605621_component_0,2354,
GCF_016727425.1_ASM1672742v1,NODE_114_length_2130_cov_8.582075_component_0,2130,
GCF_016727425.1_ASM1672742v1,NODE_115_length_2089_cov_7.574056_component_0,2089,
GCF_016727425.1_ASM1672742v1,NODE_116_length_2085_cov_5.802789_component_0,2085,
GCF_016727425.1_ASM1672742v1,NODE_117_length_1945_cov_7.924518_component_0,1945,
GCF_016727425.1_ASM1672742v1,NODE_118_length_1912_cov_42.149864_component_0,1912,
GCF_016727425.1_ASM1672742v1,NODE_119_length_1895_cov_7.338284_component_0,1895,
GCF_016727425.1_ASM1672742v1,NODE_120_length_1859_cov_6.180696_component_0,1859,
GCF_016727425.1_ASM1672742v1,NODE_121_length_1689_cov_5.374690_component_0,1689,
GCF_016727425.1_ASM1672742v1,NODE_123_length_1556_cov_7.501690_component_0,1556,
GCF_016727425.1_ASM1672742v1,NODE_125_length_1276_cov_13.998332_component_0,1276,
GCF_016727425.1_ASM1672742v1,NODE_127_length_1219_cov_360.584939_component_0,1219,
GCF_016727425.1_ASM1672742v1,NODE_128_length_1205_cov_1418.711879_component_0,1205,
GCF_016727425.1_ASM1672742v1,NODE_129_length_1130_cov_6.447293_component_0,1130,
GCF_904864445.1_KSB1_6G,NODE_31_length_3511_cov_127.220486_component_0,3511,
GCF_020525965.1_ASM2052596v1,NODE_19_length_4656_cov_69.015069_component_0,4656,
GCF_020525965.1_ASM2052596v1,NODE_49_length_1715_cov_124.711233_component_0,1715,
GCF_016903115.1_ASM1690311v1,NODE_17_length_1583_cov_2795.529216_component_5,1583,
GCF_012030545.2_ASM1203054v2,NODE_30_length_1088_cov_73.124629_component_0,1088,
GCF_016903475.1_ASM1690347v1,NODE_2_length_56169_cov_110.497540_component_1,56169,
GCF_016903475.1_ASM1690347v1,NODE_19_length_5540_cov_15.659528_component_3,5540,
GCF_014189335.1_ASM1418933v1,NODE_8_length_7581_cov_41.989133_component_0,7581,
GCF_014189335.1_ASM1418933v1,NODE_14_length_3862_cov_83.584471_component_0,3862,
GCF_014189335.1_ASM1418933v1,NODE_21_length_2233_cov_78.685185_component_0,2233,
GCF_014189335.1_ASM1418933v1,NODE_32_length_1097_cov_51.913402_component_0,1097,
GCF_014189335.1_ASM1418933v1,NODE_33_length_1092_cov_51.003109_component_0,1092,
GCF_014189335.1_ASM1418933v1,NODE_34_length_1005_cov_52.903189_component_0,1005,
GCF_904863215.1_INF277,NODE_16_length_2043_cov_1927.329332_component_3,2043,
GCF_904865825.1_INF018,NODE_1_length_54569_cov_115.336152_component_0,54569,
GCF_904865825.1_INF018,NODE_2_length_43815_cov_109.140654_component_0,43815,
GCF_904865825.1_INF018,NODE_3_length_19616_cov_108.223781_component_0,19616,
GCF_904865825.1_INF018,NODE_4_length_6740_cov_137.800150_component_0,6740,
GCF_904865825.1_INF018,NODE_5_length_6612_cov_138.818515_component_0,6612,
GCF_904865825.1_INF018,NODE_6_length_6581_cov_141.448514_component_0,6581,
GCF_904865825.1_INF018,NODE_7_length_6392_cov_112.149440_component_0,6392,
GCF_904865825.1_INF018,NODE_8_length_6058_cov_226.329169_component_0,6058,
GCF_904865825.1_INF018,NODE_9_length_5172_cov_139.377760_component_0,5172,
GCF_904865825.1_INF018,NODE_10_length_5018_cov_244.351400_component_0,5018,
GCF_904865825.1_INF018,NODE_17_length_2200_cov_131.523077_component_0,2200,
GCF_904865825.1_INF018,NODE_18_length_1908_cov_2.301133_component_0,1908,
GCF_904865825.1_INF018,NODE_19_length_1688_cov_118.939988_component_0,1688,
GCF_904865825.1_INF018,NODE_22_length_1279_cov_14.388072_component_0,1279,
GCF_904865825.1_INF018,NODE_23_length_1135_cov_2.099074_component_0,1135,
GCF_904864595.1_INF333,NODE_1_length_31917_cov_72.965138_component_0,31917,
GCF_904864595.1_INF333,NODE_3_length_8578_cov_67.193507_component_0,8578,
GCF_016903395.1_ASM1690339v1,NODE_34_length_3260_cov_2913.427898_component_1,3260,
GCF_013735895.1_ASM1373589v1,NODE_31_length_1427_cov_99.137778_component_0,1427,
GCF_016904315.1_ASM1690431v1,NODE_8_length_17385_cov_24.877167_component_3,17385,
GCF_016904315.1_ASM1690431v1,NODE_2_length_54414_cov_5.646742_component_0,54414,
GCF_016904315.1_ASM1690431v1,NODE_23_length_3639_cov_5.788883_component_0,3639,
GCF_016904315.1_ASM1690431v1,NODE_32_length_1866_cov_4.465623_component_0,1866,
GCF_016904315.1_ASM1690431v1,NODE_33_length_1591_cov_5.559445_component_0,1591,
GCF_016904315.1_ASM1690431v1,NODE_39_length_1324_cov_6.267041_component_0,1324,
GCF_016904315.1_ASM1690431v1,NODE_44_length_1164_cov_3.574977_component_0,1164,
GCF_016904315.1_ASM1690431v1,NODE_6_length_21073_cov_4.153839_component_2,21073,
GCF_016904315.1_ASM1690431v1,NODE_13_length_10180_cov_4.168564_component_2,10180,
GCF_016904035.1_ASM1690403v1,NODE_11_length_2059_cov_1087.207871_component_1,2059,
GCF_904863395.1_INF250,NODE_17_length_1102_cov_1.906399_component_0,1102,
GCF_904863395.1_INF250,NODE_18_length_1070_cov_2.736946_component_0,1070,
GCF_016904595.1_ASM1690459v1,NODE_6_length_13288_cov_2013.086746_component_0,13288,
GCF_016904595.1_ASM1690459v1,NODE_11_length_3066_cov_262.482101_component_2,3066,
GCF_016904595.1_ASM1690459v1,NODE_16_length_1562_cov_422.927946_component_2,1562,
GCF_016904595.1_ASM1690459v1,NODE_19_length_1240_cov_103.860705_component_2,1240,
GCF_904866405.1_INF279,NODE_18_length_2078_cov_1076.878398_component_0,2078,
GCF_016903295.1_ASM1690329v1,NODE_142_length_8669_cov_9.469041_component_9,8669,
GCF_016903295.1_ASM1690329v1,NODE_64_length_24528_cov_55.783158_component_11,24528,
GCF_016903295.1_ASM1690329v1,NODE_195_length_3170_cov_94.688328_component_17,3170,
GCF_016903295.1_ASM1690329v1,NODE_239_length_1473_cov_6.724928_component_1,1473,
GCF_016903295.1_ASM1690329v1,NODE_104_length_14641_cov_10.470338_component_3,14641,
GCF_016903295.1_ASM1690329v1,NODE_1_length_289809_cov_8.217273_component_0,289809,
GCF_016903295.1_ASM1690329v1,NODE_2_length_243413_cov_7.385241_component_0,243413,
GCF_016903295.1_ASM1690329v1,NODE_3_length_215584_cov_8.367120_component_0,215584,
GCF_016903295.1_ASM1690329v1,NODE_4_length_199984_cov_7.734632_component_0,199984,
GCF_016903295.1_ASM1690329v1,NODE_5_length_160069_cov_7.649664_component_0,160069,
GCF_016903295.1_ASM1690329v1,NODE_6_length_149667_cov_8.262424_component_0,149667,
GCF_016903295.1_ASM1690329v1,NODE_7_length_134732_cov_9.117575_component_0,134732,
GCF_016903295.1_ASM1690329v1,NODE_8_length_126822_cov_8.682441_component_0,126822,
GCF_016903295.1_ASM1690329v1,NODE_9_length_125878_cov_8.146724_component_0,125878,
GCF_016903295.1_ASM1690329v1,NODE_10_length_117193_cov_7.595136_component_0,117193,
GCF_016903295.1_ASM1690329v1,NODE_11_length_108494_cov_7.589907_component_0,108494,
GCF_016903295.1_ASM1690329v1,NODE_12_length_106657_cov_7.425324_component_0,106657,
GCF_016903295.1_ASM1690329v1,NODE_13_length_97256_cov_7.895739_component_0,97256,
GCF_016903295.1_ASM1690329v1,NODE_15_length_92787_cov_8.244720_component_0,92787,
GCF_016903295.1_ASM1690329v1,NODE_16_length_91819_cov_8.881592_component_0,91819,
GCF_016903295.1_ASM1690329v1,NODE_17_length_91094_cov_7.699320_component_0,91094,
GCF_016903295.1_ASM1690329v1,NODE_18_length_90370_cov_8.265292_component_0,90370,
GCF_016903295.1_ASM1690329v1,NODE_19_length_86725_cov_7.814733_component_0,86725,
GCF_016903295.1_ASM1690329v1,NODE_20_length_85650_cov_32.791266_component_0,85650,
GCF_016903295.1_ASM1690329v1,NODE_21_length_79254_cov_7.989290_component_0,79254,
GCF_016903295.1_ASM1690329v1,NODE_22_length_75274_cov_7.561991_component_0,75274,
GCF_016903295.1_ASM1690329v1,NODE_24_length_72725_cov_8.881580_component_0,72725,
GCF_016903295.1_ASM1690329v1,NODE_25_length_71324_cov_7.499221_component_0,71324,
GCF_016903295.1_ASM1690329v1,NODE_26_length_71104_cov_24.591874_component_0,71104,
GCF_016903295.1_ASM1690329v1,NODE_27_length_70149_cov_8.689348_component_0,70149,
GCF_016903295.1_ASM1690329v1,NODE_28_length_69039_cov_8.445013_component_0,69039,
GCF_016903295.1_ASM1690329v1,NODE_29_length_66464_cov_8.567280_component_0,66464,
GCF_016903295.1_ASM1690329v1,NODE_31_length_58559_cov_7.858572_component_0,58559,
GCF_016903295.1_ASM1690329v1,NODE_32_length_56965_cov_9.261672_component_0,56965,
GCF_016903295.1_ASM1690329v1,NODE_34_length_48710_cov_8.676537_component_0,48710,
GCF_016903295.1_ASM1690329v1,NODE_36_length_47586_cov_8.421836_component_0,47586,
GCF_016903295.1_ASM1690329v1,NODE_38_length_42539_cov_7.959517_component_0,42539,
GCF_016903295.1_ASM1690329v1,NODE_42_length_39758_cov_8.906782_component_0,39758,
GCF_016903295.1_ASM1690329v1,NODE_44_length_38562_cov_8.792724_component_0,38562,
GCF_016903295.1_ASM1690329v1,NODE_47_length_34677_cov_7.732197_component_0,34677,
GCF_016903295.1_ASM1690329v1,NODE_48_length_32758_cov_8.049845_component_0,32758,
GCF_016903295.1_ASM1690329v1,NODE_52_length_32032_cov_9.334502_component_0,32032,
GCF_016903295.1_ASM1690329v1,NODE_53_length_31793_cov_8.854111_component_0,31793,
GCF_016903295.1_ASM1690329v1,NODE_55_length_30965_cov_7.816563_component_0,30965,
GCF_016903295.1_ASM1690329v1,NODE_57_length_28789_cov_12.556144_component_0,28789,
GCF_016903295.1_ASM1690329v1,NODE_61_length_25851_cov_7.584193_component_0,25851,
GCF_016903295.1_ASM1690329v1,NODE_62_length_24897_cov_9.539444_component_0,24897,
GCF_016903295.1_ASM1690329v1,NODE_67_length_23777_cov_9.653671_component_0,23777,
GCF_016903295.1_ASM1690329v1,NODE_71_length_22507_cov_9.853143_component_0,22507,
GCF_016903295.1_ASM1690329v1,NODE_78_length_20777_cov_7.664300_component_0,20777,
GCF_016903295.1_ASM1690329v1,NODE_82_length_19196_cov_10.337727_component_0,19196,
GCF_016903295.1_ASM1690329v1,NODE_90_length_17258_cov_8.668238_component_0,17258,
GCF_016903295.1_ASM1690329v1,NODE_94_length_16598_cov_8.452757_component_0,16598,
GCF_016903295.1_ASM1690329v1,NODE_98_length_15853_cov_9.712601_component_0,15853,
GCF_016903295.1_ASM1690329v1,NODE_99_length_15756_cov_8.779323_component_0,15756,
GCF_016903295.1_ASM1690329v1,NODE_100_length_15640_cov_6.838013_component_0,15640,
GCF_016903295.1_ASM1690329v1,NODE_101_length_15397_cov_16.601762_component_0,15397,
GCF_016903295.1_ASM1690329v1,NODE_102_length_15097_cov_9.737350_component_0,15097,
GCF_016903295.1_ASM1690329v1,NODE_106_length_14169_cov_8.874113_component_0,14169,
GCF_016903295.1_ASM1690329v1,NODE_114_length_12600_cov_45.069233_component_0,12600,
GCF_016903295.1_ASM1690329v1,NODE_117_length_12134_cov_7.011363_component_0,12134,
GCF_016903295.1_ASM1690329v1,NODE_118_length_12077_cov_7.677750_component_0,12077,
GCF_016903295.1_ASM1690329v1,NODE_121_length_11381_cov_10.334660_component_0,11381,
GCF_016903295.1_ASM1690329v1,NODE_122_length_11273_cov_10.324937_component_0,11273,
GCF_016903295.1_ASM1690329v1,NODE_124_length_11080_cov_7.958557_component_0,11080,
GCF_016903295.1_ASM1690329v1,NODE_125_length_11057_cov_12.834062_component_0,11057,
GCF_016903295.1_ASM1690329v1,NODE_128_length_10906_cov_16.725367_component_0,10906,
GCF_016903295.1_ASM1690329v1,NODE_129_length_10695_cov_5.645790_component_0,10695,
GCF_016903295.1_ASM1690329v1,NODE_130_length_10381_cov_11.130629_component_0,10381,
GCF_016903295.1_ASM1690329v1,NODE_135_length_9580_cov_12.308008_component_0,9580,
GCF_016903295.1_ASM1690329v1,NODE_136_length_9469_cov_39.198893_component_0,9469,
GCF_016903295.1_ASM1690329v1,NODE_139_length_8898_cov_8.704229_component_0,8898,
GCF_016903295.1_ASM1690329v1,NODE_140_length_8804_cov_11.204881_component_0,8804,
GCF_016903295.1_ASM1690329v1,NODE_143_length_8638_cov_8.418292_component_0,8638,
GCF_016903295.1_ASM1690329v1,NODE_144_length_8532_cov_11.324542_component_0,8532,
GCF_016903295.1_ASM1690329v1,NODE_145_length_8405_cov_15.896494_component_0,8405,
GCF_016903295.1_ASM1690329v1,NODE_147_length_8284_cov_12.267576_component_0,8284,
GCF_016903295.1_ASM1690329v1,NODE_148_length_8278_cov_8.552006_component_0,8278,
GCF_016903295.1_ASM1690329v1,NODE_150_length_7968_cov_17.741604_component_0,7968,
GCF_016903295.1_ASM1690329v1,NODE_151_length_7822_cov_8.055391_component_0,7822,
GCF_016903295.1_ASM1690329v1,NODE_153_length_7523_cov_9.168413_component_0,7523,
GCF_016903295.1_ASM1690329v1,NODE_158_length_7009_cov_7.996249_component_0,7009,
GCF_016903295.1_ASM1690329v1,NODE_161_length_6719_cov_10.400482_component_0,6719,
GCF_016903295.1_ASM1690329v1,NODE_162_length_6527_cov_7.374419_component_0,6527,
GCF_016903295.1_ASM1690329v1,NODE_167_length_6033_cov_34.896743_component_0,6033,
GCF_016903295.1_ASM1690329v1,NODE_170_length_5944_cov_26.455599_component_0,5944,
GCF_016903295.1_ASM1690329v1,NODE_171_length_5667_cov_11.609839_component_0,5667,
GCF_016903295.1_ASM1690329v1,NODE_172_length_5660_cov_10.923518_component_0,5660,
GCF_016903295.1_ASM1690329v1,NODE_174_length_5393_cov_19.912152_component_0,5393,
GCF_016903295.1_ASM1690329v1,NODE_183_length_4480_cov_12.282989_component_0,4480,
GCF_016903295.1_ASM1690329v1,NODE_185_length_4324_cov_9.111608_component_0,4324,
GCF_016903295.1_ASM1690329v1,NODE_187_length_3927_cov_10.496623_component_0,3927,
GCF_016903295.1_ASM1690329v1,NODE_188_length_3758_cov_9.175496_component_0,3758,
GCF_016903295.1_ASM1690329v1,NODE_189_length_3679_cov_9.279012_component_0,3679,
GCF_016903295.1_ASM1690329v1,NODE_192_length_3508_cov_8.697464_component_0,3508,
GCF_016903295.1_ASM1690329v1,NODE_193_length_3239_cov_7.902593_component_0,3239,
GCF_016903295.1_ASM1690329v1,NODE_199_length_2861_cov_9.493894_component_0,2861,
GCF_016903295.1_ASM1690329v1,NODE_200_length_2825_cov_10.372635_component_0,2825,
GCF_016903295.1_ASM1690329v1,NODE_203_length_2571_cov_11.385726_component_0,2571,
GCF_016903295.1_ASM1690329v1,NODE_204_length_2454_cov_31.118216_component_0,2454,
GCF_016903295.1_ASM1690329v1,NODE_205_length_2439_cov_20.433108_component_0,2439,
GCF_016903295.1_ASM1690329v1,NODE_206_length_2433_cov_10.853565_component_0,2433,
GCF_016903295.1_ASM1690329v1,NODE_208_length_2337_cov_10.088496_component_0,2337,
GCF_016903295.1_ASM1690329v1,NODE_209_length_2283_cov_8.985947_component_0,2283,
GCF_016903295.1_ASM1690329v1,NODE_210_length_2263_cov_12.591034_component_0,2263,
GCF_016903295.1_ASM1690329v1,NODE_213_length_2186_cov_9.543385_component_0,2186,
GCF_016903295.1_ASM1690329v1,NODE_214_length_2170_cov_8.549928_component_0,2170,
GCF_016903295.1_ASM1690329v1,NODE_215_length_2057_cov_15.090909_component_0,2057,
GCF_016903295.1_ASM1690329v1,NODE_216_length_2055_cov_7.982811_component_0,2055,
GCF_016903295.1_ASM1690329v1,NODE_217_length_2041_cov_18.039715_component_0,2041,
GCF_016903295.1_ASM1690329v1,NODE_220_length_1994_cov_11.451748_component_0,1994,
GCF_016903295.1_ASM1690329v1,NODE_222_length_1919_cov_7.684582_component_0,1919,
GCF_016903295.1_ASM1690329v1,NODE_226_length_1776_cov_1.669217_component_0,1776,
GCF_016903295.1_ASM1690329v1,NODE_229_length_1695_cov_2.936959_component_0,1695,
GCF_016903295.1_ASM1690329v1,NODE_230_length_1676_cov_75.428393_component_0,1676,
GCF_016903295.1_ASM1690329v1,NODE_231_length_1634_cov_1.692357_component_0,1634,
GCF_016903295.1_ASM1690329v1,NODE_232_length_1618_cov_14.011681_component_0,1618,
GCF_016903295.1_ASM1690329v1,NODE_233_length_1611_cov_11.402216_component_0,1611,
GCF_016903295.1_ASM1690329v1,NODE_234_length_1600_cov_9.585030_component_0,1600,
GCF_016903295.1_ASM1690329v1,NODE_235_length_1596_cov_8.917051_component_0,1596,
GCF_016903295.1_ASM1690329v1,NODE_236_length_1535_cov_3.768176_component_0,1535,
GCF_016903295.1_ASM1690329v1,NODE_238_length_1476_cov_7.191565_component_0,1476,
GCF_016903295.1_ASM1690329v1,NODE_240_length_1471_cov_4.419656_component_0,1471,
GCF_016903295.1_ASM1690329v1,NODE_243_length_1402_cov_9.307170_component_0,1402,
GCF_016903295.1_ASM1690329v1,NODE_244_length_1394_cov_6.572513_component_0,1394,
GCF_016903295.1_ASM1690329v1,NODE_248_length_1311_cov_8.466775_component_0,1311,
GCF_016903295.1_ASM1690329v1,NODE_252_length_1172_cov_17.556164_component_0,1172,
GCF_016903295.1_ASM1690329v1,NODE_253_length_1159_cov_1.634935_component_0,1159,
GCF_016903295.1_ASM1690329v1,NODE_254_length_1115_cov_22.991329_component_0,1115,
GCF_016903295.1_ASM1690329v1,NODE_255_length_1097_cov_2.354902_component_0,1097,
GCF_016903295.1_ASM1690329v1,NODE_257_length_1068_cov_89.953582_component_0,1068,
GCF_016903295.1_ASM1690329v1,NODE_258_length_1058_cov_9.237513_component_0,1058,
GCF_016903295.1_ASM1690329v1,NODE_261_length_1006_cov_8.518837_component_0,1006,
GCF_016903295.1_ASM1690329v1,NODE_43_length_39041_cov_28.124320_component_2,39041,
GCF_016903295.1_ASM1690329v1,NODE_241_length_1459_cov_1.666425_component_2,1459,
GCF_016903295.1_ASM1690329v1,NODE_58_length_27218_cov_153.704727_component_8,27218,
GCF_003937135.2_ASM393713v2,NODE_37_length_2216_cov_52.203834_component_0,2216,
GCF_021655415.1_ASM2165541v1,NODE_10_length_2379_cov_242.116421_component_1,2379,
GCF_013736155.1_ASM1373615v1,NODE_49_length_1463_cov_43.603175_component_0,1463,
GCF_013734035.1_ASM1373403v1,NODE_15_length_1723_cov_861.404617_component_1,1723,
GCF_013704985.1_ASM1370498v1,NODE_30_length_2064_cov_378.306995_component_1,2064,
GCF_904866395.1_INF321,NODE_4_length_22089_cov_40.833212_component_0,22089,
GCF_904866395.1_INF321,NODE_6_length_15841_cov_42.741670_component_0,15841,
GCF_904866395.1_INF321,NODE_9_length_11824_cov_41.438695_component_0,11824,
GCF_904866395.1_INF321,NODE_11_length_7968_cov_42.585998_component_0,7968,
GCF_904866395.1_INF321,NODE_20_length_5300_cov_42.540133_component_0,5300,
GCF_904866395.1_INF321,NODE_41_length_1228_cov_42.458653_component_0,1228,
GCF_904863225.1_KSB1_6J,NODE_3_length_31899_cov_269.376523_component_1,31899,
GCF_904863225.1_KSB1_6J,NODE_7_length_8012_cov_409.038708_component_1,8012,
