GCF_016454545.1_ASM1645454v1,GCF_016454545.1_ASM1645454v1_bin_4,0
GCF_016454545.1_ASM1645454v1,GCF_016454545.1_ASM1645454v1_bin_3,0
GCF_016454545.1_ASM1645454v1,GCF_016454545.1_ASM1645454v1_bin_1,1
GCF_016454545.1_ASM1645454v1,GCF_016454545.1_ASM1645454v1_bin_2,0
GCF_016454385.1_ASM1645438v1,GCF_016454385.1_ASM1645438v1_bin_3,0
GCF_016454385.1_ASM1645438v1,GCF_016454385.1_ASM1645438v1_bin_2,0
GCF_016454385.1_ASM1645438v1,GCF_016454385.1_ASM1645438v1_bin_1,2
GCF_014334195.1_ASM1433419v1,GCF_014334195.1_ASM1433419v1_bin_1,1
GCF_014334195.1_ASM1433419v1,GCF_014334195.1_ASM1433419v1_bin_Unbinned,0
GCF_002507915.2_ASM250791v2,GCF_002507915.2_ASM250791v2_bin_Isolated_1,0
GCF_002507915.2_ASM250791v2,GCF_002507915.2_ASM250791v2_bin_Isolated_4,0
GCF_002507915.2_ASM250791v2,GCF_002507915.2_ASM250791v2_bin_Isolated_2,0
GCF_002507915.2_ASM250791v2,GCF_002507915.2_ASM250791v2_bin_1,0
GCF_002507915.2_ASM250791v2,GCF_002507915.2_ASM250791v2_bin_Isolated_3,0
GCF_002265865.2_ASM226586v2,GCF_002265865.2_ASM226586v2_bin_1,0
GCF_015241115.1_ASM1524111v1,GCF_015241115.1_ASM1524111v1_bin_2,0
GCF_015241115.1_ASM1524111v1,GCF_015241115.1_ASM1524111v1_bin_1,0
GCF_014334255.1_ASM1433425v1,GCF_014334255.1_ASM1433425v1_bin_3,0
GCF_014334255.1_ASM1433425v1,GCF_014334255.1_ASM1433425v1_bin_1,1
GCF_014334255.1_ASM1433425v1,GCF_014334255.1_ASM1433425v1_bin_2,0
GCF_016026715.1_ASM1602671v1,GCF_016026715.1_ASM1602671v1_bin_1,0
GCF_016026715.1_ASM1602671v1,GCF_016026715.1_ASM1602671v1_bin_2,0
GCF_014394985.2_ASM1439498v2,GCF_014394985.2_ASM1439498v2_bin_1,3
GCF_020736345.1_ASM2073634v1,GCF_020736345.1_ASM2073634v1_bin_3,0
GCF_020736345.1_ASM2073634v1,GCF_020736345.1_ASM2073634v1_bin_1,0
GCF_020736345.1_ASM2073634v1,GCF_020736345.1_ASM2073634v1_bin_4,0
GCF_020736345.1_ASM2073634v1,GCF_020736345.1_ASM2073634v1_bin_2,0
GCF_016454645.1_ASM1645464v1,GCF_016454645.1_ASM1645464v1_bin_1,4
GCF_016127435.1_ASM1612743v1,GCF_016127435.1_ASM1612743v1_bin_2,0
GCF_016127435.1_ASM1612743v1,GCF_016127435.1_ASM1612743v1_bin_Unbinned,0
GCF_016127435.1_ASM1612743v1,GCF_016127435.1_ASM1612743v1_bin_1,0
GCF_016127435.1_ASM1612743v1,GCF_016127435.1_ASM1612743v1_bin_3,0
GCF_016952595.1_ASM1695259v1,GCF_016952595.1_ASM1695259v1_bin_3,0
GCF_016952595.1_ASM1695259v1,GCF_016952595.1_ASM1695259v1_bin_2,0
GCF_016952595.1_ASM1695259v1,GCF_016952595.1_ASM1695259v1_bin_1,1
GCF_019670425.1_ASM1967042v1,GCF_019670425.1_ASM1967042v1_bin_1,0
GCF_019670365.1_ASM1967036v1,GCF_019670365.1_ASM1967036v1_bin_1,0
GCF_019670365.1_ASM1967036v1,GCF_019670365.1_ASM1967036v1_bin_2,0
GCF_022936485.1_ASM2293648v1,GCF_022936485.1_ASM2293648v1_bin_1,0
GCF_014840915.2_ASM1484091v2,GCF_014840915.2_ASM1484091v2_bin_1,3
GCF_014334235.1_ASM1433423v1,GCF_014334235.1_ASM1433423v1_bin_Unbinned,0
GCF_014334235.1_ASM1433423v1,GCF_014334235.1_ASM1433423v1_bin_2,0
GCF_014334235.1_ASM1433423v1,GCF_014334235.1_ASM1433423v1_bin_1,0
GCF_022226915.1_ASM2222691v1,GCF_022226915.1_ASM2222691v1_bin_1,0
GCF_016452045.1_ASM1645204v1,GCF_016452045.1_ASM1645204v1_bin_2,0
GCF_016452045.1_ASM1645204v1,GCF_016452045.1_ASM1645204v1_bin_1,0
GCF_022162985.1_ASM2216298v1,GCF_022162985.1_ASM2216298v1_bin_1,0
GCF_003067765.2_ASM306776v2,GCF_003067765.2_ASM306776v2_bin_1,0
GCF_003067765.2_ASM306776v2,GCF_003067765.2_ASM306776v2_bin_Isolated_2,0
GCF_003067765.2_ASM306776v2,GCF_003067765.2_ASM306776v2_bin_Isolated_1,0
GCF_003067765.2_ASM306776v2,GCF_003067765.2_ASM306776v2_bin_Isolated_3,0
GCF_016454465.1_ASM1645446v1,GCF_016454465.1_ASM1645446v1_bin_1,0
GCF_016454465.1_ASM1645446v1,GCF_016454465.1_ASM1645446v1_bin_Isolated_1,0
GCF_001652385.2_ASM165238v2,GCF_001652385.2_ASM165238v2_bin_1,1
GCF_001972545.2_ASM197254v2,GCF_001972545.2_ASM197254v2_bin_1,0
GCF_001972545.2_ASM197254v2,GCF_001972545.2_ASM197254v2_bin_Unbinned,0
GCF_001972545.2_ASM197254v2,GCF_001972545.2_ASM197254v2_bin_2,0
GCF_014858545.1_ASM1485854v1,GCF_014858545.1_ASM1485854v1_bin_3,0
GCF_014858545.1_ASM1485854v1,GCF_014858545.1_ASM1485854v1_bin_Unbinned,1
GCF_014858545.1_ASM1485854v1,GCF_014858545.1_ASM1485854v1_bin_1,1
GCF_014858545.1_ASM1485854v1,GCF_014858545.1_ASM1485854v1_bin_2,1
GCF_001972625.2_ASM197262v2,GCF_001972625.2_ASM197262v2_bin_1,0
GCF_001972625.2_ASM197262v2,GCF_001972625.2_ASM197262v2_bin_Unbinned,0
GCF_016127835.1_ASM1612783v1,GCF_016127835.1_ASM1612783v1_bin_1,0
GCF_016127835.1_ASM1612783v1,GCF_016127835.1_ASM1612783v1_bin_2,0
GCF_016454725.1_ASM1645472v1,GCF_016454725.1_ASM1645472v1_bin_6,0
GCF_016454725.1_ASM1645472v1,GCF_016454725.1_ASM1645472v1_bin_3,0
GCF_016454725.1_ASM1645472v1,GCF_016454725.1_ASM1645472v1_bin_5,0
GCF_016454725.1_ASM1645472v1,GCF_016454725.1_ASM1645472v1_bin_Isolated_1,0
GCF_016454725.1_ASM1645472v1,GCF_016454725.1_ASM1645472v1_bin_4,0
GCF_016454725.1_ASM1645472v1,GCF_016454725.1_ASM1645472v1_bin_2,0
GCF_016454725.1_ASM1645472v1,GCF_016454725.1_ASM1645472v1_bin_1,2
GCF_002266085.2_ASM226608v2,GCF_002266085.2_ASM226608v2_bin_1,0
GCF_016454245.1_ASM1645424v1,GCF_016454245.1_ASM1645424v1_bin_1,1
GCF_016452065.1_ASM1645206v1,GCF_016452065.1_ASM1645206v1_bin_1,4
GCF_016452065.1_ASM1645206v1,GCF_016452065.1_ASM1645206v1_bin_2,0
GCF_016025415.1_ASM1602541v1,GCF_016025415.1_ASM1602541v1_bin_1,4
GCF_016025415.1_ASM1602541v1,GCF_016025415.1_ASM1602541v1_bin_3,0
GCF_016025415.1_ASM1602541v1,GCF_016025415.1_ASM1602541v1_bin_2,0
GCF_013348865.1_ASM1334886v1,GCF_013348865.1_ASM1334886v1_bin_Unbinned,0
GCF_013348865.1_ASM1334886v1,GCF_013348865.1_ASM1334886v1_bin_1,1
GCF_013348865.1_ASM1334886v1,GCF_013348865.1_ASM1334886v1_bin_2,0
GCF_016454225.1_ASM1645422v1,GCF_016454225.1_ASM1645422v1_bin_1,0
GCF_019670345.1_ASM1967034v1,GCF_019670345.1_ASM1967034v1_bin_Unbinned,0
GCF_019670345.1_ASM1967034v1,GCF_019670345.1_ASM1967034v1_bin_1,4
GCF_001833255.2_ASM183325v2,GCF_001833255.2_ASM183325v2_bin_1,1
GCF_001833255.2_ASM183325v2,GCF_001833255.2_ASM183325v2_bin_2,0
GCF_016454425.1_ASM1645442v1,GCF_016454425.1_ASM1645442v1_bin_1,3
GCF_016454425.1_ASM1645442v1,GCF_016454425.1_ASM1645442v1_bin_2,0
GCF_016454425.1_ASM1645442v1,GCF_016454425.1_ASM1645442v1_bin_Unbinned,0
GCF_003581245.2_ASM358124v2,GCF_003581245.2_ASM358124v2_bin_1,0
GCF_020736325.1_ASM2073632v1,GCF_020736325.1_ASM2073632v1_bin_1,2
GCF_016454525.1_ASM1645452v1,GCF_016454525.1_ASM1645452v1_bin_1,2
GCF_016454525.1_ASM1645452v1,GCF_016454525.1_ASM1645452v1_bin_Unbinned,0
GCF_018340585.1_ASM1834058v1,GCF_018340585.1_ASM1834058v1_bin_2,0
GCF_018340585.1_ASM1834058v1,GCF_018340585.1_ASM1834058v1_bin_1,0
GCF_013161805.1_ASM1316180v1,GCF_013161805.1_ASM1316180v1_bin_3,0
GCF_013161805.1_ASM1316180v1,GCF_013161805.1_ASM1316180v1_bin_4,0
GCF_013161805.1_ASM1316180v1,GCF_013161805.1_ASM1316180v1_bin_1,0
GCF_013161805.1_ASM1316180v1,GCF_013161805.1_ASM1316180v1_bin_2,0
GCF_014805785.2_ASM1480578v2,GCF_014805785.2_ASM1480578v2_bin_1,3
GCF_019670405.1_ASM1967040v1,GCF_019670405.1_ASM1967040v1_bin_1,0
GCF_016454305.1_ASM1645430v1,GCF_016454305.1_ASM1645430v1_bin_1,1
GCF_016454305.1_ASM1645430v1,GCF_016454305.1_ASM1645430v1_bin_Unbinned,0
GCF_006461325.2_ASM646132v2,GCF_006461325.2_ASM646132v2_bin_1,2
GCF_002507865.2_ASM250786v2,GCF_002507865.2_ASM250786v2_bin_2,0
GCF_002507865.2_ASM250786v2,GCF_002507865.2_ASM250786v2_bin_1,0
GCF_019670285.1_ASM1967028v1,GCF_019670285.1_ASM1967028v1_bin_Unbinned,0
GCF_019670285.1_ASM1967028v1,GCF_019670285.1_ASM1967028v1_bin_1,4
GCF_002266205.2_ASM226620v2,GCF_002266205.2_ASM226620v2_bin_1,0
GCF_001973785.2_ASM197378v2,GCF_001973785.2_ASM197378v2_bin_2,0
GCF_001973785.2_ASM197378v2,GCF_001973785.2_ASM197378v2_bin_1,2
GCF_019670385.1_ASM1967038v1,GCF_019670385.1_ASM1967038v1_bin_1,1
GCF_001834965.2_ASM183496v2,GCF_001834965.2_ASM183496v2_bin_1,1
GCF_001834965.2_ASM183496v2,GCF_001834965.2_ASM183496v2_bin_2,0
GCF_019670225.1_ASM1967022v1,GCF_019670225.1_ASM1967022v1_bin_2,0
GCF_019670225.1_ASM1967022v1,GCF_019670225.1_ASM1967022v1_bin_1,1
GCF_016451985.1_ASM1645198v1,GCF_016451985.1_ASM1645198v1_bin_2,0
GCF_016451985.1_ASM1645198v1,GCF_016451985.1_ASM1645198v1_bin_1,0
GCF_006461415.2_ASM646141v2,GCF_006461415.2_ASM646141v2_bin_1,0
GCF_016454165.1_ASM1645416v1,GCF_016454165.1_ASM1645416v1_bin_1,2
GCF_003067925.2_ASM306792v2,GCF_003067925.2_ASM306792v2_bin_Isolated_1,0
GCF_003067925.2_ASM306792v2,GCF_003067925.2_ASM306792v2_bin_1,0
GCF_003067925.2_ASM306792v2,GCF_003067925.2_ASM306792v2_bin_2,0
GCF_016454585.1_ASM1645458v1,GCF_016454585.1_ASM1645458v1_bin_1,0
GCF_016028495.1_ASM1602849v1,GCF_016028495.1_ASM1602849v1_bin_1,0
GCF_016028495.1_ASM1602849v1,GCF_016028495.1_ASM1602849v1_bin_2,0
GCF_001713515.2_ASM171351v2,GCF_001713515.2_ASM171351v2_bin_3,0
GCF_001713515.2_ASM171351v2,GCF_001713515.2_ASM171351v2_bin_2,0
GCF_001713515.2_ASM171351v2,GCF_001713515.2_ASM171351v2_bin_1,1
GCF_001713515.2_ASM171351v2,GCF_001713515.2_ASM171351v2_bin_Isolated_1,0
GCF_016454365.1_ASM1645436v1,GCF_016454365.1_ASM1645436v1_bin_2,1
GCF_016454365.1_ASM1645436v1,GCF_016454365.1_ASM1645436v1_bin_Isolated_1,0
GCF_016454365.1_ASM1645436v1,GCF_016454365.1_ASM1645436v1_bin_4,0
GCF_016454365.1_ASM1645436v1,GCF_016454365.1_ASM1645436v1_bin_3,0
GCF_016454365.1_ASM1645436v1,GCF_016454365.1_ASM1645436v1_bin_1,0
GCF_016454265.1_ASM1645426v1,GCF_016454265.1_ASM1645426v1_bin_2,0
GCF_016454265.1_ASM1645426v1,GCF_016454265.1_ASM1645426v1_bin_1,3
GCF_019670245.1_ASM1967024v1,GCF_019670245.1_ASM1967024v1_bin_2,0
GCF_019670245.1_ASM1967024v1,GCF_019670245.1_ASM1967024v1_bin_4,0
GCF_019670245.1_ASM1967024v1,GCF_019670245.1_ASM1967024v1_bin_1,0
GCF_019670245.1_ASM1967024v1,GCF_019670245.1_ASM1967024v1_bin_3,0
GCF_016454205.1_ASM1645420v1,GCF_016454205.1_ASM1645420v1_bin_4,0
GCF_016454205.1_ASM1645420v1,GCF_016454205.1_ASM1645420v1_bin_9,0
GCF_016454205.1_ASM1645420v1,GCF_016454205.1_ASM1645420v1_bin_6,0
GCF_016454205.1_ASM1645420v1,GCF_016454205.1_ASM1645420v1_bin_2,0
GCF_016454205.1_ASM1645420v1,GCF_016454205.1_ASM1645420v1_bin_8,0
GCF_016454205.1_ASM1645420v1,GCF_016454205.1_ASM1645420v1_bin_1,0
GCF_016454205.1_ASM1645420v1,GCF_016454205.1_ASM1645420v1_bin_3,0
GCF_016454205.1_ASM1645420v1,GCF_016454205.1_ASM1645420v1_bin_5,0
GCF_016454205.1_ASM1645420v1,GCF_016454205.1_ASM1645420v1_bin_7,0
GCF_001834735.2_ASM183473v2,GCF_001834735.2_ASM183473v2_bin_1,0
GCF_015240635.1_ASM1524063v1,GCF_015240635.1_ASM1524063v1_bin_1,0
GCF_020736305.1_ASM2073630v1,GCF_020736305.1_ASM2073630v1_bin_1,2
GCF_021397675.1_ASM2139767v1,GCF_021397675.1_ASM2139767v1_bin_4,0
GCF_021397675.1_ASM2139767v1,GCF_021397675.1_ASM2139767v1_bin_1,1
GCF_021397675.1_ASM2139767v1,GCF_021397675.1_ASM2139767v1_bin_2,3
GCF_021397675.1_ASM2139767v1,GCF_021397675.1_ASM2139767v1_bin_Unbinned,2
GCF_021397675.1_ASM2139767v1,GCF_021397675.1_ASM2139767v1_bin_3,1
GCF_021397625.1_ASM2139762v1,GCF_021397625.1_ASM2139762v1_bin_6,2
GCF_021397625.1_ASM2139762v1,GCF_021397625.1_ASM2139762v1_bin_1,4
GCF_021397625.1_ASM2139762v1,GCF_021397625.1_ASM2139762v1_bin_2,2
GCF_021397625.1_ASM2139762v1,GCF_021397625.1_ASM2139762v1_bin_4,1
GCF_021397625.1_ASM2139762v1,GCF_021397625.1_ASM2139762v1_bin_5,1
GCF_021397625.1_ASM2139762v1,GCF_021397625.1_ASM2139762v1_bin_3,1
GCF_021397625.1_ASM2139762v1,GCF_021397625.1_ASM2139762v1_bin_Unbinned,1
GCF_022936365.1_ASM2293636v1,GCF_022936365.1_ASM2293636v1_bin_2,0
GCF_022936365.1_ASM2293636v1,GCF_022936365.1_ASM2293636v1_bin_3,0
GCF_022936365.1_ASM2293636v1,GCF_022936365.1_ASM2293636v1_bin_1,0
GCF_015074905.1_ASM1507490v1,GCF_015074905.1_ASM1507490v1_bin_3,0
GCF_015074905.1_ASM1507490v1,GCF_015074905.1_ASM1507490v1_bin_1,2
GCF_015074905.1_ASM1507490v1,GCF_015074905.1_ASM1507490v1_bin_6,0
GCF_015074905.1_ASM1507490v1,GCF_015074905.1_ASM1507490v1_bin_2,0
GCF_015074905.1_ASM1507490v1,GCF_015074905.1_ASM1507490v1_bin_4,0
GCF_015074905.1_ASM1507490v1,GCF_015074905.1_ASM1507490v1_bin_5,0
GCF_016452165.1_ASM1645216v1,GCF_016452165.1_ASM1645216v1_bin_Isolated_1,0
GCF_016452165.1_ASM1645216v1,GCF_016452165.1_ASM1645216v1_bin_2,2
GCF_016452165.1_ASM1645216v1,GCF_016452165.1_ASM1645216v1_bin_3,3
GCF_016452165.1_ASM1645216v1,GCF_016452165.1_ASM1645216v1_bin_1,0
GCF_016452165.1_ASM1645216v1,GCF_016452165.1_ASM1645216v1_bin_5,0
GCF_016452165.1_ASM1645216v1,GCF_016452165.1_ASM1645216v1_bin_4,0
GCF_016889645.1_ASM1688964v1,GCF_016889645.1_ASM1688964v1_bin_2,0
GCF_016889645.1_ASM1688964v1,GCF_016889645.1_ASM1688964v1_bin_1,0
GCF_013415925.1_ASM1341592v1,GCF_013415925.1_ASM1341592v1_bin_1,2
GCF_013415925.1_ASM1341592v1,GCF_013415925.1_ASM1341592v1_bin_2,0
GCF_016454345.1_ASM1645434v1,GCF_016454345.1_ASM1645434v1_bin_1,2
GCF_016454345.1_ASM1645434v1,GCF_016454345.1_ASM1645434v1_bin_2,0
GCF_019428465.1_ASM1942846v1,GCF_019428465.1_ASM1942846v1_bin_3,0
GCF_019428465.1_ASM1942846v1,GCF_019428465.1_ASM1942846v1_bin_1,0
GCF_019428465.1_ASM1942846v1,GCF_019428465.1_ASM1942846v1_bin_2,1
GCF_016454285.1_ASM1645428v1,GCF_016454285.1_ASM1645428v1_bin_1,0
GCF_016454285.1_ASM1645428v1,GCF_016454285.1_ASM1645428v1_bin_Isolated_1,0
GCF_022533545.1_ASM2253354v1,GCF_022533545.1_ASM2253354v1_bin_1,4
GCF_015240995.1_ASM1524099v1,GCF_015240995.1_ASM1524099v1_bin_2,0
GCF_015240995.1_ASM1524099v1,GCF_015240995.1_ASM1524099v1_bin_4,0
GCF_015240995.1_ASM1524099v1,GCF_015240995.1_ASM1524099v1_bin_1,0
GCF_015240995.1_ASM1524099v1,GCF_015240995.1_ASM1524099v1_bin_3,1
GCF_015240995.1_ASM1524099v1,GCF_015240995.1_ASM1524099v1_bin_5,3
GCF_014250355.1_ASM1425035v1,GCF_014250355.1_ASM1425035v1_bin_Isolated_1,0
GCF_014250355.1_ASM1425035v1,GCF_014250355.1_ASM1425035v1_bin_1,0
GCF_014250355.1_ASM1425035v1,GCF_014250355.1_ASM1425035v1_bin_2,0
GCF_016454325.1_ASM1645432v1,GCF_016454325.1_ASM1645432v1_bin_1,0
GCF_015159575.1_ASM1515957v1,GCF_015159575.1_ASM1515957v1_bin_1,0
GCF_015159575.1_ASM1515957v1,GCF_015159575.1_ASM1515957v1_bin_Unbinned,0
GCF_022936385.1_ASM2293638v1,GCF_022936385.1_ASM2293638v1_bin_1,0
GCF_003068025.2_ASM306802v2,GCF_003068025.2_ASM306802v2_bin_2,0
GCF_003068025.2_ASM306802v2,GCF_003068025.2_ASM306802v2_bin_1,1
GCF_003068025.2_ASM306802v2,GCF_003068025.2_ASM306802v2_bin_3,0
GCF_016025375.1_ASM1602537v1,GCF_016025375.1_ASM1602537v1_bin_1,0
GCF_016025375.1_ASM1602537v1,GCF_016025375.1_ASM1602537v1_bin_Unbinned,0
GCF_016454445.1_ASM1645444v1,GCF_016454445.1_ASM1645444v1_bin_Unbinned,0
GCF_016454445.1_ASM1645444v1,GCF_016454445.1_ASM1645444v1_bin_2,0
GCF_016454445.1_ASM1645444v1,GCF_016454445.1_ASM1645444v1_bin_1,3
GCF_022655645.1_ASM2265564v1,GCF_022655645.1_ASM2265564v1_bin_1,0
GCF_022655645.1_ASM2265564v1,GCF_022655645.1_ASM2265564v1_bin_3,0
GCF_022655645.1_ASM2265564v1,GCF_022655645.1_ASM2265564v1_bin_Unbinned,0
GCF_022655645.1_ASM2265564v1,GCF_022655645.1_ASM2265564v1_bin_2,0
GCF_016454665.1_ASM1645466v1,GCF_016454665.1_ASM1645466v1_bin_2,0
GCF_016454665.1_ASM1645466v1,GCF_016454665.1_ASM1645466v1_bin_Unbinned,0
GCF_016454665.1_ASM1645466v1,GCF_016454665.1_ASM1645466v1_bin_3,0
GCF_016454665.1_ASM1645466v1,GCF_016454665.1_ASM1645466v1_bin_1,0
GCF_022936425.1_ASM2293642v1,GCF_022936425.1_ASM2293642v1_bin_3,0
GCF_022936425.1_ASM2293642v1,GCF_022936425.1_ASM2293642v1_bin_2,0
GCF_022936425.1_ASM2293642v1,GCF_022936425.1_ASM2293642v1_bin_1,1
GCF_014334175.1_ASM1433417v1,GCF_014334175.1_ASM1433417v1_bin_1,1
GCF_014334175.1_ASM1433417v1,GCF_014334175.1_ASM1433417v1_bin_3,0
GCF_014334175.1_ASM1433417v1,GCF_014334175.1_ASM1433417v1_bin_2,0
GCF_022870605.1_ASM2287060v1,GCF_022870605.1_ASM2287060v1_bin_1,6
GCF_022870605.1_ASM2287060v1,GCF_022870605.1_ASM2287060v1_bin_3,0
GCF_022870605.1_ASM2287060v1,GCF_022870605.1_ASM2287060v1_bin_2,5
GCF_014858565.1_ASM1485856v1,GCF_014858565.1_ASM1485856v1_bin_2,0
GCF_014858565.1_ASM1485856v1,GCF_014858565.1_ASM1485856v1_bin_1,3
GCF_015074885.1_ASM1507488v1,GCF_015074885.1_ASM1507488v1_bin_1,0
GCF_015074885.1_ASM1507488v1,GCF_015074885.1_ASM1507488v1_bin_4,0
GCF_015074885.1_ASM1507488v1,GCF_015074885.1_ASM1507488v1_bin_3,0
GCF_015074885.1_ASM1507488v1,GCF_015074885.1_ASM1507488v1_bin_2,1
GCF_015074885.1_ASM1507488v1,GCF_015074885.1_ASM1507488v1_bin_Unbinned,0
GCF_016454765.1_ASM1645476v1,GCF_016454765.1_ASM1645476v1_bin_1,1
GCF_016454765.1_ASM1645476v1,GCF_016454765.1_ASM1645476v1_bin_2,0
GCF_016454505.1_ASM1645450v1,GCF_016454505.1_ASM1645450v1_bin_1,0
GCF_003064405.2_ASM306440v2,GCF_003064405.2_ASM306440v2_bin_Unbinned,0
GCF_003064405.2_ASM306440v2,GCF_003064405.2_ASM306440v2_bin_1,1
GCF_003064405.2_ASM306440v2,GCF_003064405.2_ASM306440v2_bin_2,0
GCF_016452005.1_ASM1645200v1,GCF_016452005.1_ASM1645200v1_bin_2,0
GCF_016452005.1_ASM1645200v1,GCF_016452005.1_ASM1645200v1_bin_1,4
GCF_016025435.1_ASM1602543v1,GCF_016025435.1_ASM1602543v1_bin_1,0
GCF_016025435.1_ASM1602543v1,GCF_016025435.1_ASM1602543v1_bin_2,1
GCF_016025435.1_ASM1602543v1,GCF_016025435.1_ASM1602543v1_bin_3,1
GCF_015240855.1_ASM1524085v1,GCF_015240855.1_ASM1524085v1_bin_1,2
GCF_015240855.1_ASM1524085v1,GCF_015240855.1_ASM1524085v1_bin_2,0
GCF_019670445.1_ASM1967044v1,GCF_019670445.1_ASM1967044v1_bin_1,0
GCF_021397645.1_ASM2139764v1,GCF_021397645.1_ASM2139764v1_bin_3,2
GCF_021397645.1_ASM2139764v1,GCF_021397645.1_ASM2139764v1_bin_2,2
GCF_021397645.1_ASM2139764v1,GCF_021397645.1_ASM2139764v1_bin_1,3
GCF_021397645.1_ASM2139764v1,GCF_021397645.1_ASM2139764v1_bin_5,0
GCF_021397645.1_ASM2139764v1,GCF_021397645.1_ASM2139764v1_bin_4,1
GCF_001831985.2_ASM183198v2,GCF_001831985.2_ASM183198v2_bin_2,0
GCF_001831985.2_ASM183198v2,GCF_001831985.2_ASM183198v2_bin_1,0
GCF_016454185.1_ASM1645418v1,GCF_016454185.1_ASM1645418v1_bin_1,1
GCF_013328855.1_ASM1332885v1,GCF_013328855.1_ASM1332885v1_bin_1,1
GCF_003067445.2_ASM306744v2,GCF_003067445.2_ASM306744v2_bin_1,0
GCF_022670675.1_ASM2267067v1,GCF_022670675.1_ASM2267067v1_bin_1,1
