GCF_016454385.1_ASM1645438v1,S35_LN_i_4099_dp_f_1.0586923593125217,4099,
GCF_016025415.1_ASM1602541v1,S33_LN_i_25144_dp_f_1.7442046457658946,25144,
GCF_013348865.1_ASM1334886v1,S41_LN_i_34158_dp_f_2.7783236393485917,34158,
GCF_003581245.2_ASM358124v2,S20_LN_i_57628_dp_f_1.6043968126982957,57628,
GCF_003581245.2_ASM358124v2,S29_LN_i_2336_dp_f_1.965079867098312,2336,
GCF_020736325.1_ASM2073632v1,S38_LN_i_5952_dp_f_0.7990757389161038,5952,
GCF_001834965.2_ASM183496v2,S24_LN_i_26022_dp_f_5.133464349266923,26022,
GCF_016454205.1_ASM1645420v1,S24_LN_i_35897_dp_f_1.0338647548029092,35897,
GCF_016454205.1_ASM1645420v1,S40_LN_i_1923_dp_f_1.3439464349425065,1923,
GCF_001831985.2_ASM183198v2,S14_LN_i_102801_dp_f_2.1102973560077496,102801,
GCF_001831985.2_ASM183198v2,S29_LN_i_22284_dp_f_2.218749960722108,22284,
GCF_001831985.2_ASM183198v2,S32_LN_i_7508_dp_f_2.2392116532824002,7508,
GCF_001831985.2_ASM183198v2,S54_LN_i_1147_dp_f_4.551809270583285,1147,
