"software","variable","value","percentage","replicon_origin","species"
"gplas2.0_plasmidEC","Contamination",52,"not_applicable","Chromosome","S_enterica"
"MOB-suite","Contamination",50,"not_applicable","Chromosome","S_enterica"
"gplas2.0_plasmidEC","Not detected",268,"51.24","Plasmidome","S_enterica"
"MOB-suite","Not detected",462,"88.34","Plasmidome","S_enterica"
"gplas2.0_plasmidEC","Correct Backbone",189,"36.14","Plasmidome","S_enterica"
"MOB-suite","Correct Backbone",56,"10.71","Plasmidome","S_enterica"
"gplas2.0_plasmidEC","Incorrect Backbone",66,"12.62","Plasmidome","S_enterica"
"MOB-suite","Incorrect Backbone",5,"0.96","Plasmidome","S_enterica"
