"strain","reference_id","classification","true_plasmid_length","true_nr_args","arg_plasmid","length_classification"
"GCA_011843745.2_ASM1184374v2","CP058232.1","plasmid",94605,0,"non-ARG-plasmid","large"
"GCA_011849985.2_ASM1184998v2","CP058234.1","plasmid",94600,0,"non-ARG-plasmid","large"
"GCA_012849755.1_ASM1284975v1","CP051632.1","plasmid",81965,0,"non-ARG-plasmid","large"
"GCA_013592195.1_ASM1359219v1","CP055625.1","plasmid",119408,1,"ARG-plasmid","large"
"GCA_013592195.1_ASM1359219v1","CP055626.1","plasmid",94171,0,"non-ARG-plasmid","large"
"GCA_013592195.1_ASM1359219v1","CP055627.1","plasmid",92689,0,"non-ARG-plasmid","large"
"GCA_013592195.1_ASM1359219v1","CP055628.1","plasmid",46125,0,"non-ARG-plasmid","large"
"GCA_013592195.1_ASM1359219v1","CP055629.1","plasmid",3125,0,"non-ARG-plasmid","small"
"GCA_013592195.1_ASM1359219v1","CP055630.1","plasmid",1348,0,"non-ARG-plasmid","small"
"GCA_013601135.1_ASM1360113v1","CP055714.1","plasmid",72254,0,"non-ARG-plasmid","large"
"GCA_013601135.1_ASM1360113v1","CP055715.1","plasmid",37616,0,"non-ARG-plasmid","large"
"GCA_013601135.1_ASM1360113v1","CP055716.1","plasmid",6809,0,"non-ARG-plasmid","small"
"GCA_013601135.1_ASM1360113v1","CP055717.1","plasmid",1611,0,"non-ARG-plasmid","small"
"GCA_013602835.1_ASM1360283v1","CP055734.1","plasmid",2848,0,"non-ARG-plasmid","small"
"GCA_013602835.1_ASM1360283v1","CP055735.1","plasmid",2275,0,"non-ARG-plasmid","small"
"GCA_013602835.1_ASM1360283v1","CP055725.1","plasmid",92722,0,"non-ARG-plasmid","large"
"GCA_013602835.1_ASM1360283v1","CP055726.1","plasmid",55974,0,"non-ARG-plasmid","large"
"GCA_013602835.1_ASM1360283v1","CP055727.1","plasmid",6988,0,"non-ARG-plasmid","small"
"GCA_013602835.1_ASM1360283v1","CP055728.1","plasmid",6746,0,"non-ARG-plasmid","small"
"GCA_013602835.1_ASM1360283v1","CP055729.1","plasmid",4973,0,"non-ARG-plasmid","small"
"GCA_013602835.1_ASM1360283v1","CP055730.1","plasmid",4286,0,"non-ARG-plasmid","small"
"GCA_013602835.1_ASM1360283v1","CP055731.1","plasmid",3605,0,"non-ARG-plasmid","small"
"GCA_013602835.1_ASM1360283v1","CP055732.1","plasmid",3142,0,"non-ARG-plasmid","small"
"GCA_013602835.1_ASM1360283v1","CP055733.1","plasmid",3136,0,"non-ARG-plasmid","small"
"GCA_013725775.1_ASM1372577v1","CP056243.1","plasmid",108567,0,"non-ARG-plasmid","large"
"GCA_013727075.1_ASM1372707v1","CP056250.1","plasmid",112626,0,"non-ARG-plasmid","large"
"GCA_013727815.1_ASM1372781v1","CP056264.1","plasmid",77336,2,"ARG-plasmid","large"
"GCA_013727815.1_ASM1372781v1","CP056265.1","plasmid",57094,0,"non-ARG-plasmid","large"
"GCA_013727815.1_ASM1372781v1","CP056266.1","plasmid",7939,0,"non-ARG-plasmid","small"
"GCA_013728735.1_ASM1372873v1","CP056274.1","plasmid",139002,0,"non-ARG-plasmid","large"
"GCA_013729295.1_ASM1372929v1","CP056279.1","plasmid",59864,0,"non-ARG-plasmid","large"
"GCA_013729295.1_ASM1372929v1","CP056280.1","plasmid",52530,0,"non-ARG-plasmid","large"
"GCA_013729295.1_ASM1372929v1","CP056281.1","plasmid",4074,0,"non-ARG-plasmid","small"
"GCA_013729535.1_ASM1372953v1","CP056283.1","plasmid",97488,0,"non-ARG-plasmid","large"
"GCA_013730915.1_ASM1373091v1","CP056300.1","plasmid",110291,0,"non-ARG-plasmid","large"
"GCA_013731515.1_ASM1373151v1","CP056305.1","plasmid",131482,5,"ARG-plasmid","large"
"GCA_013731515.1_ASM1373151v1","CP056306.1","plasmid",4074,0,"non-ARG-plasmid","small"
"GCA_013732175.1_ASM1373217v1","CP056316.1","plasmid",88905,6,"ARG-plasmid","large"
"GCA_013732175.1_ASM1373217v1","CP056317.1","plasmid",55918,8,"ARG-plasmid","large"
"GCA_013732175.1_ASM1373217v1","CP056318.1","plasmid",5716,0,"non-ARG-plasmid","small"
"GCA_013732175.1_ASM1373217v1","CP056319.1","plasmid",5444,0,"non-ARG-plasmid","small"
"GCA_013732175.1_ASM1373217v1","CP056320.1","plasmid",4084,0,"non-ARG-plasmid","small"
"GCA_013735655.1_ASM1373565v1","CP056413.1","plasmid",187726,0,"non-ARG-plasmid","large"
"GCA_013735655.1_ASM1373565v1","CP056414.1","plasmid",13243,0,"non-ARG-plasmid","small"
"GCA_013735655.1_ASM1373565v1","CP056415.1","plasmid",4566,0,"non-ARG-plasmid","small"
"GCA_013735655.1_ASM1373565v1","CP056416.1","plasmid",4161,0,"non-ARG-plasmid","small"
"GCA_013735655.1_ASM1373565v1","CP056417.1","plasmid",2353,0,"non-ARG-plasmid","small"
"GCA_013739975.1_ASM1373997v1","CP056405.1","plasmid",68855,0,"non-ARG-plasmid","large"
"GCA_013739975.1_ASM1373997v1","CP056406.1","plasmid",7461,0,"non-ARG-plasmid","small"
"GCA_013739975.1_ASM1373997v1","CP056407.1","plasmid",2524,0,"non-ARG-plasmid","small"
"GCA_013739975.1_ASM1373997v1","CP056408.1","plasmid",2089,0,"non-ARG-plasmid","small"
"GCA_013740395.1_ASM1374039v1","CP056447.1","plasmid",93941,1,"ARG-plasmid","large"
"GCA_013740395.1_ASM1374039v1","CP056448.1","plasmid",57093,0,"non-ARG-plasmid","large"
"GCA_013740395.1_ASM1374039v1","CP056449.1","plasmid",6200,3,"ARG-plasmid","small"
"GCA_013740395.1_ASM1374039v1","CP056450.1","plasmid",4197,0,"non-ARG-plasmid","small"
"GCA_013741635.1_ASM1374163v1","CP056599.1","plasmid",124230,3,"ARG-plasmid","large"
"GCA_013741635.1_ASM1374163v1","CP056600.1","plasmid",93526,3,"ARG-plasmid","large"
"GCA_013741635.1_ASM1374163v1","CP056601.1","plasmid",7939,0,"non-ARG-plasmid","small"
"GCA_013741635.1_ASM1374163v1","CP056602.1","plasmid",4072,0,"non-ARG-plasmid","small"
"GCA_013741635.1_ASM1374163v1","CP056603.1","plasmid",1552,0,"non-ARG-plasmid","small"
"GCA_013741855.1_ASM1374185v1","CP056609.1","plasmid",146435,0,"non-ARG-plasmid","large"
"GCA_013741855.1_ASM1374185v1","CP056610.1","plasmid",97721,0,"non-ARG-plasmid","large"
"GCA_013741855.1_ASM1374185v1","CP056611.1","plasmid",4072,0,"non-ARG-plasmid","small"
"GCA_013741855.1_ASM1374185v1","CP056612.1","plasmid",1565,0,"non-ARG-plasmid","small"
"GCA_013742135.1_ASM1374213v1","CP056614.1","plasmid",146436,0,"non-ARG-plasmid","large"
"GCA_013742135.1_ASM1374213v1","CP056615.1","plasmid",97721,0,"non-ARG-plasmid","large"
"GCA_013742135.1_ASM1374213v1","CP056616.1","plasmid",4072,0,"non-ARG-plasmid","small"
"GCA_013742135.1_ASM1374213v1","CP056617.1","plasmid",1565,0,"non-ARG-plasmid","small"
"GCA_013742835.1_ASM1374283v1","CP056626.1","plasmid",153071,0,"non-ARG-plasmid","large"
"GCA_013742835.1_ASM1374283v1","CP056627.1","plasmid",128439,0,"non-ARG-plasmid","large"
"GCA_013742835.1_ASM1374283v1","CP056628.1","plasmid",4075,0,"non-ARG-plasmid","small"
"GCA_013742835.1_ASM1374283v1","CP056629.1","plasmid",4018,0,"non-ARG-plasmid","small"
"GCA_013742835.1_ASM1374283v1","CP056630.1","plasmid",1917,0,"non-ARG-plasmid","small"
"GCA_013742835.1_ASM1374283v1","CP056631.1","plasmid",1610,0,"non-ARG-plasmid","small"
"GCA_013744185.1_ASM1374418v1","CP056656.1","plasmid",116506,0,"non-ARG-plasmid","large"
"GCA_013744185.1_ASM1374418v1","CP056657.1","plasmid",4401,0,"non-ARG-plasmid","small"
"GCA_013744185.1_ASM1374418v1","CP056658.1","plasmid",4315,0,"non-ARG-plasmid","small"
"GCA_013744185.1_ASM1374418v1","CP056659.1","plasmid",4161,0,"non-ARG-plasmid","small"
"GCA_013744185.1_ASM1374418v1","CP056660.1","plasmid",3675,0,"non-ARG-plasmid","small"
"GCA_013744185.1_ASM1374418v1","CP056661.1","plasmid",2865,0,"non-ARG-plasmid","small"
"GCA_013745955.1_ASM1374595v1","CP056358.1","plasmid",119656,0,"non-ARG-plasmid","large"
"GCA_013745955.1_ASM1374595v1","CP056359.1","plasmid",4116,0,"non-ARG-plasmid","small"
"GCA_013745955.1_ASM1374595v1","CP056360.1","plasmid",4073,0,"non-ARG-plasmid","small"
"GCA_013746875.1_ASM1374687v1","CP056397.1","plasmid",7536,0,"non-ARG-plasmid","small"
"GCA_013746875.1_ASM1374687v1","CP056398.1","plasmid",2292,0,"non-ARG-plasmid","small"
"GCA_013748665.1_ASM1374866v1","CP056493.1","plasmid",77183,4,"ARG-plasmid","large"
"GCA_013748665.1_ASM1374866v1","CP056494.1","plasmid",74158,0,"non-ARG-plasmid","large"
"GCA_013749295.1_ASM1374929v1","CP056525.1","plasmid",132310,5,"ARG-plasmid","large"
"GCA_013749295.1_ASM1374929v1","CP056526.1","plasmid",4074,0,"non-ARG-plasmid","small"
"GCA_013749975.1_ASM1374997v1","CP056557.1","plasmid",107875,0,"non-ARG-plasmid","large"
"GCA_013749975.1_ASM1374997v1","CP056558.1","plasmid",75959,0,"non-ARG-plasmid","large"
"GCA_013750375.1_ASM1375037v1","CP056566.1","plasmid",13429,0,"non-ARG-plasmid","small"
"GCA_013750815.1_ASM1375081v1","CP056570.1","plasmid",114257,0,"non-ARG-plasmid","large"
"GCA_013750815.1_ASM1375081v1","CP056571.1","plasmid",78143,1,"ARG-plasmid","large"
"GCA_013750815.1_ASM1375081v1","CP056572.1","plasmid",39529,0,"non-ARG-plasmid","large"
"GCA_013751495.1_ASM1375149v1","CP056585.1","plasmid",149874,0,"non-ARG-plasmid","large"
"GCA_013752075.1_ASM1375207v1","CP056605.1","plasmid",118906,0,"non-ARG-plasmid","large"
"GCA_013752075.1_ASM1375207v1","CP056606.1","plasmid",108784,5,"ARG-plasmid","large"
"GCA_013752075.1_ASM1375207v1","CP056607.1","plasmid",87886,0,"non-ARG-plasmid","large"
"GCA_013752295.1_ASM1375229v1","CP056619.1","plasmid",110691,1,"ARG-plasmid","large"
"GCA_013783465.1_ASM1378346v1","CP056349.1","plasmid",83612,0,"non-ARG-plasmid","large"
"GCA_013783685.1_ASM1378368v1","CP056356.1","plasmid",146879,0,"non-ARG-plasmid","large"
"GCA_013783905.1_ASM1378390v1","CP056371.1","plasmid",118132,3,"ARG-plasmid","large"
"GCA_013785265.1_ASM1378526v1","CP056482.1","plasmid",1887,0,"non-ARG-plasmid","small"
"GCA_013786125.1_ASM1378612v1","CP056621.1","plasmid",96659,0,"non-ARG-plasmid","large"
"GCA_013786165.1_ASM1378616v1","CP056633.1","plasmid",7462,0,"non-ARG-plasmid","small"
"GCA_013786165.1_ASM1378616v1","CP056634.1","plasmid",4072,0,"non-ARG-plasmid","small"
"GCA_013789905.1_ASM1378990v1","CP056787.1","plasmid",167752,8,"ARG-plasmid","large"
"GCA_013789905.1_ASM1378990v1","CP056788.1","plasmid",111310,0,"non-ARG-plasmid","large"
"GCA_013789905.1_ASM1378990v1","CP056789.1","plasmid",12602,0,"non-ARG-plasmid","small"
"GCA_013789905.1_ASM1378990v1","CP056790.1","plasmid",3133,0,"non-ARG-plasmid","small"
"GCA_013789905.1_ASM1378990v1","CP056791.1","plasmid",2088,0,"non-ARG-plasmid","small"
"GCA_013789905.1_ASM1378990v1","CP056792.1","plasmid",1976,0,"non-ARG-plasmid","small"
"GCA_013789905.1_ASM1378990v1","CP056793.1","plasmid",1551,0,"non-ARG-plasmid","small"
"GCA_013790145.1_ASM1379014v1","CP056795.1","plasmid",201308,0,"non-ARG-plasmid","large"
"GCA_013790145.1_ASM1379014v1","CP056796.1","plasmid",93185,0,"non-ARG-plasmid","large"
"GCA_013790145.1_ASM1379014v1","CP056797.1","plasmid",92191,2,"ARG-plasmid","large"
"GCA_013790145.1_ASM1379014v1","CP056798.1","plasmid",69063,0,"non-ARG-plasmid","large"
"GCA_013790145.1_ASM1379014v1","CP056799.1","plasmid",41391,0,"non-ARG-plasmid","large"
"GCA_013790245.1_ASM1379024v1","CP056801.1","plasmid",114414,1,"ARG-plasmid","large"
"GCA_013790245.1_ASM1379024v1","CP056802.1","plasmid",79649,0,"non-ARG-plasmid","large"
"GCA_013790245.1_ASM1379024v1","CP056803.1","plasmid",76107,2,"ARG-plasmid","large"
"GCA_013790245.1_ASM1379024v1","CP056804.1","plasmid",5210,0,"non-ARG-plasmid","small"
"GCA_013790245.1_ASM1379024v1","CP056805.1","plasmid",5165,0,"non-ARG-plasmid","small"
"GCA_013790245.1_ASM1379024v1","CP056806.1","plasmid",1976,0,"non-ARG-plasmid","small"
"GCA_013790245.1_ASM1379024v1","CP056807.1","plasmid",1549,0,"non-ARG-plasmid","small"
"GCA_013790245.1_ASM1379024v1","CP056808.1","plasmid",1506,0,"non-ARG-plasmid","small"
"GCA_013790285.1_ASM1379028v1","CP056811.1","plasmid",133729,0,"non-ARG-plasmid","large"
"GCA_013790285.1_ASM1379028v1","CP056812.1","plasmid",36596,0,"non-ARG-plasmid","large"
"GCA_013790285.1_ASM1379028v1","CP056813.1","plasmid",3792,0,"non-ARG-plasmid","small"
"GCA_013790285.1_ASM1379028v1","CP056814.1","plasmid",2150,0,"non-ARG-plasmid","small"
"GCA_013790285.1_ASM1379028v1","CP056815.1","plasmid",1474,0,"non-ARG-plasmid","small"
"GCA_013791815.1_ASM1379181v1","CP056847.1","plasmid",151959,9,"ARG-plasmid","large"
"GCA_013791815.1_ASM1379181v1","CP056848.1","plasmid",4263,0,"non-ARG-plasmid","small"
"GCA_013791815.1_ASM1379181v1","CP056849.1","plasmid",4195,0,"non-ARG-plasmid","small"
"GCA_013795285.1_ASM1379528v1","CP056868.1","plasmid",151919,0,"non-ARG-plasmid","large"
"GCA_013795285.1_ASM1379528v1","CP056869.1","plasmid",2181,0,"non-ARG-plasmid","small"
"GCA_013795545.1_ASM1379554v1","CP056871.1","plasmid",92934,4,"ARG-plasmid","large"
"GCA_013795545.1_ASM1379554v1","CP056872.1","plasmid",72712,0,"non-ARG-plasmid","large"
"GCA_013796065.1_ASM1379606v1","CP056877.1","plasmid",157437,5,"ARG-plasmid","large"
"GCA_013797045.1_ASM1379704v1","CP056895.1","plasmid",98203,0,"non-ARG-plasmid","large"
"GCA_013797825.1_ASM1379782v1","CP056903.1","plasmid",143282,0,"non-ARG-plasmid","large"
"GCA_013797825.1_ASM1379782v1","CP056904.1","plasmid",97730,0,"non-ARG-plasmid","large"
"GCA_013797825.1_ASM1379782v1","CP056905.1","plasmid",4072,0,"non-ARG-plasmid","small"
"GCA_013797825.1_ASM1379782v1","CP056906.1","plasmid",1565,0,"non-ARG-plasmid","small"
"GCA_013798625.1_ASM1379862v1","CP056915.1","plasmid",143134,2,"ARG-plasmid","large"
"GCA_013801205.1_ASM1380120v1","CP056956.1","plasmid",150657,1,"ARG-plasmid","large"
"GCA_013801205.1_ASM1380120v1","CP056957.1","plasmid",7941,0,"non-ARG-plasmid","small"
"GCA_013801205.1_ASM1380120v1","CP056958.1","plasmid",6715,0,"non-ARG-plasmid","small"
"GCA_013801205.1_ASM1380120v1","CP056959.1","plasmid",4593,0,"non-ARG-plasmid","small"
"GCA_013801205.1_ASM1380120v1","CP056960.1","plasmid",4073,0,"non-ARG-plasmid","small"
"GCA_013802585.1_ASM1380258v1","CP056998.1","plasmid",50161,1,"ARG-plasmid","large"
"GCA_013802585.1_ASM1380258v1","CP056999.1","plasmid",44007,7,"ARG-plasmid","large"
"GCA_013802585.1_ASM1380258v1","CP057000.1","plasmid",8136,0,"non-ARG-plasmid","small"
"GCA_013802585.1_ASM1380258v1","CP057001.1","plasmid",2460,0,"non-ARG-plasmid","small"
"GCA_013803745.1_ASM1380374v1","CP057013.1","plasmid",89908,0,"non-ARG-plasmid","large"
"GCA_013803905.1_ASM1380390v1","CP057017.1","plasmid",89908,0,"non-ARG-plasmid","large"
"GCA_013804065.1_ASM1380406v1","CP057015.1","plasmid",89908,0,"non-ARG-plasmid","large"
"GCA_013804445.1_ASM1380444v1","CP057021.1","plasmid",54502,0,"non-ARG-plasmid","large"
"GCA_013804645.1_ASM1380464v1","CP057023.1","plasmid",89908,0,"non-ARG-plasmid","large"
"GCA_013805505.1_ASM1380550v1","CP057032.1","plasmid",62375,0,"non-ARG-plasmid","large"
"GCA_013805505.1_ASM1380550v1","CP057033.1","plasmid",55483,0,"non-ARG-plasmid","large"
"GCA_013806085.1_ASM1380608v1","CP057046.1","plasmid",129449,0,"non-ARG-plasmid","large"
"GCA_013806085.1_ASM1380608v1","CP057047.1","plasmid",93415,0,"non-ARG-plasmid","large"
"GCA_013806085.1_ASM1380608v1","CP057048.1","plasmid",38481,0,"non-ARG-plasmid","large"
"GCA_013806085.1_ASM1380608v1","CP057049.1","plasmid",4671,0,"non-ARG-plasmid","small"
"GCA_013806525.1_ASM1380652v1","CP057051.1","plasmid",129449,0,"non-ARG-plasmid","large"
"GCA_013806525.1_ASM1380652v1","CP057052.1","plasmid",93415,0,"non-ARG-plasmid","large"
"GCA_013806525.1_ASM1380652v1","CP057053.1","plasmid",38481,0,"non-ARG-plasmid","large"
"GCA_013806525.1_ASM1380652v1","CP057054.1","plasmid",4671,0,"non-ARG-plasmid","small"
"GCA_013806725.1_ASM1380672v1","CP057056.1","plasmid",96046,0,"non-ARG-plasmid","large"
"GCA_013812015.1_ASM1381201v1","CP057073.1","plasmid",137565,0,"non-ARG-plasmid","large"
"GCA_013812015.1_ASM1381201v1","CP057074.1","plasmid",4145,0,"non-ARG-plasmid","small"
"GCA_013812225.1_ASM1381222v1","CP057084.1","plasmid",1948,0,"non-ARG-plasmid","small"
"GCA_013812225.1_ASM1381222v1","CP057076.1","plasmid",123830,0,"non-ARG-plasmid","large"
"GCA_013812225.1_ASM1381222v1","CP057077.1","plasmid",51116,5,"ARG-plasmid","large"
"GCA_013812225.1_ASM1381222v1","CP057078.1","plasmid",50516,0,"non-ARG-plasmid","large"
"GCA_013812225.1_ASM1381222v1","CP057079.1","plasmid",27257,0,"non-ARG-plasmid","large"
"GCA_013812225.1_ASM1381222v1","CP057080.1","plasmid",5973,0,"non-ARG-plasmid","small"
"GCA_013812225.1_ASM1381222v1","CP057081.1","plasmid",5552,0,"non-ARG-plasmid","small"
"GCA_013812225.1_ASM1381222v1","CP057082.1","plasmid",4678,0,"non-ARG-plasmid","small"
"GCA_013812225.1_ASM1381222v1","CP057083.1","plasmid",3702,0,"non-ARG-plasmid","small"
"GCA_013812575.1_ASM1381257v1","CP057088.1","plasmid",140512,1,"ARG-plasmid","large"
"GCA_013812575.1_ASM1381257v1","CP057089.1","plasmid",45753,0,"non-ARG-plasmid","large"
"GCA_013813585.1_ASM1381358v1","CP057110.1","plasmid",106811,0,"non-ARG-plasmid","large"
"GCA_013813585.1_ASM1381358v1","CP057111.1","plasmid",5686,0,"non-ARG-plasmid","small"
"GCA_013815235.1_ASM1381523v1","CP057134.1","plasmid",136933,0,"non-ARG-plasmid","large"
"GCA_013815235.1_ASM1381523v1","CP057135.1","plasmid",100897,0,"non-ARG-plasmid","large"
"GCA_013815445.1_ASM1381544v1","CP057138.1","plasmid",86321,0,"non-ARG-plasmid","large"
"GCA_013815865.1_ASM1381586v1","CP057140.1","plasmid",105018,0,"non-ARG-plasmid","large"
"GCA_013816045.1_ASM1381604v1","CP057142.1","plasmid",89539,0,"non-ARG-plasmid","large"
"GCA_013816045.1_ASM1381604v1","CP057143.1","plasmid",4821,0,"non-ARG-plasmid","small"
"GCA_013818265.1_ASM1381826v1","CP057172.1","plasmid",94854,0,"non-ARG-plasmid","large"
"GCA_013819805.1_ASM1381980v1","CP057224.1","plasmid",102840,0,"non-ARG-plasmid","large"
"GCA_013819985.1_ASM1381998v1","CP057226.1","plasmid",143708,0,"non-ARG-plasmid","large"
"GCA_013819985.1_ASM1381998v1","CP057227.1","plasmid",6760,0,"non-ARG-plasmid","small"
"GCA_013819985.1_ASM1381998v1","CP057228.1","plasmid",2590,0,"non-ARG-plasmid","small"
"GCA_013821185.1_ASM1382118v1","CP057251.1","plasmid",110652,0,"non-ARG-plasmid","large"
"GCA_013821185.1_ASM1382118v1","CP057252.1","plasmid",109291,0,"non-ARG-plasmid","large"
"GCA_013821185.1_ASM1382118v1","CP057253.1","plasmid",4671,0,"non-ARG-plasmid","small"
"GCA_013821835.1_ASM1382183v1","CP057260.1","plasmid",93611,0,"non-ARG-plasmid","large"
"GCA_013821835.1_ASM1382183v1","CP057261.1","plasmid",5101,0,"non-ARG-plasmid","small"
"GCA_013822325.1_ASM1382232v1","CP057271.1","plasmid",221223,7,"ARG-plasmid","large"
"GCA_013822325.1_ASM1382232v1","CP057272.1","plasmid",5569,0,"non-ARG-plasmid","small"
"GCA_013822575.1_ASM1382257v1","CP057277.1","plasmid",221169,7,"ARG-plasmid","large"
"GCA_013822575.1_ASM1382257v1","CP057278.1","plasmid",84509,0,"non-ARG-plasmid","large"
"GCA_013822575.1_ASM1382257v1","CP057279.1","plasmid",5101,0,"non-ARG-plasmid","small"
"GCA_013822575.1_ASM1382257v1","CP057280.1","plasmid",4044,0,"non-ARG-plasmid","small"
"GCA_013823335.1_ASM1382333v1","CP057179.1","plasmid",73399,0,"non-ARG-plasmid","large"
"GCA_013823335.1_ASM1382333v1","CP057180.1","plasmid",54517,1,"ARG-plasmid","large"
"GCA_013823335.1_ASM1382333v1","CP057181.1","plasmid",2974,0,"non-ARG-plasmid","small"
"GCA_013823335.1_ASM1382333v1","CP057182.1","plasmid",2519,0,"non-ARG-plasmid","small"
"GCA_013823335.1_ASM1382333v1","CP057183.1","plasmid",1603,0,"non-ARG-plasmid","small"
"GCA_013823335.1_ASM1382333v1","CP057184.1","plasmid",1552,0,"non-ARG-plasmid","small"
"GCA_013823865.1_ASM1382386v1","CP057189.1","plasmid",1551,0,"non-ARG-plasmid","small"
"GCA_013823975.1_ASM1382397v1","CP057191.1","plasmid",102988,0,"non-ARG-plasmid","large"
"GCA_013824985.1_ASM1382498v1","CP057288.1","plasmid",196445,12,"ARG-plasmid","large"
"GCA_013824985.1_ASM1382498v1","CP057289.1","plasmid",85551,0,"non-ARG-plasmid","large"
"GCA_013824985.1_ASM1382498v1","CP057290.1","plasmid",44632,0,"non-ARG-plasmid","large"
"GCA_013824985.1_ASM1382498v1","CP057291.1","plasmid",5128,0,"non-ARG-plasmid","small"
"GCA_013824985.1_ASM1382498v1","CP057292.1","plasmid",3126,0,"non-ARG-plasmid","small"
"GCA_013825245.1_ASM1382524v1","CP057294.1","plasmid",120503,6,"ARG-plasmid","large"
"GCA_013825245.1_ASM1382524v1","CP057295.1","plasmid",111016,1,"ARG-plasmid","large"
"GCA_013825245.1_ASM1382524v1","CP057296.1","plasmid",107564,0,"non-ARG-plasmid","large"
"GCA_013825245.1_ASM1382524v1","CP057297.1","plasmid",71653,0,"non-ARG-plasmid","large"
"GCA_013825245.1_ASM1382524v1","CP057298.1","plasmid",7592,0,"non-ARG-plasmid","small"
"GCA_013825245.1_ASM1382524v1","CP057299.1","plasmid",6507,0,"non-ARG-plasmid","small"
"GCA_013825245.1_ASM1382524v1","CP057300.1","plasmid",5962,0,"non-ARG-plasmid","small"
"GCA_013825245.1_ASM1382524v1","CP057301.1","plasmid",5775,0,"non-ARG-plasmid","small"
"GCA_013827205.1_ASM1382720v1","CP057337.1","plasmid",9653,0,"non-ARG-plasmid","small"
"GCA_013827205.1_ASM1382720v1","CP057338.1","plasmid",6930,0,"non-ARG-plasmid","small"
"GCA_013827205.1_ASM1382720v1","CP057339.1","plasmid",1551,0,"non-ARG-plasmid","small"
"GCA_013827445.1_ASM1382744v1","CP057343.1","plasmid",119787,8,"ARG-plasmid","large"
"GCA_013827685.1_ASM1382768v1","CP057341.1","plasmid",119787,8,"ARG-plasmid","large"
"GCA_013828065.1_ASM1382806v1","CP057348.1","plasmid",119787,8,"ARG-plasmid","large"
"GCA_013828415.1_ASM1382841v1","CP057350.1","plasmid",9653,0,"non-ARG-plasmid","small"
"GCA_013828415.1_ASM1382841v1","CP057351.1","plasmid",6930,0,"non-ARG-plasmid","small"
"GCA_013828415.1_ASM1382841v1","CP057352.1","plasmid",1551,0,"non-ARG-plasmid","small"
"GCA_013829445.1_ASM1382944v1","CP057369.1","plasmid",151320,8,"ARG-plasmid","large"
"GCA_013829445.1_ASM1382944v1","CP057370.1","plasmid",44527,1,"ARG-plasmid","large"
"GCA_013830785.1_ASM1383078v1","CP057397.1","plasmid",243494,6,"ARG-plasmid","large"
"GCA_013830785.1_ASM1383078v1","CP057398.1","plasmid",165151,0,"non-ARG-plasmid","large"
"GCA_013830785.1_ASM1383078v1","CP057399.1","plasmid",110894,1,"ARG-plasmid","large"
"GCA_013830785.1_ASM1383078v1","CP057400.1","plasmid",97590,1,"ARG-plasmid","large"
"GCA_013830785.1_ASM1383078v1","CP057401.1","plasmid",6888,0,"non-ARG-plasmid","small"
"GCA_013832285.1_ASM1383228v1","CP057424.1","plasmid",112965,0,"non-ARG-plasmid","large"
"GCA_013832285.1_ASM1383228v1","CP057425.1","plasmid",6888,0,"non-ARG-plasmid","small"
"GCA_013832285.1_ASM1383228v1","CP057426.1","plasmid",6676,0,"non-ARG-plasmid","small"
"GCA_013832285.1_ASM1383228v1","CP057427.1","plasmid",4241,0,"non-ARG-plasmid","small"
"GCA_013832285.1_ASM1383228v1","CP057428.1","plasmid",1552,0,"non-ARG-plasmid","small"
"GCA_013832525.1_ASM1383252v1","CP057433.1","plasmid",96190,0,"non-ARG-plasmid","large"
"GCA_013832525.1_ASM1383252v1","CP057434.1","plasmid",52356,0,"non-ARG-plasmid","large"
"GCA_013832965.1_ASM1383296v1","CP057439.1","plasmid",96190,0,"non-ARG-plasmid","large"
"GCA_013832965.1_ASM1383296v1","CP057440.1","plasmid",52356,0,"non-ARG-plasmid","large"
"GCA_013833985.1_ASM1383398v1","CP057454.1","plasmid",4315,0,"non-ARG-plasmid","small"
"GCA_013834305.1_ASM1383430v1","CP057456.1","plasmid",95109,0,"non-ARG-plasmid","large"
"GCA_013834305.1_ASM1383430v1","CP057457.1","plasmid",6811,0,"non-ARG-plasmid","small"
"GCA_013835585.1_ASM1383558v1","CP057474.1","plasmid",83477,0,"non-ARG-plasmid","large"
"GCA_013835785.1_ASM1383578v1","CP057476.1","plasmid",98711,0,"non-ARG-plasmid","large"
"GCA_013835785.1_ASM1383578v1","CP057477.1","plasmid",84397,0,"non-ARG-plasmid","large"
"GCA_013835785.1_ASM1383578v1","CP057478.1","plasmid",58013,0,"non-ARG-plasmid","large"
"GCA_013837755.1_ASM1383775v1","CP057494.1","plasmid",144318,0,"non-ARG-plasmid","large"
"GCA_013837755.1_ASM1383775v1","CP057495.1","plasmid",6826,0,"non-ARG-plasmid","small"
"GCA_013837755.1_ASM1383775v1","CP057496.1","plasmid",6229,0,"non-ARG-plasmid","small"
"GCA_013837755.1_ASM1383775v1","CP057497.1","plasmid",5147,0,"non-ARG-plasmid","small"
"GCA_013837755.1_ASM1383775v1","CP057498.1","plasmid",2590,0,"non-ARG-plasmid","small"
"GCA_013837755.1_ASM1383775v1","CP057499.1","plasmid",1551,0,"non-ARG-plasmid","small"
"GCA_013884735.1_ASM1388473v1","CP057524.1","plasmid",86339,0,"non-ARG-plasmid","large"
"GCA_013884935.1_ASM1388493v1","CP057536.1","plasmid",109433,0,"non-ARG-plasmid","large"
"GCA_013884935.1_ASM1388493v1","CP057537.1","plasmid",6930,0,"non-ARG-plasmid","small"
"GCA_013884935.1_ASM1388493v1","CP057538.1","plasmid",4721,0,"non-ARG-plasmid","small"
"GCA_013885155.1_ASM1388515v1","CP057540.1","plasmid",98678,0,"non-ARG-plasmid","large"
"GCA_013885155.1_ASM1388515v1","CP057541.1","plasmid",60884,0,"non-ARG-plasmid","large"
"GCA_013885155.1_ASM1388515v1","CP057542.1","plasmid",7198,0,"non-ARG-plasmid","small"
"GCA_013885155.1_ASM1388515v1","CP057543.1","plasmid",6230,0,"non-ARG-plasmid","small"
"GCA_013885155.1_ASM1388515v1","CP057544.1","plasmid",3257,0,"non-ARG-plasmid","small"
"GCA_013885915.1_ASM1388591v1","CP057560.1","plasmid",109880,0,"non-ARG-plasmid","large"
"GCA_013886595.1_ASM1388659v1","CP057578.1","plasmid",78258,0,"non-ARG-plasmid","large"
"GCA_013886595.1_ASM1388659v1","CP057579.1","plasmid",32449,0,"non-ARG-plasmid","large"
"GCA_013886735.1_ASM1388673v1","CP057581.1","plasmid",54794,0,"non-ARG-plasmid","large"
"GCA_013888235.1_ASM1388823v1","CP057601.1","plasmid",63983,0,"non-ARG-plasmid","large"
"GCA_013888235.1_ASM1388823v1","CP057602.1","plasmid",3524,0,"non-ARG-plasmid","small"
"GCA_013888615.1_ASM1388861v1","CP057606.1","plasmid",89809,0,"non-ARG-plasmid","large"
"GCA_013888615.1_ASM1388861v1","CP057607.1","plasmid",2719,0,"non-ARG-plasmid","small"
"GCA_013889395.1_ASM1388939v1","CP057613.1","plasmid",89809,0,"non-ARG-plasmid","large"
"GCA_013889395.1_ASM1388939v1","CP057614.1","plasmid",2719,0,"non-ARG-plasmid","small"
"GCA_013890395.1_ASM1389039v1","CP057622.1","plasmid",116595,0,"non-ARG-plasmid","large"
"GCA_013890395.1_ASM1389039v1","CP057623.1","plasmid",97938,0,"non-ARG-plasmid","large"
"GCA_013890395.1_ASM1389039v1","CP057624.1","plasmid",6647,0,"non-ARG-plasmid","small"
"GCA_013890395.1_ASM1389039v1","CP057625.1","plasmid",4671,0,"non-ARG-plasmid","small"
"GCA_013890795.1_ASM1389079v1","CP057635.1","plasmid",109773,7,"ARG-plasmid","large"
"GCA_013891215.1_ASM1389121v1","CP057639.1","plasmid",109773,7,"ARG-plasmid","large"
"GCA_013892855.1_ASM1389285v1","CP057666.1","plasmid",130766,0,"non-ARG-plasmid","large"
"GCA_013892855.1_ASM1389285v1","CP057667.1","plasmid",6930,0,"non-ARG-plasmid","small"
"GCA_013892855.1_ASM1389285v1","CP057668.1","plasmid",6230,0,"non-ARG-plasmid","small"
"GCA_013893255.1_ASM1389325v1","CP057674.1","plasmid",116753,0,"non-ARG-plasmid","large"
"GCA_013893255.1_ASM1389325v1","CP057675.1","plasmid",5686,0,"non-ARG-plasmid","small"
"GCA_013893255.1_ASM1389325v1","CP057676.1","plasmid",4073,0,"non-ARG-plasmid","small"
"GCA_013893495.1_ASM1389349v1","CP057678.1","plasmid",143708,0,"non-ARG-plasmid","large"
"GCA_013893495.1_ASM1389349v1","CP057679.1","plasmid",6760,0,"non-ARG-plasmid","small"
"GCA_013893495.1_ASM1389349v1","CP057680.1","plasmid",2590,0,"non-ARG-plasmid","small"
"GCA_013893695.1_ASM1389369v1","CP057685.1","plasmid",112153,0,"non-ARG-plasmid","large"
"GCA_013895455.1_ASM1389545v1","CP057714.1","plasmid",221175,7,"ARG-plasmid","large"
"GCA_013895455.1_ASM1389545v1","CP057715.1","plasmid",76639,0,"non-ARG-plasmid","large"
"GCA_013895455.1_ASM1389545v1","CP057716.1","plasmid",69882,0,"non-ARG-plasmid","large"
"GCA_013898135.1_ASM1389813v1","CP057779.1","plasmid",73457,0,"non-ARG-plasmid","large"
"GCA_013898135.1_ASM1389813v1","CP057780.1","plasmid",41696,0,"non-ARG-plasmid","large"
"GCA_013898135.1_ASM1389813v1","CP057781.1","plasmid",6930,0,"non-ARG-plasmid","small"
"GCA_013898915.1_ASM1389891v1","CP057803.1","plasmid",48915,0,"non-ARG-plasmid","large"
"GCA_013899075.1_ASM1389907v1","CP057832.1","plasmid",92366,0,"non-ARG-plasmid","large"
"GCA_013899145.1_ASM1389914v1","CP057844.1","plasmid",131379,0,"non-ARG-plasmid","large"
"GCA_013899145.1_ASM1389914v1","CP057845.1","plasmid",95217,0,"non-ARG-plasmid","large"
"GCA_013899145.1_ASM1389914v1","CP057846.1","plasmid",91303,1,"ARG-plasmid","large"
"GCA_013899145.1_ASM1389914v1","CP057847.1","plasmid",6668,0,"non-ARG-plasmid","small"
"GCA_013899145.1_ASM1389914v1","CP057848.1","plasmid",6230,0,"non-ARG-plasmid","small"
"GCA_013899165.1_ASM1389916v1","CP057840.1","plasmid",104712,9,"ARG-plasmid","large"
"GCA_013899185.1_ASM1389918v1","CP057842.1","plasmid",104712,9,"ARG-plasmid","large"
"GCA_013899605.1_ASM1389960v1","CP057886.1","plasmid",104067,0,"non-ARG-plasmid","large"
"GCA_013899605.1_ASM1389960v1","CP057887.1","plasmid",4671,0,"non-ARG-plasmid","small"
"GCA_013899725.1_ASM1389972v1","CP057902.1","plasmid",195368,0,"non-ARG-plasmid","large"
"GCA_013899725.1_ASM1389972v1","CP057903.1","plasmid",63800,0,"non-ARG-plasmid","large"
"GCA_013899725.1_ASM1389972v1","CP057904.1","plasmid",32598,0,"non-ARG-plasmid","large"
"GCA_013899825.1_ASM1389982v1","CP057917.1","plasmid",99864,0,"non-ARG-plasmid","large"
"GCA_013899985.1_ASM1389998v1","CP057947.1","plasmid",102634,0,"non-ARG-plasmid","large"
"GCA_013899985.1_ASM1389998v1","CP057948.1","plasmid",58530,0,"non-ARG-plasmid","large"
"GCA_013899985.1_ASM1389998v1","CP057949.1","plasmid",4924,0,"non-ARG-plasmid","small"
"GCA_013899985.1_ASM1389998v1","CP057950.1","plasmid",4612,0,"non-ARG-plasmid","small"
"GCA_013900005.1_ASM1390000v1","CP057943.1","plasmid",145571,0,"non-ARG-plasmid","large"
"GCA_013900005.1_ASM1390000v1","CP057944.1","plasmid",92742,0,"non-ARG-plasmid","large"
"GCA_013900005.1_ASM1390000v1","CP057945.1","plasmid",4612,0,"non-ARG-plasmid","small"
"GCA_013900025.1_ASM1390002v1","CP057952.1","plasmid",156576,0,"non-ARG-plasmid","large"
"GCA_013900205.1_ASM1390020v1","CP057971.1","plasmid",140458,0,"non-ARG-plasmid","large"
"GCA_013900205.1_ASM1390020v1","CP057972.1","plasmid",110406,0,"non-ARG-plasmid","large"
"GCA_013900245.1_ASM1390024v1","CP057976.1","plasmid",93585,0,"non-ARG-plasmid","large"
"GCA_013900245.1_ASM1390024v1","CP057977.1","plasmid",90123,3,"ARG-plasmid","large"
"GCA_013922765.1_ASM1392276v1","CP058020.1","plasmid",143696,0,"non-ARG-plasmid","large"
"GCA_013922765.1_ASM1392276v1","CP058021.1","plasmid",95289,0,"non-ARG-plasmid","large"
"GCA_013922765.1_ASM1392276v1","CP058022.1","plasmid",8873,0,"non-ARG-plasmid","small"
"GCA_013923405.1_ASM1392340v1","CP058071.1","plasmid",116772,4,"ARG-plasmid","large"
"GCA_013996855.1_ASM1399685v1","CP058032.1","plasmid",120225,0,"non-ARG-plasmid","large"
"GCA_013996855.1_ASM1399685v1","CP058033.1","plasmid",6768,2,"ARG-plasmid","small"
"GCA_013996855.1_ASM1399685v1","CP058034.1","plasmid",4664,0,"non-ARG-plasmid","small"
"GCA_013996855.1_ASM1399685v1","CP058035.1","plasmid",2460,0,"non-ARG-plasmid","small"
"GCA_014058445.1_ASM1405844v1","CP058683.1","plasmid",92578,0,"non-ARG-plasmid","large"
"GCA_014058445.1_ASM1405844v1","CP058684.1","plasmid",89589,0,"non-ARG-plasmid","large"
"GCA_014058445.1_ASM1405844v1","CP058685.1","plasmid",34196,0,"non-ARG-plasmid","large"
"GCA_014058445.1_ASM1405844v1","CP058686.1","plasmid",6715,0,"non-ARG-plasmid","small"
"GCA_014058445.1_ASM1405844v1","CP058687.1","plasmid",4742,0,"non-ARG-plasmid","small"
"GCA_014058445.1_ASM1405844v1","CP058688.1","plasmid",2784,0,"non-ARG-plasmid","small"
"GCA_014108945.1_ASM1410894v1","CP058015.1","plasmid",100878,0,"non-ARG-plasmid","large"
"GCA_014108945.1_ASM1410894v1","CP058016.1","plasmid",96304,0,"non-ARG-plasmid","large"
"GCA_014108945.1_ASM1410894v1","CP058017.1","plasmid",35166,0,"non-ARG-plasmid","large"
"GCA_014108945.1_ASM1410894v1","CP058018.1","plasmid",3081,0,"non-ARG-plasmid","small"
"GCA_014109005.1_ASM1410900v1","CP058047.1","plasmid",50161,1,"ARG-plasmid","large"
"GCA_014109005.1_ASM1410900v1","CP058048.1","plasmid",44007,7,"ARG-plasmid","large"
"GCA_014109005.1_ASM1410900v1","CP058049.1","plasmid",8136,0,"non-ARG-plasmid","small"
"GCA_014109005.1_ASM1410900v1","CP058050.1","plasmid",2460,0,"non-ARG-plasmid","small"
"GCA_014109005.1_ASM1410900v1","CP058051.1","plasmid",1552,0,"non-ARG-plasmid","small"
"GCA_014109025.1_ASM1410902v1","CP058053.1","plasmid",50161,1,"ARG-plasmid","large"
"GCA_014109025.1_ASM1410902v1","CP058054.1","plasmid",44007,7,"ARG-plasmid","large"
"GCA_014109025.1_ASM1410902v1","CP058055.1","plasmid",8136,0,"non-ARG-plasmid","small"
"GCA_014109025.1_ASM1410902v1","CP058056.1","plasmid",2460,0,"non-ARG-plasmid","small"
"GCA_014109065.1_ASM1410906v1","CP058075.1","plasmid",113309,3,"ARG-plasmid","large"
"GCA_014109085.1_ASM1410908v1","CP058073.1","plasmid",116772,4,"ARG-plasmid","large"
"GCA_014109105.1_ASM1410910v1","CP058077.1","plasmid",116772,4,"ARG-plasmid","large"
"GCA_014109125.1_ASM1410912v1","CP058079.1","plasmid",116772,4,"ARG-plasmid","large"
"GCA_014109665.1_ASM1410966v1","CP058105.1","plasmid",143511,0,"non-ARG-plasmid","large"
"GCA_014109665.1_ASM1410966v1","CP058106.1","plasmid",6230,0,"non-ARG-plasmid","small"
"GCA_014109665.1_ASM1410966v1","CP058107.1","plasmid",5682,0,"non-ARG-plasmid","small"
"GCA_014109665.1_ASM1410966v1","CP058108.1","plasmid",5569,0,"non-ARG-plasmid","small"
"GCA_014109665.1_ASM1410966v1","CP058109.1","plasmid",2590,0,"non-ARG-plasmid","small"
"GCA_014109665.1_ASM1410966v1","CP058110.1","plasmid",1551,0,"non-ARG-plasmid","small"
"GCA_014109665.1_ASM1410966v1","CP058111.1","plasmid",1306,0,"non-ARG-plasmid","small"
"GCA_014117345.1_ASM1411734v1","CP059842.1","plasmid",5218,0,"non-ARG-plasmid","small"
"GCA_014117345.1_ASM1411734v1","CP059841.1","plasmid",96603,0,"non-ARG-plasmid","large"
"GCA_014131495.1_ASM1413149v1","CP048854.1","plasmid",123784,0,"non-ARG-plasmid","large"
"GCA_014131515.1_ASM1413151v1","CP048856.1","plasmid",70473,0,"non-ARG-plasmid","large"
"GCA_014131535.1_ASM1413153v1","CP048858.1","plasmid",113819,0,"non-ARG-plasmid","large"
"GCA_014131535.1_ASM1413153v1","CP048859.1","plasmid",5219,0,"non-ARG-plasmid","small"
"GCA_014131555.1_ASM1413155v1","CP048861.1","plasmid",124387,8,"ARG-plasmid","large"
"GCA_014131555.1_ASM1413155v1","CP048862.1","plasmid",1546,0,"non-ARG-plasmid","small"
"GCA_014131575.1_ASM1413157v1","CP048864.1","plasmid",4593,0,"non-ARG-plasmid","small"
"GCA_014131595.1_ASM1413159v1","CP048866.1","plasmid",137220,2,"ARG-plasmid","large"
"GCA_014131615.1_ASM1413161v1","CP048868.1","plasmid",179302,3,"ARG-plasmid","large"
"GCA_014131615.1_ASM1413161v1","CP048869.1","plasmid",65184,0,"non-ARG-plasmid","large"
"GCA_014131635.1_ASM1413163v1","CP048871.1","plasmid",120607,0,"non-ARG-plasmid","large"
"GCA_014131635.1_ASM1413163v1","CP048872.1","plasmid",5153,0,"non-ARG-plasmid","small"
"GCA_014131655.1_ASM1413165v1","CP048874.1","plasmid",5163,0,"non-ARG-plasmid","small"
"GCA_014168595.1_ASM1416859v1","AP021915.1","plasmid",158754,12,"ARG-plasmid","large"
"GCA_014168595.1_ASM1416859v1","AP021916.1","plasmid",87852,0,"non-ARG-plasmid","large"
"GCA_014168675.1_ASM1416867v1","AP021934.1","plasmid",105973,6,"ARG-plasmid","large"
"GCA_014168735.1_ASM1416873v1","AP021945.1","plasmid",103781,1,"ARG-plasmid","large"
"GCA_014168755.1_ASM1416875v1","AP021947.1","plasmid",210712,0,"non-ARG-plasmid","large"
"GCA_014168755.1_ASM1416875v1","AP021948.1","plasmid",91630,1,"ARG-plasmid","large"
"GCA_014168755.1_ASM1416875v1","AP021949.1","plasmid",4073,0,"non-ARG-plasmid","small"
"GCA_014168835.1_ASM1416883v1","AP021999.1","plasmid",105864,1,"ARG-plasmid","large"
"GCA_014168835.1_ASM1416883v1","AP022000.1","plasmid",6669,0,"non-ARG-plasmid","small"
"GCA_014168835.1_ASM1416883v1","AP022001.1","plasmid",5167,0,"non-ARG-plasmid","small"
"GCA_014168835.1_ASM1416883v1","AP022002.1","plasmid",4087,0,"non-ARG-plasmid","small"
"GCA_014168855.1_ASM1416885v1","AP022004.1","plasmid",131334,0,"non-ARG-plasmid","large"
"GCA_014168935.1_ASM1416893v1","AP022031.1","plasmid",76037,4,"ARG-plasmid","large"
"GCA_014168955.1_ASM1416895v1","AP022033.1","plasmid",105867,1,"ARG-plasmid","large"
"GCA_014168955.1_ASM1416895v1","AP022034.1","plasmid",5167,0,"non-ARG-plasmid","small"
"GCA_014168955.1_ASM1416895v1","AP022035.1","plasmid",4087,0,"non-ARG-plasmid","small"
"GCA_014168975.1_ASM1416897v1","AP022037.1","plasmid",88528,1,"ARG-plasmid","large"
"GCA_014169015.1_ASM1416901v1","AP022045.1","plasmid",148598,2,"ARG-plasmid","large"
"GCA_014169015.1_ASM1416901v1","AP022046.1","plasmid",5210,0,"non-ARG-plasmid","small"
"GCA_014169015.1_ASM1416901v1","AP022047.1","plasmid",5167,0,"non-ARG-plasmid","small"
"GCA_014169015.1_ASM1416901v1","AP022048.1","plasmid",3372,0,"non-ARG-plasmid","small"
"GCA_014169095.1_ASM1416909v1","AP022065.1","plasmid",134864,9,"ARG-plasmid","large"
"GCA_014169095.1_ASM1416909v1","AP022066.1","plasmid",95805,0,"non-ARG-plasmid","large"
"GCA_014169095.1_ASM1416909v1","AP022067.1","plasmid",5167,0,"non-ARG-plasmid","small"
"GCA_014169095.1_ASM1416909v1","AP022068.1","plasmid",4087,0,"non-ARG-plasmid","small"
"GCA_014169115.1_ASM1416911v1","AP022070.1","plasmid",117617,13,"ARG-plasmid","large"
"GCA_014169115.1_ASM1416911v1","AP022071.1","plasmid",84553,0,"non-ARG-plasmid","large"
"GCA_014169115.1_ASM1416911v1","AP022072.1","plasmid",77891,0,"non-ARG-plasmid","large"
"GCA_014169115.1_ASM1416911v1","AP022073.1","plasmid",5219,0,"non-ARG-plasmid","small"
"GCA_014169115.1_ASM1416911v1","AP022074.1","plasmid",5167,0,"non-ARG-plasmid","small"
"GCA_014169115.1_ASM1416911v1","AP022075.1","plasmid",3272,0,"non-ARG-plasmid","small"
"GCA_014169115.1_ASM1416911v1","AP022076.1","plasmid",2100,0,"non-ARG-plasmid","small"
"GCA_014169155.1_ASM1416915v1","AP022096.1","plasmid",158292,1,"ARG-plasmid","large"
"GCA_014169155.1_ASM1416915v1","AP022097.1","plasmid",93398,1,"ARG-plasmid","large"
"GCA_014169175.1_ASM1416917v1","AP022099.1","plasmid",5344,0,"non-ARG-plasmid","small"
"GCA_014169175.1_ASM1416917v1","AP022100.1","plasmid",5167,0,"non-ARG-plasmid","small"
"GCA_014169175.1_ASM1416917v1","AP022101.1","plasmid",4063,0,"non-ARG-plasmid","small"
"GCA_014169175.1_ASM1416917v1","AP022102.1","plasmid",3855,0,"non-ARG-plasmid","small"
"GCA_014169175.1_ASM1416917v1","AP022103.1","plasmid",2188,0,"non-ARG-plasmid","small"
"GCA_014169175.1_ASM1416917v1","AP022104.1","plasmid",2088,0,"non-ARG-plasmid","small"
"GCA_014169195.1_ASM1416919v1","AP022106.1","plasmid",130869,1,"ARG-plasmid","large"
"GCA_014169275.1_ASM1416927v1","AP022121.1","plasmid",158291,1,"ARG-plasmid","large"
"GCA_014169275.1_ASM1416927v1","AP022122.1","plasmid",89476,1,"ARG-plasmid","large"
"GCA_014169275.1_ASM1416927v1","AP022123.1","plasmid",7233,0,"non-ARG-plasmid","small"
"GCA_014169275.1_ASM1416927v1","AP022124.1","plasmid",4062,0,"non-ARG-plasmid","small"
"GCA_014169275.1_ASM1416927v1","AP022125.1","plasmid",2997,0,"non-ARG-plasmid","small"
"GCA_014169395.1_ASM1416939v1","AP022160.1","plasmid",94990,0,"non-ARG-plasmid","large"
"GCA_014169435.1_ASM1416943v1","AP022172.1","plasmid",187669,1,"ARG-plasmid","large"
"GCA_014169455.1_ASM1416945v1","AP022174.1","plasmid",94776,1,"ARG-plasmid","large"
"GCA_014169455.1_ASM1416945v1","AP022175.1","plasmid",63140,0,"non-ARG-plasmid","large"
"GCA_014169455.1_ASM1416945v1","AP022176.1","plasmid",4072,0,"non-ARG-plasmid","small"
"GCA_014169475.1_ASM1416947v1","AP022178.1","plasmid",123262,8,"ARG-plasmid","large"
"GCA_014169475.1_ASM1416947v1","AP022179.1","plasmid",94173,0,"non-ARG-plasmid","large"
"GCA_014169475.1_ASM1416947v1","AP022180.1","plasmid",5166,0,"non-ARG-plasmid","small"
"GCA_014169475.1_ASM1416947v1","AP022181.1","plasmid",4491,0,"non-ARG-plasmid","small"
"GCA_014169475.1_ASM1416947v1","AP022182.1","plasmid",4074,0,"non-ARG-plasmid","small"
"GCA_014169575.1_ASM1416957v1","AP022208.1","plasmid",214586,10,"ARG-plasmid","large"
"GCA_014169575.1_ASM1416957v1","AP022209.1","plasmid",5163,0,"non-ARG-plasmid","small"
"GCA_014169575.1_ASM1416957v1","AP022210.1","plasmid",4073,0,"non-ARG-plasmid","small"
"GCA_014169575.1_ASM1416957v1","AP022211.1","plasmid",4073,0,"non-ARG-plasmid","small"
"GCA_014169575.1_ASM1416957v1","AP022212.1","plasmid",2089,0,"non-ARG-plasmid","small"
"GCA_014169615.1_ASM1416961v1","AP022223.1","plasmid",139020,3,"ARG-plasmid","large"
"GCA_014169615.1_ASM1416961v1","AP022224.1","plasmid",87171,1,"ARG-plasmid","large"
"GCA_014169615.1_ASM1416961v1","AP022225.1","plasmid",70764,0,"non-ARG-plasmid","large"
"GCA_014169615.1_ASM1416961v1","AP022226.1","plasmid",5631,0,"non-ARG-plasmid","small"
"GCA_014169695.1_ASM1416969v1","AP022246.1","plasmid",145389,6,"ARG-plasmid","large"
"GCA_014169695.1_ASM1416969v1","AP022247.1","plasmid",75556,1,"ARG-plasmid","large"
"GCA_014169695.1_ASM1416969v1","AP022248.1","plasmid",49365,6,"ARG-plasmid","large"
"GCA_014169695.1_ASM1416969v1","AP022249.1","plasmid",46158,2,"ARG-plasmid","large"
"GCA_014169695.1_ASM1416969v1","AP022250.1","plasmid",3274,0,"non-ARG-plasmid","small"
"GCA_014169695.1_ASM1416969v1","AP022251.1","plasmid",3067,0,"non-ARG-plasmid","small"
"GCA_014169775.1_ASM1416977v1","AP022262.1","plasmid",126588,0,"non-ARG-plasmid","large"
"GCA_014169775.1_ASM1416977v1","AP022263.1","plasmid",91233,2,"ARG-plasmid","large"
"GCA_014169855.1_ASM1416985v1","AP022288.1","plasmid",127169,1,"ARG-plasmid","large"
"GCA_014169855.1_ASM1416985v1","AP022289.1","plasmid",82448,0,"non-ARG-plasmid","large"
"GCA_014169895.1_ASM1416989v1","AP022296.1","plasmid",105884,2,"ARG-plasmid","large"
"GCA_014169895.1_ASM1416989v1","AP022297.1","plasmid",3372,0,"non-ARG-plasmid","small"
"GCA_014169915.1_ASM1416991v1","AP022299.1","plasmid",123266,0,"non-ARG-plasmid","large"
"GCA_014169915.1_ASM1416991v1","AP022300.1","plasmid",83140,5,"ARG-plasmid","large"
"GCA_014169915.1_ASM1416991v1","AP022301.1","plasmid",7936,0,"non-ARG-plasmid","small"
"GCA_014169995.1_ASM1416999v1","CP054284.1","plasmid",34051,0,"non-ARG-plasmid","large"
"GCA_014169995.1_ASM1416999v1","CP054283.1","plasmid",43621,2,"ARG-plasmid","large"
"GCA_014170675.1_ASM1417067v1","CP059918.1","plasmid",214538,0,"non-ARG-plasmid","large"
"GCA_014170675.1_ASM1417067v1","CP059919.1","plasmid",122123,5,"ARG-plasmid","large"
"GCA_014170675.1_ASM1417067v1","CP059920.1","plasmid",3140,0,"non-ARG-plasmid","small"
"GCA_014170675.1_ASM1417067v1","CP059921.1","plasmid",2096,0,"non-ARG-plasmid","small"
"GCA_014170695.1_ASM1417069v1","CP059923.1","plasmid",133421,2,"ARG-plasmid","large"
"GCA_014170695.1_ASM1417069v1","CP059924.1","plasmid",107524,3,"ARG-plasmid","large"
"GCA_014171015.1_ASM1417101v1","AP022088.1","plasmid",183772,0,"non-ARG-plasmid","large"
"GCA_014171015.1_ASM1417101v1","AP022089.1","plasmid",110167,0,"non-ARG-plasmid","large"
"GCA_014171015.1_ASM1417101v1","AP022090.1","plasmid",80029,2,"ARG-plasmid","large"
"GCA_014171015.1_ASM1417101v1","AP022091.1","plasmid",74261,1,"ARG-plasmid","large"
"GCA_014171015.1_ASM1417101v1","AP022092.1","plasmid",6796,0,"non-ARG-plasmid","small"
"GCA_014171015.1_ASM1417101v1","AP022093.1","plasmid",5344,0,"non-ARG-plasmid","small"
"GCA_014171015.1_ASM1417101v1","AP022094.1","plasmid",3137,0,"non-ARG-plasmid","small"
