"strain","bin_name","reference_id","alignment_length","bin_length","classification","Chromosome_contamination","software","species"
"GCA_014169115.1_ASM1416911v1","plasmid_AA171","AP022069.1",15179,71383,"chromosome",0.213,"MOB-suite","E. coli"
"GCA_014169115.1_ASM1416911v1","plasmid_AA281","AP022069.1",20271,23196,"chromosome",0.299,"MOB-suite","E. coli"
"GCA_014169115.1_ASM1416911v1","plasmid_AA336","AP022069.1",1251,72386,"chromosome",0.017,"MOB-suite","E. coli"
"GCA_014169115.1_ASM1416911v1","plasmid_AA378","AP022069.1",1552,6563,"chromosome",0.236,"MOB-suite","E. coli"
"GCA_014131575.1_ASM1413157v1","plasmid_AA176","CP048863.1",26551,26551,"chromosome",1,"MOB-suite","E. coli"
"GCA_013749295.1_ASM1374929v1","plasmid_AA176","CP056524.1",34325,127383,"chromosome",0.084,"MOB-suite","E. coli"
"GCA_014169275.1_ASM1416927v1","plasmid_AF232","AP022120.1",2614,2614,"chromosome",1,"MOB-suite","E. coli"
"GCA_013745955.1_ASM1374595v1","plasmid_AD448","CP056357.1",36412,36412,"chromosome",1,"MOB-suite","E. coli"
"GCA_013745955.1_ASM1374595v1","plasmid_AA337","CP056357.1",28047,72525,"chromosome",0.253,"MOB-suite","E. coli"
"GCA_013745955.1_ASM1374595v1","plasmid_AF242","CP056357.1",15021,13183,"chromosome",0.861,"MOB-suite","E. coli"
"GCA_014168935.1_ASM1416893v1","plasmid_AA337","AP022030.1",50502,37436,"chromosome",0.734,"MOB-suite","E. coli"
"GCA_014169475.1_ASM1416947v1","plasmid_novel_63e1619a607b17a0e94368d7399ca769","AP022177.1",5082,32285,"chromosome",0.157,"MOB-suite","E. coli"
"GCA_013795795.1_ASM1379579v1","plasmid_AA173","CP056874.1",9676,9676,"chromosome",1,"MOB-suite","E. coli"
"GCA_013795795.1_ASM1379579v1","plasmid_AA860","CP056874.1",13449,28365,"chromosome",0.372,"MOB-suite","E. coli"
"GCA_013795795.1_ASM1379579v1","plasmid_AA860","CP056873.1",28511,28365,"chromosome",0.444,"MOB-suite","E. coli"
"GCA_013795795.1_ASM1379579v1","plasmid_AA336","CP056875.1",59706,79725,"chromosome",0.655,"MOB-suite","E. coli"
"GCA_013795795.1_ASM1379579v1","plasmid_AA336","CP056874.1",29627,79725,"chromosome",0.219,"MOB-suite","E. coli"
"GCA_013795795.1_ASM1379579v1","plasmid_AA338","CP056874.1",15566,15566,"chromosome",0.816,"MOB-suite","E. coli"
"GCA_013899605.1_ASM1389960v1","plasmid_AF190","CP057885.1",23114,17831,"chromosome",0.704,"MOB-suite","E. coli"
"GCA_013742835.1_ASM1374283v1","plasmid_novel_d5c3a11cfe6932db437a3e99c6313c59","CP056625.1",8099,24389,"chromosome",0.279,"MOB-suite","E. coli"
"GCA_013823975.1_ASM1382397v1","plasmid_AF232","CP057190.1",4827,4827,"chromosome",1,"MOB-suite","E. coli"
"GCA_013748455.1_ASM1374845v1","plasmid_AA171","CP056471.1",9676,9676,"chromosome",1,"MOB-suite","E. coli"
"GCA_013748455.1_ASM1374845v1","plasmid_AA860","CP056471.1",27029,41932,"chromosome",0.575,"MOB-suite","E. coli"
"GCA_013748455.1_ASM1374845v1","plasmid_AA860","CP056470.1",29564,41932,"chromosome",0.275,"MOB-suite","E. coli"
"GCA_013748455.1_ASM1374845v1","plasmid_novel_4204f75c392bde35a1d1663c61906664","CP056471.1",11456,11456,"chromosome",1,"MOB-suite","E. coli"
"GCA_013748455.1_ASM1374845v1","plasmid_AA336","CP056472.1",58665,83976,"chromosome",0.635,"MOB-suite","E. coli"
"GCA_013748455.1_ASM1374845v1","plasmid_AA336","CP056471.1",32796,83976,"chromosome",0.271,"MOB-suite","E. coli"
"GCA_014131475.1_ASM1413147v1","plasmid_AA176","CP048606.1",12116,12116,"chromosome",1,"MOB-suite","E. coli"
"GCA_014131475.1_ASM1413147v1","plasmid_AA374","CP048606.1",14260,14260,"chromosome",1,"MOB-suite","E. coli"
"GCA_014109065.1_ASM1410906v1","plasmid_AA337","CP058074.1",25359,72482,"chromosome",0.247,"MOB-suite","E. coli"
"GCA_013785265.1_ASM1378526v1","plasmid_AA176","CP056481.1",26554,26554,"chromosome",1,"MOB-suite","E. coli"
"GCA_014131555.1_ASM1413155v1","plasmid_AA171","CP048860.1",16538,95635,"chromosome",0.158,"MOB-suite","E. coli"
"GCA_014131555.1_ASM1413155v1","plasmid_AA887","CP048860.1",8411,33521,"chromosome",0.19,"MOB-suite","E. coli"
"GCA_014131555.1_ASM1413155v1","plasmid_AA176","CP048860.1",12770,12770,"chromosome",1,"MOB-suite","E. coli"
"GCA_013750815.1_ASM1375081v1","plasmid_AA281","CP056569.1",3739,12354,"chromosome",0.303,"MOB-suite","E. coli"
"GCA_013821835.1_ASM1382183v1","plasmid_novel_80017f4b9814507b96ce0aa77f384c1f","CP057259.1",14175,50798,"chromosome",0.194,"MOB-suite","E. coli"
"GCA_014168855.1_ASM1416885v1","plasmid_AA297","AP022003.1",28892,142704,"chromosome",0.129,"MOB-suite","E. coli"
"GCA_013799025.1_ASM1379902v1","plasmid_AF232","CP056920.1",3984,3984,"chromosome",1,"MOB-suite","E. coli"
"GCA_013891215.1_ASM1389121v1","plasmid_AA473","CP057638.1",1528,86681,"chromosome",0.018,"MOB-suite","E. coli"
"GCA_013891215.1_ASM1389121v1","plasmid_AA887","CP057638.1",7230,15796,"chromosome",0.251,"MOB-suite","E. coli"
"GCA_013891215.1_ASM1389121v1","plasmid_AA337","CP057638.1",54918,43107,"chromosome",0.809,"MOB-suite","E. coli"
"GCA_014131495.1_ASM1413149v1","plasmid_AA176","CP048853.1",17536,16438,"chromosome",0.933,"MOB-suite","E. coli"
"GCA_014131495.1_ASM1413149v1","plasmid_AA297","CP048853.1",2696,88763,"chromosome",0.016,"MOB-suite","E. coli"
"GCA_013795285.1_ASM1379528v1","plasmid_AA179","CP056867.1",13616,147124,"chromosome",0.01,"MOB-suite","E. coli"
"GCA_013795285.1_ASM1379528v1","plasmid_AG659","CP056867.1",12370,12370,"chromosome",1,"MOB-suite","E. coli"
"GCA_013898915.1_ASM1389891v1","plasmid_AD672","CP057802.1",15505,15505,"chromosome",1,"MOB-suite","E. coli"
"GCA_013898915.1_ASM1389891v1","plasmid_AG659","CP057802.1",15818,10825,"chromosome",0.713,"MOB-suite","E. coli"
"GCA_013890395.1_ASM1389039v1","plasmid_AF232","CP057621.1",1375,1375,"chromosome",1,"MOB-suite","E. coli"
"GCA_013795065.1_ASM1379506v1","plasmid_AA998","CP056865.1",35085,23052,"chromosome",0.838,"MOB-suite","E. coli"
"GCA_013795065.1_ASM1379506v1","plasmid_novel_2ab764c9ed9456e17606d6feedca0eed","CP056865.1",33187,25778,"chromosome",0.754,"MOB-suite","E. coli"
"GCA_013795065.1_ASM1379506v1","plasmid_AA038","CP056866.1",42668,42668,"chromosome",1,"MOB-suite","E. coli"
"GCA_013893495.1_ASM1389349v1","plasmid_AF232","CP057677.1",4747,4747,"chromosome",1,"MOB-suite","E. coli"
"GCA_013899145.1_ASM1389914v1","plasmid_AF232","CP057843.1",4825,4826,"chromosome",1,"MOB-suite","E. coli"
"GCA_013797045.1_ASM1379704v1","plasmid_AA378","CP056894.1",3499,101440,"chromosome",0.034,"MOB-suite","E. coli"
"GCA_013592195.1_ASM1359219v1","plasmid_AA328","CP055624.1",3294,62553,"chromosome",0.026,"MOB-suite","E. coli"
"GCA_014108945.1_ASM1410894v1","plasmid_AF232","CP058014.1",5923,5923,"chromosome",1,"MOB-suite","E. coli"
"GCA_014169395.1_ASM1416939v1","plasmid_AA860","AP022159.1",16245,13311,"chromosome",0.78,"MOB-suite","E. coli"
"GCA_014169395.1_ASM1416939v1","plasmid_AA336","AP022159.1",18057,15540,"chromosome",0.838,"MOB-suite","E. coli"
"GCA_013752075.1_ASM1375207v1","plasmid_AA309","CP056604.1",3074,55059,"chromosome",0.056,"MOB-suite","E. coli"
"GCA_013752075.1_ASM1375207v1","plasmid_AA860","CP056604.1",6514,26107,"chromosome",0.099,"MOB-suite","E. coli"
"GCA_012849755.1_ASM1284975v1","plasmid_novel_dce6f4bfc083a20e1c4363e6797a31a5","CP051631.1",10365,8679,"chromosome",0.42,"MOB-suite","E. coli"
"GCA_013893695.1_ASM1389369v1","plasmid_AF232","CP057684.1",4196,4196,"chromosome",1,"MOB-suite","E. coli"
"GCA_013752295.1_ASM1375229v1","plasmid_AF232","CP056618.1",1512,1512,"chromosome",1,"MOB-suite","E. coli"
"GCA_013742135.1_ASM1374213v1","plasmid_AB044","CP056613.1",5286,5286,"chromosome",1,"MOB-suite","E. coli"
"GCA_013742135.1_ASM1374213v1","plasmid_AF232","CP056613.1",14073,14073,"chromosome",1,"MOB-suite","E. coli"
"GCA_013900005.1_ASM1390000v1","plasmid_AF232","CP057942.1",3759,3759,"chromosome",1,"MOB-suite","E. coli"
"GCA_013740395.1_ASM1374039v1","plasmid_AA474","CP056446.1",24671,21599,"chromosome",0.436,"MOB-suite","E. coli"
"GCA_014170975.1_ASM1417097v1","plasmid_AC509","CP059950.1",6122,6122,"chromosome",1,"MOB-suite","E. coli"
"GCA_014170975.1_ASM1417097v1","plasmid_AA324","CP059948.1",133058,133078,"chromosome",1,"MOB-suite","E. coli"
"GCA_014170975.1_ASM1417097v1","plasmid_AA147","CP059951.1",5101,5101,"chromosome",1,"MOB-suite","E. coli"
"GCA_013750375.1_ASM1375037v1","plasmid_AF232","CP056565.1",1779,1779,"chromosome",1,"MOB-suite","E. coli"
"GCA_013835585.1_ASM1383558v1","plasmid_AD672","CP057473.1",13484,13484,"chromosome",1,"MOB-suite","E. coli"
"GCA_013783465.1_ASM1378346v1","plasmid_AD448","CP056348.1",38313,38313,"chromosome",1,"MOB-suite","E. coli"
"GCA_013735655.1_ASM1373565v1","plasmid_AA056","CP056412.1",51707,130879,"chromosome",0.059,"MOB-suite","E. coli"
"GCA_013735655.1_ASM1373565v1","plasmid_AA405","CP056412.1",95999,93364,"chromosome",0.673,"MOB-suite","E. coli"
"GCA_013735655.1_ASM1373565v1","plasmid_novel_537e47abc422bc83dacfc934e30a5332","CP056412.1",17091,17091,"chromosome",1,"MOB-suite","E. coli"
"GCA_013735655.1_ASM1373565v1","plasmid_AA378","CP056412.1",43349,41694,"chromosome",0.96,"MOB-suite","E. coli"
"GCA_013735655.1_ASM1373565v1","plasmid_AA810","CP056412.1",13142,13142,"chromosome",1,"MOB-suite","E. coli"
"GCA_013741855.1_ASM1374185v1","plasmid_AB044","CP056608.1",5113,5113,"chromosome",1,"MOB-suite","E. coli"
"GCA_013741855.1_ASM1374185v1","plasmid_AF232","CP056608.1",14073,14073,"chromosome",1,"MOB-suite","E. coli"
"GCA_013824985.1_ASM1382498v1","plasmid_AA998","CP057287.1",8065,18001,"chromosome",0.448,"MOB-suite","E. coli"
"GCA_013824985.1_ASM1382498v1","plasmid_AA378","CP057287.1",1483,81526,"chromosome",0.018,"MOB-suite","E. coli"
"GCA_013791985.1_ASM1379198v1","plasmid_AA474","CP056844.1",83975,135163,"chromosome",0.621,"MOB-suite","E. coli"
"GCA_013791985.1_ASM1379198v1","plasmid_AA474","CP056843.1",55716,135163,"chromosome",0.256,"MOB-suite","E. coli"
"GCA_013791985.1_ASM1379198v1","plasmid_AA474","CP056842.1",17851,135163,"chromosome",0.025,"MOB-suite","E. coli"
"GCA_013791985.1_ASM1379198v1","plasmid_AA738","CP056843.1",40327,41681,"chromosome",0.968,"MOB-suite","E. coli"
"GCA_013786165.1_ASM1378616v1","plasmid_AD672","CP056632.1",23378,13061,"chromosome",0.21,"MOB-suite","E. coli"
"GCA_014131635.1_ASM1413163v1","plasmid_AA337","CP048870.1",54588,140440,"chromosome",0.176,"MOB-suite","E. coli"
"GCA_013816045.1_ASM1381604v1","plasmid_AA337","CP057141.1",9183,96190,"chromosome",0.069,"MOB-suite","E. coli"
"GCA_014170615.1_ASM1417061v1","plasmid_AA474","CP059909.1",98469,107617,"chromosome",0.915,"MOB-suite","E. coli"
"GCA_014170615.1_ASM1417061v1","plasmid_AA474","CP059907.1",9138,107617,"chromosome",0.085,"MOB-suite","E. coli"
"GCA_014170615.1_ASM1417061v1","plasmid_AD672","CP059907.1",18837,17660,"chromosome",0.933,"MOB-suite","E. coli"
"GCA_014170615.1_ASM1417061v1","plasmid_AA179","CP059908.1",178153,179451,"chromosome",0.957,"MOB-suite","E. coli"
"GCA_014170615.1_ASM1417061v1","plasmid_AA378","CP059910.1",92288,92288,"chromosome",1,"MOB-suite","E. coli"
"GCA_013725775.1_ASM1372577v1","plasmid_AF232","CP056242.1",9953,7669,"chromosome",0.702,"MOB-suite","E. coli"
"GCA_014169195.1_ASM1416919v1","plasmid_AF232","AP022105.1",6756,6756,"chromosome",1,"MOB-suite","E. coli"
"GCA_014169195.1_ASM1416919v1","plasmid_AA337","AP022105.1",41961,49062,"chromosome",0.32,"MOB-suite","E. coli"
"GCA_013813585.1_ASM1381358v1","plasmid_AF232","CP057109.1",3648,3648,"chromosome",1,"MOB-suite","E. coli"
"GCA_014109665.1_ASM1410966v1","plasmid_AF232","CP058104.1",6252,6252,"chromosome",1,"MOB-suite","E. coli"
"GCA_013784085.1_ASM1378408v1","plasmid_AF232","CP056392.1",4270,4270,"chromosome",1,"MOB-suite","E. coli"
"GCA_013923405.1_ASM1392340v1","plasmid_AA337","CP058070.1",25359,72482,"chromosome",0.247,"MOB-suite","E. coli"
"GCA_014168595.1_ASM1416859v1","plasmid_AA176","AP021914.1",10844,144129,"chromosome",0.026,"MOB-suite","E. coli"
"GCA_014168595.1_ASM1416859v1","plasmid_AF232","AP021914.1",7971,7971,"chromosome",1,"MOB-suite","E. coli"
"GCA_013790405.1_ASM1379040v1","plasmid_AF268","CP056817.1",18901,18901,"chromosome",1,"MOB-suite","E. coli"
"GCA_013790405.1_ASM1379040v1","plasmid_AA176","CP056816.1",24838,22672,"chromosome",0.606,"MOB-suite","E. coli"
"GCA_013790405.1_ASM1379040v1","plasmid_AA176","CP056819.1",6989,22672,"chromosome",0.249,"MOB-suite","E. coli"
"GCA_013790405.1_ASM1379040v1","plasmid_AA282","CP056818.1",67444,77773,"chromosome",0.848,"MOB-suite","E. coli"
"GCA_013790405.1_ASM1379040v1","plasmid_AA282","CP056817.1",11848,77773,"chromosome",0.133,"MOB-suite","E. coli"
"GCA_013790405.1_ASM1379040v1","plasmid_AA297","CP056819.1",62955,69115,"chromosome",0.873,"MOB-suite","E. coli"
"GCA_013790405.1_ASM1379040v1","plasmid_AA297","CP056817.1",6159,69115,"chromosome",0.089,"MOB-suite","E. coli"
"GCA_013790405.1_ASM1379040v1","plasmid_AB233","CP056820.1",36067,36067,"chromosome",1,"MOB-suite","E. coli"
"GCA_013790405.1_ASM1379040v1","plasmid_AC662","CP056817.1",36249,36249,"chromosome",1,"MOB-suite","E. coli"
"GCA_013829445.1_ASM1382944v1","plasmid_AB192","CP057368.1",5436,19781,"chromosome",0.122,"MOB-suite","E. coli"
"GCA_014109125.1_ASM1410912v1","plasmid_AA337","CP058078.1",25359,72481,"chromosome",0.247,"MOB-suite","E. coli"
"GCA_014169695.1_ASM1416969v1","plasmid_AA176","AP022245.1",6872,67622,"chromosome",0.082,"MOB-suite","E. coli"
"GCA_014169695.1_ASM1416969v1","plasmid_AC305","AP022245.1",4040,43068,"chromosome",0.058,"MOB-suite","E. coli"
"GCA_014169435.1_ASM1416943v1","plasmid_AA309","AP022171.1",4552,51026,"chromosome",0.039,"MOB-suite","E. coli"
"GCA_014169435.1_ASM1416943v1","plasmid_AA337","AP022171.1",23117,84138,"chromosome",0.029,"MOB-suite","E. coli"
"GCA_013886475.1_ASM1388647v1","plasmid_AA304","CP057571.1",104146,104146,"chromosome",1,"MOB-suite","E. coli"
"GCA_013886475.1_ASM1388647v1","plasmid_AB442","CP057573.1",4430,4671,"chromosome",0.948,"MOB-suite","E. coli"
"GCA_013886475.1_ASM1388647v1","plasmid_AB003","CP057572.1",87552,88150,"chromosome",0.993,"MOB-suite","E. coli"
"GCA_013785665.1_ASM1378566v1","plasmid_AF232","CP056564.1",4597,4597,"chromosome",1,"MOB-suite","E. coli"
"GCA_013889395.1_ASM1388939v1","plasmid_AD672","CP057612.1",13367,10935,"chromosome",0.778,"MOB-suite","E. coli"
"GCA_013889395.1_ASM1388939v1","plasmid_AA337","CP057612.1",9183,96460,"chromosome",0.069,"MOB-suite","E. coli"
"GCA_013819985.1_ASM1381998v1","plasmid_AF232","CP057225.1",4747,4747,"chromosome",1,"MOB-suite","E. coli"
"GCA_014170595.1_ASM1417059v1","plasmid_AA474","CP059906.1",103098,109305,"chromosome",0.867,"MOB-suite","E. coli"
"GCA_014170595.1_ASM1417059v1","plasmid_AA474","CP059905.1",3173,109305,"chromosome",0.017,"MOB-suite","E. coli"
"GCA_014170595.1_ASM1417059v1","plasmid_AA176","CP059905.1",80768,107345,"chromosome",0.752,"MOB-suite","E. coli"
"GCA_014170595.1_ASM1417059v1","plasmid_AA176","CP059904.1",55842,107345,"chromosome",0.01,"MOB-suite","E. coli"
"GCA_014170595.1_ASM1417059v1","plasmid_AA316","CP059905.1",49030,50138,"chromosome",0.977,"MOB-suite","E. coli"
"GCA_014170595.1_ASM1417059v1","plasmid_AA316","CP059906.1",1063,50138,"chromosome",0.021,"MOB-suite","E. coli"
"GCA_013822575.1_ASM1382257v1","plasmid_AA998","CP057276.1",30530,236836,"chromosome",0.065,"MOB-suite","E. coli"
"GCA_013822575.1_ASM1382257v1","plasmid_novel_ac8b43fab47da906925c7c723e3fe04a","CP057276.1",19549,47534,"chromosome",0.32,"MOB-suite","E. coli"
"GCA_013898135.1_ASM1389813v1","plasmid_AB685","CP057778.1",1539,1539,"chromosome",1,"MOB-suite","E. coli"
"GCA_013898135.1_ASM1389813v1","plasmid_AF190","CP057778.1",23901,18964,"chromosome",0.74,"MOB-suite","E. coli"
"GCA_014131615.1_ASM1413161v1","plasmid_AA303","CP048867.1",8871,70900,"chromosome",0.052,"MOB-suite","E. coli"
"GCA_014131615.1_ASM1413161v1","plasmid_AA302","CP048867.1",13150,27280,"chromosome",0.482,"MOB-suite","E. coli"
"GCA_014131615.1_ASM1413161v1","plasmid_AB272","CP048867.1",35583,68520,"chromosome",0.177,"MOB-suite","E. coli"
"GCA_013790245.1_ASM1379024v1","plasmid_AA170","CP056800.1",3912,27891,"chromosome",0.14,"MOB-suite","E. coli"
"GCA_013790245.1_ASM1379024v1","plasmid_AA474","CP056800.1",9800,86091,"chromosome",0.026,"MOB-suite","E. coli"
"GCA_013790245.1_ASM1379024v1","plasmid_AA322","CP056800.1",9992,21078,"chromosome",0.474,"MOB-suite","E. coli"
"GCA_013824345.1_ASM1382434v1","plasmid_novel_0b051d631c1f3fb74f875e3623f54a0b","CP057194.1",16104,24737,"chromosome",0.553,"MOB-suite","E. coli"
"GCA_013824345.1_ASM1382434v1","plasmid_novel_0b051d631c1f3fb74f875e3623f54a0b","CP057196.1",9846,24737,"chromosome",0.398,"MOB-suite","E. coli"
"GCA_013824345.1_ASM1382434v1","plasmid_AA180","CP057195.1",72949,72951,"chromosome",1,"MOB-suite","E. coli"
"GCA_013824345.1_ASM1382434v1","plasmid_AA886","CP057196.1",27020,27020,"chromosome",1,"MOB-suite","E. coli"
"GCA_013805505.1_ASM1380550v1","plasmid_AD672","CP057031.1",14349,14349,"chromosome",1,"MOB-suite","E. coli"
"GCA_014170695.1_ASM1417069v1","plasmid_AA306","CP059922.1",9726,14146,"chromosome",0.688,"MOB-suite","E. coli"
"GCA_013829905.1_ASM1382990v1","plasmid_AA887","CP057378.1",51311,83083,"chromosome",0.514,"MOB-suite","E. coli"
"GCA_013829905.1_ASM1382990v1","plasmid_AA887","CP057379.1",37914,83083,"chromosome",0.456,"MOB-suite","E. coli"
"GCA_013899265.1_ASM1389926v1","plasmid_AA738","CP057860.1",19310,8604,"chromosome",0.53,"MOB-suite","E. coli"
"GCA_014131515.1_ASM1413151v1","plasmid_AA336","CP048855.1",2630,68520,"chromosome",0.038,"MOB-suite","E. coli"
"GCA_013899825.1_ASM1389982v1","plasmid_AA302","CP057916.1",13985,101716,"chromosome",0.036,"MOB-suite","E. coli"
"GCA_013812225.1_ASM1381222v1","plasmid_AG294","CP057075.1",15371,15371,"chromosome",1,"MOB-suite","E. coli"
"GCA_013748665.1_ASM1374866v1","plasmid_AA860","CP056492.1",29581,28367,"chromosome",0.407,"MOB-suite","E. coli"
"GCA_013748665.1_ASM1374866v1","plasmid_AA324","CP056492.1",15300,37672,"chromosome",0.33,"MOB-suite","E. coli"
"GCA_013802065.1_ASM1380206v1","plasmid_AB685","CP056984.1",1011,1087,"chromosome",0.93,"MOB-suite","E. coli"
"GCA_013802065.1_ASM1380206v1","plasmid_AA474","CP056976.1",85744,96839,"chromosome",0.841,"MOB-suite","E. coli"
"GCA_013802065.1_ASM1380206v1","plasmid_AA474","CP056975.1",10971,96839,"chromosome",0.044,"MOB-suite","E. coli"
"GCA_013802065.1_ASM1380206v1","plasmid_AA474","CP056977.1",7982,96839,"chromosome",0.02,"MOB-suite","E. coli"
"GCA_013802065.1_ASM1380206v1","plasmid_AA537","CP056980.1",4018,4018,"chromosome",1,"MOB-suite","E. coli"
"GCA_013802065.1_ASM1380206v1","plasmid_AG658","CP056977.1",10693,10693,"chromosome",1,"MOB-suite","E. coli"
"GCA_013802065.1_ASM1380206v1","plasmid_AA579","CP056979.1",4072,4072,"chromosome",1,"MOB-suite","E. coli"
"GCA_013802065.1_ASM1380206v1","plasmid_AA551","CP056978.1",47878,47878,"chromosome",1,"MOB-suite","E. coli"
"GCA_013802065.1_ASM1380206v1","plasmid_AA316","CP056977.1",41340,81662,"chromosome",0.408,"MOB-suite","E. coli"
"GCA_013802065.1_ASM1380206v1","plasmid_AA316","CP056975.1",47164,81662,"chromosome",0.48,"MOB-suite","E. coli"
"GCA_013802065.1_ASM1380206v1","plasmid_AB686","CP056983.1",1024,1100,"chromosome",0.931,"MOB-suite","E. coli"
"GCA_013802065.1_ASM1380206v1","plasmid_AA979","CP056981.1",3751,3751,"chromosome",1,"MOB-suite","E. coli"
"GCA_013801205.1_ASM1380120v1","plasmid_AF232","CP056955.1",5173,3296,"chromosome",0.431,"MOB-suite","E. coli"
"GCA_014169995.1_ASM1416999v1","plasmid_AF232","CP054282.1",4394,4394,"chromosome",1,"MOB-suite","E. coli"
"GCA_014169575.1_ASM1416957v1","plasmid_AA171","AP022207.1",15084,43822,"chromosome",0.344,"MOB-suite","E. coli"
"GCA_014169575.1_ASM1416957v1","plasmid_AA309","AP022207.1",5039,31860,"chromosome",0.158,"MOB-suite","E. coli"
"GCA_014169575.1_ASM1416957v1","plasmid_AA860","AP022207.1",31706,59154,"chromosome",0.324,"MOB-suite","E. coli"
"GCA_014109625.1_ASM1410962v1","plasmid_AA302","CP058091.1",75698,77652,"chromosome",0.93,"MOB-suite","E. coli"
"GCA_014109625.1_ASM1410962v1","plasmid_AA182","CP058092.1",69173,69173,"chromosome",1,"MOB-suite","E. coli"
"GCA_014109625.1_ASM1410962v1","plasmid_AF232","CP058090.1",2520,2520,"chromosome",1,"MOB-suite","E. coli"
"GCA_013601135.1_ASM1360113v1","plasmid_AF232","CP055713.1",1342,1342,"chromosome",1,"MOB-suite","E. coli"
"GCA_013791815.1_ASM1379181v1","plasmid_AF232","CP056846.1",1419,1419,"chromosome",1,"MOB-suite","E. coli"
"GCA_013885155.1_ASM1388515v1","plasmid_AF232","CP057539.1",5758,5758,"chromosome",1,"MOB-suite","E. coli"
"GCA_014170675.1_ASM1417067v1","plasmid_AA176","CP059917.1",28866,194113,"chromosome",0.01,"MOB-suite","E. coli"
"GCA_013602835.1_ASM1360283v1","plasmid_novel_9f4270541e46205fe9fd5c5e9f0cd036","CP055724.1",1770,46066,"chromosome",0.038,"MOB-suite","E. coli"
"GCA_013731515.1_ASM1373151v1","plasmid_AA176","CP056304.1",32461,131415,"chromosome",0.081,"MOB-suite","E. coli"
"GCA_013819805.1_ASM1381980v1","plasmid_AD448","CP057223.1",37045,37045,"chromosome",1,"MOB-suite","E. coli"
"GCA_013819805.1_ASM1381980v1","plasmid_AA302","CP057223.1",6739,102142,"chromosome",0.015,"MOB-suite","E. coli"
"GCA_014168755.1_ASM1416875v1","plasmid_AA275","AP021946.1",10161,10161,"chromosome",1,"MOB-suite","E. coli"
"GCA_014168755.1_ASM1416875v1","plasmid_AA176","AP021946.1",13808,196374,"chromosome",0.031,"MOB-suite","E. coli"
"GCA_013825245.1_ASM1382524v1","plasmid_AG294","CP057293.1",17948,17948,"chromosome",1,"MOB-suite","E. coli"
"GCA_013797825.1_ASM1379782v1","plasmid_AB044","CP056902.1",5286,5286,"chromosome",1,"MOB-suite","E. coli"
"GCA_013797825.1_ASM1379782v1","plasmid_AA334","CP056902.1",9163,95719,"chromosome",0.024,"MOB-suite","E. coli"
"GCA_013797825.1_ASM1379782v1","plasmid_AF232","CP056902.1",14069,14069,"chromosome",1,"MOB-suite","E. coli"
"GCA_013890795.1_ASM1389079v1","plasmid_AA473","CP057634.1",1528,86039,"chromosome",0.018,"MOB-suite","E. coli"
"GCA_013890795.1_ASM1389079v1","plasmid_AA887","CP057634.1",7227,14678,"chromosome",0.27,"MOB-suite","E. coli"
"GCA_013890795.1_ASM1389079v1","plasmid_AA337","CP057634.1",50158,44688,"chromosome",0.745,"MOB-suite","E. coli"
"GCA_013806725.1_ASM1380672v1","plasmid_AA887","CP057055.1",22815,74412,"chromosome",0.055,"MOB-suite","E. coli"
"GCA_014169855.1_ASM1416985v1","plasmid_AA336","AP022287.1",10578,63119,"chromosome",0.056,"MOB-suite","E. coli"
"GCA_014169855.1_ASM1416985v1","plasmid_AA297","AP022287.1",36564,27913,"chromosome",0.469,"MOB-suite","E. coli"
"GCA_013746875.1_ASM1374687v1","plasmid_AA998","CP056396.1",21736,21736,"chromosome",1,"MOB-suite","E. coli"
"GCA_013746875.1_ASM1374687v1","plasmid_AF232","CP056396.1",6094,6094,"chromosome",1,"MOB-suite","E. coli"
"GCA_013746875.1_ASM1374687v1","plasmid_AA052","CP056396.1",34210,34210,"chromosome",1,"MOB-suite","E. coli"
"GCA_013746875.1_ASM1374687v1","plasmid_AA810","CP056396.1",18538,18538,"chromosome",1,"MOB-suite","E. coli"
"GCA_013795545.1_ASM1379554v1","plasmid_AA860","CP056870.1",26241,26095,"chromosome",0.396,"MOB-suite","E. coli"
"GCA_013795545.1_ASM1379554v1","plasmid_novel_a240bc46960716576b89f57e3ad9c20a","CP056870.1",12430,22106,"chromosome",0.562,"MOB-suite","E. coli"
"GCA_014109105.1_ASM1410910v1","plasmid_AA337","CP058076.1",37395,84929,"chromosome",0.353,"MOB-suite","E. coli"
"GCA_013790145.1_ASM1379014v1","plasmid_AA998","CP056794.1",21452,24706,"chromosome",0.748,"MOB-suite","E. coli"
"GCA_013790145.1_ASM1379014v1","plasmid_AA056","CP056794.1",34459,30267,"chromosome",0.907,"MOB-suite","E. coli"
"GCA_013790145.1_ASM1379014v1","plasmid_AA474","CP056794.1",4233,21158,"chromosome",0.2,"MOB-suite","E. coli"
"GCA_013790145.1_ASM1379014v1","plasmid_AA405","CP056794.1",25557,215025,"chromosome",0.038,"MOB-suite","E. coli"
"GCA_013790145.1_ASM1379014v1","plasmid_AA047","CP056794.1",21151,16835,"chromosome",0.744,"MOB-suite","E. coli"
"GCA_014169915.1_ASM1416991v1","plasmid_AA860","AP022298.1",24904,40465,"chromosome",0.557,"MOB-suite","E. coli"
"GCA_013796065.1_ASM1379606v1","plasmid_AA302","CP056876.1",41244,42587,"chromosome",0.18,"MOB-suite","E. coli"
"GCA_013796065.1_ASM1379606v1","plasmid_AB272","CP056876.1",24655,59012,"chromosome",0.066,"MOB-suite","E. coli"
"GCA_014169595.1_ASM1416959v1","plasmid_AA474","AP022216.1",90632,90733,"chromosome",0.999,"MOB-suite","E. coli"
"GCA_014169595.1_ASM1416959v1","plasmid_AB003","AP022217.1",91103,91103,"chromosome",1,"MOB-suite","E. coli"
"GCA_014169595.1_ASM1416959v1","plasmid_AA579","AP022219.1",2549,4056,"chromosome",0.375,"MOB-suite","E. coli"
"GCA_014169595.1_ASM1416959v1","plasmid_AA579","AP022220.1",2493,4056,"chromosome",0.361,"MOB-suite","E. coli"
"GCA_014168975.1_ASM1416897v1","plasmid_AD448","AP022036.1",37046,37046,"chromosome",1,"MOB-suite","E. coli"
"GCA_014169155.1_ASM1416915v1","plasmid_AA474","AP022095.1",22024,100287,"chromosome",0.049,"MOB-suite","E. coli"
"GCA_014169155.1_ASM1416915v1","plasmid_AD672","AP022095.1",16166,16166,"chromosome",1,"MOB-suite","E. coli"
"GCA_014169415.1_ASM1416941v1","plasmid_AA977","AP022167.1",5167,5167,"chromosome",1,"MOB-suite","E. coli"
"GCA_014169415.1_ASM1416941v1","plasmid_AA144","AP022166.1",2494,2494,"chromosome",1,"MOB-suite","E. coli"
"GCA_014169415.1_ASM1416941v1","plasmid_AC509","AP022165.1",3864,3864,"chromosome",1,"MOB-suite","E. coli"
"GCA_014169415.1_ASM1416941v1","plasmid_AA174","AP022162.1",125317,125335,"chromosome",0.976,"MOB-suite","E. coli"
"GCA_014169415.1_ASM1416941v1","plasmid_AC621","AP022164.1",47454,47454,"chromosome",1,"MOB-suite","E. coli"
"GCA_014169415.1_ASM1416941v1","plasmid_AC748","AP022170.1",2088,2088,"chromosome",1,"MOB-suite","E. coli"
"GCA_014169415.1_ASM1416941v1","plasmid_AA378","AP022163.1",93626,93626,"chromosome",1,"MOB-suite","E. coli"
"GCA_013741635.1_ASM1374163v1","plasmid_AA860","CP056598.1",31063,43206,"chromosome",0.324,"MOB-suite","E. coli"
"GCA_014169895.1_ASM1416989v1","plasmid_AF232","AP022295.1",5173,3296,"chromosome",0.431,"MOB-suite","E. coli"
"GCA_013888615.1_ASM1388861v1","plasmid_AA337","CP057605.1",9183,96460,"chromosome",0.069,"MOB-suite","E. coli"
"GCA_014169015.1_ASM1416901v1","plasmid_AA337","AP022044.1",26048,48952,"chromosome",0.062,"MOB-suite","E. coli"
"GCA_014169115.1_ASM1416911v1","GCA_014169115.1_ASM1416911v1_component_1","AP022069.1",61784,44745,"chromosome",0.498,"plasmidSPAdes","E. coli"
"GCA_014169115.1_ASM1416911v1","GCA_014169115.1_ASM1416911v1_component_0","AP022069.1",50399,53498,"chromosome",0.834,"plasmidSPAdes","E. coli"
"GCA_014131575.1_ASM1413157v1","GCA_014131575.1_ASM1413157v1_component_3","CP048863.1",9999,10809,"chromosome",0.613,"plasmidSPAdes","E. coli"
"GCA_014131575.1_ASM1413157v1","GCA_014131575.1_ASM1413157v1_component_0","CP048863.1",27287,29144,"chromosome",0.936,"plasmidSPAdes","E. coli"
"GCA_014131575.1_ASM1413157v1","GCA_014131575.1_ASM1413157v1_component_1","CP048863.1",37410,26392,"chromosome",0.407,"plasmidSPAdes","E. coli"
"GCA_014131575.1_ASM1413157v1","GCA_014131575.1_ASM1413157v1_component_2","CP048863.1",10525,10967,"chromosome",0.96,"plasmidSPAdes","E. coli"
"GCA_013749295.1_ASM1374929v1","GCA_013749295.1_ASM1374929v1_component_0","CP056524.1",4760,60156,"chromosome",0.079,"plasmidSPAdes","E. coli"
"GCA_014169275.1_ASM1416927v1","GCA_014169275.1_ASM1416927v1_component_0","AP022120.1",30641,225781,"chromosome",0.094,"plasmidSPAdes","E. coli"
"GCA_013745955.1_ASM1374595v1","GCA_013745955.1_ASM1374595v1_component_0","CP056357.1",3810,123656,"chromosome",0.031,"plasmidSPAdes","E. coli"
"GCA_014168935.1_ASM1416893v1","GCA_014168935.1_ASM1416893v1_component_1","AP022030.1",27652,14025,"chromosome",0.549,"plasmidSPAdes","E. coli"
"GCA_014168935.1_ASM1416893v1","GCA_014168935.1_ASM1416893v1_component_0","AP022030.1",45936,118138,"chromosome",0.254,"plasmidSPAdes","E. coli"
"GCA_013834305.1_ASM1383430v1","GCA_013834305.1_ASM1383430v1_component_0","CP057455.1",19446,15168,"chromosome",0.369,"plasmidSPAdes","E. coli"
"GCA_014169475.1_ASM1416947v1","GCA_014169475.1_ASM1416947v1_component_0","AP022177.1",54582,201089,"chromosome",0.02,"plasmidSPAdes","E. coli"
"GCA_014168675.1_ASM1416867v1","GCA_014168675.1_ASM1416867v1_component_2","AP021933.1",80689,83670,"chromosome",0.964,"plasmidSPAdes","E. coli"
"GCA_014168675.1_ASM1416867v1","GCA_014168675.1_ASM1416867v1_component_0","AP021933.1",149851,149851,"chromosome",1,"plasmidSPAdes","E. coli"
"GCA_013815235.1_ASM1381523v1","GCA_013815235.1_ASM1381523v1_component_0","CP057133.1",1365,134437,"chromosome",0.01,"plasmidSPAdes","E. coli"
"GCA_013815235.1_ASM1381523v1","GCA_013815235.1_ASM1381523v1_component_1","CP057133.1",23666,16576,"chromosome",0.152,"plasmidSPAdes","E. coli"
"GCA_013795795.1_ASM1379579v1","GCA_013795795.1_ASM1379579v1_component_1","CP056873.1",14376,11459,"chromosome",0.511,"plasmidSPAdes","E. coli"
"GCA_013795795.1_ASM1379579v1","GCA_013795795.1_ASM1379579v1_component_0","CP056875.1",69821,151896,"chromosome",0.418,"plasmidSPAdes","E. coli"
"GCA_013795795.1_ASM1379579v1","GCA_013795795.1_ASM1379579v1_component_0","CP056874.1",68130,151896,"chromosome",0.378,"plasmidSPAdes","E. coli"
"GCA_013795795.1_ASM1379579v1","GCA_013795795.1_ASM1379579v1_component_0","CP056873.1",7511,151896,"chromosome",0.049,"plasmidSPAdes","E. coli"
"GCA_013830785.1_ASM1383078v1","GCA_013830785.1_ASM1383078v1_component_1","CP057396.1",13189,13190,"chromosome",1,"plasmidSPAdes","E. coli"
"GCA_013789905.1_ASM1378990v1","GCA_013789905.1_ASM1378990v1_component_0","CP056786.1",10614,108257,"chromosome",0.028,"plasmidSPAdes","E. coli"
"GCA_013789905.1_ASM1378990v1","GCA_013789905.1_ASM1378990v1_component_1","CP056786.1",15822,19764,"chromosome",0.801,"plasmidSPAdes","E. coli"
"GCA_013742835.1_ASM1374283v1","GCA_013742835.1_ASM1374283v1_component_0","CP056625.1",26122,200124,"chromosome",0.063,"plasmidSPAdes","E. coli"
"GCA_013730915.1_ASM1373091v1","GCA_013730915.1_ASM1373091v1_component_1","CP056299.1",11723,13879,"chromosome",0.845,"plasmidSPAdes","E. coli"
"GCA_013748455.1_ASM1374845v1","GCA_013748455.1_ASM1374845v1_component_1","CP056470.1",16174,13257,"chromosome",0.578,"plasmidSPAdes","E. coli"
"GCA_013748455.1_ASM1374845v1","GCA_013748455.1_ASM1374845v1_component_0","CP056472.1",66112,188349,"chromosome",0.331,"plasmidSPAdes","E. coli"
"GCA_013748455.1_ASM1374845v1","GCA_013748455.1_ASM1374845v1_component_0","CP056471.1",98538,188349,"chromosome",0.475,"plasmidSPAdes","E. coli"
"GCA_013748455.1_ASM1374845v1","GCA_013748455.1_ASM1374845v1_component_0","CP056470.1",15455,188349,"chromosome",0.082,"plasmidSPAdes","E. coli"
"GCA_013729295.1_ASM1372929v1","GCA_013729295.1_ASM1372929v1_component_0","CP056278.1",2336,115515,"chromosome",0.02,"plasmidSPAdes","E. coli"
"GCA_014131475.1_ASM1413147v1","GCA_014131475.1_ASM1413147v1_component_1","CP048606.1",30770,30850,"chromosome",0.827,"plasmidSPAdes","E. coli"
"GCA_014131475.1_ASM1413147v1","GCA_014131475.1_ASM1413147v1_component_3","CP048606.1",10495,10937,"chromosome",0.96,"plasmidSPAdes","E. coli"
"GCA_014131475.1_ASM1413147v1","GCA_014131475.1_ASM1413147v1_component_0","CP048606.1",31853,35984,"chromosome",0.882,"plasmidSPAdes","E. coli"
"GCA_014131475.1_ASM1413147v1","GCA_014131475.1_ASM1413147v1_component_2","CP048606.1",13182,14199,"chromosome",0.928,"plasmidSPAdes","E. coli"
"GCA_013783905.1_ASM1378390v1","GCA_013783905.1_ASM1378390v1_component_1","CP056370.1",10713,11684,"chromosome",0.917,"plasmidSPAdes","E. coli"
"GCA_013783905.1_ASM1378390v1","GCA_013783905.1_ASM1378390v1_component_0","CP056370.1",40441,40441,"chromosome",1,"plasmidSPAdes","E. coli"
"GCA_013815865.1_ASM1381586v1","GCA_013815865.1_ASM1381586v1_component_0","CP057139.1",10104,71019,"chromosome",0.07,"plasmidSPAdes","E. coli"
"GCA_013785265.1_ASM1378526v1","GCA_013785265.1_ASM1378526v1_component_0","CP056481.1",20500,22145,"chromosome",0.794,"plasmidSPAdes","E. coli"
"GCA_014109025.1_ASM1410902v1","GCA_014109025.1_ASM1410902v1_component_0","CP058052.1",8916,109996,"chromosome",0.009,"plasmidSPAdes","E. coli"
"GCA_014131555.1_ASM1413155v1","GCA_014131555.1_ASM1413155v1_component_1","CP048860.1",21537,23670,"chromosome",0.866,"plasmidSPAdes","E. coli"
"GCA_014131555.1_ASM1413155v1","GCA_014131555.1_ASM1413155v1_component_0","CP048860.1",575730,551364,"chromosome",0.981,"plasmidSPAdes","E. coli"
"GCA_014131555.1_ASM1413155v1","GCA_014131555.1_ASM1413155v1_component_2","CP048860.1",16094,16094,"chromosome",1,"plasmidSPAdes","E. coli"
"GCA_013750815.1_ASM1375081v1","GCA_013750815.1_ASM1375081v1_component_0","CP056569.1",6598,97465,"chromosome",0.023,"plasmidSPAdes","E. coli"
"GCA_013922765.1_ASM1392276v1","GCA_013922765.1_ASM1392276v1_component_1","CP058019.1",15776,13233,"chromosome",0.218,"plasmidSPAdes","E. coli"
"GCA_014168735.1_ASM1416873v1","GCA_014168735.1_ASM1416873v1_component_1","AP021944.1",10230,11485,"chromosome",0.891,"plasmidSPAdes","E. coli"
"GCA_013821835.1_ASM1382183v1","GCA_013821835.1_ASM1382183v1_component_1","CP057259.1",9541,10678,"chromosome",0.894,"plasmidSPAdes","E. coli"
"GCA_014168855.1_ASM1416885v1","GCA_014168855.1_ASM1416885v1_component_0","AP022003.1",80636,158167,"chromosome",0.509,"plasmidSPAdes","E. coli"
"GCA_013891215.1_ASM1389121v1","GCA_013891215.1_ASM1389121v1_component_0","CP057638.1",33853,140839,"chromosome",0.217,"plasmidSPAdes","E. coli"
"GCA_014131495.1_ASM1413149v1","GCA_014131495.1_ASM1413149v1_component_0","CP048853.1",21777,57683,"chromosome",0.155,"plasmidSPAdes","E. coli"
"GCA_014131495.1_ASM1413149v1","GCA_014131495.1_ASM1413149v1_component_1","CP048853.1",7000,13723,"chromosome",0.51,"plasmidSPAdes","E. coli"
"GCA_013832285.1_ASM1383228v1","GCA_013832285.1_ASM1383228v1_component_0","CP057423.1",1501,110461,"chromosome",0.014,"plasmidSPAdes","E. coli"
"GCA_013795285.1_ASM1379528v1","GCA_013795285.1_ASM1379528v1_component_0","CP056867.1",9771,10865,"chromosome",0.899,"plasmidSPAdes","E. coli"
"GCA_013898915.1_ASM1389891v1","GCA_013898915.1_ASM1389891v1_component_0","CP057802.1",1331,50373,"chromosome",0.026,"plasmidSPAdes","E. coli"
"GCA_013729535.1_ASM1372953v1","GCA_013729535.1_ASM1372953v1_component_0","CP056282.1",10552,10556,"chromosome",1,"plasmidSPAdes","E. coli"
"GCA_014131655.1_ASM1413165v1","GCA_014131655.1_ASM1413165v1_component_1","CP048873.1",25169,33041,"chromosome",0.754,"plasmidSPAdes","E. coli"
"GCA_014131655.1_ASM1413165v1","GCA_014131655.1_ASM1413165v1_component_2","CP048873.1",15382,12000,"chromosome",0.632,"plasmidSPAdes","E. coli"
"GCA_014131655.1_ASM1413165v1","GCA_014131655.1_ASM1413165v1_component_0","CP048873.1",33642,33642,"chromosome",1,"plasmidSPAdes","E. coli"
"GCA_014131655.1_ASM1413165v1","GCA_014131655.1_ASM1413165v1_component_3","CP048873.1",10187,10187,"chromosome",1,"plasmidSPAdes","E. coli"
"GCA_013890395.1_ASM1389039v1","GCA_013890395.1_ASM1389039v1_component_0","CP057621.1",49915,134681,"chromosome",0.082,"plasmidSPAdes","E. coli"
"GCA_013795065.1_ASM1379506v1","GCA_013795065.1_ASM1379506v1_component_1","CP056865.1",2434,2434,"chromosome",1,"plasmidSPAdes","E. coli"
"GCA_013795065.1_ASM1379506v1","GCA_013795065.1_ASM1379506v1_component_0","CP056866.1",42924,45177,"chromosome",0.95,"plasmidSPAdes","E. coli"
"GCA_013795065.1_ASM1379506v1","GCA_013795065.1_ASM1379506v1_component_0","CP056865.1",1433,45177,"chromosome",0.032,"plasmidSPAdes","E. coli"
"GCA_013592195.1_ASM1359219v1","GCA_013592195.1_ASM1359219v1_component_1","CP055624.1",90649,55530,"chromosome",0.147,"plasmidSPAdes","E. coli"
"GCA_013895455.1_ASM1389545v1","GCA_013895455.1_ASM1389545v1_component_2","CP057713.1",2854,72882,"chromosome",0.039,"plasmidSPAdes","E. coli"
"GCA_014169395.1_ASM1416939v1","GCA_014169395.1_ASM1416939v1_component_1","AP022159.1",56063,39638,"chromosome",0.872,"plasmidSPAdes","E. coli"
"GCA_014169395.1_ASM1416939v1","GCA_014169395.1_ASM1416939v1_component_0","AP022159.1",114528,117479,"chromosome",0.944,"plasmidSPAdes","E. coli"
"GCA_011849985.2_ASM1184998v2","GCA_011849985.2_ASM1184998v2_component_0","CP058233.1",193376,297961,"chromosome",0.297,"plasmidSPAdes","E. coli"
"GCA_013822325.1_ASM1382232v1","GCA_013822325.1_ASM1382232v1_component_0","CP057270.1",23616,28164,"chromosome",0.839,"plasmidSPAdes","E. coli"
"GCA_011843745.2_ASM1184374v2","GCA_011843745.2_ASM1184374v2_component_0","CP058231.1",180806,287918,"chromosome",0.289,"plasmidSPAdes","E. coli"
"GCA_011843745.2_ASM1184374v2","GCA_011843745.2_ASM1184374v2_component_1","CP058231.1",32417,32851,"chromosome",0.987,"plasmidSPAdes","E. coli"
"GCA_013752075.1_ASM1375207v1","GCA_013752075.1_ASM1375207v1_component_1","CP056604.1",44264,45250,"chromosome",0.978,"plasmidSPAdes","E. coli"
"GCA_013782445.1_ASM1378244v1","GCA_013782445.1_ASM1378244v1_component_0","CP056190.1",34440,41061,"chromosome",0.765,"plasmidSPAdes","E. coli"
"GCA_012849755.1_ASM1284975v1","GCA_012849755.1_ASM1284975v1_component_0","CP051631.1",191446,225673,"chromosome",0.489,"plasmidSPAdes","E. coli"
"GCA_013752295.1_ASM1375229v1","GCA_013752295.1_ASM1375229v1_component_0","CP056618.1",17821,17342,"chromosome",0.82,"plasmidSPAdes","E. coli"
"GCA_013752295.1_ASM1375229v1","GCA_013752295.1_ASM1375229v1_component_1","CP056618.1",11876,12532,"chromosome",0.948,"plasmidSPAdes","E. coli"
"GCA_013742135.1_ASM1374213v1","GCA_013742135.1_ASM1374213v1_component_1","CP056613.1",34248,25332,"chromosome",0.247,"plasmidSPAdes","E. coli"
"GCA_013742135.1_ASM1374213v1","GCA_013742135.1_ASM1374213v1_component_3","CP056613.1",15072,18592,"chromosome",0.811,"plasmidSPAdes","E. coli"
"GCA_013742135.1_ASM1374213v1","GCA_013742135.1_ASM1374213v1_component_2","CP056613.1",7655,19797,"chromosome",0.387,"plasmidSPAdes","E. coli"
"GCA_013884735.1_ASM1388473v1","GCA_013884735.1_ASM1388473v1_component_1","CP057523.1",11222,11738,"chromosome",0.956,"plasmidSPAdes","E. coli"
"GCA_013900005.1_ASM1390000v1","GCA_013900005.1_ASM1390000v1_component_0","CP057942.1",35912,31379,"chromosome",0.605,"plasmidSPAdes","E. coli"
"GCA_013740395.1_ASM1374039v1","GCA_013740395.1_ASM1374039v1_component_0","CP056446.1",24366,171628,"chromosome",0.095,"plasmidSPAdes","E. coli"
"GCA_014170975.1_ASM1417097v1","GCA_014170975.1_ASM1417097v1_component_2","CP059951.1",5631,5758,"chromosome",0.956,"plasmidSPAdes","E. coli"
"GCA_014170975.1_ASM1417097v1","GCA_014170975.1_ASM1417097v1_component_0","CP059949.1",37661,187970,"chromosome",0.2,"plasmidSPAdes","E. coli"
"GCA_014170975.1_ASM1417097v1","GCA_014170975.1_ASM1417097v1_component_0","CP059948.1",109800,187970,"chromosome",0.584,"plasmidSPAdes","E. coli"
"GCA_014170975.1_ASM1417097v1","GCA_014170975.1_ASM1417097v1_component_0","CP059947.1",40277,187970,"chromosome",0.166,"plasmidSPAdes","E. coli"
"GCA_014170975.1_ASM1417097v1","GCA_014170975.1_ASM1417097v1_component_3","CP059948.1",5609,5615,"chromosome",0.999,"plasmidSPAdes","E. coli"
"GCA_014170975.1_ASM1417097v1","GCA_014170975.1_ASM1417097v1_component_1","CP059950.1",6652,6779,"chromosome",0.963,"plasmidSPAdes","E. coli"
"GCA_013750375.1_ASM1375037v1","GCA_013750375.1_ASM1375037v1_component_0","CP056565.1",46482,46736,"chromosome",0.989,"plasmidSPAdes","E. coli"
"GCA_014168955.1_ASM1416895v1","GCA_014168955.1_ASM1416895v1_component_1","AP022032.1",22029,11975,"chromosome",0.508,"plasmidSPAdes","E. coli"
"GCA_014168955.1_ASM1416895v1","GCA_014168955.1_ASM1416895v1_component_0","AP022032.1",15600,15600,"chromosome",1,"plasmidSPAdes","E. coli"
"GCA_013835585.1_ASM1383558v1","GCA_013835585.1_ASM1383558v1_component_0","CP057473.1",25925,30946,"chromosome",0.402,"plasmidSPAdes","E. coli"
"GCA_013835585.1_ASM1383558v1","GCA_013835585.1_ASM1383558v1_component_1","CP057473.1",10951,13695,"chromosome",0.315,"plasmidSPAdes","E. coli"
"GCA_013735655.1_ASM1373565v1","GCA_013735655.1_ASM1373565v1_component_0","CP056412.1",147629,159401,"chromosome",0.637,"plasmidSPAdes","E. coli"
"GCA_013725375.1_ASM1372537v1","GCA_013725375.1_ASM1372537v1_component_0","CP056237.1",39202,39314,"chromosome",0.997,"plasmidSPAdes","E. coli"
"GCA_013818265.1_ASM1381826v1","GCA_013818265.1_ASM1381826v1_component_1","CP057171.1",18996,19731,"chromosome",0.963,"plasmidSPAdes","E. coli"
"GCA_013741855.1_ASM1374185v1","GCA_013741855.1_ASM1374185v1_component_1","CP056608.1",31527,21896,"chromosome",0.053,"plasmidSPAdes","E. coli"
"GCA_013741855.1_ASM1374185v1","GCA_013741855.1_ASM1374185v1_component_2","CP056608.1",11452,22195,"chromosome",0.516,"plasmidSPAdes","E. coli"
"GCA_013741855.1_ASM1374185v1","GCA_013741855.1_ASM1374185v1_component_3","CP056608.1",10750,12760,"chromosome",0.842,"plasmidSPAdes","E. coli"
"GCA_013727075.1_ASM1372707v1","GCA_013727075.1_ASM1372707v1_component_0","CP056249.1",8722,12749,"chromosome",0.684,"plasmidSPAdes","E. coli"
"GCA_013824985.1_ASM1382498v1","GCA_013824985.1_ASM1382498v1_component_0","CP057287.1",27619,208861,"chromosome",0.046,"plasmidSPAdes","E. coli"
"GCA_013791985.1_ASM1379198v1","GCA_013791985.1_ASM1379198v1_component_1","CP056845.1",46419,46546,"chromosome",0.995,"plasmidSPAdes","E. coli"
"GCA_013791985.1_ASM1379198v1","GCA_013791985.1_ASM1379198v1_component_0","CP056844.1",86427,200217,"chromosome",0.431,"plasmidSPAdes","E. coli"
"GCA_013791985.1_ASM1379198v1","GCA_013791985.1_ASM1379198v1_component_0","CP056843.1",104877,200217,"chromosome",0.414,"plasmidSPAdes","E. coli"
"GCA_013791985.1_ASM1379198v1","GCA_013791985.1_ASM1379198v1_component_0","CP056842.1",9402,200217,"chromosome",0.047,"plasmidSPAdes","E. coli"
"GCA_014131635.1_ASM1413163v1","GCA_014131635.1_ASM1413163v1_component_1","CP048870.1",10381,10839,"chromosome",0.958,"plasmidSPAdes","E. coli"
"GCA_014131635.1_ASM1413163v1","GCA_014131635.1_ASM1413163v1_component_0","CP048870.1",72017,54987,"chromosome",0.679,"plasmidSPAdes","E. coli"
"GCA_013816045.1_ASM1381604v1","GCA_013816045.1_ASM1381604v1_component_0","CP057141.1",3965,93631,"chromosome",0.042,"plasmidSPAdes","E. coli"
"GCA_014169175.1_ASM1416917v1","GCA_014169175.1_ASM1416917v1_component_0","AP022098.1",22022,31145,"chromosome",0.707,"plasmidSPAdes","E. coli"
"GCA_014169175.1_ASM1416917v1","GCA_014169175.1_ASM1416917v1_component_2","AP022098.1",15279,12125,"chromosome",0.679,"plasmidSPAdes","E. coli"
"GCA_013812015.1_ASM1381201v1","GCA_013812015.1_ASM1381201v1_component_1","CP057072.1",16027,18289,"chromosome",0.876,"plasmidSPAdes","E. coli"
"GCA_014170615.1_ASM1417061v1","GCA_014170615.1_ASM1417061v1_component_1","CP059909.1",48976,56519,"chromosome",0.867,"plasmidSPAdes","E. coli"
"GCA_014170615.1_ASM1417061v1","GCA_014170615.1_ASM1417061v1_component_1","CP059908.1",7543,56519,"chromosome",0.133,"plasmidSPAdes","E. coli"
"GCA_014170615.1_ASM1417061v1","GCA_014170615.1_ASM1417061v1_component_0","CP059910.1",88106,151167,"chromosome",0.563,"plasmidSPAdes","E. coli"
"GCA_014170615.1_ASM1417061v1","GCA_014170615.1_ASM1417061v1_component_0","CP059907.1",40734,151167,"chromosome",0.182,"plasmidSPAdes","E. coli"
"GCA_014170615.1_ASM1417061v1","GCA_014170615.1_ASM1417061v1_component_0","CP059908.1",30646,151167,"chromosome",0.175,"plasmidSPAdes","E. coli"
"GCA_013725775.1_ASM1372577v1","GCA_013725775.1_ASM1372577v1_component_0","CP056242.1",5283,115141,"chromosome",0.046,"plasmidSPAdes","E. coli"
"GCA_014169195.1_ASM1416919v1","GCA_014169195.1_ASM1416919v1_component_0","AP022105.1",49025,155296,"chromosome",0.076,"plasmidSPAdes","E. coli"
"GCA_013813585.1_ASM1381358v1","GCA_013813585.1_ASM1381358v1_component_0","CP057109.1",12771,116447,"chromosome",0.07,"plasmidSPAdes","E. coli"
"GCA_013815445.1_ASM1381544v1","GCA_013815445.1_ASM1381544v1_component_0","CP057137.1",14484,102452,"chromosome",0.141,"plasmidSPAdes","E. coli"
"GCA_013815445.1_ASM1381544v1","GCA_013815445.1_ASM1381544v1_component_1","CP057137.1",18364,13609,"chromosome",0.558,"plasmidSPAdes","E. coli"
"GCA_013815445.1_ASM1381544v1","GCA_013815445.1_ASM1381544v1_component_2","CP057137.1",11056,12329,"chromosome",0.897,"plasmidSPAdes","E. coli"
"GCA_014169775.1_ASM1416977v1","GCA_014169775.1_ASM1416977v1_component_0","AP022261.1",30117,115626,"chromosome",0.129,"plasmidSPAdes","E. coli"
"GCA_014169775.1_ASM1416977v1","GCA_014169775.1_ASM1416977v1_component_2","AP022261.1",10798,11697,"chromosome",0.923,"plasmidSPAdes","E. coli"
"GCA_013726815.1_ASM1372681v1","GCA_013726815.1_ASM1372681v1_component_0","CP056248.1",39936,40048,"chromosome",0.997,"plasmidSPAdes","E. coli"
"GCA_014168595.1_ASM1416859v1","GCA_014168595.1_ASM1416859v1_component_1","AP021914.1",17798,14362,"chromosome",0.65,"plasmidSPAdes","E. coli"
"GCA_014168595.1_ASM1416859v1","GCA_014168595.1_ASM1416859v1_component_0","AP021914.1",2124,219591,"chromosome",0.01,"plasmidSPAdes","E. coli"
"GCA_013790405.1_ASM1379040v1","GCA_013790405.1_ASM1379040v1_component_1","CP056820.1",36067,36194,"chromosome",0.993,"plasmidSPAdes","E. coli"
"GCA_013790405.1_ASM1379040v1","GCA_013790405.1_ASM1379040v1_component_0","CP056818.1",81481,243429,"chromosome",0.309,"plasmidSPAdes","E. coli"
"GCA_013790405.1_ASM1379040v1","GCA_013790405.1_ASM1379040v1_component_0","CP056817.1",81102,243429,"chromosome",0.326,"plasmidSPAdes","E. coli"
"GCA_013790405.1_ASM1379040v1","GCA_013790405.1_ASM1379040v1_component_0","CP056819.1",74640,243429,"chromosome",0.288,"plasmidSPAdes","E. coli"
"GCA_014168835.1_ASM1416883v1","GCA_014168835.1_ASM1416883v1_component_1","AP021998.1",15600,15600,"chromosome",1,"plasmidSPAdes","E. coli"
"GCA_014168835.1_ASM1416883v1","GCA_014168835.1_ASM1416883v1_component_2","AP021998.1",20025,12020,"chromosome",0.527,"plasmidSPAdes","E. coli"
"GCA_014168835.1_ASM1416883v1","GCA_014168835.1_ASM1416883v1_component_0","AP021998.1",95465,101023,"chromosome",0.944,"plasmidSPAdes","E. coli"
"GCA_013829445.1_ASM1382944v1","GCA_013829445.1_ASM1382944v1_component_0","CP057368.1",4182,69286,"chromosome",0.06,"plasmidSPAdes","E. coli"
"GCA_014109005.1_ASM1410900v1","GCA_014109005.1_ASM1410900v1_component_0","CP058046.1",8924,109742,"chromosome",0.009,"plasmidSPAdes","E. coli"
"GCA_014169695.1_ASM1416969v1","GCA_014169695.1_ASM1416969v1_component_0","AP022245.1",8242,176330,"chromosome",0.047,"plasmidSPAdes","E. coli"
"GCA_014169435.1_ASM1416943v1","GCA_014169435.1_ASM1416943v1_component_0","AP022171.1",5939,50533,"chromosome",0.095,"plasmidSPAdes","E. coli"
"GCA_014169435.1_ASM1416943v1","GCA_014169435.1_ASM1416943v1_component_2","AP022171.1",10427,11039,"chromosome",0.945,"plasmidSPAdes","E. coli"
"GCA_013886475.1_ASM1388647v1","GCA_013886475.1_ASM1388647v1_component_2","CP057573.1",4671,4798,"chromosome",0.947,"plasmidSPAdes","E. coli"
"GCA_013886475.1_ASM1388647v1","GCA_013886475.1_ASM1388647v1_component_1","CP057570.1",10065,15379,"chromosome",0.645,"plasmidSPAdes","E. coli"
"GCA_013886475.1_ASM1388647v1","GCA_013886475.1_ASM1388647v1_component_0","CP057571.1",121429,119135,"chromosome",0.956,"plasmidSPAdes","E. coli"
"GCA_013900025.1_ASM1390002v1","GCA_013900025.1_ASM1390002v1_component_1","CP057951.1",12245,13533,"chromosome",0.905,"plasmidSPAdes","E. coli"
"GCA_013889395.1_ASM1388939v1","GCA_013889395.1_ASM1388939v1_component_0","CP057612.1",3965,93901,"chromosome",0.042,"plasmidSPAdes","E. coli"
"GCA_014170595.1_ASM1417059v1","GCA_014170595.1_ASM1417059v1_component_0","CP059906.1",87627,222659,"chromosome",0.368,"plasmidSPAdes","E. coli"
"GCA_014170595.1_ASM1417059v1","GCA_014170595.1_ASM1417059v1_component_0","CP059905.1",73153,222659,"chromosome",0.329,"plasmidSPAdes","E. coli"
"GCA_014170595.1_ASM1417059v1","GCA_014170595.1_ASM1417059v1_component_0","CP059904.1",129488,222659,"chromosome",0.032,"plasmidSPAdes","E. coli"
"GCA_014170595.1_ASM1417059v1","GCA_014170595.1_ASM1417059v1_component_1","CP059905.1",13827,13910,"chromosome",0.994,"plasmidSPAdes","E. coli"
"GCA_014170595.1_ASM1417059v1","GCA_014170595.1_ASM1417059v1_component_2","CP059906.1",10148,10149,"chromosome",1,"plasmidSPAdes","E. coli"
"GCA_013822575.1_ASM1382257v1","GCA_013822575.1_ASM1382257v1_component_0","CP057276.1",11133,170265,"chromosome",0.029,"plasmidSPAdes","E. coli"
"GCA_013898135.1_ASM1389813v1","GCA_013898135.1_ASM1389813v1_component_2","CP057778.1",10759,15913,"chromosome",0.676,"plasmidSPAdes","E. coli"
"GCA_013898135.1_ASM1389813v1","GCA_013898135.1_ASM1389813v1_component_4","CP057778.1",1539,1678,"chromosome",0.917,"plasmidSPAdes","E. coli"
"GCA_014131615.1_ASM1413161v1","GCA_014131615.1_ASM1413161v1_component_1","CP048867.1",10306,10306,"chromosome",1,"plasmidSPAdes","E. coli"
"GCA_014131615.1_ASM1413161v1","GCA_014131615.1_ASM1413161v1_component_0","CP048867.1",133643,260872,"chromosome",0.494,"plasmidSPAdes","E. coli"
"GCA_013790245.1_ASM1379024v1","GCA_013790245.1_ASM1379024v1_component_1","CP056800.1",50295,36615,"chromosome",0.643,"plasmidSPAdes","E. coli"
"GCA_013732175.1_ASM1373217v1","GCA_013732175.1_ASM1373217v1_component_1","CP056315.1",33513,21990,"chromosome",0.04,"plasmidSPAdes","E. coli"
"GCA_013732175.1_ASM1373217v1","GCA_013732175.1_ASM1373217v1_component_0","CP056315.1",2501,142876,"chromosome",0.018,"plasmidSPAdes","E. coli"
"GCA_013824345.1_ASM1382434v1","GCA_013824345.1_ASM1382434v1_component_0","CP057195.1",112127,213864,"chromosome",0.51,"plasmidSPAdes","E. coli"
"GCA_013824345.1_ASM1382434v1","GCA_013824345.1_ASM1382434v1_component_0","CP057196.1",76085,213864,"chromosome",0.356,"plasmidSPAdes","E. coli"
"GCA_013824345.1_ASM1382434v1","GCA_013824345.1_ASM1382434v1_component_0","CP057194.1",47511,213864,"chromosome",0.016,"plasmidSPAdes","E. coli"
"GCA_013805505.1_ASM1380550v1","GCA_013805505.1_ASM1380550v1_component_2","CP057031.1",20702,16365,"chromosome",0.472,"plasmidSPAdes","E. coli"
"GCA_013805505.1_ASM1380550v1","GCA_013805505.1_ASM1380550v1_component_0","CP057031.1",237952,241259,"chromosome",0.986,"plasmidSPAdes","E. coli"
"GCA_013805505.1_ASM1380550v1","GCA_013805505.1_ASM1380550v1_component_3","CP057031.1",26325,14688,"chromosome",0.796,"plasmidSPAdes","E. coli"
"GCA_014170695.1_ASM1417069v1","GCA_014170695.1_ASM1417069v1_component_1","CP059922.1",18659,47308,"chromosome",0.394,"plasmidSPAdes","E. coli"
"GCA_014170695.1_ASM1417069v1","GCA_014170695.1_ASM1417069v1_component_0","CP059922.1",19747,86684,"chromosome",0.133,"plasmidSPAdes","E. coli"
"GCA_014170695.1_ASM1417069v1","GCA_014170695.1_ASM1417069v1_component_5","CP059922.1",20704,18509,"chromosome",0.132,"plasmidSPAdes","E. coli"
"GCA_013790285.1_ASM1379028v1","GCA_013790285.1_ASM1379028v1_component_3","CP056810.1",2013,2013,"chromosome",1,"plasmidSPAdes","E. coli"
"GCA_013829905.1_ASM1382990v1","GCA_013829905.1_ASM1382990v1_component_0","CP057379.1",42698,43900,"chromosome",0.919,"plasmidSPAdes","E. coli"
"GCA_013829905.1_ASM1382990v1","GCA_013829905.1_ASM1382990v1_component_0","CP057378.1",3565,43900,"chromosome",0.034,"plasmidSPAdes","E. coli"
"GCA_013812575.1_ASM1381257v1","GCA_013812575.1_ASM1381257v1_component_2","CP057087.1",50195,31293,"chromosome",0.179,"plasmidSPAdes","E. coli"
"GCA_013812575.1_ASM1381257v1","GCA_013812575.1_ASM1381257v1_component_3","CP057087.1",13321,14822,"chromosome",0.899,"plasmidSPAdes","E. coli"
"GCA_014169095.1_ASM1416909v1","GCA_014169095.1_ASM1416909v1_component_0","AP022064.1",39313,55492,"chromosome",0.708,"plasmidSPAdes","E. coli"
"GCA_014131515.1_ASM1413151v1","GCA_014131515.1_ASM1413151v1_component_1","CP048855.1",24249,25671,"chromosome",0.945,"plasmidSPAdes","E. coli"
"GCA_014131515.1_ASM1413151v1","GCA_014131515.1_ASM1413151v1_component_2","CP048855.1",9771,11272,"chromosome",0.867,"plasmidSPAdes","E. coli"
"GCA_014131515.1_ASM1413151v1","GCA_014131515.1_ASM1413151v1_component_0","CP048855.1",538,69073,"chromosome",0.008,"plasmidSPAdes","E. coli"
"GCA_013899825.1_ASM1389982v1","GCA_013899825.1_ASM1389982v1_component_0","CP057916.1",9969,111207,"chromosome",0.09,"plasmidSPAdes","E. coli"
"GCA_013899825.1_ASM1389982v1","GCA_013899825.1_ASM1389982v1_component_1","CP057916.1",51243,31781,"chromosome",0.145,"plasmidSPAdes","E. coli"
"GCA_013827445.1_ASM1382744v1","GCA_013827445.1_ASM1382744v1_component_1","CP057342.1",26444,22275,"chromosome",0.623,"plasmidSPAdes","E. coli"
"GCA_013812225.1_ASM1381222v1","GCA_013812225.1_ASM1381222v1_component_0","CP057075.1",250732,350407,"chromosome",0.229,"plasmidSPAdes","E. coli"
"GCA_013748665.1_ASM1374866v1","GCA_013748665.1_ASM1374866v1_component_0","CP056492.1",11397,156042,"chromosome",0.023,"plasmidSPAdes","E. coli"
"GCA_013748665.1_ASM1374866v1","GCA_013748665.1_ASM1374866v1_component_1","CP056492.1",14376,11459,"chromosome",0.511,"plasmidSPAdes","E. coli"
"GCA_013802065.1_ASM1380206v1","GCA_013802065.1_ASM1380206v1_component_2","CP056974.1",9272,9272,"chromosome",1,"plasmidSPAdes","E. coli"
"GCA_013802065.1_ASM1380206v1","GCA_013802065.1_ASM1380206v1_component_6","CP056982.1",2601,2728,"chromosome",0.907,"plasmidSPAdes","E. coli"
"GCA_013802065.1_ASM1380206v1","GCA_013802065.1_ASM1380206v1_component_3","CP056979.1",4038,4199,"chromosome",0.962,"plasmidSPAdes","E. coli"
"GCA_013802065.1_ASM1380206v1","GCA_013802065.1_ASM1380206v1_component_1","CP056974.1",16089,32936,"chromosome",0.488,"plasmidSPAdes","E. coli"
"GCA_013802065.1_ASM1380206v1","GCA_013802065.1_ASM1380206v1_component_1","CP056975.1",10559,32936,"chromosome",0.321,"plasmidSPAdes","E. coli"
"GCA_013802065.1_ASM1380206v1","GCA_013802065.1_ASM1380206v1_component_4","CP056980.1",4018,4145,"chromosome",0.939,"plasmidSPAdes","E. coli"
"GCA_013802065.1_ASM1380206v1","GCA_013802065.1_ASM1380206v1_component_5","CP056981.1",3751,3878,"chromosome",0.935,"plasmidSPAdes","E. coli"
"GCA_013802065.1_ASM1380206v1","GCA_013802065.1_ASM1380206v1_component_0","CP056976.1",58978,211709,"chromosome",0.265,"plasmidSPAdes","E. coli"
"GCA_013802065.1_ASM1380206v1","GCA_013802065.1_ASM1380206v1_component_0","CP056978.1",51191,211709,"chromosome",0.234,"plasmidSPAdes","E. coli"
"GCA_013802065.1_ASM1380206v1","GCA_013802065.1_ASM1380206v1_component_0","CP056977.1",77343,211709,"chromosome",0.327,"plasmidSPAdes","E. coli"
"GCA_013802065.1_ASM1380206v1","GCA_013802065.1_ASM1380206v1_component_0","CP056975.1",15470,211709,"chromosome",0.044,"plasmidSPAdes","E. coli"
"GCA_014108885.1_ASM1410888v1","GCA_014108885.1_ASM1410888v1_component_1","CP057994.1",11621,15042,"chromosome",0.773,"plasmidSPAdes","E. coli"
"GCA_014108885.1_ASM1410888v1","GCA_014108885.1_ASM1410888v1_component_0","CP057994.1",29259,25878,"chromosome",0.453,"plasmidSPAdes","E. coli"
"GCA_014171015.1_ASM1417101v1","GCA_014171015.1_ASM1417101v1_component_0","AP022087.1",54671,217267,"chromosome",0.172,"plasmidSPAdes","E. coli"
"GCA_014171015.1_ASM1417101v1","GCA_014171015.1_ASM1417101v1_component_2","AP022087.1",10248,11389,"chromosome",0.9,"plasmidSPAdes","E. coli"
"GCA_013801205.1_ASM1380120v1","GCA_013801205.1_ASM1380120v1_component_0","CP056955.1",7983,32349,"chromosome",0.247,"plasmidSPAdes","E. coli"
"GCA_014131535.1_ASM1413153v1","GCA_014131535.1_ASM1413153v1_component_1","CP048857.1",7938,12423,"chromosome",0.639,"plasmidSPAdes","E. coli"
"GCA_014131535.1_ASM1413153v1","GCA_014131535.1_ASM1413153v1_component_0","CP048857.1",17972,18434,"chromosome",0.391,"plasmidSPAdes","E. coli"
"GCA_014131535.1_ASM1413153v1","GCA_014131535.1_ASM1413153v1_component_2","CP048857.1",10466,10908,"chromosome",0.959,"plasmidSPAdes","E. coli"
"GCA_013727815.1_ASM1372781v1","GCA_013727815.1_ASM1372781v1_component_0","CP056263.1",35241,154170,"chromosome",0.188,"plasmidSPAdes","E. coli"
"GCA_013899745.1_ASM1389974v1","GCA_013899745.1_ASM1389974v1_component_1","CP057905.1",10048,12233,"chromosome",0.562,"plasmidSPAdes","E. coli"
"GCA_013899745.1_ASM1389974v1","GCA_013899745.1_ASM1389974v1_component_0","CP057905.1",30552,32015,"chromosome",0.564,"plasmidSPAdes","E. coli"
"GCA_013837755.1_ASM1383775v1","GCA_013837755.1_ASM1383775v1_component_0","CP057493.1",44157,54561,"chromosome",0.199,"plasmidSPAdes","E. coli"
"GCA_013827685.1_ASM1382768v1","GCA_013827685.1_ASM1382768v1_component_1","CP057340.1",20219,22268,"chromosome",0.902,"plasmidSPAdes","E. coli"
"GCA_014169575.1_ASM1416957v1","GCA_014169575.1_ASM1416957v1_component_1","AP022207.1",10345,11599,"chromosome",0.892,"plasmidSPAdes","E. coli"
"GCA_014169575.1_ASM1416957v1","GCA_014169575.1_ASM1416957v1_component_0","AP022207.1",65738,170557,"chromosome",0.352,"plasmidSPAdes","E. coli"
"GCA_014109625.1_ASM1410962v1","GCA_014109625.1_ASM1410962v1_component_0","CP058092.1",74290,174337,"chromosome",0.404,"plasmidSPAdes","E. coli"
"GCA_014109625.1_ASM1410962v1","GCA_014109625.1_ASM1410962v1_component_0","CP058091.1",89762,174337,"chromosome",0.493,"plasmidSPAdes","E. coli"
"GCA_014109625.1_ASM1410962v1","GCA_014109625.1_ASM1410962v1_component_0","CP058090.1",7351,174337,"chromosome",0.042,"plasmidSPAdes","E. coli"
"GCA_013823865.1_ASM1382386v1","GCA_013823865.1_ASM1382386v1_component_0","CP057188.1",22041,20839,"chromosome",0.691,"plasmidSPAdes","E. coli"
"GCA_004804205.1_ASM480420v1","GCA_004804205.1_ASM480420v1_component_0","CP039403.1",104240,109555,"chromosome",0.929,"plasmidSPAdes","E. coli"
"GCA_004804205.1_ASM480420v1","GCA_004804205.1_ASM480420v1_component_1","CP039403.1",20952,21177,"chromosome",0.989,"plasmidSPAdes","E. coli"
"GCA_004804205.1_ASM480420v1","GCA_004804205.1_ASM480420v1_component_2","CP039403.1",14338,14338,"chromosome",1,"plasmidSPAdes","E. coli"
"GCA_013601135.1_ASM1360113v1","GCA_013601135.1_ASM1360113v1_component_2","CP055713.1",33870,18726,"chromosome",0.293,"plasmidSPAdes","E. coli"
"GCA_013749975.1_ASM1374997v1","GCA_013749975.1_ASM1374997v1_component_0","CP056556.1",20051,192662,"chromosome",0.055,"plasmidSPAdes","E. coli"
"GCA_013828415.1_ASM1382841v1","GCA_013828415.1_ASM1382841v1_component_0","CP057349.1",21401,22241,"chromosome",0.962,"plasmidSPAdes","E. coli"
"GCA_013791815.1_ASM1379181v1","GCA_013791815.1_ASM1379181v1_component_0","CP056846.1",1887,143812,"chromosome",0.013,"plasmidSPAdes","E. coli"
"GCA_013791815.1_ASM1379181v1","GCA_013791815.1_ASM1379181v1_component_1","CP056846.1",9057,10266,"chromosome",0.882,"plasmidSPAdes","E. coli"
"GCA_013783685.1_ASM1378368v1","GCA_013783685.1_ASM1378368v1_component_0","CP056355.1",1650,141861,"chromosome",0.012,"plasmidSPAdes","E. coli"
"GCA_014170675.1_ASM1417067v1","GCA_014170675.1_ASM1417067v1_component_1","CP059917.1",15792,16362,"chromosome",0.965,"plasmidSPAdes","E. coli"
"GCA_014170675.1_ASM1417067v1","GCA_014170675.1_ASM1417067v1_component_0","CP059917.1",113486,144578,"chromosome",0.539,"plasmidSPAdes","E. coli"
"GCA_013602835.1_ASM1360283v1","GCA_013602835.1_ASM1360283v1_component_0","CP055724.1",24967,151758,"chromosome",0.074,"plasmidSPAdes","E. coli"
"GCA_013602835.1_ASM1360283v1","GCA_013602835.1_ASM1360283v1_component_1","CP055724.1",12209,13648,"chromosome",0.576,"plasmidSPAdes","E. coli"
"GCA_013835785.1_ASM1383578v1","GCA_013835785.1_ASM1383578v1_component_0","CP057475.1",608,68861,"chromosome",0.009,"plasmidSPAdes","E. coli"
"GCA_013731515.1_ASM1373151v1","GCA_013731515.1_ASM1373151v1_component_0","CP056304.1",8743,15266,"chromosome",0.573,"plasmidSPAdes","E. coli"
"GCA_014168755.1_ASM1416875v1","GCA_014168755.1_ASM1416875v1_component_1","AP021946.1",25959,27054,"chromosome",0.628,"plasmidSPAdes","E. coli"
"GCA_014168755.1_ASM1416875v1","GCA_014168755.1_ASM1416875v1_component_0","AP021946.1",170344,275829,"chromosome",0.553,"plasmidSPAdes","E. coli"
"GCA_013825245.1_ASM1382524v1","GCA_013825245.1_ASM1382524v1_component_0","CP057293.1",147838,393357,"chromosome",0.191,"plasmidSPAdes","E. coli"
"GCA_013797825.1_ASM1379782v1","GCA_013797825.1_ASM1379782v1_component_1","CP056902.1",13971,18439,"chromosome",0.758,"plasmidSPAdes","E. coli"
"GCA_013797825.1_ASM1379782v1","GCA_013797825.1_ASM1379782v1_component_0","CP056902.1",9374,28264,"chromosome",0.202,"plasmidSPAdes","E. coli"
"GCA_014131595.1_ASM1413159v1","GCA_014131595.1_ASM1413159v1_component_0","CP048865.1",22024,22972,"chromosome",0.959,"plasmidSPAdes","E. coli"
"GCA_014131595.1_ASM1413159v1","GCA_014131595.1_ASM1413159v1_component_3","CP048865.1",9901,10407,"chromosome",0.951,"plasmidSPAdes","E. coli"
"GCA_014131595.1_ASM1413159v1","GCA_014131595.1_ASM1413159v1_component_2","CP048865.1",10403,10937,"chromosome",0.951,"plasmidSPAdes","E. coli"
"GCA_014131595.1_ASM1413159v1","GCA_014131595.1_ASM1413159v1_component_1","CP048865.1",10890,11684,"chromosome",0.932,"plasmidSPAdes","E. coli"
"GCA_013890795.1_ASM1389079v1","GCA_013890795.1_ASM1389079v1_component_2","CP057634.1",12550,13011,"chromosome",0.965,"plasmidSPAdes","E. coli"
"GCA_013890795.1_ASM1389079v1","GCA_013890795.1_ASM1389079v1_component_1","CP057634.1",15458,15571,"chromosome",0.993,"plasmidSPAdes","E. coli"
"GCA_013890795.1_ASM1389079v1","GCA_013890795.1_ASM1389079v1_component_0","CP057634.1",1333,46136,"chromosome",0.029,"plasmidSPAdes","E. coli"
"GCA_008124405.1_ASM812440v1","GCA_008124405.1_ASM812440v1_component_0","CP043213.1",49627,45781,"chromosome",0.86,"plasmidSPAdes","E. coli"
"GCA_013806725.1_ASM1380672v1","GCA_013806725.1_ASM1380672v1_component_0","CP057055.1",21950,106048,"chromosome",0.02,"plasmidSPAdes","E. coli"
"GCA_013802585.1_ASM1380258v1","GCA_013802585.1_ASM1380258v1_component_0","CP056997.1",24609,123370,"chromosome",0.125,"plasmidSPAdes","E. coli"
"GCA_014169855.1_ASM1416985v1","GCA_014169855.1_ASM1416985v1_component_2","AP022287.1",2869,23691,"chromosome",0.121,"plasmidSPAdes","E. coli"
"GCA_014169855.1_ASM1416985v1","GCA_014169855.1_ASM1416985v1_component_0","AP022287.1",34662,109089,"chromosome",0.304,"plasmidSPAdes","E. coli"
"GCA_014169855.1_ASM1416985v1","GCA_014169855.1_ASM1416985v1_component_3","AP022287.1",23517,23432,"chromosome",0.757,"plasmidSPAdes","E. coli"
"GCA_013746875.1_ASM1374687v1","GCA_013746875.1_ASM1374687v1_component_0","CP056396.1",14076,38246,"chromosome",0.368,"plasmidSPAdes","E. coli"
"GCA_013746875.1_ASM1374687v1","GCA_013746875.1_ASM1374687v1_component_2","CP056396.1",1403,1403,"chromosome",1,"plasmidSPAdes","E. coli"
"GCA_013795545.1_ASM1379554v1","GCA_013795545.1_ASM1379554v1_component_1","CP056870.1",14376,11459,"chromosome",0.511,"plasmidSPAdes","E. coli"
"GCA_013795545.1_ASM1379554v1","GCA_013795545.1_ASM1379554v1_component_0","CP056870.1",10498,165989,"chromosome",0.049,"plasmidSPAdes","E. coli"
"GCA_013823335.1_ASM1382333v1","GCA_013823335.1_ASM1382333v1_component_0","CP057178.1",88655,148272,"chromosome",0.138,"plasmidSPAdes","E. coli"
"GCA_013790145.1_ASM1379014v1","GCA_013790145.1_ASM1379014v1_component_0","CP056794.1",28325,183935,"chromosome",0.079,"plasmidSPAdes","E. coli"
"GCA_014169915.1_ASM1416991v1","GCA_014169915.1_ASM1416991v1_component_1","AP022298.1",8929,13137,"chromosome",0.68,"plasmidSPAdes","E. coli"
"GCA_014169915.1_ASM1416991v1","GCA_014169915.1_ASM1416991v1_component_0","AP022298.1",18238,20887,"chromosome",0.861,"plasmidSPAdes","E. coli"
"GCA_014169915.1_ASM1416991v1","GCA_014169915.1_ASM1416991v1_component_5","AP022298.1",1980,1980,"chromosome",1,"plasmidSPAdes","E. coli"
"GCA_014169915.1_ASM1416991v1","GCA_014169915.1_ASM1416991v1_component_2","AP022298.1",19557,12655,"chromosome",0.134,"plasmidSPAdes","E. coli"
"GCA_014058445.1_ASM1405844v1","GCA_014058445.1_ASM1405844v1_component_0","CP058682.1",309308,389652,"chromosome",0.313,"plasmidSPAdes","E. coli"
"GCA_013899725.1_ASM1389972v1","GCA_013899725.1_ASM1389972v1_component_2","CP057901.1",4757,14257,"chromosome",0.334,"plasmidSPAdes","E. coli"
"GCA_013796065.1_ASM1379606v1","GCA_013796065.1_ASM1379606v1_component_0","CP056876.1",31950,38736,"chromosome",0.825,"plasmidSPAdes","E. coli"
"GCA_014169595.1_ASM1416959v1","GCA_014169595.1_ASM1416959v1_component_0","AP022215.1",721072,715168,"chromosome",0.991,"plasmidSPAdes","E. coli"
"GCA_014169595.1_ASM1416959v1","GCA_014169595.1_ASM1416959v1_component_1","AP022216.1",97682,97809,"chromosome",0.997,"plasmidSPAdes","E. coli"
"GCA_014169595.1_ASM1416959v1","GCA_014169595.1_ASM1416959v1_component_3","AP022218.1",52650,52652,"chromosome",1,"plasmidSPAdes","E. coli"
"GCA_014169595.1_ASM1416959v1","GCA_014169595.1_ASM1416959v1_component_2","AP022217.1",91705,92470,"chromosome",0.992,"plasmidSPAdes","E. coli"
"GCA_013828065.1_ASM1382806v1","GCA_013828065.1_ASM1382806v1_component_1","CP057347.1",26335,22271,"chromosome",0.612,"plasmidSPAdes","E. coli"
"GCA_014168975.1_ASM1416897v1","GCA_014168975.1_ASM1416897v1_component_1","AP022036.1",17053,14459,"chromosome",0.595,"plasmidSPAdes","E. coli"
"GCA_014169155.1_ASM1416915v1","GCA_014169155.1_ASM1416915v1_component_0","AP022095.1",34705,241626,"chromosome",0.084,"plasmidSPAdes","E. coli"
"GCA_014169615.1_ASM1416961v1","GCA_014169615.1_ASM1416961v1_component_2","AP022222.1",55522,44921,"chromosome",0.881,"plasmidSPAdes","E. coli"
"GCA_014169615.1_ASM1416961v1","GCA_014169615.1_ASM1416961v1_component_5","AP022222.1",18373,18954,"chromosome",0.969,"plasmidSPAdes","E. coli"
"GCA_014169615.1_ASM1416961v1","GCA_014169615.1_ASM1416961v1_component_0","AP022222.1",116365,226523,"chromosome",0.514,"plasmidSPAdes","E. coli"
"GCA_014169615.1_ASM1416961v1","GCA_014169615.1_ASM1416961v1_component_3","AP022222.1",40428,40713,"chromosome",0.728,"plasmidSPAdes","E. coli"
"GCA_014169615.1_ASM1416961v1","GCA_014169615.1_ASM1416961v1_component_1","AP022222.1",72167,72194,"chromosome",1,"plasmidSPAdes","E. coli"
"GCA_014169415.1_ASM1416941v1","GCA_014169415.1_ASM1416941v1_component_2","AP022164.1",47454,47581,"chromosome",0.995,"plasmidSPAdes","E. coli"
"GCA_014169415.1_ASM1416941v1","GCA_014169415.1_ASM1416941v1_component_5","AP022166.1",5041,5404,"chromosome",0.933,"plasmidSPAdes","E. coli"
"GCA_014169415.1_ASM1416941v1","GCA_014169415.1_ASM1416941v1_component_0","AP022162.1",140407,150564,"chromosome",0.92,"plasmidSPAdes","E. coli"
"GCA_014169415.1_ASM1416941v1","GCA_014169415.1_ASM1416941v1_component_0","AP022161.1",10740,150564,"chromosome",0.022,"plasmidSPAdes","E. coli"
"GCA_014169415.1_ASM1416941v1","GCA_014169415.1_ASM1416941v1_component_3","AP022161.1",10665,12059,"chromosome",0.884,"plasmidSPAdes","E. coli"
"GCA_014169415.1_ASM1416941v1","GCA_014169415.1_ASM1416941v1_component_4","AP022165.1",6647,6774,"chromosome",0.963,"plasmidSPAdes","E. coli"
"GCA_014169415.1_ASM1416941v1","GCA_014169415.1_ASM1416941v1_component_1","AP022163.1",97060,97624,"chromosome",0.994,"plasmidSPAdes","E. coli"
"GCA_014169415.1_ASM1416941v1","GCA_014169415.1_ASM1416941v1_component_6","AP022167.1",5167,5294,"chromosome",0.952,"plasmidSPAdes","E. coli"
"GCA_013741635.1_ASM1374163v1","GCA_013741635.1_ASM1374163v1_component_0","CP056598.1",10002,14865,"chromosome",0.673,"plasmidSPAdes","E. coli"
"GCA_013888615.1_ASM1388861v1","GCA_013888615.1_ASM1388861v1_component_0","CP057605.1",3965,93999,"chromosome",0.042,"plasmidSPAdes","E. coli"
"GCA_013899705.1_ASM1389970v1","GCA_013899705.1_ASM1389970v1_component_0","CP057900.1",24583,23522,"chromosome",0.515,"plasmidSPAdes","E. coli"
"GCA_013728735.1_ASM1372873v1","GCA_013728735.1_ASM1372873v1_component_0","CP056273.1",33444,37285,"chromosome",0.608,"plasmidSPAdes","E. coli"
"GCA_013728735.1_ASM1372873v1","GCA_013728735.1_ASM1372873v1_component_1","CP056273.1",10690,11902,"chromosome",0.898,"plasmidSPAdes","E. coli"
"GCA_013789905.1_ASM1378990v1","GCA_013789905.1_ASM1378990v1_bin_2","CP056786.1",1965,154595,"chromosome",0.013,"gplas2.0_plasmidEC","E. coli"
"GCA_013886475.1_ASM1388647v1","GCA_013886475.1_ASM1388647v1_bin_Unbinned","CP057572.1",87552,174764,"chromosome",0.501,"gplas2.0_plasmidEC","E. coli"
"GCA_013886475.1_ASM1388647v1","GCA_013886475.1_ASM1388647v1_bin_Unbinned","CP057571.1",86614,174764,"chromosome",0.496,"gplas2.0_plasmidEC","E. coli"
"GCA_013886475.1_ASM1388647v1","GCA_013886475.1_ASM1388647v1_bin_1","CP057573.1",4430,4671,"chromosome",0.948,"gplas2.0_plasmidEC","E. coli"
"GCA_014169155.1_ASM1416915v1","GCA_014169155.1_ASM1416915v1_bin_1","AP022095.1",9352,9352,"chromosome",1,"gplas2.0_plasmidEC","E. coli"
"GCA_014170595.1_ASM1417059v1","GCA_014170595.1_ASM1417059v1_bin_2","CP059905.1",45075,70549,"chromosome",0.639,"gplas2.0_plasmidEC","E. coli"
"GCA_014170595.1_ASM1417059v1","GCA_014170595.1_ASM1417059v1_bin_2","CP059906.1",25459,70549,"chromosome",0.361,"gplas2.0_plasmidEC","E. coli"
"GCA_014170595.1_ASM1417059v1","GCA_014170595.1_ASM1417059v1_bin_1","CP059906.1",70336,116660,"chromosome",0.603,"gplas2.0_plasmidEC","E. coli"
"GCA_014170595.1_ASM1417059v1","GCA_014170595.1_ASM1417059v1_bin_1","CP059905.1",46212,116660,"chromosome",0.396,"gplas2.0_plasmidEC","E. coli"
"GCA_014170595.1_ASM1417059v1","GCA_014170595.1_ASM1417059v1_bin_Unbinned","CP059905.1",40403,40405,"chromosome",1,"gplas2.0_plasmidEC","E. coli"
"GCA_014169695.1_ASM1416969v1","GCA_014169695.1_ASM1416969v1_bin_1","AP022245.1",6672,156760,"chromosome",0.043,"gplas2.0_plasmidEC","E. coli"
"GCA_013749295.1_ASM1374929v1","GCA_013749295.1_ASM1374929v1_bin_2","CP056524.1",2600,2600,"chromosome",1,"gplas2.0_plasmidEC","E. coli"
"GCA_013749295.1_ASM1374929v1","GCA_013749295.1_ASM1374929v1_bin_1","CP056524.1",2186,110054,"chromosome",0.02,"gplas2.0_plasmidEC","E. coli"
"GCA_013829905.1_ASM1382990v1","GCA_013829905.1_ASM1382990v1_bin_1","CP057379.1",32692,32692,"chromosome",1,"gplas2.0_plasmidEC","E. coli"
"GCA_014131555.1_ASM1413155v1","GCA_014131555.1_ASM1413155v1_bin_1","CP048860.1",1149,110612,"chromosome",0.01,"gplas2.0_plasmidEC","E. coli"
"GCA_013996855.1_ASM1399685v1","GCA_013996855.1_ASM1399685v1_bin_Unbinned","CP058031.1",6570,118752,"chromosome",0.055,"gplas2.0_plasmidEC","E. coli"
"GCA_014169595.1_ASM1416959v1","GCA_014169595.1_ASM1416959v1_bin_1","AP022219.1",1521,1521,"chromosome",1,"gplas2.0_plasmidEC","E. coli"
"GCA_014169595.1_ASM1416959v1","GCA_014169595.1_ASM1416959v1_bin_3","AP022216.1",90632,90733,"chromosome",0.999,"gplas2.0_plasmidEC","E. coli"
"GCA_014169595.1_ASM1416959v1","GCA_014169595.1_ASM1416959v1_bin_2","AP022217.1",91103,91103,"chromosome",1,"gplas2.0_plasmidEC","E. coli"
"GCA_014109625.1_ASM1410962v1","GCA_014109625.1_ASM1410962v1_bin_2","CP058091.1",84399,84399,"chromosome",1,"gplas2.0_plasmidEC","E. coli"
"GCA_014109625.1_ASM1410962v1","GCA_014109625.1_ASM1410962v1_bin_1","CP058092.1",69173,69173,"chromosome",1,"gplas2.0_plasmidEC","E. coli"
"GCA_014168755.1_ASM1416875v1","GCA_014168755.1_ASM1416875v1_bin_2","AP021946.1",2806,64906,"chromosome",0.043,"gplas2.0_plasmidEC","E. coli"
"GCA_014169415.1_ASM1416941v1","GCA_014169415.1_ASM1416941v1_bin_1","AP022163.1",92181,92181,"chromosome",1,"gplas2.0_plasmidEC","E. coli"
"GCA_014169415.1_ASM1416941v1","GCA_014169415.1_ASM1416941v1_bin_Unbinned","AP022165.1",3864,6358,"chromosome",0.608,"gplas2.0_plasmidEC","E. coli"
"GCA_014169415.1_ASM1416941v1","GCA_014169415.1_ASM1416941v1_bin_Unbinned","AP022166.1",2494,6358,"chromosome",0.392,"gplas2.0_plasmidEC","E. coli"
"GCA_014169415.1_ASM1416941v1","GCA_014169415.1_ASM1416941v1_bin_5","AP022170.1",2088,2088,"chromosome",1,"gplas2.0_plasmidEC","E. coli"
"GCA_014169415.1_ASM1416941v1","GCA_014169415.1_ASM1416941v1_bin_2","AP022162.1",128062,128080,"chromosome",1,"gplas2.0_plasmidEC","E. coli"
"GCA_014169415.1_ASM1416941v1","GCA_014169415.1_ASM1416941v1_bin_4","AP022167.1",5167,5167,"chromosome",1,"gplas2.0_plasmidEC","E. coli"
"GCA_014169415.1_ASM1416941v1","GCA_014169415.1_ASM1416941v1_bin_3","AP022164.1",47454,47454,"chromosome",1,"gplas2.0_plasmidEC","E. coli"
"GCA_013746875.1_ASM1374687v1","GCA_013746875.1_ASM1374687v1_bin_1","CP056396.1",73195,73195,"chromosome",1,"gplas2.0_plasmidEC","E. coli"
"GCA_013797825.1_ASM1379782v1","GCA_013797825.1_ASM1379782v1_bin_1","CP056902.1",4344,94216,"chromosome",0.046,"gplas2.0_plasmidEC","E. coli"
"GCA_013812015.1_ASM1381201v1","GCA_013812015.1_ASM1381201v1_bin_1","CP057072.1",41218,44851,"chromosome",0.919,"gplas2.0_plasmidEC","E. coli"
"GCA_014170615.1_ASM1417061v1","GCA_014170615.1_ASM1417061v1_bin_Unbinned","CP059909.1",53094,61222,"chromosome",0.867,"gplas2.0_plasmidEC","E. coli"
"GCA_014170615.1_ASM1417061v1","GCA_014170615.1_ASM1417061v1_bin_Unbinned","CP059910.1",8124,61222,"chromosome",0.133,"gplas2.0_plasmidEC","E. coli"
"GCA_014170615.1_ASM1417061v1","GCA_014170615.1_ASM1417061v1_bin_3","CP059909.1",43524,63805,"chromosome",0.682,"gplas2.0_plasmidEC","E. coli"
"GCA_014170615.1_ASM1417061v1","GCA_014170615.1_ASM1417061v1_bin_3","CP059908.1",20275,63805,"chromosome",0.318,"gplas2.0_plasmidEC","E. coli"
"GCA_014170615.1_ASM1417061v1","GCA_014170615.1_ASM1417061v1_bin_2","CP059910.1",83061,83061,"chromosome",1,"gplas2.0_plasmidEC","E. coli"
"GCA_014170615.1_ASM1417061v1","GCA_014170615.1_ASM1417061v1_bin_1","CP059908.1",143734,143739,"chromosome",1,"gplas2.0_plasmidEC","E. coli"
"GCA_013824345.1_ASM1382434v1","GCA_013824345.1_ASM1382434v1_bin_1","CP057195.1",105477,170165,"chromosome",0.62,"gplas2.0_plasmidEC","E. coli"
"GCA_013824345.1_ASM1382434v1","GCA_013824345.1_ASM1382434v1_bin_1","CP057196.1",64686,170165,"chromosome",0.38,"gplas2.0_plasmidEC","E. coli"
"GCA_013824345.1_ASM1382434v1","GCA_013824345.1_ASM1382434v1_bin_2","CP057199.1",3487,3487,"chromosome",1,"gplas2.0_plasmidEC","E. coli"
"GCA_013812225.1_ASM1381222v1","GCA_013812225.1_ASM1381222v1_bin_2","CP057075.1",8635,150702,"chromosome",0.057,"gplas2.0_plasmidEC","E. coli"
"GCA_014168855.1_ASM1416885v1","GCA_014168855.1_ASM1416885v1_bin_1","AP022003.1",27319,146905,"chromosome",0.186,"gplas2.0_plasmidEC","E. coli"
"GCA_014109105.1_ASM1410910v1","GCA_014109105.1_ASM1410910v1_bin_1","CP058076.1",12036,113710,"chromosome",0.106,"gplas2.0_plasmidEC","E. coli"
"GCA_013795795.1_ASM1379579v1","GCA_013795795.1_ASM1379579v1_bin_3","CP056873.1",7603,7603,"chromosome",1,"gplas2.0_plasmidEC","E. coli"
"GCA_013795795.1_ASM1379579v1","GCA_013795795.1_ASM1379579v1_bin_2","CP056874.1",50359,50359,"chromosome",1,"gplas2.0_plasmidEC","E. coli"
"GCA_013795795.1_ASM1379579v1","GCA_013795795.1_ASM1379579v1_bin_1","CP056875.1",50907,50907,"chromosome",1,"gplas2.0_plasmidEC","E. coli"
"GCA_013790145.1_ASM1379014v1","GCA_013790145.1_ASM1379014v1_bin_1","CP056794.1",60287,60287,"chromosome",1,"gplas2.0_plasmidEC","E. coli"
"GCA_013748665.1_ASM1374866v1","GCA_013748665.1_ASM1374866v1_bin_5","CP056492.1",7603,7603,"chromosome",1,"gplas2.0_plasmidEC","E. coli"
"GCA_014170975.1_ASM1417097v1","GCA_014170975.1_ASM1417097v1_bin_Unbinned","CP059950.1",6122,11223,"chromosome",0.545,"gplas2.0_plasmidEC","E. coli"
"GCA_014170975.1_ASM1417097v1","GCA_014170975.1_ASM1417097v1_bin_Unbinned","CP059951.1",5101,11223,"chromosome",0.455,"gplas2.0_plasmidEC","E. coli"
"GCA_014170975.1_ASM1417097v1","GCA_014170975.1_ASM1417097v1_bin_1","CP059948.1",133058,133078,"chromosome",1,"gplas2.0_plasmidEC","E. coli"
"GCA_014170975.1_ASM1417097v1","GCA_014170975.1_ASM1417097v1_bin_2","CP059952.1",1506,1506,"chromosome",1,"gplas2.0_plasmidEC","E. coli"
"GCA_013740395.1_ASM1374039v1","GCA_013740395.1_ASM1374039v1_bin_1","CP056446.1",5588,54399,"chromosome",0.103,"gplas2.0_plasmidEC","E. coli"
"GCA_014131615.1_ASM1413161v1","GCA_014131615.1_ASM1413161v1_bin_2","CP048867.1",10388,153521,"chromosome",0.068,"gplas2.0_plasmidEC","E. coli"
"GCA_013728735.1_ASM1372873v1","GCA_013728735.1_ASM1372873v1_bin_4","CP056273.1",6101,6101,"chromosome",1,"gplas2.0_plasmidEC","E. coli"
"GCA_013728735.1_ASM1372873v1","GCA_013728735.1_ASM1372873v1_bin_3","CP056273.1",2976,16240,"chromosome",0.183,"gplas2.0_plasmidEC","E. coli"
"GCA_014168935.1_ASM1416893v1","GCA_014168935.1_ASM1416893v1_bin_1","AP022030.1",17017,89760,"chromosome",0.19,"gplas2.0_plasmidEC","E. coli"
"GCA_013748455.1_ASM1374845v1","GCA_013748455.1_ASM1374845v1_bin_1","CP056472.1",53305,53305,"chromosome",1,"gplas2.0_plasmidEC","E. coli"
"GCA_013748455.1_ASM1374845v1","GCA_013748455.1_ASM1374845v1_bin_2","CP056471.1",69231,69231,"chromosome",1,"gplas2.0_plasmidEC","E. coli"
"GCA_013748455.1_ASM1374845v1","GCA_013748455.1_ASM1374845v1_bin_3","CP056470.1",7603,7603,"chromosome",1,"gplas2.0_plasmidEC","E. coli"
"GCA_014169855.1_ASM1416985v1","GCA_014169855.1_ASM1416985v1_bin_1","AP022287.1",16605,200196,"chromosome",0.083,"gplas2.0_plasmidEC","E. coli"
"GCA_013802065.1_ASM1380206v1","GCA_013802065.1_ASM1380206v1_bin_2","CP056975.1",24997,74711,"chromosome",0.335,"gplas2.0_plasmidEC","E. coli"
"GCA_013802065.1_ASM1380206v1","GCA_013802065.1_ASM1380206v1_bin_2","CP056977.1",10984,74711,"chromosome",0.147,"gplas2.0_plasmidEC","E. coli"
"GCA_013802065.1_ASM1380206v1","GCA_013802065.1_ASM1380206v1_bin_2","CP056976.1",38730,74711,"chromosome",0.518,"gplas2.0_plasmidEC","E. coli"
"GCA_013802065.1_ASM1380206v1","GCA_013802065.1_ASM1380206v1_bin_9","CP056981.1",3751,3751,"chromosome",1,"gplas2.0_plasmidEC","E. coli"
"GCA_013802065.1_ASM1380206v1","GCA_013802065.1_ASM1380206v1_bin_7","CP056979.1",4072,4072,"chromosome",1,"gplas2.0_plasmidEC","E. coli"
"GCA_013802065.1_ASM1380206v1","GCA_013802065.1_ASM1380206v1_bin_6","CP056978.1",47878,47878,"chromosome",1,"gplas2.0_plasmidEC","E. coli"
"GCA_013802065.1_ASM1380206v1","GCA_013802065.1_ASM1380206v1_bin_8","CP056980.1",4018,4018,"chromosome",1,"gplas2.0_plasmidEC","E. coli"
"GCA_013802065.1_ASM1380206v1","GCA_013802065.1_ASM1380206v1_bin_4","CP056974.1",23417,23417,"chromosome",1,"gplas2.0_plasmidEC","E. coli"
"GCA_013802065.1_ASM1380206v1","GCA_013802065.1_ASM1380206v1_bin_1","CP056975.1",18447,51151,"chromosome",0.361,"gplas2.0_plasmidEC","E. coli"
"GCA_013802065.1_ASM1380206v1","GCA_013802065.1_ASM1380206v1_bin_1","CP056977.1",32704,51151,"chromosome",0.639,"gplas2.0_plasmidEC","E. coli"
"GCA_013802065.1_ASM1380206v1","GCA_013802065.1_ASM1380206v1_bin_3","CP056977.1",4803,4803,"chromosome",1,"gplas2.0_plasmidEC","E. coli"
"GCA_013802065.1_ASM1380206v1","GCA_013802065.1_ASM1380206v1_bin_10","CP056982.1",2601,2601,"chromosome",1,"gplas2.0_plasmidEC","E. coli"
"GCA_013802065.1_ASM1380206v1","GCA_013802065.1_ASM1380206v1_bin_5","CP056983.1",1024,1100,"chromosome",0.931,"gplas2.0_plasmidEC","E. coli"
"GCA_013731515.1_ASM1373151v1","GCA_013731515.1_ASM1373151v1_bin_1","CP056304.1",4786,112646,"chromosome",0.042,"gplas2.0_plasmidEC","E. coli"
"GCA_014169395.1_ASM1416939v1","GCA_014169395.1_ASM1416939v1_bin_1","AP022159.1",23399,116860,"chromosome",0.2,"gplas2.0_plasmidEC","E. coli"
"GCA_013891215.1_ASM1389121v1","GCA_013891215.1_ASM1389121v1_bin_2","CP057638.1",29544,29544,"chromosome",1,"gplas2.0_plasmidEC","E. coli"
"GCA_013890795.1_ASM1389079v1","GCA_013890795.1_ASM1389079v1_bin_1","CP057634.1",27984,122122,"chromosome",0.229,"gplas2.0_plasmidEC","E. coli"
"GCA_013791985.1_ASM1379198v1","GCA_013791985.1_ASM1379198v1_bin_2","CP056845.1",46419,46419,"chromosome",1,"gplas2.0_plasmidEC","E. coli"
"GCA_013791985.1_ASM1379198v1","GCA_013791985.1_ASM1379198v1_bin_1","CP056844.1",51081,129648,"chromosome",0.394,"gplas2.0_plasmidEC","E. coli"
"GCA_013791985.1_ASM1379198v1","GCA_013791985.1_ASM1379198v1_bin_1","CP056843.1",78567,129648,"chromosome",0.606,"gplas2.0_plasmidEC","E. coli"
"GCA_013735655.1_ASM1373565v1","GCA_013735655.1_ASM1373565v1_bin_1","CP056412.1",67756,163554,"chromosome",0.414,"gplas2.0_plasmidEC","E. coli"
"GCA_013824985.1_ASM1382498v1","GCA_013824985.1_ASM1382498v1_bin_Unbinned","CP057287.1",11807,20131,"chromosome",0.587,"gplas2.0_plasmidEC","E. coli"
"GCA_013790405.1_ASM1379040v1","GCA_013790405.1_ASM1379040v1_bin_2","CP056819.1",67664,67664,"chromosome",1,"gplas2.0_plasmidEC","E. coli"
"GCA_013790405.1_ASM1379040v1","GCA_013790405.1_ASM1379040v1_bin_4","CP056820.1",36067,36067,"chromosome",1,"gplas2.0_plasmidEC","E. coli"
"GCA_013790405.1_ASM1379040v1","GCA_013790405.1_ASM1379040v1_bin_3","CP056817.1",35389,35389,"chromosome",1,"gplas2.0_plasmidEC","E. coli"
"GCA_013790405.1_ASM1379040v1","GCA_013790405.1_ASM1379040v1_bin_1","CP056818.1",67507,67507,"chromosome",1,"gplas2.0_plasmidEC","E. coli"
"GCA_014169915.1_ASM1416991v1","GCA_014169915.1_ASM1416991v1_bin_1","AP022298.1",13990,64080,"chromosome",0.218,"gplas2.0_plasmidEC","E. coli"
"GCA_013795065.1_ASM1379506v1","GCA_013795065.1_ASM1379506v1_bin_Unbinned","CP056866.1",42668,48445,"chromosome",0.881,"gplas2.0_plasmidEC","E. coli"
"GCA_013795065.1_ASM1379506v1","GCA_013795065.1_ASM1379506v1_bin_Unbinned","CP056865.1",5777,48445,"chromosome",0.119,"gplas2.0_plasmidEC","E. coli"
"GCA_013795065.1_ASM1379506v1","GCA_013795065.1_ASM1379506v1_bin_1","CP056865.1",36134,36134,"chromosome",1,"gplas2.0_plasmidEC","E. coli"
"GCA_013795545.1_ASM1379554v1","GCA_013795545.1_ASM1379554v1_bin_3","CP056870.1",7603,7603,"chromosome",1,"gplas2.0_plasmidEC","E. coli"
"GCA_013742135.1_ASM1374213v1","GCA_013742135.1_ASM1374213v1_bin_2","CP056613.1",4344,102345,"chromosome",0.042,"gplas2.0_plasmidEC","E. coli"
"GCA_013742835.1_ASM1374283v1","GCA_013742835.1_ASM1374283v1_bin_1","CP056625.1",3908,138264,"chromosome",0.011,"gplas2.0_plasmidEC","E. coli"
"GCA_013741855.1_ASM1374185v1","GCA_013741855.1_ASM1374185v1_bin_2","CP056608.1",4344,102345,"chromosome",0.042,"gplas2.0_plasmidEC","E. coli"
