"arg_plasmid","length_classification","count","species"
"ARG-plasmid","large",96,"E. coli"
"ARG-plasmid","small",2,"E. coli"
"non-ARG-plasmid","large",174,"E. coli"
"non-ARG-plasmid","small",211,"E. coli"
