"software","FN","FP","TN","TP","recall","precision","f1_score"
"Centrifuge",209,287,13998,1464,0.88,0.84,0.86
"RFplasmid",382,484,13801,1291,0.77,0.73,0.75
"Platon",347,299,13986,1326,0.79,0.82,0.8
"plasmidEC",223,311,13974,1450,0.87,0.82,0.84
