GCF_904865675.1_INF358,GCF_904865675.1_INF358_bin_1,NZ_LR890475.1,257857,257857
GCF_904865785.1_INF142,GCF_904865785.1_INF142_bin_6,NZ_LR890553.1,3825,3825
GCF_904865785.1_INF142,GCF_904865785.1_INF142_bin_3,NZ_LR890549.1,142697,142697
GCF_904865785.1_INF142,GCF_904865785.1_INF142_bin_3,NZ_LR890550.1,5204,142697
GCF_904865785.1_INF142,GCF_904865785.1_INF142_bin_3,NZ_LR890547.1,9455,142697
GCF_904865785.1_INF142,GCF_904865785.1_INF142_bin_3,NZ_LR890548.1,1099,142697
GCF_904865785.1_INF142,GCF_904865785.1_INF142_bin_5,NZ_LR890551.1,8608,8608
GCF_904865785.1_INF142,GCF_904865785.1_INF142_bin_5,NZ_LR890547.1,2246,8608
GCF_904865785.1_INF142,GCF_904865785.1_INF142_bin_5,NZ_LR890550.1,4335,8608
GCF_904865785.1_INF142,GCF_904865785.1_INF142_bin_5,NZ_LR890548.1,4335,8608
GCF_904865785.1_INF142,GCF_904865785.1_INF142_bin_Unbinned,NZ_LR890550.1,1315,1315
GCF_904865785.1_INF142,GCF_904865785.1_INF142_bin_Unbinned,NZ_LR890547.1,1315,1315
GCF_904865785.1_INF142,GCF_904865785.1_INF142_bin_2,NZ_LR890548.1,166757,165454
GCF_904865785.1_INF142,GCF_904865785.1_INF142_bin_2,NZ_LR890547.1,13800,165454
GCF_904865785.1_INF142,GCF_904865785.1_INF142_bin_2,NZ_LR890551.1,4335,165454
GCF_904865785.1_INF142,GCF_904865785.1_INF142_bin_2,NZ_LR890550.1,5557,165454
GCF_904865785.1_INF142,GCF_904865785.1_INF142_bin_2,NZ_LR890549.1,1099,165454
GCF_904865785.1_INF142,GCF_904865785.1_INF142_bin_4,NZ_LR890552.1,4536,4536
GCF_904865785.1_INF142,GCF_904865785.1_INF142_bin_1,NZ_LR890550.1,71275,71275
GCF_904865785.1_INF142,GCF_904865785.1_INF142_bin_1,NZ_LR890549.1,5204,71275
GCF_904865785.1_INF142,GCF_904865785.1_INF142_bin_1,NZ_LR890551.1,4335,71275
GCF_904865785.1_INF142,GCF_904865785.1_INF142_bin_1,NZ_LR890547.1,11701,71275
GCF_904865785.1_INF142,GCF_904865785.1_INF142_bin_1,NZ_LR890548.1,5557,71275
GCF_013724605.1_ASM1372460v1,GCF_013724605.1_ASM1372460v1_bin_4,NZ_CP056222.1,9315,9315
GCF_013724605.1_ASM1372460v1,GCF_013724605.1_ASM1372460v1_bin_2,NZ_CP056226.1,59419,87881
GCF_013724605.1_ASM1372460v1,GCF_013724605.1_ASM1372460v1_bin_2,NZ_CP056225.1,34771,87881
GCF_013724605.1_ASM1372460v1,GCF_013724605.1_ASM1372460v1_bin_2,NZ_CP056223.1,7962,87881
GCF_013724605.1_ASM1372460v1,GCF_013724605.1_ASM1372460v1_bin_2,NZ_CP056222.1,3878,87881
GCF_013724605.1_ASM1372460v1,GCF_013724605.1_ASM1372460v1_bin_3,NZ_CP056226.1,8703,6963
GCF_013724605.1_ASM1372460v1,GCF_013724605.1_ASM1372460v1_bin_3,NZ_CP056225.1,5590,6963
GCF_013724605.1_ASM1372460v1,GCF_013724605.1_ASM1372460v1_bin_1,NZ_CP056224.1,109848,279834
GCF_013724605.1_ASM1372460v1,GCF_013724605.1_ASM1372460v1_bin_1,NZ_CP056226.1,36277,279834
GCF_013724605.1_ASM1372460v1,GCF_013724605.1_ASM1372460v1_bin_1,NZ_CP056223.1,141781,279834
GCF_013724605.1_ASM1372460v1,GCF_013724605.1_ASM1372460v1_bin_1,NZ_CP056225.1,7543,279834
GCF_013724605.1_ASM1372460v1,GCF_013724605.1_ASM1372460v1_bin_1,NZ_CP056222.1,3878,279834
GCF_013724605.1_ASM1372460v1,GCF_013724605.1_ASM1372460v1_bin_5,NZ_CP056227.1,3223,3223
GCF_013735895.1_ASM1373589v1,GCF_013735895.1_ASM1373589v1_bin_4,NZ_CP056431.1,2836,2836
GCF_013735895.1_ASM1373589v1,GCF_013735895.1_ASM1373589v1_bin_1,NZ_CP056426.1,184288,231186
GCF_013735895.1_ASM1373589v1,GCF_013735895.1_ASM1373589v1_bin_1,NZ_CP056425.1,21350,231186
GCF_013735895.1_ASM1373589v1,GCF_013735895.1_ASM1373589v1_bin_1,NZ_CP056427.1,67536,231186
GCF_013735895.1_ASM1373589v1,GCF_013735895.1_ASM1373589v1_bin_2,NZ_CP056428.1,25549,25549
GCF_013735895.1_ASM1373589v1,GCF_013735895.1_ASM1373589v1_bin_3,NZ_CP056429.1,5783,5783
GCF_904863275.1_INF188,GCF_904863275.1_INF188_bin_3,NZ_LR890309.1,4443,4443
GCF_904863275.1_INF188,GCF_904863275.1_INF188_bin_1,NZ_LR890310.1,2863,2863
GCF_904863275.1_INF188,GCF_904863275.1_INF188_bin_2,NZ_LR890308.1,250169,247487
GCF_016903255.1_ASM1690325v1,GCF_016903255.1_ASM1690325v1_bin_1,NZ_CP069862.1,132365,289295
GCF_016903255.1_ASM1690325v1,GCF_016903255.1_ASM1690325v1_bin_1,NZ_CP069863.1,158279,289295
GCF_016903255.1_ASM1690325v1,GCF_016903255.1_ASM1690325v1_bin_1,NZ_CP069861.1,6343,289295
GCF_904863115.1_INF329,GCF_904863115.1_INF329_bin_3,NZ_LR890243.1,3223,3223
GCF_904863115.1_INF329,GCF_904863115.1_INF329_bin_1,NZ_LR890241.1,183617,183617
GCF_904863115.1_INF329,GCF_904863115.1_INF329_bin_2,NZ_LR890242.1,4064,4064
GCF_016903895.1_ASM1690389v1,GCF_016903895.1_ASM1690389v1_bin_1,NZ_CP069995.1,160433,160494
GCF_016903895.1_ASM1690389v1,GCF_016903895.1_ASM1690389v1_bin_1,NZ_CP069994.1,1959,160494
GCF_904864645.1_INF079,GCF_904864645.1_INF079_bin_1,NZ_LR890465.1,224125,225420
GCF_904864645.1_INF079,GCF_904864645.1_INF079_bin_1,NZ_LR890464.1,19235,225420
GCF_016727425.1_ASM1672742v1,GCF_016727425.1_ASM1672742v1_bin_3,NZ_CP068142.1,3407,3407
GCF_016727425.1_ASM1672742v1,GCF_016727425.1_ASM1672742v1_bin_1,NZ_CP068140.1,189791,188595
GCF_016727425.1_ASM1672742v1,GCF_016727425.1_ASM1672742v1_bin_1,NZ_CP068139.1,2392,188595
GCF_016727425.1_ASM1672742v1,GCF_016727425.1_ASM1672742v1_bin_2,NZ_CP068141.1,3991,3991
GCF_013811845.1_ASM1381184v1,GCF_013811845.1_ASM1381184v1_bin_1,NZ_CP057070.1,3770,3770
GCF_904863215.1_INF277,GCF_904863215.1_INF277_bin_2,NZ_LR890205.1,19950,5963
GCF_904863215.1_INF277,GCF_904863215.1_INF277_bin_3,NZ_LR890206.1,94255,94255
GCF_904863215.1_INF277,GCF_904863215.1_INF277_bin_5,NZ_LR890208.1,1916,1916
GCF_904863215.1_INF277,GCF_904863215.1_INF277_bin_1,NZ_LR890205.1,217349,207170
GCF_904863215.1_INF277,GCF_904863215.1_INF277_bin_1,NZ_LR890204.1,3330,207170
GCF_904863215.1_INF277,GCF_904863215.1_INF277_bin_4,NZ_LR890207.1,3088,3223
GCF_017894305.1_ASM1789430v1,GCF_017894305.1_ASM1789430v1_bin_1,NZ_CP058362.1,191595,191595
GCF_017894305.1_ASM1789430v1,GCF_017894305.1_ASM1789430v1_bin_1,NZ_CP058361.1,4950,191595
GCF_017894305.1_ASM1789430v1,GCF_017894305.1_ASM1789430v1_bin_1,NZ_CP058363.1,7605,191595
GCF_017894305.1_ASM1789430v1,GCF_017894305.1_ASM1789430v1_bin_2,NZ_CP058363.1,103463,100808
GCF_017894305.1_ASM1789430v1,GCF_017894305.1_ASM1789430v1_bin_2,NZ_CP058362.1,4950,100808
GCF_017894305.1_ASM1789430v1,GCF_017894305.1_ASM1789430v1_bin_2,NZ_CP058361.1,4950,100808
GCF_017894305.1_ASM1789430v1,GCF_017894305.1_ASM1789430v1_bin_3,NZ_CP058363.1,41687,42306
GCF_017894305.1_ASM1789430v1,GCF_017894305.1_ASM1789430v1_bin_3,NZ_CP058361.1,3175,42306
GCF_017894305.1_ASM1789430v1,GCF_017894305.1_ASM1789430v1_bin_3,NZ_CP058362.1,1278,42306
GCF_020525485.1_ASM2052548v1,GCF_020525485.1_ASM2052548v1_bin_2,NZ_CP084866.1,30626,30626
GCF_020525485.1_ASM2052548v1,GCF_020525485.1_ASM2052548v1_bin_2,NZ_CP084867.1,30626,30626
GCF_020525485.1_ASM2052548v1,GCF_020525485.1_ASM2052548v1_bin_1,NZ_CP084867.1,181456,181456
GCF_021497265.1_ASM2149726v1,GCF_021497265.1_ASM2149726v1_bin_1,NZ_CP053863.1,211267,214788
GCF_021497265.1_ASM2149726v1,GCF_021497265.1_ASM2149726v1_bin_1,NZ_CP053862.1,3521,214788
GCF_021497265.1_ASM2149726v1,GCF_021497265.1_ASM2149726v1_bin_2,NZ_CP053864.1,110998,111002
GCF_016903155.1_ASM1690315v1,GCF_016903155.1_ASM1690315v1_bin_2,NZ_CP069823.1,9294,9294
GCF_016903155.1_ASM1690315v1,GCF_016903155.1_ASM1690315v1_bin_1,NZ_CP069822.1,174347,171662
GCF_016903155.1_ASM1690315v1,GCF_016903155.1_ASM1690315v1_bin_1,NZ_CP069821.1,5038,171662
GCF_016903155.1_ASM1690315v1,GCF_016903155.1_ASM1690315v1_bin_3,NZ_CP069824.1,4167,4167
GCF_904863325.1_INF354,GCF_904863325.1_INF354_bin_3,NZ_LR890372.1,2997,3223
GCF_904863325.1_INF354,GCF_904863325.1_INF354_bin_2,NZ_LR890371.1,65154,65199
GCF_904863325.1_INF354,GCF_904863325.1_INF354_bin_2,NZ_LR890370.1,8825,65199
GCF_904863325.1_INF354,GCF_904863325.1_INF354_bin_2,NZ_LR890369.1,2454,65199
GCF_904863325.1_INF354,GCF_904863325.1_INF354_bin_4,NZ_LR890373.1,2723,2723
GCF_904863325.1_INF354,GCF_904863325.1_INF354_bin_1,NZ_LR890370.1,199301,201779
GCF_904863325.1_INF354,GCF_904863325.1_INF354_bin_1,NZ_LR890371.1,5455,201779
GCF_904863325.1_INF354,GCF_904863325.1_INF354_bin_1,NZ_LR890369.1,2807,201779
GCF_904865845.1_INF302,GCF_904865845.1_INF302_bin_2,NZ_LR890557.1,212507,207764
GCF_904865845.1_INF302,GCF_904865845.1_INF302_bin_2,NZ_LR890556.1,2030,207764
GCF_904865845.1_INF302,GCF_904865845.1_INF302_bin_1,NZ_LR890558.1,28142,28142
GCF_904865845.1_INF302,GCF_904865845.1_INF302_bin_5,NZ_LR890561.1,1916,1916
GCF_904865845.1_INF302,GCF_904865845.1_INF302_bin_4,NZ_LR890560.1,3223,3223
GCF_904865845.1_INF302,GCF_904865845.1_INF302_bin_3,NZ_LR890559.1,4064,4064
GCF_015694065.1_ASM1569406v1,GCF_015694065.1_ASM1569406v1_bin_4,no_correct_alignments,0,0
GCF_015694065.1_ASM1569406v1,GCF_015694065.1_ASM1569406v1_bin_3,no_correct_alignments,0,0
GCF_015694065.1_ASM1569406v1,GCF_015694065.1_ASM1569406v1_bin_1,NZ_CP065174.1,212902,583803
GCF_015694065.1_ASM1569406v1,GCF_015694065.1_ASM1569406v1_bin_1,NZ_CP065175.1,118804,583803
GCF_015694065.1_ASM1569406v1,GCF_015694065.1_ASM1569406v1_bin_1,NZ_CP065173.1,203885,583803
GCF_015694065.1_ASM1569406v1,GCF_015694065.1_ASM1569406v1_bin_1,NZ_CP065176.1,85789,583803
GCF_015694065.1_ASM1569406v1,GCF_015694065.1_ASM1569406v1_bin_1,NZ_CP065172.1,2449,583803
GCF_015694065.1_ASM1569406v1,GCF_015694065.1_ASM1569406v1_bin_2,NZ_CP065176.1,3387,8448
GCF_015694065.1_ASM1569406v1,GCF_015694065.1_ASM1569406v1_bin_2,NZ_CP065173.1,3387,8448
GCF_013731735.1_ASM1373173v1,GCF_013731735.1_ASM1373173v1_bin_2,NZ_CP056312.1,4056,4056
GCF_013731735.1_ASM1373173v1,GCF_013731735.1_ASM1373173v1_bin_3,NZ_CP056313.1,2799,2799
GCF_013731735.1_ASM1373173v1,GCF_013731735.1_ASM1373173v1_bin_1,NZ_CP056307.1,41805,428953
GCF_013731735.1_ASM1373173v1,GCF_013731735.1_ASM1373173v1_bin_1,NZ_CP056308.1,202065,428953
GCF_013731735.1_ASM1373173v1,GCF_013731735.1_ASM1373173v1_bin_1,NZ_CP056311.1,36438,428953
GCF_013731735.1_ASM1373173v1,GCF_013731735.1_ASM1373173v1_bin_1,NZ_CP056309.1,113608,428953
GCF_013731735.1_ASM1373173v1,GCF_013731735.1_ASM1373173v1_bin_1,NZ_CP056310.1,89587,428953
GCF_904864505.1_INF331,GCF_904864505.1_INF331_bin_1,NZ_LR890425.1,184566,183509
GCF_020525885.1_ASM2052588v1,GCF_020525885.1_ASM2052588v1_bin_1,NZ_CP084869.1,226070,225170
GCF_020525885.1_ASM2052588v1,GCF_020525885.1_ASM2052588v1_bin_1,NZ_CP084868.1,4384,225170
GCF_017639065.1_ASM1763906v1,GCF_017639065.1_ASM1763906v1_bin_3,NZ_CP067260.1,3005,3005
GCF_017639065.1_ASM1763906v1,GCF_017639065.1_ASM1763906v1_bin_1,NZ_CP067256.1,161484,211495
GCF_017639065.1_ASM1763906v1,GCF_017639065.1_ASM1763906v1_bin_1,NZ_CP067257.1,49974,211495
GCF_017639065.1_ASM1763906v1,GCF_017639065.1_ASM1763906v1_bin_Isolated_1,NZ_CP067258.1,3898,3898
GCF_017639065.1_ASM1763906v1,GCF_017639065.1_ASM1763906v1_bin_2,NZ_CP067259.1,3357,3357
GCF_019798005.1_ASM1979800v1,GCF_019798005.1_ASM1979800v1_bin_4,NZ_CP073786.1,110542,110542
GCF_019798005.1_ASM1979800v1,GCF_019798005.1_ASM1979800v1_bin_1,NZ_CP073785.1,107819,107819
GCF_019798005.1_ASM1979800v1,GCF_019798005.1_ASM1979800v1_bin_3,NZ_CP073785.1,2497,2497
GCF_019798005.1_ASM1979800v1,GCF_019798005.1_ASM1979800v1_bin_5,NZ_CP073787.1,4627,4627
GCF_019798005.1_ASM1979800v1,GCF_019798005.1_ASM1979800v1_bin_2,NZ_CP073784.1,214228,214228
GCF_014788765.1_ASM1478876v1,GCF_014788765.1_ASM1478876v1_bin_1,NZ_CP061833.1,166844,195123
GCF_014788765.1_ASM1478876v1,GCF_014788765.1_ASM1478876v1_bin_1,NZ_CP061834.1,31917,195123
GCF_014788765.1_ASM1478876v1,GCF_014788765.1_ASM1478876v1_bin_1,NZ_CP061832.1,4883,195123
GCF_014788765.1_ASM1478876v1,GCF_014788765.1_ASM1478876v1_bin_2,NZ_CP061834.1,6108,6108
GCF_014788765.1_ASM1478876v1,GCF_014788765.1_ASM1478876v1_bin_2,NZ_CP061833.1,6108,6108
GCF_904866205.1_INF145,GCF_904866205.1_INF145_bin_1,NZ_LR890586.1,4439,4439
GCF_904863245.1_INF355,GCF_904863245.1_INF355_bin_3,NZ_LR890280.1,3514,3514
GCF_904863245.1_INF355,GCF_904863245.1_INF355_bin_2,NZ_LR890278.1,172255,168661
GCF_904863245.1_INF355,GCF_904863245.1_INF355_bin_2,NZ_LR890279.1,4702,168661
GCF_904863245.1_INF355,GCF_904863245.1_INF355_bin_1,NZ_LR890279.1,120320,122806
GCF_904863245.1_INF355,GCF_904863245.1_INF355_bin_1,NZ_LR890278.1,10782,122806
GCF_904866195.1_INF327,GCF_904866195.1_INF327_bin_1,NZ_LR890572.1,106952,104891
GCF_904866195.1_INF327,GCF_904866195.1_INF327_bin_3,NZ_LR890574.1,4064,4064
GCF_904866195.1_INF327,GCF_904866195.1_INF327_bin_Unbinned,NZ_LR890572.1,29346,27130
GCF_904866195.1_INF327,GCF_904866195.1_INF327_bin_4,NZ_LR890575.1,3223,3223
GCF_904866195.1_INF327,GCF_904866195.1_INF327_bin_2,NZ_LR890572.1,62204,62204
GCF_904866195.1_INF327,GCF_904866195.1_INF327_bin_2,NZ_LR890571.1,2030,62204
GCF_904866195.1_INF327,GCF_904866195.1_INF327_bin_Isolated_1,NZ_LR890573.1,210184,210184
GCF_016903395.1_ASM1690339v1,GCF_016903395.1_ASM1690339v1_bin_7,no_correct_alignments,0,0
GCF_016903395.1_ASM1690339v1,GCF_016903395.1_ASM1690339v1_bin_3,no_correct_alignments,0,0
GCF_016903395.1_ASM1690339v1,GCF_016903395.1_ASM1690339v1_bin_2,NZ_CP069905.1,3424,3424
GCF_016903395.1_ASM1690339v1,GCF_016903395.1_ASM1690339v1_bin_1,NZ_CP069907.1,24153,392166
GCF_016903395.1_ASM1690339v1,GCF_016903395.1_ASM1690339v1_bin_1,NZ_CP069903.1,78732,392166
GCF_016903395.1_ASM1690339v1,GCF_016903395.1_ASM1690339v1_bin_1,NZ_CP069904.1,324887,392166
GCF_016903395.1_ASM1690339v1,GCF_016903395.1_ASM1690339v1_bin_1,NZ_CP069906.1,18152,392166
GCF_016903395.1_ASM1690339v1,GCF_016903395.1_ASM1690339v1_bin_6,NZ_CP069901.1,3223,3223
GCF_016903395.1_ASM1690339v1,GCF_016903395.1_ASM1690339v1_bin_5,NZ_CP069909.1,4809,4809
GCF_016903395.1_ASM1690339v1,GCF_016903395.1_ASM1690339v1_bin_4,NZ_CP069902.1,54848,69811
GCF_016903395.1_ASM1690339v1,GCF_016903395.1_ASM1690339v1_bin_4,NZ_CP069908.1,8911,69811
GCF_002853115.2_ASM285311v2,GCF_002853115.2_ASM285311v2_bin_1,NZ_CP073286.1,217238,224564
GCF_002853115.2_ASM285311v2,GCF_002853115.2_ASM285311v2_bin_1,NZ_CP073285.1,8152,224564
GCF_022369925.1_ASM2236992v1,GCF_022369925.1_ASM2236992v1_bin_5,NZ_CP071031.1,4167,4167
GCF_022369925.1_ASM2236992v1,GCF_022369925.1_ASM2236992v1_bin_1,NZ_CP071029.1,112696,112696
GCF_022369925.1_ASM2236992v1,GCF_022369925.1_ASM2236992v1_bin_3,NZ_CP071028.1,196841,194447
GCF_022369925.1_ASM2236992v1,GCF_022369925.1_ASM2236992v1_bin_3,NZ_CP071027.1,6059,194447
GCF_022369925.1_ASM2236992v1,GCF_022369925.1_ASM2236992v1_bin_3,NZ_CP071030.1,2918,194447
GCF_022369925.1_ASM2236992v1,GCF_022369925.1_ASM2236992v1_bin_4,NZ_CP071028.1,62459,105914
GCF_022369925.1_ASM2236992v1,GCF_022369925.1_ASM2236992v1_bin_4,NZ_CP071030.1,51320,105914
GCF_022369925.1_ASM2236992v1,GCF_022369925.1_ASM2236992v1_bin_4,NZ_CP071027.1,2318,105914
GCF_022369925.1_ASM2236992v1,GCF_022369925.1_ASM2236992v1_bin_2,NZ_CP071028.1,81485,81485
GCF_022369925.1_ASM2236992v1,GCF_022369925.1_ASM2236992v1_bin_2,NZ_CP071030.1,5180,81485
GCF_012029895.2_ASM1202989v2,GCF_012029895.2_ASM1202989v2_bin_1,NZ_CP061382.1,124987,254688
GCF_012029895.2_ASM1202989v2,GCF_012029895.2_ASM1202989v2_bin_1,NZ_CP061381.1,141811,254688
GCF_012029895.2_ASM1202989v2,GCF_012029895.2_ASM1202989v2_bin_2,NZ_CP061383.1,3701,5488
GCF_012029895.2_ASM1202989v2,GCF_012029895.2_ASM1202989v2_bin_2,NZ_CP061381.1,1787,5488
GCF_012029895.2_ASM1202989v2,GCF_012029895.2_ASM1202989v2_bin_3,NZ_CP061384.1,1934,1934
GCF_019798025.1_ASM1979802v1,GCF_019798025.1_ASM1979802v1_bin_2,NZ_CP073790.1,1212,1212
GCF_019798025.1_ASM1979802v1,GCF_019798025.1_ASM1979802v1_bin_1,NZ_CP073790.1,33469,33469
GCF_019798025.1_ASM1979802v1,GCF_019798025.1_ASM1979802v1_bin_Isolated_1,NZ_CP073789.1,225750,225762
GCF_013729075.1_ASM1372907v1,GCF_013729075.1_ASM1372907v1_bin_2,NZ_CP056277.1,48174,48174
GCF_013729075.1_ASM1372907v1,GCF_013729075.1_ASM1372907v1_bin_2,NZ_CP056276.1,2493,48174
GCF_013729075.1_ASM1372907v1,GCF_013729075.1_ASM1372907v1_bin_2,NZ_CP056275.1,4986,48174
GCF_013729075.1_ASM1372907v1,GCF_013729075.1_ASM1372907v1_bin_1,NZ_CP056276.1,241429,241692
GCF_013729075.1_ASM1372907v1,GCF_013729075.1_ASM1372907v1_bin_1,NZ_CP056277.1,2493,241692
GCF_013729075.1_ASM1372907v1,GCF_013729075.1_ASM1372907v1_bin_1,NZ_CP056275.1,4986,241692
GCF_016904595.1_ASM1690459v1,GCF_016904595.1_ASM1690459v1_bin_1,NZ_CP070159.1,201814,199344
GCF_016904595.1_ASM1690459v1,GCF_016904595.1_ASM1690459v1_bin_3,NZ_CP070160.1,2058,2058
GCF_016904595.1_ASM1690459v1,GCF_016904595.1_ASM1690459v1_bin_2,NZ_CP070159.1,3664,9296
GCF_904866435.1_INF119,GCF_904866435.1_INF119_bin_1,NZ_LR890692.1,217403,213645
GCF_904866435.1_INF119,GCF_904866435.1_INF119_bin_1,NZ_LR890691.1,2761,213645
GCF_013731305.1_ASM1373130v1,GCF_013731305.1_ASM1373130v1_bin_2,NZ_CP056303.1,108572,108572
GCF_013731305.1_ASM1373130v1,GCF_013731305.1_ASM1373130v1_bin_1,NZ_CP056302.1,244436,226364
GCF_013731305.1_ASM1373130v1,GCF_013731305.1_ASM1373130v1_bin_1,NZ_CP056301.1,3012,226364
GCF_904866465.1_INF161,GCF_904866465.1_INF161_bin_2,NZ_LR890721.1,83590,83590
GCF_904866465.1_INF161,GCF_904866465.1_INF161_bin_1,NZ_LR890720.1,73911,73911
GCF_904863145.1_INF072,GCF_904863145.1_INF072_bin_1,NZ_LR890186.1,226700,224422
GCF_904863145.1_INF072,GCF_904863145.1_INF072_bin_1,NZ_LR890185.1,4556,224422
GCF_904863145.1_INF072,GCF_904863145.1_INF072_bin_3,NZ_LR890188.1,3302,3302
GCF_904863145.1_INF072,GCF_904863145.1_INF072_bin_2,NZ_LR890187.1,4693,4693
GCF_018283505.2_ASM1828350v2,GCF_018283505.2_ASM1828350v2_bin_2,NZ_CP084396.1,4167,4167
GCF_018283505.2_ASM1828350v2,GCF_018283505.2_ASM1828350v2_bin_1,NZ_CP084394.1,112696,453790
GCF_018283505.2_ASM1828350v2,GCF_018283505.2_ASM1828350v2_bin_1,NZ_CP084395.1,359672,453790
GCF_018283505.2_ASM1828350v2,GCF_018283505.2_ASM1828350v2_bin_1,NZ_CP084397.1,9700,453790
GCF_001185665.2_ASM118566v3,GCF_001185665.2_ASM118566v3_bin_3,NZ_CP073057.1,2527,2527
GCF_001185665.2_ASM118566v3,GCF_001185665.2_ASM118566v3_bin_3,NZ_CP073055.1,2527,2527
GCF_001185665.2_ASM118566v3,GCF_001185665.2_ASM118566v3_bin_Isolated_2,NZ_CP073058.1,31364,32090
GCF_001185665.2_ASM118566v3,GCF_001185665.2_ASM118566v3_bin_Isolated_1,NZ_CP073055.1,142346,142346
GCF_001185665.2_ASM118566v3,GCF_001185665.2_ASM118566v3_bin_2,NZ_CP073056.1,129114,126993
GCF_001185665.2_ASM118566v3,GCF_001185665.2_ASM118566v3_bin_2,NZ_CP073054.1,4728,126993
GCF_001185665.2_ASM118566v3,GCF_001185665.2_ASM118566v3_bin_2,NZ_CP073057.1,1104,126993
GCF_001185665.2_ASM118566v3,GCF_001185665.2_ASM118566v3_bin_1,NZ_CP073055.1,154454,241454
GCF_001185665.2_ASM118566v3,GCF_001185665.2_ASM118566v3_bin_1,NZ_CP073057.1,86995,241454
GCF_001185665.2_ASM118566v3,GCF_001185665.2_ASM118566v3_bin_1,NZ_CP073056.1,3311,241454
GCF_003038135.2_ASM303813v2,GCF_003038135.2_ASM303813v2_bin_6,NZ_CP043356.1,5596,5596
GCF_003038135.2_ASM303813v2,GCF_003038135.2_ASM303813v2_bin_2,NZ_CP043354.1,34913,34913
GCF_003038135.2_ASM303813v2,GCF_003038135.2_ASM303813v2_bin_3,NZ_CP043354.1,34942,34942
GCF_003038135.2_ASM303813v2,GCF_003038135.2_ASM303813v2_bin_3,NZ_CP043355.1,1096,34942
GCF_003038135.2_ASM303813v2,GCF_003038135.2_ASM303813v2_bin_3,NZ_CP043353.1,2192,34942
GCF_003038135.2_ASM303813v2,GCF_003038135.2_ASM303813v2_bin_4,NZ_CP043354.1,11196,11196
GCF_003038135.2_ASM303813v2,GCF_003038135.2_ASM303813v2_bin_4,NZ_CP043355.1,1334,11196
GCF_003038135.2_ASM303813v2,GCF_003038135.2_ASM303813v2_bin_4,NZ_CP043353.1,1334,11196
GCF_003038135.2_ASM303813v2,GCF_003038135.2_ASM303813v2_bin_5,NZ_CP043355.1,3030,3030
GCF_003038135.2_ASM303813v2,GCF_003038135.2_ASM303813v2_bin_1,NZ_CP043355.1,68410,68410
GCF_003038135.2_ASM303813v2,GCF_003038135.2_ASM303813v2_bin_1,NZ_CP043353.1,16448,68410
GCF_003038135.2_ASM303813v2,GCF_003038135.2_ASM303813v2_bin_1,NZ_CP043354.1,1096,68410
GCF_904863285.1_INF231,GCF_904863285.1_INF231_bin_2,NZ_LR890358.1,3664,3664
GCF_904863285.1_INF231,GCF_904863285.1_INF231_bin_3,NZ_LR890359.1,2667,2667
GCF_904863285.1_INF231,GCF_904863285.1_INF231_bin_1,NZ_LR890357.1,174710,174710
GCF_016903495.1_ASM1690349v1,GCF_016903495.1_ASM1690349v1_bin_1,NZ_CP069941.1,220234,220234
GCF_012030545.2_ASM1203054v2,GCF_012030545.2_ASM1203054v2_bin_1,NZ_CP061386.1,169659,276203
GCF_012030545.2_ASM1203054v2,GCF_012030545.2_ASM1203054v2_bin_1,NZ_CP061387.1,98677,276203
GCF_012030545.2_ASM1203054v2,GCF_012030545.2_ASM1203054v2_bin_1,NZ_CP061388.1,11102,276203
GCF_012030545.2_ASM1203054v2,GCF_012030545.2_ASM1203054v2_bin_1,NZ_CP061385.1,24642,276203
GCF_013734035.1_ASM1373403v1,GCF_013734035.1_ASM1373403v1_bin_4,NZ_CP056378.1,4416,4416
GCF_013734035.1_ASM1373403v1,GCF_013734035.1_ASM1373403v1_bin_5,NZ_CP056379.1,4018,4018
GCF_013734035.1_ASM1373403v1,GCF_013734035.1_ASM1373403v1_bin_6,NZ_CP056380.1,1916,1916
GCF_013734035.1_ASM1373403v1,GCF_013734035.1_ASM1373403v1_bin_3,NZ_CP056376.1,5783,5783
GCF_013734035.1_ASM1373403v1,GCF_013734035.1_ASM1373403v1_bin_2,NZ_CP056375.1,107685,107685
GCF_013734035.1_ASM1373403v1,GCF_013734035.1_ASM1373403v1_bin_1,NZ_CP056374.1,155768,257152
GCF_013734035.1_ASM1373403v1,GCF_013734035.1_ASM1373403v1_bin_1,NZ_CP056373.1,124056,257152
GCF_013734035.1_ASM1373403v1,GCF_013734035.1_ASM1373403v1_bin_1,NZ_CP056372.1,22721,257152
GCF_904866395.1_INF321,GCF_904866395.1_INF321_bin_3,NZ_LR890670.1,9704,39271
GCF_904866395.1_INF321,GCF_904866395.1_INF321_bin_3,NZ_LR890671.1,31324,39271
GCF_904866395.1_INF321,GCF_904866395.1_INF321_bin_2,NZ_LR890671.1,74566,71745
GCF_904866395.1_INF321,GCF_904866395.1_INF321_bin_2,NZ_LR890669.1,22935,71745
GCF_904866395.1_INF321,GCF_904866395.1_INF321_bin_10,NZ_LR890677.1,1870,1917
GCF_904866395.1_INF321,GCF_904866395.1_INF321_bin_7,NZ_LR890673.1,3620,3690
GCF_904866395.1_INF321,GCF_904866395.1_INF321_bin_1,NZ_LR890670.1,23881,82965
GCF_904866395.1_INF321,GCF_904866395.1_INF321_bin_1,NZ_LR890669.1,6606,82965
GCF_904866395.1_INF321,GCF_904866395.1_INF321_bin_1,NZ_LR890671.1,2014,82965
GCF_904866395.1_INF321,GCF_904866395.1_INF321_bin_Unbinned,NZ_LR890675.1,3074,3074
GCF_904866395.1_INF321,GCF_904866395.1_INF321_bin_8,NZ_LR890674.1,3415,3415
GCF_904866395.1_INF321,GCF_904866395.1_INF321_bin_6,NZ_LR890672.1,4286,4390
GCF_904866395.1_INF321,GCF_904866395.1_INF321_bin_11,NZ_LR890678.1,1240,1240
GCF_904866395.1_INF321,GCF_904866395.1_INF321_bin_5,no_correct_alignments,0,0
GCF_904866395.1_INF321,GCF_904866395.1_INF321_bin_9,NZ_LR890676.1,3109,3109
GCF_904866395.1_INF321,GCF_904866395.1_INF321_bin_4,NZ_LR890670.1,79950,79950
GCF_020080145.1_ASM2008014v1,GCF_020080145.1_ASM2008014v1_bin_1,NZ_CP083446.1,337329,362166
GCF_020080145.1_ASM2008014v1,GCF_020080145.1_ASM2008014v1_bin_1,NZ_CP083447.1,40851,362166
GCF_020080145.1_ASM2008014v1,GCF_020080145.1_ASM2008014v1_bin_1,NZ_CP083445.1,12078,362166
GCF_014905815.1_ASM1490581v1,GCF_014905815.1_ASM1490581v1_bin_4,NZ_AP023458.1,3991,3991
GCF_014905815.1_ASM1490581v1,GCF_014905815.1_ASM1490581v1_bin_2,NZ_AP023456.1,45937,48888
GCF_014905815.1_ASM1490581v1,GCF_014905815.1_ASM1490581v1_bin_2,NZ_AP023453.1,24350,48888
GCF_014905815.1_ASM1490581v1,GCF_014905815.1_ASM1490581v1_bin_2,NZ_AP023454.1,2937,48888
GCF_014905815.1_ASM1490581v1,GCF_014905815.1_ASM1490581v1_bin_2,NZ_AP023455.1,4621,48888
GCF_014905815.1_ASM1490581v1,GCF_014905815.1_ASM1490581v1_bin_3,NZ_AP023457.1,9294,9294
GCF_014905815.1_ASM1490581v1,GCF_014905815.1_ASM1490581v1_bin_1,NZ_AP023454.1,87822,261845
GCF_014905815.1_ASM1490581v1,GCF_014905815.1_ASM1490581v1_bin_1,NZ_AP023455.1,182819,261845
GCF_014905815.1_ASM1490581v1,GCF_014905815.1_ASM1490581v1_bin_1,NZ_AP023453.1,25064,261845
GCF_014905815.1_ASM1490581v1,GCF_014905815.1_ASM1490581v1_bin_1,NZ_AP023456.1,1691,261845
GCF_013805705.1_ASM1380570v1,GCF_013805705.1_ASM1380570v1_bin_3,NZ_CP057037.1,4671,4671
GCF_013805705.1_ASM1380570v1,GCF_013805705.1_ASM1380570v1_bin_2,NZ_CP057036.1,86316,86316
GCF_013805705.1_ASM1380570v1,GCF_013805705.1_ASM1380570v1_bin_1,NZ_CP057035.1,175643,174399
GCF_013805705.1_ASM1380570v1,GCF_013805705.1_ASM1380570v1_bin_1,NZ_CP057034.1,5504,174399
GCF_904866405.1_INF279,GCF_904866405.1_INF279_bin_2,NZ_LR890680.1,209417,204761
GCF_904866405.1_INF279,GCF_904866405.1_INF279_bin_2,NZ_LR890681.1,5455,204761
GCF_904866405.1_INF279,GCF_904866405.1_INF279_bin_6,NZ_LR890685.1,2723,2723
GCF_904866405.1_INF279,GCF_904866405.1_INF279_bin_1,NZ_LR890682.1,4250,4250
GCF_904866405.1_INF279,GCF_904866405.1_INF279_bin_3,NZ_LR890681.1,64690,64735
GCF_904866405.1_INF279,GCF_904866405.1_INF279_bin_3,NZ_LR890680.1,8825,64735
GCF_904866405.1_INF279,GCF_904866405.1_INF279_bin_5,NZ_LR890684.1,3128,3223
GCF_904866405.1_INF279,GCF_904866405.1_INF279_bin_4,NZ_LR890683.1,3400,3514
GCF_904866405.1_INF279,GCF_904866405.1_INF279_bin_Unbinned,no_correct_alignments,0,0
GCF_904865735.1_INF361,GCF_904865735.1_INF361_bin_1,NZ_LR890528.1,134141,130547
GCF_904865735.1_INF361,GCF_904865735.1_INF361_bin_1,NZ_LR890529.1,4702,130547
GCF_904865735.1_INF361,GCF_904865735.1_INF361_bin_2,NZ_LR890529.1,120320,122806
GCF_904865735.1_INF361,GCF_904865735.1_INF361_bin_2,NZ_LR890528.1,10782,122806
GCF_904865735.1_INF361,GCF_904865735.1_INF361_bin_3,NZ_LR890528.1,43079,43079
GCF_904865735.1_INF361,GCF_904865735.1_INF361_bin_4,NZ_LR890530.1,3514,3514
GCF_904865755.1_INF341,GCF_904865755.1_INF341_bin_1,NZ_LR890491.1,193041,191845
GCF_904865755.1_INF341,GCF_904865755.1_INF341_bin_1,NZ_LR890490.1,2392,191845
GCF_904865755.1_INF341,GCF_904865755.1_INF341_bin_2,NZ_LR890492.1,9294,9294
GCF_904863095.1_INF174,GCF_904863095.1_INF174_bin_2,NZ_LR890247.1,4369,4369
GCF_904863095.1_INF174,GCF_904863095.1_INF174_bin_1,NZ_LR890246.1,221748,221748
GCF_013745295.1_ASM1374529v1,GCF_013745295.1_ASM1374529v1_bin_2,NZ_CP056331.1,5167,5167
GCF_013745295.1_ASM1374529v1,GCF_013745295.1_ASM1374529v1_bin_1,NZ_CP056330.1,6757,6757
GCF_013745295.1_ASM1374529v1,GCF_013745295.1_ASM1374529v1_bin_3,NZ_CP056332.1,4074,4074
GCF_016904275.1_ASM1690427v1,GCF_016904275.1_ASM1690427v1_bin_2,NZ_CP070083.1,53301,57027
GCF_016904275.1_ASM1690427v1,GCF_016904275.1_ASM1690427v1_bin_2,NZ_CP070084.1,3726,57027
GCF_016904275.1_ASM1690427v1,GCF_016904275.1_ASM1690427v1_bin_2,NZ_CP070087.1,2593,57027
GCF_016904275.1_ASM1690427v1,GCF_016904275.1_ASM1690427v1_bin_3,NZ_CP070084.1,24827,24827
GCF_016904275.1_ASM1690427v1,GCF_016904275.1_ASM1690427v1_bin_3,NZ_CP070087.1,17533,24827
GCF_016904275.1_ASM1690427v1,GCF_016904275.1_ASM1690427v1_bin_3,NZ_CP070082.1,3559,24827
GCF_016904275.1_ASM1690427v1,GCF_016904275.1_ASM1690427v1_bin_3,NZ_CP070083.1,3174,24827
GCF_016904275.1_ASM1690427v1,GCF_016904275.1_ASM1690427v1_bin_4,NZ_CP070086.1,38630,42553
GCF_016904275.1_ASM1690427v1,GCF_016904275.1_ASM1690427v1_bin_4,NZ_CP070084.1,3923,42553
GCF_016904275.1_ASM1690427v1,GCF_016904275.1_ASM1690427v1_bin_5,NZ_CP070085.1,5585,5585
GCF_016904275.1_ASM1690427v1,GCF_016904275.1_ASM1690427v1_bin_Unbinned,NZ_CP070082.1,10358,10358
GCF_016904275.1_ASM1690427v1,GCF_016904275.1_ASM1690427v1_bin_Unbinned,NZ_CP070087.1,1061,10358
GCF_016904275.1_ASM1690427v1,GCF_016904275.1_ASM1690427v1_bin_1,NZ_CP070083.1,143696,142595
GCF_016904275.1_ASM1690427v1,GCF_016904275.1_ASM1690427v1_bin_1,NZ_CP070087.1,13974,142595
GCF_016904275.1_ASM1690427v1,GCF_016904275.1_ASM1690427v1_bin_1,NZ_CP070084.1,3174,142595
GCF_013792545.1_ASM1379254v1,GCF_013792545.1_ASM1379254v1_bin_3,NZ_CP056860.1,1916,1916
GCF_013792545.1_ASM1379254v1,GCF_013792545.1_ASM1379254v1_bin_1,NZ_CP056856.1,108071,313304
GCF_013792545.1_ASM1379254v1,GCF_013792545.1_ASM1379254v1_bin_1,NZ_CP056854.1,23024,313304
GCF_013792545.1_ASM1379254v1,GCF_013792545.1_ASM1379254v1_bin_1,NZ_CP056855.1,170797,313304
GCF_013792545.1_ASM1379254v1,GCF_013792545.1_ASM1379254v1_bin_1,NZ_CP056858.1,43812,313304
GCF_013792545.1_ASM1379254v1,GCF_013792545.1_ASM1379254v1_bin_2,NZ_CP056857.1,55736,55736
GCF_904863425.1_INF348,GCF_904863425.1_INF348_bin_1,NZ_LR890325.1,87807,87807
GCF_904863425.1_INF348,GCF_904863425.1_INF348_bin_3,NZ_LR890324.1,101294,101294
GCF_904863425.1_INF348,GCF_904863425.1_INF348_bin_2,NZ_LR890325.1,38304,38502
GCF_904863425.1_INF348,GCF_904863425.1_INF348_bin_2,NZ_LR890323.1,2494,38502
GCF_904863425.1_INF348,GCF_904863425.1_INF348_bin_2,NZ_LR890324.1,2494,38502
GCF_021228815.1_ASM2122881v1,GCF_021228815.1_ASM2122881v1_bin_1,NZ_CP089384.1,210795,210795
GCF_904864625.1_INF171,GCF_904864625.1_INF171_bin_1,NZ_LR890446.1,9572,4786
GCF_904864625.1_INF171,GCF_904864625.1_INF171_bin_6,NZ_LR890450.1,2442,2442
GCF_904864625.1_INF171,GCF_904864625.1_INF171_bin_3,NZ_LR890446.1,42404,40316
GCF_904864625.1_INF171,GCF_904864625.1_INF171_bin_2,NZ_LR890447.1,156683,156683
GCF_904864625.1_INF171,GCF_904864625.1_INF171_bin_5,NZ_LR890449.1,3966,3966
GCF_904864625.1_INF171,GCF_904864625.1_INF171_bin_4,NZ_LR890448.1,29473,29473
GCF_016903515.1_ASM1690351v1,GCF_016903515.1_ASM1690351v1_bin_7,NZ_CP070179.1,4062,4062
GCF_016903515.1_ASM1690351v1,GCF_016903515.1_ASM1690351v1_bin_8,NZ_CP070181.1,2579,2579
GCF_016903515.1_ASM1690351v1,GCF_016903515.1_ASM1690351v1_bin_5,NZ_CP070183.1,5180,5214
GCF_016903515.1_ASM1690351v1,GCF_016903515.1_ASM1690351v1_bin_3,NZ_CP070184.1,4823,4823
GCF_016903515.1_ASM1690351v1,GCF_016903515.1_ASM1690351v1_bin_2,NZ_CP070182.1,1506,1506
GCF_016903515.1_ASM1690351v1,GCF_016903515.1_ASM1690351v1_bin_6,NZ_CP070180.1,5167,5167
GCF_016903515.1_ASM1690351v1,GCF_016903515.1_ASM1690351v1_bin_4,NZ_CP070186.1,4438,4476
GCF_016903515.1_ASM1690351v1,GCF_016903515.1_ASM1690351v1_bin_1,NZ_CP070178.1,60187,200679
GCF_016903515.1_ASM1690351v1,GCF_016903515.1_ASM1690351v1_bin_1,NZ_CP070187.1,12285,200679
GCF_016903515.1_ASM1690351v1,GCF_016903515.1_ASM1690351v1_bin_1,NZ_CP070177.1,4491,200679
GCF_016903515.1_ASM1690351v1,GCF_016903515.1_ASM1690351v1_bin_1,NZ_CP070185.1,29379,200679
GCF_016903515.1_ASM1690351v1,GCF_016903515.1_ASM1690351v1_bin_9,NZ_CP070188.1,2495,2495
GCF_016903515.1_ASM1690351v1,GCF_016903515.1_ASM1690351v1_bin_10,no_correct_alignments,0,0
GCF_021655515.1_ASM2165551v1,GCF_021655515.1_ASM2165551v1_bin_2,NZ_AP024580.1,180236,177571
GCF_021655515.1_ASM2165551v1,GCF_021655515.1_ASM2165551v1_bin_2,NZ_AP024579.1,6171,177571
GCF_021655515.1_ASM2165551v1,GCF_021655515.1_ASM2165551v1_bin_2,NZ_AP024581.1,1656,177571
GCF_021655515.1_ASM2165551v1,GCF_021655515.1_ASM2165551v1_bin_1,NZ_AP024581.1,33514,33514
GCF_021655515.1_ASM2165551v1,GCF_021655515.1_ASM2165551v1_bin_1,NZ_AP024579.1,29837,33514
GCF_021655515.1_ASM2165551v1,GCF_021655515.1_ASM2165551v1_bin_1,NZ_AP024580.1,35170,33514
GCF_020149785.1_ASM2014978v1,GCF_020149785.1_ASM2014978v1_bin_4,NZ_CP083797.1,31297,25410
GCF_020149785.1_ASM2014978v1,GCF_020149785.1_ASM2014978v1_bin_4,NZ_CP083798.1,12282,25410
GCF_020149785.1_ASM2014978v1,GCF_020149785.1_ASM2014978v1_bin_1,NZ_CP083798.1,110519,112419
GCF_020149785.1_ASM2014978v1,GCF_020149785.1_ASM2014978v1_bin_1,NZ_CP083797.1,22050,112419
GCF_020149785.1_ASM2014978v1,GCF_020149785.1_ASM2014978v1_bin_1,NZ_CP083796.1,4204,112419
GCF_020149785.1_ASM2014978v1,GCF_020149785.1_ASM2014978v1_bin_6,NZ_CP083801.1,3514,3514
GCF_020149785.1_ASM2014978v1,GCF_020149785.1_ASM2014978v1_bin_5,NZ_CP083798.1,6514,6514
GCF_020149785.1_ASM2014978v1,GCF_020149785.1_ASM2014978v1_bin_Isolated_1,NZ_CP083799.1,31359,31359
GCF_020149785.1_ASM2014978v1,GCF_020149785.1_ASM2014978v1_bin_2,NZ_CP083797.1,200319,190905
GCF_020149785.1_ASM2014978v1,GCF_020149785.1_ASM2014978v1_bin_3,NZ_CP083797.1,40226,33266
GCF_020149785.1_ASM2014978v1,GCF_020149785.1_ASM2014978v1_bin_3,NZ_CP083798.1,1981,33266
GCF_016804025.1_ASM1680402v1,GCF_016804025.1_ASM1680402v1_bin_1,NZ_CP053018.1,206925,205827
GCF_016804025.1_ASM1680402v1,GCF_016804025.1_ASM1680402v1_bin_1,NZ_CP053017.1,5485,205827
GCF_016804025.1_ASM1680402v1,GCF_016804025.1_ASM1680402v1_bin_3,NZ_CP053019.1,10060,10060
GCF_016804025.1_ASM1680402v1,GCF_016804025.1_ASM1680402v1_bin_4,NZ_CP053020.1,5596,5596
GCF_016804025.1_ASM1680402v1,GCF_016804025.1_ASM1680402v1_bin_2,NZ_CP053017.1,147331,147248
GCF_016804025.1_ASM1680402v1,GCF_016804025.1_ASM1680402v1_bin_2,NZ_CP053018.1,6896,147248
GCF_016804025.1_ASM1680402v1,GCF_016804025.1_ASM1680402v1_bin_2,NZ_CP053016.1,13464,147248
GCF_013895695.1_ASM1389569v1,GCF_013895695.1_ASM1389569v1_bin_1,NZ_CP057724.1,42975,42975
GCF_013895695.1_ASM1389569v1,GCF_013895695.1_ASM1389569v1_bin_2,NZ_CP057723.1,143508,140825
GCF_013895695.1_ASM1389569v1,GCF_013895695.1_ASM1389569v1_bin_Unbinned,NZ_CP057724.1,2924,2924
GCF_012029975.2_ASM1202997v2,GCF_012029975.2_ASM1202997v2_bin_4,NZ_CP061403.1,3258,3549
GCF_012029975.2_ASM1202997v2,GCF_012029975.2_ASM1202997v2_bin_1,NZ_CP061401.1,65708,65708
GCF_012029975.2_ASM1202997v2,GCF_012029975.2_ASM1202997v2_bin_1,NZ_CP061400.1,2861,65708
GCF_012029975.2_ASM1202997v2,GCF_012029975.2_ASM1202997v2_bin_2,NZ_CP061400.1,115994,115994
GCF_012029975.2_ASM1202997v2,GCF_012029975.2_ASM1202997v2_bin_3,NZ_CP061402.1,9294,9294
GCF_904865695.1_INF319,GCF_904865695.1_INF319_bin_6,NZ_LR890543.1,1422,1422
GCF_904865695.1_INF319,GCF_904865695.1_INF319_bin_2,no_correct_alignments,0,0
GCF_904865695.1_INF319,GCF_904865695.1_INF319_bin_1,NZ_LR890544.1,110937,338065
GCF_904865695.1_INF319,GCF_904865695.1_INF319_bin_1,NZ_LR890543.1,229360,338065
GCF_904865695.1_INF319,GCF_904865695.1_INF319_bin_1,NZ_LR890542.1,1116,338065
GCF_904865695.1_INF319,GCF_904865695.1_INF319_bin_1,NZ_LR890546.1,1116,338065
GCF_904865695.1_INF319,GCF_904865695.1_INF319_bin_Unbinned,no_correct_alignments,0,0
GCF_904865695.1_INF319,GCF_904865695.1_INF319_bin_4,NZ_LR890546.1,48363,48445
GCF_904865695.1_INF319,GCF_904865695.1_INF319_bin_4,NZ_LR890543.1,3348,48445
GCF_904865695.1_INF319,GCF_904865695.1_INF319_bin_4,NZ_LR890542.1,1116,48445
GCF_904865695.1_INF319,GCF_904865695.1_INF319_bin_3,NZ_LR890545.1,63235,64351
GCF_904865695.1_INF319,GCF_904865695.1_INF319_bin_3,NZ_LR890542.1,6074,64351
GCF_904865695.1_INF319,GCF_904865695.1_INF319_bin_3,NZ_LR890543.1,3348,64351
GCF_904865695.1_INF319,GCF_904865695.1_INF319_bin_3,NZ_LR890546.1,1116,64351
GCF_904865695.1_INF319,GCF_904865695.1_INF319_bin_5,NZ_LR890543.1,7140,7140
GCF_904863405.1_INF215,GCF_904863405.1_INF215_bin_1,NZ_LR890318.1,175585,205930
GCF_904863405.1_INF215,GCF_904863405.1_INF215_bin_1,NZ_LR890319.1,40739,205930
GCF_904863405.1_INF215,GCF_904863405.1_INF215_bin_1,NZ_LR890317.1,5314,205930
GCF_020525965.1_ASM2052596v1,GCF_020525965.1_ASM2052596v1_bin_2,NZ_CP084841.1,4134,4134
GCF_020525965.1_ASM2052596v1,GCF_020525965.1_ASM2052596v1_bin_1,NZ_CP084831.1,110573,402674
GCF_020525965.1_ASM2052596v1,GCF_020525965.1_ASM2052596v1_bin_1,NZ_CP084832.1,96144,402674
GCF_020525965.1_ASM2052596v1,GCF_020525965.1_ASM2052596v1_bin_1,NZ_CP084834.1,97286,402674
GCF_020525965.1_ASM2052596v1,GCF_020525965.1_ASM2052596v1_bin_1,NZ_CP084836.1,2503,402674
GCF_020525965.1_ASM2052596v1,GCF_020525965.1_ASM2052596v1_bin_1,NZ_CP084830.1,11311,402674
GCF_020525965.1_ASM2052596v1,GCF_020525965.1_ASM2052596v1_bin_1,NZ_CP084833.1,110305,402674
GCF_020525965.1_ASM2052596v1,GCF_020525965.1_ASM2052596v1_bin_1,NZ_CP084835.1,4681,402674
GCF_020525965.1_ASM2052596v1,GCF_020525965.1_ASM2052596v1_bin_1,NZ_CP084839.1,5760,402674
GCF_020525965.1_ASM2052596v1,GCF_020525965.1_ASM2052596v1_bin_1,NZ_CP084838.1,3664,402674
GCF_020525965.1_ASM2052596v1,GCF_020525965.1_ASM2052596v1_bin_1,NZ_CP084840.1,5775,402674
GCF_020525965.1_ASM2052596v1,GCF_020525965.1_ASM2052596v1_bin_1,NZ_CP084842.1,2350,402674
GCF_002852785.2_ASM285278v2,GCF_002852785.2_ASM285278v2_bin_1,NZ_CP043359.1,137628,255728
GCF_002852785.2_ASM285278v2,GCF_002852785.2_ASM285278v2_bin_1,NZ_CP043358.1,132519,255728
GCF_002852785.2_ASM285278v2,GCF_002852785.2_ASM285278v2_bin_1,NZ_CP043357.1,16422,255728
GCF_002852785.2_ASM285278v2,GCF_002852785.2_ASM285278v2_bin_3,NZ_CP043361.1,5596,5596
GCF_002852785.2_ASM285278v2,GCF_002852785.2_ASM285278v2_bin_2,NZ_CP043360.1,10060,10060
GCF_013730675.1_ASM1373067v1,GCF_013730675.1_ASM1373067v1_bin_1,NZ_CP056298.1,103697,103697
GCF_904863195.1_INF133,GCF_904863195.1_INF133_bin_3,NZ_LR890195.1,3619,3619
GCF_904863195.1_INF133,GCF_904863195.1_INF133_bin_4,NZ_LR890197.1,3223,3223
GCF_904863195.1_INF133,GCF_904863195.1_INF133_bin_1,NZ_LR890193.1,110089,518779
GCF_904863195.1_INF133,GCF_904863195.1_INF133_bin_1,NZ_LR890192.1,215296,518779
GCF_904863195.1_INF133,GCF_904863195.1_INF133_bin_1,NZ_LR890191.1,206689,518779
GCF_904863195.1_INF133,GCF_904863195.1_INF133_bin_1,NZ_LR890189.1,3195,518779
GCF_904863195.1_INF133,GCF_904863195.1_INF133_bin_2,NZ_LR890194.1,4064,4064
GCF_904863195.1_INF133,GCF_904863195.1_INF133_bin_5,NZ_LR890190.1,1879,1916
GCF_013611495.1_ASM1361149v1,GCF_013611495.1_ASM1361149v1_bin_3,NZ_CP055515.1,2775,2799
GCF_013611495.1_ASM1361149v1,GCF_013611495.1_ASM1361149v1_bin_5,NZ_CP055516.1,1919,1919
GCF_013611495.1_ASM1361149v1,GCF_013611495.1_ASM1361149v1_bin_2,NZ_CP055514.1,3970,4056
GCF_013611495.1_ASM1361149v1,GCF_013611495.1_ASM1361149v1_bin_1,NZ_CP055510.1,292605,467970
GCF_013611495.1_ASM1361149v1,GCF_013611495.1_ASM1361149v1_bin_1,NZ_CP055509.1,39507,467970
GCF_013611495.1_ASM1361149v1,GCF_013611495.1_ASM1361149v1_bin_1,NZ_CP055512.1,84628,467970
GCF_013611495.1_ASM1361149v1,GCF_013611495.1_ASM1361149v1_bin_1,NZ_CP055511.1,114495,467970
GCF_013611495.1_ASM1361149v1,GCF_013611495.1_ASM1361149v1_bin_4,NZ_CP055513.1,35237,35237
GCF_014168575.1_ASM1416857v1,GCF_014168575.1_ASM1416857v1_bin_1,NZ_AP021910.1,134521,208492
GCF_014168575.1_ASM1416857v1,GCF_014168575.1_ASM1416857v1_bin_1,NZ_AP021911.1,72259,208492
GCF_014168575.1_ASM1416857v1,GCF_014168575.1_ASM1416857v1_bin_1,NZ_AP021909.1,1006,208492
GCF_014168575.1_ASM1416857v1,GCF_014168575.1_ASM1416857v1_bin_3,NZ_AP021913.1,4163,4163
GCF_014168575.1_ASM1416857v1,GCF_014168575.1_ASM1416857v1_bin_2,NZ_AP021912.1,4572,4572
GCF_016904415.1_ASM1690441v1,GCF_016904415.1_ASM1690441v1_bin_2,NZ_CP070109.1,4149,11066
GCF_016904415.1_ASM1690441v1,GCF_016904415.1_ASM1690441v1_bin_3,no_correct_alignments,0,0
GCF_016904415.1_ASM1690441v1,GCF_016904415.1_ASM1690441v1_bin_4,no_correct_alignments,0,0
GCF_016904415.1_ASM1690441v1,GCF_016904415.1_ASM1690441v1_bin_1,NZ_CP070110.1,77186,220231
GCF_016904415.1_ASM1690441v1,GCF_016904415.1_ASM1690441v1_bin_1,NZ_CP070108.1,145890,220231
GCF_016904415.1_ASM1690441v1,GCF_016904415.1_ASM1690441v1_bin_1,NZ_CP070105.1,19095,220231
GCF_016904415.1_ASM1690441v1,GCF_016904415.1_ASM1690441v1_bin_1,NZ_CP070106.1,1637,220231
GCF_020526005.1_ASM2052600v1,GCF_020526005.1_ASM2052600v1_bin_2,NZ_CP084854.1,110871,110871
GCF_020526005.1_ASM2052600v1,GCF_020526005.1_ASM2052600v1_bin_1,NZ_CP084853.1,177879,176736
GCF_020526005.1_ASM2052600v1,GCF_020526005.1_ASM2052600v1_bin_1,NZ_CP084852.1,1647,176736
GCF_014169335.1_ASM1416933v1,GCF_014169335.1_ASM1416933v1_bin_Unbinned,NZ_AP022139.1,3199,3199
GCF_014169335.1_ASM1416933v1,GCF_014169335.1_ASM1416933v1_bin_1,NZ_AP022140.1,83914,84024
GCF_014169335.1_ASM1416933v1,GCF_014169335.1_ASM1416933v1_bin_2,NZ_AP022141.1,3852,3852
GCF_014169335.1_ASM1416933v1,GCF_014169335.1_ASM1416933v1_bin_3,no_correct_alignments,0,0
GCF_016629585.1_ASM1662958v1,GCF_016629585.1_ASM1662958v1_bin_3,NZ_AP024174.1,133533,161427
GCF_016629585.1_ASM1662958v1,GCF_016629585.1_ASM1662958v1_bin_3,NZ_AP024175.1,42095,161427
GCF_016629585.1_ASM1662958v1,GCF_016629585.1_ASM1662958v1_bin_3,NZ_AP024177.1,2458,161427
GCF_016629585.1_ASM1662958v1,GCF_016629585.1_ASM1662958v1_bin_3,NZ_AP024173.1,6956,161427
GCF_016629585.1_ASM1662958v1,GCF_016629585.1_ASM1662958v1_bin_Isolated_1,NZ_AP024175.1,14830,14830
GCF_016629585.1_ASM1662958v1,GCF_016629585.1_ASM1662958v1_bin_4,NZ_AP024180.1,2966,9004
GCF_016629585.1_ASM1662958v1,GCF_016629585.1_ASM1662958v1_bin_4,NZ_AP024178.1,5783,9004
GCF_016629585.1_ASM1662958v1,GCF_016629585.1_ASM1662958v1_bin_1,NZ_AP024174.1,56602,87170
GCF_016629585.1_ASM1662958v1,GCF_016629585.1_ASM1662958v1_bin_1,NZ_AP024175.1,42140,87170
GCF_016629585.1_ASM1662958v1,GCF_016629585.1_ASM1662958v1_bin_1,NZ_AP024173.1,2396,87170
GCF_016629585.1_ASM1662958v1,GCF_016629585.1_ASM1662958v1_bin_Isolated_2,NZ_AP024174.1,9187,9187
GCF_016629585.1_ASM1662958v1,GCF_016629585.1_ASM1662958v1_bin_Unbinned,NZ_AP024174.1,10366,12217
GCF_016629585.1_ASM1662958v1,GCF_016629585.1_ASM1662958v1_bin_Unbinned,NZ_AP024179.1,1851,12217
GCF_016629585.1_ASM1662958v1,GCF_016629585.1_ASM1662958v1_bin_5,NZ_AP024176.1,110494,110494
GCF_016629585.1_ASM1662958v1,GCF_016629585.1_ASM1662958v1_bin_2,NZ_AP024177.1,63624,63626
GCF_016629585.1_ASM1662958v1,GCF_016629585.1_ASM1662958v1_bin_2,NZ_AP024175.1,2458,63626
GCF_016904315.1_ASM1690431v1,GCF_016904315.1_ASM1690431v1_bin_1,NZ_CP070093.1,194632,195413
GCF_016904315.1_ASM1690431v1,GCF_016904315.1_ASM1690431v1_bin_2,NZ_CP070094.1,4071,4071
GCF_021057265.1_ASM2105726v1,GCF_021057265.1_ASM2105726v1_bin_3,no_correct_alignments,0,0
GCF_021057265.1_ASM2105726v1,GCF_021057265.1_ASM2105726v1_bin_2,no_correct_alignments,0,0
GCF_021057265.1_ASM2105726v1,GCF_021057265.1_ASM2105726v1_bin_1,NZ_CP084985.1,365926,358754
GCF_021057265.1_ASM2105726v1,GCF_021057265.1_ASM2105726v1_bin_1,NZ_CP084984.1,12438,358754
GCF_021057265.1_ASM2105726v1,GCF_021057265.1_ASM2105726v1_bin_Unbinned,no_correct_alignments,0,0
GCF_014170935.1_ASM1417093v1,GCF_014170935.1_ASM1417093v1_bin_3,no_correct_alignments,0,0
GCF_014170935.1_ASM1417093v1,GCF_014170935.1_ASM1417093v1_bin_Isolated_2,NZ_AP022081.1,2371,2371
GCF_014170935.1_ASM1417093v1,GCF_014170935.1_ASM1417093v1_bin_Isolated_1,NZ_AP022082.1,41084,41084
GCF_014170935.1_ASM1417093v1,GCF_014170935.1_ASM1417093v1_bin_2,NZ_AP022083.1,3768,3768
GCF_014170935.1_ASM1417093v1,GCF_014170935.1_ASM1417093v1_bin_1,NZ_AP022080.1,168049,396602
GCF_014170935.1_ASM1417093v1,GCF_014170935.1_ASM1417093v1_bin_1,NZ_AP022078.1,8024,396602
GCF_014170935.1_ASM1417093v1,GCF_014170935.1_ASM1417093v1_bin_1,NZ_AP022079.1,201730,396602
GCF_014170935.1_ASM1417093v1,GCF_014170935.1_ASM1417093v1_bin_1,NZ_AP022081.1,38079,396602
GCF_014170935.1_ASM1417093v1,GCF_014170935.1_ASM1417093v1_bin_Unbinned,NZ_AP022081.1,4363,4363
GCF_016904035.1_ASM1690403v1,GCF_016904035.1_ASM1690403v1_bin_2,NZ_CP070039.1,87673,90337
GCF_016904035.1_ASM1690403v1,GCF_016904035.1_ASM1690403v1_bin_2,NZ_CP070038.1,7347,90337
GCF_016904035.1_ASM1690403v1,GCF_016904035.1_ASM1690403v1_bin_4,NZ_CP070040.1,1917,1917
GCF_016904035.1_ASM1690403v1,GCF_016904035.1_ASM1690403v1_bin_1,NZ_CP070038.1,142535,133406
GCF_016904035.1_ASM1690403v1,GCF_016904035.1_ASM1690403v1_bin_1,NZ_CP070039.1,2454,133406
GCF_016904035.1_ASM1690403v1,GCF_016904035.1_ASM1690403v1_bin_3,NZ_CP070038.1,3100,3100
GCF_020149825.1_ASM2014982v1,GCF_020149825.1_ASM2014982v1_bin_1,NZ_CP083786.1,37960,38071
GCF_020149825.1_ASM2014982v1,GCF_020149825.1_ASM2014982v1_bin_3,NZ_CP083789.1,4268,4268
GCF_020149825.1_ASM2014982v1,GCF_020149825.1_ASM2014982v1_bin_2,NZ_CP083788.1,4408,4616
GCF_020149825.1_ASM2014982v1,GCF_020149825.1_ASM2014982v1_bin_Isolated_1,NZ_CP083785.1,41212,41212
GCF_003261955.3_ASM326195v3,GCF_003261955.3_ASM326195v3_bin_1,NZ_CP033394.2,68698,116371
GCF_003261955.3_ASM326195v3,GCF_003261955.3_ASM326195v3_bin_1,NZ_CP033395.2,20876,116371
GCF_003261955.3_ASM326195v3,GCF_003261955.3_ASM326195v3_bin_1,NZ_CP033396.2,5634,116371
GCF_003261955.3_ASM326195v3,GCF_003261955.3_ASM326195v3_bin_3,NZ_CP033393.2,5423,5596
GCF_003261955.3_ASM326195v3,GCF_003261955.3_ASM326195v3_bin_Unbinned,NZ_CP033392.2,8026,8026
GCF_003261955.3_ASM326195v3,GCF_003261955.3_ASM326195v3_bin_2,NZ_CP033395.2,30453,32992
GCF_003261955.3_ASM326195v3,GCF_003261955.3_ASM326195v3_bin_2,NZ_CP033394.2,2539,32992
GCF_003261955.3_ASM326195v3,GCF_003261955.3_ASM326195v3_bin_2,NZ_CP033396.2,13244,32992
GCF_016903795.1_ASM1690379v1,GCF_016903795.1_ASM1690379v1_bin_1,NZ_CP069969.1,196073,231526
GCF_016903795.1_ASM1690379v1,GCF_016903795.1_ASM1690379v1_bin_1,NZ_CP069967.1,38022,231526
GCF_016903795.1_ASM1690379v1,GCF_016903795.1_ASM1690379v1_bin_1,NZ_CP069968.1,1286,231526
GCF_016903955.1_ASM1690395v1,GCF_016903955.1_ASM1690395v1_bin_1,NZ_CP070016.1,211770,204094
GCF_016903955.1_ASM1690395v1,GCF_016903955.1_ASM1690395v1_bin_1,NZ_CP070015.1,5853,204094
GCF_016903955.1_ASM1690395v1,GCF_016903955.1_ASM1690395v1_bin_2,NZ_CP070017.1,5627,5627
GCF_013834745.1_ASM1383474v1,GCF_013834745.1_ASM1383474v1_bin_2,NZ_CP057461.1,4671,4671
GCF_013834745.1_ASM1383474v1,GCF_013834745.1_ASM1383474v1_bin_3,NZ_CP057462.1,3959,3959
GCF_013834745.1_ASM1383474v1,GCF_013834745.1_ASM1383474v1_bin_1,NZ_CP057460.1,232958,228023
GCF_021655435.1_ASM2165543v1,GCF_021655435.1_ASM2165543v1_bin_1,NZ_AP024569.1,214071,211405
GCF_021655435.1_ASM2165543v1,GCF_021655435.1_ASM2165543v1_bin_1,NZ_AP024568.1,2860,211405
GCF_020525865.1_ASM2052586v1,GCF_020525865.1_ASM2052586v1_bin_1,NZ_CP084824.1,191237,188132
GCF_020525865.1_ASM2052586v1,GCF_020525865.1_ASM2052586v1_bin_1,NZ_CP084823.1,5280,188132
GCF_020525865.1_ASM2052586v1,GCF_020525865.1_ASM2052586v1_bin_2,no_correct_alignments,0,0
GCF_904863135.1_INF310,GCF_904863135.1_INF310_bin_2,NZ_LR890255.1,142896,267294
GCF_904863135.1_INF310,GCF_904863135.1_INF310_bin_2,NZ_LR890256.1,125729,267294
GCF_904863135.1_INF310,GCF_904863135.1_INF310_bin_2,NZ_LR890254.1,8115,267294
GCF_904863135.1_INF310,GCF_904863135.1_INF310_bin_2,NZ_LR890259.1,2396,267294
GCF_904863135.1_INF310,GCF_904863135.1_INF310_bin_Isolated_1,NZ_LR890260.1,53920,53945
GCF_904863135.1_INF310,GCF_904863135.1_INF310_bin_4,NZ_LR890261.1,9294,9294
GCF_904863135.1_INF310,GCF_904863135.1_INF310_bin_3,NZ_LR890257.1,111123,111123
GCF_904863135.1_INF310,GCF_904863135.1_INF310_bin_1,NZ_LR890258.1,69066,131559
GCF_904863135.1_INF310,GCF_904863135.1_INF310_bin_1,NZ_LR890259.1,63691,131559
GCF_904863135.1_INF310,GCF_904863135.1_INF310_bin_1,NZ_LR890256.1,1198,131559
GCF_013782105.1_ASM1378210v1,GCF_013782105.1_ASM1378210v1_bin_5,NZ_CP056197.1,2426,2426
GCF_013782105.1_ASM1378210v1,GCF_013782105.1_ASM1378210v1_bin_3,NZ_CP056195.1,14959,14959
GCF_013782105.1_ASM1378210v1,GCF_013782105.1_ASM1378210v1_bin_6,NZ_CP056198.1,1917,1917
GCF_013782105.1_ASM1378210v1,GCF_013782105.1_ASM1378210v1_bin_4,NZ_CP056196.1,5783,5783
GCF_013782105.1_ASM1378210v1,GCF_013782105.1_ASM1378210v1_bin_2,NZ_CP056192.1,201819,254141
GCF_013782105.1_ASM1378210v1,GCF_013782105.1_ASM1378210v1_bin_2,NZ_CP056193.1,58791,254141
GCF_013782105.1_ASM1378210v1,GCF_013782105.1_ASM1378210v1_bin_2,NZ_CP056191.1,18079,254141
GCF_013782105.1_ASM1378210v1,GCF_013782105.1_ASM1378210v1_bin_2,NZ_CP056194.1,4492,254141
GCF_013782105.1_ASM1378210v1,GCF_013782105.1_ASM1378210v1_bin_1,NZ_CP056194.1,51954,51954
GCF_013782105.1_ASM1378210v1,GCF_013782105.1_ASM1378210v1_bin_1,NZ_CP056192.1,4492,51954
GCF_013736155.1_ASM1373615v1,GCF_013736155.1_ASM1373615v1_bin_4,NZ_CP056439.1,3514,3514
GCF_013736155.1_ASM1373615v1,GCF_013736155.1_ASM1373615v1_bin_3,NZ_CP056438.1,5726,5907
GCF_013736155.1_ASM1373615v1,GCF_013736155.1_ASM1373615v1_bin_2,NZ_CP056436.1,107037,107037
GCF_013736155.1_ASM1373615v1,GCF_013736155.1_ASM1373615v1_bin_1,NZ_CP056434.1,91770,378146
GCF_013736155.1_ASM1373615v1,GCF_013736155.1_ASM1373615v1_bin_1,NZ_CP056435.1,116142,378146
GCF_013736155.1_ASM1373615v1,GCF_013736155.1_ASM1373615v1_bin_1,NZ_CP056432.1,8018,378146
GCF_013736155.1_ASM1373615v1,GCF_013736155.1_ASM1373615v1_bin_1,NZ_CP056433.1,170690,378146
GCF_013736155.1_ASM1373615v1,GCF_013736155.1_ASM1373615v1_bin_1,NZ_CP056437.1,35977,378146
GCF_013736155.1_ASM1373615v1,GCF_013736155.1_ASM1373615v1_bin_5,NZ_CP056440.1,1763,1917
GCF_016904295.1_ASM1690429v1,GCF_016904295.1_ASM1690429v1_bin_1,NZ_CP070089.1,205900,204843
GCF_016904295.1_ASM1690429v1,GCF_016904295.1_ASM1690429v1_bin_3,NZ_CP070091.1,4000,4000
GCF_016904295.1_ASM1690429v1,GCF_016904295.1_ASM1690429v1_bin_2,NZ_CP070091.1,4832,4832
GCF_016904295.1_ASM1690429v1,GCF_016904295.1_ASM1690429v1_bin_4,no_correct_alignments,0,0
GCF_904863395.1_INF250,GCF_904863395.1_INF250_bin_1,NZ_LR890375.1,200719,198471
GCF_904863395.1_INF250,GCF_904863395.1_INF250_bin_1,NZ_LR890376.1,3102,198471
GCF_904863395.1_INF250,GCF_904863395.1_INF250_bin_1,NZ_LR890374.1,2409,198471
GCF_904863395.1_INF250,GCF_904863395.1_INF250_bin_4,NZ_LR890379.1,3223,3223
GCF_904863395.1_INF250,GCF_904863395.1_INF250_bin_2,NZ_LR890376.1,64594,66977
GCF_904863395.1_INF250,GCF_904863395.1_INF250_bin_2,NZ_LR890375.1,11163,66977
GCF_904863395.1_INF250,GCF_904863395.1_INF250_bin_2,NZ_LR890374.1,2454,66977
GCF_904863395.1_INF250,GCF_904863395.1_INF250_bin_Unbinned,NZ_LR890377.1,2402,2402
GCF_904863395.1_INF250,GCF_904863395.1_INF250_bin_3,NZ_LR890378.1,3514,3514
GCF_904863395.1_INF250,GCF_904863395.1_INF250_bin_5,NZ_LR890380.1,2723,2723
GCF_019798185.1_ASM1979818v1,GCF_019798185.1_ASM1979818v1_bin_6,NZ_CP073795.1,5463,5463
GCF_019798185.1_ASM1979818v1,GCF_019798185.1_ASM1979818v1_bin_4,NZ_CP073792.1,145422,145423
GCF_019798185.1_ASM1979818v1,GCF_019798185.1_ASM1979818v1_bin_3,NZ_CP073793.1,33410,32024
GCF_019798185.1_ASM1979818v1,GCF_019798185.1_ASM1979818v1_bin_3,NZ_CP073791.1,5466,32024
GCF_019798185.1_ASM1979818v1,GCF_019798185.1_ASM1979818v1_bin_7,NZ_CP073796.1,4947,4947
GCF_019798185.1_ASM1979818v1,GCF_019798185.1_ASM1979818v1_bin_2,NZ_CP073793.1,8960,8960
GCF_019798185.1_ASM1979818v1,GCF_019798185.1_ASM1979818v1_bin_5,NZ_CP073794.1,8801,8801
GCF_019798185.1_ASM1979818v1,GCF_019798185.1_ASM1979818v1_bin_1,NZ_CP073793.1,31615,30229
GCF_013826045.1_ASM1382604v1,GCF_013826045.1_ASM1382604v1_bin_3,NZ_CP057318.1,43813,43813
GCF_013826045.1_ASM1382604v1,GCF_013826045.1_ASM1382604v1_bin_2,NZ_CP057315.1,142729,140281
GCF_013826045.1_ASM1382604v1,GCF_013826045.1_ASM1382604v1_bin_Unbinned,NZ_CP057317.1,30064,30064
GCF_013826045.1_ASM1382604v1,GCF_013826045.1_ASM1382604v1_bin_1,NZ_CP057314.1,192170,302887
GCF_013826045.1_ASM1382604v1,GCF_013826045.1_ASM1382604v1_bin_1,NZ_CP057316.1,109658,302887
GCF_013796485.1_ASM1379648v1,GCF_013796485.1_ASM1379648v1_bin_3,NZ_CP056884.1,176952,174800
GCF_013796485.1_ASM1379648v1,GCF_013796485.1_ASM1379648v1_bin_3,NZ_CP056883.1,1198,174800
GCF_013796485.1_ASM1379648v1,GCF_013796485.1_ASM1379648v1_bin_5,NZ_CP056887.1,3980,3980
GCF_013796485.1_ASM1379648v1,GCF_013796485.1_ASM1379648v1_bin_4,NZ_CP056886.1,4512,4512
GCF_013796485.1_ASM1379648v1,GCF_013796485.1_ASM1379648v1_bin_1,NZ_CP056885.1,86498,86829
GCF_013796485.1_ASM1379648v1,GCF_013796485.1_ASM1379648v1_bin_2,NZ_CP056885.1,13827,13827
GCF_013796485.1_ASM1379648v1,GCF_013796485.1_ASM1379648v1_bin_2,NZ_CP056883.1,4182,13827
GCF_904864465.1_INF298,GCF_904864465.1_INF298_bin_2,NZ_LR890429.1,111123,111123
GCF_904864465.1_INF298,GCF_904864465.1_INF298_bin_Isolated_1,NZ_LR890432.1,53938,53943
GCF_904864465.1_INF298,GCF_904864465.1_INF298_bin_1,NZ_LR890427.1,143952,395110
GCF_904864465.1_INF298,GCF_904864465.1_INF298_bin_1,NZ_LR890430.1,68790,395110
GCF_904864465.1_INF298,GCF_904864465.1_INF298_bin_1,NZ_LR890428.1,122400,395110
GCF_904864465.1_INF298,GCF_904864465.1_INF298_bin_1,NZ_LR890431.1,63549,395110
GCF_904864465.1_INF298,GCF_904864465.1_INF298_bin_1,NZ_LR890426.1,5099,395110
GCF_904864465.1_INF298,GCF_904864465.1_INF298_bin_3,NZ_LR890433.1,9294,9294
GCF_904866335.1_INF266,GCF_904866335.1_INF266_bin_1,NZ_LR890649.1,134258,134258
GCF_904866335.1_INF266,GCF_904866335.1_INF266_bin_1,NZ_LR890650.1,5810,134258
GCF_904866335.1_INF266,GCF_904866335.1_INF266_bin_1,NZ_LR890648.1,3372,134258
GCF_904866335.1_INF266,GCF_904866335.1_INF266_bin_2,NZ_LR890650.1,62943,61849
GCF_904866335.1_INF266,GCF_904866335.1_INF266_bin_2,NZ_LR890649.1,3372,61849
GCF_904866335.1_INF266,GCF_904866335.1_INF266_bin_2,NZ_LR890648.1,5760,61849
GCF_904866375.1_INF242,GCF_904866375.1_INF242_bin_2,NZ_LR890626.1,5074,5251
GCF_904866375.1_INF242,GCF_904866375.1_INF242_bin_1,NZ_LR890625.1,223932,220726
GCF_013704985.1_ASM1370498v1,GCF_013704985.1_ASM1370498v1_bin_2,NZ_CP055451.1,3999,73304
GCF_013704985.1_ASM1370498v1,GCF_013704985.1_ASM1370498v1_bin_2,NZ_CP055452.1,73304,73304
GCF_013704985.1_ASM1370498v1,GCF_013704985.1_ASM1370498v1_bin_7,NZ_CP055454.1,38470,38470
GCF_013704985.1_ASM1370498v1,GCF_013704985.1_ASM1370498v1_bin_4,NZ_CP055451.1,2378,86106
GCF_013704985.1_ASM1370498v1,GCF_013704985.1_ASM1370498v1_bin_4,NZ_CP055452.1,88268,86106
GCF_013704985.1_ASM1370498v1,GCF_013704985.1_ASM1370498v1_bin_8,NZ_CP055457.1,2988,2988
GCF_013704985.1_ASM1370498v1,GCF_013704985.1_ASM1370498v1_bin_1,NZ_CP055453.1,41042,42978
GCF_013704985.1_ASM1370498v1,GCF_013704985.1_ASM1370498v1_bin_5,NZ_CP055455.1,3155,3193
GCF_013704985.1_ASM1370498v1,GCF_013704985.1_ASM1370498v1_bin_3,NZ_CP055452.1,45143,45143
GCF_013704985.1_ASM1370498v1,GCF_013704985.1_ASM1370498v1_bin_6,NZ_CP055456.1,3100,3142
GCF_904866425.1_INF065,GCF_904866425.1_INF065_bin_1,NZ_LR890666.1,188925,188925
GCF_904866425.1_INF065,GCF_904866425.1_INF065_bin_2,NZ_LR890667.1,5825,5825
GCF_904866425.1_INF065,GCF_904866425.1_INF065_bin_3,NZ_LR890668.1,5542,5542
GCF_003937135.2_ASM393713v2,GCF_003937135.2_ASM393713v2_bin_3,NZ_CP078036.1,65960,270518
GCF_003937135.2_ASM393713v2,GCF_003937135.2_ASM393713v2_bin_3,NZ_CP078034.1,217382,270518
GCF_003937135.2_ASM393713v2,GCF_003937135.2_ASM393713v2_bin_3,NZ_CP078033.1,29992,270518
GCF_003937135.2_ASM393713v2,GCF_003937135.2_ASM393713v2_bin_3,NZ_CP078035.1,2938,270518
GCF_003937135.2_ASM393713v2,GCF_003937135.2_ASM393713v2_bin_2,NZ_CP078035.1,101952,138774
GCF_003937135.2_ASM393713v2,GCF_003937135.2_ASM393713v2_bin_2,NZ_CP078034.1,46550,138774
GCF_003937135.2_ASM393713v2,GCF_003937135.2_ASM393713v2_bin_2,NZ_CP078033.1,26754,138774
GCF_003937135.2_ASM393713v2,GCF_003937135.2_ASM393713v2_bin_2,NZ_CP078036.1,2961,138774
GCF_003937135.2_ASM393713v2,GCF_003937135.2_ASM393713v2_bin_1,NZ_CP078034.1,52593,58751
GCF_003937135.2_ASM393713v2,GCF_003937135.2_ASM393713v2_bin_1,NZ_CP078037.1,5997,58751
GCF_003937135.2_ASM393713v2,GCF_003937135.2_ASM393713v2_bin_1,NZ_CP078033.1,4504,58751
GCF_020149875.1_ASM2014987v1,GCF_020149875.1_ASM2014987v1_bin_Unbinned,NZ_CP083778.1,32381,32381
GCF_020149875.1_ASM2014987v1,GCF_020149875.1_ASM2014987v1_bin_3,NZ_CP083779.1,5521,5521
GCF_020149875.1_ASM2014987v1,GCF_020149875.1_ASM2014987v1_bin_5,NZ_CP083781.1,3594,3643
GCF_020149875.1_ASM2014987v1,GCF_020149875.1_ASM2014987v1_bin_6,NZ_CP083782.1,3549,3549
GCF_020149875.1_ASM2014987v1,GCF_020149875.1_ASM2014987v1_bin_2,NZ_CP083776.1,33329,33330
GCF_020149875.1_ASM2014987v1,GCF_020149875.1_ASM2014987v1_bin_7,NZ_CP083783.1,2892,2892
GCF_020149875.1_ASM2014987v1,GCF_020149875.1_ASM2014987v1_bin_1,NZ_CP083775.1,44434,253636
GCF_020149875.1_ASM2014987v1,GCF_020149875.1_ASM2014987v1_bin_1,NZ_CP083776.1,187587,253636
GCF_020149875.1_ASM2014987v1,GCF_020149875.1_ASM2014987v1_bin_1,NZ_CP083777.1,68891,253636
GCF_020149875.1_ASM2014987v1,GCF_020149875.1_ASM2014987v1_bin_4,NZ_CP083780.1,4740,4740
GCF_021166235.1_ASM2116623v1,GCF_021166235.1_ASM2116623v1_bin_3,NZ_CP089027.1,61604,64403
GCF_021166235.1_ASM2116623v1,GCF_021166235.1_ASM2116623v1_bin_3,NZ_CP089030.1,3908,64403
GCF_021166235.1_ASM2116623v1,GCF_021166235.1_ASM2116623v1_bin_1,NZ_CP089030.1,218288,228499
GCF_021166235.1_ASM2116623v1,GCF_021166235.1_ASM2116623v1_bin_1,NZ_CP089029.1,6714,228499
GCF_021166235.1_ASM2116623v1,GCF_021166235.1_ASM2116623v1_bin_1,NZ_CP089024.1,4619,228499
GCF_021166235.1_ASM2116623v1,GCF_021166235.1_ASM2116623v1_bin_1,NZ_CP089028.1,3664,228499
GCF_021166235.1_ASM2116623v1,GCF_021166235.1_ASM2116623v1_bin_5,NZ_CP089029.1,39688,50315
GCF_021166235.1_ASM2116623v1,GCF_021166235.1_ASM2116623v1_bin_5,NZ_CP089028.1,14277,50315
GCF_021166235.1_ASM2116623v1,GCF_021166235.1_ASM2116623v1_bin_5,NZ_CP089030.1,1341,50315
GCF_021166235.1_ASM2116623v1,GCF_021166235.1_ASM2116623v1_bin_2,NZ_CP089029.1,48599,59909
GCF_021166235.1_ASM2116623v1,GCF_021166235.1_ASM2116623v1_bin_2,NZ_CP089028.1,36302,59909
GCF_021166235.1_ASM2116623v1,GCF_021166235.1_ASM2116623v1_bin_7,NZ_CP089025.1,3511,3511
GCF_021166235.1_ASM2116623v1,GCF_021166235.1_ASM2116623v1_bin_6,NZ_CP089026.1,3631,3631
GCF_021166235.1_ASM2116623v1,GCF_021166235.1_ASM2116623v1_bin_4,NZ_CP089028.1,34294,32401
GCF_021166235.1_ASM2116623v1,GCF_021166235.1_ASM2116623v1_bin_4,NZ_CP089029.1,8386,32401
GCF_021166235.1_ASM2116623v1,GCF_021166235.1_ASM2116623v1_bin_4,NZ_CP089024.1,9465,32401
GCF_016903775.1_ASM1690377v1,GCF_016903775.1_ASM1690377v1_bin_2,NZ_CP069965.1,5463,5463
GCF_016903775.1_ASM1690377v1,GCF_016903775.1_ASM1690377v1_bin_1,NZ_CP069964.1,224944,224944
GCF_016903775.1_ASM1690377v1,GCF_016903775.1_ASM1690377v1_bin_1,NZ_CP069962.1,1201,224944
GCF_904864595.1_INF333,GCF_904864595.1_INF333_bin_2,NZ_LR890386.1,3223,3223
GCF_904864595.1_INF333,GCF_904864595.1_INF333_bin_Unbinned,no_correct_alignments,0,0
GCF_904864595.1_INF333,GCF_904864595.1_INF333_bin_3,NZ_LR890387.1,1916,1916
GCF_904864595.1_INF333,GCF_904864595.1_INF333_bin_1,NZ_LR890385.1,219716,214973
GCF_904864595.1_INF333,GCF_904864595.1_INF333_bin_1,NZ_LR890384.1,2030,214973
GCF_021496545.1_ASM2149654v1,GCF_021496545.1_ASM2149654v1_bin_2,no_correct_alignments,0,0
GCF_021496545.1_ASM2149654v1,GCF_021496545.1_ASM2149654v1_bin_1,NZ_CP055293.1,22547,186745
GCF_016066025.1_ASM1606602v1,GCF_016066025.1_ASM1606602v1_bin_2,NZ_CP065827.1,110785,110785
GCF_016066025.1_ASM1606602v1,GCF_016066025.1_ASM1606602v1_bin_3,NZ_CP065828.1,4444,4444
GCF_016066025.1_ASM1606602v1,GCF_016066025.1_ASM1606602v1_bin_1,NZ_CP065826.1,203506,201114
GCF_016066025.1_ASM1606602v1,GCF_016066025.1_ASM1606602v1_bin_1,NZ_CP065825.1,14191,201114
GCF_016066025.1_ASM1606602v1,GCF_016066025.1_ASM1606602v1_bin_5,NZ_CP065830.1,3303,3303
GCF_016066025.1_ASM1606602v1,GCF_016066025.1_ASM1606602v1_bin_4,NZ_CP065829.1,3674,3674
GCF_016904095.1_ASM1690409v1,GCF_016904095.1_ASM1690409v1_bin_1,NZ_CP070047.1,197629,197629
GCF_904863075.1_INF334,GCF_904863075.1_INF334_bin_2,NZ_LR890237.1,112069,112069
GCF_904863075.1_INF334,GCF_904863075.1_INF334_bin_1,NZ_LR890236.1,166634,164223
GCF_904863075.1_INF334,GCF_904863075.1_INF334_bin_1,NZ_LR890235.1,1221,164223
GCF_904863075.1_INF334,GCF_904863075.1_INF334_bin_3,NZ_LR890239.1,3619,3619
GCF_021655495.1_ASM2165549v1,GCF_021655495.1_ASM2165549v1_bin_1,NZ_AP024578.1,33514,33514
GCF_021655495.1_ASM2165549v1,GCF_021655495.1_ASM2165549v1_bin_1,NZ_AP024577.1,35171,33514
GCF_021655495.1_ASM2165549v1,GCF_021655495.1_ASM2165549v1_bin_1,NZ_AP024576.1,4971,33514
GCF_021655495.1_ASM2165549v1,GCF_021655495.1_ASM2165549v1_bin_2,NZ_AP024577.1,180237,177571
GCF_021655495.1_ASM2165549v1,GCF_021655495.1_ASM2165549v1_bin_2,NZ_AP024576.1,6174,177571
GCF_021655495.1_ASM2165549v1,GCF_021655495.1_ASM2165549v1_bin_2,NZ_AP024578.1,1657,177571
GCF_904865745.1_INF247,GCF_904865745.1_INF247_bin_1,NZ_LR890563.1,141077,141077
GCF_020525645.1_ASM2052564v1,GCF_020525645.1_ASM2052564v1_bin_2,NZ_CP084858.1,4369,4369
GCF_020525645.1_ASM2052564v1,GCF_020525645.1_ASM2052564v1_bin_1,NZ_CP084857.1,167482,167482
GCF_904866315.1_INF346,GCF_904866315.1_INF346_bin_Isolated_1,NZ_LR890645.1,41212,41212
GCF_904866315.1_INF346,GCF_904866315.1_INF346_bin_3,NZ_LR890647.1,4616,4616
GCF_904866315.1_INF346,GCF_904866315.1_INF346_bin_1,NZ_LR890644.1,38056,38056
GCF_904866315.1_INF346,GCF_904866315.1_INF346_bin_2,NZ_LR890646.1,5542,5542
GCF_904865805.1_INF144,GCF_904865805.1_INF144_bin_1,NZ_LR890570.1,185388,185388
GCF_904863265.1_INF156,GCF_904863265.1_INF156_bin_1,NZ_LR890287.1,143214,140932
GCF_904864605.1_INF044,GCF_904864605.1_INF044_bin_3,NZ_LR890398.1,3559,3559
GCF_904864605.1_INF044,GCF_904864605.1_INF044_bin_2,NZ_LR890397.1,4411,4411
GCF_904864605.1_INF044,GCF_904864605.1_INF044_bin_1,NZ_LR890396.1,212175,212286
GCF_904864605.1_INF044,GCF_904864605.1_INF044_bin_1,NZ_LR890395.1,14772,212286
GCF_020525905.1_ASM2052590v1,GCF_020525905.1_ASM2052590v1_bin_1,NZ_CP084826.1,109041,109041
GCF_017894285.1_ASM1789428v1,GCF_017894285.1_ASM1789428v1_bin_1,NZ_CP058359.1,156169,171433
GCF_017894285.1_ASM1789428v1,GCF_017894285.1_ASM1789428v1_bin_1,NZ_CP058358.1,21989,171433
GCF_017894285.1_ASM1789428v1,GCF_017894285.1_ASM1789428v1_bin_1,NZ_CP058360.1,2754,171433
GCF_017894285.1_ASM1789428v1,GCF_017894285.1_ASM1789428v1_bin_Unbinned,NZ_CP058358.1,5967,5967
GCF_017894285.1_ASM1789428v1,GCF_017894285.1_ASM1789428v1_bin_2,NZ_CP058360.1,102185,100808
GCF_017894285.1_ASM1789428v1,GCF_017894285.1_ASM1789428v1_bin_2,NZ_CP058358.1,4950,100808
GCF_017894285.1_ASM1789428v1,GCF_017894285.1_ASM1789428v1_bin_2,NZ_CP058359.1,4950,100808
GCF_016066295.1_ASM1606629v1,GCF_016066295.1_ASM1606629v1_bin_1,NZ_CP065832.1,198141,198141
GCF_904863125.1_INF357,GCF_904863125.1_INF357_bin_3,NZ_LR890219.1,4938,4938
GCF_904863125.1_INF357,GCF_904863125.1_INF357_bin_2,NZ_LR890218.1,123845,123871
GCF_904863125.1_INF357,GCF_904863125.1_INF357_bin_2,NZ_LR890217.1,1096,123871
GCF_904863125.1_INF357,GCF_904863125.1_INF357_bin_1,NZ_LR890220.1,3539,6708
GCF_904863125.1_INF357,GCF_904863125.1_INF357_bin_1,NZ_LR890221.1,3169,6708
GCF_904863125.1_INF357,GCF_904863125.1_INF357_bin_Unbinned,NZ_LR890222.1,3392,3392
GCF_904863125.1_INF357,GCF_904863125.1_INF357_bin_4,NZ_LR890223.1,3302,3302
GCF_904863125.1_INF357,GCF_904863125.1_INF357_bin_5,NZ_LR890224.1,2892,2892
GCF_013783245.1_ASM1378324v1,GCF_013783245.1_ASM1378324v1_bin_2,NZ_CP056218.1,4805,4805
GCF_013783245.1_ASM1378324v1,GCF_013783245.1_ASM1378324v1_bin_1,NZ_CP056217.1,144699,144699
GCF_014170015.1_ASM1417001v1,GCF_014170015.1_ASM1417001v1_bin_Isolated_2,NZ_CP054287.1,1059,8297
GCF_014170015.1_ASM1417001v1,GCF_014170015.1_ASM1417001v1_bin_Isolated_2,NZ_CP054286.1,7238,8297
GCF_014170015.1_ASM1417001v1,GCF_014170015.1_ASM1417001v1_bin_1,NZ_CP054286.1,141927,285327
GCF_014170015.1_ASM1417001v1,GCF_014170015.1_ASM1417001v1_bin_1,NZ_CP054287.1,104151,285327
GCF_014170015.1_ASM1417001v1,GCF_014170015.1_ASM1417001v1_bin_1,NZ_CP054288.1,41501,285327
GCF_014170015.1_ASM1417001v1,GCF_014170015.1_ASM1417001v1_bin_Isolated_1,NZ_CP054287.1,27570,27570
GCF_020149895.1_ASM2014989v1,GCF_020149895.1_ASM2014989v1_bin_1,NZ_CP083769.1,235817,259442
GCF_020149895.1_ASM2014989v1,GCF_020149895.1_ASM2014989v1_bin_1,NZ_CP083768.1,203848,259442
GCF_020149895.1_ASM2014989v1,GCF_020149895.1_ASM2014989v1_bin_Isolated_1,NZ_CP083770.1,32395,32395
GCF_020149895.1_ASM2014989v1,GCF_020149895.1_ASM2014989v1_bin_3,NZ_CP083772.1,5214,5214
GCF_020149895.1_ASM2014989v1,GCF_020149895.1_ASM2014989v1_bin_2,NZ_CP083771.1,6352,6352
GCF_020525845.1_ASM2052584v1,GCF_020525845.1_ASM2052584v1_bin_3,NZ_CP084865.1,2160,2160
GCF_020525845.1_ASM2052584v1,GCF_020525845.1_ASM2052584v1_bin_4,NZ_CP084863.1,3557,3629
GCF_020525845.1_ASM2052584v1,GCF_020525845.1_ASM2052584v1_bin_2,NZ_CP084864.1,3202,3202
GCF_020525845.1_ASM2052584v1,GCF_020525845.1_ASM2052584v1_bin_1,NZ_CP084861.1,208630,254974
GCF_020525845.1_ASM2052584v1,GCF_020525845.1_ASM2052584v1_bin_1,NZ_CP084862.1,53575,254974
GCF_020525845.1_ASM2052584v1,GCF_020525845.1_ASM2052584v1_bin_1,NZ_CP084860.1,11816,254974
GCF_904863355.1_INF148,GCF_904863355.1_INF148_bin_2,NZ_LR890382.1,4064,4064
GCF_904863355.1_INF148,GCF_904863355.1_INF148_bin_3,NZ_LR890383.1,3223,3223
GCF_904863355.1_INF148,GCF_904863355.1_INF148_bin_1,NZ_LR890381.1,208050,202602
GCF_904866415.1_INF201,GCF_904866415.1_INF201_bin_1,NZ_LR890687.1,157029,157029
GCF_904866415.1_INF201,GCF_904866415.1_INF201_bin_2,NZ_LR890688.1,4387,4387
GCF_904866415.1_INF201,GCF_904866415.1_INF201_bin_3,NZ_LR890689.1,4268,4268
GCF_904866415.1_INF201,GCF_904866415.1_INF201_bin_4,NZ_LR890690.1,2665,2665
GCF_016903735.1_ASM1690373v1,GCF_016903735.1_ASM1690373v1_bin_1,NZ_CP069948.1,80168,150427
GCF_016903735.1_ASM1690373v1,GCF_016903735.1_ASM1690373v1_bin_1,NZ_CP069947.1,83200,150427
GCF_016903735.1_ASM1690373v1,GCF_016903735.1_ASM1690373v1_bin_1,NZ_CP069946.1,5944,150427
GCF_016903735.1_ASM1690373v1,GCF_016903735.1_ASM1690373v1_bin_2,NZ_CP069949.1,4167,4167
GCF_904864475.1_INF168,GCF_904864475.1_INF168_bin_1,NZ_LR890472.1,175859,175859
GCF_904864475.1_INF168,GCF_904864475.1_INF168_bin_1,NZ_LR890471.1,2009,175859
GCF_012029695.2_ASM1202969v2,GCF_012029695.2_ASM1202969v2_bin_2,NZ_CP061395.1,9294,9294
GCF_012029695.2_ASM1202969v2,GCF_012029695.2_ASM1202969v2_bin_1,NZ_CP061391.1,112025,450891
GCF_012029695.2_ASM1202969v2,GCF_012029695.2_ASM1202969v2_bin_1,NZ_CP061390.1,175985,450891
GCF_012029695.2_ASM1202969v2,GCF_012029695.2_ASM1202969v2_bin_1,NZ_CP061392.1,71276,450891
GCF_012029695.2_ASM1202969v2,GCF_012029695.2_ASM1202969v2_bin_1,NZ_CP061393.1,61470,450891
GCF_012029695.2_ASM1202969v2,GCF_012029695.2_ASM1202969v2_bin_1,NZ_CP061394.1,41818,450891
GCF_012029695.2_ASM1202969v2,GCF_012029695.2_ASM1202969v2_bin_1,NZ_CP061389.1,2318,450891
GCF_015694085.1_ASM1569408v1,GCF_015694085.1_ASM1569408v1_bin_4,NZ_CP065171.1,2723,2723
GCF_015694085.1_ASM1569408v1,GCF_015694085.1_ASM1569408v1_bin_3,NZ_CP065170.1,3058,3223
GCF_015694085.1_ASM1569408v1,GCF_015694085.1_ASM1569408v1_bin_2,NZ_CP065169.1,3514,3514
GCF_015694085.1_ASM1569408v1,GCF_015694085.1_ASM1569408v1_bin_1,NZ_CP065168.1,210457,205714
GCF_904866255.1_INF223,GCF_904866255.1_INF223_bin_1,NZ_LR890597.1,58375,56213
GCF_904866255.1_INF223,GCF_904866255.1_INF223_bin_2,NZ_LR890596.1,229120,226837
GCF_020525985.1_ASM2052598v1,GCF_020525985.1_ASM2052598v1_bin_4,no_correct_alignments,0,0
GCF_020525985.1_ASM2052598v1,GCF_020525985.1_ASM2052598v1_bin_5,NZ_CP084850.1,4018,4018
GCF_020525985.1_ASM2052598v1,GCF_020525985.1_ASM2052598v1_bin_3,NZ_CP084846.1,25458,77095
GCF_020525985.1_ASM2052598v1,GCF_020525985.1_ASM2052598v1_bin_3,NZ_CP084847.1,31013,77095
GCF_020525985.1_ASM2052598v1,GCF_020525985.1_ASM2052598v1_bin_3,NZ_CP084849.1,8472,77095
GCF_020525985.1_ASM2052598v1,GCF_020525985.1_ASM2052598v1_bin_3,NZ_CP084848.1,5705,77095
GCF_020525985.1_ASM2052598v1,GCF_020525985.1_ASM2052598v1_bin_3,NZ_CP084843.1,7071,77095
GCF_020525985.1_ASM2052598v1,GCF_020525985.1_ASM2052598v1_bin_3,NZ_CP084844.1,15071,77095
GCF_020525985.1_ASM2052598v1,GCF_020525985.1_ASM2052598v1_bin_2,NZ_CP084844.1,27609,140980
GCF_020525985.1_ASM2052598v1,GCF_020525985.1_ASM2052598v1_bin_2,NZ_CP084845.1,110699,140980
GCF_020525985.1_ASM2052598v1,GCF_020525985.1_ASM2052598v1_bin_2,NZ_CP084846.1,2668,140980
GCF_020525985.1_ASM2052598v1,GCF_020525985.1_ASM2052598v1_bin_2,NZ_CP084843.1,1443,140980
GCF_020525985.1_ASM2052598v1,GCF_020525985.1_ASM2052598v1_bin_1,NZ_CP084846.1,52188,75357
GCF_020525985.1_ASM2052598v1,GCF_020525985.1_ASM2052598v1_bin_1,NZ_CP084844.1,23404,75357
GCF_020525985.1_ASM2052598v1,GCF_020525985.1_ASM2052598v1_bin_1,NZ_CP084847.1,2442,75357
GCF_020525985.1_ASM2052598v1,GCF_020525985.1_ASM2052598v1_bin_1,NZ_CP084848.1,1073,75357
GCF_904865825.1_INF018,GCF_904865825.1_INF018_bin_6,NZ_LR890499.1,1916,1916
GCF_904865825.1_INF018,GCF_904865825.1_INF018_bin_3,NZ_LR890495.1,3385,3385
GCF_904865825.1_INF018,GCF_904865825.1_INF018_bin_1,NZ_LR890493.1,3317,165076
GCF_904865825.1_INF018,GCF_904865825.1_INF018_bin_4,NZ_LR890498.1,2870,2873
GCF_904865825.1_INF018,GCF_904865825.1_INF018_bin_5,NZ_LR890496.1,3223,3223
GCF_904865825.1_INF018,GCF_904865825.1_INF018_bin_2,NZ_LR890494.1,4986,4986
GCF_904864525.1_INF350,GCF_904864525.1_INF350_bin_1,NZ_LR890423.1,150352,150352
GCF_016903295.1_ASM1690329v1,GCF_016903295.1_ASM1690329v1_bin_Isolated_15,no_correct_alignments,0,0
GCF_016903295.1_ASM1690329v1,GCF_016903295.1_ASM1690329v1_bin_Isolated_5,no_correct_alignments,0,0
GCF_016903295.1_ASM1690329v1,GCF_016903295.1_ASM1690329v1_bin_Isolated_6,no_correct_alignments,0,0
GCF_016903295.1_ASM1690329v1,GCF_016903295.1_ASM1690329v1_bin_Isolated_11,no_correct_alignments,0,0
GCF_016903295.1_ASM1690329v1,GCF_016903295.1_ASM1690329v1_bin_Isolated_9,no_correct_alignments,0,0
GCF_016903295.1_ASM1690329v1,GCF_016903295.1_ASM1690329v1_bin_Isolated_13,no_correct_alignments,0,0
GCF_016903295.1_ASM1690329v1,GCF_016903295.1_ASM1690329v1_bin_4,NZ_CP069876.1,3373,3373
GCF_016903295.1_ASM1690329v1,GCF_016903295.1_ASM1690329v1_bin_1,NZ_CP069875.1,134529,144696
GCF_016903295.1_ASM1690329v1,GCF_016903295.1_ASM1690329v1_bin_Isolated_17,no_correct_alignments,0,0
GCF_016903295.1_ASM1690329v1,GCF_016903295.1_ASM1690329v1_bin_Isolated_7,no_correct_alignments,0,0
GCF_016903295.1_ASM1690329v1,GCF_016903295.1_ASM1690329v1_bin_Isolated_18,no_correct_alignments,0,0
GCF_016903295.1_ASM1690329v1,GCF_016903295.1_ASM1690329v1_bin_Isolated_16,no_correct_alignments,0,0
GCF_016903295.1_ASM1690329v1,GCF_016903295.1_ASM1690329v1_bin_Isolated_10,no_correct_alignments,0,0
GCF_016903295.1_ASM1690329v1,GCF_016903295.1_ASM1690329v1_bin_5,no_correct_alignments,0,0
GCF_016903295.1_ASM1690329v1,GCF_016903295.1_ASM1690329v1_bin_Isolated_14,no_correct_alignments,0,0
GCF_016903295.1_ASM1690329v1,GCF_016903295.1_ASM1690329v1_bin_Isolated_21,no_correct_alignments,0,0
GCF_016903295.1_ASM1690329v1,GCF_016903295.1_ASM1690329v1_bin_Isolated_4,no_correct_alignments,0,0
GCF_016903295.1_ASM1690329v1,GCF_016903295.1_ASM1690329v1_bin_Isolated_2,no_correct_alignments,0,0
GCF_016903295.1_ASM1690329v1,GCF_016903295.1_ASM1690329v1_bin_2,NZ_CP069881.1,1442,1442
GCF_016903295.1_ASM1690329v1,GCF_016903295.1_ASM1690329v1_bin_Isolated_20,no_correct_alignments,0,0
GCF_016903295.1_ASM1690329v1,GCF_016903295.1_ASM1690329v1_bin_Isolated_3,no_correct_alignments,0,0
GCF_016903295.1_ASM1690329v1,GCF_016903295.1_ASM1690329v1_bin_Isolated_1,no_correct_alignments,0,0
GCF_016903295.1_ASM1690329v1,GCF_016903295.1_ASM1690329v1_bin_Isolated_12,no_correct_alignments,0,0
GCF_016903295.1_ASM1690329v1,GCF_016903295.1_ASM1690329v1_bin_3,no_correct_alignments,0,0
GCF_016903295.1_ASM1690329v1,GCF_016903295.1_ASM1690329v1_bin_Isolated_8,no_correct_alignments,0,0
GCF_016903295.1_ASM1690329v1,GCF_016903295.1_ASM1690329v1_bin_6,NZ_CP069877.1,1917,1917
GCF_016903295.1_ASM1690329v1,GCF_016903295.1_ASM1690329v1_bin_Isolated_22,no_correct_alignments,0,0
GCF_016903295.1_ASM1690329v1,GCF_016903295.1_ASM1690329v1_bin_Isolated_19,no_correct_alignments,0,0
GCF_013811445.1_ASM1381144v1,GCF_013811445.1_ASM1381144v1_bin_1,NZ_CP057068.1,170415,170090
GCF_013811445.1_ASM1381144v1,GCF_013811445.1_ASM1381144v1_bin_1,NZ_CP057067.1,1004,170090
GCF_013811445.1_ASM1381144v1,GCF_013811445.1_ASM1381144v1_bin_2,NZ_CP057067.1,227623,227623
GCF_016903115.1_ASM1690311v1,GCF_016903115.1_ASM1690311v1_bin_6,NZ_CP069836.1,2579,2579
GCF_016903115.1_ASM1690311v1,GCF_016903115.1_ASM1690311v1_bin_4,NZ_CP069830.1,5167,5167
GCF_016903115.1_ASM1690311v1,GCF_016903115.1_ASM1690311v1_bin_7,NZ_CP069838.1,2297,2297
GCF_016903115.1_ASM1690311v1,GCF_016903115.1_ASM1690311v1_bin_3,NZ_CP069831.1,4476,4476
GCF_016903115.1_ASM1690311v1,GCF_016903115.1_ASM1690311v1_bin_1,NZ_CP069833.1,75657,133538
GCF_016903115.1_ASM1690311v1,GCF_016903115.1_ASM1690311v1_bin_1,NZ_CP069829.1,32154,133538
GCF_016903115.1_ASM1690311v1,GCF_016903115.1_ASM1690311v1_bin_1,NZ_CP069834.1,25715,133538
GCF_016903115.1_ASM1690311v1,GCF_016903115.1_ASM1690311v1_bin_2,NZ_CP069835.1,4823,4823
GCF_016903115.1_ASM1690311v1,GCF_016903115.1_ASM1690311v1_bin_5,NZ_CP069832.1,4062,4062
GCF_016903115.1_ASM1690311v1,GCF_016903115.1_ASM1690311v1_bin_8,NZ_CP069837.1,1506,1506
GCF_904866235.1_INF122,GCF_904866235.1_INF122_bin_1,NZ_LR890601.1,71274,71319
GCF_904866235.1_INF122,GCF_904866235.1_INF122_bin_1,NZ_LR890600.1,7419,71319
GCF_904866235.1_INF122,GCF_904866235.1_INF122_bin_2,NZ_LR890602.1,6573,6573
GCF_904866555.1_INF102,GCF_904866555.1_INF102_bin_1,NZ_LR890727.1,76881,231822
GCF_904866555.1_INF102,GCF_904866555.1_INF102_bin_1,NZ_LR890728.1,116482,231822
GCF_904866555.1_INF102,GCF_904866555.1_INF102_bin_1,NZ_LR890726.1,12336,231822
GCF_904866555.1_INF102,GCF_904866555.1_INF102_bin_1,NZ_LR890730.1,40791,231822
GCF_904866555.1_INF102,GCF_904866555.1_INF102_bin_Unbinned,NZ_LR890727.1,15426,15426
GCF_904866555.1_INF102,GCF_904866555.1_INF102_bin_2,NZ_LR890734.1,1919,1919
GCF_022369815.1_ASM2236981v1,GCF_022369815.1_ASM2236981v1_bin_2,NZ_CP070894.1,4167,4167
GCF_022369815.1_ASM2236981v1,GCF_022369815.1_ASM2236981v1_bin_1,NZ_CP070892.1,112696,455269
GCF_022369815.1_ASM2236981v1,GCF_022369815.1_ASM2236981v1_bin_1,NZ_CP070891.1,311255,455269
GCF_022369815.1_ASM2236981v1,GCF_022369815.1_ASM2236981v1_bin_1,NZ_CP070893.1,31315,455269
GCF_013813035.1_ASM1381303v1,GCF_013813035.1_ASM1381303v1_bin_1,NZ_CP057100.1,139155,139456
GCF_904863055.1_INF022,GCF_904863055.1_INF022_bin_Unbinned,NZ_LR890213.1,2297,2297
GCF_904863055.1_INF022,GCF_904863055.1_INF022_bin_3,NZ_LR890211.1,79176,83260
GCF_904863055.1_INF022,GCF_904863055.1_INF022_bin_3,NZ_LR890209.1,3582,83260
GCF_904863055.1_INF022,GCF_904863055.1_INF022_bin_3,NZ_LR890210.1,5875,83260
GCF_904863055.1_INF022,GCF_904863055.1_INF022_bin_2,NZ_LR890210.1,169417,169417
GCF_904863055.1_INF022,GCF_904863055.1_INF022_bin_2,NZ_LR890209.1,24314,169417
GCF_904863055.1_INF022,GCF_904863055.1_INF022_bin_2,NZ_LR890211.1,1791,169417
GCF_904863055.1_INF022,GCF_904863055.1_INF022_bin_1,NZ_LR890212.1,3130,3130
GCF_013735155.1_ASM1373515v1,GCF_013735155.1_ASM1373515v1_bin_1,NZ_CP056386.1,103208,102112
GCF_013735155.1_ASM1373515v1,GCF_013735155.1_ASM1373515v1_bin_1,NZ_CP056385.1,1096,102112
GCF_013735155.1_ASM1373515v1,GCF_013735155.1_ASM1373515v1_bin_2,NZ_CP056386.1,61611,59380
GCF_013735155.1_ASM1373515v1,GCF_013735155.1_ASM1373515v1_bin_2,NZ_CP056385.1,4671,59380
GCF_013735155.1_ASM1373515v1,GCF_013735155.1_ASM1373515v1_bin_Unbinned,NZ_CP056388.1,4013,7431
GCF_013735155.1_ASM1373515v1,GCF_013735155.1_ASM1373515v1_bin_Unbinned,NZ_CP056390.1,3418,7431
GCF_013735155.1_ASM1373515v1,GCF_013735155.1_ASM1373515v1_bin_3,NZ_CP056386.1,45590,45590
GCF_013735155.1_ASM1373515v1,GCF_013735155.1_ASM1373515v1_bin_3,NZ_CP056385.1,2291,45590
GCF_013735155.1_ASM1373515v1,GCF_013735155.1_ASM1373515v1_bin_4,NZ_CP056389.1,4426,4426
GCF_016903475.1_ASM1690347v1,GCF_016903475.1_ASM1690347v1_bin_2,no_correct_alignments,0,0
GCF_016903475.1_ASM1690347v1,GCF_016903475.1_ASM1690347v1_bin_1,NZ_CP070173.1,205231,244141
GCF_016903475.1_ASM1690347v1,GCF_016903475.1_ASM1690347v1_bin_1,NZ_CP070174.1,59420,244141
GCF_016903475.1_ASM1690347v1,GCF_016903475.1_ASM1690347v1_bin_1,NZ_CP070172.1,40038,244141
GCF_904866445.1_INF305,GCF_904866445.1_INF305_bin_3,NZ_LR890706.1,69066,131649
GCF_904866445.1_INF305,GCF_904866445.1_INF305_bin_3,NZ_LR890707.1,63691,131649
GCF_904866445.1_INF305,GCF_904866445.1_INF305_bin_3,NZ_LR890704.1,1198,131649
GCF_904866445.1_INF305,GCF_904866445.1_INF305_bin_3,NZ_LR890702.1,1198,131649
GCF_904866445.1_INF305,GCF_904866445.1_INF305_bin_4,NZ_LR890705.1,111123,111123
GCF_904866445.1_INF305,GCF_904866445.1_INF305_bin_2,NZ_LR890704.1,116434,116434
GCF_904866445.1_INF305,GCF_904866445.1_INF305_bin_2,NZ_LR890702.1,5380,116434
GCF_904866445.1_INF305,GCF_904866445.1_INF305_bin_Isolated_1,NZ_LR890708.1,53747,53747
GCF_904866445.1_INF305,GCF_904866445.1_INF305_bin_5,NZ_LR890709.1,9294,9294
GCF_904866445.1_INF305,GCF_904866445.1_INF305_bin_1,NZ_LR890703.1,149498,155660
GCF_904866445.1_INF305,GCF_904866445.1_INF305_bin_1,NZ_LR890704.1,7493,155660
GCF_904866445.1_INF305,GCF_904866445.1_INF305_bin_1,NZ_LR890702.1,6297,155660
GCF_904866445.1_INF305,GCF_904866445.1_INF305_bin_1,NZ_LR890707.1,2396,155660
GCF_013796245.1_ASM1379624v1,GCF_013796245.1_ASM1379624v1_bin_3,NZ_CP056881.1,4512,4512
GCF_013796245.1_ASM1379624v1,GCF_013796245.1_ASM1379624v1_bin_2,NZ_CP056880.1,95164,95164
GCF_013796245.1_ASM1379624v1,GCF_013796245.1_ASM1379624v1_bin_4,NZ_CP056882.1,3845,3980
GCF_013796245.1_ASM1379624v1,GCF_013796245.1_ASM1379624v1_bin_1,NZ_CP056879.1,180820,180820
GCF_904863205.1_INF008,GCF_904863205.1_INF008_bin_Unbinned,NZ_LR890203.1,12776,6388
GCF_904863205.1_INF008,GCF_904863205.1_INF008_bin_1,NZ_LR890203.1,200427,195821
GCF_904865815.1_INF281,GCF_904865815.1_INF281_bin_3,NZ_LR890518.1,111123,111123
GCF_904865815.1_INF281,GCF_904865815.1_INF281_bin_2,NZ_LR890519.1,68766,131259
GCF_904865815.1_INF281,GCF_904865815.1_INF281_bin_2,NZ_LR890520.1,63691,131259
GCF_904865815.1_INF281,GCF_904865815.1_INF281_bin_2,NZ_LR890517.1,1198,131259
GCF_904865815.1_INF281,GCF_904865815.1_INF281_bin_1,NZ_LR890516.1,142562,266960
GCF_904865815.1_INF281,GCF_904865815.1_INF281_bin_1,NZ_LR890517.1,125729,266960
GCF_904865815.1_INF281,GCF_904865815.1_INF281_bin_1,NZ_LR890515.1,6807,266960
GCF_904865815.1_INF281,GCF_904865815.1_INF281_bin_1,NZ_LR890520.1,2396,266960
GCF_904865815.1_INF281,GCF_904865815.1_INF281_bin_4,NZ_LR890521.1,53943,53943
GCF_904865815.1_INF281,GCF_904865815.1_INF281_bin_5,NZ_LR890522.1,9294,9294
GCF_016903875.1_ASM1690387v1,GCF_016903875.1_ASM1690387v1_bin_1,NZ_CP069993.1,177068,177068
GCF_920103885.1_DJ,GCF_920103885.1_DJ_bin_4,NZ_OV049810.1,2056,2056
GCF_920103885.1_DJ,GCF_920103885.1_DJ_bin_3,NZ_OV049811.1,4715,4715
GCF_920103885.1_DJ,GCF_920103885.1_DJ_bin_1,NZ_OV049808.1,63374,214567
GCF_920103885.1_DJ,GCF_920103885.1_DJ_bin_1,NZ_OV049815.1,27518,214567
GCF_920103885.1_DJ,GCF_920103885.1_DJ_bin_1,NZ_OV049814.1,109864,214567
GCF_920103885.1_DJ,GCF_920103885.1_DJ_bin_1,NZ_OV049813.1,39936,214567
GCF_920103885.1_DJ,GCF_920103885.1_DJ_bin_2,NZ_OV049812.1,5590,5590
GCF_920103885.1_DJ,GCF_920103885.1_DJ_bin_Isolated_1,NZ_OV049816.1,54975,55108
GCF_920103885.1_DJ,GCF_920103885.1_DJ_bin_5,NZ_OV049809.1,1549,1549
GCF_018075085.1_ASM1807508v1,GCF_018075085.1_ASM1807508v1_bin_2,NZ_CP072950.1,182701,198058
GCF_018075085.1_ASM1807508v1,GCF_018075085.1_ASM1807508v1_bin_2,NZ_CP072949.1,35761,198058
GCF_018075085.1_ASM1807508v1,GCF_018075085.1_ASM1807508v1_bin_1,NZ_CP072951.1,117924,117924
GCF_018075085.1_ASM1807508v1,GCF_018075085.1_ASM1807508v1_bin_Unbinned,NZ_CP072950.1,8035,8035
GCF_904866285.1_INF344,GCF_904866285.1_INF344_bin_3,NZ_LR890641.1,6440,14209
GCF_904866285.1_INF344,GCF_904866285.1_INF344_bin_3,NZ_LR890642.1,7769,14209
GCF_904866285.1_INF344,GCF_904866285.1_INF344_bin_1,NZ_LR890641.1,106960,106960
GCF_904866285.1_INF344,GCF_904866285.1_INF344_bin_2,NZ_LR890642.1,90783,90783
GCF_904866285.1_INF344,GCF_904866285.1_INF344_bin_4,NZ_LR890641.1,49962,49962
GCF_014189335.1_ASM1418933v1,GCF_014189335.1_ASM1418933v1_bin_4,NZ_CP047271.1,8752,56002
GCF_014189335.1_ASM1418933v1,GCF_014189335.1_ASM1418933v1_bin_6,no_correct_alignments,0,0
GCF_014189335.1_ASM1418933v1,GCF_014189335.1_ASM1418933v1_bin_3,NZ_CP047272.1,2306,88380
GCF_014189335.1_ASM1418933v1,GCF_014189335.1_ASM1418933v1_bin_3,NZ_CP047271.1,10392,88380
GCF_014189335.1_ASM1418933v1,GCF_014189335.1_ASM1418933v1_bin_1,NZ_CP047272.1,248756,242924
GCF_014189335.1_ASM1418933v1,GCF_014189335.1_ASM1418933v1_bin_7,no_correct_alignments,0,0
GCF_014189335.1_ASM1418933v1,GCF_014189335.1_ASM1418933v1_bin_5,no_correct_alignments,0,0
GCF_014189335.1_ASM1418933v1,GCF_014189335.1_ASM1418933v1_bin_2,NZ_CP047271.1,4994,150025
GCF_016903235.1_ASM1690323v1,GCF_016903235.1_ASM1690323v1_bin_5,no_correct_alignments,0,0
GCF_016903235.1_ASM1690323v1,GCF_016903235.1_ASM1690323v1_bin_Isolated_1,no_correct_alignments,0,0
GCF_016903235.1_ASM1690323v1,GCF_016903235.1_ASM1690323v1_bin_1,NZ_CP069853.1,3912,42234
GCF_016903235.1_ASM1690323v1,GCF_016903235.1_ASM1690323v1_bin_1,NZ_CP069854.1,8322,42234
GCF_016903235.1_ASM1690323v1,GCF_016903235.1_ASM1690323v1_bin_1,NZ_CP069856.1,4217,42234
GCF_016903235.1_ASM1690323v1,GCF_016903235.1_ASM1690323v1_bin_Isolated_2,no_correct_alignments,0,0
GCF_016903235.1_ASM1690323v1,GCF_016903235.1_ASM1690323v1_bin_Isolated_3,no_correct_alignments,0,0
GCF_016903235.1_ASM1690323v1,GCF_016903235.1_ASM1690323v1_bin_2,NZ_CP069858.1,2851,63760
GCF_016903235.1_ASM1690323v1,GCF_016903235.1_ASM1690323v1_bin_2,NZ_CP069854.1,61899,63760
GCF_016903235.1_ASM1690323v1,GCF_016903235.1_ASM1690323v1_bin_2,NZ_CP069853.1,5245,63760
GCF_016903235.1_ASM1690323v1,GCF_016903235.1_ASM1690323v1_bin_3,NZ_CP069854.1,60953,67608
GCF_016903235.1_ASM1690323v1,GCF_016903235.1_ASM1690323v1_bin_3,NZ_CP069853.1,2220,67608
GCF_016903235.1_ASM1690323v1,GCF_016903235.1_ASM1690323v1_bin_4,NZ_CP069855.1,97696,94946
GCF_016903235.1_ASM1690323v1,GCF_016903235.1_ASM1690323v1_bin_4,NZ_CP069853.1,9625,94946
GCF_904866325.1_INF299,GCF_904866325.1_INF299_bin_4,NZ_LR890635.1,111123,111123
GCF_904866325.1_INF299,GCF_904866325.1_INF299_bin_2,NZ_LR890633.1,143952,150114
GCF_904866325.1_INF299,GCF_904866325.1_INF299_bin_2,NZ_LR890634.1,7493,150114
GCF_904866325.1_INF299,GCF_904866325.1_INF299_bin_2,NZ_LR890632.1,5099,150114
GCF_904866325.1_INF299,GCF_904866325.1_INF299_bin_2,NZ_LR890637.1,2396,150114
GCF_904866325.1_INF299,GCF_904866325.1_INF299_bin_1,NZ_LR890636.1,69066,131559
GCF_904866325.1_INF299,GCF_904866325.1_INF299_bin_1,NZ_LR890637.1,63691,131559
GCF_904866325.1_INF299,GCF_904866325.1_INF299_bin_1,NZ_LR890634.1,1198,131559
GCF_904866325.1_INF299,GCF_904866325.1_INF299_bin_5,NZ_LR890639.1,9294,9294
GCF_904866325.1_INF299,GCF_904866325.1_INF299_bin_3,NZ_LR890634.1,119567,119567
GCF_904866325.1_INF299,GCF_904866325.1_INF299_bin_3,NZ_LR890632.1,6734,119567
GCF_904866325.1_INF299,GCF_904866325.1_INF299_bin_3,NZ_LR890633.1,1331,119567
GCF_904866325.1_INF299,GCF_904866325.1_INF299_bin_Isolated_1,NZ_LR890638.1,53863,53863
GCF_020526025.1_ASM2052602v1,GCF_020526025.1_ASM2052602v1_bin_1,NZ_CP084872.1,145926,145926
GCF_020526025.1_ASM2052602v1,GCF_020526025.1_ASM2052602v1_bin_1,NZ_CP084871.1,2192,145926
GCF_019797985.1_ASM1979798v1,GCF_019797985.1_ASM1979798v1_bin_2,NZ_CP073629.1,3991,3991
GCF_019797985.1_ASM1979798v1,GCF_019797985.1_ASM1979798v1_bin_1,NZ_CP073628.1,231058,226315
GCF_018310495.1_ASM1831049v1,GCF_018310495.1_ASM1831049v1_bin_1,NZ_CP074088.1,324692,367158
GCF_018310495.1_ASM1831049v1,GCF_018310495.1_ASM1831049v1_bin_1,NZ_CP074090.1,47493,367158
GCF_018310495.1_ASM1831049v1,GCF_018310495.1_ASM1831049v1_bin_1,NZ_CP074087.1,8377,367158
GCF_018310495.1_ASM1831049v1,GCF_018310495.1_ASM1831049v1_bin_Isolated_1,NZ_CP074089.1,112745,112745
GCF_018310495.1_ASM1831049v1,GCF_018310495.1_ASM1831049v1_bin_2,NZ_CP074091.1,4167,4167
GCF_012029935.2_ASM1202993v2,GCF_012029935.2_ASM1202993v2_bin_1,NZ_CP061405.1,155650,221400
GCF_012029935.2_ASM1202993v2,GCF_012029935.2_ASM1202993v2_bin_1,NZ_CP061407.1,66874,221400
GCF_012029935.2_ASM1202993v2,GCF_012029935.2_ASM1202993v2_bin_1,NZ_CP061406.1,4777,221400
GCF_012029935.2_ASM1202993v2,GCF_012029935.2_ASM1202993v2_bin_1,NZ_CP061404.1,33310,221400
GCF_012029935.2_ASM1202993v2,GCF_012029935.2_ASM1202993v2_bin_2,NZ_CP061406.1,76330,76335
GCF_012029935.2_ASM1202993v2,GCF_012029935.2_ASM1202993v2_bin_2,NZ_CP061405.1,1853,76335
GCF_012029935.2_ASM1202993v2,GCF_012029935.2_ASM1202993v2_bin_2,NZ_CP061404.1,5557,76335
GCF_904865685.1_INF182,GCF_904865685.1_INF182_bin_1,NZ_LR890555.1,111779,111779
GCF_014168655.1_ASM1416865v1,GCF_014168655.1_ASM1416865v1_bin_1,NZ_AP021930.1,138868,253710
GCF_014168655.1_ASM1416865v1,GCF_014168655.1_ASM1416865v1_bin_1,NZ_AP021931.1,123594,253710
GCF_014168655.1_ASM1416865v1,GCF_014168655.1_ASM1416865v1_bin_1,NZ_AP021929.1,2114,253710
GCF_014168655.1_ASM1416865v1,GCF_014168655.1_ASM1416865v1_bin_2,NZ_AP021932.1,3981,3981
GCF_013791265.1_ASM1379126v1,GCF_013791265.1_ASM1379126v1_bin_1,NZ_CP056831.1,139787,139787
GCF_013791265.1_ASM1379126v1,GCF_013791265.1_ASM1379126v1_bin_1,NZ_CP056830.1,3117,139787
GCF_013791265.1_ASM1379126v1,GCF_013791265.1_ASM1379126v1_bin_2,NZ_CP056833.1,3980,3980
GCF_013737695.1_ASM1373769v1,GCF_013737695.1_ASM1373769v1_bin_8,NZ_CP056538.1,3398,3398
GCF_013737695.1_ASM1373769v1,GCF_013737695.1_ASM1373769v1_bin_1,NZ_CP056533.1,3665,6752
GCF_013737695.1_ASM1373769v1,GCF_013737695.1_ASM1373769v1_bin_1,NZ_CP056536.1,5586,6752
GCF_013737695.1_ASM1373769v1,GCF_013737695.1_ASM1373769v1_bin_1,NZ_CP056532.1,3665,6752
GCF_013737695.1_ASM1373769v1,GCF_013737695.1_ASM1373769v1_bin_1,NZ_CP056534.1,4831,6752
GCF_013737695.1_ASM1373769v1,GCF_013737695.1_ASM1373769v1_bin_3,NZ_CP056533.1,10829,10829
GCF_013737695.1_ASM1373769v1,GCF_013737695.1_ASM1373769v1_bin_3,NZ_CP056536.1,3665,10829
GCF_013737695.1_ASM1373769v1,GCF_013737695.1_ASM1373769v1_bin_3,NZ_CP056532.1,3665,10829
GCF_013737695.1_ASM1373769v1,GCF_013737695.1_ASM1373769v1_bin_3,NZ_CP056534.1,3665,10829
GCF_013737695.1_ASM1373769v1,GCF_013737695.1_ASM1373769v1_bin_5,NZ_CP056532.1,82212,82212
GCF_013737695.1_ASM1373769v1,GCF_013737695.1_ASM1373769v1_bin_5,NZ_CP056531.1,10951,82212
GCF_013737695.1_ASM1373769v1,GCF_013737695.1_ASM1373769v1_bin_5,NZ_CP056533.1,8841,82212
GCF_013737695.1_ASM1373769v1,GCF_013737695.1_ASM1373769v1_bin_5,NZ_CP056536.1,3665,82212
GCF_013737695.1_ASM1373769v1,GCF_013737695.1_ASM1373769v1_bin_5,NZ_CP056534.1,3665,82212
GCF_013737695.1_ASM1373769v1,GCF_013737695.1_ASM1373769v1_bin_5,NZ_CP056530.1,8335,82212
GCF_013737695.1_ASM1373769v1,GCF_013737695.1_ASM1373769v1_bin_7,NZ_CP056537.1,4728,4772
GCF_013737695.1_ASM1373769v1,GCF_013737695.1_ASM1373769v1_bin_2,NZ_CP056533.1,41247,41247
GCF_013737695.1_ASM1373769v1,GCF_013737695.1_ASM1373769v1_bin_2,NZ_CP056532.1,1492,41247
GCF_013737695.1_ASM1373769v1,GCF_013737695.1_ASM1373769v1_bin_6,NZ_CP056531.1,65308,66990
GCF_013737695.1_ASM1373769v1,GCF_013737695.1_ASM1373769v1_bin_6,NZ_CP056530.1,26074,66990
GCF_013737695.1_ASM1373769v1,GCF_013737695.1_ASM1373769v1_bin_6,NZ_CP056533.1,3684,66990
GCF_013737695.1_ASM1373769v1,GCF_013737695.1_ASM1373769v1_bin_6,NZ_CP056532.1,5351,66990
GCF_013737695.1_ASM1373769v1,GCF_013737695.1_ASM1373769v1_bin_4,NZ_CP056531.1,104949,102698
GCF_013737695.1_ASM1373769v1,GCF_013737695.1_ASM1373769v1_bin_4,NZ_CP056530.1,17516,102698
GCF_020526065.1_ASM2052606v1,GCF_020526065.1_ASM2052606v1_bin_2,no_correct_alignments,0,0
GCF_020526065.1_ASM2052606v1,GCF_020526065.1_ASM2052606v1_bin_1,no_correct_alignments,0,0
GCF_015138775.1_ASM1513877v1,GCF_015138775.1_ASM1513877v1_bin_1,NZ_AP022528.1,137794,173860
GCF_015138775.1_ASM1513877v1,GCF_015138775.1_ASM1513877v1_bin_1,NZ_AP022529.1,39672,173860
GCF_015138775.1_ASM1513877v1,GCF_015138775.1_ASM1513877v1_bin_1,NZ_AP022527.1,10230,173860
GCF_015138775.1_ASM1513877v1,GCF_015138775.1_ASM1513877v1_bin_4,NZ_AP022532.1,2315,2315
GCF_015138775.1_ASM1513877v1,GCF_015138775.1_ASM1513877v1_bin_2,NZ_AP022531.1,3860,3860
GCF_015138775.1_ASM1513877v1,GCF_015138775.1_ASM1513877v1_bin_3,NZ_AP022530.1,4906,4906
GCF_904866215.1_INF359,GCF_904866215.1_INF359_bin_1,NZ_LR890617.1,252580,312368
GCF_904866215.1_INF359,GCF_904866215.1_INF359_bin_1,NZ_LR890618.1,63154,312368
GCF_904866215.1_INF359,GCF_904866215.1_INF359_bin_1,NZ_LR890616.1,2991,312368
GCF_904864535.1_INF313,GCF_904864535.1_INF313_bin_5,NZ_LR890421.1,2723,2723
GCF_904864535.1_INF313,GCF_904864535.1_INF313_bin_2,NZ_LR890418.1,5599,5783
GCF_904864535.1_INF313,GCF_904864535.1_INF313_bin_3,NZ_LR890419.1,3216,3514
GCF_904864535.1_INF313,GCF_904864535.1_INF313_bin_1,NZ_LR890416.1,207687,260676
GCF_904864535.1_INF313,GCF_904864535.1_INF313_bin_1,NZ_LR890417.1,65756,260676
GCF_904864535.1_INF313,GCF_904864535.1_INF313_bin_1,NZ_LR890415.1,2454,260676
GCF_904864535.1_INF313,GCF_904864535.1_INF313_bin_4,NZ_LR890420.1,3223,3223
GCF_021655455.1_ASM2165545v1,GCF_021655455.1_ASM2165545v1_bin_1,NZ_AP024571.1,214071,211405
GCF_021655455.1_ASM2165545v1,GCF_021655455.1_ASM2165545v1_bin_1,NZ_AP024570.1,2860,211405
GCF_904866505.1_INF323,GCF_904866505.1_INF323_bin_4,NZ_LR890739.1,3514,3514
GCF_904866505.1_INF323,GCF_904866505.1_INF323_bin_2,NZ_LR890736.1,169867,165600
GCF_904866505.1_INF323,GCF_904866505.1_INF323_bin_2,NZ_LR890735.1,12006,165600
GCF_904866505.1_INF323,GCF_904866505.1_INF323_bin_1,NZ_LR890737.1,213507,227769
GCF_904866505.1_INF323,GCF_904866505.1_INF323_bin_1,NZ_LR890736.1,15441,227769
GCF_904866505.1_INF323,GCF_904866505.1_INF323_bin_1,NZ_LR890735.1,1197,227769
GCF_904866505.1_INF323,GCF_904866505.1_INF323_bin_3,NZ_LR890738.1,121682,121682
GCF_021655475.1_ASM2165547v1,GCF_021655475.1_ASM2165547v1_bin_2,NZ_AP024573.1,180237,177571
GCF_021655475.1_ASM2165547v1,GCF_021655475.1_ASM2165547v1_bin_2,NZ_AP024572.1,2860,177571
GCF_021655475.1_ASM2165547v1,GCF_021655475.1_ASM2165547v1_bin_2,NZ_AP024575.1,1657,177571
GCF_021655475.1_ASM2165547v1,GCF_021655475.1_ASM2165547v1_bin_3,NZ_AP024574.1,110870,110870
GCF_021655475.1_ASM2165547v1,GCF_021655475.1_ASM2165547v1_bin_1,NZ_AP024573.1,37148,35491
GCF_021655475.1_ASM2165547v1,GCF_021655475.1_ASM2165547v1_bin_1,NZ_AP024575.1,35491,35491
GCF_021655475.1_ASM2165547v1,GCF_021655475.1_ASM2165547v1_bin_1,NZ_AP024572.1,1657,35491
GCF_904863365.1_INF049,GCF_904863365.1_INF049_bin_2,NZ_LR890361.1,44622,54376
GCF_904863365.1_INF049,GCF_904863365.1_INF049_bin_2,NZ_LR890363.1,11985,54376
GCF_904863365.1_INF049,GCF_904863365.1_INF049_bin_2,NZ_LR890360.1,2231,54376
GCF_904863365.1_INF049,GCF_904863365.1_INF049_bin_2,NZ_LR890362.1,5265,54376
GCF_904863365.1_INF049,GCF_904863365.1_INF049_bin_4,NZ_LR890364.1,4211,4211
GCF_904863365.1_INF049,GCF_904863365.1_INF049_bin_3,NZ_LR890361.1,160502,157122
GCF_904863365.1_INF049,GCF_904863365.1_INF049_bin_3,NZ_LR890360.1,7810,157122
GCF_904863365.1_INF049,GCF_904863365.1_INF049_bin_1,NZ_LR890363.1,60933,127259
GCF_904863365.1_INF049,GCF_904863365.1_INF049_bin_1,NZ_LR890362.1,67409,127259
GCF_904863365.1_INF049,GCF_904863365.1_INF049_bin_1,NZ_LR890361.1,8182,127259
GCF_904863365.1_INF049,GCF_904863365.1_INF049_bin_1,NZ_LR890360.1,5657,127259
GCF_904863365.1_INF049,GCF_904863365.1_INF049_bin_5,NZ_LR890366.1,3405,3405
GCF_904863365.1_INF049,GCF_904863365.1_INF049_bin_6,NZ_LR890368.1,2496,2496
GCF_016066475.1_ASM1606647v1,GCF_016066475.1_ASM1606647v1_bin_2,NZ_CP065835.1,5542,5542
GCF_016066475.1_ASM1606647v1,GCF_016066475.1_ASM1606647v1_bin_4,NZ_CP065837.1,3550,3550
GCF_016066475.1_ASM1606647v1,GCF_016066475.1_ASM1606647v1_bin_1,NZ_CP065834.1,278886,265725
GCF_016066475.1_ASM1606647v1,GCF_016066475.1_ASM1606647v1_bin_1,NZ_CP065833.1,3286,265725
GCF_016066475.1_ASM1606647v1,GCF_016066475.1_ASM1606647v1_bin_3,NZ_CP065836.1,4165,4165
GCF_016903195.1_ASM1690319v1,GCF_016903195.1_ASM1690319v1_bin_1,NZ_CP069846.1,202051,287724
GCF_016903195.1_ASM1690319v1,GCF_016903195.1_ASM1690319v1_bin_1,NZ_CP069848.1,57573,287724
GCF_016903195.1_ASM1690319v1,GCF_016903195.1_ASM1690319v1_bin_1,NZ_CP069844.1,36659,287724
GCF_016903195.1_ASM1690319v1,GCF_016903195.1_ASM1690319v1_bin_1,NZ_CP069849.1,24662,287724
GCF_016903195.1_ASM1690319v1,GCF_016903195.1_ASM1690319v1_bin_1,NZ_CP069845.1,41272,287724
GCF_016903195.1_ASM1690319v1,GCF_016903195.1_ASM1690319v1_bin_1,NZ_CP069847.1,2775,287724
GCF_016903195.1_ASM1690319v1,GCF_016903195.1_ASM1690319v1_bin_3,NZ_CP069850.1,5698,5698
GCF_016903195.1_ASM1690319v1,GCF_016903195.1_ASM1690319v1_bin_2,NZ_CP069845.1,11790,2764
GCF_016903195.1_ASM1690319v1,GCF_016903195.1_ASM1690319v1_bin_2,NZ_CP069844.1,4512,2764
GCF_016903195.1_ASM1690319v1,GCF_016903195.1_ASM1690319v1_bin_2,NZ_CP069849.1,8291,2764
