<?xml version='1.0' encoding='UTF-8' ?>
<svg xmlns='http://www.w3.org/2000/svg' xmlns:xlink='http://www.w3.org/1999/xlink' class='svglite' width='504.00pt' height='360.00pt' viewBox='0 0 504.00 360.00'>
<defs>
  <style type='text/css'><![CDATA[
    .svglite line, .svglite polyline, .svglite polygon, .svglite path, .svglite rect, .svglite circle {
      fill: none;
      stroke: #000000;
      stroke-linecap: round;
      stroke-linejoin: round;
      stroke-miterlimit: 10.00;
    }
    .svglite text {
      white-space: pre;
    }
  ]]></style>
</defs>
<rect width='100%' height='100%' style='stroke: none; fill: #FFFFFF;'/>
<defs>
  <clipPath id='cpMC4wMHw1MDQuMDB8MC4wMHwzNjAuMDA='>
    <rect x='0.00' y='0.00' width='504.00' height='360.00' />
  </clipPath>
</defs>
<g clip-path='url(#cpMC4wMHw1MDQuMDB8MC4wMHwzNjAuMDA=)'>
</g>
<defs>
  <clipPath id='cpNjAuNzJ8NDk4LjUyfDExLjY4fDMxMS4xOQ=='>
    <rect x='60.72' y='11.68' width='437.80' height='299.51' />
  </clipPath>
</defs>
<g clip-path='url(#cpNjAuNzJ8NDk4LjUyfDExLjY4fDMxMS4xOQ==)'>
<polyline points='60.72,263.70 498.52,263.70 ' style='stroke-width: 0.53; stroke: #EBEBEB; stroke-linecap: butt;' />
<polyline points='60.72,195.97 498.52,195.97 ' style='stroke-width: 0.53; stroke: #EBEBEB; stroke-linecap: butt;' />
<polyline points='60.72,128.23 498.52,128.23 ' style='stroke-width: 0.53; stroke: #EBEBEB; stroke-linecap: butt;' />
<polyline points='60.72,60.49 498.52,60.49 ' style='stroke-width: 0.53; stroke: #EBEBEB; stroke-linecap: butt;' />
<polyline points='90.25,311.19 90.25,11.68 ' style='stroke-width: 0.53; stroke: #EBEBEB; stroke-linecap: butt;' />
<polyline points='218.64,311.19 218.64,11.68 ' style='stroke-width: 0.53; stroke: #EBEBEB; stroke-linecap: butt;' />
<polyline points='347.02,311.19 347.02,11.68 ' style='stroke-width: 0.53; stroke: #EBEBEB; stroke-linecap: butt;' />
<polyline points='475.41,311.19 475.41,11.68 ' style='stroke-width: 0.53; stroke: #EBEBEB; stroke-linecap: butt;' />
<polyline points='60.72,297.57 498.52,297.57 ' style='stroke-width: 1.07; stroke: #EBEBEB; stroke-linecap: butt;' />
<polyline points='60.72,229.83 498.52,229.83 ' style='stroke-width: 1.07; stroke: #EBEBEB; stroke-linecap: butt;' />
<polyline points='60.72,162.10 498.52,162.10 ' style='stroke-width: 1.07; stroke: #EBEBEB; stroke-linecap: butt;' />
<polyline points='60.72,94.36 498.52,94.36 ' style='stroke-width: 1.07; stroke: #EBEBEB; stroke-linecap: butt;' />
<polyline points='60.72,26.62 498.52,26.62 ' style='stroke-width: 1.07; stroke: #EBEBEB; stroke-linecap: butt;' />
<rect x='80.62' y='294.25' width='6.42' height='3.32' style='stroke-width: 1.07; stroke-linecap: butt; stroke-linejoin: miter; fill: #B5B5B5;' />
<rect x='87.04' y='297.57' width='6.42' height='0.00' style='stroke-width: 1.07; stroke-linecap: butt; stroke-linejoin: miter; fill: #B5B5B5;' />
<rect x='93.46' y='297.57' width='6.42' height='0.00' style='stroke-width: 1.07; stroke-linecap: butt; stroke-linejoin: miter; fill: #B5B5B5;' />
<rect x='99.88' y='297.57' width='6.42' height='0.00' style='stroke-width: 1.07; stroke-linecap: butt; stroke-linejoin: miter; fill: #B5B5B5;' />
<rect x='106.30' y='297.57' width='6.42' height='0.00' style='stroke-width: 1.07; stroke-linecap: butt; stroke-linejoin: miter; fill: #B5B5B5;' />
<rect x='112.72' y='297.57' width='6.42' height='0.00' style='stroke-width: 1.07; stroke-linecap: butt; stroke-linejoin: miter; fill: #B5B5B5;' />
<rect x='119.14' y='297.57' width='6.42' height='0.00' style='stroke-width: 1.07; stroke-linecap: butt; stroke-linejoin: miter; fill: #B5B5B5;' />
<rect x='125.56' y='294.25' width='6.42' height='3.32' style='stroke-width: 1.07; stroke-linecap: butt; stroke-linejoin: miter; fill: #B5B5B5;' />
<rect x='131.98' y='297.57' width='6.42' height='0.00' style='stroke-width: 1.07; stroke-linecap: butt; stroke-linejoin: miter; fill: #B5B5B5;' />
<rect x='138.40' y='297.57' width='6.42' height='0.00' style='stroke-width: 1.07; stroke-linecap: butt; stroke-linejoin: miter; fill: #B5B5B5;' />
<rect x='144.82' y='290.93' width='6.42' height='6.64' style='stroke-width: 1.07; stroke-linecap: butt; stroke-linejoin: miter; fill: #B5B5B5;' />
<rect x='151.24' y='297.57' width='6.42' height='0.00' style='stroke-width: 1.07; stroke-linecap: butt; stroke-linejoin: miter; fill: #B5B5B5;' />
<rect x='157.66' y='297.57' width='6.42' height='0.00' style='stroke-width: 1.07; stroke-linecap: butt; stroke-linejoin: miter; fill: #B5B5B5;' />
<rect x='164.07' y='294.25' width='6.42' height='3.32' style='stroke-width: 1.07; stroke-linecap: butt; stroke-linejoin: miter; fill: #B5B5B5;' />
<rect x='170.49' y='287.61' width='6.42' height='9.96' style='stroke-width: 1.07; stroke-linecap: butt; stroke-linejoin: miter; fill: #B5B5B5;' />
<rect x='176.91' y='294.25' width='6.42' height='3.32' style='stroke-width: 1.07; stroke-linecap: butt; stroke-linejoin: miter; fill: #B5B5B5;' />
<rect x='183.33' y='294.25' width='6.42' height='3.32' style='stroke-width: 1.07; stroke-linecap: butt; stroke-linejoin: miter; fill: #B5B5B5;' />
<rect x='189.75' y='48.54' width='6.42' height='249.04' style='stroke-width: 1.07; stroke-linecap: butt; stroke-linejoin: miter; fill: #B5B5B5;' />
<rect x='196.17' y='290.93' width='6.42' height='6.64' style='stroke-width: 1.07; stroke-linecap: butt; stroke-linejoin: miter; fill: #B5B5B5;' />
<rect x='202.59' y='280.97' width='6.42' height='16.60' style='stroke-width: 1.07; stroke-linecap: butt; stroke-linejoin: miter; fill: #B5B5B5;' />
<rect x='209.01' y='271.01' width='6.42' height='26.56' style='stroke-width: 1.07; stroke-linecap: butt; stroke-linejoin: miter; fill: #B5B5B5;' />
<rect x='215.43' y='261.05' width='6.42' height='36.53' style='stroke-width: 1.07; stroke-linecap: butt; stroke-linejoin: miter; fill: #B5B5B5;' />
<rect x='221.85' y='294.25' width='6.42' height='3.32' style='stroke-width: 1.07; stroke-linecap: butt; stroke-linejoin: miter; fill: #B5B5B5;' />
<rect x='228.27' y='204.60' width='6.42' height='92.97' style='stroke-width: 1.07; stroke-linecap: butt; stroke-linejoin: miter; fill: #B5B5B5;' />
<rect x='234.69' y='111.63' width='6.42' height='185.95' style='stroke-width: 1.07; stroke-linecap: butt; stroke-linejoin: miter; fill: #B5B5B5;' />
<rect x='241.11' y='224.52' width='6.42' height='73.05' style='stroke-width: 1.07; stroke-linecap: butt; stroke-linejoin: miter; fill: #B5B5B5;' />
<rect x='247.53' y='277.65' width='6.42' height='19.92' style='stroke-width: 1.07; stroke-linecap: butt; stroke-linejoin: miter; fill: #B5B5B5;' />
<rect x='253.94' y='25.29' width='6.42' height='272.28' style='stroke-width: 1.07; stroke-linecap: butt; stroke-linejoin: miter; fill: #B5B5B5;' />
<rect x='260.36' y='267.69' width='6.42' height='29.88' style='stroke-width: 1.07; stroke-linecap: butt; stroke-linejoin: miter; fill: #B5B5B5;' />
<rect x='266.78' y='247.77' width='6.42' height='49.81' style='stroke-width: 1.07; stroke-linecap: butt; stroke-linejoin: miter; fill: #B5B5B5;' />
<rect x='273.20' y='257.73' width='6.42' height='39.85' style='stroke-width: 1.07; stroke-linecap: butt; stroke-linejoin: miter; fill: #B5B5B5;' />
<rect x='279.62' y='257.73' width='6.42' height='39.85' style='stroke-width: 1.07; stroke-linecap: butt; stroke-linejoin: miter; fill: #B5B5B5;' />
<rect x='286.04' y='257.73' width='6.42' height='39.85' style='stroke-width: 1.07; stroke-linecap: butt; stroke-linejoin: miter; fill: #B5B5B5;' />
<rect x='292.46' y='277.65' width='6.42' height='19.92' style='stroke-width: 1.07; stroke-linecap: butt; stroke-linejoin: miter; fill: #B5B5B5;' />
<rect x='298.88' y='294.25' width='6.42' height='3.32' style='stroke-width: 1.07; stroke-linecap: butt; stroke-linejoin: miter; fill: #B5B5B5;' />
<rect x='305.30' y='274.33' width='6.42' height='23.24' style='stroke-width: 1.07; stroke-linecap: butt; stroke-linejoin: miter; fill: #B5B5B5;' />
<rect x='311.72' y='274.33' width='6.42' height='23.24' style='stroke-width: 1.07; stroke-linecap: butt; stroke-linejoin: miter; fill: #B5B5B5;' />
<rect x='318.14' y='271.01' width='6.42' height='26.56' style='stroke-width: 1.07; stroke-linecap: butt; stroke-linejoin: miter; fill: #B5B5B5;' />
<rect x='324.56' y='251.09' width='6.42' height='46.49' style='stroke-width: 1.07; stroke-linecap: butt; stroke-linejoin: miter; fill: #B5B5B5;' />
<rect x='330.98' y='244.45' width='6.42' height='53.13' style='stroke-width: 1.07; stroke-linecap: butt; stroke-linejoin: miter; fill: #B5B5B5;' />
<rect x='337.40' y='237.80' width='6.42' height='59.77' style='stroke-width: 1.07; stroke-linecap: butt; stroke-linejoin: miter; fill: #B5B5B5;' />
<rect x='343.82' y='251.09' width='6.42' height='46.49' style='stroke-width: 1.07; stroke-linecap: butt; stroke-linejoin: miter; fill: #B5B5B5;' />
<rect x='350.23' y='214.56' width='6.42' height='83.01' style='stroke-width: 1.07; stroke-linecap: butt; stroke-linejoin: miter; fill: #B5B5B5;' />
<rect x='356.65' y='174.71' width='6.42' height='122.86' style='stroke-width: 1.07; stroke-linecap: butt; stroke-linejoin: miter; fill: #B5B5B5;' />
<rect x='363.07' y='204.60' width='6.42' height='92.97' style='stroke-width: 1.07; stroke-linecap: butt; stroke-linejoin: miter; fill: #B5B5B5;' />
<rect x='369.49' y='254.41' width='6.42' height='43.17' style='stroke-width: 1.07; stroke-linecap: butt; stroke-linejoin: miter; fill: #B5B5B5;' />
<rect x='375.91' y='178.04' width='6.42' height='119.54' style='stroke-width: 1.07; stroke-linecap: butt; stroke-linejoin: miter; fill: #B5B5B5;' />
<rect x='382.33' y='197.96' width='6.42' height='99.61' style='stroke-width: 1.07; stroke-linecap: butt; stroke-linejoin: miter; fill: #B5B5B5;' />
<rect x='388.75' y='274.33' width='6.42' height='23.24' style='stroke-width: 1.07; stroke-linecap: butt; stroke-linejoin: miter; fill: #B5B5B5;' />
<rect x='395.17' y='257.73' width='6.42' height='39.85' style='stroke-width: 1.07; stroke-linecap: butt; stroke-linejoin: miter; fill: #B5B5B5;' />
<rect x='401.59' y='264.37' width='6.42' height='33.20' style='stroke-width: 1.07; stroke-linecap: butt; stroke-linejoin: miter; fill: #B5B5B5;' />
<rect x='408.01' y='261.05' width='6.42' height='36.53' style='stroke-width: 1.07; stroke-linecap: butt; stroke-linejoin: miter; fill: #B5B5B5;' />
<rect x='414.43' y='294.25' width='6.42' height='3.32' style='stroke-width: 1.07; stroke-linecap: butt; stroke-linejoin: miter; fill: #B5B5B5;' />
<rect x='420.85' y='271.01' width='6.42' height='26.56' style='stroke-width: 1.07; stroke-linecap: butt; stroke-linejoin: miter; fill: #B5B5B5;' />
<rect x='427.27' y='244.45' width='6.42' height='53.13' style='stroke-width: 1.07; stroke-linecap: butt; stroke-linejoin: miter; fill: #B5B5B5;' />
<rect x='433.69' y='234.48' width='6.42' height='63.09' style='stroke-width: 1.07; stroke-linecap: butt; stroke-linejoin: miter; fill: #B5B5B5;' />
<rect x='440.10' y='214.56' width='6.42' height='83.01' style='stroke-width: 1.07; stroke-linecap: butt; stroke-linejoin: miter; fill: #B5B5B5;' />
<rect x='446.52' y='174.71' width='6.42' height='122.86' style='stroke-width: 1.07; stroke-linecap: butt; stroke-linejoin: miter; fill: #B5B5B5;' />
<rect x='452.94' y='204.60' width='6.42' height='92.97' style='stroke-width: 1.07; stroke-linecap: butt; stroke-linejoin: miter; fill: #B5B5B5;' />
<rect x='459.36' y='257.73' width='6.42' height='39.85' style='stroke-width: 1.07; stroke-linecap: butt; stroke-linejoin: miter; fill: #B5B5B5;' />
<rect x='465.78' y='287.61' width='6.42' height='9.96' style='stroke-width: 1.07; stroke-linecap: butt; stroke-linejoin: miter; fill: #B5B5B5;' />
<rect x='472.20' y='294.25' width='6.42' height='3.32' style='stroke-width: 1.07; stroke-linecap: butt; stroke-linejoin: miter; fill: #B5B5B5;' />
<polygon points='86.19,297.11 86.95,297.10 87.72,297.10 88.48,297.10 89.24,297.09 90.01,297.09 90.77,297.09 91.53,297.08 92.30,297.08 93.06,297.08 93.82,297.07 94.59,297.07 95.35,297.07 96.11,297.07 96.88,297.06 97.64,297.06 98.40,297.05 99.17,297.05 99.93,297.05 100.69,297.04 101.46,297.04 102.22,297.03 102.98,297.03 103.75,297.02 104.51,297.01 105.27,297.00 106.04,296.99 106.80,296.99 107.57,296.98 108.33,296.96 109.09,296.95 109.86,296.94 110.62,296.92 111.38,296.91 112.15,296.89 112.91,296.88 113.67,296.86 114.44,296.84 115.20,296.82 115.96,296.79 116.73,296.77 117.49,296.74 118.25,296.72 119.02,296.69 119.78,296.66 120.54,296.62 121.31,296.59 122.07,296.55 122.83,296.51 123.60,296.47 124.36,296.43 125.12,296.38 125.89,296.33 126.65,296.28 127.41,296.22 128.18,296.17 128.94,296.10 129.70,296.04 130.47,295.97 131.23,295.89 132.00,295.81 132.76,295.73 133.52,295.64 134.29,295.54 135.05,295.44 135.81,295.33 136.58,295.22 137.34,295.10 138.10,294.97 138.87,294.83 139.63,294.68 140.39,294.53 141.16,294.36 141.92,294.19 142.68,294.00 143.45,293.80 144.21,293.59 144.97,293.36 145.74,293.12 146.50,292.87 147.26,292.61 148.03,292.33 148.79,292.03 149.55,291.72 150.32,291.39 151.08,291.04 151.84,290.67 152.61,290.29 153.37,289.88 154.14,289.46 154.90,289.02 155.66,288.56 156.43,288.07 157.19,287.57 157.95,287.05 158.72,286.50 159.48,285.94 160.24,285.35 161.01,284.74 161.77,284.12 162.53,283.47 163.30,282.80 164.06,282.11 164.82,281.41 165.59,280.69 166.35,279.94 167.11,279.19 167.88,278.42 168.64,277.63 169.40,276.83 170.17,276.02 170.93,275.19 171.69,274.36 172.46,273.52 173.22,272.67 173.98,271.82 174.75,270.96 175.51,270.11 176.28,269.25 177.04,268.39 177.80,267.53 178.57,266.68 179.33,265.84 180.09,265.00 180.86,264.17 181.62,263.35 182.38,262.54 183.15,261.74 183.91,260.97 184.67,260.20 185.44,259.45 186.20,258.72 186.96,258.01 187.73,257.31 188.49,256.63 189.25,255.97 190.02,255.34 190.78,254.71 191.54,254.12 192.31,253.54 193.07,252.98 193.83,252.43 194.60,251.91 195.36,251.40 196.12,250.90 196.89,250.43 197.65,249.96 198.42,249.51 199.18,249.07 199.94,248.63 200.71,248.20 201.47,247.78 202.23,247.37 203.00,246.95 203.76,246.54 204.52,246.12 205.29,245.70 206.05,245.28 206.81,244.84 207.58,244.40 208.34,243.95 209.10,243.49 209.87,243.01 210.63,242.52 211.39,242.02 212.16,241.49 212.92,240.95 213.68,240.40 214.45,239.82 215.21,239.22 215.97,238.60 216.74,237.96 217.50,237.30 218.26,236.62 219.03,235.93 219.79,235.21 220.56,234.48 221.32,233.73 222.08,232.96 222.85,232.18 223.61,231.39 224.37,230.58 225.14,229.77 225.90,228.94 226.66,228.11 227.43,227.28 228.19,226.45 228.95,225.62 229.72,224.79 230.48,223.97 231.24,223.15 232.01,222.35 232.77,221.56 233.53,220.79 234.30,220.04 235.06,219.30 235.82,218.60 236.59,217.92 237.35,217.26 238.11,216.64 238.88,216.06 239.64,215.50 240.40,215.00 241.17,214.53 241.93,214.10 242.69,213.71 243.46,213.37 244.22,213.08 244.99,212.83 245.75,212.64 246.51,212.50 247.28,212.41 248.04,212.37 248.80,212.39 249.57,212.45 250.33,212.57 251.09,212.75 251.86,212.98 252.62,213.25 253.38,213.59 254.15,213.98 254.91,214.42 255.67,214.90 256.44,215.45 257.20,216.03 257.96,216.65 258.73,217.34 259.49,218.06 260.25,218.82 261.02,219.62 261.78,220.47 262.54,221.34 263.31,222.25 264.07,223.19 264.83,224.16 265.60,225.16 266.36,226.18 267.13,227.23 267.89,228.29 268.65,229.37 269.42,230.47 270.18,231.58 270.94,232.70 271.71,233.83 272.47,234.97 273.23,236.10 274.00,237.24 274.76,238.38 275.52,239.51 276.29,240.63 277.05,241.75 277.81,242.86 278.58,243.96 279.34,245.04 280.10,246.11 280.87,247.16 281.63,248.19 282.39,249.19 283.16,250.18 283.92,251.15 284.68,252.09 285.45,253.00 286.21,253.89 286.97,254.74 287.74,255.57 288.50,256.37 289.27,257.14 290.03,257.87 290.79,258.57 291.56,259.24 292.32,259.87 293.08,260.47 293.85,261.04 294.61,261.57 295.37,262.06 296.14,262.52 296.90,262.94 297.66,263.32 298.43,263.67 299.19,263.99 299.95,264.26 300.72,264.50 301.48,264.71 302.24,264.88 303.01,265.00 303.77,265.10 304.53,265.17 305.30,265.19 306.06,265.18 306.82,265.14 307.59,265.06 308.35,264.95 309.11,264.81 309.88,264.63 310.64,264.42 311.41,264.18 312.17,263.92 312.93,263.61 313.70,263.28 314.46,262.93 315.22,262.54 315.99,262.13 316.75,261.69 317.51,261.23 318.28,260.73 319.04,260.21 319.80,259.68 320.57,259.12 321.33,258.53 322.09,257.93 322.86,257.31 323.62,256.66 324.38,256.00 325.15,255.33 325.91,254.63 326.67,253.92 327.44,253.20 328.20,252.46 328.96,251.71 329.73,250.95 330.49,250.17 331.25,249.39 332.02,248.60 332.78,247.80 333.55,246.99 334.31,246.18 335.07,245.37 335.84,244.55 336.60,243.73 337.36,242.90 338.13,242.08 338.89,241.26 339.65,240.44 340.42,239.62 341.18,238.81 341.94,238.00 342.71,237.20 343.47,236.41 344.23,235.63 345.00,234.85 345.76,234.09 346.52,233.35 347.29,232.61 348.05,231.89 348.81,231.19 349.58,230.51 350.34,229.85 351.10,229.20 351.87,228.58 352.63,227.99 353.39,227.41 354.16,226.86 354.92,226.34 355.68,225.84 356.45,225.37 357.21,224.94 357.98,224.54 358.74,224.15 359.50,223.82 360.27,223.51 361.03,223.23 361.79,222.99 362.56,222.79 363.32,222.62 364.08,222.48 364.85,222.39 365.61,222.34 366.37,222.31 367.14,222.33 367.90,222.39 368.66,222.47 369.43,222.60 370.19,222.77 370.95,222.97 371.72,223.20 372.48,223.48 373.24,223.79 374.01,224.13 374.77,224.51 375.53,224.93 376.30,225.37 377.06,225.84 377.82,226.34 378.59,226.87 379.35,227.43 380.12,228.01 380.88,228.62 381.64,229.25 382.41,229.90 383.17,230.57 383.93,231.26 384.70,231.96 385.46,232.68 386.22,233.41 386.99,234.15 387.75,234.90 388.51,235.65 389.28,236.41 390.04,237.17 390.80,237.94 391.57,238.70 392.33,239.45 393.09,240.20 393.86,240.94 394.62,241.68 395.38,242.40 396.15,243.10 396.91,243.80 397.67,244.47 398.44,245.13 399.20,245.76 399.96,246.38 400.73,246.96 401.49,247.52 402.26,248.06 403.02,248.57 403.78,249.05 404.55,249.50 405.31,249.92 406.07,250.30 406.84,250.65 407.60,250.97 408.36,251.25 409.13,251.49 409.89,251.70 410.65,251.88 411.42,252.01 412.18,252.11 412.94,252.19 413.71,252.21 414.47,252.20 415.23,252.17 416.00,252.09 416.76,251.98 417.52,251.85 418.29,251.68 419.05,251.47 419.81,251.24 420.58,250.99 421.34,250.71 422.10,250.40 422.87,250.07 423.63,249.72 424.40,249.35 425.16,248.97 425.92,248.58 426.69,248.16 427.45,247.75 428.21,247.32 428.98,246.89 429.74,246.46 430.50,246.03 431.27,245.60 432.03,245.18 432.79,244.77 433.56,244.37 434.32,243.98 435.08,243.61 435.85,243.25 436.61,242.92 437.37,242.62 438.14,242.33 438.90,242.08 439.66,241.86 440.43,241.67 441.19,241.51 441.95,241.39 442.72,241.31 443.48,241.27 444.24,241.26 445.01,241.31 445.77,241.39 446.53,241.51 447.30,241.69 448.06,241.91 448.83,242.17 449.59,242.48 450.35,242.84 451.12,243.24 451.88,243.68 452.64,244.18 453.41,244.72 454.17,245.29 454.93,245.92 455.70,246.59 456.46,247.29 457.22,248.03 457.99,248.81 458.75,249.62 459.51,250.46 460.28,251.35 461.04,252.26 461.80,253.19 462.57,254.15 463.33,255.14 464.09,256.14 464.86,257.16 465.62,258.20 466.38,259.25 467.15,260.31 467.91,261.39 468.67,262.46 469.44,263.54 470.20,264.63 470.97,265.71 471.73,266.79 472.49,267.87 473.26,268.94 474.02,270.00 474.78,271.05 475.55,272.09 476.31,273.11 476.31,297.57 475.55,297.57 474.78,297.57 474.02,297.57 473.26,297.57 472.49,297.57 471.73,297.57 470.97,297.57 470.20,297.57 469.44,297.57 468.67,297.57 467.91,297.57 467.15,297.57 466.38,297.57 465.62,297.57 464.86,297.57 464.09,297.57 463.33,297.57 462.57,297.57 461.80,297.57 461.04,297.57 460.28,297.57 459.51,297.57 458.75,297.57 457.99,297.57 457.22,297.57 456.46,297.57 455.70,297.57 454.93,297.57 454.17,297.57 453.41,297.57 452.64,297.57 451.88,297.57 451.12,297.57 450.35,297.57 449.59,297.57 448.83,297.57 448.06,297.57 447.30,297.57 446.53,297.57 445.77,297.57 445.01,297.57 444.24,297.57 443.48,297.57 442.72,297.57 441.95,297.57 441.19,297.57 440.43,297.57 439.66,297.57 438.90,297.57 438.14,297.57 437.37,297.57 436.61,297.57 435.85,297.57 435.08,297.57 434.32,297.57 433.56,297.57 432.79,297.57 432.03,297.57 431.27,297.57 430.50,297.57 429.74,297.57 428.98,297.57 428.21,297.57 427.45,297.57 426.69,297.57 425.92,297.57 425.16,297.57 424.40,297.57 423.63,297.57 422.87,297.57 422.10,297.57 421.34,297.57 420.58,297.57 419.81,297.57 419.05,297.57 418.29,297.57 417.52,297.57 416.76,297.57 416.00,297.57 415.23,297.57 414.47,297.57 413.71,297.57 412.94,297.57 412.18,297.57 411.42,297.57 410.65,297.57 409.89,297.57 409.13,297.57 408.36,297.57 407.60,297.57 406.84,297.57 406.07,297.57 405.31,297.57 404.55,297.57 403.78,297.57 403.02,297.57 402.26,297.57 401.49,297.57 400.73,297.57 399.96,297.57 399.20,297.57 398.44,297.57 397.67,297.57 396.91,297.57 396.15,297.57 395.38,297.57 394.62,297.57 393.86,297.57 393.09,297.57 392.33,297.57 391.57,297.57 390.80,297.57 390.04,297.57 389.28,297.57 388.51,297.57 387.75,297.57 386.99,297.57 386.22,297.57 385.46,297.57 384.70,297.57 383.93,297.57 383.17,297.57 382.41,297.57 381.64,297.57 380.88,297.57 380.12,297.57 379.35,297.57 378.59,297.57 377.82,297.57 377.06,297.57 376.30,297.57 375.53,297.57 374.77,297.57 374.01,297.57 373.24,297.57 372.48,297.57 371.72,297.57 370.95,297.57 370.19,297.57 369.43,297.57 368.66,297.57 367.90,297.57 367.14,297.57 366.37,297.57 365.61,297.57 364.85,297.57 364.08,297.57 363.32,297.57 362.56,297.57 361.79,297.57 361.03,297.57 360.27,297.57 359.50,297.57 358.74,297.57 357.98,297.57 357.21,297.57 356.45,297.57 355.68,297.57 354.92,297.57 354.16,297.57 353.39,297.57 352.63,297.57 351.87,297.57 351.10,297.57 350.34,297.57 349.58,297.57 348.81,297.57 348.05,297.57 347.29,297.57 346.52,297.57 345.76,297.57 345.00,297.57 344.23,297.57 343.47,297.57 342.71,297.57 341.94,297.57 341.18,297.57 340.42,297.57 339.65,297.57 338.89,297.57 338.13,297.57 337.36,297.57 336.60,297.57 335.84,297.57 335.07,297.57 334.31,297.57 333.55,297.57 332.78,297.57 332.02,297.57 331.25,297.57 330.49,297.57 329.73,297.57 328.96,297.57 328.20,297.57 327.44,297.57 326.67,297.57 325.91,297.57 325.15,297.57 324.38,297.57 323.62,297.57 322.86,297.57 322.09,297.57 321.33,297.57 320.57,297.57 319.80,297.57 319.04,297.57 318.28,297.57 317.51,297.57 316.75,297.57 315.99,297.57 315.22,297.57 314.46,297.57 313.70,297.57 312.93,297.57 312.17,297.57 311.41,297.57 310.64,297.57 309.88,297.57 309.11,297.57 308.35,297.57 307.59,297.57 306.82,297.57 306.06,297.57 305.30,297.57 304.53,297.57 303.77,297.57 303.01,297.57 302.24,297.57 301.48,297.57 300.72,297.57 299.95,297.57 299.19,297.57 298.43,297.57 297.66,297.57 296.90,297.57 296.14,297.57 295.37,297.57 294.61,297.57 293.85,297.57 293.08,297.57 292.32,297.57 291.56,297.57 290.79,297.57 290.03,297.57 289.27,297.57 288.50,297.57 287.74,297.57 286.97,297.57 286.21,297.57 285.45,297.57 284.68,297.57 283.92,297.57 283.16,297.57 282.39,297.57 281.63,297.57 280.87,297.57 280.10,297.57 279.34,297.57 278.58,297.57 277.81,297.57 277.05,297.57 276.29,297.57 275.52,297.57 274.76,297.57 274.00,297.57 273.23,297.57 272.47,297.57 271.71,297.57 270.94,297.57 270.18,297.57 269.42,297.57 268.65,297.57 267.89,297.57 267.13,297.57 266.36,297.57 265.60,297.57 264.83,297.57 264.07,297.57 263.31,297.57 262.54,297.57 261.78,297.57 261.02,297.57 260.25,297.57 259.49,297.57 258.73,297.57 257.96,297.57 257.20,297.57 256.44,297.57 255.67,297.57 254.91,297.57 254.15,297.57 253.38,297.57 252.62,297.57 251.86,297.57 251.09,297.57 250.33,297.57 249.57,297.57 248.80,297.57 248.04,297.57 247.28,297.57 246.51,297.57 245.75,297.57 244.99,297.57 244.22,297.57 243.46,297.57 242.69,297.57 241.93,297.57 241.17,297.57 240.40,297.57 239.64,297.57 238.88,297.57 238.11,297.57 237.35,297.57 236.59,297.57 235.82,297.57 235.06,297.57 234.30,297.57 233.53,297.57 232.77,297.57 232.01,297.57 231.24,297.57 230.48,297.57 229.72,297.57 228.95,297.57 228.19,297.57 227.43,297.57 226.66,297.57 225.90,297.57 225.14,297.57 224.37,297.57 223.61,297.57 222.85,297.57 222.08,297.57 221.32,297.57 220.56,297.57 219.79,297.57 219.03,297.57 218.26,297.57 217.50,297.57 216.74,297.57 215.97,297.57 215.21,297.57 214.45,297.57 213.68,297.57 212.92,297.57 212.16,297.57 211.39,297.57 210.63,297.57 209.87,297.57 209.10,297.57 208.34,297.57 207.58,297.57 206.81,297.57 206.05,297.57 205.29,297.57 204.52,297.57 203.76,297.57 203.00,297.57 202.23,297.57 201.47,297.57 200.71,297.57 199.94,297.57 199.18,297.57 198.42,297.57 197.65,297.57 196.89,297.57 196.12,297.57 195.36,297.57 194.60,297.57 193.83,297.57 193.07,297.57 192.31,297.57 191.54,297.57 190.78,297.57 190.02,297.57 189.25,297.57 188.49,297.57 187.73,297.57 186.96,297.57 186.20,297.57 185.44,297.57 184.67,297.57 183.91,297.57 183.15,297.57 182.38,297.57 181.62,297.57 180.86,297.57 180.09,297.57 179.33,297.57 178.57,297.57 177.80,297.57 177.04,297.57 176.28,297.57 175.51,297.57 174.75,297.57 173.98,297.57 173.22,297.57 172.46,297.57 171.69,297.57 170.93,297.57 170.17,297.57 169.40,297.57 168.64,297.57 167.88,297.57 167.11,297.57 166.35,297.57 165.59,297.57 164.82,297.57 164.06,297.57 163.30,297.57 162.53,297.57 161.77,297.57 161.01,297.57 160.24,297.57 159.48,297.57 158.72,297.57 157.95,297.57 157.19,297.57 156.43,297.57 155.66,297.57 154.90,297.57 154.14,297.57 153.37,297.57 152.61,297.57 151.84,297.57 151.08,297.57 150.32,297.57 149.55,297.57 148.79,297.57 148.03,297.57 147.26,297.57 146.50,297.57 145.74,297.57 144.97,297.57 144.21,297.57 143.45,297.57 142.68,297.57 141.92,297.57 141.16,297.57 140.39,297.57 139.63,297.57 138.87,297.57 138.10,297.57 137.34,297.57 136.58,297.57 135.81,297.57 135.05,297.57 134.29,297.57 133.52,297.57 132.76,297.57 132.00,297.57 131.23,297.57 130.47,297.57 129.70,297.57 128.94,297.57 128.18,297.57 127.41,297.57 126.65,297.57 125.89,297.57 125.12,297.57 124.36,297.57 123.60,297.57 122.83,297.57 122.07,297.57 121.31,297.57 120.54,297.57 119.78,297.57 119.02,297.57 118.25,297.57 117.49,297.57 116.73,297.57 115.96,297.57 115.20,297.57 114.44,297.57 113.67,297.57 112.91,297.57 112.15,297.57 111.38,297.57 110.62,297.57 109.86,297.57 109.09,297.57 108.33,297.57 107.57,297.57 106.80,297.57 106.04,297.57 105.27,297.57 104.51,297.57 103.75,297.57 102.98,297.57 102.22,297.57 101.46,297.57 100.69,297.57 99.93,297.57 99.17,297.57 98.40,297.57 97.64,297.57 96.88,297.57 96.11,297.57 95.35,297.57 94.59,297.57 93.82,297.57 93.06,297.57 92.30,297.57 91.53,297.57 90.77,297.57 90.01,297.57 89.24,297.57 88.48,297.57 87.72,297.57 86.95,297.57 86.19,297.57 ' style='stroke-width: 0.00; stroke: none; stroke-linecap: butt; fill: #FF9933; fill-opacity: 0.50;' />
<polyline points='86.19,297.11 86.95,297.10 87.72,297.10 88.48,297.10 89.24,297.09 90.01,297.09 90.77,297.09 91.53,297.08 92.30,297.08 93.06,297.08 93.82,297.07 94.59,297.07 95.35,297.07 96.11,297.07 96.88,297.06 97.64,297.06 98.40,297.05 99.17,297.05 99.93,297.05 100.69,297.04 101.46,297.04 102.22,297.03 102.98,297.03 103.75,297.02 104.51,297.01 105.27,297.00 106.04,296.99 106.80,296.99 107.57,296.98 108.33,296.96 109.09,296.95 109.86,296.94 110.62,296.92 111.38,296.91 112.15,296.89 112.91,296.88 113.67,296.86 114.44,296.84 115.20,296.82 115.96,296.79 116.73,296.77 117.49,296.74 118.25,296.72 119.02,296.69 119.78,296.66 120.54,296.62 121.31,296.59 122.07,296.55 122.83,296.51 123.60,296.47 124.36,296.43 125.12,296.38 125.89,296.33 126.65,296.28 127.41,296.22 128.18,296.17 128.94,296.10 129.70,296.04 130.47,295.97 131.23,295.89 132.00,295.81 132.76,295.73 133.52,295.64 134.29,295.54 135.05,295.44 135.81,295.33 136.58,295.22 137.34,295.10 138.10,294.97 138.87,294.83 139.63,294.68 140.39,294.53 141.16,294.36 141.92,294.19 142.68,294.00 143.45,293.80 144.21,293.59 144.97,293.36 145.74,293.12 146.50,292.87 147.26,292.61 148.03,292.33 148.79,292.03 149.55,291.72 150.32,291.39 151.08,291.04 151.84,290.67 152.61,290.29 153.37,289.88 154.14,289.46 154.90,289.02 155.66,288.56 156.43,288.07 157.19,287.57 157.95,287.05 158.72,286.50 159.48,285.94 160.24,285.35 161.01,284.74 161.77,284.12 162.53,283.47 163.30,282.80 164.06,282.11 164.82,281.41 165.59,280.69 166.35,279.94 167.11,279.19 167.88,278.42 168.64,277.63 169.40,276.83 170.17,276.02 170.93,275.19 171.69,274.36 172.46,273.52 173.22,272.67 173.98,271.82 174.75,270.96 175.51,270.11 176.28,269.25 177.04,268.39 177.80,267.53 178.57,266.68 179.33,265.84 180.09,265.00 180.86,264.17 181.62,263.35 182.38,262.54 183.15,261.74 183.91,260.97 184.67,260.20 185.44,259.45 186.20,258.72 186.96,258.01 187.73,257.31 188.49,256.63 189.25,255.97 190.02,255.34 190.78,254.71 191.54,254.12 192.31,253.54 193.07,252.98 193.83,252.43 194.60,251.91 195.36,251.40 196.12,250.90 196.89,250.43 197.65,249.96 198.42,249.51 199.18,249.07 199.94,248.63 200.71,248.20 201.47,247.78 202.23,247.37 203.00,246.95 203.76,246.54 204.52,246.12 205.29,245.70 206.05,245.28 206.81,244.84 207.58,244.40 208.34,243.95 209.10,243.49 209.87,243.01 210.63,242.52 211.39,242.02 212.16,241.49 212.92,240.95 213.68,240.40 214.45,239.82 215.21,239.22 215.97,238.60 216.74,237.96 217.50,237.30 218.26,236.62 219.03,235.93 219.79,235.21 220.56,234.48 221.32,233.73 222.08,232.96 222.85,232.18 223.61,231.39 224.37,230.58 225.14,229.77 225.90,228.94 226.66,228.11 227.43,227.28 228.19,226.45 228.95,225.62 229.72,224.79 230.48,223.97 231.24,223.15 232.01,222.35 232.77,221.56 233.53,220.79 234.30,220.04 235.06,219.30 235.82,218.60 236.59,217.92 237.35,217.26 238.11,216.64 238.88,216.06 239.64,215.50 240.40,215.00 241.17,214.53 241.93,214.10 242.69,213.71 243.46,213.37 244.22,213.08 244.99,212.83 245.75,212.64 246.51,212.50 247.28,212.41 248.04,212.37 248.80,212.39 249.57,212.45 250.33,212.57 251.09,212.75 251.86,212.98 252.62,213.25 253.38,213.59 254.15,213.98 254.91,214.42 255.67,214.90 256.44,215.45 257.20,216.03 257.96,216.65 258.73,217.34 259.49,218.06 260.25,218.82 261.02,219.62 261.78,220.47 262.54,221.34 263.31,222.25 264.07,223.19 264.83,224.16 265.60,225.16 266.36,226.18 267.13,227.23 267.89,228.29 268.65,229.37 269.42,230.47 270.18,231.58 270.94,232.70 271.71,233.83 272.47,234.97 273.23,236.10 274.00,237.24 274.76,238.38 275.52,239.51 276.29,240.63 277.05,241.75 277.81,242.86 278.58,243.96 279.34,245.04 280.10,246.11 280.87,247.16 281.63,248.19 282.39,249.19 283.16,250.18 283.92,251.15 284.68,252.09 285.45,253.00 286.21,253.89 286.97,254.74 287.74,255.57 288.50,256.37 289.27,257.14 290.03,257.87 290.79,258.57 291.56,259.24 292.32,259.87 293.08,260.47 293.85,261.04 294.61,261.57 295.37,262.06 296.14,262.52 296.90,262.94 297.66,263.32 298.43,263.67 299.19,263.99 299.95,264.26 300.72,264.50 301.48,264.71 302.24,264.88 303.01,265.00 303.77,265.10 304.53,265.17 305.30,265.19 306.06,265.18 306.82,265.14 307.59,265.06 308.35,264.95 309.11,264.81 309.88,264.63 310.64,264.42 311.41,264.18 312.17,263.92 312.93,263.61 313.70,263.28 314.46,262.93 315.22,262.54 315.99,262.13 316.75,261.69 317.51,261.23 318.28,260.73 319.04,260.21 319.80,259.68 320.57,259.12 321.33,258.53 322.09,257.93 322.86,257.31 323.62,256.66 324.38,256.00 325.15,255.33 325.91,254.63 326.67,253.92 327.44,253.20 328.20,252.46 328.96,251.71 329.73,250.95 330.49,250.17 331.25,249.39 332.02,248.60 332.78,247.80 333.55,246.99 334.31,246.18 335.07,245.37 335.84,244.55 336.60,243.73 337.36,242.90 338.13,242.08 338.89,241.26 339.65,240.44 340.42,239.62 341.18,238.81 341.94,238.00 342.71,237.20 343.47,236.41 344.23,235.63 345.00,234.85 345.76,234.09 346.52,233.35 347.29,232.61 348.05,231.89 348.81,231.19 349.58,230.51 350.34,229.85 351.10,229.20 351.87,228.58 352.63,227.99 353.39,227.41 354.16,226.86 354.92,226.34 355.68,225.84 356.45,225.37 357.21,224.94 357.98,224.54 358.74,224.15 359.50,223.82 360.27,223.51 361.03,223.23 361.79,222.99 362.56,222.79 363.32,222.62 364.08,222.48 364.85,222.39 365.61,222.34 366.37,222.31 367.14,222.33 367.90,222.39 368.66,222.47 369.43,222.60 370.19,222.77 370.95,222.97 371.72,223.20 372.48,223.48 373.24,223.79 374.01,224.13 374.77,224.51 375.53,224.93 376.30,225.37 377.06,225.84 377.82,226.34 378.59,226.87 379.35,227.43 380.12,228.01 380.88,228.62 381.64,229.25 382.41,229.90 383.17,230.57 383.93,231.26 384.70,231.96 385.46,232.68 386.22,233.41 386.99,234.15 387.75,234.90 388.51,235.65 389.28,236.41 390.04,237.17 390.80,237.94 391.57,238.70 392.33,239.45 393.09,240.20 393.86,240.94 394.62,241.68 395.38,242.40 396.15,243.10 396.91,243.80 397.67,244.47 398.44,245.13 399.20,245.76 399.96,246.38 400.73,246.96 401.49,247.52 402.26,248.06 403.02,248.57 403.78,249.05 404.55,249.50 405.31,249.92 406.07,250.30 406.84,250.65 407.60,250.97 408.36,251.25 409.13,251.49 409.89,251.70 410.65,251.88 411.42,252.01 412.18,252.11 412.94,252.19 413.71,252.21 414.47,252.20 415.23,252.17 416.00,252.09 416.76,251.98 417.52,251.85 418.29,251.68 419.05,251.47 419.81,251.24 420.58,250.99 421.34,250.71 422.10,250.40 422.87,250.07 423.63,249.72 424.40,249.35 425.16,248.97 425.92,248.58 426.69,248.16 427.45,247.75 428.21,247.32 428.98,246.89 429.74,246.46 430.50,246.03 431.27,245.60 432.03,245.18 432.79,244.77 433.56,244.37 434.32,243.98 435.08,243.61 435.85,243.25 436.61,242.92 437.37,242.62 438.14,242.33 438.90,242.08 439.66,241.86 440.43,241.67 441.19,241.51 441.95,241.39 442.72,241.31 443.48,241.27 444.24,241.26 445.01,241.31 445.77,241.39 446.53,241.51 447.30,241.69 448.06,241.91 448.83,242.17 449.59,242.48 450.35,242.84 451.12,243.24 451.88,243.68 452.64,244.18 453.41,244.72 454.17,245.29 454.93,245.92 455.70,246.59 456.46,247.29 457.22,248.03 457.99,248.81 458.75,249.62 459.51,250.46 460.28,251.35 461.04,252.26 461.80,253.19 462.57,254.15 463.33,255.14 464.09,256.14 464.86,257.16 465.62,258.20 466.38,259.25 467.15,260.31 467.91,261.39 468.67,262.46 469.44,263.54 470.20,264.63 470.97,265.71 471.73,266.79 472.49,267.87 473.26,268.94 474.02,270.00 474.78,271.05 475.55,272.09 476.31,273.11 ' style='stroke-width: 1.07; stroke-linecap: butt;' />
<line x1='314.93' y1='311.19' x2='314.93' y2='11.68' style='stroke-width: 1.07; stroke-dasharray: 5.69,5.69; stroke-linecap: butt;' />
</g>
<g clip-path='url(#cpMC4wMHw1MDQuMDB8MC4wMHwzNjAuMDA=)'>
<text x='55.79' y='304.03' text-anchor='end' style='font-size: 18.00px;fill: #4D4D4D; font-family: "Arial";' textLength='25.02px' lengthAdjust='spacingAndGlyphs'>0.0</text>
<text x='55.79' y='236.29' text-anchor='end' style='font-size: 18.00px;fill: #4D4D4D; font-family: "Arial";' textLength='25.02px' lengthAdjust='spacingAndGlyphs'>0.5</text>
<text x='55.79' y='168.55' text-anchor='end' style='font-size: 18.00px;fill: #4D4D4D; font-family: "Arial";' textLength='25.02px' lengthAdjust='spacingAndGlyphs'>1.0</text>
<text x='55.79' y='100.81' text-anchor='end' style='font-size: 18.00px;fill: #4D4D4D; font-family: "Arial";' textLength='25.02px' lengthAdjust='spacingAndGlyphs'>1.5</text>
<text x='55.79' y='33.08' text-anchor='end' style='font-size: 18.00px;fill: #4D4D4D; font-family: "Arial";' textLength='25.02px' lengthAdjust='spacingAndGlyphs'>2.0</text>
<text x='154.45' y='329.03' text-anchor='middle' style='font-size: 18.00px;fill: #4D4D4D; font-family: "Arial";' textLength='10.01px' lengthAdjust='spacingAndGlyphs'>3</text>
<text x='282.83' y='329.03' text-anchor='middle' style='font-size: 18.00px;fill: #4D4D4D; font-family: "Arial";' textLength='10.01px' lengthAdjust='spacingAndGlyphs'>4</text>
<text x='411.22' y='329.03' text-anchor='middle' style='font-size: 18.00px;fill: #4D4D4D; font-family: "Arial";' textLength='10.01px' lengthAdjust='spacingAndGlyphs'>5</text>
<text x='279.62' y='350.12' text-anchor='middle' style='font-size: 20.00px; font-weight: bold; font-family: "Arial";' textLength='108.87px' lengthAdjust='spacingAndGlyphs'>log (length)</text>
<text transform='translate(22.75,161.43) rotate(-90)' text-anchor='middle' style='font-size: 24.00px; font-weight: bold; font-family: "Arial";' textLength='86.70px' lengthAdjust='spacingAndGlyphs'>Density</text>
<text x='279.62' y='6.20' text-anchor='middle' style='font-size: 0.00px; font-weight: bold; font-family: "Arial";' textLength='13.47px' lengthAdjust='spacingAndGlyphs'>Plasmids length distribution</text>
</g>
</svg>
