<?xml version='1.0' encoding='UTF-8' ?>
<svg xmlns='http://www.w3.org/2000/svg' xmlns:xlink='http://www.w3.org/1999/xlink' class='svglite' width='504.00pt' height='360.00pt' viewBox='0 0 504.00 360.00'>
<defs>
  <style type='text/css'><![CDATA[
    .svglite line, .svglite polyline, .svglite polygon, .svglite path, .svglite rect, .svglite circle {
      fill: none;
      stroke: #000000;
      stroke-linecap: round;
      stroke-linejoin: round;
      stroke-miterlimit: 10.00;
    }
    .svglite text {
      white-space: pre;
    }
  ]]></style>
</defs>
<rect width='100%' height='100%' style='stroke: none; fill: #FFFFFF;'/>
<defs>
  <clipPath id='cpMC4wMHw1MDQuMDB8MC4wMHwzNjAuMDA='>
    <rect x='0.00' y='0.00' width='504.00' height='360.00' />
  </clipPath>
</defs>
<g clip-path='url(#cpMC4wMHw1MDQuMDB8MC4wMHwzNjAuMDA=)'>
</g>
<defs>
  <clipPath id='cpMC4wMHw1MDQuMDB8MC4wMHw5MC4wMA=='>
    <rect x='0.00' y='0.00' width='504.00' height='90.00' />
  </clipPath>
</defs>
<g clip-path='url(#cpMC4wMHw1MDQuMDB8MC4wMHw5MC4wMA==)'>
<rect x='0.00' y='0.00' width='504.00' height='90.00' style='stroke-width: 1.07; stroke: #FFFFFF; fill: #FFFFFF;' />
</g>
<g clip-path='url(#cpMC4wMHw1MDQuMDB8MC4wMHwzNjAuMDA=)'>
</g>
<defs>
  <clipPath id='cpNDYuMzN8NDk4LjUyfDUuNDh8NzAuNjM='>
    <rect x='46.33' y='5.48' width='452.19' height='65.15' />
  </clipPath>
</defs>
<g clip-path='url(#cpNDYuMzN8NDk4LjUyfDUuNDh8NzAuNjM=)'>
<rect x='46.33' y='5.48' width='452.19' height='65.15' style='stroke-width: 1.07; stroke: none; fill: #FFFFFF;' />
<polyline points='46.33,57.31 498.52,57.31 ' style='stroke-width: 0.53; stroke: #EBEBEB; stroke-linecap: butt;' />
<polyline points='46.33,36.61 498.52,36.61 ' style='stroke-width: 0.53; stroke: #EBEBEB; stroke-linecap: butt;' />
<polyline points='46.33,15.90 498.52,15.90 ' style='stroke-width: 0.53; stroke: #EBEBEB; stroke-linecap: butt;' />
<polyline points='46.33,67.67 498.52,67.67 ' style='stroke-width: 1.07; stroke: #EBEBEB; stroke-linecap: butt;' />
<polyline points='46.33,46.96 498.52,46.96 ' style='stroke-width: 1.07; stroke: #EBEBEB; stroke-linecap: butt;' />
<polyline points='46.33,26.25 498.52,26.25 ' style='stroke-width: 1.07; stroke: #EBEBEB; stroke-linecap: butt;' />
<polyline points='46.33,5.54 498.52,5.54 ' style='stroke-width: 1.07; stroke: #EBEBEB; stroke-linecap: butt;' />
<polyline points='131.11,70.63 131.11,5.48 ' style='stroke-width: 1.07; stroke: #EBEBEB; stroke-linecap: butt;' />
<polyline points='272.42,70.63 272.42,5.48 ' style='stroke-width: 1.07; stroke: #EBEBEB; stroke-linecap: butt;' />
<polyline points='413.73,70.63 413.73,5.48 ' style='stroke-width: 1.07; stroke: #EBEBEB; stroke-linecap: butt;' />
<rect x='67.52' y='36.81' width='127.18' height='30.86' style='stroke-width: 1.07; stroke: none; stroke-linecap: butt; stroke-linejoin: miter; fill: #00FF93;' />
<rect x='208.83' y='8.44' width='127.18' height='59.23' style='stroke-width: 1.07; stroke: none; stroke-linecap: butt; stroke-linejoin: miter; fill: #FFC300;' />
<rect x='350.14' y='50.07' width='127.18' height='17.60' style='stroke-width: 1.07; stroke: none; stroke-linecap: butt; stroke-linejoin: miter; fill: #F11212;' />
<rect x='46.33' y='5.48' width='452.19' height='65.15' style='stroke-width: 1.07; stroke: #333333;' />
</g>
<g clip-path='url(#cpMC4wMHw1MDQuMDB8MC4wMHwzNjAuMDA=)'>
<text x='41.40' y='71.98' text-anchor='end' style='font-size: 12.00px;fill: #4D4D4D; font-family: "Arial";' textLength='6.67px' lengthAdjust='spacingAndGlyphs'>0</text>
<text x='41.40' y='51.27' text-anchor='end' style='font-size: 12.00px;fill: #4D4D4D; font-family: "Arial";' textLength='20.02px' lengthAdjust='spacingAndGlyphs'>100</text>
<text x='41.40' y='30.56' text-anchor='end' style='font-size: 12.00px;fill: #4D4D4D; font-family: "Arial";' textLength='20.02px' lengthAdjust='spacingAndGlyphs'>200</text>
<text x='41.40' y='9.85' text-anchor='end' style='font-size: 12.00px;fill: #4D4D4D; font-family: "Arial";' textLength='20.02px' lengthAdjust='spacingAndGlyphs'>300</text>
<polyline points='43.59,67.67 46.33,67.67 ' style='stroke-width: 1.07; stroke: #333333; stroke-linecap: butt;' />
<polyline points='43.59,46.96 46.33,46.96 ' style='stroke-width: 1.07; stroke: #333333; stroke-linecap: butt;' />
<polyline points='43.59,26.25 46.33,26.25 ' style='stroke-width: 1.07; stroke: #333333; stroke-linecap: butt;' />
<polyline points='43.59,5.54 46.33,5.54 ' style='stroke-width: 1.07; stroke: #333333; stroke-linecap: butt;' />
<polyline points='131.11,73.37 131.11,70.63 ' style='stroke-width: 1.07; stroke: #333333; stroke-linecap: butt;' />
<polyline points='272.42,73.37 272.42,70.63 ' style='stroke-width: 1.07; stroke: #333333; stroke-linecap: butt;' />
<polyline points='413.73,73.37 413.73,70.63 ' style='stroke-width: 1.07; stroke: #333333; stroke-linecap: butt;' />
<text transform='translate(131.62,76.07) rotate(-45)' text-anchor='end' style='font-size: 0.00px;fill: #4D4D4D; font-family: "Arial";' textLength='2.94px' lengthAdjust='spacingAndGlyphs'>gplas2</text>
<text transform='translate(272.93,76.07) rotate(-45)' text-anchor='end' style='font-size: 0.00px;fill: #4D4D4D; font-family: "Arial";' textLength='4.72px' lengthAdjust='spacingAndGlyphs'>MOB-suite</text>
<text transform='translate(414.24,76.07) rotate(-45)' text-anchor='end' style='font-size: 0.00px;fill: #4D4D4D; font-family: "Arial";' textLength='7.06px' lengthAdjust='spacingAndGlyphs'>plasmidSPAdes</text>
<text x='272.42' y='84.52' text-anchor='middle' style='font-size: 0.00px; font-weight: bold; font-family: "Arial";' textLength='4.22px' lengthAdjust='spacingAndGlyphs'>Software</text>
<text transform='translate(15.55,38.06) rotate(-90)' text-anchor='middle' style='font-size: 14.00px; font-weight: bold; font-family: "Arial";' textLength='244.14px' lengthAdjust='spacingAndGlyphs'>Number of contaminated predictions</text>
</g>
<defs>
  <clipPath id='cpMC4wMHw1MDQuMDB8OTAuMDB8MzYwLjAw'>
    <rect x='0.00' y='90.00' width='504.00' height='270.00' />
  </clipPath>
</defs>
<g clip-path='url(#cpMC4wMHw1MDQuMDB8OTAuMDB8MzYwLjAw)'>
<rect x='0.00' y='90.00' width='504.00' height='270.00' style='stroke-width: 1.07; stroke: #FFFFFF; fill: #FFFFFF;' />
</g>
<g clip-path='url(#cpMC4wMHw1MDQuMDB8MC4wMHwzNjAuMDA=)'>
</g>
<defs>
  <clipPath id='cpNjAuMDF8NDk4LjUyfDEzNC42OHwzMjguMjA='>
    <rect x='60.01' y='134.68' width='438.51' height='193.52' />
  </clipPath>
</defs>
<g clip-path='url(#cpNjAuMDF8NDk4LjUyfDEzNC42OHwzMjguMjA=)'>
<rect x='60.01' y='134.68' width='438.51' height='193.52' style='stroke-width: 1.07; stroke: none; fill: #FFFFFF;' />
<polyline points='60.01,297.74 498.52,297.74 ' style='stroke-width: 0.53; stroke: #EBEBEB; stroke-linecap: butt;' />
<polyline points='60.01,253.98 498.52,253.98 ' style='stroke-width: 0.53; stroke: #EBEBEB; stroke-linecap: butt;' />
<polyline points='60.01,210.21 498.52,210.21 ' style='stroke-width: 0.53; stroke: #EBEBEB; stroke-linecap: butt;' />
<polyline points='60.01,166.45 498.52,166.45 ' style='stroke-width: 0.53; stroke: #EBEBEB; stroke-linecap: butt;' />
<polyline points='60.01,319.62 498.52,319.62 ' style='stroke-width: 1.07; stroke: #EBEBEB; stroke-linecap: butt;' />
<polyline points='60.01,275.86 498.52,275.86 ' style='stroke-width: 1.07; stroke: #EBEBEB; stroke-linecap: butt;' />
<polyline points='60.01,232.10 498.52,232.10 ' style='stroke-width: 1.07; stroke: #EBEBEB; stroke-linecap: butt;' />
<polyline points='60.01,188.33 498.52,188.33 ' style='stroke-width: 1.07; stroke: #EBEBEB; stroke-linecap: butt;' />
<polyline points='60.01,144.57 498.52,144.57 ' style='stroke-width: 1.07; stroke: #EBEBEB; stroke-linecap: butt;' />
<polyline points='142.23,328.20 142.23,134.68 ' style='stroke-width: 1.07; stroke: #EBEBEB; stroke-linecap: butt;' />
<polyline points='279.26,328.20 279.26,134.68 ' style='stroke-width: 1.07; stroke: #EBEBEB; stroke-linecap: butt;' />
<polyline points='416.30,328.20 416.30,134.68 ' style='stroke-width: 1.07; stroke: #EBEBEB; stroke-linecap: butt;' />
<circle cx='142.23' cy='300.29' r='1.95' style='stroke-width: 0.71; stroke: #333333; fill: #333333;' />
<circle cx='142.23' cy='309.05' r='1.95' style='stroke-width: 0.71; stroke: #333333; fill: #333333;' />
<circle cx='142.23' cy='311.30' r='1.95' style='stroke-width: 0.71; stroke: #333333; fill: #333333;' />
<circle cx='142.23' cy='290.45' r='1.95' style='stroke-width: 0.71; stroke: #333333; fill: #333333;' />
<circle cx='142.23' cy='301.09' r='1.95' style='stroke-width: 0.71; stroke: #333333; fill: #333333;' />
<circle cx='142.23' cy='302.72' r='1.95' style='stroke-width: 0.71; stroke: #333333; fill: #333333;' />
<circle cx='142.23' cy='309.32' r='1.95' style='stroke-width: 0.71; stroke: #333333; fill: #333333;' />
<circle cx='142.23' cy='305.97' r='1.95' style='stroke-width: 0.71; stroke: #333333; fill: #333333;' />
<circle cx='142.23' cy='308.76' r='1.95' style='stroke-width: 0.71; stroke: #333333; fill: #333333;' />
<circle cx='142.23' cy='299.22' r='1.95' style='stroke-width: 0.71; stroke: #333333; fill: #333333;' />
<circle cx='142.23' cy='298.49' r='1.95' style='stroke-width: 0.71; stroke: #333333; fill: #333333;' />
<circle cx='142.23' cy='310.59' r='1.95' style='stroke-width: 0.71; stroke: #333333; fill: #333333;' />
<circle cx='142.23' cy='312.70' r='1.95' style='stroke-width: 0.71; stroke: #333333; fill: #333333;' />
<circle cx='142.23' cy='310.74' r='1.95' style='stroke-width: 0.71; stroke: #333333; fill: #333333;' />
<circle cx='142.23' cy='303.03' r='1.95' style='stroke-width: 0.71; stroke: #333333; fill: #333333;' />
<line x1='142.23' y1='316.57' x2='142.23' y2='314.22' style='stroke-width: 1.07; stroke: #333333; stroke-linecap: butt;' />
<line x1='142.23' y1='319.07' x2='142.23' y2='319.40' style='stroke-width: 1.07; stroke: #333333; stroke-linecap: butt;' />
<polygon points='90.84,316.57 90.84,319.07 193.62,319.07 193.62,316.57 90.84,316.57 ' style='stroke-width: 1.07; stroke: #333333; stroke-linecap: butt; stroke-linejoin: miter; fill: #FFFFFF;' />
<line x1='90.84' y1='318.65' x2='193.62' y2='318.65' style='stroke-width: 2.13; stroke: #333333; stroke-linecap: butt; stroke-linejoin: miter;' />
<circle cx='279.26' cy='308.86' r='1.95' style='stroke-width: 0.71; stroke: #333333; fill: #333333;' />
<line x1='279.26' y1='315.48' x2='279.26' y2='310.41' style='stroke-width: 1.07; stroke: #333333; stroke-linecap: butt;' />
<line x1='279.26' y1='319.04' x2='279.26' y2='319.39' style='stroke-width: 1.07; stroke: #333333; stroke-linecap: butt;' />
<polygon points='227.88,315.48 227.88,319.04 330.65,319.04 330.65,315.48 227.88,315.48 ' style='stroke-width: 1.07; stroke: #333333; stroke-linecap: butt; stroke-linejoin: miter; fill: #FFFFFF;' />
<line x1='227.88' y1='317.41' x2='330.65' y2='317.41' style='stroke-width: 2.13; stroke: #333333; stroke-linecap: butt; stroke-linejoin: miter;' />
<circle cx='416.30' cy='272.14' r='1.95' style='stroke-width: 0.71; stroke: #333333; fill: #333333;' />
<circle cx='416.30' cy='286.30' r='1.95' style='stroke-width: 0.71; stroke: #333333; fill: #333333;' />
<circle cx='416.30' cy='268.83' r='1.95' style='stroke-width: 0.71; stroke: #333333; fill: #333333;' />
<circle cx='416.30' cy='284.24' r='1.95' style='stroke-width: 0.71; stroke: #333333; fill: #333333;' />
<circle cx='416.30' cy='277.00' r='1.95' style='stroke-width: 0.71; stroke: #333333; fill: #333333;' />
<circle cx='416.30' cy='274.20' r='1.95' style='stroke-width: 0.71; stroke: #333333; fill: #333333;' />
<circle cx='416.30' cy='289.01' r='1.95' style='stroke-width: 0.71; stroke: #333333; fill: #333333;' />
<circle cx='416.30' cy='291.25' r='1.95' style='stroke-width: 0.71; stroke: #333333; fill: #333333;' />
<circle cx='416.30' cy='143.47' r='1.95' style='stroke-width: 0.71; stroke: #333333; fill: #333333;' />
<circle cx='416.30' cy='277.02' r='1.95' style='stroke-width: 0.71; stroke: #333333; fill: #333333;' />
<circle cx='416.30' cy='206.36' r='1.95' style='stroke-width: 0.71; stroke: #333333; fill: #333333;' />
<line x1='416.30' y1='306.56' x2='416.30' y2='292.44' style='stroke-width: 1.07; stroke: #333333; stroke-linecap: butt;' />
<line x1='416.30' y1='316.49' x2='416.30' y2='319.27' style='stroke-width: 1.07; stroke: #333333; stroke-linecap: butt;' />
<polygon points='364.91,306.56 364.91,316.49 467.69,316.49 467.69,306.56 364.91,306.56 ' style='stroke-width: 1.07; stroke: #333333; stroke-linecap: butt; stroke-linejoin: miter; fill: #FFFFFF;' />
<line x1='364.91' y1='313.05' x2='467.69' y2='313.05' style='stroke-width: 2.13; stroke: #333333; stroke-linecap: butt; stroke-linejoin: miter;' />
<circle cx='124.10' cy='319.01' r='1.95' style='stroke-width: 0.71; stroke: #00FF93; stroke-opacity: 0.30; fill: #00FF93; fill-opacity: 0.30;' />
<circle cx='187.56' cy='300.29' r='1.95' style='stroke-width: 0.71; stroke: #00FF93; stroke-opacity: 0.30; fill: #00FF93; fill-opacity: 0.30;' />
<circle cx='159.69' cy='318.37' r='1.95' style='stroke-width: 0.71; stroke: #00FF93; stroke-opacity: 0.30; fill: #00FF93; fill-opacity: 0.30;' />
<circle cx='112.12' cy='316.34' r='1.95' style='stroke-width: 0.71; stroke: #00FF93; stroke-opacity: 0.30; fill: #00FF93; fill-opacity: 0.30;' />
<circle cx='89.01' cy='319.24' r='1.95' style='stroke-width: 0.71; stroke: #00FF93; stroke-opacity: 0.30; fill: #00FF93; fill-opacity: 0.30;' />
<circle cx='156.23' cy='315.01' r='1.95' style='stroke-width: 0.71; stroke: #00FF93; stroke-opacity: 0.30; fill: #00FF93; fill-opacity: 0.30;' />
<circle cx='100.82' cy='317.09' r='1.95' style='stroke-width: 0.71; stroke: #00FF93; stroke-opacity: 0.30; fill: #00FF93; fill-opacity: 0.30;' />
<circle cx='117.85' cy='316.99' r='1.95' style='stroke-width: 0.71; stroke: #00FF93; stroke-opacity: 0.30; fill: #00FF93; fill-opacity: 0.30;' />
<circle cx='120.99' cy='319.08' r='1.95' style='stroke-width: 0.71; stroke: #00FF93; stroke-opacity: 0.30; fill: #00FF93; fill-opacity: 0.30;' />
<circle cx='112.31' cy='318.48' r='1.95' style='stroke-width: 0.71; stroke: #00FF93; stroke-opacity: 0.30; fill: #00FF93; fill-opacity: 0.30;' />
<circle cx='108.49' cy='318.93' r='1.95' style='stroke-width: 0.71; stroke: #00FF93; stroke-opacity: 0.30; fill: #00FF93; fill-opacity: 0.30;' />
<circle cx='146.41' cy='318.65' r='1.95' style='stroke-width: 0.71; stroke: #00FF93; stroke-opacity: 0.30; fill: #00FF93; fill-opacity: 0.30;' />
<circle cx='157.37' cy='318.21' r='1.95' style='stroke-width: 0.71; stroke: #00FF93; stroke-opacity: 0.30; fill: #00FF93; fill-opacity: 0.30;' />
<circle cx='174.01' cy='316.68' r='1.95' style='stroke-width: 0.71; stroke: #00FF93; stroke-opacity: 0.30; fill: #00FF93; fill-opacity: 0.30;' />
<circle cx='143.98' cy='319.39' r='1.95' style='stroke-width: 0.71; stroke: #00FF93; stroke-opacity: 0.30; fill: #00FF93; fill-opacity: 0.30;' />
<circle cx='122.18' cy='319.10' r='1.95' style='stroke-width: 0.71; stroke: #00FF93; stroke-opacity: 0.30; fill: #00FF93; fill-opacity: 0.30;' />
<circle cx='157.58' cy='319.24' r='1.95' style='stroke-width: 0.71; stroke: #00FF93; stroke-opacity: 0.30; fill: #00FF93; fill-opacity: 0.30;' />
<circle cx='144.20' cy='318.93' r='1.95' style='stroke-width: 0.71; stroke: #00FF93; stroke-opacity: 0.30; fill: #00FF93; fill-opacity: 0.30;' />
<circle cx='125.44' cy='318.43' r='1.95' style='stroke-width: 0.71; stroke: #00FF93; stroke-opacity: 0.30; fill: #00FF93; fill-opacity: 0.30;' />
<circle cx='170.19' cy='316.94' r='1.95' style='stroke-width: 0.71; stroke: #00FF93; stroke-opacity: 0.30; fill: #00FF93; fill-opacity: 0.30;' />
<circle cx='134.85' cy='317.24' r='1.95' style='stroke-width: 0.71; stroke: #00FF93; stroke-opacity: 0.30; fill: #00FF93; fill-opacity: 0.30;' />
<circle cx='194.69' cy='318.49' r='1.95' style='stroke-width: 0.71; stroke: #00FF93; stroke-opacity: 0.30; fill: #00FF93; fill-opacity: 0.30;' />
<circle cx='160.46' cy='319.40' r='1.95' style='stroke-width: 0.71; stroke: #00FF93; stroke-opacity: 0.30; fill: #00FF93; fill-opacity: 0.30;' />
<circle cx='148.45' cy='316.99' r='1.95' style='stroke-width: 0.71; stroke: #00FF93; stroke-opacity: 0.30; fill: #00FF93; fill-opacity: 0.30;' />
<circle cx='97.32' cy='319.23' r='1.95' style='stroke-width: 0.71; stroke: #00FF93; stroke-opacity: 0.30; fill: #00FF93; fill-opacity: 0.30;' />
<circle cx='167.25' cy='319.01' r='1.95' style='stroke-width: 0.71; stroke: #00FF93; stroke-opacity: 0.30; fill: #00FF93; fill-opacity: 0.30;' />
<circle cx='114.30' cy='319.10' r='1.95' style='stroke-width: 0.71; stroke: #00FF93; stroke-opacity: 0.30; fill: #00FF93; fill-opacity: 0.30;' />
<circle cx='107.26' cy='319.32' r='1.95' style='stroke-width: 0.71; stroke: #00FF93; stroke-opacity: 0.30; fill: #00FF93; fill-opacity: 0.30;' />
<circle cx='103.35' cy='309.05' r='1.95' style='stroke-width: 0.71; stroke: #00FF93; stroke-opacity: 0.30; fill: #00FF93; fill-opacity: 0.30;' />
<circle cx='160.54' cy='319.30' r='1.95' style='stroke-width: 0.71; stroke: #00FF93; stroke-opacity: 0.30; fill: #00FF93; fill-opacity: 0.30;' />
<circle cx='168.66' cy='316.66' r='1.95' style='stroke-width: 0.71; stroke: #00FF93; stroke-opacity: 0.30; fill: #00FF93; fill-opacity: 0.30;' />
<circle cx='109.90' cy='318.43' r='1.95' style='stroke-width: 0.71; stroke: #00FF93; stroke-opacity: 0.30; fill: #00FF93; fill-opacity: 0.30;' />
<circle cx='152.17' cy='318.82' r='1.95' style='stroke-width: 0.71; stroke: #00FF93; stroke-opacity: 0.30; fill: #00FF93; fill-opacity: 0.30;' />
<circle cx='186.05' cy='318.10' r='1.95' style='stroke-width: 0.71; stroke: #00FF93; stroke-opacity: 0.30; fill: #00FF93; fill-opacity: 0.30;' />
<circle cx='136.05' cy='318.75' r='1.95' style='stroke-width: 0.71; stroke: #00FF93; stroke-opacity: 0.30; fill: #00FF93; fill-opacity: 0.30;' />
<circle cx='164.29' cy='316.65' r='1.95' style='stroke-width: 0.71; stroke: #00FF93; stroke-opacity: 0.30; fill: #00FF93; fill-opacity: 0.30;' />
<circle cx='162.57' cy='319.03' r='1.95' style='stroke-width: 0.71; stroke: #00FF93; stroke-opacity: 0.30; fill: #00FF93; fill-opacity: 0.30;' />
<circle cx='164.95' cy='319.23' r='1.95' style='stroke-width: 0.71; stroke: #00FF93; stroke-opacity: 0.30; fill: #00FF93; fill-opacity: 0.30;' />
<circle cx='108.90' cy='316.68' r='1.95' style='stroke-width: 0.71; stroke: #00FF93; stroke-opacity: 0.30; fill: #00FF93; fill-opacity: 0.30;' />
<circle cx='108.42' cy='315.48' r='1.95' style='stroke-width: 0.71; stroke: #00FF93; stroke-opacity: 0.30; fill: #00FF93; fill-opacity: 0.30;' />
<circle cx='191.14' cy='319.07' r='1.95' style='stroke-width: 0.71; stroke: #00FF93; stroke-opacity: 0.30; fill: #00FF93; fill-opacity: 0.30;' />
<circle cx='98.21' cy='314.52' r='1.95' style='stroke-width: 0.71; stroke: #00FF93; stroke-opacity: 0.30; fill: #00FF93; fill-opacity: 0.30;' />
<circle cx='97.54' cy='318.75' r='1.95' style='stroke-width: 0.71; stroke: #00FF93; stroke-opacity: 0.30; fill: #00FF93; fill-opacity: 0.30;' />
<circle cx='90.49' cy='318.67' r='1.95' style='stroke-width: 0.71; stroke: #00FF93; stroke-opacity: 0.30; fill: #00FF93; fill-opacity: 0.30;' />
<circle cx='175.22' cy='315.47' r='1.95' style='stroke-width: 0.71; stroke: #00FF93; stroke-opacity: 0.30; fill: #00FF93; fill-opacity: 0.30;' />
<circle cx='102.94' cy='317.42' r='1.95' style='stroke-width: 0.71; stroke: #00FF93; stroke-opacity: 0.30; fill: #00FF93; fill-opacity: 0.30;' />
<circle cx='104.26' cy='318.61' r='1.95' style='stroke-width: 0.71; stroke: #00FF93; stroke-opacity: 0.30; fill: #00FF93; fill-opacity: 0.30;' />
<circle cx='174.81' cy='316.46' r='1.95' style='stroke-width: 0.71; stroke: #00FF93; stroke-opacity: 0.30; fill: #00FF93; fill-opacity: 0.30;' />
<circle cx='180.34' cy='318.54' r='1.95' style='stroke-width: 0.71; stroke: #00FF93; stroke-opacity: 0.30; fill: #00FF93; fill-opacity: 0.30;' />
<circle cx='143.90' cy='315.64' r='1.95' style='stroke-width: 0.71; stroke: #00FF93; stroke-opacity: 0.30; fill: #00FF93; fill-opacity: 0.30;' />
<circle cx='194.95' cy='318.03' r='1.95' style='stroke-width: 0.71; stroke: #00FF93; stroke-opacity: 0.30; fill: #00FF93; fill-opacity: 0.30;' />
<circle cx='133.49' cy='311.30' r='1.95' style='stroke-width: 0.71; stroke: #00FF93; stroke-opacity: 0.30; fill: #00FF93; fill-opacity: 0.30;' />
<circle cx='153.98' cy='314.83' r='1.95' style='stroke-width: 0.71; stroke: #00FF93; stroke-opacity: 0.30; fill: #00FF93; fill-opacity: 0.30;' />
<circle cx='176.96' cy='317.82' r='1.95' style='stroke-width: 0.71; stroke: #00FF93; stroke-opacity: 0.30; fill: #00FF93; fill-opacity: 0.30;' />
<circle cx='129.41' cy='315.31' r='1.95' style='stroke-width: 0.71; stroke: #00FF93; stroke-opacity: 0.30; fill: #00FF93; fill-opacity: 0.30;' />
<circle cx='182.66' cy='318.96' r='1.95' style='stroke-width: 0.71; stroke: #00FF93; stroke-opacity: 0.30; fill: #00FF93; fill-opacity: 0.30;' />
<circle cx='187.46' cy='290.45' r='1.95' style='stroke-width: 0.71; stroke: #00FF93; stroke-opacity: 0.30; fill: #00FF93; fill-opacity: 0.30;' />
<circle cx='152.65' cy='319.36' r='1.95' style='stroke-width: 0.71; stroke: #00FF93; stroke-opacity: 0.30; fill: #00FF93; fill-opacity: 0.30;' />
<circle cx='136.48' cy='318.98' r='1.95' style='stroke-width: 0.71; stroke: #00FF93; stroke-opacity: 0.30; fill: #00FF93; fill-opacity: 0.30;' />
<circle cx='125.96' cy='314.84' r='1.95' style='stroke-width: 0.71; stroke: #00FF93; stroke-opacity: 0.30; fill: #00FF93; fill-opacity: 0.30;' />
<circle cx='169.09' cy='317.80' r='1.95' style='stroke-width: 0.71; stroke: #00FF93; stroke-opacity: 0.30; fill: #00FF93; fill-opacity: 0.30;' />
<circle cx='179.59' cy='317.70' r='1.95' style='stroke-width: 0.71; stroke: #00FF93; stroke-opacity: 0.30; fill: #00FF93; fill-opacity: 0.30;' />
<circle cx='158.48' cy='319.03' r='1.95' style='stroke-width: 0.71; stroke: #00FF93; stroke-opacity: 0.30; fill: #00FF93; fill-opacity: 0.30;' />
<circle cx='195.45' cy='315.85' r='1.95' style='stroke-width: 0.71; stroke: #00FF93; stroke-opacity: 0.30; fill: #00FF93; fill-opacity: 0.30;' />
<circle cx='145.56' cy='314.23' r='1.95' style='stroke-width: 0.71; stroke: #00FF93; stroke-opacity: 0.30; fill: #00FF93; fill-opacity: 0.30;' />
<circle cx='191.80' cy='319.30' r='1.95' style='stroke-width: 0.71; stroke: #00FF93; stroke-opacity: 0.30; fill: #00FF93; fill-opacity: 0.30;' />
<circle cx='165.69' cy='314.80' r='1.95' style='stroke-width: 0.71; stroke: #00FF93; stroke-opacity: 0.30; fill: #00FF93; fill-opacity: 0.30;' />
<circle cx='180.04' cy='317.04' r='1.95' style='stroke-width: 0.71; stroke: #00FF93; stroke-opacity: 0.30; fill: #00FF93; fill-opacity: 0.30;' />
<circle cx='160.89' cy='319.39' r='1.95' style='stroke-width: 0.71; stroke: #00FF93; stroke-opacity: 0.30; fill: #00FF93; fill-opacity: 0.30;' />
<circle cx='168.23' cy='318.05' r='1.95' style='stroke-width: 0.71; stroke: #00FF93; stroke-opacity: 0.30; fill: #00FF93; fill-opacity: 0.30;' />
<circle cx='169.45' cy='314.83' r='1.95' style='stroke-width: 0.71; stroke: #00FF93; stroke-opacity: 0.30; fill: #00FF93; fill-opacity: 0.30;' />
<circle cx='97.61' cy='319.07' r='1.95' style='stroke-width: 0.71; stroke: #00FF93; stroke-opacity: 0.30; fill: #00FF93; fill-opacity: 0.30;' />
<circle cx='141.23' cy='319.02' r='1.95' style='stroke-width: 0.71; stroke: #00FF93; stroke-opacity: 0.30; fill: #00FF93; fill-opacity: 0.30;' />
<circle cx='123.63' cy='319.24' r='1.95' style='stroke-width: 0.71; stroke: #00FF93; stroke-opacity: 0.30; fill: #00FF93; fill-opacity: 0.30;' />
<circle cx='174.79' cy='318.69' r='1.95' style='stroke-width: 0.71; stroke: #00FF93; stroke-opacity: 0.30; fill: #00FF93; fill-opacity: 0.30;' />
<circle cx='131.91' cy='318.98' r='1.95' style='stroke-width: 0.71; stroke: #00FF93; stroke-opacity: 0.30; fill: #00FF93; fill-opacity: 0.30;' />
<circle cx='187.06' cy='315.19' r='1.95' style='stroke-width: 0.71; stroke: #00FF93; stroke-opacity: 0.30; fill: #00FF93; fill-opacity: 0.30;' />
<circle cx='146.62' cy='318.85' r='1.95' style='stroke-width: 0.71; stroke: #00FF93; stroke-opacity: 0.30; fill: #00FF93; fill-opacity: 0.30;' />
<circle cx='140.04' cy='319.21' r='1.95' style='stroke-width: 0.71; stroke: #00FF93; stroke-opacity: 0.30; fill: #00FF93; fill-opacity: 0.30;' />
<circle cx='135.81' cy='318.94' r='1.95' style='stroke-width: 0.71; stroke: #00FF93; stroke-opacity: 0.30; fill: #00FF93; fill-opacity: 0.30;' />
<circle cx='103.92' cy='316.34' r='1.95' style='stroke-width: 0.71; stroke: #00FF93; stroke-opacity: 0.30; fill: #00FF93; fill-opacity: 0.30;' />
<circle cx='176.21' cy='319.24' r='1.95' style='stroke-width: 0.71; stroke: #00FF93; stroke-opacity: 0.30; fill: #00FF93; fill-opacity: 0.30;' />
<circle cx='138.05' cy='314.42' r='1.95' style='stroke-width: 0.71; stroke: #00FF93; stroke-opacity: 0.30; fill: #00FF93; fill-opacity: 0.30;' />
<circle cx='98.13' cy='318.93' r='1.95' style='stroke-width: 0.71; stroke: #00FF93; stroke-opacity: 0.30; fill: #00FF93; fill-opacity: 0.30;' />
<circle cx='161.85' cy='318.82' r='1.95' style='stroke-width: 0.71; stroke: #00FF93; stroke-opacity: 0.30; fill: #00FF93; fill-opacity: 0.30;' />
<circle cx='114.52' cy='318.37' r='1.95' style='stroke-width: 0.71; stroke: #00FF93; stroke-opacity: 0.30; fill: #00FF93; fill-opacity: 0.30;' />
<circle cx='177.20' cy='316.57' r='1.95' style='stroke-width: 0.71; stroke: #00FF93; stroke-opacity: 0.30; fill: #00FF93; fill-opacity: 0.30;' />
<circle cx='166.07' cy='319.09' r='1.95' style='stroke-width: 0.71; stroke: #00FF93; stroke-opacity: 0.30; fill: #00FF93; fill-opacity: 0.30;' />
<circle cx='143.88' cy='301.09' r='1.95' style='stroke-width: 0.71; stroke: #00FF93; stroke-opacity: 0.30; fill: #00FF93; fill-opacity: 0.30;' />
<circle cx='142.03' cy='319.07' r='1.95' style='stroke-width: 0.71; stroke: #00FF93; stroke-opacity: 0.30; fill: #00FF93; fill-opacity: 0.30;' />
<circle cx='155.14' cy='314.22' r='1.95' style='stroke-width: 0.71; stroke: #00FF93; stroke-opacity: 0.30; fill: #00FF93; fill-opacity: 0.30;' />
<circle cx='190.30' cy='302.72' r='1.95' style='stroke-width: 0.71; stroke: #00FF93; stroke-opacity: 0.30; fill: #00FF93; fill-opacity: 0.30;' />
<circle cx='128.02' cy='319.30' r='1.95' style='stroke-width: 0.71; stroke: #00FF93; stroke-opacity: 0.30; fill: #00FF93; fill-opacity: 0.30;' />
<circle cx='149.86' cy='319.38' r='1.95' style='stroke-width: 0.71; stroke: #00FF93; stroke-opacity: 0.30; fill: #00FF93; fill-opacity: 0.30;' />
<circle cx='118.62' cy='309.32' r='1.95' style='stroke-width: 0.71; stroke: #00FF93; stroke-opacity: 0.30; fill: #00FF93; fill-opacity: 0.30;' />
<circle cx='184.59' cy='319.29' r='1.95' style='stroke-width: 0.71; stroke: #00FF93; stroke-opacity: 0.30; fill: #00FF93; fill-opacity: 0.30;' />
<circle cx='160.93' cy='317.50' r='1.95' style='stroke-width: 0.71; stroke: #00FF93; stroke-opacity: 0.30; fill: #00FF93; fill-opacity: 0.30;' />
<circle cx='136.87' cy='318.53' r='1.95' style='stroke-width: 0.71; stroke: #00FF93; stroke-opacity: 0.30; fill: #00FF93; fill-opacity: 0.30;' />
<circle cx='113.89' cy='315.13' r='1.95' style='stroke-width: 0.71; stroke: #00FF93; stroke-opacity: 0.30; fill: #00FF93; fill-opacity: 0.30;' />
<circle cx='138.01' cy='318.75' r='1.95' style='stroke-width: 0.71; stroke: #00FF93; stroke-opacity: 0.30; fill: #00FF93; fill-opacity: 0.30;' />
<circle cx='137.71' cy='317.76' r='1.95' style='stroke-width: 0.71; stroke: #00FF93; stroke-opacity: 0.30; fill: #00FF93; fill-opacity: 0.30;' />
<circle cx='191.64' cy='318.98' r='1.95' style='stroke-width: 0.71; stroke: #00FF93; stroke-opacity: 0.30; fill: #00FF93; fill-opacity: 0.30;' />
<circle cx='194.03' cy='305.97' r='1.95' style='stroke-width: 0.71; stroke: #00FF93; stroke-opacity: 0.30; fill: #00FF93; fill-opacity: 0.30;' />
<circle cx='128.08' cy='319.29' r='1.95' style='stroke-width: 0.71; stroke: #00FF93; stroke-opacity: 0.30; fill: #00FF93; fill-opacity: 0.30;' />
<circle cx='136.24' cy='308.76' r='1.95' style='stroke-width: 0.71; stroke: #00FF93; stroke-opacity: 0.30; fill: #00FF93; fill-opacity: 0.30;' />
<circle cx='173.73' cy='318.90' r='1.95' style='stroke-width: 0.71; stroke: #00FF93; stroke-opacity: 0.30; fill: #00FF93; fill-opacity: 0.30;' />
<circle cx='165.85' cy='299.22' r='1.95' style='stroke-width: 0.71; stroke: #00FF93; stroke-opacity: 0.30; fill: #00FF93; fill-opacity: 0.30;' />
<circle cx='190.17' cy='319.30' r='1.95' style='stroke-width: 0.71; stroke: #00FF93; stroke-opacity: 0.30; fill: #00FF93; fill-opacity: 0.30;' />
<circle cx='97.64' cy='298.49' r='1.95' style='stroke-width: 0.71; stroke: #00FF93; stroke-opacity: 0.30; fill: #00FF93; fill-opacity: 0.30;' />
<circle cx='181.00' cy='314.52' r='1.95' style='stroke-width: 0.71; stroke: #00FF93; stroke-opacity: 0.30; fill: #00FF93; fill-opacity: 0.30;' />
<circle cx='193.38' cy='319.07' r='1.95' style='stroke-width: 0.71; stroke: #00FF93; stroke-opacity: 0.30; fill: #00FF93; fill-opacity: 0.30;' />
<circle cx='176.00' cy='315.93' r='1.95' style='stroke-width: 0.71; stroke: #00FF93; stroke-opacity: 0.30; fill: #00FF93; fill-opacity: 0.30;' />
<circle cx='173.64' cy='318.63' r='1.95' style='stroke-width: 0.71; stroke: #00FF93; stroke-opacity: 0.30; fill: #00FF93; fill-opacity: 0.30;' />
<circle cx='185.76' cy='318.80' r='1.95' style='stroke-width: 0.71; stroke: #00FF93; stroke-opacity: 0.30; fill: #00FF93; fill-opacity: 0.30;' />
<circle cx='195.51' cy='319.24' r='1.95' style='stroke-width: 0.71; stroke: #00FF93; stroke-opacity: 0.30; fill: #00FF93; fill-opacity: 0.30;' />
<circle cx='183.56' cy='318.50' r='1.95' style='stroke-width: 0.71; stroke: #00FF93; stroke-opacity: 0.30; fill: #00FF93; fill-opacity: 0.30;' />
<circle cx='164.22' cy='318.84' r='1.95' style='stroke-width: 0.71; stroke: #00FF93; stroke-opacity: 0.30; fill: #00FF93; fill-opacity: 0.30;' />
<circle cx='160.21' cy='310.59' r='1.95' style='stroke-width: 0.71; stroke: #00FF93; stroke-opacity: 0.30; fill: #00FF93; fill-opacity: 0.30;' />
<circle cx='159.10' cy='319.32' r='1.95' style='stroke-width: 0.71; stroke: #00FF93; stroke-opacity: 0.30; fill: #00FF93; fill-opacity: 0.30;' />
<circle cx='109.22' cy='318.93' r='1.95' style='stroke-width: 0.71; stroke: #00FF93; stroke-opacity: 0.30; fill: #00FF93; fill-opacity: 0.30;' />
<circle cx='133.11' cy='318.94' r='1.95' style='stroke-width: 0.71; stroke: #00FF93; stroke-opacity: 0.30; fill: #00FF93; fill-opacity: 0.30;' />
<circle cx='169.84' cy='318.76' r='1.95' style='stroke-width: 0.71; stroke: #00FF93; stroke-opacity: 0.30; fill: #00FF93; fill-opacity: 0.30;' />
<circle cx='169.37' cy='318.99' r='1.95' style='stroke-width: 0.71; stroke: #00FF93; stroke-opacity: 0.30; fill: #00FF93; fill-opacity: 0.30;' />
<circle cx='141.18' cy='318.68' r='1.95' style='stroke-width: 0.71; stroke: #00FF93; stroke-opacity: 0.30; fill: #00FF93; fill-opacity: 0.30;' />
<circle cx='115.50' cy='319.33' r='1.95' style='stroke-width: 0.71; stroke: #00FF93; stroke-opacity: 0.30; fill: #00FF93; fill-opacity: 0.30;' />
<circle cx='142.87' cy='319.26' r='1.95' style='stroke-width: 0.71; stroke: #00FF93; stroke-opacity: 0.30; fill: #00FF93; fill-opacity: 0.30;' />
<circle cx='169.55' cy='319.07' r='1.95' style='stroke-width: 0.71; stroke: #00FF93; stroke-opacity: 0.30; fill: #00FF93; fill-opacity: 0.30;' />
<circle cx='99.28' cy='317.90' r='1.95' style='stroke-width: 0.71; stroke: #00FF93; stroke-opacity: 0.30; fill: #00FF93; fill-opacity: 0.30;' />
<circle cx='137.14' cy='319.00' r='1.95' style='stroke-width: 0.71; stroke: #00FF93; stroke-opacity: 0.30; fill: #00FF93; fill-opacity: 0.30;' />
<circle cx='166.52' cy='318.57' r='1.95' style='stroke-width: 0.71; stroke: #00FF93; stroke-opacity: 0.30; fill: #00FF93; fill-opacity: 0.30;' />
<circle cx='147.83' cy='319.24' r='1.95' style='stroke-width: 0.71; stroke: #00FF93; stroke-opacity: 0.30; fill: #00FF93; fill-opacity: 0.30;' />
<circle cx='131.07' cy='319.24' r='1.95' style='stroke-width: 0.71; stroke: #00FF93; stroke-opacity: 0.30; fill: #00FF93; fill-opacity: 0.30;' />
<circle cx='94.70' cy='312.70' r='1.95' style='stroke-width: 0.71; stroke: #00FF93; stroke-opacity: 0.30; fill: #00FF93; fill-opacity: 0.30;' />
<circle cx='135.84' cy='318.59' r='1.95' style='stroke-width: 0.71; stroke: #00FF93; stroke-opacity: 0.30; fill: #00FF93; fill-opacity: 0.30;' />
<circle cx='156.47' cy='319.40' r='1.95' style='stroke-width: 0.71; stroke: #00FF93; stroke-opacity: 0.30; fill: #00FF93; fill-opacity: 0.30;' />
<circle cx='122.28' cy='318.96' r='1.95' style='stroke-width: 0.71; stroke: #00FF93; stroke-opacity: 0.30; fill: #00FF93; fill-opacity: 0.30;' />
<circle cx='106.26' cy='319.23' r='1.95' style='stroke-width: 0.71; stroke: #00FF93; stroke-opacity: 0.30; fill: #00FF93; fill-opacity: 0.30;' />
<circle cx='173.67' cy='310.74' r='1.95' style='stroke-width: 0.71; stroke: #00FF93; stroke-opacity: 0.30; fill: #00FF93; fill-opacity: 0.30;' />
<circle cx='108.34' cy='303.03' r='1.95' style='stroke-width: 0.71; stroke: #00FF93; stroke-opacity: 0.30; fill: #00FF93; fill-opacity: 0.30;' />
<circle cx='156.36' cy='317.91' r='1.95' style='stroke-width: 0.71; stroke: #00FF93; stroke-opacity: 0.30; fill: #00FF93; fill-opacity: 0.30;' />
<circle cx='97.06' cy='318.71' r='1.95' style='stroke-width: 0.71; stroke: #00FF93; stroke-opacity: 0.30; fill: #00FF93; fill-opacity: 0.30;' />
<circle cx='152.36' cy='318.88' r='1.95' style='stroke-width: 0.71; stroke: #00FF93; stroke-opacity: 0.30; fill: #00FF93; fill-opacity: 0.30;' />
<circle cx='176.51' cy='314.23' r='1.95' style='stroke-width: 0.71; stroke: #00FF93; stroke-opacity: 0.30; fill: #00FF93; fill-opacity: 0.30;' />
<circle cx='98.09' cy='319.24' r='1.95' style='stroke-width: 0.71; stroke: #00FF93; stroke-opacity: 0.30; fill: #00FF93; fill-opacity: 0.30;' />
<circle cx='132.99' cy='318.95' r='1.95' style='stroke-width: 0.71; stroke: #00FF93; stroke-opacity: 0.30; fill: #00FF93; fill-opacity: 0.30;' />
<circle cx='162.67' cy='319.32' r='1.95' style='stroke-width: 0.71; stroke: #00FF93; stroke-opacity: 0.30; fill: #00FF93; fill-opacity: 0.30;' />
<circle cx='100.17' cy='319.38' r='1.95' style='stroke-width: 0.71; stroke: #00FF93; stroke-opacity: 0.30; fill: #00FF93; fill-opacity: 0.30;' />
<circle cx='155.55' cy='316.70' r='1.95' style='stroke-width: 0.71; stroke: #00FF93; stroke-opacity: 0.30; fill: #00FF93; fill-opacity: 0.30;' />
<circle cx='153.31' cy='319.40' r='1.95' style='stroke-width: 0.71; stroke: #00FF93; stroke-opacity: 0.30; fill: #00FF93; fill-opacity: 0.30;' />
<circle cx='268.81' cy='319.30' r='1.95' style='stroke-width: 0.71; stroke: #FFC300; stroke-opacity: 0.30; fill: #FFC300; fill-opacity: 0.30;' />
<circle cx='271.26' cy='313.51' r='1.95' style='stroke-width: 0.71; stroke: #FFC300; stroke-opacity: 0.30; fill: #FFC300; fill-opacity: 0.30;' />
<circle cx='264.49' cy='319.04' r='1.95' style='stroke-width: 0.71; stroke: #FFC300; stroke-opacity: 0.30; fill: #FFC300; fill-opacity: 0.30;' />
<circle cx='311.47' cy='315.49' r='1.95' style='stroke-width: 0.71; stroke: #FFC300; stroke-opacity: 0.30; fill: #FFC300; fill-opacity: 0.30;' />
<circle cx='309.67' cy='318.89' r='1.95' style='stroke-width: 0.71; stroke: #FFC300; stroke-opacity: 0.30; fill: #FFC300; fill-opacity: 0.30;' />
<circle cx='327.53' cy='319.26' r='1.95' style='stroke-width: 0.71; stroke: #FFC300; stroke-opacity: 0.30; fill: #FFC300; fill-opacity: 0.30;' />
<circle cx='326.27' cy='315.93' r='1.95' style='stroke-width: 0.71; stroke: #FFC300; stroke-opacity: 0.30; fill: #FFC300; fill-opacity: 0.30;' />
<circle cx='301.63' cy='318.85' r='1.95' style='stroke-width: 0.71; stroke: #FFC300; stroke-opacity: 0.30; fill: #FFC300; fill-opacity: 0.30;' />
<circle cx='300.16' cy='313.50' r='1.95' style='stroke-width: 0.71; stroke: #FFC300; stroke-opacity: 0.30; fill: #FFC300; fill-opacity: 0.30;' />
<circle cx='240.18' cy='316.72' r='1.95' style='stroke-width: 0.71; stroke: #FFC300; stroke-opacity: 0.30; fill: #FFC300; fill-opacity: 0.30;' />
<circle cx='290.85' cy='315.34' r='1.95' style='stroke-width: 0.71; stroke: #FFC300; stroke-opacity: 0.30; fill: #FFC300; fill-opacity: 0.30;' />
<circle cx='317.25' cy='317.70' r='1.95' style='stroke-width: 0.71; stroke: #FFC300; stroke-opacity: 0.30; fill: #FFC300; fill-opacity: 0.30;' />
<circle cx='298.60' cy='317.41' r='1.95' style='stroke-width: 0.71; stroke: #FFC300; stroke-opacity: 0.30; fill: #FFC300; fill-opacity: 0.30;' />
<circle cx='230.42' cy='319.31' r='1.95' style='stroke-width: 0.71; stroke: #FFC300; stroke-opacity: 0.30; fill: #FFC300; fill-opacity: 0.30;' />
<circle cx='278.22' cy='319.39' r='1.95' style='stroke-width: 0.71; stroke: #FFC300; stroke-opacity: 0.30; fill: #FFC300; fill-opacity: 0.30;' />
<circle cx='327.22' cy='314.21' r='1.95' style='stroke-width: 0.71; stroke: #FFC300; stroke-opacity: 0.30; fill: #FFC300; fill-opacity: 0.30;' />
<circle cx='239.07' cy='313.52' r='1.95' style='stroke-width: 0.71; stroke: #FFC300; stroke-opacity: 0.30; fill: #FFC300; fill-opacity: 0.30;' />
<circle cx='268.03' cy='319.28' r='1.95' style='stroke-width: 0.71; stroke: #FFC300; stroke-opacity: 0.30; fill: #FFC300; fill-opacity: 0.30;' />
<circle cx='290.60' cy='315.11' r='1.95' style='stroke-width: 0.71; stroke: #FFC300; stroke-opacity: 0.30; fill: #FFC300; fill-opacity: 0.30;' />
<circle cx='289.38' cy='318.57' r='1.95' style='stroke-width: 0.71; stroke: #FFC300; stroke-opacity: 0.30; fill: #FFC300; fill-opacity: 0.30;' />
<circle cx='302.56' cy='318.91' r='1.95' style='stroke-width: 0.71; stroke: #FFC300; stroke-opacity: 0.30; fill: #FFC300; fill-opacity: 0.30;' />
<circle cx='278.79' cy='319.33' r='1.95' style='stroke-width: 0.71; stroke: #FFC300; stroke-opacity: 0.30; fill: #FFC300; fill-opacity: 0.30;' />
<circle cx='253.20' cy='313.81' r='1.95' style='stroke-width: 0.71; stroke: #FFC300; stroke-opacity: 0.30; fill: #FFC300; fill-opacity: 0.30;' />
<circle cx='245.77' cy='316.99' r='1.95' style='stroke-width: 0.71; stroke: #FFC300; stroke-opacity: 0.30; fill: #FFC300; fill-opacity: 0.30;' />
<circle cx='260.13' cy='319.04' r='1.95' style='stroke-width: 0.71; stroke: #FFC300; stroke-opacity: 0.30; fill: #FFC300; fill-opacity: 0.30;' />
<circle cx='298.73' cy='319.24' r='1.95' style='stroke-width: 0.71; stroke: #FFC300; stroke-opacity: 0.30; fill: #FFC300; fill-opacity: 0.30;' />
<circle cx='323.01' cy='319.02' r='1.95' style='stroke-width: 0.71; stroke: #FFC300; stroke-opacity: 0.30; fill: #FFC300; fill-opacity: 0.30;' />
<circle cx='324.06' cy='318.80' r='1.95' style='stroke-width: 0.71; stroke: #FFC300; stroke-opacity: 0.30; fill: #FFC300; fill-opacity: 0.30;' />
<circle cx='281.32' cy='319.30' r='1.95' style='stroke-width: 0.71; stroke: #FFC300; stroke-opacity: 0.30; fill: #FFC300; fill-opacity: 0.30;' />
<circle cx='312.12' cy='313.76' r='1.95' style='stroke-width: 0.71; stroke: #FFC300; stroke-opacity: 0.30; fill: #FFC300; fill-opacity: 0.30;' />
<circle cx='332.30' cy='318.75' r='1.95' style='stroke-width: 0.71; stroke: #FFC300; stroke-opacity: 0.30; fill: #FFC300; fill-opacity: 0.30;' />
<circle cx='254.11' cy='315.48' r='1.95' style='stroke-width: 0.71; stroke: #FFC300; stroke-opacity: 0.30; fill: #FFC300; fill-opacity: 0.30;' />
<circle cx='313.01' cy='316.47' r='1.95' style='stroke-width: 0.71; stroke: #FFC300; stroke-opacity: 0.30; fill: #FFC300; fill-opacity: 0.30;' />
<circle cx='332.99' cy='313.51' r='1.95' style='stroke-width: 0.71; stroke: #FFC300; stroke-opacity: 0.30; fill: #FFC300; fill-opacity: 0.30;' />
<circle cx='312.84' cy='315.78' r='1.95' style='stroke-width: 0.71; stroke: #FFC300; stroke-opacity: 0.30; fill: #FFC300; fill-opacity: 0.30;' />
<circle cx='322.18' cy='318.90' r='1.95' style='stroke-width: 0.71; stroke: #FFC300; stroke-opacity: 0.30; fill: #FFC300; fill-opacity: 0.30;' />
<circle cx='322.19' cy='318.47' r='1.95' style='stroke-width: 0.71; stroke: #FFC300; stroke-opacity: 0.30; fill: #FFC300; fill-opacity: 0.30;' />
<circle cx='301.10' cy='318.90' r='1.95' style='stroke-width: 0.71; stroke: #FFC300; stroke-opacity: 0.30; fill: #FFC300; fill-opacity: 0.30;' />
<circle cx='260.38' cy='319.39' r='1.95' style='stroke-width: 0.71; stroke: #FFC300; stroke-opacity: 0.30; fill: #FFC300; fill-opacity: 0.30;' />
<circle cx='263.19' cy='319.33' r='1.95' style='stroke-width: 0.71; stroke: #FFC300; stroke-opacity: 0.30; fill: #FFC300; fill-opacity: 0.30;' />
<circle cx='294.76' cy='317.59' r='1.95' style='stroke-width: 0.71; stroke: #FFC300; stroke-opacity: 0.30; fill: #FFC300; fill-opacity: 0.30;' />
<circle cx='279.06' cy='319.02' r='1.95' style='stroke-width: 0.71; stroke: #FFC300; stroke-opacity: 0.30; fill: #FFC300; fill-opacity: 0.30;' />
<circle cx='333.11' cy='319.36' r='1.95' style='stroke-width: 0.71; stroke: #FFC300; stroke-opacity: 0.30; fill: #FFC300; fill-opacity: 0.30;' />
<circle cx='245.44' cy='318.43' r='1.95' style='stroke-width: 0.71; stroke: #FFC300; stroke-opacity: 0.30; fill: #FFC300; fill-opacity: 0.30;' />
<circle cx='243.45' cy='318.62' r='1.95' style='stroke-width: 0.71; stroke: #FFC300; stroke-opacity: 0.30; fill: #FFC300; fill-opacity: 0.30;' />
<circle cx='323.05' cy='315.38' r='1.95' style='stroke-width: 0.71; stroke: #FFC300; stroke-opacity: 0.30; fill: #FFC300; fill-opacity: 0.30;' />
<circle cx='316.38' cy='313.51' r='1.95' style='stroke-width: 0.71; stroke: #FFC300; stroke-opacity: 0.30; fill: #FFC300; fill-opacity: 0.30;' />
<circle cx='273.71' cy='318.75' r='1.95' style='stroke-width: 0.71; stroke: #FFC300; stroke-opacity: 0.30; fill: #FFC300; fill-opacity: 0.30;' />
<circle cx='317.11' cy='315.78' r='1.95' style='stroke-width: 0.71; stroke: #FFC300; stroke-opacity: 0.30; fill: #FFC300; fill-opacity: 0.30;' />
<circle cx='241.08' cy='319.30' r='1.95' style='stroke-width: 0.71; stroke: #FFC300; stroke-opacity: 0.30; fill: #FFC300; fill-opacity: 0.30;' />
<circle cx='288.42' cy='315.55' r='1.95' style='stroke-width: 0.71; stroke: #FFC300; stroke-opacity: 0.30; fill: #FFC300; fill-opacity: 0.30;' />
<circle cx='314.91' cy='319.27' r='1.95' style='stroke-width: 0.71; stroke: #FFC300; stroke-opacity: 0.30; fill: #FFC300; fill-opacity: 0.30;' />
<circle cx='302.55' cy='313.50' r='1.95' style='stroke-width: 0.71; stroke: #FFC300; stroke-opacity: 0.30; fill: #FFC300; fill-opacity: 0.30;' />
<circle cx='314.76' cy='316.33' r='1.95' style='stroke-width: 0.71; stroke: #FFC300; stroke-opacity: 0.30; fill: #FFC300; fill-opacity: 0.30;' />
<circle cx='322.41' cy='319.30' r='1.95' style='stroke-width: 0.71; stroke: #FFC300; stroke-opacity: 0.30; fill: #FFC300; fill-opacity: 0.30;' />
<circle cx='268.36' cy='313.51' r='1.95' style='stroke-width: 0.71; stroke: #FFC300; stroke-opacity: 0.30; fill: #FFC300; fill-opacity: 0.30;' />
<circle cx='251.57' cy='318.75' r='1.95' style='stroke-width: 0.71; stroke: #FFC300; stroke-opacity: 0.30; fill: #FFC300; fill-opacity: 0.30;' />
<circle cx='272.28' cy='315.78' r='1.95' style='stroke-width: 0.71; stroke: #FFC300; stroke-opacity: 0.30; fill: #FFC300; fill-opacity: 0.30;' />
<circle cx='225.53' cy='318.17' r='1.95' style='stroke-width: 0.71; stroke: #FFC300; stroke-opacity: 0.30; fill: #FFC300; fill-opacity: 0.30;' />
<circle cx='237.72' cy='319.30' r='1.95' style='stroke-width: 0.71; stroke: #FFC300; stroke-opacity: 0.30; fill: #FFC300; fill-opacity: 0.30;' />
<circle cx='224.76' cy='313.51' r='1.95' style='stroke-width: 0.71; stroke: #FFC300; stroke-opacity: 0.30; fill: #FFC300; fill-opacity: 0.30;' />
<circle cx='254.45' cy='316.86' r='1.95' style='stroke-width: 0.71; stroke: #FFC300; stroke-opacity: 0.30; fill: #FFC300; fill-opacity: 0.30;' />
<circle cx='292.18' cy='319.32' r='1.95' style='stroke-width: 0.71; stroke: #FFC300; stroke-opacity: 0.30; fill: #FFC300; fill-opacity: 0.30;' />
<circle cx='319.01' cy='319.29' r='1.95' style='stroke-width: 0.71; stroke: #FFC300; stroke-opacity: 0.30; fill: #FFC300; fill-opacity: 0.30;' />
<circle cx='246.18' cy='318.77' r='1.95' style='stroke-width: 0.71; stroke: #FFC300; stroke-opacity: 0.30; fill: #FFC300; fill-opacity: 0.30;' />
<circle cx='323.16' cy='316.68' r='1.95' style='stroke-width: 0.71; stroke: #FFC300; stroke-opacity: 0.30; fill: #FFC300; fill-opacity: 0.30;' />
<circle cx='266.81' cy='316.84' r='1.95' style='stroke-width: 0.71; stroke: #FFC300; stroke-opacity: 0.30; fill: #FFC300; fill-opacity: 0.30;' />
<circle cx='257.33' cy='319.34' r='1.95' style='stroke-width: 0.71; stroke: #FFC300; stroke-opacity: 0.30; fill: #FFC300; fill-opacity: 0.30;' />
<circle cx='283.53' cy='319.00' r='1.95' style='stroke-width: 0.71; stroke: #FFC300; stroke-opacity: 0.30; fill: #FFC300; fill-opacity: 0.30;' />
<circle cx='232.96' cy='313.95' r='1.95' style='stroke-width: 0.71; stroke: #FFC300; stroke-opacity: 0.30; fill: #FFC300; fill-opacity: 0.30;' />
<circle cx='311.90' cy='313.51' r='1.95' style='stroke-width: 0.71; stroke: #FFC300; stroke-opacity: 0.30; fill: #FFC300; fill-opacity: 0.30;' />
<circle cx='313.15' cy='319.33' r='1.95' style='stroke-width: 0.71; stroke: #FFC300; stroke-opacity: 0.30; fill: #FFC300; fill-opacity: 0.30;' />
<circle cx='239.68' cy='314.73' r='1.95' style='stroke-width: 0.71; stroke: #FFC300; stroke-opacity: 0.30; fill: #FFC300; fill-opacity: 0.30;' />
<circle cx='315.08' cy='313.83' r='1.95' style='stroke-width: 0.71; stroke: #FFC300; stroke-opacity: 0.30; fill: #FFC300; fill-opacity: 0.30;' />
<circle cx='226.21' cy='313.51' r='1.95' style='stroke-width: 0.71; stroke: #FFC300; stroke-opacity: 0.30; fill: #FFC300; fill-opacity: 0.30;' />
<circle cx='302.05' cy='318.75' r='1.95' style='stroke-width: 0.71; stroke: #FFC300; stroke-opacity: 0.30; fill: #FFC300; fill-opacity: 0.30;' />
<circle cx='250.92' cy='315.49' r='1.95' style='stroke-width: 0.71; stroke: #FFC300; stroke-opacity: 0.30; fill: #FFC300; fill-opacity: 0.30;' />
<circle cx='236.45' cy='319.39' r='1.95' style='stroke-width: 0.71; stroke: #FFC300; stroke-opacity: 0.30; fill: #FFC300; fill-opacity: 0.30;' />
<circle cx='231.36' cy='315.91' r='1.95' style='stroke-width: 0.71; stroke: #FFC300; stroke-opacity: 0.30; fill: #FFC300; fill-opacity: 0.30;' />
<circle cx='307.19' cy='319.18' r='1.95' style='stroke-width: 0.71; stroke: #FFC300; stroke-opacity: 0.30; fill: #FFC300; fill-opacity: 0.30;' />
<circle cx='225.22' cy='319.10' r='1.95' style='stroke-width: 0.71; stroke: #FFC300; stroke-opacity: 0.30; fill: #FFC300; fill-opacity: 0.30;' />
<circle cx='321.53' cy='319.30' r='1.95' style='stroke-width: 0.71; stroke: #FFC300; stroke-opacity: 0.30; fill: #FFC300; fill-opacity: 0.30;' />
<circle cx='292.97' cy='315.56' r='1.95' style='stroke-width: 0.71; stroke: #FFC300; stroke-opacity: 0.30; fill: #FFC300; fill-opacity: 0.30;' />
<circle cx='272.48' cy='319.27' r='1.95' style='stroke-width: 0.71; stroke: #FFC300; stroke-opacity: 0.30; fill: #FFC300; fill-opacity: 0.30;' />
<circle cx='333.78' cy='313.50' r='1.95' style='stroke-width: 0.71; stroke: #FFC300; stroke-opacity: 0.30; fill: #FFC300; fill-opacity: 0.30;' />
<circle cx='285.61' cy='316.33' r='1.95' style='stroke-width: 0.71; stroke: #FFC300; stroke-opacity: 0.30; fill: #FFC300; fill-opacity: 0.30;' />
<circle cx='226.82' cy='319.39' r='1.95' style='stroke-width: 0.71; stroke: #FFC300; stroke-opacity: 0.30; fill: #FFC300; fill-opacity: 0.30;' />
<circle cx='316.89' cy='319.34' r='1.95' style='stroke-width: 0.71; stroke: #FFC300; stroke-opacity: 0.30; fill: #FFC300; fill-opacity: 0.30;' />
<circle cx='240.12' cy='313.83' r='1.95' style='stroke-width: 0.71; stroke: #FFC300; stroke-opacity: 0.30; fill: #FFC300; fill-opacity: 0.30;' />
<circle cx='234.14' cy='313.51' r='1.95' style='stroke-width: 0.71; stroke: #FFC300; stroke-opacity: 0.30; fill: #FFC300; fill-opacity: 0.30;' />
<circle cx='229.17' cy='319.04' r='1.95' style='stroke-width: 0.71; stroke: #FFC300; stroke-opacity: 0.30; fill: #FFC300; fill-opacity: 0.30;' />
<circle cx='229.81' cy='315.49' r='1.95' style='stroke-width: 0.71; stroke: #FFC300; stroke-opacity: 0.30; fill: #FFC300; fill-opacity: 0.30;' />
<circle cx='281.68' cy='312.52' r='1.95' style='stroke-width: 0.71; stroke: #FFC300; stroke-opacity: 0.30; fill: #FFC300; fill-opacity: 0.30;' />
<circle cx='238.29' cy='314.42' r='1.95' style='stroke-width: 0.71; stroke: #FFC300; stroke-opacity: 0.30; fill: #FFC300; fill-opacity: 0.30;' />
<circle cx='309.12' cy='315.24' r='1.95' style='stroke-width: 0.71; stroke: #FFC300; stroke-opacity: 0.30; fill: #FFC300; fill-opacity: 0.30;' />
<circle cx='236.86' cy='313.52' r='1.95' style='stroke-width: 0.71; stroke: #FFC300; stroke-opacity: 0.30; fill: #FFC300; fill-opacity: 0.30;' />
<circle cx='259.83' cy='317.04' r='1.95' style='stroke-width: 0.71; stroke: #FFC300; stroke-opacity: 0.30; fill: #FFC300; fill-opacity: 0.30;' />
<circle cx='247.73' cy='310.41' r='1.95' style='stroke-width: 0.71; stroke: #FFC300; stroke-opacity: 0.30; fill: #FFC300; fill-opacity: 0.30;' />
<circle cx='276.32' cy='319.15' r='1.95' style='stroke-width: 0.71; stroke: #FFC300; stroke-opacity: 0.30; fill: #FFC300; fill-opacity: 0.30;' />
<circle cx='329.30' cy='313.68' r='1.95' style='stroke-width: 0.71; stroke: #FFC300; stroke-opacity: 0.30; fill: #FFC300; fill-opacity: 0.30;' />
<circle cx='243.06' cy='319.39' r='1.95' style='stroke-width: 0.71; stroke: #FFC300; stroke-opacity: 0.30; fill: #FFC300; fill-opacity: 0.30;' />
<circle cx='285.02' cy='317.01' r='1.95' style='stroke-width: 0.71; stroke: #FFC300; stroke-opacity: 0.30; fill: #FFC300; fill-opacity: 0.30;' />
<circle cx='329.46' cy='319.34' r='1.95' style='stroke-width: 0.71; stroke: #FFC300; stroke-opacity: 0.30; fill: #FFC300; fill-opacity: 0.30;' />
<circle cx='246.66' cy='319.34' r='1.95' style='stroke-width: 0.71; stroke: #FFC300; stroke-opacity: 0.30; fill: #FFC300; fill-opacity: 0.30;' />
<circle cx='287.83' cy='316.68' r='1.95' style='stroke-width: 0.71; stroke: #FFC300; stroke-opacity: 0.30; fill: #FFC300; fill-opacity: 0.30;' />
<circle cx='295.56' cy='319.39' r='1.95' style='stroke-width: 0.71; stroke: #FFC300; stroke-opacity: 0.30; fill: #FFC300; fill-opacity: 0.30;' />
<circle cx='314.90' cy='317.19' r='1.95' style='stroke-width: 0.71; stroke: #FFC300; stroke-opacity: 0.30; fill: #FFC300; fill-opacity: 0.30;' />
<circle cx='230.67' cy='319.35' r='1.95' style='stroke-width: 0.71; stroke: #FFC300; stroke-opacity: 0.30; fill: #FFC300; fill-opacity: 0.30;' />
<circle cx='258.41' cy='317.56' r='1.95' style='stroke-width: 0.71; stroke: #FFC300; stroke-opacity: 0.30; fill: #FFC300; fill-opacity: 0.30;' />
<circle cx='331.01' cy='319.00' r='1.95' style='stroke-width: 0.71; stroke: #FFC300; stroke-opacity: 0.30; fill: #FFC300; fill-opacity: 0.30;' />
<circle cx='332.93' cy='319.09' r='1.95' style='stroke-width: 0.71; stroke: #FFC300; stroke-opacity: 0.30; fill: #FFC300; fill-opacity: 0.30;' />
<circle cx='228.31' cy='316.09' r='1.95' style='stroke-width: 0.71; stroke: #FFC300; stroke-opacity: 0.30; fill: #FFC300; fill-opacity: 0.30;' />
<circle cx='239.73' cy='315.47' r='1.95' style='stroke-width: 0.71; stroke: #FFC300; stroke-opacity: 0.30; fill: #FFC300; fill-opacity: 0.30;' />
<circle cx='261.24' cy='308.86' r='1.95' style='stroke-width: 0.71; stroke: #FFC300; stroke-opacity: 0.30; fill: #FFC300; fill-opacity: 0.30;' />
<circle cx='268.68' cy='316.25' r='1.95' style='stroke-width: 0.71; stroke: #FFC300; stroke-opacity: 0.30; fill: #FFC300; fill-opacity: 0.30;' />
<circle cx='331.57' cy='319.30' r='1.95' style='stroke-width: 0.71; stroke: #FFC300; stroke-opacity: 0.30; fill: #FFC300; fill-opacity: 0.30;' />
<circle cx='244.03' cy='313.51' r='1.95' style='stroke-width: 0.71; stroke: #FFC300; stroke-opacity: 0.30; fill: #FFC300; fill-opacity: 0.30;' />
<circle cx='316.31' cy='319.04' r='1.95' style='stroke-width: 0.71; stroke: #FFC300; stroke-opacity: 0.30; fill: #FFC300; fill-opacity: 0.30;' />
<circle cx='333.44' cy='315.48' r='1.95' style='stroke-width: 0.71; stroke: #FFC300; stroke-opacity: 0.30; fill: #FFC300; fill-opacity: 0.30;' />
<circle cx='226.07' cy='318.22' r='1.95' style='stroke-width: 0.71; stroke: #FFC300; stroke-opacity: 0.30; fill: #FFC300; fill-opacity: 0.30;' />
<circle cx='232.19' cy='318.50' r='1.95' style='stroke-width: 0.71; stroke: #FFC300; stroke-opacity: 0.30; fill: #FFC300; fill-opacity: 0.30;' />
<circle cx='291.65' cy='315.60' r='1.95' style='stroke-width: 0.71; stroke: #FFC300; stroke-opacity: 0.30; fill: #FFC300; fill-opacity: 0.30;' />
<circle cx='324.19' cy='317.37' r='1.95' style='stroke-width: 0.71; stroke: #FFC300; stroke-opacity: 0.30; fill: #FFC300; fill-opacity: 0.30;' />
<circle cx='262.19' cy='316.72' r='1.95' style='stroke-width: 0.71; stroke: #FFC300; stroke-opacity: 0.30; fill: #FFC300; fill-opacity: 0.30;' />
<circle cx='272.21' cy='318.38' r='1.95' style='stroke-width: 0.71; stroke: #FFC300; stroke-opacity: 0.30; fill: #FFC300; fill-opacity: 0.30;' />
<circle cx='326.69' cy='315.65' r='1.95' style='stroke-width: 0.71; stroke: #FFC300; stroke-opacity: 0.30; fill: #FFC300; fill-opacity: 0.30;' />
<circle cx='282.19' cy='311.02' r='1.95' style='stroke-width: 0.71; stroke: #FFC300; stroke-opacity: 0.30; fill: #FFC300; fill-opacity: 0.30;' />
<circle cx='291.69' cy='319.36' r='1.95' style='stroke-width: 0.71; stroke: #FFC300; stroke-opacity: 0.30; fill: #FFC300; fill-opacity: 0.30;' />
<circle cx='318.65' cy='316.73' r='1.95' style='stroke-width: 0.71; stroke: #FFC300; stroke-opacity: 0.30; fill: #FFC300; fill-opacity: 0.30;' />
<circle cx='309.77' cy='316.85' r='1.95' style='stroke-width: 0.71; stroke: #FFC300; stroke-opacity: 0.30; fill: #FFC300; fill-opacity: 0.30;' />
<circle cx='262.62' cy='316.87' r='1.95' style='stroke-width: 0.71; stroke: #FFC300; stroke-opacity: 0.30; fill: #FFC300; fill-opacity: 0.30;' />
<circle cx='305.07' cy='319.31' r='1.95' style='stroke-width: 0.71; stroke: #FFC300; stroke-opacity: 0.30; fill: #FFC300; fill-opacity: 0.30;' />
<circle cx='319.80' cy='317.95' r='1.95' style='stroke-width: 0.71; stroke: #FFC300; stroke-opacity: 0.30; fill: #FFC300; fill-opacity: 0.30;' />
<circle cx='258.68' cy='313.51' r='1.95' style='stroke-width: 0.71; stroke: #FFC300; stroke-opacity: 0.30; fill: #FFC300; fill-opacity: 0.30;' />
<circle cx='312.76' cy='316.90' r='1.95' style='stroke-width: 0.71; stroke: #FFC300; stroke-opacity: 0.30; fill: #FFC300; fill-opacity: 0.30;' />
<circle cx='331.38' cy='316.91' r='1.95' style='stroke-width: 0.71; stroke: #FFC300; stroke-opacity: 0.30; fill: #FFC300; fill-opacity: 0.30;' />
<circle cx='310.76' cy='318.43' r='1.95' style='stroke-width: 0.71; stroke: #FFC300; stroke-opacity: 0.30; fill: #FFC300; fill-opacity: 0.30;' />
<circle cx='228.67' cy='319.30' r='1.95' style='stroke-width: 0.71; stroke: #FFC300; stroke-opacity: 0.30; fill: #FFC300; fill-opacity: 0.30;' />
<circle cx='249.79' cy='315.55' r='1.95' style='stroke-width: 0.71; stroke: #FFC300; stroke-opacity: 0.30; fill: #FFC300; fill-opacity: 0.30;' />
<circle cx='240.55' cy='319.27' r='1.95' style='stroke-width: 0.71; stroke: #FFC300; stroke-opacity: 0.30; fill: #FFC300; fill-opacity: 0.30;' />
<circle cx='285.79' cy='313.50' r='1.95' style='stroke-width: 0.71; stroke: #FFC300; stroke-opacity: 0.30; fill: #FFC300; fill-opacity: 0.30;' />
<circle cx='267.14' cy='316.33' r='1.95' style='stroke-width: 0.71; stroke: #FFC300; stroke-opacity: 0.30; fill: #FFC300; fill-opacity: 0.30;' />
<circle cx='254.66' cy='313.42' r='1.95' style='stroke-width: 0.71; stroke: #FFC300; stroke-opacity: 0.30; fill: #FFC300; fill-opacity: 0.30;' />
<circle cx='320.15' cy='315.50' r='1.95' style='stroke-width: 0.71; stroke: #FFC300; stroke-opacity: 0.30; fill: #FFC300; fill-opacity: 0.30;' />
<circle cx='265.44' cy='315.33' r='1.95' style='stroke-width: 0.71; stroke: #FFC300; stroke-opacity: 0.30; fill: #FFC300; fill-opacity: 0.30;' />
<circle cx='327.90' cy='318.56' r='1.95' style='stroke-width: 0.71; stroke: #FFC300; stroke-opacity: 0.30; fill: #FFC300; fill-opacity: 0.30;' />
<circle cx='225.25' cy='319.39' r='1.95' style='stroke-width: 0.71; stroke: #FFC300; stroke-opacity: 0.30; fill: #FFC300; fill-opacity: 0.30;' />
<circle cx='256.73' cy='318.72' r='1.95' style='stroke-width: 0.71; stroke: #FFC300; stroke-opacity: 0.30; fill: #FFC300; fill-opacity: 0.30;' />
<circle cx='279.28' cy='319.32' r='1.95' style='stroke-width: 0.71; stroke: #FFC300; stroke-opacity: 0.30; fill: #FFC300; fill-opacity: 0.30;' />
<circle cx='232.70' cy='319.32' r='1.95' style='stroke-width: 0.71; stroke: #FFC300; stroke-opacity: 0.30; fill: #FFC300; fill-opacity: 0.30;' />
<circle cx='307.92' cy='315.21' r='1.95' style='stroke-width: 0.71; stroke: #FFC300; stroke-opacity: 0.30; fill: #FFC300; fill-opacity: 0.30;' />
<circle cx='332.80' cy='318.71' r='1.95' style='stroke-width: 0.71; stroke: #FFC300; stroke-opacity: 0.30; fill: #FFC300; fill-opacity: 0.30;' />
<circle cx='295.97' cy='319.24' r='1.95' style='stroke-width: 0.71; stroke: #FFC300; stroke-opacity: 0.30; fill: #FFC300; fill-opacity: 0.30;' />
<circle cx='290.12' cy='318.18' r='1.95' style='stroke-width: 0.71; stroke: #FFC300; stroke-opacity: 0.30; fill: #FFC300; fill-opacity: 0.30;' />
<circle cx='303.37' cy='315.55' r='1.95' style='stroke-width: 0.71; stroke: #FFC300; stroke-opacity: 0.30; fill: #FFC300; fill-opacity: 0.30;' />
<circle cx='230.67' cy='318.32' r='1.95' style='stroke-width: 0.71; stroke: #FFC300; stroke-opacity: 0.30; fill: #FFC300; fill-opacity: 0.30;' />
<circle cx='229.43' cy='313.51' r='1.95' style='stroke-width: 0.71; stroke: #FFC300; stroke-opacity: 0.30; fill: #FFC300; fill-opacity: 0.30;' />
<circle cx='258.84' cy='316.38' r='1.95' style='stroke-width: 0.71; stroke: #FFC300; stroke-opacity: 0.30; fill: #FFC300; fill-opacity: 0.30;' />
<circle cx='300.94' cy='313.93' r='1.95' style='stroke-width: 0.71; stroke: #FFC300; stroke-opacity: 0.30; fill: #FFC300; fill-opacity: 0.30;' />
<circle cx='239.32' cy='315.50' r='1.95' style='stroke-width: 0.71; stroke: #FFC300; stroke-opacity: 0.30; fill: #FFC300; fill-opacity: 0.30;' />
<circle cx='230.80' cy='314.81' r='1.95' style='stroke-width: 0.71; stroke: #FFC300; stroke-opacity: 0.30; fill: #FFC300; fill-opacity: 0.30;' />
<circle cx='270.96' cy='318.56' r='1.95' style='stroke-width: 0.71; stroke: #FFC300; stroke-opacity: 0.30; fill: #FFC300; fill-opacity: 0.30;' />
<circle cx='270.50' cy='313.95' r='1.95' style='stroke-width: 0.71; stroke: #FFC300; stroke-opacity: 0.30; fill: #FFC300; fill-opacity: 0.30;' />
<circle cx='301.28' cy='313.51' r='1.95' style='stroke-width: 0.71; stroke: #FFC300; stroke-opacity: 0.30; fill: #FFC300; fill-opacity: 0.30;' />
<circle cx='246.01' cy='319.33' r='1.95' style='stroke-width: 0.71; stroke: #FFC300; stroke-opacity: 0.30; fill: #FFC300; fill-opacity: 0.30;' />
<circle cx='290.82' cy='312.25' r='1.95' style='stroke-width: 0.71; stroke: #FFC300; stroke-opacity: 0.30; fill: #FFC300; fill-opacity: 0.30;' />
<circle cx='332.58' cy='319.30' r='1.95' style='stroke-width: 0.71; stroke: #FFC300; stroke-opacity: 0.30; fill: #FFC300; fill-opacity: 0.30;' />
<circle cx='302.76' cy='313.51' r='1.95' style='stroke-width: 0.71; stroke: #FFC300; stroke-opacity: 0.30; fill: #FFC300; fill-opacity: 0.30;' />
<circle cx='317.97' cy='319.04' r='1.95' style='stroke-width: 0.71; stroke: #FFC300; stroke-opacity: 0.30; fill: #FFC300; fill-opacity: 0.30;' />
<circle cx='326.45' cy='316.11' r='1.95' style='stroke-width: 0.71; stroke: #FFC300; stroke-opacity: 0.30; fill: #FFC300; fill-opacity: 0.30;' />
<circle cx='249.79' cy='318.41' r='1.95' style='stroke-width: 0.71; stroke: #FFC300; stroke-opacity: 0.30; fill: #FFC300; fill-opacity: 0.30;' />
<circle cx='277.34' cy='313.81' r='1.95' style='stroke-width: 0.71; stroke: #FFC300; stroke-opacity: 0.30; fill: #FFC300; fill-opacity: 0.30;' />
<circle cx='296.00' cy='315.76' r='1.95' style='stroke-width: 0.71; stroke: #FFC300; stroke-opacity: 0.30; fill: #FFC300; fill-opacity: 0.30;' />
<circle cx='330.67' cy='314.21' r='1.95' style='stroke-width: 0.71; stroke: #FFC300; stroke-opacity: 0.30; fill: #FFC300; fill-opacity: 0.30;' />
<circle cx='290.82' cy='313.11' r='1.95' style='stroke-width: 0.71; stroke: #FFC300; stroke-opacity: 0.30; fill: #FFC300; fill-opacity: 0.30;' />
<circle cx='323.21' cy='313.58' r='1.95' style='stroke-width: 0.71; stroke: #FFC300; stroke-opacity: 0.30; fill: #FFC300; fill-opacity: 0.30;' />
<circle cx='332.10' cy='319.30' r='1.95' style='stroke-width: 0.71; stroke: #FFC300; stroke-opacity: 0.30; fill: #FFC300; fill-opacity: 0.30;' />
<circle cx='230.41' cy='313.86' r='1.95' style='stroke-width: 0.71; stroke: #FFC300; stroke-opacity: 0.30; fill: #FFC300; fill-opacity: 0.30;' />
<circle cx='239.49' cy='319.04' r='1.95' style='stroke-width: 0.71; stroke: #FFC300; stroke-opacity: 0.30; fill: #FFC300; fill-opacity: 0.30;' />
<circle cx='312.74' cy='315.42' r='1.95' style='stroke-width: 0.71; stroke: #FFC300; stroke-opacity: 0.30; fill: #FFC300; fill-opacity: 0.30;' />
<circle cx='249.74' cy='318.75' r='1.95' style='stroke-width: 0.71; stroke: #FFC300; stroke-opacity: 0.30; fill: #FFC300; fill-opacity: 0.30;' />
<circle cx='262.99' cy='319.01' r='1.95' style='stroke-width: 0.71; stroke: #FFC300; stroke-opacity: 0.30; fill: #FFC300; fill-opacity: 0.30;' />
<circle cx='300.35' cy='315.90' r='1.95' style='stroke-width: 0.71; stroke: #FFC300; stroke-opacity: 0.30; fill: #FFC300; fill-opacity: 0.30;' />
<circle cx='310.41' cy='313.54' r='1.95' style='stroke-width: 0.71; stroke: #FFC300; stroke-opacity: 0.30; fill: #FFC300; fill-opacity: 0.30;' />
<circle cx='330.90' cy='318.47' r='1.95' style='stroke-width: 0.71; stroke: #FFC300; stroke-opacity: 0.30; fill: #FFC300; fill-opacity: 0.30;' />
<circle cx='262.12' cy='318.38' r='1.95' style='stroke-width: 0.71; stroke: #FFC300; stroke-opacity: 0.30; fill: #FFC300; fill-opacity: 0.30;' />
<circle cx='257.70' cy='319.30' r='1.95' style='stroke-width: 0.71; stroke: #FFC300; stroke-opacity: 0.30; fill: #FFC300; fill-opacity: 0.30;' />
<circle cx='299.02' cy='313.51' r='1.95' style='stroke-width: 0.71; stroke: #FFC300; stroke-opacity: 0.30; fill: #FFC300; fill-opacity: 0.30;' />
<circle cx='297.99' cy='318.75' r='1.95' style='stroke-width: 0.71; stroke: #FFC300; stroke-opacity: 0.30; fill: #FFC300; fill-opacity: 0.30;' />
<circle cx='258.94' cy='315.79' r='1.95' style='stroke-width: 0.71; stroke: #FFC300; stroke-opacity: 0.30; fill: #FFC300; fill-opacity: 0.30;' />
<circle cx='278.12' cy='315.87' r='1.95' style='stroke-width: 0.71; stroke: #FFC300; stroke-opacity: 0.30; fill: #FFC300; fill-opacity: 0.30;' />
<circle cx='226.58' cy='318.85' r='1.95' style='stroke-width: 0.71; stroke: #FFC300; stroke-opacity: 0.30; fill: #FFC300; fill-opacity: 0.30;' />
<circle cx='290.60' cy='313.52' r='1.95' style='stroke-width: 0.71; stroke: #FFC300; stroke-opacity: 0.30; fill: #FFC300; fill-opacity: 0.30;' />
<circle cx='273.06' cy='318.84' r='1.95' style='stroke-width: 0.71; stroke: #FFC300; stroke-opacity: 0.30; fill: #FFC300; fill-opacity: 0.30;' />
<circle cx='305.93' cy='317.44' r='1.95' style='stroke-width: 0.71; stroke: #FFC300; stroke-opacity: 0.30; fill: #FFC300; fill-opacity: 0.30;' />
<circle cx='251.05' cy='318.38' r='1.95' style='stroke-width: 0.71; stroke: #FFC300; stroke-opacity: 0.30; fill: #FFC300; fill-opacity: 0.30;' />
<circle cx='323.04' cy='319.03' r='1.95' style='stroke-width: 0.71; stroke: #FFC300; stroke-opacity: 0.30; fill: #FFC300; fill-opacity: 0.30;' />
<circle cx='260.76' cy='318.02' r='1.95' style='stroke-width: 0.71; stroke: #FFC300; stroke-opacity: 0.30; fill: #FFC300; fill-opacity: 0.30;' />
<circle cx='300.13' cy='318.09' r='1.95' style='stroke-width: 0.71; stroke: #FFC300; stroke-opacity: 0.30; fill: #FFC300; fill-opacity: 0.30;' />
<circle cx='263.12' cy='319.30' r='1.95' style='stroke-width: 0.71; stroke: #FFC300; stroke-opacity: 0.30; fill: #FFC300; fill-opacity: 0.30;' />
<circle cx='247.97' cy='313.51' r='1.95' style='stroke-width: 0.71; stroke: #FFC300; stroke-opacity: 0.30; fill: #FFC300; fill-opacity: 0.30;' />
<circle cx='240.71' cy='317.36' r='1.95' style='stroke-width: 0.71; stroke: #FFC300; stroke-opacity: 0.30; fill: #FFC300; fill-opacity: 0.30;' />
<circle cx='238.80' cy='317.16' r='1.95' style='stroke-width: 0.71; stroke: #FFC300; stroke-opacity: 0.30; fill: #FFC300; fill-opacity: 0.30;' />
<circle cx='326.91' cy='318.94' r='1.95' style='stroke-width: 0.71; stroke: #FFC300; stroke-opacity: 0.30; fill: #FFC300; fill-opacity: 0.30;' />
<circle cx='309.46' cy='317.63' r='1.95' style='stroke-width: 0.71; stroke: #FFC300; stroke-opacity: 0.30; fill: #FFC300; fill-opacity: 0.30;' />
<circle cx='276.45' cy='315.93' r='1.95' style='stroke-width: 0.71; stroke: #FFC300; stroke-opacity: 0.30; fill: #FFC300; fill-opacity: 0.30;' />
<circle cx='275.86' cy='318.99' r='1.95' style='stroke-width: 0.71; stroke: #FFC300; stroke-opacity: 0.30; fill: #FFC300; fill-opacity: 0.30;' />
<circle cx='291.82' cy='318.52' r='1.95' style='stroke-width: 0.71; stroke: #FFC300; stroke-opacity: 0.30; fill: #FFC300; fill-opacity: 0.30;' />
<circle cx='251.47' cy='313.50' r='1.95' style='stroke-width: 0.71; stroke: #FFC300; stroke-opacity: 0.30; fill: #FFC300; fill-opacity: 0.30;' />
<circle cx='242.20' cy='316.89' r='1.95' style='stroke-width: 0.71; stroke: #FFC300; stroke-opacity: 0.30; fill: #FFC300; fill-opacity: 0.30;' />
<circle cx='229.75' cy='315.21' r='1.95' style='stroke-width: 0.71; stroke: #FFC300; stroke-opacity: 0.30; fill: #FFC300; fill-opacity: 0.30;' />
<circle cx='324.92' cy='318.71' r='1.95' style='stroke-width: 0.71; stroke: #FFC300; stroke-opacity: 0.30; fill: #FFC300; fill-opacity: 0.30;' />
<circle cx='315.25' cy='319.24' r='1.95' style='stroke-width: 0.71; stroke: #FFC300; stroke-opacity: 0.30; fill: #FFC300; fill-opacity: 0.30;' />
<circle cx='324.77' cy='318.18' r='1.95' style='stroke-width: 0.71; stroke: #FFC300; stroke-opacity: 0.30; fill: #FFC300; fill-opacity: 0.30;' />
<circle cx='256.80' cy='319.11' r='1.95' style='stroke-width: 0.71; stroke: #FFC300; stroke-opacity: 0.30; fill: #FFC300; fill-opacity: 0.30;' />
<circle cx='251.37' cy='313.14' r='1.95' style='stroke-width: 0.71; stroke: #FFC300; stroke-opacity: 0.30; fill: #FFC300; fill-opacity: 0.30;' />
<circle cx='262.00' cy='319.30' r='1.95' style='stroke-width: 0.71; stroke: #FFC300; stroke-opacity: 0.30; fill: #FFC300; fill-opacity: 0.30;' />
<circle cx='233.10' cy='313.51' r='1.95' style='stroke-width: 0.71; stroke: #FFC300; stroke-opacity: 0.30; fill: #FFC300; fill-opacity: 0.30;' />
<circle cx='228.03' cy='319.04' r='1.95' style='stroke-width: 0.71; stroke: #FFC300; stroke-opacity: 0.30; fill: #FFC300; fill-opacity: 0.30;' />
<circle cx='327.96' cy='315.51' r='1.95' style='stroke-width: 0.71; stroke: #FFC300; stroke-opacity: 0.30; fill: #FFC300; fill-opacity: 0.30;' />
<circle cx='286.83' cy='315.50' r='1.95' style='stroke-width: 0.71; stroke: #FFC300; stroke-opacity: 0.30; fill: #FFC300; fill-opacity: 0.30;' />
<circle cx='290.47' cy='313.71' r='1.95' style='stroke-width: 0.71; stroke: #FFC300; stroke-opacity: 0.30; fill: #FFC300; fill-opacity: 0.30;' />
<circle cx='332.76' cy='318.38' r='1.95' style='stroke-width: 0.71; stroke: #FFC300; stroke-opacity: 0.30; fill: #FFC300; fill-opacity: 0.30;' />
<circle cx='323.73' cy='317.57' r='1.95' style='stroke-width: 0.71; stroke: #FFC300; stroke-opacity: 0.30; fill: #FFC300; fill-opacity: 0.30;' />
<circle cx='326.38' cy='319.33' r='1.95' style='stroke-width: 0.71; stroke: #FFC300; stroke-opacity: 0.30; fill: #FFC300; fill-opacity: 0.30;' />
<circle cx='257.10' cy='316.51' r='1.95' style='stroke-width: 0.71; stroke: #FFC300; stroke-opacity: 0.30; fill: #FFC300; fill-opacity: 0.30;' />
<circle cx='260.84' cy='318.75' r='1.95' style='stroke-width: 0.71; stroke: #FFC300; stroke-opacity: 0.30; fill: #FFC300; fill-opacity: 0.30;' />
<circle cx='279.00' cy='318.10' r='1.95' style='stroke-width: 0.71; stroke: #FFC300; stroke-opacity: 0.30; fill: #FFC300; fill-opacity: 0.30;' />
<circle cx='320.20' cy='313.51' r='1.95' style='stroke-width: 0.71; stroke: #FFC300; stroke-opacity: 0.30; fill: #FFC300; fill-opacity: 0.30;' />
<circle cx='226.65' cy='316.32' r='1.95' style='stroke-width: 0.71; stroke: #FFC300; stroke-opacity: 0.30; fill: #FFC300; fill-opacity: 0.30;' />
<circle cx='325.12' cy='319.30' r='1.95' style='stroke-width: 0.71; stroke: #FFC300; stroke-opacity: 0.30; fill: #FFC300; fill-opacity: 0.30;' />
<circle cx='284.78' cy='310.99' r='1.95' style='stroke-width: 0.71; stroke: #FFC300; stroke-opacity: 0.30; fill: #FFC300; fill-opacity: 0.30;' />
<circle cx='259.20' cy='319.21' r='1.95' style='stroke-width: 0.71; stroke: #FFC300; stroke-opacity: 0.30; fill: #FFC300; fill-opacity: 0.30;' />
<circle cx='279.66' cy='319.39' r='1.95' style='stroke-width: 0.71; stroke: #FFC300; stroke-opacity: 0.30; fill: #FFC300; fill-opacity: 0.30;' />
<circle cx='231.04' cy='312.49' r='1.95' style='stroke-width: 0.71; stroke: #FFC300; stroke-opacity: 0.30; fill: #FFC300; fill-opacity: 0.30;' />
<circle cx='312.52' cy='317.14' r='1.95' style='stroke-width: 0.71; stroke: #FFC300; stroke-opacity: 0.30; fill: #FFC300; fill-opacity: 0.30;' />
<circle cx='237.19' cy='315.93' r='1.95' style='stroke-width: 0.71; stroke: #FFC300; stroke-opacity: 0.30; fill: #FFC300; fill-opacity: 0.30;' />
<circle cx='247.06' cy='319.26' r='1.95' style='stroke-width: 0.71; stroke: #FFC300; stroke-opacity: 0.30; fill: #FFC300; fill-opacity: 0.30;' />
<circle cx='287.63' cy='319.17' r='1.95' style='stroke-width: 0.71; stroke: #FFC300; stroke-opacity: 0.30; fill: #FFC300; fill-opacity: 0.30;' />
<circle cx='255.16' cy='313.50' r='1.95' style='stroke-width: 0.71; stroke: #FFC300; stroke-opacity: 0.30; fill: #FFC300; fill-opacity: 0.30;' />
<circle cx='315.15' cy='316.22' r='1.95' style='stroke-width: 0.71; stroke: #FFC300; stroke-opacity: 0.30; fill: #FFC300; fill-opacity: 0.30;' />
<circle cx='275.98' cy='316.66' r='1.95' style='stroke-width: 0.71; stroke: #FFC300; stroke-opacity: 0.30; fill: #FFC300; fill-opacity: 0.30;' />
<circle cx='250.05' cy='319.30' r='1.95' style='stroke-width: 0.71; stroke: #FFC300; stroke-opacity: 0.30; fill: #FFC300; fill-opacity: 0.30;' />
<circle cx='226.22' cy='313.51' r='1.95' style='stroke-width: 0.71; stroke: #FFC300; stroke-opacity: 0.30; fill: #FFC300; fill-opacity: 0.30;' />
<circle cx='325.58' cy='319.04' r='1.95' style='stroke-width: 0.71; stroke: #FFC300; stroke-opacity: 0.30; fill: #FFC300; fill-opacity: 0.30;' />
<circle cx='283.40' cy='314.81' r='1.95' style='stroke-width: 0.71; stroke: #FFC300; stroke-opacity: 0.30; fill: #FFC300; fill-opacity: 0.30;' />
<circle cx='230.32' cy='318.43' r='1.95' style='stroke-width: 0.71; stroke: #FFC300; stroke-opacity: 0.30; fill: #FFC300; fill-opacity: 0.30;' />
<circle cx='288.37' cy='318.75' r='1.95' style='stroke-width: 0.71; stroke: #FFC300; stroke-opacity: 0.30; fill: #FFC300; fill-opacity: 0.30;' />
<circle cx='327.34' cy='318.94' r='1.95' style='stroke-width: 0.71; stroke: #FFC300; stroke-opacity: 0.30; fill: #FFC300; fill-opacity: 0.30;' />
<circle cx='304.84' cy='315.50' r='1.95' style='stroke-width: 0.71; stroke: #FFC300; stroke-opacity: 0.30; fill: #FFC300; fill-opacity: 0.30;' />
<circle cx='313.12' cy='318.71' r='1.95' style='stroke-width: 0.71; stroke: #FFC300; stroke-opacity: 0.30; fill: #FFC300; fill-opacity: 0.30;' />
<circle cx='268.36' cy='318.50' r='1.95' style='stroke-width: 0.71; stroke: #FFC300; stroke-opacity: 0.30; fill: #FFC300; fill-opacity: 0.30;' />
<circle cx='304.57' cy='317.23' r='1.95' style='stroke-width: 0.71; stroke: #FFC300; stroke-opacity: 0.30; fill: #FFC300; fill-opacity: 0.30;' />
<circle cx='323.77' cy='316.73' r='1.95' style='stroke-width: 0.71; stroke: #FFC300; stroke-opacity: 0.30; fill: #FFC300; fill-opacity: 0.30;' />
<circle cx='243.07' cy='316.85' r='1.95' style='stroke-width: 0.71; stroke: #FFC300; stroke-opacity: 0.30; fill: #FFC300; fill-opacity: 0.30;' />
<circle cx='315.88' cy='316.87' r='1.95' style='stroke-width: 0.71; stroke: #FFC300; stroke-opacity: 0.30; fill: #FFC300; fill-opacity: 0.30;' />
<circle cx='254.86' cy='319.31' r='1.95' style='stroke-width: 0.71; stroke: #FFC300; stroke-opacity: 0.30; fill: #FFC300; fill-opacity: 0.30;' />
<circle cx='330.31' cy='316.47' r='1.95' style='stroke-width: 0.71; stroke: #FFC300; stroke-opacity: 0.30; fill: #FFC300; fill-opacity: 0.30;' />
<circle cx='325.77' cy='316.18' r='1.95' style='stroke-width: 0.71; stroke: #FFC300; stroke-opacity: 0.30; fill: #FFC300; fill-opacity: 0.30;' />
<circle cx='286.81' cy='313.51' r='1.95' style='stroke-width: 0.71; stroke: #FFC300; stroke-opacity: 0.30; fill: #FFC300; fill-opacity: 0.30;' />
<circle cx='226.49' cy='318.50' r='1.95' style='stroke-width: 0.71; stroke: #FFC300; stroke-opacity: 0.30; fill: #FFC300; fill-opacity: 0.30;' />
<circle cx='258.68' cy='318.28' r='1.95' style='stroke-width: 0.71; stroke: #FFC300; stroke-opacity: 0.30; fill: #FFC300; fill-opacity: 0.30;' />
<circle cx='300.69' cy='318.90' r='1.95' style='stroke-width: 0.71; stroke: #FFC300; stroke-opacity: 0.30; fill: #FFC300; fill-opacity: 0.30;' />
<circle cx='234.99' cy='319.39' r='1.95' style='stroke-width: 0.71; stroke: #FFC300; stroke-opacity: 0.30; fill: #FFC300; fill-opacity: 0.30;' />
<circle cx='241.60' cy='316.06' r='1.95' style='stroke-width: 0.71; stroke: #FFC300; stroke-opacity: 0.30; fill: #FFC300; fill-opacity: 0.30;' />
<circle cx='263.67' cy='316.33' r='1.95' style='stroke-width: 0.71; stroke: #FFC300; stroke-opacity: 0.30; fill: #FFC300; fill-opacity: 0.30;' />
<circle cx='233.43' cy='317.40' r='1.95' style='stroke-width: 0.71; stroke: #FFC300; stroke-opacity: 0.30; fill: #FFC300; fill-opacity: 0.30;' />
<circle cx='312.34' cy='313.01' r='1.95' style='stroke-width: 0.71; stroke: #FFC300; stroke-opacity: 0.30; fill: #FFC300; fill-opacity: 0.30;' />
<circle cx='270.85' cy='318.91' r='1.95' style='stroke-width: 0.71; stroke: #FFC300; stroke-opacity: 0.30; fill: #FFC300; fill-opacity: 0.30;' />
<circle cx='257.63' cy='319.30' r='1.95' style='stroke-width: 0.71; stroke: #FFC300; stroke-opacity: 0.30; fill: #FFC300; fill-opacity: 0.30;' />
<circle cx='278.72' cy='313.51' r='1.95' style='stroke-width: 0.71; stroke: #FFC300; stroke-opacity: 0.30; fill: #FFC300; fill-opacity: 0.30;' />
<circle cx='264.86' cy='319.04' r='1.95' style='stroke-width: 0.71; stroke: #FFC300; stroke-opacity: 0.30; fill: #FFC300; fill-opacity: 0.30;' />
<circle cx='270.84' cy='316.11' r='1.95' style='stroke-width: 0.71; stroke: #FFC300; stroke-opacity: 0.30; fill: #FFC300; fill-opacity: 0.30;' />
<circle cx='273.05' cy='318.70' r='1.95' style='stroke-width: 0.71; stroke: #FFC300; stroke-opacity: 0.30; fill: #FFC300; fill-opacity: 0.30;' />
<circle cx='256.13' cy='319.30' r='1.95' style='stroke-width: 0.71; stroke: #FFC300; stroke-opacity: 0.30; fill: #FFC300; fill-opacity: 0.30;' />
<circle cx='284.29' cy='317.21' r='1.95' style='stroke-width: 0.71; stroke: #FFC300; stroke-opacity: 0.30; fill: #FFC300; fill-opacity: 0.30;' />
<circle cx='331.57' cy='313.52' r='1.95' style='stroke-width: 0.71; stroke: #FFC300; stroke-opacity: 0.30; fill: #FFC300; fill-opacity: 0.30;' />
<circle cx='231.73' cy='316.39' r='1.95' style='stroke-width: 0.71; stroke: #FFC300; stroke-opacity: 0.30; fill: #FFC300; fill-opacity: 0.30;' />
<circle cx='225.23' cy='318.38' r='1.95' style='stroke-width: 0.71; stroke: #FFC300; stroke-opacity: 0.30; fill: #FFC300; fill-opacity: 0.30;' />
<circle cx='273.76' cy='314.36' r='1.95' style='stroke-width: 0.71; stroke: #FFC300; stroke-opacity: 0.30; fill: #FFC300; fill-opacity: 0.30;' />
<circle cx='310.61' cy='318.31' r='1.95' style='stroke-width: 0.71; stroke: #FFC300; stroke-opacity: 0.30; fill: #FFC300; fill-opacity: 0.30;' />
<circle cx='302.61' cy='316.69' r='1.95' style='stroke-width: 0.71; stroke: #FFC300; stroke-opacity: 0.30; fill: #FFC300; fill-opacity: 0.30;' />
<circle cx='252.34' cy='319.24' r='1.95' style='stroke-width: 0.71; stroke: #FFC300; stroke-opacity: 0.30; fill: #FFC300; fill-opacity: 0.30;' />
<circle cx='226.05' cy='319.30' r='1.95' style='stroke-width: 0.71; stroke: #FFC300; stroke-opacity: 0.30; fill: #FFC300; fill-opacity: 0.30;' />
<circle cx='320.65' cy='315.96' r='1.95' style='stroke-width: 0.71; stroke: #FFC300; stroke-opacity: 0.30; fill: #FFC300; fill-opacity: 0.30;' />
<circle cx='235.71' cy='317.63' r='1.95' style='stroke-width: 0.71; stroke: #FFC300; stroke-opacity: 0.30; fill: #FFC300; fill-opacity: 0.30;' />
<circle cx='426.49' cy='304.87' r='1.95' style='stroke-width: 0.71; stroke: #F11212; stroke-opacity: 0.30; fill: #F11212; fill-opacity: 0.30;' />
<circle cx='395.75' cy='316.37' r='1.95' style='stroke-width: 0.71; stroke: #F11212; stroke-opacity: 0.30; fill: #F11212; fill-opacity: 0.30;' />
<circle cx='378.80' cy='313.07' r='1.95' style='stroke-width: 0.71; stroke: #F11212; stroke-opacity: 0.30; fill: #F11212; fill-opacity: 0.30;' />
<circle cx='460.22' cy='317.75' r='1.95' style='stroke-width: 0.71; stroke: #F11212; stroke-opacity: 0.30; fill: #F11212; fill-opacity: 0.30;' />
<circle cx='377.42' cy='300.10' r='1.95' style='stroke-width: 0.71; stroke: #F11212; stroke-opacity: 0.30; fill: #F11212; fill-opacity: 0.30;' />
<circle cx='450.04' cy='311.14' r='1.95' style='stroke-width: 0.71; stroke: #F11212; stroke-opacity: 0.30; fill: #F11212; fill-opacity: 0.30;' />
<circle cx='449.94' cy='317.56' r='1.95' style='stroke-width: 0.71; stroke: #F11212; stroke-opacity: 0.30; fill: #F11212; fill-opacity: 0.30;' />
<circle cx='455.24' cy='317.66' r='1.95' style='stroke-width: 0.71; stroke: #F11212; stroke-opacity: 0.30; fill: #F11212; fill-opacity: 0.30;' />
<circle cx='411.13' cy='311.93' r='1.95' style='stroke-width: 0.71; stroke: #F11212; stroke-opacity: 0.30; fill: #F11212; fill-opacity: 0.30;' />
<circle cx='439.34' cy='307.02' r='1.95' style='stroke-width: 0.71; stroke: #F11212; stroke-opacity: 0.30; fill: #F11212; fill-opacity: 0.30;' />
<circle cx='458.34' cy='317.68' r='1.95' style='stroke-width: 0.71; stroke: #F11212; stroke-opacity: 0.30; fill: #F11212; fill-opacity: 0.30;' />
<circle cx='419.08' cy='317.64' r='1.95' style='stroke-width: 0.71; stroke: #F11212; stroke-opacity: 0.30; fill: #F11212; fill-opacity: 0.30;' />
<circle cx='383.25' cy='313.05' r='1.95' style='stroke-width: 0.71; stroke: #F11212; stroke-opacity: 0.30; fill: #F11212; fill-opacity: 0.30;' />
<circle cx='464.85' cy='307.95' r='1.95' style='stroke-width: 0.71; stroke: #F11212; stroke-opacity: 0.30; fill: #F11212; fill-opacity: 0.30;' />
<circle cx='431.41' cy='306.56' r='1.95' style='stroke-width: 0.71; stroke: #F11212; stroke-opacity: 0.30; fill: #F11212; fill-opacity: 0.30;' />
<circle cx='390.62' cy='316.04' r='1.95' style='stroke-width: 0.71; stroke: #F11212; stroke-opacity: 0.30; fill: #F11212; fill-opacity: 0.30;' />
<circle cx='469.31' cy='317.68' r='1.95' style='stroke-width: 0.71; stroke: #F11212; stroke-opacity: 0.30; fill: #F11212; fill-opacity: 0.30;' />
<circle cx='372.99' cy='317.67' r='1.95' style='stroke-width: 0.71; stroke: #F11212; stroke-opacity: 0.30; fill: #F11212; fill-opacity: 0.30;' />
<circle cx='429.30' cy='310.40' r='1.95' style='stroke-width: 0.71; stroke: #F11212; stroke-opacity: 0.30; fill: #F11212; fill-opacity: 0.30;' />
<circle cx='421.13' cy='272.14' r='1.95' style='stroke-width: 0.71; stroke: #F11212; stroke-opacity: 0.30; fill: #F11212; fill-opacity: 0.30;' />
<circle cx='408.76' cy='313.74' r='1.95' style='stroke-width: 0.71; stroke: #F11212; stroke-opacity: 0.30; fill: #F11212; fill-opacity: 0.30;' />
<circle cx='378.11' cy='319.19' r='1.95' style='stroke-width: 0.71; stroke: #F11212; stroke-opacity: 0.30; fill: #F11212; fill-opacity: 0.30;' />
<circle cx='414.67' cy='286.30' r='1.95' style='stroke-width: 0.71; stroke: #F11212; stroke-opacity: 0.30; fill: #F11212; fill-opacity: 0.30;' />
<circle cx='371.12' cy='319.27' r='1.95' style='stroke-width: 0.71; stroke: #F11212; stroke-opacity: 0.30; fill: #F11212; fill-opacity: 0.30;' />
<circle cx='445.13' cy='268.83' r='1.95' style='stroke-width: 0.71; stroke: #F11212; stroke-opacity: 0.30; fill: #F11212; fill-opacity: 0.30;' />
<circle cx='435.37' cy='312.12' r='1.95' style='stroke-width: 0.71; stroke: #F11212; stroke-opacity: 0.30; fill: #F11212; fill-opacity: 0.30;' />
<circle cx='427.14' cy='313.24' r='1.95' style='stroke-width: 0.71; stroke: #F11212; stroke-opacity: 0.30; fill: #F11212; fill-opacity: 0.30;' />
<circle cx='384.40' cy='317.96' r='1.95' style='stroke-width: 0.71; stroke: #F11212; stroke-opacity: 0.30; fill: #F11212; fill-opacity: 0.30;' />
<circle cx='372.25' cy='313.52' r='1.95' style='stroke-width: 0.71; stroke: #F11212; stroke-opacity: 0.30; fill: #F11212; fill-opacity: 0.30;' />
<circle cx='429.65' cy='305.89' r='1.95' style='stroke-width: 0.71; stroke: #F11212; stroke-opacity: 0.30; fill: #F11212; fill-opacity: 0.30;' />
<circle cx='394.95' cy='312.17' r='1.95' style='stroke-width: 0.71; stroke: #F11212; stroke-opacity: 0.30; fill: #F11212; fill-opacity: 0.30;' />
<circle cx='442.13' cy='314.98' r='1.95' style='stroke-width: 0.71; stroke: #F11212; stroke-opacity: 0.30; fill: #F11212; fill-opacity: 0.30;' />
<circle cx='438.79' cy='313.03' r='1.95' style='stroke-width: 0.71; stroke: #F11212; stroke-opacity: 0.30; fill: #F11212; fill-opacity: 0.30;' />
<circle cx='462.97' cy='313.82' r='1.95' style='stroke-width: 0.71; stroke: #F11212; stroke-opacity: 0.30; fill: #F11212; fill-opacity: 0.30;' />
<circle cx='398.01' cy='313.25' r='1.95' style='stroke-width: 0.71; stroke: #F11212; stroke-opacity: 0.30; fill: #F11212; fill-opacity: 0.30;' />
<circle cx='363.74' cy='308.67' r='1.95' style='stroke-width: 0.71; stroke: #F11212; stroke-opacity: 0.30; fill: #F11212; fill-opacity: 0.30;' />
<circle cx='389.16' cy='318.26' r='1.95' style='stroke-width: 0.71; stroke: #F11212; stroke-opacity: 0.30; fill: #F11212; fill-opacity: 0.30;' />
<circle cx='398.11' cy='310.43' r='1.95' style='stroke-width: 0.71; stroke: #F11212; stroke-opacity: 0.30; fill: #F11212; fill-opacity: 0.30;' />
<circle cx='383.98' cy='314.90' r='1.95' style='stroke-width: 0.71; stroke: #F11212; stroke-opacity: 0.30; fill: #F11212; fill-opacity: 0.30;' />
<circle cx='416.55' cy='307.68' r='1.95' style='stroke-width: 0.71; stroke: #F11212; stroke-opacity: 0.30; fill: #F11212; fill-opacity: 0.30;' />
<circle cx='427.08' cy='301.23' r='1.95' style='stroke-width: 0.71; stroke: #F11212; stroke-opacity: 0.30; fill: #F11212; fill-opacity: 0.30;' />
<circle cx='416.76' cy='318.11' r='1.95' style='stroke-width: 0.71; stroke: #F11212; stroke-opacity: 0.30; fill: #F11212; fill-opacity: 0.30;' />
<circle cx='413.68' cy='284.24' r='1.95' style='stroke-width: 0.71; stroke: #F11212; stroke-opacity: 0.30; fill: #F11212; fill-opacity: 0.30;' />
<circle cx='382.16' cy='311.72' r='1.95' style='stroke-width: 0.71; stroke: #F11212; stroke-opacity: 0.30; fill: #F11212; fill-opacity: 0.30;' />
<circle cx='404.90' cy='313.51' r='1.95' style='stroke-width: 0.71; stroke: #F11212; stroke-opacity: 0.30; fill: #F11212; fill-opacity: 0.30;' />
<circle cx='392.47' cy='307.68' r='1.95' style='stroke-width: 0.71; stroke: #F11212; stroke-opacity: 0.30; fill: #F11212; fill-opacity: 0.30;' />
<circle cx='405.47' cy='301.73' r='1.95' style='stroke-width: 0.71; stroke: #F11212; stroke-opacity: 0.30; fill: #F11212; fill-opacity: 0.30;' />
<circle cx='459.67' cy='312.90' r='1.95' style='stroke-width: 0.71; stroke: #F11212; stroke-opacity: 0.30; fill: #F11212; fill-opacity: 0.30;' />
<circle cx='364.29' cy='318.44' r='1.95' style='stroke-width: 0.71; stroke: #F11212; stroke-opacity: 0.30; fill: #F11212; fill-opacity: 0.30;' />
<circle cx='399.73' cy='316.49' r='1.95' style='stroke-width: 0.71; stroke: #F11212; stroke-opacity: 0.30; fill: #F11212; fill-opacity: 0.30;' />
<circle cx='414.45' cy='310.83' r='1.95' style='stroke-width: 0.71; stroke: #F11212; stroke-opacity: 0.30; fill: #F11212; fill-opacity: 0.30;' />
<circle cx='459.47' cy='305.14' r='1.95' style='stroke-width: 0.71; stroke: #F11212; stroke-opacity: 0.30; fill: #F11212; fill-opacity: 0.30;' />
<circle cx='455.09' cy='296.04' r='1.95' style='stroke-width: 0.71; stroke: #F11212; stroke-opacity: 0.30; fill: #F11212; fill-opacity: 0.30;' />
<circle cx='400.35' cy='295.66' r='1.95' style='stroke-width: 0.71; stroke: #F11212; stroke-opacity: 0.30; fill: #F11212; fill-opacity: 0.30;' />
<circle cx='440.90' cy='313.89' r='1.95' style='stroke-width: 0.71; stroke: #F11212; stroke-opacity: 0.30; fill: #F11212; fill-opacity: 0.30;' />
<circle cx='382.06' cy='317.76' r='1.95' style='stroke-width: 0.71; stroke: #F11212; stroke-opacity: 0.30; fill: #F11212; fill-opacity: 0.30;' />
<circle cx='413.36' cy='318.41' r='1.95' style='stroke-width: 0.71; stroke: #F11212; stroke-opacity: 0.30; fill: #F11212; fill-opacity: 0.30;' />
<circle cx='429.47' cy='314.93' r='1.95' style='stroke-width: 0.71; stroke: #F11212; stroke-opacity: 0.30; fill: #F11212; fill-opacity: 0.30;' />
<circle cx='443.82' cy='311.85' r='1.95' style='stroke-width: 0.71; stroke: #F11212; stroke-opacity: 0.30; fill: #F11212; fill-opacity: 0.30;' />
<circle cx='455.22' cy='292.44' r='1.95' style='stroke-width: 0.71; stroke: #F11212; stroke-opacity: 0.30; fill: #F11212; fill-opacity: 0.30;' />
<circle cx='428.21' cy='313.51' r='1.95' style='stroke-width: 0.71; stroke: #F11212; stroke-opacity: 0.30; fill: #F11212; fill-opacity: 0.30;' />
<circle cx='466.11' cy='310.32' r='1.95' style='stroke-width: 0.71; stroke: #F11212; stroke-opacity: 0.30; fill: #F11212; fill-opacity: 0.30;' />
<circle cx='446.57' cy='313.43' r='1.95' style='stroke-width: 0.71; stroke: #F11212; stroke-opacity: 0.30; fill: #F11212; fill-opacity: 0.30;' />
<circle cx='389.21' cy='277.00' r='1.95' style='stroke-width: 0.71; stroke: #F11212; stroke-opacity: 0.30; fill: #F11212; fill-opacity: 0.30;' />
<circle cx='412.21' cy='307.68' r='1.95' style='stroke-width: 0.71; stroke: #F11212; stroke-opacity: 0.30; fill: #F11212; fill-opacity: 0.30;' />
<circle cx='385.00' cy='274.20' r='1.95' style='stroke-width: 0.71; stroke: #F11212; stroke-opacity: 0.30; fill: #F11212; fill-opacity: 0.30;' />
<circle cx='411.56' cy='315.38' r='1.95' style='stroke-width: 0.71; stroke: #F11212; stroke-opacity: 0.30; fill: #F11212; fill-opacity: 0.30;' />
<circle cx='409.39' cy='289.01' r='1.95' style='stroke-width: 0.71; stroke: #F11212; stroke-opacity: 0.30; fill: #F11212; fill-opacity: 0.30;' />
<circle cx='466.28' cy='317.61' r='1.95' style='stroke-width: 0.71; stroke: #F11212; stroke-opacity: 0.30; fill: #F11212; fill-opacity: 0.30;' />
<circle cx='398.99' cy='316.49' r='1.95' style='stroke-width: 0.71; stroke: #F11212; stroke-opacity: 0.30; fill: #F11212; fill-opacity: 0.30;' />
<circle cx='420.84' cy='318.03' r='1.95' style='stroke-width: 0.71; stroke: #F11212; stroke-opacity: 0.30; fill: #F11212; fill-opacity: 0.30;' />
<circle cx='465.00' cy='291.25' r='1.95' style='stroke-width: 0.71; stroke: #F11212; stroke-opacity: 0.30; fill: #F11212; fill-opacity: 0.30;' />
<circle cx='436.01' cy='317.33' r='1.95' style='stroke-width: 0.71; stroke: #F11212; stroke-opacity: 0.30; fill: #F11212; fill-opacity: 0.30;' />
<circle cx='427.16' cy='299.65' r='1.95' style='stroke-width: 0.71; stroke: #F11212; stroke-opacity: 0.30; fill: #F11212; fill-opacity: 0.30;' />
<circle cx='375.05' cy='311.19' r='1.95' style='stroke-width: 0.71; stroke: #F11212; stroke-opacity: 0.30; fill: #F11212; fill-opacity: 0.30;' />
<circle cx='373.13' cy='143.47' r='1.95' style='stroke-width: 0.71; stroke: #F11212; stroke-opacity: 0.30; fill: #F11212; fill-opacity: 0.30;' />
<circle cx='421.74' cy='277.02' r='1.95' style='stroke-width: 0.71; stroke: #F11212; stroke-opacity: 0.30; fill: #F11212; fill-opacity: 0.30;' />
<circle cx='431.49' cy='313.67' r='1.95' style='stroke-width: 0.71; stroke: #F11212; stroke-opacity: 0.30; fill: #F11212; fill-opacity: 0.30;' />
<circle cx='430.29' cy='316.68' r='1.95' style='stroke-width: 0.71; stroke: #F11212; stroke-opacity: 0.30; fill: #F11212; fill-opacity: 0.30;' />
<circle cx='400.58' cy='317.33' r='1.95' style='stroke-width: 0.71; stroke: #F11212; stroke-opacity: 0.30; fill: #F11212; fill-opacity: 0.30;' />
<circle cx='365.67' cy='314.88' r='1.95' style='stroke-width: 0.71; stroke: #F11212; stroke-opacity: 0.30; fill: #F11212; fill-opacity: 0.30;' />
<circle cx='421.30' cy='206.36' r='1.95' style='stroke-width: 0.71; stroke: #F11212; stroke-opacity: 0.30; fill: #F11212; fill-opacity: 0.30;' />
<circle cx='467.75' cy='313.07' r='1.95' style='stroke-width: 0.71; stroke: #F11212; stroke-opacity: 0.30; fill: #F11212; fill-opacity: 0.30;' />
<circle cx='430.78' cy='316.00' r='1.95' style='stroke-width: 0.71; stroke: #F11212; stroke-opacity: 0.30; fill: #F11212; fill-opacity: 0.30;' />
<circle cx='436.61' cy='308.16' r='1.95' style='stroke-width: 0.71; stroke: #F11212; stroke-opacity: 0.30; fill: #F11212; fill-opacity: 0.30;' />
<rect x='60.01' y='134.68' width='438.51' height='193.52' style='stroke-width: 1.07; stroke: #333333;' />
</g>
<g clip-path='url(#cpMC4wMHw1MDQuMDB8MC4wMHwzNjAuMDA=)'>
<text x='55.08' y='323.93' text-anchor='end' style='font-size: 12.00px;fill: #4D4D4D; font-family: "Arial";' textLength='33.70px' lengthAdjust='spacingAndGlyphs'>0e+00</text>
<text x='55.08' y='280.17' text-anchor='end' style='font-size: 12.00px;fill: #4D4D4D; font-family: "Arial";' textLength='33.70px' lengthAdjust='spacingAndGlyphs'>2e+05</text>
<text x='55.08' y='236.40' text-anchor='end' style='font-size: 12.00px;fill: #4D4D4D; font-family: "Arial";' textLength='33.70px' lengthAdjust='spacingAndGlyphs'>4e+05</text>
<text x='55.08' y='192.64' text-anchor='end' style='font-size: 12.00px;fill: #4D4D4D; font-family: "Arial";' textLength='33.70px' lengthAdjust='spacingAndGlyphs'>6e+05</text>
<text x='55.08' y='148.87' text-anchor='end' style='font-size: 12.00px;fill: #4D4D4D; font-family: "Arial";' textLength='33.70px' lengthAdjust='spacingAndGlyphs'>8e+05</text>
<polyline points='57.27,319.62 60.01,319.62 ' style='stroke-width: 1.07; stroke: #333333; stroke-linecap: butt;' />
<polyline points='57.27,275.86 60.01,275.86 ' style='stroke-width: 1.07; stroke: #333333; stroke-linecap: butt;' />
<polyline points='57.27,232.10 60.01,232.10 ' style='stroke-width: 1.07; stroke: #333333; stroke-linecap: butt;' />
<polyline points='57.27,188.33 60.01,188.33 ' style='stroke-width: 1.07; stroke: #333333; stroke-linecap: butt;' />
<polyline points='57.27,144.57 60.01,144.57 ' style='stroke-width: 1.07; stroke: #333333; stroke-linecap: butt;' />
<polyline points='142.23,330.94 142.23,328.20 ' style='stroke-width: 1.07; stroke: #333333; stroke-linecap: butt;' />
<polyline points='279.26,330.94 279.26,328.20 ' style='stroke-width: 1.07; stroke: #333333; stroke-linecap: butt;' />
<polyline points='416.30,330.94 416.30,328.20 ' style='stroke-width: 1.07; stroke: #333333; stroke-linecap: butt;' />
<text transform='translate(142.74,333.64) rotate(-45)' text-anchor='end' style='font-size: 0.00px;fill: #4D4D4D; font-family: "Arial";' textLength='2.94px' lengthAdjust='spacingAndGlyphs'>gplas2</text>
<text transform='translate(279.77,333.64) rotate(-45)' text-anchor='end' style='font-size: 0.00px;fill: #4D4D4D; font-family: "Arial";' textLength='4.72px' lengthAdjust='spacingAndGlyphs'>MOB-suite</text>
<text transform='translate(416.81,333.64) rotate(-45)' text-anchor='end' style='font-size: 0.00px;fill: #4D4D4D; font-family: "Arial";' textLength='7.06px' lengthAdjust='spacingAndGlyphs'>plasmidSPAdes</text>
<text x='279.26' y='351.44' text-anchor='middle' style='font-size: 14.00px; font-weight: bold; font-family: "Arial";' textLength='59.10px' lengthAdjust='spacingAndGlyphs'>Software</text>
<text transform='translate(15.55,231.44) rotate(-90)' text-anchor='middle' style='font-size: 14.00px; font-weight: bold; font-family: "Arial";' textLength='189.72px' lengthAdjust='spacingAndGlyphs'>Chromosome contamination</text>
<rect x='143.86' y='95.48' width='270.81' height='28.24' style='stroke-width: 1.07; stroke: none; fill: #FFFFFF;' />
<text x='149.34' y='109.96' style='font-size: 0.00px; font-family: "Arial";' textLength='3.77px' lengthAdjust='spacingAndGlyphs'>software</text>
<rect x='149.34' y='100.96' width='17.28' height='17.28' style='stroke-width: 1.07; stroke: none; fill: #FFFFFF;' />
<circle cx='157.98' cy='109.60' r='1.95' style='stroke-width: 0.71; stroke: #00FF93; stroke-opacity: 0.30; fill: #00FF93; fill-opacity: 0.30;' />
<rect x='207.86' y='100.96' width='17.28' height='17.28' style='stroke-width: 1.07; stroke: none; fill: #FFFFFF;' />
<circle cx='216.50' cy='109.60' r='1.95' style='stroke-width: 0.71; stroke: #FFC300; stroke-opacity: 0.30; fill: #FFC300; fill-opacity: 0.30;' />
<rect x='294.78' y='100.96' width='17.28' height='17.28' style='stroke-width: 1.07; stroke: none; fill: #FFFFFF;' />
<circle cx='303.42' cy='109.60' r='1.95' style='stroke-width: 0.71; stroke: #F11212; stroke-opacity: 0.30; fill: #F11212; fill-opacity: 0.30;' />
<text x='166.62' y='114.62' style='font-size: 14.00px; font-family: "Arial";' textLength='41.24px' lengthAdjust='spacingAndGlyphs'>gplas2</text>
<text x='225.14' y='114.62' style='font-size: 14.00px; font-family: "Arial";' textLength='66.12px' lengthAdjust='spacingAndGlyphs'>MOB-suite</text>
<text x='312.06' y='114.62' style='font-size: 14.00px; font-family: "Arial";' textLength='98.81px' lengthAdjust='spacingAndGlyphs'>plasmidSPAdes</text>
</g>
</svg>
