<?xml version='1.0' encoding='UTF-8' ?>
<svg xmlns='http://www.w3.org/2000/svg' xmlns:xlink='http://www.w3.org/1999/xlink' class='svglite' width='504.00pt' height='360.00pt' viewBox='0 0 504.00 360.00'>
<defs>
  <style type='text/css'><![CDATA[
    .svglite line, .svglite polyline, .svglite polygon, .svglite path, .svglite rect, .svglite circle {
      fill: none;
      stroke: #000000;
      stroke-linecap: round;
      stroke-linejoin: round;
      stroke-miterlimit: 10.00;
    }
    .svglite text {
      white-space: pre;
    }
  ]]></style>
</defs>
<rect width='100%' height='100%' style='stroke: none; fill: #FFFFFF;'/>
<defs>
  <clipPath id='cpMC4wMHw1MDQuMDB8MC4wMHwzNjAuMDA='>
    <rect x='0.00' y='0.00' width='504.00' height='360.00' />
  </clipPath>
</defs>
<g clip-path='url(#cpMC4wMHw1MDQuMDB8MC4wMHwzNjAuMDA=)'>
<rect x='0.00' y='0.00' width='504.00' height='360.00' style='stroke-width: 1.07; stroke: #FFFFFF; fill: #FFFFFF;' />
</g>
<defs>
  <clipPath id='cpNTEuNTR8MTk2Ljg4fDY1LjY0fDMyNC4zMg=='>
    <rect x='51.54' y='65.64' width='145.34' height='258.68' />
  </clipPath>
</defs>
<g clip-path='url(#cpNTEuNTR8MTk2Ljg4fDY1LjY0fDMyNC4zMg==)'>
<rect x='51.54' y='65.64' width='145.34' height='258.68' style='stroke-width: 1.07; stroke: none; fill: #FFFFFF;' />
<polyline points='51.54,278.38 196.88,278.38 ' style='stroke-width: 0.53; stroke: #EBEBEB; stroke-linecap: butt;' />
<polyline points='51.54,210.02 196.88,210.02 ' style='stroke-width: 0.53; stroke: #EBEBEB; stroke-linecap: butt;' />
<polyline points='51.54,141.66 196.88,141.66 ' style='stroke-width: 0.53; stroke: #EBEBEB; stroke-linecap: butt;' />
<polyline points='51.54,73.29 196.88,73.29 ' style='stroke-width: 0.53; stroke: #EBEBEB; stroke-linecap: butt;' />
<polyline points='51.54,312.56 196.88,312.56 ' style='stroke-width: 1.07; stroke: #EBEBEB; stroke-linecap: butt;' />
<polyline points='51.54,244.20 196.88,244.20 ' style='stroke-width: 1.07; stroke: #EBEBEB; stroke-linecap: butt;' />
<polyline points='51.54,175.84 196.88,175.84 ' style='stroke-width: 1.07; stroke: #EBEBEB; stroke-linecap: butt;' />
<polyline points='51.54,107.48 196.88,107.48 ' style='stroke-width: 1.07; stroke: #EBEBEB; stroke-linecap: butt;' />
<polyline points='91.17,324.32 91.17,65.64 ' style='stroke-width: 1.07; stroke: #EBEBEB; stroke-linecap: butt;' />
<polyline points='157.24,324.32 157.24,65.64 ' style='stroke-width: 1.07; stroke: #EBEBEB; stroke-linecap: butt;' />
<rect x='127.51' y='245.84' width='59.46' height='66.72' style='stroke-width: 1.07; stroke: none; stroke-linecap: butt; stroke-linejoin: miter; fill: #FF9933;' />
<rect x='61.45' y='307.36' width='59.46' height='5.20' style='stroke-width: 1.07; stroke: none; stroke-linecap: butt; stroke-linejoin: miter; fill: #434343;' />
<rect x='127.51' y='77.40' width='59.46' height='168.44' style='stroke-width: 1.07; stroke: none; stroke-linecap: butt; stroke-linejoin: miter; fill: #A6A6A6;' />
<rect x='51.54' y='65.64' width='145.34' height='258.68' style='stroke-width: 1.07; stroke: #333333;' />
</g>
<g clip-path='url(#cpMC4wMHw1MDQuMDB8MC4wMHwzNjAuMDA=)'>
</g>
<defs>
  <clipPath id='cpMjAyLjM2fDM0Ny43MHw2NS42NHwzMjQuMzI='>
    <rect x='202.36' y='65.64' width='145.34' height='258.68' />
  </clipPath>
</defs>
<g clip-path='url(#cpMjAyLjM2fDM0Ny43MHw2NS42NHwzMjQuMzI=)'>
<rect x='202.36' y='65.64' width='145.34' height='258.68' style='stroke-width: 1.07; stroke: none; fill: #FFFFFF;' />
<polyline points='202.36,278.38 347.70,278.38 ' style='stroke-width: 0.53; stroke: #EBEBEB; stroke-linecap: butt;' />
<polyline points='202.36,210.02 347.70,210.02 ' style='stroke-width: 0.53; stroke: #EBEBEB; stroke-linecap: butt;' />
<polyline points='202.36,141.66 347.70,141.66 ' style='stroke-width: 0.53; stroke: #EBEBEB; stroke-linecap: butt;' />
<polyline points='202.36,73.29 347.70,73.29 ' style='stroke-width: 0.53; stroke: #EBEBEB; stroke-linecap: butt;' />
<polyline points='202.36,312.56 347.70,312.56 ' style='stroke-width: 1.07; stroke: #EBEBEB; stroke-linecap: butt;' />
<polyline points='202.36,244.20 347.70,244.20 ' style='stroke-width: 1.07; stroke: #EBEBEB; stroke-linecap: butt;' />
<polyline points='202.36,175.84 347.70,175.84 ' style='stroke-width: 1.07; stroke: #EBEBEB; stroke-linecap: butt;' />
<polyline points='202.36,107.48 347.70,107.48 ' style='stroke-width: 1.07; stroke: #EBEBEB; stroke-linecap: butt;' />
<polyline points='242.00,324.32 242.00,65.64 ' style='stroke-width: 1.07; stroke: #EBEBEB; stroke-linecap: butt;' />
<polyline points='308.06,324.32 308.06,65.64 ' style='stroke-width: 1.07; stroke: #EBEBEB; stroke-linecap: butt;' />
<rect x='278.33' y='225.88' width='59.46' height='86.68' style='stroke-width: 1.07; stroke: none; stroke-linecap: butt; stroke-linejoin: miter; fill: #FF9933;' />
<rect x='212.27' y='298.61' width='59.46' height='13.95' style='stroke-width: 1.07; stroke: none; stroke-linecap: butt; stroke-linejoin: miter; fill: #434343;' />
<rect x='278.33' y='77.40' width='59.46' height='148.48' style='stroke-width: 1.07; stroke: none; stroke-linecap: butt; stroke-linejoin: miter; fill: #A6A6A6;' />
<rect x='202.36' y='65.64' width='145.34' height='258.68' style='stroke-width: 1.07; stroke: #333333;' />
</g>
<g clip-path='url(#cpMC4wMHw1MDQuMDB8MC4wMHwzNjAuMDA=)'>
</g>
<defs>
  <clipPath id='cpMzUzLjE4fDQ5OC41Mnw2NS42NHwzMjQuMzI='>
    <rect x='353.18' y='65.64' width='145.34' height='258.68' />
  </clipPath>
</defs>
<g clip-path='url(#cpMzUzLjE4fDQ5OC41Mnw2NS42NHwzMjQuMzI=)'>
<rect x='353.18' y='65.64' width='145.34' height='258.68' style='stroke-width: 1.07; stroke: none; fill: #FFFFFF;' />
<polyline points='353.18,278.38 498.52,278.38 ' style='stroke-width: 0.53; stroke: #EBEBEB; stroke-linecap: butt;' />
<polyline points='353.18,210.02 498.52,210.02 ' style='stroke-width: 0.53; stroke: #EBEBEB; stroke-linecap: butt;' />
<polyline points='353.18,141.66 498.52,141.66 ' style='stroke-width: 0.53; stroke: #EBEBEB; stroke-linecap: butt;' />
<polyline points='353.18,73.29 498.52,73.29 ' style='stroke-width: 0.53; stroke: #EBEBEB; stroke-linecap: butt;' />
<polyline points='353.18,312.56 498.52,312.56 ' style='stroke-width: 1.07; stroke: #EBEBEB; stroke-linecap: butt;' />
<polyline points='353.18,244.20 498.52,244.20 ' style='stroke-width: 1.07; stroke: #EBEBEB; stroke-linecap: butt;' />
<polyline points='353.18,175.84 498.52,175.84 ' style='stroke-width: 1.07; stroke: #EBEBEB; stroke-linecap: butt;' />
<polyline points='353.18,107.48 498.52,107.48 ' style='stroke-width: 1.07; stroke: #EBEBEB; stroke-linecap: butt;' />
<polyline points='392.82,324.32 392.82,65.64 ' style='stroke-width: 1.07; stroke: #EBEBEB; stroke-linecap: butt;' />
<polyline points='458.88,324.32 458.88,65.64 ' style='stroke-width: 1.07; stroke: #EBEBEB; stroke-linecap: butt;' />
<rect x='429.15' y='242.01' width='59.46' height='70.55' style='stroke-width: 1.07; stroke: none; stroke-linecap: butt; stroke-linejoin: miter; fill: #FF9933;' />
<rect x='363.09' y='308.46' width='59.46' height='4.10' style='stroke-width: 1.07; stroke: none; stroke-linecap: butt; stroke-linejoin: miter; fill: #434343;' />
<rect x='429.15' y='77.40' width='59.46' height='164.61' style='stroke-width: 1.07; stroke: none; stroke-linecap: butt; stroke-linejoin: miter; fill: #A6A6A6;' />
<rect x='353.18' y='65.64' width='145.34' height='258.68' style='stroke-width: 1.07; stroke: #333333;' />
</g>
<g clip-path='url(#cpMC4wMHw1MDQuMDB8MC4wMHwzNjAuMDA=)'>
</g>
<defs>
  <clipPath id='cpNTEuNTR8MTk2Ljg4fDQ0LjY4fDY1LjY0'>
    <rect x='51.54' y='44.68' width='145.34' height='20.96' />
  </clipPath>
</defs>
<g clip-path='url(#cpNTEuNTR8MTk2Ljg4fDQ0LjY4fDY1LjY0)'>
<rect x='51.54' y='44.68' width='145.34' height='20.96' style='stroke-width: 1.07; stroke: #333333; fill: #D9D9D9;' />
<text x='124.21' y='59.82' text-anchor='middle' style='font-size: 13.00px;fill: #1A1A1A; font-family: "Arial";' textLength='38.30px' lengthAdjust='spacingAndGlyphs'>gplas2</text>
</g>
<g clip-path='url(#cpMC4wMHw1MDQuMDB8MC4wMHwzNjAuMDA=)'>
</g>
<defs>
  <clipPath id='cpMjAyLjM2fDM0Ny43MHw0NC42OHw2NS42NA=='>
    <rect x='202.36' y='44.68' width='145.34' height='20.96' />
  </clipPath>
</defs>
<g clip-path='url(#cpMjAyLjM2fDM0Ny43MHw0NC42OHw2NS42NA==)'>
<rect x='202.36' y='44.68' width='145.34' height='20.96' style='stroke-width: 1.07; stroke: #333333; fill: #D9D9D9;' />
<text x='275.03' y='59.82' text-anchor='middle' style='font-size: 13.00px;fill: #1A1A1A; font-family: "Arial";' textLength='61.39px' lengthAdjust='spacingAndGlyphs'>MOB-suite</text>
</g>
<g clip-path='url(#cpMC4wMHw1MDQuMDB8MC4wMHwzNjAuMDA=)'>
</g>
<defs>
  <clipPath id='cpMzUzLjE4fDQ5OC41Mnw0NC42OHw2NS42NA=='>
    <rect x='353.18' y='44.68' width='145.34' height='20.96' />
  </clipPath>
</defs>
<g clip-path='url(#cpMzUzLjE4fDQ5OC41Mnw0NC42OHw2NS42NA==)'>
<rect x='353.18' y='44.68' width='145.34' height='20.96' style='stroke-width: 1.07; stroke: #333333; fill: #D9D9D9;' />
<text x='425.85' y='59.82' text-anchor='middle' style='font-size: 13.00px;fill: #1A1A1A; font-family: "Arial";' textLength='91.76px' lengthAdjust='spacingAndGlyphs'>plasmidSPAdes</text>
</g>
<g clip-path='url(#cpMC4wMHw1MDQuMDB8MC4wMHwzNjAuMDA=)'>
<polyline points='91.17,327.06 91.17,324.32 ' style='stroke-width: 1.07; stroke: #333333; stroke-linecap: butt;' />
<polyline points='157.24,327.06 157.24,324.32 ' style='stroke-width: 1.07; stroke: #333333; stroke-linecap: butt;' />
<text x='91.17' y='336.43' text-anchor='middle' style='font-size: 10.00px;fill: #4D4D4D; font-family: "Arial";' textLength='60.00px' lengthAdjust='spacingAndGlyphs'>Chromosome</text>
<text x='157.24' y='336.43' text-anchor='middle' style='font-size: 10.00px;fill: #4D4D4D; font-family: "Arial";' textLength='55.01px' lengthAdjust='spacingAndGlyphs'>Plasmidome</text>
<polyline points='242.00,327.06 242.00,324.32 ' style='stroke-width: 1.07; stroke: #333333; stroke-linecap: butt;' />
<polyline points='308.06,327.06 308.06,324.32 ' style='stroke-width: 1.07; stroke: #333333; stroke-linecap: butt;' />
<text x='242.00' y='336.43' text-anchor='middle' style='font-size: 10.00px;fill: #4D4D4D; font-family: "Arial";' textLength='60.00px' lengthAdjust='spacingAndGlyphs'>Chromosome</text>
<text x='308.06' y='336.43' text-anchor='middle' style='font-size: 10.00px;fill: #4D4D4D; font-family: "Arial";' textLength='55.01px' lengthAdjust='spacingAndGlyphs'>Plasmidome</text>
<polyline points='392.82,327.06 392.82,324.32 ' style='stroke-width: 1.07; stroke: #333333; stroke-linecap: butt;' />
<polyline points='458.88,327.06 458.88,324.32 ' style='stroke-width: 1.07; stroke: #333333; stroke-linecap: butt;' />
<text x='392.82' y='336.43' text-anchor='middle' style='font-size: 10.00px;fill: #4D4D4D; font-family: "Arial";' textLength='60.00px' lengthAdjust='spacingAndGlyphs'>Chromosome</text>
<text x='458.88' y='336.43' text-anchor='middle' style='font-size: 10.00px;fill: #4D4D4D; font-family: "Arial";' textLength='55.01px' lengthAdjust='spacingAndGlyphs'>Plasmidome</text>
<text x='46.60' y='317.58' text-anchor='end' style='font-size: 14.00px;fill: #4D4D4D; font-family: "Arial";' textLength='7.78px' lengthAdjust='spacingAndGlyphs'>0</text>
<text x='46.60' y='249.22' text-anchor='end' style='font-size: 14.00px;fill: #4D4D4D; font-family: "Arial";' textLength='23.35px' lengthAdjust='spacingAndGlyphs'>250</text>
<text x='46.60' y='180.86' text-anchor='end' style='font-size: 14.00px;fill: #4D4D4D; font-family: "Arial";' textLength='23.35px' lengthAdjust='spacingAndGlyphs'>500</text>
<text x='46.60' y='112.50' text-anchor='end' style='font-size: 14.00px;fill: #4D4D4D; font-family: "Arial";' textLength='23.35px' lengthAdjust='spacingAndGlyphs'>750</text>
<polyline points='48.80,312.56 51.54,312.56 ' style='stroke-width: 1.07; stroke: #333333; stroke-linecap: butt;' />
<polyline points='48.80,244.20 51.54,244.20 ' style='stroke-width: 1.07; stroke: #333333; stroke-linecap: butt;' />
<polyline points='48.80,175.84 51.54,175.84 ' style='stroke-width: 1.07; stroke: #333333; stroke-linecap: butt;' />
<polyline points='48.80,107.48 51.54,107.48 ' style='stroke-width: 1.07; stroke: #333333; stroke-linecap: butt;' />
<text x='275.03' y='351.44' text-anchor='middle' style='font-size: 14.00px; font-weight: bold; font-family: "Arial";' textLength='104.18px' lengthAdjust='spacingAndGlyphs'>ARG true origin</text>
<text transform='translate(16.99,194.98) rotate(-90)' text-anchor='middle' style='font-size: 16.00px; font-weight: bold; font-family: "Arial";' textLength='71.12px' lengthAdjust='spacingAndGlyphs'>Nr. ARGs</text>
<rect x='98.34' y='5.48' width='353.38' height='28.24' style='stroke-width: 1.07; stroke: none; fill: #FFFFFF;' />
<text x='103.82' y='23.92' style='font-size: 12.00px; font-weight: bold; font-family: "Arial";' textLength='106.04px' lengthAdjust='spacingAndGlyphs'>ARG classification</text>
<rect x='215.59' y='10.96' width='17.28' height='17.28' style='stroke-width: 1.07; stroke: none; fill: #FFFFFF;' />
<rect x='216.30' y='11.67' width='15.86' height='15.86' style='stroke-width: 1.07; stroke: none; stroke-linecap: butt; stroke-linejoin: miter; fill: #434343;' />
<rect x='302.61' y='10.96' width='17.28' height='17.28' style='stroke-width: 1.07; stroke: none; fill: #FFFFFF;' />
<rect x='303.32' y='11.67' width='15.86' height='15.86' style='stroke-width: 1.07; stroke: none; stroke-linecap: butt; stroke-linejoin: miter; fill: #A6A6A6;' />
<rect x='388.53' y='10.96' width='17.28' height='17.28' style='stroke-width: 1.07; stroke: none; fill: #FFFFFF;' />
<rect x='389.24' y='11.67' width='15.86' height='15.86' style='stroke-width: 1.07; stroke: none; stroke-linecap: butt; stroke-linejoin: miter; fill: #FF9933;' />
<text x='238.85' y='23.19' style='font-size: 10.00px; font-family: "Arial";' textLength='57.78px' lengthAdjust='spacingAndGlyphs'>chromosome</text>
<text x='325.87' y='23.19' style='font-size: 10.00px; font-family: "Arial";' textLength='56.67px' lengthAdjust='spacingAndGlyphs'>missed_args</text>
<text x='411.79' y='23.19' style='font-size: 10.00px; font-family: "Arial";' textLength='34.45px' lengthAdjust='spacingAndGlyphs'>plasmid</text>
</g>
</svg>
