GCF_015159575.1_ASM1515957v1,bin_component_0,NZ_CP063331.1,2097,2224
GCF_014250355.1_ASM1425035v1,bin_component_1,NZ_CP060169.1,27312,25693
GCF_014250355.1_ASM1425035v1,bin_component_3,NZ_CP060171.1,1975,2052
GCF_014250355.1_ASM1425035v1,bin_component_0,NZ_CP060169.1,98552,98552
GCF_014250355.1_ASM1425035v1,bin_component_2,no_correct_alignments,0,0
GCF_020736305.1_ASM2073630v1,bin_component_0,NZ_CP085983.1,1057,10700
GCF_020736305.1_ASM2073630v1,bin_component_0,NZ_CP085984.1,9506,10700
GCF_018340585.1_ASM1834058v1,bin_component_1,NZ_CP073717.1,3904,3981
GCF_018340585.1_ASM1834058v1,bin_component_0,NZ_CP073716.1,4712,4789
GCF_019670285.1_ASM1967028v1,bin_component_0,NZ_AP023301.1,125107,136876
GCF_019670285.1_ASM1967028v1,bin_component_0,NZ_AP023302.1,7257,136876
GCF_019670285.1_ASM1967028v1,bin_component_0,NZ_AP023300.1,1530,136876
GCF_003064405.2_ASM306440v2,bin_component_1,NZ_CP077693.1,24813,26390
GCF_003064405.2_ASM306440v2,bin_component_3,NZ_CP077693.1,12982,14379
GCF_003064405.2_ASM306440v2,bin_component_4,NZ_CP077693.1,8996,8996
GCF_003064405.2_ASM306440v2,bin_component_0,NZ_CP077694.1,102710,128869
GCF_003064405.2_ASM306440v2,bin_component_0,NZ_CP077695.1,26031,128869
GCF_003064405.2_ASM306440v2,bin_component_2,NZ_CP077693.1,24667,24794
GCF_003067925.2_ASM306792v2,bin_component_1,NZ_CP077699.1,42060,29310
GCF_003067925.2_ASM306792v2,bin_component_0,NZ_CP077700.1,113389,114199
GCF_003067925.2_ASM306792v2,bin_component_2,NZ_CP077701.1,26022,26149
GCF_020736345.1_ASM2073634v1,bin_component_1,NZ_CP085987.1,15540,15542
GCF_020736345.1_ASM2073634v1,bin_component_0,NZ_CP085987.1,30564,31058
GCF_020736345.1_ASM2073634v1,bin_component_2,NZ_CP085987.1,12181,13414
GCF_022655645.1_ASM2265564v1,bin_component_1,NZ_CP093386.1,13002,16395
GCF_022655645.1_ASM2265564v1,bin_component_3,NZ_CP093389.1,3176,3253
GCF_022655645.1_ASM2265564v1,bin_component_0,NZ_CP093387.1,93495,93672
GCF_022655645.1_ASM2265564v1,bin_component_2,NZ_CP093388.1,3910,3987
GCF_001831985.2_ASM183198v2,bin_component_1,NZ_CP075136.1,26031,161845
GCF_001831985.2_ASM183198v2,bin_component_0,NZ_CP075135.1,238603,212110
GCF_016451985.1_ASM1645198v1,bin_component_1,NZ_CP051307.1,53919,27910
GCF_016451985.1_ASM1645198v1,bin_component_0,NZ_CP051309.1,48525,48657
GCF_015241115.1_ASM1524111v1,bin_component_0,NZ_CP063710.1,3126,3399
GCF_016454545.1_ASM1645454v1,bin_component_1,NZ_CP051400.1,43184,44682
GCF_016454545.1_ASM1645454v1,bin_component_3,NZ_CP051399.1,4198,4325
GCF_016454545.1_ASM1645454v1,bin_component_4,NZ_CP051401.1,3372,3499
GCF_016454545.1_ASM1645454v1,bin_component_0,no_correct_alignments,0,0
GCF_016454545.1_ASM1645454v1,bin_component_2,no_correct_alignments,0,0
GCF_016454545.1_ASM1645454v1,bin_component_5,no_correct_alignments,0,0
GCF_016454185.1_ASM1645418v1,bin_component_0,NZ_CP051349.1,41067,41068
GCF_016452065.1_ASM1645206v1,bin_component_1,no_correct_alignments,0,0
GCF_016452065.1_ASM1645206v1,bin_component_0,NZ_CP051319.1,165039,260197
GCF_016452065.1_ASM1645206v1,bin_component_0,NZ_CP051318.1,38119,260197
GCF_016952595.1_ASM1695259v1,bin_component_1,no_correct_alignments,0,0
GCF_016952595.1_ASM1695259v1,bin_component_0,NZ_CP051364.1,44166,44299
GCF_016454525.1_ASM1645452v1,bin_component_0,NZ_CP051396.1,37962,48018
GCF_015074905.1_ASM1507490v1,bin_component_1,NZ_CP063297.1,34516,34907
GCF_015074905.1_ASM1507490v1,bin_component_3,NZ_CP063299.1,3257,3384
GCF_015074905.1_ASM1507490v1,bin_component_4,NZ_CP063300.1,1718,1845
GCF_015074905.1_ASM1507490v1,bin_component_0,NZ_CP063296.1,100005,104632
GCF_015074905.1_ASM1507490v1,bin_component_0,NZ_CP063295.1,2332,104632
GCF_015074905.1_ASM1507490v1,bin_component_2,NZ_CP063298.1,4234,4361
GCF_022936385.1_ASM2293638v1,bin_component_0,NZ_CP092005.1,4593,4670
GCF_013415925.1_ASM1341592v1,bin_component_0,NZ_CP058810.1,198676,395965
GCF_013415925.1_ASM1341592v1,bin_component_0,NZ_CP058809.1,93853,395965
GCF_013415925.1_ASM1341592v1,bin_component_0,NZ_CP058811.1,88474,395965
GCF_013161805.1_ASM1316180v1,bin_component_1,no_correct_alignments,0,0
GCF_013161805.1_ASM1316180v1,bin_component_0,NZ_CP053576.1,62312,90914
GCF_013161805.1_ASM1316180v1,bin_component_0,NZ_CP053578.1,21243,90914
GCF_013161805.1_ASM1316180v1,bin_component_2,no_correct_alignments,0,0
GCF_006461415.2_ASM646141v2,bin_component_0,NZ_CP050832.1,148206,149758
GCF_016454205.1_ASM1645420v1,bin_component_1,no_correct_alignments,0,0
GCF_016454205.1_ASM1645420v1,bin_component_3,no_correct_alignments,0,0
GCF_016454205.1_ASM1645420v1,bin_component_4,no_correct_alignments,0,0
GCF_016454205.1_ASM1645420v1,bin_component_0,NZ_CP051351.1,107708,126451
GCF_016454205.1_ASM1645420v1,bin_component_0,NZ_CP051352.1,10195,126451
GCF_016454205.1_ASM1645420v1,bin_component_2,no_correct_alignments,0,0
GCF_014334195.1_ASM1433419v1,bin_component_0,NZ_CP060514.1,41605,43970
GCF_016025375.1_ASM1602537v1,bin_component_0,NZ_CP065565.1,1982,2109
GCF_006461325.2_ASM646132v2,bin_component_1,no_correct_alignments,0,0
GCF_006461325.2_ASM646132v2,bin_component_0,NZ_CP069166.1,51285,127806
GCF_015240635.1_ASM1524063v1,bin_component_0,NZ_CP063701.1,59038,59205
GCF_014334175.1_ASM1433417v1,bin_component_1,NZ_CP060508.1,41112,41226
GCF_014334175.1_ASM1433417v1,bin_component_3,NZ_CP060510.1,3350,3499
GCF_014334175.1_ASM1433417v1,bin_component_4,NZ_CP060511.1,2978,3105
GCF_014334175.1_ASM1433417v1,bin_component_0,NZ_CP060509.1,99748,98184
GCF_014334175.1_ASM1433417v1,bin_component_2,NZ_CP060508.1,25099,13883
GCF_013348865.1_ASM1334886v1,bin_component_1,NZ_CP054715.1,67004,28675
GCF_013348865.1_ASM1334886v1,bin_component_3,no_correct_alignments,0,0
GCF_013348865.1_ASM1334886v1,bin_component_0,NZ_CP054718.1,86545,399135
GCF_013348865.1_ASM1334886v1,bin_component_0,NZ_CP054717.1,157831,399135
GCF_013348865.1_ASM1334886v1,bin_component_0,NZ_CP054716.1,50908,399135
GCF_013348865.1_ASM1334886v1,bin_component_0,NZ_CP054715.1,43280,399135
GCF_013348865.1_ASM1334886v1,bin_component_2,no_correct_alignments,0,0
GCF_015240855.1_ASM1524085v1,bin_component_1,NZ_CP063704.1,4888,5015
GCF_015240855.1_ASM1524085v1,bin_component_0,NZ_CP063703.1,99372,104957
GCF_015240855.1_ASM1524085v1,bin_component_0,NZ_CP063702.1,2998,104957
GCF_022936485.1_ASM2293648v1,bin_component_0,NZ_CP092013.1,4445,4670
GCF_016454225.1_ASM1645422v1,bin_component_1,NZ_CP051355.1,10323,10452
GCF_016454225.1_ASM1645422v1,bin_component_0,NZ_CP051354.1,104588,105709
GCF_016454225.1_ASM1645422v1,bin_component_2,NZ_CP051353.1,25352,8540
GCF_021397645.1_ASM2139764v1,bin_component_1,NZ_CP090142.1,25938,21457
GCF_021397645.1_ASM2139764v1,bin_component_0,NZ_CP090143.1,50055,51089
GCF_021397645.1_ASM2139764v1,bin_component_2,NZ_CP090144.1,4593,4720
GCF_003067445.2_ASM306744v2,bin_component_1,NZ_CP077704.1,36937,22407
GCF_003067445.2_ASM306744v2,bin_component_0,NZ_CP077705.1,67728,67855
GCF_002265865.2_ASM226586v2,bin_component_0,no_correct_alignments,0,0
GCF_016454585.1_ASM1645458v1,bin_component_1,NZ_CP051402.1,9783,11208
GCF_016454585.1_ASM1645458v1,bin_component_0,NZ_CP051403.1,97234,98860
GCF_016454585.1_ASM1645458v1,bin_component_2,no_correct_alignments,0,0
GCF_016127435.1_ASM1612743v1,bin_component_9,no_correct_alignments,0,0
GCF_016127435.1_ASM1612743v1,bin_component_7,no_correct_alignments,0,0
GCF_016127435.1_ASM1612743v1,bin_component_1,NZ_CP066010.1,85840,160545
GCF_016127435.1_ASM1612743v1,bin_component_1,NZ_CP066008.1,8688,160545
GCF_016127435.1_ASM1612743v1,bin_component_3,no_correct_alignments,0,0
GCF_016127435.1_ASM1612743v1,bin_component_4,no_correct_alignments,0,0
GCF_016127435.1_ASM1612743v1,bin_component_0,NZ_CP066011.1,93469,93665
GCF_016127435.1_ASM1612743v1,bin_component_2,no_correct_alignments,0,0
GCF_016127435.1_ASM1612743v1,bin_component_6,no_correct_alignments,0,0
GCF_016127435.1_ASM1612743v1,bin_component_5,no_correct_alignments,0,0
GCF_016127435.1_ASM1612743v1,bin_component_8,no_correct_alignments,0,0
GCF_022936365.1_ASM2293636v1,bin_component_1,NZ_CP092002.1,4820,4897
GCF_022936365.1_ASM2293636v1,bin_component_0,NZ_CP092001.1,5649,5726
GCF_022936365.1_ASM2293636v1,bin_component_2,NZ_CP092003.1,4018,4095
GCF_002507915.2_ASM250791v2,bin_component_1,NZ_CP075111.1,15007,15008
GCF_002507915.2_ASM250791v2,bin_component_3,NZ_CP075111.1,10408,10408
GCF_002507915.2_ASM250791v2,bin_component_4,no_correct_alignments,0,0
GCF_002507915.2_ASM250791v2,bin_component_0,NZ_CP075111.1,27657,27657
GCF_002507915.2_ASM250791v2,bin_component_2,NZ_CP075111.1,10517,10517
GCF_019670465.1_ASM1967046v1,bin_component_0,NZ_AP023319.1,42544,43961
GCF_015240995.1_ASM1524099v1,bin_component_0,NZ_CP063706.1,91075,99506
GCF_015240995.1_ASM1524099v1,bin_component_0,NZ_CP063707.1,6908,99506
GCF_022226915.1_ASM2222691v1,bin_component_0,NZ_CP092076.1,60003,66547
GCF_001833255.2_ASM183325v2,bin_component_1,NZ_CP075130.1,134573,162064
GCF_001833255.2_ASM183325v2,bin_component_1,NZ_CP075131.1,26031,162064
GCF_001833255.2_ASM183325v2,bin_component_0,NZ_CP075129.1,374163,347096
GCF_001833255.2_ASM183325v2,bin_component_2,NZ_CP075129.1,15555,16828
GCF_001713515.2_ASM171351v2,bin_component_1,NZ_CP074662.1,35877,35879
GCF_001713515.2_ASM171351v2,bin_component_3,no_correct_alignments,0,0
GCF_001713515.2_ASM171351v2,bin_component_0,no_correct_alignments,0,0
GCF_001713515.2_ASM171351v2,bin_component_2,NZ_CP074661.1,37442,34016
GCF_016454365.1_ASM1645436v1,bin_component_1,NZ_CP051378.1,3188,3315
GCF_016454365.1_ASM1645436v1,bin_component_0,NZ_CP051379.1,19879,20598
GCF_016454325.1_ASM1645432v1,bin_component_0,no_correct_alignments,0,0
GCF_016454245.1_ASM1645424v1,bin_component_0,NZ_CP051357.1,122841,123266
GCF_016454665.1_ASM1645466v1,bin_component_1,NZ_CP051415.1,3319,3446
GCF_016454665.1_ASM1645466v1,bin_component_0,NZ_CP051414.1,3371,3499
GCF_016454665.1_ASM1645466v1,bin_component_2,no_correct_alignments,0,0
GCF_016889645.1_ASM1688964v1,bin_component_1,no_correct_alignments,0,0
GCF_016889645.1_ASM1688964v1,bin_component_0,NZ_CP069519.1,128163,128240
GCF_016454765.1_ASM1645476v1,bin_component_0,NZ_CP053050.1,48204,49516
GCF_019670345.1_ASM1967034v1,bin_component_0,NZ_AP023307.1,126251,137003
GCF_019670345.1_ASM1967034v1,bin_component_0,NZ_AP023308.1,7257,137003
GCF_019670345.1_ASM1967034v1,bin_component_0,NZ_AP023306.1,1530,137003
GCF_002507865.2_ASM250786v2,bin_component_1,no_correct_alignments,0,0
GCF_002507865.2_ASM250786v2,bin_component_0,no_correct_alignments,0,0
GCF_002507865.2_ASM250786v2,bin_component_2,no_correct_alignments,0,0
GCF_016452005.1_ASM1645200v1,bin_component_0,no_correct_alignments,0,0
GCF_022533545.1_ASM2253354v1,bin_component_1,NZ_CP092861.1,14089,14737
GCF_022533545.1_ASM2253354v1,bin_component_0,NZ_CP092862.1,196350,236521
GCF_022533545.1_ASM2253354v1,bin_component_0,NZ_CP092861.1,76979,236521
GCF_003068025.2_ASM306802v2,bin_component_1,NZ_CP077708.1,96045,96172
GCF_003068025.2_ASM306802v2,bin_component_3,NZ_CP077706.1,31796,14482
GCF_003068025.2_ASM306802v2,bin_component_0,NZ_CP077707.1,135387,135985
GCF_003068025.2_ASM306802v2,bin_component_2,NZ_CP077709.1,26031,26158
GCF_022162985.1_ASM2216298v1,bin_component_0,NZ_CP091879.1,3967,4022
GCF_016452165.1_ASM1645216v1,bin_component_1,NZ_CP053052.1,24415,29270
GCF_016452165.1_ASM1645216v1,bin_component_1,NZ_CP053053.1,20375,29270
GCF_016452165.1_ASM1645216v1,bin_component_1,NZ_CP053051.1,1003,29270
GCF_016452165.1_ASM1645216v1,bin_component_0,NZ_CP053054.1,93670,93858
GCF_016452165.1_ASM1645216v1,bin_component_2,NZ_CP054466.1,3188,3315
GCF_016454305.1_ASM1645430v1,bin_component_0,NZ_CP051368.1,12369,13276
GCF_021397625.1_ASM2139762v1,bin_component_0,NZ_CP090138.1,279901,324209
GCF_021397625.1_ASM2139762v1,bin_component_0,NZ_CP090139.1,50055,324209
GCF_021397625.1_ASM2139762v1,bin_component_0,NZ_CP090140.1,2130,324209
GCF_021397625.1_ASM2139762v1,bin_component_0,NZ_CP090137.1,2130,324209
GCF_001973785.2_ASM197378v2,bin_component_1,NZ_CP075124.1,33027,33027
GCF_001973785.2_ASM197378v2,bin_component_0,NZ_CP075123.1,59372,59378
GCF_016028495.1_ASM1602849v1,bin_component_1,NZ_CP065718.1,34808,17491
GCF_016028495.1_ASM1602849v1,bin_component_3,no_correct_alignments,0,0
GCF_016028495.1_ASM1602849v1,bin_component_0,NZ_CP065719.1,93933,94076
GCF_016028495.1_ASM1602849v1,bin_component_2,NZ_CP065718.1,18349,11265
GCF_016454265.1_ASM1645426v1,bin_component_0,NZ_CP051361.1,95231,95361
GCF_016454725.1_ASM1645472v1,bin_component_1,NZ_CP051424.1,56951,58080
GCF_016454725.1_ASM1645472v1,bin_component_3,NZ_CP051419.1,3372,3499
GCF_016454725.1_ASM1645472v1,bin_component_4,NZ_CP051423.1,2444,2571
GCF_016454725.1_ASM1645472v1,bin_component_0,NZ_CP051420.1,83747,83903
GCF_016454725.1_ASM1645472v1,bin_component_2,NZ_CP051426.1,10466,11711
GCF_016454725.1_ASM1645472v1,bin_component_5,NZ_CP051422.1,2096,2223
GCF_016026715.1_ASM1602671v1,bin_component_1,NZ_CP065639.1,18350,11265
GCF_016026715.1_ASM1602671v1,bin_component_0,NZ_CP065638.1,93816,93918
GCF_016026715.1_ASM1602671v1,bin_component_2,no_correct_alignments,0,0
GCF_022870605.1_ASM2287060v1,bin_component_1,NZ_CP058674.1,3371,3448
GCF_022870605.1_ASM2287060v1,bin_component_0,NZ_CP058672.1,219896,313795
GCF_022870605.1_ASM2287060v1,bin_component_0,NZ_CP058671.1,78982,313795
GCF_022870605.1_ASM2287060v1,bin_component_0,NZ_CP058673.1,47481,313795
GCF_001652385.2_ASM165238v2,bin_component_0,NZ_CP075142.1,74600,73060
GCF_022936425.1_ASM2293642v1,bin_component_1,NZ_CP092011.1,5728,5805
GCF_022936425.1_ASM2293642v1,bin_component_0,NZ_CP092010.1,61393,61393
GCF_001972545.2_ASM197254v2,bin_component_1,no_correct_alignments,0,0
GCF_001972545.2_ASM197254v2,bin_component_0,NZ_CP075119.1,61145,59866
GCF_016454445.1_ASM1645444v1,bin_component_1,no_correct_alignments,0,0
GCF_016454445.1_ASM1645444v1,bin_component_0,NZ_CP051387.1,16623,21792
GCF_016454445.1_ASM1645444v1,bin_component_0,NZ_CP051388.1,6273,21792
GCF_016454445.1_ASM1645444v1,bin_component_2,no_correct_alignments,0,0
GCF_015074885.1_ASM1507488v1,bin_component_1,NZ_CP063291.1,58320,58320
GCF_015074885.1_ASM1507488v1,bin_component_3,NZ_CP063293.1,3610,3737
GCF_015074885.1_ASM1507488v1,bin_component_0,NZ_CP063290.1,112086,112906
GCF_015074885.1_ASM1507488v1,bin_component_2,NZ_CP063292.1,5633,5760
GCF_021397675.1_ASM2139767v1,bin_component_1,NZ_CP090136.1,4593,4720
GCF_021397675.1_ASM2139767v1,bin_component_0,NZ_CP090135.1,50056,79633
GCF_021397675.1_ASM2139767v1,bin_component_0,NZ_CP090134.1,30979,79633
GCF_016454505.1_ASM1645450v1,bin_component_0,NZ_CP051395.1,130279,131776
GCF_001972625.2_ASM197262v2,bin_component_1,no_correct_alignments,0,0
GCF_001972625.2_ASM197262v2,bin_component_0,no_correct_alignments,0,0
GCF_001972625.2_ASM197262v2,bin_component_2,no_correct_alignments,0,0
GCF_001834735.2_ASM183473v2,bin_component_1,NZ_CP075132.1,55524,28627
GCF_001834735.2_ASM183473v2,bin_component_0,NZ_CP075133.1,122591,123941
GCF_016454425.1_ASM1645442v1,bin_component_1,NZ_CP051384.1,21450,35570
GCF_016454425.1_ASM1645442v1,bin_component_3,no_correct_alignments,0,0
GCF_016454425.1_ASM1645442v1,bin_component_4,no_correct_alignments,0,0
GCF_016454425.1_ASM1645442v1,bin_component_0,NZ_CP051385.1,107108,99080
GCF_016454425.1_ASM1645442v1,bin_component_2,NZ_CP051384.1,8872,8872
GCF_016454425.1_ASM1645442v1,bin_component_5,no_correct_alignments,0,0
GCF_019670405.1_ASM1967040v1,bin_component_0,NZ_AP023314.1,96503,98187
GCF_016127835.1_ASM1612783v1,bin_component_1,NZ_CP066047.1,37520,37597
GCF_016127835.1_ASM1612783v1,bin_component_0,NZ_CP066048.1,59372,59863
GCF_016127835.1_ASM1612783v1,bin_component_2,no_correct_alignments,0,0
GCF_019670305.1_ASM1967030v1,bin_component_0,NZ_AP023303.1,1712,1712
GCF_019670245.1_ASM1967024v1,bin_component_1,NZ_AP023297.1,4869,4946
GCF_019670245.1_ASM1967024v1,bin_component_0,NZ_AP023295.1,59526,60022
GCF_019670245.1_ASM1967024v1,bin_component_2,NZ_AP023298.1,4060,4137
GCF_016025435.1_ASM1602543v1,bin_component_1,NZ_CP065572.1,3847,1987
GCF_016025435.1_ASM1602543v1,bin_component_0,NZ_CP065573.1,82706,86637
GCF_019670385.1_ASM1967038v1,bin_component_0,NZ_AP023312.1,223490,226641
GCF_019670385.1_ASM1967038v1,bin_component_0,NZ_AP023311.1,13578,226641
GCF_016454385.1_ASM1645438v1,bin_component_1,NZ_CP051381.1,38999,40629
GCF_016454385.1_ASM1645438v1,bin_component_0,NZ_CP051383.1,86822,95857
GCF_016454385.1_ASM1645438v1,bin_component_2,NZ_CP051382.1,10211,10211
GCF_002266205.2_ASM226620v2,bin_component_1,no_correct_alignments,0,0
GCF_002266205.2_ASM226620v2,bin_component_0,NZ_CP075115.1,16578,16581
GCF_016454345.1_ASM1645434v1,bin_component_1,NZ_CP051375.1,3605,3732
GCF_016454345.1_ASM1645434v1,bin_component_0,NZ_CP051373.1,117257,108340
GCF_014858565.1_ASM1485856v1,bin_component_0,NZ_CP062227.1,3172,3299
GCF_019670425.1_ASM1967042v1,bin_component_0,NZ_AP023315.1,13537,14357
GCF_019670425.1_ASM1967042v1,bin_component_0,NZ_AP023316.1,13537,14357
GCF_001834965.2_ASM183496v2,bin_component_1,no_correct_alignments,0,0
GCF_001834965.2_ASM183496v2,bin_component_0,NZ_CP075126.1,134507,135005
GCF_001834965.2_ASM183496v2,bin_component_2,NZ_CP075125.1,24759,23239
GCF_019428465.1_ASM1942846v1,bin_component_1,no_correct_alignments,0,0
GCF_019428465.1_ASM1942846v1,bin_component_0,NZ_CP080093.1,24533,24533
GCF_003067765.2_ASM306776v2,bin_component_1,NZ_CP077698.1,26030,26157
GCF_003067765.2_ASM306776v2,bin_component_0,NZ_CP077697.1,79804,79804
GCF_014334255.1_ASM1433425v1,bin_component_1,no_correct_alignments,0,0
GCF_014334255.1_ASM1433425v1,bin_component_3,no_correct_alignments,0,0
GCF_014334255.1_ASM1433425v1,bin_component_4,NZ_CP060525.1,2096,2223
GCF_014334255.1_ASM1433425v1,bin_component_0,NZ_CP060524.1,31230,33449
GCF_014334255.1_ASM1433425v1,bin_component_2,no_correct_alignments,0,0
GCF_014334255.1_ASM1433425v1,bin_component_5,no_correct_alignments,0,0
GCF_016025415.1_ASM1602541v1,bin_component_1,NZ_CP065570.1,5570,5697
GCF_016025415.1_ASM1602541v1,bin_component_0,NZ_CP065568.1,239943,361552
GCF_016025415.1_ASM1602541v1,bin_component_0,NZ_CP065569.1,6362,361552
GCF_016025415.1_ASM1602541v1,bin_component_0,NZ_CP065567.1,3083,361552
GCF_016025415.1_ASM1602541v1,bin_component_2,NZ_CP065571.1,4073,4200
GCF_016454465.1_ASM1645446v1,bin_component_1,no_correct_alignments,0,0
GCF_016454465.1_ASM1645446v1,bin_component_0,NZ_CP051390.1,10847,11763
GCF_020736325.1_ASM2073632v1,bin_component_1,NZ_CP085981.1,40366,40478
GCF_020736325.1_ASM2073632v1,bin_component_3,NZ_CP085981.1,15601,15601
GCF_020736325.1_ASM2073632v1,bin_component_0,NZ_CP085980.1,48443,48572
GCF_020736325.1_ASM2073632v1,bin_component_2,NZ_CP085981.1,35227,35575
GCF_014334235.1_ASM1433423v1,bin_component_1,NZ_CP060520.1,4052,4200
GCF_014334235.1_ASM1433423v1,bin_component_0,NZ_CP060519.1,61307,65809
GCF_014334235.1_ASM1433423v1,bin_component_2,NZ_CP060521.1,3830,3957
GCF_019670365.1_ASM1967036v1,bin_component_0,no_correct_alignments,0,0
