GCF_015159575.1_ASM1515957v1,bin_component_0,NZ_CP063331.1,NODE_1_length_2224_cov_802.987124_component_0,2224,1.0
GCF_014250355.1_ASM1425035v1,bin_component_1,NZ_CP060169.1,NODE_2_length_7988_cov_32.508280_component_1,7988,1.0
GCF_014250355.1_ASM1425035v1,bin_component_1,NZ_CP060169.1,NODE_3_length_6945_cov_37.717094_component_1,6945,1.0
GCF_014250355.1_ASM1425035v1,bin_component_1,NZ_CP060169.1,NODE_4_length_2924_cov_69.673692_component_1,2924,1.0
GCF_014250355.1_ASM1425035v1,bin_component_1,NZ_CP060169.1,NODE_5_length_2779_cov_34.091414_component_1,2779,1.0
GCF_014250355.1_ASM1425035v1,bin_component_1,NZ_CP060169.1,NODE_8_length_1746_cov_81.299581_component_1,1746,1.0
GCF_014250355.1_ASM1425035v1,bin_component_1,NZ_CP060169.1,NODE_8_length_1746_cov_81.299581_component_1,1746,1.0
GCF_014250355.1_ASM1425035v1,bin_component_1,NZ_CP060169.1,NODE_9_length_1746_cov_71.236070_component_1,1746,1.0
GCF_014250355.1_ASM1425035v1,bin_component_1,NZ_CP060169.1,NODE_9_length_1746_cov_71.236070_component_1,1746,1.0
GCF_014250355.1_ASM1425035v1,bin_component_3,NZ_CP060171.1,NODE_7_length_2052_cov_44.600000_component_3,2052,1.0
GCF_014250355.1_ASM1425035v1,bin_component_0,NZ_CP060169.1,NODE_1_length_98552_cov_67.382666_component_0,98552,1.0
GCF_020736305.1_ASM2073630v1,bin_component_0,NZ_CP085983.1,NODE_1_length_10700_cov_83.326019_component_0,10700,0.1,1,1057
GCF_020736305.1_ASM2073630v1,bin_component_0,NZ_CP085984.1,NODE_1_length_10700_cov_83.326019_component_0,10700,0.3,1058,4280
GCF_020736305.1_ASM2073630v1,bin_component_0,NZ_CP085984.1,NODE_1_length_10700_cov_83.326019_component_0,10700,0.59,4281,10573
GCF_018340585.1_ASM1834058v1,bin_component_1,NZ_CP073717.1,NODE_2_length_3981_cov_69.754867_component_1,3981,0.98
GCF_018340585.1_ASM1834058v1,bin_component_0,NZ_CP073716.1,NODE_1_length_4789_cov_67.245543_component_0,4789,1.0
GCF_019670285.1_ASM1967028v1,bin_component_0,NZ_AP023301.1,NODE_1_length_59231_cov_101.186925_component_0,59231,1.0
GCF_019670285.1_ASM1967028v1,bin_component_0,NZ_AP023301.1,NODE_2_length_15659_cov_99.940961_component_0,15659,1.0
GCF_019670285.1_ASM1967028v1,bin_component_0,NZ_AP023301.1,NODE_3_length_15411_cov_104.573868_component_0,15411,1.0
GCF_019670285.1_ASM1967028v1,bin_component_0,NZ_AP023302.1,NODE_4_length_8924_cov_421.435944_component_0,8924,0.33,1,2927
GCF_019670285.1_ASM1967028v1,bin_component_0,NZ_AP023302.1,NODE_4_length_8924_cov_421.435944_component_0,8924,0.5,2928,7384
GCF_019670285.1_ASM1967028v1,bin_component_0,NZ_AP023301.1,NODE_4_length_8924_cov_421.435944_component_0,8924,0.14,7635,8924
GCF_019670285.1_ASM1967028v1,bin_component_0,NZ_AP023301.1,NODE_5_length_5817_cov_111.893673_component_0,5817,1.0
GCF_019670285.1_ASM1967028v1,bin_component_0,NZ_AP023301.1,NODE_6_length_5418_cov_113.116046_component_0,5418,1.0
GCF_019670285.1_ASM1967028v1,bin_component_0,NZ_AP023301.1,NODE_7_length_5118_cov_116.482669_component_0,5118,1.0
GCF_019670285.1_ASM1967028v1,bin_component_0,NZ_AP023301.1,NODE_8_length_3471_cov_96.959928_component_0,3471,1.0
GCF_019670285.1_ASM1967028v1,bin_component_0,NZ_AP023301.1,NODE_9_length_3166_cov_118.264890_component_0,3166,1.0
GCF_019670285.1_ASM1967028v1,bin_component_0,NZ_AP023301.1,NODE_10_length_2232_cov_109.835154_component_0,2232,1.0
GCF_019670285.1_ASM1967028v1,bin_component_0,NZ_AP023301.1,NODE_11_length_2093_cov_107.106307_component_0,2093,1.0
GCF_019670285.1_ASM1967028v1,bin_component_0,NZ_AP023301.1,NODE_12_length_1854_cov_108.115229_component_0,1854,1.0
GCF_019670285.1_ASM1967028v1,bin_component_0,NZ_AP023301.1,NODE_13_length_1530_cov_161.588738_component_0,1530,1.0
GCF_019670285.1_ASM1967028v1,bin_component_0,NZ_AP023300.1,NODE_13_length_1530_cov_161.588738_component_0,1530,1.0
GCF_019670285.1_ASM1967028v1,bin_component_0,NZ_AP023301.1,NODE_14_length_1445_cov_108.263278_component_0,1445,1.0
GCF_019670285.1_ASM1967028v1,bin_component_0,NZ_AP023301.1,NODE_15_length_1067_cov_194.219149_component_0,1067,1.0
GCF_019670285.1_ASM1967028v1,bin_component_0,NZ_AP023301.1,NODE_15_length_1067_cov_194.219149_component_0,1067,1.0
GCF_003064405.2_ASM306440v2,bin_component_1,NZ_CP077693.1,NODE_3_length_21796_cov_41.888827_component_1,21796,1.0
GCF_003064405.2_ASM306440v2,bin_component_1,NZ_CP077693.1,NODE_8_length_3017_cov_29.467128_component_1,3017,1.0
GCF_003064405.2_ASM306440v2,bin_component_3,NZ_CP077693.1,NODE_7_length_7010_cov_31.544821_component_3,7010,0.9
GCF_003064405.2_ASM306440v2,bin_component_3,NZ_CP077693.1,NODE_9_length_2479_cov_25.489796_component_3,2479,1.0
GCF_003064405.2_ASM306440v2,bin_component_3,NZ_CP077693.1,NODE_10_length_2145_cov_35.006442_component_3,2145,1.0
GCF_003064405.2_ASM306440v2,bin_component_3,NZ_CP077693.1,NODE_10_length_2145_cov_35.006442_component_3,2145,1.0
GCF_003064405.2_ASM306440v2,bin_component_4,NZ_CP077693.1,NODE_6_length_8996_cov_56.227083_component_4,8996,1.0
GCF_003064405.2_ASM306440v2,bin_component_0,NZ_CP077694.1,NODE_1_length_102711_cov_12.099031_component_0,102711,1.0
GCF_003064405.2_ASM306440v2,bin_component_0,NZ_CP077695.1,NODE_2_length_26158_cov_127.213668_component_0,26158,1.0
GCF_003064405.2_ASM306440v2,bin_component_2,NZ_CP077693.1,NODE_4_length_13780_cov_24.817476_component_2,13780,1.0
GCF_003064405.2_ASM306440v2,bin_component_2,NZ_CP077693.1,NODE_5_length_11014_cov_25.079820_component_2,11014,1.0
GCF_003067925.2_ASM306792v2,bin_component_1,NZ_CP077699.1,NODE_4_length_11911_cov_54.935336_component_1,11911,1.0
GCF_003067925.2_ASM306792v2,bin_component_1,NZ_CP077699.1,NODE_4_length_11911_cov_54.935336_component_1,11911,1.0
GCF_003067925.2_ASM306792v2,bin_component_1,NZ_CP077699.1,NODE_6_length_6005_cov_85.544743_component_1,6005,1.0
GCF_003067925.2_ASM306792v2,bin_component_1,NZ_CP077699.1,NODE_7_length_2318_cov_45.710178_component_1,2318,1.0
GCF_003067925.2_ASM306792v2,bin_component_1,NZ_CP077699.1,NODE_8_length_1620_cov_81.685198_component_1,1620,0.97
GCF_003067925.2_ASM306792v2,bin_component_1,NZ_CP077699.1,NODE_8_length_1620_cov_81.685198_component_1,1620,0.97
GCF_003067925.2_ASM306792v2,bin_component_1,NZ_CP077699.1,NODE_9_length_1461_cov_77.764618_component_1,1461,1.0
GCF_003067925.2_ASM306792v2,bin_component_1,NZ_CP077699.1,NODE_9_length_1461_cov_77.764618_component_1,1461,1.0
GCF_003067925.2_ASM306792v2,bin_component_1,NZ_CP077699.1,NODE_9_length_1461_cov_77.764618_component_1,1461,1.0
GCF_003067925.2_ASM306792v2,bin_component_1,NZ_CP077699.1,NODE_11_length_1051_cov_53.405844_component_1,1051,1.0
GCF_003067925.2_ASM306792v2,bin_component_1,NZ_CP077699.1,NODE_11_length_1051_cov_53.405844_component_1,1051,1.0
GCF_003067925.2_ASM306792v2,bin_component_1,NZ_CP077699.1,NODE_12_length_1048_cov_26.758958_component_1,1048,1.0
GCF_003067925.2_ASM306792v2,bin_component_0,NZ_CP077700.1,NODE_1_length_83243_cov_11.121288_component_0,83243,1.0
GCF_003067925.2_ASM306792v2,bin_component_0,NZ_CP077700.1,NODE_3_length_22542_cov_11.296096_component_0,22542,1.0
GCF_003067925.2_ASM306792v2,bin_component_0,NZ_CP077700.1,NODE_5_length_6397_cov_11.604306_component_0,6397,1.0
GCF_003067925.2_ASM306792v2,bin_component_0,NZ_CP077700.1,NODE_10_length_1207_cov_13.237037_component_0,1207,1.0
GCF_003067925.2_ASM306792v2,bin_component_2,NZ_CP077701.1,NODE_2_length_26149_cov_53.360887_component_2,26149,1.0
GCF_020736345.1_ASM2073634v1,bin_component_1,NZ_CP085987.1,NODE_2_length_15542_cov_35.629776_component_1,15542,1.0
GCF_020736345.1_ASM2073634v1,bin_component_0,NZ_CP085987.1,NODE_1_length_24082_cov_87.924817_component_0,24082,1.0
GCF_020736345.1_ASM2073634v1,bin_component_0,NZ_CP085987.1,NODE_5_length_3859_cov_73.762058_component_0,3859,0.9
GCF_020736345.1_ASM2073634v1,bin_component_0,NZ_CP085987.1,NODE_6_length_3117_cov_37.777258_component_0,3117,1.0
GCF_020736345.1_ASM2073634v1,bin_component_2,NZ_CP085987.1,NODE_3_length_5877_cov_37.896348_component_2,5877,1.0
GCF_020736345.1_ASM2073634v1,bin_component_2,NZ_CP085987.1,NODE_4_length_4188_cov_51.654026_component_2,4188,1.0
GCF_020736345.1_ASM2073634v1,bin_component_2,NZ_CP085987.1,NODE_7_length_2116_cov_32.243841_component_2,2116,1.0
GCF_022655645.1_ASM2265564v1,bin_component_1,NZ_CP093386.1,NODE_4_length_3025_cov_121.128223_component_1,3025,1.0
GCF_022655645.1_ASM2265564v1,bin_component_1,NZ_CP093386.1,NODE_5_length_2924_cov_101.696171_component_1,2924,1.0
GCF_022655645.1_ASM2265564v1,bin_component_1,NZ_CP093386.1,NODE_6_length_2642_cov_93.027290_component_1,2642,1.0
GCF_022655645.1_ASM2265564v1,bin_component_1,NZ_CP093386.1,NODE_8_length_1728_cov_98.499091_component_1,1728,1.0
GCF_022655645.1_ASM2265564v1,bin_component_1,NZ_CP093386.1,NODE_8_length_1728_cov_98.499091_component_1,1728,1.0
GCF_022655645.1_ASM2265564v1,bin_component_1,NZ_CP093386.1,NODE_9_length_1032_cov_50.628272_component_1,1032,1.0
GCF_022655645.1_ASM2265564v1,bin_component_3,NZ_CP093389.1,NODE_3_length_3253_cov_910.055416_component_3,3253,0.98
GCF_022655645.1_ASM2265564v1,bin_component_0,NZ_CP093387.1,NODE_1_length_91755_cov_96.191230_component_0,91755,1.0
GCF_022655645.1_ASM2265564v1,bin_component_0,NZ_CP093387.1,NODE_7_length_1740_cov_105.178316_component_0,1740,1.0
GCF_022655645.1_ASM2265564v1,bin_component_2,NZ_CP093388.1,NODE_2_length_3987_cov_501.501535_component_2,3987,1.0
GCF_001831985.2_ASM183198v2,bin_component_1,NZ_CP075136.1,NODE_5_length_26072_cov_301.043855_component_1,26072,1.0
GCF_001831985.2_ASM183198v2,bin_component_0,NZ_CP075135.1,NODE_2_length_90165_cov_52.919801_component_0,90165,1.0
GCF_001831985.2_ASM183198v2,bin_component_0,NZ_CP075135.1,NODE_3_length_80503_cov_53.153383_component_0,80503,1.0
GCF_001831985.2_ASM183198v2,bin_component_0,NZ_CP075135.1,NODE_4_length_32521_cov_54.255456_component_0,32521,1.0
GCF_001831985.2_ASM183198v2,bin_component_0,NZ_CP075135.1,NODE_8_length_3052_cov_284.024874_component_0,3052,1.0
GCF_001831985.2_ASM183198v2,bin_component_0,NZ_CP075135.1,NODE_8_length_3052_cov_284.024874_component_0,3052,1.0
GCF_001831985.2_ASM183198v2,bin_component_0,NZ_CP075135.1,NODE_8_length_3052_cov_284.024874_component_0,3052,1.0
GCF_001831985.2_ASM183198v2,bin_component_0,NZ_CP075135.1,NODE_8_length_3052_cov_284.024874_component_0,3052,1.0
GCF_001831985.2_ASM183198v2,bin_component_0,NZ_CP075135.1,NODE_8_length_3052_cov_284.024874_component_0,3052,1.0
GCF_001831985.2_ASM183198v2,bin_component_0,NZ_CP075135.1,NODE_8_length_3052_cov_284.024874_component_0,3052,1.0
GCF_001831985.2_ASM183198v2,bin_component_0,NZ_CP075135.1,NODE_8_length_3052_cov_284.024874_component_0,3052,1.0
GCF_001831985.2_ASM183198v2,bin_component_0,NZ_CP075135.1,NODE_9_length_1624_cov_330.111829_component_0,1624,1.0
GCF_001831985.2_ASM183198v2,bin_component_0,NZ_CP075135.1,NODE_9_length_1624_cov_330.111829_component_0,1624,1.0
GCF_001831985.2_ASM183198v2,bin_component_0,NZ_CP075135.1,NODE_9_length_1624_cov_330.111829_component_0,1624,1.0
GCF_001831985.2_ASM183198v2,bin_component_0,NZ_CP075135.1,NODE_9_length_1624_cov_330.111829_component_0,1624,1.0
GCF_001831985.2_ASM183198v2,bin_component_0,NZ_CP075135.1,NODE_9_length_1624_cov_330.111829_component_0,1624,1.0
GCF_001831985.2_ASM183198v2,bin_component_0,NZ_CP075135.1,NODE_9_length_1624_cov_330.111829_component_0,1624,1.0
GCF_001831985.2_ASM183198v2,bin_component_0,NZ_CP075135.1,NODE_9_length_1624_cov_330.111829_component_0,1624,1.0
GCF_001831985.2_ASM183198v2,bin_component_0,NZ_CP075135.1,NODE_10_length_1428_cov_142.876388_component_0,1428,1.0
GCF_001831985.2_ASM183198v2,bin_component_0,NZ_CP075135.1,NODE_10_length_1428_cov_142.876388_component_0,1428,1.0
GCF_016451985.1_ASM1645198v1,bin_component_1,NZ_CP051307.1,NODE_2_length_19241_cov_63.576959_component_1,19241,1.0
GCF_016451985.1_ASM1645198v1,bin_component_1,NZ_CP051307.1,NODE_2_length_19241_cov_63.576959_component_1,19241,1.0
GCF_016451985.1_ASM1645198v1,bin_component_1,NZ_CP051307.1,NODE_3_length_5625_cov_62.924700_component_1,5625,1.0
GCF_016451985.1_ASM1645198v1,bin_component_1,NZ_CP051307.1,NODE_3_length_5625_cov_62.924700_component_1,5625,1.0
GCF_016451985.1_ASM1645198v1,bin_component_1,NZ_CP051307.1,NODE_4_length_2095_cov_77.474797_component_1,2095,1.0
GCF_016451985.1_ASM1645198v1,bin_component_1,NZ_CP051307.1,NODE_4_length_2095_cov_77.474797_component_1,2095,1.0
GCF_016451985.1_ASM1645198v1,bin_component_0,NZ_CP051309.1,NODE_1_length_48657_cov_28.680466_component_0,48657,1.0
GCF_015241115.1_ASM1524111v1,bin_component_0,NZ_CP063710.1,NODE_1_length_3399_cov_14674.401284_component_0,3399,0.92
GCF_016454545.1_ASM1645454v1,bin_component_1,NZ_CP051400.1,NODE_3_length_30788_cov_19.510747_component_1,30788,1.0
GCF_016454545.1_ASM1645454v1,bin_component_1,NZ_CP051400.1,NODE_4_length_5266_cov_14.415840_component_1,5266,1.0
GCF_016454545.1_ASM1645454v1,bin_component_1,NZ_CP051400.1,NODE_5_length_4982_cov_22.133059_component_1,4982,1.0
GCF_016454545.1_ASM1645454v1,bin_component_1,NZ_CP051400.1,NODE_8_length_2149_cov_12.808111_component_1,2149,1.0
GCF_016454545.1_ASM1645454v1,bin_component_3,NZ_CP051399.1,NODE_6_length_4325_cov_2396.975941_component_3,4325,1.0
GCF_016454545.1_ASM1645454v1,bin_component_4,NZ_CP051401.1,NODE_7_length_3499_cov_2663.185350_component_4,3499,1.0
GCF_016454545.1_ASM1645454v1,bin_component_2,NZ_CP051398.1,NODE_2_length_42051_cov_77.836705_component_2,42051,0.77
GCF_016454185.1_ASM1645418v1,bin_component_0,NZ_CP051349.1,NODE_1_length_41068_cov_94.678391_component_0,41068,1.0
GCF_016452065.1_ASM1645206v1,bin_component_0,NZ_CP051318.1,NODE_1_length_64859_cov_31.618210_component_0,64859,0.83
GCF_016452065.1_ASM1645206v1,bin_component_0,NZ_CP051319.1,NODE_2_length_53011_cov_32.002042_component_0,53011,1.0
GCF_016452065.1_ASM1645206v1,bin_component_0,NZ_CP051319.1,NODE_3_length_39127_cov_34.722897_component_0,39127,1.0
GCF_016452065.1_ASM1645206v1,bin_component_0,NZ_CP051319.1,NODE_4_length_39078_cov_31.228518_component_0,39078,1.0
GCF_016452065.1_ASM1645206v1,bin_component_0,NZ_CP051318.1,NODE_5_length_20408_cov_35.046152_component_0,20408,0.99
GCF_016452065.1_ASM1645206v1,bin_component_0,NZ_CP051319.1,NODE_6_length_10487_cov_67.305019_component_0,10487,1.0
GCF_016452065.1_ASM1645206v1,bin_component_0,NZ_CP051319.1,NODE_6_length_10487_cov_67.305019_component_0,10487,1.0
GCF_016452065.1_ASM1645206v1,bin_component_0,NZ_CP051318.1,NODE_7_length_7684_cov_25.295885_component_0,7684,1.0
GCF_016452065.1_ASM1645206v1,bin_component_0,NZ_CP051319.1,NODE_8_length_5778_cov_30.418156_component_0,5778,1.0
GCF_016452065.1_ASM1645206v1,bin_component_0,NZ_CP051318.1,NODE_10_length_3295_cov_52.374053_component_0,3295,1.0
GCF_016452065.1_ASM1645206v1,bin_component_0,NZ_CP051319.1,NODE_10_length_3295_cov_52.374053_component_0,3295,1.0
GCF_016452065.1_ASM1645206v1,bin_component_0,NZ_CP051318.1,NODE_11_length_3018_cov_33.900726_component_0,3018,1.0
GCF_016452065.1_ASM1645206v1,bin_component_0,NZ_CP051318.1,NODE_12_length_2240_cov_38.363938_component_0,2240,1.0
GCF_016452065.1_ASM1645206v1,bin_component_0,NZ_CP051319.1,NODE_12_length_2240_cov_38.363938_component_0,2240,1.0
GCF_016452065.1_ASM1645206v1,bin_component_0,NZ_CP051319.1,NODE_13_length_2046_cov_21.921834_component_0,2046,1.0
GCF_016452065.1_ASM1645206v1,bin_component_0,NZ_CP051318.1,NODE_14_length_1967_cov_32.564130_component_0,1967,1.0
GCF_016952595.1_ASM1695259v1,bin_component_0,NZ_CP051364.1,NODE_1_length_44166_cov_35.608801_component_0,44166,1.0
GCF_016454525.1_ASM1645452v1,bin_component_0,NZ_CP051396.1,NODE_1_length_32376_cov_96.575336_component_0,32376,1.0
GCF_016454525.1_ASM1645452v1,bin_component_0,NZ_CP051396.1,NODE_3_length_5840_cov_42.721862_component_0,5840,1.0
GCF_015074905.1_ASM1507490v1,bin_component_1,NZ_CP063297.1,NODE_2_length_31259_cov_41.658936_component_1,31259,1.0
GCF_015074905.1_ASM1507490v1,bin_component_1,NZ_CP063297.1,NODE_6_length_3257_cov_38.749521_component_1,3257,1.0
GCF_015074905.1_ASM1507490v1,bin_component_3,NZ_CP063299.1,NODE_5_length_3384_cov_832.893153_component_3,3384,1.0
GCF_015074905.1_ASM1507490v1,bin_component_4,NZ_CP063300.1,NODE_9_length_1845_cov_6808.102445_component_4,1845,1.0
GCF_015074905.1_ASM1507490v1,bin_component_0,NZ_CP063296.1,NODE_1_length_70943_cov_112.064025_component_0,70943,1.0
GCF_015074905.1_ASM1507490v1,bin_component_0,NZ_CP063296.1,NODE_3_length_26225_cov_116.371331_component_0,26225,1.0
GCF_015074905.1_ASM1507490v1,bin_component_0,NZ_CP063296.1,NODE_7_length_2837_cov_112.714760_component_0,2837,1.0
GCF_015074905.1_ASM1507490v1,bin_component_0,NZ_CP063295.1,NODE_8_length_2479_cov_113.027636_component_0,2479,0.94
GCF_015074905.1_ASM1507490v1,bin_component_2,NZ_CP063298.1,NODE_4_length_4361_cov_172.293576_component_2,4361,1.0
GCF_022936385.1_ASM2293638v1,bin_component_0,NZ_CP092005.1,NODE_1_length_4670_cov_1249.237318_component_0,4670,1.0
GCF_013415925.1_ASM1341592v1,bin_component_0,NZ_CP058810.1,NODE_1_length_96633_cov_39.459619_component_0,96633,1.0
GCF_013415925.1_ASM1341592v1,bin_component_0,NZ_CP058809.1,NODE_2_length_93861_cov_44.211289_component_0,93861,1.0
GCF_013415925.1_ASM1341592v1,bin_component_0,NZ_CP058811.1,NODE_3_length_63703_cov_48.866994_component_0,63703,1.0
GCF_013415925.1_ASM1341592v1,bin_component_0,NZ_CP058810.1,NODE_4_length_50529_cov_39.227670_component_0,50529,1.0
GCF_013415925.1_ASM1341592v1,bin_component_0,NZ_CP058810.1,NODE_5_length_30069_cov_40.608009_component_0,30069,1.0
GCF_013415925.1_ASM1341592v1,bin_component_0,NZ_CP058811.1,NODE_6_length_23608_cov_49.785060_component_0,23608,1.0
GCF_013415925.1_ASM1341592v1,bin_component_0,NZ_CP058810.1,NODE_7_length_4527_cov_40.192273_component_0,4527,1.0
GCF_013415925.1_ASM1341592v1,bin_component_0,NZ_CP058810.1,NODE_8_length_3733_cov_37.376872_component_0,3733,1.0
GCF_013415925.1_ASM1341592v1,bin_component_0,NZ_CP058810.1,NODE_9_length_2958_cov_198.685270_component_0,2958,1.0
GCF_013415925.1_ASM1341592v1,bin_component_0,NZ_CP058810.1,NODE_10_length_2558_cov_199.155080_component_0,2558,1.0
GCF_013415925.1_ASM1341592v1,bin_component_0,NZ_CP058810.1,NODE_11_length_1821_cov_215.779811_component_0,1821,1.0
GCF_013415925.1_ASM1341592v1,bin_component_0,NZ_CP058810.1,NODE_12_length_1444_cov_254.229309_component_0,1444,1.0
GCF_013415925.1_ASM1341592v1,bin_component_0,NZ_CP058811.1,NODE_12_length_1444_cov_254.229309_component_0,1444,1.0
GCF_013415925.1_ASM1341592v1,bin_component_0,NZ_CP058810.1,NODE_13_length_1293_cov_6.425386_component_0,1293,1.0
GCF_013415925.1_ASM1341592v1,bin_component_0,NZ_CP058810.1,NODE_14_length_1179_cov_250.410646_component_0,1179,1.0
GCF_013415925.1_ASM1341592v1,bin_component_0,NZ_CP058810.1,NODE_14_length_1179_cov_250.410646_component_0,1179,1.0
GCF_013415925.1_ASM1341592v1,bin_component_0,NZ_CP058810.1,NODE_15_length_1007_cov_180.750000_component_0,1007,1.0
GCF_013161805.1_ASM1316180v1,bin_component_0,NZ_CP053576.1,NODE_1_length_83711_cov_91.589275_component_0,83711,0.04,1,3245
GCF_013161805.1_ASM1316180v1,bin_component_0,NZ_CP053578.1,NODE_1_length_83711_cov_91.589275_component_0,83711,0.25,5783,27026
GCF_013161805.1_ASM1316180v1,bin_component_0,NZ_CP053576.1,NODE_1_length_83711_cov_91.589275_component_0,83711,0.14,30064,41991
GCF_013161805.1_ASM1316180v1,bin_component_0,NZ_CP053576.1,NODE_1_length_83711_cov_91.589275_component_0,83711,0.01,43473,43896
GCF_013161805.1_ASM1316180v1,bin_component_0,NZ_CP053576.1,NODE_1_length_83711_cov_91.589275_component_0,83711,0.48,43897,83711
GCF_013161805.1_ASM1316180v1,bin_component_0,NZ_CP053576.1,NODE_2_length_6995_cov_90.773588_component_0,6995,1.0
GCF_006461415.2_ASM646141v2,bin_component_0,NZ_CP050832.1,NODE_1_length_58456_cov_198.153034_component_0,58456,1.0
GCF_006461415.2_ASM646141v2,bin_component_0,NZ_CP050832.1,NODE_2_length_52849_cov_198.410502_component_0,52849,1.0
GCF_006461415.2_ASM646141v2,bin_component_0,NZ_CP050832.1,NODE_3_length_30138_cov_208.189481_component_0,30138,1.0
GCF_006461415.2_ASM646141v2,bin_component_0,NZ_CP050832.1,NODE_4_length_4631_cov_199.729249_component_0,4631,1.0
GCF_006461415.2_ASM646141v2,bin_component_0,NZ_CP050832.1,NODE_5_length_2132_cov_195.483477_component_0,2132,1.0
GCF_016454205.1_ASM1645420v1,bin_component_0,NZ_CP051351.1,NODE_1_length_84311_cov_15.793975_component_0,84311,1.0
GCF_016454205.1_ASM1645420v1,bin_component_0,NZ_CP051351.1,NODE_2_length_23508_cov_18.460844_component_0,23508,1.0
GCF_016454205.1_ASM1645420v1,bin_component_0,NZ_CP051352.1,NODE_3_length_10196_cov_948.330817_component_0,10196,1.0
GCF_014334195.1_ASM1433419v1,bin_component_0,NZ_CP060514.1,NODE_1_length_43970_cov_256.521018_component_0,43970,0.95
GCF_016025375.1_ASM1602537v1,bin_component_0,NZ_CP065565.1,NODE_1_length_2109_cov_1180.886478_component_0,2109,1.0
GCF_006461325.2_ASM646132v2,bin_component_0,NZ_CP069166.1,NODE_3_length_16449_cov_337.067371_component_0,16449,0.98
GCF_006461325.2_ASM646132v2,bin_component_0,NZ_CP069166.1,NODE_5_length_6952_cov_377.020800_component_0,6952,1.0
GCF_006461325.2_ASM646132v2,bin_component_0,NZ_CP069166.1,NODE_6_length_5101_cov_27.848129_component_0,5101,0.26
GCF_006461325.2_ASM646132v2,bin_component_0,NZ_CP069166.1,NODE_7_length_4889_cov_282.415004_component_0,4889,1.0
GCF_006461325.2_ASM646132v2,bin_component_0,NZ_CP069166.1,NODE_8_length_3741_cov_353.802675_component_0,3741,1.0
GCF_006461325.2_ASM646132v2,bin_component_0,NZ_CP069166.1,NODE_8_length_3741_cov_353.802675_component_0,3741,1.0
GCF_006461325.2_ASM646132v2,bin_component_0,NZ_CP069166.1,NODE_9_length_3503_cov_409.828371_component_0,3503,1.0
GCF_006461325.2_ASM646132v2,bin_component_0,NZ_CP069166.1,NODE_9_length_3503_cov_409.828371_component_0,3503,1.0
GCF_006461325.2_ASM646132v2,bin_component_0,NZ_CP069166.1,NODE_10_length_1570_cov_322.466175_component_0,1570,1.0
GCF_006461325.2_ASM646132v2,bin_component_0,NZ_CP069166.1,NODE_10_length_1570_cov_322.466175_component_0,1570,1.0
GCF_006461325.2_ASM646132v2,bin_component_0,NZ_CP069166.1,NODE_11_length_1455_cov_293.522496_component_0,1455,1.0
GCF_006461325.2_ASM646132v2,bin_component_0,NZ_CP069166.1,NODE_11_length_1455_cov_293.522496_component_0,1455,1.0
GCF_006461325.2_ASM646132v2,bin_component_0,NZ_CP069166.1,NODE_12_length_1278_cov_311.297252_component_0,1278,0.92
GCF_006461325.2_ASM646132v2,bin_component_0,NZ_CP069166.1,NODE_13_length_1138_cov_321.341188_component_0,1138,1.0
GCF_006461325.2_ASM646132v2,bin_component_0,NZ_CP069166.1,NODE_14_length_1038_cov_182.131113_component_0,1038,1.0
GCF_015240635.1_ASM1524063v1,bin_component_0,NZ_CP063701.1,NODE_1_length_57255_cov_29.064898_component_0,57255,1.0
GCF_015240635.1_ASM1524063v1,bin_component_0,NZ_CP063701.1,NODE_2_length_1783_cov_28.770157_component_0,1783,1.0
GCF_014334175.1_ASM1433417v1,bin_component_1,NZ_CP060508.1,NODE_2_length_41226_cov_62.097910_component_1,41226,1.0
GCF_014334175.1_ASM1433417v1,bin_component_3,NZ_CP060510.1,NODE_4_length_3499_cov_679.284994_component_3,3499,0.96
GCF_014334175.1_ASM1433417v1,bin_component_4,NZ_CP060511.1,NODE_5_length_3105_cov_658.245803_component_4,3105,0.96
GCF_014334175.1_ASM1433417v1,bin_component_0,NZ_CP060509.1,NODE_1_length_96618_cov_70.151563_component_0,96618,1.0
GCF_014334175.1_ASM1433417v1,bin_component_0,NZ_CP060509.1,NODE_6_length_1566_cov_113.690757_component_0,1566,1.0
GCF_014334175.1_ASM1433417v1,bin_component_0,NZ_CP060509.1,NODE_6_length_1566_cov_113.690757_component_0,1566,1.0
GCF_014334175.1_ASM1433417v1,bin_component_2,NZ_CP060508.1,NODE_3_length_12560_cov_117.407866_component_2,12560,1.0
GCF_014334175.1_ASM1433417v1,bin_component_2,NZ_CP060508.1,NODE_3_length_12560_cov_117.407866_component_2,12560,1.0
GCF_014334175.1_ASM1433417v1,bin_component_2,NZ_CP060508.1,NODE_7_length_1323_cov_66.162207_component_2,1323,1.0
GCF_013348865.1_ASM1334886v1,bin_component_1,NZ_CP054715.1,NODE_7_length_16192_cov_152.800373_component_1,16192,1.0
GCF_013348865.1_ASM1334886v1,bin_component_1,NZ_CP054715.1,NODE_7_length_16192_cov_152.800373_component_1,16192,1.0
GCF_013348865.1_ASM1334886v1,bin_component_1,NZ_CP054715.1,NODE_7_length_16192_cov_152.800373_component_1,16192,1.0
GCF_013348865.1_ASM1334886v1,bin_component_1,NZ_CP054715.1,NODE_15_length_4587_cov_187.880045_component_1,4587,1.0
GCF_013348865.1_ASM1334886v1,bin_component_1,NZ_CP054715.1,NODE_15_length_4587_cov_187.880045_component_1,4587,1.0
GCF_013348865.1_ASM1334886v1,bin_component_1,NZ_CP054715.1,NODE_19_length_2855_cov_108.720674_component_1,2855,1.0
GCF_013348865.1_ASM1334886v1,bin_component_1,NZ_CP054715.1,NODE_19_length_2855_cov_108.720674_component_1,2855,1.0
GCF_013348865.1_ASM1334886v1,bin_component_1,NZ_CP054715.1,NODE_21_length_1979_cov_113.196004_component_1,1979,1.0
GCF_013348865.1_ASM1334886v1,bin_component_1,NZ_CP054715.1,NODE_21_length_1979_cov_113.196004_component_1,1979,1.0
GCF_013348865.1_ASM1334886v1,bin_component_0,NZ_CP054718.1,NODE_1_length_82316_cov_220.603852_component_0,82316,1.0
GCF_013348865.1_ASM1334886v1,bin_component_0,NZ_CP054717.1,NODE_2_length_80314_cov_186.765723_component_0,80314,1.0
GCF_013348865.1_ASM1334886v1,bin_component_0,NZ_CP054717.1,NODE_3_length_47489_cov_165.422934_component_0,47489,1.0
GCF_013348865.1_ASM1334886v1,bin_component_0,NZ_CP054716.1,NODE_4_length_46061_cov_138.794009_component_0,46061,1.0
GCF_013348865.1_ASM1334886v1,bin_component_0,NZ_CP054716.1,NODE_5_length_34412_cov_150.085431_component_0,34412,0.01
GCF_013348865.1_ASM1334886v1,bin_component_0,NZ_CP054717.1,NODE_6_length_19581_cov_177.174257_component_0,19581,1.0
GCF_013348865.1_ASM1334886v1,bin_component_0,NZ_CP054715.1,NODE_8_length_13875_cov_84.696101_component_0,13875,1.0
GCF_013348865.1_ASM1334886v1,bin_component_0,NZ_CP054718.1,NODE_9_length_12977_cov_180.879455_component_0,12977,1.0
GCF_013348865.1_ASM1334886v1,bin_component_0,NZ_CP054718.1,NODE_9_length_12977_cov_180.879455_component_0,12977,0.99
GCF_013348865.1_ASM1334886v1,bin_component_0,NZ_CP054715.1,NODE_10_length_8943_cov_317.494442_component_0,8943,0.6,1,5325
GCF_013348865.1_ASM1334886v1,bin_component_0,NZ_CP054717.1,NODE_10_length_8943_cov_317.494442_component_0,8943,0.4,5326,8943
GCF_013348865.1_ASM1334886v1,bin_component_0,NZ_CP054715.1,NODE_11_length_8576_cov_68.643863_component_0,8576,1.0
GCF_013348865.1_ASM1334886v1,bin_component_0,NZ_CP054715.1,NODE_13_length_4989_cov_134.195804_component_0,4989,1.0
GCF_013348865.1_ASM1334886v1,bin_component_0,NZ_CP054717.1,NODE_14_length_4852_cov_327.427725_component_0,4852,1.0
GCF_013348865.1_ASM1334886v1,bin_component_0,NZ_CP054716.1,NODE_14_length_4852_cov_327.427725_component_0,4852,1.0
GCF_013348865.1_ASM1334886v1,bin_component_0,NZ_CP054718.1,NODE_16_length_3431_cov_248.228814_component_0,3431,1.0
GCF_013348865.1_ASM1334886v1,bin_component_0,NZ_CP054718.1,NODE_16_length_3431_cov_248.228814_component_0,3431,1.0
GCF_013348865.1_ASM1334886v1,bin_component_0,NZ_CP054715.1,NODE_17_length_3288_cov_289.321101_component_0,3288,1.0
GCF_013348865.1_ASM1334886v1,bin_component_0,NZ_CP054715.1,NODE_20_length_2036_cov_69.137245_component_0,2036,1.0
GCF_013348865.1_ASM1334886v1,bin_component_0,NZ_CP054715.1,NODE_22_length_1462_cov_109.654682_component_0,1462,1.0
GCF_013348865.1_ASM1334886v1,bin_component_0,NZ_CP054718.1,NODE_23_length_1296_cov_155.355860_component_0,1296,1.0
GCF_013348865.1_ASM1334886v1,bin_component_0,NZ_CP054715.1,NODE_24_length_1251_cov_226.169929_component_0,1251,1.0
GCF_013348865.1_ASM1334886v1,bin_component_0,NZ_CP054715.1,NODE_24_length_1251_cov_226.169929_component_0,1251,1.0
GCF_013348865.1_ASM1334886v1,bin_component_0,NZ_CP054715.1,NODE_24_length_1251_cov_226.169929_component_0,1251,1.0
GCF_013348865.1_ASM1334886v1,bin_component_0,NZ_CP054717.1,NODE_25_length_1187_cov_289.851887_component_0,1187,1.0
GCF_013348865.1_ASM1334886v1,bin_component_0,NZ_CP054717.1,NODE_26_length_1171_cov_179.009579_component_0,1171,1.0
GCF_015240855.1_ASM1524085v1,bin_component_1,NZ_CP063704.1,NODE_9_length_5015_cov_411.637889_component_1,5015,1.0
GCF_015240855.1_ASM1524085v1,bin_component_0,NZ_CP063703.1,NODE_1_length_21506_cov_42.487534_component_0,21506,1.0
GCF_015240855.1_ASM1524085v1,bin_component_0,NZ_CP063703.1,NODE_2_length_14637_cov_47.560579_component_0,14637,1.0
GCF_015240855.1_ASM1524085v1,bin_component_0,NZ_CP063703.1,NODE_3_length_9522_cov_49.060990_component_0,9522,1.0
GCF_015240855.1_ASM1524085v1,bin_component_0,NZ_CP063703.1,NODE_4_length_9158_cov_42.947182_component_0,9158,1.0
GCF_015240855.1_ASM1524085v1,bin_component_0,NZ_CP063703.1,NODE_5_length_8158_cov_39.941352_component_0,8158,1.0
GCF_015240855.1_ASM1524085v1,bin_component_0,NZ_CP063703.1,NODE_6_length_8156_cov_45.647279_component_0,8156,1.0
GCF_015240855.1_ASM1524085v1,bin_component_0,NZ_CP063703.1,NODE_7_length_6683_cov_47.029134_component_0,6683,1.0
GCF_015240855.1_ASM1524085v1,bin_component_0,NZ_CP063703.1,NODE_8_length_6518_cov_44.366140_component_0,6518,1.0
GCF_015240855.1_ASM1524085v1,bin_component_0,NZ_CP063703.1,NODE_10_length_4843_cov_73.237489_component_0,4843,1.0
GCF_015240855.1_ASM1524085v1,bin_component_0,NZ_CP063703.1,NODE_11_length_4186_cov_44.046070_component_0,4186,1.0
GCF_015240855.1_ASM1524085v1,bin_component_0,NZ_CP063703.1,NODE_12_length_3872_cov_45.750334_component_0,3872,1.0
GCF_015240855.1_ASM1524085v1,bin_component_0,NZ_CP063702.1,NODE_13_length_2998_cov_75.489028_component_0,2998,1.0
GCF_015240855.1_ASM1524085v1,bin_component_0,NZ_CP063703.1,NODE_14_length_1122_cov_76.416080_component_0,1122,1.0
GCF_015240855.1_ASM1524085v1,bin_component_0,NZ_CP063703.1,NODE_15_length_1011_cov_46.724956_component_0,1011,1.0
GCF_022936485.1_ASM2293648v1,bin_component_0,NZ_CP092013.1,NODE_1_length_4670_cov_2025.749837_component_0,4670,0.95
GCF_016454225.1_ASM1645422v1,bin_component_1,NZ_CP051355.1,NODE_2_length_10452_cov_75.464988_component_1,10452,1.0
GCF_016454225.1_ASM1645422v1,bin_component_0,NZ_CP051354.1,NODE_1_length_103258_cov_11.983720_component_0,103258,1.0
GCF_016454225.1_ASM1645422v1,bin_component_0,NZ_CP051354.1,NODE_4_length_1489_cov_12.109398_component_0,1489,0.91
GCF_016454225.1_ASM1645422v1,bin_component_2,NZ_CP051353.1,NODE_3_length_8540_cov_44.721384_component_2,8540,1.0
GCF_016454225.1_ASM1645422v1,bin_component_2,NZ_CP051353.1,NODE_3_length_8540_cov_44.721384_component_2,8540,1.0
GCF_016454225.1_ASM1645422v1,bin_component_2,NZ_CP051353.1,NODE_3_length_8540_cov_44.721384_component_2,8540,1.0
GCF_021397645.1_ASM2139764v1,bin_component_1,NZ_CP090142.1,NODE_3_length_5930_cov_83.962606_component_1,5930,1.0
GCF_021397645.1_ASM2139764v1,bin_component_1,NZ_CP090142.1,NODE_4_length_5880_cov_66.598123_component_1,5880,1.0
GCF_021397645.1_ASM2139764v1,bin_component_1,NZ_CP090142.1,NODE_6_length_4009_cov_86.792890_component_1,4009,1.0
GCF_021397645.1_ASM2139764v1,bin_component_1,NZ_CP090142.1,NODE_6_length_4009_cov_86.792890_component_1,4009,1.0
GCF_021397645.1_ASM2139764v1,bin_component_1,NZ_CP090142.1,NODE_7_length_2897_cov_53.442599_component_1,2897,1.0
GCF_021397645.1_ASM2139764v1,bin_component_1,NZ_CP090142.1,NODE_9_length_1667_cov_90.659740_component_1,1667,1.0
GCF_021397645.1_ASM2139764v1,bin_component_1,NZ_CP090142.1,NODE_9_length_1667_cov_90.659740_component_1,1667,1.0
GCF_021397645.1_ASM2139764v1,bin_component_0,NZ_CP090143.1,NODE_1_length_27833_cov_106.771927_component_0,27833,1.0
GCF_021397645.1_ASM2139764v1,bin_component_0,NZ_CP090143.1,NODE_2_length_19991_cov_120.492298_component_0,19991,1.0
GCF_021397645.1_ASM2139764v1,bin_component_0,NZ_CP090143.1,NODE_8_length_2231_cov_106.830365_component_0,2231,1.0
GCF_021397645.1_ASM2139764v1,bin_component_2,NZ_CP090144.1,NODE_5_length_4720_cov_162.632920_component_2,4720,1.0
GCF_003067445.2_ASM306744v2,bin_component_1,NZ_CP077704.1,NODE_2_length_15128_cov_59.680955_component_1,15128,1.0
GCF_003067445.2_ASM306744v2,bin_component_1,NZ_CP077704.1,NODE_2_length_15128_cov_59.680955_component_1,15128,1.0
GCF_003067445.2_ASM306744v2,bin_component_1,NZ_CP077704.1,NODE_3_length_3354_cov_40.776263_component_1,3354,1.0
GCF_003067445.2_ASM306744v2,bin_component_1,NZ_CP077704.1,NODE_4_length_1854_cov_42.607412_component_1,1854,1.0
GCF_003067445.2_ASM306744v2,bin_component_1,NZ_CP077704.1,NODE_4_length_1854_cov_42.607412_component_1,1854,1.0
GCF_003067445.2_ASM306744v2,bin_component_0,NZ_CP077705.1,NODE_1_length_67855_cov_41.488380_component_0,67855,1.0
GCF_016454585.1_ASM1645458v1,bin_component_1,NZ_CP051402.1,NODE_4_length_9783_cov_41.333471_component_1,9783,1.0
GCF_016454585.1_ASM1645458v1,bin_component_0,NZ_CP051403.1,NODE_1_length_52958_cov_13.127747_component_0,52958,1.0
GCF_016454585.1_ASM1645458v1,bin_component_0,NZ_CP051403.1,NODE_2_length_31776_cov_11.556763_component_0,31776,1.0
GCF_016454585.1_ASM1645458v1,bin_component_0,NZ_CP051403.1,NODE_3_length_12501_cov_9.933086_component_0,12501,1.0
GCF_016127435.1_ASM1612743v1,bin_component_1,NZ_CP066010.1,NODE_2_length_85840_cov_422.721535_component_1,85840,1.0
GCF_016127435.1_ASM1612743v1,bin_component_1,NZ_CP066008.1,NODE_15_length_8765_cov_2894.203154_component_15,8765,1.0
GCF_016127435.1_ASM1612743v1,bin_component_0,NZ_CP066011.1,NODE_1_length_91748_cov_338.939526_component_0,91748,1.0
GCF_016127435.1_ASM1612743v1,bin_component_0,NZ_CP066011.1,NODE_25_length_1740_cov_328.719868_component_0,1740,1.0
GCF_022936365.1_ASM2293636v1,bin_component_1,NZ_CP092002.1,NODE_2_length_4897_cov_188.992531_component_1,4897,1.0
GCF_022936365.1_ASM2293636v1,bin_component_0,NZ_CP092001.1,NODE_1_length_5726_cov_164.084440_component_0,5726,1.0
GCF_022936365.1_ASM2293636v1,bin_component_2,NZ_CP092003.1,NODE_3_length_4095_cov_219.855152_component_2,4095,1.0
GCF_002507915.2_ASM250791v2,bin_component_1,NZ_CP075111.1,NODE_2_length_15008_cov_5.026388_component_1,15008,1.0
GCF_002507915.2_ASM250791v2,bin_component_3,NZ_CP075111.1,NODE_4_length_10408_cov_5.334237_component_3,10408,1.0
GCF_002507915.2_ASM250791v2,bin_component_0,NZ_CP075111.1,NODE_1_length_27657_cov_4.887745_component_0,27657,1.0
GCF_002507915.2_ASM250791v2,bin_component_2,NZ_CP075111.1,NODE_3_length_10517_cov_5.094444_component_2,10517,1.0
GCF_019670465.1_ASM1967046v1,bin_component_0,NZ_AP023319.1,NODE_1_length_34853_cov_38.218280_component_0,34853,1.0
GCF_019670465.1_ASM1967046v1,bin_component_0,NZ_AP023319.1,NODE_2_length_6719_cov_38.871511_component_0,6719,1.0
GCF_019670465.1_ASM1967046v1,bin_component_0,NZ_AP023319.1,NODE_3_length_1353_cov_59.412724_component_0,1353,1.0
GCF_019670465.1_ASM1967046v1,bin_component_0,NZ_AP023319.1,NODE_4_length_1036_cov_39.049505_component_0,1036,1.0
GCF_015240995.1_ASM1524099v1,bin_component_0,NZ_CP063706.1,NODE_1_length_58461_cov_34.259660_component_0,58461,1.0
GCF_015240995.1_ASM1524099v1,bin_component_0,NZ_CP063706.1,NODE_2_length_16351_cov_69.944218_component_0,16351,0.57,1,9314
GCF_015240995.1_ASM1524099v1,bin_component_0,NZ_CP063707.1,NODE_2_length_16351_cov_69.944218_component_0,16351,0.42,9315,16222
GCF_015240995.1_ASM1524099v1,bin_component_0,NZ_CP063706.1,NODE_3_length_10908_cov_140.943326_component_0,10908,1.0
GCF_015240995.1_ASM1524099v1,bin_component_0,NZ_CP063706.1,NODE_4_length_8156_cov_32.584755_component_0,8156,1.0
GCF_015240995.1_ASM1524099v1,bin_component_0,NZ_CP063706.1,NODE_5_length_2935_cov_34.654474_component_0,2935,1.0
GCF_015240995.1_ASM1524099v1,bin_component_0,NZ_CP063706.1,NODE_6_length_1492_cov_34.457143_component_0,1492,1.0
GCF_022226915.1_ASM2222691v1,bin_component_0,NZ_CP092076.1,NODE_1_length_38086_cov_81.936673_component_0,38086,1.0
GCF_022226915.1_ASM2222691v1,bin_component_0,NZ_CP092076.1,NODE_2_length_21918_cov_75.652717_component_0,21918,1.0
GCF_001833255.2_ASM183325v2,bin_component_1,NZ_CP075130.1,NODE_3_length_88000_cov_109.838302_component_1,88000,1.0
GCF_001833255.2_ASM183325v2,bin_component_1,NZ_CP075131.1,NODE_6_length_26072_cov_304.499250_component_1,26072,1.0
GCF_001833255.2_ASM183325v2,bin_component_1,NZ_CP075130.1,NODE_7_length_22440_cov_115.446631_component_1,22440,1.0
GCF_001833255.2_ASM183325v2,bin_component_1,NZ_CP075130.1,NODE_9_length_14765_cov_114.929875_component_1,14765,1.0
GCF_001833255.2_ASM183325v2,bin_component_1,NZ_CP075130.1,NODE_10_length_6121_cov_115.310721_component_1,6121,1.0
GCF_001833255.2_ASM183325v2,bin_component_1,NZ_CP075130.1,NODE_16_length_1147_cov_226.180374_component_1,1147,1.0
GCF_001833255.2_ASM183325v2,bin_component_1,NZ_CP075130.1,NODE_16_length_1147_cov_226.180374_component_1,1147,1.0
GCF_001833255.2_ASM183325v2,bin_component_1,NZ_CP075130.1,NODE_17_length_1107_cov_115.756311_component_1,1107,1.0
GCF_001833255.2_ASM183325v2,bin_component_0,NZ_CP075129.1,NODE_1_length_133187_cov_39.600346_component_0,133187,1.0
GCF_001833255.2_ASM183325v2,bin_component_0,NZ_CP075129.1,NODE_2_length_89943_cov_41.278103_component_0,89943,1.0
GCF_001833255.2_ASM183325v2,bin_component_0,NZ_CP075129.1,NODE_4_length_80503_cov_40.859249_component_0,80503,1.0
GCF_001833255.2_ASM183325v2,bin_component_0,NZ_CP075129.1,NODE_5_length_32521_cov_41.900660_component_0,32521,1.0
GCF_001833255.2_ASM183325v2,bin_component_0,NZ_CP075129.1,NODE_11_length_1995_cov_38.831595_component_0,1995,1.0
GCF_001833255.2_ASM183325v2,bin_component_0,NZ_CP075129.1,NODE_12_length_1781_cov_210.302817_component_0,1781,1.0
GCF_001833255.2_ASM183325v2,bin_component_0,NZ_CP075129.1,NODE_12_length_1781_cov_210.302817_component_0,1781,1.0
GCF_001833255.2_ASM183325v2,bin_component_0,NZ_CP075129.1,NODE_12_length_1781_cov_210.302817_component_0,1781,1.0
GCF_001833255.2_ASM183325v2,bin_component_0,NZ_CP075129.1,NODE_12_length_1781_cov_210.302817_component_0,1781,1.0
GCF_001833255.2_ASM183325v2,bin_component_0,NZ_CP075129.1,NODE_12_length_1781_cov_210.302817_component_0,1781,1.0
GCF_001833255.2_ASM183325v2,bin_component_0,NZ_CP075129.1,NODE_12_length_1781_cov_210.302817_component_0,1781,1.0
GCF_001833255.2_ASM183325v2,bin_component_0,NZ_CP075129.1,NODE_13_length_1624_cov_257.822883_component_0,1624,1.0
GCF_001833255.2_ASM183325v2,bin_component_0,NZ_CP075129.1,NODE_13_length_1624_cov_257.822883_component_0,1624,1.0
GCF_001833255.2_ASM183325v2,bin_component_0,NZ_CP075129.1,NODE_13_length_1624_cov_257.822883_component_0,1624,1.0
GCF_001833255.2_ASM183325v2,bin_component_0,NZ_CP075129.1,NODE_13_length_1624_cov_257.822883_component_0,1624,1.0
GCF_001833255.2_ASM183325v2,bin_component_0,NZ_CP075129.1,NODE_13_length_1624_cov_257.822883_component_0,1624,1.0
GCF_001833255.2_ASM183325v2,bin_component_0,NZ_CP075129.1,NODE_13_length_1624_cov_257.822883_component_0,1624,1.0
GCF_001833255.2_ASM183325v2,bin_component_0,NZ_CP075129.1,NODE_13_length_1624_cov_257.822883_component_0,1624,1.0
GCF_001833255.2_ASM183325v2,bin_component_0,NZ_CP075129.1,NODE_14_length_1312_cov_122.021862_component_0,1312,1.0
GCF_001833255.2_ASM183325v2,bin_component_0,NZ_CP075129.1,NODE_14_length_1312_cov_122.021862_component_0,1312,1.0
GCF_001833255.2_ASM183325v2,bin_component_0,NZ_CP075129.1,NODE_14_length_1312_cov_122.021862_component_0,1312,1.0
GCF_001833255.2_ASM183325v2,bin_component_0,NZ_CP075129.1,NODE_14_length_1312_cov_122.021862_component_0,1312,1.0
GCF_001833255.2_ASM183325v2,bin_component_0,NZ_CP075129.1,NODE_15_length_1291_cov_227.570840_component_0,1291,1.0
GCF_001833255.2_ASM183325v2,bin_component_0,NZ_CP075129.1,NODE_15_length_1291_cov_227.570840_component_0,1291,1.0
GCF_001833255.2_ASM183325v2,bin_component_0,NZ_CP075129.1,NODE_15_length_1291_cov_227.570840_component_0,1291,1.0
GCF_001833255.2_ASM183325v2,bin_component_0,NZ_CP075129.1,NODE_15_length_1291_cov_227.570840_component_0,1291,1.0
GCF_001833255.2_ASM183325v2,bin_component_0,NZ_CP075129.1,NODE_15_length_1291_cov_227.570840_component_0,1291,1.0
GCF_001833255.2_ASM183325v2,bin_component_0,NZ_CP075129.1,NODE_15_length_1291_cov_227.570840_component_0,1291,1.0
GCF_001833255.2_ASM183325v2,bin_component_0,NZ_CP075129.1,NODE_15_length_1291_cov_227.570840_component_0,1291,1.0
GCF_001833255.2_ASM183325v2,bin_component_2,NZ_CP075129.1,NODE_8_length_15555_cov_48.245251_component_2,15555,1.0
GCF_001713515.2_ASM171351v2,bin_component_1,NZ_CP074662.1,NODE_2_length_35879_cov_4.991273_component_1,35879,1.0
GCF_001713515.2_ASM171351v2,bin_component_2,NZ_CP074661.1,NODE_3_length_29242_cov_31.075872_component_2,29242,1.0
GCF_001713515.2_ASM171351v2,bin_component_2,NZ_CP074661.1,NODE_5_length_2747_cov_141.119084_component_2,2747,1.0
GCF_001713515.2_ASM171351v2,bin_component_2,NZ_CP074661.1,NODE_5_length_2747_cov_141.119084_component_2,2747,1.0
GCF_001713515.2_ASM171351v2,bin_component_2,NZ_CP074661.1,NODE_5_length_2747_cov_141.119084_component_2,2747,0.99
GCF_016454365.1_ASM1645436v1,bin_component_1,NZ_CP051378.1,NODE_4_length_3315_cov_9969.667503_component_1,3315,1.0
GCF_016454365.1_ASM1645436v1,bin_component_0,NZ_CP051379.1,NODE_1_length_7047_cov_17.529769_component_0,7047,1.0
GCF_016454365.1_ASM1645436v1,bin_component_0,NZ_CP051379.1,NODE_2_length_5936_cov_14.558788_component_0,5936,1.0
GCF_016454365.1_ASM1645436v1,bin_component_0,NZ_CP051379.1,NODE_3_length_4639_cov_14.349512_component_0,4639,1.0
GCF_016454365.1_ASM1645436v1,bin_component_0,NZ_CP051379.1,NODE_5_length_1192_cov_37.205634_component_0,1192,1.0
GCF_016454365.1_ASM1645436v1,bin_component_0,NZ_CP051379.1,NODE_5_length_1192_cov_37.205634_component_0,1192,1.0
GCF_016454245.1_ASM1645424v1,bin_component_0,NZ_CP051357.1,NODE_1_length_76143_cov_56.123619_component_0,76143,1.0
GCF_016454245.1_ASM1645424v1,bin_component_0,NZ_CP051357.1,NODE_2_length_46699_cov_56.375161_component_0,46699,1.0
GCF_016454665.1_ASM1645466v1,bin_component_1,NZ_CP051415.1,NODE_2_length_3446_cov_3097.802049_component_1,3446,1.0
GCF_016454665.1_ASM1645466v1,bin_component_0,NZ_CP051414.1,NODE_1_length_3499_cov_3534.568209_component_0,3499,1.0
GCF_016889645.1_ASM1688964v1,bin_component_0,NZ_CP069519.1,NODE_1_length_128240_cov_250.654729_component_0,128240,1.0
GCF_016454765.1_ASM1645476v1,bin_component_0,NZ_CP053050.1,NODE_1_length_40859_cov_9.938525_component_0,40859,1.0
GCF_016454765.1_ASM1645476v1,bin_component_0,NZ_CP053050.1,NODE_2_length_5943_cov_11.053473_component_0,5943,0.96
GCF_016454765.1_ASM1645476v1,bin_component_0,NZ_CP053050.1,NODE_3_length_1639_cov_9.643519_component_0,1639,1.0
GCF_019670345.1_ASM1967034v1,bin_component_0,NZ_AP023307.1,NODE_1_length_59231_cov_65.037442_component_0,59231,1.0
GCF_019670345.1_ASM1967034v1,bin_component_0,NZ_AP023307.1,NODE_2_length_15659_cov_65.421517_component_0,15659,1.0
GCF_019670345.1_ASM1967034v1,bin_component_0,NZ_AP023307.1,NODE_3_length_15411_cov_67.253926_component_0,15411,1.0
GCF_019670345.1_ASM1967034v1,bin_component_0,NZ_AP023308.1,NODE_4_length_8924_cov_251.681369_component_0,8924,0.33,1,2928
GCF_019670345.1_ASM1967034v1,bin_component_0,NZ_AP023308.1,NODE_4_length_8924_cov_251.681369_component_0,8924,0.5,2929,7384
GCF_019670345.1_ASM1967034v1,bin_component_0,NZ_AP023307.1,NODE_4_length_8924_cov_251.681369_component_0,8924,0.14,7635,8924
GCF_019670345.1_ASM1967034v1,bin_component_0,NZ_AP023307.1,NODE_5_length_5817_cov_69.579613_component_0,5817,1.0
GCF_019670345.1_ASM1967034v1,bin_component_0,NZ_AP023307.1,NODE_6_length_5418_cov_74.751654_component_0,5418,1.0
GCF_019670345.1_ASM1967034v1,bin_component_0,NZ_AP023307.1,NODE_7_length_4103_cov_62.956992_component_0,4103,1.0
GCF_019670345.1_ASM1967034v1,bin_component_0,NZ_AP023307.1,NODE_8_length_3471_cov_62.593002_component_0,3471,1.0
GCF_019670345.1_ASM1967034v1,bin_component_0,NZ_AP023307.1,NODE_9_length_3166_cov_75.304047_component_0,3166,1.0
GCF_019670345.1_ASM1967034v1,bin_component_0,NZ_AP023307.1,NODE_10_length_2232_cov_70.362470_component_0,2232,1.0
GCF_019670345.1_ASM1967034v1,bin_component_0,NZ_AP023307.1,NODE_11_length_2093_cov_71.689217_component_0,2093,1.0
GCF_019670345.1_ASM1967034v1,bin_component_0,NZ_AP023307.1,NODE_12_length_1854_cov_67.303416_component_0,1854,1.0
GCF_019670345.1_ASM1967034v1,bin_component_0,NZ_AP023306.1,NODE_13_length_1530_cov_105.986458_component_0,1530,1.0
GCF_019670345.1_ASM1967034v1,bin_component_0,NZ_AP023307.1,NODE_13_length_1530_cov_105.986458_component_0,1530,1.0
GCF_019670345.1_ASM1967034v1,bin_component_0,NZ_AP023307.1,NODE_14_length_1445_cov_70.270865_component_0,1445,1.0
GCF_019670345.1_ASM1967034v1,bin_component_0,NZ_AP023307.1,NODE_15_length_1143_cov_116.653543_component_0,1143,1.0
GCF_019670345.1_ASM1967034v1,bin_component_0,NZ_AP023307.1,NODE_15_length_1143_cov_116.653543_component_0,1143,1.0
GCF_019670345.1_ASM1967034v1,bin_component_0,NZ_AP023307.1,NODE_16_length_1067_cov_125.412766_component_0,1067,1.0
GCF_019670345.1_ASM1967034v1,bin_component_0,NZ_AP023307.1,NODE_16_length_1067_cov_125.412766_component_0,1067,1.0
GCF_022533545.1_ASM2253354v1,bin_component_1,NZ_CP092861.1,NODE_5_length_14089_cov_51.275835_component_1,14089,1.0
GCF_022533545.1_ASM2253354v1,bin_component_0,NZ_CP092862.1,NODE_1_length_51185_cov_37.861744_component_0,51185,1.0
GCF_022533545.1_ASM2253354v1,bin_component_0,NZ_CP092862.1,NODE_2_length_35898_cov_42.382569_component_0,35898,1.0
GCF_022533545.1_ASM2253354v1,bin_component_0,NZ_CP092862.1,NODE_3_length_16858_cov_44.065550_component_0,16858,1.0
GCF_022533545.1_ASM2253354v1,bin_component_0,NZ_CP092862.1,NODE_4_length_14305_cov_43.713663_component_0,14305,1.0
GCF_022533545.1_ASM2253354v1,bin_component_0,NZ_CP092862.1,NODE_6_length_12778_cov_43.257066_component_0,12778,1.0
GCF_022533545.1_ASM2253354v1,bin_component_0,NZ_CP092862.1,NODE_7_length_12023_cov_44.624142_component_0,12023,1.0
GCF_022533545.1_ASM2253354v1,bin_component_0,NZ_CP092862.1,NODE_8_length_10156_cov_49.324338_component_0,10156,1.0
GCF_022533545.1_ASM2253354v1,bin_component_0,NZ_CP092862.1,NODE_9_length_9500_cov_44.862889_component_0,9500,1.0
GCF_022533545.1_ASM2253354v1,bin_component_0,NZ_CP092861.1,NODE_10_length_7386_cov_24.074155_component_0,7386,1.0
GCF_022533545.1_ASM2253354v1,bin_component_0,NZ_CP092862.1,NODE_11_length_6956_cov_45.106120_component_0,6956,1.0
GCF_022533545.1_ASM2253354v1,bin_component_0,NZ_CP092862.1,NODE_12_length_4351_cov_47.041179_component_0,4351,1.0
GCF_022533545.1_ASM2253354v1,bin_component_0,NZ_CP092861.1,NODE_13_length_3418_cov_78.919784_component_0,3418,1.0
GCF_022533545.1_ASM2253354v1,bin_component_0,NZ_CP092862.1,NODE_14_length_3311_cov_80.573284_component_0,3311,1.0
GCF_022533545.1_ASM2253354v1,bin_component_0,NZ_CP092862.1,NODE_14_length_3311_cov_80.573284_component_0,3311,1.0
GCF_022533545.1_ASM2253354v1,bin_component_0,NZ_CP092861.1,NODE_15_length_2945_cov_75.958508_component_0,2945,1.0
GCF_022533545.1_ASM2253354v1,bin_component_0,NZ_CP092861.1,NODE_16_length_2864_cov_38.297094_component_0,2864,1.0
GCF_022533545.1_ASM2253354v1,bin_component_0,NZ_CP092861.1,NODE_17_length_2861_cov_43.091954_component_0,2861,1.0
GCF_022533545.1_ASM2253354v1,bin_component_0,NZ_CP092861.1,NODE_18_length_2701_cov_319.377668_component_0,2701,1.0
GCF_022533545.1_ASM2253354v1,bin_component_0,NZ_CP092861.1,NODE_18_length_2701_cov_319.377668_component_0,2701,1.0
GCF_022533545.1_ASM2253354v1,bin_component_0,NZ_CP092861.1,NODE_18_length_2701_cov_319.377668_component_0,2701,1.0
GCF_022533545.1_ASM2253354v1,bin_component_0,NZ_CP092861.1,NODE_18_length_2701_cov_319.377668_component_0,2701,1.0
GCF_022533545.1_ASM2253354v1,bin_component_0,NZ_CP092861.1,NODE_18_length_2701_cov_319.377668_component_0,2701,1.0
GCF_022533545.1_ASM2253354v1,bin_component_0,NZ_CP092862.1,NODE_18_length_2701_cov_319.377668_component_0,2701,1.0
GCF_022533545.1_ASM2253354v1,bin_component_0,NZ_CP092861.1,NODE_18_length_2701_cov_319.377668_component_0,2701,1.0
GCF_022533545.1_ASM2253354v1,bin_component_0,NZ_CP092862.1,NODE_18_length_2701_cov_319.377668_component_0,2701,1.0
GCF_022533545.1_ASM2253354v1,bin_component_0,NZ_CP092861.1,NODE_18_length_2701_cov_319.377668_component_0,2701,1.0
GCF_022533545.1_ASM2253354v1,bin_component_0,NZ_CP092861.1,NODE_18_length_2701_cov_319.377668_component_0,2701,1.0
GCF_022533545.1_ASM2253354v1,bin_component_0,NZ_CP092862.1,NODE_19_length_2499_cov_36.081751_component_0,2499,1.0
GCF_022533545.1_ASM2253354v1,bin_component_0,NZ_CP092861.1,NODE_20_length_2107_cov_378.022167_component_0,2107,0.96
GCF_022533545.1_ASM2253354v1,bin_component_0,NZ_CP092861.1,NODE_21_length_1943_cov_185.251340_component_0,1943,1.0
GCF_022533545.1_ASM2253354v1,bin_component_0,NZ_CP092861.1,NODE_21_length_1943_cov_185.251340_component_0,1943,1.0
GCF_022533545.1_ASM2253354v1,bin_component_0,NZ_CP092861.1,NODE_21_length_1943_cov_185.251340_component_0,1943,0.99
GCF_022533545.1_ASM2253354v1,bin_component_0,NZ_CP092861.1,NODE_22_length_1920_cov_41.682583_component_0,1920,1.0
GCF_022533545.1_ASM2253354v1,bin_component_0,NZ_CP092861.1,NODE_23_length_1747_cov_216.611377_component_0,1747,1.0
GCF_022533545.1_ASM2253354v1,bin_component_0,NZ_CP092861.1,NODE_23_length_1747_cov_216.611377_component_0,1747,1.0
GCF_022533545.1_ASM2253354v1,bin_component_0,NZ_CP092861.1,NODE_23_length_1747_cov_216.611377_component_0,1747,1.0
GCF_022533545.1_ASM2253354v1,bin_component_0,NZ_CP092861.1,NODE_23_length_1747_cov_216.611377_component_0,1747,1.0
GCF_022533545.1_ASM2253354v1,bin_component_0,NZ_CP092861.1,NODE_23_length_1747_cov_216.611377_component_0,1747,1.0
GCF_022533545.1_ASM2253354v1,bin_component_0,NZ_CP092861.1,NODE_23_length_1747_cov_216.611377_component_0,1747,1.0
GCF_022533545.1_ASM2253354v1,bin_component_0,NZ_CP092861.1,NODE_24_length_1585_cov_92.257958_component_0,1585,1.0
GCF_022533545.1_ASM2253354v1,bin_component_0,NZ_CP092861.1,NODE_24_length_1585_cov_92.257958_component_0,1585,1.0
GCF_022533545.1_ASM2253354v1,bin_component_0,NZ_CP092861.1,NODE_24_length_1585_cov_92.257958_component_0,1585,0.99
GCF_022533545.1_ASM2253354v1,bin_component_0,NZ_CP092862.1,NODE_25_length_1518_cov_44.050659_component_0,1518,1.0
GCF_022533545.1_ASM2253354v1,bin_component_0,NZ_CP092861.1,NODE_26_length_1496_cov_38.856237_component_0,1496,1.0
GCF_022533545.1_ASM2253354v1,bin_component_0,NZ_CP092861.1,NODE_27_length_1252_cov_48.203404_component_0,1252,0.99
GCF_022533545.1_ASM2253354v1,bin_component_0,NZ_CP092862.1,NODE_28_length_1200_cov_439.039181_component_0,1200,1.0
GCF_022533545.1_ASM2253354v1,bin_component_0,NZ_CP092862.1,NODE_28_length_1200_cov_439.039181_component_0,1200,1.0
GCF_022533545.1_ASM2253354v1,bin_component_0,NZ_CP092862.1,NODE_28_length_1200_cov_439.039181_component_0,1200,1.0
GCF_022533545.1_ASM2253354v1,bin_component_0,NZ_CP092861.1,NODE_28_length_1200_cov_439.039181_component_0,1200,1.0
GCF_022533545.1_ASM2253354v1,bin_component_0,NZ_CP092861.1,NODE_28_length_1200_cov_439.039181_component_0,1200,1.0
GCF_022533545.1_ASM2253354v1,bin_component_0,NZ_CP092862.1,NODE_28_length_1200_cov_439.039181_component_0,1200,1.0
GCF_022533545.1_ASM2253354v1,bin_component_0,NZ_CP092861.1,NODE_28_length_1200_cov_439.039181_component_0,1200,1.0
GCF_022533545.1_ASM2253354v1,bin_component_0,NZ_CP092861.1,NODE_28_length_1200_cov_439.039181_component_0,1200,1.0
GCF_022533545.1_ASM2253354v1,bin_component_0,NZ_CP092861.1,NODE_28_length_1200_cov_439.039181_component_0,1200,1.0
GCF_022533545.1_ASM2253354v1,bin_component_0,NZ_CP092862.1,NODE_28_length_1200_cov_439.039181_component_0,1200,1.0
GCF_022533545.1_ASM2253354v1,bin_component_0,NZ_CP092862.1,NODE_28_length_1200_cov_439.039181_component_0,1200,1.0
GCF_022533545.1_ASM2253354v1,bin_component_0,NZ_CP092861.1,NODE_28_length_1200_cov_439.039181_component_0,1200,1.0
GCF_022533545.1_ASM2253354v1,bin_component_0,NZ_CP092861.1,NODE_28_length_1200_cov_439.039181_component_0,1200,1.0
GCF_003068025.2_ASM306802v2,bin_component_1,NZ_CP077708.1,NODE_2_length_96172_cov_19.001229_component_1,96172,1.0
GCF_003068025.2_ASM306802v2,bin_component_3,NZ_CP077706.1,NODE_6_length_5604_cov_37.702392_component_3,5604,1.0
GCF_003068025.2_ASM306802v2,bin_component_3,NZ_CP077706.1,NODE_7_length_3052_cov_218.337778_component_3,3052,1.0
GCF_003068025.2_ASM306802v2,bin_component_3,NZ_CP077706.1,NODE_7_length_3052_cov_218.337778_component_3,3052,1.0
GCF_003068025.2_ASM306802v2,bin_component_3,NZ_CP077706.1,NODE_7_length_3052_cov_218.337778_component_3,3052,1.0
GCF_003068025.2_ASM306802v2,bin_component_3,NZ_CP077706.1,NODE_7_length_3052_cov_218.337778_component_3,3052,1.0
GCF_003068025.2_ASM306802v2,bin_component_3,NZ_CP077706.1,NODE_7_length_3052_cov_218.337778_component_3,3052,1.0
GCF_003068025.2_ASM306802v2,bin_component_3,NZ_CP077706.1,NODE_7_length_3052_cov_218.337778_component_3,3052,1.0
GCF_003068025.2_ASM306802v2,bin_component_3,NZ_CP077706.1,NODE_7_length_3052_cov_218.337778_component_3,3052,1.0
GCF_003068025.2_ASM306802v2,bin_component_3,NZ_CP077706.1,NODE_8_length_2116_cov_197.923077_component_3,2116,1.0
GCF_003068025.2_ASM306802v2,bin_component_3,NZ_CP077706.1,NODE_9_length_1484_cov_97.249816_component_3,1484,1.0
GCF_003068025.2_ASM306802v2,bin_component_3,NZ_CP077706.1,NODE_9_length_1484_cov_97.249816_component_3,1484,1.0
GCF_003068025.2_ASM306802v2,bin_component_0,NZ_CP077707.1,NODE_1_length_103041_cov_21.782595_component_0,103041,1.0
GCF_003068025.2_ASM306802v2,bin_component_0,NZ_CP077707.1,NODE_4_length_22523_cov_24.550857_component_0,22523,1.0
GCF_003068025.2_ASM306802v2,bin_component_0,NZ_CP077707.1,NODE_5_length_7783_cov_26.660920_component_0,7783,1.0
GCF_003068025.2_ASM306802v2,bin_component_0,NZ_CP077707.1,NODE_10_length_1147_cov_53.411765_component_0,1147,1.0
GCF_003068025.2_ASM306802v2,bin_component_0,NZ_CP077707.1,NODE_10_length_1147_cov_53.411765_component_0,1147,1.0
GCF_003068025.2_ASM306802v2,bin_component_2,NZ_CP077709.1,NODE_3_length_26158_cov_114.533556_component_2,26158,1.0
GCF_022162985.1_ASM2216298v1,bin_component_0,NZ_CP091879.1,NODE_1_length_4022_cov_239.425510_component_0,4022,1.0
GCF_016452165.1_ASM1645216v1,bin_component_1,NZ_CP053052.1,NODE_2_length_6377_cov_189.393600_component_1,6377,1.0
GCF_016452165.1_ASM1645216v1,bin_component_1,NZ_CP053053.1,NODE_2_length_6377_cov_189.393600_component_1,6377,1.0
GCF_016452165.1_ASM1645216v1,bin_component_1,NZ_CP053052.1,NODE_3_length_5928_cov_182.923979_component_1,5928,1.0
GCF_016452165.1_ASM1645216v1,bin_component_1,NZ_CP053053.1,NODE_3_length_5928_cov_182.923979_component_1,5928,1.0
GCF_016452165.1_ASM1645216v1,bin_component_1,NZ_CP053053.1,NODE_3_length_5928_cov_182.923979_component_1,5928,1.0
GCF_016452165.1_ASM1645216v1,bin_component_1,NZ_CP053052.1,NODE_4_length_3486_cov_166.180113_component_1,3486,1.0
GCF_016452165.1_ASM1645216v1,bin_component_1,NZ_CP053052.1,NODE_6_length_2747_cov_177.394656_component_1,2747,1.0
GCF_016452165.1_ASM1645216v1,bin_component_1,NZ_CP053052.1,NODE_7_length_2433_cov_155.807892_component_1,2433,1.0
GCF_016452165.1_ASM1645216v1,bin_component_1,NZ_CP053052.1,NODE_8_length_1999_cov_167.386752_component_1,1999,1.0
GCF_016452165.1_ASM1645216v1,bin_component_1,NZ_CP053053.1,NODE_10_length_1192_cov_241.352113_component_1,1192,1.0
GCF_016452165.1_ASM1645216v1,bin_component_1,NZ_CP053052.1,NODE_10_length_1192_cov_241.352113_component_1,1192,1.0
GCF_016452165.1_ASM1645216v1,bin_component_1,NZ_CP053053.1,NODE_10_length_1192_cov_241.352113_component_1,1192,1.0
GCF_016452165.1_ASM1645216v1,bin_component_1,NZ_CP053051.1,NODE_11_length_1003_cov_228.263699_component_1,1003,1.0
GCF_016452165.1_ASM1645216v1,bin_component_1,NZ_CP053052.1,NODE_11_length_1003_cov_228.263699_component_1,1003,1.0
GCF_016452165.1_ASM1645216v1,bin_component_0,NZ_CP053054.1,NODE_1_length_91960_cov_33.121526_component_0,91960,1.0
GCF_016452165.1_ASM1645216v1,bin_component_0,NZ_CP053054.1,NODE_9_length_1740_cov_35.195501_component_0,1740,1.0
GCF_016452165.1_ASM1645216v1,bin_component_2,NZ_CP054466.1,NODE_5_length_3315_cov_5621.768821_component_2,3315,1.0
GCF_016454305.1_ASM1645430v1,bin_component_0,NZ_CP051368.1,NODE_1_length_9440_cov_132.277247_component_0,9440,1.0
GCF_016454305.1_ASM1645430v1,bin_component_0,NZ_CP051368.1,NODE_2_length_2929_cov_87.152034_component_0,2929,1.0
GCF_021397625.1_ASM2139762v1,bin_component_0,NZ_CP090138.1,NODE_1_length_51536_cov_142.876442_component_0,51536,1.0
GCF_021397625.1_ASM2139762v1,bin_component_0,NZ_CP090138.1,NODE_2_length_50699_cov_140.565609_component_0,50699,1.0
GCF_021397625.1_ASM2139762v1,bin_component_0,NZ_CP090138.1,NODE_3_length_30980_cov_155.801672_component_0,30980,1.0
GCF_021397625.1_ASM2139762v1,bin_component_0,NZ_CP090139.1,NODE_4_length_27833_cov_124.413304_component_0,27833,1.0
GCF_021397625.1_ASM2139762v1,bin_component_0,NZ_CP090138.1,NODE_5_length_23112_cov_147.315380_component_0,23112,1.0
GCF_021397625.1_ASM2139762v1,bin_component_0,NZ_CP090139.1,NODE_6_length_19991_cov_127.449406_component_0,19991,1.0
GCF_021397625.1_ASM2139762v1,bin_component_0,NZ_CP090138.1,NODE_7_length_12708_cov_132.204038_component_0,12708,1.0
GCF_021397625.1_ASM2139762v1,bin_component_0,NZ_CP090138.1,NODE_8_length_10745_cov_142.359201_component_0,10745,1.0
GCF_021397625.1_ASM2139762v1,bin_component_0,NZ_CP090138.1,NODE_9_length_10623_cov_150.928354_component_0,10623,1.0
GCF_021397625.1_ASM2139762v1,bin_component_0,NZ_CP090138.1,NODE_10_length_9592_cov_166.763233_component_0,9592,1.0
GCF_021397625.1_ASM2139762v1,bin_component_0,NZ_CP090138.1,NODE_11_length_8464_cov_132.805446_component_0,8464,1.0
GCF_021397625.1_ASM2139762v1,bin_component_0,NZ_CP090138.1,NODE_12_length_8230_cov_141.028508_component_0,8230,1.0
GCF_021397625.1_ASM2139762v1,bin_component_0,NZ_CP090138.1,NODE_13_length_6738_cov_232.865225_component_0,6738,1.0
GCF_021397625.1_ASM2139762v1,bin_component_0,NZ_CP090138.1,NODE_14_length_6402_cov_131.558884_component_0,6402,1.0
GCF_021397625.1_ASM2139762v1,bin_component_0,NZ_CP090138.1,NODE_15_length_4978_cov_137.084106_component_0,4978,1.0
GCF_021397625.1_ASM2139762v1,bin_component_0,NZ_CP090138.1,NODE_16_length_4851_cov_434.377858_component_0,4851,1.0
GCF_021397625.1_ASM2139762v1,bin_component_0,NZ_CP090138.1,NODE_17_length_4405_cov_130.534362_component_0,4405,1.0
GCF_021397625.1_ASM2139762v1,bin_component_0,NZ_CP090138.1,NODE_18_length_4008_cov_263.863180_component_0,4008,1.0
GCF_021397625.1_ASM2139762v1,bin_component_0,NZ_CP090138.1,NODE_18_length_4008_cov_263.863180_component_0,4008,1.0
GCF_021397625.1_ASM2139762v1,bin_component_0,NZ_CP090138.1,NODE_19_length_3232_cov_135.910467_component_0,3232,1.0
GCF_021397625.1_ASM2139762v1,bin_component_0,NZ_CP090138.1,NODE_20_length_2691_cov_129.573323_component_0,2691,1.0
GCF_021397625.1_ASM2139762v1,bin_component_0,NZ_CP090138.1,NODE_21_length_2501_cov_154.749368_component_0,2501,1.0
GCF_021397625.1_ASM2139762v1,bin_component_0,NZ_CP090138.1,NODE_22_length_2437_cov_275.636364_component_0,2437,1.0
GCF_021397625.1_ASM2139762v1,bin_component_0,NZ_CP090138.1,NODE_22_length_2437_cov_275.636364_component_0,2437,1.0
GCF_021397625.1_ASM2139762v1,bin_component_0,NZ_CP090138.1,NODE_23_length_2324_cov_126.832044_component_0,2324,1.0
GCF_021397625.1_ASM2139762v1,bin_component_0,NZ_CP090139.1,NODE_24_length_2231_cov_126.592451_component_0,2231,1.0
GCF_021397625.1_ASM2139762v1,bin_component_0,NZ_CP090138.1,NODE_25_length_2130_cov_828.495756_component_0,2130,1.0
GCF_021397625.1_ASM2139762v1,bin_component_0,NZ_CP090138.1,NODE_25_length_2130_cov_828.495756_component_0,2130,1.0
GCF_021397625.1_ASM2139762v1,bin_component_0,NZ_CP090138.1,NODE_25_length_2130_cov_828.495756_component_0,2130,1.0
GCF_021397625.1_ASM2139762v1,bin_component_0,NZ_CP090140.1,NODE_25_length_2130_cov_828.495756_component_0,2130,1.0
GCF_021397625.1_ASM2139762v1,bin_component_0,NZ_CP090137.1,NODE_25_length_2130_cov_828.495756_component_0,2130,1.0
GCF_021397625.1_ASM2139762v1,bin_component_0,NZ_CP090138.1,NODE_25_length_2130_cov_828.495756_component_0,2130,1.0
GCF_021397625.1_ASM2139762v1,bin_component_0,NZ_CP090138.1,NODE_26_length_1883_cov_243.929385_component_0,1883,1.0
GCF_021397625.1_ASM2139762v1,bin_component_0,NZ_CP090138.1,NODE_26_length_1883_cov_243.929385_component_0,1883,1.0
GCF_021397625.1_ASM2139762v1,bin_component_0,NZ_CP090138.1,NODE_27_length_1432_cov_130.940230_component_0,1432,1.0
GCF_001973785.2_ASM197378v2,bin_component_1,NZ_CP075124.1,NODE_2_length_33027_cov_88.759211_component_1,33027,1.0
GCF_001973785.2_ASM197378v2,bin_component_0,NZ_CP075123.1,NODE_1_length_59378_cov_41.602772_component_0,59378,1.0
GCF_016028495.1_ASM1602849v1,bin_component_1,NZ_CP065718.1,NODE_2_length_17491_cov_452.716378_component_1,17491,1.0
GCF_016028495.1_ASM1602849v1,bin_component_1,NZ_CP065718.1,NODE_2_length_17491_cov_452.716378_component_1,17491,1.0
GCF_016028495.1_ASM1602849v1,bin_component_0,NZ_CP065719.1,NODE_1_length_93992_cov_492.331992_component_0,93992,1.0
GCF_016028495.1_ASM1602849v1,bin_component_2,NZ_CP065718.1,NODE_3_length_6108_cov_437.211242_component_2,6108,1.0
GCF_016028495.1_ASM1602849v1,bin_component_2,NZ_CP065718.1,NODE_3_length_6108_cov_437.211242_component_2,6108,0.99
GCF_016028495.1_ASM1602849v1,bin_component_2,NZ_CP065718.1,NODE_5_length_2924_cov_390.200211_component_2,2924,1.0
GCF_016028495.1_ASM1602849v1,bin_component_2,NZ_CP065718.1,NODE_6_length_1746_cov_414.143799_component_2,1746,1.0
GCF_016028495.1_ASM1602849v1,bin_component_2,NZ_CP065718.1,NODE_6_length_1746_cov_414.143799_component_2,1746,1.0
GCF_016454265.1_ASM1645426v1,bin_component_0,NZ_CP051361.1,NODE_1_length_95361_cov_13.336718_component_0,95361,1.0
GCF_016454725.1_ASM1645472v1,bin_component_1,NZ_CP051424.1,NODE_2_length_58080_cov_11.204148_component_1,58080,0.98
GCF_016454725.1_ASM1645472v1,bin_component_3,NZ_CP051419.1,NODE_5_length_3499_cov_1018.841044_component_3,3499,1.0
GCF_016454725.1_ASM1645472v1,bin_component_4,NZ_CP051423.1,NODE_6_length_2571_cov_1753.191080_component_4,2571,1.0
GCF_016454725.1_ASM1645472v1,bin_component_0,NZ_CP051420.1,NODE_1_length_83903_cov_26.516532_component_0,83903,1.0
GCF_016454725.1_ASM1645472v1,bin_component_2,NZ_CP051426.1,NODE_3_length_6002_cov_23.751149_component_2,6002,1.0
GCF_016454725.1_ASM1645472v1,bin_component_2,NZ_CP051426.1,NODE_4_length_4465_cov_21.207930_component_2,4465,1.0
GCF_016454725.1_ASM1645472v1,bin_component_5,NZ_CP051422.1,NODE_7_length_2223_cov_8759.677004_component_5,2223,1.0
GCF_016026715.1_ASM1602671v1,bin_component_1,NZ_CP065639.1,NODE_2_length_6108_cov_392.180235_component_1,6108,1.0
GCF_016026715.1_ASM1602671v1,bin_component_1,NZ_CP065639.1,NODE_2_length_6108_cov_392.180235_component_1,6108,0.99
GCF_016026715.1_ASM1602671v1,bin_component_1,NZ_CP065639.1,NODE_4_length_2924_cov_329.270460_component_1,2924,1.0
GCF_016026715.1_ASM1602671v1,bin_component_1,NZ_CP065639.1,NODE_5_length_1746_cov_375.639305_component_1,1746,1.0
GCF_016026715.1_ASM1602671v1,bin_component_1,NZ_CP065639.1,NODE_5_length_1746_cov_375.639305_component_1,1746,1.0
GCF_016026715.1_ASM1602671v1,bin_component_0,NZ_CP065638.1,NODE_1_length_92094_cov_391.195888_component_0,92094,1.0
GCF_016026715.1_ASM1602671v1,bin_component_0,NZ_CP065638.1,NODE_6_length_1740_cov_369.216841_component_0,1740,1.0
GCF_022870605.1_ASM2287060v1,bin_component_1,NZ_CP058674.1,NODE_20_length_3448_cov_2023.088401_component_1,3448,1.0
GCF_022870605.1_ASM2287060v1,bin_component_0,NZ_CP058672.1,NODE_1_length_70647_cov_87.573346_component_0,70647,1.0
GCF_022870605.1_ASM2287060v1,bin_component_0,NZ_CP058671.1,NODE_2_length_38624_cov_221.210885_component_0,38624,1.0
GCF_022870605.1_ASM2287060v1,bin_component_0,NZ_CP058672.1,NODE_3_length_26817_cov_90.040165_component_0,26817,1.0
GCF_022870605.1_ASM2287060v1,bin_component_0,NZ_CP058672.1,NODE_4_length_19400_cov_89.251772_component_0,19400,1.0
GCF_022870605.1_ASM2287060v1,bin_component_0,NZ_CP058672.1,NODE_5_length_19140_cov_90.304831_component_0,19140,1.0
GCF_022870605.1_ASM2287060v1,bin_component_0,NZ_CP058671.1,NODE_6_length_18936_cov_90.576118_component_0,18936,1.0
GCF_022870605.1_ASM2287060v1,bin_component_0,NZ_CP058672.1,NODE_7_length_15236_cov_85.914242_component_0,15236,1.0
GCF_022870605.1_ASM2287060v1,bin_component_0,NZ_CP058673.1,NODE_8_length_14855_cov_322.852213_component_0,14855,1.0
GCF_022870605.1_ASM2287060v1,bin_component_0,NZ_CP058672.1,NODE_9_length_12964_cov_83.612710_component_0,12964,1.0
GCF_022870605.1_ASM2287060v1,bin_component_0,NZ_CP058673.1,NODE_10_length_8480_cov_361.066643_component_0,8480,1.0
GCF_022870605.1_ASM2287060v1,bin_component_0,NZ_CP058672.1,NODE_11_length_7234_cov_85.912813_component_0,7234,0.99
GCF_022870605.1_ASM2287060v1,bin_component_0,NZ_CP058672.1,NODE_12_length_6287_cov_86.811594_component_0,6287,1.0
GCF_022870605.1_ASM2287060v1,bin_component_0,NZ_CP058673.1,NODE_13_length_5643_cov_335.512217_component_0,5643,1.0
GCF_022870605.1_ASM2287060v1,bin_component_0,NZ_CP058672.1,NODE_14_length_5559_cov_84.644473_component_0,5559,1.0
GCF_022870605.1_ASM2287060v1,bin_component_0,NZ_CP058672.1,NODE_15_length_4847_cov_124.301048_component_0,4847,1.0
GCF_022870605.1_ASM2287060v1,bin_component_0,NZ_CP058673.1,NODE_16_length_4745_cov_349.131534_component_0,4745,1.0
GCF_022870605.1_ASM2287060v1,bin_component_0,NZ_CP058672.1,NODE_17_length_4304_cov_303.064585_component_0,4304,1.0
GCF_022870605.1_ASM2287060v1,bin_component_0,NZ_CP058672.1,NODE_18_length_3956_cov_88.766950_component_0,3956,1.0
GCF_022870605.1_ASM2287060v1,bin_component_0,NZ_CP058673.1,NODE_19_length_3715_cov_367.163002_component_0,3715,1.0
GCF_022870605.1_ASM2287060v1,bin_component_0,NZ_CP058673.1,NODE_21_length_2904_cov_445.260347_component_0,2904,1.0
GCF_022870605.1_ASM2287060v1,bin_component_0,NZ_CP058672.1,NODE_21_length_2904_cov_445.260347_component_0,2904,1.0
GCF_022870605.1_ASM2287060v1,bin_component_0,NZ_CP058671.1,NODE_22_length_1929_cov_460.097732_component_0,1929,1.0
GCF_022870605.1_ASM2287060v1,bin_component_0,NZ_CP058672.1,NODE_22_length_1929_cov_460.097732_component_0,1929,1.0
GCF_022870605.1_ASM2287060v1,bin_component_0,NZ_CP058672.1,NODE_22_length_1929_cov_460.097732_component_0,1929,1.0
GCF_022870605.1_ASM2287060v1,bin_component_0,NZ_CP058672.1,NODE_22_length_1929_cov_460.097732_component_0,1929,1.0
GCF_022870605.1_ASM2287060v1,bin_component_0,NZ_CP058672.1,NODE_22_length_1929_cov_460.097732_component_0,1929,1.0
GCF_022870605.1_ASM2287060v1,bin_component_0,NZ_CP058673.1,NODE_23_length_1730_cov_316.116152_component_0,1730,1.0
GCF_022870605.1_ASM2287060v1,bin_component_0,NZ_CP058672.1,NODE_24_length_1698_cov_82.925355_component_0,1698,1.0
GCF_022870605.1_ASM2287060v1,bin_component_0,NZ_CP058672.1,NODE_25_length_1614_cov_1503.735849_component_0,1614,1.0
GCF_022870605.1_ASM2287060v1,bin_component_0,NZ_CP058671.1,NODE_25_length_1614_cov_1503.735849_component_0,1614,1.0
GCF_022870605.1_ASM2287060v1,bin_component_0,NZ_CP058671.1,NODE_25_length_1614_cov_1503.735849_component_0,1614,1.0
GCF_022870605.1_ASM2287060v1,bin_component_0,NZ_CP058673.1,NODE_25_length_1614_cov_1503.735849_component_0,1614,1.0
GCF_022870605.1_ASM2287060v1,bin_component_0,NZ_CP058671.1,NODE_25_length_1614_cov_1503.735849_component_0,1614,1.0
GCF_022870605.1_ASM2287060v1,bin_component_0,NZ_CP058672.1,NODE_25_length_1614_cov_1503.735849_component_0,1614,1.0
GCF_022870605.1_ASM2287060v1,bin_component_0,NZ_CP058671.1,NODE_25_length_1614_cov_1503.735849_component_0,1614,1.0
GCF_022870605.1_ASM2287060v1,bin_component_0,NZ_CP058671.1,NODE_25_length_1614_cov_1503.735849_component_0,1614,1.0
GCF_022870605.1_ASM2287060v1,bin_component_0,NZ_CP058671.1,NODE_25_length_1614_cov_1503.735849_component_0,1614,1.0
GCF_022870605.1_ASM2287060v1,bin_component_0,NZ_CP058672.1,NODE_25_length_1614_cov_1503.735849_component_0,1614,1.0
GCF_022870605.1_ASM2287060v1,bin_component_0,NZ_CP058673.1,NODE_26_length_1447_cov_468.227737_component_0,1447,1.0
GCF_022870605.1_ASM2287060v1,bin_component_0,NZ_CP058672.1,NODE_26_length_1447_cov_468.227737_component_0,1447,1.0
GCF_022870605.1_ASM2287060v1,bin_component_0,NZ_CP058673.1,NODE_27_length_1342_cov_367.149407_component_0,1342,1.0
GCF_022870605.1_ASM2287060v1,bin_component_0,NZ_CP058672.1,NODE_28_length_1249_cov_88.666382_component_0,1249,1.0
GCF_022870605.1_ASM2287060v1,bin_component_0,NZ_CP058671.1,NODE_29_length_1238_cov_1654.501292_component_0,1238,1.0
GCF_022870605.1_ASM2287060v1,bin_component_0,NZ_CP058671.1,NODE_29_length_1238_cov_1654.501292_component_0,1238,1.0
GCF_022870605.1_ASM2287060v1,bin_component_0,NZ_CP058671.1,NODE_29_length_1238_cov_1654.501292_component_0,1238,1.0
GCF_022870605.1_ASM2287060v1,bin_component_0,NZ_CP058671.1,NODE_29_length_1238_cov_1654.501292_component_0,1238,1.0
GCF_022870605.1_ASM2287060v1,bin_component_0,NZ_CP058672.1,NODE_29_length_1238_cov_1654.501292_component_0,1238,1.0
GCF_022870605.1_ASM2287060v1,bin_component_0,NZ_CP058672.1,NODE_29_length_1238_cov_1654.501292_component_0,1238,1.0
GCF_022870605.1_ASM2287060v1,bin_component_0,NZ_CP058671.1,NODE_29_length_1238_cov_1654.501292_component_0,1238,1.0
GCF_022870605.1_ASM2287060v1,bin_component_0,NZ_CP058671.1,NODE_29_length_1238_cov_1654.501292_component_0,1238,1.0
GCF_022870605.1_ASM2287060v1,bin_component_0,NZ_CP058671.1,NODE_29_length_1238_cov_1654.501292_component_0,1238,1.0
GCF_022870605.1_ASM2287060v1,bin_component_0,NZ_CP058672.1,NODE_29_length_1238_cov_1654.501292_component_0,1238,1.0
GCF_022870605.1_ASM2287060v1,bin_component_0,NZ_CP058673.1,NODE_29_length_1238_cov_1654.501292_component_0,1238,1.0
GCF_022870605.1_ASM2287060v1,bin_component_0,NZ_CP058671.1,NODE_29_length_1238_cov_1654.501292_component_0,1238,1.0
GCF_022870605.1_ASM2287060v1,bin_component_0,NZ_CP058672.1,NODE_30_length_1039_cov_85.754678_component_0,1039,1.0
GCF_001652385.2_ASM165238v2,bin_component_0,NZ_CP075142.1,NODE_1_length_71120_cov_27.346260_component_0,71120,1.0
GCF_001652385.2_ASM165238v2,bin_component_0,NZ_CP075142.1,NODE_2_length_1740_cov_27.880557_component_0,1740,1.0
GCF_001652385.2_ASM165238v2,bin_component_0,NZ_CP075142.1,NODE_2_length_1740_cov_27.880557_component_0,1740,1.0
GCF_022936425.1_ASM2293642v1,bin_component_1,NZ_CP092011.1,NODE_2_length_5805_cov_125.434008_component_1,5805,1.0
GCF_022936425.1_ASM2293642v1,bin_component_0,NZ_CP092010.1,NODE_1_length_57833_cov_9.720635_component_0,57833,1.0
GCF_022936425.1_ASM2293642v1,bin_component_0,NZ_CP092010.1,NODE_3_length_2231_cov_8.490901_component_0,2231,1.0
GCF_022936425.1_ASM2293642v1,bin_component_0,NZ_CP092010.1,NODE_4_length_1329_cov_17.079073_component_0,1329,1.0
GCF_001972545.2_ASM197254v2,bin_component_0,NZ_CP075119.1,NODE_1_length_51961_cov_78.916699_component_0,51961,1.0
GCF_001972545.2_ASM197254v2,bin_component_0,NZ_CP075119.1,NODE_3_length_5626_cov_75.257704_component_0,5626,1.0
GCF_001972545.2_ASM197254v2,bin_component_0,NZ_CP075119.1,NODE_6_length_1783_cov_71.272581_component_0,1783,1.0
GCF_001972545.2_ASM197254v2,bin_component_0,NZ_CP075119.1,NODE_6_length_1783_cov_71.272581_component_0,1783,1.0
GCF_016454445.1_ASM1645444v1,bin_component_0,NZ_CP051387.1,NODE_1_length_10614_cov_93.007247_component_0,10614,1.0
GCF_016454445.1_ASM1645444v1,bin_component_0,NZ_CP051388.1,NODE_2_length_6273_cov_53.486983_component_0,6273,1.0
GCF_016454445.1_ASM1645444v1,bin_component_0,NZ_CP051387.1,NODE_5_length_2833_cov_86.720251_component_0,2833,1.0
GCF_016454445.1_ASM1645444v1,bin_component_0,NZ_CP051387.1,NODE_6_length_1145_cov_65.982318_component_0,1145,1.0
GCF_016454445.1_ASM1645444v1,bin_component_0,NZ_CP051387.1,NODE_6_length_1145_cov_65.982318_component_0,1145,1.0
GCF_016454445.1_ASM1645444v1,bin_component_0,NZ_CP051387.1,NODE_6_length_1145_cov_65.982318_component_0,1145,1.0
GCF_015074885.1_ASM1507488v1,bin_component_1,NZ_CP063291.1,NODE_2_length_56537_cov_17.221503_component_1,56537,1.0
GCF_015074885.1_ASM1507488v1,bin_component_1,NZ_CP063291.1,NODE_7_length_1783_cov_19.451309_component_1,1783,1.0
GCF_015074885.1_ASM1507488v1,bin_component_3,NZ_CP063293.1,NODE_5_length_3737_cov_457.644875_component_3,3737,1.0
GCF_015074885.1_ASM1507488v1,bin_component_0,NZ_CP063290.1,NODE_1_length_102296_cov_78.526774_component_0,102296,1.0
GCF_015074885.1_ASM1507488v1,bin_component_0,NZ_CP063290.1,NODE_3_length_6953_cov_66.957369_component_0,6953,1.0
GCF_015074885.1_ASM1507488v1,bin_component_0,NZ_CP063290.1,NODE_6_length_2837_cov_68.182657_component_0,2837,1.0
GCF_015074885.1_ASM1507488v1,bin_component_2,NZ_CP063292.1,NODE_4_length_5760_cov_119.468134_component_2,5760,1.0
GCF_021397675.1_ASM2139767v1,bin_component_1,NZ_CP090136.1,NODE_5_length_4720_cov_468.402134_component_1,4720,1.0
GCF_021397675.1_ASM2139767v1,bin_component_0,NZ_CP090135.1,NODE_1_length_29033_cov_101.607002_component_0,29033,1.0
GCF_021397675.1_ASM2139767v1,bin_component_0,NZ_CP090135.1,NODE_2_length_18792_cov_94.578623_component_0,18792,1.0
GCF_021397675.1_ASM2139767v1,bin_component_0,NZ_CP090134.1,NODE_3_length_13557_cov_61.551378_component_0,13557,0.99
GCF_021397675.1_ASM2139767v1,bin_component_0,NZ_CP090134.1,NODE_4_length_5929_cov_113.511203_component_0,5929,1.0
GCF_021397675.1_ASM2139767v1,bin_component_0,NZ_CP090134.1,NODE_6_length_4008_cov_106.114661_component_0,4008,1.0
GCF_021397675.1_ASM2139767v1,bin_component_0,NZ_CP090134.1,NODE_6_length_4008_cov_106.114661_component_0,4008,1.0
GCF_021397675.1_ASM2139767v1,bin_component_0,NZ_CP090134.1,NODE_7_length_3604_cov_99.993673_component_0,3604,1.0
GCF_021397675.1_ASM2139767v1,bin_component_0,NZ_CP090135.1,NODE_8_length_2231_cov_88.888465_component_0,2231,1.0
GCF_016454505.1_ASM1645450v1,bin_component_0,NZ_CP051395.1,NODE_1_length_89709_cov_23.357907_component_0,89709,1.0
GCF_016454505.1_ASM1645450v1,bin_component_0,NZ_CP051395.1,NODE_2_length_39281_cov_20.983220_component_0,39281,1.0
GCF_016454505.1_ASM1645450v1,bin_component_0,NZ_CP051395.1,NODE_3_length_1289_cov_20.156627_component_0,1289,1.0
GCF_001834735.2_ASM183473v2,bin_component_1,NZ_CP075132.1,NODE_3_length_27763_cov_106.419020_component_1,27763,1.0
GCF_001834735.2_ASM183473v2,bin_component_1,NZ_CP075132.1,NODE_3_length_27763_cov_106.419020_component_1,27763,1.0
GCF_001834735.2_ASM183473v2,bin_component_0,NZ_CP075133.1,NODE_1_length_91582_cov_129.798109_component_0,91582,1.0
GCF_001834735.2_ASM183473v2,bin_component_0,NZ_CP075133.1,NODE_2_length_31010_cov_129.737174_component_0,31010,1.0
GCF_016454425.1_ASM1645442v1,bin_component_1,NZ_CP051384.1,NODE_2_length_17426_cov_37.308110_component_1,17426,1.0
GCF_016454425.1_ASM1645442v1,bin_component_1,NZ_CP051384.1,NODE_13_length_1384_cov_3417.346062_component_1,1384,1.0
GCF_016454425.1_ASM1645442v1,bin_component_1,NZ_CP051384.1,NODE_13_length_1384_cov_3417.346062_component_1,1384,1.0
GCF_016454425.1_ASM1645442v1,bin_component_1,NZ_CP051384.1,NODE_13_length_1384_cov_3417.346062_component_1,1384,1.0
GCF_016454425.1_ASM1645442v1,bin_component_0,NZ_CP051385.1,NODE_1_length_87512_cov_15.903496_component_0,87512,1.0
GCF_016454425.1_ASM1645442v1,bin_component_0,NZ_CP051385.1,NODE_4_length_6390_cov_10.372825_component_0,6390,1.0
GCF_016454425.1_ASM1645442v1,bin_component_0,NZ_CP051385.1,NODE_4_length_6390_cov_10.372825_component_0,6390,1.0
GCF_016454425.1_ASM1645442v1,bin_component_0,NZ_CP051385.1,NODE_10_length_2681_cov_74.034847_component_0,2681,0.98
GCF_016454425.1_ASM1645442v1,bin_component_0,NZ_CP051385.1,NODE_11_length_2222_cov_15.750835_component_0,2222,1.0
GCF_016454425.1_ASM1645442v1,bin_component_0,NZ_CP051385.1,NODE_11_length_2222_cov_15.750835_component_0,2222,1.0
GCF_016454425.1_ASM1645442v1,bin_component_2,NZ_CP051384.1,NODE_3_length_8872_cov_78.707604_component_2,8872,1.0
GCF_019670405.1_ASM1967040v1,bin_component_0,NZ_AP023314.1,NODE_1_length_60742_cov_63.300404_component_0,60742,1.0
GCF_019670405.1_ASM1967040v1,bin_component_0,NZ_AP023314.1,NODE_2_length_15411_cov_66.885501_component_0,15411,1.0
GCF_019670405.1_ASM1967040v1,bin_component_0,NZ_AP023314.1,NODE_3_length_5818_cov_66.362502_component_0,5818,1.0
GCF_019670405.1_ASM1967040v1,bin_component_0,NZ_AP023314.1,NODE_4_length_5333_cov_66.057050_component_0,5333,1.0
GCF_019670405.1_ASM1967040v1,bin_component_0,NZ_AP023314.1,NODE_5_length_5110_cov_61.343367_component_0,5110,1.0
GCF_019670405.1_ASM1967040v1,bin_component_0,NZ_AP023314.1,NODE_6_length_2233_cov_61.716049_component_0,2233,1.0
GCF_019670405.1_ASM1967040v1,bin_component_0,NZ_AP023314.1,NODE_7_length_1856_cov_68.242337_component_0,1856,1.0
GCF_016127835.1_ASM1612783v1,bin_component_1,NZ_CP066047.1,NODE_2_length_36554_cov_302.472736_component_1,36554,1.0
GCF_016127835.1_ASM1612783v1,bin_component_1,NZ_CP066047.1,NODE_4_length_1043_cov_236.182195_component_1,1043,1.0
GCF_016127835.1_ASM1612783v1,bin_component_0,NZ_CP066048.1,NODE_1_length_59449_cov_441.015681_component_0,59449,1.0
GCF_019670305.1_ASM1967030v1,bin_component_0,NZ_AP023303.1,NODE_1_length_1712_cov_121.194953_component_0,1712,1.0
GCF_019670245.1_ASM1967024v1,bin_component_1,NZ_AP023297.1,NODE_3_length_4946_cov_18.915383_component_1,4946,1.0
GCF_019670245.1_ASM1967024v1,bin_component_0,NZ_AP023295.1,NODE_1_length_51070_cov_19.786833_component_0,51070,1.0
GCF_019670245.1_ASM1967024v1,bin_component_0,NZ_AP023295.1,NODE_2_length_5423_cov_21.981669_component_0,5423,1.0
GCF_019670245.1_ASM1967024v1,bin_component_0,NZ_AP023295.1,NODE_5_length_3036_cov_19.343359_component_0,3036,1.0
GCF_019670245.1_ASM1967024v1,bin_component_2,NZ_AP023298.1,NODE_4_length_4137_cov_31.038916_component_2,4137,1.0
GCF_016025435.1_ASM1602543v1,bin_component_1,NZ_CP065572.1,NODE_2_length_1987_cov_183.517204_component_1,1987,1.0
GCF_016025435.1_ASM1602543v1,bin_component_1,NZ_CP065572.1,NODE_2_length_1987_cov_183.517204_component_1,1987,1.0
GCF_016025435.1_ASM1602543v1,bin_component_0,NZ_CP065573.1,NODE_1_length_82706_cov_70.986619_component_0,82706,1.0
GCF_019670385.1_ASM1967038v1,bin_component_0,NZ_AP023312.1,NODE_1_length_151127_cov_56.521881_component_0,151127,1.0
GCF_019670385.1_ASM1967038v1,bin_component_0,NZ_AP023312.1,NODE_2_length_23389_cov_62.673846_component_0,23389,1.0
GCF_019670385.1_ASM1967038v1,bin_component_0,NZ_AP023312.1,NODE_3_length_10848_cov_54.494170_component_0,10848,1.0
GCF_019670385.1_ASM1967038v1,bin_component_0,NZ_AP023312.1,NODE_4_length_6337_cov_80.721417_component_0,6337,1.0
GCF_019670385.1_ASM1967038v1,bin_component_0,NZ_AP023311.1,NODE_4_length_6337_cov_80.721417_component_0,6337,1.0
GCF_019670385.1_ASM1967038v1,bin_component_0,NZ_AP023312.1,NODE_5_length_6037_cov_98.427073_component_0,6037,1.0
GCF_019670385.1_ASM1967038v1,bin_component_0,NZ_AP023311.1,NODE_5_length_6037_cov_98.427073_component_0,6037,1.0
GCF_019670385.1_ASM1967038v1,bin_component_0,NZ_AP023312.1,NODE_6_length_6009_cov_54.688201_component_0,6009,1.0
GCF_019670385.1_ASM1967038v1,bin_component_0,NZ_AP023312.1,NODE_7_length_4449_cov_55.445396_component_0,4449,1.0
GCF_019670385.1_ASM1967038v1,bin_component_0,NZ_AP023312.1,NODE_8_length_3701_cov_53.646335_component_0,3701,1.0
GCF_019670385.1_ASM1967038v1,bin_component_0,NZ_AP023312.1,NODE_9_length_3513_cov_53.645009_component_0,3513,1.0
GCF_019670385.1_ASM1967038v1,bin_component_0,NZ_AP023312.1,NODE_10_length_2484_cov_57.136190_component_0,2484,1.0
GCF_019670385.1_ASM1967038v1,bin_component_0,NZ_AP023312.1,NODE_11_length_2108_cov_52.729430_component_0,2108,1.0
GCF_019670385.1_ASM1967038v1,bin_component_0,NZ_AP023312.1,NODE_12_length_1335_cov_54.932947_component_0,1335,1.0
GCF_019670385.1_ASM1967038v1,bin_component_0,NZ_AP023312.1,NODE_13_length_1331_cov_157.687708_component_0,1331,1.0
GCF_019670385.1_ASM1967038v1,bin_component_0,NZ_AP023311.1,NODE_13_length_1331_cov_157.687708_component_0,1331,1.0
GCF_019670385.1_ASM1967038v1,bin_component_0,NZ_AP023312.1,NODE_13_length_1331_cov_157.687708_component_0,1331,1.0
GCF_016454385.1_ASM1645438v1,bin_component_1,NZ_CP051381.1,NODE_2_length_39392_cov_39.204075_component_1,39392,0.99
GCF_016454385.1_ASM1645438v1,bin_component_0,NZ_CP051383.1,NODE_1_length_66328_cov_50.715835_component_0,66328,1.0
GCF_016454385.1_ASM1645438v1,bin_component_0,NZ_CP051383.1,NODE_3_length_20611_cov_60.356620_component_0,20611,1.0
GCF_016454385.1_ASM1645438v1,bin_component_2,NZ_CP051382.1,NODE_4_length_10211_cov_41.230563_component_2,10211,1.0
GCF_002266205.2_ASM226620v2,bin_component_0,NZ_CP075115.1,NODE_1_length_16581_cov_47.385482_component_0,16581,1.0
GCF_016454345.1_ASM1645434v1,bin_component_1,NZ_CP051375.1,NODE_4_length_3732_cov_1217.638003_component_1,3732,1.0
GCF_016454345.1_ASM1645434v1,bin_component_0,NZ_CP051373.1,NODE_1_length_52958_cov_25.423407_component_0,52958,1.0
GCF_016454345.1_ASM1645434v1,bin_component_0,NZ_CP051373.1,NODE_2_length_38113_cov_23.089744_component_0,38113,1.0
GCF_016454345.1_ASM1645434v1,bin_component_0,NZ_CP051373.1,NODE_3_length_10487_cov_51.597297_component_0,10487,1.0
GCF_016454345.1_ASM1645434v1,bin_component_0,NZ_CP051373.1,NODE_3_length_10487_cov_51.597297_component_0,10487,1.0
GCF_016454345.1_ASM1645434v1,bin_component_0,NZ_CP051373.1,NODE_5_length_3182_cov_21.827823_component_0,3182,1.0
GCF_016454345.1_ASM1645434v1,bin_component_0,NZ_CP051373.1,NODE_6_length_1145_cov_47.278978_component_0,1145,1.0
GCF_016454345.1_ASM1645434v1,bin_component_0,NZ_CP051373.1,NODE_6_length_1145_cov_47.278978_component_0,1145,1.0
GCF_014858565.1_ASM1485856v1,bin_component_0,NZ_CP062227.1,NODE_1_length_3299_cov_99.949874_component_0,3299,1.0
GCF_019670425.1_ASM1967042v1,bin_component_0,NZ_AP023315.1,NODE_1_length_6981_cov_55.133936_component_0,6981,1.0
GCF_019670425.1_ASM1967042v1,bin_component_0,NZ_AP023316.1,NODE_1_length_6981_cov_55.133936_component_0,6981,1.0
GCF_019670425.1_ASM1967042v1,bin_component_0,NZ_AP023315.1,NODE_2_length_4386_cov_49.000665_component_0,4386,1.0
GCF_019670425.1_ASM1967042v1,bin_component_0,NZ_AP023316.1,NODE_2_length_4386_cov_49.000665_component_0,4386,1.0
GCF_019670425.1_ASM1967042v1,bin_component_0,NZ_AP023315.1,NODE_3_length_2170_cov_54.154185_component_0,2170,1.0
GCF_019670425.1_ASM1967042v1,bin_component_0,NZ_AP023316.1,NODE_3_length_2170_cov_54.154185_component_0,2170,1.0
GCF_001834965.2_ASM183496v2,bin_component_1,NZ_CP075126.1,NODE_2_length_26099_cov_152.295212_component_1,26099,0.01
GCF_001834965.2_ASM183496v2,bin_component_0,NZ_CP075126.1,NODE_1_length_102248_cov_45.800853_component_0,102248,1.0
GCF_001834965.2_ASM183496v2,bin_component_0,NZ_CP075126.1,NODE_3_length_22436_cov_50.768192_component_0,22436,1.0
GCF_001834965.2_ASM183496v2,bin_component_0,NZ_CP075126.1,NODE_5_length_7683_cov_50.698265_component_0,7683,1.0
GCF_001834965.2_ASM183496v2,bin_component_0,NZ_CP075126.1,NODE_8_length_1147_cov_118.678505_component_0,1147,1.0
GCF_001834965.2_ASM183496v2,bin_component_0,NZ_CP075126.1,NODE_8_length_1147_cov_118.678505_component_0,1147,1.0
GCF_001834965.2_ASM183496v2,bin_component_2,NZ_CP075125.1,NODE_4_length_13678_cov_44.727594_component_2,13678,1.0
GCF_001834965.2_ASM183496v2,bin_component_2,NZ_CP075125.1,NODE_6_length_6599_cov_70.387918_component_2,6599,1.0
GCF_001834965.2_ASM183496v2,bin_component_2,NZ_CP075125.1,NODE_7_length_1563_cov_70.815612_component_2,1563,1.0
GCF_001834965.2_ASM183496v2,bin_component_2,NZ_CP075125.1,NODE_7_length_1563_cov_70.815612_component_2,1563,1.0
GCF_001834965.2_ASM183496v2,bin_component_2,NZ_CP075125.1,NODE_7_length_1563_cov_70.815612_component_2,1563,1.0
GCF_019428465.1_ASM1942846v1,bin_component_0,NZ_CP080093.1,NODE_1_length_24533_cov_108.530484_component_0,24533,1.0
GCF_003067765.2_ASM306776v2,bin_component_1,NZ_CP077698.1,NODE_2_length_26157_cov_59.069804_component_1,26157,1.0
GCF_003067765.2_ASM306776v2,bin_component_0,NZ_CP077697.1,NODE_1_length_79804_cov_9.073685_component_0,79804,1.0
GCF_014334255.1_ASM1433425v1,bin_component_4,NZ_CP060525.1,NODE_5_length_2223_cov_2919.612118_component_4,2223,1.0
GCF_014334255.1_ASM1433425v1,bin_component_0,NZ_CP060524.1,NODE_1_length_31357_cov_123.996638_component_0,31357,1.0
GCF_016025415.1_ASM1602541v1,bin_component_1,NZ_CP065570.1,NODE_6_length_5697_cov_137.483124_component_1,5697,1.0
GCF_016025415.1_ASM1602541v1,bin_component_0,NZ_CP065568.1,NODE_1_length_174007_cov_78.413958_component_0,174007,1.0
GCF_016025415.1_ASM1602541v1,bin_component_0,NZ_CP065568.1,NODE_4_length_17017_cov_76.755240_component_0,17017,1.0
GCF_016025415.1_ASM1602541v1,bin_component_0,NZ_CP065568.1,NODE_5_length_14385_cov_78.026511_component_0,14385,1.0
GCF_016025415.1_ASM1602541v1,bin_component_0,NZ_CP065568.1,NODE_7_length_5051_cov_99.296101_component_0,5051,1.0
GCF_016025415.1_ASM1602541v1,bin_component_0,NZ_CP065568.1,NODE_8_length_4769_cov_70.083585_component_0,4769,1.0
GCF_016025415.1_ASM1602541v1,bin_component_0,NZ_CP065568.1,NODE_10_length_4193_cov_79.435563_component_0,4193,1.0
GCF_016025415.1_ASM1602541v1,bin_component_0,NZ_CP065568.1,NODE_11_length_3956_cov_68.849047_component_0,3956,1.0
GCF_016025415.1_ASM1602541v1,bin_component_0,NZ_CP065569.1,NODE_12_length_3922_cov_54.268248_component_0,3922,1.0
GCF_016025415.1_ASM1602541v1,bin_component_0,NZ_CP065568.1,NODE_13_length_3337_cov_76.820561_component_0,3337,1.0
GCF_016025415.1_ASM1602541v1,bin_component_0,NZ_CP065568.1,NODE_14_length_3138_cov_76.620724_component_0,3138,1.0
GCF_016025415.1_ASM1602541v1,bin_component_0,NZ_CP065569.1,NODE_15_length_2440_cov_52.667964_component_0,2440,1.0
GCF_016025415.1_ASM1602541v1,bin_component_0,NZ_CP065568.1,NODE_16_length_2229_cov_80.575167_component_0,2229,1.0
GCF_016025415.1_ASM1602541v1,bin_component_0,NZ_CP065567.1,NODE_17_length_2027_cov_119.042632_component_0,2027,1.0
GCF_016025415.1_ASM1602541v1,bin_component_0,NZ_CP065568.1,NODE_17_length_2027_cov_119.042632_component_0,2027,1.0
GCF_016025415.1_ASM1602541v1,bin_component_0,NZ_CP065568.1,NODE_18_length_1979_cov_92.521058_component_0,1979,1.0
GCF_016025415.1_ASM1602541v1,bin_component_0,NZ_CP065568.1,NODE_19_length_1329_cov_133.663062_component_0,1329,1.0
GCF_016025415.1_ASM1602541v1,bin_component_0,NZ_CP065568.1,NODE_19_length_1329_cov_133.663062_component_0,1329,1.0
GCF_016025415.1_ASM1602541v1,bin_component_0,NZ_CP065567.1,NODE_20_length_1056_cov_42.097955_component_0,1056,1.0
GCF_016025415.1_ASM1602541v1,bin_component_0,NZ_CP065568.1,NODE_21_length_1043_cov_153.786026_component_0,1043,1.0
GCF_016025415.1_ASM1602541v1,bin_component_0,NZ_CP065568.1,NODE_21_length_1043_cov_153.786026_component_0,1043,1.0
GCF_016025415.1_ASM1602541v1,bin_component_2,NZ_CP065571.1,NODE_9_length_4200_cov_141.936411_component_2,4200,1.0
GCF_016454465.1_ASM1645446v1,bin_component_0,NZ_CP051390.1,NODE_1_length_10847_cov_662.694590_component_0,10847,1.0
GCF_020736325.1_ASM2073632v1,bin_component_1,NZ_CP085981.1,NODE_2_length_40478_cov_79.954152_component_1,40478,1.0
GCF_020736325.1_ASM2073632v1,bin_component_3,NZ_CP085981.1,NODE_4_length_15601_cov_37.191289_component_3,15601,1.0
GCF_020736325.1_ASM2073632v1,bin_component_0,NZ_CP085980.1,NODE_1_length_48572_cov_97.518795_component_0,48572,1.0
GCF_020736325.1_ASM2073632v1,bin_component_2,NZ_CP085981.1,NODE_3_length_35228_cov_92.629469_component_2,35228,1.0
GCF_014334235.1_ASM1433423v1,bin_component_1,NZ_CP060520.1,NODE_2_length_4200_cov_845.576234_component_1,4200,0.96
GCF_014334235.1_ASM1433423v1,bin_component_0,NZ_CP060519.1,NODE_1_length_57153_cov_258.442062_component_0,57153,1.0
GCF_014334235.1_ASM1433423v1,bin_component_0,NZ_CP060519.1,NODE_4_length_2699_cov_214.234448_component_0,2699,1.0
GCF_014334235.1_ASM1433423v1,bin_component_0,NZ_CP060519.1,NODE_5_length_1822_cov_496.887906_component_0,1822,1.0
GCF_014334235.1_ASM1433423v1,bin_component_2,NZ_CP060521.1,NODE_3_length_3957_cov_1349.511227_component_2,3957,1.0
