GCF_019903155.1_ASM1990315v1,bin_component_1,0
GCF_019903155.1_ASM1990315v1,bin_component_0,0
GCF_019903155.1_ASM1990315v1,bin_component_2,0
GCF_015910475.1_ASM1591047v1,bin_component_1,1
GCF_015910475.1_ASM1591047v1,bin_component_0,1
GCF_015910475.1_ASM1591047v1,bin_component_2,0
GCF_013372085.1_ASM1337208v1,bin_component_1,0
GCF_013372085.1_ASM1337208v1,bin_component_0,1
GCF_013372085.1_ASM1337208v1,bin_component_2,0
GCF_020985285.1_ASM2098528v1,bin_component_1,0
GCF_020985285.1_ASM2098528v1,bin_component_0,0
GCF_019458485.1_ASM1945848v1,bin_component_1,0
GCF_019458485.1_ASM1945848v1,bin_component_3,0
GCF_019458485.1_ASM1945848v1,bin_component_4,0
GCF_019458485.1_ASM1945848v1,bin_component_0,2
GCF_019458485.1_ASM1945848v1,bin_component_2,0
GCF_014705825.1_ASM1470582v1,bin_component_1,0
GCF_014705825.1_ASM1470582v1,bin_component_0,3
GCF_005519135.2_ASM551913v2,bin_component_1,0
GCF_005519135.2_ASM551913v2,bin_component_0,0
GCF_014705865.1_ASM1470586v1,bin_component_1,0
GCF_014705865.1_ASM1470586v1,bin_component_0,3
GCF_014705865.1_ASM1470586v1,bin_component_2,1
GCF_016919525.1_ASM1691952v2,bin_component_1,0
GCF_016919525.1_ASM1691952v2,bin_component_3,1
GCF_016919525.1_ASM1691952v2,bin_component_4,0
GCF_016919525.1_ASM1691952v2,bin_component_0,0
GCF_016919525.1_ASM1691952v2,bin_component_2,0
GCF_016919525.1_ASM1691952v2,bin_component_5,0
GCF_018135585.1_ASM1813558v1,bin_component_0,0
GCF_018604365.1_ASM1860436v1,bin_component_1,0
GCF_018604365.1_ASM1860436v1,bin_component_0,2
GCF_018604365.1_ASM1860436v1,bin_component_2,0
GCF_019703285.1_ASM1970328v1,bin_component_1,0
GCF_019703285.1_ASM1970328v1,bin_component_0,1
GCF_019703285.1_ASM1970328v1,bin_component_2,0
GCF_014322245.1_ASM1432224v1,bin_component_7,0
GCF_014322245.1_ASM1432224v1,bin_component_1,0
GCF_014322245.1_ASM1432224v1,bin_component_3,0
GCF_014322245.1_ASM1432224v1,bin_component_4,0
GCF_014322245.1_ASM1432224v1,bin_component_0,0
GCF_014322245.1_ASM1432224v1,bin_component_2,0
GCF_014322245.1_ASM1432224v1,bin_component_6,0
GCF_014322245.1_ASM1432224v1,bin_component_5,0
GCF_014322245.1_ASM1432224v1,bin_component_8,0
GCF_016903135.1_ASM1690313v1,bin_component_1,0
GCF_016903135.1_ASM1690313v1,bin_component_0,1
GCF_018831125.1_ASM1883112v1,bin_component_1,0
GCF_018831125.1_ASM1883112v1,bin_component_0,1
GCF_017753625.1_ASM1775362v1,bin_component_1,0
GCF_017753625.1_ASM1775362v1,bin_component_3,0
GCF_017753625.1_ASM1775362v1,bin_component_0,0
GCF_017753625.1_ASM1775362v1,bin_component_2,0
GCF_014159355.1_ASM1415935v1,bin_component_1,1
GCF_014159355.1_ASM1415935v1,bin_component_0,0
GCF_019903235.1_ASM1990323v1,bin_component_1,0
GCF_019903235.1_ASM1990323v1,bin_component_0,4
GCF_019903215.1_ASM1990321v1,bin_component_0,0
GCF_016919505.2_ASM1691950v2,bin_component_7,0
GCF_016919505.2_ASM1691950v2,bin_component_1,0
GCF_016919505.2_ASM1691950v2,bin_component_3,0
GCF_016919505.2_ASM1691950v2,bin_component_4,0
GCF_016919505.2_ASM1691950v2,bin_component_0,0
GCF_016919505.2_ASM1691950v2,bin_component_2,0
GCF_016919505.2_ASM1691950v2,bin_component_6,1
GCF_016919505.2_ASM1691950v2,bin_component_5,0
GCF_016919505.2_ASM1691950v2,bin_component_8,0
GCF_020810655.1_ASM2081065v1,bin_component_0,0
GCF_021609965.1_ASM2160996v1,bin_component_1,0
GCF_021609965.1_ASM2160996v1,bin_component_3,0
GCF_021609965.1_ASM2160996v1,bin_component_4,0
GCF_021609965.1_ASM2160996v1,bin_component_0,2
GCF_021609965.1_ASM2160996v1,bin_component_2,0
GCF_014705885.1_ASM1470588v1,bin_component_1,0
GCF_014705885.1_ASM1470588v1,bin_component_0,0
GCF_014705885.1_ASM1470588v1,bin_component_2,0
GCF_018831485.1_ASM1883148v1,bin_component_0,0
GCF_016903215.1_ASM1690321v1,bin_component_0,0
GCF_018808925.1_ASM1880892v1,bin_component_1,0
GCF_018808925.1_ASM1880892v1,bin_component_0,1
GCF_020132105.1_ASM2013210v1,bin_component_0,0
GCF_013787185.1_ASM1378718v1,bin_component_7,0
GCF_013787185.1_ASM1378718v1,bin_component_1,0
GCF_013787185.1_ASM1378718v1,bin_component_3,0
GCF_013787185.1_ASM1378718v1,bin_component_4,0
GCF_013787185.1_ASM1378718v1,bin_component_0,0
GCF_013787185.1_ASM1378718v1,bin_component_2,0
GCF_013787185.1_ASM1378718v1,bin_component_6,0
GCF_013787185.1_ASM1378718v1,bin_component_5,0
GCF_021484905.1_ASM2148490v1,bin_component_1,0
GCF_021484905.1_ASM2148490v1,bin_component_3,0
GCF_021484905.1_ASM2148490v1,bin_component_4,0
GCF_021484905.1_ASM2148490v1,bin_component_0,2
GCF_021484905.1_ASM2148490v1,bin_component_2,0
GCF_014169655.1_ASM1416965v1,bin_component_1,0
GCF_014169655.1_ASM1416965v1,bin_component_0,0
GCF_014169655.1_ASM1416965v1,bin_component_2,0
GCF_014705805.1_ASM1470580v1,bin_component_1,0
GCF_014705805.1_ASM1470580v1,bin_component_0,0
GCF_015732435.1_ASM1573243v1,bin_component_1,0
GCF_015732435.1_ASM1573243v1,bin_component_0,8
GCF_015732435.1_ASM1573243v1,bin_component_2,1
GCF_014705785.1_ASM1470578v1,bin_component_1,0
GCF_014705785.1_ASM1470578v1,bin_component_0,2
GCF_014705845.1_ASM1470584v1,bin_component_1,0
GCF_014705845.1_ASM1470584v1,bin_component_0,3
GCF_016127515.1_ASM1612751v1,bin_component_1,0
GCF_016127515.1_ASM1612751v1,bin_component_0,1
GCF_016127515.1_ASM1612751v1,bin_component_2,0
