GCF_019903155.1_ASM1990315v1,bin_component_1,NZ_CP059544.1,55
GCF_019903155.1_ASM1990315v1,bin_component_0,NZ_CP059543.1,77
GCF_019903155.1_ASM1990315v1,bin_component_2,NZ_CP059545.1,77
GCF_015910475.1_ASM1591047v1,bin_component_1,NZ_CP065434.1,247
GCF_015910475.1_ASM1591047v1,bin_component_1,NZ_CP065433.1,381
GCF_013372085.1_ASM1337208v1,bin_component_1,NZ_CP053099.1,77
GCF_013372085.1_ASM1337208v1,bin_component_2,NZ_CP053100.1,77
GCF_020985285.1_ASM2098528v1,bin_component_1,NZ_CP087596.1,77
GCF_020985285.1_ASM2098528v1,bin_component_0,NZ_CP087595.1,77
GCF_019458485.1_ASM1945848v1,bin_component_1,NZ_CP080456.1,127
GCF_019458485.1_ASM1945848v1,bin_component_0,NZ_CP080452.1,254
GCF_014705825.1_ASM1470582v1,bin_component_1,NZ_CP061526.1,127
GCF_014705825.1_ASM1470582v1,bin_component_0,NZ_CP061525.1,1430
GCF_005519135.2_ASM551913v2,bin_component_1,NZ_CP031381.2,127
GCF_005519135.2_ASM551913v2,bin_component_0,NZ_CP031382.1,424
GCF_014705865.1_ASM1470586v1,bin_component_1,NZ_CP061522.1,139
GCF_014705865.1_ASM1470586v1,bin_component_0,NZ_CP061521.1,1142
GCF_014705865.1_ASM1470586v1,bin_component_2,NZ_CP061521.1,254
GCF_016919525.1_ASM1691952v2,bin_component_4,NZ_CP070360.1,127
GCF_016919525.1_ASM1691952v2,bin_component_5,NZ_CP070359.1,127
GCF_018604365.1_ASM1860436v1,bin_component_1,NZ_CP071763.1,77
GCF_019703285.1_ASM1970328v1,bin_component_0,NZ_AP024804.1,6
GCF_019703285.1_ASM1970328v1,bin_component_0,NZ_AP024806.1,55
GCF_019703285.1_ASM1970328v1,bin_component_0,NZ_AP024805.1,60
GCF_019703285.1_ASM1970328v1,bin_component_0,NZ_AP024802.1,55
GCF_014322245.1_ASM1432224v1,bin_component_2,NZ_CP047976.1,77
GCF_016903135.1_ASM1690313v1,bin_component_1,NZ_CP069842.1,77
GCF_016903135.1_ASM1690313v1,bin_component_0,NZ_CP069841.1,154
GCF_018831125.1_ASM1883112v1,bin_component_0,NZ_CP048134.1,55
GCF_018831125.1_ASM1883112v1,bin_component_0,NZ_CP048135.1,110
GCF_017753625.1_ASM1775362v1,bin_component_0,NZ_CP072529.1,154
GCF_019903235.1_ASM1990323v1,bin_component_0,NZ_CP061706.1,215
GCF_019903235.1_ASM1990323v1,bin_component_0,NZ_CP061707.1,154
GCF_019903235.1_ASM1990323v1,bin_component_0,NZ_CP061708.1,93
GCF_019903235.1_ASM1990323v1,bin_component_0,NZ_CP061712.1,77
GCF_019903235.1_ASM1990323v1,bin_component_0,NZ_CP061711.1,620
GCF_019903235.1_ASM1990323v1,bin_component_0,NZ_CP061710.1,76
GCF_019903235.1_ASM1990323v1,bin_component_0,NZ_CP061705.1,154
GCF_016919505.2_ASM1691950v2,bin_component_6,NZ_CP070362.2,254
GCF_016919505.2_ASM1691950v2,bin_component_5,NZ_CP070364.1,127
GCF_016919505.2_ASM1691950v2,bin_component_8,NZ_CP070363.1,127
GCF_021609965.1_ASM2160996v1,bin_component_0,NZ_CP091172.1,254
GCF_018831485.1_ASM1883148v1,bin_component_0,NZ_CP049315.1,77
GCF_016903215.1_ASM1690321v1,bin_component_0,NZ_CP069852.1,77
GCF_018808925.1_ASM1880892v1,bin_component_0,NZ_CP048849.1,110
GCF_020132105.1_ASM2013210v1,bin_component_0,NZ_CP082953.1,77
GCF_013787185.1_ASM1378718v1,bin_component_3,NZ_CP059388.1,127
GCF_014169655.1_ASM1416965v1,bin_component_0,NZ_AP022239.1,77
GCF_014169655.1_ASM1416965v1,bin_component_2,NZ_AP022240.1,77
GCF_015732435.1_ASM1573243v1,bin_component_0,NZ_CP060732.1,770
GCF_015732435.1_ASM1573243v1,bin_component_2,NZ_CP060732.1,77
GCF_014705785.1_ASM1470578v1,bin_component_0,NZ_CP061517.1,507
GCF_014705845.1_ASM1470584v1,bin_component_0,NZ_CP061523.1,762
GCF_016127515.1_ASM1612751v1,bin_component_0,NZ_CP066016.1,77
