GCF_022648595.1_ASM2264859v1,bin_component_0,6
GCF_022648425.1_ASM2264842v1,bin_component_0,8
GCF_013344605.1_ASM1334460v1,bin_component_1,0
GCF_013344605.1_ASM1334460v1,bin_component_0,2
GCF_013344605.1_ASM1334460v1,bin_component_2,0
GCF_906464895.1_WE0851,bin_component_1,0
GCF_906464895.1_WE0851,bin_component_0,4
GCF_906464895.1_WE0851,bin_component_2,0
GCF_906464925.1_BX5936,bin_component_1,0
GCF_906464925.1_BX5936,bin_component_0,2
GCF_020844125.1_ASM2084412v1,bin_component_1,0
GCF_020844125.1_ASM2084412v1,bin_component_0,0
GCF_906464875.1_BX8117,bin_component_1,0
GCF_906464875.1_BX8117,bin_component_0,0
GCF_906464835.1_TM6294,bin_component_1,2
GCF_906464835.1_TM6294,bin_component_0,2
GCF_013344645.1_ASM1334464v1,bin_component_0,0
GCF_013344625.1_ASM1334462v1,bin_component_0,0
GCF_021655635.1_ASM2165563v1,bin_component_0,0
GCF_022648285.1_ASM2264828v1,bin_component_0,8
GCF_906464865.1_WE0438,bin_component_1,0
GCF_906464865.1_WE0438,bin_component_0,0
GCF_906464865.1_WE0438,bin_component_2,0
GCF_013344665.1_ASM1334466v1,bin_component_0,1
GCF_906464915.2_WE0254,bin_component_1,0
GCF_906464915.2_WE0254,bin_component_3,0
GCF_906464915.2_WE0254,bin_component_0,2
GCF_906464915.2_WE0254,bin_component_2,0
