GCF_022648595.1_ASM2264859v1,bin_component_0,NZ_CP076499.1,NODE_1_length_39288_cov_138.362857_component_0,39288,1.0
GCF_022648595.1_ASM2264859v1,bin_component_0,NZ_CP076500.1,NODE_2_length_35343_cov_143.195854_component_0,35343,1.0
GCF_022648595.1_ASM2264859v1,bin_component_0,NZ_CP076501.1,NODE_3_length_33391_cov_137.308849_component_0,33391,1.0
GCF_022648595.1_ASM2264859v1,bin_component_0,NZ_CP076499.1,NODE_4_length_19606_cov_166.058836_component_0,19606,1.0
GCF_022648595.1_ASM2264859v1,bin_component_0,NZ_CP076500.1,NODE_5_length_18474_cov_163.584389_component_0,18474,0.03,1,569
GCF_022648595.1_ASM2264859v1,bin_component_0,NZ_CP076500.1,NODE_5_length_18474_cov_163.584389_component_0,18474,0.9,572,17216
GCF_022648595.1_ASM2264859v1,bin_component_0,NZ_CP076499.1,NODE_5_length_18474_cov_163.584389_component_0,18474,0.07,17217,18474
GCF_022648595.1_ASM2264859v1,bin_component_0,NZ_CP076499.1,NODE_6_length_13089_cov_152.227482_component_0,13089,1.0
GCF_022648595.1_ASM2264859v1,bin_component_0,NZ_CP076499.1,NODE_7_length_10567_cov_161.852336_component_0,10567,1.0
GCF_022648595.1_ASM2264859v1,bin_component_0,NZ_CP076502.1,NODE_8_length_9877_cov_191.197041_component_0,9877,1.0
GCF_022648595.1_ASM2264859v1,bin_component_0,NZ_CP076502.1,NODE_9_length_7007_cov_163.607937_component_0,7007,0.99
GCF_022648595.1_ASM2264859v1,bin_component_0,NZ_CP076502.1,NODE_10_length_5658_cov_166.608135_component_0,5658,1.0
GCF_022648595.1_ASM2264859v1,bin_component_0,NZ_CP076499.1,NODE_11_length_5183_cov_147.770466_component_0,5183,1.0
GCF_022648595.1_ASM2264859v1,bin_component_0,NZ_CP076499.1,NODE_12_length_4746_cov_161.556436_component_0,4746,1.0
GCF_022648595.1_ASM2264859v1,bin_component_0,NZ_CP076499.1,NODE_13_length_4549_cov_146.845930_component_0,4549,1.0
GCF_022648595.1_ASM2264859v1,bin_component_0,NZ_CP076499.1,NODE_14_length_3945_cov_328.401758_component_0,3945,1.0
GCF_022648595.1_ASM2264859v1,bin_component_0,NZ_CP076502.1,NODE_14_length_3945_cov_328.401758_component_0,3945,1.0
GCF_022648595.1_ASM2264859v1,bin_component_0,NZ_CP076499.1,NODE_15_length_3131_cov_315.626392_component_0,3131,1.0
GCF_022648595.1_ASM2264859v1,bin_component_0,NZ_CP076499.1,NODE_15_length_3131_cov_315.626392_component_0,3131,1.0
GCF_022648595.1_ASM2264859v1,bin_component_0,NZ_CP076502.1,NODE_16_length_2977_cov_159.063448_component_0,2977,1.0
GCF_022648595.1_ASM2264859v1,bin_component_0,NZ_CP076501.1,NODE_17_length_2444_cov_243.522602_component_0,2444,1.0
GCF_022648595.1_ASM2264859v1,bin_component_0,NZ_CP076501.1,NODE_18_length_2335_cov_225.446413_component_0,2335,1.0
GCF_022648595.1_ASM2264859v1,bin_component_0,NZ_CP076498.1,NODE_18_length_2335_cov_225.446413_component_0,2335,1.0
GCF_022648595.1_ASM2264859v1,bin_component_0,NZ_CP076501.1,NODE_19_length_1605_cov_192.145942_component_0,1605,1.0
GCF_022648595.1_ASM2264859v1,bin_component_0,NZ_CP076501.1,NODE_20_length_1574_cov_225.680027_component_0,1574,1.0
GCF_022648595.1_ASM2264859v1,bin_component_0,NZ_CP076501.1,NODE_21_length_1426_cov_248.438844_component_0,1426,1.0
GCF_022648595.1_ASM2264859v1,bin_component_0,NZ_CP076498.1,NODE_21_length_1426_cov_248.438844_component_0,1426,1.0
GCF_022648595.1_ASM2264859v1,bin_component_0,NZ_CP076502.1,NODE_22_length_1381_cov_167.940951_component_0,1381,1.0
GCF_022648595.1_ASM2264859v1,bin_component_0,NZ_CP076501.1,NODE_23_length_1296_cov_137.491386_component_0,1296,1.0
GCF_022648595.1_ASM2264859v1,bin_component_0,NZ_CP076498.1,NODE_24_length_1244_cov_775.868038_component_0,1244,1.0
GCF_022648595.1_ASM2264859v1,bin_component_0,NZ_CP076498.1,NODE_24_length_1244_cov_775.868038_component_0,1244,1.0
GCF_022648595.1_ASM2264859v1,bin_component_0,NZ_CP076498.1,NODE_24_length_1244_cov_775.868038_component_0,1244,1.0
GCF_022648595.1_ASM2264859v1,bin_component_0,NZ_CP076502.1,NODE_24_length_1244_cov_775.868038_component_0,1244,1.0
GCF_022648595.1_ASM2264859v1,bin_component_0,NZ_CP076498.1,NODE_24_length_1244_cov_775.868038_component_0,1244,1.0
GCF_022648595.1_ASM2264859v1,bin_component_0,NZ_CP076499.1,NODE_24_length_1244_cov_775.868038_component_0,1244,1.0
GCF_022648595.1_ASM2264859v1,bin_component_0,NZ_CP076498.1,NODE_24_length_1244_cov_775.868038_component_0,1244,1.0
GCF_022648595.1_ASM2264859v1,bin_component_0,NZ_CP076500.1,NODE_25_length_1190_cov_138.044025_component_0,1190,1.0
GCF_022648595.1_ASM2264859v1,bin_component_0,NZ_CP076501.1,NODE_26_length_1144_cov_144.692596_component_0,1144,1.0
GCF_022648595.1_ASM2264859v1,bin_component_0,NZ_CP076499.1,NODE_27_length_1036_cov_306.368092_component_0,1036,1.0
GCF_022648595.1_ASM2264859v1,bin_component_0,NZ_CP076500.1,NODE_27_length_1036_cov_306.368092_component_0,1036,1.0
GCF_022648425.1_ASM2264842v1,bin_component_0,NZ_CP076494.1,NODE_1_length_39288_cov_158.797582_component_0,39288,1.0
GCF_022648425.1_ASM2264842v1,bin_component_0,NZ_CP076495.1,NODE_2_length_35343_cov_163.396756_component_0,35343,1.0
GCF_022648425.1_ASM2264842v1,bin_component_0,NZ_CP076496.1,NODE_3_length_33391_cov_158.278111_component_0,33391,0.99
GCF_022648425.1_ASM2264842v1,bin_component_0,NZ_CP076494.1,NODE_4_length_19606_cov_188.333658_component_0,19606,1.0
GCF_022648425.1_ASM2264842v1,bin_component_0,NZ_CP076495.1,NODE_5_length_14178_cov_166.936387_component_0,14178,0.99
GCF_022648425.1_ASM2264842v1,bin_component_0,NZ_CP076494.1,NODE_6_length_13089_cov_173.370581_component_0,13089,1.0
GCF_022648425.1_ASM2264842v1,bin_component_0,NZ_CP076494.1,NODE_7_length_10567_cov_190.289990_component_0,10567,1.0
GCF_022648425.1_ASM2264842v1,bin_component_0,NZ_CP076497.1,NODE_8_length_9877_cov_218.029592_component_0,9877,0.99
GCF_022648425.1_ASM2264842v1,bin_component_0,NZ_CP076497.1,NODE_9_length_7007_cov_197.074747_component_0,7007,1.0
GCF_022648425.1_ASM2264842v1,bin_component_0,NZ_CP076497.1,NODE_10_length_5658_cov_195.684465_component_0,5658,1.0
GCF_022648425.1_ASM2264842v1,bin_component_0,NZ_CP076494.1,NODE_11_length_5183_cov_171.300431_component_0,5183,1.0
GCF_022648425.1_ASM2264842v1,bin_component_0,NZ_CP076494.1,NODE_12_length_4746_cov_185.562861_component_0,4746,1.0
GCF_022648425.1_ASM2264842v1,bin_component_0,NZ_CP076494.1,NODE_13_length_4549_cov_171.112701_component_0,4549,0.98
GCF_022648425.1_ASM2264842v1,bin_component_0,NZ_CP076494.1,NODE_14_length_3945_cov_373.202947_component_0,3945,1.0
GCF_022648425.1_ASM2264842v1,bin_component_0,NZ_CP076497.1,NODE_14_length_3945_cov_373.202947_component_0,3945,1.0
GCF_022648425.1_ASM2264842v1,bin_component_0,NZ_CP076494.1,NODE_15_length_3131_cov_356.889325_component_0,3131,1.0
GCF_022648425.1_ASM2264842v1,bin_component_0,NZ_CP076494.1,NODE_15_length_3131_cov_356.889325_component_0,3131,1.0
GCF_022648425.1_ASM2264842v1,bin_component_0,NZ_CP076497.1,NODE_16_length_2977_cov_191.216897_component_0,2977,1.0
GCF_022648425.1_ASM2264842v1,bin_component_0,NZ_CP076496.1,NODE_17_length_2444_cov_278.630756_component_0,2444,1.0
GCF_022648425.1_ASM2264842v1,bin_component_0,NZ_CP076493.1,NODE_17_length_2444_cov_278.630756_component_0,2444,1.0
GCF_022648425.1_ASM2264842v1,bin_component_0,NZ_CP076494.1,NODE_18_length_2342_cov_323.434437_component_0,2342,1.0
GCF_022648425.1_ASM2264842v1,bin_component_0,NZ_CP076495.1,NODE_18_length_2342_cov_323.434437_component_0,2342,1.0
GCF_022648425.1_ASM2264842v1,bin_component_0,NZ_CP076496.1,NODE_19_length_2335_cov_275.871125_component_0,2335,1.0
GCF_022648425.1_ASM2264842v1,bin_component_0,NZ_CP076493.1,NODE_19_length_2335_cov_275.871125_component_0,2335,1.0
GCF_022648425.1_ASM2264842v1,bin_component_0,NZ_CP076494.1,NODE_20_length_1891_cov_143.532525_component_0,1891,1.0
GCF_022648425.1_ASM2264842v1,bin_component_0,NZ_CP076496.1,NODE_21_length_1605_cov_213.698298_component_0,1605,1.0
GCF_022648425.1_ASM2264842v1,bin_component_0,NZ_CP076496.1,NODE_22_length_1574_cov_258.469606_component_0,1574,1.0
GCF_022648425.1_ASM2264842v1,bin_component_0,NZ_CP076496.1,NODE_23_length_1426_cov_277.930319_component_0,1426,1.0
GCF_022648425.1_ASM2264842v1,bin_component_0,NZ_CP076493.1,NODE_23_length_1426_cov_277.930319_component_0,1426,1.0
GCF_022648425.1_ASM2264842v1,bin_component_0,NZ_CP076497.1,NODE_24_length_1381_cov_193.629601_component_0,1381,1.0
GCF_022648425.1_ASM2264842v1,bin_component_0,NZ_CP076494.1,NODE_25_length_1317_cov_201.132258_component_0,1317,1.0
GCF_022648425.1_ASM2264842v1,bin_component_0,NZ_CP076496.1,NODE_26_length_1296_cov_164.803938_component_0,1296,1.0
GCF_022648425.1_ASM2264842v1,bin_component_0,NZ_CP076493.1,NODE_27_length_1244_cov_896.502142_component_0,1244,1.0
GCF_022648425.1_ASM2264842v1,bin_component_0,NZ_CP076497.1,NODE_27_length_1244_cov_896.502142_component_0,1244,1.0
GCF_022648425.1_ASM2264842v1,bin_component_0,NZ_CP076493.1,NODE_27_length_1244_cov_896.502142_component_0,1244,1.0
GCF_022648425.1_ASM2264842v1,bin_component_0,NZ_CP076493.1,NODE_27_length_1244_cov_896.502142_component_0,1244,1.0
GCF_022648425.1_ASM2264842v1,bin_component_0,NZ_CP076493.1,NODE_27_length_1244_cov_896.502142_component_0,1244,1.0
GCF_022648425.1_ASM2264842v1,bin_component_0,NZ_CP076494.1,NODE_27_length_1244_cov_896.502142_component_0,1244,1.0
GCF_022648425.1_ASM2264842v1,bin_component_0,NZ_CP076493.1,NODE_27_length_1244_cov_896.502142_component_0,1244,1.0
GCF_022648425.1_ASM2264842v1,bin_component_0,NZ_CP076495.1,NODE_28_length_1190_cov_154.318958_component_0,1190,1.0
GCF_022648425.1_ASM2264842v1,bin_component_0,NZ_CP076496.1,NODE_29_length_1144_cov_159.843486_component_0,1144,1.0
GCF_022648425.1_ASM2264842v1,bin_component_0,NZ_CP076494.1,NODE_30_length_1036_cov_339.866528_component_0,1036,1.0
GCF_022648425.1_ASM2264842v1,bin_component_0,NZ_CP076495.1,NODE_30_length_1036_cov_339.866528_component_0,1036,1.0
GCF_013344605.1_ASM1334460v1,bin_component_1,NZ_CP046108.1,NODE_1_length_150704_cov_419.999090_component_1,150704,1.0
GCF_013344605.1_ASM1334460v1,bin_component_0,NZ_CP046109.1,NODE_2_length_64325_cov_1050.976728_component_0,64325,1.0
GCF_013344605.1_ASM1334460v1,bin_component_0,NZ_CP046108.1,NODE_3_length_60165_cov_445.632982_component_0,60165,1.0
GCF_013344605.1_ASM1334460v1,bin_component_0,NZ_CP046110.1,NODE_4_length_25227_cov_933.711833_component_0,25227,1.0
GCF_013344605.1_ASM1334460v1,bin_component_0,NZ_CP046108.1,NODE_5_length_21762_cov_390.783961_component_0,21762,1.0
GCF_013344605.1_ASM1334460v1,bin_component_0,NZ_CP046110.1,NODE_6_length_19414_cov_865.266864_component_0,19414,1.0
GCF_013344605.1_ASM1334460v1,bin_component_0,NZ_CP046109.1,NODE_8_length_5882_cov_1671.972546_component_0,5882,1.0
GCF_013344605.1_ASM1334460v1,bin_component_0,NZ_CP046110.1,NODE_8_length_5882_cov_1671.972546_component_0,5882,1.0
GCF_013344605.1_ASM1334460v1,bin_component_0,NZ_CP046108.1,NODE_8_length_5882_cov_1671.972546_component_0,5882,1.0
GCF_013344605.1_ASM1334460v1,bin_component_0,NZ_CP046109.1,NODE_9_length_2251_cov_1997.527778_component_0,2251,1.0
GCF_013344605.1_ASM1334460v1,bin_component_0,NZ_CP046110.1,NODE_9_length_2251_cov_1997.527778_component_0,2251,1.0
GCF_013344605.1_ASM1334460v1,bin_component_0,NZ_CP046108.1,NODE_10_length_1784_cov_199.377188_component_0,1784,1.0
GCF_013344605.1_ASM1334460v1,bin_component_2,NZ_CP046108.1,NODE_7_length_13340_cov_393.170438_component_2,13340,1.0
GCF_906464895.1_WE0851,bin_component_1,NZ_OD940422.1,NODE_2_length_73532_cov_109.247104_component_1,73532,1.0
GCF_906464895.1_WE0851,bin_component_0,NZ_OD940422.1,NODE_1_length_84206_cov_99.144599_component_0,84206,1.0
GCF_906464895.1_WE0851,bin_component_0,NZ_OD940422.1,NODE_3_length_37142_cov_118.973641_component_0,37142,1.0
GCF_906464895.1_WE0851,bin_component_0,NZ_OD940422.1,NODE_6_length_7379_cov_49.009313_component_0,7379,1.0
GCF_906464895.1_WE0851,bin_component_0,NZ_OD940422.1,NODE_7_length_7335_cov_44.534996_component_0,7335,1.0
GCF_906464895.1_WE0851,bin_component_0,NZ_OD940422.1,NODE_11_length_3283_cov_503.514036_component_0,3283,1.0
GCF_906464895.1_WE0851,bin_component_0,NZ_OD940422.1,NODE_11_length_3283_cov_503.514036_component_0,3283,1.0
GCF_906464895.1_WE0851,bin_component_0,NZ_OD940422.1,NODE_11_length_3283_cov_503.514036_component_0,3283,1.0
GCF_906464895.1_WE0851,bin_component_0,NZ_OD940422.1,NODE_11_length_3283_cov_503.514036_component_0,3283,1.0
GCF_906464895.1_WE0851,bin_component_0,NZ_OD940422.1,NODE_12_length_2489_cov_129.030680_component_0,2489,0.97
GCF_906464895.1_WE0851,bin_component_0,NZ_OD940422.1,NODE_14_length_1835_cov_500.470990_component_0,1835,1.0
GCF_906464895.1_WE0851,bin_component_0,NZ_OD940422.1,NODE_14_length_1835_cov_500.470990_component_0,1835,1.0
GCF_906464895.1_WE0851,bin_component_0,NZ_OD940422.1,NODE_14_length_1835_cov_500.470990_component_0,1835,1.0
GCF_906464895.1_WE0851,bin_component_0,NZ_OD940422.1,NODE_14_length_1835_cov_500.470990_component_0,1835,1.0
GCF_906464895.1_WE0851,bin_component_0,NZ_OD940422.1,NODE_16_length_1436_cov_23.924945_component_0,1436,1.0
GCF_906464895.1_WE0851,bin_component_0,NZ_OD940422.1,NODE_17_length_1338_cov_474.295004_component_0,1338,1.0
GCF_906464895.1_WE0851,bin_component_0,NZ_OD940422.1,NODE_17_length_1338_cov_474.295004_component_0,1338,1.0
GCF_906464895.1_WE0851,bin_component_0,NZ_OD940422.1,NODE_17_length_1338_cov_474.295004_component_0,1338,1.0
GCF_906464895.1_WE0851,bin_component_0,NZ_OD940422.1,NODE_17_length_1338_cov_474.295004_component_0,1338,1.0
GCF_906464895.1_WE0851,bin_component_0,NZ_OD940422.1,NODE_18_length_1325_cov_1293.812500_component_0,1325,1.0
GCF_906464895.1_WE0851,bin_component_0,NZ_OD940422.1,NODE_18_length_1325_cov_1293.812500_component_0,1325,1.0
GCF_906464895.1_WE0851,bin_component_0,NZ_OD940422.1,NODE_18_length_1325_cov_1293.812500_component_0,1325,1.0
GCF_906464895.1_WE0851,bin_component_0,NZ_OD940422.1,NODE_18_length_1325_cov_1293.812500_component_0,1325,1.0
GCF_906464895.1_WE0851,bin_component_0,NZ_OD940422.1,NODE_18_length_1325_cov_1293.812500_component_0,1325,1.0
GCF_906464895.1_WE0851,bin_component_0,NZ_OD940422.1,NODE_18_length_1325_cov_1293.812500_component_0,1325,1.0
GCF_906464895.1_WE0851,bin_component_0,NZ_OD940422.1,NODE_18_length_1325_cov_1293.812500_component_0,1325,1.0
GCF_906464895.1_WE0851,bin_component_0,NZ_OD940422.1,NODE_18_length_1325_cov_1293.812500_component_0,1325,1.0
GCF_906464895.1_WE0851,bin_component_0,NZ_OD940422.1,NODE_18_length_1325_cov_1293.812500_component_0,1325,1.0
GCF_906464895.1_WE0851,bin_component_0,NZ_OD940422.1,NODE_18_length_1325_cov_1293.812500_component_0,1325,1.0
GCF_906464895.1_WE0851,bin_component_0,NZ_OD940422.1,NODE_18_length_1325_cov_1293.812500_component_0,1325,1.0
GCF_906464895.1_WE0851,bin_component_0,NZ_OD940422.1,NODE_18_length_1325_cov_1293.812500_component_0,1325,1.0
GCF_906464895.1_WE0851,bin_component_0,NZ_OD940422.1,NODE_18_length_1325_cov_1293.812500_component_0,1325,1.0
GCF_906464895.1_WE0851,bin_component_0,NZ_OD940422.1,NODE_19_length_1215_cov_441.330404_component_0,1215,1.0
GCF_906464895.1_WE0851,bin_component_2,NZ_OD940422.1,NODE_4_length_12841_cov_105.735193_component_2,12841,1.0
GCF_906464895.1_WE0851,bin_component_2,NZ_OD940424.1,NODE_5_length_10505_cov_225.095033_component_2,10505,1.0
GCF_906464895.1_WE0851,bin_component_2,NZ_OD940424.1,NODE_8_length_6457_cov_174.997335_component_2,6457,1.0
GCF_906464895.1_WE0851,bin_component_2,NZ_OD940424.1,NODE_9_length_4030_cov_161.935492_component_2,4030,1.0
GCF_906464895.1_WE0851,bin_component_2,NZ_OD940424.1,NODE_10_length_3612_cov_271.814710_component_2,3612,1.0
GCF_906464895.1_WE0851,bin_component_2,NZ_OD940427.1,NODE_13_length_2109_cov_38.748524_component_2,2109,0.93
GCF_906464925.1_BX5936,bin_component_1,NZ_OD940434.1,NODE_6_length_41197_cov_137.942826_component_1,41197,1.0
GCF_906464925.1_BX5936,bin_component_0,NZ_OD940434.1,NODE_1_length_267864_cov_74.877320_component_0,267864,1.0
GCF_906464925.1_BX5936,bin_component_0,NZ_OD940434.1,NODE_2_length_153823_cov_142.790258_component_0,153823,1.0
GCF_906464925.1_BX5936,bin_component_0,NZ_OD940434.1,NODE_3_length_147408_cov_150.600586_component_0,147408,1.0
GCF_906464925.1_BX5936,bin_component_0,NZ_OD940434.1,NODE_4_length_100974_cov_143.778289_component_0,100974,1.0
GCF_906464925.1_BX5936,bin_component_0,NZ_OD940434.1,NODE_5_length_55750_cov_139.722594_component_0,55750,1.0
GCF_906464925.1_BX5936,bin_component_0,NZ_OD940434.1,NODE_7_length_24079_cov_150.387926_component_0,24079,1.0
GCF_906464925.1_BX5936,bin_component_0,NZ_OD940434.1,NODE_8_length_7181_cov_45.964949_component_0,7181,1.0
GCF_906464925.1_BX5936,bin_component_0,NZ_OD940434.1,NODE_9_length_3384_cov_748.044149_component_0,3384,1.0
GCF_906464925.1_BX5936,bin_component_0,NZ_OD940434.1,NODE_9_length_3384_cov_748.044149_component_0,3384,1.0
GCF_906464925.1_BX5936,bin_component_0,NZ_OD940434.1,NODE_10_length_2428_cov_55.985963_component_0,2428,1.0
GCF_906464925.1_BX5936,bin_component_0,NZ_OD940435.1,NODE_11_length_2119_cov_139.938296_component_0,2119,1.0
GCF_906464925.1_BX5936,bin_component_0,NZ_OD940434.1,NODE_12_length_1879_cov_139.153718_component_0,1879,0.95
GCF_906464925.1_BX5936,bin_component_0,NZ_OD940434.1,NODE_13_length_1753_cov_767.707637_component_0,1753,1.0
GCF_906464925.1_BX5936,bin_component_0,NZ_OD940434.1,NODE_13_length_1753_cov_767.707637_component_0,1753,1.0
GCF_906464925.1_BX5936,bin_component_0,NZ_OD940434.1,NODE_13_length_1753_cov_767.707637_component_0,1753,1.0
GCF_906464925.1_BX5936,bin_component_0,NZ_OD940434.1,NODE_13_length_1753_cov_767.707637_component_0,1753,1.0
GCF_906464925.1_BX5936,bin_component_0,NZ_OD940435.1,NODE_14_length_1346_cov_158.872340_component_0,1346,1.0
GCF_020844125.1_ASM2084412v1,bin_component_0,NZ_CP063981.1,NODE_1_length_51683_cov_44.098805_component_0,51683,1.0
GCF_020844125.1_ASM2084412v1,bin_component_0,NZ_CP063981.1,NODE_2_length_10883_cov_95.871792_component_0,10883,0.92,1,10028
GCF_020844125.1_ASM2084412v1,bin_component_0,NZ_CP063980.1,NODE_2_length_10883_cov_95.871792_component_0,10883,0.08,10029,10883
GCF_906464875.1_BX8117,bin_component_1,NZ_OD940438.1,NODE_2_length_55676_cov_105.550549_component_1,55676,1.0
GCF_906464875.1_BX8117,bin_component_0,NZ_OD940437.1,NODE_1_length_105834_cov_106.095020_component_0,105834,1.0
GCF_906464875.1_BX8117,bin_component_0,NZ_OD940437.1,NODE_3_length_1910_cov_128.959083_component_0,1910,1.0
GCF_906464835.1_TM6294,bin_component_1,NZ_OD940431.1,NODE_5_length_16658_cov_59.359327_component_1,16658,1.0
GCF_906464835.1_TM6294,bin_component_1,NZ_OD940432.1,NODE_7_length_10233_cov_113.027570_component_1,10233,1.0
GCF_906464835.1_TM6294,bin_component_1,NZ_OD940431.1,NODE_8_length_8630_cov_209.104759_component_1,8630,1.0
GCF_906464835.1_TM6294,bin_component_1,NZ_OD940433.1,NODE_8_length_8630_cov_209.104759_component_1,8630,1.0
GCF_906464835.1_TM6294,bin_component_1,NZ_OD940431.1,NODE_9_length_6750_cov_124.136071_component_1,6750,1.0
GCF_906464835.1_TM6294,bin_component_1,NZ_OD940431.1,NODE_11_length_3055_cov_187.034587_component_1,3055,1.0
GCF_906464835.1_TM6294,bin_component_1,NZ_OD940433.1,NODE_11_length_3055_cov_187.034587_component_1,3055,1.0
GCF_906464835.1_TM6294,bin_component_1,NZ_OD940432.1,NODE_12_length_2938_cov_217.787487_component_1,2938,1.0
GCF_906464835.1_TM6294,bin_component_1,NZ_OD940432.1,NODE_14_length_2232_cov_38.397680_component_1,2232,1.0
GCF_906464835.1_TM6294,bin_component_1,NZ_OD940433.1,NODE_17_length_1707_cov_156.882822_component_1,1707,1.0
GCF_906464835.1_TM6294,bin_component_0,NZ_OD940431.1,NODE_1_length_246693_cov_54.322826_component_0,246693,1.0
GCF_906464835.1_TM6294,bin_component_0,NZ_OD940431.1,NODE_2_length_144506_cov_117.423606_component_0,144506,1.0
GCF_906464835.1_TM6294,bin_component_0,NZ_OD940431.1,NODE_3_length_92207_cov_105.796668_component_0,92207,1.0
GCF_906464835.1_TM6294,bin_component_0,NZ_OD940431.1,NODE_4_length_28431_cov_113.261762_component_0,28431,1.0
GCF_906464835.1_TM6294,bin_component_0,NZ_OD940431.1,NODE_6_length_16605_cov_129.408277_component_0,16605,1.0
GCF_906464835.1_TM6294,bin_component_0,NZ_OD940431.1,NODE_10_length_3283_cov_495.522146_component_0,3283,1.0
GCF_906464835.1_TM6294,bin_component_0,NZ_OD940431.1,NODE_10_length_3283_cov_495.522146_component_0,3283,1.0
GCF_906464835.1_TM6294,bin_component_0,NZ_OD940431.1,NODE_10_length_3283_cov_495.522146_component_0,3283,1.0
GCF_906464835.1_TM6294,bin_component_0,NZ_OD940431.1,NODE_10_length_3283_cov_495.522146_component_0,3283,1.0
GCF_906464835.1_TM6294,bin_component_0,NZ_OD940431.1,NODE_13_length_2348_cov_130.498018_component_0,2348,1.0
GCF_906464835.1_TM6294,bin_component_0,NZ_OD940431.1,NODE_15_length_1954_cov_151.824188_component_0,1954,0.99
GCF_906464835.1_TM6294,bin_component_0,NZ_OD940431.1,NODE_16_length_1831_cov_480.568415_component_0,1831,1.0
GCF_906464835.1_TM6294,bin_component_0,NZ_OD940431.1,NODE_16_length_1831_cov_480.568415_component_0,1831,1.0
GCF_906464835.1_TM6294,bin_component_0,NZ_OD940431.1,NODE_16_length_1831_cov_480.568415_component_0,1831,1.0
GCF_906464835.1_TM6294,bin_component_0,NZ_OD940431.1,NODE_16_length_1831_cov_480.568415_component_0,1831,1.0
GCF_013344645.1_ASM1334464v1,bin_component_0,NZ_CP046112.1,NODE_1_length_37335_cov_164.953908_component_0,37335,1.0
GCF_013344625.1_ASM1334462v1,bin_component_0,NZ_CP046111.1,NODE_1_length_37335_cov_405.497447_component_0,37335,1.0
GCF_021655635.1_ASM2165563v1,bin_component_0,NZ_AP025272.1,NODE_1_length_59538_cov_69.552221_component_0,59538,1.0
GCF_022648285.1_ASM2264828v1,bin_component_0,NZ_CP076489.1,NODE_1_length_39288_cov_151.505445_component_0,39288,1.0
GCF_022648285.1_ASM2264828v1,bin_component_0,NZ_CP076490.1,NODE_2_length_35343_cov_158.155958_component_0,35343,1.0
GCF_022648285.1_ASM2264828v1,bin_component_0,NZ_CP076491.1,NODE_3_length_33391_cov_152.575734_component_0,33391,1.0
GCF_022648285.1_ASM2264828v1,bin_component_0,NZ_CP076489.1,NODE_4_length_19606_cov_183.840750_component_0,19606,1.0
GCF_022648285.1_ASM2264828v1,bin_component_0,NZ_CP076490.1,NODE_5_length_14178_cov_158.831572_component_0,14178,0.99
GCF_022648285.1_ASM2264828v1,bin_component_0,NZ_CP076489.1,NODE_6_length_13089_cov_163.540194_component_0,13089,1.0
GCF_022648285.1_ASM2264828v1,bin_component_0,NZ_CP076489.1,NODE_7_length_10567_cov_181.863108_component_0,10567,1.0
GCF_022648285.1_ASM2264828v1,bin_component_0,NZ_CP076492.1,NODE_8_length_9877_cov_217.404286_component_0,9877,0.99
GCF_022648285.1_ASM2264828v1,bin_component_0,NZ_CP076492.1,NODE_9_length_7007_cov_189.919481_component_0,7007,1.0
GCF_022648285.1_ASM2264828v1,bin_component_0,NZ_CP076492.1,NODE_10_length_5658_cov_191.828884_component_0,5658,1.0
GCF_022648285.1_ASM2264828v1,bin_component_0,NZ_CP076489.1,NODE_11_length_5183_cov_164.794164_component_0,5183,1.0
GCF_022648285.1_ASM2264828v1,bin_component_0,NZ_CP076489.1,NODE_12_length_4746_cov_176.520668_component_0,4746,1.0
GCF_022648285.1_ASM2264828v1,bin_component_0,NZ_CP076489.1,NODE_13_length_4549_cov_167.216011_component_0,4549,1.0
GCF_022648285.1_ASM2264828v1,bin_component_0,NZ_CP076489.1,NODE_14_length_3945_cov_365.866339_component_0,3945,1.0
GCF_022648285.1_ASM2264828v1,bin_component_0,NZ_CP076492.1,NODE_14_length_3945_cov_365.866339_component_0,3945,1.0
GCF_022648285.1_ASM2264828v1,bin_component_0,NZ_CP076489.1,NODE_15_length_3131_cov_342.220039_component_0,3131,1.0
GCF_022648285.1_ASM2264828v1,bin_component_0,NZ_CP076489.1,NODE_15_length_3131_cov_342.220039_component_0,3131,1.0
GCF_022648285.1_ASM2264828v1,bin_component_0,NZ_CP076492.1,NODE_16_length_2977_cov_187.373448_component_0,2977,1.0
GCF_022648285.1_ASM2264828v1,bin_component_0,NZ_CP076491.1,NODE_17_length_2444_cov_266.253063_component_0,2444,1.0
GCF_022648285.1_ASM2264828v1,bin_component_0,NZ_CP076488.1,NODE_17_length_2444_cov_266.253063_component_0,2444,1.0
GCF_022648285.1_ASM2264828v1,bin_component_0,NZ_CP076490.1,NODE_18_length_2342_cov_310.382340_component_0,2342,1.0
GCF_022648285.1_ASM2264828v1,bin_component_0,NZ_CP076489.1,NODE_18_length_2342_cov_310.382340_component_0,2342,1.0
GCF_022648285.1_ASM2264828v1,bin_component_0,NZ_CP076491.1,NODE_19_length_2335_cov_260.307795_component_0,2335,1.0
GCF_022648285.1_ASM2264828v1,bin_component_0,NZ_CP076488.1,NODE_19_length_2335_cov_260.307795_component_0,2335,1.0
GCF_022648285.1_ASM2264828v1,bin_component_0,NZ_CP076489.1,NODE_20_length_1891_cov_139.931643_component_0,1891,1.0
GCF_022648285.1_ASM2264828v1,bin_component_0,NZ_CP076491.1,NODE_21_length_1605_cov_204.846204_component_0,1605,0.91
GCF_022648285.1_ASM2264828v1,bin_component_0,NZ_CP076491.1,NODE_22_length_1574_cov_240.391450_component_0,1574,1.0
GCF_022648285.1_ASM2264828v1,bin_component_0,NZ_CP076491.1,NODE_23_length_1426_cov_266.818384_component_0,1426,1.0
GCF_022648285.1_ASM2264828v1,bin_component_0,NZ_CP076488.1,NODE_23_length_1426_cov_266.818384_component_0,1426,1.0
GCF_022648285.1_ASM2264828v1,bin_component_0,NZ_CP076492.1,NODE_24_length_1381_cov_193.609663_component_0,1381,1.0
GCF_022648285.1_ASM2264828v1,bin_component_0,NZ_CP076489.1,NODE_25_length_1317_cov_201.170161_component_0,1317,1.0
GCF_022648285.1_ASM2264828v1,bin_component_0,NZ_CP076491.1,NODE_26_length_1296_cov_166.738310_component_0,1296,1.0
GCF_022648285.1_ASM2264828v1,bin_component_0,NZ_CP076488.1,NODE_27_length_1244_cov_848.938303_component_0,1244,1.0
GCF_022648285.1_ASM2264828v1,bin_component_0,NZ_CP076488.1,NODE_27_length_1244_cov_848.938303_component_0,1244,1.0
GCF_022648285.1_ASM2264828v1,bin_component_0,NZ_CP076492.1,NODE_27_length_1244_cov_848.938303_component_0,1244,1.0
GCF_022648285.1_ASM2264828v1,bin_component_0,NZ_CP076488.1,NODE_27_length_1244_cov_848.938303_component_0,1244,1.0
GCF_022648285.1_ASM2264828v1,bin_component_0,NZ_CP076488.1,NODE_27_length_1244_cov_848.938303_component_0,1244,1.0
GCF_022648285.1_ASM2264828v1,bin_component_0,NZ_CP076489.1,NODE_27_length_1244_cov_848.938303_component_0,1244,1.0
GCF_022648285.1_ASM2264828v1,bin_component_0,NZ_CP076488.1,NODE_27_length_1244_cov_848.938303_component_0,1244,1.0
GCF_022648285.1_ASM2264828v1,bin_component_0,NZ_CP076490.1,NODE_28_length_1190_cov_144.338724_component_0,1190,1.0
GCF_022648285.1_ASM2264828v1,bin_component_0,NZ_CP076488.1,NODE_29_length_1087_cov_114.215842_component_0,1087,1.0
GCF_022648285.1_ASM2264828v1,bin_component_0,NZ_CP076489.1,NODE_30_length_1036_cov_330.806048_component_0,1036,1.0
GCF_022648285.1_ASM2264828v1,bin_component_0,NZ_CP076490.1,NODE_30_length_1036_cov_330.806048_component_0,1036,1.0
GCF_906464865.1_WE0438,bin_component_1,NZ_OD940420.1,NODE_2_length_19310_cov_64.303697_component_1,19310,1.0
GCF_906464865.1_WE0438,bin_component_0,NZ_OD940420.1,NODE_1_length_366497_cov_64.905248_component_0,366497,0.99
GCF_013344665.1_ASM1334466v1,bin_component_0,NZ_CP046113.1,NODE_1_length_261447_cov_209.286258_component_0,261447,1.0
GCF_013344665.1_ASM1334466v1,bin_component_0,NZ_CP046113.1,NODE_2_length_187300_cov_224.579581_component_0,187300,1.0
GCF_013344665.1_ASM1334466v1,bin_component_0,NZ_CP046113.1,NODE_3_length_1812_cov_923.318694_component_0,1812,1.0
GCF_013344665.1_ASM1334466v1,bin_component_0,NZ_CP046113.1,NODE_3_length_1812_cov_923.318694_component_0,1812,1.0
GCF_013344665.1_ASM1334466v1,bin_component_0,NZ_CP046113.1,NODE_3_length_1812_cov_923.318694_component_0,1812,1.0
GCF_013344665.1_ASM1334466v1,bin_component_0,NZ_CP046113.1,NODE_3_length_1812_cov_923.318694_component_0,1812,1.0
GCF_906464915.2_WE0254,bin_component_1,NZ_OU538997.1,NODE_3_length_27875_cov_47.687136_component_1,27875,1.0
GCF_906464915.2_WE0254,bin_component_1,NZ_OU538997.1,NODE_4_length_27556_cov_16.492012_component_1,27556,1.0
GCF_906464915.2_WE0254,bin_component_1,NZ_OU538997.1,NODE_6_length_15353_cov_18.029942_component_1,15353,1.0
GCF_906464915.2_WE0254,bin_component_1,NZ_OU538997.1,NODE_7_length_6497_cov_15.867601_component_1,6497,0.99
GCF_906464915.2_WE0254,bin_component_3,NZ_OD940440.2,NODE_5_length_15855_cov_89.804728_component_3,15855,1.0
GCF_906464915.2_WE0254,bin_component_0,NZ_OD940440.2,NODE_1_length_73534_cov_85.417823_component_0,73534,1.0
GCF_906464915.2_WE0254,bin_component_0,NZ_OD940440.2,NODE_8_length_3283_cov_368.412352_component_0,3283,1.0
GCF_906464915.2_WE0254,bin_component_0,NZ_OD940440.2,NODE_8_length_3283_cov_368.412352_component_0,3283,1.0
GCF_906464915.2_WE0254,bin_component_0,NZ_OD940440.2,NODE_8_length_3283_cov_368.412352_component_0,3283,1.0
GCF_906464915.2_WE0254,bin_component_0,NZ_OD940440.2,NODE_8_length_3283_cov_368.412352_component_0,3283,1.0
GCF_906464915.2_WE0254,bin_component_0,NZ_OD940440.2,NODE_9_length_2190_cov_355.398959_component_0,2190,1.0
GCF_906464915.2_WE0254,bin_component_0,NZ_OD940440.2,NODE_9_length_2190_cov_355.398959_component_0,2190,1.0
GCF_906464915.2_WE0254,bin_component_2,NZ_OD940440.2,NODE_2_length_72680_cov_84.004958_component_2,72680,1.0
