"software","arg_classification","reference_id","FN","TP","recall","detected"
"RFplasmid","ARG-plasmid","NZ_CP031381.2",0,2,1,"detected"
"RFplasmid","ARG-plasmid","NZ_CP031382.1",0,1,1,"detected"
"RFplasmid","ARG-plasmid","NZ_CP047975.1",2,6,0.75,"detected"
"RFplasmid","ARG-plasmid","NZ_CP048132.1",0,1,1,"detected"
"RFplasmid","ARG-plasmid","NZ_CP048134.1",2,1,0.33,"detected"
"RFplasmid","ARG-plasmid","NZ_CP048135.1",2,9,0.82,"detected"
"RFplasmid","ARG-plasmid","NZ_CP048851.1",1,6,0.86,"detected"
"RFplasmid","ARG-plasmid","NZ_CP059387.1",2,1,0.33,"detected"
"RFplasmid","ARG-plasmid","NZ_CP061706.1",9,5,0.36,"detected"
"RFplasmid","ARG-plasmid","NZ_CP061707.1",1,1,0.5,"detected"
"RFplasmid","ARG-plasmid","NZ_CP069841.1",1,2,0.67,"detected"
"RFplasmid","ARG-plasmid","NZ_CP070361.1",0,7,1,"detected"
"RFplasmid","ARG-plasmid","NZ_CP070365.1",0,7,1,"detected"
"RFplasmid","ARG-plasmid","NZ_CP072527.1",1,1,0.5,"detected"
"RFplasmid","ARG-plasmid","NZ_CP072528.1",1,2,0.67,"detected"
"RFplasmid","ARG-plasmid","NZ_CP085789.1",0,1,1,"detected"
"RFplasmid","non-ARG-plasmid","NZ_AP022239.1",1,0,0,"not_detected"
"RFplasmid","non-ARG-plasmid","NZ_AP022240.1",0,1,1,"detected"
"RFplasmid","non-ARG-plasmid","NZ_AP024803.1",6,2,0.25,"detected"
"RFplasmid","non-ARG-plasmid","NZ_AP024804.1",0,1,1,"detected"
"RFplasmid","non-ARG-plasmid","NZ_AP024805.1",1,1,0.5,"detected"
"RFplasmid","non-ARG-plasmid","NZ_AP024806.1",0,1,1,"detected"
"RFplasmid","non-ARG-plasmid","NZ_AP024807.1",1,0,0,"not_detected"
"RFplasmid","non-ARG-plasmid","NZ_AP024808.1",1,0,0,"not_detected"
"RFplasmid","non-ARG-plasmid","NZ_AP024809.1",1,0,0,"not_detected"
"RFplasmid","non-ARG-plasmid","NZ_AP024810.1",1,0,0,"not_detected"
"RFplasmid","non-ARG-plasmid","NZ_AP024811.1",1,0,0,"not_detected"
"RFplasmid","non-ARG-plasmid","NZ_AP024812.1",1,0,0,"not_detected"
"RFplasmid","non-ARG-plasmid","NZ_AP024813.1",0,1,1,"detected"
"RFplasmid","non-ARG-plasmid","NZ_CP047974.1",3,0,0,"not_detected"
"RFplasmid","non-ARG-plasmid","NZ_CP047976.1",0,1,1,"detected"
"RFplasmid","non-ARG-plasmid","NZ_CP048133.1",0,1,1,"detected"
"RFplasmid","non-ARG-plasmid","NZ_CP048850.1",0,1,1,"detected"
"RFplasmid","non-ARG-plasmid","NZ_CP049315.1",0,1,1,"detected"
"RFplasmid","non-ARG-plasmid","NZ_CP053099.1",0,1,1,"detected"
"RFplasmid","non-ARG-plasmid","NZ_CP053100.1",0,1,1,"detected"
"RFplasmid","non-ARG-plasmid","NZ_CP059388.1",0,1,1,"detected"
"RFplasmid","non-ARG-plasmid","NZ_CP059389.1",0,1,1,"detected"
"RFplasmid","non-ARG-plasmid","NZ_CP059390.1",1,0,0,"not_detected"
"RFplasmid","non-ARG-plasmid","NZ_CP059543.1",1,0,0,"not_detected"
"RFplasmid","non-ARG-plasmid","NZ_CP059544.1",0,1,1,"detected"
"RFplasmid","non-ARG-plasmid","NZ_CP059545.1",1,0,0,"not_detected"
"RFplasmid","non-ARG-plasmid","NZ_CP061515.1",1,0,0,"not_detected"
"RFplasmid","non-ARG-plasmid","NZ_CP061516.1",0,1,1,"detected"
"RFplasmid","non-ARG-plasmid","NZ_CP061520.1",1,0,0,"not_detected"
"RFplasmid","non-ARG-plasmid","NZ_CP061522.1",2,0,0,"not_detected"
"RFplasmid","non-ARG-plasmid","NZ_CP061524.1",1,0,0,"not_detected"
"RFplasmid","non-ARG-plasmid","NZ_CP061526.1",0,1,1,"detected"
"RFplasmid","non-ARG-plasmid","NZ_CP061708.1",1,1,0.5,"detected"
"RFplasmid","non-ARG-plasmid","NZ_CP061709.1",1,0,0,"not_detected"
"RFplasmid","non-ARG-plasmid","NZ_CP061710.1",0,1,1,"detected"
"RFplasmid","non-ARG-plasmid","NZ_CP061711.1",1,0,0,"not_detected"
"RFplasmid","non-ARG-plasmid","NZ_CP061712.1",0,1,1,"detected"
"RFplasmid","non-ARG-plasmid","NZ_CP061713.1",1,0,0,"not_detected"
"RFplasmid","non-ARG-plasmid","NZ_CP065433.1",0,2,1,"detected"
"RFplasmid","non-ARG-plasmid","NZ_CP065434.1",0,1,1,"detected"
"RFplasmid","non-ARG-plasmid","NZ_CP066017.1",0,1,1,"detected"
"RFplasmid","non-ARG-plasmid","NZ_CP069842.1",0,1,1,"detected"
"RFplasmid","non-ARG-plasmid","NZ_CP069852.1",0,1,1,"detected"
"RFplasmid","non-ARG-plasmid","NZ_CP070359.1",1,0,0,"not_detected"
"RFplasmid","non-ARG-plasmid","NZ_CP070360.1",0,1,1,"detected"
"RFplasmid","non-ARG-plasmid","NZ_CP070363.1",1,0,0,"not_detected"
"RFplasmid","non-ARG-plasmid","NZ_CP070364.1",0,1,1,"detected"
"RFplasmid","non-ARG-plasmid","NZ_CP073061.1",2,2,0.5,"detected"
"RFplasmid","non-ARG-plasmid","NZ_CP080453.1",1,0,0,"not_detected"
"RFplasmid","non-ARG-plasmid","NZ_CP080454.1",0,1,1,"detected"
"RFplasmid","non-ARG-plasmid","NZ_CP080455.1",1,0,0,"not_detected"
"RFplasmid","non-ARG-plasmid","NZ_CP080456.1",0,1,1,"detected"
"RFplasmid","non-ARG-plasmid","NZ_CP082953.1",0,1,1,"detected"
"RFplasmid","non-ARG-plasmid","NZ_CP085790.1",1,2,0.67,"detected"
"RFplasmid","non-ARG-plasmid","NZ_CP087595.1",0,1,1,"detected"
"RFplasmid","non-ARG-plasmid","NZ_CP087596.1",1,0,0,"not_detected"
"Centrifuge","ARG-plasmid","NZ_CP031381.2",0,2,1,"detected"
"Centrifuge","ARG-plasmid","NZ_CP031382.1",0,1,1,"detected"
"Centrifuge","ARG-plasmid","NZ_CP047975.1",4,4,0.5,"detected"
"Centrifuge","ARG-plasmid","NZ_CP048132.1",0,1,1,"detected"
"Centrifuge","ARG-plasmid","NZ_CP048134.1",1,2,0.67,"detected"
"Centrifuge","ARG-plasmid","NZ_CP048135.1",1,10,0.91,"detected"
"Centrifuge","ARG-plasmid","NZ_CP048851.1",3,4,0.57,"detected"
"Centrifuge","ARG-plasmid","NZ_CP059387.1",0,3,1,"detected"
"Centrifuge","ARG-plasmid","NZ_CP061706.1",1,13,0.93,"detected"
"Centrifuge","ARG-plasmid","NZ_CP061707.1",0,2,1,"detected"
"Centrifuge","ARG-plasmid","NZ_CP069841.1",0,3,1,"detected"
"Centrifuge","ARG-plasmid","NZ_CP070361.1",0,7,1,"detected"
"Centrifuge","ARG-plasmid","NZ_CP070365.1",0,7,1,"detected"
"Centrifuge","ARG-plasmid","NZ_CP072527.1",0,2,1,"detected"
"Centrifuge","ARG-plasmid","NZ_CP072528.1",1,2,0.67,"detected"
"Centrifuge","ARG-plasmid","NZ_CP085789.1",0,1,1,"detected"
"Centrifuge","non-ARG-plasmid","NZ_AP022239.1",0,1,1,"detected"
"Centrifuge","non-ARG-plasmid","NZ_AP022240.1",0,1,1,"detected"
"Centrifuge","non-ARG-plasmid","NZ_AP024803.1",0,8,1,"detected"
"Centrifuge","non-ARG-plasmid","NZ_AP024804.1",0,1,1,"detected"
"Centrifuge","non-ARG-plasmid","NZ_AP024805.1",0,2,1,"detected"
"Centrifuge","non-ARG-plasmid","NZ_AP024806.1",0,1,1,"detected"
"Centrifuge","non-ARG-plasmid","NZ_AP024807.1",0,1,1,"detected"
"Centrifuge","non-ARG-plasmid","NZ_AP024808.1",0,1,1,"detected"
"Centrifuge","non-ARG-plasmid","NZ_AP024809.1",0,1,1,"detected"
"Centrifuge","non-ARG-plasmid","NZ_AP024810.1",0,1,1,"detected"
"Centrifuge","non-ARG-plasmid","NZ_AP024811.1",0,1,1,"detected"
"Centrifuge","non-ARG-plasmid","NZ_AP024812.1",0,1,1,"detected"
"Centrifuge","non-ARG-plasmid","NZ_AP024813.1",0,1,1,"detected"
"Centrifuge","non-ARG-plasmid","NZ_CP047974.1",1,2,0.67,"detected"
"Centrifuge","non-ARG-plasmid","NZ_CP047976.1",0,1,1,"detected"
"Centrifuge","non-ARG-plasmid","NZ_CP048133.1",0,1,1,"detected"
"Centrifuge","non-ARG-plasmid","NZ_CP048850.1",0,1,1,"detected"
"Centrifuge","non-ARG-plasmid","NZ_CP049315.1",0,1,1,"detected"
"Centrifuge","non-ARG-plasmid","NZ_CP053099.1",0,1,1,"detected"
"Centrifuge","non-ARG-plasmid","NZ_CP053100.1",0,1,1,"detected"
"Centrifuge","non-ARG-plasmid","NZ_CP059388.1",0,1,1,"detected"
"Centrifuge","non-ARG-plasmid","NZ_CP059389.1",0,1,1,"detected"
"Centrifuge","non-ARG-plasmid","NZ_CP059390.1",0,1,1,"detected"
"Centrifuge","non-ARG-plasmid","NZ_CP059543.1",0,1,1,"detected"
"Centrifuge","non-ARG-plasmid","NZ_CP059544.1",0,1,1,"detected"
"Centrifuge","non-ARG-plasmid","NZ_CP059545.1",0,1,1,"detected"
"Centrifuge","non-ARG-plasmid","NZ_CP061515.1",0,1,1,"detected"
"Centrifuge","non-ARG-plasmid","NZ_CP061516.1",0,1,1,"detected"
"Centrifuge","non-ARG-plasmid","NZ_CP061520.1",1,0,0,"not_detected"
"Centrifuge","non-ARG-plasmid","NZ_CP061522.1",0,2,1,"detected"
"Centrifuge","non-ARG-plasmid","NZ_CP061524.1",0,1,1,"detected"
"Centrifuge","non-ARG-plasmid","NZ_CP061526.1",0,1,1,"detected"
"Centrifuge","non-ARG-plasmid","NZ_CP061708.1",0,2,1,"detected"
"Centrifuge","non-ARG-plasmid","NZ_CP061709.1",1,0,0,"not_detected"
"Centrifuge","non-ARG-plasmid","NZ_CP061710.1",0,1,1,"detected"
"Centrifuge","non-ARG-plasmid","NZ_CP061711.1",0,1,1,"detected"
"Centrifuge","non-ARG-plasmid","NZ_CP061712.1",0,1,1,"detected"
"Centrifuge","non-ARG-plasmid","NZ_CP061713.1",0,1,1,"detected"
"Centrifuge","non-ARG-plasmid","NZ_CP065433.1",0,2,1,"detected"
"Centrifuge","non-ARG-plasmid","NZ_CP065434.1",0,1,1,"detected"
"Centrifuge","non-ARG-plasmid","NZ_CP066017.1",1,0,0,"not_detected"
"Centrifuge","non-ARG-plasmid","NZ_CP069842.1",0,1,1,"detected"
"Centrifuge","non-ARG-plasmid","NZ_CP069852.1",1,0,0,"not_detected"
"Centrifuge","non-ARG-plasmid","NZ_CP070359.1",0,1,1,"detected"
"Centrifuge","non-ARG-plasmid","NZ_CP070360.1",1,0,0,"not_detected"
"Centrifuge","non-ARG-plasmid","NZ_CP070363.1",0,1,1,"detected"
"Centrifuge","non-ARG-plasmid","NZ_CP070364.1",1,0,0,"not_detected"
"Centrifuge","non-ARG-plasmid","NZ_CP073061.1",0,4,1,"detected"
"Centrifuge","non-ARG-plasmid","NZ_CP080453.1",0,1,1,"detected"
"Centrifuge","non-ARG-plasmid","NZ_CP080454.1",0,1,1,"detected"
"Centrifuge","non-ARG-plasmid","NZ_CP080455.1",0,1,1,"detected"
"Centrifuge","non-ARG-plasmid","NZ_CP080456.1",1,0,0,"not_detected"
"Centrifuge","non-ARG-plasmid","NZ_CP082953.1",0,1,1,"detected"
"Centrifuge","non-ARG-plasmid","NZ_CP085790.1",0,3,1,"detected"
"Centrifuge","non-ARG-plasmid","NZ_CP087595.1",0,1,1,"detected"
"Centrifuge","non-ARG-plasmid","NZ_CP087596.1",0,1,1,"detected"
"Platon","ARG-plasmid","NZ_CP031381.2",0,2,1,"detected"
"Platon","ARG-plasmid","NZ_CP031382.1",0,1,1,"detected"
"Platon","ARG-plasmid","NZ_CP047975.1",1,7,0.88,"detected"
"Platon","ARG-plasmid","NZ_CP048132.1",0,1,1,"detected"
"Platon","ARG-plasmid","NZ_CP048134.1",1,2,0.67,"detected"
"Platon","ARG-plasmid","NZ_CP048135.1",2,9,0.82,"detected"
"Platon","ARG-plasmid","NZ_CP048851.1",2,5,0.71,"detected"
"Platon","ARG-plasmid","NZ_CP059387.1",1,2,0.67,"detected"
"Platon","ARG-plasmid","NZ_CP061706.1",7,7,0.5,"detected"
"Platon","ARG-plasmid","NZ_CP061707.1",0,2,1,"detected"
"Platon","ARG-plasmid","NZ_CP069841.1",0,3,1,"detected"
"Platon","ARG-plasmid","NZ_CP070361.1",1,6,0.86,"detected"
"Platon","ARG-plasmid","NZ_CP070365.1",1,6,0.86,"detected"
"Platon","ARG-plasmid","NZ_CP072527.1",1,1,0.5,"detected"
"Platon","ARG-plasmid","NZ_CP072528.1",0,3,1,"detected"
"Platon","ARG-plasmid","NZ_CP085789.1",0,1,1,"detected"
"Platon","non-ARG-plasmid","NZ_AP022239.1",0,1,1,"detected"
"Platon","non-ARG-plasmid","NZ_AP022240.1",0,1,1,"detected"
"Platon","non-ARG-plasmid","NZ_AP024803.1",2,6,0.75,"detected"
"Platon","non-ARG-plasmid","NZ_AP024804.1",0,1,1,"detected"
"Platon","non-ARG-plasmid","NZ_AP024805.1",0,2,1,"detected"
"Platon","non-ARG-plasmid","NZ_AP024806.1",0,1,1,"detected"
"Platon","non-ARG-plasmid","NZ_AP024807.1",0,1,1,"detected"
"Platon","non-ARG-plasmid","NZ_AP024808.1",0,1,1,"detected"
"Platon","non-ARG-plasmid","NZ_AP024809.1",0,1,1,"detected"
"Platon","non-ARG-plasmid","NZ_AP024810.1",0,1,1,"detected"
"Platon","non-ARG-plasmid","NZ_AP024811.1",1,0,0,"not_detected"
"Platon","non-ARG-plasmid","NZ_AP024812.1",1,0,0,"not_detected"
"Platon","non-ARG-plasmid","NZ_AP024813.1",1,0,0,"not_detected"
"Platon","non-ARG-plasmid","NZ_CP047974.1",2,1,0.33,"detected"
"Platon","non-ARG-plasmid","NZ_CP047976.1",0,1,1,"detected"
"Platon","non-ARG-plasmid","NZ_CP048133.1",0,1,1,"detected"
"Platon","non-ARG-plasmid","NZ_CP048850.1",1,0,0,"not_detected"
"Platon","non-ARG-plasmid","NZ_CP049315.1",0,1,1,"detected"
"Platon","non-ARG-plasmid","NZ_CP053099.1",0,1,1,"detected"
"Platon","non-ARG-plasmid","NZ_CP053100.1",0,1,1,"detected"
"Platon","non-ARG-plasmid","NZ_CP059388.1",0,1,1,"detected"
"Platon","non-ARG-plasmid","NZ_CP059389.1",0,1,1,"detected"
"Platon","non-ARG-plasmid","NZ_CP059390.1",0,1,1,"detected"
"Platon","non-ARG-plasmid","NZ_CP059543.1",0,1,1,"detected"
"Platon","non-ARG-plasmid","NZ_CP059544.1",0,1,1,"detected"
"Platon","non-ARG-plasmid","NZ_CP059545.1",0,1,1,"detected"
"Platon","non-ARG-plasmid","NZ_CP061515.1",0,1,1,"detected"
"Platon","non-ARG-plasmid","NZ_CP061516.1",0,1,1,"detected"
"Platon","non-ARG-plasmid","NZ_CP061520.1",0,1,1,"detected"
"Platon","non-ARG-plasmid","NZ_CP061522.1",0,2,1,"detected"
"Platon","non-ARG-plasmid","NZ_CP061524.1",0,1,1,"detected"
"Platon","non-ARG-plasmid","NZ_CP061526.1",0,1,1,"detected"
"Platon","non-ARG-plasmid","NZ_CP061708.1",0,2,1,"detected"
"Platon","non-ARG-plasmid","NZ_CP061709.1",1,0,0,"not_detected"
"Platon","non-ARG-plasmid","NZ_CP061710.1",0,1,1,"detected"
"Platon","non-ARG-plasmid","NZ_CP061711.1",0,1,1,"detected"
"Platon","non-ARG-plasmid","NZ_CP061712.1",0,1,1,"detected"
"Platon","non-ARG-plasmid","NZ_CP061713.1",0,1,1,"detected"
"Platon","non-ARG-plasmid","NZ_CP065433.1",0,2,1,"detected"
"Platon","non-ARG-plasmid","NZ_CP065434.1",0,1,1,"detected"
"Platon","non-ARG-plasmid","NZ_CP066017.1",0,1,1,"detected"
"Platon","non-ARG-plasmid","NZ_CP069842.1",0,1,1,"detected"
"Platon","non-ARG-plasmid","NZ_CP069852.1",0,1,1,"detected"
"Platon","non-ARG-plasmid","NZ_CP070359.1",1,0,0,"not_detected"
"Platon","non-ARG-plasmid","NZ_CP070360.1",0,1,1,"detected"
"Platon","non-ARG-plasmid","NZ_CP070363.1",1,0,0,"not_detected"
"Platon","non-ARG-plasmid","NZ_CP070364.1",0,1,1,"detected"
"Platon","non-ARG-plasmid","NZ_CP073061.1",1,3,0.75,"detected"
"Platon","non-ARG-plasmid","NZ_CP080453.1",1,0,0,"not_detected"
"Platon","non-ARG-plasmid","NZ_CP080454.1",1,0,0,"not_detected"
"Platon","non-ARG-plasmid","NZ_CP080455.1",0,1,1,"detected"
"Platon","non-ARG-plasmid","NZ_CP080456.1",0,1,1,"detected"
"Platon","non-ARG-plasmid","NZ_CP082953.1",0,1,1,"detected"
"Platon","non-ARG-plasmid","NZ_CP085790.1",0,3,1,"detected"
"Platon","non-ARG-plasmid","NZ_CP087595.1",0,1,1,"detected"
"Platon","non-ARG-plasmid","NZ_CP087596.1",0,1,1,"detected"
"plasmidEC","ARG-plasmid","NZ_CP031381.2",0,2,1,"detected"
"plasmidEC","ARG-plasmid","NZ_CP031382.1",0,1,1,"detected"
"plasmidEC","ARG-plasmid","NZ_CP047975.1",2,6,0.75,"detected"
"plasmidEC","ARG-plasmid","NZ_CP048132.1",0,1,1,"detected"
"plasmidEC","ARG-plasmid","NZ_CP048134.1",1,2,0.67,"detected"
"plasmidEC","ARG-plasmid","NZ_CP048135.1",1,10,0.91,"detected"
"plasmidEC","ARG-plasmid","NZ_CP048851.1",1,6,0.86,"detected"
"plasmidEC","ARG-plasmid","NZ_CP059387.1",1,2,0.67,"detected"
"plasmidEC","ARG-plasmid","NZ_CP061706.1",6,8,0.57,"detected"
"plasmidEC","ARG-plasmid","NZ_CP061707.1",0,2,1,"detected"
"plasmidEC","ARG-plasmid","NZ_CP069841.1",0,3,1,"detected"
"plasmidEC","ARG-plasmid","NZ_CP070361.1",0,7,1,"detected"
"plasmidEC","ARG-plasmid","NZ_CP070365.1",0,7,1,"detected"
"plasmidEC","ARG-plasmid","NZ_CP072527.1",0,2,1,"detected"
"plasmidEC","ARG-plasmid","NZ_CP072528.1",0,3,1,"detected"
"plasmidEC","ARG-plasmid","NZ_CP085789.1",0,1,1,"detected"
"plasmidEC","non-ARG-plasmid","NZ_AP022239.1",0,1,1,"detected"
"plasmidEC","non-ARG-plasmid","NZ_AP022240.1",0,1,1,"detected"
"plasmidEC","non-ARG-plasmid","NZ_AP024803.1",2,6,0.75,"detected"
"plasmidEC","non-ARG-plasmid","NZ_AP024804.1",0,1,1,"detected"
"plasmidEC","non-ARG-plasmid","NZ_AP024805.1",0,2,1,"detected"
"plasmidEC","non-ARG-plasmid","NZ_AP024806.1",0,1,1,"detected"
"plasmidEC","non-ARG-plasmid","NZ_AP024807.1",0,1,1,"detected"
"plasmidEC","non-ARG-plasmid","NZ_AP024808.1",0,1,1,"detected"
"plasmidEC","non-ARG-plasmid","NZ_AP024809.1",0,1,1,"detected"
"plasmidEC","non-ARG-plasmid","NZ_AP024810.1",0,1,1,"detected"
"plasmidEC","non-ARG-plasmid","NZ_AP024811.1",1,0,0,"not_detected"
"plasmidEC","non-ARG-plasmid","NZ_AP024812.1",1,0,0,"not_detected"
"plasmidEC","non-ARG-plasmid","NZ_AP024813.1",0,1,1,"detected"
"plasmidEC","non-ARG-plasmid","NZ_CP047974.1",2,1,0.33,"detected"
"plasmidEC","non-ARG-plasmid","NZ_CP047976.1",0,1,1,"detected"
"plasmidEC","non-ARG-plasmid","NZ_CP048133.1",0,1,1,"detected"
"plasmidEC","non-ARG-plasmid","NZ_CP048850.1",0,1,1,"detected"
"plasmidEC","non-ARG-plasmid","NZ_CP049315.1",0,1,1,"detected"
"plasmidEC","non-ARG-plasmid","NZ_CP053099.1",0,1,1,"detected"
"plasmidEC","non-ARG-plasmid","NZ_CP053100.1",0,1,1,"detected"
"plasmidEC","non-ARG-plasmid","NZ_CP059388.1",0,1,1,"detected"
"plasmidEC","non-ARG-plasmid","NZ_CP059389.1",0,1,1,"detected"
"plasmidEC","non-ARG-plasmid","NZ_CP059390.1",0,1,1,"detected"
"plasmidEC","non-ARG-plasmid","NZ_CP059543.1",0,1,1,"detected"
"plasmidEC","non-ARG-plasmid","NZ_CP059544.1",0,1,1,"detected"
"plasmidEC","non-ARG-plasmid","NZ_CP059545.1",0,1,1,"detected"
"plasmidEC","non-ARG-plasmid","NZ_CP061515.1",0,1,1,"detected"
"plasmidEC","non-ARG-plasmid","NZ_CP061516.1",0,1,1,"detected"
"plasmidEC","non-ARG-plasmid","NZ_CP061520.1",1,0,0,"not_detected"
"plasmidEC","non-ARG-plasmid","NZ_CP061522.1",0,2,1,"detected"
"plasmidEC","non-ARG-plasmid","NZ_CP061524.1",0,1,1,"detected"
"plasmidEC","non-ARG-plasmid","NZ_CP061526.1",0,1,1,"detected"
"plasmidEC","non-ARG-plasmid","NZ_CP061708.1",0,2,1,"detected"
"plasmidEC","non-ARG-plasmid","NZ_CP061709.1",1,0,0,"not_detected"
"plasmidEC","non-ARG-plasmid","NZ_CP061710.1",0,1,1,"detected"
"plasmidEC","non-ARG-plasmid","NZ_CP061711.1",0,1,1,"detected"
"plasmidEC","non-ARG-plasmid","NZ_CP061712.1",0,1,1,"detected"
"plasmidEC","non-ARG-plasmid","NZ_CP061713.1",0,1,1,"detected"
"plasmidEC","non-ARG-plasmid","NZ_CP065433.1",0,2,1,"detected"
"plasmidEC","non-ARG-plasmid","NZ_CP065434.1",0,1,1,"detected"
"plasmidEC","non-ARG-plasmid","NZ_CP066017.1",0,1,1,"detected"
"plasmidEC","non-ARG-plasmid","NZ_CP069842.1",0,1,1,"detected"
"plasmidEC","non-ARG-plasmid","NZ_CP069852.1",0,1,1,"detected"
"plasmidEC","non-ARG-plasmid","NZ_CP070359.1",1,0,0,"not_detected"
"plasmidEC","non-ARG-plasmid","NZ_CP070360.1",0,1,1,"detected"
"plasmidEC","non-ARG-plasmid","NZ_CP070363.1",1,0,0,"not_detected"
"plasmidEC","non-ARG-plasmid","NZ_CP070364.1",0,1,1,"detected"
"plasmidEC","non-ARG-plasmid","NZ_CP073061.1",1,3,0.75,"detected"
"plasmidEC","non-ARG-plasmid","NZ_CP080453.1",1,0,0,"not_detected"
"plasmidEC","non-ARG-plasmid","NZ_CP080454.1",0,1,1,"detected"
"plasmidEC","non-ARG-plasmid","NZ_CP080455.1",0,1,1,"detected"
"plasmidEC","non-ARG-plasmid","NZ_CP080456.1",0,1,1,"detected"
"plasmidEC","non-ARG-plasmid","NZ_CP082953.1",0,1,1,"detected"
"plasmidEC","non-ARG-plasmid","NZ_CP085790.1",0,3,1,"detected"
"plasmidEC","non-ARG-plasmid","NZ_CP087595.1",0,1,1,"detected"
"plasmidEC","non-ARG-plasmid","NZ_CP087596.1",0,1,1,"detected"
