"strain","bin_name","reference_id","alignment_length","bin_length","classification","Chromosome_contamination","software","species"
"GCF_014705885.1_ASM1470588v1","plasmid_AB114","NZ_CP061519.1",32547,117253,"chromosome",0.025,"MOB-suite","A. baumannii"
"GCF_014705885.1_ASM1470588v1","plasmid_AE272","NZ_CP061519.1",98243,98243,"chromosome",1,"MOB-suite","A. baumannii"
"GCF_014705885.1_ASM1470588v1","plasmid_AD096","NZ_CP061519.1",22431,22431,"chromosome",1,"MOB-suite","A. baumannii"
"GCF_018604365.1_ASM1860436v1","plasmid_AF972","NZ_CP071763.1",37447,27315,"chromosome",0.629,"MOB-suite","A. baumannii"
"GCF_018604365.1_ASM1860436v1","plasmid_AE272","NZ_CP071763.1",47370,40662,"chromosome",0.945,"MOB-suite","A. baumannii"
"GCF_018604365.1_ASM1860436v1","plasmid_AE296","NZ_CP071763.1",345,2277,"chromosome",0.152,"MOB-suite","A. baumannii"
"GCF_018604365.1_ASM1860436v1","plasmid_AC715","NZ_CP071763.1",53262,22631,"chromosome",0.51,"MOB-suite","A. baumannii"
"GCF_018604365.1_ASM1860436v1","plasmid_AC163","NZ_CP071763.1",18511,11176,"chromosome",0.781,"MOB-suite","A. baumannii"
"GCF_014705825.1_ASM1470582v1","plasmid_AE272","NZ_CP061525.1",125407,105229,"chromosome",0.989,"MOB-suite","A. baumannii"
"GCF_005519135.2_ASM551913v2","plasmid_AE272","NZ_CP031380.1",36471,36471,"chromosome",1,"MOB-suite","A. baumannii"
"GCF_018808925.1_ASM1880892v1","plasmid_AE272","NZ_CP048849.1",96532,96532,"chromosome",1,"MOB-suite","A. baumannii"
"GCF_019903235.1_ASM1990323v1","plasmid_AE272","NZ_CP061705.1",85651,85652,"chromosome",1,"MOB-suite","A. baumannii"
"GCF_019903235.1_ASM1990323v1","plasmid_AE271","NZ_CP061705.1",59248,65468,"chromosome",0.867,"MOB-suite","A. baumannii"
"GCF_019903235.1_ASM1990323v1","plasmid_AH171","NZ_CP061705.1",33136,33136,"chromosome",1,"MOB-suite","A. baumannii"
"GCF_018135585.1_ASM1813558v1","plasmid_AE272","NZ_CP073060.1",84001,84001,"chromosome",1,"MOB-suite","A. baumannii"
"GCF_013372085.1_ASM1337208v1","plasmid_AC716","NZ_CP053098.1",157239,143831,"chromosome",0.907,"MOB-suite","A. baumannii"
"GCF_016919525.1_ASM1691952v2","plasmid_AF972","NZ_CP070358.1",33374,30455,"chromosome",0.904,"MOB-suite","A. baumannii"
"GCF_016919525.1_ASM1691952v2","plasmid_AE272","NZ_CP070358.1",97989,95671,"chromosome",0.987,"MOB-suite","A. baumannii"
"GCF_016919525.1_ASM1691952v2","plasmid_AE271","NZ_CP070358.1",76777,76780,"chromosome",1,"MOB-suite","A. baumannii"
"GCF_016919525.1_ASM1691952v2","plasmid_AB082","NZ_CP070358.1",22133,72398,"chromosome",0.263,"MOB-suite","A. baumannii"
"GCF_016919525.1_ASM1691952v2","plasmid_AH171","NZ_CP070358.1",45986,45986,"chromosome",1,"MOB-suite","A. baumannii"
"GCF_016919525.1_ASM1691952v2","plasmid_AD096","NZ_CP070358.1",7836,7837,"chromosome",1,"MOB-suite","A. baumannii"
"GCF_014705845.1_ASM1470584v1","plasmid_AB114","NZ_CP061523.1",32547,117943,"chromosome",0.025,"MOB-suite","A. baumannii"
"GCF_014705845.1_ASM1470584v1","plasmid_AE272","NZ_CP061523.1",98413,98413,"chromosome",1,"MOB-suite","A. baumannii"
"GCF_019703285.1_ASM1970328v1","plasmid_AB413","NZ_AP024802.1",37134,37134,"chromosome",1,"MOB-suite","A. baumannii"
"GCF_019703285.1_ASM1970328v1","plasmid_AE272","NZ_AP024802.1",65737,65737,"chromosome",1,"MOB-suite","A. baumannii"
"GCF_019703285.1_ASM1970328v1","plasmid_AE690","NZ_AP024802.1",1447,14264,"chromosome",0.101,"MOB-suite","A. baumannii"
"GCF_019703285.1_ASM1970328v1","plasmid_AE271","NZ_AP024802.1",29977,29977,"chromosome",1,"MOB-suite","A. baumannii"
"GCF_019903175.1_ASM1990317v1","plasmid_AE272","NZ_CP059546.1",79700,79700,"chromosome",1,"MOB-suite","A. baumannii"
"GCF_015732435.1_ASM1573243v1","plasmid_AF972","NZ_CP060732.1",65988,31569,"chromosome",0.091,"MOB-suite","A. baumannii"
"GCF_015732435.1_ASM1573243v1","plasmid_AE272","NZ_CP060732.1",41073,41073,"chromosome",1,"MOB-suite","A. baumannii"
"GCF_015732435.1_ASM1573243v1","plasmid_AE271","NZ_CP060732.1",64339,42145,"chromosome",0.976,"MOB-suite","A. baumannii"
"GCF_021484905.1_ASM2148490v1","plasmid_AF972","NZ_CP090607.1",25873,17500,"chromosome",0.522,"MOB-suite","A. baumannii"
"GCF_021484905.1_ASM2148490v1","plasmid_AC715","NZ_CP090607.1",24476,20109,"chromosome",0.783,"MOB-suite","A. baumannii"
"GCF_013787185.1_ASM1378718v1","plasmid_AB409","NZ_CP059386.1",51677,46734,"chromosome",0.973,"MOB-suite","A. baumannii"
"GCF_013787185.1_ASM1378718v1","plasmid_AE272","NZ_CP059386.1",103915,103915,"chromosome",1,"MOB-suite","A. baumannii"
"GCF_013787185.1_ASM1378718v1","plasmid_AE271","NZ_CP059386.1",61364,60193,"chromosome",0.981,"MOB-suite","A. baumannii"
"GCF_013787185.1_ASM1378718v1","plasmid_AD096","NZ_CP059386.1",7091,7091,"chromosome",1,"MOB-suite","A. baumannii"
"GCF_013787185.1_ASM1378718v1","plasmid_AD743","NZ_CP059386.1",12046,14566,"chromosome",0.463,"MOB-suite","A. baumannii"
"GCF_018831125.1_ASM1883112v1","plasmid_AE271","NZ_CP048131.1",45712,45712,"chromosome",1,"MOB-suite","A. baumannii"
"GCF_014322245.1_ASM1432224v1","plasmid_AE271","NZ_CP047973.1",56796,56796,"chromosome",1,"MOB-suite","A. baumannii"
"GCF_014322245.1_ASM1432224v1","plasmid_AD096","NZ_CP047973.1",12852,12852,"chromosome",1,"MOB-suite","A. baumannii"
"GCF_016903215.1_ASM1690321v1","plasmid_AE272","NZ_CP069851.1",157329,143147,"chromosome",0.993,"MOB-suite","A. baumannii"
"GCF_016903215.1_ASM1690321v1","plasmid_AC237","NZ_CP069851.1",18487,18487,"chromosome",1,"MOB-suite","A. baumannii"
"GCF_016903215.1_ASM1690321v1","plasmid_AC163","NZ_CP069851.1",2681,11412,"chromosome",0.235,"MOB-suite","A. baumannii"
"GCF_014705785.1_ASM1470578v1","plasmid_AE272","NZ_CP061517.1",120833,99593,"chromosome",0.988,"MOB-suite","A. baumannii"
"GCF_020810655.1_ASM2081065v1","plasmid_AA858","NZ_CP085788.1",84925,84925,"chromosome",1,"MOB-suite","A. baumannii"
"GCF_020810655.1_ASM2081065v1","plasmid_AA667","NZ_CP085788.1",25915,21517,"chromosome",0.796,"MOB-suite","A. baumannii"
"GCF_016127515.1_ASM1612751v1","plasmid_AC715","NZ_CP066016.1",13296,12255,"chromosome",0.915,"MOB-suite","A. baumannii"
"GCF_014159355.1_ASM1415935v1","plasmid_AE272","NZ_AP022077.1",65843,65843,"chromosome",1,"MOB-suite","A. baumannii"
"GCF_014159355.1_ASM1415935v1","plasmid_AE271","NZ_AP022077.1",43770,43770,"chromosome",1,"MOB-suite","A. baumannii"
"GCF_019903215.1_ASM1990321v1","plasmid_AC715","NZ_CP059548.1",36429,20865,"chromosome",0.876,"MOB-suite","A. baumannii"
"GCF_019903215.1_ASM1990321v1","plasmid_AC163","NZ_CP059548.1",5081,3763,"chromosome",0.65,"MOB-suite","A. baumannii"
"GCF_016919505.2_ASM1691950v2","plasmid_AF972","NZ_CP070362.2",26517,23599,"chromosome",0.876,"MOB-suite","A. baumannii"
"GCF_016919505.2_ASM1691950v2","plasmid_AE272","NZ_CP070362.2",91080,88725,"chromosome",0.987,"MOB-suite","A. baumannii"
"GCF_016919505.2_ASM1691950v2","plasmid_AE271","NZ_CP070362.2",60706,60707,"chromosome",1,"MOB-suite","A. baumannii"
"GCF_016919505.2_ASM1691950v2","plasmid_AB082","NZ_CP070362.2",9094,59171,"chromosome",0.154,"MOB-suite","A. baumannii"
"GCF_016919505.2_ASM1691950v2","plasmid_AH171","NZ_CP070362.2",35820,35820,"chromosome",1,"MOB-suite","A. baumannii"
"GCF_016919505.2_ASM1691950v2","plasmid_AD096","NZ_CP070362.2",7905,7908,"chromosome",1,"MOB-suite","A. baumannii"
"GCF_019458485.1_ASM1945848v1","plasmid_AF972","NZ_CP080452.1",25873,17500,"chromosome",0.522,"MOB-suite","A. baumannii"
"GCF_019458485.1_ASM1945848v1","plasmid_AC715","NZ_CP080452.1",24477,20110,"chromosome",0.783,"MOB-suite","A. baumannii"
"GCF_021609965.1_ASM2160996v1","plasmid_AF972","NZ_CP091172.1",25873,17500,"chromosome",0.522,"MOB-suite","A. baumannii"
"GCF_021609965.1_ASM2160996v1","plasmid_AC715","NZ_CP091172.1",24477,20110,"chromosome",0.783,"MOB-suite","A. baumannii"
"GCF_014705865.1_ASM1470586v1","plasmid_AF972","NZ_CP061521.1",25849,25849,"chromosome",1,"MOB-suite","A. baumannii"
"GCF_014705865.1_ASM1470586v1","plasmid_AE272","NZ_CP061521.1",98413,98413,"chromosome",1,"MOB-suite","A. baumannii"
"GCF_014705805.1_ASM1470580v1","plasmid_AB114","NZ_CP061514.1",23882,113478,"chromosome",0.013,"MOB-suite","A. baumannii"
"GCF_014705805.1_ASM1470580v1","plasmid_AE272","NZ_CP061514.1",98413,98413,"chromosome",1,"MOB-suite","A. baumannii"
"GCF_014705805.1_ASM1470580v1","plasmid_AB082","NZ_CP061514.1",13707,74001,"chromosome",0.021,"MOB-suite","A. baumannii"
"GCF_016903135.1_ASM1690313v1","plasmid_AB595","NZ_CP069840.1",10190,10190,"chromosome",1,"MOB-suite","A. baumannii"
"GCF_015910475.1_ASM1591047v1","bin_component_0","NZ_CP065432.1",76231,38649,"chromosome",0.028,"plasmidSPAdes","A. baumannii"
"GCF_013372085.1_ASM1337208v1","bin_component_0","NZ_CP053098.1",51236,42027,"chromosome",0.735,"plasmidSPAdes","A. baumannii"
"GCF_019458485.1_ASM1945848v1","bin_component_0","NZ_CP080452.1",68337,48754,"chromosome",0.876,"plasmidSPAdes","A. baumannii"
"GCF_014705825.1_ASM1470582v1","bin_component_0","NZ_CP061525.1",269315,248695,"chromosome",0.958,"plasmidSPAdes","A. baumannii"
"GCF_014705865.1_ASM1470586v1","bin_component_1","NZ_CP061521.1",656,111682,"chromosome",0.006,"plasmidSPAdes","A. baumannii"
"GCF_014705865.1_ASM1470586v1","bin_component_0","NZ_CP061521.1",506020,483147,"chromosome",0.984,"plasmidSPAdes","A. baumannii"
"GCF_014705865.1_ASM1470586v1","bin_component_2","NZ_CP061521.1",24037,26368,"chromosome",0.711,"plasmidSPAdes","A. baumannii"
"GCF_016919525.1_ASM1691952v2","bin_component_3","NZ_CP070358.1",12556,10937,"chromosome",0.714,"plasmidSPAdes","A. baumannii"
"GCF_016919525.1_ASM1691952v2","bin_component_2","NZ_CP070358.1",10406,13156,"chromosome",0.791,"plasmidSPAdes","A. baumannii"
"GCF_018604365.1_ASM1860436v1","bin_component_1","NZ_CP071763.1",8731,8808,"chromosome",0.983,"plasmidSPAdes","A. baumannii"
"GCF_018604365.1_ASM1860436v1","bin_component_0","NZ_CP071763.1",52021,16247,"chromosome",0.147,"plasmidSPAdes","A. baumannii"
"GCF_018604365.1_ASM1860436v1","bin_component_2","NZ_CP071763.1",2277,2354,"chromosome",0.967,"plasmidSPAdes","A. baumannii"
"GCF_019703285.1_ASM1970328v1","bin_component_0","NZ_AP024802.1",27287,72485,"chromosome",0.161,"plasmidSPAdes","A. baumannii"
"GCF_016903135.1_ASM1690313v1","bin_component_0","NZ_CP069840.1",9731,85364,"chromosome",0.101,"plasmidSPAdes","A. baumannii"
"GCF_014159355.1_ASM1415935v1","bin_component_0","NZ_AP022077.1",4006,13295,"chromosome",0.301,"plasmidSPAdes","A. baumannii"
"GCF_019903235.1_ASM1990323v1","bin_component_0","NZ_CP061705.1",53852,256858,"chromosome",0.106,"plasmidSPAdes","A. baumannii"
"GCF_016919505.2_ASM1691950v2","bin_component_3","NZ_CP070362.2",12480,12480,"chromosome",1,"plasmidSPAdes","A. baumannii"
"GCF_016919505.2_ASM1691950v2","bin_component_4","NZ_CP070362.2",10181,10937,"chromosome",0.931,"plasmidSPAdes","A. baumannii"
"GCF_016919505.2_ASM1691950v2","bin_component_2","NZ_CP070362.2",16065,16065,"chromosome",1,"plasmidSPAdes","A. baumannii"
"GCF_021609965.1_ASM2160996v1","bin_component_1","NZ_CP091172.1",25320,25323,"chromosome",1,"plasmidSPAdes","A. baumannii"
"GCF_021609965.1_ASM2160996v1","bin_component_0","NZ_CP091172.1",48021,28501,"chromosome",0.785,"plasmidSPAdes","A. baumannii"
"GCF_014705885.1_ASM1470588v1","bin_component_1","NZ_CP061519.1",20111,20111,"chromosome",1,"plasmidSPAdes","A. baumannii"
"GCF_014705885.1_ASM1470588v1","bin_component_0","NZ_CP061519.1",75924,76025,"chromosome",0.999,"plasmidSPAdes","A. baumannii"
"GCF_014705885.1_ASM1470588v1","bin_component_2","NZ_CP061519.1",13592,18864,"chromosome",0.721,"plasmidSPAdes","A. baumannii"
"GCF_018808925.1_ASM1880892v1","bin_component_1","NZ_CP048849.1",44187,44224,"chromosome",0.999,"plasmidSPAdes","A. baumannii"
"GCF_018808925.1_ASM1880892v1","bin_component_0","NZ_CP048849.1",174846,152248,"chromosome",0.716,"plasmidSPAdes","A. baumannii"
"GCF_013787185.1_ASM1378718v1","bin_component_0","NZ_CP059386.1",57162,188497,"chromosome",0.303,"plasmidSPAdes","A. baumannii"
"GCF_021484905.1_ASM2148490v1","bin_component_0","NZ_CP090607.1",164337,11045,"chromosome",0.491,"plasmidSPAdes","A. baumannii"
"GCF_014169655.1_ASM1416965v1","bin_component_1","NZ_AP022238.1",73680,73680,"chromosome",1,"plasmidSPAdes","A. baumannii"
"GCF_014169655.1_ASM1416965v1","bin_component_0","NZ_AP022238.1",3448,117890,"chromosome",0.029,"plasmidSPAdes","A. baumannii"
"GCF_014705805.1_ASM1470580v1","bin_component_1","NZ_CP061514.1",20111,20111,"chromosome",1,"plasmidSPAdes","A. baumannii"
"GCF_015732435.1_ASM1573243v1","bin_component_0","NZ_CP060732.1",64033,42058,"chromosome",0.208,"plasmidSPAdes","A. baumannii"
"GCF_014705785.1_ASM1470578v1","bin_component_1","NZ_CP061517.1",20109,20111,"chromosome",1,"plasmidSPAdes","A. baumannii"
"GCF_014705785.1_ASM1470578v1","bin_component_0","NZ_CP061517.1",169034,170658,"chromosome",0.926,"plasmidSPAdes","A. baumannii"
"GCF_014705845.1_ASM1470584v1","bin_component_1","NZ_CP061523.1",20427,20427,"chromosome",1,"plasmidSPAdes","A. baumannii"
"GCF_014705845.1_ASM1470584v1","bin_component_0","NZ_CP061523.1",267157,268661,"chromosome",0.94,"plasmidSPAdes","A. baumannii"
"GCF_016127515.1_ASM1612751v1","bin_component_0","NZ_CP066016.1",18224,13851,"chromosome",0.751,"plasmidSPAdes","A. baumannii"
"GCF_020810655.1_ASM2081065v1","GCF_020810655.1_ASM2081065v1_bin_2","NZ_CP085788.1",4519,4519,"chromosome",1,"gplas2.0_plasmidEC","A. baumannii"
"GCF_019458485.1_ASM1945848v1","GCF_019458485.1_ASM1945848v1_bin_1","NZ_CP080452.1",247528,247528,"chromosome",1,"gplas2.0_plasmidEC","A. baumannii"
"GCF_013787185.1_ASM1378718v1","GCF_013787185.1_ASM1378718v1_bin_1","NZ_CP059386.1",59477,59482,"chromosome",1,"gplas2.0_plasmidEC","A. baumannii"
"GCF_021484905.1_ASM2148490v1","GCF_021484905.1_ASM2148490v1_bin_1","NZ_CP090607.1",247527,247527,"chromosome",1,"gplas2.0_plasmidEC","A. baumannii"
"GCF_013372085.1_ASM1337208v1","GCF_013372085.1_ASM1337208v1_bin_1","NZ_CP053098.1",9515,9515,"chromosome",1,"gplas2.0_plasmidEC","A. baumannii"
"GCF_018604365.1_ASM1860436v1","GCF_018604365.1_ASM1860436v1_bin_1","NZ_CP071763.1",345,2277,"chromosome",0.152,"gplas2.0_plasmidEC","A. baumannii"
"GCF_019903235.1_ASM1990323v1","GCF_019903235.1_ASM1990323v1_bin_4","NZ_CP061705.1",1727,23789,"chromosome",0.073,"gplas2.0_plasmidEC","A. baumannii"
"GCF_019903235.1_ASM1990323v1","GCF_019903235.1_ASM1990323v1_bin_1","NZ_CP061705.1",2344,54329,"chromosome",0.043,"gplas2.0_plasmidEC","A. baumannii"
"GCF_019903215.1_ASM1990321v1","GCF_019903215.1_ASM1990321v1_bin_1","NZ_CP059548.1",2383,2383,"chromosome",1,"gplas2.0_plasmidEC","A. baumannii"
"GCF_014169655.1_ASM1416965v1","GCF_014169655.1_ASM1416965v1_bin_1","NZ_AP022238.1",3814,117936,"chromosome",0.032,"gplas2.0_plasmidEC","A. baumannii"
"GCF_014705825.1_ASM1470582v1","GCF_014705825.1_ASM1470582v1_bin_1","NZ_CP061525.1",6490,6490,"chromosome",1,"gplas2.0_plasmidEC","A. baumannii"
"GCF_021609965.1_ASM2160996v1","GCF_021609965.1_ASM2160996v1_bin_1","NZ_CP091172.1",247528,247528,"chromosome",1,"gplas2.0_plasmidEC","A. baumannii"
