"software","FN","FP","TN","TP","recall","precision","f1_score"
"RFplasmid",59,102,2115,90,0.6,0.47,0.53
"Centrifuge",19,19,2198,130,0.87,0.87,0.87
"Platon",31,58,2159,118,0.79,0.67,0.73
"plasmidEC",24,63,2154,125,0.84,0.66,0.74
