"software","variable","value","species"
"RFplasmid","recall",0.6,"A. baumannii"
"Centrifuge","recall",0.87,"A. baumannii"
"Platon","recall",0.79,"A. baumannii"
"plasmidEC","recall",0.84,"A. baumannii"
"RFplasmid","precision",0.47,"A. baumannii"
"Centrifuge","precision",0.87,"A. baumannii"
"Platon","precision",0.67,"A. baumannii"
"plasmidEC","precision",0.66,"A. baumannii"
"RFplasmid","f1_score",0.53,"A. baumannii"
"Centrifuge","f1_score",0.87,"A. baumannii"
"Platon","f1_score",0.73,"A. baumannii"
"plasmidEC","f1_score",0.74,"A. baumannii"
