GCF_019977575.1,bin_component_1,NZ_AP024837.1,30057,30068
GCF_019977575.1,bin_component_3,NZ_AP024842.1,5849,5977
GCF_019977575.1,bin_component_4,no_correct_alignments,0,0
GCF_019977575.1,bin_component_0,NZ_AP024839.1,70594,144744
GCF_019977575.1,bin_component_0,NZ_AP024837.1,86480,144744
GCF_019977575.1,bin_component_0,NZ_AP024838.1,9278,144744
GCF_019977575.1,bin_component_2,NZ_AP024840.1,9503,20632
GCF_019977575.1,bin_component_2,NZ_AP024841.1,6303,20632
GCF_028335585.1,bin_component_0,NZ_CP116544.1,218421,295056
GCF_028335585.1,bin_component_0,NZ_CP116543.1,96738,295056
GCF_028335585.1,bin_component_0,NZ_CP116545.1,35381,295056
GCF_016406425.1,bin_component_1,NZ_CP066455.1,6160,11341
GCF_016406425.1,bin_component_0,NZ_CP066453.1,47773,157423
GCF_016406425.1,bin_component_0,NZ_CP066454.1,38460,157423
GCF_016406425.1,bin_component_0,NZ_CP066452.1,18916,157423
GCF_016406425.1,bin_component_0,NZ_CP066451.1,114027,157423
GCF_016406425.1,bin_component_2,NZ_CP066456.1,1980,2057
GCF_028335265.1,bin_component_0,NZ_CP116522.1,41360,55274
GCF_028335265.1,bin_component_0,NZ_CP116520.1,10397,55274
GCF_028335265.1,bin_component_0,NZ_CP116521.1,10777,55274
GCF_016406405.1,bin_component_1,NZ_CP066439.1,8194,15039
GCF_016406405.1,bin_component_0,NZ_CP066434.1,212527,295206
GCF_016406405.1,bin_component_0,NZ_CP066436.1,65409,295206
GCF_016406405.1,bin_component_0,NZ_CP066437.1,53347,295206
GCF_016406405.1,bin_component_0,NZ_CP066438.1,33049,295206
GCF_016406405.1,bin_component_0,NZ_CP066435.1,30000,295206
GCF_020162155.1,bin_component_1,NZ_CP083912.1,10488,10488
GCF_020162155.1,bin_component_0,NZ_CP083913.1,178448,319502
GCF_020162155.1,bin_component_0,NZ_CP083912.1,174613,319502
GCF_020162155.1,bin_component_0,NZ_CP083914.1,40472,319502
GCF_020162155.1,bin_component_0,NZ_CP083915.1,6892,319502
GCF_020162155.1,bin_component_2,NZ_CP083919.1,1979,2056
GCF_016415505.1,bin_component_1,NZ_CP066666.1,4374,4451
GCF_016415505.1,bin_component_0,NZ_CP066661.1,61644,378161
GCF_016415505.1,bin_component_0,NZ_CP066659.1,186826,378161
GCF_016415505.1,bin_component_0,NZ_CP066660.1,137464,378161
GCF_016415505.1,bin_component_0,NZ_CP066662.1,49860,378161
GCF_016415505.1,bin_component_0,NZ_CP066664.1,6175,378161
GCF_016415505.1,bin_component_0,NZ_CP066663.1,7293,378161
GCF_016415505.1,bin_component_0,NZ_CP066665.1,5212,378161
GCF_015999405.1,bin_component_1,no_correct_alignments,0,0
GCF_015999405.1,bin_component_0,NZ_CP065525.1,116051,251698
GCF_015999405.1,bin_component_0,NZ_CP065523.1,82403,251698
GCF_015999405.1,bin_component_0,NZ_CP065526.1,21011,251698
GCF_015999405.1,bin_component_0,NZ_CP065524.1,79967,251698
GCF_015999405.1,bin_component_2,no_correct_alignments,0,0
GCF_016415445.1,bin_component_1,NZ_CP066629.1,54585,54724
GCF_016415445.1,bin_component_3,NZ_CP066633.1,6311,6388
GCF_016415445.1,bin_component_4,NZ_CP066636.1,3007,3084
GCF_016415445.1,bin_component_0,NZ_CP066629.1,148428,251395
GCF_016415445.1,bin_component_0,NZ_CP066630.1,71886,251395
GCF_016415445.1,bin_component_0,NZ_CP066631.1,53535,251395
GCF_016415445.1,bin_component_0,NZ_CP066632.1,30538,251395
GCF_016415445.1,bin_component_2,NZ_CP066634.1,4305,8533
GCF_016415445.1,bin_component_2,NZ_CP066635.1,4033,8533
GCF_028335625.1,bin_component_0,NZ_CP116550.1,6507,68177
GCF_028335625.1,bin_component_0,NZ_CP116552.1,34741,68177
GCF_028335625.1,bin_component_0,NZ_CP116549.1,41527,68177
GCF_019456595.1,bin_component_1,NZ_CP074109.1,31994,11170
GCF_019456595.1,bin_component_0,NZ_CP074110.1,161096,168911
GCF_019456595.1,bin_component_0,NZ_CP074109.1,32082,168911
GCF_016415485.1,bin_component_1,NZ_CP066677.1,7165,14142
GCF_016415485.1,bin_component_1,NZ_CP066678.1,5995,14142
GCF_016415485.1,bin_component_0,NZ_CP066674.1,146130,270135
GCF_016415485.1,bin_component_0,NZ_CP066676.1,16434,270135
GCF_016415485.1,bin_component_0,NZ_CP066675.1,17474,270135
GCF_016415485.1,bin_component_0,NZ_CP066673.1,155937,270135
GCF_016415485.1,bin_component_2,NZ_CP066679.1,4305,4382
GCF_016415365.1,bin_component_1,NZ_CP066618.1,6303,6380
GCF_016415365.1,bin_component_0,NZ_CP066615.1,38268,159622
GCF_016415365.1,bin_component_0,NZ_CP066616.1,50709,159622
GCF_016415365.1,bin_component_0,NZ_CP066617.1,32503,159622
GCF_016415365.1,bin_component_0,NZ_CP066614.1,97899,159622
GCF_016415365.1,bin_component_0,NZ_CP066620.1,2830,159622
GCF_023375225.1,bin_component_0,NZ_CP088197.1,19248,38919
GCF_023375225.1,bin_component_0,NZ_CP088196.1,17099,38919
GCF_023375225.1,bin_component_0,NZ_CP088195.1,1603,38919
GCF_019175465.1,bin_component_0,NZ_CP072887.1,23369,32362
GCF_019175465.1,bin_component_0,NZ_CP072886.1,10923,32362
GCF_016406465.1,bin_component_1,NZ_CP066407.1,6173,6250
GCF_016406465.1,bin_component_3,NZ_CP066397.1,4372,4449
GCF_016406465.1,bin_component_4,NZ_CP066398.1,2055,2132
GCF_016406465.1,bin_component_0,NZ_CP066396.1,291430,432312
GCF_016406465.1,bin_component_0,NZ_CP066402.1,83887,432312
GCF_016406465.1,bin_component_0,NZ_CP066404.1,46814,432312
GCF_016406465.1,bin_component_0,NZ_CP066406.1,28321,432312
GCF_016406465.1,bin_component_0,NZ_CP066405.1,13677,432312
GCF_016406465.1,bin_component_0,NZ_CP066401.1,17558,432312
GCF_016406465.1,bin_component_0,NZ_CP066403.1,3564,432312
GCF_016406465.1,bin_component_2,NZ_CP066408.1,4466,4543
GCF_016406365.1,bin_component_1,NZ_CP066419.1,6303,6380
GCF_016406365.1,bin_component_0,NZ_CP066417.1,135913,299671
GCF_016406365.1,bin_component_0,NZ_CP066415.1,226957,299671
GCF_016406365.1,bin_component_0,NZ_CP066416.1,32947,299671
GCF_016406365.1,bin_component_0,NZ_CP066418.1,9002,299671
GCF_016406365.1,bin_component_2,NZ_CP066420.1,1980,2057
GCF_023375385.1,bin_component_1,NZ_CP091215.1,39549,39626
GCF_023375385.1,bin_component_0,NZ_CP091214.1,21276,45310
GCF_023375385.1,bin_component_0,NZ_CP091213.1,66245,45310
GCF_016406525.1,bin_component_1,NZ_CP066447.1,6312,11341
GCF_016406525.1,bin_component_1,NZ_CP066448.1,4952,11341
GCF_016406525.1,bin_component_0,NZ_CP066445.1,41419,157933
GCF_016406525.1,bin_component_0,NZ_CP066446.1,39237,157933
GCF_016406525.1,bin_component_0,NZ_CP066444.1,29903,157933
GCF_016406525.1,bin_component_0,NZ_CP066443.1,128771,157933
GCF_016406345.1,bin_component_1,NZ_CP066472.1,1980,2057
GCF_016406345.1,bin_component_0,NZ_CP066467.1,47700,120412
GCF_016406345.1,bin_component_0,NZ_CP066468.1,37654,120412
GCF_016406345.1,bin_component_0,NZ_CP066466.1,110441,120412
GCF_023375405.1,bin_component_1,NZ_CP091220.1,5688,5765
GCF_023375405.1,bin_component_0,NZ_CP091219.1,18902,34401
GCF_023375405.1,bin_component_0,NZ_CP091217.1,8677,34401
GCF_023375405.1,bin_component_0,NZ_CP091218.1,343,34401
GCF_016415405.1,bin_component_1,NZ_CP066638.1,87248,87946
GCF_016415405.1,bin_component_3,NZ_CP066642.1,6303,6380
GCF_016415405.1,bin_component_0,NZ_CP066639.1,65962,371542
GCF_016415405.1,bin_component_0,NZ_CP066637.1,334582,371542
GCF_016415405.1,bin_component_0,NZ_CP066640.1,55382,371542
GCF_016415405.1,bin_component_0,NZ_CP066641.1,41413,371542
GCF_016415405.1,bin_component_2,NZ_CP066637.1,54566,54603
GCF_016406385.1,bin_component_1,NZ_CP066425.1,12538,10950
GCF_016406385.1,bin_component_1,NZ_CP066422.1,1896,10950
GCF_016406385.1,bin_component_0,NZ_CP066423.1,54051,154377
GCF_016406385.1,bin_component_0,NZ_CP066424.1,31345,154377
GCF_016406385.1,bin_component_0,NZ_CP066421.1,112479,154377
GCF_016406385.1,bin_component_0,NZ_CP066422.1,21007,154377
GCF_016406385.1,bin_component_2,NZ_CP066426.1,4374,4451
GCF_026409165.1,bin_component_0,NZ_CP112864.1,82598,148501
GCF_026409165.1,bin_component_0,NZ_CP112862.1,98888,148501
GCF_026409165.1,bin_component_0,NZ_CP112865.1,6380,148501
GCF_026409165.1,bin_component_0,NZ_CP112863.1,18257,148501
GCF_016406565.1,bin_component_1,NZ_CP066431.1,6303,6380
GCF_016406565.1,bin_component_0,NZ_CP066430.1,49514,150229
GCF_016406565.1,bin_component_0,NZ_CP066428.1,49837,150229
GCF_016406565.1,bin_component_0,NZ_CP066429.1,40148,150229
GCF_016406565.1,bin_component_0,NZ_CP066427.1,107003,150229
GCF_016406565.1,bin_component_2,NZ_CP066427.1,1971,2048
GCF_016415425.1,bin_component_1,NZ_CP066645.1,21665,21830
GCF_016415425.1,bin_component_3,NZ_CP066646.1,1980,2057
GCF_016415425.1,bin_component_0,NZ_CP066645.1,631036,651580
GCF_016415425.1,bin_component_0,NZ_CP066648.1,57629,651580
GCF_016415425.1,bin_component_0,NZ_CP066649.1,39584,651580
GCF_016415425.1,bin_component_0,NZ_CP066647.1,19553,651580
GCF_016415425.1,bin_component_0,NZ_CP066652.1,3675,651580
GCF_016415425.1,bin_component_2,NZ_CP066650.1,4992,11409
GCF_016415425.1,bin_component_2,NZ_CP066651.1,6263,11409
GCF_015999425.1,bin_component_1,NZ_CP065528.1,8873,22664
GCF_015999425.1,bin_component_1,NZ_CP065530.1,8139,22664
GCF_015999425.1,bin_component_3,no_correct_alignments,0,0
GCF_015999425.1,bin_component_4,no_correct_alignments,0,0
GCF_015999425.1,bin_component_0,NZ_CP065529.1,40825,111769
GCF_015999425.1,bin_component_0,NZ_CP065527.1,96849,111769
GCF_015999425.1,bin_component_2,no_correct_alignments,0,0
GCF_016415325.1,bin_component_1,NZ_CP066591.1,54566,54603
GCF_016415325.1,bin_component_0,NZ_CP066591.1,156018,205414
GCF_016415325.1,bin_component_0,NZ_CP066592.1,40773,205414
GCF_016415325.1,bin_component_0,NZ_CP066593.1,48730,205414
GCF_016415325.1,bin_component_0,NZ_CP066594.1,35023,205414
GCF_016415325.1,bin_component_2,NZ_CP066596.1,6303,11332
GCF_016415325.1,bin_component_2,NZ_CP066597.1,4952,11332
GCF_016126675.1,bin_component_1,NZ_CP065934.1,3856,11121
GCF_016126675.1,bin_component_1,NZ_CP065935.1,1836,11121
GCF_016126675.1,bin_component_0,NZ_CP065931.1,56292,171177
GCF_016126675.1,bin_component_0,NZ_CP065932.1,39194,171177
GCF_016126675.1,bin_component_0,NZ_CP065930.1,9156,171177
GCF_016126675.1,bin_component_0,NZ_CP065928.1,75718,171177
GCF_016126675.1,bin_component_0,NZ_CP065929.1,19648,171177
GCF_016415385.1,bin_component_1,NZ_CP066611.1,6303,6380
GCF_016415385.1,bin_component_0,NZ_CP066606.1,914655,995039
GCF_016415385.1,bin_component_0,NZ_CP066608.1,99956,995039
GCF_016415385.1,bin_component_0,NZ_CP066609.1,52659,995039
GCF_016415385.1,bin_component_0,NZ_CP066610.1,32442,995039
GCF_016415385.1,bin_component_0,NZ_CP066613.1,2743,995039
GCF_023375205.1,bin_component_0,NZ_CP088194.1,4147,4224
GCF_028335205.1,bin_component_0,NZ_CP116516.1,34913,63203
GCF_028335205.1,bin_component_0,NZ_CP116515.1,16372,63203
GCF_028335205.1,bin_component_0,NZ_CP116514.1,5423,63203
GCF_028335225.1,bin_component_0,NZ_CP116532.1,7297,56557
GCF_028335225.1,bin_component_0,NZ_CP116533.1,13686,56557
GCF_028335225.1,bin_component_0,NZ_CP116534.1,21458,56557
GCF_028335225.1,bin_component_0,NZ_CP116535.1,12332,56557
GCF_022647945.1,bin_component_1,NZ_CP076482.1,4374,4451
GCF_022647945.1,bin_component_0,NZ_CP076479.1,70083,297583
GCF_022647945.1,bin_component_0,NZ_CP076478.1,144108,297583
GCF_022647945.1,bin_component_0,NZ_CP076481.1,37377,297583
GCF_022647945.1,bin_component_0,NZ_CP076477.1,83490,297583
GCF_022647945.1,bin_component_0,NZ_CP076480.1,8479,297583
GCF_907177285.1,bin_component_1,NZ_OU016042.1,6174,6301
GCF_907177285.1,bin_component_3,NZ_OU016044.1,2947,3074
GCF_907177285.1,bin_component_0,NZ_OU016038.1,103236,177154
GCF_907177285.1,bin_component_0,NZ_OU016037.1,20490,177154
GCF_907177285.1,bin_component_0,NZ_OU016036.1,94284,177154
GCF_907177285.1,bin_component_0,NZ_OU016040.1,7670,177154
GCF_907177285.1,bin_component_0,NZ_OU016039.1,2544,177154
GCF_907177285.1,bin_component_2,NZ_OU016041.1,6501,5682
GCF_016415465.1,bin_component_1,NZ_CP066626.1,6303,6380
GCF_016415465.1,bin_component_0,NZ_CP066624.1,47717,154455
GCF_016415465.1,bin_component_0,NZ_CP066623.1,46768,154455
GCF_016415465.1,bin_component_0,NZ_CP066625.1,37880,154455
GCF_016415465.1,bin_component_0,NZ_CP066622.1,109670,154455
GCF_019456555.1,bin_component_1,NZ_CP074105.1,31994,11170
GCF_019456555.1,bin_component_0,NZ_CP074106.1,162489,169616
GCF_019456555.1,bin_component_0,NZ_CP074105.1,35052,169616
GCF_028335485.1,bin_component_0,NZ_CP116528.1,5548,56281
GCF_028335485.1,bin_component_0,NZ_CP116529.1,13377,56281
GCF_028335485.1,bin_component_0,NZ_CP116530.1,21231,56281
GCF_028335485.1,bin_component_0,NZ_CP116531.1,13662,56281
GCF_023375365.1,bin_component_0,NZ_CP091211.1,84517,112162
GCF_023375365.1,bin_component_0,NZ_CP091210.1,43667,112162
GCF_023375365.1,bin_component_0,NZ_CP091212.1,12510,112162
GCF_016406585.1,bin_component_1,NZ_CP066484.1,6303,6380
GCF_016406585.1,bin_component_0,NZ_CP066482.1,49825,140042
GCF_016406585.1,bin_component_0,NZ_CP066481.1,48820,140042
GCF_016406585.1,bin_component_0,NZ_CP066483.1,29658,140042
GCF_016406585.1,bin_component_0,NZ_CP066480.1,104996,140042
GCF_016406585.1,bin_component_2,NZ_CP066485.1,1980,2057
GCF_028335525.1,bin_component_1,NZ_CP116536.1,32427,11241
GCF_028335525.1,bin_component_0,NZ_CP116539.1,15523,15600
GCF_020162175.1,bin_component_1,NZ_CP083929.1,1979,2056
GCF_020162175.1,bin_component_0,NZ_CP083920.1,257353,290538
GCF_020162175.1,bin_component_0,NZ_CP083922.1,42131,290538
GCF_020162175.1,bin_component_0,NZ_CP083921.1,22966,290538
GCF_020162175.1,bin_component_0,NZ_CP083924.1,6892,290538
GCF_020162175.1,bin_component_0,NZ_CP083928.1,2857,290538
GCF_020162175.1,bin_component_0,NZ_CP083927.1,2488,290538
GCF_028335245.1,bin_component_0,NZ_CP116518.1,99051,189735
GCF_028335245.1,bin_component_0,NZ_CP116519.1,71973,189735
GCF_028335245.1,bin_component_0,NZ_CP116517.1,66727,189735
GCF_019175525.1,bin_component_1,NZ_CP072896.1,35732,35732
GCF_019175525.1,bin_component_0,NZ_CP072895.1,37120,66197
GCF_019175525.1,bin_component_0,NZ_CP072894.1,58873,66197
GCF_028335565.1,bin_component_0,NZ_CP116541.1,3893,26395
GCF_028335565.1,bin_component_0,NZ_CP116540.1,39362,26395
GCF_016406445.1,bin_component_1,NZ_CP066393.1,6172,6249
GCF_016406445.1,bin_component_3,NZ_CP066395.1,3199,3276
GCF_016406445.1,bin_component_0,NZ_CP066389.1,322914,312208
GCF_016406445.1,bin_component_0,NZ_CP066391.1,54508,312208
GCF_016406445.1,bin_component_0,NZ_CP066390.1,16664,312208
GCF_016406445.1,bin_component_0,NZ_CP066392.1,28474,312208
GCF_016406445.1,bin_component_2,NZ_CP066394.1,4375,4452
GCF_907176815.1,bin_component_1,NZ_OU016032.1,6174,6301
GCF_907176815.1,bin_component_3,NZ_OU016034.1,2947,3074
GCF_907176815.1,bin_component_0,NZ_OU016030.1,6479,57427
GCF_907176815.1,bin_component_0,NZ_OU016028.1,4897,57427
GCF_907176815.1,bin_component_0,NZ_OU016027.1,88115,57427
GCF_907176815.1,bin_component_0,NZ_OU016029.1,5624,57427
GCF_907176815.1,bin_component_2,NZ_OU016031.1,5428,5683
GCF_016415565.1,bin_component_1,NZ_CP066671.1,6175,12064
GCF_016415565.1,bin_component_1,NZ_CP066672.1,5889,12064
GCF_016415565.1,bin_component_0,NZ_CP066667.1,310599,280327
GCF_016415565.1,bin_component_0,NZ_CP066669.1,27351,280327
GCF_016415565.1,bin_component_0,NZ_CP066668.1,20626,280327
GCF_022648125.1,bin_component_1,NZ_CP076487.1,4374,4451
GCF_022648125.1,bin_component_0,NZ_CP076485.1,77296,385003
GCF_022648125.1,bin_component_0,NZ_CP076484.1,238229,385003
GCF_022648125.1,bin_component_0,NZ_CP076486.1,37473,385003
GCF_022648125.1,bin_component_0,NZ_CP076483.1,91535,385003
GCF_015999605.1,bin_component_1,NZ_CP065553.1,1980,2057
GCF_015999605.1,bin_component_0,NZ_CP065549.1,48162,152666
GCF_015999605.1,bin_component_0,NZ_CP065548.1,46888,152666
GCF_015999605.1,bin_component_0,NZ_CP065550.1,38340,152666
GCF_015999605.1,bin_component_0,NZ_CP065547.1,118452,152666
GCF_016406505.1,bin_component_1,NZ_CP066464.1,5212,16861
GCF_016406505.1,bin_component_1,NZ_CP066462.1,6193,16861
GCF_016406505.1,bin_component_1,NZ_CP066463.1,1190,16861
GCF_016406505.1,bin_component_0,NZ_CP066457.1,230920,503216
GCF_016406505.1,bin_component_0,NZ_CP066460.1,58837,503216
GCF_016406505.1,bin_component_0,NZ_CP066459.1,88006,503216
GCF_016406505.1,bin_component_0,NZ_CP066458.1,144148,503216
GCF_016406505.1,bin_component_0,NZ_CP066461.1,51626,503216
GCF_016406505.1,bin_component_2,NZ_CP066465.1,4374,4451
GCF_907165365.1,bin_component_1,NZ_OU015712.1,6967,7146
GCF_907165365.1,bin_component_0,NZ_OU015710.1,100317,206062
GCF_907165365.1,bin_component_0,NZ_OU015711.1,44020,206062
GCF_907165365.1,bin_component_0,NZ_OU015709.1,19599,206062
GCF_907165365.1,bin_component_0,NZ_OU015708.1,118463,206062
GCF_907165365.1,bin_component_2,NZ_OU015714.1,3304,5705
GCF_907165365.1,bin_component_2,NZ_OU015715.1,3221,5705
GCF_019977495.1,bin_component_1,NZ_AP024835.1,6091,21478
GCF_019977495.1,bin_component_1,NZ_AP024834.1,9301,21478
GCF_019977495.1,bin_component_3,no_correct_alignments,0,0
GCF_019977495.1,bin_component_4,no_correct_alignments,0,0
GCF_019977495.1,bin_component_0,NZ_AP024833.1,69773,202488
GCF_019977495.1,bin_component_0,NZ_AP024832.1,79778,202488
GCF_019977495.1,bin_component_0,NZ_AP024831.1,76426,202488
GCF_019977495.1,bin_component_2,NZ_AP024836.1,5850,5977
GCF_023299325.1,bin_component_0,NZ_CP097015.1,215660,263402
GCF_023299325.1,bin_component_0,NZ_CP097014.1,32472,263402
GCF_023299325.1,bin_component_0,NZ_CP097016.1,36578,263402
GCF_016415545.1,bin_component_1,NZ_CP066657.1,6175,12064
GCF_016415545.1,bin_component_0,NZ_CP066653.1,222131,201468
GCF_016415545.1,bin_component_0,NZ_CP066655.1,13849,201468
GCF_016415545.1,bin_component_0,NZ_CP066656.1,19798,201468
GCF_016415545.1,bin_component_0,NZ_CP066654.1,20296,201468
GCF_016406485.1,bin_component_1,NZ_CP066387.1,6303,10992
GCF_016406485.1,bin_component_1,NZ_CP066388.1,4461,10992
GCF_016406485.1,bin_component_0,NZ_CP066383.1,98219,273229
GCF_016406485.1,bin_component_0,NZ_CP066384.1,53050,273229
GCF_016406485.1,bin_component_0,NZ_CP066381.1,124201,273229
GCF_016406485.1,bin_component_0,NZ_CP066385.1,36929,273229
GCF_016406485.1,bin_component_0,NZ_CP066386.1,6895,273229
GCF_016406485.1,bin_component_0,NZ_CP066382.1,40624,273229
GCF_016406545.1,bin_component_1,NZ_CP066413.1,6303,6380
GCF_016406545.1,bin_component_0,NZ_CP066410.1,43636,123072
GCF_016406545.1,bin_component_0,NZ_CP066411.1,48039,123072
GCF_016406545.1,bin_component_0,NZ_CP066409.1,96550,123072
GCF_016406545.1,bin_component_2,NZ_CP066414.1,1980,2057
GCF_028335465.1,bin_component_0,NZ_CP116524.1,110703,179080
GCF_028335465.1,bin_component_0,NZ_CP116526.1,25289,179080
GCF_028335465.1,bin_component_0,NZ_CP116523.1,20696,179080
GCF_028335465.1,bin_component_0,NZ_CP116527.1,16308,179080
GCF_028335465.1,bin_component_0,NZ_CP116525.1,9960,179080
GCF_015325925.1,bin_component_1,NZ_CP064051.1,48959,50493
GCF_015325925.1,bin_component_1,NZ_CP064050.1,1962,50493
GCF_015325925.1,bin_component_0,NZ_CP064049.1,55225,141679
GCF_015325925.1,bin_component_0,NZ_CP064050.1,43860,141679
GCF_015325925.1,bin_component_0,NZ_CP064052.1,34251,141679
GCF_015325925.1,bin_component_0,NZ_CP064051.1,3536,141679
GCF_015325925.1,bin_component_2,NZ_CP064053.1,4372,4499
GCF_023299805.1,bin_component_1,NZ_CP097065.1,5254,5331
GCF_023299805.1,bin_component_0,NZ_CP097064.1,31891,178408
GCF_023299805.1,bin_component_0,NZ_CP097062.1,58229,178408
GCF_023299805.1,bin_component_0,NZ_CP097063.1,47677,178408
GCF_023299805.1,bin_component_0,NZ_CP097061.1,66196,178408
GCF_022647825.1,bin_component_1,NZ_CP076476.1,4192,4451
GCF_022647825.1,bin_component_0,NZ_CP076473.1,70083,284053
GCF_022647825.1,bin_component_0,NZ_CP076472.1,139829,284053
GCF_022647825.1,bin_component_0,NZ_CP076475.1,29600,284053
GCF_022647825.1,bin_component_0,NZ_CP076471.1,82810,284053
GCF_022647825.1,bin_component_0,NZ_CP076474.1,6123,284053
GCF_016406605.1,bin_component_1,NZ_CP066477.1,6303,6380
GCF_016406605.1,bin_component_3,NZ_CP066479.1,4374,4451
GCF_016406605.1,bin_component_0,NZ_CP066476.1,62210,174048
GCF_016406605.1,bin_component_0,NZ_CP066475.1,53479,174048
GCF_016406605.1,bin_component_0,NZ_CP066474.1,15663,174048
GCF_016406605.1,bin_component_0,NZ_CP066473.1,91523,174048
GCF_016406605.1,bin_component_2,NZ_CP066478.1,5212,5289
GCF_015476295.1,bin_component_1,NZ_CP064343.1,17800,11194
GCF_015476295.1,bin_component_3,NZ_CP064349.1,4465,4592
GCF_015476295.1,bin_component_0,NZ_CP064343.1,229887,377260
GCF_015476295.1,bin_component_0,NZ_CP064345.1,96497,377260
GCF_015476295.1,bin_component_0,NZ_CP064344.1,70169,377260
GCF_015476295.1,bin_component_0,NZ_CP064346.1,36088,377260
GCF_015476295.1,bin_component_0,NZ_CP064347.1,10334,377260
GCF_015476295.1,bin_component_2,NZ_CP064348.1,6173,6300
GCF_023299745.1,bin_component_0,NZ_CP097027.1,95229,149440
GCF_023299745.1,bin_component_0,NZ_CP097029.1,43534,149440
GCF_023299745.1,bin_component_0,NZ_CP097028.1,35623,149440
GCF_017584065.1,bin_component_1,NZ_CP071928.1,9318,15802
GCF_017584065.1,bin_component_1,NZ_CP071925.1,5845,15802
GCF_017584065.1,bin_component_0,NZ_CP071931.1,129766,181324
GCF_017584065.1,bin_component_0,NZ_CP071930.1,58008,181324
GCF_017584065.1,bin_component_0,NZ_CP071927.1,7837,181324
GCF_017584065.1,bin_component_0,NZ_CP071929.1,14707,181324
GCF_017584065.1,bin_component_0,NZ_CP071926.1,6268,181324
GCF_017584065.1,bin_component_2,NZ_CP071924.1,2857,2984
GCF_019175425.1,bin_component_0,NZ_CP072879.1,231180,295706
GCF_019175425.1,bin_component_0,NZ_CP072878.1,42593,295706
GCF_019175425.1,bin_component_0,NZ_CP072880.1,23202,295706
GCF_023375425.1,bin_component_0,NZ_CP091222.1,22601,43638
GCF_023375425.1,bin_component_0,NZ_CP091223.1,19350,43638
GCF_019456575.1,bin_component_1,NZ_CP074107.1,33175,11450
GCF_019456575.1,bin_component_0,NZ_CP074108.1,160970,169493
GCF_019456575.1,bin_component_0,NZ_CP074107.1,30284,169493
GCF_021398505.1,bin_component_1,no_correct_alignments,0,0
GCF_021398505.1,bin_component_0,NZ_CP083180.1,119731,197460
GCF_021398505.1,bin_component_0,NZ_CP083179.1,39636,197460
GCF_028335605.1,bin_component_1,NZ_CP116547.1,3893,26394
GCF_028335605.1,bin_component_1,NZ_CP116546.1,39360,26394
GCF_028335605.1,bin_component_0,NZ_CP116548.1,35027,37528
GCF_028335605.1,bin_component_0,NZ_CP116547.1,1668,37528
GCF_019175445.1,bin_component_0,NZ_CP072883.1,40266,74722
GCF_019175445.1,bin_component_0,NZ_CP072882.1,13045,74722
GCF_019175445.1,bin_component_0,NZ_CP072881.1,55475,74722
GCF_023375345.1,bin_component_0,NZ_CP091206.1,186326,321197
GCF_023375345.1,bin_component_0,NZ_CP091207.1,127448,321197
GCF_023375345.1,bin_component_0,NZ_CP091208.1,31645,321197
GCF_023375345.1,bin_component_0,NZ_CP091209.1,19168,321197
GCF_023375445.1,bin_component_0,NZ_CP091225.1,18494,46057
GCF_023375445.1,bin_component_0,NZ_CP091226.1,19569,46057
GCF_023375445.1,bin_component_0,NZ_CP091224.1,19652,46057
GCF_009938285.1,bin_component_1,NZ_AP022344.1,6258,6380
GCF_009938285.1,bin_component_0,NZ_AP022343.1,105745,260676
GCF_009938285.1,bin_component_0,NZ_AP022341.1,136574,260676
GCF_009938285.1,bin_component_0,NZ_AP022342.1,79998,260676
GCF_009938285.1,bin_component_2,no_correct_alignments,0,0
GCF_021228615.1,bin_component_1,NZ_CP089321.1,22034,30484
GCF_021228615.1,bin_component_1,NZ_CP089320.1,8828,30484
GCF_021228615.1,bin_component_0,NZ_CP089321.1,20415,141846
GCF_021228615.1,bin_component_0,NZ_CP089320.1,24328,141846
GCF_021228615.1,bin_component_0,NZ_CP089323.1,11983,141846
GCF_021228615.1,bin_component_0,NZ_CP089322.1,36392,141846
GCF_021228615.1,bin_component_0,NZ_CP089319.1,147969,141846
GCF_907176135.1,bin_component_1,NZ_OU015951.1,6174,6301
GCF_907176135.1,bin_component_3,NZ_OU015953.1,2947,3074
GCF_907176135.1,bin_component_0,NZ_OU015946.1,64113,53599
GCF_907176135.1,bin_component_0,NZ_OU015947.1,3579,53599
GCF_907176135.1,bin_component_0,NZ_OU015949.1,7670,53599
GCF_907176135.1,bin_component_0,NZ_OU015948.1,5625,53599
GCF_907176135.1,bin_component_2,NZ_OU015950.1,6503,5683
GCF_023299725.1,bin_component_0,NZ_CP097024.1,20203,79436
GCF_023299725.1,bin_component_0,NZ_CP097025.1,21138,79436
GCF_023299725.1,bin_component_0,NZ_CP097026.1,16072,79436
GCF_023299725.1,bin_component_0,NZ_CP097022.1,7597,79436
GCF_023299725.1,bin_component_0,NZ_CP097023.1,5649,79436
