GCF_022405895.1_ASM2240589v1,GCF_022405895.1_ASM2240589v1_bin_1,NZ_CP062408.1,13433,13433
GCF_018135565.1_ASM1813556v1,GCF_018135565.1_ASM1813556v1_bin_1,NZ_CP073064.1,4254,4397
GCF_022405515.1_ASM2240551v1,GCF_022405515.1_ASM2240551v1_bin_1,NZ_CP062385.1,20730,20730
GCF_022404675.1_ASM2240467v1,GCF_022404675.1_ASM2240467v1_bin_1,NZ_CP062332.1,12859,12863
GCF_022404675.1_ASM2240467v1,GCF_022404675.1_ASM2240467v1_bin_2,NZ_CP062333.1,2981,2981
GCF_022369695.1_ASM2236969v1,GCF_022369695.1_ASM2236969v1_bin_1,NZ_CP062319.1,24654,24654
GCF_022405185.1_ASM2240518v1,GCF_022405185.1_ASM2240518v1_bin_1,NZ_CP062351.1,16691,16691
GCF_022405555.1_ASM2240555v1,GCF_022405555.1_ASM2240555v1_bin_1,NZ_CP062389.1,27269,27269
GCF_016894285.1_ASM1689428v1,GCF_016894285.1_ASM1689428v1_bin_1,NZ_CP069800.1,2539,2539
GCF_022404755.1_ASM2240475v1,GCF_022404755.1_ASM2240475v1_bin_1,NZ_CP062341.1,20721,20721
GCF_022369595.1_ASM2236959v1,GCF_022369595.1_ASM2236959v1_bin_3,NZ_CP062317.1,2473,2473
GCF_022369595.1_ASM2236959v1,GCF_022369595.1_ASM2236959v1_bin_2,NZ_CP062316.1,3111,3111
GCF_022369595.1_ASM2236959v1,GCF_022369595.1_ASM2236959v1_bin_1,NZ_CP062315.1,26024,26024
GCF_022405295.1_ASM2240529v1,GCF_022405295.1_ASM2240529v1_bin_1,NZ_CP062361.1,31590,31943
GCF_022405255.1_ASM2240525v1,GCF_022405255.1_ASM2240525v1_bin_1,NZ_CP062357.1,29018,29018
GCF_017161095.1_ASM1716109v1,GCF_017161095.1_ASM1716109v1_bin_1,NZ_CP046477.1,16100,16100
GCF_022405415.1_ASM2240541v1,GCF_022405415.1_ASM2240541v1_bin_1,NZ_CP062373.1,28364,28364
GCF_022405415.1_ASM2240541v1,GCF_022405415.1_ASM2240541v1_bin_2,NZ_CP062374.1,3566,3566
GCF_022405415.1_ASM2240541v1,GCF_022405415.1_ASM2240541v1_bin_3,NZ_CP062375.1,2366,2366
GCF_022404735.1_ASM2240473v1,GCF_022404735.1_ASM2240473v1_bin_1,NZ_CP062339.1,2564,2564
GCF_022405575.1_ASM2240557v1,GCF_022405575.1_ASM2240557v1_bin_1,NZ_CP062391.1,37087,37087
GCF_022405575.1_ASM2240557v1,GCF_022405575.1_ASM2240557v1_bin_2,NZ_CP062392.1,24655,24655
GCF_018093225.1_ASM1809322v1,GCF_018093225.1_ASM1809322v1_bin_1,NZ_CP071105.1,4263,4264
GCF_018093225.1_ASM1809322v1,GCF_018093225.1_ASM1809322v1_bin_Unbinned,no_correct_alignments,0,0
GCF_018093225.1_ASM1809322v1,GCF_018093225.1_ASM1809322v1_bin_2,NZ_CP071106.1,2751,2751
GCF_017088385.1_ASM1708838v1,GCF_017088385.1_ASM1708838v1_bin_1,NZ_CP070984.1,20565,20730
GCF_017088385.1_ASM1708838v1,GCF_017088385.1_ASM1708838v1_bin_2,NZ_CP070985.1,2393,2397
GCF_022405315.1_ASM2240531v1,GCF_022405315.1_ASM2240531v1_bin_1,NZ_CP062363.1,33094,33094
GCF_019653615.1_ASM1965361v1,GCF_019653615.1_ASM1965361v1_bin_1,no_correct_alignments,0,0
GCF_019653615.1_ASM1965361v1,GCF_019653615.1_ASM1965361v1_bin_2,no_correct_alignments,0,0
GCF_019653615.1_ASM1965361v1,GCF_019653615.1_ASM1965361v1_bin_Unbinned,no_correct_alignments,0,0
GCF_022405615.1_ASM2240561v1,GCF_022405615.1_ASM2240561v1_bin_1,NZ_CP062397.1,23839,23839
GCF_022405375.1_ASM2240537v1,GCF_022405375.1_ASM2240537v1_bin_1,NZ_CP062369.1,27268,27268
GCF_022405145.1_ASM2240514v1,GCF_022405145.1_ASM2240514v1_bin_1,NZ_CP062349.1,20653,20653
GCF_022405205.1_ASM2240520v1,GCF_022405205.1_ASM2240520v1_bin_1,NZ_CP062353.1,29018,29018
GCF_017088305.1_ASM1708830v1,GCF_017088305.1_ASM1708830v1_bin_2,NZ_CP070988.1,2473,2473
GCF_017088305.1_ASM1708830v1,GCF_017088305.1_ASM1708830v1_bin_1,NZ_CP070987.1,19826,20653
GCF_022405275.1_ASM2240527v1,GCF_022405275.1_ASM2240527v1_bin_1,NZ_CP062359.1,27268,27268
GCF_022405455.1_ASM2240545v1,GCF_022405455.1_ASM2240545v1_bin_1,NZ_CP062379.1,27265,27265
GCF_016889145.1_ASM1688914v1,GCF_016889145.1_ASM1688914v1_bin_1,NZ_CP069471.1,31618,31620
GCF_016889145.1_ASM1688914v1,GCF_016889145.1_ASM1688914v1_bin_2,NZ_CP069472.1,3105,3111
GCF_022405475.1_ASM2240547v1,GCF_022405475.1_ASM2240547v1_bin_1,NZ_CP062381.1,23839,23839
GCF_022404635.1_ASM2240463v1,GCF_022404635.1_ASM2240463v1_bin_1,NZ_CP062327.1,28841,28841
GCF_022404635.1_ASM2240463v1,GCF_022404635.1_ASM2240463v1_bin_2,NZ_CP062328.1,20730,20730
GCF_022405495.1_ASM2240549v1,GCF_022405495.1_ASM2240549v1_bin_1,NZ_CP062383.1,39284,39284
GCF_022405235.1_ASM2240523v1,GCF_022405235.1_ASM2240523v1_bin_1,NZ_CP062355.1,20680,20680
GCF_022404695.1_ASM2240469v1,GCF_022404695.1_ASM2240469v1_bin_1,NZ_CP062335.1,20691,20691
GCF_022405075.1_ASM2240507v1,GCF_022405075.1_ASM2240507v1_bin_1,NZ_CP062347.1,25563,25563
GCF_016727585.1_ASM1672758v1,GCF_016727585.1_ASM1672758v1_bin_1,NZ_CP068144.1,19758,19758
GCF_016727585.1_ASM1672758v1,GCF_016727585.1_ASM1672758v1_bin_Isolated_1,no_correct_alignments,0,0
GCF_016727585.1_ASM1672758v1,GCF_016727585.1_ASM1672758v1_bin_2,no_correct_alignments,0,0
GCF_022404595.1_ASM2240459v1,GCF_022404595.1_ASM2240459v1_bin_1,NZ_CP062323.1,20691,20691
GCF_022405435.1_ASM2240543v1,GCF_022405435.1_ASM2240543v1_bin_1,NZ_CP062377.1,19781,19781
GCF_022405395.1_ASM2240539v1,GCF_022405395.1_ASM2240539v1_bin_1,NZ_CP062371.1,27267,27267
GCF_022405595.1_ASM2240559v1,GCF_022405595.1_ASM2240559v1_bin_1,NZ_CP062394.1,27025,27025
