"software","arg_classification","reference_id","FN","TP","recall","detected"
"mlplasmids","ARG-plasmid","NZ_CP063981.1",0,2,1,"detected"
"mlplasmids","ARG-plasmid","NZ_CP075605.1",0,8,1,"detected"
"mlplasmids","ARG-plasmid","NZ_CP075608.1",1,1,0.5,"detected"
"mlplasmids","ARG-plasmid","NZ_CP076489.1",1,8,0.89,"detected"
"mlplasmids","ARG-plasmid","NZ_CP076492.1",3,3,0.5,"detected"
"mlplasmids","ARG-plasmid","NZ_CP076494.1",2,7,0.78,"detected"
"mlplasmids","ARG-plasmid","NZ_CP076497.1",3,3,0.5,"detected"
"mlplasmids","ARG-plasmid","NZ_CP076499.1",0,9,1,"detected"
"mlplasmids","ARG-plasmid","NZ_CP076502.1",3,3,0.5,"detected"
"mlplasmids","ARG-plasmid","NZ_OD940421.1",0,4,1,"detected"
"mlplasmids","ARG-plasmid","NZ_OD940423.1",1,2,0.67,"detected"
"mlplasmids","ARG-plasmid","NZ_OD940424.1",0,4,1,"detected"
"mlplasmids","ARG-plasmid","NZ_OD940425.1",1,0,0,"not_detected"
"mlplasmids","ARG-plasmid","NZ_OD940432.1",1,2,0.67,"detected"
"mlplasmids","ARG-plasmid","NZ_OD940433.1",2,1,0.33,"detected"
"mlplasmids","ARG-plasmid","NZ_OD940435.1",0,3,1,"detected"
"mlplasmids","ARG-plasmid","NZ_OD940436.1",0,1,1,"detected"
"mlplasmids","ARG-plasmid","NZ_OD940439.1",1,2,0.67,"detected"
"mlplasmids","ARG-plasmid","NZ_OU538996.1",2,2,0.5,"detected"
"mlplasmids","non-ARG-plasmid","NZ_CP046109.1",0,1,1,"detected"
"mlplasmids","non-ARG-plasmid","NZ_CP046110.1",0,2,1,"detected"
"mlplasmids","non-ARG-plasmid","NZ_CP075606.1",0,3,1,"detected"
"mlplasmids","non-ARG-plasmid","NZ_CP075607.1",0,2,1,"detected"
"mlplasmids","non-ARG-plasmid","NZ_CP075609.1",1,0,0,"not_detected"
"mlplasmids","non-ARG-plasmid","NZ_CP075610.1",1,0,0,"not_detected"
"mlplasmids","non-ARG-plasmid","NZ_CP076490.1",1,1,0.5,"detected"
"mlplasmids","non-ARG-plasmid","NZ_CP076491.1",2,1,0.33,"detected"
"mlplasmids","non-ARG-plasmid","NZ_CP076495.1",1,1,0.5,"detected"
"mlplasmids","non-ARG-plasmid","NZ_CP076496.1",2,2,0.5,"detected"
"mlplasmids","non-ARG-plasmid","NZ_CP076500.1",1,1,0.5,"detected"
"mlplasmids","non-ARG-plasmid","NZ_CP076501.1",2,3,0.6,"detected"
"mlplasmids","non-ARG-plasmid","NZ_OU538997.1",4,0,0,"not_detected"
"RFplasmid","ARG-plasmid","NZ_CP063981.1",0,2,1,"detected"
"RFplasmid","ARG-plasmid","NZ_CP075605.1",0,8,1,"detected"
"RFplasmid","ARG-plasmid","NZ_CP075608.1",0,2,1,"detected"
"RFplasmid","ARG-plasmid","NZ_CP076489.1",0,9,1,"detected"
"RFplasmid","ARG-plasmid","NZ_CP076492.1",0,6,1,"detected"
"RFplasmid","ARG-plasmid","NZ_CP076494.1",0,9,1,"detected"
"RFplasmid","ARG-plasmid","NZ_CP076497.1",0,6,1,"detected"
"RFplasmid","ARG-plasmid","NZ_CP076499.1",0,9,1,"detected"
"RFplasmid","ARG-plasmid","NZ_CP076502.1",0,6,1,"detected"
"RFplasmid","ARG-plasmid","NZ_OD940421.1",0,4,1,"detected"
"RFplasmid","ARG-plasmid","NZ_OD940423.1",0,3,1,"detected"
"RFplasmid","ARG-plasmid","NZ_OD940424.1",1,3,0.75,"detected"
"RFplasmid","ARG-plasmid","NZ_OD940425.1",0,1,1,"detected"
"RFplasmid","ARG-plasmid","NZ_OD940432.1",0,3,1,"detected"
"RFplasmid","ARG-plasmid","NZ_OD940433.1",0,3,1,"detected"
"RFplasmid","ARG-plasmid","NZ_OD940435.1",0,3,1,"detected"
"RFplasmid","ARG-plasmid","NZ_OD940436.1",0,1,1,"detected"
"RFplasmid","ARG-plasmid","NZ_OD940439.1",0,3,1,"detected"
"RFplasmid","ARG-plasmid","NZ_OU538996.1",0,4,1,"detected"
"RFplasmid","non-ARG-plasmid","NZ_CP046109.1",0,1,1,"detected"
"RFplasmid","non-ARG-plasmid","NZ_CP046110.1",0,2,1,"detected"
"RFplasmid","non-ARG-plasmid","NZ_CP075606.1",0,3,1,"detected"
"RFplasmid","non-ARG-plasmid","NZ_CP075607.1",0,2,1,"detected"
"RFplasmid","non-ARG-plasmid","NZ_CP075609.1",0,1,1,"detected"
"RFplasmid","non-ARG-plasmid","NZ_CP075610.1",0,1,1,"detected"
"RFplasmid","non-ARG-plasmid","NZ_CP076490.1",0,2,1,"detected"
"RFplasmid","non-ARG-plasmid","NZ_CP076491.1",0,3,1,"detected"
"RFplasmid","non-ARG-plasmid","NZ_CP076495.1",0,2,1,"detected"
"RFplasmid","non-ARG-plasmid","NZ_CP076496.1",0,4,1,"detected"
"RFplasmid","non-ARG-plasmid","NZ_CP076500.1",0,2,1,"detected"
"RFplasmid","non-ARG-plasmid","NZ_CP076501.1",0,5,1,"detected"
"RFplasmid","non-ARG-plasmid","NZ_OU538997.1",1,3,0.75,"detected"
"Platon","ARG-plasmid","NZ_CP063981.1",1,1,0.5,"detected"
"Platon","ARG-plasmid","NZ_CP075605.1",0,8,1,"detected"
"Platon","ARG-plasmid","NZ_CP075608.1",0,2,1,"detected"
"Platon","ARG-plasmid","NZ_CP076489.1",1,8,0.89,"detected"
"Platon","ARG-plasmid","NZ_CP076492.1",0,6,1,"detected"
"Platon","ARG-plasmid","NZ_CP076494.1",1,8,0.89,"detected"
"Platon","ARG-plasmid","NZ_CP076497.1",0,6,1,"detected"
"Platon","ARG-plasmid","NZ_CP076499.1",1,8,0.89,"detected"
"Platon","ARG-plasmid","NZ_CP076502.1",0,6,1,"detected"
"Platon","ARG-plasmid","NZ_OD940421.1",3,1,0.25,"detected"
"Platon","ARG-plasmid","NZ_OD940423.1",0,3,1,"detected"
"Platon","ARG-plasmid","NZ_OD940424.1",1,3,0.75,"detected"
"Platon","ARG-plasmid","NZ_OD940425.1",1,0,0,"not_detected"
"Platon","ARG-plasmid","NZ_OD940432.1",2,1,0.33,"detected"
"Platon","ARG-plasmid","NZ_OD940433.1",1,2,0.67,"detected"
"Platon","ARG-plasmid","NZ_OD940435.1",1,2,0.67,"detected"
"Platon","ARG-plasmid","NZ_OD940436.1",1,0,0,"not_detected"
"Platon","ARG-plasmid","NZ_OD940439.1",0,3,1,"detected"
"Platon","ARG-plasmid","NZ_OU538996.1",1,3,0.75,"detected"
"Platon","non-ARG-plasmid","NZ_CP046109.1",0,1,1,"detected"
"Platon","non-ARG-plasmid","NZ_CP046110.1",0,2,1,"detected"
"Platon","non-ARG-plasmid","NZ_CP075606.1",0,3,1,"detected"
"Platon","non-ARG-plasmid","NZ_CP075607.1",0,2,1,"detected"
"Platon","non-ARG-plasmid","NZ_CP075609.1",0,1,1,"detected"
"Platon","non-ARG-plasmid","NZ_CP075610.1",0,1,1,"detected"
"Platon","non-ARG-plasmid","NZ_CP076490.1",1,1,0.5,"detected"
"Platon","non-ARG-plasmid","NZ_CP076491.1",3,0,0,"not_detected"
"Platon","non-ARG-plasmid","NZ_CP076495.1",1,1,0.5,"detected"
"Platon","non-ARG-plasmid","NZ_CP076496.1",3,1,0.25,"detected"
"Platon","non-ARG-plasmid","NZ_CP076500.1",1,1,0.5,"detected"
"Platon","non-ARG-plasmid","NZ_CP076501.1",4,1,0.2,"detected"
"Platon","non-ARG-plasmid","NZ_OU538997.1",4,0,0,"not_detected"
"plasmidEC","ARG-plasmid","NZ_CP063981.1",0,2,1,"detected"
"plasmidEC","ARG-plasmid","NZ_CP075605.1",0,8,1,"detected"
"plasmidEC","ARG-plasmid","NZ_CP075608.1",0,2,1,"detected"
"plasmidEC","ARG-plasmid","NZ_CP076489.1",0,9,1,"detected"
"plasmidEC","ARG-plasmid","NZ_CP076492.1",0,6,1,"detected"
"plasmidEC","ARG-plasmid","NZ_CP076494.1",0,9,1,"detected"
"plasmidEC","ARG-plasmid","NZ_CP076497.1",0,6,1,"detected"
"plasmidEC","ARG-plasmid","NZ_CP076499.1",0,9,1,"detected"
"plasmidEC","ARG-plasmid","NZ_CP076502.1",0,6,1,"detected"
"plasmidEC","ARG-plasmid","NZ_OD940421.1",0,4,1,"detected"
"plasmidEC","ARG-plasmid","NZ_OD940423.1",0,3,1,"detected"
"plasmidEC","ARG-plasmid","NZ_OD940424.1",0,4,1,"detected"
"plasmidEC","ARG-plasmid","NZ_OD940425.1",1,0,0,"not_detected"
"plasmidEC","ARG-plasmid","NZ_OD940432.1",0,3,1,"detected"
"plasmidEC","ARG-plasmid","NZ_OD940433.1",1,2,0.67,"detected"
"plasmidEC","ARG-plasmid","NZ_OD940435.1",0,3,1,"detected"
"plasmidEC","ARG-plasmid","NZ_OD940436.1",0,1,1,"detected"
"plasmidEC","ARG-plasmid","NZ_OD940439.1",0,3,1,"detected"
"plasmidEC","ARG-plasmid","NZ_OU538996.1",1,3,0.75,"detected"
"plasmidEC","non-ARG-plasmid","NZ_CP046109.1",0,1,1,"detected"
"plasmidEC","non-ARG-plasmid","NZ_CP046110.1",0,2,1,"detected"
"plasmidEC","non-ARG-plasmid","NZ_CP075606.1",0,3,1,"detected"
"plasmidEC","non-ARG-plasmid","NZ_CP075607.1",0,2,1,"detected"
"plasmidEC","non-ARG-plasmid","NZ_CP075609.1",0,1,1,"detected"
"plasmidEC","non-ARG-plasmid","NZ_CP075610.1",0,1,1,"detected"
"plasmidEC","non-ARG-plasmid","NZ_CP076490.1",0,2,1,"detected"
"plasmidEC","non-ARG-plasmid","NZ_CP076491.1",2,1,0.33,"detected"
"plasmidEC","non-ARG-plasmid","NZ_CP076495.1",0,2,1,"detected"
"plasmidEC","non-ARG-plasmid","NZ_CP076496.1",2,2,0.5,"detected"
"plasmidEC","non-ARG-plasmid","NZ_CP076500.1",0,2,1,"detected"
"plasmidEC","non-ARG-plasmid","NZ_CP076501.1",2,3,0.6,"detected"
"plasmidEC","non-ARG-plasmid","NZ_OU538997.1",4,0,0,"not_detected"
