"software","FN","FP","TN","TP","recall","precision","f1_score"
"mlplasmids",36,3,349,82,0.69,0.96,0.8
"RFplasmid",2,79,273,116,0.98,0.59,0.74
"Platon",32,15,337,86,0.73,0.85,0.79
"plasmidEC",13,15,337,105,0.89,0.88,0.88
