"reference_id","nr_repeats_per_replicon"
"NZ_AP025270.1",8
"NZ_CP046108.1",13
"NZ_CP046109.1",2
"NZ_CP046110.1",3
"NZ_CP046111.1",22
"NZ_CP046112.1",12
"NZ_CP046113.1",10
"NZ_CP063980.1",12
"NZ_CP063981.1",2
"NZ_CP075604.2",53
"NZ_CP075605.1",5
"NZ_CP075606.1",1
"NZ_CP076488.1",41
"NZ_CP076489.1",5
"NZ_CP076491.1",4
"NZ_CP076492.1",3
"NZ_CP076493.1",40
"NZ_CP076494.1",5
"NZ_CP076496.1",4
"NZ_CP076497.1",3
"NZ_CP076498.1",39
"NZ_CP076499.1",5
"NZ_CP076501.1",3
"NZ_CP076502.1",3
"NZ_OD940420.1",17
"NZ_OD940421.1",1
"NZ_OD940422.1",30
"NZ_OD940423.1",2
"NZ_OD940431.1",14
"NZ_OD940432.1",3
"NZ_OD940433.1",3
"NZ_OD940434.1",23
"NZ_OD940435.1",1
"NZ_OD940437.1",13
"NZ_OD940439.1",1
"NZ_OD940440.2",13
"NZ_OU538996.1",3
