"arg_plasmid","length_classification","count","species"
"ARG-plasmid","large",18,"E. faecalis"
"ARG-plasmid","small",1,"E. faecalis"
"non-ARG-plasmid","large",14,"E. faecalis"
"non-ARG-plasmid","small",3,"E. faecalis"
