GCF_016415325.1,GCF_016415325.1_bin_3,0
GCF_016415325.1,GCF_016415325.1_bin_4,1
GCF_016415325.1,GCF_016415325.1_bin_5,0
GCF_016415325.1,GCF_016415325.1_bin_2,2
GCF_016415325.1,GCF_016415325.1_bin_1,19
GCF_023375405.1,GCF_023375405.1_bin_1,7
GCF_023375405.1,GCF_023375405.1_bin_2,1
GCF_023375405.1,GCF_023375405.1_bin_3,0
GCF_028335525.1,GCF_028335525.1_bin_1,1
GCF_028335525.1,GCF_028335525.1_bin_2,0
GCF_028335525.1,GCF_028335525.1_bin_Unbinned,0
GCF_020162175.1,GCF_020162175.1_bin_2,0
GCF_020162175.1,GCF_020162175.1_bin_1,15
GCF_020162175.1,GCF_020162175.1_bin_5,0
GCF_020162175.1,GCF_020162175.1_bin_3,0
GCF_020162175.1,GCF_020162175.1_bin_Unbinned,0
GCF_020162175.1,GCF_020162175.1_bin_4,1
GCF_023375445.1,GCF_023375445.1_bin_1,3
GCF_016415505.1,GCF_016415505.1_bin_7,0
GCF_016415505.1,GCF_016415505.1_bin_6,0
GCF_016415505.1,GCF_016415505.1_bin_4,1
GCF_016415505.1,GCF_016415505.1_bin_2,3
GCF_016415505.1,GCF_016415505.1_bin_1,5
GCF_016415505.1,GCF_016415505.1_bin_5,0
GCF_016415505.1,GCF_016415505.1_bin_3,12
GCF_028335585.1,GCF_028335585.1_bin_1,10
GCF_016415365.1,GCF_016415365.1_bin_1,18
GCF_016415365.1,GCF_016415365.1_bin_2,3
GCF_016415365.1,GCF_016415365.1_bin_4,0
GCF_016415365.1,GCF_016415365.1_bin_3,0
GCF_016415365.1,GCF_016415365.1_bin_5,0
GCF_023375365.1,GCF_023375365.1_bin_1,1
GCF_023375365.1,GCF_023375365.1_bin_2,1
GCF_016406385.1,GCF_016406385.1_bin_2,12
GCF_016406385.1,GCF_016406385.1_bin_4,1
GCF_016406385.1,GCF_016406385.1_bin_1,2
GCF_016406385.1,GCF_016406385.1_bin_3,2
GCF_016406385.1,GCF_016406385.1_bin_6,0
GCF_016406385.1,GCF_016406385.1_bin_5,0
GCF_907176815.1,GCF_907176815.1_bin_6,0
GCF_907176815.1,GCF_907176815.1_bin_7,0
GCF_907176815.1,GCF_907176815.1_bin_10,0
GCF_907176815.1,GCF_907176815.1_bin_9,0
GCF_907176815.1,GCF_907176815.1_bin_2,2
GCF_907176815.1,GCF_907176815.1_bin_8,0
GCF_907176815.1,GCF_907176815.1_bin_4,1
GCF_907176815.1,GCF_907176815.1_bin_1,4
GCF_907176815.1,GCF_907176815.1_bin_5,0
GCF_907176815.1,GCF_907176815.1_bin_3,2
GCF_023299325.1,GCF_023299325.1_bin_2,2
GCF_023299325.1,GCF_023299325.1_bin_1,11
GCF_016406545.1,GCF_016406545.1_bin_4,0
GCF_016406545.1,GCF_016406545.1_bin_3,0
GCF_016406545.1,GCF_016406545.1_bin_1,19
GCF_016406545.1,GCF_016406545.1_bin_2,5
GCF_016406585.1,GCF_016406585.1_bin_5,0
GCF_016406585.1,GCF_016406585.1_bin_3,17
GCF_016406585.1,GCF_016406585.1_bin_1,7
GCF_016406585.1,GCF_016406585.1_bin_4,0
GCF_016406585.1,GCF_016406585.1_bin_2,6
GCF_028335265.1,GCF_028335265.1_bin_2,4
GCF_028335265.1,GCF_028335265.1_bin_1,6
GCF_019977575.1,GCF_019977575.1_bin_7,0
GCF_019977575.1,GCF_019977575.1_bin_4,0
GCF_019977575.1,GCF_019977575.1_bin_3,0
GCF_019977575.1,GCF_019977575.1_bin_5,0
GCF_019977575.1,GCF_019977575.1_bin_1,11
GCF_019977575.1,GCF_019977575.1_bin_8,0
GCF_019977575.1,GCF_019977575.1_bin_6,0
GCF_019977575.1,GCF_019977575.1_bin_2,0
GCF_023299725.1,GCF_023299725.1_bin_1,10
GCF_028335565.1,GCF_028335565.1_bin_2,0
GCF_028335565.1,GCF_028335565.1_bin_1,6
GCF_028335465.1,GCF_028335465.1_bin_1,9
GCF_016126675.1,GCF_016126675.1_bin_2,15
GCF_016126675.1,GCF_016126675.1_bin_4,0
GCF_016126675.1,GCF_016126675.1_bin_3,3
GCF_016126675.1,GCF_016126675.1_bin_1,0
GCF_023375385.1,GCF_023375385.1_bin_1,6
GCF_028335625.1,GCF_028335625.1_bin_2,6
GCF_028335625.1,GCF_028335625.1_bin_3,0
GCF_028335625.1,GCF_028335625.1_bin_1,0
GCF_022647825.1,GCF_022647825.1_bin_4,0
GCF_022647825.1,GCF_022647825.1_bin_1,1
GCF_022647825.1,GCF_022647825.1_bin_3,15
GCF_022647825.1,GCF_022647825.1_bin_2,2
GCF_022647825.1,GCF_022647825.1_bin_Unbinned,0
GCF_019175525.1,GCF_019175525.1_bin_1,0
GCF_019175525.1,GCF_019175525.1_bin_2,1
GCF_019456595.1,GCF_019456595.1_bin_2,2
GCF_019456595.1,GCF_019456595.1_bin_1,3
GCF_016415405.1,GCF_016415405.1_bin_3,0
GCF_016415405.1,GCF_016415405.1_bin_5,0
GCF_016415405.1,GCF_016415405.1_bin_Isolated_1,0
GCF_016415405.1,GCF_016415405.1_bin_4,0
GCF_016415405.1,GCF_016415405.1_bin_1,7
GCF_016415405.1,GCF_016415405.1_bin_2,4
GCF_023375345.1,GCF_023375345.1_bin_1,3
GCF_016415545.1,GCF_016415545.1_bin_3,1
GCF_016415545.1,GCF_016415545.1_bin_2,0
GCF_016415545.1,GCF_016415545.1_bin_4,0
GCF_016415545.1,GCF_016415545.1_bin_1,7
GCF_015476295.1,GCF_015476295.1_bin_3,2
GCF_015476295.1,GCF_015476295.1_bin_Isolated_1,0
GCF_015476295.1,GCF_015476295.1_bin_2,2
GCF_015476295.1,GCF_015476295.1_bin_9,0
GCF_015476295.1,GCF_015476295.1_bin_10,0
GCF_015476295.1,GCF_015476295.1_bin_5,1
GCF_015476295.1,GCF_015476295.1_bin_1,2
GCF_015476295.1,GCF_015476295.1_bin_6,3
GCF_015476295.1,GCF_015476295.1_bin_4,1
GCF_015476295.1,GCF_015476295.1_bin_7,2
GCF_015476295.1,GCF_015476295.1_bin_8,1
GCF_028335225.1,GCF_028335225.1_bin_1,3
GCF_019977495.1,GCF_019977495.1_bin_6,0
GCF_019977495.1,GCF_019977495.1_bin_3,0
GCF_019977495.1,GCF_019977495.1_bin_7,0
GCF_019977495.1,GCF_019977495.1_bin_8,0
GCF_019977495.1,GCF_019977495.1_bin_4,0
GCF_019977495.1,GCF_019977495.1_bin_2,3
GCF_019977495.1,GCF_019977495.1_bin_1,2
GCF_019977495.1,GCF_019977495.1_bin_5,0
GCF_907165365.1,GCF_907165365.1_bin_7,0
GCF_907165365.1,GCF_907165365.1_bin_6,0
GCF_907165365.1,GCF_907165365.1_bin_4,0
GCF_907165365.1,GCF_907165365.1_bin_8,0
GCF_907165365.1,GCF_907165365.1_bin_5,1
GCF_907165365.1,GCF_907165365.1_bin_1,2
GCF_907165365.1,GCF_907165365.1_bin_3,5
GCF_907165365.1,GCF_907165365.1_bin_2,2
GCF_016406405.1,GCF_016406405.1_bin_3,16
GCF_016406405.1,GCF_016406405.1_bin_6,0
GCF_016406405.1,GCF_016406405.1_bin_2,3
GCF_016406405.1,GCF_016406405.1_bin_7,0
GCF_016406405.1,GCF_016406405.1_bin_1,2
GCF_016406405.1,GCF_016406405.1_bin_5,1
GCF_016406405.1,GCF_016406405.1_bin_4,4
GCF_023375205.1,GCF_023375205.1_bin_2,1
GCF_023375205.1,GCF_023375205.1_bin_3,0
GCF_023375205.1,GCF_023375205.1_bin_4,0
GCF_023375205.1,GCF_023375205.1_bin_1,6
GCF_019456575.1,GCF_019456575.1_bin_1,3
GCF_026409165.1,GCF_026409165.1_bin_1,2
GCF_026409165.1,GCF_026409165.1_bin_2,5
GCF_026409165.1,GCF_026409165.1_bin_3,3
GCF_026409165.1,GCF_026409165.1_bin_4,7
GCF_015999605.1,GCF_015999605.1_bin_4,0
GCF_015999605.1,GCF_015999605.1_bin_1,18
GCF_015999605.1,GCF_015999605.1_bin_2,2
GCF_015999605.1,GCF_015999605.1_bin_3,0
GCF_009938285.1,GCF_009938285.1_bin_8,0
GCF_009938285.1,GCF_009938285.1_bin_6,0
GCF_009938285.1,GCF_009938285.1_bin_3,6
GCF_009938285.1,GCF_009938285.1_bin_1,0
GCF_009938285.1,GCF_009938285.1_bin_4,2
GCF_009938285.1,GCF_009938285.1_bin_Isolated_1,0
GCF_009938285.1,GCF_009938285.1_bin_2,0
GCF_009938285.1,GCF_009938285.1_bin_Isolated_2,0
GCF_009938285.1,GCF_009938285.1_bin_Isolated_3,0
GCF_009938285.1,GCF_009938285.1_bin_5,2
GCF_009938285.1,GCF_009938285.1_bin_7,0
GCF_028335485.1,GCF_028335485.1_bin_1,4
GCF_021398505.1,GCF_021398505.1_bin_1,3
GCF_023299745.1,GCF_023299745.1_bin_1,15
GCF_023299745.1,GCF_023299745.1_bin_2,3
GCF_028335605.1,GCF_028335605.1_bin_2,0
GCF_028335605.1,GCF_028335605.1_bin_1,7
GCF_016406425.1,GCF_016406425.1_bin_1,16
GCF_016406425.1,GCF_016406425.1_bin_2,1
GCF_016406425.1,GCF_016406425.1_bin_3,0
GCF_016406425.1,GCF_016406425.1_bin_4,0
GCF_020162155.1,GCF_020162155.1_bin_1,13
GCF_020162155.1,GCF_020162155.1_bin_4,0
GCF_020162155.1,GCF_020162155.1_bin_5,0
GCF_020162155.1,GCF_020162155.1_bin_3,0
GCF_020162155.1,GCF_020162155.1_bin_2,0
GCF_020162155.1,GCF_020162155.1_bin_Unbinned,0
GCF_016406505.1,GCF_016406505.1_bin_3,3
GCF_016406505.1,GCF_016406505.1_bin_5,1
GCF_016406505.1,GCF_016406505.1_bin_6,1
GCF_016406505.1,GCF_016406505.1_bin_2,4
GCF_016406505.1,GCF_016406505.1_bin_1,5
GCF_016406505.1,GCF_016406505.1_bin_8,0
GCF_016406505.1,GCF_016406505.1_bin_4,14
GCF_016406505.1,GCF_016406505.1_bin_7,0
GCF_023375425.1,GCF_023375425.1_bin_1,3
GCF_023375425.1,GCF_023375425.1_bin_2,0
GCF_022648125.1,GCF_022648125.1_bin_3,2
GCF_022648125.1,GCF_022648125.1_bin_4,0
GCF_022648125.1,GCF_022648125.1_bin_2,8
GCF_022648125.1,GCF_022648125.1_bin_Unbinned,0
GCF_022648125.1,GCF_022648125.1_bin_1,10
GCF_016415465.1,GCF_016415465.1_bin_3,2
GCF_016415465.1,GCF_016415465.1_bin_6,0
GCF_016415465.1,GCF_016415465.1_bin_4,0
GCF_016415465.1,GCF_016415465.1_bin_5,0
GCF_016415465.1,GCF_016415465.1_bin_1,17
GCF_016415465.1,GCF_016415465.1_bin_2,5
GCF_015325925.1,GCF_015325925.1_bin_2,2
GCF_015325925.1,GCF_015325925.1_bin_5,0
GCF_015325925.1,GCF_015325925.1_bin_1,2
GCF_015325925.1,GCF_015325925.1_bin_3,2
GCF_015325925.1,GCF_015325925.1_bin_7,0
GCF_015325925.1,GCF_015325925.1_bin_6,2
GCF_015325925.1,GCF_015325925.1_bin_4,4
GCF_015999425.1,GCF_015999425.1_bin_Isolated_1,0
GCF_015999425.1,GCF_015999425.1_bin_4,2
GCF_015999425.1,GCF_015999425.1_bin_5,2
GCF_015999425.1,GCF_015999425.1_bin_2,1
GCF_015999425.1,GCF_015999425.1_bin_8,0
GCF_015999425.1,GCF_015999425.1_bin_1,0
GCF_015999425.1,GCF_015999425.1_bin_6,1
GCF_015999425.1,GCF_015999425.1_bin_7,0
GCF_015999425.1,GCF_015999425.1_bin_9,0
GCF_015999425.1,GCF_015999425.1_bin_3,3
GCF_016406485.1,GCF_016406485.1_bin_Unbinned,1
GCF_016406485.1,GCF_016406485.1_bin_5,1
GCF_016406485.1,GCF_016406485.1_bin_1,7
GCF_016406485.1,GCF_016406485.1_bin_3,5
GCF_016406485.1,GCF_016406485.1_bin_4,3
GCF_016406485.1,GCF_016406485.1_bin_2,11
GCF_016406485.1,GCF_016406485.1_bin_7,0
GCF_016406485.1,GCF_016406485.1_bin_6,0
GCF_019175425.1,GCF_019175425.1_bin_1,6
GCF_022647945.1,GCF_022647945.1_bin_4,0
GCF_022647945.1,GCF_022647945.1_bin_2,2
GCF_022647945.1,GCF_022647945.1_bin_3,0
GCF_022647945.1,GCF_022647945.1_bin_1,15
GCF_016406365.1,GCF_016406365.1_bin_3,0
GCF_016406365.1,GCF_016406365.1_bin_1,10
GCF_016406365.1,GCF_016406365.1_bin_4,0
GCF_016406365.1,GCF_016406365.1_bin_2,15
GCF_016415565.1,GCF_016415565.1_bin_3,0
GCF_016415565.1,GCF_016415565.1_bin_4,0
GCF_016415565.1,GCF_016415565.1_bin_1,9
GCF_016415565.1,GCF_016415565.1_bin_2,1
GCF_016406605.1,GCF_016406605.1_bin_3,6
GCF_016406605.1,GCF_016406605.1_bin_5,0
GCF_016406605.1,GCF_016406605.1_bin_6,0
GCF_016406605.1,GCF_016406605.1_bin_1,4
GCF_016406605.1,GCF_016406605.1_bin_4,0
GCF_016406605.1,GCF_016406605.1_bin_2,9
GCF_016406565.1,GCF_016406565.1_bin_3,3
GCF_016406565.1,GCF_016406565.1_bin_1,16
GCF_016406565.1,GCF_016406565.1_bin_2,2
GCF_016406565.1,GCF_016406565.1_bin_6,0
GCF_016406565.1,GCF_016406565.1_bin_5,0
GCF_016406565.1,GCF_016406565.1_bin_4,0
GCF_907176135.1,GCF_907176135.1_bin_5,1
GCF_907176135.1,GCF_907176135.1_bin_1,10
GCF_907176135.1,GCF_907176135.1_bin_4,1
GCF_907176135.1,GCF_907176135.1_bin_3,0
GCF_907176135.1,GCF_907176135.1_bin_8,0
GCF_907176135.1,GCF_907176135.1_bin_7,0
GCF_907176135.1,GCF_907176135.1_bin_6,0
GCF_907176135.1,GCF_907176135.1_bin_2,1
GCF_028335245.1,GCF_028335245.1_bin_3,0
GCF_028335245.1,GCF_028335245.1_bin_1,3
GCF_028335245.1,GCF_028335245.1_bin_Unbinned,0
GCF_028335245.1,GCF_028335245.1_bin_2,1
GCF_023375225.1,GCF_023375225.1_bin_1,3
GCF_021228615.1,GCF_021228615.1_bin_4,6
GCF_021228615.1,GCF_021228615.1_bin_1,5
GCF_021228615.1,GCF_021228615.1_bin_Unbinned,0
GCF_021228615.1,GCF_021228615.1_bin_2,3
GCF_021228615.1,GCF_021228615.1_bin_3,8
GCF_021228615.1,GCF_021228615.1_bin_5,0
GCF_016415445.1,GCF_016415445.1_bin_4,0
GCF_016415445.1,GCF_016415445.1_bin_1,10
GCF_016415445.1,GCF_016415445.1_bin_7,0
GCF_016415445.1,GCF_016415445.1_bin_5,0
GCF_016415445.1,GCF_016415445.1_bin_6,0
GCF_016415445.1,GCF_016415445.1_bin_3,3
GCF_016415445.1,GCF_016415445.1_bin_2,4
GCF_023299805.1,GCF_023299805.1_bin_2,0
GCF_023299805.1,GCF_023299805.1_bin_1,3
GCF_023299805.1,GCF_023299805.1_bin_3,0
GCF_019175445.1,GCF_019175445.1_bin_1,7
GCF_016415485.1,GCF_016415485.1_bin_1,12
GCF_016415485.1,GCF_016415485.1_bin_5,0
GCF_016415485.1,GCF_016415485.1_bin_4,2
GCF_016415485.1,GCF_016415485.1_bin_2,0
GCF_016415485.1,GCF_016415485.1_bin_3,0
GCF_016406525.1,GCF_016406525.1_bin_3,0
GCF_016406525.1,GCF_016406525.1_bin_1,12
GCF_016406525.1,GCF_016406525.1_bin_2,4
GCF_016406525.1,GCF_016406525.1_bin_4,1
GCF_016406525.1,GCF_016406525.1_bin_5,0
GCF_016406345.1,GCF_016406345.1_bin_1,18
GCF_016406345.1,GCF_016406345.1_bin_3,0
GCF_016406345.1,GCF_016406345.1_bin_2,5
GCF_016406345.1,GCF_016406345.1_bin_4,0
GCF_028335205.1,GCF_028335205.1_bin_2,3
GCF_028335205.1,GCF_028335205.1_bin_3,0
GCF_028335205.1,GCF_028335205.1_bin_1,2
GCF_019456555.1,GCF_019456555.1_bin_1,4
GCF_015999405.1,GCF_015999405.1_bin_2,4
GCF_015999405.1,GCF_015999405.1_bin_7,0
GCF_015999405.1,GCF_015999405.1_bin_3,5
GCF_015999405.1,GCF_015999405.1_bin_4,1
GCF_015999405.1,GCF_015999405.1_bin_8,0
GCF_015999405.1,GCF_015999405.1_bin_1,5
GCF_015999405.1,GCF_015999405.1_bin_9,0
GCF_015999405.1,GCF_015999405.1_bin_5,2
GCF_015999405.1,GCF_015999405.1_bin_6,0
GCF_016415385.1,GCF_016415385.1_bin_2,2
GCF_016415385.1,GCF_016415385.1_bin_4,0
GCF_016415385.1,GCF_016415385.1_bin_3,0
GCF_016415385.1,GCF_016415385.1_bin_5,0
GCF_016415385.1,GCF_016415385.1_bin_1,19
GCF_907177285.1,GCF_907177285.1_bin_1,2
GCF_907177285.1,GCF_907177285.1_bin_5,1
GCF_907177285.1,GCF_907177285.1_bin_2,11
GCF_907177285.1,GCF_907177285.1_bin_4,0
GCF_907177285.1,GCF_907177285.1_bin_8,0
GCF_907177285.1,GCF_907177285.1_bin_6,0
GCF_907177285.1,GCF_907177285.1_bin_7,0
GCF_907177285.1,GCF_907177285.1_bin_3,1
GCF_016406465.1,GCF_016406465.1_bin_8,0
GCF_016406465.1,GCF_016406465.1_bin_5,0
GCF_016406465.1,GCF_016406465.1_bin_7,0
GCF_016406465.1,GCF_016406465.1_bin_2,2
GCF_016406465.1,GCF_016406465.1_bin_3,13
GCF_016406465.1,GCF_016406465.1_bin_6,0
GCF_016406465.1,GCF_016406465.1_bin_9,0
GCF_016406465.1,GCF_016406465.1_bin_4,0
GCF_016406465.1,GCF_016406465.1_bin_1,2
GCF_016415425.1,GCF_016415425.1_bin_3,0
GCF_016415425.1,GCF_016415425.1_bin_1,17
GCF_016415425.1,GCF_016415425.1_bin_2,0
GCF_019175465.1,GCF_019175465.1_bin_1,5
GCF_019175465.1,GCF_019175465.1_bin_2,2
GCF_017584065.1,GCF_017584065.1_bin_Unbinned,0
GCF_017584065.1,GCF_017584065.1_bin_1,5
GCF_017584065.1,GCF_017584065.1_bin_3,1
GCF_017584065.1,GCF_017584065.1_bin_6,1
GCF_017584065.1,GCF_017584065.1_bin_2,0
GCF_017584065.1,GCF_017584065.1_bin_7,0
GCF_017584065.1,GCF_017584065.1_bin_4,0
GCF_017584065.1,GCF_017584065.1_bin_5,0
GCF_016406445.1,GCF_016406445.1_bin_1,15
GCF_016406445.1,GCF_016406445.1_bin_4,0
GCF_016406445.1,GCF_016406445.1_bin_2,0
GCF_016406445.1,GCF_016406445.1_bin_3,0
