GCF_016126675.1,S135_LN_i_2102_dp_f_12.004171341292535,2102,
GCF_016415405.1,S123_LN_i_1835_dp_f_11.547456538918544,1835,
GCF_015476295.1,S100_LN_i_5131_dp_f_0.2578801821123807,5131,
GCF_016406405.1,S144_LN_i_1831_dp_f_10.867401408333194,1831,
GCF_015999605.1,S133_LN_i_1980_dp_f_15.775957495031935,1980,
GCF_015999605.1,S118_LN_i_3737_dp_f_4.5583760795468145,3737,
GCF_021398505.1,S20_LN_i_34586_dp_f_9.96074803200382,34586,
GCF_021398505.1,S27_LN_i_17947_dp_f_10.082457773983661,17947,
GCF_021398505.1,S34_LN_i_7709_dp_f_9.738616109385354,7709,
GCF_021398505.1,S41_LN_i_1887_dp_f_9.652366446574854,1887,
GCF_016406425.1,S117_LN_i_3849_dp_f_5.506259349717912,3849,
GCF_016406505.1,S115_LN_i_5099_dp_f_4.2836638657418185,5099,
GCF_015999425.1,S99_LN_i_4250_dp_f_11.496991432735324,4250,
GCF_015999425.1,S110_LN_i_2857_dp_f_44.05106500549323,2857,
GCF_021228615.1,S157_LN_i_1928_dp_f_25.09087920479121,1928,
GCF_016406525.1,S133_LN_i_1831_dp_f_20.298463406107352,1831,
GCF_016406345.1,S117_LN_i_3737_dp_f_4.091200156619105,3737,
