"true_classification"	"repeat_category_predicted"	"metric_classification"	"frequency"	"species"
"ambiguous"	"ambiguous"	"TP"	156	"General"
"ambiguous"	"Not identified"	"FN"	8	"General"
"ambiguous"	"repeat chromosome"	"FN"	35	"General"
"ambiguous"	"repeat plasmid"	"TP"	10	"General"
"chromosome"	"ambiguous"	"FP"	9	"General"
"chromosome"	"repeat chromosome"	"TN"	237	"General"
"chromosome"	"repeat plasmid"	"FP"	5	"General"
"plasmid"	"ambiguous"	"TP"	5	"General"
"plasmid"	"repeat chromosome"	"FN"	9	"General"
"plasmid"	"repeat plasmid"	"TP"	22	"General"
"repeat chromosome"	"ambiguous"	"FP"	62	"General"
"repeat chromosome"	"Not identified"	"FN"	63	"General"
"repeat chromosome"	"repeat chromosome"	"TN"	1505	"General"
"repeat chromosome"	"repeat plasmid"	"FP"	10	"General"
"repeat plasmid"	"ambiguous"	"TP"	28	"General"
"repeat plasmid"	"Not identified"	"FN"	46	"General"
"repeat plasmid"	"repeat chromosome"	"FN"	7	"General"
"repeat plasmid"	"repeat plasmid"	"TP"	79	"General"
