<?xml version='1.0' encoding='UTF-8' ?>
<svg xmlns='http://www.w3.org/2000/svg' xmlns:xlink='http://www.w3.org/1999/xlink' class='svglite' width='504.00pt' height='360.00pt' viewBox='0 0 504.00 360.00'>
<defs>
  <style type='text/css'><![CDATA[
    .svglite line, .svglite polyline, .svglite polygon, .svglite path, .svglite rect, .svglite circle {
      fill: none;
      stroke: #000000;
      stroke-linecap: round;
      stroke-linejoin: round;
      stroke-miterlimit: 10.00;
    }
    .svglite text {
      white-space: pre;
    }
  ]]></style>
</defs>
<rect width='100%' height='100%' style='stroke: none; fill: #FFFFFF;'/>
<defs>
  <clipPath id='cpMC4wMHw1MDQuMDB8MC4wMHwzNjAuMDA='>
    <rect x='0.00' y='0.00' width='504.00' height='360.00' />
  </clipPath>
</defs>
<g clip-path='url(#cpMC4wMHw1MDQuMDB8MC4wMHwzNjAuMDA=)'>
<rect x='0.00' y='0.00' width='504.00' height='360.00' style='stroke-width: 1.07; stroke: #FFFFFF; fill: #FFFFFF;' />
</g>
<defs>
  <clipPath id='cpNTEuNTR8MjcyLjI5fDY1LjY0fDMyNC4zMg=='>
    <rect x='51.54' y='65.64' width='220.75' height='258.68' />
  </clipPath>
</defs>
<g clip-path='url(#cpNTEuNTR8MjcyLjI5fDY1LjY0fDMyNC4zMg==)'>
<rect x='51.54' y='65.64' width='220.75' height='258.68' style='stroke-width: 1.07; stroke: none; fill: #FFFFFF;' />
<polyline points='51.54,287.00 272.29,287.00 ' style='stroke-width: 0.53; stroke: #EBEBEB; stroke-linecap: butt;' />
<polyline points='51.54,235.88 272.29,235.88 ' style='stroke-width: 0.53; stroke: #EBEBEB; stroke-linecap: butt;' />
<polyline points='51.54,184.75 272.29,184.75 ' style='stroke-width: 0.53; stroke: #EBEBEB; stroke-linecap: butt;' />
<polyline points='51.54,133.63 272.29,133.63 ' style='stroke-width: 0.53; stroke: #EBEBEB; stroke-linecap: butt;' />
<polyline points='51.54,82.51 272.29,82.51 ' style='stroke-width: 0.53; stroke: #EBEBEB; stroke-linecap: butt;' />
<polyline points='51.54,312.56 272.29,312.56 ' style='stroke-width: 1.07; stroke: #EBEBEB; stroke-linecap: butt;' />
<polyline points='51.54,261.44 272.29,261.44 ' style='stroke-width: 1.07; stroke: #EBEBEB; stroke-linecap: butt;' />
<polyline points='51.54,210.31 272.29,210.31 ' style='stroke-width: 1.07; stroke: #EBEBEB; stroke-linecap: butt;' />
<polyline points='51.54,159.19 272.29,159.19 ' style='stroke-width: 1.07; stroke: #EBEBEB; stroke-linecap: butt;' />
<polyline points='51.54,108.07 272.29,108.07 ' style='stroke-width: 1.07; stroke: #EBEBEB; stroke-linecap: butt;' />
<polyline points='111.74,324.32 111.74,65.64 ' style='stroke-width: 1.07; stroke: #EBEBEB; stroke-linecap: butt;' />
<polyline points='212.08,324.32 212.08,65.64 ' style='stroke-width: 1.07; stroke: #EBEBEB; stroke-linecap: butt;' />
<rect x='166.93' y='274.73' width='90.31' height='37.83' style='stroke-width: 1.07; stroke: none; stroke-linecap: butt; stroke-linejoin: miter; fill: #FF9933;' />
<rect x='66.59' y='147.95' width='90.31' height='164.61' style='stroke-width: 1.07; stroke: none; stroke-linecap: butt; stroke-linejoin: miter; fill: #434343;' />
<rect x='166.93' y='249.17' width='90.31' height='25.56' style='stroke-width: 1.07; stroke: none; stroke-linecap: butt; stroke-linejoin: miter; fill: #A6A6A6;' />
<rect x='51.54' y='65.64' width='220.75' height='258.68' style='stroke-width: 1.07; stroke: #333333;' />
</g>
<g clip-path='url(#cpMC4wMHw1MDQuMDB8MC4wMHwzNjAuMDA=)'>
</g>
<defs>
  <clipPath id='cpMjc3Ljc3fDQ5OC41Mnw2NS42NHwzMjQuMzI='>
    <rect x='277.77' y='65.64' width='220.75' height='258.68' />
  </clipPath>
</defs>
<g clip-path='url(#cpMjc3Ljc3fDQ5OC41Mnw2NS42NHwzMjQuMzI=)'>
<rect x='277.77' y='65.64' width='220.75' height='258.68' style='stroke-width: 1.07; stroke: none; fill: #FFFFFF;' />
<polyline points='277.77,287.00 498.52,287.00 ' style='stroke-width: 0.53; stroke: #EBEBEB; stroke-linecap: butt;' />
<polyline points='277.77,235.88 498.52,235.88 ' style='stroke-width: 0.53; stroke: #EBEBEB; stroke-linecap: butt;' />
<polyline points='277.77,184.75 498.52,184.75 ' style='stroke-width: 0.53; stroke: #EBEBEB; stroke-linecap: butt;' />
<polyline points='277.77,133.63 498.52,133.63 ' style='stroke-width: 0.53; stroke: #EBEBEB; stroke-linecap: butt;' />
<polyline points='277.77,82.51 498.52,82.51 ' style='stroke-width: 0.53; stroke: #EBEBEB; stroke-linecap: butt;' />
<polyline points='277.77,312.56 498.52,312.56 ' style='stroke-width: 1.07; stroke: #EBEBEB; stroke-linecap: butt;' />
<polyline points='277.77,261.44 498.52,261.44 ' style='stroke-width: 1.07; stroke: #EBEBEB; stroke-linecap: butt;' />
<polyline points='277.77,210.31 498.52,210.31 ' style='stroke-width: 1.07; stroke: #EBEBEB; stroke-linecap: butt;' />
<polyline points='277.77,159.19 498.52,159.19 ' style='stroke-width: 1.07; stroke: #EBEBEB; stroke-linecap: butt;' />
<polyline points='277.77,108.07 498.52,108.07 ' style='stroke-width: 1.07; stroke: #EBEBEB; stroke-linecap: butt;' />
<polyline points='337.97,324.32 337.97,65.64 ' style='stroke-width: 1.07; stroke: #EBEBEB; stroke-linecap: butt;' />
<polyline points='438.32,324.32 438.32,65.64 ' style='stroke-width: 1.07; stroke: #EBEBEB; stroke-linecap: butt;' />
<rect x='393.16' y='260.41' width='90.31' height='52.14' style='stroke-width: 1.07; stroke: none; stroke-linecap: butt; stroke-linejoin: miter; fill: #FF9933;' />
<rect x='292.82' y='77.40' width='90.31' height='235.16' style='stroke-width: 1.07; stroke: none; stroke-linecap: butt; stroke-linejoin: miter; fill: #434343;' />
<rect x='393.16' y='249.17' width='90.31' height='11.25' style='stroke-width: 1.07; stroke: none; stroke-linecap: butt; stroke-linejoin: miter; fill: #A6A6A6;' />
<rect x='277.77' y='65.64' width='220.75' height='258.68' style='stroke-width: 1.07; stroke: #333333;' />
</g>
<g clip-path='url(#cpMC4wMHw1MDQuMDB8MC4wMHwzNjAuMDA=)'>
</g>
<defs>
  <clipPath id='cpNTEuNTR8MjcyLjI5fDQ0LjY4fDY1LjY0'>
    <rect x='51.54' y='44.68' width='220.75' height='20.96' />
  </clipPath>
</defs>
<g clip-path='url(#cpNTEuNTR8MjcyLjI5fDQ0LjY4fDY1LjY0)'>
<rect x='51.54' y='44.68' width='220.75' height='20.96' style='stroke-width: 1.07; stroke: #333333; fill: #D9D9D9;' />
<text x='161.91' y='59.82' text-anchor='middle' style='font-size: 13.00px;fill: #1A1A1A; font-family: "Arial";' textLength='38.30px' lengthAdjust='spacingAndGlyphs'>gplas2</text>
</g>
<g clip-path='url(#cpMC4wMHw1MDQuMDB8MC4wMHwzNjAuMDA=)'>
</g>
<defs>
  <clipPath id='cpMjc3Ljc3fDQ5OC41Mnw0NC42OHw2NS42NA=='>
    <rect x='277.77' y='44.68' width='220.75' height='20.96' />
  </clipPath>
</defs>
<g clip-path='url(#cpMjc3Ljc3fDQ5OC41Mnw0NC42OHw2NS42NA==)'>
<rect x='277.77' y='44.68' width='220.75' height='20.96' style='stroke-width: 1.07; stroke: #333333; fill: #D9D9D9;' />
<text x='388.14' y='59.82' text-anchor='middle' style='font-size: 13.00px;fill: #1A1A1A; font-family: "Arial";' textLength='61.39px' lengthAdjust='spacingAndGlyphs'>MOB-suite</text>
</g>
<g clip-path='url(#cpMC4wMHw1MDQuMDB8MC4wMHwzNjAuMDA=)'>
<polyline points='111.74,327.06 111.74,324.32 ' style='stroke-width: 1.07; stroke: #333333; stroke-linecap: butt;' />
<polyline points='212.08,327.06 212.08,324.32 ' style='stroke-width: 1.07; stroke: #333333; stroke-linecap: butt;' />
<text x='111.74' y='336.43' text-anchor='middle' style='font-size: 10.00px;fill: #4D4D4D; font-family: "Arial";' textLength='60.00px' lengthAdjust='spacingAndGlyphs'>Chromosome</text>
<text x='212.08' y='336.43' text-anchor='middle' style='font-size: 10.00px;fill: #4D4D4D; font-family: "Arial";' textLength='55.01px' lengthAdjust='spacingAndGlyphs'>Plasmidome</text>
<polyline points='337.97,327.06 337.97,324.32 ' style='stroke-width: 1.07; stroke: #333333; stroke-linecap: butt;' />
<polyline points='438.32,327.06 438.32,324.32 ' style='stroke-width: 1.07; stroke: #333333; stroke-linecap: butt;' />
<text x='337.97' y='336.43' text-anchor='middle' style='font-size: 10.00px;fill: #4D4D4D; font-family: "Arial";' textLength='60.00px' lengthAdjust='spacingAndGlyphs'>Chromosome</text>
<text x='438.32' y='336.43' text-anchor='middle' style='font-size: 10.00px;fill: #4D4D4D; font-family: "Arial";' textLength='55.01px' lengthAdjust='spacingAndGlyphs'>Plasmidome</text>
<text x='46.60' y='317.58' text-anchor='end' style='font-size: 14.00px;fill: #4D4D4D; font-family: "Arial";' textLength='7.78px' lengthAdjust='spacingAndGlyphs'>0</text>
<text x='46.60' y='266.46' text-anchor='end' style='font-size: 14.00px;fill: #4D4D4D; font-family: "Arial";' textLength='15.57px' lengthAdjust='spacingAndGlyphs'>50</text>
<text x='46.60' y='215.34' text-anchor='end' style='font-size: 14.00px;fill: #4D4D4D; font-family: "Arial";' textLength='23.35px' lengthAdjust='spacingAndGlyphs'>100</text>
<text x='46.60' y='164.21' text-anchor='end' style='font-size: 14.00px;fill: #4D4D4D; font-family: "Arial";' textLength='23.35px' lengthAdjust='spacingAndGlyphs'>150</text>
<text x='46.60' y='113.09' text-anchor='end' style='font-size: 14.00px;fill: #4D4D4D; font-family: "Arial";' textLength='23.35px' lengthAdjust='spacingAndGlyphs'>200</text>
<polyline points='48.80,312.56 51.54,312.56 ' style='stroke-width: 1.07; stroke: #333333; stroke-linecap: butt;' />
<polyline points='48.80,261.44 51.54,261.44 ' style='stroke-width: 1.07; stroke: #333333; stroke-linecap: butt;' />
<polyline points='48.80,210.31 51.54,210.31 ' style='stroke-width: 1.07; stroke: #333333; stroke-linecap: butt;' />
<polyline points='48.80,159.19 51.54,159.19 ' style='stroke-width: 1.07; stroke: #333333; stroke-linecap: butt;' />
<polyline points='48.80,108.07 51.54,108.07 ' style='stroke-width: 1.07; stroke: #333333; stroke-linecap: butt;' />
<text x='275.03' y='351.44' text-anchor='middle' style='font-size: 14.00px; font-weight: bold; font-family: "Arial";' textLength='104.18px' lengthAdjust='spacingAndGlyphs'>ARG true origin</text>
<text transform='translate(16.99,194.98) rotate(-90)' text-anchor='middle' style='font-size: 16.00px; font-weight: bold; font-family: "Arial";' textLength='71.12px' lengthAdjust='spacingAndGlyphs'>Nr. ARGs</text>
<rect x='98.34' y='5.48' width='353.38' height='28.24' style='stroke-width: 1.07; stroke: none; fill: #FFFFFF;' />
<text x='103.82' y='23.92' style='font-size: 12.00px; font-weight: bold; font-family: "Arial";' textLength='106.04px' lengthAdjust='spacingAndGlyphs'>ARG classification</text>
<rect x='215.59' y='10.96' width='17.28' height='17.28' style='stroke-width: 1.07; stroke: none; fill: #FFFFFF;' />
<rect x='216.30' y='11.67' width='15.86' height='15.86' style='stroke-width: 1.07; stroke: none; stroke-linecap: butt; stroke-linejoin: miter; fill: #434343;' />
<rect x='302.61' y='10.96' width='17.28' height='17.28' style='stroke-width: 1.07; stroke: none; fill: #FFFFFF;' />
<rect x='303.32' y='11.67' width='15.86' height='15.86' style='stroke-width: 1.07; stroke: none; stroke-linecap: butt; stroke-linejoin: miter; fill: #A6A6A6;' />
<rect x='388.53' y='10.96' width='17.28' height='17.28' style='stroke-width: 1.07; stroke: none; fill: #FFFFFF;' />
<rect x='389.24' y='11.67' width='15.86' height='15.86' style='stroke-width: 1.07; stroke: none; stroke-linecap: butt; stroke-linejoin: miter; fill: #FF9933;' />
<text x='238.85' y='23.19' style='font-size: 10.00px; font-family: "Arial";' textLength='57.78px' lengthAdjust='spacingAndGlyphs'>chromosome</text>
<text x='325.87' y='23.19' style='font-size: 10.00px; font-family: "Arial";' textLength='56.67px' lengthAdjust='spacingAndGlyphs'>missed_args</text>
<text x='411.79' y='23.19' style='font-size: 10.00px; font-family: "Arial";' textLength='34.45px' lengthAdjust='spacingAndGlyphs'>plasmid</text>
</g>
</svg>
