<?xml version='1.0' encoding='UTF-8' ?>
<svg xmlns='http://www.w3.org/2000/svg' xmlns:xlink='http://www.w3.org/1999/xlink' class='svglite' width='504.00pt' height='360.00pt' viewBox='0 0 504.00 360.00'>
<defs>
  <style type='text/css'><![CDATA[
    .svglite line, .svglite polyline, .svglite polygon, .svglite path, .svglite rect, .svglite circle {
      fill: none;
      stroke: #000000;
      stroke-linecap: round;
      stroke-linejoin: round;
      stroke-miterlimit: 10.00;
    }
    .svglite text {
      white-space: pre;
    }
  ]]></style>
</defs>
<rect width='100%' height='100%' style='stroke: none; fill: #FFFFFF;'/>
<defs>
  <clipPath id='cpMC4wMHw1MDQuMDB8MC4wMHwzNjAuMDA='>
    <rect x='0.00' y='0.00' width='504.00' height='360.00' />
  </clipPath>
</defs>
<g clip-path='url(#cpMC4wMHw1MDQuMDB8MC4wMHwzNjAuMDA=)'>
<rect x='0.00' y='0.000000000000057' width='504.00' height='360.00' style='stroke-width: 1.07; stroke: #FFFFFF; fill: #FFFFFF;' />
</g>
<defs>
  <clipPath id='cpNTUuMzZ8MjYyLjc4fDg1LjMxfDIxMi45OA=='>
    <rect x='55.36' y='85.31' width='207.42' height='127.67' />
  </clipPath>
</defs>
<g clip-path='url(#cpNTUuMzZ8MjYyLjc4fDg1LjMxfDIxMi45OA==)'>
<rect x='55.36' y='85.31' width='207.42' height='127.67' style='stroke-width: 1.07; stroke: none; fill: #FFFFFF;' />
<polyline points='55.36,193.04 262.78,193.04 ' style='stroke-width: 0.53; stroke: #EBEBEB; stroke-linecap: butt;' />
<polyline points='55.36,163.93 262.78,163.93 ' style='stroke-width: 0.53; stroke: #EBEBEB; stroke-linecap: butt;' />
<polyline points='55.36,134.82 262.78,134.82 ' style='stroke-width: 0.53; stroke: #EBEBEB; stroke-linecap: butt;' />
<polyline points='55.36,105.71 262.78,105.71 ' style='stroke-width: 0.53; stroke: #EBEBEB; stroke-linecap: butt;' />
<polyline points='55.36,207.60 262.78,207.60 ' style='stroke-width: 1.07; stroke: #EBEBEB; stroke-linecap: butt;' />
<polyline points='55.36,178.49 262.78,178.49 ' style='stroke-width: 1.07; stroke: #EBEBEB; stroke-linecap: butt;' />
<polyline points='55.36,149.38 262.78,149.38 ' style='stroke-width: 1.07; stroke: #EBEBEB; stroke-linecap: butt;' />
<polyline points='55.36,120.27 262.78,120.27 ' style='stroke-width: 1.07; stroke: #EBEBEB; stroke-linecap: butt;' />
<polyline points='55.36,91.16 262.78,91.16 ' style='stroke-width: 1.07; stroke: #EBEBEB; stroke-linecap: butt;' />
<polyline points='94.25,212.98 94.25,85.31 ' style='stroke-width: 1.07; stroke: #EBEBEB; stroke-linecap: butt;' />
<polyline points='159.07,212.98 159.07,85.31 ' style='stroke-width: 1.07; stroke: #EBEBEB; stroke-linecap: butt;' />
<polyline points='223.89,212.98 223.89,85.31 ' style='stroke-width: 1.07; stroke: #EBEBEB; stroke-linecap: butt;' />
<line x1='94.25' y1='91.16' x2='94.25' y2='91.16' style='stroke-width: 1.07; stroke: #333333; stroke-linecap: butt;' />
<line x1='94.25' y1='138.08' x2='94.25' y2='160.44' style='stroke-width: 1.07; stroke: #333333; stroke-linecap: butt;' />
<polygon points='69.95,91.16 69.95,138.08 118.56,138.08 118.56,91.16 69.95,91.16 ' style='stroke-width: 1.07; stroke: #333333; stroke-linecap: butt; stroke-linejoin: miter; fill: #FFFFFF;' />
<line x1='69.95' y1='113.75' x2='118.56' y2='113.75' style='stroke-width: 2.13; stroke: #333333; stroke-linecap: butt; stroke-linejoin: miter;' />
<circle cx='159.07' cy='133.78' r='1.95' style='stroke-width: 0.71; stroke: #333333; fill: #333333;' />
<circle cx='159.07' cy='142.86' r='1.95' style='stroke-width: 0.71; stroke: #333333; fill: #333333;' />
<circle cx='159.07' cy='151.24' r='1.95' style='stroke-width: 0.71; stroke: #333333; fill: #333333;' />
<line x1='159.07' y1='91.16' x2='159.07' y2='91.16' style='stroke-width: 1.07; stroke: #333333; stroke-linecap: butt;' />
<line x1='159.07' y1='103.50' x2='159.07' y2='106.06' style='stroke-width: 1.07; stroke: #333333; stroke-linecap: butt;' />
<polygon points='134.76,91.16 134.76,103.50 183.38,103.50 183.38,91.16 134.76,91.16 ' style='stroke-width: 1.07; stroke: #333333; stroke-linecap: butt; stroke-linejoin: miter; fill: #FFFFFF;' />
<line x1='134.76' y1='91.16' x2='183.38' y2='91.16' style='stroke-width: 2.13; stroke: #333333; stroke-linecap: butt; stroke-linejoin: miter;' />
<circle cx='223.89' cy='93.49' r='1.95' style='stroke-width: 0.71; stroke: #333333; fill: #333333;' />
<circle cx='223.89' cy='207.13' r='1.95' style='stroke-width: 0.71; stroke: #333333; fill: #333333;' />
<line x1='223.89' y1='148.91' x2='223.89' y2='140.18' style='stroke-width: 1.07; stroke: #333333; stroke-linecap: butt;' />
<line x1='223.89' y1='167.43' x2='223.89' y2='175.46' style='stroke-width: 1.07; stroke: #333333; stroke-linecap: butt;' />
<polygon points='199.58,148.91 199.58,167.43 248.20,167.43 248.20,148.91 199.58,148.91 ' style='stroke-width: 1.07; stroke: #333333; stroke-linecap: butt; stroke-linejoin: miter; fill: #FFFFFF;' />
<line x1='199.58' y1='157.65' x2='248.20' y2='157.65' style='stroke-width: 2.13; stroke: #333333; stroke-linecap: butt; stroke-linejoin: miter;' />
<circle cx='69.19' cy='91.16' r='1.95' style='stroke-width: 0.71; stroke: #00FF93; stroke-opacity: 0.30; fill: #00FF93; fill-opacity: 0.30;' />
<circle cx='85.41' cy='91.20' r='1.95' style='stroke-width: 0.71; stroke: #00FF93; stroke-opacity: 0.30; fill: #00FF93; fill-opacity: 0.30;' />
<circle cx='103.12' cy='91.18' r='1.95' style='stroke-width: 0.71; stroke: #00FF93; stroke-opacity: 0.30; fill: #00FF93; fill-opacity: 0.30;' />
<circle cx='114.77' cy='133.22' r='1.95' style='stroke-width: 0.71; stroke: #00FF93; stroke-opacity: 0.30; fill: #00FF93; fill-opacity: 0.30;' />
<circle cx='95.39' cy='160.40' r='1.95' style='stroke-width: 0.71; stroke: #00FF93; stroke-opacity: 0.30; fill: #00FF93; fill-opacity: 0.30;' />
<circle cx='114.86' cy='137.32' r='1.95' style='stroke-width: 0.71; stroke: #00FF93; stroke-opacity: 0.30; fill: #00FF93; fill-opacity: 0.30;' />
<circle cx='69.31' cy='158.50' r='1.95' style='stroke-width: 0.71; stroke: #00FF93; stroke-opacity: 0.30; fill: #00FF93; fill-opacity: 0.30;' />
<circle cx='105.84' cy='152.55' r='1.95' style='stroke-width: 0.71; stroke: #00FF93; stroke-opacity: 0.30; fill: #00FF93; fill-opacity: 0.30;' />
<circle cx='85.45' cy='138.87' r='1.95' style='stroke-width: 0.71; stroke: #00FF93; stroke-opacity: 0.30; fill: #00FF93; fill-opacity: 0.30;' />
<circle cx='114.92' cy='124.34' r='1.95' style='stroke-width: 0.71; stroke: #00FF93; stroke-opacity: 0.30; fill: #00FF93; fill-opacity: 0.30;' />
<circle cx='115.80' cy='91.16' r='1.95' style='stroke-width: 0.71; stroke: #00FF93; stroke-opacity: 0.30; fill: #00FF93; fill-opacity: 0.30;' />
<circle cx='82.92' cy='93.62' r='1.95' style='stroke-width: 0.71; stroke: #00FF93; stroke-opacity: 0.30; fill: #00FF93; fill-opacity: 0.30;' />
<circle cx='99.72' cy='91.18' r='1.95' style='stroke-width: 0.71; stroke: #00FF93; stroke-opacity: 0.30; fill: #00FF93; fill-opacity: 0.30;' />
<circle cx='90.07' cy='113.77' r='1.95' style='stroke-width: 0.71; stroke: #00FF93; stroke-opacity: 0.30; fill: #00FF93; fill-opacity: 0.30;' />
<circle cx='72.06' cy='91.18' r='1.95' style='stroke-width: 0.71; stroke: #00FF93; stroke-opacity: 0.30; fill: #00FF93; fill-opacity: 0.30;' />
<circle cx='175.39' cy='91.20' r='1.95' style='stroke-width: 0.71; stroke: #FFC300; stroke-opacity: 0.30; fill: #FFC300; fill-opacity: 0.30;' />
<circle cx='180.77' cy='91.13' r='1.95' style='stroke-width: 0.71; stroke: #FFC300; stroke-opacity: 0.30; fill: #FFC300; fill-opacity: 0.30;' />
<circle cx='135.82' cy='91.19' r='1.95' style='stroke-width: 0.71; stroke: #FFC300; stroke-opacity: 0.30; fill: #FFC300; fill-opacity: 0.30;' />
<circle cx='149.27' cy='106.04' r='1.95' style='stroke-width: 0.71; stroke: #FFC300; stroke-opacity: 0.30; fill: #FFC300; fill-opacity: 0.30;' />
<circle cx='175.17' cy='91.13' r='1.95' style='stroke-width: 0.71; stroke: #FFC300; stroke-opacity: 0.30; fill: #FFC300; fill-opacity: 0.30;' />
<circle cx='176.59' cy='91.13' r='1.95' style='stroke-width: 0.71; stroke: #FFC300; stroke-opacity: 0.30; fill: #FFC300; fill-opacity: 0.30;' />
<circle cx='167.72' cy='91.15' r='1.95' style='stroke-width: 0.71; stroke: #FFC300; stroke-opacity: 0.30; fill: #FFC300; fill-opacity: 0.30;' />
<circle cx='137.41' cy='106.03' r='1.95' style='stroke-width: 0.71; stroke: #FFC300; stroke-opacity: 0.30; fill: #FFC300; fill-opacity: 0.30;' />
<circle cx='169.00' cy='91.15' r='1.95' style='stroke-width: 0.71; stroke: #FFC300; stroke-opacity: 0.30; fill: #FFC300; fill-opacity: 0.30;' />
<circle cx='171.18' cy='91.17' r='1.95' style='stroke-width: 0.71; stroke: #FFC300; stroke-opacity: 0.30; fill: #FFC300; fill-opacity: 0.30;' />
<circle cx='138.28' cy='91.13' r='1.95' style='stroke-width: 0.71; stroke: #FFC300; stroke-opacity: 0.30; fill: #FFC300; fill-opacity: 0.30;' />
<circle cx='171.11' cy='106.07' r='1.95' style='stroke-width: 0.71; stroke: #FFC300; stroke-opacity: 0.30; fill: #FFC300; fill-opacity: 0.30;' />
<circle cx='148.33' cy='91.31' r='1.95' style='stroke-width: 0.71; stroke: #FFC300; stroke-opacity: 0.30; fill: #FFC300; fill-opacity: 0.30;' />
<circle cx='133.26' cy='91.15' r='1.95' style='stroke-width: 0.71; stroke: #FFC300; stroke-opacity: 0.30; fill: #FFC300; fill-opacity: 0.30;' />
<circle cx='152.85' cy='103.55' r='1.95' style='stroke-width: 0.71; stroke: #FFC300; stroke-opacity: 0.30; fill: #FFC300; fill-opacity: 0.30;' />
<circle cx='134.47' cy='133.79' r='1.95' style='stroke-width: 0.71; stroke: #FFC300; stroke-opacity: 0.30; fill: #FFC300; fill-opacity: 0.30;' />
<circle cx='154.68' cy='91.16' r='1.95' style='stroke-width: 0.71; stroke: #FFC300; stroke-opacity: 0.30; fill: #FFC300; fill-opacity: 0.30;' />
<circle cx='158.27' cy='93.22' r='1.95' style='stroke-width: 0.71; stroke: #FFC300; stroke-opacity: 0.30; fill: #FFC300; fill-opacity: 0.30;' />
<circle cx='134.41' cy='91.12' r='1.95' style='stroke-width: 0.71; stroke: #FFC300; stroke-opacity: 0.30; fill: #FFC300; fill-opacity: 0.30;' />
<circle cx='171.64' cy='142.84' r='1.95' style='stroke-width: 0.71; stroke: #FFC300; stroke-opacity: 0.30; fill: #FFC300; fill-opacity: 0.30;' />
<circle cx='176.40' cy='151.26' r='1.95' style='stroke-width: 0.71; stroke: #FFC300; stroke-opacity: 0.30; fill: #FFC300; fill-opacity: 0.30;' />
<circle cx='184.23' cy='91.20' r='1.95' style='stroke-width: 0.71; stroke: #FFC300; stroke-opacity: 0.30; fill: #FFC300; fill-opacity: 0.30;' />
<circle cx='180.97' cy='91.12' r='1.95' style='stroke-width: 0.71; stroke: #FFC300; stroke-opacity: 0.30; fill: #FFC300; fill-opacity: 0.30;' />
<circle cx='152.42' cy='91.20' r='1.95' style='stroke-width: 0.71; stroke: #FFC300; stroke-opacity: 0.30; fill: #FFC300; fill-opacity: 0.30;' />
<circle cx='154.07' cy='91.15' r='1.95' style='stroke-width: 0.71; stroke: #FFC300; stroke-opacity: 0.30; fill: #FFC300; fill-opacity: 0.30;' />
<circle cx='233.30' cy='93.51' r='1.95' style='stroke-width: 0.71; stroke: #F11212; stroke-opacity: 0.30; fill: #F11212; fill-opacity: 0.30;' />
<circle cx='235.75' cy='157.68' r='1.95' style='stroke-width: 0.71; stroke: #F11212; stroke-opacity: 0.30; fill: #F11212; fill-opacity: 0.30;' />
<circle cx='216.08' cy='157.62' r='1.95' style='stroke-width: 0.71; stroke: #F11212; stroke-opacity: 0.30; fill: #F11212; fill-opacity: 0.30;' />
<circle cx='233.70' cy='159.38' r='1.95' style='stroke-width: 0.71; stroke: #F11212; stroke-opacity: 0.30; fill: #F11212; fill-opacity: 0.30;' />
<circle cx='244.95' cy='175.48' r='1.95' style='stroke-width: 0.71; stroke: #F11212; stroke-opacity: 0.30; fill: #F11212; fill-opacity: 0.30;' />
<circle cx='226.10' cy='140.21' r='1.95' style='stroke-width: 0.71; stroke: #F11212; stroke-opacity: 0.30; fill: #F11212; fill-opacity: 0.30;' />
<circle cx='235.38' cy='207.18' r='1.95' style='stroke-width: 0.71; stroke: #F11212; stroke-opacity: 0.30; fill: #F11212; fill-opacity: 0.30;' />
<rect x='55.36' y='85.31' width='207.42' height='127.67' style='stroke-width: 1.07; stroke: #333333;' />
</g>
<g clip-path='url(#cpMC4wMHw1MDQuMDB8MC4wMHwzNjAuMDA=)'>
</g>
<defs>
  <clipPath id='cpNTUuMzZ8MjYyLjc4fDIxOC40NnwzNDYuMTM='>
    <rect x='55.36' y='218.46' width='207.42' height='127.67' />
  </clipPath>
</defs>
<g clip-path='url(#cpNTUuMzZ8MjYyLjc4fDIxOC40NnwzNDYuMTM=)'>
<rect x='55.36' y='218.46' width='207.42' height='127.67' style='stroke-width: 1.07; stroke: none; fill: #FFFFFF;' />
<polyline points='55.36,326.19 262.78,326.19 ' style='stroke-width: 0.53; stroke: #EBEBEB; stroke-linecap: butt;' />
<polyline points='55.36,297.08 262.78,297.08 ' style='stroke-width: 0.53; stroke: #EBEBEB; stroke-linecap: butt;' />
<polyline points='55.36,267.97 262.78,267.97 ' style='stroke-width: 0.53; stroke: #EBEBEB; stroke-linecap: butt;' />
<polyline points='55.36,238.86 262.78,238.86 ' style='stroke-width: 0.53; stroke: #EBEBEB; stroke-linecap: butt;' />
<polyline points='55.36,340.75 262.78,340.75 ' style='stroke-width: 1.07; stroke: #EBEBEB; stroke-linecap: butt;' />
<polyline points='55.36,311.64 262.78,311.64 ' style='stroke-width: 1.07; stroke: #EBEBEB; stroke-linecap: butt;' />
<polyline points='55.36,282.53 262.78,282.53 ' style='stroke-width: 1.07; stroke: #EBEBEB; stroke-linecap: butt;' />
<polyline points='55.36,253.42 262.78,253.42 ' style='stroke-width: 1.07; stroke: #EBEBEB; stroke-linecap: butt;' />
<polyline points='55.36,224.31 262.78,224.31 ' style='stroke-width: 1.07; stroke: #EBEBEB; stroke-linecap: butt;' />
<polyline points='94.25,346.13 94.25,218.46 ' style='stroke-width: 1.07; stroke: #EBEBEB; stroke-linecap: butt;' />
<polyline points='159.07,346.13 159.07,218.46 ' style='stroke-width: 1.07; stroke: #EBEBEB; stroke-linecap: butt;' />
<polyline points='223.89,346.13 223.89,218.46 ' style='stroke-width: 1.07; stroke: #EBEBEB; stroke-linecap: butt;' />
<line x1='94.25' y1='224.31' x2='94.25' y2='224.31' style='stroke-width: 1.07; stroke: #333333; stroke-linecap: butt;' />
<line x1='94.25' y1='261.68' x2='94.25' y2='267.16' style='stroke-width: 1.07; stroke: #333333; stroke-linecap: butt;' />
<polygon points='69.95,224.31 69.95,261.68 118.56,261.68 118.56,224.31 69.95,224.31 ' style='stroke-width: 1.07; stroke: #333333; stroke-linecap: butt; stroke-linejoin: miter; fill: #FFFFFF;' />
<line x1='69.95' y1='226.63' x2='118.56' y2='226.63' style='stroke-width: 2.13; stroke: #333333; stroke-linecap: butt; stroke-linejoin: miter;' />
<line x1='159.07' y1='237.67' x2='159.07' y2='224.31' style='stroke-width: 1.07; stroke: #333333; stroke-linecap: butt;' />
<line x1='159.07' y1='274.55' x2='159.07' y2='329.22' style='stroke-width: 1.07; stroke: #333333; stroke-linecap: butt;' />
<polygon points='134.76,237.67 134.76,274.55 183.38,274.55 183.38,237.67 134.76,237.67 ' style='stroke-width: 1.07; stroke: #333333; stroke-linecap: butt; stroke-linejoin: miter; fill: #FFFFFF;' />
<line x1='134.76' y1='250.16' x2='183.38' y2='250.16' style='stroke-width: 2.13; stroke: #333333; stroke-linecap: butt; stroke-linejoin: miter;' />
<circle cx='223.89' cy='299.64' r='1.95' style='stroke-width: 0.71; stroke: #333333; fill: #333333;' />
<line x1='223.89' y1='225.97' x2='223.89' y2='224.66' style='stroke-width: 1.07; stroke: #333333; stroke-linecap: butt;' />
<line x1='223.89' y1='247.24' x2='223.89' y2='247.24' style='stroke-width: 1.07; stroke: #333333; stroke-linecap: butt;' />
<polygon points='199.58,225.97 199.58,247.24 248.20,247.24 248.20,225.97 199.58,225.97 ' style='stroke-width: 1.07; stroke: #333333; stroke-linecap: butt; stroke-linejoin: miter; fill: #FFFFFF;' />
<line x1='199.58' y1='228.09' x2='248.20' y2='228.09' style='stroke-width: 2.13; stroke: #333333; stroke-linecap: butt; stroke-linejoin: miter;' />
<circle cx='102.49' cy='267.20' r='1.95' style='stroke-width: 0.71; stroke: #00FF93; stroke-opacity: 0.30; fill: #00FF93; fill-opacity: 0.30;' />
<circle cx='120.03' cy='226.66' r='1.95' style='stroke-width: 0.71; stroke: #00FF93; stroke-opacity: 0.30; fill: #00FF93; fill-opacity: 0.30;' />
<circle cx='110.15' cy='261.67' r='1.95' style='stroke-width: 0.71; stroke: #00FF93; stroke-opacity: 0.30; fill: #00FF93; fill-opacity: 0.30;' />
<circle cx='89.31' cy='224.28' r='1.95' style='stroke-width: 0.71; stroke: #00FF93; stroke-opacity: 0.30; fill: #00FF93; fill-opacity: 0.30;' />
<circle cx='89.38' cy='224.33' r='1.95' style='stroke-width: 0.71; stroke: #00FF93; stroke-opacity: 0.30; fill: #00FF93; fill-opacity: 0.30;' />
<circle cx='172.71' cy='224.28' r='1.95' style='stroke-width: 0.71; stroke: #FFC300; stroke-opacity: 0.30; fill: #FFC300; fill-opacity: 0.30;' />
<circle cx='145.99' cy='224.31' r='1.95' style='stroke-width: 0.71; stroke: #FFC300; stroke-opacity: 0.30; fill: #FFC300; fill-opacity: 0.30;' />
<circle cx='141.19' cy='224.31' r='1.95' style='stroke-width: 0.71; stroke: #FFC300; stroke-opacity: 0.30; fill: #FFC300; fill-opacity: 0.30;' />
<circle cx='162.51' cy='256.35' r='1.95' style='stroke-width: 0.71; stroke: #FFC300; stroke-opacity: 0.30; fill: #FFC300; fill-opacity: 0.30;' />
<circle cx='135.56' cy='329.24' r='1.95' style='stroke-width: 0.71; stroke: #FFC300; stroke-opacity: 0.30; fill: #FFC300; fill-opacity: 0.30;' />
<circle cx='174.89' cy='244.14' r='1.95' style='stroke-width: 0.71; stroke: #FFC300; stroke-opacity: 0.30; fill: #FFC300; fill-opacity: 0.30;' />
<circle cx='136.15' cy='256.33' r='1.95' style='stroke-width: 0.71; stroke: #FFC300; stroke-opacity: 0.30; fill: #FFC300; fill-opacity: 0.30;' />
<circle cx='156.12' cy='329.25' r='1.95' style='stroke-width: 0.71; stroke: #FFC300; stroke-opacity: 0.30; fill: #FFC300; fill-opacity: 0.30;' />
<circle cx='143.81' cy='242.92' r='1.95' style='stroke-width: 0.71; stroke: #FFC300; stroke-opacity: 0.30; fill: #FFC300; fill-opacity: 0.30;' />
<circle cx='172.93' cy='256.22' r='1.95' style='stroke-width: 0.71; stroke: #FFC300; stroke-opacity: 0.30; fill: #FFC300; fill-opacity: 0.30;' />
<circle cx='184.53' cy='329.25' r='1.95' style='stroke-width: 0.71; stroke: #FFC300; stroke-opacity: 0.30; fill: #FFC300; fill-opacity: 0.30;' />
<circle cx='178.00' cy='242.11' r='1.95' style='stroke-width: 0.71; stroke: #FFC300; stroke-opacity: 0.30; fill: #FFC300; fill-opacity: 0.30;' />
<circle cx='223.89' cy='299.66' r='1.95' style='stroke-width: 0.71; stroke: #F11212; stroke-opacity: 0.30; fill: #F11212; fill-opacity: 0.30;' />
<circle cx='199.24' cy='226.37' r='1.95' style='stroke-width: 0.71; stroke: #F11212; stroke-opacity: 0.30; fill: #F11212; fill-opacity: 0.30;' />
<circle cx='198.79' cy='229.82' r='1.95' style='stroke-width: 0.71; stroke: #F11212; stroke-opacity: 0.30; fill: #F11212; fill-opacity: 0.30;' />
<circle cx='213.44' cy='224.61' r='1.95' style='stroke-width: 0.71; stroke: #F11212; stroke-opacity: 0.30; fill: #F11212; fill-opacity: 0.30;' />
<rect x='55.36' y='218.46' width='207.42' height='127.67' style='stroke-width: 1.07; stroke: #333333;' />
</g>
<g clip-path='url(#cpMC4wMHw1MDQuMDB8MC4wMHwzNjAuMDA=)'>
</g>
<defs>
  <clipPath id='cpMjY4LjI2fDQ3NS42OHw4NS4zMXwyMTIuOTg='>
    <rect x='268.26' y='85.31' width='207.42' height='127.67' />
  </clipPath>
</defs>
<g clip-path='url(#cpMjY4LjI2fDQ3NS42OHw4NS4zMXwyMTIuOTg=)'>
<rect x='268.26' y='85.31' width='207.42' height='127.67' style='stroke-width: 1.07; stroke: none; fill: #FFFFFF;' />
<polyline points='268.26,193.04 475.68,193.04 ' style='stroke-width: 0.53; stroke: #EBEBEB; stroke-linecap: butt;' />
<polyline points='268.26,163.93 475.68,163.93 ' style='stroke-width: 0.53; stroke: #EBEBEB; stroke-linecap: butt;' />
<polyline points='268.26,134.82 475.68,134.82 ' style='stroke-width: 0.53; stroke: #EBEBEB; stroke-linecap: butt;' />
<polyline points='268.26,105.71 475.68,105.71 ' style='stroke-width: 0.53; stroke: #EBEBEB; stroke-linecap: butt;' />
<polyline points='268.26,207.60 475.68,207.60 ' style='stroke-width: 1.07; stroke: #EBEBEB; stroke-linecap: butt;' />
<polyline points='268.26,178.49 475.68,178.49 ' style='stroke-width: 1.07; stroke: #EBEBEB; stroke-linecap: butt;' />
<polyline points='268.26,149.38 475.68,149.38 ' style='stroke-width: 1.07; stroke: #EBEBEB; stroke-linecap: butt;' />
<polyline points='268.26,120.27 475.68,120.27 ' style='stroke-width: 1.07; stroke: #EBEBEB; stroke-linecap: butt;' />
<polyline points='268.26,91.16 475.68,91.16 ' style='stroke-width: 1.07; stroke: #EBEBEB; stroke-linecap: butt;' />
<polyline points='307.15,212.98 307.15,85.31 ' style='stroke-width: 1.07; stroke: #EBEBEB; stroke-linecap: butt;' />
<polyline points='371.97,212.98 371.97,85.31 ' style='stroke-width: 1.07; stroke: #EBEBEB; stroke-linecap: butt;' />
<polyline points='436.79,212.98 436.79,85.31 ' style='stroke-width: 1.07; stroke: #EBEBEB; stroke-linecap: butt;' />
<line x1='307.15' y1='99.66' x2='307.15' y2='91.16' style='stroke-width: 1.07; stroke: #333333; stroke-linecap: butt;' />
<line x1='307.15' y1='126.32' x2='307.15' y2='149.03' style='stroke-width: 1.07; stroke: #333333; stroke-linecap: butt;' />
<polygon points='282.85,99.66 282.85,126.32 331.46,126.32 331.46,99.66 282.85,99.66 ' style='stroke-width: 1.07; stroke: #333333; stroke-linecap: butt; stroke-linejoin: miter; fill: #FFFFFF;' />
<line x1='282.85' y1='100.59' x2='331.46' y2='100.59' style='stroke-width: 2.13; stroke: #333333; stroke-linecap: butt; stroke-linejoin: miter;' />
<line x1='371.97' y1='116.08' x2='371.97' y2='94.07' style='stroke-width: 1.07; stroke: #333333; stroke-linecap: butt;' />
<line x1='371.97' y1='160.09' x2='371.97' y2='183.96' style='stroke-width: 1.07; stroke: #333333; stroke-linecap: butt;' />
<polygon points='347.67,116.08 347.67,160.09 396.28,160.09 396.28,116.08 347.67,116.08 ' style='stroke-width: 1.07; stroke: #333333; stroke-linecap: butt; stroke-linejoin: miter; fill: #FFFFFF;' />
<line x1='347.67' y1='143.09' x2='396.28' y2='143.09' style='stroke-width: 2.13; stroke: #333333; stroke-linecap: butt; stroke-linejoin: miter;' />
<line x1='436.79' y1='98.49' x2='436.79' y2='97.91' style='stroke-width: 1.07; stroke: #333333; stroke-linecap: butt;' />
<line x1='436.79' y1='140.94' x2='436.79' y2='201.78' style='stroke-width: 1.07; stroke: #333333; stroke-linecap: butt;' />
<polygon points='412.48,98.49 412.48,140.94 461.10,140.94 461.10,98.49 412.48,98.49 ' style='stroke-width: 1.07; stroke: #333333; stroke-linecap: butt; stroke-linejoin: miter; fill: #FFFFFF;' />
<line x1='412.48' y1='99.78' x2='461.10' y2='99.78' style='stroke-width: 2.13; stroke: #333333; stroke-linecap: butt; stroke-linejoin: miter;' />
<circle cx='310.91' cy='132.23' r='1.95' style='stroke-width: 0.71; stroke: #00FF93; stroke-opacity: 0.30; fill: #00FF93; fill-opacity: 0.30;' />
<circle cx='293.64' cy='99.90' r='1.95' style='stroke-width: 0.71; stroke: #00FF93; stroke-opacity: 0.30; fill: #00FF93; fill-opacity: 0.30;' />
<circle cx='292.35' cy='91.14' r='1.95' style='stroke-width: 0.71; stroke: #00FF93; stroke-opacity: 0.30; fill: #00FF93; fill-opacity: 0.30;' />
<circle cx='299.11' cy='146.82' r='1.95' style='stroke-width: 0.71; stroke: #00FF93; stroke-opacity: 0.30; fill: #00FF93; fill-opacity: 0.30;' />
<circle cx='312.01' cy='100.55' r='1.95' style='stroke-width: 0.71; stroke: #00FF93; stroke-opacity: 0.30; fill: #00FF93; fill-opacity: 0.30;' />
<circle cx='295.77' cy='142.63' r='1.95' style='stroke-width: 0.71; stroke: #00FF93; stroke-opacity: 0.30; fill: #00FF93; fill-opacity: 0.30;' />
<circle cx='297.31' cy='100.45' r='1.95' style='stroke-width: 0.71; stroke: #00FF93; stroke-opacity: 0.30; fill: #00FF93; fill-opacity: 0.30;' />
<circle cx='293.67' cy='105.04' r='1.95' style='stroke-width: 0.71; stroke: #00FF93; stroke-opacity: 0.30; fill: #00FF93; fill-opacity: 0.30;' />
<circle cx='322.15' cy='100.60' r='1.95' style='stroke-width: 0.71; stroke: #00FF93; stroke-opacity: 0.30; fill: #00FF93; fill-opacity: 0.30;' />
<circle cx='307.05' cy='98.62' r='1.95' style='stroke-width: 0.71; stroke: #00FF93; stroke-opacity: 0.30; fill: #00FF93; fill-opacity: 0.30;' />
<circle cx='304.63' cy='99.68' r='1.95' style='stroke-width: 0.71; stroke: #00FF93; stroke-opacity: 0.30; fill: #00FF93; fill-opacity: 0.30;' />
<circle cx='320.30' cy='101.64' r='1.95' style='stroke-width: 0.71; stroke: #00FF93; stroke-opacity: 0.30; fill: #00FF93; fill-opacity: 0.30;' />
<circle cx='290.85' cy='149.00' r='1.95' style='stroke-width: 0.71; stroke: #00FF93; stroke-opacity: 0.30; fill: #00FF93; fill-opacity: 0.30;' />
<circle cx='309.87' cy='95.22' r='1.95' style='stroke-width: 0.71; stroke: #00FF93; stroke-opacity: 0.30; fill: #00FF93; fill-opacity: 0.30;' />
<circle cx='323.49' cy='121.86' r='1.95' style='stroke-width: 0.71; stroke: #00FF93; stroke-opacity: 0.30; fill: #00FF93; fill-opacity: 0.30;' />
<circle cx='290.22' cy='126.33' r='1.95' style='stroke-width: 0.71; stroke: #00FF93; stroke-opacity: 0.30; fill: #00FF93; fill-opacity: 0.30;' />
<circle cx='323.40' cy='97.77' r='1.95' style='stroke-width: 0.71; stroke: #00FF93; stroke-opacity: 0.30; fill: #00FF93; fill-opacity: 0.30;' />
<circle cx='393.58' cy='106.20' r='1.95' style='stroke-width: 0.71; stroke: #FFC300; stroke-opacity: 0.30; fill: #FFC300; fill-opacity: 0.30;' />
<circle cx='376.63' cy='143.09' r='1.95' style='stroke-width: 0.71; stroke: #FFC300; stroke-opacity: 0.30; fill: #FFC300; fill-opacity: 0.30;' />
<circle cx='374.10' cy='183.80' r='1.95' style='stroke-width: 0.71; stroke: #FFC300; stroke-opacity: 0.30; fill: #FFC300; fill-opacity: 0.30;' />
<circle cx='385.38' cy='143.05' r='1.95' style='stroke-width: 0.71; stroke: #FFC300; stroke-opacity: 0.30; fill: #FFC300; fill-opacity: 0.30;' />
<circle cx='365.47' cy='183.83' r='1.95' style='stroke-width: 0.71; stroke: #FFC300; stroke-opacity: 0.30; fill: #FFC300; fill-opacity: 0.30;' />
<circle cx='378.86' cy='143.12' r='1.95' style='stroke-width: 0.71; stroke: #FFC300; stroke-opacity: 0.30; fill: #FFC300; fill-opacity: 0.30;' />
<circle cx='353.14' cy='184.00' r='1.95' style='stroke-width: 0.71; stroke: #FFC300; stroke-opacity: 0.30; fill: #FFC300; fill-opacity: 0.30;' />
<circle cx='365.85' cy='121.56' r='1.95' style='stroke-width: 0.71; stroke: #FFC300; stroke-opacity: 0.30; fill: #FFC300; fill-opacity: 0.30;' />
<circle cx='389.95' cy='138.99' r='1.95' style='stroke-width: 0.71; stroke: #FFC300; stroke-opacity: 0.30; fill: #FFC300; fill-opacity: 0.30;' />
<circle cx='386.07' cy='101.60' r='1.95' style='stroke-width: 0.71; stroke: #FFC300; stroke-opacity: 0.30; fill: #FFC300; fill-opacity: 0.30;' />
<circle cx='389.97' cy='159.70' r='1.95' style='stroke-width: 0.71; stroke: #FFC300; stroke-opacity: 0.30; fill: #FFC300; fill-opacity: 0.30;' />
<circle cx='387.38' cy='160.40' r='1.95' style='stroke-width: 0.71; stroke: #FFC300; stroke-opacity: 0.30; fill: #FFC300; fill-opacity: 0.30;' />
<circle cx='383.20' cy='117.33' r='1.95' style='stroke-width: 0.71; stroke: #FFC300; stroke-opacity: 0.30; fill: #FFC300; fill-opacity: 0.30;' />
<circle cx='395.88' cy='114.78' r='1.95' style='stroke-width: 0.71; stroke: #FFC300; stroke-opacity: 0.30; fill: #FFC300; fill-opacity: 0.30;' />
<circle cx='348.61' cy='94.10' r='1.95' style='stroke-width: 0.71; stroke: #FFC300; stroke-opacity: 0.30; fill: #FFC300; fill-opacity: 0.30;' />
<circle cx='426.06' cy='97.95' r='1.95' style='stroke-width: 0.71; stroke: #F11212; stroke-opacity: 0.30; fill: #F11212; fill-opacity: 0.30;' />
<circle cx='412.73' cy='99.65' r='1.95' style='stroke-width: 0.71; stroke: #F11212; stroke-opacity: 0.30; fill: #F11212; fill-opacity: 0.30;' />
<circle cx='427.40' cy='98.47' r='1.95' style='stroke-width: 0.71; stroke: #F11212; stroke-opacity: 0.30; fill: #F11212; fill-opacity: 0.30;' />
<circle cx='422.21' cy='99.75' r='1.95' style='stroke-width: 0.71; stroke: #F11212; stroke-opacity: 0.30; fill: #F11212; fill-opacity: 0.30;' />
<circle cx='458.64' cy='98.47' r='1.95' style='stroke-width: 0.71; stroke: #F11212; stroke-opacity: 0.30; fill: #F11212; fill-opacity: 0.30;' />
<circle cx='450.16' cy='103.53' r='1.95' style='stroke-width: 0.71; stroke: #F11212; stroke-opacity: 0.30; fill: #F11212; fill-opacity: 0.30;' />
<circle cx='452.59' cy='98.51' r='1.95' style='stroke-width: 0.71; stroke: #F11212; stroke-opacity: 0.30; fill: #F11212; fill-opacity: 0.30;' />
<circle cx='460.44' cy='184.08' r='1.95' style='stroke-width: 0.71; stroke: #F11212; stroke-opacity: 0.30; fill: #F11212; fill-opacity: 0.30;' />
<circle cx='442.97' cy='178.37' r='1.95' style='stroke-width: 0.71; stroke: #F11212; stroke-opacity: 0.30; fill: #F11212; fill-opacity: 0.30;' />
<circle cx='457.79' cy='101.48' r='1.95' style='stroke-width: 0.71; stroke: #F11212; stroke-opacity: 0.30; fill: #F11212; fill-opacity: 0.30;' />
<circle cx='439.09' cy='201.79' r='1.95' style='stroke-width: 0.71; stroke: #F11212; stroke-opacity: 0.30; fill: #F11212; fill-opacity: 0.30;' />
<rect x='268.26' y='85.31' width='207.42' height='127.67' style='stroke-width: 1.07; stroke: #333333;' />
</g>
<g clip-path='url(#cpMC4wMHw1MDQuMDB8MC4wMHwzNjAuMDA=)'>
</g>
<defs>
  <clipPath id='cpMjY4LjI2fDQ3NS42OHwyMTguNDZ8MzQ2LjEz'>
    <rect x='268.26' y='218.46' width='207.42' height='127.67' />
  </clipPath>
</defs>
<g clip-path='url(#cpMjY4LjI2fDQ3NS42OHwyMTguNDZ8MzQ2LjEz)'>
<rect x='268.26' y='218.46' width='207.42' height='127.67' style='stroke-width: 1.07; stroke: none; fill: #FFFFFF;' />
<polyline points='268.26,326.19 475.68,326.19 ' style='stroke-width: 0.53; stroke: #EBEBEB; stroke-linecap: butt;' />
<polyline points='268.26,297.08 475.68,297.08 ' style='stroke-width: 0.53; stroke: #EBEBEB; stroke-linecap: butt;' />
<polyline points='268.26,267.97 475.68,267.97 ' style='stroke-width: 0.53; stroke: #EBEBEB; stroke-linecap: butt;' />
<polyline points='268.26,238.86 475.68,238.86 ' style='stroke-width: 0.53; stroke: #EBEBEB; stroke-linecap: butt;' />
<polyline points='268.26,340.75 475.68,340.75 ' style='stroke-width: 1.07; stroke: #EBEBEB; stroke-linecap: butt;' />
<polyline points='268.26,311.64 475.68,311.64 ' style='stroke-width: 1.07; stroke: #EBEBEB; stroke-linecap: butt;' />
<polyline points='268.26,282.53 475.68,282.53 ' style='stroke-width: 1.07; stroke: #EBEBEB; stroke-linecap: butt;' />
<polyline points='268.26,253.42 475.68,253.42 ' style='stroke-width: 1.07; stroke: #EBEBEB; stroke-linecap: butt;' />
<polyline points='268.26,224.31 475.68,224.31 ' style='stroke-width: 1.07; stroke: #EBEBEB; stroke-linecap: butt;' />
<polyline points='307.15,346.13 307.15,218.46 ' style='stroke-width: 1.07; stroke: #EBEBEB; stroke-linecap: butt;' />
<polyline points='371.97,346.13 371.97,218.46 ' style='stroke-width: 1.07; stroke: #EBEBEB; stroke-linecap: butt;' />
<polyline points='436.79,346.13 436.79,218.46 ' style='stroke-width: 1.07; stroke: #EBEBEB; stroke-linecap: butt;' />
<line x1='307.15' y1='230.94' x2='307.15' y2='228.15' style='stroke-width: 1.07; stroke: #333333; stroke-linecap: butt;' />
<line x1='307.15' y1='244.80' x2='307.15' y2='256.33' style='stroke-width: 1.07; stroke: #333333; stroke-linecap: butt;' />
<polygon points='282.85,230.94 282.85,244.80 331.46,244.80 331.46,230.94 282.85,230.94 ' style='stroke-width: 1.07; stroke: #333333; stroke-linecap: butt; stroke-linejoin: miter; fill: #FFFFFF;' />
<line x1='282.85' y1='231.29' x2='331.46' y2='231.29' style='stroke-width: 2.13; stroke: #333333; stroke-linecap: butt; stroke-linejoin: miter;' />
<line x1='371.97' y1='250.39' x2='371.97' y2='228.15' style='stroke-width: 1.07; stroke: #333333; stroke-linecap: butt;' />
<line x1='371.97' y1='310.47' x2='371.97' y2='310.47' style='stroke-width: 1.07; stroke: #333333; stroke-linecap: butt;' />
<polygon points='347.67,250.39 347.67,310.47 396.28,310.47 396.28,250.39 347.67,250.39 ' style='stroke-width: 1.07; stroke: #333333; stroke-linecap: butt; stroke-linejoin: miter; fill: #FFFFFF;' />
<line x1='347.67' y1='286.37' x2='396.28' y2='286.37' style='stroke-width: 2.13; stroke: #333333; stroke-linecap: butt; stroke-linejoin: miter;' />
<line x1='436.79' y1='227.74' x2='436.79' y2='224.54' style='stroke-width: 1.07; stroke: #333333; stroke-linecap: butt;' />
<line x1='436.79' y1='242.70' x2='436.79' y2='246.43' style='stroke-width: 1.07; stroke: #333333; stroke-linecap: butt;' />
<polygon points='412.48,227.74 412.48,242.70 461.10,242.70 461.10,227.74 412.48,227.74 ' style='stroke-width: 1.07; stroke: #333333; stroke-linecap: butt; stroke-linejoin: miter; fill: #FFFFFF;' />
<line x1='412.48' y1='228.50' x2='461.10' y2='228.50' style='stroke-width: 2.13; stroke: #333333; stroke-linecap: butt; stroke-linejoin: miter;' />
<circle cx='290.93' cy='228.12' r='1.95' style='stroke-width: 0.71; stroke: #00FF93; stroke-opacity: 0.30; fill: #00FF93; fill-opacity: 0.30;' />
<circle cx='302.94' cy='231.29' r='1.95' style='stroke-width: 0.71; stroke: #00FF93; stroke-opacity: 0.30; fill: #00FF93; fill-opacity: 0.30;' />
<circle cx='305.91' cy='233.04' r='1.95' style='stroke-width: 0.71; stroke: #00FF93; stroke-opacity: 0.30; fill: #00FF93; fill-opacity: 0.30;' />
<circle cx='307.48' cy='234.68' r='1.95' style='stroke-width: 0.71; stroke: #00FF93; stroke-opacity: 0.30; fill: #00FF93; fill-opacity: 0.30;' />
<circle cx='289.08' cy='228.73' r='1.95' style='stroke-width: 0.71; stroke: #00FF93; stroke-opacity: 0.30; fill: #00FF93; fill-opacity: 0.30;' />
<circle cx='330.82' cy='230.95' r='1.95' style='stroke-width: 0.71; stroke: #00FF93; stroke-opacity: 0.30; fill: #00FF93; fill-opacity: 0.30;' />
<circle cx='321.64' cy='256.31' r='1.95' style='stroke-width: 0.71; stroke: #00FF93; stroke-opacity: 0.30; fill: #00FF93; fill-opacity: 0.30;' />
<circle cx='310.91' cy='231.07' r='1.95' style='stroke-width: 0.71; stroke: #00FF93; stroke-opacity: 0.30; fill: #00FF93; fill-opacity: 0.30;' />
<circle cx='306.14' cy='255.08' r='1.95' style='stroke-width: 0.71; stroke: #00FF93; stroke-opacity: 0.30; fill: #00FF93; fill-opacity: 0.30;' />
<circle cx='288.40' cy='230.93' r='1.95' style='stroke-width: 0.71; stroke: #00FF93; stroke-opacity: 0.30; fill: #00FF93; fill-opacity: 0.30;' />
<circle cx='304.56' cy='254.93' r='1.95' style='stroke-width: 0.71; stroke: #00FF93; stroke-opacity: 0.30; fill: #00FF93; fill-opacity: 0.30;' />
<circle cx='382.47' cy='228.12' r='1.95' style='stroke-width: 0.71; stroke: #FFC300; stroke-opacity: 0.30; fill: #FFC300; fill-opacity: 0.30;' />
<circle cx='393.09' cy='286.41' r='1.95' style='stroke-width: 0.71; stroke: #FFC300; stroke-opacity: 0.30; fill: #FFC300; fill-opacity: 0.30;' />
<circle cx='376.71' cy='286.81' r='1.95' style='stroke-width: 0.71; stroke: #FFC300; stroke-opacity: 0.30; fill: #FFC300; fill-opacity: 0.30;' />
<circle cx='384.37' cy='310.45' r='1.95' style='stroke-width: 0.71; stroke: #FFC300; stroke-opacity: 0.30; fill: #FFC300; fill-opacity: 0.30;' />
<circle cx='351.36' cy='251.81' r='1.95' style='stroke-width: 0.71; stroke: #FFC300; stroke-opacity: 0.30; fill: #FFC300; fill-opacity: 0.30;' />
<circle cx='390.07' cy='310.48' r='1.95' style='stroke-width: 0.71; stroke: #FFC300; stroke-opacity: 0.30; fill: #FFC300; fill-opacity: 0.30;' />
<circle cx='373.49' cy='250.35' r='1.95' style='stroke-width: 0.71; stroke: #FFC300; stroke-opacity: 0.30; fill: #FFC300; fill-opacity: 0.30;' />
<circle cx='365.40' cy='310.51' r='1.95' style='stroke-width: 0.71; stroke: #FFC300; stroke-opacity: 0.30; fill: #FFC300; fill-opacity: 0.30;' />
<circle cx='360.73' cy='250.37' r='1.95' style='stroke-width: 0.71; stroke: #FFC300; stroke-opacity: 0.30; fill: #FFC300; fill-opacity: 0.30;' />
<circle cx='413.18' cy='228.53' r='1.95' style='stroke-width: 0.71; stroke: #F11212; stroke-opacity: 0.30; fill: #F11212; fill-opacity: 0.30;' />
<circle cx='442.03' cy='227.42' r='1.95' style='stroke-width: 0.71; stroke: #F11212; stroke-opacity: 0.30; fill: #F11212; fill-opacity: 0.30;' />
<circle cx='448.52' cy='224.52' r='1.95' style='stroke-width: 0.71; stroke: #F11212; stroke-opacity: 0.30; fill: #F11212; fill-opacity: 0.30;' />
<circle cx='413.36' cy='228.02' r='1.95' style='stroke-width: 0.71; stroke: #F11212; stroke-opacity: 0.30; fill: #F11212; fill-opacity: 0.30;' />
<circle cx='428.63' cy='244.95' r='1.95' style='stroke-width: 0.71; stroke: #F11212; stroke-opacity: 0.30; fill: #F11212; fill-opacity: 0.30;' />
<circle cx='449.84' cy='227.99' r='1.95' style='stroke-width: 0.71; stroke: #F11212; stroke-opacity: 0.30; fill: #F11212; fill-opacity: 0.30;' />
<circle cx='416.21' cy='242.55' r='1.95' style='stroke-width: 0.71; stroke: #F11212; stroke-opacity: 0.30; fill: #F11212; fill-opacity: 0.30;' />
<circle cx='419.76' cy='228.76' r='1.95' style='stroke-width: 0.71; stroke: #F11212; stroke-opacity: 0.30; fill: #F11212; fill-opacity: 0.30;' />
<circle cx='440.12' cy='242.77' r='1.95' style='stroke-width: 0.71; stroke: #F11212; stroke-opacity: 0.30; fill: #F11212; fill-opacity: 0.30;' />
<circle cx='438.84' cy='246.47' r='1.95' style='stroke-width: 0.71; stroke: #F11212; stroke-opacity: 0.30; fill: #F11212; fill-opacity: 0.30;' />
<circle cx='440.75' cy='226.02' r='1.95' style='stroke-width: 0.71; stroke: #F11212; stroke-opacity: 0.30; fill: #F11212; fill-opacity: 0.30;' />
<rect x='268.26' y='218.46' width='207.42' height='127.67' style='stroke-width: 1.07; stroke: #333333;' />
</g>
<g clip-path='url(#cpMC4wMHw1MDQuMDB8MC4wMHwzNjAuMDA=)'>
</g>
<defs>
  <clipPath id='cpNTUuMzZ8MjYyLjc4fDYyLjQ4fDg1LjMx'>
    <rect x='55.36' y='62.48' width='207.42' height='22.84' />
  </clipPath>
</defs>
<g clip-path='url(#cpNTUuMzZ8MjYyLjc4fDYyLjQ4fDg1LjMx)'>
<rect x='55.36' y='62.48' width='207.42' height='22.84' style='stroke-width: 1.07; stroke: #333333; fill: #D9D9D9;' />
<text x='159.07' y='79.28' text-anchor='middle' style='font-size: 15.00px;fill: #1A1A1A; font-family: "Arial";' textLength='60.04px' lengthAdjust='spacingAndGlyphs'>accuracy</text>
</g>
<g clip-path='url(#cpMC4wMHw1MDQuMDB8MC4wMHwzNjAuMDA=)'>
</g>
<defs>
  <clipPath id='cpMjY4LjI2fDQ3NS42OHw2Mi40OHw4NS4zMQ=='>
    <rect x='268.26' y='62.48' width='207.42' height='22.84' />
  </clipPath>
</defs>
<g clip-path='url(#cpMjY4LjI2fDQ3NS42OHw2Mi40OHw4NS4zMQ==)'>
<rect x='268.26' y='62.48' width='207.42' height='22.84' style='stroke-width: 1.07; stroke: #333333; fill: #D9D9D9;' />
<text x='371.97' y='79.28' text-anchor='middle' style='font-size: 15.00px;fill: #1A1A1A; font-family: "Arial";' textLength='92.57px' lengthAdjust='spacingAndGlyphs'>completeness</text>
</g>
<g clip-path='url(#cpMC4wMHw1MDQuMDB8MC4wMHwzNjAuMDA=)'>
</g>
<defs>
  <clipPath id='cpNDc1LjY4fDQ5OC41Mnw4NS4zMXwyMTIuOTg='>
    <rect x='475.68' y='85.31' width='22.84' height='127.67' />
  </clipPath>
</defs>
<g clip-path='url(#cpNDc1LjY4fDQ5OC41Mnw4NS4zMXwyMTIuOTg=)'>
<rect x='475.68' y='85.31' width='22.84' height='127.67' style='stroke-width: 1.07; stroke: #333333; fill: #D9D9D9;' />
<text transform='translate(481.72,149.15) rotate(90)' text-anchor='middle' style='font-size: 15.00px;fill: #1A1A1A; font-family: "Arial";' textLength='89.20px' lengthAdjust='spacingAndGlyphs'>ARG-plasmid</text>
</g>
<g clip-path='url(#cpMC4wMHw1MDQuMDB8MC4wMHwzNjAuMDA=)'>
</g>
<defs>
  <clipPath id='cpNDc1LjY4fDQ5OC41MnwyMTguNDZ8MzQ2LjEz'>
    <rect x='475.68' y='218.46' width='22.84' height='127.67' />
  </clipPath>
</defs>
<g clip-path='url(#cpNDc1LjY4fDQ5OC41MnwyMTguNDZ8MzQ2LjEz)'>
<rect x='475.68' y='218.46' width='22.84' height='127.67' style='stroke-width: 1.07; stroke: #333333; fill: #D9D9D9;' />
<text transform='translate(481.72,282.30) rotate(90)' text-anchor='middle' style='font-size: 15.00px;fill: #1A1A1A; font-family: "Arial";' textLength='119.23px' lengthAdjust='spacingAndGlyphs'>non-ARG-plasmid</text>
</g>
<g clip-path='url(#cpMC4wMHw1MDQuMDB8MC4wMHwzNjAuMDA=)'>
<polyline points='94.25,348.87 94.25,346.13 ' style='stroke-width: 1.07; stroke: #333333; stroke-linecap: butt;' />
<polyline points='159.07,348.87 159.07,346.13 ' style='stroke-width: 1.07; stroke: #333333; stroke-linecap: butt;' />
<polyline points='223.89,348.87 223.89,346.13 ' style='stroke-width: 1.07; stroke: #333333; stroke-linecap: butt;' />
<text transform='translate(94.76,351.57) rotate(-45)' text-anchor='end' style='font-size: 0.00px;fill: #4D4D4D; font-family: "Arial";' textLength='2.94px' lengthAdjust='spacingAndGlyphs'>gplas2</text>
<text transform='translate(159.58,351.57) rotate(-45)' text-anchor='end' style='font-size: 0.00px;fill: #4D4D4D; font-family: "Arial";' textLength='4.72px' lengthAdjust='spacingAndGlyphs'>MOB-suite</text>
<text transform='translate(224.40,351.57) rotate(-45)' text-anchor='end' style='font-size: 0.00px;fill: #4D4D4D; font-family: "Arial";' textLength='7.06px' lengthAdjust='spacingAndGlyphs'>plasmidSPAdes</text>
<polyline points='307.15,348.87 307.15,346.13 ' style='stroke-width: 1.07; stroke: #333333; stroke-linecap: butt;' />
<polyline points='371.97,348.87 371.97,346.13 ' style='stroke-width: 1.07; stroke: #333333; stroke-linecap: butt;' />
<polyline points='436.79,348.87 436.79,346.13 ' style='stroke-width: 1.07; stroke: #333333; stroke-linecap: butt;' />
<text transform='translate(307.66,351.57) rotate(-45)' text-anchor='end' style='font-size: 0.00px;fill: #4D4D4D; font-family: "Arial";' textLength='2.94px' lengthAdjust='spacingAndGlyphs'>gplas2</text>
<text transform='translate(372.48,351.57) rotate(-45)' text-anchor='end' style='font-size: 0.00px;fill: #4D4D4D; font-family: "Arial";' textLength='4.72px' lengthAdjust='spacingAndGlyphs'>MOB-suite</text>
<text transform='translate(437.30,351.57) rotate(-45)' text-anchor='end' style='font-size: 0.00px;fill: #4D4D4D; font-family: "Arial";' textLength='7.06px' lengthAdjust='spacingAndGlyphs'>plasmidSPAdes</text>
<text x='50.43' y='212.26' text-anchor='end' style='font-size: 13.00px;fill: #4D4D4D; font-family: "Arial";' textLength='25.30px' lengthAdjust='spacingAndGlyphs'>0.00</text>
<text x='50.43' y='183.15' text-anchor='end' style='font-size: 13.00px;fill: #4D4D4D; font-family: "Arial";' textLength='25.30px' lengthAdjust='spacingAndGlyphs'>0.25</text>
<text x='50.43' y='154.04' text-anchor='end' style='font-size: 13.00px;fill: #4D4D4D; font-family: "Arial";' textLength='25.30px' lengthAdjust='spacingAndGlyphs'>0.50</text>
<text x='50.43' y='124.93' text-anchor='end' style='font-size: 13.00px;fill: #4D4D4D; font-family: "Arial";' textLength='25.30px' lengthAdjust='spacingAndGlyphs'>0.75</text>
<text x='50.43' y='95.82' text-anchor='end' style='font-size: 13.00px;fill: #4D4D4D; font-family: "Arial";' textLength='25.30px' lengthAdjust='spacingAndGlyphs'>1.00</text>
<polyline points='52.62,207.60 55.36,207.60 ' style='stroke-width: 1.07; stroke: #333333; stroke-linecap: butt;' />
<polyline points='52.62,178.49 55.36,178.49 ' style='stroke-width: 1.07; stroke: #333333; stroke-linecap: butt;' />
<polyline points='52.62,149.38 55.36,149.38 ' style='stroke-width: 1.07; stroke: #333333; stroke-linecap: butt;' />
<polyline points='52.62,120.27 55.36,120.27 ' style='stroke-width: 1.07; stroke: #333333; stroke-linecap: butt;' />
<polyline points='52.62,91.16 55.36,91.16 ' style='stroke-width: 1.07; stroke: #333333; stroke-linecap: butt;' />
<text x='50.43' y='345.41' text-anchor='end' style='font-size: 13.00px;fill: #4D4D4D; font-family: "Arial";' textLength='25.30px' lengthAdjust='spacingAndGlyphs'>0.00</text>
<text x='50.43' y='316.30' text-anchor='end' style='font-size: 13.00px;fill: #4D4D4D; font-family: "Arial";' textLength='25.30px' lengthAdjust='spacingAndGlyphs'>0.25</text>
<text x='50.43' y='287.19' text-anchor='end' style='font-size: 13.00px;fill: #4D4D4D; font-family: "Arial";' textLength='25.30px' lengthAdjust='spacingAndGlyphs'>0.50</text>
<text x='50.43' y='258.08' text-anchor='end' style='font-size: 13.00px;fill: #4D4D4D; font-family: "Arial";' textLength='25.30px' lengthAdjust='spacingAndGlyphs'>0.75</text>
<text x='50.43' y='228.97' text-anchor='end' style='font-size: 13.00px;fill: #4D4D4D; font-family: "Arial";' textLength='25.30px' lengthAdjust='spacingAndGlyphs'>1.00</text>
<polyline points='52.62,340.75 55.36,340.75 ' style='stroke-width: 1.07; stroke: #333333; stroke-linecap: butt;' />
<polyline points='52.62,311.64 55.36,311.64 ' style='stroke-width: 1.07; stroke: #333333; stroke-linecap: butt;' />
<polyline points='52.62,282.53 55.36,282.53 ' style='stroke-width: 1.07; stroke: #333333; stroke-linecap: butt;' />
<polyline points='52.62,253.42 55.36,253.42 ' style='stroke-width: 1.07; stroke: #333333; stroke-linecap: butt;' />
<polyline points='52.62,224.31 55.36,224.31 ' style='stroke-width: 1.07; stroke: #333333; stroke-linecap: butt;' />
<text x='265.52' y='354.52' text-anchor='middle' style='font-size: 0.00px; font-weight: bold; font-family: "Arial";' textLength='4.22px' lengthAdjust='spacingAndGlyphs'>Software</text>
<text transform='translate(18.43,215.72) rotate(-90)' text-anchor='middle' style='font-size: 18.00px; font-weight: bold; font-family: "Arial";' textLength='48.02px' lengthAdjust='spacingAndGlyphs'>Value</text>
<rect x='100.40' y='23.28' width='330.24' height='28.24' style='stroke-width: 1.07; stroke: none; fill: #FFFFFF;' />
<text x='105.88' y='37.76' style='font-size: 0.00px; font-family: "Arial";' textLength='3.77px' lengthAdjust='spacingAndGlyphs'>software</text>
<rect x='105.88' y='28.76' width='17.28' height='17.28' style='stroke-width: 1.07; stroke: none; fill: #FFFFFF;' />
<circle cx='114.52' cy='37.40' r='1.95' style='stroke-width: 0.71; stroke: #00FF93; stroke-opacity: 0.30; fill: #00FF93; fill-opacity: 0.30;' />
<rect x='176.19' y='28.76' width='17.28' height='17.28' style='stroke-width: 1.07; stroke: none; fill: #FFFFFF;' />
<circle cx='184.83' cy='37.40' r='1.95' style='stroke-width: 0.71; stroke: #FFC300; stroke-opacity: 0.30; fill: #FFC300; fill-opacity: 0.30;' />
<rect x='283.00' y='28.76' width='17.28' height='17.28' style='stroke-width: 1.07; stroke: none; fill: #FFFFFF;' />
<circle cx='291.64' cy='37.40' r='1.95' style='stroke-width: 0.71; stroke: #F11212; stroke-opacity: 0.30; fill: #F11212; fill-opacity: 0.30;' />
<text x='123.16' y='43.85' style='font-size: 18.00px; font-family: "Arial";' textLength='53.03px' lengthAdjust='spacingAndGlyphs'>gplas2</text>
<text x='193.47' y='43.85' style='font-size: 18.00px; font-family: "Arial";' textLength='85.02px' lengthAdjust='spacingAndGlyphs'>MOB-suite</text>
<text x='300.28' y='43.85' style='font-size: 18.00px; font-family: "Arial";' textLength='127.04px' lengthAdjust='spacingAndGlyphs'>plasmidSPAdes</text>
<text x='55.36' y='14.94' style='font-size: 13.20px; font-family: "Arial";' textLength='107.02px' lengthAdjust='spacingAndGlyphs'>E. faecalis metrics</text>
</g>
</svg>
