"software","arg_classification","reference_id","recovered_length","true_plasmid_length","recall_length"
"mlplasmids","ARG-plasmid","NZ_AP024833.1",56918,71966,0.79
"mlplasmids","ARG-plasmid","NZ_AP024838.1",109202,155411,0.7
"mlplasmids","ARG-plasmid","NZ_AP024839.1",57364,71967,0.8
"mlplasmids","ARG-plasmid","NZ_CP064050.1",155975,219794,0.71
"mlplasmids","ARG-plasmid","NZ_CP064052.1",26744,39679,0.67
"mlplasmids","ARG-plasmid","NZ_CP064344.1",150689,196063,0.77
"mlplasmids","ARG-plasmid","NZ_CP064345.1",27999,96497,0.29
"mlplasmids","ARG-plasmid","NZ_CP064346.1",31932,40064,0.8
"mlplasmids","ARG-plasmid","NZ_CP065526.1",16826,25787,0.65
"mlplasmids","ARG-plasmid","NZ_CP065549.1",125861,198774,0.63
"mlplasmids","ARG-plasmid","NZ_CP065550.1",34420,44323,0.78
"mlplasmids","ARG-plasmid","NZ_CP065932.1",32579,45647,0.71
"mlplasmids","ARG-plasmid","NZ_CP066383.1",12672,104340,0.12
"mlplasmids","ARG-plasmid","NZ_CP066385.1",25389,41600,0.61
"mlplasmids","ARG-plasmid","NZ_CP066390.1",120287,153899,0.78
"mlplasmids","ARG-plasmid","NZ_CP066392.1",23419,33158,0.71
"mlplasmids","ARG-plasmid","NZ_CP066403.1",61333,65409,0.94
"mlplasmids","ARG-plasmid","NZ_CP066405.1",19233,29903,0.64
"mlplasmids","ARG-plasmid","NZ_CP066406.1",22898,29409,0.78
"mlplasmids","ARG-plasmid","NZ_CP066410.1",129519,198742,0.65
"mlplasmids","ARG-plasmid","NZ_CP066417.1",132043,198740,0.66
"mlplasmids","ARG-plasmid","NZ_CP066422.1",141379,202167,0.7
"mlplasmids","ARG-plasmid","NZ_CP066424.1",29252,36284,0.81
"mlplasmids","ARG-plasmid","NZ_CP066428.1",117080,187324,0.63
"mlplasmids","ARG-plasmid","NZ_CP066429.1",34539,44421,0.78
"mlplasmids","ARG-plasmid","NZ_CP066436.1",61336,65409,0.94
"mlplasmids","ARG-plasmid","NZ_CP066438.1",29271,38373,0.76
"mlplasmids","ARG-plasmid","NZ_CP066446.1",34537,44420,0.78
"mlplasmids","ARG-plasmid","NZ_CP066452.1",113479,164531,0.69
"mlplasmids","ARG-plasmid","NZ_CP066454.1",34539,44442,0.78
"mlplasmids","ARG-plasmid","NZ_CP066458.1",135920,193594,0.7
"mlplasmids","ARG-plasmid","NZ_CP066461.1",39562,57116,0.69
"mlplasmids","ARG-plasmid","NZ_CP066468.1",131299,198741,0.66
"mlplasmids","ARG-plasmid","NZ_CP066474.1",140716,194067,0.73
"mlplasmids","ARG-plasmid","NZ_CP066475.1",41857,63104,0.66
"mlplasmids","ARG-plasmid","NZ_CP066481.1",116680,187318,0.62
"mlplasmids","ARG-plasmid","NZ_CP066483.1",22226,34144,0.65
"mlplasmids","ARG-plasmid","NZ_CP066592.1",120859,187323,0.65
"mlplasmids","ARG-plasmid","NZ_CP066594.1",31100,41004,0.76
"mlplasmids","ARG-plasmid","NZ_CP066608.1",131074,198742,0.66
"mlplasmids","ARG-plasmid","NZ_CP066610.1",27909,37877,0.74
"mlplasmids","ARG-plasmid","NZ_CP066615.1",131062,198741,0.66
"mlplasmids","ARG-plasmid","NZ_CP066617.1",27909,37877,0.74
"mlplasmids","ARG-plasmid","NZ_CP066623.1",130754,200088,0.65
"mlplasmids","ARG-plasmid","NZ_CP066625.1",33956,43860,0.77
"mlplasmids","ARG-plasmid","NZ_CP066632.1",24145,35487,0.68
"mlplasmids","ARG-plasmid","NZ_CP066639.1",61346,66742,0.92
"mlplasmids","ARG-plasmid","NZ_CP066641.1",34091,47773,0.71
"mlplasmids","ARG-plasmid","NZ_CP066649.1",34584,45965,0.75
"mlplasmids","ARG-plasmid","NZ_CP066656.1",16838,22729,0.74
"mlplasmids","ARG-plasmid","NZ_CP066660.1",124164,187470,0.66
"mlplasmids","ARG-plasmid","NZ_CP066662.1",39579,57134,0.69
"mlplasmids","ARG-plasmid","NZ_CP066669.1",24040,30941,0.78
"mlplasmids","ARG-plasmid","NZ_CP066675.1",14599,25974,0.56
"mlplasmids","ARG-plasmid","NZ_CP071929.1",19405,24233,0.8
"mlplasmids","ARG-plasmid","NZ_CP072879.1",182075,246327,0.74
"mlplasmids","ARG-plasmid","NZ_CP072880.1",32212,41084,0.78
"mlplasmids","ARG-plasmid","NZ_CP072882.1",122963,183270,0.67
"mlplasmids","ARG-plasmid","NZ_CP072886.1",46702,53837,0.87
"mlplasmids","ARG-plasmid","NZ_CP072887.1",18707,26651,0.7
"mlplasmids","ARG-plasmid","NZ_CP072896.1",35509,36447,0.97
"mlplasmids","ARG-plasmid","NZ_CP074106.1",131054,168353,0.78
"mlplasmids","ARG-plasmid","NZ_CP074108.1",130850,165658,0.79
"mlplasmids","ARG-plasmid","NZ_CP074110.1",149670,165652,0.9
"mlplasmids","ARG-plasmid","NZ_CP076472.1",128052,205407,0.62
"mlplasmids","ARG-plasmid","NZ_CP076475.1",23791,34693,0.69
"mlplasmids","ARG-plasmid","NZ_CP076478.1",121608,205436,0.59
"mlplasmids","ARG-plasmid","NZ_CP076481.1",31093,41819,0.74
"mlplasmids","ARG-plasmid","NZ_CP076484.1",166491,264192,0.63
"mlplasmids","ARG-plasmid","NZ_CP076486.1",31090,41819,0.74
"mlplasmids","ARG-plasmid","NZ_CP083913.1",160937,213284,0.75
"mlplasmids","ARG-plasmid","NZ_CP083914.1",35931,48157,0.75
"mlplasmids","ARG-plasmid","NZ_CP083921.1",154402,213279,0.72
"mlplasmids","ARG-plasmid","NZ_CP083922.1",35939,52056,0.69
"mlplasmids","ARG-plasmid","NZ_CP089322.1",29731,40605,0.73
"mlplasmids","ARG-plasmid","NZ_CP097015.1",128413,232122,0.55
"mlplasmids","ARG-plasmid","NZ_CP097016.1",25546,41159,0.62
"mlplasmids","ARG-plasmid","NZ_CP097024.1",16880,24768,0.68
"mlplasmids","ARG-plasmid","NZ_CP097025.1",17718,23514,0.75
"mlplasmids","ARG-plasmid","NZ_CP097026.1",5433,18501,0.29
"mlplasmids","ARG-plasmid","NZ_CP097028.1",123209,189968,0.65
"mlplasmids","ARG-plasmid","NZ_CP097029.1",28858,46690,0.62
"mlplasmids","ARG-plasmid","NZ_CP097062.1",54994,62247,0.88
"mlplasmids","ARG-plasmid","NZ_CP097063.1",35102,52519,0.67
"mlplasmids","ARG-plasmid","NZ_CP097064.1",26019,33236,0.78
"mlplasmids","ARG-plasmid","NZ_OU015709.1",177913,238492,0.75
"mlplasmids","ARG-plasmid","NZ_OU015711.1",38900,51289,0.76
"mlplasmids","ARG-plasmid","NZ_OU015947.1",154248,202753,0.76
"mlplasmids","ARG-plasmid","NZ_OU015948.1",35936,47525,0.76
"mlplasmids","ARG-plasmid","NZ_OU016028.1",160875,202690,0.79
"mlplasmids","ARG-plasmid","NZ_OU016029.1",35936,47525,0.76
"mlplasmids","ARG-plasmid","NZ_OU016037.1",152464,204460,0.75
"mlplasmids","ARG-plasmid","NZ_OU016039.1",35937,47525,0.76
"mlplasmids","non-ARG-plasmid","NZ_AP024832.1",69328,92522,0.75
"mlplasmids","non-ARG-plasmid","NZ_AP024834.1",8801,9507,0.93
"mlplasmids","non-ARG-plasmid","NZ_AP024835.1",5843,6302,0.93
"mlplasmids","non-ARG-plasmid","NZ_AP024836.1",5850,5850,1
"mlplasmids","non-ARG-plasmid","NZ_AP024840.1",9362,9507,0.98
"mlplasmids","non-ARG-plasmid","NZ_AP024841.1",6157,6303,0.98
"mlplasmids","non-ARG-plasmid","NZ_AP024842.1",5850,5849,1
"mlplasmids","non-ARG-plasmid","NZ_AP024843.1",4214,4373,0.96
"mlplasmids","non-ARG-plasmid","NZ_CP064051.1",53409,63187,0.85
"mlplasmids","non-ARG-plasmid","NZ_CP064053.1",4372,4372,1
"mlplasmids","non-ARG-plasmid","NZ_CP064347.1",6883,10814,0.64
"mlplasmids","non-ARG-plasmid","NZ_CP064348.1",6173,6173,1
"mlplasmids","non-ARG-plasmid","NZ_CP064349.1",4465,4465,1
"mlplasmids","non-ARG-plasmid","NZ_CP065524.1",28584,94576,0.3
"mlplasmids","non-ARG-plasmid","NZ_CP065525.1",159522,227210,0.7
"mlplasmids","non-ARG-plasmid","NZ_CP065528.1",8814,15691,0.56
"mlplasmids","non-ARG-plasmid","NZ_CP065529.1",105021,215857,0.49
"mlplasmids","non-ARG-plasmid","NZ_CP065548.1",25305,55498,0.46
"mlplasmids","non-ARG-plasmid","NZ_CP065551.1",3782,6303,0.6
"mlplasmids","non-ARG-plasmid","NZ_CP065552.1",6258,6258,1
"mlplasmids","non-ARG-plasmid","NZ_CP065553.1",1980,1980,1
"mlplasmids","non-ARG-plasmid","NZ_CP065929.1",92963,126296,0.74
"mlplasmids","non-ARG-plasmid","NZ_CP065930.1",NA,NA,0
"mlplasmids","non-ARG-plasmid","NZ_CP065931.1",46781,56294,0.83
"mlplasmids","non-ARG-plasmid","NZ_CP065933.1",9316,9316,1
"mlplasmids","non-ARG-plasmid","NZ_CP065934.1",3702,4074,0.91
"mlplasmids","non-ARG-plasmid","NZ_CP065935.1",1848,1981,0.93
"mlplasmids","non-ARG-plasmid","NZ_CP066382.1",181344,257742,0.7
"mlplasmids","non-ARG-plasmid","NZ_CP066384.1",33147,60650,0.55
"mlplasmids","non-ARG-plasmid","NZ_CP066386.1",4999,6895,0.73
"mlplasmids","non-ARG-plasmid","NZ_CP066387.1",6303,6303,1
"mlplasmids","non-ARG-plasmid","NZ_CP066388.1",4461,4461,1
"mlplasmids","non-ARG-plasmid","NZ_CP066391.1",44272,56323,0.79
"mlplasmids","non-ARG-plasmid","NZ_CP066393.1",6172,6172,1
"mlplasmids","non-ARG-plasmid","NZ_CP066394.1",4375,4375,1
"mlplasmids","non-ARG-plasmid","NZ_CP066395.1",3199,3199,1
"mlplasmids","non-ARG-plasmid","NZ_CP066397.1",4372,4372,1
"mlplasmids","non-ARG-plasmid","NZ_CP066398.1",2055,2055,1
"mlplasmids","non-ARG-plasmid","NZ_CP066399.1",1518,1979,0.77
"mlplasmids","non-ARG-plasmid","NZ_CP066400.1",1472,1933,0.76
"mlplasmids","non-ARG-plasmid","NZ_CP066401.1",87800,134230,0.65
"mlplasmids","non-ARG-plasmid","NZ_CP066402.1",20465,83940,0.24
"mlplasmids","non-ARG-plasmid","NZ_CP066404.1",46076,60664,0.76
"mlplasmids","non-ARG-plasmid","NZ_CP066407.1",6173,6173,1
"mlplasmids","non-ARG-plasmid","NZ_CP066408.1",4466,4466,1
"mlplasmids","non-ARG-plasmid","NZ_CP066411.1",24096,55497,0.43
"mlplasmids","non-ARG-plasmid","NZ_CP066412.1",9508,11819,0.8
"mlplasmids","non-ARG-plasmid","NZ_CP066413.1",6303,6303,1
"mlplasmids","non-ARG-plasmid","NZ_CP066414.1",1980,1980,1
"mlplasmids","non-ARG-plasmid","NZ_CP066416.1",25305,55498,0.46
"mlplasmids","non-ARG-plasmid","NZ_CP066418.1",9508,11819,0.8
"mlplasmids","non-ARG-plasmid","NZ_CP066419.1",6303,6303,1
"mlplasmids","non-ARG-plasmid","NZ_CP066420.1",1980,1980,1
"mlplasmids","non-ARG-plasmid","NZ_CP066423.1",50145,54822,0.91
"mlplasmids","non-ARG-plasmid","NZ_CP066425.1",8746,12538,0.7
"mlplasmids","non-ARG-plasmid","NZ_CP066426.1",4374,4374,1
"mlplasmids","non-ARG-plasmid","NZ_CP066430.1",21543,57029,0.38
"mlplasmids","non-ARG-plasmid","NZ_CP066431.1",6303,6303,1
"mlplasmids","non-ARG-plasmid","NZ_CP066432.1",4156,4305,0.97
"mlplasmids","non-ARG-plasmid","NZ_CP066433.1",1831,1980,0.92
"mlplasmids","non-ARG-plasmid","NZ_CP066435.1",115203,161669,0.71
"mlplasmids","non-ARG-plasmid","NZ_CP066437.1",41238,57014,0.72
"mlplasmids","non-ARG-plasmid","NZ_CP066439.1",6160,8194,0.75
"mlplasmids","non-ARG-plasmid","NZ_CP066440.1",6883,7012,0.98
"mlplasmids","non-ARG-plasmid","NZ_CP066441.1",4156,4305,0.97
"mlplasmids","non-ARG-plasmid","NZ_CP066442.1",1831,1980,0.92
"mlplasmids","non-ARG-plasmid","NZ_CP066444.1",143866,192427,0.75
"mlplasmids","non-ARG-plasmid","NZ_CP066445.1",34230,57029,0.6
"mlplasmids","non-ARG-plasmid","NZ_CP066447.1",3894,6312,0.62
"mlplasmids","non-ARG-plasmid","NZ_CP066448.1",3849,6272,0.61
"mlplasmids","non-ARG-plasmid","NZ_CP066449.1",4156,4305,0.97
"mlplasmids","non-ARG-plasmid","NZ_CP066450.1",1831,1980,0.92
"mlplasmids","non-ARG-plasmid","NZ_CP066453.1",52203,55497,0.94
"mlplasmids","non-ARG-plasmid","NZ_CP066455.1",5368,6303,0.85
"mlplasmids","non-ARG-plasmid","NZ_CP066456.1",1980,1980,1
"mlplasmids","non-ARG-plasmid","NZ_CP066459.1",68015,88651,0.77
"mlplasmids","non-ARG-plasmid","NZ_CP066460.1",52536,62213,0.84
"mlplasmids","non-ARG-plasmid","NZ_CP066462.1",5234,6303,0.83
"mlplasmids","non-ARG-plasmid","NZ_CP066463.1",5099,6168,0.83
"mlplasmids","non-ARG-plasmid","NZ_CP066464.1",5212,5212,1
"mlplasmids","non-ARG-plasmid","NZ_CP066465.1",4374,4374,1
"mlplasmids","non-ARG-plasmid","NZ_CP066467.1",24096,55499,0.43
"mlplasmids","non-ARG-plasmid","NZ_CP066469.1",9508,10968,0.87
"mlplasmids","non-ARG-plasmid","NZ_CP066470.1",3782,6312,0.6
"mlplasmids","non-ARG-plasmid","NZ_CP066471.1",6267,6267,1
"mlplasmids","non-ARG-plasmid","NZ_CP066472.1",1980,1980,1
"mlplasmids","non-ARG-plasmid","NZ_CP066476.1",52536,62212,0.84
"mlplasmids","non-ARG-plasmid","NZ_CP066477.1",6303,6303,1
"mlplasmids","non-ARG-plasmid","NZ_CP066478.1",5212,5212,1
"mlplasmids","non-ARG-plasmid","NZ_CP066479.1",4374,4374,1
"mlplasmids","non-ARG-plasmid","NZ_CP066482.1",20754,57029,0.36
"mlplasmids","non-ARG-plasmid","NZ_CP066484.1",6303,6303,1
"mlplasmids","non-ARG-plasmid","NZ_CP066485.1",1980,1980,1
"mlplasmids","non-ARG-plasmid","NZ_CP066593.1",25305,55497,0.46
"mlplasmids","non-ARG-plasmid","NZ_CP066595.1",4156,8512,0.49
"mlplasmids","non-ARG-plasmid","NZ_CP066596.1",3894,6303,0.62
"mlplasmids","non-ARG-plasmid","NZ_CP066607.1",1831,1980,0.92
"mlplasmids","non-ARG-plasmid","NZ_CP066609.1",27294,59583,0.46
"mlplasmids","non-ARG-plasmid","NZ_CP066611.1",6303,6303,1
"mlplasmids","non-ARG-plasmid","NZ_CP066612.1",4156,4305,0.97
"mlplasmids","non-ARG-plasmid","NZ_CP066613.1",NA,NA,0
"mlplasmids","non-ARG-plasmid","NZ_CP066616.1",27294,59583,0.46
"mlplasmids","non-ARG-plasmid","NZ_CP066618.1",6303,6303,1
"mlplasmids","non-ARG-plasmid","NZ_CP066619.1",4156,4305,0.97
"mlplasmids","non-ARG-plasmid","NZ_CP066620.1",NA,NA,0
"mlplasmids","non-ARG-plasmid","NZ_CP066621.1",1831,1980,0.92
"mlplasmids","non-ARG-plasmid","NZ_CP066624.1",24096,55497,0.43
"mlplasmids","non-ARG-plasmid","NZ_CP066626.1",6303,6303,1
"mlplasmids","non-ARG-plasmid","NZ_CP066627.1",4156,4305,0.97
"mlplasmids","non-ARG-plasmid","NZ_CP066628.1",1831,1980,0.92
"mlplasmids","non-ARG-plasmid","NZ_CP066630.1",112074,164644,0.68
"mlplasmids","non-ARG-plasmid","NZ_CP066631.1",37285,61213,0.61
"mlplasmids","non-ARG-plasmid","NZ_CP066633.1",6311,6311,1
"mlplasmids","non-ARG-plasmid","NZ_CP066634.1",4305,4305,1
"mlplasmids","non-ARG-plasmid","NZ_CP066635.1",4074,4074,1
"mlplasmids","non-ARG-plasmid","NZ_CP066636.1",3007,3007,1
"mlplasmids","non-ARG-plasmid","NZ_CP066638.1",87394,87407,1
"mlplasmids","non-ARG-plasmid","NZ_CP066640.1",48324,56412,0.86
"mlplasmids","non-ARG-plasmid","NZ_CP066642.1",6303,6303,1
"mlplasmids","non-ARG-plasmid","NZ_CP066643.1",3930,4075,0.96
"mlplasmids","non-ARG-plasmid","NZ_CP066644.1",1835,1980,0.93
"mlplasmids","non-ARG-plasmid","NZ_CP066646.1",1980,1980,1
"mlplasmids","non-ARG-plasmid","NZ_CP066647.1",25305,55497,0.46
"mlplasmids","non-ARG-plasmid","NZ_CP066648.1",125699,194710,0.65
"mlplasmids","non-ARG-plasmid","NZ_CP066650.1",3894,6303,0.62
"mlplasmids","non-ARG-plasmid","NZ_CP066651.1",1465,6263,0.23
"mlplasmids","non-ARG-plasmid","NZ_CP066654.1",91548,134270,0.68
"mlplasmids","non-ARG-plasmid","NZ_CP066655.1",15359,23540,0.65
"mlplasmids","non-ARG-plasmid","NZ_CP066657.1",6303,6303,1
"mlplasmids","non-ARG-plasmid","NZ_CP066658.1",6027,6173,0.98
"mlplasmids","non-ARG-plasmid","NZ_CP066661.1",52536,62212,0.84
"mlplasmids","non-ARG-plasmid","NZ_CP066663.1",5672,7940,0.71
"mlplasmids","non-ARG-plasmid","NZ_CP066664.1",6303,6303,1
"mlplasmids","non-ARG-plasmid","NZ_CP066665.1",5212,5212,1
"mlplasmids","non-ARG-plasmid","NZ_CP066666.1",4374,4374,1
"mlplasmids","non-ARG-plasmid","NZ_CP066668.1",93457,134270,0.7
"mlplasmids","non-ARG-plasmid","NZ_CP066670.1",15359,23540,0.65
"mlplasmids","non-ARG-plasmid","NZ_CP066671.1",6122,6303,0.97
"mlplasmids","non-ARG-plasmid","NZ_CP066672.1",5992,6173,0.97
"mlplasmids","non-ARG-plasmid","NZ_CP066674.1",128567,171777,0.75
"mlplasmids","non-ARG-plasmid","NZ_CP066676.1",15837,23664,0.67
"mlplasmids","non-ARG-plasmid","NZ_CP066677.1",7016,7165,0.98
"mlplasmids","non-ARG-plasmid","NZ_CP066678.1",6162,6311,0.98
"mlplasmids","non-ARG-plasmid","NZ_CP066679.1",4305,4305,1
"mlplasmids","non-ARG-plasmid","NZ_CP071924.1",2857,2857,1
"mlplasmids","non-ARG-plasmid","NZ_CP071925.1",5591,6173,0.91
"mlplasmids","non-ARG-plasmid","NZ_CP071926.1",4372,6268,0.7
"mlplasmids","non-ARG-plasmid","NZ_CP071927.1",5941,7837,0.76
"mlplasmids","non-ARG-plasmid","NZ_CP071928.1",8736,9318,0.94
"mlplasmids","non-ARG-plasmid","NZ_CP071930.1",153106,220241,0.7
"mlplasmids","non-ARG-plasmid","NZ_CP072883.1",NA,NA,0
"mlplasmids","non-ARG-plasmid","NZ_CP072885.1",138407,174746,0.79
"mlplasmids","non-ARG-plasmid","NZ_CP072895.1",NA,NA,0
"mlplasmids","non-ARG-plasmid","NZ_CP076473.1",73448,79679,0.92
"mlplasmids","non-ARG-plasmid","NZ_CP076474.1",48107,57509,0.84
"mlplasmids","non-ARG-plasmid","NZ_CP076476.1",4374,4374,1
"mlplasmids","non-ARG-plasmid","NZ_CP076479.1",73379,79769,0.92
"mlplasmids","non-ARG-plasmid","NZ_CP076480.1",48107,57509,0.84
"mlplasmids","non-ARG-plasmid","NZ_CP076482.1",4374,4374,1
"mlplasmids","non-ARG-plasmid","NZ_CP076485.1",73536,79782,0.92
"mlplasmids","non-ARG-plasmid","NZ_CP076487.1",4374,4374,1
"mlplasmids","non-ARG-plasmid","NZ_CP083180.1",73491,124878,0.59
"mlplasmids","non-ARG-plasmid","NZ_CP083915.1",5773,7669,0.75
"mlplasmids","non-ARG-plasmid","NZ_CP083916.1",3200,3200,1
"mlplasmids","non-ARG-plasmid","NZ_CP083917.1",2800,2947,0.95
"mlplasmids","non-ARG-plasmid","NZ_CP083918.1",2710,2857,0.95
"mlplasmids","non-ARG-plasmid","NZ_CP083919.1",1979,1979,1
"mlplasmids","non-ARG-plasmid","NZ_CP083923.1",NA,NA,0
"mlplasmids","non-ARG-plasmid","NZ_CP083924.1",5773,7669,0.75
"mlplasmids","non-ARG-plasmid","NZ_CP083925.1",NA,NA,0
"mlplasmids","non-ARG-plasmid","NZ_CP083926.1",1871,3200,0.58
"mlplasmids","non-ARG-plasmid","NZ_CP083927.1",2800,2947,0.95
"mlplasmids","non-ARG-plasmid","NZ_CP083928.1",2710,2857,0.95
"mlplasmids","non-ARG-plasmid","NZ_CP083929.1",1979,1979,1
"mlplasmids","non-ARG-plasmid","NZ_CP089320.1",161080,228311,0.71
"mlplasmids","non-ARG-plasmid","NZ_CP089321.1",38070,59066,0.64
"mlplasmids","non-ARG-plasmid","NZ_CP089323.1",9333,11983,0.78
"mlplasmids","non-ARG-plasmid","NZ_CP089324.1",1928,1928,1
"mlplasmids","non-ARG-plasmid","NZ_CP097023.1",92233,142475,0.65
"mlplasmids","non-ARG-plasmid","NZ_CP097065.1",5254,5254,1
"mlplasmids","non-ARG-plasmid","NZ_OU015710.1",92978,101837,0.91
"mlplasmids","non-ARG-plasmid","NZ_OU015712.1",7019,7019,1
"mlplasmids","non-ARG-plasmid","NZ_OU015713.1",4206,4374,0.96
"mlplasmids","non-ARG-plasmid","NZ_OU015714.1",1976,3304,0.6
"mlplasmids","non-ARG-plasmid","NZ_OU015715.1",1893,3221,0.59
"mlplasmids","non-ARG-plasmid","NZ_OU015716.1",1760,1928,0.91
"mlplasmids","non-ARG-plasmid","NZ_OU015949.1",5774,7670,0.75
"mlplasmids","non-ARG-plasmid","NZ_OU015950.1",3847,6503,0.59
"mlplasmids","non-ARG-plasmid","NZ_OU015951.1",6174,6174,1
"mlplasmids","non-ARG-plasmid","NZ_OU015952.1",4206,4374,0.96
"mlplasmids","non-ARG-plasmid","NZ_OU015953.1",2947,2947,1
"mlplasmids","non-ARG-plasmid","NZ_OU015954.1",1760,1928,0.91
"mlplasmids","non-ARG-plasmid","NZ_OU016030.1",5774,7670,0.75
"mlplasmids","non-ARG-plasmid","NZ_OU016031.1",5175,6501,0.8
"mlplasmids","non-ARG-plasmid","NZ_OU016032.1",6174,6174,1
"mlplasmids","non-ARG-plasmid","NZ_OU016033.1",4206,4374,0.96
"mlplasmids","non-ARG-plasmid","NZ_OU016034.1",2947,2947,1
"mlplasmids","non-ARG-plasmid","NZ_OU016035.1",1760,1928,0.91
"mlplasmids","non-ARG-plasmid","NZ_OU016038.1",19701,103363,0.19
"mlplasmids","non-ARG-plasmid","NZ_OU016040.1",5774,7670,0.75
"mlplasmids","non-ARG-plasmid","NZ_OU016041.1",3847,6501,0.59
"mlplasmids","non-ARG-plasmid","NZ_OU016042.1",6174,6174,1
"mlplasmids","non-ARG-plasmid","NZ_OU016043.1",4206,4374,0.96
"mlplasmids","non-ARG-plasmid","NZ_OU016044.1",2947,2947,1
"mlplasmids","non-ARG-plasmid","NZ_OU016045.1",1760,1928,0.91
"RFplasmid","ARG-plasmid","NZ_AP024833.1",61513,71966,0.85
"RFplasmid","ARG-plasmid","NZ_AP024838.1",105173,155411,0.68
"RFplasmid","ARG-plasmid","NZ_AP024839.1",61959,71967,0.86
"RFplasmid","ARG-plasmid","NZ_CP064050.1",158197,219794,0.72
"RFplasmid","ARG-plasmid","NZ_CP064052.1",28147,39679,0.71
"RFplasmid","ARG-plasmid","NZ_CP064344.1",150566,196063,0.77
"RFplasmid","ARG-plasmid","NZ_CP064345.1",91201,96497,0.95
"RFplasmid","ARG-plasmid","NZ_CP064346.1",31932,40064,0.8
"RFplasmid","ARG-plasmid","NZ_CP065526.1",16826,25787,0.65
"RFplasmid","ARG-plasmid","NZ_CP065549.1",132507,198774,0.67
"RFplasmid","ARG-plasmid","NZ_CP065550.1",34420,44323,0.78
"RFplasmid","ARG-plasmid","NZ_CP065932.1",32579,45647,0.71
"RFplasmid","ARG-plasmid","NZ_CP066383.1",88535,104340,0.85
"RFplasmid","ARG-plasmid","NZ_CP066385.1",25389,41600,0.61
"RFplasmid","ARG-plasmid","NZ_CP066390.1",120287,153899,0.78
"RFplasmid","ARG-plasmid","NZ_CP066392.1",23419,33158,0.71
"RFplasmid","ARG-plasmid","NZ_CP066403.1",61333,65409,0.94
"RFplasmid","ARG-plasmid","NZ_CP066405.1",21211,29903,0.71
"RFplasmid","ARG-plasmid","NZ_CP066406.1",22898,29409,0.78
"RFplasmid","ARG-plasmid","NZ_CP066410.1",129519,198742,0.65
"RFplasmid","ARG-plasmid","NZ_CP066417.1",132043,198740,0.66
"RFplasmid","ARG-plasmid","NZ_CP066422.1",150155,202167,0.74
"RFplasmid","ARG-plasmid","NZ_CP066424.1",29252,36284,0.81
"RFplasmid","ARG-plasmid","NZ_CP066428.1",123739,187324,0.66
"RFplasmid","ARG-plasmid","NZ_CP066429.1",34539,44421,0.78
"RFplasmid","ARG-plasmid","NZ_CP066436.1",61336,65409,0.94
"RFplasmid","ARG-plasmid","NZ_CP066438.1",29271,38373,0.76
"RFplasmid","ARG-plasmid","NZ_CP066446.1",34537,44420,0.78
"RFplasmid","ARG-plasmid","NZ_CP066452.1",120125,164531,0.73
"RFplasmid","ARG-plasmid","NZ_CP066454.1",34539,44442,0.78
"RFplasmid","ARG-plasmid","NZ_CP066458.1",148900,193594,0.77
"RFplasmid","ARG-plasmid","NZ_CP066461.1",39562,57116,0.69
"RFplasmid","ARG-plasmid","NZ_CP066468.1",131299,198741,0.66
"RFplasmid","ARG-plasmid","NZ_CP066474.1",149492,194067,0.77
"RFplasmid","ARG-plasmid","NZ_CP066475.1",41857,63104,0.66
"RFplasmid","ARG-plasmid","NZ_CP066481.1",123326,187318,0.66
"RFplasmid","ARG-plasmid","NZ_CP066483.1",22226,34144,0.65
"RFplasmid","ARG-plasmid","NZ_CP066592.1",127505,187323,0.68
"RFplasmid","ARG-plasmid","NZ_CP066594.1",31100,41004,0.76
"RFplasmid","ARG-plasmid","NZ_CP066608.1",131074,198742,0.66
"RFplasmid","ARG-plasmid","NZ_CP066610.1",27909,37877,0.74
"RFplasmid","ARG-plasmid","NZ_CP066615.1",131062,198741,0.66
"RFplasmid","ARG-plasmid","NZ_CP066617.1",27909,37877,0.74
"RFplasmid","ARG-plasmid","NZ_CP066623.1",130754,200088,0.65
"RFplasmid","ARG-plasmid","NZ_CP066625.1",33956,43860,0.77
"RFplasmid","ARG-plasmid","NZ_CP066632.1",24145,35487,0.68
"RFplasmid","ARG-plasmid","NZ_CP066639.1",61346,66742,0.92
"RFplasmid","ARG-plasmid","NZ_CP066641.1",34091,47773,0.71
"RFplasmid","ARG-plasmid","NZ_CP066649.1",34584,45965,0.75
"RFplasmid","ARG-plasmid","NZ_CP066656.1",16838,22729,0.74
"RFplasmid","ARG-plasmid","NZ_CP066660.1",135409,187470,0.72
"RFplasmid","ARG-plasmid","NZ_CP066662.1",39579,57134,0.69
"RFplasmid","ARG-plasmid","NZ_CP066669.1",24040,30941,0.78
"RFplasmid","ARG-plasmid","NZ_CP066675.1",14599,25974,0.56
"RFplasmid","ARG-plasmid","NZ_CP071929.1",19405,24233,0.8
"RFplasmid","ARG-plasmid","NZ_CP072879.1",174133,246327,0.71
"RFplasmid","ARG-plasmid","NZ_CP072880.1",29977,41084,0.73
"RFplasmid","ARG-plasmid","NZ_CP072882.1",114271,183270,0.62
"RFplasmid","ARG-plasmid","NZ_CP072886.1",46702,53837,0.87
"RFplasmid","ARG-plasmid","NZ_CP072887.1",16195,26651,0.61
"RFplasmid","ARG-plasmid","NZ_CP072896.1",35509,36447,0.97
"RFplasmid","ARG-plasmid","NZ_CP074106.1",139760,168353,0.83
"RFplasmid","ARG-plasmid","NZ_CP074108.1",139733,165658,0.84
"RFplasmid","ARG-plasmid","NZ_CP074110.1",140569,165652,0.85
"RFplasmid","ARG-plasmid","NZ_CP076472.1",151160,205407,0.74
"RFplasmid","ARG-plasmid","NZ_CP076475.1",23791,34693,0.69
"RFplasmid","ARG-plasmid","NZ_CP076478.1",151160,205436,0.74
"RFplasmid","ARG-plasmid","NZ_CP076481.1",31093,41819,0.74
"RFplasmid","ARG-plasmid","NZ_CP076484.1",199356,264192,0.75
"RFplasmid","ARG-plasmid","NZ_CP076486.1",31090,41819,0.74
"RFplasmid","ARG-plasmid","NZ_CP083913.1",150100,213284,0.7
"RFplasmid","ARG-plasmid","NZ_CP083914.1",35931,48157,0.75
"RFplasmid","ARG-plasmid","NZ_CP083921.1",155653,213279,0.73
"RFplasmid","ARG-plasmid","NZ_CP083922.1",37029,52056,0.71
"RFplasmid","ARG-plasmid","NZ_CP089322.1",29731,40605,0.73
"RFplasmid","ARG-plasmid","NZ_CP097015.1",125543,232122,0.54
"RFplasmid","ARG-plasmid","NZ_CP097016.1",27116,41159,0.66
"RFplasmid","ARG-plasmid","NZ_CP097024.1",14368,24768,0.58
"RFplasmid","ARG-plasmid","NZ_CP097025.1",17718,23514,0.75
"RFplasmid","ARG-plasmid","NZ_CP097026.1",9286,18501,0.5
"RFplasmid","ARG-plasmid","NZ_CP097028.1",110622,189968,0.58
"RFplasmid","ARG-plasmid","NZ_CP097029.1",27794,46690,0.6
"RFplasmid","ARG-plasmid","NZ_CP097062.1",54994,62247,0.88
"RFplasmid","ARG-plasmid","NZ_CP097063.1",32590,52519,0.62
"RFplasmid","ARG-plasmid","NZ_CP097064.1",30070,33236,0.9
"RFplasmid","ARG-plasmid","NZ_OU015709.1",176905,238492,0.74
"RFplasmid","ARG-plasmid","NZ_OU015711.1",38900,51289,0.76
"RFplasmid","ARG-plasmid","NZ_OU015947.1",175716,202753,0.87
"RFplasmid","ARG-plasmid","NZ_OU015948.1",35936,47525,0.76
"RFplasmid","ARG-plasmid","NZ_OU016028.1",175697,202690,0.87
"RFplasmid","ARG-plasmid","NZ_OU016029.1",35936,47525,0.76
"RFplasmid","ARG-plasmid","NZ_OU016037.1",173932,204460,0.85
"RFplasmid","ARG-plasmid","NZ_OU016039.1",35937,47525,0.76
"RFplasmid","non-ARG-plasmid","NZ_AP024832.1",63689,92522,0.69
"RFplasmid","non-ARG-plasmid","NZ_AP024834.1",8801,9507,0.93
"RFplasmid","non-ARG-plasmid","NZ_AP024835.1",5843,6302,0.93
"RFplasmid","non-ARG-plasmid","NZ_AP024836.1",5850,5850,1
"RFplasmid","non-ARG-plasmid","NZ_AP024840.1",9362,9507,0.98
"RFplasmid","non-ARG-plasmid","NZ_AP024841.1",6157,6303,0.98
"RFplasmid","non-ARG-plasmid","NZ_AP024842.1",5850,5849,1
"RFplasmid","non-ARG-plasmid","NZ_AP024843.1",4214,4373,0.96
"RFplasmid","non-ARG-plasmid","NZ_CP064051.1",53409,63187,0.85
"RFplasmid","non-ARG-plasmid","NZ_CP064053.1",4372,4372,1
"RFplasmid","non-ARG-plasmid","NZ_CP064347.1",6883,10814,0.64
"RFplasmid","non-ARG-plasmid","NZ_CP064348.1",6173,6173,1
"RFplasmid","non-ARG-plasmid","NZ_CP064349.1",4465,4465,1
"RFplasmid","non-ARG-plasmid","NZ_CP065524.1",28584,94576,0.3
"RFplasmid","non-ARG-plasmid","NZ_CP065525.1",151476,227210,0.67
"RFplasmid","non-ARG-plasmid","NZ_CP065528.1",8814,15691,0.56
"RFplasmid","non-ARG-plasmid","NZ_CP065529.1",117651,215857,0.55
"RFplasmid","non-ARG-plasmid","NZ_CP065548.1",25305,55498,0.46
"RFplasmid","non-ARG-plasmid","NZ_CP065551.1",3782,6303,0.6
"RFplasmid","non-ARG-plasmid","NZ_CP065552.1",6258,6258,1
"RFplasmid","non-ARG-plasmid","NZ_CP065553.1",1980,1980,1
"RFplasmid","non-ARG-plasmid","NZ_CP065929.1",93963,126296,0.74
"RFplasmid","non-ARG-plasmid","NZ_CP065930.1",NA,NA,0
"RFplasmid","non-ARG-plasmid","NZ_CP065931.1",47790,56294,0.85
"RFplasmid","non-ARG-plasmid","NZ_CP065933.1",9316,9316,1
"RFplasmid","non-ARG-plasmid","NZ_CP065934.1",3702,4074,0.91
"RFplasmid","non-ARG-plasmid","NZ_CP065935.1",1848,1981,0.93
"RFplasmid","non-ARG-plasmid","NZ_CP066382.1",181344,257742,0.7
"RFplasmid","non-ARG-plasmid","NZ_CP066384.1",33147,60650,0.55
"RFplasmid","non-ARG-plasmid","NZ_CP066386.1",4999,6895,0.73
"RFplasmid","non-ARG-plasmid","NZ_CP066387.1",6303,6303,1
"RFplasmid","non-ARG-plasmid","NZ_CP066388.1",4461,4461,1
"RFplasmid","non-ARG-plasmid","NZ_CP066391.1",47284,56323,0.84
"RFplasmid","non-ARG-plasmid","NZ_CP066393.1",6172,6172,1
"RFplasmid","non-ARG-plasmid","NZ_CP066394.1",4375,4375,1
"RFplasmid","non-ARG-plasmid","NZ_CP066395.1",3199,3199,1
"RFplasmid","non-ARG-plasmid","NZ_CP066397.1",4372,4372,1
"RFplasmid","non-ARG-plasmid","NZ_CP066398.1",2055,2055,1
"RFplasmid","non-ARG-plasmid","NZ_CP066399.1",1518,1979,0.77
"RFplasmid","non-ARG-plasmid","NZ_CP066400.1",1472,1933,0.76
"RFplasmid","non-ARG-plasmid","NZ_CP066401.1",94446,134230,0.7
"RFplasmid","non-ARG-plasmid","NZ_CP066402.1",78445,83940,0.93
"RFplasmid","non-ARG-plasmid","NZ_CP066404.1",46076,60664,0.76
"RFplasmid","non-ARG-plasmid","NZ_CP066407.1",6173,6173,1
"RFplasmid","non-ARG-plasmid","NZ_CP066408.1",4466,4466,1
"RFplasmid","non-ARG-plasmid","NZ_CP066411.1",24096,55497,0.43
"RFplasmid","non-ARG-plasmid","NZ_CP066412.1",9508,11819,0.8
"RFplasmid","non-ARG-plasmid","NZ_CP066413.1",6303,6303,1
"RFplasmid","non-ARG-plasmid","NZ_CP066414.1",1980,1980,1
"RFplasmid","non-ARG-plasmid","NZ_CP066416.1",25305,55498,0.46
"RFplasmid","non-ARG-plasmid","NZ_CP066418.1",9508,11819,0.8
"RFplasmid","non-ARG-plasmid","NZ_CP066419.1",6303,6303,1
"RFplasmid","non-ARG-plasmid","NZ_CP066420.1",1980,1980,1
"RFplasmid","non-ARG-plasmid","NZ_CP066423.1",50145,54822,0.91
"RFplasmid","non-ARG-plasmid","NZ_CP066425.1",8746,12538,0.7
"RFplasmid","non-ARG-plasmid","NZ_CP066426.1",4374,4374,1
"RFplasmid","non-ARG-plasmid","NZ_CP066430.1",21543,57029,0.38
"RFplasmid","non-ARG-plasmid","NZ_CP066431.1",6303,6303,1
"RFplasmid","non-ARG-plasmid","NZ_CP066432.1",4156,4305,0.97
"RFplasmid","non-ARG-plasmid","NZ_CP066433.1",1831,1980,0.92
"RFplasmid","non-ARG-plasmid","NZ_CP066435.1",115203,161669,0.71
"RFplasmid","non-ARG-plasmid","NZ_CP066437.1",41238,57014,0.72
"RFplasmid","non-ARG-plasmid","NZ_CP066439.1",6160,8194,0.75
"RFplasmid","non-ARG-plasmid","NZ_CP066440.1",6883,7012,0.98
"RFplasmid","non-ARG-plasmid","NZ_CP066441.1",4156,4305,0.97
"RFplasmid","non-ARG-plasmid","NZ_CP066442.1",1831,1980,0.92
"RFplasmid","non-ARG-plasmid","NZ_CP066444.1",143866,192427,0.75
"RFplasmid","non-ARG-plasmid","NZ_CP066445.1",34230,57029,0.6
"RFplasmid","non-ARG-plasmid","NZ_CP066447.1",3894,6312,0.62
"RFplasmid","non-ARG-plasmid","NZ_CP066448.1",3849,6272,0.61
"RFplasmid","non-ARG-plasmid","NZ_CP066449.1",4156,4305,0.97
"RFplasmid","non-ARG-plasmid","NZ_CP066450.1",1831,1980,0.92
"RFplasmid","non-ARG-plasmid","NZ_CP066453.1",52203,55497,0.94
"RFplasmid","non-ARG-plasmid","NZ_CP066455.1",5368,6303,0.85
"RFplasmid","non-ARG-plasmid","NZ_CP066456.1",1980,1980,1
"RFplasmid","non-ARG-plasmid","NZ_CP066459.1",84838,88651,0.96
"RFplasmid","non-ARG-plasmid","NZ_CP066460.1",52536,62213,0.84
"RFplasmid","non-ARG-plasmid","NZ_CP066462.1",5234,6303,0.83
"RFplasmid","non-ARG-plasmid","NZ_CP066463.1",5099,6168,0.83
"RFplasmid","non-ARG-plasmid","NZ_CP066464.1",5212,5212,1
"RFplasmid","non-ARG-plasmid","NZ_CP066465.1",4374,4374,1
"RFplasmid","non-ARG-plasmid","NZ_CP066467.1",24096,55499,0.43
"RFplasmid","non-ARG-plasmid","NZ_CP066469.1",9508,10968,0.87
"RFplasmid","non-ARG-plasmid","NZ_CP066470.1",3782,6312,0.6
"RFplasmid","non-ARG-plasmid","NZ_CP066471.1",6267,6267,1
"RFplasmid","non-ARG-plasmid","NZ_CP066472.1",1980,1980,1
"RFplasmid","non-ARG-plasmid","NZ_CP066476.1",52536,62212,0.84
"RFplasmid","non-ARG-plasmid","NZ_CP066477.1",6303,6303,1
"RFplasmid","non-ARG-plasmid","NZ_CP066478.1",5212,5212,1
"RFplasmid","non-ARG-plasmid","NZ_CP066479.1",4374,4374,1
"RFplasmid","non-ARG-plasmid","NZ_CP066482.1",20754,57029,0.36
"RFplasmid","non-ARG-plasmid","NZ_CP066484.1",6303,6303,1
"RFplasmid","non-ARG-plasmid","NZ_CP066485.1",1980,1980,1
"RFplasmid","non-ARG-plasmid","NZ_CP066593.1",25305,55497,0.46
"RFplasmid","non-ARG-plasmid","NZ_CP066595.1",4156,8512,0.49
"RFplasmid","non-ARG-plasmid","NZ_CP066596.1",3894,6303,0.62
"RFplasmid","non-ARG-plasmid","NZ_CP066607.1",1831,1980,0.92
"RFplasmid","non-ARG-plasmid","NZ_CP066609.1",27294,59583,0.46
"RFplasmid","non-ARG-plasmid","NZ_CP066611.1",6303,6303,1
"RFplasmid","non-ARG-plasmid","NZ_CP066612.1",4156,4305,0.97
"RFplasmid","non-ARG-plasmid","NZ_CP066613.1",NA,NA,0
"RFplasmid","non-ARG-plasmid","NZ_CP066616.1",27294,59583,0.46
"RFplasmid","non-ARG-plasmid","NZ_CP066618.1",6303,6303,1
"RFplasmid","non-ARG-plasmid","NZ_CP066619.1",4156,4305,0.97
"RFplasmid","non-ARG-plasmid","NZ_CP066620.1",NA,NA,0
"RFplasmid","non-ARG-plasmid","NZ_CP066621.1",1831,1980,0.92
"RFplasmid","non-ARG-plasmid","NZ_CP066624.1",24096,55497,0.43
"RFplasmid","non-ARG-plasmid","NZ_CP066626.1",6303,6303,1
"RFplasmid","non-ARG-plasmid","NZ_CP066627.1",4156,4305,0.97
"RFplasmid","non-ARG-plasmid","NZ_CP066628.1",1831,1980,0.92
"RFplasmid","non-ARG-plasmid","NZ_CP066630.1",112074,164644,0.68
"RFplasmid","non-ARG-plasmid","NZ_CP066631.1",38399,61213,0.63
"RFplasmid","non-ARG-plasmid","NZ_CP066633.1",6311,6311,1
"RFplasmid","non-ARG-plasmid","NZ_CP066634.1",4305,4305,1
"RFplasmid","non-ARG-plasmid","NZ_CP066635.1",4074,4074,1
"RFplasmid","non-ARG-plasmid","NZ_CP066636.1",3007,3007,1
"RFplasmid","non-ARG-plasmid","NZ_CP066638.1",87394,87407,1
"RFplasmid","non-ARG-plasmid","NZ_CP066640.1",48324,56412,0.86
"RFplasmid","non-ARG-plasmid","NZ_CP066642.1",6303,6303,1
"RFplasmid","non-ARG-plasmid","NZ_CP066643.1",3930,4075,0.96
"RFplasmid","non-ARG-plasmid","NZ_CP066644.1",1835,1980,0.93
"RFplasmid","non-ARG-plasmid","NZ_CP066646.1",1980,1980,1
"RFplasmid","non-ARG-plasmid","NZ_CP066647.1",25305,55497,0.46
"RFplasmid","non-ARG-plasmid","NZ_CP066648.1",125699,194710,0.65
"RFplasmid","non-ARG-plasmid","NZ_CP066650.1",3894,6303,0.62
"RFplasmid","non-ARG-plasmid","NZ_CP066651.1",1465,6263,0.23
"RFplasmid","non-ARG-plasmid","NZ_CP066654.1",94581,134270,0.7
"RFplasmid","non-ARG-plasmid","NZ_CP066655.1",15359,23540,0.65
"RFplasmid","non-ARG-plasmid","NZ_CP066657.1",6303,6303,1
"RFplasmid","non-ARG-plasmid","NZ_CP066658.1",6027,6173,0.98
"RFplasmid","non-ARG-plasmid","NZ_CP066661.1",52536,62212,0.84
"RFplasmid","non-ARG-plasmid","NZ_CP066663.1",5672,7940,0.71
"RFplasmid","non-ARG-plasmid","NZ_CP066664.1",6303,6303,1
"RFplasmid","non-ARG-plasmid","NZ_CP066665.1",5212,5212,1
"RFplasmid","non-ARG-plasmid","NZ_CP066666.1",4374,4374,1
"RFplasmid","non-ARG-plasmid","NZ_CP066668.1",94636,134270,0.7
"RFplasmid","non-ARG-plasmid","NZ_CP066670.1",15359,23540,0.65
"RFplasmid","non-ARG-plasmid","NZ_CP066671.1",6122,6303,0.97
"RFplasmid","non-ARG-plasmid","NZ_CP066672.1",5992,6173,0.97
"RFplasmid","non-ARG-plasmid","NZ_CP066674.1",126888,171777,0.74
"RFplasmid","non-ARG-plasmid","NZ_CP066676.1",15837,23664,0.67
"RFplasmid","non-ARG-plasmid","NZ_CP066677.1",7016,7165,0.98
"RFplasmid","non-ARG-plasmid","NZ_CP066678.1",6162,6311,0.98
"RFplasmid","non-ARG-plasmid","NZ_CP066679.1",4305,4305,1
"RFplasmid","non-ARG-plasmid","NZ_CP071924.1",2857,2857,1
"RFplasmid","non-ARG-plasmid","NZ_CP071925.1",5591,6173,0.91
"RFplasmid","non-ARG-plasmid","NZ_CP071926.1",4372,6268,0.7
"RFplasmid","non-ARG-plasmid","NZ_CP071927.1",5941,7837,0.76
"RFplasmid","non-ARG-plasmid","NZ_CP071928.1",8736,9318,0.94
"RFplasmid","non-ARG-plasmid","NZ_CP071930.1",155022,220241,0.7
"RFplasmid","non-ARG-plasmid","NZ_CP072883.1",NA,NA,0
"RFplasmid","non-ARG-plasmid","NZ_CP072885.1",127021,174746,0.73
"RFplasmid","non-ARG-plasmid","NZ_CP072895.1",1668,37120,0.04
"RFplasmid","non-ARG-plasmid","NZ_CP076473.1",73448,79679,0.92
"RFplasmid","non-ARG-plasmid","NZ_CP076474.1",48107,57509,0.84
"RFplasmid","non-ARG-plasmid","NZ_CP076476.1",4374,4374,1
"RFplasmid","non-ARG-plasmid","NZ_CP076479.1",73379,79769,0.92
"RFplasmid","non-ARG-plasmid","NZ_CP076480.1",48107,57509,0.84
"RFplasmid","non-ARG-plasmid","NZ_CP076482.1",4374,4374,1
"RFplasmid","non-ARG-plasmid","NZ_CP076485.1",73536,79782,0.92
"RFplasmid","non-ARG-plasmid","NZ_CP076487.1",4374,4374,1
"RFplasmid","non-ARG-plasmid","NZ_CP083180.1",113409,124878,0.91
"RFplasmid","non-ARG-plasmid","NZ_CP083915.1",5773,7669,0.75
"RFplasmid","non-ARG-plasmid","NZ_CP083916.1",3200,3200,1
"RFplasmid","non-ARG-plasmid","NZ_CP083917.1",2800,2947,0.95
"RFplasmid","non-ARG-plasmid","NZ_CP083918.1",2710,2857,0.95
"RFplasmid","non-ARG-plasmid","NZ_CP083919.1",1979,1979,1
"RFplasmid","non-ARG-plasmid","NZ_CP083923.1",NA,NA,0
"RFplasmid","non-ARG-plasmid","NZ_CP083924.1",5773,7669,0.75
"RFplasmid","non-ARG-plasmid","NZ_CP083925.1",NA,NA,0
"RFplasmid","non-ARG-plasmid","NZ_CP083926.1",1871,3200,0.58
"RFplasmid","non-ARG-plasmid","NZ_CP083927.1",2800,2947,0.95
"RFplasmid","non-ARG-plasmid","NZ_CP083928.1",2710,2857,0.95
"RFplasmid","non-ARG-plasmid","NZ_CP083929.1",1979,1979,1
"RFplasmid","non-ARG-plasmid","NZ_CP089320.1",167645,228311,0.73
"RFplasmid","non-ARG-plasmid","NZ_CP089321.1",38070,59066,0.64
"RFplasmid","non-ARG-plasmid","NZ_CP089323.1",9333,11983,0.78
"RFplasmid","non-ARG-plasmid","NZ_CP089324.1",1928,1928,1
"RFplasmid","non-ARG-plasmid","NZ_CP097023.1",104507,142475,0.73
"RFplasmid","non-ARG-plasmid","NZ_CP097065.1",5254,5254,1
"RFplasmid","non-ARG-plasmid","NZ_OU015710.1",60443,101837,0.59
"RFplasmid","non-ARG-plasmid","NZ_OU015712.1",7019,7019,1
"RFplasmid","non-ARG-plasmid","NZ_OU015713.1",4206,4374,0.96
"RFplasmid","non-ARG-plasmid","NZ_OU015714.1",1976,3304,0.6
"RFplasmid","non-ARG-plasmid","NZ_OU015715.1",1893,3221,0.59
"RFplasmid","non-ARG-plasmid","NZ_OU015716.1",1760,1928,0.91
"RFplasmid","non-ARG-plasmid","NZ_OU015949.1",5774,7670,0.75
"RFplasmid","non-ARG-plasmid","NZ_OU015950.1",3847,6503,0.59
"RFplasmid","non-ARG-plasmid","NZ_OU015951.1",6174,6174,1
"RFplasmid","non-ARG-plasmid","NZ_OU015952.1",4206,4374,0.96
"RFplasmid","non-ARG-plasmid","NZ_OU015953.1",2947,2947,1
"RFplasmid","non-ARG-plasmid","NZ_OU015954.1",1760,1928,0.91
"RFplasmid","non-ARG-plasmid","NZ_OU016030.1",5774,7670,0.75
"RFplasmid","non-ARG-plasmid","NZ_OU016031.1",5175,6501,0.8
"RFplasmid","non-ARG-plasmid","NZ_OU016032.1",6174,6174,1
"RFplasmid","non-ARG-plasmid","NZ_OU016033.1",4206,4374,0.96
"RFplasmid","non-ARG-plasmid","NZ_OU016034.1",2947,2947,1
"RFplasmid","non-ARG-plasmid","NZ_OU016035.1",1760,1928,0.91
"RFplasmid","non-ARG-plasmid","NZ_OU016040.1",5774,7670,0.75
"RFplasmid","non-ARG-plasmid","NZ_OU016041.1",3847,6501,0.59
"RFplasmid","non-ARG-plasmid","NZ_OU016042.1",6174,6174,1
"RFplasmid","non-ARG-plasmid","NZ_OU016043.1",4206,4374,0.96
"RFplasmid","non-ARG-plasmid","NZ_OU016044.1",2947,2947,1
"RFplasmid","non-ARG-plasmid","NZ_OU016045.1",1760,1928,0.91
"Platon","ARG-plasmid","NZ_AP024833.1",56855,71966,0.79
"Platon","ARG-plasmid","NZ_AP024838.1",107816,155411,0.69
"Platon","ARG-plasmid","NZ_AP024839.1",57301,71967,0.8
"Platon","ARG-plasmid","NZ_CP064050.1",150441,219794,0.68
"Platon","ARG-plasmid","NZ_CP064052.1",28147,39679,0.71
"Platon","ARG-plasmid","NZ_CP064344.1",157335,196063,0.8
"Platon","ARG-plasmid","NZ_CP064345.1",91201,96497,0.95
"Platon","ARG-plasmid","NZ_CP064346.1",31932,40064,0.8
"Platon","ARG-plasmid","NZ_CP065526.1",16826,25787,0.65
"Platon","ARG-plasmid","NZ_CP065549.1",124681,198774,0.63
"Platon","ARG-plasmid","NZ_CP065550.1",27748,44323,0.63
"Platon","ARG-plasmid","NZ_CP065932.1",27412,45647,0.6
"Platon","ARG-plasmid","NZ_CP066383.1",88535,104340,0.85
"Platon","ARG-plasmid","NZ_CP066385.1",16940,41600,0.41
"Platon","ARG-plasmid","NZ_CP066390.1",120287,153899,0.78
"Platon","ARG-plasmid","NZ_CP066392.1",14711,33158,0.44
"Platon","ARG-plasmid","NZ_CP066403.1",61333,65409,0.94
"Platon","ARG-plasmid","NZ_CP066405.1",19233,29903,0.64
"Platon","ARG-plasmid","NZ_CP066406.1",22898,29409,0.78
"Platon","ARG-plasmid","NZ_CP066410.1",128513,198742,0.65
"Platon","ARG-plasmid","NZ_CP066417.1",129713,198740,0.65
"Platon","ARG-plasmid","NZ_CP066422.1",150155,202167,0.74
"Platon","ARG-plasmid","NZ_CP066424.1",27765,36284,0.77
"Platon","ARG-plasmid","NZ_CP066428.1",117464,187324,0.63
"Platon","ARG-plasmid","NZ_CP066429.1",27867,44421,0.63
"Platon","ARG-plasmid","NZ_CP066436.1",61336,65409,0.94
"Platon","ARG-plasmid","NZ_CP066438.1",22599,38373,0.59
"Platon","ARG-plasmid","NZ_CP066446.1",27865,44420,0.63
"Platon","ARG-plasmid","NZ_CP066452.1",112299,164531,0.68
"Platon","ARG-plasmid","NZ_CP066454.1",27867,44442,0.63
"Platon","ARG-plasmid","NZ_CP066458.1",146936,193594,0.76
"Platon","ARG-plasmid","NZ_CP066461.1",38076,57116,0.67
"Platon","ARG-plasmid","NZ_CP066468.1",123473,198741,0.62
"Platon","ARG-plasmid","NZ_CP066474.1",149492,194067,0.77
"Platon","ARG-plasmid","NZ_CP066475.1",40371,63104,0.64
"Platon","ARG-plasmid","NZ_CP066481.1",117051,187318,0.62
"Platon","ARG-plasmid","NZ_CP066483.1",22226,34144,0.65
"Platon","ARG-plasmid","NZ_CP066592.1",121230,187323,0.65
"Platon","ARG-plasmid","NZ_CP066594.1",24428,41004,0.6
"Platon","ARG-plasmid","NZ_CP066608.1",123248,198742,0.62
"Platon","ARG-plasmid","NZ_CP066610.1",25477,37877,0.67
"Platon","ARG-plasmid","NZ_CP066615.1",123236,198741,0.62
"Platon","ARG-plasmid","NZ_CP066617.1",25477,37877,0.67
"Platon","ARG-plasmid","NZ_CP066623.1",123473,200088,0.62
"Platon","ARG-plasmid","NZ_CP066625.1",27284,43860,0.62
"Platon","ARG-plasmid","NZ_CP066632.1",16743,35487,0.47
"Platon","ARG-plasmid","NZ_CP066639.1",61346,66742,0.92
"Platon","ARG-plasmid","NZ_CP066641.1",27540,47773,0.58
"Platon","ARG-plasmid","NZ_CP066649.1",27867,45965,0.61
"Platon","ARG-plasmid","NZ_CP066656.1",16838,22729,0.74
"Platon","ARG-plasmid","NZ_CP066660.1",142266,187470,0.76
"Platon","ARG-plasmid","NZ_CP066662.1",38093,57134,0.67
"Platon","ARG-plasmid","NZ_CP066669.1",16638,30941,0.54
"Platon","ARG-plasmid","NZ_CP066675.1",7083,25974,0.27
"Platon","ARG-plasmid","NZ_CP071929.1",19405,24233,0.8
"Platon","ARG-plasmid","NZ_CP072879.1",127326,246327,0.52
"Platon","ARG-plasmid","NZ_CP072880.1",14443,41084,0.35
"Platon","ARG-plasmid","NZ_CP072882.1",104765,183270,0.57
"Platon","ARG-plasmid","NZ_CP072886.1",7921,53837,0.15
"Platon","ARG-plasmid","NZ_CP072887.1",12153,26651,0.46
"Platon","ARG-plasmid","NZ_CP072896.1",35509,36447,0.97
"Platon","ARG-plasmid","NZ_CP074106.1",123661,168353,0.73
"Platon","ARG-plasmid","NZ_CP074108.1",123460,165658,0.75
"Platon","ARG-plasmid","NZ_CP074110.1",124473,165652,0.75
"Platon","ARG-plasmid","NZ_CP076472.1",149308,205407,0.73
"Platon","ARG-plasmid","NZ_CP076475.1",22604,34693,0.65
"Platon","ARG-plasmid","NZ_CP076478.1",149308,205436,0.73
"Platon","ARG-plasmid","NZ_CP076481.1",22604,41819,0.54
"Platon","ARG-plasmid","NZ_CP076484.1",197504,264192,0.75
"Platon","ARG-plasmid","NZ_CP076486.1",22602,41819,0.54
"Platon","ARG-plasmid","NZ_CP083913.1",154519,213284,0.72
"Platon","ARG-plasmid","NZ_CP083914.1",34862,48157,0.72
"Platon","ARG-plasmid","NZ_CP083921.1",147980,213279,0.69
"Platon","ARG-plasmid","NZ_CP083922.1",34870,52056,0.67
"Platon","ARG-plasmid","NZ_CP089322.1",19615,40605,0.48
"Platon","ARG-plasmid","NZ_CP097015.1",140436,232122,0.61
"Platon","ARG-plasmid","NZ_CP097016.1",19448,41159,0.47
"Platon","ARG-plasmid","NZ_CP097024.1",9325,24768,0.38
"Platon","ARG-plasmid","NZ_CP097025.1",14282,23514,0.61
"Platon","ARG-plasmid","NZ_CP097026.1",9286,18501,0.5
"Platon","ARG-plasmid","NZ_CP097028.1",89214,189968,0.47
"Platon","ARG-plasmid","NZ_CP097029.1",14538,46690,0.31
"Platon","ARG-plasmid","NZ_CP097062.1",31694,62247,0.51
"Platon","ARG-plasmid","NZ_CP097063.1",27383,52519,0.52
"Platon","ARG-plasmid","NZ_CP097064.1",30070,33236,0.9
"Platon","ARG-plasmid","NZ_OU015709.1",163833,238492,0.69
"Platon","ARG-plasmid","NZ_OU015711.1",37831,51289,0.74
"Platon","ARG-plasmid","NZ_OU015947.1",166746,202753,0.82
"Platon","ARG-plasmid","NZ_OU015948.1",34867,47525,0.73
"Platon","ARG-plasmid","NZ_OU016028.1",166727,202690,0.82
"Platon","ARG-plasmid","NZ_OU016029.1",34867,47525,0.73
"Platon","ARG-plasmid","NZ_OU016037.1",164962,204460,0.81
"Platon","ARG-plasmid","NZ_OU016039.1",34868,47525,0.73
"Platon","non-ARG-plasmid","NZ_AP024832.1",66779,92522,0.72
"Platon","non-ARG-plasmid","NZ_AP024834.1",8801,9507,0.93
"Platon","non-ARG-plasmid","NZ_AP024835.1",5843,6302,0.93
"Platon","non-ARG-plasmid","NZ_AP024836.1",5850,5850,1
"Platon","non-ARG-plasmid","NZ_AP024840.1",9362,9507,0.98
"Platon","non-ARG-plasmid","NZ_AP024841.1",6157,6303,0.98
"Platon","non-ARG-plasmid","NZ_AP024842.1",5850,5849,1
"Platon","non-ARG-plasmid","NZ_AP024843.1",4214,4373,0.96
"Platon","non-ARG-plasmid","NZ_CP064051.1",53409,63187,0.85
"Platon","non-ARG-plasmid","NZ_CP064053.1",4372,4372,1
"Platon","non-ARG-plasmid","NZ_CP064347.1",6883,10814,0.64
"Platon","non-ARG-plasmid","NZ_CP064348.1",6173,6173,1
"Platon","non-ARG-plasmid","NZ_CP064349.1",4465,4465,1
"Platon","non-ARG-plasmid","NZ_CP065524.1",27406,94576,0.29
"Platon","non-ARG-plasmid","NZ_CP065525.1",161700,227210,0.71
"Platon","non-ARG-plasmid","NZ_CP065528.1",8814,15691,0.56
"Platon","non-ARG-plasmid","NZ_CP065529.1",145237,215857,0.67
"Platon","non-ARG-plasmid","NZ_CP065548.1",25305,55498,0.46
"Platon","non-ARG-plasmid","NZ_CP065551.1",3782,6303,0.6
"Platon","non-ARG-plasmid","NZ_CP065552.1",6258,6258,1
"Platon","non-ARG-plasmid","NZ_CP065553.1",1980,1980,1
"Platon","non-ARG-plasmid","NZ_CP065929.1",75857,126296,0.6
"Platon","non-ARG-plasmid","NZ_CP065930.1",NA,NA,0
"Platon","non-ARG-plasmid","NZ_CP065931.1",46781,56294,0.83
"Platon","non-ARG-plasmid","NZ_CP065933.1",9316,9316,1
"Platon","non-ARG-plasmid","NZ_CP065934.1",3702,4074,0.91
"Platon","non-ARG-plasmid","NZ_CP065935.1",1848,1981,0.93
"Platon","non-ARG-plasmid","NZ_CP066382.1",175662,257742,0.68
"Platon","non-ARG-plasmid","NZ_CP066384.1",30604,60650,0.5
"Platon","non-ARG-plasmid","NZ_CP066386.1",4999,6895,0.73
"Platon","non-ARG-plasmid","NZ_CP066387.1",6303,6303,1
"Platon","non-ARG-plasmid","NZ_CP066388.1",4461,4461,1
"Platon","non-ARG-plasmid","NZ_CP066391.1",47284,56323,0.84
"Platon","non-ARG-plasmid","NZ_CP066393.1",6172,6172,1
"Platon","non-ARG-plasmid","NZ_CP066394.1",4375,4375,1
"Platon","non-ARG-plasmid","NZ_CP066395.1",3199,3199,1
"Platon","non-ARG-plasmid","NZ_CP066397.1",4372,4372,1
"Platon","non-ARG-plasmid","NZ_CP066398.1",2055,2055,1
"Platon","non-ARG-plasmid","NZ_CP066399.1",1518,1979,0.77
"Platon","non-ARG-plasmid","NZ_CP066400.1",1472,1933,0.76
"Platon","non-ARG-plasmid","NZ_CP066401.1",94446,134230,0.7
"Platon","non-ARG-plasmid","NZ_CP066402.1",78445,83940,0.93
"Platon","non-ARG-plasmid","NZ_CP066404.1",46076,60664,0.76
"Platon","non-ARG-plasmid","NZ_CP066407.1",6173,6173,1
"Platon","non-ARG-plasmid","NZ_CP066408.1",4466,4466,1
"Platon","non-ARG-plasmid","NZ_CP066411.1",24096,55497,0.43
"Platon","non-ARG-plasmid","NZ_CP066412.1",9508,11819,0.8
"Platon","non-ARG-plasmid","NZ_CP066413.1",6303,6303,1
"Platon","non-ARG-plasmid","NZ_CP066414.1",1980,1980,1
"Platon","non-ARG-plasmid","NZ_CP066416.1",25305,55498,0.46
"Platon","non-ARG-plasmid","NZ_CP066418.1",9508,11819,0.8
"Platon","non-ARG-plasmid","NZ_CP066419.1",6303,6303,1
"Platon","non-ARG-plasmid","NZ_CP066420.1",1980,1980,1
"Platon","non-ARG-plasmid","NZ_CP066423.1",50145,54822,0.91
"Platon","non-ARG-plasmid","NZ_CP066425.1",7486,12538,0.6
"Platon","non-ARG-plasmid","NZ_CP066426.1",4374,4374,1
"Platon","non-ARG-plasmid","NZ_CP066430.1",21543,57029,0.38
"Platon","non-ARG-plasmid","NZ_CP066431.1",6303,6303,1
"Platon","non-ARG-plasmid","NZ_CP066432.1",4156,4305,0.97
"Platon","non-ARG-plasmid","NZ_CP066433.1",1831,1980,0.92
"Platon","non-ARG-plasmid","NZ_CP066435.1",115203,161669,0.71
"Platon","non-ARG-plasmid","NZ_CP066437.1",41238,57014,0.72
"Platon","non-ARG-plasmid","NZ_CP066439.1",6160,8194,0.75
"Platon","non-ARG-plasmid","NZ_CP066440.1",6883,7012,0.98
"Platon","non-ARG-plasmid","NZ_CP066441.1",4156,4305,0.97
"Platon","non-ARG-plasmid","NZ_CP066442.1",1831,1980,0.92
"Platon","non-ARG-plasmid","NZ_CP066444.1",142737,192427,0.74
"Platon","non-ARG-plasmid","NZ_CP066445.1",34230,57029,0.6
"Platon","non-ARG-plasmid","NZ_CP066447.1",3894,6312,0.62
"Platon","non-ARG-plasmid","NZ_CP066448.1",3849,6272,0.61
"Platon","non-ARG-plasmid","NZ_CP066449.1",4156,4305,0.97
"Platon","non-ARG-plasmid","NZ_CP066450.1",1831,1980,0.92
"Platon","non-ARG-plasmid","NZ_CP066453.1",50770,55497,0.91
"Platon","non-ARG-plasmid","NZ_CP066455.1",5368,6303,0.85
"Platon","non-ARG-plasmid","NZ_CP066456.1",1980,1980,1
"Platon","non-ARG-plasmid","NZ_CP066459.1",84838,88651,0.96
"Platon","non-ARG-plasmid","NZ_CP066460.1",52536,62213,0.84
"Platon","non-ARG-plasmid","NZ_CP066462.1",5234,6303,0.83
"Platon","non-ARG-plasmid","NZ_CP066463.1",5099,6168,0.83
"Platon","non-ARG-plasmid","NZ_CP066464.1",5212,5212,1
"Platon","non-ARG-plasmid","NZ_CP066465.1",4374,4374,1
"Platon","non-ARG-plasmid","NZ_CP066467.1",24096,55499,0.43
"Platon","non-ARG-plasmid","NZ_CP066469.1",9508,10968,0.87
"Platon","non-ARG-plasmid","NZ_CP066470.1",3782,6312,0.6
"Platon","non-ARG-plasmid","NZ_CP066471.1",6267,6267,1
"Platon","non-ARG-plasmid","NZ_CP066472.1",1980,1980,1
"Platon","non-ARG-plasmid","NZ_CP066476.1",52536,62212,0.84
"Platon","non-ARG-plasmid","NZ_CP066477.1",6303,6303,1
"Platon","non-ARG-plasmid","NZ_CP066478.1",5212,5212,1
"Platon","non-ARG-plasmid","NZ_CP066479.1",4374,4374,1
"Platon","non-ARG-plasmid","NZ_CP066482.1",20754,57029,0.36
"Platon","non-ARG-plasmid","NZ_CP066484.1",6303,6303,1
"Platon","non-ARG-plasmid","NZ_CP066485.1",1980,1980,1
"Platon","non-ARG-plasmid","NZ_CP066593.1",25305,55497,0.46
"Platon","non-ARG-plasmid","NZ_CP066595.1",4156,8512,0.49
"Platon","non-ARG-plasmid","NZ_CP066596.1",3894,6303,0.62
"Platon","non-ARG-plasmid","NZ_CP066607.1",1831,1980,0.92
"Platon","non-ARG-plasmid","NZ_CP066609.1",27294,59583,0.46
"Platon","non-ARG-plasmid","NZ_CP066611.1",6303,6303,1
"Platon","non-ARG-plasmid","NZ_CP066612.1",4156,4305,0.97
"Platon","non-ARG-plasmid","NZ_CP066613.1",NA,NA,0
"Platon","non-ARG-plasmid","NZ_CP066616.1",27294,59583,0.46
"Platon","non-ARG-plasmid","NZ_CP066618.1",6303,6303,1
"Platon","non-ARG-plasmid","NZ_CP066619.1",4156,4305,0.97
"Platon","non-ARG-plasmid","NZ_CP066620.1",NA,NA,0
"Platon","non-ARG-plasmid","NZ_CP066621.1",1831,1980,0.92
"Platon","non-ARG-plasmid","NZ_CP066624.1",24096,55497,0.43
"Platon","non-ARG-plasmid","NZ_CP066626.1",6303,6303,1
"Platon","non-ARG-plasmid","NZ_CP066627.1",4156,4305,0.97
"Platon","non-ARG-plasmid","NZ_CP066628.1",1831,1980,0.92
"Platon","non-ARG-plasmid","NZ_CP066630.1",112074,164644,0.68
"Platon","non-ARG-plasmid","NZ_CP066631.1",37326,61213,0.61
"Platon","non-ARG-plasmid","NZ_CP066633.1",6311,6311,1
"Platon","non-ARG-plasmid","NZ_CP066634.1",4305,4305,1
"Platon","non-ARG-plasmid","NZ_CP066635.1",4074,4074,1
"Platon","non-ARG-plasmid","NZ_CP066636.1",3007,3007,1
"Platon","non-ARG-plasmid","NZ_CP066638.1",87394,87407,1
"Platon","non-ARG-plasmid","NZ_CP066640.1",48324,56412,0.86
"Platon","non-ARG-plasmid","NZ_CP066642.1",6303,6303,1
"Platon","non-ARG-plasmid","NZ_CP066643.1",3930,4075,0.96
"Platon","non-ARG-plasmid","NZ_CP066644.1",1835,1980,0.93
"Platon","non-ARG-plasmid","NZ_CP066646.1",1980,1980,1
"Platon","non-ARG-plasmid","NZ_CP066647.1",25305,55497,0.46
"Platon","non-ARG-plasmid","NZ_CP066648.1",124693,194710,0.64
"Platon","non-ARG-plasmid","NZ_CP066650.1",3894,6303,0.62
"Platon","non-ARG-plasmid","NZ_CP066651.1",1465,6263,0.23
"Platon","non-ARG-plasmid","NZ_CP066654.1",94581,134270,0.7
"Platon","non-ARG-plasmid","NZ_CP066655.1",15359,23540,0.65
"Platon","non-ARG-plasmid","NZ_CP066657.1",6303,6303,1
"Platon","non-ARG-plasmid","NZ_CP066658.1",6027,6173,0.98
"Platon","non-ARG-plasmid","NZ_CP066661.1",52536,62212,0.84
"Platon","non-ARG-plasmid","NZ_CP066663.1",5672,7940,0.71
"Platon","non-ARG-plasmid","NZ_CP066664.1",6303,6303,1
"Platon","non-ARG-plasmid","NZ_CP066665.1",5212,5212,1
"Platon","non-ARG-plasmid","NZ_CP066666.1",4374,4374,1
"Platon","non-ARG-plasmid","NZ_CP066668.1",94636,134270,0.7
"Platon","non-ARG-plasmid","NZ_CP066670.1",15359,23540,0.65
"Platon","non-ARG-plasmid","NZ_CP066671.1",6122,6303,0.97
"Platon","non-ARG-plasmid","NZ_CP066672.1",5992,6173,0.97
"Platon","non-ARG-plasmid","NZ_CP066674.1",122709,171777,0.71
"Platon","non-ARG-plasmid","NZ_CP066676.1",15837,23664,0.67
"Platon","non-ARG-plasmid","NZ_CP066677.1",7016,7165,0.98
"Platon","non-ARG-plasmid","NZ_CP066678.1",6162,6311,0.98
"Platon","non-ARG-plasmid","NZ_CP066679.1",4305,4305,1
"Platon","non-ARG-plasmid","NZ_CP071924.1",2857,2857,1
"Platon","non-ARG-plasmid","NZ_CP071925.1",5591,6173,0.91
"Platon","non-ARG-plasmid","NZ_CP071926.1",4372,6268,0.7
"Platon","non-ARG-plasmid","NZ_CP071927.1",5941,7837,0.76
"Platon","non-ARG-plasmid","NZ_CP071928.1",8736,9318,0.94
"Platon","non-ARG-plasmid","NZ_CP071930.1",166136,220241,0.75
"Platon","non-ARG-plasmid","NZ_CP072883.1",NA,NA,0
"Platon","non-ARG-plasmid","NZ_CP072885.1",138322,174746,0.79
"Platon","non-ARG-plasmid","NZ_CP072895.1",NA,NA,0
"Platon","non-ARG-plasmid","NZ_CP076473.1",73448,79679,0.92
"Platon","non-ARG-plasmid","NZ_CP076474.1",48107,57509,0.84
"Platon","non-ARG-plasmid","NZ_CP076476.1",4374,4374,1
"Platon","non-ARG-plasmid","NZ_CP076479.1",73379,79769,0.92
"Platon","non-ARG-plasmid","NZ_CP076480.1",48107,57509,0.84
"Platon","non-ARG-plasmid","NZ_CP076482.1",4374,4374,1
"Platon","non-ARG-plasmid","NZ_CP076485.1",73536,79782,0.92
"Platon","non-ARG-plasmid","NZ_CP076487.1",4374,4374,1
"Platon","non-ARG-plasmid","NZ_CP083180.1",69905,124878,0.56
"Platon","non-ARG-plasmid","NZ_CP083915.1",5773,7669,0.75
"Platon","non-ARG-plasmid","NZ_CP083916.1",3200,3200,1
"Platon","non-ARG-plasmid","NZ_CP083917.1",2800,2947,0.95
"Platon","non-ARG-plasmid","NZ_CP083918.1",2710,2857,0.95
"Platon","non-ARG-plasmid","NZ_CP083919.1",1979,1979,1
"Platon","non-ARG-plasmid","NZ_CP083923.1",NA,NA,0
"Platon","non-ARG-plasmid","NZ_CP083924.1",5773,7669,0.75
"Platon","non-ARG-plasmid","NZ_CP083925.1",NA,NA,0
"Platon","non-ARG-plasmid","NZ_CP083926.1",1871,3200,0.58
"Platon","non-ARG-plasmid","NZ_CP083927.1",2800,2947,0.95
"Platon","non-ARG-plasmid","NZ_CP083928.1",2710,2857,0.95
"Platon","non-ARG-plasmid","NZ_CP083929.1",1979,1979,1
"Platon","non-ARG-plasmid","NZ_CP089320.1",147721,228311,0.65
"Platon","non-ARG-plasmid","NZ_CP089321.1",34844,59066,0.59
"Platon","non-ARG-plasmid","NZ_CP089323.1",7715,11983,0.64
"Platon","non-ARG-plasmid","NZ_CP089324.1",1928,1928,1
"Platon","non-ARG-plasmid","NZ_CP097023.1",119009,142475,0.84
"Platon","non-ARG-plasmid","NZ_CP097065.1",5254,5254,1
"Platon","non-ARG-plasmid","NZ_OU015710.1",97397,101837,0.96
"Platon","non-ARG-plasmid","NZ_OU015712.1",7019,7019,1
"Platon","non-ARG-plasmid","NZ_OU015713.1",4206,4374,0.96
"Platon","non-ARG-plasmid","NZ_OU015714.1",NA,NA,0
"Platon","non-ARG-plasmid","NZ_OU015715.1",1893,3221,0.59
"Platon","non-ARG-plasmid","NZ_OU015716.1",1760,1928,0.91
"Platon","non-ARG-plasmid","NZ_OU015949.1",5774,7670,0.75
"Platon","non-ARG-plasmid","NZ_OU015950.1",1871,6503,0.29
"Platon","non-ARG-plasmid","NZ_OU015951.1",6174,6174,1
"Platon","non-ARG-plasmid","NZ_OU015952.1",4206,4374,0.96
"Platon","non-ARG-plasmid","NZ_OU015953.1",2947,2947,1
"Platon","non-ARG-plasmid","NZ_OU015954.1",1760,1928,0.91
"Platon","non-ARG-plasmid","NZ_OU016030.1",5774,7670,0.75
"Platon","non-ARG-plasmid","NZ_OU016031.1",3199,6501,0.49
"Platon","non-ARG-plasmid","NZ_OU016032.1",6174,6174,1
"Platon","non-ARG-plasmid","NZ_OU016033.1",4206,4374,0.96
"Platon","non-ARG-plasmid","NZ_OU016034.1",2947,2947,1
"Platon","non-ARG-plasmid","NZ_OU016035.1",1760,1928,0.91
"Platon","non-ARG-plasmid","NZ_OU016040.1",5774,7670,0.75
"Platon","non-ARG-plasmid","NZ_OU016041.1",1871,6501,0.29
"Platon","non-ARG-plasmid","NZ_OU016042.1",6174,6174,1
"Platon","non-ARG-plasmid","NZ_OU016043.1",4206,4374,0.96
"Platon","non-ARG-plasmid","NZ_OU016044.1",2947,2947,1
"Platon","non-ARG-plasmid","NZ_OU016045.1",1760,1928,0.91
"plasmidEC","ARG-plasmid","NZ_AP024833.1",61513,71966,0.85
"plasmidEC","ARG-plasmid","NZ_AP024838.1",110812,155411,0.71
"plasmidEC","ARG-plasmid","NZ_AP024839.1",61959,71967,0.86
"plasmidEC","ARG-plasmid","NZ_CP064050.1",158197,219794,0.72
"plasmidEC","ARG-plasmid","NZ_CP064052.1",28147,39679,0.71
"plasmidEC","ARG-plasmid","NZ_CP064344.1",157335,196063,0.8
"plasmidEC","ARG-plasmid","NZ_CP064345.1",91201,96497,0.95
"plasmidEC","ARG-plasmid","NZ_CP064346.1",31932,40064,0.8
"plasmidEC","ARG-plasmid","NZ_CP065526.1",16826,25787,0.65
"plasmidEC","ARG-plasmid","NZ_CP065549.1",132507,198774,0.67
"plasmidEC","ARG-plasmid","NZ_CP065550.1",34420,44323,0.78
"plasmidEC","ARG-plasmid","NZ_CP065932.1",32579,45647,0.71
"plasmidEC","ARG-plasmid","NZ_CP066383.1",88535,104340,0.85
"plasmidEC","ARG-plasmid","NZ_CP066385.1",25389,41600,0.61
"plasmidEC","ARG-plasmid","NZ_CP066390.1",120287,153899,0.78
"plasmidEC","ARG-plasmid","NZ_CP066392.1",23419,33158,0.71
"plasmidEC","ARG-plasmid","NZ_CP066403.1",61333,65409,0.94
"plasmidEC","ARG-plasmid","NZ_CP066405.1",19233,29903,0.64
"plasmidEC","ARG-plasmid","NZ_CP066406.1",22898,29409,0.78
"plasmidEC","ARG-plasmid","NZ_CP066410.1",129519,198742,0.65
"plasmidEC","ARG-plasmid","NZ_CP066417.1",132043,198740,0.66
"plasmidEC","ARG-plasmid","NZ_CP066422.1",150155,202167,0.74
"plasmidEC","ARG-plasmid","NZ_CP066424.1",29252,36284,0.81
"plasmidEC","ARG-plasmid","NZ_CP066428.1",123739,187324,0.66
"plasmidEC","ARG-plasmid","NZ_CP066429.1",34539,44421,0.78
"plasmidEC","ARG-plasmid","NZ_CP066436.1",61336,65409,0.94
"plasmidEC","ARG-plasmid","NZ_CP066438.1",29271,38373,0.76
"plasmidEC","ARG-plasmid","NZ_CP066446.1",34537,44420,0.78
"plasmidEC","ARG-plasmid","NZ_CP066452.1",120125,164531,0.73
"plasmidEC","ARG-plasmid","NZ_CP066454.1",34539,44442,0.78
"plasmidEC","ARG-plasmid","NZ_CP066458.1",148900,193594,0.77
"plasmidEC","ARG-plasmid","NZ_CP066461.1",39562,57116,0.69
"plasmidEC","ARG-plasmid","NZ_CP066468.1",131299,198741,0.66
"plasmidEC","ARG-plasmid","NZ_CP066474.1",149492,194067,0.77
"plasmidEC","ARG-plasmid","NZ_CP066475.1",41857,63104,0.66
"plasmidEC","ARG-plasmid","NZ_CP066481.1",123326,187318,0.66
"plasmidEC","ARG-plasmid","NZ_CP066483.1",22226,34144,0.65
"plasmidEC","ARG-plasmid","NZ_CP066592.1",127505,187323,0.68
"plasmidEC","ARG-plasmid","NZ_CP066594.1",31100,41004,0.76
"plasmidEC","ARG-plasmid","NZ_CP066608.1",131074,198742,0.66
"plasmidEC","ARG-plasmid","NZ_CP066610.1",27909,37877,0.74
"plasmidEC","ARG-plasmid","NZ_CP066615.1",131062,198741,0.66
"plasmidEC","ARG-plasmid","NZ_CP066617.1",27909,37877,0.74
"plasmidEC","ARG-plasmid","NZ_CP066623.1",130754,200088,0.65
"plasmidEC","ARG-plasmid","NZ_CP066625.1",33956,43860,0.77
"plasmidEC","ARG-plasmid","NZ_CP066632.1",24145,35487,0.68
"plasmidEC","ARG-plasmid","NZ_CP066639.1",61346,66742,0.92
"plasmidEC","ARG-plasmid","NZ_CP066641.1",34091,47773,0.71
"plasmidEC","ARG-plasmid","NZ_CP066649.1",34584,45965,0.75
"plasmidEC","ARG-plasmid","NZ_CP066656.1",16838,22729,0.74
"plasmidEC","ARG-plasmid","NZ_CP066660.1",142266,187470,0.76
"plasmidEC","ARG-plasmid","NZ_CP066662.1",39579,57134,0.69
"plasmidEC","ARG-plasmid","NZ_CP066669.1",24040,30941,0.78
"plasmidEC","ARG-plasmid","NZ_CP066675.1",14599,25974,0.56
"plasmidEC","ARG-plasmid","NZ_CP071929.1",19405,24233,0.8
"plasmidEC","ARG-plasmid","NZ_CP072879.1",172521,246327,0.7
"plasmidEC","ARG-plasmid","NZ_CP072880.1",29977,41084,0.73
"plasmidEC","ARG-plasmid","NZ_CP072882.1",116219,183270,0.63
"plasmidEC","ARG-plasmid","NZ_CP072886.1",46702,53837,0.87
"plasmidEC","ARG-plasmid","NZ_CP072887.1",16195,26651,0.61
"plasmidEC","ARG-plasmid","NZ_CP072896.1",35509,36447,0.97
"plasmidEC","ARG-plasmid","NZ_CP074106.1",131054,168353,0.78
"plasmidEC","ARG-plasmid","NZ_CP074108.1",130850,165658,0.79
"plasmidEC","ARG-plasmid","NZ_CP074110.1",149670,165652,0.9
"plasmidEC","ARG-plasmid","NZ_CP076472.1",151160,205407,0.74
"plasmidEC","ARG-plasmid","NZ_CP076475.1",23791,34693,0.69
"plasmidEC","ARG-plasmid","NZ_CP076478.1",151160,205436,0.74
"plasmidEC","ARG-plasmid","NZ_CP076481.1",31093,41819,0.74
"plasmidEC","ARG-plasmid","NZ_CP076484.1",199356,264192,0.75
"plasmidEC","ARG-plasmid","NZ_CP076486.1",31090,41819,0.74
"plasmidEC","ARG-plasmid","NZ_CP083913.1",160937,213284,0.75
"plasmidEC","ARG-plasmid","NZ_CP083914.1",35931,48157,0.75
"plasmidEC","ARG-plasmid","NZ_CP083921.1",154402,213279,0.72
"plasmidEC","ARG-plasmid","NZ_CP083922.1",35939,52056,0.69
"plasmidEC","ARG-plasmid","NZ_CP089322.1",29731,40605,0.73
"plasmidEC","ARG-plasmid","NZ_CP097015.1",122048,232122,0.53
"plasmidEC","ARG-plasmid","NZ_CP097016.1",27116,41159,0.66
"plasmidEC","ARG-plasmid","NZ_CP097024.1",14368,24768,0.58
"plasmidEC","ARG-plasmid","NZ_CP097025.1",17718,23514,0.75
"plasmidEC","ARG-plasmid","NZ_CP097026.1",9286,18501,0.5
"plasmidEC","ARG-plasmid","NZ_CP097028.1",125001,189968,0.66
"plasmidEC","ARG-plasmid","NZ_CP097029.1",27794,46690,0.6
"plasmidEC","ARG-plasmid","NZ_CP097062.1",54994,62247,0.88
"plasmidEC","ARG-plasmid","NZ_CP097063.1",32590,52519,0.62
"plasmidEC","ARG-plasmid","NZ_CP097064.1",30070,33236,0.9
"plasmidEC","ARG-plasmid","NZ_OU015709.1",176905,238492,0.74
"plasmidEC","ARG-plasmid","NZ_OU015711.1",38900,51289,0.76
"plasmidEC","ARG-plasmid","NZ_OU015947.1",175716,202753,0.87
"plasmidEC","ARG-plasmid","NZ_OU015948.1",35936,47525,0.76
"plasmidEC","ARG-plasmid","NZ_OU016028.1",175697,202690,0.87
"plasmidEC","ARG-plasmid","NZ_OU016029.1",35936,47525,0.76
"plasmidEC","ARG-plasmid","NZ_OU016037.1",173932,204460,0.85
"plasmidEC","ARG-plasmid","NZ_OU016039.1",35937,47525,0.76
"plasmidEC","non-ARG-plasmid","NZ_AP024832.1",69328,92522,0.75
"plasmidEC","non-ARG-plasmid","NZ_AP024834.1",8801,9507,0.93
"plasmidEC","non-ARG-plasmid","NZ_AP024835.1",5843,6302,0.93
"plasmidEC","non-ARG-plasmid","NZ_AP024836.1",5850,5850,1
"plasmidEC","non-ARG-plasmid","NZ_AP024840.1",9362,9507,0.98
"plasmidEC","non-ARG-plasmid","NZ_AP024841.1",6157,6303,0.98
"plasmidEC","non-ARG-plasmid","NZ_AP024842.1",5850,5849,1
"plasmidEC","non-ARG-plasmid","NZ_AP024843.1",4214,4373,0.96
"plasmidEC","non-ARG-plasmid","NZ_CP064051.1",53409,63187,0.85
"plasmidEC","non-ARG-plasmid","NZ_CP064053.1",4372,4372,1
"plasmidEC","non-ARG-plasmid","NZ_CP064347.1",6883,10814,0.64
"plasmidEC","non-ARG-plasmid","NZ_CP064348.1",6173,6173,1
"plasmidEC","non-ARG-plasmid","NZ_CP064349.1",4465,4465,1
"plasmidEC","non-ARG-plasmid","NZ_CP065524.1",28584,94576,0.3
"plasmidEC","non-ARG-plasmid","NZ_CP065525.1",168440,227210,0.74
"plasmidEC","non-ARG-plasmid","NZ_CP065528.1",8814,15691,0.56
"plasmidEC","non-ARG-plasmid","NZ_CP065529.1",119035,215857,0.55
"plasmidEC","non-ARG-plasmid","NZ_CP065548.1",25305,55498,0.46
"plasmidEC","non-ARG-plasmid","NZ_CP065551.1",3782,6303,0.6
"plasmidEC","non-ARG-plasmid","NZ_CP065552.1",6258,6258,1
"plasmidEC","non-ARG-plasmid","NZ_CP065553.1",1980,1980,1
"plasmidEC","non-ARG-plasmid","NZ_CP065929.1",92963,126296,0.74
"plasmidEC","non-ARG-plasmid","NZ_CP065930.1",NA,NA,0
"plasmidEC","non-ARG-plasmid","NZ_CP065931.1",46781,56294,0.83
"plasmidEC","non-ARG-plasmid","NZ_CP065933.1",9316,9316,1
"plasmidEC","non-ARG-plasmid","NZ_CP065934.1",3702,4074,0.91
"plasmidEC","non-ARG-plasmid","NZ_CP065935.1",1848,1981,0.93
"plasmidEC","non-ARG-plasmid","NZ_CP066382.1",181344,257742,0.7
"plasmidEC","non-ARG-plasmid","NZ_CP066384.1",33147,60650,0.55
"plasmidEC","non-ARG-plasmid","NZ_CP066386.1",4999,6895,0.73
"plasmidEC","non-ARG-plasmid","NZ_CP066387.1",6303,6303,1
"plasmidEC","non-ARG-plasmid","NZ_CP066388.1",4461,4461,1
"plasmidEC","non-ARG-plasmid","NZ_CP066391.1",47284,56323,0.84
"plasmidEC","non-ARG-plasmid","NZ_CP066393.1",6172,6172,1
"plasmidEC","non-ARG-plasmid","NZ_CP066394.1",4375,4375,1
"plasmidEC","non-ARG-plasmid","NZ_CP066395.1",3199,3199,1
"plasmidEC","non-ARG-plasmid","NZ_CP066397.1",4372,4372,1
"plasmidEC","non-ARG-plasmid","NZ_CP066398.1",2055,2055,1
"plasmidEC","non-ARG-plasmid","NZ_CP066399.1",1518,1979,0.77
"plasmidEC","non-ARG-plasmid","NZ_CP066400.1",1472,1933,0.76
"plasmidEC","non-ARG-plasmid","NZ_CP066401.1",94446,134230,0.7
"plasmidEC","non-ARG-plasmid","NZ_CP066402.1",78445,83940,0.93
"plasmidEC","non-ARG-plasmid","NZ_CP066404.1",46076,60664,0.76
"plasmidEC","non-ARG-plasmid","NZ_CP066407.1",6173,6173,1
"plasmidEC","non-ARG-plasmid","NZ_CP066408.1",4466,4466,1
"plasmidEC","non-ARG-plasmid","NZ_CP066411.1",24096,55497,0.43
"plasmidEC","non-ARG-plasmid","NZ_CP066412.1",9508,11819,0.8
"plasmidEC","non-ARG-plasmid","NZ_CP066413.1",6303,6303,1
"plasmidEC","non-ARG-plasmid","NZ_CP066414.1",1980,1980,1
"plasmidEC","non-ARG-plasmid","NZ_CP066416.1",25305,55498,0.46
"plasmidEC","non-ARG-plasmid","NZ_CP066418.1",9508,11819,0.8
"plasmidEC","non-ARG-plasmid","NZ_CP066419.1",6303,6303,1
"plasmidEC","non-ARG-plasmid","NZ_CP066420.1",1980,1980,1
"plasmidEC","non-ARG-plasmid","NZ_CP066423.1",50145,54822,0.91
"plasmidEC","non-ARG-plasmid","NZ_CP066425.1",8746,12538,0.7
"plasmidEC","non-ARG-plasmid","NZ_CP066426.1",4374,4374,1
"plasmidEC","non-ARG-plasmid","NZ_CP066430.1",21543,57029,0.38
"plasmidEC","non-ARG-plasmid","NZ_CP066431.1",6303,6303,1
"plasmidEC","non-ARG-plasmid","NZ_CP066432.1",4156,4305,0.97
"plasmidEC","non-ARG-plasmid","NZ_CP066433.1",1831,1980,0.92
"plasmidEC","non-ARG-plasmid","NZ_CP066435.1",115203,161669,0.71
"plasmidEC","non-ARG-plasmid","NZ_CP066437.1",41238,57014,0.72
"plasmidEC","non-ARG-plasmid","NZ_CP066439.1",6160,8194,0.75
"plasmidEC","non-ARG-plasmid","NZ_CP066440.1",6883,7012,0.98
"plasmidEC","non-ARG-plasmid","NZ_CP066441.1",4156,4305,0.97
"plasmidEC","non-ARG-plasmid","NZ_CP066442.1",1831,1980,0.92
"plasmidEC","non-ARG-plasmid","NZ_CP066444.1",143866,192427,0.75
"plasmidEC","non-ARG-plasmid","NZ_CP066445.1",34230,57029,0.6
"plasmidEC","non-ARG-plasmid","NZ_CP066447.1",3894,6312,0.62
"plasmidEC","non-ARG-plasmid","NZ_CP066448.1",3849,6272,0.61
"plasmidEC","non-ARG-plasmid","NZ_CP066449.1",4156,4305,0.97
"plasmidEC","non-ARG-plasmid","NZ_CP066450.1",1831,1980,0.92
"plasmidEC","non-ARG-plasmid","NZ_CP066453.1",52203,55497,0.94
"plasmidEC","non-ARG-plasmid","NZ_CP066455.1",5368,6303,0.85
"plasmidEC","non-ARG-plasmid","NZ_CP066456.1",1980,1980,1
"plasmidEC","non-ARG-plasmid","NZ_CP066459.1",84838,88651,0.96
"plasmidEC","non-ARG-plasmid","NZ_CP066460.1",52536,62213,0.84
"plasmidEC","non-ARG-plasmid","NZ_CP066462.1",5234,6303,0.83
"plasmidEC","non-ARG-plasmid","NZ_CP066463.1",5099,6168,0.83
"plasmidEC","non-ARG-plasmid","NZ_CP066464.1",5212,5212,1
"plasmidEC","non-ARG-plasmid","NZ_CP066465.1",4374,4374,1
"plasmidEC","non-ARG-plasmid","NZ_CP066467.1",24096,55499,0.43
"plasmidEC","non-ARG-plasmid","NZ_CP066469.1",9508,10968,0.87
"plasmidEC","non-ARG-plasmid","NZ_CP066470.1",3782,6312,0.6
"plasmidEC","non-ARG-plasmid","NZ_CP066471.1",6267,6267,1
"plasmidEC","non-ARG-plasmid","NZ_CP066472.1",1980,1980,1
"plasmidEC","non-ARG-plasmid","NZ_CP066476.1",52536,62212,0.84
"plasmidEC","non-ARG-plasmid","NZ_CP066477.1",6303,6303,1
"plasmidEC","non-ARG-plasmid","NZ_CP066478.1",5212,5212,1
"plasmidEC","non-ARG-plasmid","NZ_CP066479.1",4374,4374,1
"plasmidEC","non-ARG-plasmid","NZ_CP066482.1",20754,57029,0.36
"plasmidEC","non-ARG-plasmid","NZ_CP066484.1",6303,6303,1
"plasmidEC","non-ARG-plasmid","NZ_CP066485.1",1980,1980,1
"plasmidEC","non-ARG-plasmid","NZ_CP066593.1",25305,55497,0.46
"plasmidEC","non-ARG-plasmid","NZ_CP066595.1",4156,8512,0.49
"plasmidEC","non-ARG-plasmid","NZ_CP066596.1",3894,6303,0.62
"plasmidEC","non-ARG-plasmid","NZ_CP066607.1",1831,1980,0.92
"plasmidEC","non-ARG-plasmid","NZ_CP066609.1",27294,59583,0.46
"plasmidEC","non-ARG-plasmid","NZ_CP066611.1",6303,6303,1
"plasmidEC","non-ARG-plasmid","NZ_CP066612.1",4156,4305,0.97
"plasmidEC","non-ARG-plasmid","NZ_CP066613.1",NA,NA,0
"plasmidEC","non-ARG-plasmid","NZ_CP066616.1",27294,59583,0.46
"plasmidEC","non-ARG-plasmid","NZ_CP066618.1",6303,6303,1
"plasmidEC","non-ARG-plasmid","NZ_CP066619.1",4156,4305,0.97
"plasmidEC","non-ARG-plasmid","NZ_CP066620.1",NA,NA,0
"plasmidEC","non-ARG-plasmid","NZ_CP066621.1",1831,1980,0.92
"plasmidEC","non-ARG-plasmid","NZ_CP066624.1",24096,55497,0.43
"plasmidEC","non-ARG-plasmid","NZ_CP066626.1",6303,6303,1
"plasmidEC","non-ARG-plasmid","NZ_CP066627.1",4156,4305,0.97
"plasmidEC","non-ARG-plasmid","NZ_CP066628.1",1831,1980,0.92
"plasmidEC","non-ARG-plasmid","NZ_CP066630.1",112074,164644,0.68
"plasmidEC","non-ARG-plasmid","NZ_CP066631.1",38399,61213,0.63
"plasmidEC","non-ARG-plasmid","NZ_CP066633.1",6311,6311,1
"plasmidEC","non-ARG-plasmid","NZ_CP066634.1",4305,4305,1
"plasmidEC","non-ARG-plasmid","NZ_CP066635.1",4074,4074,1
"plasmidEC","non-ARG-plasmid","NZ_CP066636.1",3007,3007,1
"plasmidEC","non-ARG-plasmid","NZ_CP066638.1",87394,87407,1
"plasmidEC","non-ARG-plasmid","NZ_CP066640.1",48324,56412,0.86
"plasmidEC","non-ARG-plasmid","NZ_CP066642.1",6303,6303,1
"plasmidEC","non-ARG-plasmid","NZ_CP066643.1",3930,4075,0.96
"plasmidEC","non-ARG-plasmid","NZ_CP066644.1",1835,1980,0.93
"plasmidEC","non-ARG-plasmid","NZ_CP066646.1",1980,1980,1
"plasmidEC","non-ARG-plasmid","NZ_CP066647.1",25305,55497,0.46
"plasmidEC","non-ARG-plasmid","NZ_CP066648.1",125699,194710,0.65
"plasmidEC","non-ARG-plasmid","NZ_CP066650.1",3894,6303,0.62
"plasmidEC","non-ARG-plasmid","NZ_CP066651.1",1465,6263,0.23
"plasmidEC","non-ARG-plasmid","NZ_CP066654.1",94581,134270,0.7
"plasmidEC","non-ARG-plasmid","NZ_CP066655.1",15359,23540,0.65
"plasmidEC","non-ARG-plasmid","NZ_CP066657.1",6303,6303,1
"plasmidEC","non-ARG-plasmid","NZ_CP066658.1",6027,6173,0.98
"plasmidEC","non-ARG-plasmid","NZ_CP066661.1",52536,62212,0.84
"plasmidEC","non-ARG-plasmid","NZ_CP066663.1",5672,7940,0.71
"plasmidEC","non-ARG-plasmid","NZ_CP066664.1",6303,6303,1
"plasmidEC","non-ARG-plasmid","NZ_CP066665.1",5212,5212,1
"plasmidEC","non-ARG-plasmid","NZ_CP066666.1",4374,4374,1
"plasmidEC","non-ARG-plasmid","NZ_CP066668.1",94636,134270,0.7
"plasmidEC","non-ARG-plasmid","NZ_CP066670.1",15359,23540,0.65
"plasmidEC","non-ARG-plasmid","NZ_CP066671.1",6122,6303,0.97
"plasmidEC","non-ARG-plasmid","NZ_CP066672.1",5992,6173,0.97
"plasmidEC","non-ARG-plasmid","NZ_CP066674.1",126888,171777,0.74
"plasmidEC","non-ARG-plasmid","NZ_CP066676.1",15837,23664,0.67
"plasmidEC","non-ARG-plasmid","NZ_CP066677.1",7016,7165,0.98
"plasmidEC","non-ARG-plasmid","NZ_CP066678.1",6162,6311,0.98
"plasmidEC","non-ARG-plasmid","NZ_CP066679.1",4305,4305,1
"plasmidEC","non-ARG-plasmid","NZ_CP071924.1",2857,2857,1
"plasmidEC","non-ARG-plasmid","NZ_CP071925.1",5591,6173,0.91
"plasmidEC","non-ARG-plasmid","NZ_CP071926.1",4372,6268,0.7
"plasmidEC","non-ARG-plasmid","NZ_CP071927.1",5941,7837,0.76
"plasmidEC","non-ARG-plasmid","NZ_CP071928.1",8736,9318,0.94
"plasmidEC","non-ARG-plasmid","NZ_CP071930.1",167453,220241,0.76
"plasmidEC","non-ARG-plasmid","NZ_CP072883.1",NA,NA,0
"plasmidEC","non-ARG-plasmid","NZ_CP072885.1",141059,174746,0.81
"plasmidEC","non-ARG-plasmid","NZ_CP072895.1",NA,NA,0
"plasmidEC","non-ARG-plasmid","NZ_CP076473.1",73448,79679,0.92
"plasmidEC","non-ARG-plasmid","NZ_CP076474.1",48107,57509,0.84
"plasmidEC","non-ARG-plasmid","NZ_CP076476.1",4374,4374,1
"plasmidEC","non-ARG-plasmid","NZ_CP076479.1",73379,79769,0.92
"plasmidEC","non-ARG-plasmid","NZ_CP076480.1",48107,57509,0.84
"plasmidEC","non-ARG-plasmid","NZ_CP076482.1",4374,4374,1
"plasmidEC","non-ARG-plasmid","NZ_CP076485.1",73536,79782,0.92
"plasmidEC","non-ARG-plasmid","NZ_CP076487.1",4374,4374,1
"plasmidEC","non-ARG-plasmid","NZ_CP083180.1",73491,124878,0.59
"plasmidEC","non-ARG-plasmid","NZ_CP083915.1",5773,7669,0.75
"plasmidEC","non-ARG-plasmid","NZ_CP083916.1",3200,3200,1
"plasmidEC","non-ARG-plasmid","NZ_CP083917.1",2800,2947,0.95
"plasmidEC","non-ARG-plasmid","NZ_CP083918.1",2710,2857,0.95
"plasmidEC","non-ARG-plasmid","NZ_CP083919.1",1979,1979,1
"plasmidEC","non-ARG-plasmid","NZ_CP083923.1",NA,NA,0
"plasmidEC","non-ARG-plasmid","NZ_CP083924.1",5773,7669,0.75
"plasmidEC","non-ARG-plasmid","NZ_CP083925.1",NA,NA,0
"plasmidEC","non-ARG-plasmid","NZ_CP083926.1",1871,3200,0.58
"plasmidEC","non-ARG-plasmid","NZ_CP083927.1",2800,2947,0.95
"plasmidEC","non-ARG-plasmid","NZ_CP083928.1",2710,2857,0.95
"plasmidEC","non-ARG-plasmid","NZ_CP083929.1",1979,1979,1
"plasmidEC","non-ARG-plasmid","NZ_CP089320.1",167645,228311,0.73
"plasmidEC","non-ARG-plasmid","NZ_CP089321.1",38070,59066,0.64
"plasmidEC","non-ARG-plasmid","NZ_CP089323.1",9333,11983,0.78
"plasmidEC","non-ARG-plasmid","NZ_CP089324.1",1928,1928,1
"plasmidEC","non-ARG-plasmid","NZ_CP097023.1",104507,142475,0.73
"plasmidEC","non-ARG-plasmid","NZ_CP097065.1",5254,5254,1
"plasmidEC","non-ARG-plasmid","NZ_OU015710.1",97397,101837,0.96
"plasmidEC","non-ARG-plasmid","NZ_OU015712.1",7019,7019,1
"plasmidEC","non-ARG-plasmid","NZ_OU015713.1",4206,4374,0.96
"plasmidEC","non-ARG-plasmid","NZ_OU015714.1",1976,3304,0.6
"plasmidEC","non-ARG-plasmid","NZ_OU015715.1",1893,3221,0.59
"plasmidEC","non-ARG-plasmid","NZ_OU015716.1",1760,1928,0.91
"plasmidEC","non-ARG-plasmid","NZ_OU015949.1",5774,7670,0.75
"plasmidEC","non-ARG-plasmid","NZ_OU015950.1",3847,6503,0.59
"plasmidEC","non-ARG-plasmid","NZ_OU015951.1",6174,6174,1
"plasmidEC","non-ARG-plasmid","NZ_OU015952.1",4206,4374,0.96
"plasmidEC","non-ARG-plasmid","NZ_OU015953.1",2947,2947,1
"plasmidEC","non-ARG-plasmid","NZ_OU015954.1",1760,1928,0.91
"plasmidEC","non-ARG-plasmid","NZ_OU016030.1",5774,7670,0.75
"plasmidEC","non-ARG-plasmid","NZ_OU016031.1",5175,6501,0.8
"plasmidEC","non-ARG-plasmid","NZ_OU016032.1",6174,6174,1
"plasmidEC","non-ARG-plasmid","NZ_OU016033.1",4206,4374,0.96
"plasmidEC","non-ARG-plasmid","NZ_OU016034.1",2947,2947,1
"plasmidEC","non-ARG-plasmid","NZ_OU016035.1",1760,1928,0.91
"plasmidEC","non-ARG-plasmid","NZ_OU016040.1",5774,7670,0.75
"plasmidEC","non-ARG-plasmid","NZ_OU016041.1",3847,6501,0.59
"plasmidEC","non-ARG-plasmid","NZ_OU016042.1",6174,6174,1
"plasmidEC","non-ARG-plasmid","NZ_OU016043.1",4206,4374,0.96
"plasmidEC","non-ARG-plasmid","NZ_OU016044.1",2947,2947,1
"plasmidEC","non-ARG-plasmid","NZ_OU016045.1",1760,1928,0.91
