"true_classification","variable","value","species"
"ambiguous","count",471,"E. faecium"
"chromosome","count",5491,"E. faecium"
"plasmid","count",1805,"E. faecium"
"repeat chromosome","count",478,"E. faecium"
"repeat plasmid","count",142,"E. faecium"
"unaligned","count",27,"E. faecium"
"ambiguous","percentage",5.6,"E. faecium"
"chromosome","percentage",65.26,"E. faecium"
"plasmid","percentage",21.45,"E. faecium"
"repeat chromosome","percentage",5.68,"E. faecium"
"repeat plasmid","percentage",1.69,"E. faecium"
"unaligned","percentage",0.32,"E. faecium"
