"software","FN","FP","TN","TP","recall","precision","f1_score"
"mlplasmids",61,53,2680,865,0.93,0.94,0.93
"RFplasmid",22,237,2496,904,0.98,0.79,0.87
"Platon",91,24,2709,835,0.9,0.97,0.93
"plasmidEC",20,48,2685,906,0.98,0.95,0.96
