"arg_plasmid","length_classification","count","species"
"ARG-plasmid","large",93,"E. faecium"
"ARG-plasmid","small",1,"E. faecium"
"non-ARG-plasmid","large",63,"E. faecium"
"non-ARG-plasmid","small",144,"E. faecium"
