"true_classification","strain","repeats_per_strain","species"
"ambiguous","GCF_015325925.1_ASM1532592v1",63,"E. faecium"
"ambiguous","GCF_015476295.1_ASM1547629v1",70,"E. faecium"
"ambiguous","GCF_015999405.1_ASM1599940v1",44,"E. faecium"
"ambiguous","GCF_015999425.1_ASM1599942v1",57,"E. faecium"
"ambiguous","GCF_015999605.1_ASM1599960v1",101,"E. faecium"
"ambiguous","GCF_016126675.1_ASM1612667v1",38,"E. faecium"
"ambiguous","GCF_016406345.1_ASM1640634v1",101,"E. faecium"
"ambiguous","GCF_016406365.1_ASM1640636v1",101,"E. faecium"
"ambiguous","GCF_016406385.1_ASM1640638v1",68,"E. faecium"
"ambiguous","GCF_016406405.1_ASM1640640v1",129,"E. faecium"
"ambiguous","GCF_016406425.1_ASM1640642v1",99,"E. faecium"
"ambiguous","GCF_016406445.1_ASM1640644v1",73,"E. faecium"
"ambiguous","GCF_016406465.1_ASM1640646v1",86,"E. faecium"
"ambiguous","GCF_016406485.1_ASM1640648v1",75,"E. faecium"
"ambiguous","GCF_016406505.1_ASM1640650v1",69,"E. faecium"
"ambiguous","GCF_016406525.1_ASM1640652v1",75,"E. faecium"
"ambiguous","GCF_016406545.1_ASM1640654v1",105,"E. faecium"
"ambiguous","GCF_016406565.1_ASM1640656v1",108,"E. faecium"
"ambiguous","GCF_016406585.1_ASM1640658v1",131,"E. faecium"
"ambiguous","GCF_016406605.1_ASM1640660v1",61,"E. faecium"
"ambiguous","GCF_016415325.1_ASM1641532v1",101,"E. faecium"
"ambiguous","GCF_016415365.1_ASM1641536v1",98,"E. faecium"
"ambiguous","GCF_016415385.1_ASM1641538v1",98,"E. faecium"
"ambiguous","GCF_016415405.1_ASM1641540v1",59,"E. faecium"
"ambiguous","GCF_016415425.1_ASM1641542v1",103,"E. faecium"
"ambiguous","GCF_016415445.1_ASM1641544v1",93,"E. faecium"
"ambiguous","GCF_016415465.1_ASM1641546v1",101,"E. faecium"
"ambiguous","GCF_016415485.1_ASM1641548v1",27,"E. faecium"
"ambiguous","GCF_016415505.1_ASM1641550v1",62,"E. faecium"
"ambiguous","GCF_016415545.1_ASM1641554v1",75,"E. faecium"
"ambiguous","GCF_016415565.1_ASM1641556v1",78,"E. faecium"
"ambiguous","GCF_017584065.1_ASM1758406v1",24,"E. faecium"
"ambiguous","GCF_019175425.1_ASM1917542v1",6,"E. faecium"
"ambiguous","GCF_019175445.1_ASM1917544v1",17,"E. faecium"
"ambiguous","GCF_019175465.1_ASM1917546v1",14,"E. faecium"
"ambiguous","GCF_019456555.1_ASM1945655v1",34,"E. faecium"
"ambiguous","GCF_019456575.1_ASM1945657v1",27,"E. faecium"
"ambiguous","GCF_019456595.1_ASM1945659v1",31,"E. faecium"
"ambiguous","GCF_019977495.1_ASM1997749v1",14,"E. faecium"
"ambiguous","GCF_019977575.1_ASM1997757v1",33,"E. faecium"
"ambiguous","GCF_020162155.1_ASM2016215v1",63,"E. faecium"
"ambiguous","GCF_020162175.1_ASM2016217v1",76,"E. faecium"
"ambiguous","GCF_021228615.1_ASM2122861v1",97,"E. faecium"
"ambiguous","GCF_021398505.1_ASM2139850v1",5,"E. faecium"
"ambiguous","GCF_022647825.1_ASM2264782v1",71,"E. faecium"
"ambiguous","GCF_022647945.1_ASM2264794v1",71,"E. faecium"
"ambiguous","GCF_022648125.1_ASM2264812v1",71,"E. faecium"
"ambiguous","GCF_023299325.1_ASM2329932v1",31,"E. faecium"
"ambiguous","GCF_023299725.1_ASM2329972v1",32,"E. faecium"
"ambiguous","GCF_023299745.1_ASM2329974v1",36,"E. faecium"
"ambiguous","GCF_023299805.1_ASM2329980v1",11,"E. faecium"
"ambiguous","GCF_907165365.1_USZ_VRE32_P32_hybrid_assembly",59,"E. faecium"
"ambiguous","GCF_907176135.1_USZ_VRE5_P5_hybrid_assembly",48,"E. faecium"
"ambiguous","GCF_907176815.1_USZ_VRE67_P60_hybrid_assembly",55,"E. faecium"
"ambiguous","GCF_907177285.1_USZ_VRE53_P46_hybrid_assembly",72,"E. faecium"
"repeat chromosome","GCF_013201055.1_ASM1320105v1",34,"E. faecium"
"repeat chromosome","GCF_015325925.1_ASM1532592v1",45,"E. faecium"
"repeat chromosome","GCF_015476295.1_ASM1547629v1",27,"E. faecium"
"repeat chromosome","GCF_015999405.1_ASM1599940v1",43,"E. faecium"
"repeat chromosome","GCF_015999425.1_ASM1599942v1",28,"E. faecium"
"repeat chromosome","GCF_015999605.1_ASM1599960v1",47,"E. faecium"
"repeat chromosome","GCF_016126675.1_ASM1612667v1",77,"E. faecium"
"repeat chromosome","GCF_016406345.1_ASM1640634v1",47,"E. faecium"
"repeat chromosome","GCF_016406365.1_ASM1640636v1",46,"E. faecium"
"repeat chromosome","GCF_016406385.1_ASM1640638v1",50,"E. faecium"
"repeat chromosome","GCF_016406405.1_ASM1640640v1",37,"E. faecium"
"repeat chromosome","GCF_016406425.1_ASM1640642v1",45,"E. faecium"
"repeat chromosome","GCF_016406445.1_ASM1640644v1",54,"E. faecium"
"repeat chromosome","GCF_016406465.1_ASM1640646v1",51,"E. faecium"
"repeat chromosome","GCF_016406485.1_ASM1640648v1",39,"E. faecium"
"repeat chromosome","GCF_016406505.1_ASM1640650v1",65,"E. faecium"
"repeat chromosome","GCF_016406525.1_ASM1640652v1",63,"E. faecium"
"repeat chromosome","GCF_016406545.1_ASM1640654v1",47,"E. faecium"
"repeat chromosome","GCF_016406565.1_ASM1640656v1",31,"E. faecium"
"repeat chromosome","GCF_016406585.1_ASM1640658v1",25,"E. faecium"
"repeat chromosome","GCF_016406605.1_ASM1640660v1",66,"E. faecium"
"repeat chromosome","GCF_016415325.1_ASM1641532v1",48,"E. faecium"
"repeat chromosome","GCF_016415365.1_ASM1641536v1",40,"E. faecium"
"repeat chromosome","GCF_016415385.1_ASM1641538v1",40,"E. faecium"
"repeat chromosome","GCF_016415405.1_ASM1641540v1",87,"E. faecium"
"repeat chromosome","GCF_016415425.1_ASM1641542v1",46,"E. faecium"
"repeat chromosome","GCF_016415445.1_ASM1641544v1",44,"E. faecium"
"repeat chromosome","GCF_016415465.1_ASM1641546v1",46,"E. faecium"
"repeat chromosome","GCF_016415485.1_ASM1641548v1",87,"E. faecium"
"repeat chromosome","GCF_016415505.1_ASM1641550v1",71,"E. faecium"
"repeat chromosome","GCF_016415545.1_ASM1641554v1",48,"E. faecium"
"repeat chromosome","GCF_016415565.1_ASM1641556v1",50,"E. faecium"
"repeat chromosome","GCF_017584065.1_ASM1758406v1",41,"E. faecium"
"repeat chromosome","GCF_019175425.1_ASM1917542v1",16,"E. faecium"
"repeat chromosome","GCF_019175445.1_ASM1917544v1",25,"E. faecium"
"repeat chromosome","GCF_019175465.1_ASM1917546v1",16,"E. faecium"
"repeat chromosome","GCF_019175525.1_ASM1917552v1",45,"E. faecium"
"repeat chromosome","GCF_019456555.1_ASM1945655v1",19,"E. faecium"
"repeat chromosome","GCF_019456575.1_ASM1945657v1",19,"E. faecium"
"repeat chromosome","GCF_019456595.1_ASM1945659v1",19,"E. faecium"
"repeat chromosome","GCF_019977495.1_ASM1997749v1",82,"E. faecium"
"repeat chromosome","GCF_019977575.1_ASM1997757v1",68,"E. faecium"
"repeat chromosome","GCF_020162155.1_ASM2016215v1",37,"E. faecium"
"repeat chromosome","GCF_020162175.1_ASM2016217v1",22,"E. faecium"
"repeat chromosome","GCF_021228615.1_ASM2122861v1",25,"E. faecium"
"repeat chromosome","GCF_021398505.1_ASM2139850v1",22,"E. faecium"
"repeat chromosome","GCF_022647825.1_ASM2264782v1",29,"E. faecium"
"repeat chromosome","GCF_022647945.1_ASM2264794v1",29,"E. faecium"
"repeat chromosome","GCF_022648125.1_ASM2264812v1",29,"E. faecium"
"repeat chromosome","GCF_023299325.1_ASM2329932v1",18,"E. faecium"
"repeat chromosome","GCF_023299725.1_ASM2329972v1",27,"E. faecium"
"repeat chromosome","GCF_023299745.1_ASM2329974v1",32,"E. faecium"
"repeat chromosome","GCF_023299805.1_ASM2329980v1",29,"E. faecium"
"repeat chromosome","GCF_907165365.1_USZ_VRE32_P32_hybrid_assembly",42,"E. faecium"
"repeat chromosome","GCF_907176135.1_USZ_VRE5_P5_hybrid_assembly",54,"E. faecium"
"repeat chromosome","GCF_907176815.1_USZ_VRE67_P60_hybrid_assembly",56,"E. faecium"
"repeat chromosome","GCF_907177285.1_USZ_VRE53_P46_hybrid_assembly",44,"E. faecium"
"repeat plasmid","GCF_015325925.1_ASM1532592v1",2,"E. faecium"
"repeat plasmid","GCF_015999405.1_ASM1599940v1",11,"E. faecium"
"repeat plasmid","GCF_015999425.1_ASM1599942v1",2,"E. faecium"
"repeat plasmid","GCF_015999605.1_ASM1599960v1",6,"E. faecium"
"repeat plasmid","GCF_016126675.1_ASM1612667v1",6,"E. faecium"
"repeat plasmid","GCF_016406345.1_ASM1640634v1",6,"E. faecium"
"repeat plasmid","GCF_016406365.1_ASM1640636v1",6,"E. faecium"
"repeat plasmid","GCF_016406385.1_ASM1640638v1",9,"E. faecium"
"repeat plasmid","GCF_016406405.1_ASM1640640v1",6,"E. faecium"
"repeat plasmid","GCF_016406465.1_ASM1640646v1",6,"E. faecium"
"repeat plasmid","GCF_016406485.1_ASM1640648v1",19,"E. faecium"
"repeat plasmid","GCF_016406505.1_ASM1640650v1",10,"E. faecium"
"repeat plasmid","GCF_016406525.1_ASM1640652v1",10,"E. faecium"
"repeat plasmid","GCF_016406545.1_ASM1640654v1",6,"E. faecium"
"repeat plasmid","GCF_016406565.1_ASM1640656v1",6,"E. faecium"
"repeat plasmid","GCF_016406585.1_ASM1640658v1",6,"E. faecium"
"repeat plasmid","GCF_016406605.1_ASM1640660v1",12,"E. faecium"
"repeat plasmid","GCF_016415325.1_ASM1641532v1",8,"E. faecium"
"repeat plasmid","GCF_016415365.1_ASM1641536v1",10,"E. faecium"
"repeat plasmid","GCF_016415385.1_ASM1641538v1",10,"E. faecium"
"repeat plasmid","GCF_016415405.1_ASM1641540v1",2,"E. faecium"
"repeat plasmid","GCF_016415425.1_ASM1641542v1",6,"E. faecium"
"repeat plasmid","GCF_016415445.1_ASM1641544v1",6,"E. faecium"
"repeat plasmid","GCF_016415465.1_ASM1641546v1",6,"E. faecium"
"repeat plasmid","GCF_016415485.1_ASM1641548v1",2,"E. faecium"
"repeat plasmid","GCF_016415505.1_ASM1641550v1",8,"E. faecium"
"repeat plasmid","GCF_017584065.1_ASM1758406v1",4,"E. faecium"
"repeat plasmid","GCF_019175425.1_ASM1917542v1",9,"E. faecium"
"repeat plasmid","GCF_019175445.1_ASM1917544v1",7,"E. faecium"
"repeat plasmid","GCF_019175465.1_ASM1917546v1",4,"E. faecium"
"repeat plasmid","GCF_019977495.1_ASM1997749v1",2,"E. faecium"
"repeat plasmid","GCF_019977575.1_ASM1997757v1",4,"E. faecium"
"repeat plasmid","GCF_020162175.1_ASM2016217v1",4,"E. faecium"
"repeat plasmid","GCF_021228615.1_ASM2122861v1",8,"E. faecium"
"repeat plasmid","GCF_021398505.1_ASM2139850v1",2,"E. faecium"
"repeat plasmid","GCF_022647825.1_ASM2264782v1",13,"E. faecium"
"repeat plasmid","GCF_022647945.1_ASM2264794v1",13,"E. faecium"
"repeat plasmid","GCF_022648125.1_ASM2264812v1",13,"E. faecium"
"repeat plasmid","GCF_023299325.1_ASM2329932v1",5,"E. faecium"
"repeat plasmid","GCF_023299725.1_ASM2329972v1",2,"E. faecium"
"repeat plasmid","GCF_023299745.1_ASM2329974v1",11,"E. faecium"
"repeat plasmid","GCF_907165365.1_USZ_VRE32_P32_hybrid_assembly",2,"E. faecium"
"repeat plasmid","GCF_907176135.1_USZ_VRE5_P5_hybrid_assembly",2,"E. faecium"
"repeat plasmid","GCF_907177285.1_USZ_VRE53_P46_hybrid_assembly",4,"E. faecium"
