GCF_028335445.1,GCF_028335445.1_bin_1,NZ_CP116560.1,49771,49771
GCF_906464865.1,GCF_906464865.1_bin_1,NZ_OD940421.1,55788,77979
GCF_906464865.1,GCF_906464865.1_bin_1,NZ_OD940420.1,26860,77979
GCF_013344605.1,GCF_013344605.1_bin_1,NZ_CP046109.1,72185,114285
GCF_013344605.1,GCF_013344605.1_bin_1,NZ_CP046110.1,50233,114285
GCF_013344605.1,GCF_013344605.1_bin_1,NZ_CP046108.1,7126,114285
GCF_028335685.1,GCF_028335685.1_bin_1,NZ_CP116565.1,48363,48363
GCF_028335685.1,GCF_028335685.1_bin_1,NZ_CP116564.1,2202,48363
GCF_028335685.1,GCF_028335685.1_bin_2,NZ_CP116565.1,19872,19872
GCF_023375245.1,GCF_023375245.1_bin_1,NZ_CP088199.1,57183,57183
GCF_030020575.1,GCF_030020575.1_bin_1,NZ_CP124912.1,55045,61052
GCF_030020575.1,GCF_030020575.1_bin_1,NZ_CP124911.1,7249,61052
GCF_030020475.1,GCF_030020475.1_bin_1,NZ_CP124896.1,40202,104911
GCF_030020475.1,GCF_030020475.1_bin_1,NZ_CP124895.1,69840,104911
GCF_030020475.1,GCF_030020475.1_bin_1,NZ_CP124894.1,2217,104911
GCF_030020475.1,GCF_030020475.1_bin_2,NZ_CP124897.1,5121,5121
GCF_020844125.1,GCF_020844125.1_bin_1,NZ_CP063980.1,7377,65096
GCF_020844125.1,GCF_020844125.1_bin_1,NZ_CP063981.1,65096,65096
GCF_020844125.1,GCF_020844125.1_bin_2,no_correct_alignments,0,0
GCF_906464915.2,GCF_906464915.2_bin_1,NZ_OU538996.1,58772,69788
GCF_906464915.2,GCF_906464915.2_bin_1,NZ_OD940440.2,13572,69788
GCF_030020175.1,GCF_030020175.1_bin_1,NZ_CP124885.1,65792,65792
GCF_023299465.1,GCF_023299465.1_bin_1,NZ_CP097007.1,57172,57172
GCF_028335665.1,GCF_028335665.1_bin_1,NZ_CP116554.1,57172,57172
GCF_906464875.1,GCF_906464875.1_bin_1,NZ_OD940439.1,21063,21063
GCF_023375465.1,GCF_023375465.1_bin_2,NZ_CP091230.1,3162,3162
GCF_023375465.1,GCF_023375465.1_bin_1,NZ_CP091228.1,84590,106057
GCF_023375465.1,GCF_023375465.1_bin_1,NZ_CP091229.1,23829,106057
GCF_023375465.1,GCF_023375465.1_bin_3,NZ_CP091230.1,3162,3162
GCF_028335725.1,GCF_028335725.1_bin_1,NZ_CP116568.1,59489,59489
GCF_028335725.1,GCF_028335725.1_bin_1,NZ_CP116567.1,7867,59489
GCF_028335725.1,GCF_028335725.1_bin_1,NZ_CP116566.1,1101,59489
GCF_028335725.1,GCF_028335725.1_bin_2,NZ_CP116567.1,22680,22680
GCF_028335725.1,GCF_028335725.1_bin_3,NZ_CP116567.1,35716,35716
GCF_030020535.1,GCF_030020535.1_bin_3,NZ_CP124904.1,9331,9331
GCF_030020535.1,GCF_030020535.1_bin_1,NZ_CP124902.1,78787,78787
GCF_030020535.1,GCF_030020535.1_bin_2,NZ_CP124903.1,13517,13517
GCF_023299585.1,GCF_023299585.1_bin_1,NZ_CP097071.1,3457,78966
GCF_023299585.1,GCF_023299585.1_bin_1,NZ_CP097070.1,75509,78966
GCF_023299585.1,GCF_023299585.1_bin_2,NZ_CP097069.1,13718,13718
GCF_023299585.1,GCF_023299585.1_bin_3,NZ_CP097070.1,5215,5215
GCF_023299545.1,GCF_023299545.1_bin_1,NZ_CP097057.1,72178,72178
GCF_023299545.1,GCF_023299545.1_bin_2,NZ_CP097058.1,59379,56387
GCF_023299545.1,GCF_023299545.1_bin_Unbinned,NZ_CP097056.1,78262,78262
GCF_022648595.1,GCF_022648595.1_bin_1,NZ_CP076500.1,52138,222981
GCF_022648595.1,GCF_022648595.1_bin_1,NZ_CP076501.1,39363,222981
GCF_022648595.1,GCF_022648595.1_bin_1,NZ_CP076499.1,107477,222981
GCF_022648595.1,GCF_022648595.1_bin_1,NZ_CP076502.1,30940,222981
GCF_022648595.1,GCF_022648595.1_bin_1,NZ_CP076498.1,9849,222981
GCF_028335545.1,GCF_028335545.1_bin_2,NZ_CP116563.1,57285,57285
GCF_028335545.1,GCF_028335545.1_bin_2,NZ_CP116562.1,5663,57285
GCF_028335545.1,GCF_028335545.1_bin_2,NZ_CP116561.1,1101,57285
GCF_028335545.1,GCF_028335545.1_bin_1,NZ_CP116562.1,66263,66263
GCF_028335545.1,GCF_028335545.1_bin_1,NZ_CP116563.1,7867,66263
GCF_028335545.1,GCF_028335545.1_bin_1,NZ_CP116561.1,1101,66263
GCF_023299685.1,GCF_023299685.1_bin_Unbinned,NZ_CP097048.1,24400,24400
GCF_023299685.1,GCF_023299685.1_bin_1,NZ_CP097049.1,53743,96115
GCF_023299685.1,GCF_023299685.1_bin_1,NZ_CP097050.1,42372,96115
GCF_030020615.1,GCF_030020615.1_bin_2,NZ_CP124910.1,69771,69771
GCF_030020615.1,GCF_030020615.1_bin_2,NZ_CP124909.1,5131,69771
GCF_030020615.1,GCF_030020615.1_bin_1,NZ_CP124909.1,96299,96299
GCF_030020615.1,GCF_030020615.1_bin_1,NZ_CP124910.1,5131,96299
GCF_030020615.1,GCF_030020615.1_bin_1,NZ_CP124908.1,2602,96299
GCF_028335505.1,GCF_028335505.1_bin_1,NZ_CP116558.1,53273,53273
GCF_028335505.1,GCF_028335505.1_bin_2,NZ_CP116558.1,3910,3910
GCF_906464895.1,GCF_906464895.1_bin_1,NZ_OD940424.1,19882,19882
GCF_906464895.1,GCF_906464895.1_bin_2,NZ_OD940423.1,58900,58857
GCF_906464895.1,GCF_906464895.1_bin_2,NZ_OD940424.1,1236,58857
GCF_023299705.1,GCF_023299705.1_bin_1,NZ_CP097043.1,38758,38758
GCF_030020665.1,GCF_030020665.1_bin_1,NZ_CP124917.1,61701,61701
GCF_023375485.1,GCF_023375485.1_bin_2,NZ_CP091234.1,3374,3374
GCF_023375485.1,GCF_023375485.1_bin_1,NZ_CP091231.1,57553,84161
GCF_023375485.1,GCF_023375485.1_bin_1,NZ_CP091232.1,37865,84161
GCF_023375485.1,GCF_023375485.1_bin_Unbinned,NZ_CP091231.1,2606,2606
GCF_022648285.1,GCF_022648285.1_bin_2,NZ_CP076489.1,48095,72042
GCF_022648285.1,GCF_022648285.1_bin_2,NZ_CP076492.1,30949,72042
GCF_022648285.1,GCF_022648285.1_bin_2,NZ_CP076488.1,7200,72042
GCF_022648285.1,GCF_022648285.1_bin_1,NZ_CP076490.1,52120,153998
GCF_022648285.1,GCF_022648285.1_bin_1,NZ_CP076491.1,38552,153998
GCF_022648285.1,GCF_022648285.1_bin_1,NZ_CP076488.1,10937,153998
GCF_022648285.1,GCF_022648285.1_bin_1,NZ_CP076489.1,64474,153998
GCF_022648285.1,GCF_022648285.1_bin_1,NZ_CP076492.1,1024,153998
GCF_030020725.1,GCF_030020725.1_bin_1,NZ_CP124919.1,85848,117918
GCF_030020725.1,GCF_030020725.1_bin_1,NZ_CP124920.1,43603,117918
GCF_028335425.1,GCF_028335425.1_bin_2,NZ_CP116556.1,3910,3910
GCF_028335425.1,GCF_028335425.1_bin_1,NZ_CP116556.1,53148,53148
GCF_023299645.1,GCF_023299645.1_bin_1,NZ_CP097009.1,67731,66386
GCF_028335705.1,GCF_028335705.1_bin_1,NZ_CP116577.1,36331,36331
GCF_028335705.1,GCF_028335705.1_bin_1,NZ_CP116575.1,4578,36331
GCF_028335705.1,GCF_028335705.1_bin_2,NZ_CP116576.1,32855,32855
GCF_028335705.1,GCF_028335705.1_bin_4,NZ_CP116578.1,6795,4847
GCF_028335705.1,GCF_028335705.1_bin_3,NZ_CP116578.1,7048,5100
GCF_030020745.1,GCF_030020745.1_bin_1,NZ_CP124915.1,52618,52618
GCF_021655635.1,GCF_021655635.1_bin_1,NZ_AP025272.1,57178,57178
GCF_021655635.1,GCF_021655635.1_bin_2,NZ_AP025272.1,55710,55710
GCF_022648425.1,GCF_022648425.1_bin_2,NZ_CP076494.1,39630,65612
GCF_022648425.1,GCF_022648425.1_bin_2,NZ_CP076497.1,30947,65612
GCF_022648425.1,GCF_022648425.1_bin_2,NZ_CP076493.1,7199,65612
GCF_022648425.1,GCF_022648425.1_bin_1,NZ_CP076495.1,52112,158393
GCF_022648425.1,GCF_022648425.1_bin_1,NZ_CP076496.1,39037,158393
GCF_022648425.1,GCF_022648425.1_bin_1,NZ_CP076494.1,68846,158393
GCF_022648425.1,GCF_022648425.1_bin_1,NZ_CP076493.1,10094,158393
GCF_022648425.1,GCF_022648425.1_bin_1,NZ_CP076497.1,1024,158393
GCF_023299525.1,GCF_023299525.1_bin_1,NZ_CP097003.1,71857,71857
GCF_023299225.1,GCF_023299225.1_bin_2,NZ_CP097068.1,2098,2098
GCF_023299225.1,GCF_023299225.1_bin_1,NZ_CP097067.1,7551,7551
GCF_023299225.1,GCF_023299225.1_bin_Unbinned,NZ_CP097066.1,78262,78262
GCF_030020155.1,GCF_030020155.1_bin_1,NZ_CP124888.1,67880,81869
GCF_030020155.1,GCF_030020155.1_bin_1,NZ_CP124887.1,15119,81869
GCF_030020155.1,GCF_030020155.1_bin_2,NZ_CP124887.1,15282,15282
GCF_030020255.1,GCF_030020255.1_bin_1,NZ_CP124892.1,84902,85028
GCF_030020255.1,GCF_030020255.1_bin_1,NZ_CP124891.1,3195,85028
GCF_023299425.1,GCF_023299425.1_bin_1,NZ_CP097012.1,55644,144324
GCF_023299425.1,GCF_023299425.1_bin_1,NZ_CP097011.1,94588,144324
GCF_023299425.1,GCF_023299425.1_bin_1,NZ_CP097010.1,1397,144324
GCF_906464835.1,GCF_906464835.1_bin_1,NZ_OD940432.1,72900,119483
GCF_906464835.1,GCF_906464835.1_bin_1,NZ_OD940433.1,48927,119483
GCF_906464835.1,GCF_906464835.1_bin_1,NZ_OD940431.1,14289,119483
GCF_023299505.1,GCF_023299505.1_bin_3,NZ_CP097034.1,11442,11442
GCF_023299505.1,GCF_023299505.1_bin_5,NZ_CP097037.1,11914,11914
GCF_023299505.1,GCF_023299505.1_bin_2,NZ_CP097037.1,27134,27134
GCF_023299505.1,GCF_023299505.1_bin_1,NZ_CP097036.1,49326,122378
GCF_023299505.1,GCF_023299505.1_bin_1,NZ_CP097035.1,73052,122378
GCF_023299505.1,GCF_023299505.1_bin_4,NZ_CP097037.1,15220,15220
GCF_023299625.1,GCF_023299625.1_bin_2,NZ_CP097040.1,32348,32418
GCF_023299625.1,GCF_023299625.1_bin_3,NZ_CP097041.1,3114,3114
GCF_023299625.1,GCF_023299625.1_bin_1,NZ_CP097039.1,53074,51062
GCF_906464925.1,GCF_906464925.1_bin_1,NZ_OD940435.1,64709,64710
GCF_906464925.1,GCF_906464925.1_bin_1,NZ_OD940434.1,6380,64710
GCF_030020595.1,GCF_030020595.1_bin_1,NZ_CP124907.1,76057,76057
GCF_023300025.1,GCF_023300025.1_bin_Unbinned,NZ_CP097031.1,257162,257246
GCF_023300025.1,GCF_023300025.1_bin_1,NZ_CP097032.1,39248,39248
GCF_023300025.1,GCF_023300025.1_bin_2,NZ_CP097033.1,57256,57256
GCF_030020685.1,GCF_030020685.1_bin_1,NZ_CP124922.1,65663,65663
GCF_028335345.1,GCF_028335345.1_bin_Unbinned,NZ_CP116572.1,52630,52630
GCF_028335345.1,GCF_028335345.1_bin_2,NZ_CP116574.1,5143,5143
GCF_028335345.1,GCF_028335345.1_bin_1,NZ_CP116573.1,35954,35954
GCF_023375265.1,GCF_023375265.1_bin_1,NZ_CP088202.1,29281,29299
GCF_023375265.1,GCF_023375265.1_bin_2,NZ_CP088201.1,38188,36208
GCF_023375265.1,GCF_023375265.1_bin_2,NZ_CP088200.1,4098,36208
GCF_023300165.1,GCF_023300165.1_bin_1,NZ_CP097060.1,63585,67389
GCF_023300165.1,GCF_023300165.1_bin_1,NZ_CP097059.1,9030,67389
GCF_023300165.1,GCF_023300165.1_bin_2,NZ_CP097059.1,27160,27160
GCF_023299485.1,GCF_023299485.1_bin_2,NZ_CP097005.1,3733,3733
GCF_023299485.1,GCF_023299485.1_bin_1,NZ_CP097004.1,22587,20921
GCF_030020705.1,GCF_030020705.1_bin_1,NZ_CP124924.1,53484,53484
GCF_023299605.1,GCF_023299605.1_bin_Unbinned,NZ_CP097020.1,78262,78262
GCF_023299605.1,GCF_023299605.1_bin_1,NZ_CP097021.1,11919,8927
GCF_023375545.1,GCF_023375545.1_bin_2,NZ_CP091237.1,15664,15664
GCF_023375545.1,GCF_023375545.1_bin_1,NZ_CP091238.1,66710,66710
GCF_023375545.1,GCF_023375545.1_bin_1,NZ_CP091237.1,1004,66710
GCF_023375545.1,GCF_023375545.1_bin_3,NZ_CP091239.1,5143,5143
GCF_018986755.2,GCF_018986755.2_bin_1,NZ_CP075607.1,42335,62319
GCF_018986755.2,GCF_018986755.2_bin_1,NZ_CP075608.1,19984,62319
GCF_018986755.2,GCF_018986755.2_bin_4,NZ_CP075606.1,65341,66645
GCF_018986755.2,GCF_018986755.2_bin_4,NZ_CP075604.2,17017,66645
GCF_018986755.2,GCF_018986755.2_bin_4,NZ_CP075605.1,3603,66645
GCF_018986755.2,GCF_018986755.2_bin_2,NZ_CP075605.1,19713,19713
GCF_018986755.2,GCF_018986755.2_bin_3,NZ_CP075605.1,51002,48600
GCF_018986755.2,GCF_018986755.2_bin_3,NZ_CP075604.2,38743,48600
GCF_018986755.2,GCF_018986755.2_bin_3,NZ_CP075606.1,1201,48600
GCF_018986755.2,GCF_018986755.2_bin_5,NZ_CP075609.1,4375,4375
GCF_018986755.2,GCF_018986755.2_bin_6,no_correct_alignments,0,0
GCF_023375525.1,GCF_023375525.1_bin_1,NZ_CP091236.1,13560,13560
