GCF_028335445.1,GCF_028335445.1_bin_1,0
GCF_906464865.1,GCF_906464865.1_bin_1,2
GCF_013344605.1,GCF_013344605.1_bin_1,3
GCF_028335685.1,GCF_028335685.1_bin_1,1
GCF_028335685.1,GCF_028335685.1_bin_2,0
GCF_023375245.1,GCF_023375245.1_bin_1,0
GCF_030020575.1,GCF_030020575.1_bin_1,1
GCF_030020475.1,GCF_030020475.1_bin_1,3
GCF_030020475.1,GCF_030020475.1_bin_2,0
GCF_020844125.1,GCF_020844125.1_bin_1,2
GCF_020844125.1,GCF_020844125.1_bin_2,0
GCF_906464915.2,GCF_906464915.2_bin_1,1
GCF_030020175.1,GCF_030020175.1_bin_1,0
GCF_023299465.1,GCF_023299465.1_bin_1,0
GCF_028335665.1,GCF_028335665.1_bin_1,0
GCF_906464875.1,GCF_906464875.1_bin_1,0
GCF_023375465.1,GCF_023375465.1_bin_2,0
GCF_023375465.1,GCF_023375465.1_bin_1,1
GCF_023375465.1,GCF_023375465.1_bin_3,0
GCF_028335725.1,GCF_028335725.1_bin_1,3
GCF_028335725.1,GCF_028335725.1_bin_2,0
GCF_028335725.1,GCF_028335725.1_bin_3,0
GCF_030020535.1,GCF_030020535.1_bin_3,0
GCF_030020535.1,GCF_030020535.1_bin_1,0
GCF_030020535.1,GCF_030020535.1_bin_2,0
GCF_023299585.1,GCF_023299585.1_bin_1,0
GCF_023299585.1,GCF_023299585.1_bin_2,0
GCF_023299585.1,GCF_023299585.1_bin_3,0
GCF_023299545.1,GCF_023299545.1_bin_1,0
GCF_023299545.1,GCF_023299545.1_bin_2,1
GCF_023299545.1,GCF_023299545.1_bin_Unbinned,0
GCF_022648595.1,GCF_022648595.1_bin_1,6
GCF_028335545.1,GCF_028335545.1_bin_2,2
GCF_028335545.1,GCF_028335545.1_bin_1,3
GCF_023299685.1,GCF_023299685.1_bin_Unbinned,0
GCF_023299685.1,GCF_023299685.1_bin_1,0
GCF_030020615.1,GCF_030020615.1_bin_2,2
GCF_030020615.1,GCF_030020615.1_bin_1,3
GCF_028335505.1,GCF_028335505.1_bin_1,0
GCF_028335505.1,GCF_028335505.1_bin_2,0
GCF_906464895.1,GCF_906464895.1_bin_1,0
GCF_906464895.1,GCF_906464895.1_bin_2,1
GCF_023299705.1,GCF_023299705.1_bin_1,0
GCF_030020665.1,GCF_030020665.1_bin_1,0
GCF_023375485.1,GCF_023375485.1_bin_2,0
GCF_023375485.1,GCF_023375485.1_bin_1,3
GCF_023375485.1,GCF_023375485.1_bin_Unbinned,0
GCF_022648285.1,GCF_022648285.1_bin_2,4
GCF_022648285.1,GCF_022648285.1_bin_1,5
GCF_030020725.1,GCF_030020725.1_bin_1,4
GCF_028335425.1,GCF_028335425.1_bin_2,0
GCF_028335425.1,GCF_028335425.1_bin_1,0
GCF_023299645.1,GCF_023299645.1_bin_1,1
GCF_028335705.1,GCF_028335705.1_bin_1,1
GCF_028335705.1,GCF_028335705.1_bin_2,0
GCF_028335705.1,GCF_028335705.1_bin_4,1
GCF_028335705.1,GCF_028335705.1_bin_3,1
GCF_030020745.1,GCF_030020745.1_bin_1,0
GCF_021655635.1,GCF_021655635.1_bin_1,0
GCF_021655635.1,GCF_021655635.1_bin_2,0
GCF_022648425.1,GCF_022648425.1_bin_2,3
GCF_022648425.1,GCF_022648425.1_bin_1,5
GCF_023299525.1,GCF_023299525.1_bin_1,0
GCF_023299225.1,GCF_023299225.1_bin_2,0
GCF_023299225.1,GCF_023299225.1_bin_1,0
GCF_023299225.1,GCF_023299225.1_bin_Unbinned,0
GCF_030020155.1,GCF_030020155.1_bin_1,1
GCF_030020155.1,GCF_030020155.1_bin_2,0
GCF_030020255.1,GCF_030020255.1_bin_1,1
GCF_023299425.1,GCF_023299425.1_bin_1,4
GCF_906464835.1,GCF_906464835.1_bin_1,4
GCF_023299505.1,GCF_023299505.1_bin_3,0
GCF_023299505.1,GCF_023299505.1_bin_5,0
GCF_023299505.1,GCF_023299505.1_bin_2,0
GCF_023299505.1,GCF_023299505.1_bin_1,0
GCF_023299505.1,GCF_023299505.1_bin_4,0
GCF_023299625.1,GCF_023299625.1_bin_2,0
GCF_023299625.1,GCF_023299625.1_bin_3,0
GCF_023299625.1,GCF_023299625.1_bin_1,1
GCF_906464925.1,GCF_906464925.1_bin_1,1
GCF_030020595.1,GCF_030020595.1_bin_1,0
GCF_023300025.1,GCF_023300025.1_bin_Unbinned,0
GCF_023300025.1,GCF_023300025.1_bin_1,0
GCF_023300025.1,GCF_023300025.1_bin_2,0
GCF_030020685.1,GCF_030020685.1_bin_1,0
GCF_028335345.1,GCF_028335345.1_bin_Unbinned,0
GCF_028335345.1,GCF_028335345.1_bin_2,0
GCF_028335345.1,GCF_028335345.1_bin_1,0
GCF_023375265.1,GCF_023375265.1_bin_1,0
GCF_023375265.1,GCF_023375265.1_bin_2,2
GCF_023300165.1,GCF_023300165.1_bin_1,2
GCF_023300165.1,GCF_023300165.1_bin_2,0
GCF_023299485.1,GCF_023299485.1_bin_2,0
GCF_023299485.1,GCF_023299485.1_bin_1,1
GCF_030020705.1,GCF_030020705.1_bin_1,0
GCF_023299605.1,GCF_023299605.1_bin_Unbinned,0
GCF_023299605.1,GCF_023299605.1_bin_1,1
GCF_023375545.1,GCF_023375545.1_bin_2,0
GCF_023375545.1,GCF_023375545.1_bin_1,1
GCF_023375545.1,GCF_023375545.1_bin_3,0
GCF_018986755.2,GCF_018986755.2_bin_1,0
GCF_018986755.2,GCF_018986755.2_bin_4,2
GCF_018986755.2,GCF_018986755.2_bin_2,0
GCF_018986755.2,GCF_018986755.2_bin_3,3
GCF_018986755.2,GCF_018986755.2_bin_5,0
GCF_018986755.2,GCF_018986755.2_bin_6,0
GCF_023375525.1,GCF_023375525.1_bin_1,0
