GCF_009938285.1
GCF_015325925.1
GCF_015476295.1
GCF_015999405.1
GCF_015999425.1
GCF_015999605.1
GCF_016126675.1
GCF_016406345.1
GCF_016406365.1
GCF_016406385.1
GCF_016406405.1
GCF_016406425.1
GCF_016406445.1
GCF_016406465.1
GCF_016406485.1
GCF_016406505.1
GCF_016406525.1
GCF_016406545.1
GCF_016406565.1
GCF_016406585.1
GCF_016406605.1
GCF_016415325.1
GCF_016415365.1
GCF_016415385.1
GCF_016415405.1
GCF_016415425.1
GCF_016415445.1
GCF_016415465.1
GCF_016415485.1
GCF_016415505.1
GCF_016415545.1
GCF_016415565.1
GCF_017584065.1
GCF_019175425.1
GCF_019175445.1
GCF_019175465.1
GCF_019175525.1
GCF_019456555.1
GCF_019456575.1
GCF_019456595.1
GCF_019977495.1
GCF_019977575.1
GCF_020162155.1
GCF_020162175.1
GCF_021228615.1
GCF_021398505.1
GCF_022647825.1
GCF_022647945.1
GCF_022648125.1
GCF_023299325.1
GCF_023299725.1
GCF_023299745.1
GCF_023299805.1
GCF_023375205.1
GCF_023375225.1
GCF_023375345.1
GCF_023375365.1
GCF_023375385.1
GCF_023375405.1
GCF_023375425.1
GCF_023375445.1
GCF_026409165.1
GCF_028335205.1
GCF_028335225.1
GCF_028335245.1
GCF_028335265.1
GCF_028335465.1
GCF_028335485.1
GCF_028335525.1
GCF_028335565.1
GCF_028335585.1
GCF_028335605.1
GCF_028335625.1
GCF_907165365.1
GCF_907176135.1
GCF_907176815.1
GCF_907177285.1
SRR13308467
