GCF_009938285.1_ASM993828v1
GCF_015325925.1_ASM1532592v1
GCF_015476295.1_ASM1547629v1
GCF_015999405.1_ASM1599940v1
GCF_015999425.1_ASM1599942v1
GCF_015999605.1_ASM1599960v1
GCF_016126675.1_ASM1612667v1
GCF_016406345.1_ASM1640634v1
GCF_016406365.1_ASM1640636v1
GCF_016406385.1_ASM1640638v1
GCF_016406405.1_ASM1640640v1
GCF_016406425.1_ASM1640642v1
GCF_016406445.1_ASM1640644v1
GCF_016406465.1_ASM1640646v1
GCF_016406485.1_ASM1640648v1
GCF_016406505.1_ASM1640650v1
GCF_016406525.1_ASM1640652v1
GCF_016406545.1_ASM1640654v1
GCF_016406565.1_ASM1640656v1
GCF_016406585.1_ASM1640658v1
GCF_016406605.1_ASM1640660v1
GCF_016415325.1_ASM1641532v1
GCF_016415365.1_ASM1641536v1
GCF_016415385.1_ASM1641538v1
GCF_016415405.1_ASM1641540v1
GCF_016415425.1_ASM1641542v1
GCF_016415445.1_ASM1641544v1
GCF_016415465.1_ASM1641546v1
GCF_016415485.1_ASM1641548v1
GCF_016415505.1_ASM1641550v1
GCF_016415545.1_ASM1641554v1
GCF_016415565.1_ASM1641556v1
GCF_017584065.1_ASM1758406v1
GCF_019175425.1_ASM1917542v1
GCF_019175445.1_ASM1917544v1
GCF_019175465.1_ASM1917546v1
GCF_019175525.1_ASM1917552v1
GCF_019456555.1_ASM1945655v1
GCF_019456575.1_ASM1945657v1
GCF_019456595.1_ASM1945659v1
GCF_019977495.1_ASM1997749v1
GCF_019977575.1_ASM1997757v1
GCF_020162155.1_ASM2016215v1
GCF_020162175.1_ASM2016217v1
GCF_021228615.1_ASM2122861v1
GCF_021398505.1_ASM2139850v1
GCF_022647825.1_ASM2264782v1
GCF_022647945.1_ASM2264794v1
GCF_022648125.1_ASM2264812v1
GCF_023299325.1_ASM2329932v1
GCF_023299725.1_ASM2329972v1
GCF_023299745.1_ASM2329974v1
GCF_023299805.1_ASM2329980v1
GCF_023375205.1_ASM2337520v1
GCF_023375225.1_ASM2337522v1
GCF_023375345.1_ASM2337534v1
GCF_023375365.1_ASM2337536v1
GCF_023375385.1_ASM2337538v1
GCF_023375405.1_ASM2337540v1
GCF_023375425.1_ASM2337542v1
GCF_023375445.1_ASM2337544v1
GCF_026409165.1_ASM2640916v1
GCF_028335205.1_ASM2833520v1
GCF_028335225.1_ASM2833522v1
GCF_028335245.1_ASM2833524v1
GCF_028335265.1_ASM2833526v1
GCF_028335465.1_ASM2833546v1
GCF_028335485.1_ASM2833548v1
GCF_028335525.1_ASM2833552v1
GCF_028335565.1_ASM2833556v1
GCF_028335585.1_ASM2833558v1
GCF_028335605.1_ASM2833560v1
GCF_028335625.1_ASM2833562v1
GCF_907165365.1_USZ_VRE32_P32_hybrid_assembly
GCF_907176135.1_USZ_VRE5_P5_hybrid_assembly
GCF_907176815.1_USZ_VRE67_P60_hybrid_assembly
GCF_907177285.1_USZ_VRE53_P46_hybrid_assembly
