<?xml version='1.0' encoding='UTF-8' ?>
<svg xmlns='http://www.w3.org/2000/svg' xmlns:xlink='http://www.w3.org/1999/xlink' class='svglite' width='504.00pt' height='360.00pt' viewBox='0 0 504.00 360.00'>
<defs>
  <style type='text/css'><![CDATA[
    .svglite line, .svglite polyline, .svglite polygon, .svglite path, .svglite rect, .svglite circle {
      fill: none;
      stroke: #000000;
      stroke-linecap: round;
      stroke-linejoin: round;
      stroke-miterlimit: 10.00;
    }
    .svglite text {
      white-space: pre;
    }
  ]]></style>
</defs>
<rect width='100%' height='100%' style='stroke: none; fill: #FFFFFF;'/>
<defs>
  <clipPath id='cpMC4wMHw1MDQuMDB8MC4wMHwzNjAuMDA='>
    <rect x='0.00' y='0.00' width='504.00' height='360.00' />
  </clipPath>
</defs>
<g clip-path='url(#cpMC4wMHw1MDQuMDB8MC4wMHwzNjAuMDA=)'>
</g>
<defs>
  <clipPath id='cpMC4wMHw1MDQuMDB8MC4wMHw5MC4wMA=='>
    <rect x='0.00' y='0.00' width='504.00' height='90.00' />
  </clipPath>
</defs>
<g clip-path='url(#cpMC4wMHw1MDQuMDB8MC4wMHw5MC4wMA==)'>
<rect x='0.00' y='0.00' width='504.00' height='90.00' style='stroke-width: 1.07; stroke: #FFFFFF; fill: #FFFFFF;' />
</g>
<g clip-path='url(#cpMC4wMHw1MDQuMDB8MC4wMHwzNjAuMDA=)'>
</g>
<defs>
  <clipPath id='cpMzkuNjV8NDk4LjUyfDUuNDh8NzAuNjM='>
    <rect x='39.65' y='5.48' width='458.87' height='65.15' />
  </clipPath>
</defs>
<g clip-path='url(#cpMzkuNjV8NDk4LjUyfDUuNDh8NzAuNjM=)'>
<rect x='39.65' y='5.48' width='458.87' height='65.15' style='stroke-width: 1.07; stroke: none; fill: #FFFFFF;' />
<polyline points='39.65,59.06 498.52,59.06 ' style='stroke-width: 0.53; stroke: #EBEBEB; stroke-linecap: butt;' />
<polyline points='39.65,41.84 498.52,41.84 ' style='stroke-width: 0.53; stroke: #EBEBEB; stroke-linecap: butt;' />
<polyline points='39.65,24.63 498.52,24.63 ' style='stroke-width: 0.53; stroke: #EBEBEB; stroke-linecap: butt;' />
<polyline points='39.65,7.41 498.52,7.41 ' style='stroke-width: 0.53; stroke: #EBEBEB; stroke-linecap: butt;' />
<polyline points='39.65,67.67 498.52,67.67 ' style='stroke-width: 1.07; stroke: #EBEBEB; stroke-linecap: butt;' />
<polyline points='39.65,50.45 498.52,50.45 ' style='stroke-width: 1.07; stroke: #EBEBEB; stroke-linecap: butt;' />
<polyline points='39.65,33.23 498.52,33.23 ' style='stroke-width: 1.07; stroke: #EBEBEB; stroke-linecap: butt;' />
<polyline points='39.65,16.02 498.52,16.02 ' style='stroke-width: 1.07; stroke: #EBEBEB; stroke-linecap: butt;' />
<polyline points='125.69,70.63 125.69,5.48 ' style='stroke-width: 1.07; stroke: #EBEBEB; stroke-linecap: butt;' />
<polyline points='269.09,70.63 269.09,5.48 ' style='stroke-width: 1.07; stroke: #EBEBEB; stroke-linecap: butt;' />
<polyline points='412.48,70.63 412.48,5.48 ' style='stroke-width: 1.07; stroke: #EBEBEB; stroke-linecap: butt;' />
<rect x='61.16' y='38.06' width='129.06' height='29.61' style='stroke-width: 1.07; stroke: none; stroke-linecap: butt; stroke-linejoin: miter; fill: #00FF93;' />
<rect x='204.56' y='16.71' width='129.06' height='50.96' style='stroke-width: 1.07; stroke: none; stroke-linecap: butt; stroke-linejoin: miter; fill: #FFC300;' />
<rect x='347.95' y='8.44' width='129.06' height='59.23' style='stroke-width: 1.07; stroke: none; stroke-linecap: butt; stroke-linejoin: miter; fill: #F11212;' />
<rect x='39.65' y='5.48' width='458.87' height='65.15' style='stroke-width: 1.07; stroke: #333333;' />
</g>
<g clip-path='url(#cpMC4wMHw1MDQuMDB8MC4wMHwzNjAuMDA=)'>
<text x='34.72' y='71.98' text-anchor='end' style='font-size: 12.00px;fill: #4D4D4D; font-family: "Arial";' textLength='6.67px' lengthAdjust='spacingAndGlyphs'>0</text>
<text x='34.72' y='54.76' text-anchor='end' style='font-size: 12.00px;fill: #4D4D4D; font-family: "Arial";' textLength='13.35px' lengthAdjust='spacingAndGlyphs'>25</text>
<text x='34.72' y='37.54' text-anchor='end' style='font-size: 12.00px;fill: #4D4D4D; font-family: "Arial";' textLength='13.35px' lengthAdjust='spacingAndGlyphs'>50</text>
<text x='34.72' y='20.32' text-anchor='end' style='font-size: 12.00px;fill: #4D4D4D; font-family: "Arial";' textLength='13.35px' lengthAdjust='spacingAndGlyphs'>75</text>
<polyline points='36.91,67.67 39.65,67.67 ' style='stroke-width: 1.07; stroke: #333333; stroke-linecap: butt;' />
<polyline points='36.91,50.45 39.65,50.45 ' style='stroke-width: 1.07; stroke: #333333; stroke-linecap: butt;' />
<polyline points='36.91,33.23 39.65,33.23 ' style='stroke-width: 1.07; stroke: #333333; stroke-linecap: butt;' />
<polyline points='36.91,16.02 39.65,16.02 ' style='stroke-width: 1.07; stroke: #333333; stroke-linecap: butt;' />
<polyline points='125.69,73.37 125.69,70.63 ' style='stroke-width: 1.07; stroke: #333333; stroke-linecap: butt;' />
<polyline points='269.09,73.37 269.09,70.63 ' style='stroke-width: 1.07; stroke: #333333; stroke-linecap: butt;' />
<polyline points='412.48,73.37 412.48,70.63 ' style='stroke-width: 1.07; stroke: #333333; stroke-linecap: butt;' />
<text transform='translate(126.20,76.07) rotate(-45)' text-anchor='end' style='font-size: 0.00px;fill: #4D4D4D; font-family: "Arial";' textLength='2.94px' lengthAdjust='spacingAndGlyphs'>gplas2</text>
<text transform='translate(269.60,76.07) rotate(-45)' text-anchor='end' style='font-size: 0.00px;fill: #4D4D4D; font-family: "Arial";' textLength='4.72px' lengthAdjust='spacingAndGlyphs'>MOB-suite</text>
<text transform='translate(412.99,76.07) rotate(-45)' text-anchor='end' style='font-size: 0.00px;fill: #4D4D4D; font-family: "Arial";' textLength='7.06px' lengthAdjust='spacingAndGlyphs'>plasmidSPAdes</text>
<text x='269.09' y='84.52' text-anchor='middle' style='font-size: 0.00px; font-weight: bold; font-family: "Arial";' textLength='4.22px' lengthAdjust='spacingAndGlyphs'>Software</text>
<text transform='translate(15.55,38.06) rotate(-90)' text-anchor='middle' style='font-size: 14.00px; font-weight: bold; font-family: "Arial";' textLength='244.14px' lengthAdjust='spacingAndGlyphs'>Number of contaminated predictions</text>
</g>
<defs>
  <clipPath id='cpMC4wMHw1MDQuMDB8OTAuMDB8MzYwLjAw'>
    <rect x='0.00' y='90.00' width='504.00' height='270.00' />
  </clipPath>
</defs>
<g clip-path='url(#cpMC4wMHw1MDQuMDB8OTAuMDB8MzYwLjAw)'>
<rect x='0.00' y='90.00' width='504.00' height='270.00' style='stroke-width: 1.07; stroke: #FFFFFF; fill: #FFFFFF;' />
</g>
<g clip-path='url(#cpMC4wMHw1MDQuMDB8MC4wMHwzNjAuMDA=)'>
</g>
<defs>
  <clipPath id='cpNjAuMDF8NDk4LjUyfDEzNC42OHwzMjguMjA='>
    <rect x='60.01' y='134.68' width='438.51' height='193.52' />
  </clipPath>
</defs>
<g clip-path='url(#cpNjAuMDF8NDk4LjUyfDEzNC42OHwzMjguMjA=)'>
<rect x='60.01' y='134.68' width='438.51' height='193.52' style='stroke-width: 1.07; stroke: none; fill: #FFFFFF;' />
<polyline points='60.01,288.62 498.52,288.62 ' style='stroke-width: 0.53; stroke: #EBEBEB; stroke-linecap: butt;' />
<polyline points='60.01,226.43 498.52,226.43 ' style='stroke-width: 0.53; stroke: #EBEBEB; stroke-linecap: butt;' />
<polyline points='60.01,164.25 498.52,164.25 ' style='stroke-width: 0.53; stroke: #EBEBEB; stroke-linecap: butt;' />
<polyline points='60.01,319.71 498.52,319.71 ' style='stroke-width: 1.07; stroke: #EBEBEB; stroke-linecap: butt;' />
<polyline points='60.01,257.53 498.52,257.53 ' style='stroke-width: 1.07; stroke: #EBEBEB; stroke-linecap: butt;' />
<polyline points='60.01,195.34 498.52,195.34 ' style='stroke-width: 1.07; stroke: #EBEBEB; stroke-linecap: butt;' />
<polyline points='142.23,328.20 142.23,134.68 ' style='stroke-width: 1.07; stroke: #EBEBEB; stroke-linecap: butt;' />
<polyline points='279.26,328.20 279.26,134.68 ' style='stroke-width: 1.07; stroke: #EBEBEB; stroke-linecap: butt;' />
<polyline points='416.30,328.20 416.30,134.68 ' style='stroke-width: 1.07; stroke: #EBEBEB; stroke-linecap: butt;' />
<circle cx='142.23' cy='306.75' r='1.95' style='stroke-width: 0.71; stroke: #333333; fill: #333333;' />
<circle cx='142.23' cy='306.75' r='1.95' style='stroke-width: 0.71; stroke: #333333; fill: #333333;' />
<circle cx='142.23' cy='306.75' r='1.95' style='stroke-width: 0.71; stroke: #333333; fill: #333333;' />
<circle cx='142.23' cy='265.96' r='1.95' style='stroke-width: 0.71; stroke: #333333; fill: #333333;' />
<circle cx='142.23' cy='314.30' r='1.95' style='stroke-width: 0.71; stroke: #333333; fill: #333333;' />
<circle cx='142.23' cy='294.61' r='1.95' style='stroke-width: 0.71; stroke: #333333; fill: #333333;' />
<circle cx='142.23' cy='282.04' r='1.95' style='stroke-width: 0.71; stroke: #333333; fill: #333333;' />
<line x1='142.23' y1='317.70' x2='142.23' y2='316.23' style='stroke-width: 1.07; stroke: #333333; stroke-linecap: butt;' />
<line x1='142.23' y1='319.18' x2='142.23' y2='319.40' style='stroke-width: 1.07; stroke: #333333; stroke-linecap: butt;' />
<polygon points='90.84,317.70 90.84,319.18 193.62,319.18 193.62,317.70 90.84,317.70 ' style='stroke-width: 1.07; stroke: #333333; stroke-linecap: butt; stroke-linejoin: miter; fill: #FFFFFF;' />
<line x1='90.84' y1='319.05' x2='193.62' y2='319.05' style='stroke-width: 2.13; stroke: #333333; stroke-linecap: butt; stroke-linejoin: miter;' />
<circle cx='279.26' cy='297.77' r='1.95' style='stroke-width: 0.71; stroke: #333333; fill: #333333;' />
<circle cx='279.26' cy='294.61' r='1.95' style='stroke-width: 0.71; stroke: #333333; fill: #333333;' />
<circle cx='279.26' cy='282.04' r='1.95' style='stroke-width: 0.71; stroke: #333333; fill: #333333;' />
<line x1='279.26' y1='313.66' x2='279.26' y2='306.97' style='stroke-width: 1.07; stroke: #333333; stroke-linecap: butt;' />
<line x1='279.26' y1='319.13' x2='279.26' y2='319.40' style='stroke-width: 1.07; stroke: #333333; stroke-linecap: butt;' />
<polygon points='227.88,313.66 227.88,319.13 330.65,319.13 330.65,313.66 227.88,313.66 ' style='stroke-width: 1.07; stroke: #333333; stroke-linecap: butt; stroke-linejoin: miter; fill: #FFFFFF;' />
<line x1='227.88' y1='317.88' x2='330.65' y2='317.88' style='stroke-width: 2.13; stroke: #333333; stroke-linecap: butt; stroke-linejoin: miter;' />
<circle cx='416.30' cy='211.58' r='1.95' style='stroke-width: 0.71; stroke: #333333; fill: #333333;' />
<circle cx='416.30' cy='254.74' r='1.95' style='stroke-width: 0.71; stroke: #333333; fill: #333333;' />
<circle cx='416.30' cy='252.82' r='1.95' style='stroke-width: 0.71; stroke: #333333; fill: #333333;' />
<circle cx='416.30' cy='143.47' r='1.95' style='stroke-width: 0.71; stroke: #333333; fill: #333333;' />
<circle cx='416.30' cy='210.45' r='1.95' style='stroke-width: 0.71; stroke: #333333; fill: #333333;' />
<circle cx='416.30' cy='212.91' r='1.95' style='stroke-width: 0.71; stroke: #333333; fill: #333333;' />
<circle cx='416.30' cy='276.58' r='1.95' style='stroke-width: 0.71; stroke: #333333; fill: #333333;' />
<circle cx='416.30' cy='169.92' r='1.95' style='stroke-width: 0.71; stroke: #333333; fill: #333333;' />
<circle cx='416.30' cy='168.67' r='1.95' style='stroke-width: 0.71; stroke: #333333; fill: #333333;' />
<circle cx='416.30' cy='289.07' r='1.95' style='stroke-width: 0.71; stroke: #333333; fill: #333333;' />
<line x1='416.30' y1='309.02' x2='416.30' y2='300.38' style='stroke-width: 1.07; stroke: #333333; stroke-linecap: butt;' />
<line x1='416.30' y1='316.22' x2='416.30' y2='319.40' style='stroke-width: 1.07; stroke: #333333; stroke-linecap: butt;' />
<polygon points='364.91,309.02 364.91,316.22 467.69,316.22 467.69,309.02 364.91,309.02 ' style='stroke-width: 1.07; stroke: #333333; stroke-linecap: butt; stroke-linejoin: miter; fill: #FFFFFF;' />
<line x1='364.91' y1='314.02' x2='467.69' y2='314.02' style='stroke-width: 2.13; stroke: #333333; stroke-linecap: butt; stroke-linejoin: miter;' />
<circle cx='184.62' cy='319.37' r='1.95' style='stroke-width: 0.71; stroke: #00FF93; stroke-opacity: 0.30; fill: #00FF93; fill-opacity: 0.30;' />
<circle cx='112.68' cy='319.39' r='1.95' style='stroke-width: 0.71; stroke: #00FF93; stroke-opacity: 0.30; fill: #00FF93; fill-opacity: 0.30;' />
<circle cx='190.86' cy='306.75' r='1.95' style='stroke-width: 0.71; stroke: #00FF93; stroke-opacity: 0.30; fill: #00FF93; fill-opacity: 0.30;' />
<circle cx='144.88' cy='319.39' r='1.95' style='stroke-width: 0.71; stroke: #00FF93; stroke-opacity: 0.30; fill: #00FF93; fill-opacity: 0.30;' />
<circle cx='193.23' cy='306.75' r='1.95' style='stroke-width: 0.71; stroke: #00FF93; stroke-opacity: 0.30; fill: #00FF93; fill-opacity: 0.30;' />
<circle cx='105.60' cy='318.28' r='1.95' style='stroke-width: 0.71; stroke: #00FF93; stroke-opacity: 0.30; fill: #00FF93; fill-opacity: 0.30;' />
<circle cx='89.62' cy='318.74' r='1.95' style='stroke-width: 0.71; stroke: #00FF93; stroke-opacity: 0.30; fill: #00FF93; fill-opacity: 0.30;' />
<circle cx='107.63' cy='317.64' r='1.95' style='stroke-width: 0.71; stroke: #00FF93; stroke-opacity: 0.30; fill: #00FF93; fill-opacity: 0.30;' />
<circle cx='117.57' cy='319.39' r='1.95' style='stroke-width: 0.71; stroke: #00FF93; stroke-opacity: 0.30; fill: #00FF93; fill-opacity: 0.30;' />
<circle cx='139.68' cy='306.75' r='1.95' style='stroke-width: 0.71; stroke: #00FF93; stroke-opacity: 0.30; fill: #00FF93; fill-opacity: 0.30;' />
<circle cx='139.70' cy='319.10' r='1.95' style='stroke-width: 0.71; stroke: #00FF93; stroke-opacity: 0.30; fill: #00FF93; fill-opacity: 0.30;' />
<circle cx='160.10' cy='319.11' r='1.95' style='stroke-width: 0.71; stroke: #00FF93; stroke-opacity: 0.30; fill: #00FF93; fill-opacity: 0.30;' />
<circle cx='150.20' cy='318.74' r='1.95' style='stroke-width: 0.71; stroke: #00FF93; stroke-opacity: 0.30; fill: #00FF93; fill-opacity: 0.30;' />
<circle cx='140.62' cy='319.04' r='1.95' style='stroke-width: 0.71; stroke: #00FF93; stroke-opacity: 0.30; fill: #00FF93; fill-opacity: 0.30;' />
<circle cx='106.66' cy='317.77' r='1.95' style='stroke-width: 0.71; stroke: #00FF93; stroke-opacity: 0.30; fill: #00FF93; fill-opacity: 0.30;' />
<circle cx='127.34' cy='319.17' r='1.95' style='stroke-width: 0.71; stroke: #00FF93; stroke-opacity: 0.30; fill: #00FF93; fill-opacity: 0.30;' />
<circle cx='162.15' cy='319.39' r='1.95' style='stroke-width: 0.71; stroke: #00FF93; stroke-opacity: 0.30; fill: #00FF93; fill-opacity: 0.30;' />
<circle cx='107.14' cy='265.96' r='1.95' style='stroke-width: 0.71; stroke: #00FF93; stroke-opacity: 0.30; fill: #00FF93; fill-opacity: 0.30;' />
<circle cx='189.18' cy='319.11' r='1.95' style='stroke-width: 0.71; stroke: #00FF93; stroke-opacity: 0.30; fill: #00FF93; fill-opacity: 0.30;' />
<circle cx='172.43' cy='319.39' r='1.95' style='stroke-width: 0.71; stroke: #00FF93; stroke-opacity: 0.30; fill: #00FF93; fill-opacity: 0.30;' />
<circle cx='107.63' cy='319.05' r='1.95' style='stroke-width: 0.71; stroke: #00FF93; stroke-opacity: 0.30; fill: #00FF93; fill-opacity: 0.30;' />
<circle cx='119.79' cy='319.05' r='1.95' style='stroke-width: 0.71; stroke: #00FF93; stroke-opacity: 0.30; fill: #00FF93; fill-opacity: 0.30;' />
<circle cx='147.07' cy='319.05' r='1.95' style='stroke-width: 0.71; stroke: #00FF93; stroke-opacity: 0.30; fill: #00FF93; fill-opacity: 0.30;' />
<circle cx='151.79' cy='319.05' r='1.95' style='stroke-width: 0.71; stroke: #00FF93; stroke-opacity: 0.30; fill: #00FF93; fill-opacity: 0.30;' />
<circle cx='118.48' cy='319.40' r='1.95' style='stroke-width: 0.71; stroke: #00FF93; stroke-opacity: 0.30; fill: #00FF93; fill-opacity: 0.30;' />
<circle cx='189.91' cy='319.39' r='1.95' style='stroke-width: 0.71; stroke: #00FF93; stroke-opacity: 0.30; fill: #00FF93; fill-opacity: 0.30;' />
<circle cx='111.73' cy='317.84' r='1.95' style='stroke-width: 0.71; stroke: #00FF93; stroke-opacity: 0.30; fill: #00FF93; fill-opacity: 0.30;' />
<circle cx='96.34' cy='318.95' r='1.95' style='stroke-width: 0.71; stroke: #00FF93; stroke-opacity: 0.30; fill: #00FF93; fill-opacity: 0.30;' />
<circle cx='186.10' cy='319.18' r='1.95' style='stroke-width: 0.71; stroke: #00FF93; stroke-opacity: 0.30; fill: #00FF93; fill-opacity: 0.30;' />
<circle cx='184.79' cy='314.30' r='1.95' style='stroke-width: 0.71; stroke: #00FF93; stroke-opacity: 0.30; fill: #00FF93; fill-opacity: 0.30;' />
<circle cx='118.01' cy='319.11' r='1.95' style='stroke-width: 0.71; stroke: #00FF93; stroke-opacity: 0.30; fill: #00FF93; fill-opacity: 0.30;' />
<circle cx='106.02' cy='317.51' r='1.95' style='stroke-width: 0.71; stroke: #00FF93; stroke-opacity: 0.30; fill: #00FF93; fill-opacity: 0.30;' />
<circle cx='159.42' cy='318.13' r='1.95' style='stroke-width: 0.71; stroke: #00FF93; stroke-opacity: 0.30; fill: #00FF93; fill-opacity: 0.30;' />
<circle cx='126.56' cy='319.20' r='1.95' style='stroke-width: 0.71; stroke: #00FF93; stroke-opacity: 0.30; fill: #00FF93; fill-opacity: 0.30;' />
<circle cx='105.02' cy='318.96' r='1.95' style='stroke-width: 0.71; stroke: #00FF93; stroke-opacity: 0.30; fill: #00FF93; fill-opacity: 0.30;' />
<circle cx='142.01' cy='316.23' r='1.95' style='stroke-width: 0.71; stroke: #00FF93; stroke-opacity: 0.30; fill: #00FF93; fill-opacity: 0.30;' />
<circle cx='151.68' cy='318.13' r='1.95' style='stroke-width: 0.71; stroke: #00FF93; stroke-opacity: 0.30; fill: #00FF93; fill-opacity: 0.30;' />
<circle cx='117.41' cy='319.37' r='1.95' style='stroke-width: 0.71; stroke: #00FF93; stroke-opacity: 0.30; fill: #00FF93; fill-opacity: 0.30;' />
<circle cx='101.99' cy='316.74' r='1.95' style='stroke-width: 0.71; stroke: #00FF93; stroke-opacity: 0.30; fill: #00FF93; fill-opacity: 0.30;' />
<circle cx='112.21' cy='319.05' r='1.95' style='stroke-width: 0.71; stroke: #00FF93; stroke-opacity: 0.30; fill: #00FF93; fill-opacity: 0.30;' />
<circle cx='99.40' cy='294.61' r='1.95' style='stroke-width: 0.71; stroke: #00FF93; stroke-opacity: 0.30; fill: #00FF93; fill-opacity: 0.30;' />
<circle cx='114.92' cy='319.05' r='1.95' style='stroke-width: 0.71; stroke: #00FF93; stroke-opacity: 0.30; fill: #00FF93; fill-opacity: 0.30;' />
<circle cx='116.37' cy='282.04' r='1.95' style='stroke-width: 0.71; stroke: #00FF93; stroke-opacity: 0.30; fill: #00FF93; fill-opacity: 0.30;' />
<circle cx='266.07' cy='312.96' r='1.95' style='stroke-width: 0.71; stroke: #FFC300; stroke-opacity: 0.30; fill: #FFC300; fill-opacity: 0.30;' />
<circle cx='299.26' cy='313.13' r='1.95' style='stroke-width: 0.71; stroke: #FFC300; stroke-opacity: 0.30; fill: #FFC300; fill-opacity: 0.30;' />
<circle cx='319.55' cy='319.39' r='1.95' style='stroke-width: 0.71; stroke: #FFC300; stroke-opacity: 0.30; fill: #FFC300; fill-opacity: 0.30;' />
<circle cx='260.27' cy='319.12' r='1.95' style='stroke-width: 0.71; stroke: #FFC300; stroke-opacity: 0.30; fill: #FFC300; fill-opacity: 0.30;' />
<circle cx='231.02' cy='312.80' r='1.95' style='stroke-width: 0.71; stroke: #FFC300; stroke-opacity: 0.30; fill: #FFC300; fill-opacity: 0.30;' />
<circle cx='331.00' cy='316.05' r='1.95' style='stroke-width: 0.71; stroke: #FFC300; stroke-opacity: 0.30; fill: #FFC300; fill-opacity: 0.30;' />
<circle cx='269.41' cy='317.64' r='1.95' style='stroke-width: 0.71; stroke: #FFC300; stroke-opacity: 0.30; fill: #FFC300; fill-opacity: 0.30;' />
<circle cx='282.11' cy='319.39' r='1.95' style='stroke-width: 0.71; stroke: #FFC300; stroke-opacity: 0.30; fill: #FFC300; fill-opacity: 0.30;' />
<circle cx='257.30' cy='319.05' r='1.95' style='stroke-width: 0.71; stroke: #FFC300; stroke-opacity: 0.30; fill: #FFC300; fill-opacity: 0.30;' />
<circle cx='256.72' cy='319.39' r='1.95' style='stroke-width: 0.71; stroke: #FFC300; stroke-opacity: 0.30; fill: #FFC300; fill-opacity: 0.30;' />
<circle cx='319.46' cy='319.34' r='1.95' style='stroke-width: 0.71; stroke: #FFC300; stroke-opacity: 0.30; fill: #FFC300; fill-opacity: 0.30;' />
<circle cx='325.25' cy='319.39' r='1.95' style='stroke-width: 0.71; stroke: #FFC300; stroke-opacity: 0.30; fill: #FFC300; fill-opacity: 0.30;' />
<circle cx='236.34' cy='314.18' r='1.95' style='stroke-width: 0.71; stroke: #FFC300; stroke-opacity: 0.30; fill: #FFC300; fill-opacity: 0.30;' />
<circle cx='228.69' cy='317.38' r='1.95' style='stroke-width: 0.71; stroke: #FFC300; stroke-opacity: 0.30; fill: #FFC300; fill-opacity: 0.30;' />
<circle cx='283.47' cy='318.31' r='1.95' style='stroke-width: 0.71; stroke: #FFC300; stroke-opacity: 0.30; fill: #FFC300; fill-opacity: 0.30;' />
<circle cx='235.13' cy='312.20' r='1.95' style='stroke-width: 0.71; stroke: #FFC300; stroke-opacity: 0.30; fill: #FFC300; fill-opacity: 0.30;' />
<circle cx='254.34' cy='318.35' r='1.95' style='stroke-width: 0.71; stroke: #FFC300; stroke-opacity: 0.30; fill: #FFC300; fill-opacity: 0.30;' />
<circle cx='283.47' cy='313.33' r='1.95' style='stroke-width: 0.71; stroke: #FFC300; stroke-opacity: 0.30; fill: #FFC300; fill-opacity: 0.30;' />
<circle cx='248.76' cy='319.05' r='1.95' style='stroke-width: 0.71; stroke: #FFC300; stroke-opacity: 0.30; fill: #FFC300; fill-opacity: 0.30;' />
<circle cx='298.13' cy='317.93' r='1.95' style='stroke-width: 0.71; stroke: #FFC300; stroke-opacity: 0.30; fill: #FFC300; fill-opacity: 0.30;' />
<circle cx='308.47' cy='319.39' r='1.95' style='stroke-width: 0.71; stroke: #FFC300; stroke-opacity: 0.30; fill: #FFC300; fill-opacity: 0.30;' />
<circle cx='243.40' cy='319.40' r='1.95' style='stroke-width: 0.71; stroke: #FFC300; stroke-opacity: 0.30; fill: #FFC300; fill-opacity: 0.30;' />
<circle cx='316.43' cy='317.83' r='1.95' style='stroke-width: 0.71; stroke: #FFC300; stroke-opacity: 0.30; fill: #FFC300; fill-opacity: 0.30;' />
<circle cx='288.04' cy='319.11' r='1.95' style='stroke-width: 0.71; stroke: #FFC300; stroke-opacity: 0.30; fill: #FFC300; fill-opacity: 0.30;' />
<circle cx='232.92' cy='319.39' r='1.95' style='stroke-width: 0.71; stroke: #FFC300; stroke-opacity: 0.30; fill: #FFC300; fill-opacity: 0.30;' />
<circle cx='273.47' cy='316.38' r='1.95' style='stroke-width: 0.71; stroke: #FFC300; stroke-opacity: 0.30; fill: #FFC300; fill-opacity: 0.30;' />
<circle cx='241.80' cy='319.38' r='1.95' style='stroke-width: 0.71; stroke: #FFC300; stroke-opacity: 0.30; fill: #FFC300; fill-opacity: 0.30;' />
<circle cx='310.27' cy='319.14' r='1.95' style='stroke-width: 0.71; stroke: #FFC300; stroke-opacity: 0.30; fill: #FFC300; fill-opacity: 0.30;' />
<circle cx='265.49' cy='319.39' r='1.95' style='stroke-width: 0.71; stroke: #FFC300; stroke-opacity: 0.30; fill: #FFC300; fill-opacity: 0.30;' />
<circle cx='251.30' cy='314.15' r='1.95' style='stroke-width: 0.71; stroke: #FFC300; stroke-opacity: 0.30; fill: #FFC300; fill-opacity: 0.30;' />
<circle cx='274.05' cy='319.18' r='1.95' style='stroke-width: 0.71; stroke: #FFC300; stroke-opacity: 0.30; fill: #FFC300; fill-opacity: 0.30;' />
<circle cx='260.00' cy='319.24' r='1.95' style='stroke-width: 0.71; stroke: #FFC300; stroke-opacity: 0.30; fill: #FFC300; fill-opacity: 0.30;' />
<circle cx='256.12' cy='318.68' r='1.95' style='stroke-width: 0.71; stroke: #FFC300; stroke-opacity: 0.30; fill: #FFC300; fill-opacity: 0.30;' />
<circle cx='281.06' cy='314.15' r='1.95' style='stroke-width: 0.71; stroke: #FFC300; stroke-opacity: 0.30; fill: #FFC300; fill-opacity: 0.30;' />
<circle cx='283.09' cy='312.20' r='1.95' style='stroke-width: 0.71; stroke: #FFC300; stroke-opacity: 0.30; fill: #FFC300; fill-opacity: 0.30;' />
<circle cx='314.80' cy='319.04' r='1.95' style='stroke-width: 0.71; stroke: #FFC300; stroke-opacity: 0.30; fill: #FFC300; fill-opacity: 0.30;' />
<circle cx='317.10' cy='319.37' r='1.95' style='stroke-width: 0.71; stroke: #FFC300; stroke-opacity: 0.30; fill: #FFC300; fill-opacity: 0.30;' />
<circle cx='327.11' cy='318.58' r='1.95' style='stroke-width: 0.71; stroke: #FFC300; stroke-opacity: 0.30; fill: #FFC300; fill-opacity: 0.30;' />
<circle cx='284.91' cy='313.56' r='1.95' style='stroke-width: 0.71; stroke: #FFC300; stroke-opacity: 0.30; fill: #FFC300; fill-opacity: 0.30;' />
<circle cx='230.90' cy='306.97' r='1.95' style='stroke-width: 0.71; stroke: #FFC300; stroke-opacity: 0.30; fill: #FFC300; fill-opacity: 0.30;' />
<circle cx='302.88' cy='314.16' r='1.95' style='stroke-width: 0.71; stroke: #FFC300; stroke-opacity: 0.30; fill: #FFC300; fill-opacity: 0.30;' />
<circle cx='323.21' cy='317.75' r='1.95' style='stroke-width: 0.71; stroke: #FFC300; stroke-opacity: 0.30; fill: #FFC300; fill-opacity: 0.30;' />
<circle cx='314.77' cy='319.40' r='1.95' style='stroke-width: 0.71; stroke: #FFC300; stroke-opacity: 0.30; fill: #FFC300; fill-opacity: 0.30;' />
<circle cx='331.40' cy='319.32' r='1.95' style='stroke-width: 0.71; stroke: #FFC300; stroke-opacity: 0.30; fill: #FFC300; fill-opacity: 0.30;' />
<circle cx='281.76' cy='312.32' r='1.95' style='stroke-width: 0.71; stroke: #FFC300; stroke-opacity: 0.30; fill: #FFC300; fill-opacity: 0.30;' />
<circle cx='305.27' cy='318.96' r='1.95' style='stroke-width: 0.71; stroke: #FFC300; stroke-opacity: 0.30; fill: #FFC300; fill-opacity: 0.30;' />
<circle cx='245.79' cy='311.72' r='1.95' style='stroke-width: 0.71; stroke: #FFC300; stroke-opacity: 0.30; fill: #FFC300; fill-opacity: 0.30;' />
<circle cx='332.70' cy='318.68' r='1.95' style='stroke-width: 0.71; stroke: #FFC300; stroke-opacity: 0.30; fill: #FFC300; fill-opacity: 0.30;' />
<circle cx='331.92' cy='313.67' r='1.95' style='stroke-width: 0.71; stroke: #FFC300; stroke-opacity: 0.30; fill: #FFC300; fill-opacity: 0.30;' />
<circle cx='309.71' cy='297.77' r='1.95' style='stroke-width: 0.71; stroke: #FFC300; stroke-opacity: 0.30; fill: #FFC300; fill-opacity: 0.30;' />
<circle cx='264.42' cy='311.96' r='1.95' style='stroke-width: 0.71; stroke: #FFC300; stroke-opacity: 0.30; fill: #FFC300; fill-opacity: 0.30;' />
<circle cx='273.68' cy='316.38' r='1.95' style='stroke-width: 0.71; stroke: #FFC300; stroke-opacity: 0.30; fill: #FFC300; fill-opacity: 0.30;' />
<circle cx='254.48' cy='319.05' r='1.95' style='stroke-width: 0.71; stroke: #FFC300; stroke-opacity: 0.30; fill: #FFC300; fill-opacity: 0.30;' />
<circle cx='233.65' cy='319.31' r='1.95' style='stroke-width: 0.71; stroke: #FFC300; stroke-opacity: 0.30; fill: #FFC300; fill-opacity: 0.30;' />
<circle cx='226.82' cy='312.20' r='1.95' style='stroke-width: 0.71; stroke: #FFC300; stroke-opacity: 0.30; fill: #FFC300; fill-opacity: 0.30;' />
<circle cx='240.68' cy='317.59' r='1.95' style='stroke-width: 0.71; stroke: #FFC300; stroke-opacity: 0.30; fill: #FFC300; fill-opacity: 0.30;' />
<circle cx='248.40' cy='318.86' r='1.95' style='stroke-width: 0.71; stroke: #FFC300; stroke-opacity: 0.30; fill: #FFC300; fill-opacity: 0.30;' />
<circle cx='270.18' cy='319.39' r='1.95' style='stroke-width: 0.71; stroke: #FFC300; stroke-opacity: 0.30; fill: #FFC300; fill-opacity: 0.30;' />
<circle cx='317.42' cy='313.66' r='1.95' style='stroke-width: 0.71; stroke: #FFC300; stroke-opacity: 0.30; fill: #FFC300; fill-opacity: 0.30;' />
<circle cx='308.15' cy='312.25' r='1.95' style='stroke-width: 0.71; stroke: #FFC300; stroke-opacity: 0.30; fill: #FFC300; fill-opacity: 0.30;' />
<circle cx='319.40' cy='319.11' r='1.95' style='stroke-width: 0.71; stroke: #FFC300; stroke-opacity: 0.30; fill: #FFC300; fill-opacity: 0.30;' />
<circle cx='238.91' cy='316.76' r='1.95' style='stroke-width: 0.71; stroke: #FFC300; stroke-opacity: 0.30; fill: #FFC300; fill-opacity: 0.30;' />
<circle cx='270.81' cy='314.62' r='1.95' style='stroke-width: 0.71; stroke: #FFC300; stroke-opacity: 0.30; fill: #FFC300; fill-opacity: 0.30;' />
<circle cx='308.88' cy='318.72' r='1.95' style='stroke-width: 0.71; stroke: #FFC300; stroke-opacity: 0.30; fill: #FFC300; fill-opacity: 0.30;' />
<circle cx='252.71' cy='319.11' r='1.95' style='stroke-width: 0.71; stroke: #FFC300; stroke-opacity: 0.30; fill: #FFC300; fill-opacity: 0.30;' />
<circle cx='269.13' cy='315.38' r='1.95' style='stroke-width: 0.71; stroke: #FFC300; stroke-opacity: 0.30; fill: #FFC300; fill-opacity: 0.30;' />
<circle cx='246.48' cy='294.61' r='1.95' style='stroke-width: 0.71; stroke: #FFC300; stroke-opacity: 0.30; fill: #FFC300; fill-opacity: 0.30;' />
<circle cx='277.96' cy='319.20' r='1.95' style='stroke-width: 0.71; stroke: #FFC300; stroke-opacity: 0.30; fill: #FFC300; fill-opacity: 0.30;' />
<circle cx='286.15' cy='316.15' r='1.95' style='stroke-width: 0.71; stroke: #FFC300; stroke-opacity: 0.30; fill: #FFC300; fill-opacity: 0.30;' />
<circle cx='250.19' cy='282.04' r='1.95' style='stroke-width: 0.71; stroke: #FFC300; stroke-opacity: 0.30; fill: #FFC300; fill-opacity: 0.30;' />
<circle cx='226.16' cy='311.96' r='1.95' style='stroke-width: 0.71; stroke: #FFC300; stroke-opacity: 0.30; fill: #FFC300; fill-opacity: 0.30;' />
<circle cx='302.61' cy='319.05' r='1.95' style='stroke-width: 0.71; stroke: #FFC300; stroke-opacity: 0.30; fill: #FFC300; fill-opacity: 0.30;' />
<circle cx='272.57' cy='316.38' r='1.95' style='stroke-width: 0.71; stroke: #FFC300; stroke-opacity: 0.30; fill: #FFC300; fill-opacity: 0.30;' />
<circle cx='275.67' cy='308.99' r='1.95' style='stroke-width: 0.71; stroke: #FFC300; stroke-opacity: 0.30; fill: #FFC300; fill-opacity: 0.30;' />
<circle cx='400.00' cy='316.47' r='1.95' style='stroke-width: 0.71; stroke: #F11212; stroke-opacity: 0.30; fill: #F11212; fill-opacity: 0.30;' />
<circle cx='465.84' cy='310.12' r='1.95' style='stroke-width: 0.71; stroke: #F11212; stroke-opacity: 0.30; fill: #F11212; fill-opacity: 0.30;' />
<circle cx='468.00' cy='312.66' r='1.95' style='stroke-width: 0.71; stroke: #F11212; stroke-opacity: 0.30; fill: #F11212; fill-opacity: 0.30;' />
<circle cx='451.41' cy='315.50' r='1.95' style='stroke-width: 0.71; stroke: #F11212; stroke-opacity: 0.30; fill: #F11212; fill-opacity: 0.30;' />
<circle cx='467.49' cy='309.77' r='1.95' style='stroke-width: 0.71; stroke: #F11212; stroke-opacity: 0.30; fill: #F11212; fill-opacity: 0.30;' />
<circle cx='455.17' cy='314.49' r='1.95' style='stroke-width: 0.71; stroke: #F11212; stroke-opacity: 0.30; fill: #F11212; fill-opacity: 0.30;' />
<circle cx='399.65' cy='316.14' r='1.95' style='stroke-width: 0.71; stroke: #F11212; stroke-opacity: 0.30; fill: #F11212; fill-opacity: 0.30;' />
<circle cx='420.14' cy='211.58' r='1.95' style='stroke-width: 0.71; stroke: #F11212; stroke-opacity: 0.30; fill: #F11212; fill-opacity: 0.30;' />
<circle cx='378.97' cy='316.21' r='1.95' style='stroke-width: 0.71; stroke: #F11212; stroke-opacity: 0.30; fill: #F11212; fill-opacity: 0.30;' />
<circle cx='418.08' cy='254.74' r='1.95' style='stroke-width: 0.71; stroke: #F11212; stroke-opacity: 0.30; fill: #F11212; fill-opacity: 0.30;' />
<circle cx='407.08' cy='315.33' r='1.95' style='stroke-width: 0.71; stroke: #F11212; stroke-opacity: 0.30; fill: #F11212; fill-opacity: 0.30;' />
<circle cx='370.33' cy='308.87' r='1.95' style='stroke-width: 0.71; stroke: #F11212; stroke-opacity: 0.30; fill: #F11212; fill-opacity: 0.30;' />
<circle cx='390.16' cy='313.94' r='1.95' style='stroke-width: 0.71; stroke: #F11212; stroke-opacity: 0.30; fill: #F11212; fill-opacity: 0.30;' />
<circle cx='419.51' cy='316.95' r='1.95' style='stroke-width: 0.71; stroke: #F11212; stroke-opacity: 0.30; fill: #F11212; fill-opacity: 0.30;' />
<circle cx='441.43' cy='319.24' r='1.95' style='stroke-width: 0.71; stroke: #F11212; stroke-opacity: 0.30; fill: #F11212; fill-opacity: 0.30;' />
<circle cx='362.74' cy='311.08' r='1.95' style='stroke-width: 0.71; stroke: #F11212; stroke-opacity: 0.30; fill: #F11212; fill-opacity: 0.30;' />
<circle cx='389.34' cy='315.53' r='1.95' style='stroke-width: 0.71; stroke: #F11212; stroke-opacity: 0.30; fill: #F11212; fill-opacity: 0.30;' />
<circle cx='427.91' cy='312.30' r='1.95' style='stroke-width: 0.71; stroke: #F11212; stroke-opacity: 0.30; fill: #F11212; fill-opacity: 0.30;' />
<circle cx='394.06' cy='311.33' r='1.95' style='stroke-width: 0.71; stroke: #F11212; stroke-opacity: 0.30; fill: #F11212; fill-opacity: 0.30;' />
<circle cx='451.36' cy='312.43' r='1.95' style='stroke-width: 0.71; stroke: #F11212; stroke-opacity: 0.30; fill: #F11212; fill-opacity: 0.30;' />
<circle cx='467.83' cy='315.38' r='1.95' style='stroke-width: 0.71; stroke: #F11212; stroke-opacity: 0.30; fill: #F11212; fill-opacity: 0.30;' />
<circle cx='395.56' cy='315.55' r='1.95' style='stroke-width: 0.71; stroke: #F11212; stroke-opacity: 0.30; fill: #F11212; fill-opacity: 0.30;' />
<circle cx='449.45' cy='309.62' r='1.95' style='stroke-width: 0.71; stroke: #F11212; stroke-opacity: 0.30; fill: #F11212; fill-opacity: 0.30;' />
<circle cx='407.43' cy='313.03' r='1.95' style='stroke-width: 0.71; stroke: #F11212; stroke-opacity: 0.30; fill: #F11212; fill-opacity: 0.30;' />
<circle cx='384.74' cy='316.63' r='1.95' style='stroke-width: 0.71; stroke: #F11212; stroke-opacity: 0.30; fill: #F11212; fill-opacity: 0.30;' />
<circle cx='421.26' cy='315.72' r='1.95' style='stroke-width: 0.71; stroke: #F11212; stroke-opacity: 0.30; fill: #F11212; fill-opacity: 0.30;' />
<circle cx='441.97' cy='314.34' r='1.95' style='stroke-width: 0.71; stroke: #F11212; stroke-opacity: 0.30; fill: #F11212; fill-opacity: 0.30;' />
<circle cx='438.63' cy='316.51' r='1.95' style='stroke-width: 0.71; stroke: #F11212; stroke-opacity: 0.30; fill: #F11212; fill-opacity: 0.30;' />
<circle cx='414.75' cy='319.24' r='1.95' style='stroke-width: 0.71; stroke: #F11212; stroke-opacity: 0.30; fill: #F11212; fill-opacity: 0.30;' />
<circle cx='440.73' cy='318.75' r='1.95' style='stroke-width: 0.71; stroke: #F11212; stroke-opacity: 0.30; fill: #F11212; fill-opacity: 0.30;' />
<circle cx='429.13' cy='306.93' r='1.95' style='stroke-width: 0.71; stroke: #F11212; stroke-opacity: 0.30; fill: #F11212; fill-opacity: 0.30;' />
<circle cx='456.61' cy='319.05' r='1.95' style='stroke-width: 0.71; stroke: #F11212; stroke-opacity: 0.30; fill: #F11212; fill-opacity: 0.30;' />
<circle cx='368.20' cy='252.82' r='1.95' style='stroke-width: 0.71; stroke: #F11212; stroke-opacity: 0.30; fill: #F11212; fill-opacity: 0.30;' />
<circle cx='467.46' cy='143.47' r='1.95' style='stroke-width: 0.71; stroke: #F11212; stroke-opacity: 0.30; fill: #F11212; fill-opacity: 0.30;' />
<circle cx='379.85' cy='318.78' r='1.95' style='stroke-width: 0.71; stroke: #F11212; stroke-opacity: 0.30; fill: #F11212; fill-opacity: 0.30;' />
<circle cx='457.46' cy='313.50' r='1.95' style='stroke-width: 0.71; stroke: #F11212; stroke-opacity: 0.30; fill: #F11212; fill-opacity: 0.30;' />
<circle cx='457.43' cy='315.20' r='1.95' style='stroke-width: 0.71; stroke: #F11212; stroke-opacity: 0.30; fill: #F11212; fill-opacity: 0.30;' />
<circle cx='363.68' cy='316.64' r='1.95' style='stroke-width: 0.71; stroke: #F11212; stroke-opacity: 0.30; fill: #F11212; fill-opacity: 0.30;' />
<circle cx='457.66' cy='313.52' r='1.95' style='stroke-width: 0.71; stroke: #F11212; stroke-opacity: 0.30; fill: #F11212; fill-opacity: 0.30;' />
<circle cx='428.66' cy='314.09' r='1.95' style='stroke-width: 0.71; stroke: #F11212; stroke-opacity: 0.30; fill: #F11212; fill-opacity: 0.30;' />
<circle cx='405.19' cy='316.06' r='1.95' style='stroke-width: 0.71; stroke: #F11212; stroke-opacity: 0.30; fill: #F11212; fill-opacity: 0.30;' />
<circle cx='387.10' cy='306.93' r='1.95' style='stroke-width: 0.71; stroke: #F11212; stroke-opacity: 0.30; fill: #F11212; fill-opacity: 0.30;' />
<circle cx='374.21' cy='316.22' r='1.95' style='stroke-width: 0.71; stroke: #F11212; stroke-opacity: 0.30; fill: #F11212; fill-opacity: 0.30;' />
<circle cx='423.00' cy='306.94' r='1.95' style='stroke-width: 0.71; stroke: #F11212; stroke-opacity: 0.30; fill: #F11212; fill-opacity: 0.30;' />
<circle cx='455.99' cy='313.03' r='1.95' style='stroke-width: 0.71; stroke: #F11212; stroke-opacity: 0.30; fill: #F11212; fill-opacity: 0.30;' />
<circle cx='404.00' cy='319.40' r='1.95' style='stroke-width: 0.71; stroke: #F11212; stroke-opacity: 0.30; fill: #F11212; fill-opacity: 0.30;' />
<circle cx='430.41' cy='314.56' r='1.95' style='stroke-width: 0.71; stroke: #F11212; stroke-opacity: 0.30; fill: #F11212; fill-opacity: 0.30;' />
<circle cx='374.33' cy='307.99' r='1.95' style='stroke-width: 0.71; stroke: #F11212; stroke-opacity: 0.30; fill: #F11212; fill-opacity: 0.30;' />
<circle cx='374.61' cy='300.38' r='1.95' style='stroke-width: 0.71; stroke: #F11212; stroke-opacity: 0.30; fill: #F11212; fill-opacity: 0.30;' />
<circle cx='374.32' cy='210.45' r='1.95' style='stroke-width: 0.71; stroke: #F11212; stroke-opacity: 0.30; fill: #F11212; fill-opacity: 0.30;' />
<circle cx='428.52' cy='307.59' r='1.95' style='stroke-width: 0.71; stroke: #F11212; stroke-opacity: 0.30; fill: #F11212; fill-opacity: 0.30;' />
<circle cx='431.35' cy='316.23' r='1.95' style='stroke-width: 0.71; stroke: #F11212; stroke-opacity: 0.30; fill: #F11212; fill-opacity: 0.30;' />
<circle cx='394.99' cy='212.91' r='1.95' style='stroke-width: 0.71; stroke: #F11212; stroke-opacity: 0.30; fill: #F11212; fill-opacity: 0.30;' />
<circle cx='391.34' cy='314.88' r='1.95' style='stroke-width: 0.71; stroke: #F11212; stroke-opacity: 0.30; fill: #F11212; fill-opacity: 0.30;' />
<circle cx='416.70' cy='312.00' r='1.95' style='stroke-width: 0.71; stroke: #F11212; stroke-opacity: 0.30; fill: #F11212; fill-opacity: 0.30;' />
<circle cx='428.89' cy='316.38' r='1.95' style='stroke-width: 0.71; stroke: #F11212; stroke-opacity: 0.30; fill: #F11212; fill-opacity: 0.30;' />
<circle cx='428.27' cy='316.92' r='1.95' style='stroke-width: 0.71; stroke: #F11212; stroke-opacity: 0.30; fill: #F11212; fill-opacity: 0.30;' />
<circle cx='363.78' cy='312.08' r='1.95' style='stroke-width: 0.71; stroke: #F11212; stroke-opacity: 0.30; fill: #F11212; fill-opacity: 0.30;' />
<circle cx='419.47' cy='318.70' r='1.95' style='stroke-width: 0.71; stroke: #F11212; stroke-opacity: 0.30; fill: #F11212; fill-opacity: 0.30;' />
<circle cx='437.02' cy='317.22' r='1.95' style='stroke-width: 0.71; stroke: #F11212; stroke-opacity: 0.30; fill: #F11212; fill-opacity: 0.30;' />
<circle cx='368.46' cy='307.16' r='1.95' style='stroke-width: 0.71; stroke: #F11212; stroke-opacity: 0.30; fill: #F11212; fill-opacity: 0.30;' />
<circle cx='374.22' cy='314.86' r='1.95' style='stroke-width: 0.71; stroke: #F11212; stroke-opacity: 0.30; fill: #F11212; fill-opacity: 0.30;' />
<circle cx='381.47' cy='308.76' r='1.95' style='stroke-width: 0.71; stroke: #F11212; stroke-opacity: 0.30; fill: #F11212; fill-opacity: 0.30;' />
<circle cx='364.54' cy='314.86' r='1.95' style='stroke-width: 0.71; stroke: #F11212; stroke-opacity: 0.30; fill: #F11212; fill-opacity: 0.30;' />
<circle cx='437.06' cy='276.58' r='1.95' style='stroke-width: 0.71; stroke: #F11212; stroke-opacity: 0.30; fill: #F11212; fill-opacity: 0.30;' />
<circle cx='375.31' cy='313.63' r='1.95' style='stroke-width: 0.71; stroke: #F11212; stroke-opacity: 0.30; fill: #F11212; fill-opacity: 0.30;' />
<circle cx='439.85' cy='319.38' r='1.95' style='stroke-width: 0.71; stroke: #F11212; stroke-opacity: 0.30; fill: #F11212; fill-opacity: 0.30;' />
<circle cx='380.42' cy='169.92' r='1.95' style='stroke-width: 0.71; stroke: #F11212; stroke-opacity: 0.30; fill: #F11212; fill-opacity: 0.30;' />
<circle cx='462.46' cy='168.67' r='1.95' style='stroke-width: 0.71; stroke: #F11212; stroke-opacity: 0.30; fill: #F11212; fill-opacity: 0.30;' />
<circle cx='442.41' cy='316.67' r='1.95' style='stroke-width: 0.71; stroke: #F11212; stroke-opacity: 0.30; fill: #F11212; fill-opacity: 0.30;' />
<circle cx='400.22' cy='311.99' r='1.95' style='stroke-width: 0.71; stroke: #F11212; stroke-opacity: 0.30; fill: #F11212; fill-opacity: 0.30;' />
<circle cx='402.63' cy='307.03' r='1.95' style='stroke-width: 0.71; stroke: #F11212; stroke-opacity: 0.30; fill: #F11212; fill-opacity: 0.30;' />
<circle cx='363.80' cy='319.17' r='1.95' style='stroke-width: 0.71; stroke: #F11212; stroke-opacity: 0.30; fill: #F11212; fill-opacity: 0.30;' />
<circle cx='407.33' cy='308.07' r='1.95' style='stroke-width: 0.71; stroke: #F11212; stroke-opacity: 0.30; fill: #F11212; fill-opacity: 0.30;' />
<circle cx='445.56' cy='313.31' r='1.95' style='stroke-width: 0.71; stroke: #F11212; stroke-opacity: 0.30; fill: #F11212; fill-opacity: 0.30;' />
<circle cx='363.50' cy='307.15' r='1.95' style='stroke-width: 0.71; stroke: #F11212; stroke-opacity: 0.30; fill: #F11212; fill-opacity: 0.30;' />
<circle cx='391.23' cy='316.51' r='1.95' style='stroke-width: 0.71; stroke: #F11212; stroke-opacity: 0.30; fill: #F11212; fill-opacity: 0.30;' />
<circle cx='447.72' cy='314.88' r='1.95' style='stroke-width: 0.71; stroke: #F11212; stroke-opacity: 0.30; fill: #F11212; fill-opacity: 0.30;' />
<circle cx='465.68' cy='315.87' r='1.95' style='stroke-width: 0.71; stroke: #F11212; stroke-opacity: 0.30; fill: #F11212; fill-opacity: 0.30;' />
<circle cx='438.65' cy='309.47' r='1.95' style='stroke-width: 0.71; stroke: #F11212; stroke-opacity: 0.30; fill: #F11212; fill-opacity: 0.30;' />
<circle cx='405.47' cy='319.18' r='1.95' style='stroke-width: 0.71; stroke: #F11212; stroke-opacity: 0.30; fill: #F11212; fill-opacity: 0.30;' />
<circle cx='457.45' cy='312.40' r='1.95' style='stroke-width: 0.71; stroke: #F11212; stroke-opacity: 0.30; fill: #F11212; fill-opacity: 0.30;' />
<circle cx='431.14' cy='289.07' r='1.95' style='stroke-width: 0.71; stroke: #F11212; stroke-opacity: 0.30; fill: #F11212; fill-opacity: 0.30;' />
<circle cx='420.17' cy='314.88' r='1.95' style='stroke-width: 0.71; stroke: #F11212; stroke-opacity: 0.30; fill: #F11212; fill-opacity: 0.30;' />
<circle cx='453.10' cy='310.25' r='1.95' style='stroke-width: 0.71; stroke: #F11212; stroke-opacity: 0.30; fill: #F11212; fill-opacity: 0.30;' />
<circle cx='433.83' cy='315.93' r='1.95' style='stroke-width: 0.71; stroke: #F11212; stroke-opacity: 0.30; fill: #F11212; fill-opacity: 0.30;' />
<rect x='60.01' y='134.68' width='438.51' height='193.52' style='stroke-width: 1.07; stroke: #333333;' />
</g>
<g clip-path='url(#cpMC4wMHw1MDQuMDB8MC4wMHwzNjAuMDA=)'>
<text x='55.08' y='324.02' text-anchor='end' style='font-size: 12.00px;fill: #4D4D4D; font-family: "Arial";' textLength='33.70px' lengthAdjust='spacingAndGlyphs'>0e+00</text>
<text x='55.08' y='261.83' text-anchor='end' style='font-size: 12.00px;fill: #4D4D4D; font-family: "Arial";' textLength='33.70px' lengthAdjust='spacingAndGlyphs'>2e+05</text>
<text x='55.08' y='199.65' text-anchor='end' style='font-size: 12.00px;fill: #4D4D4D; font-family: "Arial";' textLength='33.70px' lengthAdjust='spacingAndGlyphs'>4e+05</text>
<polyline points='57.27,319.71 60.01,319.71 ' style='stroke-width: 1.07; stroke: #333333; stroke-linecap: butt;' />
<polyline points='57.27,257.53 60.01,257.53 ' style='stroke-width: 1.07; stroke: #333333; stroke-linecap: butt;' />
<polyline points='57.27,195.34 60.01,195.34 ' style='stroke-width: 1.07; stroke: #333333; stroke-linecap: butt;' />
<polyline points='142.23,330.94 142.23,328.20 ' style='stroke-width: 1.07; stroke: #333333; stroke-linecap: butt;' />
<polyline points='279.26,330.94 279.26,328.20 ' style='stroke-width: 1.07; stroke: #333333; stroke-linecap: butt;' />
<polyline points='416.30,330.94 416.30,328.20 ' style='stroke-width: 1.07; stroke: #333333; stroke-linecap: butt;' />
<text transform='translate(142.74,333.64) rotate(-45)' text-anchor='end' style='font-size: 0.00px;fill: #4D4D4D; font-family: "Arial";' textLength='2.94px' lengthAdjust='spacingAndGlyphs'>gplas2</text>
<text transform='translate(279.77,333.64) rotate(-45)' text-anchor='end' style='font-size: 0.00px;fill: #4D4D4D; font-family: "Arial";' textLength='4.72px' lengthAdjust='spacingAndGlyphs'>MOB-suite</text>
<text transform='translate(416.81,333.64) rotate(-45)' text-anchor='end' style='font-size: 0.00px;fill: #4D4D4D; font-family: "Arial";' textLength='7.06px' lengthAdjust='spacingAndGlyphs'>plasmidSPAdes</text>
<text x='279.26' y='351.44' text-anchor='middle' style='font-size: 14.00px; font-weight: bold; font-family: "Arial";' textLength='59.10px' lengthAdjust='spacingAndGlyphs'>Software</text>
<text transform='translate(15.55,231.44) rotate(-90)' text-anchor='middle' style='font-size: 14.00px; font-weight: bold; font-family: "Arial";' textLength='189.72px' lengthAdjust='spacingAndGlyphs'>Chromosome contamination</text>
<rect x='143.86' y='95.48' width='270.81' height='28.24' style='stroke-width: 1.07; stroke: none; fill: #FFFFFF;' />
<text x='149.34' y='109.96' style='font-size: 0.00px; font-family: "Arial";' textLength='3.77px' lengthAdjust='spacingAndGlyphs'>software</text>
<rect x='149.34' y='100.96' width='17.28' height='17.28' style='stroke-width: 1.07; stroke: none; fill: #FFFFFF;' />
<circle cx='157.98' cy='109.60' r='1.95' style='stroke-width: 0.71; stroke: #00FF93; stroke-opacity: 0.30; fill: #00FF93; fill-opacity: 0.30;' />
<rect x='207.86' y='100.96' width='17.28' height='17.28' style='stroke-width: 1.07; stroke: none; fill: #FFFFFF;' />
<circle cx='216.50' cy='109.60' r='1.95' style='stroke-width: 0.71; stroke: #FFC300; stroke-opacity: 0.30; fill: #FFC300; fill-opacity: 0.30;' />
<rect x='294.78' y='100.96' width='17.28' height='17.28' style='stroke-width: 1.07; stroke: none; fill: #FFFFFF;' />
<circle cx='303.42' cy='109.60' r='1.95' style='stroke-width: 0.71; stroke: #F11212; stroke-opacity: 0.30; fill: #F11212; fill-opacity: 0.30;' />
<text x='166.62' y='114.62' style='font-size: 14.00px; font-family: "Arial";' textLength='41.24px' lengthAdjust='spacingAndGlyphs'>gplas2</text>
<text x='225.14' y='114.62' style='font-size: 14.00px; font-family: "Arial";' textLength='66.12px' lengthAdjust='spacingAndGlyphs'>MOB-suite</text>
<text x='312.06' y='114.62' style='font-size: 14.00px; font-family: "Arial";' textLength='98.81px' lengthAdjust='spacingAndGlyphs'>plasmidSPAdes</text>
</g>
</svg>
