GCF_023375345.1,plasmid_AB756,NZ_CP091208.1,23203,30923
GCF_023375345.1,plasmid_AB756,NZ_CP091209.1,8842,30923
GCF_023375345.1,plasmid_AC727,NZ_CP091207.1,40670,78785
GCF_023375345.1,plasmid_AC727,NZ_CP091206.1,45964,78785
GCF_023375345.1,plasmid_AA894,NZ_CP091209.1,8532,9748
GCF_023375345.1,plasmid_AA894,NZ_CP091206.1,20672,9748
GCF_023375345.1,plasmid_AD907,NZ_CP091207.1,42827,42827
GCF_016406565.1,plasmid_AB173,NZ_CP066429.1,34539,42335
GCF_016406565.1,plasmid_AB173,NZ_CP066431.1,6303,42335
GCF_016406565.1,plasmid_AB173,NZ_CP066427.1,14930,42335
GCF_016406565.1,plasmid_AH273,NZ_CP066427.1,26320,26320
GCF_016406565.1,plasmid_AD910,NZ_CP066430.1,22595,24222
GCF_016406565.1,plasmid_AD910,NZ_CP066427.1,26973,24222
GCF_016406565.1,plasmid_AC537,NZ_CP066432.1,4156,4156
GCF_016406565.1,plasmid_AE672,NZ_CP066433.1,1831,1831
GCF_016406565.1,plasmid_AC731,NZ_CP066430.1,30244,169919
GCF_016406565.1,plasmid_AC731,NZ_CP066428.1,169964,169919
GCF_016406565.1,plasmid_AC731,NZ_CP066427.1,102419,169919
GCF_016406565.1,plasmid_AC731,NZ_CP066429.1,4008,169919
GCF_016406345.1,plasmid_AA893,no_correct_alignments,0,0
GCF_016406345.1,plasmid_AB173,NZ_CP066469.1,9508,28918
GCF_016406345.1,plasmid_AB173,NZ_CP066466.1,35833,28918
GCF_016406345.1,plasmid_AH273,NZ_CP066466.1,27925,27925
GCF_016406345.1,plasmid_AD910,NZ_CP066467.1,24096,28102
GCF_016406345.1,plasmid_AD910,NZ_CP066466.1,23807,28102
GCF_016406345.1,plasmid_AE672,NZ_CP066472.1,1980,1980
GCF_016406345.1,plasmid_AC731,NZ_CP066468.1,176943,172053
GCF_016406345.1,plasmid_AC731,NZ_CP066467.1,26471,172053
GCF_016406345.1,plasmid_AC731,NZ_CP066466.1,114974,172053
GCF_016406345.1,plasmid_AA892,NZ_CP066470.1,3782,6312
GCF_016406345.1,plasmid_AA892,NZ_CP066471.1,2530,6312
GCF_028335245.1,plasmid_AB756,NZ_CP116519.1,52790,50016
GCF_028335245.1,plasmid_AC728,NZ_CP116518.1,52873,58964
GCF_028335245.1,plasmid_AC728,NZ_CP116517.1,38939,58964
GCF_028335245.1,plasmid_AD907,NZ_CP116518.1,42806,42806
GCF_028335605.1,plasmid_AB756,NZ_CP116548.1,17638,17638
GCF_028335605.1,plasmid_AB173,NZ_CP116546.1,14666,21519
GCF_028335605.1,plasmid_AB173,NZ_CP116548.1,8319,21519
GCF_028335605.1,plasmid_AD906,NZ_CP116547.1,26961,30037
GCF_028335605.1,plasmid_AD906,NZ_CP116546.1,34187,30037
GCF_028335605.1,plasmid_AD582,NZ_CP116546.1,40538,21140
GCF_028335605.1,plasmid_AD582,NZ_CP116548.1,7021,21140
GCF_028335605.1,plasmid_AD582,NZ_CP116547.1,5017,21140
GCF_028335605.1,plasmid_AC731,NZ_CP116547.1,42581,44008
GCF_028335605.1,plasmid_AC731,NZ_CP116546.1,2854,44008
GCF_028335605.1,plasmid_AD907,NZ_CP116547.1,53596,53597
GCF_023375225.1,plasmid_AB756,NZ_CP088197.1,18271,25784
GCF_023375225.1,plasmid_AB756,NZ_CP088196.1,8637,25784
GCF_023375225.1,plasmid_AB756,NZ_CP088195.1,2732,25784
GCF_023375225.1,plasmid_AA894,NZ_CP088196.1,8967,8967
GCF_023299805.1,plasmid_AD055,NZ_CP097064.1,26001,26019
GCF_023299805.1,plasmid_AB756,NZ_CP097063.1,19163,19163
GCF_023299805.1,plasmid_AB616,NZ_CP097065.1,5254,5254
GCF_023299805.1,plasmid_AC731,NZ_CP097061.1,57211,39451
GCF_023299805.1,plasmid_AC731,NZ_CP097062.1,1365,39451
GCF_023299805.1,plasmid_AE822,NZ_CP097062.1,9976,9976
GCF_023299805.1,plasmid_AB759,NZ_CP097063.1,18220,20125
GCF_023299805.1,plasmid_AB759,NZ_CP097061.1,1905,20125
GCF_023299805.1,plasmid_AA894,NZ_CP097063.1,9163,10226
GCF_023299805.1,plasmid_AA894,NZ_CP097061.1,2126,10226
GCF_023299745.1,plasmid_AB756,NZ_CP097028.1,28940,60954
GCF_023299745.1,plasmid_AB756,NZ_CP097029.1,41133,60954
GCF_023299745.1,plasmid_AB756,NZ_CP097027.1,18040,60954
GCF_023299745.1,plasmid_AC729,NZ_CP097028.1,51796,63235
GCF_023299745.1,plasmid_AC729,NZ_CP097027.1,37657,63235
GCF_023299745.1,plasmid_AD907,NZ_CP097028.1,41550,41550
GCF_015476295.1,plasmid_AB369,NZ_CP064345.1,80742,85856
GCF_015476295.1,plasmid_AB369,NZ_CP064347.1,6883,85856
GCF_015476295.1,plasmid_AB369,NZ_CP064343.1,8860,85856
GCF_015476295.1,plasmid_AA893,NZ_CP064348.1,6173,6173
GCF_015476295.1,plasmid_AB173,NZ_CP064346.1,30331,30331
GCF_015476295.1,plasmid_AB173,NZ_CP064343.1,7495,30331
GCF_015476295.1,plasmid_AE577,NZ_CP064346.1,3100,3100
GCF_015476295.1,plasmid_AC731,NZ_CP064344.1,174371,179218
GCF_015476295.1,plasmid_AC731,NZ_CP064343.1,67854,179218
GCF_015476295.1,plasmid_AC731,NZ_CP064346.1,3144,179218
GCF_015476295.1,plasmid_AC731,NZ_CP064347.1,1359,179218
GCF_015476295.1,plasmid_AC731,NZ_CP064345.1,1125,179218
GCF_015476295.1,plasmid_AA890,NZ_CP064349.1,4260,4465
GCF_015476295.1,plasmid_AD274,NZ_CP064343.1,9093,9093
GCF_016415425.1,plasmid_AB173,NZ_CP066649.1,34584,39926
GCF_016415425.1,plasmid_AB173,NZ_CP066650.1,421,39926
GCF_016415425.1,plasmid_AB173,NZ_CP066651.1,2842,39926
GCF_016415425.1,plasmid_AB173,NZ_CP066645.1,16423,39926
GCF_016415425.1,plasmid_AH273,NZ_CP066645.1,27924,27924
GCF_016415425.1,plasmid_AD910,NZ_CP066647.1,25305,29311
GCF_016415425.1,plasmid_AD910,NZ_CP066645.1,23807,29311
GCF_016415425.1,plasmid_AE672,NZ_CP066646.1,1980,1980
GCF_016415425.1,plasmid_AC731,NZ_CP066648.1,174069,172534
GCF_016415425.1,plasmid_AC731,NZ_CP066647.1,25732,172534
GCF_016415425.1,plasmid_AC731,NZ_CP066652.1,3316,172534
GCF_016415425.1,plasmid_AC731,NZ_CP066645.1,112553,172534
GCF_016415425.1,plasmid_AC731,NZ_CP066649.1,5446,172534
GCF_016415425.1,plasmid_AA892,NZ_CP066650.1,3894,5359
GCF_016415425.1,plasmid_AA892,NZ_CP066651.1,1465,5359
GCF_019456595.1,plasmid_AC726,NZ_CP074110.1,48767,43359
GCF_019456595.1,plasmid_AC726,NZ_CP074109.1,32076,43359
GCF_019456595.1,plasmid_AD907,NZ_CP074110.1,45633,45633
GCF_019175445.1,plasmid_AC728,NZ_CP072882.1,57474,54951
GCF_019175445.1,plasmid_AC728,NZ_CP072881.1,24526,54951
GCF_907176815.1,plasmid_AA893,NZ_OU016032.1,6174,6174
GCF_907176815.1,plasmid_AB173,NZ_OU016027.1,62840,23115
GCF_907176815.1,plasmid_AB173,NZ_OU016034.1,2947,23115
GCF_907176815.1,plasmid_AB173,NZ_OU016028.1,2415,23115
GCF_907176815.1,plasmid_AB173,NZ_OU016029.1,1128,23115
GCF_907176815.1,plasmid_AE577,NZ_OU016031.1,3198,3199
GCF_907176815.1,plasmid_AB171,NZ_OU016029.1,40000,40098
GCF_907176815.1,plasmid_AB171,NZ_OU016027.1,33509,40098
GCF_907176815.1,plasmid_AE672,NZ_OU016035.1,1596,1760
GCF_907176815.1,plasmid_AB614,NZ_OU016030.1,5774,7546
GCF_907176815.1,plasmid_AB614,NZ_OU016027.1,3544,7546
GCF_907176815.1,plasmid_AB614,NZ_OU016028.1,3544,7546
GCF_907176815.1,plasmid_AC731,NZ_OU016028.1,106870,107933
GCF_907176815.1,plasmid_AC731,NZ_OU016027.1,29861,107933
GCF_907176815.1,plasmid_AD909,NZ_OU016028.1,45732,45732
GCF_023375365.1,plasmid_AB756,NZ_CP091212.1,21711,21711
GCF_023375365.1,plasmid_AC728,NZ_CP091211.1,42763,46963
GCF_023375365.1,plasmid_AC728,NZ_CP091210.1,16698,46963
GCF_016415445.1,plasmid_AC534,NZ_CP066635.1,4074,4074
GCF_016415445.1,plasmid_AB173,NZ_CP066632.1,7061,7061
GCF_016415445.1,plasmid_AE577,NZ_CP066636.1,3007,3007
GCF_016415445.1,plasmid_AH273,NZ_CP066629.1,18826,18826
GCF_016415445.1,plasmid_AC537,NZ_CP066634.1,4305,4305
GCF_016415445.1,plasmid_AC731,NZ_CP066630.1,134417,201648
GCF_016415445.1,plasmid_AC731,NZ_CP066631.1,50935,201648
GCF_016415445.1,plasmid_AC731,NZ_CP066632.1,21140,201648
GCF_016415445.1,plasmid_AC731,NZ_CP066629.1,131150,201648
GCF_016415445.1,plasmid_AC670,NZ_CP066629.1,5683,5683
GCF_016415445.1,plasmid_AA892,NZ_CP066633.1,6311,6311
GCF_028335465.1,plasmid_novel_f22703105274c5af8cc0d379229c45ad,NZ_CP116524.1,41376,72462
GCF_028335465.1,plasmid_novel_f22703105274c5af8cc0d379229c45ad,NZ_CP116525.1,21689,72462
GCF_028335465.1,plasmid_novel_f22703105274c5af8cc0d379229c45ad,NZ_CP116523.1,9396,72462
GCF_028335465.1,plasmid_AB756,NZ_CP116527.1,14792,14792
GCF_028335465.1,plasmid_AB756,NZ_CP116526.1,2886,14792
GCF_028335465.1,plasmid_AA894,NZ_CP116526.1,9324,10663
GCF_028335465.1,plasmid_AA894,NZ_CP116523.1,1339,10663
GCF_028335465.1,plasmid_AA894,NZ_CP116524.1,2678,10663
GCF_028335465.1,plasmid_AC750,NZ_CP116524.1,8664,16135
GCF_028335465.1,plasmid_AC750,NZ_CP116526.1,7471,16135
GCF_028335465.1,plasmid_AD907,NZ_CP116525.1,26552,80032
GCF_028335465.1,plasmid_AD907,NZ_CP116524.1,54013,80032
GCF_028335465.1,plasmid_AD907,NZ_CP116523.1,21467,80032
GCF_028335465.1,plasmid_AD907,NZ_CP116527.1,1124,80032
GCF_028335465.1,plasmid_AD907,NZ_CP116526.1,1124,80032
GCF_019456555.1,plasmid_AD907,NZ_CP074106.1,45633,45633
GCF_015999405.1,plasmid_AB756,NZ_CP065523.1,24067,36293
GCF_015999405.1,plasmid_AB756,NZ_CP065526.1,12226,36293
GCF_015999405.1,plasmid_novel_aca9caf0f856c47b773b550b52d2ca82,NZ_CP065525.1,3496,3497
GCF_015999405.1,plasmid_AE577,no_correct_alignments,0,0
GCF_015999405.1,plasmid_AD910,NZ_CP065524.1,76419,77515
GCF_015999405.1,plasmid_AD910,NZ_CP065525.1,34084,77515
GCF_015999405.1,plasmid_AD910,NZ_CP065523.1,43460,77515
GCF_015999405.1,plasmid_AC732,NZ_CP065525.1,135410,144554
GCF_015999405.1,plasmid_AC732,NZ_CP065523.1,52012,144554
GCF_015999405.1,plasmid_AC732,NZ_CP065526.1,1771,144554
GCF_015999405.1,plasmid_AD909,NZ_CP065525.1,13437,13437
GCF_015999405.1,plasmid_AA891,no_correct_alignments,0,0
GCF_021398505.1,plasmid_AB756,NZ_CP083180.1,15798,51676
GCF_021398505.1,plasmid_AB756,NZ_CP083179.1,13810,51676
GCF_021398505.1,plasmid_AD100,no_correct_alignments,0,0
GCF_021398505.1,plasmid_AD910,NZ_CP083180.1,46765,64748
GCF_015999425.1,plasmid_AB756,NZ_CP065527.1,24754,24754
GCF_015999425.1,plasmid_AC733,NZ_CP065529.1,170519,178310
GCF_015999425.1,plasmid_AC733,NZ_CP065527.1,103196,178310
GCF_015999425.1,plasmid_AH273,NZ_CP065527.1,27606,27606
GCF_015999425.1,plasmid_AA890,no_correct_alignments,0,0
GCF_015999425.1,plasmid_AE673,no_correct_alignments,0,0
GCF_015999425.1,plasmid_AB615,NZ_CP065528.1,5956,5957
GCF_015999425.1,plasmid_AA891,NZ_CP065530.1,14939,7472
GCF_016415565.1,plasmid_AB756,NZ_CP066667.1,43534,35760
GCF_016415565.1,plasmid_AB756,NZ_CP066669.1,7402,35760
GCF_016415565.1,plasmid_AB756,NZ_CP066668.1,2064,35760
GCF_016415565.1,plasmid_AA893,NZ_CP066672.1,5991,5992
GCF_016415565.1,plasmid_AB173,NZ_CP066669.1,9212,9212
GCF_016415565.1,plasmid_AH273,NZ_CP066667.1,18826,18826
GCF_016415565.1,plasmid_AC731,NZ_CP066668.1,111055,137027
GCF_016415565.1,plasmid_AC731,NZ_CP066670.1,17151,137027
GCF_016415565.1,plasmid_AC731,NZ_CP066667.1,119186,137027
GCF_016415565.1,plasmid_AC731,NZ_CP066669.1,8925,137027
GCF_016415565.1,plasmid_AC670,NZ_CP066667.1,4849,4849
GCF_016415565.1,plasmid_AA892,NZ_CP066671.1,6122,6122
GCF_016415405.1,plasmid_AB369,NZ_CP066638.1,87394,107114
GCF_016415405.1,plasmid_AB369,NZ_CP066641.1,18429,107114
GCF_016415405.1,plasmid_AB369,NZ_CP066637.1,54312,107114
GCF_016415405.1,plasmid_AB369,NZ_CP066640.1,2837,107114
GCF_016415405.1,plasmid_AB369,NZ_CP066639.1,1324,107114
GCF_016415405.1,plasmid_AC534,NZ_CP066643.1,3930,5765
GCF_016415405.1,plasmid_AD100,NZ_CP066641.1,21008,28804
GCF_016415405.1,plasmid_AD100,NZ_CP066642.1,6303,28804
GCF_016415405.1,plasmid_AD100,NZ_CP066637.1,10451,28804
GCF_016415405.1,plasmid_AH273,NZ_CP066637.1,27922,27922
GCF_016415405.1,plasmid_AD910,NZ_CP066640.1,52858,63709
GCF_016415405.1,plasmid_AD910,NZ_CP066639.1,4066,63709
GCF_016415405.1,plasmid_AD910,NZ_CP066637.1,92746,63709
GCF_016415405.1,plasmid_AD910,NZ_CP066641.1,1626,63709
GCF_016415405.1,plasmid_AB977,NZ_CP066639.1,61346,62712
GCF_016415405.1,plasmid_AB977,NZ_CP066637.1,2732,62712
GCF_022648125.1,plasmid_AB369,NZ_CP076485.1,74595,76061
GCF_022648125.1,plasmid_AB369,NZ_CP076483.1,4398,76061
GCF_022648125.1,plasmid_AB369,NZ_CP076484.1,2525,76061
GCF_022648125.1,plasmid_AB756,NZ_CP076483.1,21352,18591
GCF_022648125.1,plasmid_AB173,NZ_CP076486.1,26516,26516
GCF_022648125.1,plasmid_AB173,NZ_CP076485.1,2689,26516
GCF_022648125.1,plasmid_AB173,NZ_CP076484.1,2689,26516
GCF_022648125.1,plasmid_AD100,NZ_CP076486.1,3544,5170
GCF_022648125.1,plasmid_AD100,NZ_CP076483.1,3252,5170
GCF_022648125.1,plasmid_AH273,NZ_CP076483.1,27982,27982
GCF_022648125.1,plasmid_AC731,NZ_CP076484.1,229819,224107
GCF_022648125.1,plasmid_AC731,NZ_CP076486.1,6289,224107
GCF_022648125.1,plasmid_AC731,NZ_CP076483.1,84732,224107
GCF_016406505.1,plasmid_AB369,NZ_CP066459.1,84838,102590
GCF_016406505.1,plasmid_AB369,NZ_CP066461.1,14385,102590
GCF_016406505.1,plasmid_AB369,NZ_CP066457.1,9666,102590
GCF_016406505.1,plasmid_AB369,NZ_CP066460.1,1901,102590
GCF_016406505.1,plasmid_AA769,NZ_CP066461.1,7351,9029
GCF_016406505.1,plasmid_AA769,NZ_CP066457.1,3356,9029
GCF_016406505.1,plasmid_AA769,NZ_CP066459.1,1678,9029
GCF_016406505.1,plasmid_AB756,NZ_CP066457.1,19654,16893
GCF_016406505.1,plasmid_AA893,no_correct_alignments,0,0
GCF_016406505.1,plasmid_AD100,NZ_CP066461.1,8250,10770
GCF_016406505.1,plasmid_AD100,NZ_CP066457.1,43876,10770
GCF_016406505.1,plasmid_AH273,NZ_CP066457.1,27983,27983
GCF_016406505.1,plasmid_AC731,NZ_CP066460.1,60021,222414
GCF_016406505.1,plasmid_AC731,NZ_CP066458.1,167244,222414
GCF_016406505.1,plasmid_AC731,NZ_CP066461.1,6048,222414
GCF_016406505.1,plasmid_AC731,NZ_CP066457.1,51715,222414
GCF_016406505.1,plasmid_AC731,NZ_CP066459.1,1038,222414
GCF_016406505.1,plasmid_AB760,NZ_CP066461.1,10603,10603
GCF_016406505.1,plasmid_AB615,NZ_CP066464.1,5212,5212
GCF_016406505.1,plasmid_AA892,NZ_CP066462.1,6193,6303
GCF_016406505.1,plasmid_AA892,NZ_CP066463.1,1069,6303
GCF_023375405.1,plasmid_AB756,NZ_CP091219.1,8601,12576
GCF_023375405.1,plasmid_AB756,NZ_CP091218.1,6554,12576
GCF_023375405.1,plasmid_AB756,NZ_CP091217.1,6056,12576
GCF_023375405.1,plasmid_AC728,NZ_CP091218.1,98553,97294
GCF_023375405.1,plasmid_AC728,NZ_CP091217.1,11534,97294
GCF_023375405.1,plasmid_AB173,NZ_CP091217.1,13433,15192
GCF_023375405.1,plasmid_AB173,NZ_CP091219.1,1759,15192
GCF_023375405.1,plasmid_AB173,NZ_CP091218.1,1678,15192
GCF_023375405.1,plasmid_AD268,NZ_CP091217.1,12742,12742
GCF_023375405.1,plasmid_AA894,NZ_CP091219.1,7940,9224
GCF_023375405.1,plasmid_AA894,NZ_CP091217.1,14124,9224
GCF_023375405.1,plasmid_AA894,NZ_CP091218.1,1284,9224
GCF_023299725.1,plasmid_AB756,NZ_CP097024.1,10440,14293
GCF_023299725.1,plasmid_AB756,NZ_CP097026.1,6738,14293
GCF_023299725.1,plasmid_AD100,NZ_CP097026.1,5163,37607
GCF_023299725.1,plasmid_AD100,NZ_CP097023.1,9906,37607
GCF_023299725.1,plasmid_AD100,NZ_CP097022.1,13446,37607
GCF_023299725.1,plasmid_AD100,NZ_CP097025.1,12291,37607
GCF_023299725.1,plasmid_novel_e40e1755baf660ee418a0d19202ff993,NZ_CP097023.1,35785,42462
GCF_023299725.1,plasmid_novel_e40e1755baf660ee418a0d19202ff993,NZ_CP097025.1,5427,42462
GCF_023299725.1,plasmid_novel_e40e1755baf660ee418a0d19202ff993,NZ_CP097022.1,4992,42462
GCF_023299725.1,plasmid_AD268,NZ_CP097022.1,9434,9434
GCF_023299725.1,plasmid_AA894,NZ_CP097024.1,9325,12177
GCF_023299725.1,plasmid_AA894,NZ_CP097022.1,11408,12177
GCF_023299725.1,plasmid_AA894,NZ_CP097025.1,1514,12177
GCF_023299725.1,plasmid_AD907,NZ_CP097023.1,45767,45769
GCF_016406585.1,plasmid_AB173,NZ_CP066484.1,6303,30022
GCF_016406585.1,plasmid_AB173,NZ_CP066483.1,22226,30022
GCF_016406585.1,plasmid_AB173,NZ_CP066480.1,10451,30022
GCF_016406585.1,plasmid_AH273,NZ_CP066480.1,26801,26801
GCF_016406585.1,plasmid_AD910,NZ_CP066482.1,21807,24760
GCF_016406585.1,plasmid_AD910,NZ_CP066480.1,31178,24760
GCF_016406585.1,plasmid_AE672,NZ_CP066485.1,1980,1980
GCF_016406585.1,plasmid_AC731,NZ_CP066482.1,30244,169214
GCF_016406585.1,plasmid_AC731,NZ_CP066481.1,171631,169214
GCF_016406585.1,plasmid_AC731,NZ_CP066483.1,6218,169214
GCF_016406585.1,plasmid_AC731,NZ_CP066480.1,115800,169214
GCF_907165365.1,plasmid_AB369,NZ_OU015710.1,97391,98721
GCF_907165365.1,plasmid_AB369,NZ_OU015708.1,3972,98721
GCF_907165365.1,plasmid_AB369,NZ_OU015709.1,1323,98721
GCF_907165365.1,plasmid_AA893,NZ_OU015712.1,7019,7019
GCF_907165365.1,plasmid_AC733,NZ_OU015709.1,182999,185447
GCF_907165365.1,plasmid_AC733,NZ_OU015708.1,27505,185447
GCF_907165365.1,plasmid_AE577,NZ_OU015715.1,3221,3221
GCF_907165365.1,plasmid_AE577,NZ_OU015714.1,1328,3221
GCF_907165365.1,plasmid_AB171,NZ_OU015711.1,38593,38709
GCF_907165365.1,plasmid_AB171,NZ_OU015708.1,19928,38709
GCF_907165365.1,plasmid_AB922,NZ_OU015709.1,1741,2953
GCF_907165365.1,plasmid_AB922,NZ_OU015708.1,2424,2953
GCF_907165365.1,plasmid_AB922,NZ_OU015710.1,1212,2953
GCF_907165365.1,plasmid_novel_fbc8e2d47435c6d1a1e4a19665b8c8ad,NZ_OU015711.1,4083,8414
GCF_907165365.1,plasmid_novel_fbc8e2d47435c6d1a1e4a19665b8c8ad,NZ_OU015708.1,37809,8414
GCF_907165365.1,plasmid_novel_fbc8e2d47435c6d1a1e4a19665b8c8ad,NZ_OU015709.1,6930,8414
GCF_907165365.1,plasmid_AE672,NZ_OU015716.1,1760,1760
GCF_907165365.1,plasmid_AB117,NZ_OU015708.1,4589,4589
GCF_019175425.1,plasmid_AB756,NZ_CP072879.1,25224,57497
GCF_019175425.1,plasmid_AB756,NZ_CP072880.1,36051,57497
GCF_019175425.1,plasmid_AB756,NZ_CP072878.1,2130,57497
GCF_019175425.1,plasmid_AC726,NZ_CP072879.1,44064,41746
GCF_019175425.1,plasmid_AC726,NZ_CP072878.1,1305,41746
GCF_019175425.1,plasmid_AD907,NZ_CP072879.1,51618,51618
GCF_019456575.1,plasmid_AC726,NZ_CP074108.1,48774,43359
GCF_019456575.1,plasmid_AC726,NZ_CP074107.1,26780,43359
GCF_019456575.1,plasmid_AD907,NZ_CP074108.1,44797,44797
GCF_907176135.1,plasmid_AA893,NZ_OU015951.1,6174,6174
GCF_907176135.1,plasmid_AB173,NZ_OU015946.1,60584,23115
GCF_907176135.1,plasmid_AB173,NZ_OU015953.1,2947,23115
GCF_907176135.1,plasmid_AB173,NZ_OU015947.1,2415,23115
GCF_907176135.1,plasmid_AB173,NZ_OU015948.1,1128,23115
GCF_907176135.1,plasmid_AE577,NZ_OU015950.1,4350,3199
GCF_907176135.1,plasmid_AB171,NZ_OU015948.1,40000,40098
GCF_907176135.1,plasmid_AB171,NZ_OU015946.1,29537,40098
GCF_907176135.1,plasmid_AE672,NZ_OU015954.1,1760,1760
GCF_907176135.1,plasmid_AB614,NZ_OU015949.1,7546,7546
GCF_907176135.1,plasmid_AB614,NZ_OU015947.1,3544,7546
GCF_907176135.1,plasmid_AB614,NZ_OU015946.1,1772,7546
GCF_907176135.1,plasmid_AC731,NZ_OU015947.1,106894,107957
GCF_907176135.1,plasmid_AC731,NZ_OU015946.1,24486,107957
GCF_907176135.1,plasmid_AD909,NZ_OU015947.1,45733,45733
GCF_016406485.1,plasmid_AB369,NZ_CP066383.1,91357,92503
GCF_016406485.1,plasmid_AB369,NZ_CP066385.1,2899,92503
GCF_016406485.1,plasmid_AB369,NZ_CP066381.1,16035,92503
GCF_016406485.1,plasmid_AB369,NZ_CP066382.1,1069,92503
GCF_016406485.1,plasmid_AB756,NZ_CP066381.1,24754,24754
GCF_016406485.1,plasmid_AB173,NZ_CP066385.1,32315,38618
GCF_016406485.1,plasmid_AB173,NZ_CP066387.1,6303,38618
GCF_016406485.1,plasmid_AB173,NZ_CP066383.1,6926,38618
GCF_016406485.1,plasmid_AH273,NZ_CP066381.1,27907,27907
GCF_016406485.1,plasmid_AC630,NZ_CP066381.1,1578,1578
GCF_016406485.1,plasmid_AC732,NZ_CP066382.1,221301,241857
GCF_016406485.1,plasmid_AC732,NZ_CP066384.1,42298,241857
GCF_016406485.1,plasmid_AC732,NZ_CP066381.1,87024,241857
GCF_016406485.1,plasmid_AC732,NZ_CP066386.1,1772,241857
GCF_016406485.1,plasmid_AC732,NZ_CP066383.1,1365,241857
GCF_016406485.1,plasmid_AC732,NZ_CP066385.1,1365,241857
GCF_016406485.1,plasmid_AA890,NZ_CP066388.1,4461,4461
GCF_016406485.1,plasmid_AC670,NZ_CP066381.1,4809,4809
GCF_016406485.1,plasmid_AB117,NZ_CP066381.1,6554,3277
GCF_016406485.1,plasmid_AA891,NZ_CP066386.1,4999,6335
GCF_016406485.1,plasmid_AA891,NZ_CP066381.1,2672,6335
GCF_016415365.1,plasmid_AB173,NZ_CP066617.1,21266,21266
GCF_016415365.1,plasmid_AB173,NZ_CP066614.1,14930,21266
GCF_016415365.1,plasmid_AE577,NZ_CP066617.1,3208,3208
GCF_016415365.1,plasmid_AH273,NZ_CP066614.1,27925,27925
GCF_016415365.1,plasmid_AD910,NZ_CP066616.1,24095,26775
GCF_016415365.1,plasmid_AD910,NZ_CP066614.1,26420,26775
GCF_016415365.1,plasmid_AC537,NZ_CP066619.1,4088,4156
GCF_016415365.1,plasmid_AE672,NZ_CP066621.1,1831,1831
GCF_016415365.1,plasmid_AC731,NZ_CP066615.1,173851,177120
GCF_016415365.1,plasmid_AC731,NZ_CP066616.1,29789,177120
GCF_016415365.1,plasmid_AC731,NZ_CP066617.1,7866,177120
GCF_016415365.1,plasmid_AC731,NZ_CP066614.1,91758,177120
GCF_016415365.1,plasmid_AA892,NZ_CP066618.1,6303,6303
GCF_019977575.1,plasmid_AB756,NZ_AP024837.1,17191,18074
GCF_019977575.1,plasmid_AB756,NZ_AP024838.1,3643,18074
GCF_019977575.1,plasmid_AD906,NZ_AP024838.1,33174,40868
GCF_019977575.1,plasmid_AD906,NZ_AP024837.1,29125,40868
GCF_019977575.1,plasmid_AD906,NZ_AP024839.1,1492,40868
GCF_019977575.1,plasmid_AE577,no_correct_alignments,0,0
GCF_019977575.1,plasmid_AH273,NZ_AP024837.1,27916,27916
GCF_019977575.1,plasmid_AD910,NZ_AP024839.1,53865,68741
GCF_019977575.1,plasmid_AD910,NZ_AP024838.1,12649,68741
GCF_019977575.1,plasmid_AD910,NZ_AP024837.1,39834,68741
GCF_019977575.1,plasmid_AE672,no_correct_alignments,0,0
GCF_019977575.1,plasmid_AC731,NZ_AP024838.1,80086,79118
GCF_019977575.1,plasmid_AC731,NZ_AP024837.1,35441,79118
GCF_019977575.1,plasmid_AA890,no_correct_alignments,0,0
GCF_019977575.1,plasmid_AB117,NZ_AP024837.1,3285,3285
GCF_019977575.1,plasmid_AA894,NZ_AP024840.1,9357,16581
GCF_019977575.1,plasmid_AA894,NZ_AP024841.1,6157,16581
GCF_019977575.1,plasmid_AA894,NZ_AP024837.1,8475,16581
GCF_019977575.1,plasmid_AB613,NZ_AP024842.1,5849,5850
GCF_022647945.1,plasmid_AB369,NZ_CP076479.1,74428,75904
GCF_022647945.1,plasmid_AB369,NZ_CP076477.1,4398,75904
GCF_022647945.1,plasmid_AB369,NZ_CP076478.1,1466,75904
GCF_022647945.1,plasmid_AB369,NZ_CP076480.1,1059,75904
GCF_022647945.1,plasmid_AB756,NZ_CP076477.1,21354,18593
GCF_022647945.1,plasmid_AB173,NZ_CP076481.1,26517,26517
GCF_022647945.1,plasmid_AB173,NZ_CP076479.1,2689,26517
GCF_022647945.1,plasmid_AB173,NZ_CP076480.1,2689,26517
GCF_022647945.1,plasmid_AD100,NZ_CP076481.1,3546,5172
GCF_022647945.1,plasmid_AD100,NZ_CP076477.1,3252,5172
GCF_022647945.1,plasmid_AH273,NZ_CP076477.1,27983,27983
GCF_022647945.1,plasmid_AC731,NZ_CP076480.1,52778,224018
GCF_022647945.1,plasmid_AC731,NZ_CP076478.1,176952,224018
GCF_022647945.1,plasmid_AC731,NZ_CP076481.1,6289,224018
GCF_022647945.1,plasmid_AC731,NZ_CP076477.1,84732,224018
GCF_907177285.1,plasmid_AB369,NZ_OU016038.1,103233,107923
GCF_907177285.1,plasmid_AB369,NZ_OU016036.1,18262,107923
GCF_907177285.1,plasmid_AB369,NZ_OU016040.1,1772,107923
GCF_907177285.1,plasmid_AB369,NZ_OU016037.1,3544,107923
GCF_907177285.1,plasmid_AA893,NZ_OU016042.1,6174,6174
GCF_907177285.1,plasmid_AB173,NZ_OU016036.1,49250,21777
GCF_907177285.1,plasmid_AB173,NZ_OU016044.1,2947,21777
GCF_907177285.1,plasmid_AB173,NZ_OU016037.1,2415,21777
GCF_907177285.1,plasmid_AB173,NZ_OU016039.1,1128,21777
GCF_907177285.1,plasmid_AE577,NZ_OU016041.1,4525,3198
GCF_907177285.1,plasmid_AB171,NZ_OU016039.1,40001,40099
GCF_907177285.1,plasmid_AB171,NZ_OU016036.1,34834,40099
GCF_907177285.1,plasmid_AE672,NZ_OU016045.1,1760,1760
GCF_907177285.1,plasmid_AB614,NZ_OU016040.1,5774,5774
GCF_907177285.1,plasmid_AC731,NZ_OU016037.1,106083,105911
GCF_907177285.1,plasmid_AC731,NZ_OU016036.1,24612,105911
GCF_907177285.1,plasmid_AD268,NZ_OU016036.1,15388,10927
GCF_907177285.1,plasmid_AD268,NZ_OU016037.1,1487,10927
GCF_907177285.1,plasmid_AD909,NZ_OU016037.1,45732,45732
GCF_020162155.1,plasmid_novel_d34db322af935432a71ea2ced652fbfb,NZ_CP083917.1,2800,5652
GCF_020162155.1,plasmid_novel_d34db322af935432a71ea2ced652fbfb,NZ_CP083912.1,31538,5652
GCF_020162155.1,plasmid_AB756,NZ_CP083912.1,25941,25941
GCF_020162155.1,plasmid_AE577,NZ_CP083916.1,3200,3200
GCF_020162155.1,plasmid_AH273,NZ_CP083912.1,27922,27922
GCF_020162155.1,plasmid_AB171,NZ_CP083914.1,38579,37255
GCF_020162155.1,plasmid_AB171,NZ_CP083912.1,2648,37255
GCF_020162155.1,plasmid_AC732,NZ_CP083913.1,180734,185296
GCF_020162155.1,plasmid_AC732,NZ_CP083912.1,72648,185296
GCF_020162155.1,plasmid_AC732,NZ_CP083919.1,1979,185296
GCF_020162155.1,plasmid_AC732,NZ_CP083914.1,1439,185296
GCF_020162155.1,plasmid_AB614,NZ_CP083915.1,5773,5773
GCF_028335625.1,plasmid_AD055,NZ_CP116551.1,27575,27575
GCF_028335625.1,plasmid_AB756,NZ_CP116552.1,17638,17638
GCF_028335625.1,plasmid_AB173,NZ_CP116549.1,53036,27891
GCF_028335625.1,plasmid_AB173,NZ_CP116552.1,8318,27891
GCF_028335625.1,plasmid_AB173,NZ_CP116550.1,9731,27891
GCF_028335625.1,plasmid_AD906,NZ_CP116550.1,14020,21764
GCF_028335625.1,plasmid_AD906,NZ_CP116549.1,15700,21764
GCF_028335625.1,plasmid_AD906,NZ_CP116551.1,2272,21764
GCF_028335625.1,plasmid_AD582,NZ_CP116549.1,17616,26409
GCF_028335625.1,plasmid_AD582,NZ_CP116550.1,9693,26409
GCF_028335625.1,plasmid_AD582,NZ_CP116552.1,7021,26409
GCF_028335625.1,plasmid_AD582,NZ_CP116551.1,1097,26409
GCF_028335625.1,plasmid_AC731,NZ_CP116550.1,43875,45302
GCF_028335625.1,plasmid_AC731,NZ_CP116549.1,2854,45302
GCF_028335625.1,plasmid_AD907,NZ_CP116550.1,53594,53595
GCF_016406405.1,plasmid_AB173,NZ_CP066438.1,29271,37647
GCF_016406405.1,plasmid_AB173,NZ_CP066440.1,6883,37647
GCF_016406405.1,plasmid_AB173,NZ_CP066434.1,8958,37647
GCF_016406405.1,plasmid_AH273,NZ_CP066434.1,27919,27919
GCF_016406405.1,plasmid_AD910,NZ_CP066437.1,13103,15783
GCF_016406405.1,plasmid_AD910,NZ_CP066434.1,27473,15783
GCF_016406405.1,plasmid_AD910,NZ_CP066435.1,1053,15783
GCF_016406405.1,plasmid_AC537,NZ_CP066441.1,4156,4156
GCF_016406405.1,plasmid_AE672,no_correct_alignments,0,0
GCF_016406405.1,plasmid_AB977,NZ_CP066436.1,61336,61336
GCF_016406405.1,plasmid_AC731,NZ_CP066435.1,143630,175301
GCF_016406405.1,plasmid_AC731,NZ_CP066437.1,41571,175301
GCF_016406405.1,plasmid_AC731,NZ_CP066436.1,4073,175301
GCF_016406405.1,plasmid_AC731,NZ_CP066434.1,120509,175301
GCF_016406405.1,plasmid_AC731,NZ_CP066439.1,1897,175301
GCF_016406405.1,plasmid_AC731,NZ_CP066438.1,4008,175301
GCF_016406405.1,plasmid_AH188,NZ_CP066434.1,5461,5461
GCF_016406405.1,plasmid_AA892,NZ_CP066439.1,6003,6160
GCF_021228615.1,plasmid_AB756,NZ_CP089319.1,19901,17140
GCF_021228615.1,plasmid_AB173,NZ_CP089322.1,29549,30349
GCF_021228615.1,plasmid_AB173,NZ_CP089319.1,4892,30349
GCF_021228615.1,plasmid_AB173,NZ_CP089320.1,1364,30349
GCF_021228615.1,plasmid_AH273,NZ_CP089319.1,27914,27914
GCF_021228615.1,plasmid_AD910,NZ_CP089321.1,47081,56319
GCF_021228615.1,plasmid_AD910,NZ_CP089320.1,15339,56319
GCF_021228615.1,plasmid_AD910,NZ_CP089322.1,4682,56319
GCF_021228615.1,plasmid_AD910,NZ_CP089319.1,14296,56319
GCF_021228615.1,plasmid_AE672,no_correct_alignments,0,0
GCF_021228615.1,plasmid_AC731,NZ_CP089320.1,155890,154495
GCF_021228615.1,plasmid_AC731,NZ_CP089319.1,52256,154495
GCF_021228615.1,plasmid_AC731,NZ_CP089321.1,1362,154495
GCF_021228615.1,plasmid_AC670,NZ_CP089319.1,5685,5685
GCF_021228615.1,plasmid_AA894,NZ_CP089323.1,11983,12047
GCF_021228615.1,plasmid_AA894,NZ_CP089319.1,40703,12047
GCF_021228615.1,plasmid_AA894,NZ_CP089320.1,2714,12047
GCF_021228615.1,plasmid_AA894,NZ_CP089322.1,1389,12047
GCF_016406445.1,plasmid_AB756,NZ_CP066392.1,7407,25777
GCF_016406445.1,plasmid_AB756,NZ_CP066389.1,27582,25777
GCF_016406445.1,plasmid_AB756,NZ_CP066390.1,3690,25777
GCF_016406445.1,plasmid_AA893,NZ_CP066393.1,6172,6172
GCF_016406445.1,plasmid_AE577,NZ_CP066395.1,3199,3199
GCF_016406445.1,plasmid_AD910,NZ_CP066391.1,49071,87380
GCF_016406445.1,plasmid_AD910,NZ_CP066390.1,32303,87380
GCF_016406445.1,plasmid_AD910,NZ_CP066392.1,11623,87380
GCF_016406445.1,plasmid_AD910,NZ_CP066389.1,45286,87380
GCF_016406445.1,plasmid_AC731,NZ_CP066390.1,81872,95299
GCF_016406445.1,plasmid_AC731,NZ_CP066389.1,76711,95299
GCF_016406445.1,plasmid_AC731,NZ_CP066392.1,2921,95299
GCF_016406445.1,plasmid_AC731,NZ_CP066391.1,1493,95299
GCF_016406445.1,plasmid_AC670,NZ_CP066389.1,5685,5685
GCF_016406445.1,plasmid_AD269,NZ_CP066390.1,18765,18765
GCF_016415545.1,plasmid_AB756,NZ_CP066653.1,26000,26000
GCF_016415545.1,plasmid_AB173,NZ_CP066656.1,9212,9212
GCF_016415545.1,plasmid_AH273,NZ_CP066653.1,18826,18826
GCF_016415545.1,plasmid_AC731,NZ_CP066654.1,113072,139565
GCF_016415545.1,plasmid_AC731,NZ_CP066655.1,17151,139565
GCF_016415545.1,plasmid_AC731,NZ_CP066653.1,131717,139565
GCF_016415545.1,plasmid_AC731,NZ_CP066656.1,9125,139565
GCF_016415545.1,plasmid_AC670,NZ_CP066653.1,4849,4849
GCF_016415545.1,plasmid_AA892,NZ_CP066657.1,6303,12330
GCF_016415545.1,plasmid_AA892,NZ_CP066658.1,6027,12330
GCF_016406365.1,plasmid_AB173,NZ_CP066418.1,9508,42301
GCF_016406365.1,plasmid_AB173,NZ_CP066415.1,42906,42301
GCF_016406365.1,plasmid_AB173,NZ_CP066419.1,6303,42301
GCF_016406365.1,plasmid_AH273,NZ_CP066415.1,27925,27925
GCF_016406365.1,plasmid_AD910,NZ_CP066416.1,19240,21920
GCF_016406365.1,plasmid_AD910,NZ_CP066415.1,20102,21920
GCF_016406365.1,plasmid_AE672,NZ_CP066420.1,1980,1980
GCF_016406365.1,plasmid_AC731,NZ_CP066417.1,176995,179486
GCF_016406365.1,plasmid_AC731,NZ_CP066416.1,31835,179486
GCF_016406365.1,plasmid_AC731,NZ_CP066415.1,117890,179486
GCF_016415465.1,plasmid_AB173,NZ_CP066625.1,33956,41752
GCF_016415465.1,plasmid_AB173,NZ_CP066626.1,6303,41752
GCF_016415465.1,plasmid_AB173,NZ_CP066622.1,11944,41752
GCF_016415465.1,plasmid_AH273,NZ_CP066622.1,27925,27925
GCF_016415465.1,plasmid_AD910,NZ_CP066624.1,18031,20708
GCF_016415465.1,plasmid_AD910,NZ_CP066622.1,25450,20708
GCF_016415465.1,plasmid_AC537,NZ_CP066627.1,4088,4156
GCF_016415465.1,plasmid_AE672,NZ_CP066628.1,1831,1831
GCF_016415465.1,plasmid_AC731,NZ_CP066624.1,31835,178106
GCF_016415465.1,plasmid_AC731,NZ_CP066623.1,176644,178106
GCF_016415465.1,plasmid_AC731,NZ_CP066622.1,110547,178106
GCF_016415465.1,plasmid_AC731,NZ_CP066625.1,4008,178106
GCF_016406545.1,plasmid_AB173,NZ_CP066412.1,9508,42301
GCF_016406545.1,plasmid_AB173,NZ_CP066409.1,44406,42301
GCF_016406545.1,plasmid_AB173,NZ_CP066413.1,6245,42301
GCF_016406545.1,plasmid_AH273,NZ_CP066409.1,27925,27925
GCF_016406545.1,plasmid_AD910,NZ_CP066411.1,24096,28102
GCF_016406545.1,plasmid_AD910,NZ_CP066409.1,22754,28102
GCF_016406545.1,plasmid_AE672,NZ_CP066414.1,1881,1980
GCF_016406545.1,plasmid_AC731,NZ_CP066410.1,175786,170896
GCF_016406545.1,plasmid_AC731,NZ_CP066411.1,25770,170896
GCF_016406545.1,plasmid_AC731,NZ_CP066409.1,119361,170896
GCF_023375445.1,plasmid_AB756,NZ_CP091226.1,18607,26055
GCF_023375445.1,plasmid_AB756,NZ_CP091225.1,10288,26055
GCF_023375445.1,plasmid_AB756,NZ_CP091224.1,11754,26055
GCF_023375445.1,plasmid_AA894,NZ_CP091225.1,9322,10635
GCF_023375445.1,plasmid_AA894,NZ_CP091224.1,2626,10635
GCF_016406465.1,plasmid_AB369,NZ_CP066402.1,83667,106467
GCF_016406465.1,plasmid_AB369,NZ_CP066406.1,16563,106467
GCF_016406465.1,plasmid_AB369,NZ_CP066401.1,12648,106467
GCF_016406465.1,plasmid_AB369,NZ_CP066396.1,33040,106467
GCF_016406465.1,plasmid_AB369,NZ_CP066404.1,2998,106467
GCF_016406465.1,plasmid_AB369,NZ_CP066403.1,1329,106467
GCF_016406465.1,plasmid_AD906,NZ_CP066401.1,36804,42272
GCF_016406465.1,plasmid_AD906,NZ_CP066396.1,7005,42272
GCF_016406465.1,plasmid_AD100,NZ_CP066406.1,9512,17182
GCF_016406465.1,plasmid_AD100,NZ_CP066407.1,6173,17182
GCF_016406465.1,plasmid_AD100,NZ_CP066396.1,2994,17182
GCF_016406465.1,plasmid_AH273,NZ_CP066396.1,27922,27922
GCF_016406465.1,plasmid_AD910,NZ_CP066404.1,53571,84271
GCF_016406465.1,plasmid_AD910,NZ_CP066401.1,29326,84271
GCF_016406465.1,plasmid_AD910,NZ_CP066403.1,2747,84271
GCF_016406465.1,plasmid_AD910,NZ_CP066396.1,83670,84271
GCF_016406465.1,plasmid_AD910,NZ_CP066405.1,2623,84271
GCF_016406465.1,plasmid_AE672,NZ_CP066399.1,1518,2990
GCF_016406465.1,plasmid_AE672,NZ_CP066400.1,1472,2990
GCF_016406465.1,plasmid_AB977,NZ_CP066403.1,61333,85133
GCF_016406465.1,plasmid_AB977,NZ_CP066396.1,13981,85133
GCF_016406465.1,plasmid_AB977,NZ_CP066405.1,13917,85133
GCF_016406465.1,plasmid_AB977,NZ_CP066401.1,4098,85133
GCF_016406465.1,plasmid_AA890,NZ_CP066408.1,4466,4466
GCF_016406465.1,plasmid_AH188,NZ_CP066396.1,3117,3117
GCF_016406465.1,plasmid_AD274,NZ_CP066396.1,9088,9088
GCF_016415505.1,plasmid_AB756,NZ_CP066659.1,19654,16893
GCF_016415505.1,plasmid_AA893,NZ_CP066663.1,5671,5672
GCF_016415505.1,plasmid_AB173,NZ_CP066662.1,18520,20198
GCF_016415505.1,plasmid_AB173,NZ_CP066659.1,5034,20198
GCF_016415505.1,plasmid_AD100,NZ_CP066662.1,8251,9279
GCF_016415505.1,plasmid_AD100,NZ_CP066659.1,32896,9279
GCF_016415505.1,plasmid_AH273,NZ_CP066659.1,27983,27983
GCF_016415505.1,plasmid_AC731,NZ_CP066661.1,60020,218079
GCF_016415505.1,plasmid_AC731,NZ_CP066660.1,161419,218079
GCF_016415505.1,plasmid_AC731,NZ_CP066662.1,6047,218079
GCF_016415505.1,plasmid_AC731,NZ_CP066659.1,59137,218079
GCF_016415505.1,plasmid_AB760,NZ_CP066662.1,10620,10620
GCF_016415505.1,plasmid_AB615,NZ_CP066665.1,5212,5212
GCF_016415505.1,plasmid_AA892,NZ_CP066664.1,6202,6303
GCF_023375205.1,plasmid_AB756,NZ_CP088193.1,17925,17932
GCF_023375205.1,plasmid_AB756,NZ_CP088192.1,2317,17932
GCF_023375205.1,plasmid_AB756,NZ_CP088191.1,1070,17932
GCF_023375205.1,plasmid_AC730,NZ_CP088192.1,75341,83970
GCF_023375205.1,plasmid_AC730,NZ_CP088193.1,7866,83970
GCF_023375205.1,plasmid_AC730,NZ_CP088191.1,19763,83970
GCF_023375205.1,plasmid_AD907,NZ_CP088192.1,86859,86870
GCF_022647825.1,plasmid_AB369,NZ_CP076473.1,77175,84312
GCF_022647825.1,plasmid_AB369,NZ_CP076475.1,8339,84312
GCF_022647825.1,plasmid_AB369,NZ_CP076474.1,3748,84312
GCF_022647825.1,plasmid_AB369,NZ_CP076471.1,4398,84312
GCF_022647825.1,plasmid_AB369,NZ_CP076472.1,1466,84312
GCF_022647825.1,plasmid_AB756,NZ_CP076471.1,21354,18593
GCF_022647825.1,plasmid_AD100,NZ_CP076475.1,3546,5172
GCF_022647825.1,plasmid_AD100,NZ_CP076471.1,3252,5172
GCF_022647825.1,plasmid_AH273,NZ_CP076471.1,27982,27982
GCF_022647825.1,plasmid_AC731,NZ_CP076474.1,52778,234894
GCF_022647825.1,plasmid_AC731,NZ_CP076472.1,176952,234894
GCF_022647825.1,plasmid_AC731,NZ_CP076475.1,17165,234894
GCF_022647825.1,plasmid_AC731,NZ_CP076471.1,84732,234894
GCF_028335585.1,plasmid_AB756,NZ_CP116544.1,56438,86082
GCF_028335585.1,plasmid_AB756,NZ_CP116545.1,25596,86082
GCF_028335585.1,plasmid_AB756,NZ_CP116543.1,46474,86082
GCF_028335585.1,plasmid_AB173,NZ_CP116543.1,16521,22271
GCF_028335585.1,plasmid_AB173,NZ_CP116545.1,7216,22271
GCF_028335585.1,plasmid_AB920,NZ_CP116544.1,10144,10144
GCF_028335585.1,plasmid_AB920,NZ_CP116543.1,10144,10144
GCF_028335585.1,plasmid_AH273,NZ_CP116543.1,30221,30221
GCF_028335585.1,plasmid_AB117,NZ_CP116543.1,3277,3277
GCF_028335585.1,plasmid_AB117,NZ_CP116544.1,3277,3277
GCF_028335585.1,plasmid_AD907,NZ_CP116544.1,51637,51637
GCF_028335485.1,plasmid_AB756,NZ_CP116531.1,16190,16190
GCF_028335485.1,plasmid_AB756,NZ_CP116530.1,1124,16190
GCF_028335485.1,plasmid_AC729,NZ_CP116529.1,54130,66142
GCF_028335485.1,plasmid_AC729,NZ_CP116528.1,24326,66142
GCF_028335485.1,plasmid_AA894,NZ_CP116530.1,9324,10662
GCF_028335485.1,plasmid_AA894,NZ_CP116529.1,2676,10662
GCF_028335485.1,plasmid_AC750,NZ_CP116529.1,8679,15948
GCF_028335485.1,plasmid_AC750,NZ_CP116530.1,7269,15948
GCF_028335485.1,plasmid_AD907,NZ_CP116529.1,42146,42146
GCF_017584065.1,plasmid_AA893,NZ_CP071925.1,5591,5591
GCF_017584065.1,plasmid_AE577,NZ_CP071929.1,2989,2993
GCF_017584065.1,plasmid_AH273,NZ_CP071931.1,26577,26577
GCF_017584065.1,plasmid_AC731,NZ_CP071930.1,169473,173067
GCF_017584065.1,plasmid_AC731,NZ_CP071931.1,61341,173067
GCF_017584065.1,plasmid_AH188,NZ_CP071931.1,2674,2674
GCF_017584065.1,plasmid_AA894,NZ_CP071928.1,8736,10508
GCF_017584065.1,plasmid_AA894,NZ_CP071927.1,1772,10508
GCF_017584065.1,plasmid_AA894,NZ_CP071931.1,8860,10508
GCF_017584065.1,plasmid_AA894,NZ_CP071926.1,1772,10508
GCF_017584065.1,plasmid_AA894,NZ_CP071930.1,1768,10508
GCF_017584065.1,plasmid_AB918,NZ_CP071929.1,14348,17109
GCF_017584065.1,plasmid_AB918,NZ_CP071931.1,5522,17109
GCF_017584065.1,plasmid_AB615,NZ_CP071927.1,5941,5941
GCF_016415385.1,plasmid_AB173,NZ_CP066610.1,21266,21266
GCF_016415385.1,plasmid_AB173,NZ_CP066606.1,14930,21266
GCF_016415385.1,plasmid_AE577,NZ_CP066610.1,3208,3208
GCF_016415385.1,plasmid_AH273,NZ_CP066606.1,27925,27925
GCF_016415385.1,plasmid_AD910,NZ_CP066609.1,24095,26775
GCF_016415385.1,plasmid_AD910,NZ_CP066606.1,26420,26775
GCF_016415385.1,plasmid_AC537,NZ_CP066612.1,4088,4156
GCF_016415385.1,plasmid_AE672,NZ_CP066607.1,1831,1831
GCF_016415385.1,plasmid_AC731,NZ_CP066608.1,173864,177132
GCF_016415385.1,plasmid_AC731,NZ_CP066609.1,29789,177132
GCF_016415385.1,plasmid_AC731,NZ_CP066610.1,7866,177132
GCF_016415385.1,plasmid_AC731,NZ_CP066606.1,91758,177132
GCF_016415385.1,plasmid_AA892,NZ_CP066611.1,6303,6303
GCF_016126675.1,plasmid_AC534,NZ_CP065934.1,3702,5550
GCF_016126675.1,plasmid_AC534,NZ_CP065935.1,1848,5550
GCF_016126675.1,plasmid_AB173,NZ_CP065932.1,19766,19766
GCF_016126675.1,plasmid_AB616,NZ_CP065932.1,4816,4816
GCF_016126675.1,plasmid_AH273,NZ_CP065928.1,27925,27925
GCF_016126675.1,plasmid_AD910,NZ_CP065931.1,55259,92492
GCF_016126675.1,plasmid_AD910,NZ_CP065929.1,27385,92492
GCF_016126675.1,plasmid_AD910,NZ_CP065932.1,13452,92492
GCF_016126675.1,plasmid_AD910,NZ_CP065928.1,86616,92492
GCF_016126675.1,plasmid_AD910,NZ_CP065930.1,4446,92492
GCF_016126675.1,plasmid_AC731,NZ_CP065929.1,62672,68372
GCF_016126675.1,plasmid_AC731,NZ_CP065928.1,30981,68372
GCF_016126675.1,plasmid_AC731,NZ_CP065930.1,1378,68372
GCF_016126675.1,plasmid_AH188,NZ_CP065928.1,5432,5432
GCF_016126675.1,plasmid_AD269,NZ_CP065929.1,19402,19402
GCF_016126675.1,plasmid_AA894,NZ_CP065933.1,9316,9316
GCF_016406385.1,plasmid_AB756,NZ_CP066421.1,21357,18596
GCF_016406385.1,plasmid_AB173,NZ_CP066424.1,25430,25430
GCF_016406385.1,plasmid_AD100,NZ_CP066424.1,5244,9774
GCF_016406385.1,plasmid_AD100,NZ_CP066421.1,57270,9774
GCF_016406385.1,plasmid_AH273,NZ_CP066421.1,27922,27922
GCF_016406385.1,plasmid_AC731,NZ_CP066423.1,54816,221808
GCF_016406385.1,plasmid_AC731,NZ_CP066422.1,176499,221808
GCF_016406385.1,plasmid_AC731,NZ_CP066421.1,61232,221808
GCF_016406385.1,plasmid_AC731,NZ_CP066425.1,3544,221808
GCF_016406385.1,plasmid_AC731,NZ_CP066424.1,1382,221808
GCF_016406385.1,plasmid_AA891,NZ_CP066425.1,8746,8746
GCF_009938285.1,plasmid_AB369,NZ_AP022343.1,90033,106475
GCF_009938285.1,plasmid_AB369,NZ_AP022342.1,15109,106475
GCF_009938285.1,plasmid_AB369,NZ_AP022341.1,8515,106475
GCF_009938285.1,plasmid_AD906,NZ_AP022342.1,98216,105037
GCF_009938285.1,plasmid_AD906,NZ_AP022341.1,47510,105037
GCF_009938285.1,plasmid_AH273,NZ_AP022341.1,27820,27820
GCF_009938285.1,plasmid_AE672,no_correct_alignments,0,0
GCF_009938285.1,plasmid_AC731,NZ_AP022342.1,42744,55066
GCF_009938285.1,plasmid_AC731,NZ_AP022343.1,10065,55066
GCF_009938285.1,plasmid_AC731,NZ_AP022341.1,41497,55066
GCF_009938285.1,plasmid_AC670,NZ_AP022341.1,5682,5685
GCF_009938285.1,plasmid_AA892,NZ_AP022344.1,6258,6303
GCF_019977495.1,plasmid_AB756,NZ_AP024831.1,17188,14431
GCF_019977495.1,plasmid_AE577,no_correct_alignments,0,0
GCF_019977495.1,plasmid_AH273,NZ_AP024831.1,27916,27916
GCF_019977495.1,plasmid_novel_85b037556cfb6b6c298663e9f795dca8,NZ_AP024831.1,48823,30338
GCF_019977495.1,plasmid_novel_85b037556cfb6b6c298663e9f795dca8,NZ_AP024832.1,19329,30338
GCF_019977495.1,plasmid_AD910,NZ_AP024833.1,53420,63458
GCF_019977495.1,plasmid_AD910,NZ_AP024832.1,7870,63458
GCF_019977495.1,plasmid_AD910,NZ_AP024831.1,24228,63458
GCF_019977495.1,plasmid_AE672,no_correct_alignments,0,0
GCF_019977495.1,plasmid_AC731,NZ_AP024832.1,49882,55180
GCF_019977495.1,plasmid_AC731,NZ_AP024831.1,38548,55180
GCF_019977495.1,plasmid_AA890,no_correct_alignments,0,0
GCF_019977495.1,plasmid_AB117,NZ_AP024831.1,3285,3285
GCF_019977495.1,plasmid_AA894,NZ_AP024834.1,8800,15706
GCF_019977495.1,plasmid_AA894,NZ_AP024835.1,5837,15706
GCF_019977495.1,plasmid_AA894,NZ_AP024831.1,7421,15706
GCF_019977495.1,plasmid_AB613,NZ_AP024836.1,5850,5850
GCF_016406605.1,plasmid_AB756,NZ_CP066473.1,19654,16893
GCF_016406605.1,plasmid_AB173,NZ_CP066475.1,18520,18520
GCF_016406605.1,plasmid_AD100,NZ_CP066475.1,7223,10105
GCF_016406605.1,plasmid_AD100,NZ_CP066473.1,29897,10105
GCF_016406605.1,plasmid_AE577,NZ_CP066475.1,5485,10534
GCF_016406605.1,plasmid_AE577,NZ_CP066476.1,1901,10534
GCF_016406605.1,plasmid_AE577,NZ_CP066473.1,13022,10534
GCF_016406605.1,plasmid_AH273,NZ_CP066473.1,27982,27982
GCF_016406605.1,plasmid_AC731,NZ_CP066476.1,60020,223346
GCF_016406605.1,plasmid_AC731,NZ_CP066474.1,169276,223346
GCF_016406605.1,plasmid_AC731,NZ_CP066475.1,8526,223346
GCF_016406605.1,plasmid_AC731,NZ_CP066473.1,74640,223346
GCF_016406605.1,plasmid_AB760,NZ_CP066475.1,10625,10625
GCF_016406605.1,plasmid_AB615,NZ_CP066478.1,5212,5212
GCF_016406605.1,plasmid_AA892,NZ_CP066477.1,6094,6303
GCF_015325925.1,plasmid_AB756,NZ_CP064049.1,8304,6946
GCF_015325925.1,plasmid_AB756,NZ_CP064052.1,1403,6946
GCF_015325925.1,plasmid_AA893,NZ_CP064052.1,4698,4698
GCF_015325925.1,plasmid_AH273,NZ_CP064049.1,26576,26576
GCF_015325925.1,plasmid_AD910,NZ_CP064050.1,9804,16819
GCF_015325925.1,plasmid_AD910,NZ_CP064051.1,7015,16819
GCF_015325925.1,plasmid_AC732,NZ_CP064051.1,49942,217168
GCF_015325925.1,plasmid_AC732,NZ_CP064050.1,170521,217168
GCF_015325925.1,plasmid_AC732,NZ_CP064049.1,98010,217168
GCF_015325925.1,plasmid_AC732,NZ_CP064052.1,4231,217168
GCF_015325925.1,plasmid_AB918,NZ_CP064052.1,22046,22046
GCF_023375425.1,plasmid_AB756,NZ_CP091222.1,22616,41397
GCF_023375425.1,plasmid_AB756,NZ_CP091223.1,18781,41397
GCF_023375425.1,plasmid_AC726,NZ_CP091222.1,50213,50213
GCF_023375425.1,plasmid_AD907,NZ_CP091222.1,42776,42776
GCF_023375385.1,plasmid_AB756,NZ_CP091214.1,38047,61468
GCF_023375385.1,plasmid_AB756,NZ_CP091216.1,23421,61468
GCF_023375385.1,plasmid_AC728,NZ_CP091213.1,65970,49114
GCF_023375385.1,plasmid_AC728,NZ_CP091214.1,26735,49114
GCF_023375385.1,plasmid_AC729,NZ_CP091214.1,39436,43668
GCF_023375385.1,plasmid_AC729,NZ_CP091213.1,11329,43668
GCF_023375385.1,plasmid_AD907,NZ_CP091214.1,44643,44643
GCF_028335565.1,plasmid_AB756,NZ_CP116542.1,17638,17638
GCF_028335565.1,plasmid_AB173,NZ_CP116540.1,14666,21518
GCF_028335565.1,plasmid_AB173,NZ_CP116542.1,8318,21518
GCF_028335565.1,plasmid_AD906,NZ_CP116541.1,26963,30038
GCF_028335565.1,plasmid_AD906,NZ_CP116540.1,34195,30038
GCF_028335565.1,plasmid_AD582,NZ_CP116540.1,40538,21140
GCF_028335565.1,plasmid_AD582,NZ_CP116542.1,7021,21140
GCF_028335565.1,plasmid_AD582,NZ_CP116541.1,5017,21140
GCF_028335565.1,plasmid_AC731,NZ_CP116541.1,42581,44008
GCF_028335565.1,plasmid_AC731,NZ_CP116540.1,2854,44008
GCF_028335565.1,plasmid_AD907,NZ_CP116541.1,53594,53595
GCF_028335265.1,plasmid_AB756,NZ_CP116522.1,17432,17432
GCF_028335265.1,plasmid_AC728,NZ_CP116521.1,62197,58427
GCF_028335265.1,plasmid_AC728,NZ_CP116520.1,24652,58427
GCF_028335265.1,plasmid_AC728,NZ_CP116522.1,1434,58427
GCF_028335265.1,plasmid_AD582,NZ_CP116521.1,31069,46356
GCF_028335265.1,plasmid_AD582,NZ_CP116522.1,16389,46356
GCF_028335265.1,plasmid_AC670,NZ_CP116522.1,4360,4360
GCF_028335265.1,plasmid_AD907,NZ_CP116521.1,44965,44978
GCF_016406425.1,plasmid_AB173,NZ_CP066454.1,34538,39881
GCF_016406425.1,plasmid_AB173,NZ_CP066451.1,16423,39881
GCF_016406425.1,plasmid_AH273,NZ_CP066451.1,27925,27925
GCF_016406425.1,plasmid_AD910,NZ_CP066453.1,24096,28102
GCF_016406425.1,plasmid_AD910,NZ_CP066451.1,22754,28102
GCF_016406425.1,plasmid_AE672,NZ_CP066456.1,1809,1980
GCF_016406425.1,plasmid_AC731,NZ_CP066453.1,26456,171352
GCF_016406425.1,plasmid_AC731,NZ_CP066452.1,145450,171352
GCF_016406425.1,plasmid_AC731,NZ_CP066451.1,109402,171352
GCF_016406425.1,plasmid_AC731,NZ_CP066454.1,4008,171352
GCF_016406425.1,plasmid_AA892,NZ_CP066455.1,5358,5368
GCF_019175465.1,plasmid_AB756,NZ_CP072886.1,50711,57265
GCF_019175465.1,plasmid_AB756,NZ_CP072887.1,10563,57265
GCF_019175465.1,plasmid_AC727,NZ_CP072885.1,128791,134634
GCF_019175465.1,plasmid_AC727,NZ_CP072884.1,16072,134634
GCF_019175465.1,plasmid_AA894,NZ_CP072887.1,12153,13215
GCF_019175465.1,plasmid_AA894,NZ_CP072884.1,2124,13215
GCF_019175465.1,plasmid_AA894,NZ_CP072885.1,1062,13215
GCF_016415325.1,plasmid_AB173,NZ_CP066594.1,29277,34619
GCF_016415325.1,plasmid_AB173,NZ_CP066596.1,421,34619
GCF_016415325.1,plasmid_AB173,NZ_CP066597.1,2842,34619
GCF_016415325.1,plasmid_AB173,NZ_CP066591.1,11944,34619
GCF_016415325.1,plasmid_AB616,NZ_CP066594.1,1823,1823
GCF_016415325.1,plasmid_AH273,NZ_CP066591.1,27925,27925
GCF_016415325.1,plasmid_AD910,NZ_CP066593.1,25305,27983
GCF_016415325.1,plasmid_AD910,NZ_CP066591.1,24866,27983
GCF_016415325.1,plasmid_AC537,NZ_CP066595.1,4156,4156
GCF_016415325.1,plasmid_AE672,no_correct_alignments,0,0
GCF_016415325.1,plasmid_AC731,NZ_CP066593.1,26470,169618
GCF_016415325.1,plasmid_AC731,NZ_CP066592.1,172022,169618
GCF_016415325.1,plasmid_AC731,NZ_CP066591.1,112756,169618
GCF_016415325.1,plasmid_AC731,NZ_CP066594.1,4008,169618
GCF_016415325.1,plasmid_AA892,NZ_CP066596.1,5359,5359
GCF_016415325.1,plasmid_AA892,NZ_CP066597.1,1465,5359
GCF_020162175.1,plasmid_AB756,NZ_CP083920.1,25941,25941
GCF_020162175.1,plasmid_AE577,NZ_CP083926.1,3039,3200
GCF_020162175.1,plasmid_AE577,NZ_CP083922.1,1329,3200
GCF_020162175.1,plasmid_AH273,NZ_CP083920.1,27922,27922
GCF_020162175.1,plasmid_AB171,NZ_CP083922.1,37263,37263
GCF_020162175.1,plasmid_AB171,NZ_CP083920.1,2648,37263
GCF_020162175.1,plasmid_AE672,NZ_CP083929.1,1979,1979
GCF_020162175.1,plasmid_AC732,NZ_CP083921.1,181797,190159
GCF_020162175.1,plasmid_AC732,NZ_CP083920.1,112523,190159
GCF_020162175.1,plasmid_AC732,NZ_CP083925.1,1514,190159
GCF_020162175.1,plasmid_AC732,NZ_CP083923.1,1439,190159
GCF_020162175.1,plasmid_AC732,NZ_CP083922.1,1439,190159
GCF_020162175.1,plasmid_AB614,NZ_CP083924.1,5773,5773
GCF_028335225.1,plasmid_AB756,NZ_CP116535.1,12180,15066
GCF_028335225.1,plasmid_AB756,NZ_CP116534.1,2886,15066
GCF_028335225.1,plasmid_novel_e98a902c460b9a7d666e28fdebc783db,NZ_CP116533.1,38574,45001
GCF_028335225.1,plasmid_novel_e98a902c460b9a7d666e28fdebc783db,NZ_CP116532.1,6426,45001
GCF_028335225.1,plasmid_AA894,NZ_CP116534.1,9324,10663
GCF_028335225.1,plasmid_AA894,NZ_CP116533.1,2678,10663
GCF_028335225.1,plasmid_AC750,NZ_CP116533.1,8679,16150
GCF_028335225.1,plasmid_AC750,NZ_CP116534.1,7471,16150
GCF_028335225.1,plasmid_AD907,NZ_CP116533.1,42146,42146
GCF_023299325.1,plasmid_AB756,NZ_CP097016.1,34623,34623
GCF_023299325.1,plasmid_AB756,NZ_CP097015.1,2774,34623
GCF_023299325.1,plasmid_AB756,NZ_CP097014.1,2423,34623
GCF_023299325.1,plasmid_AB920,NZ_CP097015.1,21838,18046
GCF_023299325.1,plasmid_AB920,NZ_CP097014.1,16150,18046
GCF_023299325.1,plasmid_AC345,NZ_CP097014.1,18970,18970
GCF_023299325.1,plasmid_AD908,NZ_CP097014.1,49169,54052
GCF_023299325.1,plasmid_AD908,NZ_CP097015.1,13858,54052
GCF_023299325.1,plasmid_AB918,NZ_CP097015.1,19815,19815
GCF_023299325.1,plasmid_AC726,NZ_CP097015.1,44312,54205
GCF_023299325.1,plasmid_AC726,NZ_CP097014.1,32654,54205
GCF_023299325.1,plasmid_AD907,NZ_CP097015.1,42217,42217
GCF_016415485.1,plasmid_AB756,NZ_CP066673.1,34622,39983
GCF_016415485.1,plasmid_AB756,NZ_CP066675.1,7516,39983
GCF_016415485.1,plasmid_AD906,NZ_CP066673.1,48218,41119
GCF_016415485.1,plasmid_AD906,NZ_CP066674.1,17342,41119
GCF_016415485.1,plasmid_AC729,NZ_CP066673.1,20046,33493
GCF_016415485.1,plasmid_AC729,NZ_CP066674.1,13447,33493
GCF_016415485.1,plasmid_AH273,NZ_CP066673.1,27902,27902
GCF_016415485.1,plasmid_AD910,NZ_CP066674.1,63856,97374
GCF_016415485.1,plasmid_AD910,NZ_CP066676.1,20767,97374
GCF_016415485.1,plasmid_AD910,NZ_CP066675.1,11720,97374
GCF_016415485.1,plasmid_AD910,NZ_CP066673.1,77941,97374
GCF_016415485.1,plasmid_AC537,NZ_CP066679.1,4305,4305
GCF_016415485.1,plasmid_AC731,NZ_CP066673.1,60629,87906
GCF_016415485.1,plasmid_AC731,NZ_CP066674.1,45783,87906
GCF_016415485.1,plasmid_AH188,NZ_CP066673.1,2182,2182
GCF_016415485.1,plasmid_AA892,NZ_CP066678.1,6162,6162
GCF_016415485.1,plasmid_AA891,NZ_CP066677.1,7016,7016
GCF_015999605.1,plasmid_AB173,NZ_CP065550.1,34419,39650
GCF_015999605.1,plasmid_AB173,NZ_CP065547.1,17916,39650
GCF_015999605.1,plasmid_AH273,NZ_CP065547.1,27925,27925
GCF_015999605.1,plasmid_AD910,NZ_CP065548.1,19240,21920
GCF_015999605.1,plasmid_AD910,NZ_CP065547.1,21155,21920
GCF_015999605.1,plasmid_AE672,no_correct_alignments,0,0
GCF_015999605.1,plasmid_AC731,NZ_CP065548.1,32536,180652
GCF_015999605.1,plasmid_AC731,NZ_CP065549.1,178151,180652
GCF_015999605.1,plasmid_AC731,NZ_CP065547.1,113618,180652
GCF_015999605.1,plasmid_AC731,NZ_CP065550.1,4008,180652
GCF_015999605.1,plasmid_AA892,NZ_CP065551.1,3782,6303
GCF_015999605.1,plasmid_AA892,NZ_CP065552.1,2521,6303
GCF_019175525.1,plasmid_AD055,NZ_CP072896.1,35454,35509
GCF_019175525.1,plasmid_AD906,NZ_CP072894.1,52330,27144
GCF_026409165.1,plasmid_AB369,NZ_CP112864.1,77450,80051
GCF_026409165.1,plasmid_AB369,NZ_CP112863.1,10904,80051
GCF_026409165.1,plasmid_AB369,NZ_CP112862.1,8790,80051
GCF_026409165.1,plasmid_AB756,NZ_CP112862.1,16536,12383
GCF_026409165.1,plasmid_AB756,NZ_CP112865.1,2738,12383
GCF_026409165.1,plasmid_AH273,NZ_CP112862.1,27909,27909
GCF_026409165.1,plasmid_AE672,NZ_CP112865.1,1933,1933
GCF_026409165.1,plasmid_AC731,NZ_CP112863.1,118152,151384
GCF_026409165.1,plasmid_AC731,NZ_CP112865.1,38186,151384
GCF_026409165.1,plasmid_AC731,NZ_CP112862.1,137757,151384
GCF_026409165.1,plasmid_AC731,NZ_CP112864.1,2679,151384
GCF_026409165.1,plasmid_AC670,NZ_CP112862.1,5686,5686
GCF_026409165.1,plasmid_AD907,NZ_CP112863.1,52489,52489
GCF_028335205.1,plasmid_AB756,NZ_CP116516.1,11421,11421
GCF_028335205.1,plasmid_AB756,NZ_CP116514.1,1066,11421
GCF_028335205.1,plasmid_AC729,NZ_CP116514.1,24462,70968
GCF_028335205.1,plasmid_AC729,NZ_CP116515.1,56307,70968
GCF_028335205.1,plasmid_AC729,NZ_CP116516.1,3769,70968
GCF_028335205.1,plasmid_AE672,NZ_CP116514.1,2029,5274
GCF_028335205.1,plasmid_AE672,NZ_CP116516.1,1936,5274
GCF_028335205.1,plasmid_AE672,NZ_CP116515.1,1309,5274
GCF_028335205.1,plasmid_AA894,NZ_CP116516.1,8864,11264
GCF_028335205.1,plasmid_AA894,NZ_CP116514.1,25764,11264
GCF_028335205.1,plasmid_AA894,NZ_CP116515.1,2676,11264
GCF_028335205.1,plasmid_AD907,NZ_CP116515.1,42154,42154
GCF_016406525.1,plasmid_AB173,NZ_CP066446.1,38545,42388
GCF_016406525.1,plasmid_AB173,NZ_CP066448.1,3849,42388
GCF_016406525.1,plasmid_AB173,NZ_CP066445.1,1499,42388
GCF_016406525.1,plasmid_AB173,NZ_CP066443.1,23072,42388
GCF_016406525.1,plasmid_AB173,NZ_CP066444.1,1010,42388
GCF_016406525.1,plasmid_AD906,NZ_CP066444.1,44208,47641
GCF_016406525.1,plasmid_AD906,NZ_CP066443.1,12979,47641
GCF_016406525.1,plasmid_AH273,NZ_CP066443.1,27925,27925
GCF_016406525.1,plasmid_AD910,NZ_CP066444.1,45960,89077
GCF_016406525.1,plasmid_AD910,NZ_CP066445.1,47954,89077
GCF_016406525.1,plasmid_AD910,NZ_CP066443.1,101424,89077
GCF_016406525.1,plasmid_AC537,NZ_CP066449.1,4156,4156
GCF_016406525.1,plasmid_AE672,no_correct_alignments,0,0
GCF_016406525.1,plasmid_AC732,NZ_CP066444.1,46861,48327
GCF_016406525.1,plasmid_AC732,NZ_CP066443.1,14650,48327
GCF_016406525.1,plasmid_AA892,NZ_CP066447.1,5368,5368
GCF_016406525.1,plasmid_AA892,NZ_CP066448.1,1474,5368
GCF_028335525.1,plasmid_AB756,NZ_CP116538.1,23141,23141
GCF_028335525.1,plasmid_AB756,NZ_CP116536.1,1066,23141
GCF_028335525.1,plasmid_AC729,NZ_CP116537.1,58149,62296
GCF_028335525.1,plasmid_AC729,NZ_CP116536.1,4147,62296
GCF_028335525.1,plasmid_AE816,NZ_CP116539.1,15523,15523
GCF_028335525.1,plasmid_AD907,NZ_CP116537.1,66304,67670
GCF_028335525.1,plasmid_AD907,NZ_CP116536.1,9562,67670
