GCF_016591995.1_ASM1659199v1,S113_LN_i_1289_dp_f_65.47291042256701,1289,
GCF_903932595.1_P3.1,S31_LN_i_19264_dp_f_4.420794170424951,19264,
GCF_903932595.1_P3.1,S43_LN_i_6341_dp_f_5.20102952008913,6341,
GCF_903932595.1_P3.1,S48_LN_i_2946_dp_f_5.018429428055759,2946,
GCF_018093105.1_ASM1809310v1,S23_LN_i_8093_dp_f_0.2716851275539375,8093,
GCF_018093225.1_ASM1809322v1,S37_LN_i_14865_dp_f_0.2743748814337448,14865,
GCF_018093225.1_ASM1809322v1,S47_LN_i_7976_dp_f_0.9115629625746992,7976,
GCF_903932605.1_HU-14,S31_LN_i_19264_dp_f_4.062534592702542,19264,
GCF_903932605.1_HU-14,S45_LN_i_6341_dp_f_4.566253417937662,6341,
GCF_903932605.1_HU-14,S50_LN_i_2946_dp_f_4.473064110260814,2946,
GCF_019653615.1_ASM1965361v1,S42_LN_i_11132_dp_f_2.6781722204904606,11132,
GCF_019653615.1_ASM1965361v1,S49_LN_i_4636_dp_f_2.7516268191251805,4636,
GCF_016889945.1_ASM1688994v1,S20_LN_i_3111_dp_f_20.790731204570925,3111,
