"strain","bin_name","reference_id","alignment_length","bin_length","classification","Chromosome_contamination","software","species"
"GCF_023573005.1_ASM2357300v1","plasmid_AF887","NZ_CP097616.1",216217,191874,"chromosome",0.975,"MOB-suite","General"
"GCF_023300045.1_ASM2330004v1","plasmid_AB756","NZ_CP097072.1",13256,11707,"chromosome",0.868,"MOB-suite","General"
"GCF_023300045.1_ASM2330004v1","plasmid_AB922","NZ_CP097072.1",5988,5988,"chromosome",1,"MOB-suite","General"
"GCF_023300045.1_ASM2330004v1","plasmid_AB117","NZ_CP097072.1",3398,3398,"chromosome",1,"MOB-suite","General"
"GCF_023299565.1_ASM2329956v1","plasmid_AB920","NZ_CP097053.1",4046,17246,"chromosome",0.098,"MOB-suite","General"
"GCF_023299565.1_ASM2329956v1","plasmid_AD059","NZ_CP097053.1",7054,7054,"chromosome",1,"MOB-suite","General"
"GCF_023573065.1_ASM2357306v1","plasmid_AF885","NZ_CP097618.1",11657,11657,"chromosome",1,"MOB-suite","General"
"GCF_023573065.1_ASM2357306v1","plasmid_AF887","NZ_CP097618.1",222886,198525,"chromosome",0.975,"MOB-suite","General"
"GCF_905331365.1_AI3013v2_cpp","plasmid_AA739","NZ_OW968417.1",32069,308321,"chromosome",0.07,"MOB-suite","General"
"GCF_024917635.1_ASM2491763v1","plasmid_AF576","NZ_CP103642.1",44892,44892,"chromosome",1,"MOB-suite","General"
"GCF_024917635.1_ASM2491763v1","plasmid_AA400","NZ_CP103642.1",6775,103087,"chromosome",0.016,"MOB-suite","General"
"GCF_021733585.2_ASM2173358v3","plasmid_AF151","NZ_CP090954.2",22837,40369,"chromosome",0.14,"MOB-suite","General"
"GCF_022170805.1_ASM2217080v1","plasmid_AE216","NZ_CP081872.1",1153,203581,"chromosome",0.006,"MOB-suite","General"
"GCF_022591735.1_ASM2259173v1","plasmid_AF098","NZ_CP093260.1",11312,17340,"chromosome",0.652,"MOB-suite","General"
"GCF_021496345.1_ASM2149634v1","plasmid_AC600","NZ_CP045101.1",4008,13149,"chromosome",0.305,"MOB-suite","General"
"GCF_905329555.2_AI2744v1_cpp","plasmid_AC082","NZ_OW967518.1",16984,16984,"chromosome",1,"MOB-suite","General"
"GCF_018588665.2_ASM1858866v2","plasmid_AH109","NZ_CP094381.1",27951,27951,"chromosome",1,"MOB-suite","General"
"GCF_021459825.1_ASM2145982v1","plasmid_AC951","NZ_CP090504.1",13794,12599,"chromosome",0.905,"MOB-suite","General"
"GCF_024334025.1_ASM2433402v1","plasmid_AC320","NZ_CP084082.1",3155,43700,"chromosome",0.072,"MOB-suite","General"
"GCF_024334025.1_ASM2433402v1","plasmid_AG887","NZ_CP084082.1",103330,103332,"chromosome",1,"MOB-suite","General"
"GCF_024334025.1_ASM2433402v1","plasmid_AE190","NZ_CP084082.1",32762,31154,"chromosome",0.948,"MOB-suite","General"
"GCF_025232575.1_ASM2523257v1","plasmid_AG887","NZ_CP012242.1",100463,100463,"chromosome",1,"MOB-suite","General"
"GCF_021459865.1_ASM2145986v1","plasmid_AC951","NZ_CP090508.1",15870,14675,"chromosome",0.919,"MOB-suite","General"
"GCF_021398305.1_ASM2139830v1","plasmid_AD280","NZ_CP071988.1",8961,25896,"chromosome",0.165,"MOB-suite","General"
"GCF_021398305.1_ASM2139830v1","plasmid_AB915","NZ_CP071988.1",7760,7760,"chromosome",1,"MOB-suite","General"
"GCF_905335825.2_AN2340v1_cp","plasmid_AA405","NZ_OW969912.1",2219,260131,"chromosome",0.009,"MOB-suite","General"
"GCF_023573045.1_ASM2357304v1","plasmid_AF887","NZ_CP097620.1",213254,187951,"chromosome",0.964,"MOB-suite","General"
"GCF_024334045.1_ASM2433404v1","plasmid_AB915","NZ_CP084080.1",3155,3155,"chromosome",1,"MOB-suite","General"
"GCF_024334045.1_ASM2433404v1","plasmid_AG887","NZ_CP084080.1",101847,101849,"chromosome",1,"MOB-suite","General"
"GCF_024334045.1_ASM2433404v1","plasmid_AE190","NZ_CP084080.1",26330,23292,"chromosome",0.869,"MOB-suite","General"
"GCF_023573085.1_ASM2357308v1","plasmid_AF887","NZ_CP097612.1",143190,106255,"chromosome",0.837,"MOB-suite","General"
"GCF_022923675.1_ASM2292367v1","plasmid_AG450","NZ_CP094122.1",13251,11221,"chromosome",0.819,"MOB-suite","General"
"GCF_024918215.1_ASM2491821v1","plasmid_AA543","NZ_CP103679.1",20870,291983,"chromosome",0.038,"MOB-suite","General"
"GCF_024918215.1_ASM2491821v1","plasmid_AA821","NZ_CP103679.1",70585,106948,"chromosome",0.66,"MOB-suite","General"
"GCF_023008225.1_ASM2300822v1","plasmid_AD418","NZ_CP061509.1",7620,7620,"chromosome",1,"MOB-suite","General"
"GCF_022925795.1_ASM2292579v1","plasmid_novel_f6ffb001c3b2376e33e842bb782c8676","NZ_CP094165.1",11587,11587,"chromosome",1,"MOB-suite","General"
"GCF_024158965.2_ASM2415896v2","plasmid_novel_1d15af665d9fb86180f9da37a1c82391","NZ_CP102859.1",1890,11047,"chromosome",0.171,"MOB-suite","General"
"GCF_024917295.1_ASM2491729v1","plasmid_AC125","NZ_CP103554.1",43333,153670,"chromosome",0.282,"MOB-suite","General"
"GCF_024758745.1_ASM2475874v1","plasmid_AF620","NZ_CP097163.1",39872,39872,"chromosome",1,"MOB-suite","General"
"GCF_024758745.1_ASM2475874v1","plasmid_AF022","NZ_CP097163.1",16020,13910,"chromosome",0.924,"MOB-suite","General"
"GCF_018588615.2_ASM1858861v2","plasmid_AH109","NZ_CP094383.1",45891,45891,"chromosome",1,"MOB-suite","General"
"GCF_021513115.1_ASM2151311v1","plasmid_AD281","NZ_CP090993.1",2077,31324,"chromosome",0.066,"MOB-suite","General"
"GCF_024918795.1_ASM2491879v1","plasmid_AC431","NZ_CP103722.1",5589,9250,"chromosome",0.604,"MOB-suite","General"
"GCF_024918795.1_ASM2491879v1","plasmid_AA448","NZ_CP103722.1",49749,88499,"chromosome",0.186,"MOB-suite","General"
"GCF_025349945.1_ASM2534994v1","plasmid_AA033","NZ_CP104450.1",25258,110743,"chromosome",0.02,"MOB-suite","General"
"GCF_023299345.1_ASM2329934v1","plasmid_AD059","NZ_CP097051.1",10034,10034,"chromosome",1,"MOB-suite","General"
"GCF_023299345.1_ASM2329934v1","plasmid_AC670","NZ_CP097051.1",4471,4471,"chromosome",1,"MOB-suite","General"
"GCF_023299345.1_ASM2329934v1","plasmid_AD414","NZ_CP097051.1",15395,12343,"chromosome",0.876,"MOB-suite","General"
"GCF_024917695.1_ASM2491769v1","plasmid_AD068","NZ_CP103487.1",2094,3452,"chromosome",0.607,"MOB-suite","General"
"GCF_024918255.1_ASM2491825v1","plasmid_AA543","NZ_CP103683.1",20890,292151,"chromosome",0.038,"MOB-suite","General"
"GCF_024918255.1_ASM2491825v1","plasmid_AA821","NZ_CP103683.1",70541,106904,"chromosome",0.66,"MOB-suite","General"
"GCF_905338045.2_AI3057v1_cp","plasmid_AB130","NZ_OW969904.1",18434,143273,"chromosome",0.01,"MOB-suite","General"
"GCF_022570415.1_ASM2257041v1","plasmid_AE985","NZ_CP093028.1",147014,147014,"chromosome",1,"MOB-suite","General"
"GCF_022478075.1_ASM2247807v1","plasmid_AB121","NZ_CP089307.1",18110,10698,"chromosome",0.746,"MOB-suite","General"
"GCF_022478075.1_ASM2247807v1","plasmid_AC452","NZ_CP089307.1",8854,8854,"chromosome",1,"MOB-suite","General"
"GCF_022478075.1_ASM2247807v1","plasmid_AC563","NZ_CP089307.1",37183,28407,"chromosome",0.882,"MOB-suite","General"
"GCF_022591895.1_ASM2259189v1","plasmid_AB620","NZ_CP093249.1",5281,5281,"chromosome",1,"MOB-suite","General"
"GCF_022220405.1_ASM2222040v1","plasmid_AA810","NZ_CP092042.1",20931,20931,"chromosome",1,"MOB-suite","General"
"GCF_023375155.1_ASM2337515v1","plasmid_AC670","NZ_CP088183.1",8030,8030,"chromosome",1,"MOB-suite","General"
"GCF_023573125.1_ASM2357312v1","plasmid_AF887","NZ_CP097622.1",246119,222924,"chromosome",0.979,"MOB-suite","General"
"GCF_024917395.1_ASM2491739v1","plasmid_AA400","NZ_CP103577.1",84789,41297,"chromosome",0.288,"MOB-suite","General"
"GCF_024917395.1_ASM2491739v1","plasmid_AA739","NZ_CP103577.1",103833,189972,"chromosome",0.339,"MOB-suite","General"
"GCF_024717335.1_ASM2471733v1","plasmid_AC562","NZ_CP094959.1",36633,36633,"chromosome",1,"MOB-suite","General"
"GCF_022670815.1_ASM2267081v1","plasmid_AD295","NZ_CP093413.1",8088,8088,"chromosome",1,"MOB-suite","General"
"GCF_023375325.1_ASM2337532v1","plasmid_AB756","NZ_CP091204.1",37233,32085,"chromosome",0.868,"MOB-suite","General"
"GCF_023375325.1_ASM2337532v1","plasmid_novel_4177b46a5e84c8a56e3937b03f514c2e","NZ_CP091204.1",6456,6456,"chromosome",1,"MOB-suite","General"
"GCF_024054255.2_ASM2405425v2","plasmid_AG322","NZ_CP102714.1",242717,223531,"chromosome",0.977,"MOB-suite","General"
"GCF_021459805.1_ASM2145980v1","plasmid_AC951","NZ_CP090506.1",13794,12599,"chromosome",0.905,"MOB-suite","General"
"GCF_021398655.1_ASM2139865v1","plasmid_AC951","NZ_CP090316.1",15870,14675,"chromosome",0.919,"MOB-suite","General"
"GCF_021474225.1_ASM2147422v1","plasmid_AC952","NZ_CP090547.1",21778,20490,"chromosome",0.937,"MOB-suite","General"
"GCF_024158105.2_ASM2415810v2","plasmid_novel_f16e5b756c3e487e0cbcbb302762a9dc","NZ_CP102712.1",16619,13265,"chromosome",0.916,"MOB-suite","General"
"GCF_905322535.1_AI2624v1_cpp","plasmid_AA739","NZ_OW967388.1",7589,200939,"chromosome",0.026,"MOB-suite","General"
"GCF_023195715.1_ASM2319571v1","plasmid_AF571","NZ_CP096187.1",1783,28743,"chromosome",0.062,"MOB-suite","General"
"GCF_022533445.1_ASM2253344v1","plasmid_AE985","NZ_CP092846.1",110790,109612,"chromosome",0.989,"MOB-suite","General"
"GCF_025252385.1_ASM2525238v1","plasmid_AB305","NZ_CP104303.1",4365,4365,"chromosome",1,"MOB-suite","General"
"GCF_025252385.1_ASM2525238v1","plasmid_AC565","NZ_CP104303.1",26396,21576,"chromosome",0.944,"MOB-suite","General"
"GCF_025252385.1_ASM2525238v1","plasmid_AC000","NZ_CP104303.1",5831,5831,"chromosome",1,"MOB-suite","General"
"GCF_025252385.1_ASM2525238v1","plasmid_AB382","NZ_CP104303.1",14331,14331,"chromosome",1,"MOB-suite","General"
"GCF_025252385.1_ASM2525238v1","plasmid_AC572","NZ_CP104303.1",30416,56166,"chromosome",0.383,"MOB-suite","General"
"GCF_021513035.1_ASM2151303v1","plasmid_AD281","NZ_CP091006.1",2116,31221,"chromosome",0.068,"MOB-suite","General"
"GCF_024637915.1_ASM2463791v1","plasmid_AC000","NZ_CP094946.1",3075,3075,"chromosome",1,"MOB-suite","General"
"GCF_024637915.1_ASM2463791v1","plasmid_AC563","NZ_CP094946.1",41363,41364,"chromosome",1,"MOB-suite","General"
"GCF_020641355.2_ASM2064135v2","plasmid_AD312","NZ_CP104292.1",5688,5688,"chromosome",1,"MOB-suite","General"
"GCF_024397415.1_ASM2439741v1","plasmid_AB121","NZ_CP101538.1",3601,3601,"chromosome",1,"MOB-suite","General"
"GCF_025232255.1_ASM2523225v1","plasmid_AG887","NZ_CP012229.1",109289,109289,"chromosome",1,"MOB-suite","General"
"GCF_022879595.1_ASM2287959v1","bin_component_1","NZ_CP084265.1",29014,76511,"chromosome",0.286,"plasmidSPAdes","General"
"GCF_022879595.1_ASM2287959v1","bin_component_1","NZ_CP084266.1",24634,76511,"chromosome",0.217,"plasmidSPAdes","General"
"GCF_020002335.2_ASM2000233v2","bin_component_1","NZ_CP091078.1",18036,18257,"chromosome",0.988,"plasmidSPAdes","General"
"GCF_020002335.2_ASM2000233v2","bin_component_0","NZ_CP091078.1",355241,414935,"chromosome",0.719,"plasmidSPAdes","General"
"GCF_020002335.2_ASM2000233v2","bin_component_2","NZ_CP091078.1",1213,1213,"chromosome",1,"plasmidSPAdes","General"
"GCF_023195715.1_ASM2319571v1","bin_component_0","NZ_CP096187.1",98332,280673,"chromosome",0.072,"plasmidSPAdes","General"
"GCF_022453665.1_ASM2245366v1","bin_component_1","NZ_CP092641.1",35737,23748,"chromosome",0.518,"plasmidSPAdes","General"
"GCF_021398325.1_ASM2139832v1","bin_component_1","NZ_CP071992.1",246409,229771,"chromosome",0.952,"plasmidSPAdes","General"
"GCF_021398325.1_ASM2139832v1","bin_component_0","NZ_CP071992.1",278884,273190,"chromosome",0.992,"plasmidSPAdes","General"
"GCF_021398325.1_ASM2139832v1","bin_component_2","NZ_CP071992.1",66406,66406,"chromosome",1,"plasmidSPAdes","General"
"GCF_022670815.1_ASM2267081v1","bin_component_1","NZ_CP093413.1",23562,23562,"chromosome",1,"plasmidSPAdes","General"
"GCF_022670815.1_ASM2267081v1","bin_component_0","NZ_CP093413.1",18222,235460,"chromosome",0.077,"plasmidSPAdes","General"
"GCF_022221065.1_ASM2222106v1","bin_component_0","NZ_CP076184.1",582181,582335,"chromosome",1,"plasmidSPAdes","General"
"GCF_022221025.1_ASM2222102v1","bin_component_3","NZ_CP076178.1",63253,65741,"chromosome",0.962,"plasmidSPAdes","General"
"GCF_022221025.1_ASM2222102v1","bin_component_0","NZ_CP076178.1",1200661,1199274,"chromosome",0.999,"plasmidSPAdes","General"
"GCF_021559775.1_ASM2155977v1","bin_component_0","NZ_CP056047.1",16989,16171,"chromosome",0.576,"plasmidSPAdes","General"
"GCF_022674245.1_ASM2267424v1","bin_component_1","NZ_CP080467.1",106152,106300,"chromosome",0.999,"plasmidSPAdes","General"
"GCF_022674245.1_ASM2267424v1","bin_component_0","NZ_CP080467.1",119273,128265,"chromosome",0.455,"plasmidSPAdes","General"
"GCF_022570415.1_ASM2257041v1","bin_component_0","NZ_CP093028.1",120517,82124,"chromosome",0.805,"plasmidSPAdes","General"
"GCF_024804185.1_ASM2480418v1","bin_component_0","NZ_CP101657.1",1164020,1147795,"chromosome",0.967,"plasmidSPAdes","General"
"GCF_003594935.2_ASM359493v2","bin_component_0","NZ_CP043342.1",2078,70031,"chromosome",0.03,"plasmidSPAdes","General"
"GCF_024582835.1_ASM2458283v1","bin_component_1","NZ_CP102096.1",7561,30996,"chromosome",0.244,"plasmidSPAdes","General"
"GCF_024582835.1_ASM2458283v1","bin_component_0","NZ_CP102097.1",26319,29866,"chromosome",0.67,"plasmidSPAdes","General"
"GCF_023330585.1_ASM2333058v1","bin_component_0","NZ_CP097108.1",1861794,1848907,"chromosome",0.992,"plasmidSPAdes","General"
"GCF_022220505.1_ASM2222050v1","bin_component_1","NZ_CP076138.1",173450,130451,"chromosome",0.937,"plasmidSPAdes","General"
"GCF_021459865.1_ASM2145986v1","bin_component_1","NZ_CP090508.1",13585,13290,"chromosome",0.827,"plasmidSPAdes","General"
"GCF_021459865.1_ASM2145986v1","bin_component_0","NZ_CP090508.1",105521,119020,"chromosome",0.393,"plasmidSPAdes","General"
"GCF_002103235.2_ASM210323v2","bin_component_0","NZ_CP098507.1",384731,366274,"chromosome",0.981,"plasmidSPAdes","General"
"GCF_025147765.1_ASM2514776v1","bin_component_0","NZ_CP102265.1",16911,12480,"chromosome",0.881,"plasmidSPAdes","General"
"GCF_021513115.1_ASM2151311v1","bin_component_1","NZ_CP090993.1",41672,41716,"chromosome",0.999,"plasmidSPAdes","General"
"GCF_021513115.1_ASM2151311v1","bin_component_0","NZ_CP090993.1",213002,212476,"chromosome",0.861,"plasmidSPAdes","General"
"GCF_024758745.1_ASM2475874v1","bin_component_1","NZ_CP097163.1",39898,39949,"chromosome",0.999,"plasmidSPAdes","General"
"GCF_024758745.1_ASM2475874v1","bin_component_0","NZ_CP097163.1",442891,445679,"chromosome",0.994,"plasmidSPAdes","General"
"GCF_023573605.1_ASM2357360v1","bin_component_0","NZ_CP097646.1",1130953,1123207,"chromosome",0.991,"plasmidSPAdes","General"
"GCF_024334045.1_ASM2433404v1","bin_component_0","NZ_CP084080.1",3231,3235,"chromosome",0.999,"plasmidSPAdes","General"
"GCF_025146415.1_ASM2514641v1","bin_component_0","NZ_CP102257.1",559398,553100,"chromosome",0.957,"plasmidSPAdes","General"
"GCF_022220925.1_ASM2222092v1","bin_component_0","NZ_CP076164.1",761758,725197,"chromosome",0.986,"plasmidSPAdes","General"
"GCF_021474225.1_ASM2147422v1","bin_component_0","NZ_CP090547.1",213804,202667,"chromosome",0.448,"plasmidSPAdes","General"
"GCF_021474225.1_ASM2147422v1","bin_component_2","NZ_CP090547.1",16902,22165,"chromosome",0.659,"plasmidSPAdes","General"
"GCF_025252385.1_ASM2525238v1","bin_component_0","NZ_CP104303.1",279200,371662,"chromosome",0.702,"plasmidSPAdes","General"
"GCF_022832875.1_ASM2283287v1","bin_component_0","NZ_CP094845.1",455748,405552,"chromosome",0.916,"plasmidSPAdes","General"
"GCF_023573005.1_ASM2357300v1","bin_component_1","NZ_CP097616.1",10585,10585,"chromosome",1,"plasmidSPAdes","General"
"GCF_023573005.1_ASM2357300v1","bin_component_0","NZ_CP097616.1",20436,20460,"chromosome",0.998,"plasmidSPAdes","General"
"GCF_021398345.1_ASM2139834v1","bin_component_0","NZ_CP071994.1",889562,894363,"chromosome",0.964,"plasmidSPAdes","General"
"GCF_022832975.1_ASM2283297v1","bin_component_0","NZ_CP094846.1",24735,24735,"chromosome",1,"plasmidSPAdes","General"
"GCF_022832975.1_ASM2283297v1","bin_component_2","NZ_CP094846.1",16117,12957,"chromosome",0.692,"plasmidSPAdes","General"
"GCF_024704525.1_ASM2470452v1","bin_component_1","NZ_CP102780.1",50833,50961,"chromosome",0.997,"plasmidSPAdes","General"
"GCF_024704525.1_ASM2470452v1","bin_component_0","NZ_CP102780.1",1975845,2106963,"chromosome",0.924,"plasmidSPAdes","General"
"GCF_024704525.1_ASM2470452v1","bin_component_2","NZ_CP102780.1",50759,51270,"chromosome",0.99,"plasmidSPAdes","General"
"GCF_023375325.1_ASM2337532v1","bin_component_1","NZ_CP091204.1",11379,40360,"chromosome",0.282,"plasmidSPAdes","General"
"GCF_023375325.1_ASM2337532v1","bin_component_0","NZ_CP091204.1",42725,43008,"chromosome",0.993,"plasmidSPAdes","General"
"GCF_022569935.1_ASM2256993v1","bin_component_1","NZ_CP093016.1",382541,377332,"chromosome",0.992,"plasmidSPAdes","General"
"GCF_022569935.1_ASM2256993v1","bin_component_3","NZ_CP093016.1",29142,29142,"chromosome",1,"plasmidSPAdes","General"
"GCF_022569935.1_ASM2256993v1","bin_component_4","NZ_CP093016.1",9906,11652,"chromosome",0.604,"plasmidSPAdes","General"
"GCF_022569935.1_ASM2256993v1","bin_component_2","NZ_CP093016.1",85639,85639,"chromosome",1,"plasmidSPAdes","General"
"GCF_021733585.2_ASM2173358v3","bin_component_1","NZ_CP090954.2",264282,264658,"chromosome",0.998,"plasmidSPAdes","General"
"GCF_021733585.2_ASM2173358v3","bin_component_0","NZ_CP090954.2",306761,335117,"chromosome",0.844,"plasmidSPAdes","General"
"GCF_021733585.2_ASM2173358v3","bin_component_2","NZ_CP090954.2",189454,168294,"chromosome",0.973,"plasmidSPAdes","General"
"GCF_024734235.1_ASM2473423v1","bin_component_0","NZ_CP102893.1",1488,163548,"chromosome",0.009,"plasmidSPAdes","General"
"GCF_022221005.1_ASM2222100v1","bin_component_1","NZ_CP076176.1",141441,114026,"chromosome",0.951,"plasmidSPAdes","General"
"GCF_022221005.1_ASM2222100v1","bin_component_0","NZ_CP076176.1",1200638,1199505,"chromosome",0.998,"plasmidSPAdes","General"
"GCF_023611785.1_ASM2361178v1","bin_component_1","NZ_CP048254.1",30819,32435,"chromosome",0.646,"plasmidSPAdes","General"
"GCF_023611785.1_ASM2361178v1","bin_component_2","NZ_CP048254.1",17872,33313,"chromosome",0.536,"plasmidSPAdes","General"
"GCF_022221245.1_ASM2222124v1","bin_component_2","NZ_CP076210.1",114118,75981,"chromosome",0.896,"plasmidSPAdes","General"
"GCF_024206775.1_ASM2420677v1","bin_component_0","NZ_CP072991.1",458474,816498,"chromosome",0.546,"plasmidSPAdes","General"
"GCF_021513095.1_ASM2151309v1","bin_component_1","NZ_CP090998.1",89371,75991,"chromosome",0.827,"plasmidSPAdes","General"
"GCF_021513095.1_ASM2151309v1","bin_component_0","NZ_CP090998.1",93026,96442,"chromosome",0.965,"plasmidSPAdes","General"
"GCF_022537925.1_ASM2253792v1","bin_component_0","NZ_CP092387.1",902242,1299659,"chromosome",0.67,"plasmidSPAdes","General"
"GCF_024397415.1_ASM2439741v1","bin_component_1","NZ_CP101538.1",25382,25875,"chromosome",0.981,"plasmidSPAdes","General"
"GCF_024397415.1_ASM2439741v1","bin_component_0","NZ_CP101538.1",450048,448917,"chromosome",0.867,"plasmidSPAdes","General"
"GCF_021729985.1_ASM2172998v1","bin_component_1","NZ_CP068627.1",10870,13824,"chromosome",0.786,"plasmidSPAdes","General"
"GCF_022220605.1_ASM2222060v1","bin_component_0","NZ_CP076151.1",1200580,1199274,"chromosome",0.999,"plasmidSPAdes","General"
"GCF_021459805.1_ASM2145980v1","bin_component_0","NZ_CP090506.1",366562,381508,"chromosome",0.808,"plasmidSPAdes","General"
"GCF_004636745.1_ASM463674v2","bin_component_1","NZ_CP095728.1",15217,15218,"chromosome",1,"plasmidSPAdes","General"
"GCF_022170805.1_ASM2217080v1","bin_component_0","NZ_CP081872.1",3735,617414,"chromosome",0.006,"plasmidSPAdes","General"
"GCF_022170805.1_ASM2217080v1","bin_component_2","NZ_CP081872.1",43141,15290,"chromosome",0.118,"plasmidSPAdes","General"
"GCF_022170785.1_ASM2217078v1","bin_component_0","NZ_CP081870.1",54605,19972,"chromosome",0.172,"plasmidSPAdes","General"
"GCF_022170785.1_ASM2217078v1","bin_component_2","NZ_CP081870.1",2110,2159,"chromosome",0.977,"plasmidSPAdes","General"
"GCF_022220525.1_ASM2222052v1","bin_component_1","NZ_CP076141.1",267869,223678,"chromosome",0.966,"plasmidSPAdes","General"
"GCF_022220525.1_ASM2222052v1","bin_component_0","NZ_CP076141.1",1200626,1199293,"chromosome",0.999,"plasmidSPAdes","General"
"GCF_024722495.1_ASM2472249v1","bin_component_0","NZ_CP102749.1",1348658,1313048,"chromosome",0.988,"plasmidSPAdes","General"
"GCF_022221145.1_ASM2222114v1","bin_component_0","NZ_CP076195.1",316455,272880,"chromosome",0.971,"plasmidSPAdes","General"
"GCF_020172765.2_ASM2017276v2","bin_component_3","NZ_CP083461.2",10724,10724,"chromosome",1,"plasmidSPAdes","General"
"GCF_020172765.2_ASM2017276v2","bin_component_0","NZ_CP083461.2",1077095,1047541,"chromosome",0.984,"plasmidSPAdes","General"
"GCF_020172765.2_ASM2017276v2","bin_component_2","NZ_CP083461.2",14346,14812,"chromosome",0.969,"plasmidSPAdes","General"
"GCF_021586915.1_ASM2158691v1","bin_component_1","NZ_CP080630.1",18819,21013,"chromosome",0.896,"plasmidSPAdes","General"
"GCF_021586915.1_ASM2158691v1","bin_component_0","NZ_CP080630.1",55184,32799,"chromosome",0.652,"plasmidSPAdes","General"
"GCF_020641395.2_ASM2064139v2","bin_component_3","NZ_CP104290.1",17666,17666,"chromosome",1,"plasmidSPAdes","General"
"GCF_020641395.2_ASM2064139v2","bin_component_0","NZ_CP104290.1",334607,319776,"chromosome",0.979,"plasmidSPAdes","General"
"GCF_020641395.2_ASM2064139v2","bin_component_5","NZ_CP104290.1",1331,1331,"chromosome",1,"plasmidSPAdes","General"
"GCF_022592155.1_ASM2259215v1","bin_component_0","NZ_CP093239.1",21502,131697,"chromosome",0.123,"plasmidSPAdes","General"
"GCF_022592155.1_ASM2259215v1","bin_component_2","NZ_CP093239.1",46193,42237,"chromosome",0.307,"plasmidSPAdes","General"
"GCF_025151535.1_ASM2515153v1","bin_component_0","NZ_CP102288.1",81313,187606,"chromosome",0.374,"plasmidSPAdes","General"
"GCF_905322535.1_AI2624v1_cpp","bin_component_2","NZ_OW967388.1",9717,13258,"chromosome",0.733,"plasmidSPAdes","General"
"GCF_024800705.1_ASM2480070v1","bin_component_0","NZ_CP103399.1",204567,182016,"chromosome",0.956,"plasmidSPAdes","General"
"GCF_022221125.1_ASM2222112v1","bin_component_0","NZ_CP076192.1",1200344,1199066,"chromosome",0.999,"plasmidSPAdes","General"
"GCF_022846335.1_ASM2284633v1","bin_component_0","NZ_AP025617.1",5810,259509,"chromosome",0.022,"plasmidSPAdes","General"
"GCF_022846335.1_ASM2284633v1","bin_component_0","NZ_AP025617.1",5810,259509,"chromosome",0.022,"plasmidSPAdes","General"
"GCF_024206695.1_ASM2420669v1","bin_component_1","NZ_CP100326.1",13249,13376,"chromosome",0.981,"plasmidSPAdes","General"
"GCF_024206695.1_ASM2420669v1","bin_component_0","NZ_CP100326.1",25060,15668,"chromosome",0.552,"plasmidSPAdes","General"
"GCF_024158965.2_ASM2415896v2","bin_component_0","NZ_CP102859.1",232611,289565,"chromosome",0.698,"plasmidSPAdes","General"
"GCF_023375305.1_ASM2337530v1","bin_component_1","NZ_CP091201.1",33945,11954,"chromosome",0.28,"plasmidSPAdes","General"
"GCF_020641355.2_ASM2064135v2","bin_component_2","NZ_CP104292.1",12856,12856,"chromosome",1,"plasmidSPAdes","General"
"GCF_023374275.1_ASM2337427v1","bin_component_0","NZ_CP097255.1",2583908,2557947,"chromosome",0.995,"plasmidSPAdes","General"
"GCF_018588615.2_ASM1858861v2","bin_component_0","NZ_CP094383.1",66111,66863,"chromosome",0.989,"plasmidSPAdes","General"
"GCF_024205845.1_ASM2420584v1","bin_component_0","NZ_CP073799.1",147416,151707,"chromosome",0.972,"plasmidSPAdes","General"
"GCF_021459905.1_ASM2145990v1","bin_component_0","NZ_CP090511.1",97983,91242,"chromosome",0.413,"plasmidSPAdes","General"
"GCF_021459905.1_ASM2145990v1","bin_component_2","NZ_CP090511.1",11267,11529,"chromosome",0.977,"plasmidSPAdes","General"
"GCF_022220985.1_ASM2222098v1","bin_component_1","NZ_CP076173.1",330808,294561,"chromosome",0.966,"plasmidSPAdes","General"
"GCF_022220985.1_ASM2222098v1","bin_component_0","NZ_CP076173.1",1218974,1219737,"chromosome",0.999,"plasmidSPAdes","General"
"GCF_024917635.1_ASM2491763v1","bin_component_1","NZ_CP103642.1",350806,321894,"chromosome",0.975,"plasmidSPAdes","General"
"GCF_024917635.1_ASM2491763v1","bin_component_0","NZ_CP103642.1",341928,519825,"chromosome",0.655,"plasmidSPAdes","General"
"GCF_024917635.1_ASM2491763v1","bin_component_2","NZ_CP103642.1",39958,39959,"chromosome",1,"plasmidSPAdes","General"
"GCF_022922915.1_ASM2292291v1","bin_component_0","NZ_CP094099.1",1559198,1553368,"chromosome",0.991,"plasmidSPAdes","General"
"GCF_022170825.1_ASM2217082v1","bin_component_0","NZ_CP081878.1",1161911,1316623,"chromosome",0.851,"plasmidSPAdes","General"
"GCF_022845615.1_ASM2284561v1","bin_component_0","NZ_AP025559.1",19177,24180,"chromosome",0.793,"plasmidSPAdes","General"
"GCF_021559755.1_ASM2155975v1","bin_component_0","NZ_CP056042.1",17648,15130,"chromosome",0.643,"plasmidSPAdes","General"
"GCF_002844715.2_ASM284471v2","bin_component_0","NZ_CP092197.1",175378,187537,"chromosome",0.935,"plasmidSPAdes","General"
"GCF_021496035.1_ASM2149603v1","bin_component_0","NZ_CP090915.1",400782,429765,"chromosome",0.817,"plasmidSPAdes","General"
"GCF_022533445.1_ASM2253344v1","bin_component_0","NZ_CP092846.1",3194,49397,"chromosome",0.065,"plasmidSPAdes","General"
"GCF_023822665.1_ASM2382266v1","bin_component_0","NZ_CP097846.1",116968,150368,"chromosome",0.658,"plasmidSPAdes","General"
"GCF_024205905.1_ASM2420590v1","bin_component_1","NZ_CP073805.1",31214,37541,"chromosome",0.831,"plasmidSPAdes","General"
"GCF_024205905.1_ASM2420590v1","bin_component_0","NZ_CP073805.1",313497,298770,"chromosome",0.966,"plasmidSPAdes","General"
"GCF_024205905.1_ASM2420590v1","bin_component_2","NZ_CP073805.1",18211,18211,"chromosome",1,"plasmidSPAdes","General"
"GCF_024206635.1_ASM2420663v1","bin_component_1","NZ_CP100332.1",13245,13247,"chromosome",1,"plasmidSPAdes","General"
"GCF_024206635.1_ASM2420663v1","bin_component_0","NZ_CP100332.1",14899,16314,"chromosome",0.913,"plasmidSPAdes","General"
"GCF_021899855.1_ASM2189985v1","bin_component_1","NZ_CP091644.1",19373,21665,"chromosome",0.894,"plasmidSPAdes","General"
"GCF_021899855.1_ASM2189985v1","bin_component_4","NZ_CP091644.1",2465,2465,"chromosome",1,"plasmidSPAdes","General"
"GCF_021899855.1_ASM2189985v1","bin_component_0","NZ_CP091644.1",4973,58085,"chromosome",0.086,"plasmidSPAdes","General"
"GCF_021899855.1_ASM2189985v1","bin_component_2","NZ_CP091644.1",16362,16578,"chromosome",0.979,"plasmidSPAdes","General"
"GCF_022370835.2_ASM2237083v2","bin_component_1","NZ_CP092365.1",18547,15381,"chromosome",0.506,"plasmidSPAdes","General"
"GCF_024206795.1_ASM2420679v1","bin_component_1","NZ_CP072994.1",19324,22939,"chromosome",0.836,"plasmidSPAdes","General"
"GCF_024206795.1_ASM2420679v1","bin_component_3","NZ_CP072994.1",15813,18680,"chromosome",0.847,"plasmidSPAdes","General"
"GCF_024206795.1_ASM2420679v1","bin_component_0","NZ_CP072994.1",1630425,2971861,"chromosome",0.543,"plasmidSPAdes","General"
"GCF_024206795.1_ASM2420679v1","bin_component_2","NZ_CP072994.1",19855,20007,"chromosome",0.992,"plasmidSPAdes","General"
"GCF_024206795.1_ASM2420679v1","bin_component_5","NZ_CP072994.1",10654,10657,"chromosome",1,"plasmidSPAdes","General"
"GCF_023611765.1_ASM2361176v1","bin_component_0","NZ_CP048250.1",54680,72803,"chromosome",0.446,"plasmidSPAdes","General"
"GCF_022879615.1_ASM2287961v1","bin_component_3","NZ_CP084272.1",6493,12336,"chromosome",0.526,"plasmidSPAdes","General"
"GCF_018588665.2_ASM1858866v2","bin_component_1","NZ_CP094381.1",36030,22837,"chromosome",0.684,"plasmidSPAdes","General"
"GCF_024054255.2_ASM2405425v2","bin_component_0","NZ_CP102714.1",157651,158489,"chromosome",0.809,"plasmidSPAdes","General"
"GCF_023278615.1_ASM2327861v1","bin_component_1","NZ_CP026143.1",13716,13970,"chromosome",0.964,"plasmidSPAdes","General"
"GCF_023278615.1_ASM2327861v1","bin_component_0","NZ_CP026143.1",411798,393321,"chromosome",0.886,"plasmidSPAdes","General"
"GCF_024205945.1_ASM2420594v1","bin_component_0","NZ_CP073809.1",233387,239650,"chromosome",0.868,"plasmidSPAdes","General"
"GCF_022221325.1_ASM2222132v1","bin_component_0","NZ_CP076222.1",1200730,1199344,"chromosome",0.999,"plasmidSPAdes","General"
"GCF_021513055.1_ASM2151305v1","bin_component_1","NZ_CP090989.1",39198,18507,"chromosome",0.52,"plasmidSPAdes","General"
"GCF_021513055.1_ASM2151305v1","bin_component_0","NZ_CP090989.1",21911,32304,"chromosome",0.589,"plasmidSPAdes","General"
"GCF_022870785.1_ASM2287078v1","bin_component_1","NZ_CP087111.1",6558,11935,"chromosome",0.549,"plasmidSPAdes","General"
"GCF_022870785.1_ASM2287078v1","bin_component_0","NZ_CP087111.1",63014,63436,"chromosome",0.993,"plasmidSPAdes","General"
"GCF_022221045.1_ASM2222104v1","bin_component_1","NZ_CP076181.1",325994,289349,"chromosome",0.967,"plasmidSPAdes","General"
"GCF_022221045.1_ASM2222104v1","bin_component_0","NZ_CP076181.1",1200706,1199346,"chromosome",0.999,"plasmidSPAdes","General"
"GCF_024053515.2_ASM2405351v2","bin_component_0","NZ_CP102716.1",179503,179507,"chromosome",1,"plasmidSPAdes","General"
"GCF_021459825.1_ASM2145982v1","bin_component_1","NZ_CP090504.1",17464,17464,"chromosome",1,"plasmidSPAdes","General"
"GCF_021459825.1_ASM2145982v1","bin_component_0","NZ_CP090504.1",251896,266732,"chromosome",0.726,"plasmidSPAdes","General"
"GCF_023611705.1_ASM2361170v1","bin_component_1","NZ_CP048246.1",28898,35151,"chromosome",0.822,"plasmidSPAdes","General"
"GCF_023611705.1_ASM2361170v1","bin_component_2","NZ_CP048246.1",20134,34725,"chromosome",0.58,"plasmidSPAdes","General"
"GCF_023822205.1_ASM2382220v1","bin_component_1","NZ_CP087699.1",44061,44705,"chromosome",0.983,"plasmidSPAdes","General"
"GCF_023822205.1_ASM2382220v1","bin_component_0","NZ_CP087699.1",1016,118465,"chromosome",0.009,"plasmidSPAdes","General"
"GCF_022318445.1_ASM2231844v1","bin_component_0","NZ_CP090884.1",34964,39041,"chromosome",0.896,"plasmidSPAdes","General"
"GCF_025232255.1_ASM2523225v1","bin_component_1","NZ_CP012229.1",1992,1992,"chromosome",1,"plasmidSPAdes","General"
"GCF_025232255.1_ASM2523225v1","bin_component_0","NZ_CP012229.1",29302,30041,"chromosome",0.975,"plasmidSPAdes","General"
"GCF_022221185.1_ASM2222118v1","bin_component_3","NZ_CP076201.1",37771,37885,"chromosome",0.997,"plasmidSPAdes","General"
"GCF_022221185.1_ASM2222118v1","bin_component_2","NZ_CP076201.1",40717,41237,"chromosome",0.987,"plasmidSPAdes","General"
"GCF_023278025.1_ASM2327802v1","bin_component_0","NZ_CP094945.1",8746,11688,"chromosome",0.513,"plasmidSPAdes","General"
"GCF_024498735.1_ASM2449873v1","bin_component_1","NZ_CP090590.1",389812,389812,"chromosome",1,"plasmidSPAdes","General"
"GCF_024498735.1_ASM2449873v1","bin_component_0","NZ_CP090590.1",407376,402800,"chromosome",0.991,"plasmidSPAdes","General"
"GCF_024498735.1_ASM2449873v1","bin_component_2","NZ_CP090590.1",12698,12849,"chromosome",0.988,"plasmidSPAdes","General"
"GCF_022833145.1_ASM2283314v1","bin_component_0","NZ_CP050251.1",325108,295454,"chromosome",0.96,"plasmidSPAdes","General"
"GCF_023300045.1_ASM2330004v1","bin_component_0","NZ_CP097072.1",735087,730090,"chromosome",0.983,"plasmidSPAdes","General"
"GCF_021398305.1_ASM2139830v1","bin_component_1","NZ_CP071988.1",14585,14585,"chromosome",1,"plasmidSPAdes","General"
"GCF_021398305.1_ASM2139830v1","bin_component_0","NZ_CP071988.1",499472,470226,"chromosome",0.966,"plasmidSPAdes","General"
"GCF_021398305.1_ASM2139830v1","bin_component_2","NZ_CP071988.1",12052,12056,"chromosome",1,"plasmidSPAdes","General"
"GCF_022846195.1_ASM2284619v1","bin_component_1","NZ_AP025556.1",22251,18217,"chromosome",0.807,"plasmidSPAdes","General"
"GCF_024224615.1_ASM2422461v1","bin_component_1","NZ_CP100494.1",40952,41812,"chromosome",0.979,"plasmidSPAdes","General"
"GCF_022478075.1_ASM2247807v1","bin_component_1","NZ_CP089307.1",23871,10652,"chromosome",0.432,"plasmidSPAdes","General"
"GCF_022478075.1_ASM2247807v1","bin_component_0","NZ_CP089307.1",3618,68536,"chromosome",0.053,"plasmidSPAdes","General"
"GCF_025311515.1_ASM2531151v1","bin_component_1","NZ_CP104399.1",26896,15778,"chromosome",0.683,"plasmidSPAdes","General"
"GCF_025311515.1_ASM2531151v1","bin_component_0","NZ_CP104399.1",36834,36834,"chromosome",1,"plasmidSPAdes","General"
"GCF_021545335.1_ASM2154533v1","bin_component_0","NZ_CP089312.1",2698052,3447858,"chromosome",0.775,"plasmidSPAdes","General"
"GCF_023375135.1_ASM2337513v1","bin_component_0","NZ_CP088150.1",33488,37837,"chromosome",0.885,"plasmidSPAdes","General"
"GCF_024205865.1_ASM2420586v1","bin_component_2","NZ_CP073801.1",24655,11662,"chromosome",0.246,"plasmidSPAdes","General"
"GCF_022370635.1_ASM2237063v1","bin_component_3","NZ_CP092362.1",14238,14238,"chromosome",1,"plasmidSPAdes","General"
"GCF_022370635.1_ASM2237063v1","bin_component_0","NZ_CP092362.1",294497,425951,"chromosome",0.616,"plasmidSPAdes","General"
"GCF_905338045.2_AI3057v1_cp","bin_component_1","NZ_OW969904.1",30441,30507,"chromosome",0.998,"plasmidSPAdes","General"
"GCF_024717335.1_ASM2471733v1","bin_component_0","NZ_CP094959.1",70872,59676,"chromosome",0.715,"plasmidSPAdes","General"
"GCF_022349945.1_ASM2234994v1","bin_component_0","NZ_CP092249.1",50066,96274,"chromosome",0.52,"plasmidSPAdes","General"
"GCF_025150085.1_ASM2515008v1","bin_component_0","NZ_CP102280.1",13426,15934,"chromosome",0.843,"plasmidSPAdes","General"
"GCF_022439525.1_ASM2243952v1","bin_component_0","NZ_CP091123.1",60726,37051,"chromosome",0.72,"plasmidSPAdes","General"
"GCF_021513075.1_ASM2151307v1","bin_component_1","NZ_CP090985.1",41671,41715,"chromosome",0.999,"plasmidSPAdes","General"
"GCF_021513075.1_ASM2151307v1","bin_component_0","NZ_CP090985.1",451651,492298,"chromosome",0.857,"plasmidSPAdes","General"
"GCF_021513075.1_ASM2151307v1","bin_component_2","NZ_CP090985.1",22335,22509,"chromosome",0.992,"plasmidSPAdes","General"
"GCF_024917295.1_ASM2491729v1","bin_component_0","NZ_CP103554.1",1353323,1350434,"chromosome",0.978,"plasmidSPAdes","General"
"GCF_024206655.1_ASM2420665v1","bin_component_1","NZ_CP100334.1",19072,18052,"chromosome",0.77,"plasmidSPAdes","General"
"GCF_024206655.1_ASM2420665v1","bin_component_0","NZ_CP100334.1",28263,30108,"chromosome",0.939,"plasmidSPAdes","General"
"GCF_024206655.1_ASM2420665v1","bin_component_2","NZ_CP100334.1",11972,11972,"chromosome",1,"plasmidSPAdes","General"
"GCF_022647665.1_ASM2264766v1","bin_component_1","NZ_CP071872.1",111694,111824,"chromosome",0.999,"plasmidSPAdes","General"
"GCF_022647665.1_ASM2264766v1","bin_component_3","NZ_CP071872.1",31521,31628,"chromosome",0.997,"plasmidSPAdes","General"
"GCF_022647665.1_ASM2264766v1","bin_component_4","NZ_CP071872.1",25932,36209,"chromosome",0.716,"plasmidSPAdes","General"
"GCF_022647665.1_ASM2264766v1","bin_component_0","NZ_CP071872.1",466797,461638,"chromosome",0.973,"plasmidSPAdes","General"
"GCF_022647665.1_ASM2264766v1","bin_component_2","NZ_CP071872.1",45874,45874,"chromosome",1,"plasmidSPAdes","General"
"GCF_025349945.1_ASM2534994v1","bin_component_0","NZ_CP104450.1",92952,550976,"chromosome",0.11,"plasmidSPAdes","General"
"GCF_022374875.1_ASM2237487v1","bin_component_0","NZ_CP092427.1",1178,94514,"chromosome",0.012,"plasmidSPAdes","General"
"GCF_024918215.1_ASM2491821v1","bin_component_1","NZ_CP103679.1",7550,223632,"chromosome",0.012,"plasmidSPAdes","General"
"GCF_024918215.1_ASM2491821v1","bin_component_0","NZ_CP103679.1",669699,645896,"chromosome",0.987,"plasmidSPAdes","General"
"GCF_023299345.1_ASM2329934v1","bin_component_1","NZ_CP097051.1",4625,13352,"chromosome",0.346,"plasmidSPAdes","General"
"GCF_023299345.1_ASM2329934v1","bin_component_0","NZ_CP097051.1",521751,518631,"chromosome",0.982,"plasmidSPAdes","General"
"GCF_022924435.1_ASM2292443v1","bin_component_0","NZ_CP094136.1",10769,10795,"chromosome",0.998,"plasmidSPAdes","General"
"GCF_022439585.1_ASM2243958v1","bin_component_0","NZ_CP091125.1",52847,370851,"chromosome",0.095,"plasmidSPAdes","General"
"GCF_019704155.2_ASM1970415v2","bin_component_0","NZ_AP024504.2",7034,359420,"chromosome",0.006,"plasmidSPAdes","General"
"GCF_019704155.2_ASM1970415v2","bin_component_2","NZ_AP024504.2",66975,12655,"chromosome",0.154,"plasmidSPAdes","General"
"GCF_024206675.1_ASM2420667v1","bin_component_1","NZ_CP100336.1",13507,13507,"chromosome",1,"plasmidSPAdes","General"
"GCF_024206675.1_ASM2420667v1","bin_component_0","NZ_CP100336.1",16458,17055,"chromosome",0.965,"plasmidSPAdes","General"
"GCF_022220685.1_ASM2222068v1","bin_component_2","NZ_CP076728.1",94843,85644,"chromosome",0.963,"plasmidSPAdes","General"
"GCF_023299565.1_ASM2329956v1","bin_component_0","NZ_CP097053.1",590647,575088,"chromosome",0.983,"plasmidSPAdes","General"
"GCF_023008225.1_ASM2300822v1","bin_component_4","NZ_CP061509.1",32017,13367,"chromosome",0.883,"plasmidSPAdes","General"
"GCF_023008225.1_ASM2300822v1","bin_component_0","NZ_CP061509.1",429157,419489,"chromosome",0.922,"plasmidSPAdes","General"
"GCF_024758665.1_ASM2475866v1","bin_component_1","NZ_CP094950.1",57860,46310,"chromosome",0.904,"plasmidSPAdes","General"
"GCF_023205595.1_ASM2320559v1","bin_component_0","NZ_CP050930.1",227441,243204,"chromosome",0.803,"plasmidSPAdes","General"
"GCF_022220645.1_ASM2222064v1","bin_component_3","NZ_CP076157.1",97989,97989,"chromosome",1,"plasmidSPAdes","General"
"GCF_022220645.1_ASM2222064v1","bin_component_0","NZ_CP076157.1",1200653,1199374,"chromosome",0.999,"plasmidSPAdes","General"
"GCF_022220645.1_ASM2222064v1","bin_component_2","NZ_CP076157.1",172493,134557,"chromosome",0.939,"plasmidSPAdes","General"
"GCF_021496365.1_ASM2149636v1","bin_component_1","NZ_CP045103.1",26435,18238,"chromosome",0.164,"plasmidSPAdes","General"
"GCF_025311495.1_ASM2531149v1","bin_component_1","NZ_CP104398.1",38061,40196,"chromosome",0.947,"plasmidSPAdes","General"
"GCF_025311495.1_ASM2531149v1","bin_component_0","NZ_CP104398.1",124778,104393,"chromosome",0.887,"plasmidSPAdes","General"
"GCF_025311495.1_ASM2531149v1","bin_component_2","NZ_CP104398.1",11642,12434,"chromosome",0.935,"plasmidSPAdes","General"
"GCF_024158105.2_ASM2415810v2","bin_component_0","NZ_CP102712.1",229014,229159,"chromosome",0.999,"plasmidSPAdes","General"
"GCF_024917615.1_ASM2491761v1","bin_component_0","NZ_CP103611.1",1557213,1516714,"chromosome",0.992,"plasmidSPAdes","General"
"GCF_024206615.1_ASM2420661v1","bin_component_0","NZ_CP100338.1",15722,16498,"chromosome",0.953,"plasmidSPAdes","General"
"GCF_022220545.1_ASM2222054v1","bin_component_0","NZ_CP076144.1",421873,384799,"chromosome",0.976,"plasmidSPAdes","General"
"GCF_024918255.1_ASM2491825v1","bin_component_0","NZ_CP103683.1",2645,410839,"chromosome",0.006,"plasmidSPAdes","General"
"GCF_021459945.1_ASM2145994v1","bin_component_0","NZ_CP090514.1",80898,81050,"chromosome",0.507,"plasmidSPAdes","General"
"GCF_021398655.1_ASM2139865v1","bin_component_1","NZ_CP090316.1",11341,14623,"chromosome",0.623,"plasmidSPAdes","General"
"GCF_021398655.1_ASM2139865v1","bin_component_0","NZ_CP090316.1",92539,111236,"chromosome",0.222,"plasmidSPAdes","General"
"GCF_022049065.2_ASM2204906v2","bin_component_1","NZ_CP095743.1",42661,23353,"chromosome",0.049,"plasmidSPAdes","General"
"GCF_022049065.2_ASM2204906v2","bin_component_0","NZ_CP095744.1",15155,480118,"chromosome",0.028,"plasmidSPAdes","General"
"GCF_022788635.1_ASM2278863v1","bin_component_0","NZ_CP076024.1",37494,70297,"chromosome",0.532,"plasmidSPAdes","General"
"GCF_022592275.1_ASM2259227v1","bin_component_0","NZ_CP093255.1",63091,385646,"chromosome",0.155,"plasmidSPAdes","General"
"GCF_022592275.1_ASM2259227v1","bin_component_2","NZ_CP093255.1",43596,43596,"chromosome",1,"plasmidSPAdes","General"
"GCF_002844755.2_ASM284475v2","bin_component_0","NZ_CP092199.1",153113,153222,"chromosome",0.999,"plasmidSPAdes","General"
"GCF_002844755.2_ASM284475v2","bin_component_2","NZ_CP092199.1",2086,2139,"chromosome",0.975,"plasmidSPAdes","General"
"GCF_022343725.1_ASM2234372v1","bin_component_0","NZ_CP092179.1",2504,24267,"chromosome",0.103,"plasmidSPAdes","General"
"GCF_022394675.1_ASM2239467v1","bin_component_1","NZ_CP091882.1",521817,527265,"chromosome",0.989,"plasmidSPAdes","General"
"GCF_022394675.1_ASM2239467v1","bin_component_0","NZ_CP091882.1",620854,563018,"chromosome",0.985,"plasmidSPAdes","General"
"GCF_022394675.1_ASM2239467v1","bin_component_2","NZ_CP091882.1",36962,36962,"chromosome",1,"plasmidSPAdes","General"
"GCF_022220665.1_ASM2222066v1","bin_component_2","NZ_CP076160.1",19758,22245,"chromosome",0.888,"plasmidSPAdes","General"
"GCF_025369755.1_ASM2536975v1","bin_component_0","NZ_CP104438.1",162619,217341,"chromosome",0.491,"plasmidSPAdes","General"
"GCF_024917395.1_ASM2491739v1","bin_component_0","NZ_CP103577.1",2022497,1966900,"chromosome",0.975,"plasmidSPAdes","General"
"GCF_021513035.1_ASM2151303v1","bin_component_1","NZ_CP091006.1",41716,41716,"chromosome",1,"plasmidSPAdes","General"
"GCF_021513035.1_ASM2151303v1","bin_component_0","NZ_CP091006.1",257677,273157,"chromosome",0.852,"plasmidSPAdes","General"
"GCF_024205205.1_ASM2420520v1","bin_component_0","NZ_CP100551.1",36153,116414,"chromosome",0.311,"plasmidSPAdes","General"
"GCF_024637915.1_ASM2463791v1","bin_component_1","NZ_CP094946.1",36512,59027,"chromosome",0.292,"plasmidSPAdes","General"
"GCF_024637915.1_ASM2463791v1","bin_component_3","NZ_CP094946.1",13855,13919,"chromosome",0.995,"plasmidSPAdes","General"
"GCF_024637915.1_ASM2463791v1","bin_component_0","NZ_CP094946.1",6808,61508,"chromosome",0.111,"plasmidSPAdes","General"
"GCF_024637915.1_ASM2463791v1","bin_component_2","NZ_CP094946.1",13917,13986,"chromosome",0.995,"plasmidSPAdes","General"
"GCF_024917575.1_ASM2491757v1","bin_component_1","NZ_CP103639.1",220233,221120,"chromosome",0.996,"plasmidSPAdes","General"
"GCF_024917575.1_ASM2491757v1","bin_component_0","NZ_CP103639.1",1918649,1899543,"chromosome",0.99,"plasmidSPAdes","General"
"GCF_023822185.1_ASM2382218v1","bin_component_0","NZ_CP087600.1",201063,411974,"chromosome",0.488,"plasmidSPAdes","General"
"GCF_025232575.1_ASM2523257v1","bin_component_1","NZ_CP012242.1",13329,13528,"chromosome",0.985,"plasmidSPAdes","General"
"GCF_025232575.1_ASM2523257v1","bin_component_0","NZ_CP012242.1",15929,16139,"chromosome",0.987,"plasmidSPAdes","General"
"GCF_025232575.1_ASM2523257v1","bin_component_2","NZ_CP012242.1",13413,13413,"chromosome",1,"plasmidSPAdes","General"
"GCF_022921855.1_ASM2292185v1","bin_component_0","NZ_CP094076.1",1601823,1613628,"chromosome",0.979,"plasmidSPAdes","General"
"GCF_023375175.1_ASM2337517v1","bin_component_1","NZ_CP088187.1",10769,12495,"chromosome",0.862,"plasmidSPAdes","General"
"GCF_023375175.1_ASM2337517v1","bin_component_2","NZ_CP088187.1",33945,11616,"chromosome",0.288,"plasmidSPAdes","General"
"GCF_022220625.1_ASM2222062v1","bin_component_1","NZ_CP076154.1",172493,134557,"chromosome",0.939,"plasmidSPAdes","General"
"GCF_022220965.1_ASM2222096v1","bin_component_1","NZ_CP076170.1",145182,102273,"chromosome",0.918,"plasmidSPAdes","General"
"GCF_021559795.1_ASM2155979v1","bin_component_0","NZ_CP055268.1",14954,314621,"chromosome",0.028,"plasmidSPAdes","General"
"GCF_022591735.1_ASM2259173v1","bin_component_0","NZ_CP093260.1",33813,12488,"chromosome",0.097,"plasmidSPAdes","General"
"GCF_024498695.1_ASM2449869v1","bin_component_1","NZ_CP090589.1",62230,62230,"chromosome",1,"plasmidSPAdes","General"
"GCF_024498695.1_ASM2449869v1","bin_component_0","NZ_CP090589.1",1789783,1760916,"chromosome",0.995,"plasmidSPAdes","General"
"GCF_021496345.1_ASM2149634v1","bin_component_0","NZ_CP045101.1",379,24361,"chromosome",0.016,"plasmidSPAdes","General"
"GCF_024206755.1_ASM2420675v1","bin_component_1","NZ_CP100418.1",11972,11972,"chromosome",1,"plasmidSPAdes","General"
"GCF_024206755.1_ASM2420675v1","bin_component_0","NZ_CP100418.1",27150,28313,"chromosome",0.959,"plasmidSPAdes","General"
"GCF_024206755.1_ASM2420675v1","bin_component_2","NZ_CP100418.1",10145,10384,"chromosome",0.965,"plasmidSPAdes","General"
"GCF_024918795.1_ASM2491879v1","bin_component_0","NZ_CP103722.1",788726,925889,"chromosome",0.765,"plasmidSPAdes","General"
"GCF_024206595.1_ASM2420659v1","bin_component_1","NZ_CP100340.1",13249,13376,"chromosome",0.981,"plasmidSPAdes","General"
"GCF_024206595.1_ASM2420659v1","bin_component_0","NZ_CP100340.1",29519,31364,"chromosome",0.941,"plasmidSPAdes","General"
"GCF_024917675.1_ASM2491767v1","bin_component_0","NZ_CP103751.1",1088120,1134909,"chromosome",0.934,"plasmidSPAdes","General"
"GCF_022569975.1_ASM2256997v1","bin_component_1","NZ_CP093020.1",40321,40441,"chromosome",0.997,"plasmidSPAdes","General"
"GCF_022569975.1_ASM2256997v1","bin_component_0","NZ_CP093020.1",97885,104048,"chromosome",0.85,"plasmidSPAdes","General"
"GCF_022569975.1_ASM2256997v1","bin_component_2","NZ_CP093020.1",29219,29219,"chromosome",1,"plasmidSPAdes","General"
"GCF_024637975.1_ASM2463797v1","bin_component_1","NZ_CP097165.1",3078,29290,"chromosome",0.105,"plasmidSPAdes","General"
"GCF_022925295.1_ASM2292529v1","bin_component_0","NZ_CP094157.1",1598257,1596162,"chromosome",0.988,"plasmidSPAdes","General"
"GCF_018588605.2_ASM1858860v2","bin_component_0","NZ_CP094385.1",39644,285736,"chromosome",0.056,"plasmidSPAdes","General"
"GCF_024917315.1_ASM2491731v1","bin_component_0","NZ_CP103674.1",820244,812562,"chromosome",0.994,"plasmidSPAdes","General"
"GCF_023205075.1_ASM2320507v1","bin_component_0","NZ_CP096227.1",9297,98527,"chromosome",0.011,"plasmidSPAdes","General"
"GCF_021432745.1_ASM2143274v1","bin_component_1","NZ_CP090180.1",13957,13957,"chromosome",1,"plasmidSPAdes","General"
"GCF_021432745.1_ASM2143274v1","bin_component_0","NZ_CP090180.1",19084,25426,"chromosome",0.501,"plasmidSPAdes","General"
"GCF_024917695.1_ASM2491769v1","bin_component_0","NZ_CP103487.1",1274916,1413896,"chromosome",0.875,"plasmidSPAdes","General"
"GCF_021397795.1_ASM2139779v1","bin_component_0","NZ_CP090150.1",42574,13313,"chromosome",0.067,"plasmidSPAdes","General"
"GCF_905333885.2_AI2918v1_cp","bin_component_0","NZ_OW969659.1",18587,253698,"chromosome",0.007,"plasmidSPAdes","General"
"GCF_021496075.1_ASM2149607v1","bin_component_1","NZ_CP090922.1",28140,28140,"chromosome",1,"plasmidSPAdes","General"
"GCF_021496075.1_ASM2149607v1","bin_component_0","NZ_CP090922.1",90273,62637,"chromosome",0.744,"plasmidSPAdes","General"
"GCF_022846315.1_ASM2284631v1","bin_component_1","NZ_AP025613.1",2067,2179,"chromosome",0.949,"plasmidSPAdes","General"
"GCF_023347215.1_ASM2334721v1","bin_component_0","NZ_CP092501.1",437270,581289,"chromosome",0.75,"plasmidSPAdes","General"
"GCF_021537535.1_ASM2153753v1","bin_component_1","NZ_CP084539.1",20502,20502,"chromosome",1,"plasmidSPAdes","General"
"GCF_021537535.1_ASM2153753v1","bin_component_0","NZ_CP084539.1",1660742,1627561,"chromosome",0.981,"plasmidSPAdes","General"
"GCF_022014815.1_ASM2201481v1","bin_component_1","NZ_CP091777.1",1823,1823,"chromosome",1,"plasmidSPAdes","General"
"GCF_022846375.1_ASM2284637v1","bin_component_1","NZ_AP025593.1",12185,12185,"chromosome",1,"plasmidSPAdes","General"
"GCF_022846375.1_ASM2284637v1","bin_component_0","NZ_AP025593.1",445526,466337,"chromosome",0.926,"plasmidSPAdes","General"
"GCF_022591895.1_ASM2259189v1","bin_component_1","NZ_CP093249.1",43598,43599,"chromosome",1,"plasmidSPAdes","General"
"GCF_023299185.1_ASM2329918v1","bin_component_0","NZ_CP097017.1",1235211,1242692,"chromosome",0.976,"plasmidSPAdes","General"
"GCF_022220565.1_ASM2222056v1","bin_component_1","NZ_CP076146.1",19530,21608,"chromosome",0.904,"plasmidSPAdes","General"
"GCF_022220945.1_ASM2222094v1","bin_component_0","NZ_CP076167.1",1200793,1199406,"chromosome",0.999,"plasmidSPAdes","General"
"GCF_022220945.1_ASM2222094v1","bin_component_2","NZ_CP076167.1",152378,114280,"chromosome",0.931,"plasmidSPAdes","General"
"GCF_023375155.1_ASM2337515v1","bin_component_0","NZ_CP088183.1",33945,11951,"chromosome",0.294,"plasmidSPAdes","General"
"GCF_022220405.1_ASM2222040v1","bin_component_0","NZ_CP092042.1",17039,10566,"chromosome",0.312,"plasmidSPAdes","General"
"GCF_024917395.1_ASM2491739v1","GCF_024917395.1_ASM2491739v1_bin_1","NZ_CP103577.1",126679,238924,"chromosome",0.285,"gplas2","General"
"GCF_024206735.1_ASM2420673v1","GCF_024206735.1_ASM2420673v1_bin_Unbinned","NZ_CP100330.1",22482,22482,"chromosome",1,"gplas2","General"
"GCF_023375155.1_ASM2337515v1","GCF_023375155.1_ASM2337515v1_bin_1","NZ_CP088183.1",36864,36864,"chromosome",1,"gplas2","General"
"GCF_021398305.1_ASM2139830v1","GCF_021398305.1_ASM2139830v1_bin_2","NZ_CP071988.1",12032,12032,"chromosome",1,"gplas2","General"
"GCF_905338045.2_AI3057v1_cp","GCF_905338045.2_AI3057v1_cp_bin_3","NZ_OW969904.1",31033,31033,"chromosome",1,"gplas2","General"
"GCF_905338045.2_AI3057v1_cp","GCF_905338045.2_AI3057v1_cp_bin_2","NZ_OW969904.1",28518,133484,"chromosome",0.214,"gplas2","General"
"GCF_024734255.1_ASM2473425v1","GCF_024734255.1_ASM2473425v1_bin_1","NZ_CP102898.1",20133,152434,"chromosome",0.132,"gplas2","General"
"GCF_023375325.1_ASM2337532v1","GCF_023375325.1_ASM2337532v1_bin_1","NZ_CP091204.1",56937,56937,"chromosome",1,"gplas2","General"
"GCF_021559735.1_ASM2155973v1","GCF_021559735.1_ASM2155973v1_bin_1","NZ_CP055266.1",443754,694522,"chromosome",0.639,"gplas2","General"
"GCF_022394675.1_ASM2239467v1","GCF_022394675.1_ASM2239467v1_bin_1","NZ_CP091882.1",8396,8396,"chromosome",1,"gplas2","General"
"GCF_022478075.1_ASM2247807v1","GCF_022478075.1_ASM2247807v1_bin_1","NZ_CP089307.1",27583,27583,"chromosome",1,"gplas2","General"
"GCF_022819325.1_ASM2281932v1","GCF_022819325.1_ASM2281932v1_bin_Unbinned","NZ_CP079856.1",327818,442419,"chromosome",0.741,"gplas2","General"
"GCF_022819325.1_ASM2281932v1","GCF_022819325.1_ASM2281932v1_bin_2","NZ_CP079856.1",32943,32943,"chromosome",1,"gplas2","General"
"GCF_024918795.1_ASM2491879v1","GCF_024918795.1_ASM2491879v1_bin_1","NZ_CP103722.1",8949,171984,"chromosome",0.039,"gplas2","General"
"GCF_023008225.1_ASM2300822v1","GCF_023008225.1_ASM2300822v1_bin_1","NZ_CP061509.1",7620,7620,"chromosome",1,"gplas2","General"
"GCF_022439525.1_ASM2243952v1","GCF_022439525.1_ASM2243952v1_bin_Unbinned","NZ_CP091123.1",35621,35621,"chromosome",1,"gplas2","General"
"GCF_905329555.2_AI2744v1_cpp","GCF_905329555.2_AI2744v1_cpp_bin_3","NZ_OW967518.1",23870,23870,"chromosome",1,"gplas2","General"
"GCF_024918215.1_ASM2491821v1","GCF_024918215.1_ASM2491821v1_bin_1","NZ_CP103679.1",11070,404656,"chromosome",0.027,"gplas2","General"
"GCF_024397415.1_ASM2439741v1","GCF_024397415.1_ASM2439741v1_bin_2","NZ_CP101538.1",5390,5390,"chromosome",1,"gplas2","General"
"GCF_025252385.1_ASM2525238v1","GCF_025252385.1_ASM2525238v1_bin_1","NZ_CP104303.1",18719,138936,"chromosome",0.135,"gplas2","General"
"GCF_024717335.1_ASM2471733v1","GCF_024717335.1_ASM2471733v1_bin_1","NZ_CP094959.1",43867,43867,"chromosome",1,"gplas2","General"
"GCF_021432745.1_ASM2143274v1","GCF_021432745.1_ASM2143274v1_bin_Unbinned","NZ_CP090180.1",4233,4233,"chromosome",1,"gplas2","General"
"GCF_025147765.1_ASM2514776v1","GCF_025147765.1_ASM2514776v1_bin_1","NZ_CP102265.1",101026,101026,"chromosome",1,"gplas2","General"
"GCF_024206615.1_ASM2420661v1","GCF_024206615.1_ASM2420661v1_bin_Unbinned","NZ_CP100338.1",47775,47775,"chromosome",1,"gplas2","General"
"GCF_024334045.1_ASM2433404v1","GCF_024334045.1_ASM2433404v1_bin_2","NZ_CP084080.1",5678,5678,"chromosome",1,"gplas2","General"
"GCF_024334045.1_ASM2433404v1","GCF_024334045.1_ASM2433404v1_bin_1","NZ_CP084080.1",3155,3155,"chromosome",1,"gplas2","General"
"GCF_023299565.1_ASM2329956v1","GCF_023299565.1_ASM2329956v1_bin_2","NZ_CP097053.1",13702,13702,"chromosome",1,"gplas2","General"
"GCF_021559795.1_ASM2155979v1","GCF_021559795.1_ASM2155979v1_bin_3","NZ_CP055269.1",1141,404085,"chromosome",0.003,"gplas2","General"
"GCF_024334025.1_ASM2433402v1","GCF_024334025.1_ASM2433402v1_bin_3","NZ_CP084082.1",3409,3409,"chromosome",1,"gplas2","General"
"GCF_024334025.1_ASM2433402v1","GCF_024334025.1_ASM2433402v1_bin_2","NZ_CP084082.1",3155,3155,"chromosome",1,"gplas2","General"
"GCF_905322535.1_AI2624v1_cpp","GCF_905322535.1_AI2624v1_cpp_bin_4","NZ_OW967388.1",26996,26996,"chromosome",1,"gplas2","General"
"GCF_024158965.2_ASM2415896v2","GCF_024158965.2_ASM2415896v2_bin_1","NZ_CP102859.1",1711,31381,"chromosome",0.055,"gplas2","General"
"GCF_024158965.2_ASM2415896v2","GCF_024158965.2_ASM2415896v2_bin_2","NZ_CP102859.1",18800,31736,"chromosome",0.592,"gplas2","General"
"GCF_022879615.1_ASM2287961v1","GCF_022879615.1_ASM2287961v1_bin_1","NZ_CP084274.1",255545,399457,"chromosome",0.64,"gplas2","General"
"GCF_020641355.2_ASM2064135v2","GCF_020641355.2_ASM2064135v2_bin_1","NZ_CP104292.1",5688,5688,"chromosome",1,"gplas2","General"
"GCF_024918255.1_ASM2491825v1","GCF_024918255.1_ASM2491825v1_bin_3","NZ_CP103683.1",11090,11090,"chromosome",1,"gplas2","General"
"GCF_024206675.1_ASM2420667v1","GCF_024206675.1_ASM2420667v1_bin_1","NZ_CP100336.1",19414,19414,"chromosome",1,"gplas2","General"
"GCF_023300045.1_ASM2330004v1","GCF_023300045.1_ASM2330004v1_bin_1","NZ_CP097072.1",14748,14748,"chromosome",1,"gplas2","General"
"GCF_022879595.1_ASM2287959v1","GCF_022879595.1_ASM2287959v1_bin_1","NZ_CP084265.1",12740,86935,"chromosome",0.147,"gplas2","General"
"GCF_024917635.1_ASM2491763v1","GCF_024917635.1_ASM2491763v1_bin_1","NZ_CP103642.1",46592,46592,"chromosome",1,"gplas2","General"
"GCF_023375135.1_ASM2337513v1","GCF_023375135.1_ASM2337513v1_bin_1","NZ_CP088150.1",409916,409916,"chromosome",1,"gplas2","General"
"GCF_023375135.1_ASM2337513v1","GCF_023375135.1_ASM2337513v1_bin_2","NZ_CP088150.1",142835,142835,"chromosome",1,"gplas2","General"
"GCF_024346605.1_ASM2434660v1","GCF_024346605.1_ASM2434660v1_bin_4","NZ_CP098803.1",4642,4642,"chromosome",1,"gplas2","General"
"GCF_022879815.1_ASM2287981v1","GCF_022879815.1_ASM2287981v1_bin_Unbinned","NZ_CP084286.1",430057,1150410,"chromosome",0.374,"gplas2","General"
"GCF_023375175.1_ASM2337517v1","GCF_023375175.1_ASM2337517v1_bin_1","NZ_CP088187.1",13355,41529,"chromosome",0.322,"gplas2","General"
"GCF_024054255.2_ASM2405425v2","GCF_024054255.2_ASM2405425v2_bin_2","NZ_CP102714.1",9492,9492,"chromosome",1,"gplas2","General"
"GCF_023299185.1_ASM2329918v1","GCF_023299185.1_ASM2329918v1_bin_Unbinned","NZ_CP097017.1",91002,91002,"chromosome",1,"gplas2","General"
"GCF_024734275.1_ASM2473427v1","GCF_024734275.1_ASM2473427v1_bin_1","NZ_CP102903.1",20133,166952,"chromosome",0.121,"gplas2","General"
"GCF_024206695.1_ASM2420669v1","GCF_024206695.1_ASM2420669v1_bin_1","NZ_CP100326.1",9962,9962,"chromosome",1,"gplas2","General"
"GCF_905331365.1_AI3013v2_cpp","GCF_905331365.1_AI3013v2_cpp_bin_6","NZ_OW968417.1",5014,92301,"chromosome",0.054,"gplas2","General"
"GCF_021496345.1_ASM2149634v1","GCF_021496345.1_ASM2149634v1_bin_2","NZ_CP045101.1",5803,5803,"chromosome",1,"gplas2","General"
"GCF_024206715.1_ASM2420671v1","GCF_024206715.1_ASM2420671v1_bin_Unbinned","NZ_CP100328.1",46614,46614,"chromosome",1,"gplas2","General"
"GCF_024206655.1_ASM2420665v1","GCF_024206655.1_ASM2420665v1_bin_1","NZ_CP100334.1",50423,50423,"chromosome",1,"gplas2","General"
"GCF_022591735.1_ASM2259173v1","GCF_022591735.1_ASM2259173v1_bin_1","NZ_CP093260.1",4661,94576,"chromosome",0.049,"gplas2","General"
