GCF_906464925.1_BX5936,.,NZ_OD940434.1,S34_LN_i_3283_dp_f_7.358491953214545,3283,2371388,2374670
GCF_906464925.1_BX5936,.,NZ_OD940434.1,S34_LN_i_3283_dp_f_7.358491953214545,3283,2739502,2742784
GCF_906464925.1_BX5936,.,NZ_OD940434.1,S34_LN_i_3283_dp_f_7.358491953214545,3283,921393,924675
GCF_906464925.1_BX5936,.,NZ_OD940434.1,S34_LN_i_3283_dp_f_7.358491953214545,3283,244066,247348
GCF_906464925.1_BX5936,.,NZ_OD940434.1,S36_LN_i_1679_dp_f_7.514934684594672,1679,919588,921266
GCF_906464925.1_BX5936,.,NZ_OD940434.1,S36_LN_i_1679_dp_f_7.514934684594672,1679,242363,244041
GCF_906464925.1_BX5936,.,NZ_OD940434.1,S36_LN_i_1679_dp_f_7.514934684594672,1679,2374797,2376475
GCF_906464925.1_BX5936,.,NZ_OD940434.1,S36_LN_i_1679_dp_f_7.514934684594672,1679,2742809,2744487
GCF_906464925.1_BX5936,.,NZ_OD940434.1,S37_LN_i_1276_dp_f_8.50220448568089,1276,2196509,2197784
GCF_906464925.1_BX5936,.,NZ_OD940434.1,S37_LN_i_1276_dp_f_8.50220448568089,1276,450684,451959
GCF_906464925.1_BX5936,.,NZ_OD940434.1,S37_LN_i_1276_dp_f_8.50220448568089,1276,1207521,1208796
GCF_906464925.1_BX5936,.,NZ_OD940434.1,S37_LN_i_1276_dp_f_8.50220448568089,1276,1043149,1044424
GCF_906464925.1_BX5936,.,NZ_OD940434.1,S37_LN_i_1276_dp_f_8.50220448568089,1276,1260431,1261706
GCF_906464925.1_BX5936,.,NZ_OD940435.1,S37_LN_i_1276_dp_f_8.50220448568089,1275,1266,2542
GCF_906464925.1_BX5936,.,NZ_OD940434.1,S38_LN_i_1201_dp_f_14.481055148971473,1201,75176,76376
GCF_906464925.1_BX5936,.,NZ_OD940434.1,S38_LN_i_1201_dp_f_14.481055148971473,1201,1842655,1843855
GCF_906464925.1_BX5936,.,NZ_OD940434.1,S38_LN_i_1201_dp_f_14.481055148971473,1201,1769287,1770487
GCF_906464925.1_BX5936,.,NZ_OD940434.1,S38_LN_i_1201_dp_f_14.481055148971473,1201,431743,432943
GCF_906464925.1_BX5936,.,NZ_OD940434.1,S38_LN_i_1201_dp_f_14.481055148971473,1201,1978458,1979658
GCF_906464925.1_BX5936,.,NZ_OD940434.1,S38_LN_i_1201_dp_f_14.481055148971473,1201,2173518,2174718
GCF_906464925.1_BX5936,.,NZ_OD940434.1,S38_LN_i_1201_dp_f_14.481055148971473,1201,562873,564073
GCF_906464925.1_BX5936,.,NZ_OD940434.1,S38_LN_i_1201_dp_f_14.481055148971473,1201,1118087,1119287
GCF_906464925.1_BX5936,.,NZ_OD940434.1,S38_LN_i_1201_dp_f_14.481055148971473,1201,1152023,1153223
GCF_906464925.1_BX5936,.,NZ_OD940434.1,S38_LN_i_1201_dp_f_14.481055148971473,1201,2262534,2263734
GCF_013344605.1_ASM1334460v1,.,NZ_CP046110.1,S25_LN_i_5882_dp_f_6.062133387442284,5882,24329,30210
GCF_013344605.1_ASM1334460v1,.,NZ_CP046108.1,S25_LN_i_5882_dp_f_6.062133387442284,5882,2652744,2658625
GCF_013344605.1_ASM1334460v1,.,NZ_CP046109.1,S25_LN_i_5882_dp_f_6.062133387442284,5882,62379,68260
GCF_013344605.1_ASM1334460v1,.,NZ_CP046108.1,S27_LN_i_3283_dp_f_5.501922236975118,3283,226668,229950
GCF_013344605.1_ASM1334460v1,.,NZ_CP046108.1,S27_LN_i_3283_dp_f_5.501922236975118,3283,2839661,2842943
GCF_013344605.1_ASM1334460v1,.,NZ_CP046108.1,S27_LN_i_3283_dp_f_5.501922236975118,3283,2115252,2118534
GCF_013344605.1_ASM1334460v1,.,NZ_CP046108.1,S27_LN_i_3283_dp_f_5.501922236975118,3283,657447,660729
GCF_013344605.1_ASM1334460v1,.,NZ_CP046109.1,S28_LN_i_2251_dp_f_7.244211154449122,2251,70714,72964
GCF_013344605.1_ASM1334460v1,.,NZ_CP046110.1,S28_LN_i_2251_dp_f_7.244211154449122,2251,49371,51621
GCF_013344605.1_ASM1334460v1,.,NZ_CP046108.1,S30_LN_i_1834_dp_f_5.084601767978865,1834,2842979,2844812
GCF_013344605.1_ASM1334460v1,.,NZ_CP046108.1,S30_LN_i_1834_dp_f_5.084601767978865,1834,224799,226632
GCF_013344605.1_ASM1334460v1,.,NZ_CP046108.1,S30_LN_i_1834_dp_f_5.084601767978865,1834,2118672,2120505
GCF_013344605.1_ASM1334460v1,.,NZ_CP046108.1,S30_LN_i_1834_dp_f_5.084601767978865,1834,655476,657309
GCF_013344605.1_ASM1334460v1,.,NZ_CP046108.1,S33_LN_i_1514_dp_f_3.193917706978237,1514,193933,195446
GCF_013344605.1_ASM1334460v1,.,NZ_CP046108.1,S33_LN_i_1514_dp_f_3.193917706978237,1514,803506,805019
GCF_013344605.1_ASM1334460v1,.,NZ_CP046108.1,S33_LN_i_1514_dp_f_3.193917706978237,1513,1914389,1915903
GCF_013344605.1_ASM1334460v1,.,NZ_CP046110.1,S34_LN_i_1244_dp_f_4.715931545958041,1244,46094,47337
GCF_013344605.1_ASM1334460v1,.,NZ_CP046108.1,S34_LN_i_1244_dp_f_4.715931545958041,1244,2680153,2681396
GCF_022648425.1_ASM2264842v1,.,NZ_CP076493.1,S32_LN_i_18034_dp_f_2.148153714774959,18017,294165,312215
GCF_022648425.1_ASM2264842v1,.,NZ_CP076493.1,S32_LN_i_18034_dp_f_2.148153714774959,17926,3012497,3030422
GCF_022648425.1_ASM2264842v1,.,NZ_CP076493.1,S50_LN_i_4666_dp_f_2.061764165536041,4663,535551,540219
GCF_022648425.1_ASM2264842v1,.,NZ_CP076493.1,S50_LN_i_4666_dp_f_2.061764165536041,4664,2733481,2738148
GCF_022648425.1_ASM2264842v1,.,NZ_CP076494.1,S55_LN_i_3945_dp_f_3.3934258900440923,3943,80067,84013
GCF_022648425.1_ASM2264842v1,.,NZ_CP076497.1,S55_LN_i_3945_dp_f_3.3934258900440923,3943,29712,33656
GCF_022648425.1_ASM2264842v1,.,NZ_CP076493.1,S57_LN_i_3283_dp_f_4.361565232229471,3282,2582562,2585845
GCF_022648425.1_ASM2264842v1,.,NZ_CP076493.1,S57_LN_i_3283_dp_f_4.361565232229471,3281,2940551,2943835
GCF_022648425.1_ASM2264842v1,.,NZ_CP076493.1,S57_LN_i_3283_dp_f_4.361565232229471,3282,1969503,1972786
GCF_022648425.1_ASM2264842v1,.,NZ_CP076493.1,S57_LN_i_3283_dp_f_4.361565232229471,3282,327278,330561
GCF_022648425.1_ASM2264842v1,.,NZ_CP076493.1,S58_LN_i_2929_dp_f_1.9173143305610472,2929,509731,512659
GCF_022648425.1_ASM2264842v1,.,NZ_CP076493.1,S58_LN_i_2929_dp_f_1.9173143305610472,2927,1222517,1225447
GCF_022648425.1_ASM2264842v1,.,NZ_CP076493.1,S60_LN_i_2824_dp_f_2.137868744213077,2824,1219693,1222516
GCF_022648425.1_ASM2264842v1,.,NZ_CP076493.1,S60_LN_i_2824_dp_f_2.137868744213077,2824,506884,509707
GCF_022648425.1_ASM2264842v1,.,NZ_CP076496.1,S61_LN_i_2324_dp_f_2.524926626522801,2324,3803,6126
GCF_022648425.1_ASM2264842v1,.,NZ_CP076493.1,S61_LN_i_2324_dp_f_2.524926626522801,2324,2417656,2419979
GCF_022648425.1_ASM2264842v1,.,NZ_CP076496.1,S62_LN_i_2316_dp_f_2.2580193952502126,2314,20068,22385
GCF_022648425.1_ASM2264842v1,.,NZ_CP076493.1,S62_LN_i_2316_dp_f_2.2580193952502126,2315,2401410,2403726
GCF_022648425.1_ASM2264842v1,.,NZ_CP076494.1,S64_LN_i_2034_dp_f_3.2080095741466526,2034,111658,113691
GCF_022648425.1_ASM2264842v1,.,NZ_CP076494.1,S64_LN_i_2034_dp_f_3.2080095741466526,2033,46571,48605
GCF_022648425.1_ASM2264842v1,.,NZ_CP076493.1,S66_LN_i_1830_dp_f_2.130954482450934,1830,243566,245395
GCF_022648425.1_ASM2264842v1,.,NZ_CP076493.1,S66_LN_i_1830_dp_f_2.130954482450934,1830,2196207,2198036
GCF_022648425.1_ASM2264842v1,.,NZ_CP076493.1,S67_LN_i_1738_dp_f_4.470979580194723,1736,2938747,2940486
GCF_022648425.1_ASM2264842v1,.,NZ_CP076493.1,S67_LN_i_1738_dp_f_4.470979580194723,1738,2585910,2587647
GCF_022648425.1_ASM2264842v1,.,NZ_CP076493.1,S67_LN_i_1738_dp_f_4.470979580194723,1737,1972953,1974691
GCF_022648425.1_ASM2264842v1,.,NZ_CP076493.1,S67_LN_i_1738_dp_f_4.470979580194723,1736,325372,327111
GCF_022648425.1_ASM2264842v1,.,NZ_CP076493.1,S69_LN_i_1396_dp_f_2.2269909893790825,1396,2707124,2708519
GCF_022648425.1_ASM2264842v1,.,NZ_CP076493.1,S69_LN_i_1396_dp_f_2.2269909893790825,1396,390807,392202
GCF_022648425.1_ASM2264842v1,.,NZ_CP076496.1,S70_LN_i_1349_dp_f_2.6177463871986864,1349,8470,9818
GCF_022648425.1_ASM2264842v1,.,NZ_CP076493.1,S70_LN_i_1349_dp_f_2.6177463871986864,1349,2413964,2415312
GCF_022648425.1_ASM2264842v1,.,NZ_CP076494.1,S71_LN_i_1301_dp_f_2.6169654002595317,1301,16368,17668
GCF_022648425.1_ASM2264842v1,.,NZ_CP076493.1,S71_LN_i_1301_dp_f_2.6169654002595317,1301,1156983,1158283
GCF_022648425.1_ASM2264842v1,.,NZ_CP076493.1,S75_LN_i_1204_dp_f_7.938025785519129,1204,2685686,2686889
GCF_022648425.1_ASM2264842v1,.,NZ_CP076493.1,S75_LN_i_1204_dp_f_7.938025785519129,1204,1541614,1542817
GCF_022648425.1_ASM2264842v1,.,NZ_CP076493.1,S75_LN_i_1204_dp_f_7.938025785519129,1204,1053832,1055035
GCF_022648425.1_ASM2264842v1,.,NZ_CP076493.1,S75_LN_i_1204_dp_f_7.938025785519129,1203,1848814,1850018
GCF_022648425.1_ASM2264842v1,.,NZ_CP076493.1,S75_LN_i_1204_dp_f_7.938025785519129,1203,2386929,2388133
GCF_022648425.1_ASM2264842v1,.,NZ_CP076493.1,S75_LN_i_1204_dp_f_7.938025785519129,1203,618953,620155
GCF_022648425.1_ASM2264842v1,.,NZ_CP076493.1,S75_LN_i_1204_dp_f_7.938025785519129,1203,2164909,2166111
GCF_022648425.1_ASM2264842v1,.,NZ_CP076493.1,S75_LN_i_1204_dp_f_7.938025785519129,1202,801621,802826
GCF_022648425.1_ASM2264842v1,.,NZ_CP076496.1,S78_LN_i_1063_dp_f_2.559084551774705,1063,16501,17563
GCF_022648425.1_ASM2264842v1,.,NZ_CP076493.1,S78_LN_i_1063_dp_f_2.559084551774705,1063,2406231,2407293
GCF_022648425.1_ASM2264842v1,.,NZ_CP076497.1,S79_LN_i_1040_dp_f_4.024967878401844,1040,4148,5187
GCF_022648425.1_ASM2264842v1,.,NZ_CP076493.1,S79_LN_i_1040_dp_f_4.024967878401844,1040,1042770,1043809
GCF_022648425.1_ASM2264842v1,.,NZ_CP076493.1,S79_LN_i_1040_dp_f_4.024967878401844,1039,1715837,1716877
GCF_022648425.1_ASM2264842v1,.,NZ_CP076493.1,S80_LN_i_1024_dp_f_8.340976013800454,1024,1686455,1687478
GCF_022648425.1_ASM2264842v1,.,NZ_CP076497.1,S80_LN_i_1024_dp_f_8.340976013800454,1024,9820,10843
GCF_022648425.1_ASM2264842v1,.,NZ_CP076493.1,S80_LN_i_1024_dp_f_8.340976013800454,1024,1215006,1216029
GCF_022648425.1_ASM2264842v1,.,NZ_CP076493.1,S80_LN_i_1024_dp_f_8.340976013800454,1024,1172697,1173720
GCF_022648425.1_ASM2264842v1,.,NZ_CP076493.1,S80_LN_i_1024_dp_f_8.340976013800454,1024,1158890,1159913
GCF_022648425.1_ASM2264842v1,.,NZ_CP076493.1,S80_LN_i_1024_dp_f_8.340976013800454,1024,1175856,1176879
GCF_022648425.1_ASM2264842v1,.,NZ_CP076494.1,S80_LN_i_1024_dp_f_8.340976013800454,1024,4413,5436
GCF_013344625.1_ASM1334462v1,.,NZ_CP046111.1,S24_LN_i_3250_dp_f_5.428763712488065,3250,71754,75003
GCF_013344625.1_ASM1334462v1,.,NZ_CP046111.1,S24_LN_i_3250_dp_f_5.428763712488065,3250,334762,338011
GCF_013344625.1_ASM1334462v1,.,NZ_CP046111.1,S24_LN_i_3250_dp_f_5.428763712488065,3250,742781,746030
GCF_013344625.1_ASM1334462v1,.,NZ_CP046111.1,S24_LN_i_3250_dp_f_5.428763712488065,3249,2235332,2238580
GCF_013344625.1_ASM1334462v1,.,NZ_CP046111.1,S25_LN_i_1798_dp_f_4.926315301241393,1798,2238686,2240483
GCF_013344625.1_ASM1334462v1,.,NZ_CP046111.1,S25_LN_i_1798_dp_f_4.926315301241393,1798,332961,334758
GCF_013344625.1_ASM1334462v1,.,NZ_CP046111.1,S25_LN_i_1798_dp_f_4.926315301241393,1798,740878,742675
GCF_013344625.1_ASM1334462v1,.,NZ_CP046111.1,S25_LN_i_1798_dp_f_4.926315301241393,1798,75007,76804
GCF_013344625.1_ASM1334462v1,.,NZ_CP046111.1,S26_LN_i_1467_dp_f_2.1445347566232513,1467,2873942,2875408
GCF_013344625.1_ASM1334462v1,.,NZ_CP046111.1,S26_LN_i_1467_dp_f_2.1445347566232513,1467,1425616,1427082
GCF_013344625.1_ASM1334462v1,.,NZ_CP046111.1,S27_LN_i_1226_dp_f_1.9548859166824186,1226,659424,660649
GCF_013344625.1_ASM1334462v1,.,NZ_CP046111.1,S27_LN_i_1226_dp_f_1.9548859166824186,1226,2500200,2501425
GCF_013344625.1_ASM1334462v1,.,NZ_CP046111.1,S29_LN_i_1005_dp_f_10.183537355058236,1005,2737283,2738287
GCF_013344625.1_ASM1334462v1,.,NZ_CP046111.1,S29_LN_i_1005_dp_f_10.183537355058236,1005,2491331,2492335
GCF_013344625.1_ASM1334462v1,.,NZ_CP046111.1,S29_LN_i_1005_dp_f_10.183537355058236,1005,2720802,2721806
GCF_013344625.1_ASM1334462v1,.,NZ_CP046111.1,S29_LN_i_1005_dp_f_10.183537355058236,1005,2764083,2765087
GCF_013344625.1_ASM1334462v1,.,NZ_CP046111.1,S29_LN_i_1005_dp_f_10.183537355058236,1005,2464487,2465491
GCF_013344625.1_ASM1334462v1,.,NZ_CP046111.1,S29_LN_i_1005_dp_f_10.183537355058236,1005,1839947,1840951
GCF_013344625.1_ASM1334462v1,.,NZ_CP046111.1,S29_LN_i_1005_dp_f_10.183537355058236,1005,249757,250761
GCF_013344625.1_ASM1334462v1,.,NZ_CP046111.1,S29_LN_i_1005_dp_f_10.183537355058236,1005,2799848,2800852
GCF_013344625.1_ASM1334462v1,.,NZ_CP046111.1,S29_LN_i_1005_dp_f_10.183537355058236,1005,1660224,1661228
GCF_013344625.1_ASM1334462v1,.,NZ_CP046111.1,S29_LN_i_1005_dp_f_10.183537355058236,1005,2653236,2654240
GCF_021655635.1_ASM2165563v1,.,NZ_AP025270.1,S17_LN_i_3143_dp_f_3.3981495901366667,3143,853172,856314
GCF_021655635.1_ASM2165563v1,.,NZ_AP025270.1,S17_LN_i_3143_dp_f_3.3981495901366667,3143,2361919,2365061
GCF_021655635.1_ASM2165563v1,.,NZ_AP025270.1,S17_LN_i_3143_dp_f_3.3981495901366667,3143,2738330,2741472
GCF_021655635.1_ASM2165563v1,.,NZ_AP025270.1,S17_LN_i_3143_dp_f_3.3981495901366667,3143,225127,228269
GCF_021655635.1_ASM2165563v1,.,NZ_AP025270.1,S19_LN_i_1815_dp_f_3.3778884555425304,1815,2741578,2743392
GCF_021655635.1_ASM2165563v1,.,NZ_AP025270.1,S19_LN_i_1815_dp_f_3.3778884555425304,1815,223309,225123
GCF_021655635.1_ASM2165563v1,.,NZ_AP025270.1,S19_LN_i_1815_dp_f_3.3778884555425304,1815,2365065,2366879
GCF_021655635.1_ASM2165563v1,.,NZ_AP025270.1,S19_LN_i_1815_dp_f_3.3778884555425304,1815,851252,853066
GCF_906464865.1_WE0438,.,NZ_OD940420.1,S25_LN_i_3653_dp_f_1.9761030502634074,3653,387180,390832
GCF_906464865.1_WE0438,.,NZ_OD940420.1,S25_LN_i_3653_dp_f_1.9761030502634074,3644,843326,846969
GCF_906464865.1_WE0438,.,NZ_OD940420.1,S26_LN_i_3283_dp_f_5.037073104431827,3283,2558666,2561948
GCF_906464865.1_WE0438,.,NZ_OD940420.1,S26_LN_i_3283_dp_f_5.037073104431827,3283,1043447,1046729
GCF_906464865.1_WE0438,.,NZ_OD940420.1,S26_LN_i_3283_dp_f_5.037073104431827,3283,2916636,2919918
GCF_906464865.1_WE0438,.,NZ_OD940420.1,S26_LN_i_3283_dp_f_5.037073104431827,3283,215990,219272
GCF_906464865.1_WE0438,.,NZ_OD940421.1,S27_LN_i_3080_dp_f_1.7947348086891957,3080,17947,21026
GCF_906464865.1_WE0438,.,NZ_OD940420.1,S27_LN_i_3080_dp_f_1.7947348086891957,3080,776630,779709
GCF_906464865.1_WE0438,.,NZ_OD940420.1,S29_LN_i_1835_dp_f_5.194820244584958,1835,2562054,2563888
GCF_906464865.1_WE0438,.,NZ_OD940420.1,S29_LN_i_1835_dp_f_5.194820244584958,1835,2919922,2921756
GCF_906464865.1_WE0438,.,NZ_OD940420.1,S29_LN_i_1835_dp_f_5.194820244584958,1835,1041507,1043341
GCF_906464865.1_WE0438,.,NZ_OD940420.1,S29_LN_i_1835_dp_f_5.194820244584958,1835,214152,215986
GCF_906464865.1_WE0438,.,NZ_OD940420.1,S30_LN_i_1589_dp_f_2.1226583384236855,1589,880898,882486
GCF_906464865.1_WE0438,.,NZ_OD940420.1,S30_LN_i_1589_dp_f_2.1226583384236855,1589,782336,783924
GCF_906464865.1_WE0438,.,NZ_OD940420.1,S31_LN_i_1587_dp_f_1.5291977980821625,1587,794193,795779
GCF_906464865.1_WE0438,.,NZ_OD940420.1,S31_LN_i_1587_dp_f_1.5291977980821625,1585,369754,371342
GCF_906464865.1_WE0438,.,NZ_OD940420.1,S32_LN_i_1513_dp_f_2.0357494838096986,1513,1266677,1268189
GCF_906464865.1_WE0438,.,NZ_OD940420.1,S32_LN_i_1513_dp_f_2.0357494838096986,1513,2604622,2606134
GCF_906464915.2_WE0254,.,NZ_OD940440.2,S26_LN_i_3249_dp_f_5.921950125710581,3249,2764420,2767668
GCF_906464915.2_WE0254,.,NZ_OD940440.2,S26_LN_i_3249_dp_f_5.921950125710581,3249,225141,228389
GCF_906464915.2_WE0254,.,NZ_OD940440.2,S26_LN_i_3249_dp_f_5.921950125710581,3249,2406845,2410093
GCF_906464915.2_WE0254,.,NZ_OD940440.2,S26_LN_i_3249_dp_f_5.921950125710581,3248,926204,929451
GCF_906464915.2_WE0254,.,NZ_OD940440.2,S27_LN_i_1782_dp_f_6.1484717919445515,1782,2767672,2769453
GCF_906464915.2_WE0254,.,NZ_OD940440.2,S27_LN_i_1782_dp_f_6.1484717919445515,1782,2410199,2411980
GCF_906464915.2_WE0254,.,NZ_OD940440.2,S27_LN_i_1782_dp_f_6.1484717919445515,1782,223356,225137
GCF_906464915.2_WE0254,.,NZ_OD940440.2,S27_LN_i_1782_dp_f_6.1484717919445515,1782,924317,926098
GCF_906464915.2_WE0254,.,NZ_OD940440.2,S28_LN_i_1517_dp_f_5.560511072863734,1517,1573314,1574830
GCF_906464915.2_WE0254,.,NZ_OD940440.2,S28_LN_i_1517_dp_f_5.560511072863734,1517,1354915,1356431
GCF_906464915.2_WE0254,.,NZ_OD940440.2,S28_LN_i_1517_dp_f_5.560511072863734,1517,680362,681878
GCF_906464915.2_WE0254,.,NZ_OD940440.2,S28_LN_i_1517_dp_f_5.560511072863734,1517,423361,424877
GCF_906464915.2_WE0254,.,NZ_OD940440.2,S28_LN_i_1517_dp_f_5.560511072863734,1517,917225,918741
GCF_906464915.2_WE0254,.,NZ_OU538996.1,S30_LN_i_1278_dp_f_2.5065097058183836,1278,43624,44901
GCF_906464915.2_WE0254,.,NZ_OU538996.1,S30_LN_i_1278_dp_f_2.5065097058183836,1278,51570,52847
GCF_906464915.2_WE0254,.,NZ_OU538996.1,S30_LN_i_1278_dp_f_2.5065097058183836,1278,67555,68832
GCF_022648595.1_ASM2264859v1,.,NZ_CP076498.1,S32_LN_i_18034_dp_f_2.159639681614865,18034,592017,610050
GCF_022648595.1_ASM2264859v1,.,NZ_CP076498.1,S32_LN_i_18034_dp_f_2.159639681614865,18028,904215,922254
GCF_022648595.1_ASM2264859v1,.,NZ_CP076498.1,S50_LN_i_4666_dp_f_2.0741689720174703,4664,1145586,1150253
GCF_022648595.1_ASM2264859v1,.,NZ_CP076498.1,S50_LN_i_4666_dp_f_2.0741689720174703,4664,313002,317669
GCF_022648595.1_ASM2264859v1,.,NZ_CP076499.1,S55_LN_i_3945_dp_f_3.511444505906534,3943,38843,42789
GCF_022648595.1_ASM2264859v1,.,NZ_CP076502.1,S55_LN_i_3945_dp_f_3.511444505906534,3943,29708,33652
GCF_022648595.1_ASM2264859v1,.,NZ_CP076498.1,S57_LN_i_3283_dp_f_4.49933762946104,3282,2579538,2582821
GCF_022648595.1_ASM2264859v1,.,NZ_CP076498.1,S57_LN_i_3283_dp_f_4.49933762946104,3282,162080,165363
GCF_022648595.1_ASM2264859v1,.,NZ_CP076498.1,S57_LN_i_3283_dp_f_4.49933762946104,3281,520070,523354
GCF_022648595.1_ASM2264859v1,.,NZ_CP076498.1,S57_LN_i_3283_dp_f_4.49933762946104,3283,937314,940596
GCF_022648595.1_ASM2264859v1,.,NZ_CP076498.1,S58_LN_i_2929_dp_f_1.974106681261908,2929,1119766,1122694
GCF_022648595.1_ASM2264859v1,.,NZ_CP076498.1,S58_LN_i_2929_dp_f_1.974106681261908,2927,1832552,1835482
GCF_022648595.1_ASM2264859v1,.,NZ_CP076498.1,S60_LN_i_2824_dp_f_2.0866612324582845,2824,1829728,1832551
GCF_022648595.1_ASM2264859v1,.,NZ_CP076498.1,S60_LN_i_2824_dp_f_2.0866612324582845,2824,1116919,1119742
GCF_022648595.1_ASM2264859v1,.,NZ_CP076501.1,S62_LN_i_2316_dp_f_2.2375967644650463,2316,52,2367
GCF_022648595.1_ASM2264859v1,.,NZ_CP076498.1,S62_LN_i_2316_dp_f_2.2375967644650463,2313,3011448,3013766
GCF_022648595.1_ASM2264859v1,.,NZ_CP076499.1,S64_LN_i_2034_dp_f_3.39545382181882,2034,9164,11197
GCF_022648595.1_ASM2264859v1,.,NZ_CP076499.1,S64_LN_i_2034_dp_f_3.39545382181882,2034,74251,76284
GCF_022648595.1_ASM2264859v1,.,NZ_CP076498.1,S66_LN_i_1830_dp_f_2.1540876913252394,1829,853615,855445
GCF_022648595.1_ASM2264859v1,.,NZ_CP076498.1,S66_LN_i_1830_dp_f_2.1540876913252394,1829,2806244,2808074
GCF_022648595.1_ASM2264859v1,.,NZ_CP076498.1,S67_LN_i_1738_dp_f_4.450153679373707,1738,518268,520005
GCF_022648595.1_ASM2264859v1,.,NZ_CP076498.1,S67_LN_i_1738_dp_f_4.450153679373707,1737,935411,937147
GCF_022648595.1_ASM2264859v1,.,NZ_CP076498.1,S67_LN_i_1738_dp_f_4.450153679373707,1737,2582988,2584726
GCF_022648595.1_ASM2264859v1,.,NZ_CP076498.1,S67_LN_i_1738_dp_f_4.450153679373707,1736,165428,167167
GCF_022648595.1_ASM2264859v1,.,NZ_CP076498.1,S69_LN_i_1396_dp_f_2.2021697302415597,1396,286645,288040
GCF_022648595.1_ASM2264859v1,.,NZ_CP076498.1,S69_LN_i_1396_dp_f_2.2021697302415597,1396,1000842,1002237
GCF_022648595.1_ASM2264859v1,.,NZ_CP076501.1,S70_LN_i_1349_dp_f_2.4910181215945046,1349,12617,13965
GCF_022648595.1_ASM2264859v1,.,NZ_CP076498.1,S70_LN_i_1349_dp_f_2.4910181215945046,1349,3024005,3025353
GCF_022648595.1_ASM2264859v1,.,NZ_CP076499.1,S71_LN_i_1301_dp_f_2.627707630795585,1301,105187,106487
GCF_022648595.1_ASM2264859v1,.,NZ_CP076498.1,S71_LN_i_1301_dp_f_2.627707630795585,1301,1767017,1768317
GCF_022648595.1_ASM2264859v1,.,NZ_CP076498.1,S75_LN_i_1204_dp_f_7.802491456700458,1204,1228987,1230190
GCF_022648595.1_ASM2264859v1,.,NZ_CP076498.1,S75_LN_i_1204_dp_f_7.802491456700458,1203,2774944,2776148
GCF_022648595.1_ASM2264859v1,.,NZ_CP076498.1,S75_LN_i_1204_dp_f_7.802491456700458,1203,2996967,2998171
GCF_022648595.1_ASM2264859v1,.,NZ_CP076498.1,S75_LN_i_1204_dp_f_7.802491456700458,1203,1411656,1412860
GCF_022648595.1_ASM2264859v1,.,NZ_CP076498.1,S75_LN_i_1204_dp_f_7.802491456700458,1203,265206,266410
GCF_022648595.1_ASM2264859v1,.,NZ_CP076498.1,S75_LN_i_1204_dp_f_7.802491456700458,1203,2458849,2460053
GCF_022648595.1_ASM2264859v1,.,NZ_CP076498.1,S75_LN_i_1204_dp_f_7.802491456700458,1203,2151649,2152853
GCF_022648595.1_ASM2264859v1,.,NZ_CP076498.1,S75_LN_i_1204_dp_f_7.802491456700458,1203,1663866,1665070
GCF_022648595.1_ASM2264859v1,.,NZ_CP076501.1,S78_LN_i_1063_dp_f_2.658864995990042,1063,4872,5934
GCF_022648595.1_ASM2264859v1,.,NZ_CP076498.1,S78_LN_i_1063_dp_f_2.658864995990042,1062,3016271,3017334
GCF_022648595.1_ASM2264859v1,.,NZ_CP076498.1,S79_LN_i_1040_dp_f_4.128245767425912,1040,2325873,2326912
GCF_022648595.1_ASM2264859v1,.,NZ_CP076502.1,S79_LN_i_1040_dp_f_4.128245767425912,1040,24521,25560
GCF_022648595.1_ASM2264859v1,.,NZ_CP076498.1,S79_LN_i_1040_dp_f_4.128245767425912,1040,1652804,1653843
GCF_022648595.1_ASM2264859v1,.,NZ_CP076498.1,S80_LN_i_1024_dp_f_8.432595458148493,1024,2296491,2297514
GCF_022648595.1_ASM2264859v1,.,NZ_CP076498.1,S80_LN_i_1024_dp_f_8.432595458148493,1024,1768924,1769947
GCF_022648595.1_ASM2264859v1,.,NZ_CP076498.1,S80_LN_i_1024_dp_f_8.432595458148493,1024,1782731,1783754
GCF_022648595.1_ASM2264859v1,.,NZ_CP076502.1,S80_LN_i_1024_dp_f_8.432595458148493,1023,18864,19888
GCF_022648595.1_ASM2264859v1,.,NZ_CP076498.1,S80_LN_i_1024_dp_f_8.432595458148493,1023,1825040,1826064
GCF_022648595.1_ASM2264859v1,.,NZ_CP076498.1,S80_LN_i_1024_dp_f_8.432595458148493,1024,1785890,1786913
GCF_022648595.1_ASM2264859v1,.,NZ_CP076499.1,S80_LN_i_1024_dp_f_8.432595458148493,1023,117419,118443
GCF_013344665.1_ASM1334466v1,.,NZ_CP046113.1,S10_LN_i_3283_dp_f_6.394459059374593,3283,2260085,2263367
GCF_013344665.1_ASM1334466v1,.,NZ_CP046113.1,S10_LN_i_3283_dp_f_6.394459059374593,3283,215953,219235
GCF_013344665.1_ASM1334466v1,.,NZ_CP046113.1,S10_LN_i_3283_dp_f_6.394459059374593,3283,2623056,2626338
GCF_013344665.1_ASM1334466v1,.,NZ_CP046113.1,S10_LN_i_3283_dp_f_6.394459059374593,3283,821229,824511
GCF_013344665.1_ASM1334466v1,.,NZ_CP046113.1,S11_LN_i_1830_dp_f_2.400313229833641,1830,598980,600809
GCF_013344665.1_ASM1334466v1,.,NZ_CP046113.1,S11_LN_i_1830_dp_f_2.400313229833641,1830,2327195,2329024
GCF_013344665.1_ASM1334466v1,.,NZ_CP046113.1,S12_LN_i_1812_dp_f_5.84198587981697,1812,2626342,2628153
GCF_013344665.1_ASM1334466v1,.,NZ_CP046113.1,S12_LN_i_1812_dp_f_5.84198587981697,1812,214138,215949
GCF_013344665.1_ASM1334466v1,.,NZ_CP046113.1,S12_LN_i_1812_dp_f_5.84198587981697,1812,2263473,2265284
GCF_013344665.1_ASM1334466v1,.,NZ_CP046113.1,S12_LN_i_1812_dp_f_5.84198587981697,1811,819313,821123
GCF_020844125.1_ASM2084412v1,.,NZ_CP063980.1,S13_LN_i_5643_dp_f_1.605790075601862,5643,910822,916464
GCF_020844125.1_ASM2084412v1,.,NZ_CP063981.1,S13_LN_i_5643_dp_f_1.605790075601862,5643,3640,9282
GCF_020844125.1_ASM2084412v1,.,NZ_CP063980.1,S16_LN_i_3283_dp_f_5.060849728360367,3283,948725,952007
GCF_020844125.1_ASM2084412v1,.,NZ_CP063980.1,S16_LN_i_3283_dp_f_5.060849728360367,3283,538700,541982
GCF_020844125.1_ASM2084412v1,.,NZ_CP063980.1,S16_LN_i_3283_dp_f_5.060849728360367,3283,270969,274251
GCF_020844125.1_ASM2084412v1,.,NZ_CP063980.1,S16_LN_i_3283_dp_f_5.060849728360367,3283,2375752,2379034
GCF_020844125.1_ASM2084412v1,.,NZ_CP063980.1,S17_LN_i_1811_dp_f_5.286240992619944,1811,274255,276065
GCF_020844125.1_ASM2084412v1,.,NZ_CP063980.1,S17_LN_i_1811_dp_f_5.286240992619944,1811,536886,538696
GCF_020844125.1_ASM2084412v1,.,NZ_CP063980.1,S17_LN_i_1811_dp_f_5.286240992619944,1811,946809,948619
GCF_020844125.1_ASM2084412v1,.,NZ_CP063980.1,S17_LN_i_1811_dp_f_5.286240992619944,1810,2379140,2380949
GCF_020844125.1_ASM2084412v1,.,NZ_CP063981.1,S18_LN_i_1734_dp_f_1.413616965149895,1734,888,2621
GCF_020844125.1_ASM2084412v1,.,NZ_CP063980.1,S18_LN_i_1734_dp_f_1.413616965149895,1734,908236,909969
GCF_020844125.1_ASM2084412v1,.,NZ_CP063980.1,S19_LN_i_1292_dp_f_2.2948619945771904,1292,870601,871892
GCF_020844125.1_ASM2084412v1,.,NZ_CP063980.1,S19_LN_i_1292_dp_f_2.2948619945771904,1292,2621409,2622700
GCF_906464835.1_TM6294,.,NZ_OD940431.1,S17_LN_i_9002_dp_f_2.910551248060695,9002,388197,397198
GCF_906464835.1_TM6294,.,NZ_OD940433.1,S17_LN_i_9002_dp_f_2.910551248060695,8984,14675,23658
GCF_906464835.1_TM6294,.,NZ_OD940431.1,S21_LN_i_3283_dp_f_6.850689682447743,3283,904849,908131
GCF_906464835.1_TM6294,.,NZ_OD940431.1,S21_LN_i_3283_dp_f_6.850689682447743,3283,220121,223403
GCF_906464835.1_TM6294,.,NZ_OD940431.1,S21_LN_i_3283_dp_f_6.850689682447743,3283,2753913,2757195
GCF_906464835.1_TM6294,.,NZ_OD940431.1,S21_LN_i_3283_dp_f_6.850689682447743,3283,2358680,2361962
GCF_906464835.1_TM6294,.,NZ_OD940433.1,S24_LN_i_2926_dp_f_2.5970279726326457,2926,24210,27135
GCF_906464835.1_TM6294,.,NZ_OD940431.1,S24_LN_i_2926_dp_f_2.5970279726326457,2926,397745,400670
GCF_906464835.1_TM6294,.,NZ_OD940431.1,S25_LN_i_2361_dp_f_2.18766747722859,2361,401052,403412
GCF_906464835.1_TM6294,.,NZ_OD940433.1,S25_LN_i_2361_dp_f_2.18766747722859,2361,27517,29877
GCF_906464835.1_TM6294,.,NZ_OD940431.1,S27_LN_i_1831_dp_f_6.63002169968656,1831,218284,220114
GCF_906464835.1_TM6294,.,NZ_OD940431.1,S27_LN_i_1831_dp_f_6.63002169968656,1831,2757202,2759032
GCF_906464835.1_TM6294,.,NZ_OD940431.1,S27_LN_i_1831_dp_f_6.63002169968656,1831,902910,904740
GCF_906464835.1_TM6294,.,NZ_OD940431.1,S27_LN_i_1831_dp_f_6.63002169968656,1831,2362071,2363901
GCF_906464835.1_TM6294,.,NZ_OD940431.1,S29_LN_i_1350_dp_f_3.861523828627728,1350,1396903,1398252
GCF_906464835.1_TM6294,.,NZ_OD940431.1,S29_LN_i_1350_dp_f_3.861523828627728,1350,2304196,2305545
GCF_906464835.1_TM6294,.,NZ_OD940431.1,S29_LN_i_1350_dp_f_3.861523828627728,1350,2587089,2588438
GCF_906464835.1_TM6294,.,NZ_OD940432.1,S30_LN_i_1181_dp_f_2.9519484000901004,1181,48462,49642
GCF_906464835.1_TM6294,.,NZ_OD940432.1,S30_LN_i_1181_dp_f_2.9519484000901004,1181,72135,73315
GCF_906464835.1_TM6294,.,NZ_OD940432.1,S30_LN_i_1181_dp_f_2.9519484000901004,1181,64899,66079
GCF_906464895.1_WE0851,.,NZ_OD940422.1,S33_LN_i_3283_dp_f_6.715816470583321,3283,1504990,1508272
GCF_906464895.1_WE0851,.,NZ_OD940422.1,S33_LN_i_3283_dp_f_6.715816470583321,3283,1215791,1219073
GCF_906464895.1_WE0851,.,NZ_OD940422.1,S33_LN_i_3283_dp_f_6.715816470583321,3283,2171612,2174894
GCF_906464895.1_WE0851,.,NZ_OD940422.1,S33_LN_i_3283_dp_f_6.715816470583321,3283,840437,843719
GCF_906464895.1_WE0851,.,NZ_OD940422.1,S37_LN_i_1791_dp_f_6.720269512763921,1791,843825,845615
GCF_906464895.1_WE0851,.,NZ_OD940422.1,S37_LN_i_1791_dp_f_6.720269512763921,1791,1219077,1220867
GCF_906464895.1_WE0851,.,NZ_OD940422.1,S37_LN_i_1791_dp_f_6.720269512763921,1791,1503196,1504986
GCF_906464895.1_WE0851,.,NZ_OD940422.1,S37_LN_i_1791_dp_f_6.720269512763921,1791,2169716,2171506
GCF_906464895.1_WE0851,.,NZ_OD940422.1,S39_LN_i_1338_dp_f_6.645569628989075,1338,1501459,1502796
GCF_906464895.1_WE0851,.,NZ_OD940422.1,S39_LN_i_1338_dp_f_6.645569628989075,1338,308628,309965
GCF_906464895.1_WE0851,.,NZ_OD940422.1,S39_LN_i_1338_dp_f_6.645569628989075,1338,1416068,1417405
GCF_906464895.1_WE0851,.,NZ_OD940422.1,S39_LN_i_1338_dp_f_6.645569628989075,1338,1808974,1810311
GCF_906464895.1_WE0851,.,NZ_OD940422.1,S40_LN_i_1324_dp_f_17.89497193595983,1324,1811594,1812917
GCF_906464895.1_WE0851,.,NZ_OD940422.1,S40_LN_i_1324_dp_f_17.89497193595983,1324,2296933,2298256
GCF_906464895.1_WE0851,.,NZ_OD940422.1,S40_LN_i_1324_dp_f_17.89497193595983,1324,2523567,2524890
GCF_906464895.1_WE0851,.,NZ_OD940422.1,S40_LN_i_1324_dp_f_17.89497193595983,1324,1694353,1695676
GCF_906464895.1_WE0851,.,NZ_OD940422.1,S40_LN_i_1324_dp_f_17.89497193595983,1324,2240556,2241879
GCF_906464895.1_WE0851,.,NZ_OD940422.1,S40_LN_i_1324_dp_f_17.89497193595983,1324,82220,83543
GCF_906464895.1_WE0851,.,NZ_OD940422.1,S40_LN_i_1324_dp_f_17.89497193595983,1324,767256,768579
GCF_906464895.1_WE0851,.,NZ_OD940422.1,S40_LN_i_1324_dp_f_17.89497193595983,1324,805166,806489
GCF_906464895.1_WE0851,.,NZ_OD940422.1,S40_LN_i_1324_dp_f_17.89497193595983,1324,654604,655927
GCF_906464895.1_WE0851,.,NZ_OD940422.1,S40_LN_i_1324_dp_f_17.89497193595983,1324,1956060,1957383
GCF_906464895.1_WE0851,.,NZ_OD940422.1,S40_LN_i_1324_dp_f_17.89497193595983,1324,148876,150199
GCF_906464895.1_WE0851,.,NZ_OD940422.1,S40_LN_i_1324_dp_f_17.89497193595983,1324,2045822,2047145
GCF_906464895.1_WE0851,.,NZ_OD940422.1,S40_LN_i_1324_dp_f_17.89497193595983,1320,211870,213197
GCF_906464895.1_WE0851,.,NZ_OD940423.1,S42_LN_i_1279_dp_f_1.8397545201517094,1279,39162,40440
GCF_906464895.1_WE0851,.,NZ_OD940423.1,S42_LN_i_1279_dp_f_1.8397545201517094,1279,31396,32674
GCF_906464895.1_WE0851,.,NZ_OD940422.1,S44_LN_i_1016_dp_f_7.093477591442423,1016,1706629,1707644
GCF_906464895.1_WE0851,.,NZ_OD940422.1,S44_LN_i_1016_dp_f_7.093477591442423,1016,1954925,1955940
GCF_906464895.1_WE0851,.,NZ_OD940422.1,S44_LN_i_1016_dp_f_7.093477591442423,1016,1669584,1670599
GCF_906464895.1_WE0851,.,NZ_OD940422.1,S44_LN_i_1016_dp_f_7.093477591442423,1016,1723099,1724114
GCF_906464895.1_WE0851,.,NZ_OD940422.1,S44_LN_i_1016_dp_f_7.093477591442423,1016,1790753,1791768
GCF_906464875.1_BX8117,.,NZ_OD940437.1,S19_LN_i_3279_dp_f_6.108034890529427,3279,210682,213960
GCF_906464875.1_BX8117,.,NZ_OD940437.1,S19_LN_i_3279_dp_f_6.108034890529427,3279,2426280,2429558
GCF_906464875.1_BX8117,.,NZ_OD940437.1,S19_LN_i_3279_dp_f_6.108034890529427,3279,2856640,2859918
GCF_906464875.1_BX8117,.,NZ_OD940437.1,S19_LN_i_3279_dp_f_6.108034890529427,3279,974396,977674
GCF_906464875.1_BX8117,.,NZ_OD940437.1,S21_LN_i_1763_dp_f_6.019433440746977,1763,2859958,2861720
GCF_906464875.1_BX8117,.,NZ_OD940437.1,S21_LN_i_1763_dp_f_6.019433440746977,1763,2429700,2431462
GCF_906464875.1_BX8117,.,NZ_OD940437.1,S21_LN_i_1763_dp_f_6.019433440746977,1763,208880,210642
GCF_906464875.1_BX8117,.,NZ_OD940437.1,S21_LN_i_1763_dp_f_6.019433440746977,1763,972492,974254
GCF_906464875.1_BX8117,.,NZ_OD940437.1,S23_LN_i_1681_dp_f_5.30910159124342,1681,57627,59307
GCF_906464875.1_BX8117,.,NZ_OD940437.1,S23_LN_i_1681_dp_f_5.30910159124342,1681,596517,598197
GCF_906464875.1_BX8117,.,NZ_OD940437.1,S23_LN_i_1681_dp_f_5.30910159124342,1681,1912944,1914624
GCF_906464875.1_BX8117,.,NZ_OD940437.1,S23_LN_i_1681_dp_f_5.30910159124342,1681,2320974,2322654
GCF_906464875.1_BX8117,.,NZ_OD940439.1,S24_LN_i_1291_dp_f_1.054021583724877,1291,5732,7022
GCF_906464875.1_BX8117,.,NZ_OD940437.1,S24_LN_i_1291_dp_f_1.054021583724877,1291,1531498,1532788
GCF_013344645.1_ASM1334464v1,.,NZ_CP046112.1,S24_LN_i_3143_dp_f_5.69716428632502,3143,2862190,2865332
GCF_013344645.1_ASM1334464v1,.,NZ_CP046112.1,S24_LN_i_3143_dp_f_5.69716428632502,3143,2599289,2602431
GCF_013344645.1_ASM1334464v1,.,NZ_CP046112.1,S24_LN_i_3143_dp_f_5.69716428632502,3143,2191270,2194412
GCF_013344645.1_ASM1334464v1,.,NZ_CP046112.1,S24_LN_i_3143_dp_f_5.69716428632502,3143,698613,701755
GCF_013344645.1_ASM1334464v1,.,NZ_CP046112.1,S25_LN_i_1798_dp_f_5.599170903237108,1798,2194518,2196315
GCF_013344645.1_ASM1334464v1,.,NZ_CP046112.1,S25_LN_i_1798_dp_f_5.599170903237108,1798,696710,698507
GCF_013344645.1_ASM1334464v1,.,NZ_CP046112.1,S25_LN_i_1798_dp_f_5.599170903237108,1798,2602435,2604232
GCF_013344645.1_ASM1334464v1,.,NZ_CP046112.1,S25_LN_i_1798_dp_f_5.599170903237108,1798,2860389,2862186
GCF_013344645.1_ASM1334464v1,.,NZ_CP046112.1,S26_LN_i_1467_dp_f_2.2434406371576285,1467,58701,60167
GCF_013344645.1_ASM1334464v1,.,NZ_CP046112.1,S26_LN_i_1467_dp_f_2.2434406371576285,1467,1510111,1511577
GCF_013344645.1_ASM1334464v1,.,NZ_CP046112.1,S27_LN_i_1226_dp_f_1.9310142923770066,1226,432684,433909
GCF_013344645.1_ASM1334464v1,.,NZ_CP046112.1,S27_LN_i_1226_dp_f_1.9310142923770066,1226,2276544,2277769
GCF_022648285.1_ASM2264828v1,.,NZ_CP076488.1,S32_LN_i_18034_dp_f_2.1944590124347902,18032,742815,760850
GCF_022648285.1_ASM2264828v1,.,NZ_CP076488.1,S32_LN_i_18034_dp_f_2.1944590124347902,18033,430617,448651
GCF_022648285.1_ASM2264828v1,.,NZ_CP076488.1,S50_LN_i_4666_dp_f_2.1191410603202283,4663,151601,156269
GCF_022648285.1_ASM2264828v1,.,NZ_CP076488.1,S50_LN_i_4666_dp_f_2.1191410603202283,4663,984183,988851
GCF_022648285.1_ASM2264828v1,.,NZ_CP076489.1,S56_LN_i_3945_dp_f_3.616804826417698,3945,35787,39731
GCF_022648285.1_ASM2264828v1,.,NZ_CP076492.1,S56_LN_i_3945_dp_f_3.616804826417698,3944,29716,33659
GCF_022648285.1_ASM2264828v1,.,NZ_CP076488.1,S58_LN_i_3283_dp_f_4.461145845585305,3283,2418133,2421415
GCF_022648285.1_ASM2264828v1,.,NZ_CP076488.1,S58_LN_i_3283_dp_f_4.461145845585305,3282,681,3964
GCF_022648285.1_ASM2264828v1,.,NZ_CP076488.1,S58_LN_i_3283_dp_f_4.461145845585305,3281,358670,361954
GCF_022648285.1_ASM2264828v1,.,NZ_CP076488.1,S58_LN_i_3283_dp_f_4.461145845585305,3283,775911,779193
GCF_022648285.1_ASM2264828v1,.,NZ_CP076488.1,S59_LN_i_2929_dp_f_1.965594223440034,2929,958363,961291
GCF_022648285.1_ASM2264828v1,.,NZ_CP076488.1,S59_LN_i_2929_dp_f_1.965594223440034,2928,1671150,1674079
GCF_022648285.1_ASM2264828v1,.,NZ_CP076488.1,S61_LN_i_2824_dp_f_2.053564124688247,2824,955516,958339
GCF_022648285.1_ASM2264828v1,.,NZ_CP076488.1,S61_LN_i_2824_dp_f_2.053564124688247,2823,1668325,1671149
GCF_022648285.1_ASM2264828v1,.,NZ_CP076491.1,S62_LN_i_2324_dp_f_2.628063971774861,2324,2720,5043
GCF_022648285.1_ASM2264828v1,.,NZ_CP076488.1,S62_LN_i_2324_dp_f_2.628063971774861,2324,2867618,2869941
GCF_022648285.1_ASM2264828v1,.,NZ_CP076491.1,S63_LN_i_2316_dp_f_2.3011160437476676,2316,18985,21300
GCF_022648285.1_ASM2264828v1,.,NZ_CP076488.1,S63_LN_i_2316_dp_f_2.3011160437476676,2315,2851372,2853688
GCF_022648285.1_ASM2264828v1,.,NZ_CP076489.1,S65_LN_i_2034_dp_f_3.3698654109253545,2034,67376,69409
GCF_022648285.1_ASM2264828v1,.,NZ_CP076489.1,S65_LN_i_2034_dp_f_3.3698654109253545,2034,2292,4325
GCF_022648285.1_ASM2264828v1,.,NZ_CP076488.1,S67_LN_i_1830_dp_f_2.113843648430931,1830,2644837,2646666
GCF_022648285.1_ASM2264828v1,.,NZ_CP076488.1,S67_LN_i_1830_dp_f_2.113843648430931,1829,692215,694045
GCF_022648285.1_ASM2264828v1,.,NZ_CP076488.1,S69_LN_i_1396_dp_f_2.203994646655064,1396,125244,126639
GCF_022648285.1_ASM2264828v1,.,NZ_CP076488.1,S69_LN_i_1396_dp_f_2.203994646655064,1396,839439,840834
GCF_022648285.1_ASM2264828v1,.,NZ_CP076491.1,S70_LN_i_1349_dp_f_2.6033109147276465,1349,7387,8735
GCF_022648285.1_ASM2264828v1,.,NZ_CP076488.1,S70_LN_i_1349_dp_f_2.6033109147276465,1349,2863926,2865274
GCF_022648285.1_ASM2264828v1,.,NZ_CP076488.1,S71_LN_i_1318_dp_f_4.451756961622083,1318,357288,358605
GCF_022648285.1_ASM2264828v1,.,NZ_CP076488.1,S71_LN_i_1318_dp_f_4.451756961622083,1317,2421582,2422900
GCF_022648285.1_ASM2264828v1,.,NZ_CP076488.1,S71_LN_i_1318_dp_f_4.451756961622083,1317,774426,775744
GCF_022648285.1_ASM2264828v1,.,NZ_CP076488.1,S71_LN_i_1318_dp_f_4.451756961622083,1317,4029,5347
GCF_022648285.1_ASM2264828v1,.,NZ_CP076489.1,S72_LN_i_1301_dp_f_2.6670000155563263,1301,91808,93108
GCF_022648285.1_ASM2264828v1,.,NZ_CP076488.1,S72_LN_i_1301_dp_f_2.6670000155563263,1301,1605615,1606915
GCF_022648285.1_ASM2264828v1,.,NZ_CP076488.1,S76_LN_i_1201_dp_f_8.701867799907793,1201,103807,105007
GCF_022648285.1_ASM2264828v1,.,NZ_CP076488.1,S76_LN_i_1201_dp_f_8.701867799907793,1201,2835561,2836761
GCF_022648285.1_ASM2264828v1,.,NZ_CP076488.1,S76_LN_i_1201_dp_f_8.701867799907793,1200,2297446,2298647
GCF_022648285.1_ASM2264828v1,.,NZ_CP076488.1,S76_LN_i_1201_dp_f_8.701867799907793,1200,1067586,1068787
GCF_022648285.1_ASM2264828v1,.,NZ_CP076488.1,S76_LN_i_1201_dp_f_8.701867799907793,1200,2845574,2846775
GCF_022648285.1_ASM2264828v1,.,NZ_CP076488.1,S76_LN_i_1201_dp_f_8.701867799907793,1200,1502466,1503667
GCF_022648285.1_ASM2264828v1,.,NZ_CP076488.1,S76_LN_i_1201_dp_f_8.701867799907793,1200,1990247,1991446
GCF_022648285.1_ASM2264828v1,.,NZ_CP076488.1,S76_LN_i_1201_dp_f_8.701867799907793,1201,2613539,2614739
GCF_022648285.1_ASM2264828v1,.,NZ_CP076488.1,S76_LN_i_1201_dp_f_8.701867799907793,1201,1250256,1251456
GCF_022648285.1_ASM2264828v1,.,NZ_CP076491.1,S79_LN_i_1063_dp_f_2.6475839350848815,1063,15418,16480
GCF_022648285.1_ASM2264828v1,.,NZ_CP076488.1,S79_LN_i_1063_dp_f_2.6475839350848815,1063,2856193,2857255
GCF_022648285.1_ASM2264828v1,.,NZ_CP076492.1,S80_LN_i_1040_dp_f_4.008731486998882,1040,4149,5188
GCF_022648285.1_ASM2264828v1,.,NZ_CP076488.1,S80_LN_i_1040_dp_f_4.008731486998882,1040,1491402,1492441
GCF_022648285.1_ASM2264828v1,.,NZ_CP076488.1,S80_LN_i_1040_dp_f_4.008731486998882,1040,2164468,2165507
GCF_022648285.1_ASM2264828v1,.,NZ_CP076488.1,S81_LN_i_1024_dp_f_8.528442125539081,1024,1621329,1622352
GCF_022648285.1_ASM2264828v1,.,NZ_CP076488.1,S81_LN_i_1024_dp_f_8.528442125539081,1024,1663638,1664661
GCF_022648285.1_ASM2264828v1,.,NZ_CP076492.1,S81_LN_i_1024_dp_f_8.528442125539081,1024,9821,10844
GCF_022648285.1_ASM2264828v1,.,NZ_CP076488.1,S81_LN_i_1024_dp_f_8.528442125539081,1024,2135086,2136109
GCF_022648285.1_ASM2264828v1,.,NZ_CP076488.1,S81_LN_i_1024_dp_f_8.528442125539081,1024,1607522,1608545
GCF_022648285.1_ASM2264828v1,.,NZ_CP076488.1,S81_LN_i_1024_dp_f_8.528442125539081,1024,1624488,1625511
GCF_022648285.1_ASM2264828v1,.,NZ_CP076489.1,S81_LN_i_1024_dp_f_8.528442125539081,1024,79853,80876
