<?xml version='1.0' encoding='UTF-8' ?>
<svg xmlns='http://www.w3.org/2000/svg' xmlns:xlink='http://www.w3.org/1999/xlink' class='svglite' width='504.00pt' height='360.00pt' viewBox='0 0 504.00 360.00'>
<defs>
  <style type='text/css'><![CDATA[
    .svglite line, .svglite polyline, .svglite polygon, .svglite path, .svglite rect, .svglite circle {
      fill: none;
      stroke: #000000;
      stroke-linecap: round;
      stroke-linejoin: round;
      stroke-miterlimit: 10.00;
    }
    .svglite text {
      white-space: pre;
    }
  ]]></style>
</defs>
<rect width='100%' height='100%' style='stroke: none; fill: #FFFFFF;'/>
<defs>
  <clipPath id='cpMC4wMHw1MDQuMDB8MC4wMHwzNjAuMDA='>
    <rect x='0.00' y='0.00' width='504.00' height='360.00' />
  </clipPath>
</defs>
<g clip-path='url(#cpMC4wMHw1MDQuMDB8MC4wMHwzNjAuMDA=)'>
<rect x='0.00' y='0.000000000000057' width='504.00' height='360.00' style='stroke-width: 1.16; stroke: #FFFFFF; fill: #FFFFFF;' />
</g>
<defs>
  <clipPath id='cpNTYuNTZ8MTk5LjczfDkwLjE4fDMyOC43NA=='>
    <rect x='56.56' y='90.18' width='143.17' height='238.56' />
  </clipPath>
</defs>
<g clip-path='url(#cpNTYuNTZ8MTk5LjczfDkwLjE4fDMyOC43NA==)'>
<rect x='56.56' y='90.18' width='143.17' height='238.56' style='stroke-width: 1.16; stroke: none; fill: #FFFFFF;' />
<polyline points='56.56,290.79 199.73,290.79 ' style='stroke-width: 0.58; stroke: #FFFFFF; stroke-linecap: butt;' />
<polyline points='56.56,236.57 199.73,236.57 ' style='stroke-width: 0.58; stroke: #FFFFFF; stroke-linecap: butt;' />
<polyline points='56.56,182.35 199.73,182.35 ' style='stroke-width: 0.58; stroke: #FFFFFF; stroke-linecap: butt;' />
<polyline points='56.56,128.14 199.73,128.14 ' style='stroke-width: 0.58; stroke: #FFFFFF; stroke-linecap: butt;' />
<polyline points='56.56,317.90 199.73,317.90 ' style='stroke-width: 1.16; stroke: #BEBEBE; stroke-dasharray: 1.55,4.66; stroke-linecap: butt;' />
<polyline points='56.56,263.68 199.73,263.68 ' style='stroke-width: 1.16; stroke: #BEBEBE; stroke-dasharray: 1.55,4.66; stroke-linecap: butt;' />
<polyline points='56.56,209.46 199.73,209.46 ' style='stroke-width: 1.16; stroke: #BEBEBE; stroke-dasharray: 1.55,4.66; stroke-linecap: butt;' />
<polyline points='56.56,155.25 199.73,155.25 ' style='stroke-width: 1.16; stroke: #BEBEBE; stroke-dasharray: 1.55,4.66; stroke-linecap: butt;' />
<polyline points='56.56,101.03 199.73,101.03 ' style='stroke-width: 1.16; stroke: #BEBEBE; stroke-dasharray: 1.55,4.66; stroke-linecap: butt;' />
<polyline points='83.40,328.74 83.40,90.18 ' style='stroke-width: 1.16; stroke: #FFFFFF; stroke-linecap: butt;' />
<polyline points='128.14,328.74 128.14,90.18 ' style='stroke-width: 1.16; stroke: #FFFFFF; stroke-linecap: butt;' />
<polyline points='172.88,328.74 172.88,90.18 ' style='stroke-width: 1.16; stroke: #FFFFFF; stroke-linecap: butt;' />
<rect x='63.27' y='132.08' width='40.27' height='185.81' style='stroke-width: 1.07; stroke: none; stroke-linecap: butt; stroke-linejoin: miter; fill: #00FF93;' />
<rect x='108.01' y='138.07' width='40.27' height='179.83' style='stroke-width: 1.07; stroke: none; stroke-linecap: butt; stroke-linejoin: miter; fill: #FFC300;' />
<rect x='152.75' y='165.61' width='40.27' height='152.29' style='stroke-width: 1.07; stroke: none; stroke-linecap: butt; stroke-linejoin: miter; fill: #F11212;' />
</g>
<g clip-path='url(#cpMC4wMHw1MDQuMDB8MC4wMHwzNjAuMDA=)'>
</g>
<defs>
  <clipPath id='cpMjA1LjcwfDM0OC44N3w5MC4xOHwzMjguNzQ='>
    <rect x='205.70' y='90.18' width='143.17' height='238.56' />
  </clipPath>
</defs>
<g clip-path='url(#cpMjA1LjcwfDM0OC44N3w5MC4xOHwzMjguNzQ=)'>
<rect x='205.70' y='90.18' width='143.17' height='238.56' style='stroke-width: 1.16; stroke: none; fill: #FFFFFF;' />
<polyline points='205.70,290.79 348.87,290.79 ' style='stroke-width: 0.58; stroke: #FFFFFF; stroke-linecap: butt;' />
<polyline points='205.70,236.57 348.87,236.57 ' style='stroke-width: 0.58; stroke: #FFFFFF; stroke-linecap: butt;' />
<polyline points='205.70,182.35 348.87,182.35 ' style='stroke-width: 0.58; stroke: #FFFFFF; stroke-linecap: butt;' />
<polyline points='205.70,128.14 348.87,128.14 ' style='stroke-width: 0.58; stroke: #FFFFFF; stroke-linecap: butt;' />
<polyline points='205.70,317.90 348.87,317.90 ' style='stroke-width: 1.16; stroke: #BEBEBE; stroke-dasharray: 1.55,4.66; stroke-linecap: butt;' />
<polyline points='205.70,263.68 348.87,263.68 ' style='stroke-width: 1.16; stroke: #BEBEBE; stroke-dasharray: 1.55,4.66; stroke-linecap: butt;' />
<polyline points='205.70,209.46 348.87,209.46 ' style='stroke-width: 1.16; stroke: #BEBEBE; stroke-dasharray: 1.55,4.66; stroke-linecap: butt;' />
<polyline points='205.70,155.25 348.87,155.25 ' style='stroke-width: 1.16; stroke: #BEBEBE; stroke-dasharray: 1.55,4.66; stroke-linecap: butt;' />
<polyline points='205.70,101.03 348.87,101.03 ' style='stroke-width: 1.16; stroke: #BEBEBE; stroke-dasharray: 1.55,4.66; stroke-linecap: butt;' />
<polyline points='232.55,328.74 232.55,90.18 ' style='stroke-width: 1.16; stroke: #FFFFFF; stroke-linecap: butt;' />
<polyline points='277.29,328.74 277.29,90.18 ' style='stroke-width: 1.16; stroke: #FFFFFF; stroke-linecap: butt;' />
<polyline points='322.03,328.74 322.03,90.18 ' style='stroke-width: 1.16; stroke: #FFFFFF; stroke-linecap: butt;' />
<rect x='212.42' y='120.66' width='40.27' height='197.24' style='stroke-width: 1.07; stroke: none; stroke-linecap: butt; stroke-linejoin: miter; fill: #00FF93;' />
<rect x='257.16' y='117.42' width='40.27' height='200.48' style='stroke-width: 1.07; stroke: none; stroke-linecap: butt; stroke-linejoin: miter; fill: #FFC300;' />
<rect x='301.90' y='142.15' width='40.27' height='175.75' style='stroke-width: 1.07; stroke: none; stroke-linecap: butt; stroke-linejoin: miter; fill: #F11212;' />
</g>
<g clip-path='url(#cpMC4wMHw1MDQuMDB8MC4wMHwzNjAuMDA=)'>
</g>
<defs>
  <clipPath id='cpMzU0Ljg1fDQ5OC4wMnw5MC4xOHwzMjguNzQ='>
    <rect x='354.85' y='90.18' width='143.17' height='238.56' />
  </clipPath>
</defs>
<g clip-path='url(#cpMzU0Ljg1fDQ5OC4wMnw5MC4xOHwzMjguNzQ=)'>
<rect x='354.85' y='90.18' width='143.17' height='238.56' style='stroke-width: 1.16; stroke: none; fill: #FFFFFF;' />
<polyline points='354.85,290.79 498.02,290.79 ' style='stroke-width: 0.58; stroke: #FFFFFF; stroke-linecap: butt;' />
<polyline points='354.85,236.57 498.02,236.57 ' style='stroke-width: 0.58; stroke: #FFFFFF; stroke-linecap: butt;' />
<polyline points='354.85,182.35 498.02,182.35 ' style='stroke-width: 0.58; stroke: #FFFFFF; stroke-linecap: butt;' />
<polyline points='354.85,128.14 498.02,128.14 ' style='stroke-width: 0.58; stroke: #FFFFFF; stroke-linecap: butt;' />
<polyline points='354.85,317.90 498.02,317.90 ' style='stroke-width: 1.16; stroke: #BEBEBE; stroke-dasharray: 1.55,4.66; stroke-linecap: butt;' />
<polyline points='354.85,263.68 498.02,263.68 ' style='stroke-width: 1.16; stroke: #BEBEBE; stroke-dasharray: 1.55,4.66; stroke-linecap: butt;' />
<polyline points='354.85,209.46 498.02,209.46 ' style='stroke-width: 1.16; stroke: #BEBEBE; stroke-dasharray: 1.55,4.66; stroke-linecap: butt;' />
<polyline points='354.85,155.25 498.02,155.25 ' style='stroke-width: 1.16; stroke: #BEBEBE; stroke-dasharray: 1.55,4.66; stroke-linecap: butt;' />
<polyline points='354.85,101.03 498.02,101.03 ' style='stroke-width: 1.16; stroke: #BEBEBE; stroke-dasharray: 1.55,4.66; stroke-linecap: butt;' />
<polyline points='381.70,328.74 381.70,90.18 ' style='stroke-width: 1.16; stroke: #FFFFFF; stroke-linecap: butt;' />
<polyline points='426.44,328.74 426.44,90.18 ' style='stroke-width: 1.16; stroke: #FFFFFF; stroke-linecap: butt;' />
<polyline points='471.18,328.74 471.18,90.18 ' style='stroke-width: 1.16; stroke: #FFFFFF; stroke-linecap: butt;' />
<rect x='361.56' y='142.26' width='40.27' height='175.64' style='stroke-width: 1.07; stroke: none; stroke-linecap: butt; stroke-linejoin: miter; fill: #00FF93;' />
<rect x='406.30' y='154.86' width='40.27' height='163.04' style='stroke-width: 1.07; stroke: none; stroke-linecap: butt; stroke-linejoin: miter; fill: #FFC300;' />
<rect x='451.04' y='183.54' width='40.27' height='134.35' style='stroke-width: 1.07; stroke: none; stroke-linecap: butt; stroke-linejoin: miter; fill: #F11212;' />
</g>
<g clip-path='url(#cpMC4wMHw1MDQuMDB8MC4wMHwzNjAuMDA=)'>
</g>
<defs>
  <clipPath id='cpNTYuNTZ8MTk5LjczfDY2LjU1fDkwLjE4'>
    <rect x='56.56' y='66.55' width='143.17' height='23.63' />
  </clipPath>
</defs>
<g clip-path='url(#cpNTYuNTZ8MTk5LjczfDY2LjU1fDkwLjE4)'>
<rect x='56.56' y='66.55' width='143.17' height='23.63' style='stroke-width: 1.16; stroke: none; fill: #D9D9D9;' />
<text x='128.14' y='83.75' text-anchor='middle' style='font-size: 15.00px;fill: #1A1A1A; font-family: "Arial";' textLength='62.55px' lengthAdjust='spacingAndGlyphs'>F1_score</text>
</g>
<g clip-path='url(#cpMC4wMHw1MDQuMDB8MC4wMHwzNjAuMDA=)'>
</g>
<defs>
  <clipPath id='cpMjA1LjcwfDM0OC44N3w2Ni41NXw5MC4xOA=='>
    <rect x='205.70' y='66.55' width='143.17' height='23.63' />
  </clipPath>
</defs>
<g clip-path='url(#cpMjA1LjcwfDM0OC44N3w2Ni41NXw5MC4xOA==)'>
<rect x='205.70' y='66.55' width='143.17' height='23.63' style='stroke-width: 1.16; stroke: none; fill: #D9D9D9;' />
<text x='277.29' y='83.75' text-anchor='middle' style='font-size: 15.00px;fill: #1A1A1A; font-family: "Arial";' textLength='60.05px' lengthAdjust='spacingAndGlyphs'>precision</text>
</g>
<g clip-path='url(#cpMC4wMHw1MDQuMDB8MC4wMHwzNjAuMDA=)'>
</g>
<defs>
  <clipPath id='cpMzU0Ljg1fDQ5OC4wMnw2Ni41NXw5MC4xOA=='>
    <rect x='354.85' y='66.55' width='143.17' height='23.63' />
  </clipPath>
</defs>
<g clip-path='url(#cpMzU0Ljg1fDQ5OC4wMnw2Ni41NXw5MC4xOA==)'>
<rect x='354.85' y='66.55' width='143.17' height='23.63' style='stroke-width: 1.16; stroke: none; fill: #D9D9D9;' />
<text x='426.44' y='83.75' text-anchor='middle' style='font-size: 15.00px;fill: #1A1A1A; font-family: "Arial";' textLength='35.86px' lengthAdjust='spacingAndGlyphs'>recall</text>
</g>
<g clip-path='url(#cpMC4wMHw1MDQuMDB8MC4wMHwzNjAuMDA=)'>
<polyline points='83.40,331.73 83.40,328.74 ' style='stroke-width: 1.16; stroke: #333333; stroke-linecap: butt;' />
<polyline points='128.14,331.73 128.14,328.74 ' style='stroke-width: 1.16; stroke: #333333; stroke-linecap: butt;' />
<polyline points='172.88,331.73 172.88,328.74 ' style='stroke-width: 1.16; stroke: #333333; stroke-linecap: butt;' />
<text transform='translate(83.91,334.63) rotate(-45)' text-anchor='end' style='font-size: 0.00px;fill: #4D4D4D; font-family: "Arial";' textLength='2.94px' lengthAdjust='spacingAndGlyphs'>gplas2</text>
<text transform='translate(128.65,334.63) rotate(-45)' text-anchor='end' style='font-size: 0.00px;fill: #4D4D4D; font-family: "Arial";' textLength='4.72px' lengthAdjust='spacingAndGlyphs'>MOB-suite</text>
<text transform='translate(173.39,334.63) rotate(-45)' text-anchor='end' style='font-size: 0.00px;fill: #4D4D4D; font-family: "Arial";' textLength='7.06px' lengthAdjust='spacingAndGlyphs'>plasmidSPAdes</text>
<polyline points='232.55,331.73 232.55,328.74 ' style='stroke-width: 1.16; stroke: #333333; stroke-linecap: butt;' />
<polyline points='277.29,331.73 277.29,328.74 ' style='stroke-width: 1.16; stroke: #333333; stroke-linecap: butt;' />
<polyline points='322.03,331.73 322.03,328.74 ' style='stroke-width: 1.16; stroke: #333333; stroke-linecap: butt;' />
<text transform='translate(233.06,334.63) rotate(-45)' text-anchor='end' style='font-size: 0.00px;fill: #4D4D4D; font-family: "Arial";' textLength='2.94px' lengthAdjust='spacingAndGlyphs'>gplas2</text>
<text transform='translate(277.80,334.63) rotate(-45)' text-anchor='end' style='font-size: 0.00px;fill: #4D4D4D; font-family: "Arial";' textLength='4.72px' lengthAdjust='spacingAndGlyphs'>MOB-suite</text>
<text transform='translate(322.54,334.63) rotate(-45)' text-anchor='end' style='font-size: 0.00px;fill: #4D4D4D; font-family: "Arial";' textLength='7.06px' lengthAdjust='spacingAndGlyphs'>plasmidSPAdes</text>
<polyline points='381.70,331.73 381.70,328.74 ' style='stroke-width: 1.16; stroke: #333333; stroke-linecap: butt;' />
<polyline points='426.44,331.73 426.44,328.74 ' style='stroke-width: 1.16; stroke: #333333; stroke-linecap: butt;' />
<polyline points='471.18,331.73 471.18,328.74 ' style='stroke-width: 1.16; stroke: #333333; stroke-linecap: butt;' />
<text transform='translate(382.21,334.63) rotate(-45)' text-anchor='end' style='font-size: 0.00px;fill: #4D4D4D; font-family: "Arial";' textLength='2.94px' lengthAdjust='spacingAndGlyphs'>gplas2</text>
<text transform='translate(426.95,334.63) rotate(-45)' text-anchor='end' style='font-size: 0.00px;fill: #4D4D4D; font-family: "Arial";' textLength='4.72px' lengthAdjust='spacingAndGlyphs'>MOB-suite</text>
<text transform='translate(471.69,334.63) rotate(-45)' text-anchor='end' style='font-size: 0.00px;fill: #4D4D4D; font-family: "Arial";' textLength='7.06px' lengthAdjust='spacingAndGlyphs'>plasmidSPAdes</text>
<text x='51.18' y='322.56' text-anchor='end' style='font-size: 13.00px;fill: #4D4D4D; font-family: "Arial";' textLength='25.30px' lengthAdjust='spacingAndGlyphs'>0.00</text>
<text x='51.18' y='268.34' text-anchor='end' style='font-size: 13.00px;fill: #4D4D4D; font-family: "Arial";' textLength='25.30px' lengthAdjust='spacingAndGlyphs'>0.25</text>
<text x='51.18' y='214.12' text-anchor='end' style='font-size: 13.00px;fill: #4D4D4D; font-family: "Arial";' textLength='25.30px' lengthAdjust='spacingAndGlyphs'>0.50</text>
<text x='51.18' y='159.91' text-anchor='end' style='font-size: 13.00px;fill: #4D4D4D; font-family: "Arial";' textLength='25.30px' lengthAdjust='spacingAndGlyphs'>0.75</text>
<text x='51.18' y='105.69' text-anchor='end' style='font-size: 13.00px;fill: #4D4D4D; font-family: "Arial";' textLength='25.30px' lengthAdjust='spacingAndGlyphs'>1.00</text>
<polyline points='53.57,317.90 56.56,317.90 ' style='stroke-width: 1.16; stroke: #333333; stroke-linecap: butt;' />
<polyline points='53.57,263.68 56.56,263.68 ' style='stroke-width: 1.16; stroke: #333333; stroke-linecap: butt;' />
<polyline points='53.57,209.46 56.56,209.46 ' style='stroke-width: 1.16; stroke: #333333; stroke-linecap: butt;' />
<polyline points='53.57,155.25 56.56,155.25 ' style='stroke-width: 1.16; stroke: #333333; stroke-linecap: butt;' />
<polyline points='53.57,101.03 56.56,101.03 ' style='stroke-width: 1.16; stroke: #333333; stroke-linecap: butt;' />
<text x='277.29' y='350.06' text-anchor='middle' style='font-size: 18.00px; font-weight: bold; font-family: "Arial";' textLength='76.02px' lengthAdjust='spacingAndGlyphs'>Software</text>
<text transform='translate(18.93,209.46) rotate(-90)' text-anchor='middle' style='font-size: 18.00px; font-weight: bold; font-family: "Arial";' textLength='48.02px' lengthAdjust='spacingAndGlyphs'>Value</text>
<rect x='111.67' y='25.36' width='331.24' height='29.24' style='stroke-width: 1.16; stroke: none; fill: #FFFFFF;' />
<text x='117.65' y='40.34' style='font-size: 0.00px; font-family: "Arial";' textLength='3.77px' lengthAdjust='spacingAndGlyphs'>software</text>
<rect x='117.65' y='31.34' width='17.28' height='17.28' style='stroke-width: 1.16; stroke: none; fill: #F2F2F2;' />
<rect x='118.36' y='32.05' width='15.86' height='15.86' style='stroke-width: 1.07; stroke: none; stroke-linecap: butt; stroke-linejoin: miter; fill: #00FF93;' />
<rect x='187.96' y='31.34' width='17.28' height='17.28' style='stroke-width: 1.16; stroke: none; fill: #F2F2F2;' />
<rect x='188.66' y='32.05' width='15.86' height='15.86' style='stroke-width: 1.07; stroke: none; stroke-linecap: butt; stroke-linejoin: miter; fill: #FFC300;' />
<rect x='294.77' y='31.34' width='17.28' height='17.28' style='stroke-width: 1.16; stroke: none; fill: #F2F2F2;' />
<rect x='295.48' y='32.05' width='15.86' height='15.86' style='stroke-width: 1.07; stroke: none; stroke-linecap: butt; stroke-linejoin: miter; fill: #F11212;' />
<text x='134.93' y='46.43' style='font-size: 18.00px; font-family: "Arial";' textLength='53.03px' lengthAdjust='spacingAndGlyphs'>gplas2</text>
<text x='205.24' y='46.43' style='font-size: 18.00px; font-family: "Arial";' textLength='85.02px' lengthAdjust='spacingAndGlyphs'>MOB-suite</text>
<text x='312.05' y='46.43' style='font-size: 18.00px; font-family: "Arial";' textLength='127.04px' lengthAdjust='spacingAndGlyphs'>plasmidSPAdes</text>
<text x='56.56' y='16.30' style='font-size: 14.40px; font-family: "Arial";' textLength='147.19px' lengthAdjust='spacingAndGlyphs'>K. pneumoniae metrics</text>
</g>
</svg>
