GCF_014250355.1_ASM1425035v1,bin_component_1,NZ_CP060169.1,NODE_8_length_1746_cov_81.299581_component_1,1746,1110484,1112229
GCF_014250355.1_ASM1425035v1,bin_component_1,NZ_CP060169.1,NODE_8_length_1746_cov_81.299581_component_1,1746,2779460,2781205
GCF_014250355.1_ASM1425035v1,bin_component_1,NZ_CP060169.1,NODE_9_length_1746_cov_71.236070_component_1,1746,2793066,2794811
GCF_014250355.1_ASM1425035v1,bin_component_1,NZ_CP060169.1,NODE_9_length_1746_cov_71.236070_component_1,1746,1099245,1100990
GCF_019670285.1_ASM1967028v1,bin_component_0,NZ_AP023301.1,NODE_13_length_1530_cov_161.588738_component_0,1530,15030,16559
GCF_019670285.1_ASM1967028v1,bin_component_0,NZ_AP023300.1,NODE_13_length_1530_cov_161.588738_component_0,1530,1154113,1155642
GCF_019670285.1_ASM1967028v1,bin_component_0,NZ_AP023301.1,NODE_15_length_1067_cov_194.219149_component_0,1067,35720,36786
GCF_019670285.1_ASM1967028v1,bin_component_0,NZ_AP023301.1,NODE_15_length_1067_cov_194.219149_component_0,1067,31436,32502
GCF_003064405.2_ASM306440v2,bin_component_3,NZ_CP077693.1,NODE_10_length_2145_cov_35.006442_component_3,2145,4265061,4267205
GCF_003064405.2_ASM306440v2,bin_component_3,NZ_CP077693.1,NODE_10_length_2145_cov_35.006442_component_3,2145,1327851,1329995
GCF_003067925.2_ASM306792v2,bin_component_1,NZ_CP077699.1,NODE_4_length_11911_cov_54.935336_component_1,11911,2187645,2199555
GCF_003067925.2_ASM306792v2,bin_component_1,NZ_CP077699.1,NODE_4_length_11911_cov_54.935336_component_1,11911,3016466,3028376
GCF_003067925.2_ASM306792v2,bin_component_1,NZ_CP077699.1,NODE_8_length_1620_cov_81.685198_component_1,1572,2211987,2213654
GCF_003067925.2_ASM306792v2,bin_component_1,NZ_CP077699.1,NODE_8_length_1620_cov_81.685198_component_1,1572,1317193,1318860
GCF_003067925.2_ASM306792v2,bin_component_1,NZ_CP077699.1,NODE_9_length_1461_cov_77.764618_component_1,1461,3015132,3016592
GCF_003067925.2_ASM306792v2,bin_component_1,NZ_CP077699.1,NODE_9_length_1461_cov_77.764618_component_1,1461,2199429,2200889
GCF_003067925.2_ASM306792v2,bin_component_1,NZ_CP077699.1,NODE_9_length_1461_cov_77.764618_component_1,1461,1305076,1306536
GCF_003067925.2_ASM306792v2,bin_component_1,NZ_CP077699.1,NODE_11_length_1051_cov_53.405844_component_1,1051,2200763,2201813
GCF_003067925.2_ASM306792v2,bin_component_1,NZ_CP077699.1,NODE_11_length_1051_cov_53.405844_component_1,1051,3014208,3015258
GCF_022655645.1_ASM2265564v1,bin_component_1,NZ_CP093386.1,NODE_8_length_1728_cov_98.499091_component_1,1728,2982477,2984204
GCF_022655645.1_ASM2265564v1,bin_component_1,NZ_CP093386.1,NODE_8_length_1728_cov_98.499091_component_1,1728,1271321,1273048
GCF_001831985.2_ASM183198v2,bin_component_0,NZ_CP075135.1,NODE_8_length_3052_cov_284.024874_component_0,3052,4715605,4718656
GCF_001831985.2_ASM183198v2,bin_component_0,NZ_CP075135.1,NODE_8_length_3052_cov_284.024874_component_0,3052,4534086,4537137
GCF_001831985.2_ASM183198v2,bin_component_0,NZ_CP075135.1,NODE_8_length_3052_cov_284.024874_component_0,3052,450327,453378
GCF_001831985.2_ASM183198v2,bin_component_0,NZ_CP075135.1,NODE_8_length_3052_cov_284.024874_component_0,3052,4575957,4579008
GCF_001831985.2_ASM183198v2,bin_component_0,NZ_CP075135.1,NODE_8_length_3052_cov_284.024874_component_0,3052,4810680,4813731
GCF_001831985.2_ASM183198v2,bin_component_0,NZ_CP075135.1,NODE_8_length_3052_cov_284.024874_component_0,3052,3796078,3799129
GCF_001831985.2_ASM183198v2,bin_component_0,NZ_CP075135.1,NODE_8_length_3052_cov_284.024874_component_0,3050,1291447,1294496
GCF_001831985.2_ASM183198v2,bin_component_0,NZ_CP075135.1,NODE_9_length_1624_cov_330.111829_component_0,1624,4579397,4581020
GCF_001831985.2_ASM183198v2,bin_component_0,NZ_CP075135.1,NODE_9_length_1624_cov_330.111829_component_0,1624,4813961,4815584
GCF_001831985.2_ASM183198v2,bin_component_0,NZ_CP075135.1,NODE_9_length_1624_cov_330.111829_component_0,1624,4719045,4720668
GCF_001831985.2_ASM183198v2,bin_component_0,NZ_CP075135.1,NODE_9_length_1624_cov_330.111829_component_0,1624,1289594,1291217
GCF_001831985.2_ASM183198v2,bin_component_0,NZ_CP075135.1,NODE_9_length_1624_cov_330.111829_component_0,1623,448475,450097
GCF_001831985.2_ASM183198v2,bin_component_0,NZ_CP075135.1,NODE_9_length_1624_cov_330.111829_component_0,1622,3799518,3801139
GCF_001831985.2_ASM183198v2,bin_component_0,NZ_CP075135.1,NODE_9_length_1624_cov_330.111829_component_0,1622,4537367,4538988
GCF_001831985.2_ASM183198v2,bin_component_0,NZ_CP075135.1,NODE_10_length_1428_cov_142.876388_component_0,1428,1294722,1296149
GCF_001831985.2_ASM183198v2,bin_component_0,NZ_CP075135.1,NODE_10_length_1428_cov_142.876388_component_0,1426,4714054,4715481
GCF_016451985.1_ASM1645198v1,bin_component_1,NZ_CP051307.1,NODE_2_length_19241_cov_63.576959_component_1,19241,4637759,4656999
GCF_016451985.1_ASM1645198v1,bin_component_1,NZ_CP051307.1,NODE_2_length_19241_cov_63.576959_component_1,19241,1761798,1781038
GCF_016451985.1_ASM1645198v1,bin_component_1,NZ_CP051307.1,NODE_3_length_5625_cov_62.924700_component_1,5623,1783344,1788966
GCF_016451985.1_ASM1645198v1,bin_component_1,NZ_CP051307.1,NODE_3_length_5625_cov_62.924700_component_1,5625,4629829,4635453
GCF_016451985.1_ASM1645198v1,bin_component_1,NZ_CP051307.1,NODE_4_length_2095_cov_77.474797_component_1,2095,4635532,4637626
GCF_016451985.1_ASM1645198v1,bin_component_1,NZ_CP051307.1,NODE_4_length_2095_cov_77.474797_component_1,2094,1781171,1783264
GCF_016452065.1_ASM1645206v1,bin_component_0,NZ_CP051319.1,NODE_6_length_10487_cov_67.305019_component_0,10487,144205,154691
GCF_016452065.1_ASM1645206v1,bin_component_0,NZ_CP051319.1,NODE_6_length_10487_cov_67.305019_component_0,10486,155832,166317
GCF_016452065.1_ASM1645206v1,bin_component_0,NZ_CP051318.1,NODE_10_length_3295_cov_52.374053_component_0,3295,53548,56842
GCF_016452065.1_ASM1645206v1,bin_component_0,NZ_CP051319.1,NODE_10_length_3295_cov_52.374053_component_0,3295,36048,39342
GCF_016452065.1_ASM1645206v1,bin_component_0,NZ_CP051318.1,NODE_12_length_2240_cov_38.363938_component_0,2240,64273,66512
GCF_016452065.1_ASM1645206v1,bin_component_0,NZ_CP051319.1,NODE_12_length_2240_cov_38.363938_component_0,2240,41135,43374
GCF_013415925.1_ASM1341592v1,bin_component_0,NZ_CP058810.1,NODE_12_length_1444_cov_254.229309_component_0,1444,138416,139859
GCF_013415925.1_ASM1341592v1,bin_component_0,NZ_CP058811.1,NODE_12_length_1444_cov_254.229309_component_0,1442,8900,10341
GCF_013415925.1_ASM1341592v1,bin_component_0,NZ_CP058810.1,NODE_14_length_1179_cov_250.410646_component_0,1179,133067,134245
GCF_013415925.1_ASM1341592v1,bin_component_0,NZ_CP058810.1,NODE_14_length_1179_cov_250.410646_component_0,1179,142948,144126
GCF_006461325.2_ASM646132v2,bin_component_0,NZ_CP069166.1,NODE_8_length_3741_cov_353.802675_component_0,3741,4422400,4426140
GCF_006461325.2_ASM646132v2,bin_component_0,NZ_CP069166.1,NODE_8_length_3741_cov_353.802675_component_0,3741,2966686,2970426
GCF_006461325.2_ASM646132v2,bin_component_0,NZ_CP069166.1,NODE_9_length_3503_cov_409.828371_component_0,3503,1253091,1256593
GCF_006461325.2_ASM646132v2,bin_component_0,NZ_CP069166.1,NODE_9_length_3503_cov_409.828371_component_0,3503,1802479,1805981
GCF_006461325.2_ASM646132v2,bin_component_0,NZ_CP069166.1,NODE_10_length_1570_cov_322.466175_component_0,1570,1251598,1253167
GCF_006461325.2_ASM646132v2,bin_component_0,NZ_CP069166.1,NODE_10_length_1570_cov_322.466175_component_0,1570,1800986,1802555
GCF_006461325.2_ASM646132v2,bin_component_0,NZ_CP069166.1,NODE_11_length_1455_cov_293.522496_component_0,1455,1250220,1251674
GCF_006461325.2_ASM646132v2,bin_component_0,NZ_CP069166.1,NODE_11_length_1455_cov_293.522496_component_0,1455,1799608,1801062
GCF_014334175.1_ASM1433417v1,bin_component_0,NZ_CP060509.1,NODE_6_length_1566_cov_113.690757_component_0,1566,38582,40147
GCF_014334175.1_ASM1433417v1,bin_component_0,NZ_CP060509.1,NODE_6_length_1566_cov_113.690757_component_0,1565,142175,143739
GCF_014334175.1_ASM1433417v1,bin_component_2,NZ_CP060508.1,NODE_3_length_12560_cov_117.407866_component_2,12560,3258122,3270681
GCF_014334175.1_ASM1433417v1,bin_component_2,NZ_CP060508.1,NODE_3_length_12560_cov_117.407866_component_2,12539,2803651,2816189
GCF_013348865.1_ASM1334886v1,bin_component_1,NZ_CP054715.1,NODE_7_length_16192_cov_152.800373_component_1,16177,1024788,1040964
GCF_013348865.1_ASM1334886v1,bin_component_1,NZ_CP054715.1,NODE_7_length_16192_cov_152.800373_component_1,16181,2441806,2457986
GCF_013348865.1_ASM1334886v1,bin_component_1,NZ_CP054715.1,NODE_7_length_16192_cov_152.800373_component_1,16188,2998325,3014512
GCF_013348865.1_ASM1334886v1,bin_component_1,NZ_CP054715.1,NODE_15_length_4587_cov_187.880045_component_1,4585,1040838,1045422
GCF_013348865.1_ASM1334886v1,bin_component_1,NZ_CP054715.1,NODE_15_length_4587_cov_187.880045_component_1,4587,2993865,2998451
GCF_013348865.1_ASM1334886v1,bin_component_1,NZ_CP054715.1,NODE_19_length_2855_cov_108.720674_component_1,2855,3017096,3019950
GCF_013348865.1_ASM1334886v1,bin_component_1,NZ_CP054715.1,NODE_19_length_2855_cov_108.720674_component_1,2855,2460570,2463424
GCF_013348865.1_ASM1334886v1,bin_component_1,NZ_CP054715.1,NODE_21_length_1979_cov_113.196004_component_1,1979,3015244,3017222
GCF_013348865.1_ASM1334886v1,bin_component_1,NZ_CP054715.1,NODE_21_length_1979_cov_113.196004_component_1,1978,1022079,1024056
GCF_013348865.1_ASM1334886v1,bin_component_0,NZ_CP054718.1,NODE_9_length_12977_cov_180.879455_component_0,12965,70170,83134
GCF_013348865.1_ASM1334886v1,bin_component_0,NZ_CP054718.1,NODE_9_length_12977_cov_180.879455_component_0,12866,70152,83017
GCF_013348865.1_ASM1334886v1,bin_component_0,NZ_CP054717.1,NODE_14_length_4852_cov_327.427725_component_0,4852,96158,101009
GCF_013348865.1_ASM1334886v1,bin_component_0,NZ_CP054716.1,NODE_14_length_4852_cov_327.427725_component_0,4850,37910,42759
GCF_013348865.1_ASM1334886v1,bin_component_0,NZ_CP054718.1,NODE_16_length_3431_cov_248.228814_component_0,3431,83008,86438
GCF_013348865.1_ASM1334886v1,bin_component_0,NZ_CP054718.1,NODE_16_length_3431_cov_248.228814_component_0,3428,66752,70179
GCF_013348865.1_ASM1334886v1,bin_component_0,NZ_CP054715.1,NODE_24_length_1251_cov_226.169929_component_0,1249,1705905,1707153
GCF_013348865.1_ASM1334886v1,bin_component_0,NZ_CP054715.1,NODE_24_length_1251_cov_226.169929_component_0,1251,158652,159902
GCF_013348865.1_ASM1334886v1,bin_component_0,NZ_CP054715.1,NODE_24_length_1251_cov_226.169929_component_0,1250,1127182,1128431
GCF_016454225.1_ASM1645422v1,bin_component_2,NZ_CP051353.1,NODE_3_length_8540_cov_44.721384_component_2,8540,2517117,2525656
GCF_016454225.1_ASM1645422v1,bin_component_2,NZ_CP051353.1,NODE_3_length_8540_cov_44.721384_component_2,8536,2533953,2542496
GCF_016454225.1_ASM1645422v1,bin_component_2,NZ_CP051353.1,NODE_3_length_8540_cov_44.721384_component_2,8530,2525530,2534079
GCF_021397645.1_ASM2139764v1,bin_component_1,NZ_CP090142.1,NODE_6_length_4009_cov_86.792890_component_1,4009,170492,174500
GCF_021397645.1_ASM2139764v1,bin_component_1,NZ_CP090142.1,NODE_6_length_4009_cov_86.792890_component_1,4009,117847,121855
GCF_021397645.1_ASM2139764v1,bin_component_1,NZ_CP090142.1,NODE_9_length_1667_cov_90.659740_component_1,1667,162038,163704
GCF_021397645.1_ASM2139764v1,bin_component_1,NZ_CP090142.1,NODE_9_length_1667_cov_90.659740_component_1,1667,166322,167988
GCF_003067445.2_ASM306744v2,bin_component_1,NZ_CP077704.1,NODE_2_length_15128_cov_59.680955_component_1,15128,1918208,1933335
GCF_003067445.2_ASM306744v2,bin_component_1,NZ_CP077704.1,NODE_2_length_15128_cov_59.680955_component_1,15128,2731200,2746327
GCF_003067445.2_ASM306744v2,bin_component_1,NZ_CP077704.1,NODE_4_length_1854_cov_42.607412_component_1,1854,1933209,1935062
GCF_003067445.2_ASM306744v2,bin_component_1,NZ_CP077704.1,NODE_4_length_1854_cov_42.607412_component_1,1854,2729473,2731326
GCF_001833255.2_ASM183325v2,bin_component_1,NZ_CP075130.1,NODE_16_length_1147_cov_226.180374_component_1,1147,3189,4335
GCF_001833255.2_ASM183325v2,bin_component_1,NZ_CP075130.1,NODE_16_length_1147_cov_226.180374_component_1,1147,1361,2507
GCF_001833255.2_ASM183325v2,bin_component_0,NZ_CP075129.1,NODE_12_length_1781_cov_210.302817_component_0,1781,4573272,4575052
GCF_001833255.2_ASM183325v2,bin_component_0,NZ_CP075129.1,NODE_12_length_1781_cov_210.302817_component_0,1781,4808156,4809936
GCF_001833255.2_ASM183325v2,bin_component_0,NZ_CP075129.1,NODE_12_length_1781_cov_210.302817_component_0,1781,4713000,4714780
GCF_001833255.2_ASM183325v2,bin_component_0,NZ_CP075129.1,NODE_12_length_1781_cov_210.302817_component_0,1781,452145,453925
GCF_001833255.2_ASM183325v2,bin_component_0,NZ_CP075129.1,NODE_12_length_1781_cov_210.302817_component_0,1781,4531401,4533181
GCF_001833255.2_ASM183325v2,bin_component_0,NZ_CP075129.1,NODE_12_length_1781_cov_210.302817_component_0,1781,3793987,3795767
GCF_001833255.2_ASM183325v2,bin_component_0,NZ_CP075129.1,NODE_13_length_1624_cov_257.822883_component_0,1624,4576825,4578448
GCF_001833255.2_ASM183325v2,bin_component_0,NZ_CP075129.1,NODE_13_length_1624_cov_257.822883_component_0,1624,4811469,4813092
GCF_001833255.2_ASM183325v2,bin_component_0,NZ_CP075129.1,NODE_13_length_1624_cov_257.822883_component_0,1623,448990,450612
GCF_001833255.2_ASM183325v2,bin_component_0,NZ_CP075129.1,NODE_13_length_1624_cov_257.822883_component_0,1624,1278879,1280502
GCF_001833255.2_ASM183325v2,bin_component_0,NZ_CP075129.1,NODE_13_length_1624_cov_257.822883_component_0,1624,4716553,4718176
GCF_001833255.2_ASM183325v2,bin_component_0,NZ_CP075129.1,NODE_13_length_1624_cov_257.822883_component_0,1622,3797459,3799080
GCF_001833255.2_ASM183325v2,bin_component_0,NZ_CP075129.1,NODE_13_length_1624_cov_257.822883_component_0,1622,4534714,4536335
GCF_001833255.2_ASM183325v2,bin_component_0,NZ_CP075129.1,NODE_14_length_1312_cov_122.021862_component_0,1312,558478,559789
GCF_001833255.2_ASM183325v2,bin_component_0,NZ_CP075129.1,NODE_14_length_1312_cov_122.021862_component_0,1312,1284122,1285433
GCF_001833255.2_ASM183325v2,bin_component_0,NZ_CP075129.1,NODE_14_length_1312_cov_122.021862_component_0,1312,3028816,3030127
GCF_001833255.2_ASM183325v2,bin_component_0,NZ_CP075129.1,NODE_14_length_1312_cov_122.021862_component_0,1311,4711482,4712792
GCF_001833255.2_ASM183325v2,bin_component_0,NZ_CP075129.1,NODE_15_length_1291_cov_227.570840_component_0,1291,4809949,4811239
GCF_001833255.2_ASM183325v2,bin_component_0,NZ_CP075129.1,NODE_15_length_1291_cov_227.570840_component_0,1291,1280732,1282022
GCF_001833255.2_ASM183325v2,bin_component_0,NZ_CP075129.1,NODE_15_length_1291_cov_227.570840_component_0,1291,4533194,4534484
GCF_001833255.2_ASM183325v2,bin_component_0,NZ_CP075129.1,NODE_15_length_1291_cov_227.570840_component_0,1291,450842,452132
GCF_001833255.2_ASM183325v2,bin_component_0,NZ_CP075129.1,NODE_15_length_1291_cov_227.570840_component_0,1291,4714874,4716164
GCF_001833255.2_ASM183325v2,bin_component_0,NZ_CP075129.1,NODE_15_length_1291_cov_227.570840_component_0,1291,3795780,3797070
GCF_001833255.2_ASM183325v2,bin_component_0,NZ_CP075129.1,NODE_15_length_1291_cov_227.570840_component_0,1291,4575146,4576436
GCF_001713515.2_ASM171351v2,bin_component_2,NZ_CP074661.1,NODE_5_length_2747_cov_141.119084_component_2,2746,4359796,4362543
GCF_001713515.2_ASM171351v2,bin_component_2,NZ_CP074661.1,NODE_5_length_2747_cov_141.119084_component_2,2746,1168095,1170842
GCF_001713515.2_ASM171351v2,bin_component_2,NZ_CP074661.1,NODE_5_length_2747_cov_141.119084_component_2,2708,4518364,4521071
GCF_016454365.1_ASM1645436v1,bin_component_0,NZ_CP051379.1,NODE_5_length_1192_cov_37.205634_component_0,1192,161090,162281
GCF_016454365.1_ASM1645436v1,bin_component_0,NZ_CP051379.1,NODE_5_length_1192_cov_37.205634_component_0,1192,145493,146684
GCF_019670345.1_ASM1967034v1,bin_component_0,NZ_AP023306.1,NODE_13_length_1530_cov_105.986458_component_0,1530,1154113,1155642
GCF_019670345.1_ASM1967034v1,bin_component_0,NZ_AP023307.1,NODE_13_length_1530_cov_105.986458_component_0,1530,39368,40897
GCF_019670345.1_ASM1967034v1,bin_component_0,NZ_AP023307.1,NODE_15_length_1143_cov_116.653543_component_0,1143,33715,34857
GCF_019670345.1_ASM1967034v1,bin_component_0,NZ_AP023307.1,NODE_15_length_1143_cov_116.653543_component_0,1143,28316,29458
GCF_019670345.1_ASM1967034v1,bin_component_0,NZ_AP023307.1,NODE_16_length_1067_cov_125.412766_component_0,1067,23425,24491
GCF_019670345.1_ASM1967034v1,bin_component_0,NZ_AP023307.1,NODE_16_length_1067_cov_125.412766_component_0,1067,19141,20207
GCF_022533545.1_ASM2253354v1,bin_component_0,NZ_CP092862.1,NODE_14_length_3311_cov_80.573284_component_0,3311,104936,108246
GCF_022533545.1_ASM2253354v1,bin_component_0,NZ_CP092862.1,NODE_14_length_3311_cov_80.573284_component_0,3311,216884,220194
GCF_022533545.1_ASM2253354v1,bin_component_0,NZ_CP092861.1,NODE_18_length_2701_cov_319.377668_component_0,2701,1606522,1609222
GCF_022533545.1_ASM2253354v1,bin_component_0,NZ_CP092861.1,NODE_18_length_2701_cov_319.377668_component_0,2701,4973464,4976164
GCF_022533545.1_ASM2253354v1,bin_component_0,NZ_CP092861.1,NODE_18_length_2701_cov_319.377668_component_0,2701,492517,495217
GCF_022533545.1_ASM2253354v1,bin_component_0,NZ_CP092861.1,NODE_18_length_2701_cov_319.377668_component_0,2701,2144114,2146814
GCF_022533545.1_ASM2253354v1,bin_component_0,NZ_CP092861.1,NODE_18_length_2701_cov_319.377668_component_0,2701,2092618,2095318
GCF_022533545.1_ASM2253354v1,bin_component_0,NZ_CP092862.1,NODE_18_length_2701_cov_319.377668_component_0,2701,129087,131787
GCF_022533545.1_ASM2253354v1,bin_component_0,NZ_CP092861.1,NODE_18_length_2701_cov_319.377668_component_0,2701,2919290,2921990
GCF_022533545.1_ASM2253354v1,bin_component_0,NZ_CP092862.1,NODE_18_length_2701_cov_319.377668_component_0,2701,137414,140114
GCF_022533545.1_ASM2253354v1,bin_component_0,NZ_CP092861.1,NODE_18_length_2701_cov_319.377668_component_0,2701,2825494,2828194
GCF_022533545.1_ASM2253354v1,bin_component_0,NZ_CP092861.1,NODE_18_length_2701_cov_319.377668_component_0,2701,4232666,4235366
GCF_022533545.1_ASM2253354v1,bin_component_0,NZ_CP092861.1,NODE_21_length_1943_cov_185.251340_component_0,1943,4913499,4915441
GCF_022533545.1_ASM2253354v1,bin_component_0,NZ_CP092861.1,NODE_21_length_1943_cov_185.251340_component_0,1943,4750639,4752581
GCF_022533545.1_ASM2253354v1,bin_component_0,NZ_CP092861.1,NODE_21_length_1943_cov_185.251340_component_0,1933,3977330,3979262
GCF_022533545.1_ASM2253354v1,bin_component_0,NZ_CP092861.1,NODE_23_length_1747_cov_216.611377_component_0,1747,4704685,4706431
GCF_022533545.1_ASM2253354v1,bin_component_0,NZ_CP092861.1,NODE_23_length_1747_cov_216.611377_component_0,1747,5011234,5012980
GCF_022533545.1_ASM2253354v1,bin_component_0,NZ_CP092861.1,NODE_23_length_1747_cov_216.611377_component_0,1747,1292728,1294474
GCF_022533545.1_ASM2253354v1,bin_component_0,NZ_CP092861.1,NODE_23_length_1747_cov_216.611377_component_0,1747,4747636,4749382
GCF_022533545.1_ASM2253354v1,bin_component_0,NZ_CP092861.1,NODE_23_length_1747_cov_216.611377_component_0,1747,4910496,4912242
GCF_022533545.1_ASM2253354v1,bin_component_0,NZ_CP092861.1,NODE_23_length_1747_cov_216.611377_component_0,1747,490000,491746
GCF_022533545.1_ASM2253354v1,bin_component_0,NZ_CP092861.1,NODE_24_length_1585_cov_92.257958_component_0,1585,2136796,2138380
GCF_022533545.1_ASM2253354v1,bin_component_0,NZ_CP092861.1,NODE_24_length_1585_cov_92.257958_component_0,1585,3272789,3274373
GCF_022533545.1_ASM2253354v1,bin_component_0,NZ_CP092861.1,NODE_24_length_1585_cov_92.257958_component_0,1574,3126582,3128155
GCF_022533545.1_ASM2253354v1,bin_component_0,NZ_CP092862.1,NODE_28_length_1200_cov_439.039181_component_0,1200,20454,21653
GCF_022533545.1_ASM2253354v1,bin_component_0,NZ_CP092862.1,NODE_28_length_1200_cov_439.039181_component_0,1200,208833,210032
GCF_022533545.1_ASM2253354v1,bin_component_0,NZ_CP092862.1,NODE_28_length_1200_cov_439.039181_component_0,1200,52705,53904
GCF_022533545.1_ASM2253354v1,bin_component_0,NZ_CP092861.1,NODE_28_length_1200_cov_439.039181_component_0,1200,1202213,1203412
GCF_022533545.1_ASM2253354v1,bin_component_0,NZ_CP092861.1,NODE_28_length_1200_cov_439.039181_component_0,1200,1550631,1551830
GCF_022533545.1_ASM2253354v1,bin_component_0,NZ_CP092862.1,NODE_28_length_1200_cov_439.039181_component_0,1200,236656,237855
GCF_022533545.1_ASM2253354v1,bin_component_0,NZ_CP092861.1,NODE_28_length_1200_cov_439.039181_component_0,1200,2698810,2700009
GCF_022533545.1_ASM2253354v1,bin_component_0,NZ_CP092861.1,NODE_28_length_1200_cov_439.039181_component_0,1200,4924546,4925745
GCF_022533545.1_ASM2253354v1,bin_component_0,NZ_CP092861.1,NODE_28_length_1200_cov_439.039181_component_0,1200,2806025,2807224
GCF_022533545.1_ASM2253354v1,bin_component_0,NZ_CP092862.1,NODE_28_length_1200_cov_439.039181_component_0,1200,35419,36618
GCF_022533545.1_ASM2253354v1,bin_component_0,NZ_CP092862.1,NODE_28_length_1200_cov_439.039181_component_0,1200,175859,177058
GCF_022533545.1_ASM2253354v1,bin_component_0,NZ_CP092861.1,NODE_28_length_1200_cov_439.039181_component_0,1200,1554176,1555375
GCF_022533545.1_ASM2253354v1,bin_component_0,NZ_CP092861.1,NODE_28_length_1200_cov_439.039181_component_0,1200,2472522,2473721
GCF_003068025.2_ASM306802v2,bin_component_3,NZ_CP077706.1,NODE_7_length_3052_cov_218.337778_component_3,3052,4672388,4675439
GCF_003068025.2_ASM306802v2,bin_component_3,NZ_CP077706.1,NODE_7_length_3052_cov_218.337778_component_3,3052,4577313,4580364
GCF_003068025.2_ASM306802v2,bin_component_3,NZ_CP077706.1,NODE_7_length_3052_cov_218.337778_component_3,3052,4437665,4440716
GCF_003068025.2_ASM306802v2,bin_component_3,NZ_CP077706.1,NODE_7_length_3052_cov_218.337778_component_3,3052,1234434,1237485
GCF_003068025.2_ASM306802v2,bin_component_3,NZ_CP077706.1,NODE_7_length_3052_cov_218.337778_component_3,3052,4395792,4398843
GCF_003068025.2_ASM306802v2,bin_component_3,NZ_CP077706.1,NODE_7_length_3052_cov_218.337778_component_3,3052,450591,453642
GCF_003068025.2_ASM306802v2,bin_component_3,NZ_CP077706.1,NODE_7_length_3052_cov_218.337778_component_3,3052,3657564,3660615
GCF_003068025.2_ASM306802v2,bin_component_3,NZ_CP077706.1,NODE_9_length_1484_cov_97.249816_component_3,1484,1237655,1239138
GCF_003068025.2_ASM306802v2,bin_component_3,NZ_CP077706.1,NODE_9_length_1484_cov_97.249816_component_3,1482,4575762,4577245
GCF_003068025.2_ASM306802v2,bin_component_0,NZ_CP077707.1,NODE_10_length_1147_cov_53.411765_component_0,1147,12618,13764
GCF_003068025.2_ASM306802v2,bin_component_0,NZ_CP077707.1,NODE_10_length_1147_cov_53.411765_component_0,1147,10790,11936
GCF_016452165.1_ASM1645216v1,bin_component_1,NZ_CP053052.1,NODE_2_length_6377_cov_189.393600_component_1,6377,9627,16003
GCF_016452165.1_ASM1645216v1,bin_component_1,NZ_CP053053.1,NODE_2_length_6377_cov_189.393600_component_1,6377,9333,15709
GCF_016452165.1_ASM1645216v1,bin_component_1,NZ_CP053052.1,NODE_3_length_5928_cov_182.923979_component_1,5928,16954,22881
GCF_016452165.1_ASM1645216v1,bin_component_1,NZ_CP053053.1,NODE_3_length_5928_cov_182.923979_component_1,5928,213211,219138
GCF_016452165.1_ASM1645216v1,bin_component_1,NZ_CP053053.1,NODE_3_length_5928_cov_182.923979_component_1,5928,2455,8382
GCF_016452165.1_ASM1645216v1,bin_component_1,NZ_CP053053.1,NODE_10_length_1192_cov_241.352113_component_1,1192,23864,25055
GCF_016452165.1_ASM1645216v1,bin_component_1,NZ_CP053052.1,NODE_10_length_1192_cov_241.352113_component_1,1192,15889,17080
GCF_016452165.1_ASM1645216v1,bin_component_1,NZ_CP053053.1,NODE_10_length_1192_cov_241.352113_component_1,1192,8256,9447
GCF_016452165.1_ASM1645216v1,bin_component_1,NZ_CP053051.1,NODE_11_length_1003_cov_228.263699_component_1,1003,36336,37338
GCF_016452165.1_ASM1645216v1,bin_component_1,NZ_CP053052.1,NODE_11_length_1003_cov_228.263699_component_1,1003,4699,5701
GCF_021397625.1_ASM2139762v1,bin_component_0,NZ_CP090138.1,NODE_18_length_4008_cov_263.863180_component_0,4008,169997,174004
GCF_021397625.1_ASM2139762v1,bin_component_0,NZ_CP090138.1,NODE_18_length_4008_cov_263.863180_component_0,4008,222643,226650
GCF_021397625.1_ASM2139762v1,bin_component_0,NZ_CP090138.1,NODE_22_length_2437_cov_275.636364_component_0,2437,290157,292593
GCF_021397625.1_ASM2139762v1,bin_component_0,NZ_CP090138.1,NODE_22_length_2437_cov_275.636364_component_0,2437,33589,36025
GCF_021397625.1_ASM2139762v1,bin_component_0,NZ_CP090138.1,NODE_25_length_2130_cov_828.495756_component_0,2130,255060,257189
GCF_021397625.1_ASM2139762v1,bin_component_0,NZ_CP090138.1,NODE_25_length_2130_cov_828.495756_component_0,2130,87308,89437
GCF_021397625.1_ASM2139762v1,bin_component_0,NZ_CP090138.1,NODE_25_length_2130_cov_828.495756_component_0,2130,94035,96164
GCF_021397625.1_ASM2139762v1,bin_component_0,NZ_CP090140.1,NODE_25_length_2130_cov_828.495756_component_0,2130,4598,6727
GCF_021397625.1_ASM2139762v1,bin_component_0,NZ_CP090137.1,NODE_25_length_2130_cov_828.495756_component_0,2130,1975622,1977751
GCF_021397625.1_ASM2139762v1,bin_component_0,NZ_CP090138.1,NODE_25_length_2130_cov_828.495756_component_0,2130,265169,267298
GCF_021397625.1_ASM2139762v1,bin_component_0,NZ_CP090138.1,NODE_26_length_1883_cov_243.929385_component_0,1883,220192,222074
GCF_021397625.1_ASM2139762v1,bin_component_0,NZ_CP090138.1,NODE_26_length_1883_cov_243.929385_component_0,1883,174573,176455
GCF_016028495.1_ASM1602849v1,bin_component_1,NZ_CP065718.1,NODE_2_length_17491_cov_452.716378_component_1,17475,2412616,2430090
GCF_016028495.1_ASM1602849v1,bin_component_1,NZ_CP065718.1,NODE_2_length_17491_cov_452.716378_component_1,17410,2430014,2447423
GCF_016028495.1_ASM1602849v1,bin_component_2,NZ_CP065718.1,NODE_3_length_6108_cov_437.211242_component_2,6103,2932578,2938680
GCF_016028495.1_ASM1602849v1,bin_component_2,NZ_CP065718.1,NODE_3_length_6108_cov_437.211242_component_2,6056,4592895,4599040
GCF_016028495.1_ASM1602849v1,bin_component_2,NZ_CP065718.1,NODE_6_length_1746_cov_414.143799_component_2,1746,2930909,2932654
GCF_016028495.1_ASM1602849v1,bin_component_2,NZ_CP065718.1,NODE_6_length_1746_cov_414.143799_component_2,1744,4598971,4600714
GCF_016026715.1_ASM1602671v1,bin_component_1,NZ_CP065639.1,NODE_2_length_6108_cov_392.180235_component_1,6107,3503637,3509743
GCF_016026715.1_ASM1602671v1,bin_component_1,NZ_CP065639.1,NODE_2_length_6108_cov_392.180235_component_1,6051,1843260,1849410
GCF_016026715.1_ASM1602671v1,bin_component_1,NZ_CP065639.1,NODE_5_length_1746_cov_375.639305_component_1,1746,1841584,1843329
GCF_016026715.1_ASM1602671v1,bin_component_1,NZ_CP065639.1,NODE_5_length_1746_cov_375.639305_component_1,1746,3509667,3511412
GCF_022870605.1_ASM2287060v1,bin_component_0,NZ_CP058673.1,NODE_21_length_2904_cov_445.260347_component_0,2904,26475,29378
GCF_022870605.1_ASM2287060v1,bin_component_0,NZ_CP058672.1,NODE_21_length_2904_cov_445.260347_component_0,2902,133954,136859
GCF_022870605.1_ASM2287060v1,bin_component_0,NZ_CP058671.1,NODE_22_length_1929_cov_460.097732_component_0,1929,1322218,1324146
GCF_022870605.1_ASM2287060v1,bin_component_0,NZ_CP058672.1,NODE_22_length_1929_cov_460.097732_component_0,1929,11460,13388
GCF_022870605.1_ASM2287060v1,bin_component_0,NZ_CP058672.1,NODE_22_length_1929_cov_460.097732_component_0,1928,130482,132409
GCF_022870605.1_ASM2287060v1,bin_component_0,NZ_CP058672.1,NODE_22_length_1929_cov_460.097732_component_0,1926,168156,170081
GCF_022870605.1_ASM2287060v1,bin_component_0,NZ_CP058672.1,NODE_22_length_1929_cov_460.097732_component_0,1925,70333,72257
GCF_022870605.1_ASM2287060v1,bin_component_0,NZ_CP058672.1,NODE_25_length_1614_cov_1503.735849_component_0,1613,88131,89743
GCF_022870605.1_ASM2287060v1,bin_component_0,NZ_CP058671.1,NODE_25_length_1614_cov_1503.735849_component_0,1613,3415485,3417097
GCF_022870605.1_ASM2287060v1,bin_component_0,NZ_CP058671.1,NODE_25_length_1614_cov_1503.735849_component_0,1613,4003332,4004944
GCF_022870605.1_ASM2287060v1,bin_component_0,NZ_CP058673.1,NODE_25_length_1614_cov_1503.735849_component_0,1613,40594,42206
GCF_022870605.1_ASM2287060v1,bin_component_0,NZ_CP058671.1,NODE_25_length_1614_cov_1503.735849_component_0,1613,1710326,1711938
GCF_022870605.1_ASM2287060v1,bin_component_0,NZ_CP058672.1,NODE_25_length_1614_cov_1503.735849_component_0,1612,127789,129400
GCF_022870605.1_ASM2287060v1,bin_component_0,NZ_CP058671.1,NODE_25_length_1614_cov_1503.735849_component_0,1613,2775555,2777167
GCF_022870605.1_ASM2287060v1,bin_component_0,NZ_CP058671.1,NODE_25_length_1614_cov_1503.735849_component_0,1612,2778625,2780236
GCF_022870605.1_ASM2287060v1,bin_component_0,NZ_CP058671.1,NODE_25_length_1614_cov_1503.735849_component_0,1611,1128928,1130538
GCF_022870605.1_ASM2287060v1,bin_component_0,NZ_CP058672.1,NODE_25_length_1614_cov_1503.735849_component_0,1611,107242,108852
GCF_022870605.1_ASM2287060v1,bin_component_0,NZ_CP058673.1,NODE_26_length_1447_cov_468.227737_component_0,1447,38673,40119
GCF_022870605.1_ASM2287060v1,bin_component_0,NZ_CP058672.1,NODE_26_length_1447_cov_468.227737_component_0,1447,137957,139403
GCF_022870605.1_ASM2287060v1,bin_component_0,NZ_CP058671.1,NODE_29_length_1238_cov_1654.501292_component_0,1238,4681159,4682396
GCF_022870605.1_ASM2287060v1,bin_component_0,NZ_CP058671.1,NODE_29_length_1238_cov_1654.501292_component_0,1238,2717067,2718304
GCF_022870605.1_ASM2287060v1,bin_component_0,NZ_CP058671.1,NODE_29_length_1238_cov_1654.501292_component_0,1238,1819057,1820294
GCF_022870605.1_ASM2287060v1,bin_component_0,NZ_CP058671.1,NODE_29_length_1238_cov_1654.501292_component_0,1238,3169348,3170585
GCF_022870605.1_ASM2287060v1,bin_component_0,NZ_CP058672.1,NODE_29_length_1238_cov_1654.501292_component_0,1236,145962,147197
GCF_022870605.1_ASM2287060v1,bin_component_0,NZ_CP058672.1,NODE_29_length_1238_cov_1654.501292_component_0,1236,61807,63042
GCF_022870605.1_ASM2287060v1,bin_component_0,NZ_CP058671.1,NODE_29_length_1238_cov_1654.501292_component_0,1236,1971723,1972958
GCF_022870605.1_ASM2287060v1,bin_component_0,NZ_CP058671.1,NODE_29_length_1238_cov_1654.501292_component_0,1236,1478909,1480144
GCF_022870605.1_ASM2287060v1,bin_component_0,NZ_CP058671.1,NODE_29_length_1238_cov_1654.501292_component_0,1236,1358054,1359289
GCF_022870605.1_ASM2287060v1,bin_component_0,NZ_CP058672.1,NODE_29_length_1238_cov_1654.501292_component_0,1236,76062,77297
GCF_022870605.1_ASM2287060v1,bin_component_0,NZ_CP058673.1,NODE_29_length_1238_cov_1654.501292_component_0,1236,17961,19196
GCF_022870605.1_ASM2287060v1,bin_component_0,NZ_CP058671.1,NODE_29_length_1238_cov_1654.501292_component_0,1235,1378165,1379399
GCF_001652385.2_ASM165238v2,bin_component_0,NZ_CP075142.1,NODE_2_length_1740_cov_27.880557_component_0,1740,35549,37288
GCF_001652385.2_ASM165238v2,bin_component_0,NZ_CP075142.1,NODE_2_length_1740_cov_27.880557_component_0,1740,37689,39428
GCF_001972545.2_ASM197254v2,bin_component_0,NZ_CP075119.1,NODE_6_length_1783_cov_71.272581_component_0,1783,28874,30656
GCF_001972545.2_ASM197254v2,bin_component_0,NZ_CP075119.1,NODE_6_length_1783_cov_71.272581_component_0,1782,30955,32736
GCF_016454445.1_ASM1645444v1,bin_component_0,NZ_CP051387.1,NODE_6_length_1145_cov_65.982318_component_0,1145,121802,122946
GCF_016454445.1_ASM1645444v1,bin_component_0,NZ_CP051387.1,NODE_6_length_1145_cov_65.982318_component_0,1145,2104,3248
GCF_016454445.1_ASM1645444v1,bin_component_0,NZ_CP051387.1,NODE_6_length_1145_cov_65.982318_component_0,1145,110175,111319
GCF_021397675.1_ASM2139767v1,bin_component_0,NZ_CP090134.1,NODE_6_length_4008_cov_106.114661_component_0,4008,215916,219923
GCF_021397675.1_ASM2139767v1,bin_component_0,NZ_CP090134.1,NODE_6_length_4008_cov_106.114661_component_0,4008,163270,167277
GCF_001834735.2_ASM183473v2,bin_component_1,NZ_CP075132.1,NODE_3_length_27763_cov_106.419020_component_1,27762,3222351,3250112
GCF_001834735.2_ASM183473v2,bin_component_1,NZ_CP075132.1,NODE_3_length_27763_cov_106.419020_component_1,27762,499932,527693
GCF_016454425.1_ASM1645442v1,bin_component_1,NZ_CP051384.1,NODE_13_length_1384_cov_3417.346062_component_1,1384,4365220,4366603
GCF_016454425.1_ASM1645442v1,bin_component_1,NZ_CP051384.1,NODE_13_length_1384_cov_3417.346062_component_1,1384,2315899,2317282
GCF_016454425.1_ASM1645442v1,bin_component_1,NZ_CP051384.1,NODE_13_length_1384_cov_3417.346062_component_1,1384,2431676,2433059
GCF_016454425.1_ASM1645442v1,bin_component_0,NZ_CP051385.1,NODE_4_length_6390_cov_10.372825_component_0,6390,60631,67020
GCF_016454425.1_ASM1645442v1,bin_component_0,NZ_CP051385.1,NODE_4_length_6390_cov_10.372825_component_0,6386,48428,54813
GCF_016454425.1_ASM1645442v1,bin_component_0,NZ_CP051385.1,NODE_11_length_2222_cov_15.750835_component_0,2222,45094,47315
GCF_016454425.1_ASM1645442v1,bin_component_0,NZ_CP051385.1,NODE_11_length_2222_cov_15.750835_component_0,2221,57298,59518
GCF_016025435.1_ASM1602543v1,bin_component_1,NZ_CP065572.1,NODE_2_length_1987_cov_183.517204_component_1,1987,3994882,3996868
GCF_016025435.1_ASM1602543v1,bin_component_1,NZ_CP065572.1,NODE_2_length_1987_cov_183.517204_component_1,1987,3993022,3995008
GCF_019670385.1_ASM1967038v1,bin_component_0,NZ_AP023312.1,NODE_4_length_6337_cov_80.721417_component_0,6337,95714,102050
GCF_019670385.1_ASM1967038v1,bin_component_0,NZ_AP023311.1,NODE_4_length_6337_cov_80.721417_component_0,6337,1141510,1147846
GCF_019670385.1_ASM1967038v1,bin_component_0,NZ_AP023312.1,NODE_5_length_6037_cov_98.427073_component_0,6037,89240,95276
GCF_019670385.1_ASM1967038v1,bin_component_0,NZ_AP023311.1,NODE_5_length_6037_cov_98.427073_component_0,6037,1135036,1141072
GCF_019670385.1_ASM1967038v1,bin_component_0,NZ_AP023312.1,NODE_13_length_1331_cov_157.687708_component_0,1331,88036,89366
GCF_019670385.1_ASM1967038v1,bin_component_0,NZ_AP023311.1,NODE_13_length_1331_cov_157.687708_component_0,1331,1133832,1135162
GCF_019670385.1_ASM1967038v1,bin_component_0,NZ_AP023312.1,NODE_13_length_1331_cov_157.687708_component_0,1331,127631,128961
GCF_016454345.1_ASM1645434v1,bin_component_0,NZ_CP051373.1,NODE_3_length_10487_cov_51.597297_component_0,10487,3092,13578
GCF_016454345.1_ASM1645434v1,bin_component_0,NZ_CP051373.1,NODE_3_length_10487_cov_51.597297_component_0,10486,111813,122298
GCF_016454345.1_ASM1645434v1,bin_component_0,NZ_CP051373.1,NODE_6_length_1145_cov_47.278978_component_0,1145,1952,3096
GCF_016454345.1_ASM1645434v1,bin_component_0,NZ_CP051373.1,NODE_6_length_1145_cov_47.278978_component_0,1145,13579,14723
GCF_019670425.1_ASM1967042v1,bin_component_0,NZ_AP023315.1,NODE_1_length_6981_cov_55.133936_component_0,6981,1140847,1147827
GCF_019670425.1_ASM1967042v1,bin_component_0,NZ_AP023316.1,NODE_1_length_6981_cov_55.133936_component_0,6981,97073,104053
GCF_019670425.1_ASM1967042v1,bin_component_0,NZ_AP023315.1,NODE_2_length_4386_cov_49.000665_component_0,4386,1148521,1152906
GCF_019670425.1_ASM1967042v1,bin_component_0,NZ_AP023316.1,NODE_2_length_4386_cov_49.000665_component_0,4386,106606,110991
GCF_019670425.1_ASM1967042v1,bin_component_0,NZ_AP023315.1,NODE_3_length_2170_cov_54.154185_component_0,2170,1153599,1155768
GCF_019670425.1_ASM1967042v1,bin_component_0,NZ_AP023316.1,NODE_3_length_2170_cov_54.154185_component_0,2170,111685,113854
GCF_001834965.2_ASM183496v2,bin_component_0,NZ_CP075126.1,NODE_8_length_1147_cov_118.678505_component_0,1147,5193,6339
GCF_001834965.2_ASM183496v2,bin_component_0,NZ_CP075126.1,NODE_8_length_1147_cov_118.678505_component_0,1147,7021,8167
GCF_001834965.2_ASM183496v2,bin_component_2,NZ_CP075125.1,NODE_7_length_1563_cov_70.815612_component_2,1563,3012702,3014264
GCF_001834965.2_ASM183496v2,bin_component_2,NZ_CP075125.1,NODE_7_length_1563_cov_70.815612_component_2,1563,2197396,2198958
GCF_001834965.2_ASM183496v2,bin_component_2,NZ_CP075125.1,NODE_7_length_1563_cov_70.815612_component_2,1563,1304649,1306211
GCF_016025415.1_ASM1602541v1,bin_component_0,NZ_CP065567.1,NODE_17_length_2027_cov_119.042632_component_0,2027,4347484,4349510
GCF_016025415.1_ASM1602541v1,bin_component_0,NZ_CP065568.1,NODE_17_length_2027_cov_119.042632_component_0,2027,123734,125760
GCF_016025415.1_ASM1602541v1,bin_component_0,NZ_CP065568.1,NODE_19_length_1329_cov_133.663062_component_0,1329,88108,89436
GCF_016025415.1_ASM1602541v1,bin_component_0,NZ_CP065568.1,NODE_19_length_1329_cov_133.663062_component_0,1329,93596,94924
GCF_016025415.1_ASM1602541v1,bin_component_0,NZ_CP065568.1,NODE_21_length_1043_cov_153.786026_component_0,1043,70675,71717
GCF_016025415.1_ASM1602541v1,bin_component_0,NZ_CP065568.1,NODE_21_length_1043_cov_153.786026_component_0,1043,99440,100482
