GCF_000009585.1_ASM958v1,NC_017334.1
GCF_000009585.1_ASM958v1,NC_017335.1
GCF_000009585.1_ASM958v1,NC_017336.1
GCF_000009645.1_ASM964v1,NC_003140.1
GCF_000009665.1_ASM966v1,NC_002774.1
GCF_000011525.1_ASM1152v1,NC_005951.1
GCF_000012045.1_ASM1204v1,NC_006629.2
GCF_000013465.1_ASM1346v1,NC_007790.1
GCF_000013465.1_ASM1346v1,NC_007791.1
GCF_000013465.1_ASM1346v1,NC_007792.1
GCF_000016805.1_ASM1680v1,NC_009477.1
GCF_000017085.1_ASM1708v1,NC_012417.1
GCF_000017085.1_ASM1708v1,NC_010063.1
GCF_000024585.1_ASM2458v1,NC_013453.1
GCF_000024585.1_ASM2458v1,NC_013451.1
GCF_000024585.1_ASM2458v1,NC_013452.1
GCF_000027045.1_ASM2704v1,NC_017352.1
GCF_000027045.1_ASM2704v1,NC_017332.1
GCF_000144955.1_ASM14495v1,NC_017339.1
GCF_000159535.2_ASM15953v2,NC_017345.1
GCF_000160335.2_ASM16033v2,NC_022126.1
GCF_000237125.2_ASM23712v3,NZ_CP039996.1
GCF_000237265.1_ASM23726v1,NC_017348.1
GCF_000239235.1_ASM23923v1,NC_017350.1
GCF_000253135.1_ASM25313v1,NC_017346.1
GCF_000253135.1_ASM25313v1,NC_017344.1
GCF_000382965.1_ASM38296v1,NC_020534.1
GCF_000382985.1_ASM38298v1,NC_020535.1
GCF_000383005.1_ASM38300v1,NC_020539.1
GCF_000412775.1_ASM41277v1,NC_021552.1
GCF_000418345.1_ASM41834v1,NC_021657.1
GCF_000463055.1_ASM46305v1,NC_022227.1
GCF_000463055.1_ASM46305v1,NC_022228.1
GCF_000485885.1_ASM48588v1,NC_022610.1
GCF_000485885.1_ASM48588v1,NC_022605.1
GCF_000568455.1_ASM56845v1,NZ_CP007177.1
GCF_000568455.1_ASM56845v1,NZ_CP007178.1
GCF_000597965.1_ASM59796v1,NZ_CP007455.1
GCF_000746505.1_ASM74650v1,NZ_CP007500.1
GCF_000756205.1_ASM75620v1,NZ_CP009362.1
GCF_000967325.1_ASM96732v1,NC_020530.1
GCF_000967345.1_ASM96734v1,NC_020531.1
GCF_000967365.1_ASM96736v1,NC_020565.1
GCF_000967385.1_ASM96738v1,NC_020567.1
GCF_000967405.1_ASM96740v1,NC_020538.1
GCF_001018645.2_ASM101864v2,NZ_CP026965.1
GCF_001018645.2_ASM101864v2,NZ_CP026966.1
GCF_001018645.2_ASM101864v2,NZ_CP026967.1
GCF_001018655.2_ASM101865v2,NZ_CP026963.1
GCF_001018735.2_ASM101873v2,NZ_CP026081.1
GCF_001018835.2_ASM101883v2,NZ_CP026065.1
GCF_001019205.2_ASM101920v2,NZ_CP026954.1
GCF_001019205.2_ASM101920v2,NZ_CP026955.1
GCF_001019205.2_ASM101920v2,NZ_CP026956.1
GCF_001019255.2_ASM101925v2,NZ_CP026969.1
GCF_001019255.2_ASM101925v2,NZ_CP026970.1
GCF_001019255.2_ASM101925v2,NZ_CP026971.1
GCF_001019255.2_ASM101925v2,NZ_CP026972.1
GCF_001019275.2_ASM101927v2,NZ_CP026078.1
GCF_001019495.2_ASM101949v2,NZ_CP026959.1
GCF_001019575.2_ASM101957v2,NZ_CP026075.1
GCF_001021875.1_ASM102187v1,NZ_CP007671.1
GCF_001021895.1_ASM102189v1,NZ_CP007675.1
GCF_001027045.1_ASM102704v1,NZ_CP011529.1
GCF_001027105.1_ASM102710v1,NZ_CP011527.1
GCF_001045795.2_ASM104579v2,NZ_CP007673.1
GCF_001045995.2_ASM104599v2,NZ_CP007677.1
GCF_001045995.2_ASM104599v2,NZ_CP007678.1
GCF_001045995.2_ASM104599v2,NZ_CP007679.1
GCF_001046095.2_ASM104609v2,NZ_CP007658.1
GCF_001183705.3_ASM118370v3,NZ_CP012118.2
GCF_001183705.3_ASM118370v3,NZ_CP025490.1
GCF_001183725.2_ASM118372v2,NZ_CP012121.2
GCF_001183725.2_ASM118372v2,NZ_CP025489.1
GCF_001278745.1_ASM127874v1,NZ_CP012594.1
GCF_001278745.1_ASM127874v1,NZ_CP012595.1
GCF_001278745.1_ASM127874v1,NZ_CP012596.1
GCF_001281145.1_ASM128114v1,NZ_CP010891.1
GCF_001296985.1_ASM129698v1,NZ_CP010403.1
GCF_001296985.1_ASM129698v1,NZ_CP010404.1
GCF_001307235.1_ASM130723v1,NZ_CP012757.1
GCF_001457495.1_NCTC13435,NZ_LN831037.1
GCF_001457495.1_NCTC13435,NZ_LN831038.1
GCF_001465635.1_ASM146563v1,NZ_CP013617.1
GCF_001465635.1_ASM146563v1,NZ_CP013618.1
GCF_001465675.1_ASM146567v1,NZ_CP013620.1
GCF_001515665.1_ASM151566v1,NZ_CP012016.1
GCF_001515685.1_ASM151568v1,NZ_CP012014.1
GCF_001515705.1_ASM151570v1,NZ_CP012017.1
GCF_001548295.1_ASM154829v1,NZ_AP014943.1
GCF_001548415.1_ASM154841v1,NZ_AP017321.1
GCF_001558795.2_ASM155879v2,NZ_CP014063.1
GCF_001580515.1_ASM158051v1,NZ_CP013227.1
GCF_001580515.1_ASM158051v1,NZ_CP013228.1
GCF_001580515.1_ASM158051v1,NZ_CP013229.1
GCF_001580515.1_ASM158051v1,NZ_CP013230.1
GCF_001611325.1_ASM161132v1,NZ_CP012980.1
GCF_001611365.1_ASM161136v1,NZ_CP012977.1
GCF_001611385.1_ASM161138v1,NZ_CP012975.1
GCF_001611405.1_ASM161140v1,NZ_CP012973.1
GCF_001611425.1_ASM161142v1,NZ_CP012971.1
GCF_001618305.1_ASM161830v1,NZ_CP015174.1
GCF_001618305.1_ASM161830v1,NZ_CP015175.1
GCF_001640905.1_ASM164090v1,NZ_CP013954.1
GCF_001640925.1_ASM164092v1,NZ_CP013956.1
GCF_001641025.1_ASM164102v1,NZ_CP013958.1
GCF_001717645.1_ASM171764v3,NZ_CP025482.1
GCF_001717645.1_ASM171764v3,NZ_CP016854.1
GCF_001717665.1_ASM171766v2,NZ_CP025481.1
GCF_001717685.1_ASM171768v3,NZ_CP025486.1
GCF_001717685.1_ASM171768v3,NZ_CP016859.1
GCF_001717685.1_ASM171768v3,NZ_CP016857.1
GCF_001717705.1_ASM171770v2,NZ_CP025487.1
GCF_001717705.1_ASM171770v2,NZ_CP016860.1
GCF_001717725.1_ASM171772v2,NZ_CP016862.1
GCF_001717975.2_ASM171797v3,NZ_CP025488.1
GCF_001717975.2_ASM171797v3,NZ_CP017095.1
GCF_001735655.2_ASM173565v2,NZ_CP025496.1
GCF_001735655.2_ASM173565v2,NZ_CP025497.1
GCF_001887075.1_ASM188707v1,NZ_CP014695.1
GCF_001887075.1_ASM188707v1,NZ_CP014694.1
GCF_001956815.1_ASM195681v1,NZ_CP009424.1
GCF_001956815.1_ASM195681v1,NZ_CP009425.1
GCF_001975005.1_ASM197500v1,NZ_CP018767.1
GCF_001975045.1_ASM197504v1,NZ_CP018769.1
GCF_001986135.1_ASM198613v1,NZ_CP019564.1
GCF_001986135.1_ASM198613v1,NZ_CP019565.1
GCF_001986135.1_ASM198613v1,NZ_CP019566.1
GCF_001986135.1_ASM198613v1,NZ_CP019567.1
GCF_002000565.1_ASM200056v1,NZ_CP014393.1
GCF_002000565.1_ASM200056v1,NZ_CP014394.1
GCF_002000565.1_ASM200056v1,NZ_CP014395.1
GCF_002000565.1_ASM200056v1,NZ_CP014396.1
GCF_002000585.1_ASM200058v1,NZ_CP014398.1
GCF_002000585.1_ASM200058v1,NZ_CP014399.1
GCF_002000585.1_ASM200058v1,NZ_CP014400.1
GCF_002000585.1_ASM200058v1,NZ_CP014401.1
GCF_002000605.1_ASM200060v1,NZ_CP014403.1
GCF_002000605.1_ASM200060v1,NZ_CP014404.1
GCF_002000605.1_ASM200060v1,NZ_CP014405.1
GCF_002000605.1_ASM200060v1,NZ_CP014406.1
GCF_002000625.1_ASM200062v1,NZ_CP014408.1
GCF_002000645.1_ASM200064v1,NZ_CP014410.1
GCF_002000645.1_ASM200064v1,NZ_CP014411.1
GCF_002000665.1_ASM200066v1,NZ_CP014413.1
GCF_002000665.1_ASM200066v1,NZ_CP014414.1
GCF_002000685.1_ASM200068v1,NZ_CP014416.1
GCF_002000685.1_ASM200068v1,NZ_CP014417.1
GCF_002000685.1_ASM200068v1,NZ_CP014418.1
GCF_002000685.1_ASM200068v1,NZ_CP014419.1
GCF_002000705.1_ASM200070v1,NZ_CP014421.1
GCF_002000705.1_ASM200070v1,NZ_CP014422.1
GCF_002000725.1_ASM200072v1,NZ_CP014424.1
GCF_002000725.1_ASM200072v1,NZ_CP014425.1
GCF_002000745.1_ASM200074v1,NZ_CP014427.1
GCF_002000745.1_ASM200074v1,NZ_CP014428.1
GCF_002000765.1_ASM200076v1,NZ_CP014430.1
GCF_002000765.1_ASM200076v1,NZ_CP014431.1
GCF_002000785.1_ASM200078v1,NZ_CP014433.1
GCF_002000785.1_ASM200078v1,NZ_CP014434.1
GCF_002000805.1_ASM200080v1,NZ_CP014436.1
GCF_002000805.1_ASM200080v1,NZ_CP014437.1
GCF_002000825.1_ASM200082v1,NZ_CP014439.1
GCF_002000825.1_ASM200082v1,NZ_CP014440.1
GCF_002000845.1_ASM200084v1,NZ_CP014442.1
GCF_002000845.1_ASM200084v1,NZ_CP014443.1
GCF_002000865.1_ASM200086v1,NZ_CP014445.1
GCF_002000865.1_ASM200086v1,NZ_CP014446.1
GCF_002000865.1_ASM200086v1,NZ_CP014447.1
GCF_002000865.1_ASM200086v1,NZ_CP014448.1
GCF_002025145.1_ASM202514v1,NZ_CP020021.1
GCF_002140115.1_ASM214011v1,NZ_CP015818.1
GCF_002202075.1_ASM220207v1,NZ_CP021906.1
GCF_002202095.1_ASM220209v1,NZ_CP021908.1
GCF_002214665.1_ASM221466v1,NZ_CP016399.1
GCF_002356675.1_ASM235667v1,NZ_AP014922.1
GCF_002633805.1_ASM263380v1,NZ_CP017683.1
GCF_002633825.1_ASM263382v1,NZ_CP017681.1
GCF_002633865.1_ASM263386v1,NZ_CP017678.1
GCF_002795285.1_ASM279528v1,NZ_CP019575.1
GCF_002803885.1_ASM280388v1,NZ_CP024999.1
GCF_003010875.1_ASM301087v1,NZ_CP020355.1
GCF_003029645.1_ASM302964v1,NZ_CP028164.1
GCF_003030065.1_ASM303006v1,NZ_CP028191.1
GCF_003031285.1_ASM303128v1,NZ_CP023562.1
GCF_003073635.1_ASM307363v1,NZ_CP029079.1
GCF_003073655.1_ASM307365v1,NZ_CP029081.1
GCF_003073755.1_ASM307375v1,NZ_CP029083.1
GCF_003073775.1_ASM307377v1,NZ_CP029085.1
GCF_003111725.1_ASM311172v1,NZ_CP029167.1
GCF_003111725.1_ASM311172v1,NZ_CP029165.1
GCF_003111745.1_ASM311174v1,NZ_CP029168.1
GCF_003111745.1_ASM311174v1,NZ_CP029169.1
GCF_003111745.1_ASM311174v1,NZ_CP029170.1
GCF_003111745.1_ASM311174v1,NZ_CP029171.1
GCF_003184985.1_ASM318498v1,NZ_CP028469.1
GCF_003185005.1_ASM318500v1,NZ_CP028471.1
GCF_003186125.1_ASM318612v1,NZ_CP029628.1
GCF_003193665.1_ASM319366v1,NZ_CP029648.1
GCF_003193685.1_ASM319368v1,NZ_CP029668.1
GCF_003193705.1_ASM319370v1,NZ_CP029674.1
GCF_003193725.1_ASM319372v1,NZ_CP029676.1
GCF_003193725.1_ASM319372v1,NZ_CP029677.1
GCF_003193765.1_ASM319376v1,NZ_CP029650.1
GCF_003193765.1_ASM319376v1,NZ_CP029651.1
GCF_003193885.1_ASM319388v1,NZ_CP029659.1
GCF_003193965.1_ASM319396v1,NZ_CP029666.1
GCF_003194005.1_ASM319400v1,NZ_CP029654.1
GCF_003194025.1_ASM319402v1,NZ_CP029679.1
GCF_003203595.1_ASM320359v1,NZ_CP029665.1
GCF_003203615.1_ASM320361v1,NZ_CP029656.1
GCF_003203635.1_ASM320363v1,NZ_CP029661.1
GCF_003203635.1_ASM320363v1,NZ_CP029662.1
GCF_003203655.1_ASM320365v1,NZ_CP029670.1
GCF_003203675.1_ASM320367v1,NZ_CP029672.1
GCF_003288395.1_ASM328839v1,NZ_CP030324.1
GCF_003330905.1_ASM333090v1,NZ_CP030325.1
GCF_003347055.1_ASM334705v1,NZ_CP022608.1
GCF_003354865.1_ASM335486v1,NZ_CP022719.1
GCF_003354885.1_ASM335488v1,NZ_CP022911.1
GCF_003354905.1_ASM335490v1,NZ_CP022683.1
GCF_003354925.1_ASM335492v1,NZ_CP022721.1
GCF_003354945.1_ASM335494v1,NZ_CP022909.1
GCF_003354965.1_ASM335496v1,NZ_CP022907.1
GCF_003425545.1_ASM342554v1,NZ_CP031668.1
GCF_003425545.1_ASM342554v1,NZ_CP031669.1
GCF_003425835.1_ASM342583v1,NZ_CP031665.1
GCF_003425835.1_ASM342583v1,NZ_CP031666.1
GCF_003425885.1_ASM342588v1,NZ_CP031662.1
GCF_003425885.1_ASM342588v1,NZ_CP031663.1
GCF_003425915.1_ASM342591v1,NZ_CP031671.1
GCF_003425915.1_ASM342591v1,NZ_CP031672.1
GCF_003432345.1_ASM343234v1,NZ_CP031840.1
GCF_003573835.1_ASM357383v1,NZ_AP018924.1
GCF_003595365.1_ASM359536v1,NZ_CP014363.1
GCF_003595365.1_ASM359536v1,NZ_CP014364.1
GCF_003595385.1_ASM359538v1,NZ_CP014366.1
GCF_003595385.1_ASM359538v1,NZ_CP014367.1
GCF_003595405.1_ASM359540v1,NZ_CP014369.1
GCF_003595405.1_ASM359540v1,NZ_CP014370.1
GCF_003595425.1_ASM359542v1,NZ_CP014372.1
GCF_003595425.1_ASM359542v1,NZ_CP014373.1
GCF_003595425.1_ASM359542v1,NZ_CP014374.1
GCF_003595425.1_ASM359542v1,NZ_CP014375.1
GCF_003595445.1_ASM359544v1,NZ_CP014377.1
GCF_003595445.1_ASM359544v1,NZ_CP014378.1
GCF_003595445.1_ASM359544v1,NZ_CP014379.1
GCF_003595445.1_ASM359544v1,NZ_CP014380.1
GCF_003595465.1_ASM359546v1,NZ_CP014382.1
GCF_003595465.1_ASM359546v1,NZ_CP014383.1
GCF_003595485.1_ASM359548v1,NZ_CP014385.1
GCF_003595485.1_ASM359548v1,NZ_CP014386.1
GCF_003595505.1_ASM359550v1,NZ_CP014388.1
GCF_003595505.1_ASM359550v1,NZ_CP014389.1
GCF_003595505.1_ASM359550v1,NZ_CP014390.1
GCF_003595505.1_ASM359550v1,NZ_CP014391.1
GCF_003609855.1_ASM360985v1,NZ_AP017923.1
GCF_003991015.1_ASM399101v1,NZ_CP029475.1
GCF_004026165.1_ASM402616v1,NZ_CP035006.1
GCF_004026185.1_ASM402618v1,NZ_CP035004.1
GCF_004118995.1_ASM411899v1,NZ_CP035370.1
GCF_004208595.1_ASM420859v1,NZ_CP035792.1
GCF_005705815.1_ASM570581v1,NZ_CP039161.1
GCF_005707015.1_ASM570701v1,NZ_CP039168.1
GCF_005707215.1_ASM570721v1,NZ_CP039163.1
GCF_005885975.1_ASM588597v1,NZ_CP040561.1
GCF_005889995.1_ASM588999v1,NZ_CP040620.1
GCF_005889995.1_ASM588999v1,NZ_CP040621.1
GCF_005890035.1_ASM589003v1,NZ_CP040624.1
GCF_005954685.1_ASM595468v1,NZ_CP040666.1
GCF_006088835.1_ASM608883v1,NZ_CP029199.1
GCF_006094915.1_ASM609491v1,NZ_CP035102.1
GCF_006158985.1_ASM615898v1,NZ_CP040802.1
GCF_006364675.1_ASM636467v1,NZ_CP040999.1
GCF_006364675.1_ASM636467v1,NZ_CP041000.1
GCF_006364775.1_ASM636477v1,NZ_CP041009.1
GCF_007185035.1_ASM718503v1,NZ_AP019752.1
GCF_007726325.1_ASM772632v1,NZ_CP042007.1
GCF_007726325.1_ASM772632v1,NZ_CP042006.1
GCF_007726325.1_ASM772632v1,NZ_CP042005.1
GCF_007726325.1_ASM772632v1,NZ_CP042004.1
GCF_007726465.1_ASM772646v1,NZ_CP042047.1
GCF_007726495.1_ASM772649v1,NZ_CP042044.1
GCF_007726495.1_ASM772649v1,NZ_CP042045.1
GCF_007726525.1_ASM772652v1,NZ_CP042156.1
GCF_007726525.1_ASM772652v1,NZ_CP042155.1
GCF_007726525.1_ASM772652v1,NZ_CP042154.1
GCF_007726545.1_ASM772654v1,NZ_CP042109.1
GCF_007726545.1_ASM772654v1,NZ_CP042108.1
GCF_007726565.1_ASM772656v1,NZ_CP042160.1
GCF_007726565.1_ASM772656v1,NZ_CP042159.1
GCF_007726565.1_ASM772656v1,NZ_CP042158.1
GCF_007954445.1_ASM795444v1,NZ_CP042347.1
GCF_007954465.1_ASM795446v1,NZ_CP042349.1
GCF_007998145.1_ASM799814v1,NZ_CP042651.1
GCF_008244705.1_ASM824470v1,NZ_CP043387.1
GCF_008244705.1_ASM824470v1,NZ_CP043388.1
GCF_008244725.1_ASM824472v1,NZ_CP043393.1
GCF_008244725.1_ASM824472v1,NZ_CP043394.1
GCF_008244745.1_ASM824474v1,NZ_CP043390.1
GCF_008244745.1_ASM824474v1,NZ_CP043391.1
GCF_008329865.1_ASM832986v1,NZ_CP031889.1
GCF_008329885.1_ASM832988v1,NZ_CP031891.1
GCF_008330045.1_ASM833004v1,NZ_CP039449.1
GCF_008330045.1_ASM833004v1,NZ_CP039450.1
GCF_008330585.1_ASM833058v1,NZ_CP031887.1
GCF_008370815.1_ASM837081v1,NZ_CP043303.1
GCF_008619075.1_ASM861907v1,NZ_AP020325.1
GCF_008619235.1_ASM861923v1,NZ_AP020312.1
GCF_008619415.1_ASM861941v1,NZ_AP020314.1
GCF_008619795.1_ASM861979v1,NZ_AP020317.1
GCF_008619935.1_ASM861993v1,NZ_AP020319.1
GCF_008620055.1_ASM862005v1,NZ_AP020321.1
GCF_008620175.1_ASM862017v1,NZ_AP020323.1
GCF_008693765.1_ASM869376v1,NZ_CP044105.1
GCF_009176785.1_ASM917678v1,NZ_AP019544.1
GCF_009176875.1_ASM917687v1,NZ_AP019546.1
GCF_009650155.1_ASM965015v1,NZ_CP045867.1
GCF_009684655.1_ASM968465v1,NZ_CP045473.1
GCF_009728755.1_ASM972875v1,NZ_CP033113.1
GCF_009728775.1_ASM972877v1,NZ_CP033115.1
GCF_009739675.1_ASM973967v1,NZ_CP033978.1
GCF_009739675.1_ASM973967v1,NZ_CP033979.1
GCF_009739675.1_ASM973967v1,NZ_CP033980.1
GCF_009739675.1_ASM973967v1,NZ_CP033981.1
GCF_009739695.1_ASM973969v1,NZ_CP033983.1
GCF_009739695.1_ASM973969v1,NZ_CP033984.1
GCF_009739695.1_ASM973969v1,NZ_CP033985.1
GCF_009739695.1_ASM973969v1,NZ_CP033986.1
GCF_009739715.1_ASM973971v1,NZ_CP033973.1
GCF_009739715.1_ASM973971v1,NZ_CP033974.1
GCF_009739715.1_ASM973971v1,NZ_CP033975.1
GCF_009739715.1_ASM973971v1,NZ_CP033976.1
GCF_009739735.1_ASM973973v1,NZ_CP033994.1
GCF_009739735.1_ASM973973v1,NZ_CP033995.1
GCF_009739755.1_ASM973975v1,NZ_CP033997.1
GCF_009739755.1_ASM973975v1,NZ_CP033998.1
GCF_009739775.1_ASM973977v1,NZ_CP034000.1
GCF_009739775.1_ASM973977v1,NZ_CP034001.1
GCF_009739795.1_ASM973979v1,NZ_CP034003.1
GCF_009739795.1_ASM973979v1,NZ_CP034004.1
GCF_009739825.1_ASM973982v1,NZ_CP034009.1
GCF_009739825.1_ASM973982v1,NZ_CP034010.1
GCF_009739845.1_ASM973984v1,NZ_CP034012.1
GCF_009739845.1_ASM973984v1,NZ_CP034013.1
GCF_009739865.1_ASM973986v1,NZ_CP033988.1
GCF_009739865.1_ASM973986v1,NZ_CP033989.1
GCF_009739885.1_ASM973988v1,NZ_CP034258.1
GCF_009739885.1_ASM973988v1,NZ_CP034257.1
GCF_009740205.1_ASM974020v1,NZ_CP034006.1
GCF_009740205.1_ASM974020v1,NZ_CP034007.1
GCF_009769095.1_ASM976909v1,NZ_CP043844.1
GCF_009857055.1_ASM985705v1,NZ_CP047322.1
GCF_009911815.1_ASM991181v1,NZ_CP047812.1
GCF_009911855.1_ASM991185v1,NZ_CP047818.1
GCF_009911855.1_ASM991185v1,NZ_CP047819.1
GCF_009911965.1_ASM991196v1,NZ_CP047821.1
GCF_009912015.1_ASM991201v1,NZ_CP047814.1
GCF_009912055.1_ASM991205v1,NZ_CP047808.1
GCF_009912075.1_ASM991207v1,NZ_CP047806.1
GCF_009912195.1_ASM991219v1,NZ_CP047823.1
GCF_009912195.1_ASM991219v1,NZ_CP047824.1
GCF_009912195.1_ASM991219v1,NZ_CP047825.1
GCF_009912255.1_ASM991225v1,NZ_CP047834.1
GCF_009912355.1_ASM991235v1,NZ_CP047827.1
GCF_009912375.1_ASM991237v1,NZ_CP047829.1
GCF_009912415.1_ASM991241v1,NZ_CP047816.1
GCF_009912555.1_ASM991255v1,NZ_CP047836.1
GCF_009912655.1_ASM991265v1,NZ_CP047831.1
GCF_009912655.1_ASM991265v1,NZ_CP047832.1
GCF_009912695.1_ASM991269v1,NZ_CP047838.1
GCF_009912735.1_ASM991273v1,NZ_CP047840.1
GCF_009912755.1_ASM991275v1,NZ_CP047848.1
GCF_009912775.1_ASM991277v1,NZ_CP047842.1
GCF_009912855.1_ASM991285v1,NZ_CP047844.1
GCF_009912875.1_ASM991287v1,NZ_CP047846.1
GCF_009912895.1_ASM991289v1,NZ_CP047857.1
GCF_009912895.1_ASM991289v1,NZ_CP047858.1
GCF_009912915.1_ASM991291v1,NZ_CP047850.1
GCF_009912975.1_ASM991297v1,NZ_CP047868.1
GCF_009913015.1_ASM991301v1,NZ_CP047866.1
GCF_009913035.1_ASM991303v1,NZ_CP047853.1
GCF_009913095.1_ASM991309v1,NZ_CP047860.1
GCF_009913135.1_ASM991313v1,NZ_CP047855.1
GCF_009913155.1_ASM991315v1,NZ_CP047862.1
GCF_009913175.1_ASM991317v1,NZ_CP047864.1
GCF_009914455.1_ASM991445v1,NZ_CP045469.1
GCF_009914455.1_ASM991445v1,NZ_CP045470.1
GCF_009914455.1_ASM991445v1,NZ_CP045471.1
GCF_009937785.1_ASM993778v1,NZ_CP047810.1
GCF_010669265.1_ASM1066926v1,NZ_CP048644.1
GCF_010669265.1_ASM1066926v1,NZ_CP048645.1
GCF_010669265.1_ASM1066926v1,NZ_CP048646.1
GCF_011032785.1_ASM1103278v1,NZ_CP048432.1
GCF_011035105.1_ASM1103510v1,NZ_CP047022.1
GCF_012974825.1_ASM1297482v1,NZ_CP038230.1
GCF_013004085.1_ASM1300408v1,NZ_CP053077.1
GCF_013004085.1_ASM1300408v1,NZ_CP053078.1
GCF_013004085.1_ASM1300408v1,NZ_CP053076.1
GCF_013046865.1_ASM1304686v1,NZ_CP053186.1
GCF_013046885.1_ASM1304688v1,NZ_CP053184.1
GCF_013187685.1_ASM1318768v1,NZ_CP029750.1
GCF_013305885.1_ASM1330588v1,NZ_CP053635.1
GCF_013305905.1_ASM1330590v1,NZ_CP053637.1
GCF_013305955.1_ASM1330595v1,NZ_CP053641.1
GCF_013307005.2_ASM1330700v2,NZ_CP053354.1
GCF_013307025.1_ASM1330702v1,NZ_CP053355.1
GCF_013307065.1_ASM1330706v1,NZ_CP053638.1
GCF_013307085.1_ASM1330708v1,NZ_CP038184.1
GCF_013307085.1_ASM1330708v1,NZ_CP038185.1
GCF_013389715.1_ASM1338971v1,NZ_CP058313.1
GCF_013389715.1_ASM1338971v1,NZ_CP058314.1
GCF_013394425.1_ASM1339442v1,NZ_AP023035.1
GCF_013415955.1_ASM1341595v1,NZ_CP045436.1
GCF_013415955.1_ASM1341595v1,NZ_CP045437.1
GCF_013415955.1_ASM1341595v1,NZ_CP045438.1
GCF_013836525.1_ASM1383652v1,NZ_CP058616.1
GCF_013836745.1_ASM1383674v1,NZ_CP058614.1
GCF_015219885.1_ASM1521988v1,NZ_CP062470.1
GCF_015219905.1_ASM1521990v1,NZ_CP062468.1
GCF_015219925.1_ASM1521992v1,NZ_CP062466.1
GCF_015220695.1_ASM1522069v1,NZ_CP062472.1
GCF_015475575.1_ASM1547557v1,NZ_CP055226.1
GCF_015767475.1_ASM1576747v1,NZ_CP065200.1
GCF_015767475.1_ASM1576747v1,NZ_CP065201.1
GCF_015767495.1_ASM1576749v1,NZ_CP065195.1
GCF_015767495.1_ASM1576749v1,NZ_CP065196.1
GCF_015767495.1_ASM1576749v1,NZ_CP065197.1
GCF_015767495.1_ASM1576749v1,NZ_CP065198.1
GCF_015999445.1_ASM1599944v1,NZ_CP065516.1
GCF_016413705.1_ASM1641370v1,NZ_CP066489.1
GCF_016413705.1_ASM1641370v1,NZ_CP066490.1
GCF_016413705.1_ASM1641370v1,NZ_CP066491.1
GCF_016413725.1_ASM1641372v1,NZ_CP066493.1
GCF_016413725.1_ASM1641372v1,NZ_CP066494.1
GCF_016413725.1_ASM1641372v1,NZ_CP066495.1
GCF_016496025.1_ASM1649602v1,NZ_CP060492.1
GCF_016591995.1_ASM1659199v1,NZ_AP024171.1
GCF_016727585.1_ASM1672758v1,NZ_CP068144.1
GCF_016889145.1_ASM1688914v1,NZ_CP069471.1
GCF_016889145.1_ASM1688914v1,NZ_CP069472.1
GCF_016889945.1_ASM1688994v1,NZ_CP069566.1
GCF_016894285.1_ASM1689428v1,NZ_CP069800.1
GCF_017088305.1_ASM1708830v1,NZ_CP070987.1
GCF_017088305.1_ASM1708830v1,NZ_CP070988.1
GCF_017088385.1_ASM1708838v1,NZ_CP070984.1
GCF_017088385.1_ASM1708838v1,NZ_CP070985.1
GCF_017161095.1_ASM1716109v1,NZ_CP046477.1
GCF_017798245.1_ASM1779824v1,NZ_CP060279.1
GCF_018093065.1_ASM1809306v1,NZ_CP070992.1
GCF_018093105.1_ASM1809310v1,NZ_CP071101.1
GCF_018093205.1_ASM1809320v1,NZ_CP071103.1
GCF_018093225.1_ASM1809322v1,NZ_CP071105.1
GCF_018093225.1_ASM1809322v1,NZ_CP071106.1
GCF_018135565.1_ASM1813556v1,NZ_CP073064.1
GCF_018336515.1_ASM1833651v1,NZ_CP047923.1
GCF_018336535.1_ASM1833653v1,NZ_CP047925.1
GCF_018409145.1_ASM1840914v1,NZ_AP024512.1
GCF_018987325.1_ASM1898732v1,NZ_CP076840.1
GCF_018987325.1_ASM1898732v1,NZ_CP076841.1
GCF_018987325.1_ASM1898732v1,NZ_CP076842.1
GCF_018987345.1_ASM1898734v1,NZ_CP076844.1
GCF_018987345.1_ASM1898734v1,NZ_CP076845.1
GCF_019134615.1_ASM1913461v1,NZ_CP077756.1
GCF_019550945.1_ASM1955094v1,NZ_CP080561.1
GCF_019551095.1_ASM1955109v1,NZ_CP080563.1
GCF_019551175.1_ASM1955117v1,NZ_CP080557.1
GCF_019551175.1_ASM1955117v1,NZ_CP080558.1
GCF_019551175.1_ASM1955117v1,NZ_CP080559.1
GCF_019551235.1_ASM1955123v1,NZ_CP080554.1
GCF_019551235.1_ASM1955123v1,NZ_CP080555.1
GCF_019551355.1_ASM1955135v1,NZ_CP080565.1
GCF_019551375.1_ASM1955137v1,NZ_CP080549.1
GCF_019551415.1_ASM1955141v1,NZ_CP080567.1
GCF_019603375.1_ASM1960337v1,NZ_CP080771.1
GCF_019669165.1_ASM1966916v1,NZ_AP024312.1
GCF_019669245.1_ASM1966924v1,NZ_AP024314.1
GCF_019669345.1_ASM1966934v1,NZ_AP024316.1
GCF_019669345.1_ASM1966934v1,NZ_AP024317.1
GCF_019669385.1_ASM1966938v1,NZ_AP024319.1
GCF_019738975.1_ASM1973897v1,NZ_CP081355.1
GCF_019738975.1_ASM1973897v1,NZ_CP081356.1
GCF_019915405.1_ASM1991540v1,NZ_CP082814.1
GCF_019915585.1_ASM1991558v1,NZ_CP082790.1
GCF_020003145.1_ASM2000314v1,NZ_CP077739.1
GCF_020003145.1_ASM2000314v1,NZ_CP077740.1
GCF_020003165.1_ASM2000316v1,NZ_CP077742.1
GCF_020003165.1_ASM2000316v1,NZ_CP077743.1
GCF_020003165.1_ASM2000316v1,NZ_CP077744.1
GCF_020034535.1_ASM2003453v1,NZ_CP083260.1
GCF_020034535.1_ASM2003453v1,NZ_CP083261.1
GCF_020042725.1_ASM2004272v1,NZ_CP083435.1
GCF_020097755.1_ASM2009775v1,NZ_CP083672.1
GCF_020150915.1_ASM2015091v1,NZ_CP083729.1
GCF_020150915.1_ASM2015091v1,NZ_CP083730.1
GCF_020388235.1_ASM2038823v1,NZ_CP077862.1
GCF_020388255.1_ASM2038825v1,NZ_CP077864.1
GCF_020388275.1_ASM2038827v1,NZ_CP077866.1
GCF_020388355.1_ASM2038835v1,NZ_CP077871.1
GCF_020388395.1_ASM2038839v1,NZ_CP077934.1
GCF_020388395.1_ASM2038839v1,NZ_CP077935.1
GCF_020388555.1_ASM2038855v1,NZ_CP077876.1
GCF_020388555.1_ASM2038855v1,NZ_CP077875.1
GCF_020388555.1_ASM2038855v1,NZ_CP077873.1
GCF_020388555.1_ASM2038855v1,NZ_CP077874.1
GCF_020388655.1_ASM2038865v1,NZ_CP077879.1
GCF_020388655.1_ASM2038865v1,NZ_CP077878.1
GCF_020388675.1_ASM2038867v1,NZ_CP077881.1
GCF_020388675.1_ASM2038867v1,NZ_CP077884.1
GCF_020388675.1_ASM2038867v1,NZ_CP077882.1
GCF_020388675.1_ASM2038867v1,NZ_CP077883.1
GCF_020388695.1_ASM2038869v1,NZ_CP077887.1
GCF_020388695.1_ASM2038869v1,NZ_CP077886.1
GCF_020388735.1_ASM2038873v1,NZ_CP077891.1
GCF_020388735.1_ASM2038873v1,NZ_CP077890.1
GCF_020388735.1_ASM2038873v1,NZ_CP077892.1
GCF_020388785.1_ASM2038878v1,NZ_CP077896.1
GCF_020388785.1_ASM2038878v1,NZ_CP077895.1
GCF_020388845.1_ASM2038884v1,NZ_CP077900.1
GCF_020388845.1_ASM2038884v1,NZ_CP077902.1
GCF_020388845.1_ASM2038884v1,NZ_CP077904.1
GCF_020388845.1_ASM2038884v1,NZ_CP077903.1
GCF_020388845.1_ASM2038884v1,NZ_CP077901.1
GCF_020388845.1_ASM2038884v1,NZ_CP077905.1
GCF_020388885.1_ASM2038888v1,NZ_CP077910.1
GCF_020388885.1_ASM2038888v1,NZ_CP077909.1
GCF_020388905.1_ASM2038890v1,NZ_CP077938.1
GCF_020388905.1_ASM2038890v1,NZ_CP077937.1
GCF_020388925.1_ASM2038892v1,NZ_CP077912.1
GCF_020389025.2_ASM2038902v2,NZ_CP077918.1
GCF_020389505.1_ASM2038950v1,NZ_CP077927.1
GCF_020389525.1_ASM2038952v1,NZ_CP077930.1
GCF_020389525.1_ASM2038952v1,NZ_CP077929.1
GCF_020886635.1_ASM2088663v1,NZ_AP024204.1
GCF_020887215.1_ASM2088721v1,NZ_AP025178.1
GCF_021172845.1_ASM2117284v1,NZ_CP089155.1
GCF_021172865.1_ASM2117286v1,NZ_CP089158.1
GCF_021172885.1_ASM2117288v1,NZ_CP089160.1
GCF_021172925.1_ASM2117292v1,NZ_CP089163.1
GCF_021172925.1_ASM2117292v1,NZ_CP089164.1
GCF_021172945.1_ASM2117294v1,NZ_CP089166.1
GCF_021249285.1_ASM2124928v1,NZ_CP089587.1
GCF_021390135.1_ASM2139013v1,NZ_CP090002.1
GCF_021513355.1_ASM2151335v1,NZ_CP068683.1
GCF_021725475.1_ASM2172547v1,NZ_CP091413.1
GCF_021725475.1_ASM2172547v1,NZ_CP091414.1
GCF_022163485.1_ASM2216348v1,NZ_CP091877.1
GCF_022221545.1_ASM2222154v1,NZ_CP080250.1
GCF_022221565.1_ASM2222156v1,NZ_CP080252.1
GCF_022226995.1_ASM2222699v1,NZ_CP092053.1
GCF_022226995.1_ASM2222699v1,NZ_CP092054.1
GCF_022369535.1_ASM2236953v1,NZ_CP062313.1
GCF_022369595.1_ASM2236959v1,NZ_CP062315.1
GCF_022369595.1_ASM2236959v1,NZ_CP062316.1
GCF_022369595.1_ASM2236959v1,NZ_CP062317.1
GCF_022369695.1_ASM2236969v1,NZ_CP062319.1
GCF_022385275.1_ASM2238527v1,NZ_CP092448.1
GCF_022404575.1_ASM2240457v1,NZ_CP062321.1
GCF_022404595.1_ASM2240459v1,NZ_CP062323.1
GCF_022404615.1_ASM2240461v1,NZ_CP062325.1
GCF_022404635.1_ASM2240463v1,NZ_CP062327.1
GCF_022404635.1_ASM2240463v1,NZ_CP062328.1
GCF_022404655.1_ASM2240465v1,NZ_CP062330.1
GCF_022404675.1_ASM2240467v1,NZ_CP062332.1
GCF_022404675.1_ASM2240467v1,NZ_CP062333.1
GCF_022404695.1_ASM2240469v1,NZ_CP062335.1
GCF_022404715.1_ASM2240471v1,NZ_CP062337.1
GCF_022404735.1_ASM2240473v1,NZ_CP062339.1
GCF_022404755.1_ASM2240475v1,NZ_CP062341.1
GCF_022404775.1_ASM2240477v1,NZ_CP062343.1
GCF_022405055.1_ASM2240505v1,NZ_CP062345.1
GCF_022405075.1_ASM2240507v1,NZ_CP062347.1
GCF_022405145.1_ASM2240514v1,NZ_CP062349.1
GCF_022405185.1_ASM2240518v1,NZ_CP062351.1
GCF_022405205.1_ASM2240520v1,NZ_CP062353.1
GCF_022405235.1_ASM2240523v1,NZ_CP062355.1
GCF_022405255.1_ASM2240525v1,NZ_CP062357.1
GCF_022405275.1_ASM2240527v1,NZ_CP062359.1
GCF_022405295.1_ASM2240529v1,NZ_CP062361.1
GCF_022405315.1_ASM2240531v1,NZ_CP062363.1
GCF_022405335.1_ASM2240533v1,NZ_CP062365.1
GCF_022405355.1_ASM2240535v1,NZ_CP062367.1
GCF_022405375.1_ASM2240537v1,NZ_CP062369.1
GCF_022405395.1_ASM2240539v1,NZ_CP062371.1
GCF_022405415.1_ASM2240541v1,NZ_CP062373.1
GCF_022405415.1_ASM2240541v1,NZ_CP062374.1
GCF_022405415.1_ASM2240541v1,NZ_CP062375.1
GCF_022405435.1_ASM2240543v1,NZ_CP062377.1
GCF_022405455.1_ASM2240545v1,NZ_CP062379.1
GCF_022405475.1_ASM2240547v1,NZ_CP062381.1
GCF_022405495.1_ASM2240549v1,NZ_CP062383.1
GCF_022405515.1_ASM2240551v1,NZ_CP062385.1
GCF_022405535.1_ASM2240553v1,NZ_CP062387.1
GCF_022405555.1_ASM2240555v1,NZ_CP062389.1
GCF_022405575.1_ASM2240557v1,NZ_CP062391.1
GCF_022405575.1_ASM2240557v1,NZ_CP062392.1
GCF_022405595.1_ASM2240559v1,NZ_CP062394.1
GCF_022405615.1_ASM2240561v1,NZ_CP062396.1
GCF_022405615.1_ASM2240561v1,NZ_CP062397.1
GCF_022406675.1_ASM2240667v1,NZ_CP060142.1
GCF_022493095.1_ASM2249309v1,NZ_CP062440.1
GCF_022532145.1_ASM2253214v1,NZ_CP092826.1
GCF_022691325.1_ASM2269132v1,NZ_CP092557.1
GCF_022691345.1_ASM2269134v1,NZ_CP092559.1
GCF_022691345.1_ASM2269134v1,NZ_CP092560.1
GCF_022691365.1_ASM2269136v1,NZ_CP092562.1
GCF_022691385.1_ASM2269138v1,NZ_CP092564.1
GCF_022691405.1_ASM2269140v1,NZ_CP092566.1
GCF_022691425.1_ASM2269142v1,NZ_CP092568.1
GCF_022693165.1_ASM2269316v1,NZ_CP092539.1
GCF_022693185.1_ASM2269318v1,NZ_CP092541.1
GCF_022693205.1_ASM2269320v1,NZ_CP092543.1
GCF_022693225.1_ASM2269322v1,NZ_CP092582.1
GCF_022693245.1_ASM2269324v1,NZ_CP092545.1
GCF_022693245.1_ASM2269324v1,NZ_CP092546.1
GCF_022693265.1_ASM2269326v1,NZ_CP092548.1
GCF_022693265.1_ASM2269326v1,NZ_CP092549.1
GCF_022693285.1_ASM2269328v1,NZ_CP092551.1
GCF_022693305.1_ASM2269330v1,NZ_CP092553.1
GCF_022693325.1_ASM2269332v1,NZ_CP092555.1
GCF_022699245.1_ASM2269924v1,NZ_CP093931.1
GCF_022699245.1_ASM2269924v1,NZ_CP093932.1
GCF_022699265.1_ASM2269926v1,NZ_CP093936.1
GCF_022699265.1_ASM2269926v1,NZ_CP093937.1
GCF_022699285.1_ASM2269928v1,NZ_CP093934.1
GCF_022809795.1_ASM2280979v1,NZ_CP094444.1
GCF_022832755.1_ASM2283275v1,NZ_CP094856.1
GCF_022832775.1_ASM2283277v1,NZ_CP094858.1
GCF_022832835.1_ASM2283283v1,NZ_CP094854.1
GCF_022869625.1_ASM2286962v1,NZ_CP064366.1
GCF_022870005.1_ASM2287000v1,NZ_CP064390.1
GCF_022870465.1_ASM2287046v1,NZ_CP078522.1
GCF_900017775.1_NZAK3,NZ_LT009691.1
GCF_900129335.1_PP_HGAG_QV30_2SC_T4,NZ_LT671860.1
GCF_900324205.1_1_1439,NZ_LT992457.1
GCF_900607255.1_BPH2019,NZ_LR027871.1
GCF_900607255.1_BPH2019,NZ_LR027872.1
GCF_900607265.1_BPH2003,NZ_LR027879.1
GCF_900607305.1_BPH2056,NZ_LR027875.1
GCF_900620215.1_BPH2760,NZ_LR130510.1
GCF_900620225.1_BPH2819,NZ_LR130512.1
GCF_900620235.1_BPH2900,NZ_LR130514.1
GCF_900620245.1_BPH2947,NZ_LR130516.1
GCF_900620245.1_BPH2947,NZ_LR130517.1
GCF_900620255.1_BPH2986,NZ_LR130519.1
GCF_900620255.1_BPH2986,NZ_LR130520.1
