GCF_013836745.1_ASM1383674v1,GCF_013836745.1_ASM1383674v1_bin_1,NZ_CP058613.1,S57_LN_i_2116_dp_f_0.9366821156812214,2116,1864125,1866240
GCF_013836745.1_ASM1383674v1,GCF_013836745.1_ASM1383674v1_bin_1,NZ_CP058613.1,S57_LN_i_2116_dp_f_0.9366821156812214,2116,2741065,2743180
GCF_013836745.1_ASM1383674v1,GCF_013836745.1_ASM1383674v1_bin_1,NZ_CP058613.1,S58_LN_i_1834_dp_f_12.912600750701248,1834,249173,251006
GCF_013836745.1_ASM1383674v1,GCF_013836745.1_ASM1383674v1_bin_1,NZ_CP058613.1,S58_LN_i_1834_dp_f_12.912600750701248,1834,822259,824092
GCF_013836745.1_ASM1383674v1,GCF_013836745.1_ASM1383674v1_bin_1,NZ_CP058613.1,S58_LN_i_1834_dp_f_12.912600750701248,1834,2608660,2610493
GCF_013836745.1_ASM1383674v1,GCF_013836745.1_ASM1383674v1_bin_1,NZ_CP058613.1,S58_LN_i_1834_dp_f_12.912600750701248,1834,765760,767593
GCF_013836745.1_ASM1383674v1,GCF_013836745.1_ASM1383674v1_bin_1,NZ_CP058613.1,S58_LN_i_1834_dp_f_12.912600750701248,1834,330277,332110
GCF_013836745.1_ASM1383674v1,GCF_013836745.1_ASM1383674v1_bin_1,NZ_CP058613.1,S58_LN_i_1834_dp_f_12.912600750701248,1834,1862291,1864124
GCF_013836745.1_ASM1383674v1,GCF_013836745.1_ASM1383674v1_bin_1,NZ_CP058613.1,S58_LN_i_1834_dp_f_12.912600750701248,1834,1215895,1217728
GCF_013836745.1_ASM1383674v1,GCF_013836745.1_ASM1383674v1_bin_1,NZ_CP058613.1,S58_LN_i_1834_dp_f_12.912600750701248,1834,1874925,1876758
GCF_013836745.1_ASM1383674v1,GCF_013836745.1_ASM1383674v1_bin_1,NZ_CP058613.1,S58_LN_i_1834_dp_f_12.912600750701248,1834,2024544,2026377
GCF_013836745.1_ASM1383674v1,GCF_013836745.1_ASM1383674v1_bin_1,NZ_CP058613.1,S58_LN_i_1834_dp_f_12.912600750701248,1834,1891903,1893736
GCF_013836745.1_ASM1383674v1,GCF_013836745.1_ASM1383674v1_bin_1,NZ_CP058613.1,S58_LN_i_1834_dp_f_12.912600750701248,1834,186830,188663
GCF_013836745.1_ASM1383674v1,GCF_013836745.1_ASM1383674v1_bin_1,NZ_CP058613.1,S58_LN_i_1834_dp_f_12.912600750701248,1834,1886524,1888357
GCF_013836745.1_ASM1383674v1,GCF_013836745.1_ASM1383674v1_bin_1,NZ_CP058613.1,S58_LN_i_1834_dp_f_12.912600750701248,1834,1439532,1441365
GCF_013836745.1_ASM1383674v1,GCF_013836745.1_ASM1383674v1_bin_1,NZ_CP058613.1,S58_LN_i_1834_dp_f_12.912600750701248,1834,2319609,2321442
GCF_013836745.1_ASM1383674v1,GCF_013836745.1_ASM1383674v1_bin_1,NZ_CP058613.1,S58_LN_i_1834_dp_f_12.912600750701248,1834,1319066,1320899
GCF_013836745.1_ASM1383674v1,GCF_013836745.1_ASM1383674v1_bin_1,NZ_CP058613.1,S58_LN_i_1834_dp_f_12.912600750701248,1834,1748168,1750001
GCF_013836745.1_ASM1383674v1,GCF_013836745.1_ASM1383674v1_bin_1,NZ_CP058613.1,S58_LN_i_1834_dp_f_12.912600750701248,1834,2774141,2775974
GCF_013836745.1_ASM1383674v1,GCF_013836745.1_ASM1383674v1_bin_1,NZ_CP058613.1,S58_LN_i_1834_dp_f_12.912600750701248,1834,2739231,2741064
GCF_013836745.1_ASM1383674v1,GCF_013836745.1_ASM1383674v1_bin_1,NZ_CP058613.1,S58_LN_i_1834_dp_f_12.912600750701248,1834,2134866,2136699
GCF_018093225.1_ASM1809322v1,GCF_018093225.1_ASM1809322v1_bin_1,NZ_CP071104.1,S64_LN_i_1535_dp_f_2.100299889525606,1534,9342,10877
GCF_018093225.1_ASM1809322v1,GCF_018093225.1_ASM1809322v1_bin_1,NZ_CP071104.1,S64_LN_i_1535_dp_f_2.100299889525606,1534,1534130,1535665
GCF_018093225.1_ASM1809322v1,GCF_018093225.1_ASM1809322v1_bin_1,NZ_CP071104.1,S64_LN_i_1535_dp_f_2.100299889525606,1535,2087763,2089297
GCF_013836525.1_ASM1383652v1,GCF_013836525.1_ASM1383652v1_bin_1,NZ_CP058615.1,S46_LN_i_2375_dp_f_0.465839183545581,2375,2784194,2786568
GCF_013836525.1_ASM1383652v1,GCF_013836525.1_ASM1383652v1_bin_1,NZ_CP058615.1,S46_LN_i_2375_dp_f_0.465839183545581,2375,1026026,1028400
GCF_022406035.1_ASM2240603v1,GCF_022406035.1_ASM2240603v1_bin_1,NZ_CP062415.1,S44_LN_i_1377_dp_f_9.62214447242415,1377,999733,1001109
GCF_022406035.1_ASM2240603v1,GCF_022406035.1_ASM2240603v1_bin_1,NZ_CP062415.1,S44_LN_i_1377_dp_f_9.62214447242415,1377,30657,32033
GCF_022406035.1_ASM2240603v1,GCF_022406035.1_ASM2240603v1_bin_1,NZ_CP062415.1,S44_LN_i_1377_dp_f_9.62214447242415,1377,2735043,2736419
GCF_022406035.1_ASM2240603v1,GCF_022406035.1_ASM2240603v1_bin_1,NZ_CP062415.1,S44_LN_i_1377_dp_f_9.62214447242415,1377,1445306,1446682
GCF_022406035.1_ASM2240603v1,GCF_022406035.1_ASM2240603v1_bin_1,NZ_CP062415.1,S44_LN_i_1377_dp_f_9.62214447242415,1377,1454221,1455597
GCF_022406035.1_ASM2240603v1,GCF_022406035.1_ASM2240603v1_bin_1,NZ_CP062415.1,S44_LN_i_1377_dp_f_9.62214447242415,1377,1023897,1025273
GCF_022406035.1_ASM2240603v1,GCF_022406035.1_ASM2240603v1_bin_1,NZ_CP062415.1,S44_LN_i_1377_dp_f_9.62214447242415,1377,13078,14454
GCF_022406035.1_ASM2240603v1,GCF_022406035.1_ASM2240603v1_bin_1,NZ_CP062415.1,S44_LN_i_1377_dp_f_9.62214447242415,1377,2496899,2498275
GCF_022406035.1_ASM2240603v1,GCF_022406035.1_ASM2240603v1_bin_1,NZ_CP062415.1,S44_LN_i_1377_dp_f_9.62214447242415,1377,754755,756131
GCF_022406035.1_ASM2240603v1,GCF_022406035.1_ASM2240603v1_bin_1,NZ_CP062415.1,S44_LN_i_1377_dp_f_9.62214447242415,1377,1428375,1429751
GCF_022406035.1_ASM2240603v1,GCF_022406035.1_ASM2240603v1_bin_1,NZ_CP062415.1,S44_LN_i_1377_dp_f_9.62214447242415,1377,1210592,1211968
