GCF_023375245.1,bin_component_0,NZ_CP088199.1,NODE_1_length_46482_cov_64.126021_component_0,46482,1.0
GCF_023375245.1,bin_component_0,NZ_CP088199.1,NODE_2_length_7705_cov_63.244101_component_0,7705,1.0
GCF_023375245.1,bin_component_0,NZ_CP088199.1,NODE_3_length_4061_cov_59.632530_component_0,4061,1.0
GCF_030020725.1,bin_component_1,NZ_CP124920.1,NODE_4_length_22200_cov_93.940379_component_1,22200,1.0
GCF_030020725.1,bin_component_1,NZ_CP124920.1,NODE_5_length_18194_cov_102.317657_component_1,18194,1.0
GCF_030020725.1,bin_component_1,NZ_CP124920.1,NODE_11_length_1241_cov_165.835911_component_1,1241,1.0
GCF_030020725.1,bin_component_1,NZ_CP124920.1,NODE_11_length_1241_cov_165.835911_component_1,1241,1.0
GCF_030020725.1,bin_component_0,NZ_CP124918.1,NODE_1_length_269752_cov_78.133131_component_0,269752,1.0
GCF_030020725.1,bin_component_0,NZ_CP124918.1,NODE_2_length_141012_cov_74.925973_component_0,141012,1.0
GCF_030020725.1,bin_component_0,NZ_CP124918.1,NODE_3_length_27265_cov_77.185339_component_0,27265,1.0
GCF_030020725.1,bin_component_0,NZ_CP124918.1,NODE_6_length_12496_cov_81.315967_component_0,12496,1.0
GCF_030020725.1,bin_component_0,NZ_CP124918.1,NODE_7_length_11479_cov_78.364234_component_0,11479,1.0
GCF_030020725.1,bin_component_0,NZ_CP124918.1,NODE_8_length_3686_cov_76.094763_component_0,3686,1.0
GCF_030020725.1,bin_component_0,NZ_CP124918.1,NODE_9_length_3283_cov_273.771990_component_0,3283,1.0
GCF_030020725.1,bin_component_0,NZ_CP124918.1,NODE_9_length_3283_cov_273.771990_component_0,3283,1.0
GCF_030020725.1,bin_component_0,NZ_CP124918.1,NODE_9_length_3283_cov_273.771990_component_0,3283,1.0
GCF_030020725.1,bin_component_0,NZ_CP124918.1,NODE_9_length_3283_cov_273.771990_component_0,3283,1.0
GCF_030020725.1,bin_component_0,NZ_CP124918.1,NODE_10_length_2110_cov_268.166749_component_0,2110,1.0
GCF_030020725.1,bin_component_0,NZ_CP124918.1,NODE_10_length_2110_cov_268.166749_component_0,2110,1.0
GCF_030020725.1,bin_component_0,NZ_CP124918.1,NODE_12_length_1113_cov_81.580116_component_0,1113,1.0
GCF_028335305.1,bin_component_0,NZ_CP116570.1,NODE_1_length_78762_cov_65.004639_component_0,78762,1.0
GCF_023300165.1,bin_component_0,NZ_CP097060.1,NODE_1_length_43959_cov_66.100041_component_0,43959,1.0
GCF_023300165.1,bin_component_0,NZ_CP097060.1,NODE_2_length_9273_cov_70.196607_component_0,9273,1.0
GCF_023300165.1,bin_component_0,NZ_CP097059.1,NODE_3_length_8869_cov_61.703594_component_0,8869,0.3,1,2621
GCF_023300165.1,bin_component_0,NZ_CP097060.1,NODE_3_length_8869_cov_61.703594_component_0,8869,0.7,2622,8869
GCF_023300165.1,bin_component_0,NZ_CP097060.1,NODE_4_length_7102_cov_110.506050_component_0,7102,1.0
GCF_023300165.1,bin_component_0,NZ_CP097059.1,NODE_5_length_3958_cov_762.283947_component_0,3958,0.98
GCF_028335665.1,bin_component_0,NZ_CP116554.1,NODE_1_length_45750_cov_104.349900_component_0,45750,1.0
GCF_028335665.1,bin_component_0,NZ_CP116554.1,NODE_2_length_7705_cov_106.744625_component_0,7705,1.0
GCF_028335665.1,bin_component_0,NZ_CP116554.1,NODE_3_length_4061_cov_104.114709_component_0,4061,1.0
GCF_013344665.1,bin_component_0,NZ_CP046113.1,NODE_1_length_261447_cov_209.286258_component_0,261447,1.0
GCF_013344665.1,bin_component_0,NZ_CP046113.1,NODE_2_length_187300_cov_224.579581_component_0,187300,1.0
GCF_013344665.1,bin_component_0,NZ_CP046113.1,NODE_3_length_1812_cov_923.318694_component_0,1812,1.0
GCF_013344665.1,bin_component_0,NZ_CP046113.1,NODE_3_length_1812_cov_923.318694_component_0,1812,1.0
GCF_013344665.1,bin_component_0,NZ_CP046113.1,NODE_3_length_1812_cov_923.318694_component_0,1812,1.0
GCF_013344665.1,bin_component_0,NZ_CP046113.1,NODE_3_length_1812_cov_923.318694_component_0,1812,1.0
GCF_030020195.1,bin_component_1,NZ_CP124886.1,NODE_2_length_15354_cov_195.003499_component_1,15354,1.0
GCF_030020195.1,bin_component_1,NZ_CP124886.1,NODE_4_length_7490_cov_395.846081_component_1,7490,1.0
GCF_030020195.1,bin_component_1,NZ_CP124886.1,NODE_6_length_3571_cov_220.774184_component_1,3571,1.0
GCF_030020195.1,bin_component_1,NZ_CP124886.1,NODE_7_length_3283_cov_631.539925_component_1,3283,1.0
GCF_030020195.1,bin_component_1,NZ_CP124886.1,NODE_7_length_3283_cov_631.539925_component_1,3283,1.0
GCF_030020195.1,bin_component_1,NZ_CP124886.1,NODE_7_length_3283_cov_631.539925_component_1,3283,1.0
GCF_030020195.1,bin_component_1,NZ_CP124886.1,NODE_7_length_3283_cov_631.539925_component_1,3283,1.0
GCF_030020195.1,bin_component_1,NZ_CP124886.1,NODE_9_length_2530_cov_151.593967_component_1,2530,0.92
GCF_030020195.1,bin_component_1,NZ_CP124886.1,NODE_10_length_1999_cov_559.015609_component_1,1999,1.0
GCF_030020195.1,bin_component_1,NZ_CP124886.1,NODE_10_length_1999_cov_559.015609_component_1,1999,1.0
GCF_030020195.1,bin_component_1,NZ_CP124886.1,NODE_11_length_1027_cov_125.322105_component_1,1027,0.75
GCF_030020195.1,bin_component_0,NZ_CP124886.1,NODE_1_length_83904_cov_194.564126_component_0,83904,1.0
GCF_030020195.1,bin_component_2,NZ_CP124886.1,NODE_3_length_9233_cov_200.200524_component_2,9233,1.0
GCF_030020195.1,bin_component_2,NZ_CP124886.1,NODE_5_length_4466_cov_210.522442_component_2,4466,1.0
GCF_030020195.1,bin_component_2,NZ_CP124886.1,NODE_8_length_2804_cov_267.927393_component_2,2804,1.0
GCF_023299605.1,bin_component_0,NZ_CP097021.1,NODE_1_length_51746_cov_88.968279_component_0,51746,1.0
GCF_023299605.1,bin_component_0,NZ_CP097021.1,NODE_2_length_5223_cov_88.584920_component_0,5223,1.0
GCF_023299605.1,bin_component_0,NZ_CP097021.1,NODE_3_length_2632_cov_84.325245_component_0,2632,1.0
GCF_030020215.1,bin_component_0,NZ_CP124889.1,NODE_1_length_133884_cov_110.143236_component_0,133884,0.96
GCF_030020215.1,bin_component_0,NZ_CP124889.1,NODE_2_length_77395_cov_98.460734_component_0,77395,1.0
GCF_030020215.1,bin_component_0,NZ_CP124889.1,NODE_3_length_23849_cov_169.778353_component_0,23849,0.04
GCF_030020215.1,bin_component_0,NZ_CP124889.1,NODE_4_length_21491_cov_99.439946_component_0,21491,1.0
GCF_030020215.1,bin_component_0,NZ_CP124889.1,NODE_5_length_3283_cov_322.437929_component_0,3283,1.0
GCF_030020215.1,bin_component_0,NZ_CP124889.1,NODE_5_length_3283_cov_322.437929_component_0,3283,1.0
GCF_030020215.1,bin_component_0,NZ_CP124889.1,NODE_5_length_3283_cov_322.437929_component_0,3283,1.0
GCF_030020215.1,bin_component_0,NZ_CP124889.1,NODE_5_length_3283_cov_322.437929_component_0,3283,1.0
GCF_030020215.1,bin_component_0,NZ_CP124889.1,NODE_6_length_1887_cov_177.043094_component_0,1887,0.72
GCF_030020215.1,bin_component_0,NZ_CP124889.1,NODE_8_length_1061_cov_62.383130_component_0,1061,1.0
GCF_030020575.1,bin_component_1,NZ_CP124911.1,NODE_1_length_13797_cov_398.467128_component_1,13797,1.0
GCF_030020575.1,bin_component_0,NZ_CP124911.1,NODE_2_length_12604_cov_378.106171_component_0,12604,1.0
GCF_030020575.1,bin_component_0,NZ_CP124911.1,NODE_3_length_3283_cov_1491.248596_component_0,3283,1.0
GCF_030020575.1,bin_component_0,NZ_CP124911.1,NODE_3_length_3283_cov_1491.248596_component_0,3283,1.0
GCF_030020575.1,bin_component_0,NZ_CP124911.1,NODE_3_length_3283_cov_1491.248596_component_0,3283,1.0
GCF_030020575.1,bin_component_0,NZ_CP124911.1,NODE_3_length_3283_cov_1491.248596_component_0,3283,1.0
GCF_030020575.1,bin_component_0,NZ_CP124911.1,NODE_4_length_2191_cov_1380.719016_component_0,2191,1.0
GCF_030020575.1,bin_component_0,NZ_CP124911.1,NODE_4_length_2191_cov_1380.719016_component_0,2191,1.0
GCF_030020575.1,bin_component_0,NZ_CP124911.1,NODE_5_length_1878_cov_428.328706_component_0,1878,0.95
GCF_020844125.1,bin_component_0,NZ_CP063981.1,NODE_1_length_51683_cov_44.098805_component_0,51683,1.0
GCF_020844125.1,bin_component_0,NZ_CP063981.1,NODE_2_length_10883_cov_95.871792_component_0,10883,0.92,1,10028
GCF_020844125.1,bin_component_0,NZ_CP063980.1,NODE_2_length_10883_cov_95.871792_component_0,10883,0.08,10029,10883
GCF_030020705.1,bin_component_0,NZ_CP124924.1,NODE_1_length_49466_cov_66.538986_component_0,49466,1.0
GCF_030020705.1,bin_component_0,NZ_CP124924.1,NODE_2_length_4121_cov_67.477003_component_0,4121,1.0
GCF_013344605.1,bin_component_1,NZ_CP046108.1,NODE_1_length_150704_cov_419.999090_component_1,150704,1.0
GCF_013344605.1,bin_component_0,NZ_CP046109.1,NODE_2_length_64325_cov_1050.976728_component_0,64325,1.0
GCF_013344605.1,bin_component_0,NZ_CP046108.1,NODE_3_length_60165_cov_445.632982_component_0,60165,1.0
GCF_013344605.1,bin_component_0,NZ_CP046110.1,NODE_4_length_25227_cov_933.711833_component_0,25227,1.0
GCF_013344605.1,bin_component_0,NZ_CP046108.1,NODE_5_length_21762_cov_390.783961_component_0,21762,1.0
GCF_013344605.1,bin_component_0,NZ_CP046110.1,NODE_6_length_19414_cov_865.266864_component_0,19414,1.0
GCF_013344605.1,bin_component_0,NZ_CP046109.1,NODE_8_length_5882_cov_1671.972546_component_0,5882,1.0
GCF_013344605.1,bin_component_0,NZ_CP046110.1,NODE_8_length_5882_cov_1671.972546_component_0,5882,1.0
GCF_013344605.1,bin_component_0,NZ_CP046108.1,NODE_8_length_5882_cov_1671.972546_component_0,5882,1.0
GCF_013344605.1,bin_component_0,NZ_CP046109.1,NODE_9_length_2251_cov_1997.527778_component_0,2251,1.0
GCF_013344605.1,bin_component_0,NZ_CP046110.1,NODE_9_length_2251_cov_1997.527778_component_0,2251,1.0
GCF_013344605.1,bin_component_0,NZ_CP046108.1,NODE_10_length_1784_cov_199.377188_component_0,1784,1.0
GCF_013344605.1,bin_component_2,NZ_CP046108.1,NODE_7_length_13340_cov_393.170438_component_2,13340,1.0
GCF_906464915.2,bin_component_1,NZ_OU538997.1,NODE_3_length_27875_cov_47.687136_component_1,27875,1.0
GCF_906464915.2,bin_component_1,NZ_OU538997.1,NODE_4_length_27556_cov_16.492012_component_1,27556,1.0
GCF_906464915.2,bin_component_1,NZ_OU538997.1,NODE_6_length_15353_cov_18.029942_component_1,15353,1.0
GCF_906464915.2,bin_component_1,NZ_OU538997.1,NODE_7_length_6497_cov_15.867601_component_1,6497,0.99
GCF_906464915.2,bin_component_3,NZ_OD940440.2,NODE_5_length_15855_cov_89.804728_component_3,15855,1.0
GCF_906464915.2,bin_component_0,NZ_OD940440.2,NODE_1_length_73534_cov_85.417823_component_0,73534,1.0
GCF_906464915.2,bin_component_0,NZ_OD940440.2,NODE_8_length_3283_cov_368.412352_component_0,3283,1.0
GCF_906464915.2,bin_component_0,NZ_OD940440.2,NODE_8_length_3283_cov_368.412352_component_0,3283,1.0
GCF_906464915.2,bin_component_0,NZ_OD940440.2,NODE_8_length_3283_cov_368.412352_component_0,3283,1.0
GCF_906464915.2,bin_component_0,NZ_OD940440.2,NODE_8_length_3283_cov_368.412352_component_0,3283,1.0
GCF_906464915.2,bin_component_0,NZ_OD940440.2,NODE_9_length_2190_cov_355.398959_component_0,2190,1.0
GCF_906464915.2,bin_component_0,NZ_OD940440.2,NODE_9_length_2190_cov_355.398959_component_0,2190,1.0
GCF_906464915.2,bin_component_2,NZ_OD940440.2,NODE_2_length_72680_cov_84.004958_component_2,72680,1.0
GCF_023299525.1,bin_component_0,NZ_CP097003.1,NODE_1_length_42386_cov_86.094011_component_0,42386,1.0
GCF_023299525.1,bin_component_0,NZ_CP097003.1,NODE_2_length_28949_cov_85.350479_component_0,28949,1.0
GCF_030020515.1,bin_component_1,NZ_CP124900.1,NODE_2_length_14127_cov_347.539573_component_1,14127,1.0
GCF_030020515.1,bin_component_0,NZ_CP124900.1,NODE_1_length_16267_cov_459.823039_component_0,16267,1.0
GCF_030020515.1,bin_component_2,NZ_CP124900.1,NODE_3_length_3963_cov_331.318580_component_2,3963,1.0
GCF_030020515.1,bin_component_2,NZ_CP124900.1,NODE_4_length_3283_cov_1372.091391_component_2,3283,1.0
GCF_030020515.1,bin_component_2,NZ_CP124900.1,NODE_4_length_3283_cov_1372.091391_component_2,3283,1.0
GCF_030020515.1,bin_component_2,NZ_CP124900.1,NODE_4_length_3283_cov_1372.091391_component_2,3283,1.0
GCF_030020515.1,bin_component_2,NZ_CP124900.1,NODE_4_length_3283_cov_1372.091391_component_2,3283,1.0
GCF_030020515.1,bin_component_2,NZ_CP124900.1,NODE_5_length_2191_cov_1277.931410_component_2,2191,1.0
GCF_030020515.1,bin_component_2,NZ_CP124900.1,NODE_6_length_1879_cov_379.679245_component_2,1879,0.95
GCF_030020255.1,bin_component_1,NZ_CP124891.1,NODE_3_length_36008_cov_294.566948_component_1,36008,1.0
GCF_030020255.1,bin_component_1,NZ_CP124891.1,NODE_4_length_30744_cov_337.150585_component_1,30744,1.0
GCF_030020255.1,bin_component_1,NZ_CP124891.1,NODE_5_length_3986_cov_273.039140_component_1,3986,1.0
GCF_030020255.1,bin_component_1,NZ_CP124891.1,NODE_6_length_3283_cov_1105.334685_component_1,3283,1.0
GCF_030020255.1,bin_component_1,NZ_CP124891.1,NODE_6_length_3283_cov_1105.334685_component_1,3283,1.0
GCF_030020255.1,bin_component_1,NZ_CP124891.1,NODE_6_length_3283_cov_1105.334685_component_1,3283,1.0
GCF_030020255.1,bin_component_1,NZ_CP124891.1,NODE_6_length_3283_cov_1105.334685_component_1,3283,1.0
GCF_030020255.1,bin_component_1,NZ_CP124891.1,NODE_7_length_1878_cov_311.097168_component_1,1878,0.95
GCF_030020255.1,bin_component_0,NZ_CP124892.1,NODE_1_length_45429_cov_419.049877_component_0,45429,1.0
GCF_030020255.1,bin_component_0,NZ_CP124892.1,NODE_2_length_40420_cov_388.151749_component_0,40420,1.0
GCF_023375465.1,bin_component_1,NZ_CP091230.1,NODE_8_length_3239_cov_1659.570209_component_1,3239,1.0
GCF_023375465.1,bin_component_0,NZ_CP091228.1,NODE_1_length_31822_cov_81.748905_component_0,31822,1.0
GCF_023375465.1,bin_component_0,NZ_CP091228.1,NODE_2_length_23015_cov_79.242567_component_0,23015,1.0
GCF_023375465.1,bin_component_0,NZ_CP091228.1,NODE_3_length_21001_cov_80.724240_component_0,21001,1.0
GCF_023375465.1,bin_component_0,NZ_CP091228.1,NODE_4_length_15320_cov_85.850423_component_0,15320,1.0
GCF_023375465.1,bin_component_0,NZ_CP091229.1,NODE_5_length_12885_cov_50.366880_component_0,12885,1.0
GCF_023375465.1,bin_component_0,NZ_CP091229.1,NODE_6_length_11128_cov_51.057642_component_0,11128,1.0
GCF_023375465.1,bin_component_0,NZ_CP091228.1,NODE_7_length_4473_cov_87.053913_component_0,4473,1.0
GCF_023375465.1,bin_component_0,NZ_CP091228.1,NODE_9_length_1181_cov_253.850543_component_0,1181,1.0
GCF_023375465.1,bin_component_0,NZ_CP091228.1,NODE_9_length_1181_cov_253.850543_component_0,1181,1.0
GCF_023375465.1,bin_component_0,NZ_CP091228.1,NODE_9_length_1181_cov_253.850543_component_0,1181,1.0
GCF_028335345.1,bin_component_1,NZ_CP116573.1,NODE_2_length_39774_cov_135.717057_component_1,39774,1.0
GCF_028335345.1,bin_component_0,NZ_CP116572.1,NODE_1_length_52860_cov_128.238694_component_0,52860,1.0
GCF_028335345.1,bin_component_0,NZ_CP116572.1,NODE_3_length_10021_cov_132.774638_component_0,10021,1.0
GCF_028335345.1,bin_component_0,NZ_CP116571.1,NODE_4_length_1711_cov_404.149327_component_0,1711,0.99
GCF_030020475.1,bin_component_1,NZ_CP124897.1,NODE_5_length_5198_cov_3610.535442_component_1,5198,1.0
GCF_030020475.1,bin_component_0,NZ_CP124896.1,NODE_1_length_35977_cov_417.936379_component_0,35977,1.0
GCF_030020475.1,bin_component_0,NZ_CP124895.1,NODE_2_length_26423_cov_430.237683_component_0,26423,1.0
GCF_030020475.1,bin_component_0,NZ_CP124895.1,NODE_3_length_25189_cov_413.730846_component_0,25189,1.0
GCF_030020475.1,bin_component_0,NZ_CP124895.1,NODE_4_length_14138_cov_403.148780_component_0,14138,1.0
GCF_030020475.1,bin_component_0,NZ_CP124895.1,NODE_6_length_3934_cov_807.072595_component_0,3934,1.0
GCF_030020475.1,bin_component_0,NZ_CP124896.1,NODE_6_length_3934_cov_807.072595_component_0,3934,1.0
GCF_030020475.1,bin_component_0,NZ_CP124895.1,NODE_7_length_1197_cov_807.471429_component_0,1197,1.0
GCF_030020475.1,bin_component_0,NZ_CP124896.1,NODE_7_length_1197_cov_807.471429_component_0,1197,1.0
GCF_030020475.1,bin_component_0,NZ_CP124894.1,NODE_8_length_1140_cov_420.920978_component_0,1140,0.81
GCF_023299585.1,bin_component_0,NZ_CP097070.1,NODE_1_length_70510_cov_77.181307_component_0,70510,1.0
GCF_023299585.1,bin_component_0,NZ_CP097071.1,NODE_2_length_43583_cov_72.560957_component_0,43583,1.0
GCF_023299585.1,bin_component_0,NZ_CP097071.1,NODE_3_length_26410_cov_65.316751_component_0,26410,1.0
GCF_023299585.1,bin_component_0,NZ_CP097071.1,NODE_4_length_3265_cov_69.771016_component_0,3265,1.0
GCF_023299585.1,bin_component_0,NZ_CP097070.1,NODE_5_length_3258_cov_61.244263_component_0,3258,1.0
GCF_023299585.1,bin_component_0,NZ_CP097071.1,NODE_6_length_2003_cov_122.949117_component_0,2003,1.0
GCF_023299585.1,bin_component_0,NZ_CP097070.1,NODE_6_length_2003_cov_122.949117_component_0,2003,1.0
GCF_023299585.1,bin_component_0,NZ_CP097070.1,NODE_7_length_1726_cov_60.531231_component_0,1726,1.0
GCF_023299585.1,bin_component_0,NZ_CP097069.1,NODE_8_length_1716_cov_59.349603_component_0,1716,0.89
GCF_023299585.1,bin_component_0,NZ_CP097070.1,NODE_9_length_1094_cov_128.879056_component_0,1094,1.0
GCF_023299585.1,bin_component_0,NZ_CP097069.1,NODE_9_length_1094_cov_128.879056_component_0,1094,1.0
GCF_023299585.1,bin_component_0,NZ_CP097069.1,NODE_9_length_1094_cov_128.879056_component_0,1094,1.0
GCF_023299585.1,bin_component_0,NZ_CP097069.1,NODE_10_length_1052_cov_29.032821_component_0,1052,1.0
GCF_023299545.1,bin_component_1,NZ_CP097057.1,NODE_2_length_39967_cov_48.772148_component_1,39967,1.0
GCF_023299545.1,bin_component_0,NZ_CP097058.1,NODE_1_length_42746_cov_71.452436_component_0,42746,1.0
GCF_023299545.1,bin_component_0,NZ_CP097058.1,NODE_4_length_5223_cov_68.207151_component_0,5223,1.0
GCF_023299545.1,bin_component_0,NZ_CP097057.1,NODE_5_length_3265_cov_45.866060_component_0,3265,1.0
GCF_023299545.1,bin_component_0,NZ_CP097058.1,NODE_6_length_2856_cov_67.019431_component_0,2856,1.0
GCF_023299545.1,bin_component_0,NZ_CP097058.1,NODE_7_length_2632_cov_69.546380_component_0,2632,1.0
GCF_023299545.1,bin_component_0,NZ_CP097058.1,NODE_9_length_2003_cov_109.447560_component_0,2003,1.0
GCF_023299545.1,bin_component_0,NZ_CP097057.1,NODE_9_length_2003_cov_109.447560_component_0,2003,1.0
GCF_023299545.1,bin_component_0,NZ_CP097058.1,NODE_10_length_1726_cov_78.248029_component_0,1726,1.0
GCF_023299545.1,bin_component_0,NZ_CP097058.1,NODE_12_length_1496_cov_200.746300_component_0,1496,1.0
GCF_023299545.1,bin_component_0,NZ_CP097058.1,NODE_12_length_1496_cov_200.746300_component_0,1496,1.0
GCF_023299545.1,bin_component_0,NZ_CP097058.1,NODE_12_length_1496_cov_200.746300_component_0,1496,1.0
GCF_023299545.1,bin_component_0,NZ_CP097057.1,NODE_13_length_1369_cov_64.445046_component_0,1369,1.0
GCF_023299545.1,bin_component_2,NZ_CP097056.1,NODE_3_length_6845_cov_53.122931_component_2,6845,1.0
GCF_023299545.1,bin_component_2,NZ_CP097056.1,NODE_8_length_2427_cov_52.977447_component_2,2427,1.0
GCF_023299545.1,bin_component_2,NZ_CP097056.1,NODE_8_length_2427_cov_52.977447_component_2,2427,1.0
GCF_023299545.1,bin_component_2,NZ_CP097056.1,NODE_11_length_1507_cov_61.469231_component_2,1507,1.0
GCF_023299545.1,bin_component_2,NZ_CP097056.1,NODE_11_length_1507_cov_61.469231_component_2,1507,1.0
GCF_028335445.1,bin_component_0,NZ_CP116560.1,NODE_1_length_46015_cov_66.332644_component_0,46015,1.0
GCF_028335445.1,bin_component_0,NZ_CP116560.1,NODE_2_length_4064_cov_64.252822_component_0,4064,1.0
GCF_028335505.1,bin_component_0,NZ_CP116558.1,NODE_1_length_45749_cov_73.218712_component_0,45749,1.0
GCF_028335505.1,bin_component_0,NZ_CP116558.1,NODE_2_length_7706_cov_74.670861_component_0,7706,1.0
GCF_028335505.1,bin_component_0,NZ_CP116558.1,NODE_3_length_4064_cov_68.717081_component_0,4064,1.0
GCF_013344645.1,bin_component_0,NZ_CP046112.1,NODE_1_length_37335_cov_164.953908_component_0,37335,1.0
GCF_023299465.1,bin_component_0,NZ_CP097007.1,NODE_1_length_45750_cov_72.388041_component_0,45750,1.0
GCF_023299465.1,bin_component_0,NZ_CP097007.1,NODE_2_length_7705_cov_73.320267_component_0,7705,1.0
GCF_023299465.1,bin_component_0,NZ_CP097007.1,NODE_3_length_4061_cov_68.023594_component_0,4061,1.0
GCF_022648425.1,bin_component_0,NZ_CP076494.1,NODE_1_length_39288_cov_158.797582_component_0,39288,1.0
GCF_022648425.1,bin_component_0,NZ_CP076495.1,NODE_2_length_35343_cov_163.396756_component_0,35343,1.0
GCF_022648425.1,bin_component_0,NZ_CP076496.1,NODE_3_length_33391_cov_158.278111_component_0,33391,0.99
GCF_022648425.1,bin_component_0,NZ_CP076494.1,NODE_4_length_19606_cov_188.333658_component_0,19606,1.0
GCF_022648425.1,bin_component_0,NZ_CP076495.1,NODE_5_length_14178_cov_166.936387_component_0,14178,0.99
GCF_022648425.1,bin_component_0,NZ_CP076494.1,NODE_6_length_13089_cov_173.370581_component_0,13089,1.0
GCF_022648425.1,bin_component_0,NZ_CP076494.1,NODE_7_length_10567_cov_190.289990_component_0,10567,1.0
GCF_022648425.1,bin_component_0,NZ_CP076497.1,NODE_8_length_9877_cov_218.029592_component_0,9877,0.99
GCF_022648425.1,bin_component_0,NZ_CP076497.1,NODE_9_length_7007_cov_197.074747_component_0,7007,1.0
GCF_022648425.1,bin_component_0,NZ_CP076497.1,NODE_10_length_5658_cov_195.684465_component_0,5658,1.0
GCF_022648425.1,bin_component_0,NZ_CP076494.1,NODE_11_length_5183_cov_171.300431_component_0,5183,1.0
GCF_022648425.1,bin_component_0,NZ_CP076494.1,NODE_12_length_4746_cov_185.562861_component_0,4746,1.0
GCF_022648425.1,bin_component_0,NZ_CP076494.1,NODE_13_length_4549_cov_171.112701_component_0,4549,0.98
GCF_022648425.1,bin_component_0,NZ_CP076494.1,NODE_14_length_3945_cov_373.202947_component_0,3945,1.0
GCF_022648425.1,bin_component_0,NZ_CP076497.1,NODE_14_length_3945_cov_373.202947_component_0,3945,1.0
GCF_022648425.1,bin_component_0,NZ_CP076494.1,NODE_15_length_3131_cov_356.889325_component_0,3131,1.0
GCF_022648425.1,bin_component_0,NZ_CP076494.1,NODE_15_length_3131_cov_356.889325_component_0,3131,1.0
GCF_022648425.1,bin_component_0,NZ_CP076497.1,NODE_16_length_2977_cov_191.216897_component_0,2977,1.0
GCF_022648425.1,bin_component_0,NZ_CP076496.1,NODE_17_length_2444_cov_278.630756_component_0,2444,1.0
GCF_022648425.1,bin_component_0,NZ_CP076493.1,NODE_17_length_2444_cov_278.630756_component_0,2444,1.0
GCF_022648425.1,bin_component_0,NZ_CP076494.1,NODE_18_length_2342_cov_323.434437_component_0,2342,1.0
GCF_022648425.1,bin_component_0,NZ_CP076495.1,NODE_18_length_2342_cov_323.434437_component_0,2342,1.0
GCF_022648425.1,bin_component_0,NZ_CP076496.1,NODE_19_length_2335_cov_275.871125_component_0,2335,1.0
GCF_022648425.1,bin_component_0,NZ_CP076493.1,NODE_19_length_2335_cov_275.871125_component_0,2335,1.0
GCF_022648425.1,bin_component_0,NZ_CP076494.1,NODE_20_length_1891_cov_143.532525_component_0,1891,1.0
GCF_022648425.1,bin_component_0,NZ_CP076496.1,NODE_21_length_1605_cov_213.698298_component_0,1605,1.0
GCF_022648425.1,bin_component_0,NZ_CP076496.1,NODE_22_length_1574_cov_258.469606_component_0,1574,1.0
GCF_022648425.1,bin_component_0,NZ_CP076496.1,NODE_23_length_1426_cov_277.930319_component_0,1426,1.0
GCF_022648425.1,bin_component_0,NZ_CP076493.1,NODE_23_length_1426_cov_277.930319_component_0,1426,1.0
GCF_022648425.1,bin_component_0,NZ_CP076497.1,NODE_24_length_1381_cov_193.629601_component_0,1381,1.0
GCF_022648425.1,bin_component_0,NZ_CP076494.1,NODE_25_length_1317_cov_201.132258_component_0,1317,1.0
GCF_022648425.1,bin_component_0,NZ_CP076496.1,NODE_26_length_1296_cov_164.803938_component_0,1296,1.0
GCF_022648425.1,bin_component_0,NZ_CP076493.1,NODE_27_length_1244_cov_896.502142_component_0,1244,1.0
GCF_022648425.1,bin_component_0,NZ_CP076497.1,NODE_27_length_1244_cov_896.502142_component_0,1244,1.0
GCF_022648425.1,bin_component_0,NZ_CP076493.1,NODE_27_length_1244_cov_896.502142_component_0,1244,1.0
GCF_022648425.1,bin_component_0,NZ_CP076493.1,NODE_27_length_1244_cov_896.502142_component_0,1244,1.0
GCF_022648425.1,bin_component_0,NZ_CP076493.1,NODE_27_length_1244_cov_896.502142_component_0,1244,1.0
GCF_022648425.1,bin_component_0,NZ_CP076494.1,NODE_27_length_1244_cov_896.502142_component_0,1244,1.0
GCF_022648425.1,bin_component_0,NZ_CP076493.1,NODE_27_length_1244_cov_896.502142_component_0,1244,1.0
GCF_022648425.1,bin_component_0,NZ_CP076495.1,NODE_28_length_1190_cov_154.318958_component_0,1190,1.0
GCF_022648425.1,bin_component_0,NZ_CP076496.1,NODE_29_length_1144_cov_159.843486_component_0,1144,1.0
GCF_022648425.1,bin_component_0,NZ_CP076494.1,NODE_30_length_1036_cov_339.866528_component_0,1036,1.0
GCF_022648425.1,bin_component_0,NZ_CP076495.1,NODE_30_length_1036_cov_339.866528_component_0,1036,1.0
GCF_023299485.1,bin_component_0,NZ_CP097005.1,NODE_1_length_3810_cov_691.722207_component_0,3810,1.0
GCF_023375265.1,bin_component_0,NZ_CP088202.1,NODE_1_length_19364_cov_78.571214_component_0,19364,1.0
GCF_023375265.1,bin_component_0,NZ_CP088202.1,NODE_2_length_9197_cov_83.134978_component_0,9197,1.0
GCF_023375265.1,bin_component_0,NZ_CP088202.1,NODE_3_length_2785_cov_84.150665_component_0,2785,1.0
GCF_023375265.1,bin_component_0,NZ_CP088201.1,NODE_4_length_2519_cov_57.158067_component_0,2519,1.0
GCF_023375265.1,bin_component_0,NZ_CP088201.1,NODE_5_length_2374_cov_117.829778_component_0,2374,1.0
GCF_023375265.1,bin_component_0,NZ_CP088201.1,NODE_6_length_2096_cov_122.520059_component_0,2096,1.0
GCF_023375265.1,bin_component_0,NZ_CP088201.1,NODE_7_length_1834_cov_50.754126_component_0,1834,1.0
GCF_028335425.1,bin_component_0,NZ_CP116556.1,NODE_1_length_46070_cov_109.640554_component_0,46070,1.0
GCF_028335425.1,bin_component_0,NZ_CP116556.1,NODE_2_length_7705_cov_112.523335_component_0,7705,1.0
GCF_028335425.1,bin_component_0,NZ_CP116556.1,NODE_3_length_4064_cov_102.401304_component_0,4064,1.0
GCF_023299705.1,bin_component_0,NZ_CP097043.1,NODE_1_length_35002_cov_46.398740_component_0,35002,1.0
GCF_023299705.1,bin_component_0,NZ_CP097043.1,NODE_2_length_4064_cov_43.811387_component_0,4064,1.0
GCF_030020495.1,bin_component_0,NZ_CP124899.1,NODE_1_length_68846_cov_365.763789_component_0,68846,1.0
GCF_030020495.1,bin_component_0,NZ_CP124898.1,NODE_2_length_2168_cov_253.481110_component_0,2168,1.0
GCF_023299505.1,bin_component_1,NZ_CP097034.1,NODE_1_length_42305_cov_96.971678_component_1,42305,1.0
GCF_023299505.1,bin_component_0,NZ_CP097035.1,NODE_2_length_34129_cov_79.982674_component_0,34129,1.0
GCF_023299505.1,bin_component_0,NZ_CP097036.1,NODE_3_length_31668_cov_144.151119_component_0,31668,1.0
GCF_023299505.1,bin_component_0,NZ_CP097035.1,NODE_4_length_21116_cov_83.130662_component_0,21116,1.0
GCF_023299505.1,bin_component_0,NZ_CP097035.1,NODE_5_length_17208_cov_83.205008_component_0,17208,1.0
GCF_023299505.1,bin_component_0,NZ_CP097036.1,NODE_6_length_16294_cov_150.356909_component_0,16294,1.0
GCF_023299505.1,bin_component_0,NZ_CP097035.1,NODE_7_length_13720_cov_78.595910_component_0,13720,1.0
GCF_023299505.1,bin_component_0,NZ_CP097037.1,NODE_8_length_7133_cov_228.664257_component_0,7133,1.0
GCF_023299505.1,bin_component_0,NZ_CP097037.1,NODE_9_length_5871_cov_219.979979_component_0,5871,1.0
GCF_023299505.1,bin_component_0,NZ_CP097036.1,NODE_10_length_5496_cov_142.313157_component_0,5496,1.0
GCF_023299505.1,bin_component_0,NZ_CP097037.1,NODE_11_length_5190_cov_215.346763_component_0,5190,1.0
GCF_023299505.1,bin_component_0,NZ_CP097037.1,NODE_12_length_5088_cov_225.545600_component_0,5088,1.0
GCF_023299505.1,bin_component_0,NZ_CP097035.1,NODE_13_length_3151_cov_91.089785_component_0,3151,1.0
GCF_023299505.1,bin_component_0,NZ_CP097037.1,NODE_14_length_2837_cov_217.038043_component_0,2837,1.0
GCF_023299505.1,bin_component_0,NZ_CP097036.1,NODE_15_length_2595_cov_159.362589_component_0,2595,1.0
GCF_023299505.1,bin_component_0,NZ_CP097034.1,NODE_16_length_2132_cov_47.930900_component_0,2132,1.0
GCF_023299505.1,bin_component_0,NZ_CP097034.1,NODE_17_length_1600_cov_80.938280_component_0,1600,0.96
GCF_023299505.1,bin_component_0,NZ_CP097035.1,NODE_18_length_1417_cov_151.866418_component_0,1417,1.0
GCF_023299505.1,bin_component_0,NZ_CP097037.1,NODE_19_length_1339_cov_235.381141_component_0,1339,1.0
GCF_023299505.1,bin_component_0,NZ_CP097034.1,NODE_20_length_1175_cov_84.483607_component_0,1175,1.0
GCF_023299505.1,bin_component_0,NZ_CP097034.1,NODE_20_length_1175_cov_84.483607_component_0,1175,1.0
GCF_906464895.1,bin_component_1,NZ_OD940422.1,NODE_2_length_73532_cov_109.247104_component_1,73532,1.0
GCF_906464895.1,bin_component_0,NZ_OD940422.1,NODE_1_length_84206_cov_99.144599_component_0,84206,1.0
GCF_906464895.1,bin_component_0,NZ_OD940422.1,NODE_3_length_37142_cov_118.973641_component_0,37142,1.0
GCF_906464895.1,bin_component_0,NZ_OD940422.1,NODE_6_length_7379_cov_49.009313_component_0,7379,1.0
GCF_906464895.1,bin_component_0,NZ_OD940422.1,NODE_7_length_7335_cov_44.534996_component_0,7335,1.0
GCF_906464895.1,bin_component_0,NZ_OD940422.1,NODE_11_length_3283_cov_503.514036_component_0,3283,1.0
GCF_906464895.1,bin_component_0,NZ_OD940422.1,NODE_11_length_3283_cov_503.514036_component_0,3283,1.0
GCF_906464895.1,bin_component_0,NZ_OD940422.1,NODE_11_length_3283_cov_503.514036_component_0,3283,1.0
GCF_906464895.1,bin_component_0,NZ_OD940422.1,NODE_11_length_3283_cov_503.514036_component_0,3283,1.0
GCF_906464895.1,bin_component_0,NZ_OD940422.1,NODE_12_length_2489_cov_129.030680_component_0,2489,0.97
GCF_906464895.1,bin_component_0,NZ_OD940422.1,NODE_14_length_1835_cov_500.470990_component_0,1835,1.0
GCF_906464895.1,bin_component_0,NZ_OD940422.1,NODE_14_length_1835_cov_500.470990_component_0,1835,1.0
GCF_906464895.1,bin_component_0,NZ_OD940422.1,NODE_14_length_1835_cov_500.470990_component_0,1835,1.0
GCF_906464895.1,bin_component_0,NZ_OD940422.1,NODE_14_length_1835_cov_500.470990_component_0,1835,1.0
GCF_906464895.1,bin_component_0,NZ_OD940422.1,NODE_16_length_1436_cov_23.924945_component_0,1436,1.0
GCF_906464895.1,bin_component_0,NZ_OD940422.1,NODE_17_length_1338_cov_474.295004_component_0,1338,1.0
GCF_906464895.1,bin_component_0,NZ_OD940422.1,NODE_17_length_1338_cov_474.295004_component_0,1338,1.0
GCF_906464895.1,bin_component_0,NZ_OD940422.1,NODE_17_length_1338_cov_474.295004_component_0,1338,1.0
GCF_906464895.1,bin_component_0,NZ_OD940422.1,NODE_17_length_1338_cov_474.295004_component_0,1338,1.0
GCF_906464895.1,bin_component_0,NZ_OD940422.1,NODE_18_length_1325_cov_1293.812500_component_0,1325,1.0
GCF_906464895.1,bin_component_0,NZ_OD940422.1,NODE_18_length_1325_cov_1293.812500_component_0,1325,1.0
GCF_906464895.1,bin_component_0,NZ_OD940422.1,NODE_18_length_1325_cov_1293.812500_component_0,1325,1.0
GCF_906464895.1,bin_component_0,NZ_OD940422.1,NODE_18_length_1325_cov_1293.812500_component_0,1325,1.0
GCF_906464895.1,bin_component_0,NZ_OD940422.1,NODE_18_length_1325_cov_1293.812500_component_0,1325,1.0
GCF_906464895.1,bin_component_0,NZ_OD940422.1,NODE_18_length_1325_cov_1293.812500_component_0,1325,1.0
GCF_906464895.1,bin_component_0,NZ_OD940422.1,NODE_18_length_1325_cov_1293.812500_component_0,1325,1.0
GCF_906464895.1,bin_component_0,NZ_OD940422.1,NODE_18_length_1325_cov_1293.812500_component_0,1325,1.0
GCF_906464895.1,bin_component_0,NZ_OD940422.1,NODE_18_length_1325_cov_1293.812500_component_0,1325,1.0
GCF_906464895.1,bin_component_0,NZ_OD940422.1,NODE_18_length_1325_cov_1293.812500_component_0,1325,1.0
GCF_906464895.1,bin_component_0,NZ_OD940422.1,NODE_18_length_1325_cov_1293.812500_component_0,1325,1.0
GCF_906464895.1,bin_component_0,NZ_OD940422.1,NODE_18_length_1325_cov_1293.812500_component_0,1325,1.0
GCF_906464895.1,bin_component_0,NZ_OD940422.1,NODE_18_length_1325_cov_1293.812500_component_0,1325,1.0
GCF_906464895.1,bin_component_0,NZ_OD940422.1,NODE_19_length_1215_cov_441.330404_component_0,1215,1.0
GCF_906464895.1,bin_component_2,NZ_OD940422.1,NODE_4_length_12841_cov_105.735193_component_2,12841,1.0
GCF_906464895.1,bin_component_2,NZ_OD940424.1,NODE_5_length_10505_cov_225.095033_component_2,10505,1.0
GCF_906464895.1,bin_component_2,NZ_OD940424.1,NODE_8_length_6457_cov_174.997335_component_2,6457,1.0
GCF_906464895.1,bin_component_2,NZ_OD940424.1,NODE_9_length_4030_cov_161.935492_component_2,4030,1.0
GCF_906464895.1,bin_component_2,NZ_OD940424.1,NODE_10_length_3612_cov_271.814710_component_2,3612,1.0
GCF_906464895.1,bin_component_2,NZ_OD940427.1,NODE_13_length_2109_cov_38.748524_component_2,2109,0.93
GCF_906464875.1,bin_component_1,NZ_OD940438.1,NODE_2_length_55676_cov_105.550549_component_1,55676,1.0
GCF_906464875.1,bin_component_0,NZ_OD940437.1,NODE_1_length_105834_cov_106.095020_component_0,105834,1.0
GCF_906464875.1,bin_component_0,NZ_OD940437.1,NODE_3_length_1910_cov_128.959083_component_0,1910,1.0
GCF_030020535.1,bin_component_1,NZ_CP124902.1,NODE_2_length_78864_cov_193.904388_component_1,78864,1.0
GCF_030020535.1,bin_component_3,NZ_CP124904.1,NODE_7_length_9408_cov_2308.390848_component_3,9408,1.0
GCF_030020535.1,bin_component_0,NZ_CP124901.1,NODE_1_length_227344_cov_254.953847_component_0,227344,1.0
GCF_030020535.1,bin_component_0,NZ_CP124901.1,NODE_3_length_56657_cov_281.042365_component_0,56657,1.0
GCF_030020535.1,bin_component_0,NZ_CP124901.1,NODE_4_length_32064_cov_264.653015_component_0,32064,1.0
GCF_030020535.1,bin_component_0,NZ_CP124901.1,NODE_5_length_29489_cov_263.234734_component_0,29489,1.0
GCF_030020535.1,bin_component_0,NZ_CP124901.1,NODE_8_length_3765_cov_242.183839_component_0,3765,1.0
GCF_030020535.1,bin_component_0,NZ_CP124901.1,NODE_9_length_3283_cov_1011.022458_component_0,3283,1.0
GCF_030020535.1,bin_component_0,NZ_CP124901.1,NODE_9_length_3283_cov_1011.022458_component_0,3283,1.0
GCF_030020535.1,bin_component_0,NZ_CP124901.1,NODE_9_length_3283_cov_1011.022458_component_0,3283,1.0
GCF_030020535.1,bin_component_0,NZ_CP124901.1,NODE_9_length_3283_cov_1011.022458_component_0,3283,1.0
GCF_030020535.1,bin_component_0,NZ_CP124901.1,NODE_10_length_2805_cov_264.891129_component_0,2805,1.0
GCF_030020535.1,bin_component_0,NZ_CP124901.1,NODE_11_length_1879_cov_292.398446_component_0,1879,0.95
GCF_030020535.1,bin_component_0,NZ_CP124901.1,NODE_12_length_1613_cov_956.337240_component_0,1613,1.0
GCF_030020535.1,bin_component_0,NZ_CP124901.1,NODE_12_length_1613_cov_956.337240_component_0,1613,1.0
GCF_030020535.1,bin_component_0,NZ_CP124901.1,NODE_12_length_1613_cov_956.337240_component_0,1613,1.0
GCF_030020535.1,bin_component_0,NZ_CP124901.1,NODE_12_length_1613_cov_956.337240_component_0,1613,1.0
GCF_030020535.1,bin_component_0,NZ_CP124901.1,NODE_13_length_1479_cov_1951.450785_component_0,1479,1.0
GCF_030020535.1,bin_component_2,NZ_CP124903.1,NODE_6_length_13594_cov_8041.930310_component_2,13594,0.98
GCF_028335725.1,bin_component_0,NZ_CP116567.1,NODE_1_length_28266_cov_108.697542_component_0,28266,1.0
GCF_028335725.1,bin_component_0,NZ_CP116567.1,NODE_2_length_13956_cov_81.373226_component_0,13956,1.0
GCF_028335725.1,bin_component_0,NZ_CP116567.1,NODE_3_length_12740_cov_94.198136_component_0,12740,1.0
GCF_028335725.1,bin_component_0,NZ_CP116567.1,NODE_4_length_10612_cov_83.983958_component_0,10612,1.0
GCF_028335725.1,bin_component_0,NZ_CP116567.1,NODE_5_length_3266_cov_81.724992_component_0,3266,1.0
GCF_028335725.1,bin_component_0,NZ_CP116567.1,NODE_6_length_2629_cov_78.884013_component_0,2629,1.0
GCF_021655635.1,bin_component_0,NZ_AP025272.1,NODE_1_length_59538_cov_69.552221_component_0,59538,1.0
GCF_030020175.1,bin_component_0,NZ_CP124885.1,NODE_1_length_65833_cov_505.357260_component_0,65833,1.0
GCF_023299685.1,bin_component_1,NZ_CP097048.1,NODE_1_length_37973_cov_69.114841_component_1,37973,1.0
GCF_023299685.1,bin_component_0,NZ_CP097049.1,NODE_2_length_30355_cov_88.306889_component_0,30355,1.0
GCF_023299685.1,bin_component_0,NZ_CP097050.1,NODE_3_length_24707_cov_120.337231_component_0,24707,1.0
GCF_023299685.1,bin_component_0,NZ_CP097049.1,NODE_4_length_19075_cov_90.757238_component_0,19075,1.0
GCF_023299685.1,bin_component_0,NZ_CP097050.1,NODE_5_length_13381_cov_117.140259_component_0,13381,1.0
GCF_023299685.1,bin_component_0,NZ_CP097049.1,NODE_6_length_3373_cov_95.879854_component_0,3373,1.0
GCF_023299685.1,bin_component_0,NZ_CP097050.1,NODE_7_length_2330_cov_118.949845_component_0,2330,1.0
GCF_023299685.1,bin_component_0,NZ_CP097050.1,NODE_8_length_1847_cov_111.532203_component_0,1847,1.0
GCF_023299685.1,bin_component_0,NZ_CP097049.1,NODE_9_length_1553_cov_89.188347_component_0,1553,1.0
GCF_023375545.1,bin_component_0,NZ_CP091238.1,NODE_1_length_29490_cov_94.558971_component_0,29490,1.0
GCF_023375545.1,bin_component_0,NZ_CP091238.1,NODE_2_length_19540_cov_97.624210_component_0,19540,1.0
GCF_023375545.1,bin_component_0,NZ_CP091238.1,NODE_3_length_16823_cov_95.630240_component_0,16823,1.0
GCF_023375545.1,bin_component_0,NZ_CP091238.1,NODE_4_length_1124_cov_118.976122_component_0,1124,1.0
GCF_023375545.1,bin_component_0,NZ_CP091237.1,NODE_4_length_1124_cov_118.976122_component_0,1124,1.0
GCF_013344625.1,bin_component_0,NZ_CP046111.1,NODE_1_length_37335_cov_405.497447_component_0,37335,1.0
GCF_028335685.1,bin_component_0,NZ_CP116565.1,NODE_1_length_27941_cov_83.424526_component_0,27941,1.0
GCF_028335685.1,bin_component_0,NZ_CP116565.1,NODE_2_length_13876_cov_74.528661_component_0,13876,1.0
GCF_028335685.1,bin_component_0,NZ_CP116565.1,NODE_3_length_12740_cov_92.316276_component_0,12740,1.0
GCF_028335685.1,bin_component_0,NZ_CP116565.1,NODE_4_length_10612_cov_81.067299_component_0,10612,1.0
GCF_028335685.1,bin_component_0,NZ_CP116565.1,NODE_5_length_3266_cov_84.661022_component_0,3266,1.0
GCF_028335685.1,bin_component_0,NZ_CP116565.1,NODE_6_length_2629_cov_73.061520_component_0,2629,1.0
GCF_028335705.1,bin_component_0,NZ_CP116577.1,NODE_1_length_36408_cov_89.804492_component_0,36408,1.0
GCF_028335705.1,bin_component_0,NZ_CP116575.1,NODE_2_length_1322_cov_35.726104_component_0,1322,1.0
GCF_023299225.1,bin_component_1,NZ_CP097068.1,NODE_3_length_2175_cov_1274.100572_component_1,2175,0.96
GCF_023299225.1,bin_component_0,NZ_CP097067.1,NODE_1_length_51830_cov_100.111568_component_0,51830,1.0
GCF_023299225.1,bin_component_0,NZ_CP097067.1,NODE_2_length_4138_cov_94.314947_component_0,4138,1.0
GCF_030020665.1,bin_component_1,NZ_CP124916.1,NODE_2_length_15708_cov_64.863860_component_1,15708,1.0
GCF_030020665.1,bin_component_0,NZ_CP124917.1,NODE_1_length_61019_cov_66.319845_component_0,61019,1.0
GCF_023299625.1,bin_component_1,NZ_CP097038.1,NODE_2_length_42535_cov_45.422582_component_1,42535,1.0
GCF_023299625.1,bin_component_1,NZ_CP097038.1,NODE_3_length_29314_cov_40.962479_component_1,29314,1.0
GCF_023299625.1,bin_component_1,NZ_CP097038.1,NODE_7_length_6120_cov_57.824094_component_1,6120,1.0
GCF_023299625.1,bin_component_1,NZ_CP097038.1,NODE_11_length_3283_cov_148.555833_component_1,3283,1.0
GCF_023299625.1,bin_component_1,NZ_CP097038.1,NODE_11_length_3283_cov_148.555833_component_1,3283,1.0
GCF_023299625.1,bin_component_1,NZ_CP097038.1,NODE_11_length_3283_cov_148.555833_component_1,3283,1.0
GCF_023299625.1,bin_component_1,NZ_CP097038.1,NODE_11_length_3283_cov_148.555833_component_1,3283,1.0
GCF_023299625.1,bin_component_1,NZ_CP097038.1,NODE_17_length_2314_cov_49.575771_component_1,2314,1.0
GCF_023299625.1,bin_component_1,NZ_CP097038.1,NODE_18_length_2191_cov_140.832545_component_1,2191,1.0
GCF_023299625.1,bin_component_1,NZ_CP097038.1,NODE_18_length_2191_cov_140.832545_component_1,2191,1.0
GCF_023299625.1,bin_component_0,NZ_CP097039.1,NODE_1_length_46032_cov_64.911348_component_0,46032,1.0
GCF_023299625.1,bin_component_0,NZ_CP097039.1,NODE_4_length_23810_cov_64.518392_component_0,23810,1.0
GCF_023299625.1,bin_component_0,NZ_CP097040.1,NODE_5_length_9459_cov_221.479322_component_0,9459,1.0
GCF_023299625.1,bin_component_0,NZ_CP097040.1,NODE_6_length_6391_cov_208.750396_component_0,6391,1.0
GCF_023299625.1,bin_component_0,NZ_CP097040.1,NODE_8_length_5585_cov_194.602215_component_0,5585,1.0
GCF_023299625.1,bin_component_0,NZ_CP097040.1,NODE_9_length_4517_cov_218.815090_component_0,4517,1.0
GCF_023299625.1,bin_component_0,NZ_CP097040.1,NODE_10_length_3957_cov_227.508505_component_0,3957,0.98
GCF_023299625.1,bin_component_0,NZ_CP097040.1,NODE_13_length_2978_cov_194.458807_component_0,2978,1.0
GCF_023299625.1,bin_component_0,NZ_CP097039.1,NODE_14_length_2867_cov_62.643011_component_0,2867,1.0
GCF_023299625.1,bin_component_0,NZ_CP097040.1,NODE_15_length_2662_cov_232.080464_component_0,2662,1.0
GCF_023299625.1,bin_component_0,NZ_CP097039.1,NODE_16_length_2632_cov_55.549902_component_0,2632,1.0
GCF_023299625.1,bin_component_0,NZ_CP097039.1,NODE_19_length_1085_cov_161.668651_component_0,1085,1.0
GCF_023299625.1,bin_component_0,NZ_CP097039.1,NODE_19_length_1085_cov_161.668651_component_0,1085,1.0
GCF_023299625.1,bin_component_0,NZ_CP097039.1,NODE_19_length_1085_cov_161.668651_component_0,1085,1.0
GCF_023299625.1,bin_component_2,NZ_CP097041.1,NODE_12_length_3191_cov_818.613038_component_2,3191,1.0
GCF_028335545.1,bin_component_0,NZ_CP116562.1,NODE_1_length_27941_cov_116.570162_component_0,27941,1.0
GCF_028335545.1,bin_component_0,NZ_CP116562.1,NODE_2_length_13876_cov_84.501196_component_0,13876,1.0
GCF_028335545.1,bin_component_0,NZ_CP116562.1,NODE_3_length_12740_cov_101.752270_component_0,12740,1.0
GCF_028335545.1,bin_component_0,NZ_CP116562.1,NODE_4_length_10612_cov_90.773422_component_0,10612,1.0
GCF_028335545.1,bin_component_0,NZ_CP116563.1,NODE_5_length_4387_cov_67.060557_component_0,4387,1.0
GCF_028335545.1,bin_component_0,NZ_CP116562.1,NODE_6_length_3266_cov_91.802446_component_0,3266,1.0
GCF_028335545.1,bin_component_0,NZ_CP116562.1,NODE_7_length_2629_cov_85.304859_component_0,2629,1.0
GCF_030020615.1,bin_component_1,NZ_CP124908.1,NODE_1_length_54457_cov_55.709029_component_1,54457,1.0
GCF_030020615.1,bin_component_0,NZ_CP124909.1,NODE_2_length_34138_cov_91.699656_component_0,34138,1.0
GCF_030020615.1,bin_component_0,NZ_CP124909.1,NODE_3_length_32782_cov_90.674515_component_0,32782,1.0
GCF_030020615.1,bin_component_0,NZ_CP124910.1,NODE_4_length_26720_cov_66.484292_component_0,26720,1.0
GCF_030020615.1,bin_component_0,NZ_CP124910.1,NODE_5_length_23107_cov_64.466348_component_0,23107,1.0
GCF_030020615.1,bin_component_0,NZ_CP124909.1,NODE_7_length_14880_cov_102.048571_component_0,14880,1.0
GCF_030020615.1,bin_component_0,NZ_CP124910.1,NODE_8_length_14138_cov_71.047436_component_0,14138,1.0
GCF_030020615.1,bin_component_0,NZ_CP124909.1,NODE_9_length_7306_cov_94.752248_component_0,7306,1.0
GCF_030020615.1,bin_component_0,NZ_CP124909.1,NODE_10_length_3934_cov_154.425979_component_0,3934,1.0
GCF_030020615.1,bin_component_0,NZ_CP124910.1,NODE_10_length_3934_cov_154.425979_component_0,3934,1.0
GCF_030020615.1,bin_component_0,NZ_CP124909.1,NODE_11_length_1961_cov_99.640658_component_0,1961,1.0
GCF_030020615.1,bin_component_0,NZ_CP124910.1,NODE_12_length_1316_cov_65.025827_component_0,1316,1.0
GCF_030020615.1,bin_component_0,NZ_CP124909.1,NODE_13_length_1197_cov_172.233929_component_0,1197,1.0
GCF_030020615.1,bin_component_0,NZ_CP124910.1,NODE_13_length_1197_cov_172.233929_component_0,1197,1.0
GCF_030020615.1,bin_component_2,NZ_CP124908.1,NODE_6_length_21279_cov_60.643713_component_2,21279,1.0
GCF_018986755.2,bin_component_1,NZ_CP075609.1,NODE_11_length_4502_cov_36.802971_component_1,4502,1.0
GCF_018986755.2,bin_component_0,NZ_CP075605.1,NODE_1_length_40215_cov_58.380513_component_0,40215,1.0
GCF_018986755.2,bin_component_0,NZ_CP075606.1,NODE_2_length_39078_cov_33.591898_component_0,39078,1.0
GCF_018986755.2,bin_component_0,NZ_CP075606.1,NODE_3_length_22373_cov_32.496044_component_0,22373,1.0
GCF_018986755.2,bin_component_0,NZ_CP075608.1,NODE_4_length_11244_cov_35.901862_component_0,11244,1.0
GCF_018986755.2,bin_component_0,NZ_CP075608.1,NODE_5_length_9248_cov_31.446552_component_0,9248,1.0
GCF_018986755.2,bin_component_0,NZ_CP075605.1,NODE_6_length_7701_cov_43.573541_component_0,7701,1.0
GCF_018986755.2,bin_component_0,NZ_CP075606.1,NODE_7_length_7628_cov_37.933076_component_0,7628,1.0
GCF_018986755.2,bin_component_0,NZ_CP075605.1,NODE_8_length_7445_cov_43.444520_component_0,7445,1.0
GCF_018986755.2,bin_component_0,NZ_CP075605.1,NODE_9_length_5780_cov_51.252432_component_0,5780,1.0
GCF_018986755.2,bin_component_0,NZ_CP075605.1,NODE_10_length_5324_cov_41.855686_component_0,5324,1.0
GCF_018986755.2,bin_component_0,NZ_CP075605.1,NODE_12_length_2235_cov_43.956831_component_0,2235,1.0
GCF_018986755.2,bin_component_0,NZ_CP075604.2,NODE_14_length_2172_cov_36.521271_component_0,2172,1.0
GCF_018986755.2,bin_component_0,NZ_CP075604.2,NODE_14_length_2172_cov_36.521271_component_0,2172,1.0
GCF_018986755.2,bin_component_0,NZ_CP075604.2,NODE_15_length_1849_cov_26.377468_component_0,1849,1.0
GCF_018986755.2,bin_component_0,NZ_CP075604.2,NODE_16_length_1766_cov_48.883466_component_0,1766,1.0
GCF_018986755.2,bin_component_0,NZ_CP075607.1,NODE_17_length_1694_cov_26.337588_component_0,1694,1.0
GCF_018986755.2,bin_component_0,NZ_CP075604.2,NODE_18_length_1429_cov_36.245776_component_0,1429,1.0
GCF_018986755.2,bin_component_0,NZ_CP075604.2,NODE_19_length_1324_cov_444.210526_component_0,1324,1.0
GCF_018986755.2,bin_component_0,NZ_CP075604.2,NODE_19_length_1324_cov_444.210526_component_0,1324,1.0
GCF_018986755.2,bin_component_0,NZ_CP075604.2,NODE_19_length_1324_cov_444.210526_component_0,1324,1.0
GCF_018986755.2,bin_component_0,NZ_CP075604.2,NODE_19_length_1324_cov_444.210526_component_0,1324,1.0
GCF_018986755.2,bin_component_0,NZ_CP075604.2,NODE_19_length_1324_cov_444.210526_component_0,1324,1.0
GCF_018986755.2,bin_component_0,NZ_CP075604.2,NODE_19_length_1324_cov_444.210526_component_0,1324,1.0
GCF_018986755.2,bin_component_0,NZ_CP075604.2,NODE_19_length_1324_cov_444.210526_component_0,1324,1.0
GCF_018986755.2,bin_component_0,NZ_CP075605.1,NODE_19_length_1324_cov_444.210526_component_0,1324,1.0
GCF_018986755.2,bin_component_0,NZ_CP075604.2,NODE_19_length_1324_cov_444.210526_component_0,1324,1.0
GCF_018986755.2,bin_component_0,NZ_CP075604.2,NODE_19_length_1324_cov_444.210526_component_0,1324,1.0
GCF_018986755.2,bin_component_0,NZ_CP075606.1,NODE_19_length_1324_cov_444.210526_component_0,1324,1.0
GCF_018986755.2,bin_component_0,NZ_CP075605.1,NODE_19_length_1324_cov_444.210526_component_0,1324,1.0
GCF_018986755.2,bin_component_0,NZ_CP075604.2,NODE_19_length_1324_cov_444.210526_component_0,1324,1.0
GCF_018986755.2,bin_component_0,NZ_CP075605.1,NODE_19_length_1324_cov_444.210526_component_0,1324,1.0
GCF_018986755.2,bin_component_0,NZ_CP075604.2,NODE_19_length_1324_cov_444.210526_component_0,1324,1.0
GCF_018986755.2,bin_component_0,NZ_CP075604.2,NODE_19_length_1324_cov_444.210526_component_0,1324,1.0
GCF_018986755.2,bin_component_0,NZ_CP075604.2,NODE_20_length_1272_cov_38.069869_component_0,1272,1.0
GCF_018986755.2,bin_component_0,NZ_CP075606.1,NODE_21_length_1182_cov_34.759242_component_0,1182,1.0
GCF_018986755.2,bin_component_2,NZ_CP075610.1,NODE_13_length_2183_cov_11.648346_component_2,2183,1.0
GCF_023299665.1,bin_component_0,NZ_CP097047.1,NODE_1_length_32657_cov_148.639274_component_0,32657,1.0
GCF_023299665.1,bin_component_0,NZ_CP097047.1,NODE_2_length_25503_cov_176.091442_component_0,25503,1.0
GCF_906464865.1,bin_component_1,NZ_OD940420.1,NODE_2_length_19310_cov_64.303697_component_1,19310,1.0
GCF_906464865.1,bin_component_0,NZ_OD940420.1,NODE_1_length_366497_cov_64.905248_component_0,366497,0.99
GCF_022648595.1,bin_component_0,NZ_CP076499.1,NODE_1_length_39288_cov_138.362857_component_0,39288,1.0
GCF_022648595.1,bin_component_0,NZ_CP076500.1,NODE_2_length_35343_cov_143.195854_component_0,35343,1.0
GCF_022648595.1,bin_component_0,NZ_CP076501.1,NODE_3_length_33391_cov_137.308849_component_0,33391,1.0
GCF_022648595.1,bin_component_0,NZ_CP076499.1,NODE_4_length_19606_cov_166.058836_component_0,19606,1.0
GCF_022648595.1,bin_component_0,NZ_CP076500.1,NODE_5_length_18474_cov_163.584389_component_0,18474,0.03,1,569
GCF_022648595.1,bin_component_0,NZ_CP076500.1,NODE_5_length_18474_cov_163.584389_component_0,18474,0.9,572,17216
GCF_022648595.1,bin_component_0,NZ_CP076499.1,NODE_5_length_18474_cov_163.584389_component_0,18474,0.07,17217,18474
GCF_022648595.1,bin_component_0,NZ_CP076499.1,NODE_6_length_13089_cov_152.227482_component_0,13089,1.0
GCF_022648595.1,bin_component_0,NZ_CP076499.1,NODE_7_length_10567_cov_161.852336_component_0,10567,1.0
GCF_022648595.1,bin_component_0,NZ_CP076502.1,NODE_8_length_9877_cov_191.197041_component_0,9877,1.0
GCF_022648595.1,bin_component_0,NZ_CP076502.1,NODE_9_length_7007_cov_163.607937_component_0,7007,0.99
GCF_022648595.1,bin_component_0,NZ_CP076502.1,NODE_10_length_5658_cov_166.608135_component_0,5658,1.0
GCF_022648595.1,bin_component_0,NZ_CP076499.1,NODE_11_length_5183_cov_147.770466_component_0,5183,1.0
GCF_022648595.1,bin_component_0,NZ_CP076499.1,NODE_12_length_4746_cov_161.556436_component_0,4746,1.0
GCF_022648595.1,bin_component_0,NZ_CP076499.1,NODE_13_length_4549_cov_146.845930_component_0,4549,1.0
GCF_022648595.1,bin_component_0,NZ_CP076499.1,NODE_14_length_3945_cov_328.401758_component_0,3945,1.0
GCF_022648595.1,bin_component_0,NZ_CP076502.1,NODE_14_length_3945_cov_328.401758_component_0,3945,1.0
GCF_022648595.1,bin_component_0,NZ_CP076499.1,NODE_15_length_3131_cov_315.626392_component_0,3131,1.0
GCF_022648595.1,bin_component_0,NZ_CP076499.1,NODE_15_length_3131_cov_315.626392_component_0,3131,1.0
GCF_022648595.1,bin_component_0,NZ_CP076502.1,NODE_16_length_2977_cov_159.063448_component_0,2977,1.0
GCF_022648595.1,bin_component_0,NZ_CP076501.1,NODE_17_length_2444_cov_243.522602_component_0,2444,1.0
GCF_022648595.1,bin_component_0,NZ_CP076501.1,NODE_18_length_2335_cov_225.446413_component_0,2335,1.0
GCF_022648595.1,bin_component_0,NZ_CP076498.1,NODE_18_length_2335_cov_225.446413_component_0,2335,1.0
GCF_022648595.1,bin_component_0,NZ_CP076501.1,NODE_19_length_1605_cov_192.145942_component_0,1605,1.0
GCF_022648595.1,bin_component_0,NZ_CP076501.1,NODE_20_length_1574_cov_225.680027_component_0,1574,1.0
GCF_022648595.1,bin_component_0,NZ_CP076501.1,NODE_21_length_1426_cov_248.438844_component_0,1426,1.0
GCF_022648595.1,bin_component_0,NZ_CP076498.1,NODE_21_length_1426_cov_248.438844_component_0,1426,1.0
GCF_022648595.1,bin_component_0,NZ_CP076502.1,NODE_22_length_1381_cov_167.940951_component_0,1381,1.0
GCF_022648595.1,bin_component_0,NZ_CP076501.1,NODE_23_length_1296_cov_137.491386_component_0,1296,1.0
GCF_022648595.1,bin_component_0,NZ_CP076498.1,NODE_24_length_1244_cov_775.868038_component_0,1244,1.0
GCF_022648595.1,bin_component_0,NZ_CP076498.1,NODE_24_length_1244_cov_775.868038_component_0,1244,1.0
GCF_022648595.1,bin_component_0,NZ_CP076498.1,NODE_24_length_1244_cov_775.868038_component_0,1244,1.0
GCF_022648595.1,bin_component_0,NZ_CP076502.1,NODE_24_length_1244_cov_775.868038_component_0,1244,1.0
GCF_022648595.1,bin_component_0,NZ_CP076498.1,NODE_24_length_1244_cov_775.868038_component_0,1244,1.0
GCF_022648595.1,bin_component_0,NZ_CP076499.1,NODE_24_length_1244_cov_775.868038_component_0,1244,1.0
GCF_022648595.1,bin_component_0,NZ_CP076498.1,NODE_24_length_1244_cov_775.868038_component_0,1244,1.0
GCF_022648595.1,bin_component_0,NZ_CP076500.1,NODE_25_length_1190_cov_138.044025_component_0,1190,1.0
GCF_022648595.1,bin_component_0,NZ_CP076501.1,NODE_26_length_1144_cov_144.692596_component_0,1144,1.0
GCF_022648595.1,bin_component_0,NZ_CP076499.1,NODE_27_length_1036_cov_306.368092_component_0,1036,1.0
GCF_022648595.1,bin_component_0,NZ_CP076500.1,NODE_27_length_1036_cov_306.368092_component_0,1036,1.0
GCF_030020595.1,bin_component_0,NZ_CP124907.1,NODE_1_length_34069_cov_298.389798_component_0,34069,1.0
GCF_030020595.1,bin_component_0,NZ_CP124907.1,NODE_2_length_24601_cov_304.094479_component_0,24601,1.0
GCF_030020595.1,bin_component_0,NZ_CP124907.1,NODE_3_length_9881_cov_296.687780_component_0,9881,1.0
GCF_030020595.1,bin_component_0,NZ_CP124907.1,NODE_4_length_7437_cov_288.855842_component_0,7437,1.0
GCF_023375485.1,bin_component_0,NZ_CP091232.1,NODE_1_length_27728_cov_125.207226_component_0,27728,1.0
GCF_023375485.1,bin_component_0,NZ_CP091232.1,NODE_2_length_7393_cov_117.004101_component_0,7393,1.0
GCF_023375485.1,bin_component_0,NZ_CP091231.1,NODE_3_length_3834_cov_97.353740_component_0,3834,0.93
GCF_023375485.1,bin_component_0,NZ_CP091231.1,NODE_4_length_3553_cov_240.371404_component_0,3553,1.0
GCF_023375485.1,bin_component_0,NZ_CP091231.1,NODE_5_length_2442_cov_104.539112_component_0,2442,1.0
GCF_023375485.1,bin_component_0,NZ_CP091231.1,NODE_5_length_2442_cov_104.539112_component_0,2442,1.0
GCF_023375485.1,bin_component_0,NZ_CP091231.1,NODE_6_length_2119_cov_84.141528_component_0,2119,0.9
GCF_023375485.1,bin_component_0,NZ_CP091231.1,NODE_7_length_1863_cov_111.203807_component_0,1863,1.0
GCF_023375485.1,bin_component_0,NZ_CP091231.1,NODE_8_length_1526_cov_520.365079_component_0,1526,1.0
GCF_023375485.1,bin_component_0,NZ_CP091231.1,NODE_8_length_1526_cov_520.365079_component_0,1526,1.0
GCF_023375485.1,bin_component_0,NZ_CP091232.1,NODE_8_length_1526_cov_520.365079_component_0,1526,1.0
GCF_023375485.1,bin_component_0,NZ_CP091231.1,NODE_8_length_1526_cov_520.365079_component_0,1526,1.0
GCF_023375485.1,bin_component_0,NZ_CP091232.1,NODE_8_length_1526_cov_520.365079_component_0,1526,1.0
GCF_023375485.1,bin_component_0,NZ_CP091231.1,NODE_8_length_1526_cov_520.365079_component_0,1526,1.0
GCF_906464835.1,bin_component_1,NZ_OD940431.1,NODE_5_length_16658_cov_59.359327_component_1,16658,1.0
GCF_906464835.1,bin_component_1,NZ_OD940432.1,NODE_7_length_10233_cov_113.027570_component_1,10233,1.0
GCF_906464835.1,bin_component_1,NZ_OD940431.1,NODE_8_length_8630_cov_209.104759_component_1,8630,1.0
GCF_906464835.1,bin_component_1,NZ_OD940433.1,NODE_8_length_8630_cov_209.104759_component_1,8630,1.0
GCF_906464835.1,bin_component_1,NZ_OD940431.1,NODE_9_length_6750_cov_124.136071_component_1,6750,1.0
GCF_906464835.1,bin_component_1,NZ_OD940431.1,NODE_11_length_3055_cov_187.034587_component_1,3055,1.0
GCF_906464835.1,bin_component_1,NZ_OD940433.1,NODE_11_length_3055_cov_187.034587_component_1,3055,1.0
GCF_906464835.1,bin_component_1,NZ_OD940432.1,NODE_12_length_2938_cov_217.787487_component_1,2938,1.0
GCF_906464835.1,bin_component_1,NZ_OD940432.1,NODE_14_length_2232_cov_38.397680_component_1,2232,1.0
GCF_906464835.1,bin_component_1,NZ_OD940433.1,NODE_17_length_1707_cov_156.882822_component_1,1707,1.0
GCF_906464835.1,bin_component_0,NZ_OD940431.1,NODE_1_length_246693_cov_54.322826_component_0,246693,1.0
GCF_906464835.1,bin_component_0,NZ_OD940431.1,NODE_2_length_144506_cov_117.423606_component_0,144506,1.0
GCF_906464835.1,bin_component_0,NZ_OD940431.1,NODE_3_length_92207_cov_105.796668_component_0,92207,1.0
GCF_906464835.1,bin_component_0,NZ_OD940431.1,NODE_4_length_28431_cov_113.261762_component_0,28431,1.0
GCF_906464835.1,bin_component_0,NZ_OD940431.1,NODE_6_length_16605_cov_129.408277_component_0,16605,1.0
GCF_906464835.1,bin_component_0,NZ_OD940431.1,NODE_10_length_3283_cov_495.522146_component_0,3283,1.0
GCF_906464835.1,bin_component_0,NZ_OD940431.1,NODE_10_length_3283_cov_495.522146_component_0,3283,1.0
GCF_906464835.1,bin_component_0,NZ_OD940431.1,NODE_10_length_3283_cov_495.522146_component_0,3283,1.0
GCF_906464835.1,bin_component_0,NZ_OD940431.1,NODE_10_length_3283_cov_495.522146_component_0,3283,1.0
GCF_906464835.1,bin_component_0,NZ_OD940431.1,NODE_13_length_2348_cov_130.498018_component_0,2348,1.0
GCF_906464835.1,bin_component_0,NZ_OD940431.1,NODE_15_length_1954_cov_151.824188_component_0,1954,0.99
GCF_906464835.1,bin_component_0,NZ_OD940431.1,NODE_16_length_1831_cov_480.568415_component_0,1831,1.0
GCF_906464835.1,bin_component_0,NZ_OD940431.1,NODE_16_length_1831_cov_480.568415_component_0,1831,1.0
GCF_906464835.1,bin_component_0,NZ_OD940431.1,NODE_16_length_1831_cov_480.568415_component_0,1831,1.0
GCF_906464835.1,bin_component_0,NZ_OD940431.1,NODE_16_length_1831_cov_480.568415_component_0,1831,1.0
GCF_023299645.1,bin_component_0,NZ_CP097009.1,NODE_1_length_27001_cov_84.197370_component_0,27001,1.0
GCF_023299645.1,bin_component_0,NZ_CP097009.1,NODE_2_length_9700_cov_83.669126_component_0,9700,1.0
GCF_023299645.1,bin_component_0,NZ_CP097009.1,NODE_3_length_8724_cov_88.453568_component_0,8724,1.0
GCF_023299645.1,bin_component_0,NZ_CP097009.1,NODE_4_length_6303_cov_98.132830_component_0,6303,1.0
GCF_023299645.1,bin_component_0,NZ_CP097009.1,NODE_5_length_5558_cov_84.107097_component_0,5558,1.0
GCF_023299645.1,bin_component_0,NZ_CP097009.1,NODE_6_length_4411_cov_83.706968_component_0,4411,1.0
GCF_023299645.1,bin_component_0,NZ_CP097009.1,NODE_7_length_2488_cov_76.091248_component_0,2488,1.0
GCF_023299645.1,bin_component_0,NZ_CP097009.1,NODE_8_length_1506_cov_78.800560_component_0,1506,1.0
GCF_023299645.1,bin_component_0,NZ_CP097009.1,NODE_9_length_1345_cov_175.130915_component_0,1345,1.0
GCF_023299645.1,bin_component_0,NZ_CP097009.1,NODE_9_length_1345_cov_175.130915_component_0,1345,1.0
GCF_023375525.1,bin_component_0,NZ_CP091236.1,NODE_1_length_9273_cov_135.276533_component_0,9273,1.0
GCF_023375525.1,bin_component_0,NZ_CP091235.1,NODE_2_length_3493_cov_140.138466_component_0,3493,0.97
GCF_023375525.1,bin_component_0,NZ_CP091236.1,NODE_3_length_3091_cov_141.279031_component_0,3091,0.94
GCF_023375525.1,bin_component_0,NZ_CP091236.1,NODE_4_length_2734_cov_132.141889_component_0,2734,1.0
GCF_023375525.1,bin_component_0,NZ_CP091236.1,NODE_5_length_1175_cov_208.608379_component_0,1175,1.0
GCF_023375525.1,bin_component_0,NZ_CP091235.1,NODE_5_length_1175_cov_208.608379_component_0,1175,1.0
GCF_023375525.1,bin_component_0,NZ_CP091235.1,NODE_5_length_1175_cov_208.608379_component_0,1175,1.0
GCF_023375525.1,bin_component_0,NZ_CP091235.1,NODE_6_length_1010_cov_51.348339_component_0,1010,1.0
GCF_023299425.1,bin_component_1,NZ_CP097013.1,NODE_2_length_34656_cov_96.067902_component_1,34656,1.0
GCF_023299425.1,bin_component_0,NZ_CP097012.1,NODE_1_length_50045_cov_80.233930_component_0,50045,1.0
GCF_023299425.1,bin_component_0,NZ_CP097011.1,NODE_3_length_23015_cov_87.509722_component_0,23015,1.0
GCF_023299425.1,bin_component_0,NZ_CP097011.1,NODE_4_length_19153_cov_87.796131_component_0,19153,1.0
GCF_023299425.1,bin_component_0,NZ_CP097011.1,NODE_5_length_15295_cov_97.726837_component_0,15295,1.0
GCF_023299425.1,bin_component_0,NZ_CP097011.1,NODE_6_length_12277_cov_91.213197_component_0,12277,1.0
GCF_023299425.1,bin_component_0,NZ_CP097011.1,NODE_7_length_10215_cov_91.328171_component_0,10215,1.0
GCF_023299425.1,bin_component_0,NZ_CP097011.1,NODE_8_length_5366_cov_95.578370_component_0,5366,1.0
GCF_023299425.1,bin_component_0,NZ_CP097011.1,NODE_9_length_4589_cov_95.904034_component_0,4589,1.0
GCF_023299425.1,bin_component_0,NZ_CP097011.1,NODE_10_length_2012_cov_165.513695_component_0,2012,1.0
GCF_023299425.1,bin_component_0,NZ_CP097012.1,NODE_10_length_2012_cov_165.513695_component_0,2012,1.0
GCF_023299425.1,bin_component_0,NZ_CP097012.1,NODE_11_length_1460_cov_75.479393_component_0,1460,1.0
GCF_023299425.1,bin_component_0,NZ_CP097011.1,NODE_12_length_1442_cov_160.983150_component_0,1442,1.0
GCF_023299425.1,bin_component_0,NZ_CP097012.1,NODE_12_length_1442_cov_160.983150_component_0,1442,1.0
GCF_023299425.1,bin_component_0,NZ_CP097012.1,NODE_13_length_1419_cov_168.353204_component_0,1419,1.0
GCF_023299425.1,bin_component_0,NZ_CP097011.1,NODE_13_length_1419_cov_168.353204_component_0,1419,1.0
GCF_023299425.1,bin_component_0,NZ_CP097011.1,NODE_14_length_1181_cov_281.451087_component_0,1181,1.0
GCF_023299425.1,bin_component_0,NZ_CP097011.1,NODE_14_length_1181_cov_281.451087_component_0,1181,1.0
GCF_023299425.1,bin_component_0,NZ_CP097011.1,NODE_14_length_1181_cov_281.451087_component_0,1181,1.0
GCF_906464925.1,bin_component_1,NZ_OD940434.1,NODE_6_length_41197_cov_137.942826_component_1,41197,1.0
GCF_906464925.1,bin_component_0,NZ_OD940434.1,NODE_1_length_267864_cov_74.877320_component_0,267864,1.0
GCF_906464925.1,bin_component_0,NZ_OD940434.1,NODE_2_length_153823_cov_142.790258_component_0,153823,1.0
GCF_906464925.1,bin_component_0,NZ_OD940434.1,NODE_3_length_147408_cov_150.600586_component_0,147408,1.0
GCF_906464925.1,bin_component_0,NZ_OD940434.1,NODE_4_length_100974_cov_143.778289_component_0,100974,1.0
GCF_906464925.1,bin_component_0,NZ_OD940434.1,NODE_5_length_55750_cov_139.722594_component_0,55750,1.0
GCF_906464925.1,bin_component_0,NZ_OD940434.1,NODE_7_length_24079_cov_150.387926_component_0,24079,1.0
GCF_906464925.1,bin_component_0,NZ_OD940434.1,NODE_8_length_7181_cov_45.964949_component_0,7181,1.0
GCF_906464925.1,bin_component_0,NZ_OD940434.1,NODE_9_length_3384_cov_748.044149_component_0,3384,1.0
GCF_906464925.1,bin_component_0,NZ_OD940434.1,NODE_9_length_3384_cov_748.044149_component_0,3384,1.0
GCF_906464925.1,bin_component_0,NZ_OD940434.1,NODE_10_length_2428_cov_55.985963_component_0,2428,1.0
GCF_906464925.1,bin_component_0,NZ_OD940435.1,NODE_11_length_2119_cov_139.938296_component_0,2119,1.0
GCF_906464925.1,bin_component_0,NZ_OD940434.1,NODE_12_length_1879_cov_139.153718_component_0,1879,0.95
GCF_906464925.1,bin_component_0,NZ_OD940434.1,NODE_13_length_1753_cov_767.707637_component_0,1753,1.0
GCF_906464925.1,bin_component_0,NZ_OD940434.1,NODE_13_length_1753_cov_767.707637_component_0,1753,1.0
GCF_906464925.1,bin_component_0,NZ_OD940434.1,NODE_13_length_1753_cov_767.707637_component_0,1753,1.0
GCF_906464925.1,bin_component_0,NZ_OD940434.1,NODE_13_length_1753_cov_767.707637_component_0,1753,1.0
GCF_906464925.1,bin_component_0,NZ_OD940435.1,NODE_14_length_1346_cov_158.872340_component_0,1346,1.0
GCF_023300025.1,bin_component_1,NZ_CP097031.1,NODE_2_length_40304_cov_315.210008_component_1,40304,1.0
GCF_023300025.1,bin_component_1,NZ_CP097031.1,NODE_3_length_37057_cov_134.821309_component_1,37057,1.0
GCF_023300025.1,bin_component_0,NZ_CP097033.1,NODE_1_length_78214_cov_77.263000_component_0,78214,0.63,1,49014
GCF_023300025.1,bin_component_0,NZ_CP097033.1,NODE_1_length_78214_cov_77.263000_component_0,78214,0.12,49015,58653
GCF_023300025.1,bin_component_0,NZ_CP097032.1,NODE_1_length_78214_cov_77.263000_component_0,78214,0.04,58654,61518
GCF_023300025.1,bin_component_0,NZ_CP097032.1,NODE_1_length_78214_cov_77.263000_component_0,78214,0.21,61519,78214
GCF_023300025.1,bin_component_0,NZ_CP097032.1,NODE_4_length_13877_cov_78.656667_component_0,13877,1.0
GCF_023300025.1,bin_component_0,NZ_CP097032.1,NODE_5_length_12740_cov_90.852799_component_0,12740,1.0
GCF_023300025.1,bin_component_0,NZ_CP097032.1,NODE_6_length_8542_cov_76.227171_component_0,8542,1.0
GCF_023300025.1,bin_component_0,NZ_CP097032.1,NODE_7_length_5840_cov_75.542599_component_0,5840,1.0
GCF_023300025.1,bin_component_0,NZ_CP097032.1,NODE_8_length_3289_cov_92.801370_component_0,3289,1.0
GCF_023300025.1,bin_component_0,NZ_CP097032.1,NODE_9_length_3265_cov_82.522271_component_0,3265,1.0
GCF_023300025.1,bin_component_0,NZ_CP097032.1,NODE_10_length_2550_cov_79.978973_component_0,2550,1.0
GCF_030020745.1,bin_component_1,NZ_CP124915.1,NODE_2_length_52640_cov_71.383045_component_1,52640,0.99
GCF_030020745.1,bin_component_0,NZ_CP124914.1,NODE_1_length_64937_cov_62.549846_component_0,64937,1.0
GCF_030020745.1,bin_component_0,NZ_CP124914.1,NODE_3_length_45870_cov_60.247658_component_0,45870,1.0
GCF_030020745.1,bin_component_0,NZ_CP124914.1,NODE_4_length_3283_cov_234.036182_component_0,3283,1.0
GCF_030020745.1,bin_component_0,NZ_CP124914.1,NODE_4_length_3283_cov_234.036182_component_0,3283,1.0
GCF_030020745.1,bin_component_0,NZ_CP124914.1,NODE_4_length_3283_cov_234.036182_component_0,3283,1.0
GCF_030020745.1,bin_component_0,NZ_CP124914.1,NODE_4_length_3283_cov_234.036182_component_0,3283,1.0
GCF_030020745.1,bin_component_0,NZ_CP124914.1,NODE_5_length_2488_cov_84.071340_component_0,2488,0.97
GCF_030020745.1,bin_component_0,NZ_CP124914.1,NODE_6_length_1809_cov_226.046767_component_0,1809,1.0
GCF_030020745.1,bin_component_0,NZ_CP124914.1,NODE_6_length_1809_cov_226.046767_component_0,1809,1.0
GCF_030020745.1,bin_component_0,NZ_CP124914.1,NODE_6_length_1809_cov_226.046767_component_0,1809,1.0
GCF_030020745.1,bin_component_0,NZ_CP124914.1,NODE_6_length_1809_cov_226.046767_component_0,1809,1.0
GCF_022648285.1,bin_component_0,NZ_CP076489.1,NODE_1_length_39288_cov_151.505445_component_0,39288,1.0
GCF_022648285.1,bin_component_0,NZ_CP076490.1,NODE_2_length_35343_cov_158.155958_component_0,35343,1.0
GCF_022648285.1,bin_component_0,NZ_CP076491.1,NODE_3_length_33391_cov_152.575734_component_0,33391,1.0
GCF_022648285.1,bin_component_0,NZ_CP076489.1,NODE_4_length_19606_cov_183.840750_component_0,19606,1.0
GCF_022648285.1,bin_component_0,NZ_CP076490.1,NODE_5_length_14178_cov_158.831572_component_0,14178,0.99
GCF_022648285.1,bin_component_0,NZ_CP076489.1,NODE_6_length_13089_cov_163.540194_component_0,13089,1.0
GCF_022648285.1,bin_component_0,NZ_CP076489.1,NODE_7_length_10567_cov_181.863108_component_0,10567,1.0
GCF_022648285.1,bin_component_0,NZ_CP076492.1,NODE_8_length_9877_cov_217.404286_component_0,9877,0.99
GCF_022648285.1,bin_component_0,NZ_CP076492.1,NODE_9_length_7007_cov_189.919481_component_0,7007,1.0
GCF_022648285.1,bin_component_0,NZ_CP076492.1,NODE_10_length_5658_cov_191.828884_component_0,5658,1.0
GCF_022648285.1,bin_component_0,NZ_CP076489.1,NODE_11_length_5183_cov_164.794164_component_0,5183,1.0
GCF_022648285.1,bin_component_0,NZ_CP076489.1,NODE_12_length_4746_cov_176.520668_component_0,4746,1.0
GCF_022648285.1,bin_component_0,NZ_CP076489.1,NODE_13_length_4549_cov_167.216011_component_0,4549,1.0
GCF_022648285.1,bin_component_0,NZ_CP076489.1,NODE_14_length_3945_cov_365.866339_component_0,3945,1.0
GCF_022648285.1,bin_component_0,NZ_CP076492.1,NODE_14_length_3945_cov_365.866339_component_0,3945,1.0
GCF_022648285.1,bin_component_0,NZ_CP076489.1,NODE_15_length_3131_cov_342.220039_component_0,3131,1.0
GCF_022648285.1,bin_component_0,NZ_CP076489.1,NODE_15_length_3131_cov_342.220039_component_0,3131,1.0
GCF_022648285.1,bin_component_0,NZ_CP076492.1,NODE_16_length_2977_cov_187.373448_component_0,2977,1.0
GCF_022648285.1,bin_component_0,NZ_CP076491.1,NODE_17_length_2444_cov_266.253063_component_0,2444,1.0
GCF_022648285.1,bin_component_0,NZ_CP076488.1,NODE_17_length_2444_cov_266.253063_component_0,2444,1.0
GCF_022648285.1,bin_component_0,NZ_CP076490.1,NODE_18_length_2342_cov_310.382340_component_0,2342,1.0
GCF_022648285.1,bin_component_0,NZ_CP076489.1,NODE_18_length_2342_cov_310.382340_component_0,2342,1.0
GCF_022648285.1,bin_component_0,NZ_CP076491.1,NODE_19_length_2335_cov_260.307795_component_0,2335,1.0
GCF_022648285.1,bin_component_0,NZ_CP076488.1,NODE_19_length_2335_cov_260.307795_component_0,2335,1.0
GCF_022648285.1,bin_component_0,NZ_CP076489.1,NODE_20_length_1891_cov_139.931643_component_0,1891,1.0
GCF_022648285.1,bin_component_0,NZ_CP076491.1,NODE_21_length_1605_cov_204.846204_component_0,1605,0.91
GCF_022648285.1,bin_component_0,NZ_CP076491.1,NODE_22_length_1574_cov_240.391450_component_0,1574,1.0
GCF_022648285.1,bin_component_0,NZ_CP076491.1,NODE_23_length_1426_cov_266.818384_component_0,1426,1.0
GCF_022648285.1,bin_component_0,NZ_CP076488.1,NODE_23_length_1426_cov_266.818384_component_0,1426,1.0
GCF_022648285.1,bin_component_0,NZ_CP076492.1,NODE_24_length_1381_cov_193.609663_component_0,1381,1.0
GCF_022648285.1,bin_component_0,NZ_CP076489.1,NODE_25_length_1317_cov_201.170161_component_0,1317,1.0
GCF_022648285.1,bin_component_0,NZ_CP076491.1,NODE_26_length_1296_cov_166.738310_component_0,1296,1.0
GCF_022648285.1,bin_component_0,NZ_CP076488.1,NODE_27_length_1244_cov_848.938303_component_0,1244,1.0
GCF_022648285.1,bin_component_0,NZ_CP076488.1,NODE_27_length_1244_cov_848.938303_component_0,1244,1.0
GCF_022648285.1,bin_component_0,NZ_CP076492.1,NODE_27_length_1244_cov_848.938303_component_0,1244,1.0
GCF_022648285.1,bin_component_0,NZ_CP076488.1,NODE_27_length_1244_cov_848.938303_component_0,1244,1.0
GCF_022648285.1,bin_component_0,NZ_CP076488.1,NODE_27_length_1244_cov_848.938303_component_0,1244,1.0
GCF_022648285.1,bin_component_0,NZ_CP076489.1,NODE_27_length_1244_cov_848.938303_component_0,1244,1.0
GCF_022648285.1,bin_component_0,NZ_CP076488.1,NODE_27_length_1244_cov_848.938303_component_0,1244,1.0
GCF_022648285.1,bin_component_0,NZ_CP076490.1,NODE_28_length_1190_cov_144.338724_component_0,1190,1.0
GCF_022648285.1,bin_component_0,NZ_CP076488.1,NODE_29_length_1087_cov_114.215842_component_0,1087,1.0
GCF_022648285.1,bin_component_0,NZ_CP076489.1,NODE_30_length_1036_cov_330.806048_component_0,1036,1.0
GCF_022648285.1,bin_component_0,NZ_CP076490.1,NODE_30_length_1036_cov_330.806048_component_0,1036,1.0
GCF_030020155.1,bin_component_1,NZ_CP124887.1,NODE_2_length_24401_cov_105.322562_component_1,24401,1.0
GCF_030020155.1,bin_component_0,NZ_CP124887.1,NODE_1_length_26464_cov_73.916891_component_0,26464,1.0
GCF_030020155.1,bin_component_0,NZ_CP124887.1,NODE_3_length_8751_cov_85.439474_component_0,8751,1.0
