GCF_030020195.1,NODE_11_length_1027_cov_125.322105_component_1,1027,
GCF_030020215.1,NODE_3_length_23849_cov_169.778353_component_0,23849,
GCF_030020215.1,NODE_6_length_1887_cov_177.043094_component_0,1887,
GCF_030020215.1,NODE_7_length_1444_cov_185.783467_component_0,1444,
GCF_030020475.1,NODE_8_length_1140_cov_420.920978_component_0,1140,
GCF_023299585.1,NODE_8_length_1716_cov_59.349603_component_0,1716,
GCF_906464895.1,NODE_15_length_1484_cov_13.182658_component_2,1484,
