GCF_905330865.2_AI2946v1_cpp,0
GCF_905330865.2_AI2946v1_cpp,0
GCF_023573605.1_ASM2357360v1,0
GCF_023573605.1_ASM2357360v1,0
GCF_023573065.1_ASM2357306v1,0
GCF_023573065.1_ASM2357306v1,0
GCF_023573065.1_ASM2357306v1,0
GCF_025232635.1_ASM2523263v1,0
GCF_024917635.1_ASM2491763v1,0
GCF_024917635.1_ASM2491763v1,0
GCF_024917635.1_ASM2491763v1,0
GCF_024917635.1_ASM2491763v1,0
GCF_024917635.1_ASM2491763v1,0
GCF_024205865.1_ASM2420586v1,0
GCF_024205865.1_ASM2420586v1,0
GCF_022343705.1_ASM2234370v1,0
GCF_022343705.1_ASM2234370v1,0
GCF_905329555.2_AI2744v1_cpp,0
GCF_905329555.2_AI2744v1_cpp,0
GCF_905329555.2_AI2744v1_cpp,0
GCF_905329555.2_AI2744v1_cpp,0
GCF_905329555.2_AI2744v1_cpp,0
GCF_905331265.2_AI2999v1_cpp,0
GCF_905331265.2_AI2999v1_cpp,0
GCF_022439525.1_ASM2243952v1,0
GCF_022221325.1_ASM2222132v1,0
GCF_022221325.1_ASM2222132v1,0
GCF_024205925.1_ASM2420592v1,0
GCF_024205925.1_ASM2420592v1,0
GCF_021559775.1_ASM2155977v1,0
GCF_021559775.1_ASM2155977v1,0
GCF_022221105.1_ASM2222110v1,0
GCF_022221105.1_ASM2222110v1,0
GCF_022170805.1_ASM2217080v1,0
GCF_022170805.1_ASM2217080v1,0
GCF_025311495.1_ASM2531149v1,0
GCF_022921795.1_ASM2292179v1,0
GCF_905329885.2_AI2826v1_cpp,0
GCF_905329885.2_AI2826v1_cpp,0
GCF_905329885.2_AI2826v1_cpp,0
GCF_022923675.1_ASM2292367v1,0
GCF_022923675.1_ASM2292367v1,0
GCF_022049065.2_ASM2204906v2,0
GCF_023299765.1_ASM2329976v1,0
GCF_023299765.1_ASM2329976v1,0
GCF_024334025.1_ASM2433402v1,0
GCF_024334025.1_ASM2433402v1,0
GCF_024334025.1_ASM2433402v1,0
GCF_021397795.1_ASM2139779v1,0
GCF_022433565.1_ASM2243356v1,0
GCF_022220645.1_ASM2222064v1,0
GCF_022220645.1_ASM2222064v1,0
GCF_022220645.1_ASM2222064v1,0
GCF_025232235.1_ASM2523223v1,0
GCF_025232235.1_ASM2523223v1,1
GCF_021513075.1_ASM2151307v1,0
GCF_021513075.1_ASM2151307v1,0
GCF_021513075.1_ASM2151307v1,0
GCF_021513075.1_ASM2151307v1,0
GCF_024206715.1_ASM2420671v1,0
GCF_024126355.1_ASM2412635v1,0
GCF_022220985.1_ASM2222098v1,0
GCF_022220985.1_ASM2222098v1,0
GCF_022220985.1_ASM2222098v1,0
GCF_022670815.1_ASM2267081v1,0
GCF_022670815.1_ASM2267081v1,0
GCF_022670815.1_ASM2267081v1,0
GCF_022670815.1_ASM2267081v1,0
GCF_022670815.1_ASM2267081v1,0
GCF_022670815.1_ASM2267081v1,0
GCF_022670815.1_ASM2267081v1,0
GCF_022670815.1_ASM2267081v1,0
GCF_022670815.1_ASM2267081v1,0
GCF_022453545.1_ASM2245354v1,0
GCF_024917675.1_ASM2491767v1,0
GCF_024917675.1_ASM2491767v1,0
GCF_024917675.1_ASM2491767v1,0
GCF_023195815.2_ASM2319581v2,0
GCF_020641355.2_ASM2064135v2,0
GCF_905337805.2_AN2353v1_cp,0
GCF_905337805.2_AN2353v1_cp,0
GCF_905337805.2_AN2353v1_cp,0
GCF_024758745.1_ASM2475874v1,0
GCF_024758745.1_ASM2475874v1,0
GCF_025232275.1_ASM2523227v1,0
GCF_022923775.1_ASM2292377v1,0
GCF_021561035.1_ASM2156103v1,0
GCF_024206595.1_ASM2420659v1,0
GCF_022845595.1_ASM2284559v1,0
GCF_022845595.1_ASM2284559v1,0
GCF_022925255.1_ASM2292525v1,0
GCF_022925255.1_ASM2292525v1,0
GCF_025232125.1_ASM2523212v1,0
GCF_024333985.1_ASM2433398v1,0
GCF_022221265.1_ASM2222126v1,0
GCF_022221265.1_ASM2222126v1,0
GCF_022221265.1_ASM2222126v1,0
GCF_002103235.2_ASM210323v2,0
GCF_021559735.1_ASM2155973v1,0
GCF_905335825.2_AN2340v1_cp,0
GCF_905335825.2_AN2340v1_cp,0
GCF_024205845.1_ASM2420584v1,0
GCF_024205845.1_ASM2420584v1,0
GCF_023299345.1_ASM2329934v1,0
GCF_023299345.1_ASM2329934v1,0
GCF_023299345.1_ASM2329934v1,0
GCF_022592275.1_ASM2259227v1,0
GCF_022592275.1_ASM2259227v1,0
GCF_023509315.1_ASM2350931v1,0
GCF_022221205.1_ASM2222120v1,0
GCF_022221205.1_ASM2222120v1,0
GCF_022221205.1_ASM2222120v1,0
GCF_021496345.1_ASM2149634v1,0
GCF_024137845.1_ASM2413784v1,0
GCF_022220565.1_ASM2222056v1,0
GCF_022220565.1_ASM2222056v1,0
GCF_025232205.1_ASM2523220v1,0
GCF_024205945.1_ASM2420594v1,0
GCF_024205945.1_ASM2420594v1,0
GCF_024205945.1_ASM2420594v1,0
GCF_024637975.1_ASM2463797v1,0
GCF_024637975.1_ASM2463797v1,0
GCF_023573085.1_ASM2357308v1,0
GCF_023573085.1_ASM2357308v1,0
GCF_018588605.2_ASM1858860v2,0
GCF_018588605.2_ASM1858860v2,0
GCF_018588605.2_ASM1858860v2,0
GCF_018588605.2_ASM1858860v2,0
GCF_018588605.2_ASM1858860v2,0
GCF_018588605.2_ASM1858860v2,0
GCF_018588605.2_ASM1858860v2,0
GCF_018588605.2_ASM1858860v2,0
GCF_018588605.2_ASM1858860v2,0
GCF_018588605.2_ASM1858860v2,0
GCF_018588605.2_ASM1858860v2,0
GCF_021496075.1_ASM2149607v1,0
GCF_024637915.1_ASM2463791v1,0
GCF_024637915.1_ASM2463791v1,0
GCF_022220625.1_ASM2222062v1,0
GCF_022220625.1_ASM2222062v1,0
GCF_022220625.1_ASM2222062v1,0
GCF_022220585.1_ASM2222058v1,0
GCF_022220585.1_ASM2222058v1,0
GCF_022220585.1_ASM2222058v1,0
GCF_022923695.1_ASM2292369v1,0
GCF_024158105.2_ASM2415810v2,0
GCF_023757925.1_ASM2375792v1,0
GCF_024206695.1_ASM2420669v1,0
GCF_025370975.1_ASM2537097v1,0
GCF_023205075.1_ASM2320507v1,0
GCF_024734235.1_ASM2473423v1,0
GCF_024734235.1_ASM2473423v1,0
GCF_024734235.1_ASM2473423v1,0
GCF_024734235.1_ASM2473423v1,0
GCF_024917395.1_ASM2491739v1,0
GCF_024917395.1_ASM2491739v1,0
GCF_023572985.1_ASM2357298v1,0
GCF_023572985.1_ASM2357298v1,0
GCF_021398305.1_ASM2139830v1,0
GCF_021398305.1_ASM2139830v1,0
GCF_021398305.1_ASM2139830v1,0
GCF_021398305.1_ASM2139830v1,0
GCF_021398305.1_ASM2139830v1,0
GCF_024397315.1_ASM2439731v1,0
GCF_022921235.1_ASM2292123v1,0
GCF_024334045.1_ASM2433404v1,0
GCF_024334045.1_ASM2433404v1,0
GCF_024334045.1_ASM2433404v1,0
GCF_024334045.1_ASM2433404v1,0
GCF_025232495.1_ASM2523249v1,0
GCF_025232495.1_ASM2523249v1,0
GCF_025232495.1_ASM2523249v1,0
GCF_023639785.1_ASM2363978v1,0
GCF_022923575.1_ASM2292357v1,0
GCF_024397415.1_ASM2439741v1,0
GCF_024397415.1_ASM2439741v1,0
GCF_022221225.1_ASM2222122v1,0
GCF_022221225.1_ASM2222122v1,0
GCF_022221225.1_ASM2222122v1,0
GCF_023822185.1_ASM2382218v1,0
GCF_023822185.1_ASM2382218v1,0
GCF_023822185.1_ASM2382218v1,0
GCF_023822185.1_ASM2382218v1,0
GCF_023822185.1_ASM2382218v1,0
GCF_023822185.1_ASM2382218v1,0
GCF_023822185.1_ASM2382218v1,0
GCF_022923155.1_ASM2292315v1,0
GCF_022570415.1_ASM2257041v1,0
GCF_022570415.1_ASM2257041v1,0
GCF_022221305.1_ASM2222130v1,0
GCF_022221305.1_ASM2222130v1,0
GCF_022592015.1_ASM2259201v1,0
GCF_022592015.1_ASM2259201v1,0
GCF_022592015.1_ASM2259201v1,0
GCF_020172765.2_ASM2017276v2,0
GCF_020172765.2_ASM2017276v2,0
GCF_021398655.1_ASM2139865v1,0
GCF_021398655.1_ASM2139865v1,0
GCF_022221165.1_ASM2222116v1,0
GCF_022221165.1_ASM2222116v1,0
GCF_022221165.1_ASM2222116v1,0
GCF_022925855.1_ASM2292585v1,0
GCF_021459825.1_ASM2145982v1,0
GCF_021459825.1_ASM2145982v1,0
GCF_022220945.1_ASM2222094v1,0
GCF_022220945.1_ASM2222094v1,0
GCF_022220945.1_ASM2222094v1,0
GCF_023369715.1_ASM2336971v1,0
GCF_023822665.1_ASM2382266v1,0
GCF_023822665.1_ASM2382266v1,0
GCF_021513595.1_ASM2151359v1,0
GCF_022478075.1_ASM2247807v1,0
GCF_022478075.1_ASM2247807v1,0
GCF_022478075.1_ASM2247807v1,0
GCF_022478075.1_ASM2247807v1,0
GCF_022832975.1_ASM2283297v1,0
GCF_024206755.1_ASM2420675v1,0
GCF_022591735.1_ASM2259173v1,0
GCF_022591735.1_ASM2259173v1,0
GCF_022591735.1_ASM2259173v1,0
GCF_022591735.1_ASM2259173v1,0
GCF_022220405.1_ASM2222040v1,0
GCF_022220405.1_ASM2222040v1,0
GCF_022220405.1_ASM2222040v1,0
GCF_022220405.1_ASM2222040v1,0
GCF_022220405.1_ASM2222040v1,0
GCF_022220405.1_ASM2222040v1,0
GCF_022869765.1_ASM2286976v1,0
GCF_022869765.1_ASM2286976v1,0
GCF_022869765.1_ASM2286976v1,0
GCF_022869765.1_ASM2286976v1,1
GCF_022869765.1_ASM2286976v1,0
GCF_022869765.1_ASM2286976v1,2
GCF_022869765.1_ASM2286976v1,0
GCF_023611705.1_ASM2361170v1,0
GCF_023611705.1_ASM2361170v1,0
GCF_023611705.1_ASM2361170v1,0
GCF_022570115.1_ASM2257011v1,0
GCF_025232315.1_ASM2523231v1,0
GCF_025232515.1_ASM2523251v1,0
GCF_022220965.1_ASM2222096v1,0
GCF_022220965.1_ASM2222096v1,0
GCF_022220965.1_ASM2222096v1,0
GCF_024722495.1_ASM2472249v1,0
GCF_022221285.1_ASM2222128v1,0
GCF_022221285.1_ASM2222128v1,0
GCF_022221285.1_ASM2222128v1,0
GCF_021513675.1_ASM2151367v1,0
GCF_022810965.1_ASM2281096v1,0
GCF_023822205.1_ASM2382220v1,0
GCF_023822205.1_ASM2382220v1,0
GCF_023822205.1_ASM2382220v1,0
GCF_023547145.1_ASM2354714v1,0
GCF_023547145.1_ASM2354714v1,0
GCF_024204625.1_ASM2420462v1,0
GCF_024204625.1_ASM2420462v1,0
GCF_024204625.1_ASM2420462v1,0
GCF_025232335.1_ASM2523233v1,0
GCF_023573005.1_ASM2357300v1,0
GCF_023573005.1_ASM2357300v1,0
GCF_024224355.1_ASM2422435v1,0
GCF_024224355.1_ASM2422435v1,0
GCF_905333855.2_AI2913v1_cp,0
GCF_905333855.2_AI2913v1_cp,0
GCF_905333855.2_AI2913v1_cp,0
GCF_024126335.1_ASM2412633v1,0
GCF_022921755.1_ASM2292175v1,0
GCF_022921755.1_ASM2292175v1,0
GCF_022922915.1_ASM2292291v1,0
GCF_022648965.1_ASM2264896v1,0
GCF_021391455.1_ASM2139145v1,0
GCF_022924655.1_ASM2292465v1,0
GCF_023572885.1_ASM2357288v1,0
GCF_023572885.1_ASM2357288v1,0
GCF_025232595.1_ASM2523259v1,0
GCF_022221065.1_ASM2222106v1,0
GCF_022221065.1_ASM2222106v1,0
GCF_022221065.1_ASM2222106v1,0
GCF_022923515.1_ASM2292351v1,0
GCF_022221045.1_ASM2222104v1,0
GCF_022221045.1_ASM2222104v1,0
GCF_022221045.1_ASM2222104v1,0
GCF_018588665.2_ASM1858866v2,0
GCF_025232255.1_ASM2523225v1,0
GCF_023375305.1_ASM2337530v1,0
GCF_023375305.1_ASM2337530v1,0
GCF_021398325.1_ASM2139832v1,0
GCF_021398325.1_ASM2139832v1,0
GCF_021398325.1_ASM2139832v1,0
GCF_022220545.1_ASM2222054v1,0
GCF_022220545.1_ASM2222054v1,0
GCF_025232295.1_ASM2523229v1,0
GCF_024206735.1_ASM2420673v1,0
GCF_022221125.1_ASM2222112v1,0
GCF_022221125.1_ASM2222112v1,0
GCF_022221125.1_ASM2222112v1,0
GCF_022925675.1_ASM2292567v1,0
GCF_021484865.1_ASM2148486v1,0
GCF_021484865.1_ASM2148486v1,0
GCF_021484865.1_ASM2148486v1,0
GCF_021484865.1_ASM2148486v1,0
GCF_024717335.1_ASM2471733v1,0
GCF_024224615.1_ASM2422461v1,0
GCF_022221085.1_ASM2222108v1,0
GCF_022221085.1_ASM2222108v1,0
GCF_022221085.1_ASM2222108v1,0
GCF_022221185.1_ASM2222118v1,0
GCF_022221185.1_ASM2222118v1,0
GCF_022221185.1_ASM2222118v1,0
GCF_023347215.1_ASM2334721v1,0
GCF_023347215.1_ASM2334721v1,0
GCF_023347215.1_ASM2334721v1,0
GCF_023347215.1_ASM2334721v1,0
GCF_023347215.1_ASM2334721v1,0
GCF_023347215.1_ASM2334721v1,0
GCF_023347215.1_ASM2334721v1,0
GCF_023347215.1_ASM2334721v1,0
GCF_023347215.1_ASM2334721v1,0
GCF_023347215.1_ASM2334721v1,0
GCF_022221345.1_ASM2222134v1,0
GCF_022221345.1_ASM2222134v1,0
GCF_022221345.1_ASM2222134v1,0
GCF_024721565.1_ASM2472156v1,0
GCF_022846315.1_ASM2284631v1,0
GCF_022846315.1_ASM2284631v1,0
GCF_022846315.1_ASM2284631v1,0
GCF_021733585.2_ASM2173358v3,0
GCF_021733585.2_ASM2173358v3,0
GCF_024917615.1_ASM2491761v1,0
GCF_024917615.1_ASM2491761v1,0
GCF_021513035.1_ASM2151303v1,0
GCF_021513035.1_ASM2151303v1,0
GCF_021513035.1_ASM2151303v1,0
GCF_021513035.1_ASM2151303v1,0
GCF_022374895.2_ASM2237489v2,0
GCF_024917775.1_ASM2491777v1,0
GCF_024917775.1_ASM2491777v1,0
GCF_024917775.1_ASM2491777v1,0
GCF_024917775.1_ASM2491777v1,0
GCF_021496015.1_ASM2149601v1,0
GCF_021496015.1_ASM2149601v1,0
GCF_021496015.1_ASM2149601v1,0
GCF_023611765.1_ASM2361176v1,0
GCF_023611765.1_ASM2361176v1,0
GCF_023611765.1_ASM2361176v1,0
GCF_024205905.1_ASM2420590v1,0
GCF_024205905.1_ASM2420590v1,0
GCF_024205905.1_ASM2420590v1,0
GCF_025232355.1_ASM2523235v1,0
GCF_022220905.1_ASM2222090v1,0
GCF_905333885.2_AI2918v1_cp,0
GCF_905333885.2_AI2918v1_cp,0
GCF_905333885.2_AI2918v1_cp,0
GCF_905333885.2_AI2918v1_cp,0
GCF_905333885.2_AI2918v1_cp,0
GCF_905333885.2_AI2918v1_cp,0
GCF_905333885.2_AI2918v1_cp,0
GCF_021586915.1_ASM2158691v1,0
GCF_018588615.2_ASM1858861v2,0
GCF_023375175.1_ASM2337517v1,0
GCF_023375175.1_ASM2337517v1,0
GCF_023375175.1_ASM2337517v1,0
GCF_022220505.1_ASM2222050v1,0
GCF_022220505.1_ASM2222050v1,0
GCF_022220505.1_ASM2222050v1,0
GCF_023572905.1_ASM2357290v1,0
GCF_023375325.1_ASM2337532v1,0
GCF_023375325.1_ASM2337532v1,0
GCF_023375325.1_ASM2337532v1,0
GCF_023375325.1_ASM2337532v1,0
GCF_019704155.2_ASM1970415v2,0
GCF_019704155.2_ASM1970415v2,0
GCF_019704155.2_ASM1970415v2,0
GCF_019704155.2_ASM1970415v2,0
GCF_022592155.1_ASM2259215v1,0
GCF_022592155.1_ASM2259215v1,0
GCF_022592155.1_ASM2259215v1,0
GCF_022810865.1_ASM2281086v1,0
GCF_022569915.1_ASM2256991v1,0
GCF_023078435.1_ASM2307843v1,0
GCF_021899855.1_ASM2189985v1,2
GCF_021899855.1_ASM2189985v1,0
GCF_024918215.1_ASM2491821v1,0
GCF_024918215.1_ASM2491821v1,0
GCF_024918215.1_ASM2491821v1,0
GCF_024918215.1_ASM2491821v1,0
GCF_905322525.2_AI2623v1_cpp,0
GCF_905322525.2_AI2623v1_cpp,0
GCF_905322525.2_AI2623v1_cpp,0
GCF_905322525.2_AI2623v1_cpp,0
GCF_021513055.1_ASM2151305v1,0
GCF_021513055.1_ASM2151305v1,0
GCF_021513055.1_ASM2151305v1,0
GCF_021513055.1_ASM2151305v1,1
GCF_021513055.1_ASM2151305v1,0
GCF_022537925.1_ASM2253792v1,0
GCF_022537925.1_ASM2253792v1,0
GCF_023299565.1_ASM2329956v1,0
GCF_023299565.1_ASM2329956v1,0
GCF_025232535.1_ASM2523253v1,0
GCF_025232575.1_ASM2523257v1,0
GCF_021513635.1_ASM2151363v1,0
GCF_022921215.1_ASM2292121v1,0
GCF_022921275.1_ASM2292127v1,0
GCF_022921975.1_ASM2292197v1,0
GCF_022170785.1_ASM2217078v1,0
GCF_022220925.1_ASM2222092v1,0
GCF_022220925.1_ASM2222092v1,0
GCF_022220925.1_ASM2222092v1,0
GCF_905331345.2_AI3010v1_cpp,0
GCF_905331345.2_AI3010v1_cpp,0
GCF_022592395.1_ASM2259239v1,0
GCF_022592395.1_ASM2259239v1,0
GCF_022592395.1_ASM2259239v1,0
GCF_022592395.1_ASM2259239v1,0
GCF_024158965.2_ASM2415896v2,0
GCF_024158965.2_ASM2415896v2,0
GCF_024158965.2_ASM2415896v2,0
GCF_024158965.2_ASM2415896v2,0
GCF_024158965.2_ASM2415896v2,0
GCF_023299445.1_ASM2329944v1,0
GCF_023299445.1_ASM2329944v1,0
GCF_021498285.1_ASM2149828v1,0
GCF_022570455.1_ASM2257045v1,0
GCF_021513375.1_ASM2151337v1,0
GCF_024741855.1_ASM2474185v1,0
GCF_022925295.1_ASM2292529v1,0
GCF_023300045.1_ASM2330004v1,0
GCF_023300045.1_ASM2330004v1,0
GCF_023300045.1_ASM2330004v1,0
GCF_905337845.2_AN2351v1_cp,0
GCF_905337845.2_AN2351v1_cp,0
GCF_021459945.1_ASM2145994v1,0
GCF_021459945.1_ASM2145994v1,0
GCF_025252385.1_ASM2525238v1,0
GCF_025252385.1_ASM2525238v1,0
GCF_025252385.1_ASM2525238v1,0
GCF_025252385.1_ASM2525238v1,0
GCF_025252385.1_ASM2525238v1,0
GCF_025252385.1_ASM2525238v1,0
GCF_025252385.1_ASM2525238v1,0
GCF_025252385.1_ASM2525238v1,0
GCF_025252385.1_ASM2525238v1,0
GCF_025252385.1_ASM2525238v1,0
GCF_021459905.1_ASM2145990v1,0
GCF_021513115.1_ASM2151311v1,0
GCF_021513115.1_ASM2151311v1,0
GCF_021513115.1_ASM2151311v1,0
GCF_021513115.1_ASM2151311v1,0
GCF_022925215.1_ASM2292521v1,0
GCF_021513095.1_ASM2151309v1,0
GCF_021513095.1_ASM2151309v1,0
GCF_021513095.1_ASM2151309v1,0
GCF_021513095.1_ASM2151309v1,0
GCF_021513095.1_ASM2151309v1,0
GCF_021513095.1_ASM2151309v1,0
GCF_021513615.1_ASM2151361v1,0
GCF_023373505.1_ASM2337350v1,0
GCF_022591895.1_ASM2259189v1,0
GCF_022591895.1_ASM2259189v1,0
GCF_022591895.1_ASM2259189v1,0
GCF_024053515.2_ASM2405351v2,0
GCF_024053515.2_ASM2405351v2,0
GCF_024053515.2_ASM2405351v2,0
GCF_000508125.2_ASM50812v2,0
GCF_022220665.1_ASM2222066v1,0
GCF_022220665.1_ASM2222066v1,0
GCF_022220665.1_ASM2222066v1,0
GCF_022925795.1_ASM2292579v1,0
GCF_022925795.1_ASM2292579v1,0
GCF_023572925.1_ASM2357292v1,0
GCF_023573045.1_ASM2357304v1,0
GCF_023374275.1_ASM2337427v1,0
GCF_021474225.1_ASM2147422v1,0
GCF_021474225.1_ASM2147422v1,0
GCF_024205965.1_ASM2420596v1,0
GCF_024205965.1_ASM2420596v1,0
GCF_022220685.1_ASM2222068v1,0
GCF_022220685.1_ASM2222068v1,0
GCF_022220685.1_ASM2222068v1,0
GCF_021559755.1_ASM2155975v1,0
GCF_021559755.1_ASM2155975v1,0
GCF_024086695.1_ASM2408669v1,0
GCF_021650955.1_ASM2165095v1,0
GCF_021650955.1_ASM2165095v1,0
GCF_023195715.1_ASM2319571v1,0
GCF_023195715.1_ASM2319571v1,0
GCF_023195715.1_ASM2319571v1,0
GCF_023195715.1_ASM2319571v1,0
GCF_023195715.1_ASM2319571v1,0
GCF_023195715.1_ASM2319571v1,0
GCF_023195715.1_ASM2319571v1,0
GCF_023195715.1_ASM2319571v1,0
GCF_023195715.1_ASM2319571v1,0
GCF_023195715.1_ASM2319571v1,0
GCF_024225115.1_ASM2422511v1,0
GCF_024225115.1_ASM2422511v1,0
GCF_021496035.1_ASM2149603v1,0
GCF_021496035.1_ASM2149603v1,0
GCF_021496035.1_ASM2149603v1,0
GCF_021496035.1_ASM2149603v1,0
GCF_021496035.1_ASM2149603v1,0
GCF_000484505.2_ASM48450v2,0
GCF_025369755.1_ASM2536975v1,0
GCF_021459865.1_ASM2145986v1,0
GCF_021459865.1_ASM2145986v1,0
GCF_022220605.1_ASM2222060v1,0
GCF_022220605.1_ASM2222060v1,0
GCF_022220605.1_ASM2222060v1,0
GCF_022533445.1_ASM2253344v1,0
GCF_022533445.1_ASM2253344v1,0
GCF_024054255.2_ASM2405425v2,0
GCF_024054255.2_ASM2405425v2,0
GCF_023573125.1_ASM2357312v1,0
GCF_905322535.1_AI2624v1_cpp,0
GCF_905322535.1_AI2624v1_cpp,0
GCF_905322535.1_AI2624v1_cpp,0
GCF_022921915.1_ASM2292191v1,0
GCF_024917295.1_ASM2491729v1,0
GCF_024917295.1_ASM2491729v1,0
GCF_024917295.1_ASM2491729v1,0
GCF_023823085.1_ASM2382308v1,0
GCF_022220525.1_ASM2222052v1,0
GCF_022220525.1_ASM2222052v1,0
GCF_022220525.1_ASM2222052v1,0
GCF_905338045.2_AI3057v1_cp,0
GCF_905338045.2_AI3057v1_cp,0
GCF_905338045.2_AI3057v1_cp,0
GCF_905338045.2_AI3057v1_cp,0
GCF_905338045.2_AI3057v1_cp,0
GCF_905338045.2_AI3057v1_cp,0
GCF_022569935.1_ASM2256993v1,0
GCF_022921195.1_ASM2292119v1,0
GCF_024206615.1_ASM2420661v1,0
GCF_023375155.1_ASM2337515v1,0
GCF_023375155.1_ASM2337515v1,0
GCF_025215645.1_ASM2521564v1,0
GCF_025215645.1_ASM2521564v1,0
GCF_022921855.1_ASM2292185v1,0
GCF_021398345.1_ASM2139834v1,0
GCF_021398345.1_ASM2139834v1,0
GCF_905330835.2_AI2945v1_cpp,0
GCF_905330835.2_AI2945v1_cpp,0
GCF_021459805.1_ASM2145980v1,0
GCF_021459805.1_ASM2145980v1,0
GCF_023509255.1_ASM2350925v1,0
GCF_022439585.1_ASM2243958v1,0
GCF_022439585.1_ASM2243958v1,0
GCF_022439585.1_ASM2243958v1,0
GCF_025232555.1_ASM2523255v1,0
GCF_022921955.1_ASM2292195v1,0
GCF_022221145.1_ASM2222114v1,0
GCF_022221145.1_ASM2222114v1,0
GCF_022221145.1_ASM2222114v1,0
GCF_024334005.1_ASM2433400v1,0
GCF_022921835.1_ASM2292183v1,0
GCF_020002335.2_ASM2000233v2,0
GCF_022922015.1_ASM2292201v1,0
GCF_022221245.1_ASM2222124v1,0
GCF_022221245.1_ASM2222124v1,0
GCF_022221245.1_ASM2222124v1,0
GCF_023205595.1_ASM2320559v1,0
GCF_023205595.1_ASM2320559v1,0
GCF_023205595.1_ASM2320559v1,0
GCF_024734275.1_ASM2473427v1,0
GCF_024734275.1_ASM2473427v1,0
GCF_024734275.1_ASM2473427v1,0
GCF_024734275.1_ASM2473427v1,0
GCF_023375285.1_ASM2337528v1,0
GCF_022924515.1_ASM2292451v1,0
GCF_905338025.2_AN2363v1_cp,0
GCF_905338025.2_AN2363v1_cp,0
GCF_024917575.1_ASM2491757v1,0
GCF_024917575.1_ASM2491757v1,0
GCF_024917575.1_ASM2491757v1,0
GCF_024206635.1_ASM2420663v1,0
GCF_022343725.1_ASM2234372v1,0
GCF_022343725.1_ASM2234372v1,0
GCF_024206655.1_ASM2420665v1,0
GCF_025150565.1_ASM2515056v1,0
GCF_022870525.1_ASM2287052v1,0
GCF_022453665.1_ASM2245366v1,0
GCF_024205825.1_ASM2420582v1,0
GCF_024205825.1_ASM2420582v1,0
GCF_022221025.1_ASM2222102v1,0
GCF_022221025.1_ASM2222102v1,0
GCF_022221025.1_ASM2222102v1,0
GCF_022923135.1_ASM2292313v1,0
GCF_025232615.1_ASM2523261v1,0
GCF_022879615.1_ASM2287961v1,0
GCF_022879615.1_ASM2287961v1,0
GCF_021390035.1_ASM2139003v1,0
GCF_021390035.1_ASM2139003v1,0
GCF_021390035.1_ASM2139003v1,0
GCF_024758665.1_ASM2475866v1,0
GCF_024758665.1_ASM2475866v1,0
GCF_024758665.1_ASM2475866v1,0
GCF_024206675.1_ASM2420667v1,0
GCF_024917695.1_ASM2491769v1,0
GCF_024917695.1_ASM2491769v1,0
GCF_024917695.1_ASM2491769v1,0
GCF_024917695.1_ASM2491769v1,0
GCF_024917695.1_ASM2491769v1,0
GCF_022221005.1_ASM2222100v1,0
GCF_022221005.1_ASM2222100v1,0
GCF_022922655.1_ASM2292265v1,0
GCF_905331365.1_AI3013v2_cpp,0
GCF_905331365.1_AI3013v2_cpp,0
GCF_905331365.1_AI3013v2_cpp,0
GCF_905331365.1_AI3013v2_cpp,0
GCF_905331365.1_AI3013v2_cpp,0
GCF_905331365.1_AI3013v2_cpp,0
GCF_905331365.1_AI3013v2_cpp,0
GCF_023611785.1_ASM2361178v1,0
GCF_023611785.1_ASM2361178v1,0
GCF_023611785.1_ASM2361178v1,0
GCF_023572945.1_ASM2357294v1,0
GCF_023008225.1_ASM2300822v1,0
GCF_023008225.1_ASM2300822v1,0
GCF_022846335.1_ASM2284633v1,0
GCF_022846335.1_ASM2284633v1,0
GCF_022846335.1_ASM2284633v1,0
GCF_023299185.1_ASM2329918v1,0
GCF_023278615.1_ASM2327861v1,0
GCF_022879815.1_ASM2287981v1,0
GCF_024918255.1_ASM2491825v1,0
GCF_024918255.1_ASM2491825v1,0
GCF_024918255.1_ASM2491825v1,0
GCF_024918255.1_ASM2491825v1,0
GCF_024734255.1_ASM2473425v1,0
GCF_024734255.1_ASM2473425v1,0
GCF_024734255.1_ASM2473425v1,0
GCF_025232655.1_ASM2523265v1,0
GCF_024734685.1_ASM2473468v1,0
GCF_024918795.1_ASM2491879v1,0
GCF_024918795.1_ASM2491879v1,0
GCF_024918795.1_ASM2491879v1,0
GCF_024918795.1_ASM2491879v1,0
GCF_024918795.1_ASM2491879v1,0
GCF_025349945.1_ASM2534994v1,0
GCF_025349945.1_ASM2534994v1,0
GCF_025349945.1_ASM2534994v1,0
GCF_025349945.1_ASM2534994v1,0
GCF_025349945.1_ASM2534994v1,0
GCF_025349945.1_ASM2534994v1,0
GCF_025349945.1_ASM2534994v1,0
GCF_025349945.1_ASM2534994v1,0
GCF_025349945.1_ASM2534994v1,0
GCF_025349945.1_ASM2534994v1,0
GCF_025349945.1_ASM2534994v1,0
GCF_025349945.1_ASM2534994v1,0
GCF_025349945.1_ASM2534994v1,0
GCF_025349945.1_ASM2534994v1,0
