"strain","reference_id","classification","true_plasmid_length","true_nr_args","arg_plasmid","length_classification"
"GCF_001185665.2_ASM118566v3","NZ_CP073055.1","plasmid",324410,5,"ARG-plasmid","large"
"GCF_001185665.2_ASM118566v3","NZ_CP073056.1","plasmid",150268,0,"non-ARG-plasmid","large"
"GCF_001185665.2_ASM118566v3","NZ_CP073057.1","plasmid",114263,5,"ARG-plasmid","large"
"GCF_001185665.2_ASM118566v3","NZ_CP073058.1","plasmid",31364,0,"non-ARG-plasmid","large"
"GCF_001185665.2_ASM118566v3","NZ_CP073059.1","plasmid",5657,0,"non-ARG-plasmid","small"
"GCF_001718115.2_ASM171811v2","NZ_CP089428.1","plasmid",266289,13,"ARG-plasmid","large"
"GCF_001718115.2_ASM171811v2","NZ_CP089429.1","plasmid",66743,4,"ARG-plasmid","large"
"GCF_001718115.2_ASM171811v2","NZ_CP089430.1","plasmid",47288,1,"ARG-plasmid","large"
"GCF_001718115.2_ASM171811v2","NZ_CP089431.1","plasmid",34269,2,"ARG-plasmid","large"
"GCF_001718115.2_ASM171811v2","NZ_CP089432.1","plasmid",33041,1,"ARG-plasmid","large"
"GCF_001718115.2_ASM171811v2","NZ_CP089433.1","plasmid",23643,0,"non-ARG-plasmid","large"
"GCF_001718115.2_ASM171811v2","NZ_CP089434.1","plasmid",9294,0,"non-ARG-plasmid","small"
"GCF_001718115.2_ASM171811v2","NZ_CP089435.1","plasmid",1934,0,"non-ARG-plasmid","small"
"GCF_002852785.2_ASM285278v2","NZ_CP043359.1","plasmid",205652,5,"ARG-plasmid","large"
"GCF_002852785.2_ASM285278v2","NZ_CP043360.1","plasmid",10060,0,"non-ARG-plasmid","small"
"GCF_002852785.2_ASM285278v2","NZ_CP043358.1","plasmid",154719,4,"ARG-plasmid","large"
"GCF_002852785.2_ASM285278v2","NZ_CP043361.1","plasmid",5596,0,"non-ARG-plasmid","small"
"GCF_002853115.2_ASM285311v2","NZ_CP073286.1","plasmid",228949,0,"non-ARG-plasmid","large"
"GCF_003038135.2_ASM303813v2","NZ_CP043355.1","plasmid",78836,4,"ARG-plasmid","large"
"GCF_003038135.2_ASM303813v2","NZ_CP043356.1","plasmid",5596,0,"non-ARG-plasmid","small"
"GCF_003038135.2_ASM303813v2","NZ_CP043354.1","plasmid",99284,6,"ARG-plasmid","large"
"GCF_003261955.3_ASM326195v3","NZ_CP033392.2","plasmid",11904,0,"non-ARG-plasmid","small"
"GCF_003261955.3_ASM326195v3","NZ_CP033393.2","plasmid",5596,0,"non-ARG-plasmid","small"
"GCF_003261955.3_ASM326195v3","NZ_CP033395.2","plasmid",55373,1,"ARG-plasmid","large"
"GCF_003261955.3_ASM326195v3","NZ_CP033394.2","plasmid",82631,3,"ARG-plasmid","large"
"GCF_003937135.2_ASM393713v2","NZ_CP078034.1","plasmid",319619,19,"ARG-plasmid","large"
"GCF_003937135.2_ASM393713v2","NZ_CP078035.1","plasmid",103816,0,"non-ARG-plasmid","large"
"GCF_003937135.2_ASM393713v2","NZ_CP078036.1","plasmid",69836,1,"ARG-plasmid","large"
"GCF_003937135.2_ASM393713v2","NZ_CP078037.1","plasmid",6141,1,"ARG-plasmid","small"
"GCF_012029695.2_ASM1202969v2","NZ_CP061390.1","plasmid",183887,3,"ARG-plasmid","large"
"GCF_012029695.2_ASM1202969v2","NZ_CP061391.1","plasmid",112025,0,"non-ARG-plasmid","large"
"GCF_012029695.2_ASM1202969v2","NZ_CP061392.1","plasmid",78616,0,"non-ARG-plasmid","large"
"GCF_012029695.2_ASM1202969v2","NZ_CP061393.1","plasmid",66476,0,"non-ARG-plasmid","large"
"GCF_012029695.2_ASM1202969v2","NZ_CP061394.1","plasmid",43501,2,"ARG-plasmid","large"
"GCF_012029695.2_ASM1202969v2","NZ_CP061395.1","plasmid",9294,0,"non-ARG-plasmid","small"
"GCF_012029895.2_ASM1202989v2","NZ_CP061381.1","plasmid",161774,0,"non-ARG-plasmid","large"
"GCF_012029895.2_ASM1202989v2","NZ_CP061382.1","plasmid",136387,3,"ARG-plasmid","large"
"GCF_012029895.2_ASM1202989v2","NZ_CP061383.1","plasmid",5488,1,"ARG-plasmid","small"
"GCF_012029895.2_ASM1202989v2","NZ_CP061384.1","plasmid",1934,0,"non-ARG-plasmid","small"
"GCF_012029935.2_ASM1202993v2","NZ_CP061405.1","plasmid",162789,0,"non-ARG-plasmid","large"
"GCF_012029935.2_ASM1202993v2","NZ_CP061406.1","plasmid",85405,2,"ARG-plasmid","large"
"GCF_012029935.2_ASM1202993v2","NZ_CP061407.1","plasmid",68514,1,"ARG-plasmid","large"
"GCF_012029975.2_ASM1202997v2","NZ_CP061400.1","plasmid",128320,0,"non-ARG-plasmid","large"
"GCF_012029975.2_ASM1202997v2","NZ_CP061401.1","plasmid",77139,9,"ARG-plasmid","large"
"GCF_012029975.2_ASM1202997v2","NZ_CP061402.1","plasmid",9294,0,"non-ARG-plasmid","small"
"GCF_012029975.2_ASM1202997v2","NZ_CP061403.1","plasmid",3549,0,"non-ARG-plasmid","small"
"GCF_012030545.2_ASM1203054v2","NZ_CP061386.1","plasmid",186866,7,"ARG-plasmid","large"
"GCF_012030545.2_ASM1203054v2","NZ_CP061387.1","plasmid",114416,3,"ARG-plasmid","large"
"GCF_012030545.2_ASM1203054v2","NZ_CP061388.1","plasmid",13636,1,"ARG-plasmid","small"
"GCF_013611495.1_ASM1361149v1","NZ_CP055510.1","plasmid",333723,0,"non-ARG-plasmid","large"
"GCF_013611495.1_ASM1361149v1","NZ_CP055511.1","plasmid",115055,0,"non-ARG-plasmid","large"
"GCF_013611495.1_ASM1361149v1","NZ_CP055512.1","plasmid",95633,0,"non-ARG-plasmid","large"
"GCF_013611495.1_ASM1361149v1","NZ_CP055513.1","plasmid",35237,0,"non-ARG-plasmid","large"
"GCF_013611495.1_ASM1361149v1","NZ_CP055514.1","plasmid",4184,0,"non-ARG-plasmid","small"
"GCF_013611495.1_ASM1361149v1","NZ_CP055515.1","plasmid",2927,0,"non-ARG-plasmid","small"
"GCF_013611495.1_ASM1361149v1","NZ_CP055516.1","plasmid",1919,0,"non-ARG-plasmid","small"
"GCF_013704985.1_ASM1370498v1","NZ_CP055453.1","plasmid",41042,0,"non-ARG-plasmid","large"
"GCF_013704985.1_ASM1370498v1","NZ_CP055452.1","plasmid",244871,0,"non-ARG-plasmid","large"
"GCF_013704985.1_ASM1370498v1","NZ_CP055454.1","plasmid",38470,0,"non-ARG-plasmid","large"
"GCF_013704985.1_ASM1370498v1","NZ_CP055455.1","plasmid",3322,0,"non-ARG-plasmid","small"
"GCF_013704985.1_ASM1370498v1","NZ_CP055456.1","plasmid",3271,0,"non-ARG-plasmid","small"
"GCF_013704985.1_ASM1370498v1","NZ_CP055457.1","plasmid",2988,0,"non-ARG-plasmid","small"
"GCF_013724605.1_ASM1372460v1","NZ_CP056223.1","plasmid",176327,0,"non-ARG-plasmid","large"
"GCF_013724605.1_ASM1372460v1","NZ_CP056224.1","plasmid",111674,0,"non-ARG-plasmid","large"
"GCF_013724605.1_ASM1372460v1","NZ_CP056225.1","plasmid",69970,0,"non-ARG-plasmid","large"
"GCF_013724605.1_ASM1372460v1","NZ_CP056226.1","plasmid",65682,0,"non-ARG-plasmid","large"
"GCF_013724605.1_ASM1372460v1","NZ_CP056227.1","plasmid",3223,0,"non-ARG-plasmid","small"
"GCF_013724605.1_ASM1372460v1","NZ_CP056228.1","plasmid",1443,0,"non-ARG-plasmid","small"
"GCF_013729075.1_ASM1372907v1","NZ_CP056276.1","plasmid",248629,0,"non-ARG-plasmid","large"
"GCF_013729075.1_ASM1372907v1","NZ_CP056277.1","plasmid",51057,0,"non-ARG-plasmid","large"
"GCF_013730675.1_ASM1373067v1","NZ_CP056298.1","plasmid",131105,0,"non-ARG-plasmid","large"
"GCF_013731305.1_ASM1373130v1","NZ_CP056302.1","plasmid",267374,11,"ARG-plasmid","large"
"GCF_013731305.1_ASM1373130v1","NZ_CP056303.1","plasmid",108572,0,"non-ARG-plasmid","large"
"GCF_013731735.1_ASM1373173v1","NZ_CP056308.1","plasmid",232875,0,"non-ARG-plasmid","large"
"GCF_013731735.1_ASM1373173v1","NZ_CP056309.1","plasmid",113854,0,"non-ARG-plasmid","large"
"GCF_013731735.1_ASM1373173v1","NZ_CP056310.1","plasmid",97542,0,"non-ARG-plasmid","large"
"GCF_013731735.1_ASM1373173v1","NZ_CP056311.1","plasmid",36438,0,"non-ARG-plasmid","large"
"GCF_013731735.1_ASM1373173v1","NZ_CP056312.1","plasmid",4184,0,"non-ARG-plasmid","small"
"GCF_013731735.1_ASM1373173v1","NZ_CP056313.1","plasmid",2927,0,"non-ARG-plasmid","small"
"GCF_013734035.1_ASM1373403v1","NZ_CP056373.1","plasmid",193688,0,"non-ARG-plasmid","large"
"GCF_013734035.1_ASM1373403v1","NZ_CP056374.1","plasmid",171701,0,"non-ARG-plasmid","large"
"GCF_013734035.1_ASM1373403v1","NZ_CP056375.1","plasmid",107685,0,"non-ARG-plasmid","large"
"GCF_013734035.1_ASM1373403v1","NZ_CP056376.1","plasmid",5783,0,"non-ARG-plasmid","small"
"GCF_013734035.1_ASM1373403v1","NZ_CP056377.1","plasmid",5525,0,"non-ARG-plasmid","small"
"GCF_013734035.1_ASM1373403v1","NZ_CP056378.1","plasmid",4416,0,"non-ARG-plasmid","small"
"GCF_013734035.1_ASM1373403v1","NZ_CP056379.1","plasmid",4018,0,"non-ARG-plasmid","small"
"GCF_013734035.1_ASM1373403v1","NZ_CP056380.1","plasmid",1916,0,"non-ARG-plasmid","small"
"GCF_013735155.1_ASM1373515v1","NZ_CP056386.1","plasmid",252882,0,"non-ARG-plasmid","large"
"GCF_013735155.1_ASM1373515v1","NZ_CP056387.1","plasmid",5783,0,"non-ARG-plasmid","small"
"GCF_013735155.1_ASM1373515v1","NZ_CP056388.1","plasmid",4891,0,"non-ARG-plasmid","small"
"GCF_013735155.1_ASM1373515v1","NZ_CP056389.1","plasmid",4426,0,"non-ARG-plasmid","small"
"GCF_013735155.1_ASM1373515v1","NZ_CP056390.1","plasmid",3515,0,"non-ARG-plasmid","small"
"GCF_013735155.1_ASM1373515v1","NZ_CP056391.1","plasmid",2173,0,"non-ARG-plasmid","small"
"GCF_013735895.1_ASM1373589v1","NZ_CP056426.1","plasmid",220501,0,"non-ARG-plasmid","large"
"GCF_013735895.1_ASM1373589v1","NZ_CP056427.1","plasmid",82555,0,"non-ARG-plasmid","large"
"GCF_013735895.1_ASM1373589v1","NZ_CP056428.1","plasmid",25549,0,"non-ARG-plasmid","large"
"GCF_013735895.1_ASM1373589v1","NZ_CP056429.1","plasmid",5783,0,"non-ARG-plasmid","small"
"GCF_013735895.1_ASM1373589v1","NZ_CP056430.1","plasmid",3733,0,"non-ARG-plasmid","small"
"GCF_013735895.1_ASM1373589v1","NZ_CP056431.1","plasmid",2836,0,"non-ARG-plasmid","small"
"GCF_013736155.1_ASM1373615v1","NZ_CP056433.1","plasmid",206782,0,"non-ARG-plasmid","large"
"GCF_013736155.1_ASM1373615v1","NZ_CP056434.1","plasmid",137885,0,"non-ARG-plasmid","large"
"GCF_013736155.1_ASM1373615v1","NZ_CP056435.1","plasmid",136301,7,"ARG-plasmid","large"
"GCF_013736155.1_ASM1373615v1","NZ_CP056436.1","plasmid",107037,0,"non-ARG-plasmid","large"
"GCF_013736155.1_ASM1373615v1","NZ_CP056437.1","plasmid",48726,0,"non-ARG-plasmid","large"
"GCF_013736155.1_ASM1373615v1","NZ_CP056438.1","plasmid",5907,0,"non-ARG-plasmid","small"
"GCF_013736155.1_ASM1373615v1","NZ_CP056439.1","plasmid",3514,0,"non-ARG-plasmid","small"
"GCF_013736155.1_ASM1373615v1","NZ_CP056440.1","plasmid",1917,0,"non-ARG-plasmid","small"
"GCF_013737695.1_ASM1373769v1","NZ_CP056531.1","plasmid",224837,0,"non-ARG-plasmid","large"
"GCF_013737695.1_ASM1373769v1","NZ_CP056532.1","plasmid",111220,0,"non-ARG-plasmid","large"
"GCF_013737695.1_ASM1373769v1","NZ_CP056533.1","plasmid",74689,0,"non-ARG-plasmid","large"
"GCF_013737695.1_ASM1373769v1","NZ_CP056534.1","plasmid",6995,0,"non-ARG-plasmid","small"
"GCF_013737695.1_ASM1373769v1","NZ_CP056535.1","plasmid",5783,0,"non-ARG-plasmid","small"
"GCF_013737695.1_ASM1373769v1","NZ_CP056536.1","plasmid",5586,0,"non-ARG-plasmid","small"
"GCF_013737695.1_ASM1373769v1","NZ_CP056537.1","plasmid",4772,0,"non-ARG-plasmid","small"
"GCF_013737695.1_ASM1373769v1","NZ_CP056538.1","plasmid",3398,0,"non-ARG-plasmid","small"
"GCF_013745295.1_ASM1374529v1","NZ_CP056330.1","plasmid",6757,0,"non-ARG-plasmid","small"
"GCF_013745295.1_ASM1374529v1","NZ_CP056331.1","plasmid",5167,0,"non-ARG-plasmid","small"
"GCF_013745295.1_ASM1374529v1","NZ_CP056332.1","plasmid",4074,0,"non-ARG-plasmid","small"
"GCF_013782105.1_ASM1378210v1","NZ_CP056192.1","plasmid",246880,0,"non-ARG-plasmid","large"
"GCF_013782105.1_ASM1378210v1","NZ_CP056193.1","plasmid",72044,0,"non-ARG-plasmid","large"
"GCF_013782105.1_ASM1378210v1","NZ_CP056194.1","plasmid",70240,0,"non-ARG-plasmid","large"
"GCF_013782105.1_ASM1378210v1","NZ_CP056195.1","plasmid",14959,0,"non-ARG-plasmid","small"
"GCF_013782105.1_ASM1378210v1","NZ_CP056196.1","plasmid",5783,0,"non-ARG-plasmid","small"
"GCF_013782105.1_ASM1378210v1","NZ_CP056197.1","plasmid",2426,0,"non-ARG-plasmid","small"
"GCF_013782105.1_ASM1378210v1","NZ_CP056198.1","plasmid",1917,0,"non-ARG-plasmid","small"
"GCF_013783245.1_ASM1378324v1","NZ_CP056217.1","plasmid",144961,0,"non-ARG-plasmid","large"
"GCF_013783245.1_ASM1378324v1","NZ_CP056218.1","plasmid",4805,0,"non-ARG-plasmid","small"
"GCF_013791265.1_ASM1379126v1","NZ_CP056831.1","plasmid",152250,0,"non-ARG-plasmid","large"
"GCF_013791265.1_ASM1379126v1","NZ_CP056832.1","plasmid",5733,0,"non-ARG-plasmid","small"
"GCF_013791265.1_ASM1379126v1","NZ_CP056833.1","plasmid",3980,0,"non-ARG-plasmid","small"
"GCF_013792545.1_ASM1379254v1","NZ_CP056855.1","plasmid",188591,0,"non-ARG-plasmid","large"
"GCF_013792545.1_ASM1379254v1","NZ_CP056856.1","plasmid",115230,0,"non-ARG-plasmid","large"
"GCF_013792545.1_ASM1379254v1","NZ_CP056857.1","plasmid",55736,0,"non-ARG-plasmid","large"
"GCF_013792545.1_ASM1379254v1","NZ_CP056858.1","plasmid",53039,0,"non-ARG-plasmid","large"
"GCF_013792545.1_ASM1379254v1","NZ_CP056859.1","plasmid",2330,0,"non-ARG-plasmid","small"
"GCF_013792545.1_ASM1379254v1","NZ_CP056860.1","plasmid",1916,0,"non-ARG-plasmid","small"
"GCF_013796245.1_ASM1379624v1","NZ_CP056879.1","plasmid",199477,2,"ARG-plasmid","large"
"GCF_013796245.1_ASM1379624v1","NZ_CP056880.1","plasmid",107020,3,"ARG-plasmid","large"
"GCF_013796245.1_ASM1379624v1","NZ_CP056881.1","plasmid",4512,0,"non-ARG-plasmid","small"
"GCF_013796245.1_ASM1379624v1","NZ_CP056882.1","plasmid",3980,0,"non-ARG-plasmid","small"
"GCF_013796485.1_ASM1379648v1","NZ_CP056884.1","plasmid",198658,2,"ARG-plasmid","large"
"GCF_013796485.1_ASM1379648v1","NZ_CP056885.1","plasmid",107020,3,"ARG-plasmid","large"
"GCF_013796485.1_ASM1379648v1","NZ_CP056886.1","plasmid",4512,0,"non-ARG-plasmid","small"
"GCF_013796485.1_ASM1379648v1","NZ_CP056887.1","plasmid",3980,0,"non-ARG-plasmid","small"
"GCF_013805705.1_ASM1380570v1","NZ_CP057035.1","plasmid",227199,0,"non-ARG-plasmid","large"
"GCF_013805705.1_ASM1380570v1","NZ_CP057036.1","plasmid",86316,0,"non-ARG-plasmid","large"
"GCF_013805705.1_ASM1380570v1","NZ_CP057037.1","plasmid",4671,0,"non-ARG-plasmid","small"
"GCF_013811445.1_ASM1381144v1","NZ_CP057067.1","plasmid",242087,0,"non-ARG-plasmid","large"
"GCF_013811445.1_ASM1381144v1","NZ_CP057068.1","plasmid",217189,0,"non-ARG-plasmid","large"
"GCF_013811845.1_ASM1381184v1","NZ_CP057070.1","plasmid",4225,0,"non-ARG-plasmid","small"
"GCF_013811845.1_ASM1381184v1","NZ_CP057071.1","plasmid",2475,0,"non-ARG-plasmid","small"
"GCF_013813035.1_ASM1381303v1","NZ_CP057100.1","plasmid",140023,0,"non-ARG-plasmid","large"
"GCF_013826045.1_ASM1382604v1","NZ_CP057314.1","plasmid",194082,0,"non-ARG-plasmid","large"
"GCF_013826045.1_ASM1382604v1","NZ_CP057315.1","plasmid",147224,0,"non-ARG-plasmid","large"
"GCF_013826045.1_ASM1382604v1","NZ_CP057316.1","plasmid",110717,0,"non-ARG-plasmid","large"
"GCF_013826045.1_ASM1382604v1","NZ_CP057317.1","plasmid",53776,0,"non-ARG-plasmid","large"
"GCF_013826045.1_ASM1382604v1","NZ_CP057318.1","plasmid",44303,4,"ARG-plasmid","large"
"GCF_013834745.1_ASM1383474v1","NZ_CP057460.1","plasmid",256547,0,"non-ARG-plasmid","large"
"GCF_013834745.1_ASM1383474v1","NZ_CP057461.1","plasmid",4671,0,"non-ARG-plasmid","small"
"GCF_013834745.1_ASM1383474v1","NZ_CP057462.1","plasmid",3959,0,"non-ARG-plasmid","small"
"GCF_013895695.1_ASM1389569v1","NZ_CP057723.1","plasmid",147522,0,"non-ARG-plasmid","large"
"GCF_013895695.1_ASM1389569v1","NZ_CP057724.1","plasmid",48464,4,"ARG-plasmid","large"
"GCF_014168575.1_ASM1416857v1","NZ_AP021910.1","plasmid",139376,0,"non-ARG-plasmid","large"
"GCF_014168575.1_ASM1416857v1","NZ_AP021911.1","plasmid",80272,8,"ARG-plasmid","large"
"GCF_014168575.1_ASM1416857v1","NZ_AP021912.1","plasmid",4572,0,"non-ARG-plasmid","small"
"GCF_014168575.1_ASM1416857v1","NZ_AP021913.1","plasmid",4163,0,"non-ARG-plasmid","small"
"GCF_014168655.1_ASM1416865v1","NZ_AP021930.1","plasmid",140912,0,"non-ARG-plasmid","large"
"GCF_014168655.1_ASM1416865v1","NZ_AP021931.1","plasmid",130287,8,"ARG-plasmid","large"
"GCF_014168655.1_ASM1416865v1","NZ_AP021932.1","plasmid",3981,0,"non-ARG-plasmid","small"
"GCF_014169335.1_ASM1416933v1","NZ_AP022140.1","plasmid",85044,0,"non-ARG-plasmid","large"
"GCF_014169335.1_ASM1416933v1","NZ_AP022141.1","plasmid",3852,0,"non-ARG-plasmid","small"
"GCF_014170015.1_ASM1417001v1","NZ_CP054287.1","plasmid",156980,11,"ARG-plasmid","large"
"GCF_014170015.1_ASM1417001v1","NZ_CP054286.1","plasmid",176330,0,"non-ARG-plasmid","large"
"GCF_014170015.1_ASM1417001v1","NZ_CP054288.1","plasmid",43620,2,"ARG-plasmid","large"
"GCF_014170935.1_ASM1417093v1","NZ_AP022079.1","plasmid",224088,0,"non-ARG-plasmid","large"
"GCF_014170935.1_ASM1417093v1","NZ_AP022080.1","plasmid",176026,11,"ARG-plasmid","large"
"GCF_014170935.1_ASM1417093v1","NZ_AP022081.1","plasmid",55445,4,"ARG-plasmid","large"
"GCF_014170935.1_ASM1417093v1","NZ_AP022082.1","plasmid",41162,0,"non-ARG-plasmid","large"
"GCF_014170935.1_ASM1417093v1","NZ_AP022083.1","plasmid",4012,0,"non-ARG-plasmid","small"
"GCF_014170935.1_ASM1417093v1","NZ_AP022084.1","plasmid",3729,0,"non-ARG-plasmid","small"
"GCF_014189335.1_ASM1418933v1","NZ_CP047272.1","plasmid",271744,10,"ARG-plasmid","large"
"GCF_014788765.1_ASM1478876v1","NZ_CP061833.1","plasmid",193300,8,"ARG-plasmid","large"
"GCF_014788765.1_ASM1478876v1","NZ_CP061834.1","plasmid",47819,9,"ARG-plasmid","large"
"GCF_014905815.1_ASM1490581v1","NZ_AP023454.1","plasmid",93470,8,"ARG-plasmid","large"
"GCF_014905815.1_ASM1490581v1","NZ_AP023455.1","plasmid",185769,2,"ARG-plasmid","large"
"GCF_014905815.1_ASM1490581v1","NZ_AP023456.1","plasmid",56841,5,"ARG-plasmid","large"
"GCF_014905815.1_ASM1490581v1","NZ_AP023457.1","plasmid",9294,0,"non-ARG-plasmid","small"
"GCF_014905815.1_ASM1490581v1","NZ_AP023458.1","plasmid",3991,0,"non-ARG-plasmid","small"
"GCF_015138775.1_ASM1513877v1","NZ_AP022528.1","plasmid",142386,0,"non-ARG-plasmid","large"
"GCF_015138775.1_ASM1513877v1","NZ_AP022529.1","plasmid",44402,1,"ARG-plasmid","large"
"GCF_015138775.1_ASM1513877v1","NZ_AP022530.1","plasmid",4906,0,"non-ARG-plasmid","small"
"GCF_015138775.1_ASM1513877v1","NZ_AP022531.1","plasmid",4680,0,"non-ARG-plasmid","small"
"GCF_015138775.1_ASM1513877v1","NZ_AP022532.1","plasmid",2315,0,"non-ARG-plasmid","small"
"GCF_015694065.1_ASM1569406v1","NZ_CP065173.1","plasmid",228345,7,"ARG-plasmid","large"
"GCF_015694065.1_ASM1569406v1","NZ_CP065174.1","plasmid",216731,0,"non-ARG-plasmid","large"
"GCF_015694065.1_ASM1569406v1","NZ_CP065175.1","plasmid",132740,0,"non-ARG-plasmid","large"
"GCF_015694065.1_ASM1569406v1","NZ_CP065176.1","plasmid",101966,0,"non-ARG-plasmid","large"
"GCF_015694085.1_ASM1569408v1","NZ_CP065168.1","plasmid",236645,9,"ARG-plasmid","large"
"GCF_015694085.1_ASM1569408v1","NZ_CP065169.1","plasmid",3514,0,"non-ARG-plasmid","small"
"GCF_015694085.1_ASM1569408v1","NZ_CP065170.1","plasmid",3223,0,"non-ARG-plasmid","small"
"GCF_015694085.1_ASM1569408v1","NZ_CP065171.1","plasmid",2723,0,"non-ARG-plasmid","small"
"GCF_016066025.1_ASM1606602v1","NZ_CP065826.1","plasmid",213019,6,"ARG-plasmid","large"
"GCF_016066025.1_ASM1606602v1","NZ_CP065827.1","plasmid",110785,0,"non-ARG-plasmid","large"
"GCF_016066025.1_ASM1606602v1","NZ_CP065828.1","plasmid",4444,0,"non-ARG-plasmid","small"
"GCF_016066025.1_ASM1606602v1","NZ_CP065829.1","plasmid",3674,0,"non-ARG-plasmid","small"
"GCF_016066025.1_ASM1606602v1","NZ_CP065830.1","plasmid",3303,0,"non-ARG-plasmid","small"
"GCF_016066295.1_ASM1606629v1","NZ_CP065832.1","plasmid",202315,0,"non-ARG-plasmid","large"
"GCF_016066475.1_ASM1606647v1","NZ_CP065834.1","plasmid",301560,0,"non-ARG-plasmid","large"
"GCF_016066475.1_ASM1606647v1","NZ_CP065835.1","plasmid",5542,0,"non-ARG-plasmid","small"
"GCF_016066475.1_ASM1606647v1","NZ_CP065836.1","plasmid",4165,0,"non-ARG-plasmid","small"
"GCF_016066475.1_ASM1606647v1","NZ_CP065837.1","plasmid",3550,0,"non-ARG-plasmid","small"
"GCF_016629585.1_ASM1662958v1","NZ_AP024174.1","plasmid",252273,0,"non-ARG-plasmid","large"
"GCF_016629585.1_ASM1662958v1","NZ_AP024175.1","plasmid",130933,0,"non-ARG-plasmid","large"
"GCF_016629585.1_ASM1662958v1","NZ_AP024176.1","plasmid",110494,0,"non-ARG-plasmid","large"
"GCF_016629585.1_ASM1662958v1","NZ_AP024177.1","plasmid",69826,0,"non-ARG-plasmid","large"
"GCF_016629585.1_ASM1662958v1","NZ_AP024178.1","plasmid",5783,0,"non-ARG-plasmid","small"
"GCF_016629585.1_ASM1662958v1","NZ_AP024179.1","plasmid",4941,0,"non-ARG-plasmid","small"
"GCF_016629585.1_ASM1662958v1","NZ_AP024180.1","plasmid",3359,0,"non-ARG-plasmid","small"
"GCF_016727425.1_ASM1672742v1","NZ_CP068140.1","plasmid",196709,2,"ARG-plasmid","large"
"GCF_016727425.1_ASM1672742v1","NZ_CP068141.1","plasmid",3991,0,"non-ARG-plasmid","small"
"GCF_016727425.1_ASM1672742v1","NZ_CP068142.1","plasmid",3407,0,"non-ARG-plasmid","small"
"GCF_016804025.1_ASM1680402v1","NZ_CP053017.1","plasmid",169824,6,"ARG-plasmid","large"
"GCF_016804025.1_ASM1680402v1","NZ_CP053018.1","plasmid",220791,7,"ARG-plasmid","large"
"GCF_016804025.1_ASM1680402v1","NZ_CP053019.1","plasmid",10060,0,"non-ARG-plasmid","small"
"GCF_016804025.1_ASM1680402v1","NZ_CP053020.1","plasmid",5596,0,"non-ARG-plasmid","small"
"GCF_016903115.1_ASM1690311v1","NZ_CP069833.1","plasmid",79088,1,"ARG-plasmid","large"
"GCF_016903115.1_ASM1690311v1","NZ_CP069829.1","plasmid",39709,6,"ARG-plasmid","large"
"GCF_016903115.1_ASM1690311v1","NZ_CP069834.1","plasmid",33323,0,"non-ARG-plasmid","large"
"GCF_016903115.1_ASM1690311v1","NZ_CP069830.1","plasmid",5167,0,"non-ARG-plasmid","small"
"GCF_016903115.1_ASM1690311v1","NZ_CP069835.1","plasmid",4981,0,"non-ARG-plasmid","small"
"GCF_016903115.1_ASM1690311v1","NZ_CP069831.1","plasmid",4634,0,"non-ARG-plasmid","small"
"GCF_016903115.1_ASM1690311v1","NZ_CP069832.1","plasmid",4062,0,"non-ARG-plasmid","small"
"GCF_016903115.1_ASM1690311v1","NZ_CP069836.1","plasmid",2579,1,"ARG-plasmid","small"
"GCF_016903115.1_ASM1690311v1","NZ_CP069838.1","plasmid",2422,0,"non-ARG-plasmid","small"
"GCF_016903115.1_ASM1690311v1","NZ_CP069839.1","plasmid",1908,0,"non-ARG-plasmid","small"
"GCF_016903115.1_ASM1690311v1","NZ_CP069837.1","plasmid",1506,0,"non-ARG-plasmid","small"
"GCF_016903155.1_ASM1690315v1","NZ_CP069822.1","plasmid",187940,9,"ARG-plasmid","large"
"GCF_016903155.1_ASM1690315v1","NZ_CP069825.1","plasmid",32168,0,"non-ARG-plasmid","large"
"GCF_016903155.1_ASM1690315v1","NZ_CP069826.1","plasmid",16752,0,"non-ARG-plasmid","small"
"GCF_016903155.1_ASM1690315v1","NZ_CP069823.1","plasmid",9294,0,"non-ARG-plasmid","small"
"GCF_016903155.1_ASM1690315v1","NZ_CP069824.1","plasmid",4167,0,"non-ARG-plasmid","small"
"GCF_016903155.1_ASM1690315v1","NZ_CP069827.1","plasmid",2340,0,"non-ARG-plasmid","small"
"GCF_016903195.1_ASM1690319v1","NZ_CP069844.1","plasmid",54312,6,"ARG-plasmid","large"
"GCF_016903195.1_ASM1690319v1","NZ_CP069845.1","plasmid",53443,18,"ARG-plasmid","large"
"GCF_016903195.1_ASM1690319v1","NZ_CP069846.1","plasmid",241224,0,"non-ARG-plasmid","large"
"GCF_016903195.1_ASM1690319v1","NZ_CP069848.1","plasmid",74290,0,"non-ARG-plasmid","large"
"GCF_016903195.1_ASM1690319v1","NZ_CP069849.1","plasmid",40577,8,"ARG-plasmid","large"
"GCF_016903195.1_ASM1690319v1","NZ_CP069850.1","plasmid",5698,0,"non-ARG-plasmid","small"
"GCF_016903235.1_ASM1690323v1","NZ_CP069854.1","plasmid",137344,0,"non-ARG-plasmid","large"
"GCF_016903235.1_ASM1690323v1","NZ_CP069855.1","plasmid",104812,0,"non-ARG-plasmid","large"
"GCF_016903235.1_ASM1690323v1","NZ_CP069860.1","plasmid",18968,0,"non-ARG-plasmid","large"
"GCF_016903235.1_ASM1690323v1","NZ_CP069856.1","plasmid",17733,3,"ARG-plasmid","small"
"GCF_016903235.1_ASM1690323v1","NZ_CP069857.1","plasmid",5430,0,"non-ARG-plasmid","small"
"GCF_016903235.1_ASM1690323v1","NZ_CP069858.1","plasmid",3005,0,"non-ARG-plasmid","small"
"GCF_016903235.1_ASM1690323v1","NZ_CP069859.1","plasmid",1270,0,"non-ARG-plasmid","small"
"GCF_016903255.1_ASM1690325v1","NZ_CP069862.1","plasmid",139085,0,"non-ARG-plasmid","large"
"GCF_016903255.1_ASM1690325v1","NZ_CP069863.1","plasmid",204513,0,"non-ARG-plasmid","large"
"GCF_016903295.1_ASM1690329v1","NZ_CP069875.1","plasmid",141542,11,"ARG-plasmid","large"
"GCF_016903295.1_ASM1690329v1","NZ_CP069874.1","plasmid",15995,0,"non-ARG-plasmid","small"
"GCF_016903295.1_ASM1690329v1","NZ_CP069878.1","plasmid",3818,0,"non-ARG-plasmid","small"
"GCF_016903295.1_ASM1690329v1","NZ_CP069876.1","plasmid",3373,0,"non-ARG-plasmid","small"
"GCF_016903295.1_ASM1690329v1","NZ_CP069879.1","plasmid",2413,0,"non-ARG-plasmid","small"
"GCF_016903295.1_ASM1690329v1","NZ_CP069880.1","plasmid",2107,0,"non-ARG-plasmid","small"
"GCF_016903295.1_ASM1690329v1","NZ_CP069877.1","plasmid",1917,0,"non-ARG-plasmid","small"
"GCF_016903295.1_ASM1690329v1","NZ_CP069881.1","plasmid",1596,0,"non-ARG-plasmid","small"
"GCF_016903395.1_ASM1690339v1","NZ_CP069901.1","plasmid",3223,0,"non-ARG-plasmid","small"
"GCF_016903395.1_ASM1690339v1","NZ_CP069902.1","plasmid",60872,0,"non-ARG-plasmid","large"
"GCF_016903395.1_ASM1690339v1","NZ_CP069903.1","plasmid",95480,0,"non-ARG-plasmid","large"
"GCF_016903395.1_ASM1690339v1","NZ_CP069904.1","plasmid",358127,0,"non-ARG-plasmid","large"
"GCF_016903395.1_ASM1690339v1","NZ_CP069905.1","plasmid",3557,0,"non-ARG-plasmid","small"
"GCF_016903395.1_ASM1690339v1","NZ_CP069906.1","plasmid",27963,0,"non-ARG-plasmid","large"
"GCF_016903395.1_ASM1690339v1","NZ_CP069908.1","plasmid",8911,0,"non-ARG-plasmid","small"
"GCF_016903395.1_ASM1690339v1","NZ_CP069909.1","plasmid",4809,0,"non-ARG-plasmid","small"
"GCF_016903475.1_ASM1690347v1","NZ_CP070173.1","plasmid",253456,0,"non-ARG-plasmid","large"
"GCF_016903475.1_ASM1690347v1","NZ_CP070174.1","plasmid",68255,0,"non-ARG-plasmid","large"
"GCF_016903475.1_ASM1690347v1","NZ_CP070175.1","plasmid",3810,0,"non-ARG-plasmid","small"
"GCF_016903475.1_ASM1690347v1","NZ_CP070176.1","plasmid",1260,0,"non-ARG-plasmid","small"
"GCF_016903495.1_ASM1690349v1","NZ_CP069941.1","plasmid",224781,0,"non-ARG-plasmid","large"
"GCF_016903515.1_ASM1690351v1","NZ_CP070178.1","plasmid",67308,3,"ARG-plasmid","large"
"GCF_016903515.1_ASM1690351v1","NZ_CP070185.1","plasmid",29895,1,"ARG-plasmid","large"
"GCF_016903515.1_ASM1690351v1","NZ_CP070187.1","plasmid",12439,4,"ARG-plasmid","small"
"GCF_016903515.1_ASM1690351v1","NZ_CP070183.1","plasmid",5214,0,"non-ARG-plasmid","small"
"GCF_016903515.1_ASM1690351v1","NZ_CP070180.1","plasmid",5167,0,"non-ARG-plasmid","small"
"GCF_016903515.1_ASM1690351v1","NZ_CP070184.1","plasmid",4981,0,"non-ARG-plasmid","small"
"GCF_016903515.1_ASM1690351v1","NZ_CP070186.1","plasmid",4515,0,"non-ARG-plasmid","small"
"GCF_016903515.1_ASM1690351v1","NZ_CP070179.1","plasmid",4062,0,"non-ARG-plasmid","small"
"GCF_016903515.1_ASM1690351v1","NZ_CP070181.1","plasmid",2579,1,"ARG-plasmid","small"
"GCF_016903515.1_ASM1690351v1","NZ_CP070188.1","plasmid",2531,0,"non-ARG-plasmid","small"
"GCF_016903515.1_ASM1690351v1","NZ_CP070189.1","plasmid",2422,0,"non-ARG-plasmid","small"
"GCF_016903515.1_ASM1690351v1","NZ_CP070190.1","plasmid",1908,0,"non-ARG-plasmid","small"
"GCF_016903515.1_ASM1690351v1","NZ_CP070182.1","plasmid",1506,0,"non-ARG-plasmid","small"
"GCF_016903735.1_ASM1690373v1","NZ_CP069947.1","plasmid",93379,6,"ARG-plasmid","large"
"GCF_016903735.1_ASM1690373v1","NZ_CP069948.1","plasmid",85832,2,"ARG-plasmid","large"
"GCF_016903735.1_ASM1690373v1","NZ_CP069949.1","plasmid",4167,0,"non-ARG-plasmid","small"
"GCF_016903775.1_ASM1690377v1","NZ_CP069963.1","plasmid",64998,1,"ARG-plasmid","large"
"GCF_016903775.1_ASM1690377v1","NZ_CP069964.1","plasmid",232943,0,"non-ARG-plasmid","large"
"GCF_016903775.1_ASM1690377v1","NZ_CP069965.1","plasmid",5463,0,"non-ARG-plasmid","small"
"GCF_016903775.1_ASM1690377v1","NZ_CP069966.1","plasmid",27282,1,"ARG-plasmid","large"
"GCF_016903795.1_ASM1690379v1","NZ_CP069967.1","plasmid",48813,4,"ARG-plasmid","large"
"GCF_016903795.1_ASM1690379v1","NZ_CP069969.1","plasmid",198770,0,"non-ARG-plasmid","large"
"GCF_016903875.1_ASM1690387v1","NZ_CP069993.1","plasmid",178126,0,"non-ARG-plasmid","large"
"GCF_016903895.1_ASM1690389v1","NZ_CP069995.1","plasmid",181659,2,"ARG-plasmid","large"
"GCF_016903955.1_ASM1690395v1","NZ_CP070016.1","plasmid",248897,10,"ARG-plasmid","large"
"GCF_016903955.1_ASM1690395v1","NZ_CP070017.1","plasmid",5627,0,"non-ARG-plasmid","small"
"GCF_016903955.1_ASM1690395v1","NZ_CP070018.1","plasmid",2804,0,"non-ARG-plasmid","small"
"GCF_016903955.1_ASM1690395v1","NZ_CP070019.1","plasmid",1668,0,"non-ARG-plasmid","small"
"GCF_016904035.1_ASM1690403v1","NZ_CP070038.1","plasmid",160443,0,"non-ARG-plasmid","large"
"GCF_016904035.1_ASM1690403v1","NZ_CP070039.1","plasmid",107040,0,"non-ARG-plasmid","large"
"GCF_016904035.1_ASM1690403v1","NZ_CP070040.1","plasmid",1917,0,"non-ARG-plasmid","small"
"GCF_016904095.1_ASM1690409v1","NZ_CP070047.1","plasmid",215306,4,"ARG-plasmid","large"
"GCF_016904275.1_ASM1690427v1","NZ_CP070083.1","plasmid",208838,5,"ARG-plasmid","large"
"GCF_016904275.1_ASM1690427v1","NZ_CP070086.1","plasmid",43380,1,"ARG-plasmid","large"
"GCF_016904275.1_ASM1690427v1","NZ_CP070084.1","plasmid",42567,4,"ARG-plasmid","large"
"GCF_016904275.1_ASM1690427v1","NZ_CP070082.1","plasmid",15271,1,"ARG-plasmid","small"
"GCF_016904275.1_ASM1690427v1","NZ_CP070085.1","plasmid",5585,0,"non-ARG-plasmid","small"
"GCF_016904295.1_ASM1690429v1","NZ_CP070089.1","plasmid",207010,0,"non-ARG-plasmid","large"
"GCF_016904295.1_ASM1690429v1","NZ_CP070090.1","plasmid",1916,0,"non-ARG-plasmid","small"
"GCF_016904295.1_ASM1690429v1","NZ_CP070091.1","plasmid",8868,0,"non-ARG-plasmid","small"
"GCF_016904315.1_ASM1690431v1","NZ_CP070093.1","plasmid",210510,3,"ARG-plasmid","large"
"GCF_016904315.1_ASM1690431v1","NZ_CP070094.1","plasmid",4071,0,"non-ARG-plasmid","small"
"GCF_016904415.1_ASM1690441v1","NZ_CP070106.1","plasmid",30085,0,"non-ARG-plasmid","large"
"GCF_016904415.1_ASM1690441v1","NZ_CP070107.1","plasmid",6169,4,"ARG-plasmid","small"
"GCF_016904415.1_ASM1690441v1","NZ_CP070108.1","plasmid",173599,0,"non-ARG-plasmid","large"
"GCF_016904415.1_ASM1690441v1","NZ_CP070109.1","plasmid",5840,0,"non-ARG-plasmid","small"
"GCF_016904415.1_ASM1690441v1","NZ_CP070110.1","plasmid",78821,4,"ARG-plasmid","large"
"GCF_016904595.1_ASM1690459v1","NZ_CP070159.1","plasmid",248395,11,"ARG-plasmid","large"
"GCF_016904595.1_ASM1690459v1","NZ_CP070160.1","plasmid",2058,0,"non-ARG-plasmid","small"
"GCF_016904595.1_ASM1690459v1","NZ_CP070161.1","plasmid",1222,0,"non-ARG-plasmid","small"
"GCF_017639065.1_ASM1763906v1","NZ_CP067256.1","plasmid",172022,6,"ARG-plasmid","large"
"GCF_017639065.1_ASM1763906v1","NZ_CP067257.1","plasmid",65548,9,"ARG-plasmid","large"
"GCF_017639065.1_ASM1763906v1","NZ_CP067258.1","plasmid",3991,0,"non-ARG-plasmid","small"
"GCF_017639065.1_ASM1763906v1","NZ_CP067259.1","plasmid",3357,0,"non-ARG-plasmid","small"
"GCF_017639065.1_ASM1763906v1","NZ_CP067260.1","plasmid",3005,0,"non-ARG-plasmid","small"
"GCF_017894285.1_ASM1789428v1","NZ_CP058359.1","plasmid",161606,1,"ARG-plasmid","large"
"GCF_017894285.1_ASM1789428v1","NZ_CP058360.1","plasmid",103005,4,"ARG-plasmid","large"
"GCF_017894305.1_ASM1789430v1","NZ_CP058362.1","plasmid",191595,1,"ARG-plasmid","large"
"GCF_017894305.1_ASM1789430v1","NZ_CP058363.1","plasmid",147971,11,"ARG-plasmid","large"
"GCF_018075085.1_ASM1807508v1","NZ_CP072950.1","plasmid",235674,0,"non-ARG-plasmid","large"
"GCF_018075085.1_ASM1807508v1","NZ_CP072951.1","plasmid",120604,5,"ARG-plasmid","large"
"GCF_018075085.1_ASM1807508v1","NZ_CP072952.1","plasmid",2328,0,"non-ARG-plasmid","small"
"GCF_018283505.2_ASM1828350v2","NZ_CP084394.1","plasmid",112868,0,"non-ARG-plasmid","large"
"GCF_018283505.2_ASM1828350v2","NZ_CP084396.1","plasmid",4167,0,"non-ARG-plasmid","small"
"GCF_018283505.2_ASM1828350v2","NZ_CP084395.1","plasmid",374716,16,"ARG-plasmid","large"
"GCF_018310495.1_ASM1831049v1","NZ_CP074089.1","plasmid",112868,0,"non-ARG-plasmid","large"
"GCF_018310495.1_ASM1831049v1","NZ_CP074091.1","plasmid",4167,0,"non-ARG-plasmid","small"
"GCF_018310495.1_ASM1831049v1","NZ_CP074088.1","plasmid",335489,9,"ARG-plasmid","large"
"GCF_018310495.1_ASM1831049v1","NZ_CP074090.1","plasmid",54064,9,"ARG-plasmid","large"
"GCF_019797985.1_ASM1979798v1","NZ_CP073628.1","plasmid",247177,11,"ARG-plasmid","large"
"GCF_019797985.1_ASM1979798v1","NZ_CP073629.1","plasmid",3991,0,"non-ARG-plasmid","small"
"GCF_019798005.1_ASM1979800v1","NZ_CP073784.1","plasmid",218832,0,"non-ARG-plasmid","large"
"GCF_019798005.1_ASM1979800v1","NZ_CP073785.1","plasmid",115132,9,"ARG-plasmid","large"
"GCF_019798005.1_ASM1979800v1","NZ_CP073786.1","plasmid",110542,0,"non-ARG-plasmid","large"
"GCF_019798005.1_ASM1979800v1","NZ_CP073787.1","plasmid",4627,0,"non-ARG-plasmid","small"
"GCF_019798025.1_ASM1979802v1","NZ_CP073789.1","plasmid",225831,0,"non-ARG-plasmid","large"
"GCF_019798025.1_ASM1979802v1","NZ_CP073790.1","plasmid",40128,1,"ARG-plasmid","large"
"GCF_019798185.1_ASM1979818v1","NZ_CP073792.1","plasmid",155175,0,"non-ARG-plasmid","large"
"GCF_019798185.1_ASM1979818v1","NZ_CP073793.1","plasmid",82998,7,"ARG-plasmid","large"
"GCF_019798185.1_ASM1979818v1","NZ_CP073794.1","plasmid",8801,0,"non-ARG-plasmid","small"
"GCF_019798185.1_ASM1979818v1","NZ_CP073795.1","plasmid",5463,0,"non-ARG-plasmid","small"
"GCF_019798185.1_ASM1979818v1","NZ_CP073796.1","plasmid",4947,0,"non-ARG-plasmid","small"
"GCF_020080145.1_ASM2008014v1","NZ_CP083446.1","plasmid",349403,18,"ARG-plasmid","large"
"GCF_020080145.1_ASM2008014v1","NZ_CP083447.1","plasmid",48038,2,"ARG-plasmid","large"
"GCF_020149785.1_ASM2014978v1","NZ_CP083797.1","plasmid",283677,0,"non-ARG-plasmid","large"
"GCF_020149785.1_ASM2014978v1","NZ_CP083798.1","plasmid",120982,0,"non-ARG-plasmid","large"
"GCF_020149785.1_ASM2014978v1","NZ_CP083799.1","plasmid",33875,0,"non-ARG-plasmid","large"
"GCF_020149785.1_ASM2014978v1","NZ_CP083800.1","plasmid",4048,0,"non-ARG-plasmid","small"
"GCF_020149785.1_ASM2014978v1","NZ_CP083801.1","plasmid",3514,0,"non-ARG-plasmid","small"
"GCF_020149825.1_ASM2014982v1","NZ_CP083785.1","plasmid",44303,0,"non-ARG-plasmid","large"
"GCF_020149825.1_ASM2014982v1","NZ_CP083786.1","plasmid",42290,1,"ARG-plasmid","large"
"GCF_020149825.1_ASM2014982v1","NZ_CP083787.1","plasmid",5542,0,"non-ARG-plasmid","small"
"GCF_020149825.1_ASM2014982v1","NZ_CP083788.1","plasmid",4616,0,"non-ARG-plasmid","small"
"GCF_020149825.1_ASM2014982v1","NZ_CP083789.1","plasmid",4268,0,"non-ARG-plasmid","small"
"GCF_020149875.1_ASM2014987v1","NZ_CP083776.1","plasmid",256803,0,"non-ARG-plasmid","large"
"GCF_020149875.1_ASM2014987v1","NZ_CP083777.1","plasmid",69339,0,"non-ARG-plasmid","large"
"GCF_020149875.1_ASM2014987v1","NZ_CP083778.1","plasmid",33739,0,"non-ARG-plasmid","large"
"GCF_020149875.1_ASM2014987v1","NZ_CP083779.1","plasmid",5521,0,"non-ARG-plasmid","small"
"GCF_020149875.1_ASM2014987v1","NZ_CP083780.1","plasmid",4740,0,"non-ARG-plasmid","small"
"GCF_020149875.1_ASM2014987v1","NZ_CP083781.1","plasmid",3643,0,"non-ARG-plasmid","small"
"GCF_020149875.1_ASM2014987v1","NZ_CP083782.1","plasmid",3549,0,"non-ARG-plasmid","small"
"GCF_020149875.1_ASM2014987v1","NZ_CP083783.1","plasmid",2892,0,"non-ARG-plasmid","small"
"GCF_020149895.1_ASM2014989v1","NZ_CP083769.1","plasmid",250893,0,"non-ARG-plasmid","large"
"GCF_020149895.1_ASM2014989v1","NZ_CP083770.1","plasmid",33807,0,"non-ARG-plasmid","large"
"GCF_020149895.1_ASM2014989v1","NZ_CP083771.1","plasmid",6352,0,"non-ARG-plasmid","small"
"GCF_020149895.1_ASM2014989v1","NZ_CP083772.1","plasmid",5214,0,"non-ARG-plasmid","small"
"GCF_020149895.1_ASM2014989v1","NZ_CP083773.1","plasmid",4176,0,"non-ARG-plasmid","small"
"GCF_020149895.1_ASM2014989v1","NZ_CP083774.1","plasmid",2833,0,"non-ARG-plasmid","small"
"GCF_020525485.1_ASM2052548v1","NZ_CP084867.1","plasmid",230142,0,"non-ARG-plasmid","large"
"GCF_020525645.1_ASM2052564v1","NZ_CP084857.1","plasmid",167482,0,"non-ARG-plasmid","large"
"GCF_020525645.1_ASM2052564v1","NZ_CP084858.1","plasmid",4369,0,"non-ARG-plasmid","small"
"GCF_020525845.1_ASM2052584v1","NZ_CP084861.1","plasmid",226445,0,"non-ARG-plasmid","large"
"GCF_020525845.1_ASM2052584v1","NZ_CP084862.1","plasmid",62914,0,"non-ARG-plasmid","large"
"GCF_020525845.1_ASM2052584v1","NZ_CP084863.1","plasmid",3629,0,"non-ARG-plasmid","small"
"GCF_020525845.1_ASM2052584v1","NZ_CP084864.1","plasmid",3359,0,"non-ARG-plasmid","small"
"GCF_020525845.1_ASM2052584v1","NZ_CP084865.1","plasmid",2317,0,"non-ARG-plasmid","small"
"GCF_020525865.1_ASM2052586v1","NZ_CP084824.1","plasmid",206626,0,"non-ARG-plasmid","large"
"GCF_020525885.1_ASM2052588v1","NZ_CP084869.1","plasmid",239249,0,"non-ARG-plasmid","large"
"GCF_020525905.1_ASM2052590v1","NZ_CP084826.1","plasmid",109041,0,"non-ARG-plasmid","large"
"GCF_020525905.1_ASM2052590v1","NZ_CP084827.1","plasmid",15708,0,"non-ARG-plasmid","small"
"GCF_020525905.1_ASM2052590v1","NZ_CP084828.1","plasmid",2970,0,"non-ARG-plasmid","small"
"GCF_020525965.1_ASM2052596v1","NZ_CP084831.1","plasmid",172669,0,"non-ARG-plasmid","large"
"GCF_020525965.1_ASM2052596v1","NZ_CP084840.1","plasmid",7076,0,"non-ARG-plasmid","small"
"GCF_020525965.1_ASM2052596v1","NZ_CP084841.1","plasmid",4134,0,"non-ARG-plasmid","small"
"GCF_020525965.1_ASM2052596v1","NZ_CP084842.1","plasmid",4090,0,"non-ARG-plasmid","small"
"GCF_020525965.1_ASM2052596v1","NZ_CP084832.1","plasmid",131535,0,"non-ARG-plasmid","large"
"GCF_020525965.1_ASM2052596v1","NZ_CP084833.1","plasmid",111507,0,"non-ARG-plasmid","large"
"GCF_020525965.1_ASM2052596v1","NZ_CP084834.1","plasmid",109813,0,"non-ARG-plasmid","large"
"GCF_020525965.1_ASM2052596v1","NZ_CP084835.1","plasmid",9989,0,"non-ARG-plasmid","small"
"GCF_020525965.1_ASM2052596v1","NZ_CP084836.1","plasmid",8638,0,"non-ARG-plasmid","small"
"GCF_020525965.1_ASM2052596v1","NZ_CP084837.1","plasmid",8210,0,"non-ARG-plasmid","small"
"GCF_020525965.1_ASM2052596v1","NZ_CP084838.1","plasmid",8065,0,"non-ARG-plasmid","small"
"GCF_020525965.1_ASM2052596v1","NZ_CP084839.1","plasmid",7566,0,"non-ARG-plasmid","small"
"GCF_020525985.1_ASM2052598v1","NZ_CP084844.1","plasmid",155131,0,"non-ARG-plasmid","large"
"GCF_020525985.1_ASM2052598v1","NZ_CP084845.1","plasmid",111501,0,"non-ARG-plasmid","large"
"GCF_020525985.1_ASM2052598v1","NZ_CP084846.1","plasmid",101892,0,"non-ARG-plasmid","large"
"GCF_020525985.1_ASM2052598v1","NZ_CP084847.1","plasmid",49648,0,"non-ARG-plasmid","large"
"GCF_020525985.1_ASM2052598v1","NZ_CP084848.1","plasmid",16388,0,"non-ARG-plasmid","small"
"GCF_020525985.1_ASM2052598v1","NZ_CP084849.1","plasmid",12069,0,"non-ARG-plasmid","small"
"GCF_020525985.1_ASM2052598v1","NZ_CP084850.1","plasmid",4018,0,"non-ARG-plasmid","small"
"GCF_020525985.1_ASM2052598v1","NZ_CP084851.1","plasmid",1240,0,"non-ARG-plasmid","small"
"GCF_020526005.1_ASM2052600v1","NZ_CP084853.1","plasmid",196349,11,"ARG-plasmid","large"
"GCF_020526005.1_ASM2052600v1","NZ_CP084854.1","plasmid",110871,0,"non-ARG-plasmid","large"
"GCF_020526005.1_ASM2052600v1","NZ_CP084855.1","plasmid",43550,0,"non-ARG-plasmid","large"
"GCF_020526025.1_ASM2052602v1","NZ_CP084872.1","plasmid",153259,5,"ARG-plasmid","large"
"GCF_021057265.1_ASM2105726v1","NZ_CP084985.1","plasmid",382377,13,"ARG-plasmid","large"
"GCF_021166235.1_ASM2116623v1","NZ_CP089028.1","plasmid",107790,5,"ARG-plasmid","large"
"GCF_021166235.1_ASM2116623v1","NZ_CP089029.1","plasmid",124933,10,"ARG-plasmid","large"
"GCF_021166235.1_ASM2116623v1","NZ_CP089030.1","plasmid",229288,0,"non-ARG-plasmid","large"
"GCF_021166235.1_ASM2116623v1","NZ_CP089025.1","plasmid",3511,0,"non-ARG-plasmid","small"
"GCF_021166235.1_ASM2116623v1","NZ_CP089026.1","plasmid",3631,0,"non-ARG-plasmid","small"
"GCF_021166235.1_ASM2116623v1","NZ_CP089027.1","plasmid",63408,1,"ARG-plasmid","large"
"GCF_021228815.1_ASM2122881v1","NZ_CP089384.1","plasmid",243534,10,"ARG-plasmid","large"
"GCF_021497265.1_ASM2149726v1","NZ_CP053863.1","plasmid",222711,0,"non-ARG-plasmid","large"
"GCF_021497265.1_ASM2149726v1","NZ_CP053864.1","plasmid",111001,0,"non-ARG-plasmid","large"
"GCF_021655415.1_ASM2165541v1","NZ_AP025247.1","plasmid",215041,0,"non-ARG-plasmid","large"
"GCF_021655435.1_ASM2165543v1","NZ_AP024569.1","plasmid",220075,6,"ARG-plasmid","large"
"GCF_021655455.1_ASM2165545v1","NZ_AP024571.1","plasmid",220075,6,"ARG-plasmid","large"
"GCF_021655475.1_ASM2165547v1","NZ_AP024573.1","plasmid",220075,6,"ARG-plasmid","large"
"GCF_021655475.1_ASM2165547v1","NZ_AP024575.1","plasmid",36504,4,"ARG-plasmid","large"
"GCF_021655475.1_ASM2165547v1","NZ_AP024574.1","plasmid",110870,0,"non-ARG-plasmid","large"
"GCF_021655495.1_ASM2165549v1","NZ_AP024577.1","plasmid",220075,6,"ARG-plasmid","large"
"GCF_021655495.1_ASM2165549v1","NZ_AP024578.1","plasmid",36504,4,"ARG-plasmid","large"
"GCF_021655515.1_ASM2165551v1","NZ_AP024580.1","plasmid",220075,6,"ARG-plasmid","large"
"GCF_021655515.1_ASM2165551v1","NZ_AP024581.1","plasmid",36504,4,"ARG-plasmid","large"
"GCF_022369815.1_ASM2236981v1","NZ_CP070894.1","plasmid",4167,0,"non-ARG-plasmid","small"
"GCF_022369815.1_ASM2236981v1","NZ_CP070891.1","plasmid",341276,8,"ARG-plasmid","large"
"GCF_022369815.1_ASM2236981v1","NZ_CP070893.1","plasmid",42041,6,"ARG-plasmid","large"
"GCF_022369815.1_ASM2236981v1","NZ_CP070892.1","plasmid",112868,0,"non-ARG-plasmid","large"
"GCF_022369925.1_ASM2236992v1","NZ_CP071031.1","plasmid",4167,0,"non-ARG-plasmid","small"
"GCF_022369925.1_ASM2236992v1","NZ_CP071030.1","plasmid",54064,9,"ARG-plasmid","large"
"GCF_022369925.1_ASM2236992v1","NZ_CP071028.1","plasmid",340568,9,"ARG-plasmid","large"
"GCF_022369925.1_ASM2236992v1","NZ_CP071029.1","plasmid",112868,0,"non-ARG-plasmid","large"
"GCF_904863055.1_INF022","NZ_LR890210.1","plasmid",197166,0,"non-ARG-plasmid","large"
"GCF_904863055.1_INF022","NZ_LR890211.1","plasmid",111450,0,"non-ARG-plasmid","large"
"GCF_904863055.1_INF022","NZ_LR890212.1","plasmid",3681,0,"non-ARG-plasmid","small"
"GCF_904863055.1_INF022","NZ_LR890213.1","plasmid",3271,0,"non-ARG-plasmid","small"
"GCF_904863055.1_INF022","NZ_LR890214.1","plasmid",2988,0,"non-ARG-plasmid","small"
"GCF_904863075.1_INF334","NZ_LR890236.1","plasmid",169535,0,"non-ARG-plasmid","large"
"GCF_904863075.1_INF334","NZ_LR890237.1","plasmid",112069,0,"non-ARG-plasmid","large"
"GCF_904863075.1_INF334","NZ_LR890238.1","plasmid",3712,0,"non-ARG-plasmid","small"
"GCF_904863075.1_INF334","NZ_LR890239.1","plasmid",3619,0,"non-ARG-plasmid","small"
"GCF_904863095.1_INF174","NZ_LR890246.1","plasmid",238703,9,"ARG-plasmid","large"
"GCF_904863095.1_INF174","NZ_LR890247.1","plasmid",4369,0,"non-ARG-plasmid","small"
"GCF_904863115.1_INF329","NZ_LR890241.1","plasmid",218412,7,"ARG-plasmid","large"
"GCF_904863115.1_INF329","NZ_LR890242.1","plasmid",4064,0,"non-ARG-plasmid","small"
"GCF_904863115.1_INF329","NZ_LR890243.1","plasmid",3223,0,"non-ARG-plasmid","small"
"GCF_904863115.1_INF329","NZ_LR890244.1","plasmid",1916,0,"non-ARG-plasmid","small"
"GCF_904863125.1_INF357","NZ_LR890218.1","plasmid",192965,0,"non-ARG-plasmid","large"
"GCF_904863125.1_INF357","NZ_LR890219.1","plasmid",4938,0,"non-ARG-plasmid","small"
"GCF_904863125.1_INF357","NZ_LR890220.1","plasmid",4421,0,"non-ARG-plasmid","small"
"GCF_904863125.1_INF357","NZ_LR890221.1","plasmid",3258,0,"non-ARG-plasmid","small"
"GCF_904863125.1_INF357","NZ_LR890222.1","plasmid",3674,0,"non-ARG-plasmid","small"
"GCF_904863125.1_INF357","NZ_LR890223.1","plasmid",3302,0,"non-ARG-plasmid","small"
"GCF_904863125.1_INF357","NZ_LR890224.1","plasmid",2892,0,"non-ARG-plasmid","small"
"GCF_904863135.1_INF310","NZ_LR890255.1","plasmid",161308,0,"non-ARG-plasmid","large"
"GCF_904863135.1_INF310","NZ_LR890256.1","plasmid",128238,17,"ARG-plasmid","large"
"GCF_904863135.1_INF310","NZ_LR890257.1","plasmid",111123,0,"non-ARG-plasmid","large"
"GCF_904863135.1_INF310","NZ_LR890258.1","plasmid",70656,1,"ARG-plasmid","large"
"GCF_904863135.1_INF310","NZ_LR890259.1","plasmid",65499,1,"ARG-plasmid","large"
"GCF_904863135.1_INF310","NZ_LR890260.1","plasmid",53948,0,"non-ARG-plasmid","large"
"GCF_904863135.1_INF310","NZ_LR890261.1","plasmid",9294,0,"non-ARG-plasmid","small"
"GCF_904863145.1_INF072","NZ_LR890186.1","plasmid",239736,0,"non-ARG-plasmid","large"
"GCF_904863145.1_INF072","NZ_LR890187.1","plasmid",4693,0,"non-ARG-plasmid","small"
"GCF_904863145.1_INF072","NZ_LR890188.1","plasmid",3302,0,"non-ARG-plasmid","small"
"GCF_904863195.1_INF133","NZ_LR890190.1","plasmid",1916,0,"non-ARG-plasmid","small"
"GCF_904863195.1_INF133","NZ_LR890191.1","plasmid",245649,10,"ARG-plasmid","large"
"GCF_904863195.1_INF133","NZ_LR890192.1","plasmid",218183,0,"non-ARG-plasmid","large"
"GCF_904863195.1_INF133","NZ_LR890193.1","plasmid",120029,0,"non-ARG-plasmid","large"
"GCF_904863195.1_INF133","NZ_LR890194.1","plasmid",4064,0,"non-ARG-plasmid","small"
"GCF_904863195.1_INF133","NZ_LR890195.1","plasmid",3619,0,"non-ARG-plasmid","small"
"GCF_904863195.1_INF133","NZ_LR890196.1","plasmid",3377,0,"non-ARG-plasmid","small"
"GCF_904863195.1_INF133","NZ_LR890197.1","plasmid",3223,0,"non-ARG-plasmid","small"
"GCF_904863205.1_INF008","NZ_LR890203.1","plasmid",237123,10,"ARG-plasmid","large"
"GCF_904863215.1_INF277","NZ_LR890205.1","plasmid",259454,16,"ARG-plasmid","large"
"GCF_904863215.1_INF277","NZ_LR890206.1","plasmid",95815,0,"non-ARG-plasmid","large"
"GCF_904863215.1_INF277","NZ_LR890207.1","plasmid",3223,0,"non-ARG-plasmid","small"
"GCF_904863215.1_INF277","NZ_LR890208.1","plasmid",1916,0,"non-ARG-plasmid","small"
"GCF_904863225.1_KSB1_6J","NZ_LR890231.1","plasmid",244844,10,"ARG-plasmid","large"
"GCF_904863225.1_KSB1_6J","NZ_LR890232.1","plasmid",4064,0,"non-ARG-plasmid","small"
"GCF_904863225.1_KSB1_6J","NZ_LR890233.1","plasmid",3223,0,"non-ARG-plasmid","small"
"GCF_904863225.1_KSB1_6J","NZ_LR890234.1","plasmid",1916,0,"non-ARG-plasmid","small"
"GCF_904863245.1_INF355","NZ_LR890278.1","plasmid",184852,7,"ARG-plasmid","large"
"GCF_904863245.1_INF355","NZ_LR890279.1","plasmid",134665,0,"non-ARG-plasmid","large"
"GCF_904863245.1_INF355","NZ_LR890280.1","plasmid",3514,0,"non-ARG-plasmid","small"
"GCF_904863265.1_INF156","NZ_LR890287.1","plasmid",168148,0,"non-ARG-plasmid","large"
"GCF_904863275.1_INF188","NZ_LR890308.1","plasmid",263601,11,"ARG-plasmid","large"
"GCF_904863275.1_INF188","NZ_LR890309.1","plasmid",4651,0,"non-ARG-plasmid","small"
"GCF_904863275.1_INF188","NZ_LR890310.1","plasmid",3662,0,"non-ARG-plasmid","small"
"GCF_904863275.1_INF188","NZ_LR890311.1","plasmid",2756,0,"non-ARG-plasmid","small"
"GCF_904863285.1_INF231","NZ_LR890357.1","plasmid",195539,0,"non-ARG-plasmid","large"
"GCF_904863285.1_INF231","NZ_LR890358.1","plasmid",3664,0,"non-ARG-plasmid","small"
"GCF_904863285.1_INF231","NZ_LR890359.1","plasmid",2667,0,"non-ARG-plasmid","small"
"GCF_904863295.1_KSB2_2B","NZ_LR890344.1","plasmid",260491,14,"ARG-plasmid","large"
"GCF_904863295.1_KSB2_2B","NZ_LR890345.1","plasmid",15648,4,"ARG-plasmid","small"
"GCF_904863295.1_KSB2_2B","NZ_LR890346.1","plasmid",4064,0,"non-ARG-plasmid","small"
"GCF_904863295.1_KSB2_2B","NZ_LR890347.1","plasmid",3223,0,"non-ARG-plasmid","small"
"GCF_904863295.1_KSB2_2B","NZ_LR890348.1","plasmid",1916,0,"non-ARG-plasmid","small"
"GCF_904863325.1_INF354","NZ_LR890370.1","plasmid",234772,10,"ARG-plasmid","large"
"GCF_904863325.1_INF354","NZ_LR890371.1","plasmid",71104,0,"non-ARG-plasmid","large"
"GCF_904863325.1_INF354","NZ_LR890372.1","plasmid",3223,0,"non-ARG-plasmid","small"
"GCF_904863325.1_INF354","NZ_LR890373.1","plasmid",2723,0,"non-ARG-plasmid","small"
"GCF_904863335.1_KSB1_5B","NZ_LR890354.1","plasmid",175381,0,"non-ARG-plasmid","large"
"GCF_904863335.1_KSB1_5B","NZ_LR890355.1","plasmid",102016,16,"ARG-plasmid","large"
"GCF_904863355.1_INF148","NZ_LR890382.1","plasmid",4064,0,"non-ARG-plasmid","small"
"GCF_904863355.1_INF148","NZ_LR890383.1","plasmid",3223,0,"non-ARG-plasmid","small"
"GCF_904863365.1_INF049","NZ_LR890361.1","plasmid",233670,0,"non-ARG-plasmid","large"
"GCF_904863365.1_INF049","NZ_LR890362.1","plasmid",80592,0,"non-ARG-plasmid","large"
"GCF_904863365.1_INF049","NZ_LR890363.1","plasmid",76738,0,"non-ARG-plasmid","large"
"GCF_904863365.1_INF049","NZ_LR890364.1","plasmid",4424,0,"non-ARG-plasmid","small"
"GCF_904863365.1_INF049","NZ_LR890365.1","plasmid",3888,0,"non-ARG-plasmid","small"
"GCF_904863365.1_INF049","NZ_LR890366.1","plasmid",3549,0,"non-ARG-plasmid","small"
"GCF_904863365.1_INF049","NZ_LR890367.1","plasmid",3325,0,"non-ARG-plasmid","small"
"GCF_904863365.1_INF049","NZ_LR890368.1","plasmid",2496,0,"non-ARG-plasmid","small"
"GCF_904863395.1_INF250","NZ_LR890375.1","plasmid",243634,10,"ARG-plasmid","large"
"GCF_904863395.1_INF250","NZ_LR890376.1","plasmid",71104,0,"non-ARG-plasmid","large"
"GCF_904863395.1_INF250","NZ_LR890377.1","plasmid",4228,0,"non-ARG-plasmid","small"
"GCF_904863395.1_INF250","NZ_LR890378.1","plasmid",3514,0,"non-ARG-plasmid","small"
"GCF_904863395.1_INF250","NZ_LR890379.1","plasmid",3223,0,"non-ARG-plasmid","small"
"GCF_904863395.1_INF250","NZ_LR890380.1","plasmid",2723,0,"non-ARG-plasmid","small"
"GCF_904863405.1_INF215","NZ_LR890318.1","plasmid",226712,0,"non-ARG-plasmid","large"
"GCF_904863405.1_INF215","NZ_LR890319.1","plasmid",56100,0,"non-ARG-plasmid","large"
"GCF_904863425.1_INF348","NZ_LR890324.1","plasmid",138469,0,"non-ARG-plasmid","large"
"GCF_904863425.1_INF348","NZ_LR890325.1","plasmid",137629,0,"non-ARG-plasmid","large"
"GCF_904863435.1_KSB1_1B","NZ_LR890292.1","plasmid",133165,0,"non-ARG-plasmid","large"
"GCF_904863435.1_KSB1_1B","NZ_LR890293.1","plasmid",113743,0,"non-ARG-plasmid","large"
"GCF_904863435.1_KSB1_1B","NZ_LR890294.1","plasmid",67877,0,"non-ARG-plasmid","large"
"GCF_904863435.1_KSB1_1B","NZ_LR890295.1","plasmid",62194,1,"ARG-plasmid","large"
"GCF_904863435.1_KSB1_1B","NZ_LR890296.1","plasmid",6134,0,"non-ARG-plasmid","small"
"GCF_904863435.1_KSB1_1B","NZ_LR890297.1","plasmid",5585,0,"non-ARG-plasmid","small"
"GCF_904863435.1_KSB1_1B","NZ_LR890298.1","plasmid",5393,0,"non-ARG-plasmid","small"
"GCF_904864445.1_KSB1_6G","NZ_LR890458.1","plasmid",311523,0,"non-ARG-plasmid","large"
"GCF_904864445.1_KSB1_6G","NZ_LR890459.1","plasmid",243662,0,"non-ARG-plasmid","large"
"GCF_904864445.1_KSB1_6G","NZ_LR890460.1","plasmid",5840,0,"non-ARG-plasmid","small"
"GCF_904864445.1_KSB1_6G","NZ_LR890461.1","plasmid",4665,0,"non-ARG-plasmid","small"
"GCF_904864445.1_KSB1_6G","NZ_LR890462.1","plasmid",3514,0,"non-ARG-plasmid","small"
"GCF_904864445.1_KSB1_6G","NZ_LR890463.1","plasmid",1612,0,"non-ARG-plasmid","small"
"GCF_904864465.1_INF298","NZ_LR890427.1","plasmid",161308,0,"non-ARG-plasmid","large"
"GCF_904864465.1_INF298","NZ_LR890428.1","plasmid",128238,17,"ARG-plasmid","large"
"GCF_904864465.1_INF298","NZ_LR890429.1","plasmid",111123,0,"non-ARG-plasmid","large"
"GCF_904864465.1_INF298","NZ_LR890430.1","plasmid",70656,1,"ARG-plasmid","large"
"GCF_904864465.1_INF298","NZ_LR890431.1","plasmid",65499,1,"ARG-plasmid","large"
"GCF_904864465.1_INF298","NZ_LR890432.1","plasmid",53938,0,"non-ARG-plasmid","large"
"GCF_904864465.1_INF298","NZ_LR890433.1","plasmid",9294,0,"non-ARG-plasmid","small"
"GCF_904864475.1_INF168","NZ_LR890472.1","plasmid",177028,0,"non-ARG-plasmid","large"
"GCF_904864475.1_INF168","NZ_LR890473.1","plasmid",40217,0,"non-ARG-plasmid","large"
"GCF_904864505.1_INF331","NZ_LR890425.1","plasmid",184695,0,"non-ARG-plasmid","large"
"GCF_904864515.1_KSB2_2C","NZ_LR890392.1","plasmid",244845,10,"ARG-plasmid","large"
"GCF_904864515.1_KSB2_2C","NZ_LR890393.1","plasmid",3223,0,"non-ARG-plasmid","small"
"GCF_904864515.1_KSB2_2C","NZ_LR890394.1","plasmid",1916,0,"non-ARG-plasmid","small"
"GCF_904864525.1_INF350","NZ_LR890423.1","plasmid",152399,4,"ARG-plasmid","large"
"GCF_904864535.1_INF313","NZ_LR890416.1","plasmid",243620,10,"ARG-plasmid","large"
"GCF_904864535.1_INF313","NZ_LR890417.1","plasmid",71104,0,"non-ARG-plasmid","large"
"GCF_904864535.1_INF313","NZ_LR890418.1","plasmid",5783,0,"non-ARG-plasmid","small"
"GCF_904864535.1_INF313","NZ_LR890419.1","plasmid",3514,0,"non-ARG-plasmid","small"
"GCF_904864535.1_INF313","NZ_LR890420.1","plasmid",3223,0,"non-ARG-plasmid","small"
"GCF_904864535.1_INF313","NZ_LR890421.1","plasmid",2723,0,"non-ARG-plasmid","small"
"GCF_904864545.1_KSB1_9J","NZ_LR890435.1","plasmid",212029,0,"non-ARG-plasmid","large"
"GCF_904864545.1_KSB1_9J","NZ_LR890436.1","plasmid",58367,0,"non-ARG-plasmid","large"
"GCF_904864545.1_KSB1_9J","NZ_LR890437.1","plasmid",34343,0,"non-ARG-plasmid","large"
"GCF_904864595.1_INF333","NZ_LR890385.1","plasmid",244759,10,"ARG-plasmid","large"
"GCF_904864595.1_INF333","NZ_LR890386.1","plasmid",3223,0,"non-ARG-plasmid","small"
"GCF_904864595.1_INF333","NZ_LR890387.1","plasmid",1916,0,"non-ARG-plasmid","small"
"GCF_904864605.1_INF044","NZ_LR890396.1","plasmid",227214,9,"ARG-plasmid","large"
"GCF_904864605.1_INF044","NZ_LR890397.1","plasmid",4411,0,"non-ARG-plasmid","small"
"GCF_904864605.1_INF044","NZ_LR890398.1","plasmid",3559,0,"non-ARG-plasmid","small"
"GCF_904864625.1_INF171","NZ_LR890447.1","plasmid",158730,0,"non-ARG-plasmid","large"
"GCF_904864625.1_INF171","NZ_LR890448.1","plasmid",29473,0,"non-ARG-plasmid","large"
"GCF_904864625.1_INF171","NZ_LR890449.1","plasmid",3966,0,"non-ARG-plasmid","small"
"GCF_904864625.1_INF171","NZ_LR890450.1","plasmid",2442,0,"non-ARG-plasmid","small"
"GCF_904864645.1_INF079","NZ_LR890465.1","plasmid",233932,0,"non-ARG-plasmid","large"
"GCF_904865675.1_INF358","NZ_LR890475.1","plasmid",269868,0,"non-ARG-plasmid","large"
"GCF_904865685.1_INF182","NZ_LR890555.1","plasmid",112133,0,"non-ARG-plasmid","large"
"GCF_904865695.1_INF319","NZ_LR890543.1","plasmid",268509,0,"non-ARG-plasmid","large"
"GCF_904865695.1_INF319","NZ_LR890544.1","plasmid",111995,0,"non-ARG-plasmid","large"
"GCF_904865695.1_INF319","NZ_LR890545.1","plasmid",73736,2,"ARG-plasmid","large"
"GCF_904865695.1_INF319","NZ_LR890546.1","plasmid",52976,2,"ARG-plasmid","large"
"GCF_904865715.1_KSB1_5H","NZ_LR890501.1","plasmid",161308,0,"non-ARG-plasmid","large"
"GCF_904865715.1_KSB1_5H","NZ_LR890502.1","plasmid",128238,17,"ARG-plasmid","large"
"GCF_904865715.1_KSB1_5H","NZ_LR890503.1","plasmid",111123,0,"non-ARG-plasmid","large"
"GCF_904865715.1_KSB1_5H","NZ_LR890504.1","plasmid",70656,1,"ARG-plasmid","large"
"GCF_904865715.1_KSB1_5H","NZ_LR890505.1","plasmid",65499,1,"ARG-plasmid","large"
"GCF_904865715.1_KSB1_5H","NZ_LR890506.1","plasmid",53943,0,"non-ARG-plasmid","large"
"GCF_904865715.1_KSB1_5H","NZ_LR890507.1","plasmid",9294,0,"non-ARG-plasmid","small"
"GCF_904865735.1_INF361","NZ_LR890528.1","plasmid",190324,8,"ARG-plasmid","large"
"GCF_904865735.1_INF361","NZ_LR890529.1","plasmid",134665,0,"non-ARG-plasmid","large"
"GCF_904865735.1_INF361","NZ_LR890530.1","plasmid",3514,0,"non-ARG-plasmid","small"
"GCF_904865745.1_INF247","NZ_LR890563.1","plasmid",159592,10,"ARG-plasmid","large"
"GCF_904865755.1_INF341","NZ_LR890491.1","plasmid",196682,0,"non-ARG-plasmid","large"
"GCF_904865755.1_INF341","NZ_LR890492.1","plasmid",9294,0,"non-ARG-plasmid","small"
"GCF_904865765.1_KSB2_9A","NZ_LR890565.1","plasmid",228690,6,"ARG-plasmid","large"
"GCF_904865765.1_KSB2_9A","NZ_LR890566.1","plasmid",4064,0,"non-ARG-plasmid","small"
"GCF_904865765.1_KSB2_9A","NZ_LR890567.1","plasmid",3223,0,"non-ARG-plasmid","small"
"GCF_904865765.1_KSB2_9A","NZ_LR890568.1","plasmid",1916,0,"non-ARG-plasmid","small"
"GCF_904865785.1_INF142","NZ_LR890548.1","plasmid",188520,5,"ARG-plasmid","large"
"GCF_904865785.1_INF142","NZ_LR890549.1","plasmid",147932,0,"non-ARG-plasmid","large"
"GCF_904865785.1_INF142","NZ_LR890550.1","plasmid",89345,9,"ARG-plasmid","large"
"GCF_904865785.1_INF142","NZ_LR890551.1","plasmid",9465,1,"ARG-plasmid","small"
"GCF_904865785.1_INF142","NZ_LR890552.1","plasmid",4660,0,"non-ARG-plasmid","small"
"GCF_904865785.1_INF142","NZ_LR890553.1","plasmid",3825,0,"non-ARG-plasmid","small"
"GCF_904865795.1_KSB2_10B","NZ_LR890485.1","plasmid",244845,10,"ARG-plasmid","large"
"GCF_904865795.1_KSB2_10B","NZ_LR890486.1","plasmid",53776,0,"non-ARG-plasmid","large"
"GCF_904865795.1_KSB2_10B","NZ_LR890487.1","plasmid",4064,0,"non-ARG-plasmid","small"
"GCF_904865795.1_KSB2_10B","NZ_LR890488.1","plasmid",3223,0,"non-ARG-plasmid","small"
"GCF_904865795.1_KSB2_10B","NZ_LR890489.1","plasmid",1916,0,"non-ARG-plasmid","small"
"GCF_904865805.1_INF144","NZ_LR890570.1","plasmid",186641,0,"non-ARG-plasmid","large"
"GCF_904865815.1_INF281","NZ_LR890516.1","plasmid",161308,0,"non-ARG-plasmid","large"
"GCF_904865815.1_INF281","NZ_LR890517.1","plasmid",128238,17,"ARG-plasmid","large"
"GCF_904865815.1_INF281","NZ_LR890518.1","plasmid",111123,0,"non-ARG-plasmid","large"
"GCF_904865815.1_INF281","NZ_LR890519.1","plasmid",70656,1,"ARG-plasmid","large"
"GCF_904865815.1_INF281","NZ_LR890520.1","plasmid",65499,1,"ARG-plasmid","large"
"GCF_904865815.1_INF281","NZ_LR890521.1","plasmid",53943,0,"non-ARG-plasmid","large"
"GCF_904865815.1_INF281","NZ_LR890522.1","plasmid",9294,0,"non-ARG-plasmid","small"
"GCF_904865825.1_INF018","NZ_LR890494.1","plasmid",5087,0,"non-ARG-plasmid","small"
"GCF_904865825.1_INF018","NZ_LR890495.1","plasmid",3549,0,"non-ARG-plasmid","small"
"GCF_904865825.1_INF018","NZ_LR890496.1","plasmid",3223,0,"non-ARG-plasmid","small"
"GCF_904865825.1_INF018","NZ_LR890497.1","plasmid",3012,0,"non-ARG-plasmid","small"
"GCF_904865825.1_INF018","NZ_LR890498.1","plasmid",2936,0,"non-ARG-plasmid","small"
"GCF_904865825.1_INF018","NZ_LR890499.1","plasmid",1916,0,"non-ARG-plasmid","small"
"GCF_904865845.1_INF302","NZ_LR890557.1","plasmid",244845,10,"ARG-plasmid","large"
"GCF_904865845.1_INF302","NZ_LR890558.1","plasmid",53776,0,"non-ARG-plasmid","large"
"GCF_904865845.1_INF302","NZ_LR890559.1","plasmid",4064,0,"non-ARG-plasmid","small"
"GCF_904865845.1_INF302","NZ_LR890560.1","plasmid",3223,0,"non-ARG-plasmid","small"
"GCF_904865845.1_INF302","NZ_LR890561.1","plasmid",1916,0,"non-ARG-plasmid","small"
"GCF_904866195.1_INF327","NZ_LR890572.1","plasmid",227807,6,"ARG-plasmid","large"
"GCF_904866195.1_INF327","NZ_LR890573.1","plasmid",212097,0,"non-ARG-plasmid","large"
"GCF_904866195.1_INF327","NZ_LR890574.1","plasmid",4064,0,"non-ARG-plasmid","small"
"GCF_904866195.1_INF327","NZ_LR890575.1","plasmid",3223,0,"non-ARG-plasmid","small"
"GCF_904866205.1_INF145","NZ_LR890584.1","plasmid",126908,0,"non-ARG-plasmid","large"
"GCF_904866205.1_INF145","NZ_LR890585.1","plasmid",5921,0,"non-ARG-plasmid","small"
"GCF_904866205.1_INF145","NZ_LR890586.1","plasmid",4439,0,"non-ARG-plasmid","small"
"GCF_904866215.1_INF359","NZ_LR890617.1","plasmid",269043,11,"ARG-plasmid","large"
"GCF_904866215.1_INF359","NZ_LR890618.1","plasmid",75695,0,"non-ARG-plasmid","large"
"GCF_904866235.1_INF122","NZ_LR890601.1","plasmid",72169,0,"non-ARG-plasmid","large"
"GCF_904866235.1_INF122","NZ_LR890602.1","plasmid",6615,0,"non-ARG-plasmid","small"
"GCF_904866255.1_INF223","NZ_LR890596.1","plasmid",244314,8,"ARG-plasmid","large"
"GCF_904866255.1_INF223","NZ_LR890597.1","plasmid",60529,3,"ARG-plasmid","large"
"GCF_904866285.1_INF344","NZ_LR890641.1","plasmid",190324,8,"ARG-plasmid","large"
"GCF_904866285.1_INF344","NZ_LR890642.1","plasmid",134665,0,"non-ARG-plasmid","large"
"GCF_904866295.1_KSB2_1C","NZ_LR890621.1","plasmid",230118,0,"non-ARG-plasmid","large"
"GCF_904866295.1_KSB2_1C","NZ_LR890622.1","plasmid",3896,0,"non-ARG-plasmid","small"
"GCF_904866295.1_KSB2_1C","NZ_LR890623.1","plasmid",3549,0,"non-ARG-plasmid","small"
"GCF_904866315.1_INF346","NZ_LR890644.1","plasmid",42290,1,"ARG-plasmid","large"
"GCF_904866315.1_INF346","NZ_LR890645.1","plasmid",44191,0,"non-ARG-plasmid","large"
"GCF_904866315.1_INF346","NZ_LR890646.1","plasmid",5542,0,"non-ARG-plasmid","small"
"GCF_904866315.1_INF346","NZ_LR890647.1","plasmid",4616,0,"non-ARG-plasmid","small"
"GCF_904866325.1_INF299","NZ_LR890633.1","plasmid",161308,0,"non-ARG-plasmid","large"
"GCF_904866325.1_INF299","NZ_LR890634.1","plasmid",128238,17,"ARG-plasmid","large"
"GCF_904866325.1_INF299","NZ_LR890635.1","plasmid",111123,0,"non-ARG-plasmid","large"
"GCF_904866325.1_INF299","NZ_LR890636.1","plasmid",70656,1,"ARG-plasmid","large"
"GCF_904866325.1_INF299","NZ_LR890637.1","plasmid",65499,1,"ARG-plasmid","large"
"GCF_904866325.1_INF299","NZ_LR890638.1","plasmid",53939,0,"non-ARG-plasmid","large"
"GCF_904866325.1_INF299","NZ_LR890639.1","plasmid",9294,0,"non-ARG-plasmid","small"
"GCF_904866335.1_INF266","NZ_LR890649.1","plasmid",195420,0,"non-ARG-plasmid","large"
"GCF_904866335.1_INF266","NZ_LR890650.1","plasmid",70921,0,"non-ARG-plasmid","large"
"GCF_904866375.1_INF242","NZ_LR890625.1","plasmid",233683,0,"non-ARG-plasmid","large"
"GCF_904866375.1_INF242","NZ_LR890626.1","plasmid",5251,0,"non-ARG-plasmid","small"
"GCF_904866395.1_INF321","NZ_LR890670.1","plasmid",123160,0,"non-ARG-plasmid","large"
"GCF_904866395.1_INF321","NZ_LR890671.1","plasmid",115932,0,"non-ARG-plasmid","large"
"GCF_904866395.1_INF321","NZ_LR890672.1","plasmid",4518,0,"non-ARG-plasmid","small"
"GCF_904866395.1_INF321","NZ_LR890673.1","plasmid",3813,0,"non-ARG-plasmid","small"
"GCF_904866395.1_INF321","NZ_LR890674.1","plasmid",3415,0,"non-ARG-plasmid","small"
"GCF_904866395.1_INF321","NZ_LR890675.1","plasmid",4548,0,"non-ARG-plasmid","small"
"GCF_904866395.1_INF321","NZ_LR890676.1","plasmid",3109,0,"non-ARG-plasmid","small"
"GCF_904866395.1_INF321","NZ_LR890677.1","plasmid",1917,0,"non-ARG-plasmid","small"
"GCF_904866395.1_INF321","NZ_LR890678.1","plasmid",1240,0,"non-ARG-plasmid","small"
"GCF_904866405.1_INF279","NZ_LR890680.1","plasmid",243460,10,"ARG-plasmid","large"
"GCF_904866405.1_INF279","NZ_LR890681.1","plasmid",71104,0,"non-ARG-plasmid","large"
"GCF_904866405.1_INF279","NZ_LR890682.1","plasmid",5783,0,"non-ARG-plasmid","small"
"GCF_904866405.1_INF279","NZ_LR890683.1","plasmid",3514,0,"non-ARG-plasmid","small"
"GCF_904866405.1_INF279","NZ_LR890684.1","plasmid",3223,0,"non-ARG-plasmid","small"
"GCF_904866405.1_INF279","NZ_LR890685.1","plasmid",2723,0,"non-ARG-plasmid","small"
"GCF_904866415.1_INF201","NZ_LR890687.1","plasmid",169772,0,"non-ARG-plasmid","large"
"GCF_904866415.1_INF201","NZ_LR890688.1","plasmid",4387,0,"non-ARG-plasmid","small"
"GCF_904866415.1_INF201","NZ_LR890689.1","plasmid",4268,0,"non-ARG-plasmid","small"
"GCF_904866415.1_INF201","NZ_LR890690.1","plasmid",2665,0,"non-ARG-plasmid","small"
"GCF_904866425.1_INF065","NZ_LR890666.1","plasmid",235594,0,"non-ARG-plasmid","large"
"GCF_904866425.1_INF065","NZ_LR890667.1","plasmid",5825,0,"non-ARG-plasmid","small"
"GCF_904866425.1_INF065","NZ_LR890668.1","plasmid",5542,0,"non-ARG-plasmid","small"
"GCF_904866435.1_INF119","NZ_LR890692.1","plasmid",233443,0,"non-ARG-plasmid","large"
"GCF_904866445.1_INF305","NZ_LR890703.1","plasmid",161308,0,"non-ARG-plasmid","large"
"GCF_904866445.1_INF305","NZ_LR890704.1","plasmid",128238,17,"ARG-plasmid","large"
"GCF_904866445.1_INF305","NZ_LR890705.1","plasmid",111123,0,"non-ARG-plasmid","large"
"GCF_904866445.1_INF305","NZ_LR890706.1","plasmid",70656,1,"ARG-plasmid","large"
"GCF_904866445.1_INF305","NZ_LR890707.1","plasmid",65499,1,"ARG-plasmid","large"
"GCF_904866445.1_INF305","NZ_LR890708.1","plasmid",53758,0,"non-ARG-plasmid","large"
"GCF_904866445.1_INF305","NZ_LR890709.1","plasmid",9294,0,"non-ARG-plasmid","small"
"GCF_904866465.1_INF161","NZ_LR890720.1","plasmid",103373,0,"non-ARG-plasmid","large"
"GCF_904866465.1_INF161","NZ_LR890721.1","plasmid",89062,1,"ARG-plasmid","large"
"GCF_904866475.1_KSB2_9B","NZ_LR890711.1","plasmid",214404,0,"non-ARG-plasmid","large"
"GCF_904866475.1_KSB2_9B","NZ_LR890712.1","plasmid",76475,4,"ARG-plasmid","large"
"GCF_904866475.1_KSB2_9B","NZ_LR890713.1","plasmid",34993,0,"non-ARG-plasmid","large"
"GCF_904866485.1_KSB1_1H","NZ_LR890723.1","plasmid",225937,5,"ARG-plasmid","large"
"GCF_904866485.1_KSB1_1H","NZ_LR890724.1","plasmid",95815,0,"non-ARG-plasmid","large"
"GCF_904866485.1_KSB1_1H","NZ_LR890725.1","plasmid",3223,0,"non-ARG-plasmid","small"
"GCF_904866505.1_INF323","NZ_LR890736.1","plasmid",225088,10,"ARG-plasmid","large"
"GCF_904866505.1_INF323","NZ_LR890737.1","plasmid",217238,0,"non-ARG-plasmid","large"
"GCF_904866505.1_INF323","NZ_LR890738.1","plasmid",129925,0,"non-ARG-plasmid","large"
"GCF_904866505.1_INF323","NZ_LR890739.1","plasmid",3514,0,"non-ARG-plasmid","small"
"GCF_904866535.1_KSB1_8C","NZ_LR890752.1","plasmid",174054,0,"non-ARG-plasmid","large"
"GCF_904866535.1_KSB1_8C","NZ_LR890753.1","plasmid",44503,7,"ARG-plasmid","large"
"GCF_904866555.1_INF102","NZ_LR890727.1","plasmid",125521,0,"non-ARG-plasmid","large"
"GCF_904866555.1_INF102","NZ_LR890728.1","plasmid",124260,0,"non-ARG-plasmid","large"
"GCF_904866555.1_INF102","NZ_LR890729.1","plasmid",103830,0,"non-ARG-plasmid","large"
"GCF_904866555.1_INF102","NZ_LR890730.1","plasmid",43065,0,"non-ARG-plasmid","large"
"GCF_904866555.1_INF102","NZ_LR890731.1","plasmid",8712,0,"non-ARG-plasmid","small"
"GCF_904866555.1_INF102","NZ_LR890732.1","plasmid",3549,0,"non-ARG-plasmid","small"
"GCF_904866555.1_INF102","NZ_LR890733.1","plasmid",3336,0,"non-ARG-plasmid","small"
"GCF_904866555.1_INF102","NZ_LR890734.1","plasmid",1919,0,"non-ARG-plasmid","small"
"GCF_920103885.1_DJ","NZ_OV049809.1","plasmid",1549,0,"non-ARG-plasmid","small"
"GCF_920103885.1_DJ","NZ_OV049810.1","plasmid",2056,0,"non-ARG-plasmid","small"
"GCF_920103885.1_DJ","NZ_OV049811.1","plasmid",4715,0,"non-ARG-plasmid","small"
"GCF_920103885.1_DJ","NZ_OV049812.1","plasmid",5590,0,"non-ARG-plasmid","small"
"GCF_920103885.1_DJ","NZ_OV049813.1","plasmid",57055,10,"ARG-plasmid","large"
"GCF_920103885.1_DJ","NZ_OV049814.1","plasmid",123022,2,"ARG-plasmid","large"
"GCF_920103885.1_DJ","NZ_OV049815.1","plasmid",84041,6,"ARG-plasmid","large"
"GCF_920103885.1_DJ","NZ_OV049816.1","plasmid",57678,0,"non-ARG-plasmid","large"
