"software","variable","value","percentage","replicon_origin","species"
"gplas2.0_plasmidEC","Detected",46,"69.7","Plasmidome","E. faecalis"
"MOB-suite","Detected",46,"69.7","Plasmidome","E. faecalis"
"plasmidSPAdes","Detected",24,"36.36","Plasmidome","E. faecalis"
"gplas2.0_plasmidEC","Contamination",5,"not_applicable","Chromosome","E. faecalis"
"MOB-suite","Contamination",15,"not_applicable","Chromosome","E. faecalis"
"plasmidSPAdes","Contamination",5,"not_applicable","Chromosome","E. faecalis"
"gplas2.0_plasmidEC","Not detected",20,"30.3","Plasmidome","E. faecalis"
"MOB-suite","Not detected",20,"30.3","Plasmidome","E. faecalis"
"plasmidSPAdes","Not detected",42,"63.64","Plasmidome","E. faecalis"
