"strain","reference_id","total_contigs"
"GCF_013344605.1_ASM1334460v1","NZ_CP046108.1",38
"GCF_013344605.1_ASM1334460v1","NZ_CP046109.1",3
"GCF_013344605.1_ASM1334460v1","NZ_CP046110.1",5
"GCF_013344625.1_ASM1334462v1","NZ_CP046111.1",46
"GCF_013344645.1_ASM1334464v1","NZ_CP046112.1",36
"GCF_013344665.1_ASM1334466v1","NZ_CP046113.1",19
"GCF_018986755.2_ASM1898675v2","NZ_CP075604.2",110
"GCF_018986755.2_ASM1898675v2","NZ_CP075605.1",13
"GCF_018986755.2_ASM1898675v2","NZ_CP075606.1",4
"GCF_018986755.2_ASM1898675v2","NZ_CP075607.1",2
"GCF_018986755.2_ASM1898675v2","NZ_CP075608.1",2
"GCF_018986755.2_ASM1898675v2","NZ_CP075609.1",1
"GCF_018986755.2_ASM1898675v2","NZ_CP075610.1",1
"GCF_020844125.1_ASM2084412v1","NZ_CP063980.1",24
"GCF_020844125.1_ASM2084412v1","NZ_CP063981.1",4
"GCF_021655635.1_ASM2165563v1","NZ_AP025270.1",19
"GCF_021655635.1_ASM2165563v1","NZ_AP025271.1",4
"GCF_021655635.1_ASM2165563v1","NZ_AP025272.1",4
"GCF_022648285.1_ASM2264828v1","NZ_CP076488.1",83
"GCF_022648285.1_ASM2264828v1","NZ_CP076489.1",14
"GCF_022648285.1_ASM2264828v1","NZ_CP076490.1",2
"GCF_022648285.1_ASM2264828v1","NZ_CP076491.1",7
"GCF_022648285.1_ASM2264828v1","NZ_CP076492.1",9
"GCF_022648425.1_ASM2264842v1","NZ_CP076493.1",81
"GCF_022648425.1_ASM2264842v1","NZ_CP076494.1",14
"GCF_022648425.1_ASM2264842v1","NZ_CP076495.1",2
"GCF_022648425.1_ASM2264842v1","NZ_CP076496.1",8
"GCF_022648425.1_ASM2264842v1","NZ_CP076497.1",9
"GCF_022648595.1_ASM2264859v1","NZ_CP076498.1",80
"GCF_022648595.1_ASM2264859v1","NZ_CP076499.1",14
"GCF_022648595.1_ASM2264859v1","NZ_CP076500.1",2
"GCF_022648595.1_ASM2264859v1","NZ_CP076501.1",8
"GCF_022648595.1_ASM2264859v1","NZ_CP076502.1",9
"GCF_906464835.1_TM6294","NZ_OD940431.1",31
"GCF_906464835.1_TM6294","NZ_OD940432.1",6
"GCF_906464835.1_TM6294","NZ_OD940433.1",6
"GCF_906464865.1_WE0438","NZ_OD940420.1",40
"GCF_906464865.1_WE0438","NZ_OD940421.1",5
"GCF_906464875.1_BX8117","NZ_OD940437.1",29
"GCF_906464875.1_BX8117","NZ_OD940439.1",4
"GCF_906464895.1_WE0851","NZ_OD940422.1",57
"GCF_906464895.1_WE0851","NZ_OD940423.1",5
"GCF_906464895.1_WE0851","NZ_OD940424.1",4
"GCF_906464895.1_WE0851","NZ_OD940425.1",1
"GCF_906464895.1_WE0851","NZ_OD940426.1",1
"GCF_906464895.1_WE0851","NZ_OD940427.1",1
"GCF_906464895.1_WE0851","NZ_OD940428.1",1
"GCF_906464915.2_WE0254","NZ_OD940440.2",31
"GCF_906464915.2_WE0254","NZ_OU538996.1",7
"GCF_906464915.2_WE0254","NZ_OU538997.1",4
"GCF_906464925.1_BX5936","NZ_OD940434.1",53
"GCF_906464925.1_BX5936","NZ_OD940435.1",4
"GCF_906464925.1_BX5936","NZ_OD940436.1",1
