"true_classification","variable","value","species"
"ambiguous","count",33,"E. faecalis"
"chromosome","count",352,"E. faecalis"
"plasmid","count",118,"E. faecalis"
"repeat chromosome","count",64,"E. faecalis"
"repeat plasmid","count",10,"E. faecalis"
"unaligned","count",3,"E. faecalis"
"ambiguous","percentage",5.69,"E. faecalis"
"chromosome","percentage",60.69,"E. faecalis"
"plasmid","percentage",20.34,"E. faecalis"
"repeat chromosome","percentage",11.03,"E. faecalis"
"repeat plasmid","percentage",1.72,"E. faecalis"
"unaligned","percentage",0.52,"E. faecalis"
