"true_classification","strain","repeats_per_strain","species"
"ambiguous","GCF_013344605.1_ASM1334460v1",5,"E. faecalis"
"ambiguous","GCF_018986755.2_ASM1898675v2",35,"E. faecalis"
"ambiguous","GCF_020844125.1_ASM2084412v1",4,"E. faecalis"
"ambiguous","GCF_022648285.1_ASM2264828v1",20,"E. faecalis"
"ambiguous","GCF_022648425.1_ASM2264842v1",20,"E. faecalis"
"ambiguous","GCF_022648595.1_ASM2264859v1",18,"E. faecalis"
"ambiguous","GCF_906464835.1_TM6294",6,"E. faecalis"
"ambiguous","GCF_906464865.1_WE0438",2,"E. faecalis"
"ambiguous","GCF_906464875.1_BX8117",2,"E. faecalis"
"ambiguous","GCF_906464925.1_BX5936",6,"E. faecalis"
"repeat chromosome","GCF_013344605.1_ASM1334460v1",11,"E. faecalis"
"repeat chromosome","GCF_018986755.2_ASM1898675v2",24,"E. faecalis"
"repeat chromosome","GCF_020844125.1_ASM2084412v1",10,"E. faecalis"
"repeat chromosome","GCF_022648285.1_ASM2264828v1",29,"E. faecalis"
"repeat chromosome","GCF_022648425.1_ASM2264842v1",28,"E. faecalis"
"repeat chromosome","GCF_022648595.1_ASM2264859v1",28,"E. faecalis"
"repeat chromosome","GCF_906464835.1_TM6294",11,"E. faecalis"
"repeat chromosome","GCF_906464865.1_WE0438",16,"E. faecalis"
"repeat chromosome","GCF_906464875.1_BX8117",12,"E. faecalis"
"repeat chromosome","GCF_906464895.1_WE0851",30,"E. faecalis"
"repeat chromosome","GCF_906464915.2_WE0254",13,"E. faecalis"
"repeat chromosome","GCF_906464925.1_BX5936",18,"E. faecalis"
"repeat plasmid","GCF_013344605.1_ASM1334460v1",2,"E. faecalis"
"repeat plasmid","GCF_022648285.1_ASM2264828v1",4,"E. faecalis"
"repeat plasmid","GCF_022648425.1_ASM2264842v1",4,"E. faecalis"
"repeat plasmid","GCF_022648595.1_ASM2264859v1",4,"E. faecalis"
"repeat plasmid","GCF_906464835.1_TM6294",3,"E. faecalis"
"repeat plasmid","GCF_906464895.1_WE0851",2,"E. faecalis"
"repeat plasmid","GCF_906464915.2_WE0254",3,"E. faecalis"
