GCF_906464875.1_BX8117,GCF_906464875.1_BX8117_bin_1,NZ_OD940439.1,35733,35733
GCF_906464895.1_WE0851,GCF_906464895.1_WE0851_bin_1,NZ_OD940424.1,19882,19882
GCF_906464895.1_WE0851,GCF_906464895.1_WE0851_bin_2,NZ_OD940423.1,56342,58300
GCF_906464895.1_WE0851,GCF_906464895.1_WE0851_bin_2,NZ_OD940427.1,1958,58300
GCF_906464835.1_TM6294,GCF_906464835.1_TM6294_bin_1,NZ_OD940432.1,69357,91629
GCF_906464835.1_TM6294,GCF_906464835.1_TM6294_bin_1,NZ_OD940433.1,19181,91629
GCF_906464835.1_TM6294,GCF_906464835.1_TM6294_bin_1,NZ_OD940431.1,3091,91629
GCF_022648425.1_ASM2264842v1,GCF_022648425.1_ASM2264842v1_bin_2,NZ_CP076494.1,34663,59603
GCF_022648425.1_ASM2264842v1,GCF_022648425.1_ASM2264842v1_bin_2,NZ_CP076497.1,24940,59603
GCF_022648425.1_ASM2264842v1,GCF_022648425.1_ASM2264842v1_bin_1,NZ_CP076495.1,52112,149243
GCF_022648425.1_ASM2264842v1,GCF_022648425.1_ASM2264842v1_bin_1,NZ_CP076496.1,32378,149243
GCF_022648425.1_ASM2264842v1,GCF_022648425.1_ASM2264842v1_bin_1,NZ_CP076494.1,62454,149243
GCF_022648425.1_ASM2264842v1,GCF_022648425.1_ASM2264842v1_bin_1,NZ_CP076493.1,1868,149243
GCF_906464925.1_BX5936,GCF_906464925.1_BX5936_bin_1,NZ_OD940435.1,63434,63434
GCF_906464915.2_WE0254,GCF_906464915.2_WE0254_bin_1,NZ_OU538996.1,69241,82813
GCF_906464915.2_WE0254,GCF_906464915.2_WE0254_bin_1,NZ_OD940440.2,13572,82813
GCF_018986755.2_ASM1898675v2,GCF_018986755.2_ASM1898675v2_bin_3,NZ_CP075608.1,19984,39697
GCF_018986755.2_ASM1898675v2,GCF_018986755.2_ASM1898675v2_bin_3,NZ_CP075605.1,19713,39697
GCF_018986755.2_ASM1898675v2,GCF_018986755.2_ASM1898675v2_bin_5,NZ_CP075607.1,42335,42335
GCF_018986755.2_ASM1898675v2,GCF_018986755.2_ASM1898675v2_bin_1,NZ_CP075604.2,97640,97640
GCF_018986755.2_ASM1898675v2,GCF_018986755.2_ASM1898675v2_bin_6,NZ_CP075609.1,4375,4375
GCF_018986755.2_ASM1898675v2,GCF_018986755.2_ASM1898675v2_bin_4,NZ_CP075605.1,44668,44668
GCF_018986755.2_ASM1898675v2,GCF_018986755.2_ASM1898675v2_bin_7,no_correct_alignments,0,0
GCF_018986755.2_ASM1898675v2,GCF_018986755.2_ASM1898675v2_bin_2,NZ_CP075606.1,64140,64140
GCF_013344605.1_ASM1334460v1,GCF_013344605.1_ASM1334460v1_bin_1,NZ_CP046109.1,64052,104908
GCF_013344605.1_ASM1334460v1,GCF_013344605.1_ASM1334460v1_bin_1,NZ_CP046110.1,40856,104908
GCF_020844125.1_ASM2084412v1,GCF_020844125.1_ASM2084412v1_bin_1,NZ_CP063981.1,57719,57719
GCF_022648595.1_ASM2264859v1,GCF_022648595.1_ASM2264859v1_bin_1,NZ_CP076500.1,52138,149243
GCF_022648595.1_ASM2264859v1,GCF_022648595.1_ASM2264859v1_bin_1,NZ_CP076501.1,32704,149243
GCF_022648595.1_ASM2264859v1,GCF_022648595.1_ASM2264859v1_bin_1,NZ_CP076499.1,62479,149243
GCF_022648595.1_ASM2264859v1,GCF_022648595.1_ASM2264859v1_bin_1,NZ_CP076498.1,1868,149243
GCF_022648595.1_ASM2264859v1,GCF_022648595.1_ASM2264859v1_bin_2,NZ_CP076499.1,34663,59603
GCF_022648595.1_ASM2264859v1,GCF_022648595.1_ASM2264859v1_bin_2,NZ_CP076502.1,24934,59603
GCF_022648285.1_ASM2264828v1,GCF_022648285.1_ASM2264828v1_bin_2,NZ_CP076492.1,24941,24941
GCF_022648285.1_ASM2264828v1,GCF_022648285.1_ASM2264828v1_bin_1,NZ_CP076490.1,52120,183906
GCF_022648285.1_ASM2264828v1,GCF_022648285.1_ASM2264828v1_bin_1,NZ_CP076491.1,31893,183906
GCF_022648285.1_ASM2264828v1,GCF_022648285.1_ASM2264828v1_bin_1,NZ_CP076488.1,2711,183906
GCF_022648285.1_ASM2264828v1,GCF_022648285.1_ASM2264828v1_bin_1,NZ_CP076489.1,97139,183906
GCF_906464865.1_WE0438,GCF_906464865.1_WE0438_bin_1,NZ_OD940421.1,52708,100142
GCF_906464865.1_WE0438,GCF_906464865.1_WE0438_bin_1,NZ_OD940420.1,47434,100142
