GCF_906464875.1_BX8117,GCF_906464875.1_BX8117_bin_1,0
GCF_906464895.1_WE0851,GCF_906464895.1_WE0851_bin_1,0
GCF_906464895.1_WE0851,GCF_906464895.1_WE0851_bin_2,0
GCF_906464835.1_TM6294,GCF_906464835.1_TM6294_bin_1,0
GCF_022648425.1_ASM2264842v1,GCF_022648425.1_ASM2264842v1_bin_2,0
GCF_022648425.1_ASM2264842v1,GCF_022648425.1_ASM2264842v1_bin_1,0
GCF_906464925.1_BX5936,GCF_906464925.1_BX5936_bin_1,0
GCF_906464915.2_WE0254,GCF_906464915.2_WE0254_bin_1,0
GCF_018986755.2_ASM1898675v2,GCF_018986755.2_ASM1898675v2_bin_3,0
GCF_018986755.2_ASM1898675v2,GCF_018986755.2_ASM1898675v2_bin_5,0
GCF_018986755.2_ASM1898675v2,GCF_018986755.2_ASM1898675v2_bin_1,0
GCF_018986755.2_ASM1898675v2,GCF_018986755.2_ASM1898675v2_bin_6,0
GCF_018986755.2_ASM1898675v2,GCF_018986755.2_ASM1898675v2_bin_4,0
GCF_018986755.2_ASM1898675v2,GCF_018986755.2_ASM1898675v2_bin_7,0
GCF_018986755.2_ASM1898675v2,GCF_018986755.2_ASM1898675v2_bin_2,0
GCF_013344605.1_ASM1334460v1,GCF_013344605.1_ASM1334460v1_bin_1,0
GCF_020844125.1_ASM2084412v1,GCF_020844125.1_ASM2084412v1_bin_1,0
GCF_022648595.1_ASM2264859v1,GCF_022648595.1_ASM2264859v1_bin_1,0
GCF_022648595.1_ASM2264859v1,GCF_022648595.1_ASM2264859v1_bin_2,0
GCF_022648285.1_ASM2264828v1,GCF_022648285.1_ASM2264828v1_bin_2,0
GCF_022648285.1_ASM2264828v1,GCF_022648285.1_ASM2264828v1_bin_1,0
GCF_906464865.1_WE0438,GCF_906464865.1_WE0438_bin_1,0
