GCF_022405275.1_ASM2240527v1,bin_component_1,NZ_CP062359.1,127
GCF_022404695.1_ASM2240469v1,bin_component_1,NZ_CP062335.1,127
GCF_013008375.1_ASM1300837v1,bin_component_1,NZ_CP053101.1,269
GCF_013008375.1_ASM1300837v1,bin_component_0,NZ_CP053101.1,55
GCF_016727585.1_ASM1672758v1,bin_component_3,NZ_CP068143.1,76
GCF_016727585.1_ASM1672758v1,bin_component_0,NZ_CP068143.1,308
GCF_016727585.1_ASM1672758v1,bin_component_5,NZ_CP068143.1,77
GCF_013836745.1_ASM1383674v1,bin_component_0,NZ_CP058613.1,1307
GCF_022405185.1_ASM2240518v1,bin_component_0,NZ_CP062351.1,127
GCF_013836525.1_ASM1383652v1,bin_component_0,NZ_CP058615.1,1116
GCF_022404635.1_ASM2240463v1,bin_component_1,NZ_CP062328.1,127
GCF_022404635.1_ASM2240463v1,bin_component_0,NZ_CP062327.1,127
GCF_022405415.1_ASM2240541v1,bin_component_1,NZ_CP062374.1,127
GCF_022405415.1_ASM2240541v1,bin_component_2,NZ_CP062375.1,127
GCF_022406035.1_ASM2240603v1,bin_component_0,NZ_CP062415.1,127
GCF_022369535.1_ASM2236953v1,bin_component_1,NZ_CP062313.1,127
GCF_022369535.1_ASM2236953v1,bin_component_0,NZ_CP062312.1,127
GCF_022404735.1_ASM2240473v1,bin_component_1,NZ_CP062339.1,127
GCF_022405555.1_ASM2240555v1,bin_component_0,NZ_CP062389.1,127
GCF_022369695.1_ASM2236969v1,bin_component_1,NZ_CP062319.1,127
GCF_017088385.1_ASM1708838v1,bin_component_3,NZ_CP070983.1,77
GCF_017088385.1_ASM1708838v1,bin_component_2,NZ_CP070984.1,152
GCF_017088385.1_ASM1708838v1,bin_component_6,NZ_CP070985.1,77
GCF_022405205.1_ASM2240520v1,bin_component_0,NZ_CP062353.1,127
GCF_016889145.1_ASM1688914v1,bin_component_1,NZ_CP069470.1,77
GCF_022404595.1_ASM2240459v1,bin_component_1,NZ_CP062323.1,127
GCF_022405435.1_ASM2240543v1,bin_component_1,NZ_CP062377.1,127
GCF_022226995.1_ASM2222699v1,bin_component_1,NZ_CP092052.1,55
GCF_022226995.1_ASM2222699v1,bin_component_2,NZ_CP092052.1,55
GCF_022404655.1_ASM2240465v1,bin_component_0,NZ_CP062330.1,127
GCF_018093225.1_ASM1809322v1,bin_component_4,NZ_CP071105.1,127
GCF_018093225.1_ASM1809322v1,bin_component_0,NZ_CP071104.1,1167
GCF_018093225.1_ASM1809322v1,bin_component_5,NZ_CP071106.1,127
GCF_022405375.1_ASM2240537v1,bin_component_0,NZ_CP062369.1,127
GCF_022405145.1_ASM2240514v1,bin_component_1,NZ_CP062349.1,127
GCF_022405145.1_ASM2240514v1,bin_component_0,NZ_CP062348.1,254
GCF_022493095.1_ASM2249309v1,bin_component_0,NZ_CP062440.1,127
GCF_022226975.1_ASM2222697v1,bin_component_1,NZ_CP092055.1,55
GCF_022405355.1_ASM2240535v1,bin_component_1,NZ_CP062367.1,127
GCF_016591995.1_ASM1659199v1,bin_component_3,NZ_AP024170.1,1016
GCF_016591995.1_ASM1659199v1,bin_component_0,NZ_AP024170.1,381
GCF_016591995.1_ASM1659199v1,bin_component_6,NZ_AP024170.1,127
GCF_016591995.1_ASM1659199v1,bin_component_5,NZ_AP024171.1,246
GCF_022405395.1_ASM2240539v1,bin_component_0,NZ_CP062371.1,127
GCF_018093105.1_ASM1809310v1,bin_component_0,NZ_CP071100.1,890
GCF_022404775.1_ASM2240477v1,bin_component_1,NZ_CP062343.1,127
GCF_022404775.1_ASM2240477v1,bin_component_0,NZ_CP062342.1,635
GCF_022405895.1_ASM2240589v1,bin_component_0,NZ_CP062408.1,127
GCF_022405455.1_ASM2240545v1,bin_component_1,NZ_CP062379.1,127
GCF_018093205.1_ASM1809320v1,bin_component_1,NZ_CP071102.1,1012
GCF_022404675.1_ASM2240467v1,bin_component_1,NZ_CP062332.1,112
GCF_022404675.1_ASM2240467v1,bin_component_0,NZ_CP062331.1,127
GCF_022404715.1_ASM2240471v1,bin_component_1,NZ_CP062337.1,127
GCF_022405235.1_ASM2240523v1,bin_component_1,NZ_CP062355.1,127
GCF_016889945.1_ASM1688994v1,bin_component_1,NZ_CP069565.1,77
GCF_016889945.1_ASM1688994v1,bin_component_0,NZ_CP069566.1,77
GCF_022405535.1_ASM2240553v1,bin_component_1,NZ_CP062387.1,127
GCF_022405255.1_ASM2240525v1,bin_component_0,NZ_CP062357.1,127
GCF_022405575.1_ASM2240557v1,bin_component_1,NZ_CP062392.1,127
GCF_022405575.1_ASM2240557v1,bin_component_0,NZ_CP062391.1,127
GCF_022369595.1_ASM2236959v1,bin_component_1,NZ_CP062317.1,127
GCF_016894285.1_ASM1689428v1,bin_component_1,NZ_CP069799.1,125
GCF_016894285.1_ASM1689428v1,bin_component_0,NZ_CP069799.1,242
GCF_016894285.1_ASM1689428v1,bin_component_2,NZ_CP069800.1,77
GCF_022404755.1_ASM2240475v1,bin_component_1,NZ_CP062341.1,127
GCF_022404755.1_ASM2240475v1,bin_component_0,NZ_CP062340.1,127
GCF_022405335.1_ASM2240533v1,bin_component_1,NZ_CP062364.1,254
GCF_021869805.1_ASM2186980v1,bin_component_0,NZ_CP086215.1,77
GCF_022405515.1_ASM2240551v1,bin_component_0,NZ_CP062385.1,127
GCF_018135565.1_ASM1813556v1,bin_component_4,NZ_CP073064.1,77
GCF_018409145.1_ASM1840914v1,bin_component_0,NZ_AP024511.1,733
GCF_017088305.1_ASM1708830v1,bin_component_3,NZ_CP070986.1,154
GCF_017088305.1_ASM1708830v1,bin_component_0,NZ_CP070986.1,294
GCF_017161095.1_ASM1716109v1,bin_component_1,NZ_CP046476.1,77
GCF_017161095.1_ASM1716109v1,bin_component_0,NZ_CP046477.1,77
GCF_022405055.1_ASM2240505v1,bin_component_1,NZ_CP062345.1,127
GCF_022404575.1_ASM2240457v1,bin_component_1,NZ_CP062321.1,127
GCF_022404575.1_ASM2240457v1,bin_component_0,NZ_CP062320.1,127
GCF_022405495.1_ASM2240549v1,bin_component_1,NZ_CP062382.1,254
GCF_022405495.1_ASM2240549v1,bin_component_2,NZ_CP062382.1,254
