GCF_019653615.1_ASM1965361v1,NODE_1_length_17474_cov_85.821866_component_0,17474,
GCF_019653615.1_ASM1965361v1,NODE_2_length_7709_cov_83.266889_component_0,7709,
GCF_019653615.1_ASM1965361v1,NODE_4_length_2660_cov_391.540457_component_0,2660,
GCF_016727585.1_ASM1672758v1,NODE_1_length_210636_cov_15.093598_component_0,210636,
GCF_016727585.1_ASM1672758v1,NODE_2_length_137123_cov_17.844169_component_0,137123,
GCF_016727585.1_ASM1672758v1,NODE_3_length_116798_cov_18.144541_component_0,116798,
GCF_016727585.1_ASM1672758v1,NODE_4_length_106406_cov_15.555371_component_0,106406,
GCF_016727585.1_ASM1672758v1,NODE_5_length_104512_cov_16.787159_component_0,104512,
GCF_016727585.1_ASM1672758v1,NODE_6_length_85401_cov_17.147801_component_0,85401,
GCF_016727585.1_ASM1672758v1,NODE_8_length_83813_cov_19.676352_component_0,83813,
GCF_016727585.1_ASM1672758v1,NODE_10_length_77561_cov_15.999019_component_0,77561,
GCF_016727585.1_ASM1672758v1,NODE_11_length_73928_cov_13.717946_component_0,73928,
GCF_016727585.1_ASM1672758v1,NODE_13_length_71123_cov_14.644582_component_0,71123,
GCF_016727585.1_ASM1672758v1,NODE_14_length_60145_cov_15.055038_component_0,60145,
GCF_016727585.1_ASM1672758v1,NODE_15_length_55564_cov_13.868762_component_0,55564,
GCF_016727585.1_ASM1672758v1,NODE_16_length_53098_cov_14.681900_component_0,53098,
GCF_016727585.1_ASM1672758v1,NODE_17_length_48691_cov_17.916053_component_0,48691,
GCF_016727585.1_ASM1672758v1,NODE_18_length_46713_cov_17.790870_component_0,46713,
GCF_016727585.1_ASM1672758v1,NODE_19_length_44611_cov_18.635155_component_0,44611,
GCF_016727585.1_ASM1672758v1,NODE_20_length_44317_cov_15.369394_component_0,44317,
GCF_016727585.1_ASM1672758v1,NODE_21_length_43722_cov_18.945148_component_0,43722,
GCF_016727585.1_ASM1672758v1,NODE_22_length_42505_cov_17.755327_component_0,42505,
GCF_016727585.1_ASM1672758v1,NODE_24_length_38158_cov_17.169980_component_0,38158,
GCF_016727585.1_ASM1672758v1,NODE_25_length_36859_cov_16.270187_component_0,36859,
GCF_016727585.1_ASM1672758v1,NODE_27_length_31859_cov_14.386288_component_0,31859,
GCF_016727585.1_ASM1672758v1,NODE_28_length_31636_cov_18.316867_component_0,31636,
GCF_016727585.1_ASM1672758v1,NODE_29_length_26799_cov_18.381820_component_0,26799,
GCF_016727585.1_ASM1672758v1,NODE_31_length_26447_cov_18.614297_component_0,26447,
GCF_016727585.1_ASM1672758v1,NODE_32_length_24567_cov_15.780645_component_0,24567,
GCF_016727585.1_ASM1672758v1,NODE_33_length_23089_cov_15.283374_component_0,23089,
GCF_016727585.1_ASM1672758v1,NODE_34_length_22011_cov_18.554664_component_0,22011,
GCF_016727585.1_ASM1672758v1,NODE_35_length_21349_cov_17.999906_component_0,21349,
GCF_016727585.1_ASM1672758v1,NODE_36_length_18153_cov_17.158497_component_0,18153,
GCF_016727585.1_ASM1672758v1,NODE_37_length_17988_cov_18.381665_component_0,17988,
GCF_016727585.1_ASM1672758v1,NODE_38_length_15940_cov_14.166803_component_0,15940,
GCF_016727585.1_ASM1672758v1,NODE_39_length_15538_cov_18.565099_component_0,15538,
GCF_016727585.1_ASM1672758v1,NODE_40_length_15529_cov_18.154220_component_0,15529,
GCF_016727585.1_ASM1672758v1,NODE_41_length_15205_cov_14.116605_component_0,15205,
GCF_016727585.1_ASM1672758v1,NODE_42_length_13325_cov_14.887455_component_0,13325,
GCF_016727585.1_ASM1672758v1,NODE_43_length_12933_cov_14.101509_component_0,12933,
GCF_016727585.1_ASM1672758v1,NODE_44_length_11516_cov_14.773669_component_0,11516,
GCF_016727585.1_ASM1672758v1,NODE_45_length_11267_cov_18.773012_component_0,11267,
GCF_016727585.1_ASM1672758v1,NODE_46_length_10829_cov_16.617839_component_0,10829,
GCF_016727585.1_ASM1672758v1,NODE_47_length_10810_cov_16.268797_component_0,10810,
GCF_016727585.1_ASM1672758v1,NODE_48_length_10309_cov_15.426114_component_0,10309,
GCF_016727585.1_ASM1672758v1,NODE_51_length_9484_cov_17.498246_component_0,9484,
GCF_016727585.1_ASM1672758v1,NODE_52_length_7477_cov_17.641081_component_0,7477,
GCF_016727585.1_ASM1672758v1,NODE_54_length_6080_cov_16.973846_component_0,6080,
GCF_016727585.1_ASM1672758v1,NODE_55_length_5861_cov_17.445539_component_0,5861,
GCF_016727585.1_ASM1672758v1,NODE_61_length_4691_cov_23.533593_component_0,4691,
GCF_016727585.1_ASM1672758v1,NODE_62_length_4273_cov_15.358675_component_0,4273,
GCF_016727585.1_ASM1672758v1,NODE_63_length_3385_cov_15.447400_component_0,3385,
GCF_016727585.1_ASM1672758v1,NODE_64_length_3186_cov_15.213573_component_0,3186,
GCF_016727585.1_ASM1672758v1,NODE_65_length_3020_cov_13.621135_component_0,3020,
GCF_016727585.1_ASM1672758v1,NODE_67_length_2511_cov_102.605177_component_0,2511,
GCF_016727585.1_ASM1672758v1,NODE_69_length_1991_cov_18.552247_component_0,1991,
GCF_016727585.1_ASM1672758v1,NODE_71_length_1690_cov_25.378797_component_0,1690,
GCF_016727585.1_ASM1672758v1,NODE_74_length_1624_cov_50.808662_component_0,1624,
GCF_016727585.1_ASM1672758v1,NODE_75_length_1500_cov_1.805341_component_0,1500,
GCF_016727585.1_ASM1672758v1,NODE_77_length_1449_cov_2591.643586_component_0,1449,
GCF_016727585.1_ASM1672758v1,NODE_78_length_1337_cov_16.523810_component_0,1337,
GCF_016727585.1_ASM1672758v1,NODE_79_length_1316_cov_126.887813_component_0,1316,
GCF_016727585.1_ASM1672758v1,NODE_80_length_1160_cov_15.730379_component_0,1160,
GCF_016727585.1_ASM1672758v1,NODE_82_length_1128_cov_97.618459_component_0,1128,
GCF_016727585.1_ASM1672758v1,NODE_83_length_1052_cov_17.201026_component_0,1052,
GCF_018093225.1_ASM1809322v1,NODE_37_length_1997_cov_8.561497_component_1,1997,
GCF_018093225.1_ASM1809322v1,NODE_21_length_10247_cov_21.974506_component_3,10247,
GCF_018093225.1_ASM1809322v1,NODE_13_length_23606_cov_216.421440_component_0,23606,
GCF_018093225.1_ASM1809322v1,NODE_15_length_21689_cov_260.809758_component_0,21689,
GCF_018093225.1_ASM1809322v1,NODE_17_length_15117_cov_33.237825_component_0,15117,
GCF_018093225.1_ASM1809322v1,NODE_18_length_14518_cov_90.149468_component_0,14518,
GCF_018093225.1_ASM1809322v1,NODE_23_length_7318_cov_70.203310_component_0,7318,
GCF_018093225.1_ASM1809322v1,NODE_24_length_7302_cov_39.133798_component_0,7302,
GCF_018093225.1_ASM1809322v1,NODE_26_length_5060_cov_501.599838_component_0,5060,
GCF_018093225.1_ASM1809322v1,NODE_27_length_4796_cov_10.011780_component_0,4796,
GCF_018093225.1_ASM1809322v1,NODE_33_length_2753_cov_9.611196_component_0,2753,
GCF_018093225.1_ASM1809322v1,NODE_34_length_2113_cov_5.270393_component_0,2113,
GCF_018093225.1_ASM1809322v1,NODE_35_length_2103_cov_22.965587_component_0,2103,
GCF_018093225.1_ASM1809322v1,NODE_36_length_2029_cov_348.274448_component_0,2029,
GCF_018093225.1_ASM1809322v1,NODE_39_length_1307_cov_573.100847_component_0,1307,
GCF_018093225.1_ASM1809322v1,NODE_40_length_1070_cov_304.212089_component_0,1070,
GCF_903932595.1_P3.1,NODE_1_length_30171_cov_306.708281_component_0,30171,
GCF_016591995.1_ASM1659199v1,NODE_29_length_1416_cov_1447.747091_component_12,1416,
GCF_018093105.1_ASM1809310v1,NODE_8_length_8256_cov_33.111945_component_1,8256,
GCF_018093105.1_ASM1809310v1,NODE_12_length_2764_cov_27.973834_component_1,2764,
GCF_018093105.1_ASM1809310v1,NODE_5_length_47335_cov_200.949691_component_0,47335,
GCF_018093105.1_ASM1809310v1,NODE_13_length_1856_cov_30.994216_component_0,1856,
GCF_022405235.1_ASM2240523v1,NODE_1_length_42690_cov_83.277800_component_0,42690,
GCF_016889945.1_ASM1688994v1,NODE_4_length_3193_cov_8252.866816_component_0,3193,
GCF_903932605.1_HU-14,NODE_1_length_30171_cov_747.708646_component_0,30171,
