GCF_016025395.1_ASM1602539v1,plasmid_AD312,NZ_CP065566.1,S31_LN_i_1458_dp_f_1.8999060514694923,1458,3986693,3988150
GCF_016025395.1_ASM1602539v1,plasmid_AD312,NZ_CP065566.1,S31_LN_i_1458_dp_f_1.8999060514694923,1458,4849196,4850653
GCF_001973785.2_ASM197378v2,plasmid_AB461,NZ_CP075122.1,S25_LN_i_2160_dp_f_1.6700977441414502,2160,4021101,4023260
GCF_001973785.2_ASM197378v2,plasmid_AB461,NZ_CP075123.1,S25_LN_i_2160_dp_f_1.6700977441414502,2160,26565,28724
GCF_001973785.2_ASM197378v2,plasmid_AB461,NZ_CP075123.1,S26_LN_i_1783_dp_f_0.5586407720126398,1783,28874,30656
GCF_001973785.2_ASM197378v2,plasmid_AB461,NZ_CP075123.1,S26_LN_i_1783_dp_f_0.5586407720126398,1783,30955,32737
GCF_021397675.1_ASM2139767v1,plasmid_AA738,NZ_CP090134.1,S27_LN_i_4733_dp_f_2.3829747086751842,4733,156901,161633
GCF_021397675.1_ASM2139767v1,plasmid_AA738,NZ_CP090134.1,S27_LN_i_4733_dp_f_2.3829747086751842,4733,221560,226292
GCF_021397675.1_ASM2139767v1,plasmid_AA738,NZ_CP090134.1,S32_LN_i_3793_dp_f_2.360679254222759,3793,216042,219834
GCF_021397675.1_ASM2139767v1,plasmid_AA738,NZ_CP090134.1,S32_LN_i_3793_dp_f_2.360679254222759,3793,163359,167151
GCF_021397675.1_ASM2139767v1,plasmid_AA738,NZ_CP090134.1,S35_LN_i_2437_dp_f_2.337646830071584,2437,283430,285866
GCF_021397675.1_ASM2139767v1,plasmid_AA738,NZ_CP090134.1,S35_LN_i_2437_dp_f_2.337646830071584,2437,33589,36025
GCF_021397675.1_ASM2139767v1,plasmid_AA738,NZ_CP090133.1,S39_LN_i_2130_dp_f_4.520053163286128,2130,1975622,1977751
GCF_021397675.1_ASM2139767v1,plasmid_AA738,NZ_CP090134.1,S39_LN_i_2130_dp_f_4.520053163286128,2130,87308,89437
GCF_021397675.1_ASM2139767v1,plasmid_AA738,NZ_CP090134.1,S39_LN_i_2130_dp_f_4.520053163286128,2130,248333,250462
GCF_021397675.1_ASM2139767v1,plasmid_AA738,NZ_CP090134.1,S39_LN_i_2130_dp_f_4.520053163286128,2130,258442,260571
GCF_021397675.1_ASM2139767v1,plasmid_AA738,NZ_CP090134.1,S43_LN_i_1629_dp_f_2.1271174410584797,1629,213592,215220
GCF_021397675.1_ASM2139767v1,plasmid_AA738,NZ_CP090134.1,S43_LN_i_1629_dp_f_2.1271174410584797,1629,167973,169601
GCF_021397675.1_ASM2139767v1,plasmid_AA738,NZ_CP090134.1,S44_LN_i_1540_dp_f_2.2256396933859626,1540,174193,175732
GCF_021397675.1_ASM2139767v1,plasmid_AA738,NZ_CP090134.1,S44_LN_i_1540_dp_f_2.2256396933859626,1540,169909,171448
GCF_021397675.1_ASM2139767v1,plasmid_AA001,NZ_CP090135.1,S45_LN_i_1200_dp_f_4.400858897512506,1200,8192,9391
GCF_021397675.1_ASM2139767v1,plasmid_AA001,NZ_CP090135.1,S45_LN_i_1200_dp_f_4.400858897512506,1200,13435,14634
GCF_003064405.2_ASM306440v2,plasmid_AB544,NZ_CP077694.1,S61_LN_i_1147_dp_f_1.1489312696875507,1147,12619,13765
GCF_003064405.2_ASM306440v2,plasmid_AB544,NZ_CP077694.1,S61_LN_i_1147_dp_f_1.1489312696875507,1147,10791,11937
GCF_016454525.1_ASM1645452v1,plasmid_AA860,NZ_CP051397.1,S58_LN_i_1338_dp_f_1.4652500171125162,1338,89634,90971
GCF_016454525.1_ASM1645452v1,plasmid_AA860,NZ_CP051397.1,S58_LN_i_1338_dp_f_1.4652500171125162,1338,116587,117924
GCF_016454525.1_ASM1645452v1,plasmid_AA860,NZ_CP051397.1,S59_LN_i_1331_dp_f_1.5875273261238303,1331,104277,105607
GCF_016454525.1_ASM1645452v1,plasmid_AA860,NZ_CP051397.1,S59_LN_i_1331_dp_f_1.5875273261238303,1331,100061,101391
GCF_016454525.1_ASM1645452v1,plasmid_AD097,NZ_CP051396.1,S61_LN_i_1270_dp_f_7.473937501621257,1270,1775065,1776334
GCF_016454525.1_ASM1645452v1,plasmid_AD097,NZ_CP051396.1,S61_LN_i_1270_dp_f_7.473937501621257,1270,2397600,2398869
GCF_016454525.1_ASM1645452v1,plasmid_AD097,NZ_CP051396.1,S61_LN_i_1270_dp_f_7.473937501621257,1270,2706722,2707991
GCF_016454525.1_ASM1645452v1,plasmid_AD097,NZ_CP051396.1,S61_LN_i_1270_dp_f_7.473937501621257,1270,2654270,2655539
GCF_016454525.1_ASM1645452v1,plasmid_AD097,NZ_CP051396.1,S61_LN_i_1270_dp_f_7.473937501621257,1270,2012770,2014039
GCF_016454525.1_ASM1645452v1,plasmid_AD097,NZ_CP051396.1,S61_LN_i_1270_dp_f_7.473937501621257,1270,1091247,1092516
GCF_019670225.1_ASM1967022v1,plasmid_AC120,NZ_AP023293.1,S48_LN_i_1750_dp_f_1.8148459235579548,1750,2859,4608
GCF_019670225.1_ASM1967022v1,plasmid_AC120,NZ_AP023292.1,S48_LN_i_1750_dp_f_1.8148459235579548,1749,1253552,1255302
GCF_019670225.1_ASM1967022v1,plasmid_AC082,NZ_AP023292.1,S52_LN_i_1335_dp_f_1.9400073342502338,1335,1268673,1270007
GCF_019670225.1_ASM1967022v1,plasmid_AC082,NZ_AP023292.1,S52_LN_i_1335_dp_f_1.9400073342502338,1335,2724200,2725534
GCF_015241115.1_ASM1524111v1,plasmid_AB461,NZ_CP063708.1,S22_LN_i_1029_dp_f_1.8069651014601003,1029,4577420,4578448
GCF_015241115.1_ASM1524111v1,plasmid_AB461,NZ_CP063709.1,S22_LN_i_1029_dp_f_1.8069651014601003,1029,10291,11319
GCF_014334175.1_ASM1433417v1,plasmid_AA474,NZ_CP060509.1,S37_LN_i_1954_dp_f_5.649726151974133,1954,203763,205716
GCF_014334175.1_ASM1433417v1,plasmid_AA474,NZ_CP060509.1,S37_LN_i_1954_dp_f_5.649726151974133,1954,121805,123758
GCF_014334175.1_ASM1433417v1,plasmid_AA474,NZ_CP060508.1,S37_LN_i_1954_dp_f_5.649726151974133,1954,3272491,3274444
GCF_014334175.1_ASM1433417v1,plasmid_AA474,NZ_CP060508.1,S37_LN_i_1954_dp_f_5.649726151974133,1954,2828655,2830608
GCF_015074905.1_ASM1507490v1,plasmid_AA473,NZ_CP063295.1,S42_LN_i_1354_dp_f_2.5943823596096776,1354,32706,34059
GCF_015074905.1_ASM1507490v1,plasmid_AA473,NZ_CP063295.1,S42_LN_i_1354_dp_f_2.5943823596096776,1354,19627,20980
GCF_015074905.1_ASM1507490v1,plasmid_AA860,NZ_CP063295.1,S44_LN_i_1134_dp_f_2.1435867676656755,1134,24106,25239
GCF_015074905.1_ASM1507490v1,plasmid_AA860,NZ_CP063295.1,S44_LN_i_1134_dp_f_2.1435867676656755,1134,30539,31672
GCF_014334195.1_ASM1433419v1,plasmid_AC358,NZ_CP060513.1,S46_LN_i_1101_dp_f_2.6637691996542125,1101,141889,142989
GCF_014334195.1_ASM1433419v1,plasmid_AC358,NZ_CP060512.1,S46_LN_i_1101_dp_f_2.6637691996542125,1101,3687656,3688756
GCF_014334195.1_ASM1433419v1,plasmid_AC358,NZ_CP060513.1,S46_LN_i_1101_dp_f_2.6637691996542125,1101,9970,11070
GCF_019670285.1_ASM1967028v1,plasmid_AA594,NZ_AP023300.1,S55_LN_i_1530_dp_f_3.683175555538591,1530,1154113,1155642
GCF_019670285.1_ASM1967028v1,plasmid_AA594,NZ_AP023301.1,S55_LN_i_1530_dp_f_3.683175555538591,1530,15030,16559
GCF_019670285.1_ASM1967028v1,plasmid_AA594,NZ_AP023301.1,S65_LN_i_1067_dp_f_4.427670998735279,1067,35720,36786
GCF_019670285.1_ASM1967028v1,plasmid_AA594,NZ_AP023301.1,S65_LN_i_1067_dp_f_4.427670998735279,1067,31436,32502
GCF_019670285.1_ASM1967028v1,plasmid_AA594,NZ_AP023301.1,S66_LN_i_1016_dp_f_4.239016523599794,1016,21197,22212
GCF_019670285.1_ASM1967028v1,plasmid_AA594,NZ_AP023301.1,S66_LN_i_1016_dp_f_4.239016523599794,1016,26596,27611
GCF_019670285.1_ASM1967028v1,plasmid_AC120,NZ_AP023302.1,S53_LN_i_1599_dp_f_11.616355915783172,1599,2859,4457
GCF_019670285.1_ASM1967028v1,plasmid_AC120,NZ_AP023300.1,S53_LN_i_1599_dp_f_11.616355915783172,1599,1148516,1150114
GCF_001652385.2_ASM165238v2,plasmid_AB460,NZ_CP075142.1,S42_LN_i_1740_dp_f_1.0538073993992543,1740,35549,37288
GCF_001652385.2_ASM165238v2,plasmid_AB460,NZ_CP075142.1,S42_LN_i_1740_dp_f_1.0538073993992543,1740,37689,39428
GCF_014858545.1_ASM1485854v1,plasmid_AA738,NZ_CP062224.1,S30_LN_i_2133_dp_f_2.178944363085989,2133,84107,86239
GCF_014858545.1_ASM1485854v1,plasmid_AA738,NZ_CP062224.1,S30_LN_i_2133_dp_f_2.178944363085989,2133,235115,237247
GCF_014858545.1_ASM1485854v1,plasmid_AA738,NZ_CP062224.1,S33_LN_i_1630_dp_f_1.960381005727376,1630,171175,172804
GCF_014858545.1_ASM1485854v1,plasmid_AA738,NZ_CP062224.1,S33_LN_i_1630_dp_f_1.960381005727376,1630,101355,102984
GCF_014858545.1_ASM1485854v1,plasmid_AA738,NZ_CP062224.1,S34_LN_i_1540_dp_f_1.8307688718965494,1540,103292,104831
GCF_014858545.1_ASM1485854v1,plasmid_AA738,NZ_CP062224.1,S34_LN_i_1540_dp_f_1.8307688718965494,1540,169328,170867
GCF_014394985.2_ASM1439498v2,plasmid_AD312,NZ_CP060730.2,S27_LN_i_1847_dp_f_2.140712251168923,1847,582680,584526
GCF_014394985.2_ASM1439498v2,plasmid_AD312,NZ_CP060730.2,S27_LN_i_1847_dp_f_2.140712251168923,1847,578396,580242
GCF_014394985.2_ASM1439498v2,plasmid_AD312,NZ_CP060730.2,S30_LN_i_1458_dp_f_2.2020830927221717,1458,4787935,4789392
GCF_014394985.2_ASM1439498v2,plasmid_AD312,NZ_CP060730.2,S30_LN_i_1458_dp_f_2.2020830927221717,1458,580725,582182
GCF_020736325.1_ASM2073632v1,plasmid_AC358,NZ_CP085982.1,S50_LN_i_1102_dp_f_1.2010674790271716,1102,188566,189667
GCF_020736325.1_ASM2073632v1,plasmid_AC358,NZ_CP085982.1,S50_LN_i_1102_dp_f_1.2010674790271716,1102,47625,48726
GCF_020736325.1_ASM2073632v1,plasmid_AC358,NZ_CP085981.1,S51_LN_i_1057_dp_f_5.705076940058883,1057,3808671,3809727
GCF_020736325.1_ASM2073632v1,plasmid_AC358,NZ_CP085980.1,S51_LN_i_1057_dp_f_5.705076940058883,1056,6972,8027
GCF_020736325.1_ASM2073632v1,plasmid_AC358,NZ_CP085981.1,S51_LN_i_1057_dp_f_5.705076940058883,1056,4068661,4069716
GCF_020736325.1_ASM2073632v1,plasmid_AC358,NZ_CP085981.1,S51_LN_i_1057_dp_f_5.705076940058883,1055,3063504,3064558
GCF_020736325.1_ASM2073632v1,plasmid_AC358,NZ_CP085982.1,S51_LN_i_1057_dp_f_5.705076940058883,1055,104396,105450
GCF_022533545.1_ASM2253354v1,plasmid_novel_55554ec6b5757b7cb919dd142f8309bb,NZ_CP092862.1,S99_LN_i_1938_dp_f_11.58139607518559,1938,129148,131085
GCF_022533545.1_ASM2253354v1,plasmid_novel_55554ec6b5757b7cb919dd142f8309bb,NZ_CP092861.1,S99_LN_i_1938_dp_f_11.58139607518559,1938,2092679,2094616
GCF_022533545.1_ASM2253354v1,plasmid_novel_55554ec6b5757b7cb919dd142f8309bb,NZ_CP092861.1,S99_LN_i_1938_dp_f_11.58139607518559,1938,3166648,3168585
GCF_022533545.1_ASM2253354v1,plasmid_novel_55554ec6b5757b7cb919dd142f8309bb,NZ_CP092861.1,S99_LN_i_1938_dp_f_11.58139607518559,1938,2826196,2828133
GCF_022533545.1_ASM2253354v1,plasmid_novel_55554ec6b5757b7cb919dd142f8309bb,NZ_CP092862.1,S99_LN_i_1938_dp_f_11.58139607518559,1938,137475,139412
GCF_022533545.1_ASM2253354v1,plasmid_novel_55554ec6b5757b7cb919dd142f8309bb,NZ_CP092861.1,S99_LN_i_1938_dp_f_11.58139607518559,1938,4232727,4234664
GCF_022533545.1_ASM2253354v1,plasmid_novel_55554ec6b5757b7cb919dd142f8309bb,NZ_CP092861.1,S99_LN_i_1938_dp_f_11.58139607518559,1938,4973525,4975462
GCF_022533545.1_ASM2253354v1,plasmid_novel_55554ec6b5757b7cb919dd142f8309bb,NZ_CP092861.1,S99_LN_i_1938_dp_f_11.58139607518559,1938,493219,495156
GCF_022533545.1_ASM2253354v1,plasmid_novel_55554ec6b5757b7cb919dd142f8309bb,NZ_CP092861.1,S99_LN_i_1938_dp_f_11.58139607518559,1938,2144175,2146112
GCF_022533545.1_ASM2253354v1,plasmid_novel_55554ec6b5757b7cb919dd142f8309bb,NZ_CP092861.1,S99_LN_i_1938_dp_f_11.58139607518559,1938,1606583,1608520
GCF_022533545.1_ASM2253354v1,plasmid_novel_55554ec6b5757b7cb919dd142f8309bb,NZ_CP092861.1,S99_LN_i_1938_dp_f_11.58139607518559,1938,2919992,2921929
GCF_016454725.1_ASM1645472v1,plasmid_AA860,NZ_CP051426.1,S38_LN_i_1338_dp_f_1.5026707896274967,1338,24382,25719
GCF_016454725.1_ASM1645472v1,plasmid_AA860,NZ_CP051426.1,S38_LN_i_1338_dp_f_1.5026707896274967,1338,184266,185603
GCF_016454725.1_ASM1645472v1,plasmid_AA860,NZ_CP051426.1,S39_LN_i_1331_dp_f_1.6434592386339606,1331,9746,11076
GCF_016454725.1_ASM1645472v1,plasmid_AA860,NZ_CP051426.1,S39_LN_i_1331_dp_f_1.6434592386339606,1331,13962,15292
GCF_016454645.1_ASM1645464v1,plasmid_AA474,NZ_CP051411.1,S35_LN_i_4784_dp_f_0.8329783717589926,4784,13416,18199
GCF_016454645.1_ASM1645464v1,plasmid_AA474,NZ_CP051411.1,S35_LN_i_4784_dp_f_0.8329783717589926,4784,22973,27756
GCF_016454645.1_ASM1645464v1,plasmid_AA738,NZ_CP051411.1,S37_LN_i_4099_dp_f_0.7687678339672773,4099,9157,13255
GCF_016454645.1_ASM1645464v1,plasmid_AA738,NZ_CP051411.1,S37_LN_i_4099_dp_f_0.7687678339672773,4099,18714,22812
GCF_016454645.1_ASM1645464v1,plasmid_AA738,NZ_CP051412.1,S42_LN_i_1535_dp_f_1.4392983269964723,1535,116491,118025
GCF_016454645.1_ASM1645464v1,plasmid_AA738,NZ_CP051412.1,S42_LN_i_1535_dp_f_1.4392983269964723,1535,112206,113740
GCF_016454645.1_ASM1645464v1,plasmid_AA738,NZ_CP051410.1,S45_LN_i_1056_dp_f_1.9958404096831275,1056,3858439,3859494
GCF_016454645.1_ASM1645464v1,plasmid_AA738,NZ_CP051412.1,S45_LN_i_1056_dp_f_1.9958404096831275,1056,134374,135429
GCF_015240995.1_ASM1524099v1,plasmid_AB461,NZ_CP063706.1,S36_LN_i_1714_dp_f_11.471528841889368,1714,51445,53158
GCF_015240995.1_ASM1524099v1,plasmid_AB461,NZ_CP063707.1,S36_LN_i_1714_dp_f_11.471528841889368,1714,6973,8686
GCF_015240995.1_ASM1524099v1,plasmid_AB461,NZ_CP063706.1,S38_LN_i_1525_dp_f_19.382414437371963,1525,63813,65337
GCF_015240995.1_ASM1524099v1,plasmid_AB461,NZ_CP063706.1,S38_LN_i_1525_dp_f_19.382414437371963,1525,55539,57063
GCF_016454445.1_ASM1645444v1,plasmid_AA303,NZ_CP051388.1,S61_LN_i_1713_dp_f_2.7210948181289276,1713,15244,16956
GCF_016454445.1_ASM1645444v1,plasmid_AA303,NZ_CP051386.1,S61_LN_i_1713_dp_f_2.7210948181289276,1713,4808552,4810264
GCF_016454445.1_ASM1645444v1,plasmid_AA303,NZ_CP051387.1,S61_LN_i_1713_dp_f_2.7210948181289276,1713,56036,57748
GCF_016454445.1_ASM1645444v1,plasmid_AA627,NZ_CP051387.1,S55_LN_i_2579_dp_f_2.222920657361382,2579,3249,5827
GCF_016454445.1_ASM1645444v1,plasmid_AA627,NZ_CP051387.1,S55_LN_i_2579_dp_f_2.222920657361382,2579,107596,110174
GCF_016454445.1_ASM1645444v1,plasmid_AA627,NZ_CP051387.1,S66_LN_i_1140_dp_f_1.6705760165101227,1140,2109,3248
GCF_016454445.1_ASM1645444v1,plasmid_AA627,NZ_CP051387.1,S66_LN_i_1140_dp_f_1.6705760165101227,1140,110175,111314
GCF_016454445.1_ASM1645444v1,plasmid_AA627,NZ_CP051387.1,S66_LN_i_1140_dp_f_1.6705760165101227,1140,121807,122946
GCF_016454265.1_ASM1645426v1,plasmid_AA738,NZ_CP051359.1,S41_LN_i_1954_dp_f_3.98317306685308,1954,208878,210831
GCF_016454265.1_ASM1645426v1,plasmid_AA738,NZ_CP051359.1,S41_LN_i_1954_dp_f_3.98317306685308,1954,19707,21660
GCF_016454265.1_ASM1645426v1,plasmid_AA738,NZ_CP051358.1,S41_LN_i_1954_dp_f_3.98317306685308,1954,3648537,3650490
GCF_016454265.1_ASM1645426v1,plasmid_AA738,NZ_CP051360.1,S43_LN_i_1710_dp_f_1.9727444335299575,1710,113935,115644
GCF_016454265.1_ASM1645426v1,plasmid_AA738,NZ_CP051359.1,S43_LN_i_1710_dp_f_1.9727444335299575,1710,60218,61927
GCF_016454265.1_ASM1645426v1,plasmid_AA738,NZ_CP051359.1,S45_LN_i_1535_dp_f_1.9181981832949881,1535,199556,201090
GCF_016454265.1_ASM1645426v1,plasmid_AA738,NZ_CP051359.1,S45_LN_i_1535_dp_f_1.9181981832949881,1535,195271,196805
GCF_019428465.1_ASM1942846v1,plasmid_AB461,NZ_CP080091.1,S32_LN_i_1029_dp_f_2.3944316432722292,1029,4021760,4022788
GCF_019428465.1_ASM1942846v1,plasmid_AB461,NZ_CP080092.1,S32_LN_i_1029_dp_f_2.3944316432722292,1029,10192,11220
GCF_016454365.1_ASM1645436v1,plasmid_AA998,NZ_CP051379.1,S39_LN_i_4734_dp_f_0.8453751320067646,4734,146693,151426
GCF_016454365.1_ASM1645436v1,plasmid_AA998,NZ_CP051379.1,S39_LN_i_4734_dp_f_0.8453751320067646,4734,121011,125744
GCF_016454365.1_ASM1645436v1,plasmid_AA998,NZ_CP051379.1,S51_LN_i_1241_dp_f_1.0939491596196937,1241,125897,127137
GCF_016454365.1_ASM1645436v1,plasmid_AA998,NZ_CP051379.1,S51_LN_i_1241_dp_f_1.0939491596196937,1241,151579,152819
GCF_016454365.1_ASM1645436v1,plasmid_AA998,NZ_CP051379.1,S54_LN_i_1065_dp_f_1.4556585092322114,1065,145493,146557
GCF_016454365.1_ASM1645436v1,plasmid_AA998,NZ_CP051379.1,S54_LN_i_1065_dp_f_1.4556585092322114,1065,161217,162281
GCF_016454385.1_ASM1645438v1,plasmid_AA738,NZ_CP051382.1,S37_LN_i_2437_dp_f_1.7290744372744953,2437,66980,69416
GCF_016454385.1_ASM1645438v1,plasmid_AA738,NZ_CP051382.1,S37_LN_i_2437_dp_f_1.7290744372744953,2437,146917,149353
GCF_016454385.1_ASM1645438v1,plasmid_AA738,NZ_CP051382.1,S39_LN_i_1535_dp_f_1.7807248611773896,1535,91326,92860
GCF_016454385.1_ASM1645438v1,plasmid_AA738,NZ_CP051382.1,S39_LN_i_1535_dp_f_1.7807248611773896,1535,87041,88575
GCF_013328855.1_ASM1332885v1,plasmid_AB233,NZ_CP054422.1,S39_LN_i_2131_dp_f_19.237314176335044,2131,4775342,4777472
GCF_013328855.1_ASM1332885v1,plasmid_AB233,NZ_CP054422.1,S39_LN_i_2131_dp_f_19.237314176335044,2131,12279,14409
GCF_013328855.1_ASM1332885v1,plasmid_AB233,NZ_CP054422.1,S39_LN_i_2131_dp_f_19.237314176335044,2131,1463052,1465182
GCF_013328855.1_ASM1332885v1,plasmid_AB233,NZ_CP054422.1,S39_LN_i_2131_dp_f_19.237314176335044,2131,1732733,1734863
GCF_013328855.1_ASM1332885v1,plasmid_AB233,NZ_CP054422.1,S39_LN_i_2131_dp_f_19.237314176335044,2131,2652683,2654813
GCF_013328855.1_ASM1332885v1,plasmid_AB233,NZ_CP054422.1,S39_LN_i_2131_dp_f_19.237314176335044,2131,3450595,3452725
GCF_013328855.1_ASM1332885v1,plasmid_AB233,NZ_CP054422.1,S39_LN_i_2131_dp_f_19.237314176335044,2131,322839,324969
GCF_013328855.1_ASM1332885v1,plasmid_AB233,NZ_CP054422.1,S39_LN_i_2131_dp_f_19.237314176335044,2131,447102,449232
GCF_013328855.1_ASM1332885v1,plasmid_AB233,NZ_CP054422.1,S39_LN_i_2131_dp_f_19.237314176335044,2131,1963925,1966055
GCF_013328855.1_ASM1332885v1,plasmid_AB233,NZ_CP054422.1,S39_LN_i_2131_dp_f_19.237314176335044,2131,3171915,3174045
GCF_013328855.1_ASM1332885v1,plasmid_AB233,NZ_CP054422.1,S39_LN_i_2131_dp_f_19.237314176335044,2131,2885603,2887733
GCF_013328855.1_ASM1332885v1,plasmid_AB233,NZ_CP054422.1,S39_LN_i_2131_dp_f_19.237314176335044,2131,2256670,2258800
GCF_013328855.1_ASM1332885v1,plasmid_AB233,NZ_CP054422.1,S39_LN_i_2131_dp_f_19.237314176335044,2131,3883023,3885153
GCF_013328855.1_ASM1332885v1,plasmid_AB233,NZ_CP054422.1,S39_LN_i_2131_dp_f_19.237314176335044,2131,1058668,1060798
GCF_013328855.1_ASM1332885v1,plasmid_AB233,NZ_CP054422.1,S39_LN_i_2131_dp_f_19.237314176335044,2131,4362282,4364412
GCF_013328855.1_ASM1332885v1,plasmid_AB233,NZ_CP054422.1,S39_LN_i_2131_dp_f_19.237314176335044,2131,2445568,2447698
GCF_013328855.1_ASM1332885v1,plasmid_AB233,NZ_CP054422.1,S39_LN_i_2131_dp_f_19.237314176335044,2131,2755993,2758123
GCF_013328855.1_ASM1332885v1,plasmid_AB233,NZ_CP054422.1,S39_LN_i_2131_dp_f_19.237314176335044,2131,4028613,4030743
GCF_013328855.1_ASM1332885v1,plasmid_AB233,NZ_CP054422.1,S39_LN_i_2131_dp_f_19.237314176335044,2131,766886,769016
GCF_013328855.1_ASM1332885v1,plasmid_AB233,NZ_CP054423.1,S39_LN_i_2131_dp_f_19.237314176335044,2131,15392,17522
GCF_022936425.1_ASM2293642v1,plasmid_AA002,NZ_CP092009.1,S36_LN_i_1012_dp_f_2.027735093464681,1012,4672483,4673494
GCF_022936425.1_ASM2293642v1,plasmid_AA002,NZ_CP092009.1,S36_LN_i_1012_dp_f_2.027735093464681,1012,4678013,4679024
GCF_015074885.1_ASM1507488v1,plasmid_AA473,NZ_CP063290.1,S31_LN_i_1657_dp_f_2.4193646766056482,1657,65265,66921
GCF_015074885.1_ASM1507488v1,plasmid_AA473,NZ_CP063289.1,S31_LN_i_1657_dp_f_2.4193646766056482,1657,1173802,1175458
GCF_015240635.1_ASM1524063v1,plasmid_AB461,NZ_CP063701.1,S23_LN_i_1029_dp_f_2.350436151567719,1029,10291,11319
GCF_015240635.1_ASM1524063v1,plasmid_AB461,NZ_CP063700.1,S23_LN_i_1029_dp_f_2.350436151567719,1029,4577461,4578489
GCF_015240855.1_ASM1524085v1,plasmid_AB461,NZ_CP063703.1,S36_LN_i_3051_dp_f_3.3071243985418914,3051,105661,108711
GCF_015240855.1_ASM1524085v1,plasmid_AB461,NZ_CP063703.1,S36_LN_i_3051_dp_f_3.3071243985418914,3051,87290,90340
GCF_015240855.1_ASM1524085v1,plasmid_AB461,NZ_CP063703.1,S38_LN_i_2746_dp_f_2.8460453923115323,2746,78969,81714
GCF_015240855.1_ASM1524085v1,plasmid_AB461,NZ_CP063702.1,S38_LN_i_2746_dp_f_2.8460453923115323,2746,664973,667718
GCF_016952595.1_ASM1695259v1,plasmid_AB460,NZ_CP051364.1,S40_LN_i_1740_dp_f_1.28283717919784,1740,66474,68213
GCF_016952595.1_ASM1695259v1,plasmid_AB460,NZ_CP051364.1,S40_LN_i_1740_dp_f_1.28283717919784,1740,52917,54656
GCF_001834965.2_ASM183496v2,plasmid_AB544,NZ_CP075126.1,S63_LN_i_1147_dp_f_4.0435284720899265,1147,5193,6339
GCF_001834965.2_ASM183496v2,plasmid_AB544,NZ_CP075126.1,S63_LN_i_1147_dp_f_4.0435284720899265,1147,7021,8167
GCF_016454425.1_ASM1645442v1,plasmid_AB961,NZ_CP051385.1,S32_LN_i_6136_dp_f_0.42692731117401816,6136,60758,66893
GCF_016454425.1_ASM1645442v1,plasmid_AB961,NZ_CP051385.1,S32_LN_i_6136_dp_f_0.42692731117401816,6132,48555,54686
GCF_016454425.1_ASM1645442v1,plasmid_AA423,NZ_CP051385.1,S48_LN_i_1968_dp_f_0.6435515088671,1968,45221,47188
GCF_016454425.1_ASM1645442v1,plasmid_AA423,NZ_CP051385.1,S48_LN_i_1968_dp_f_0.6435515088671,1967,57425,59391
GCF_016454425.1_ASM1645442v1,plasmid_AA423,NZ_CP051385.1,S53_LN_i_1327_dp_f_3.1645863297488184,1327,56089,57415
GCF_016454425.1_ASM1645442v1,plasmid_AA423,NZ_CP051385.1,S53_LN_i_1327_dp_f_3.1645863297488184,1327,59413,60739
GCF_016454425.1_ASM1645442v1,plasmid_AA423,NZ_CP051385.1,S53_LN_i_1327_dp_f_3.1645863297488184,1327,66921,68247
GCF_016454425.1_ASM1645442v1,plasmid_AA423,NZ_CP051385.1,S53_LN_i_1327_dp_f_3.1645863297488184,1327,47210,48536
GCF_016454425.1_ASM1645442v1,plasmid_AA423,NZ_CP051385.1,S53_LN_i_1327_dp_f_3.1645863297488184,1327,54714,56040
GCF_016454425.1_ASM1645442v1,plasmid_AA423,NZ_CP051385.1,S53_LN_i_1327_dp_f_3.1645863297488184,1327,43885,45211
GCF_016454425.1_ASM1645442v1,plasmid_AA423,NZ_CP051384.1,S55_LN_i_1203_dp_f_2.8614834683290638,1203,213324,214526
GCF_016454425.1_ASM1645442v1,plasmid_AA423,NZ_CP051384.1,S55_LN_i_1203_dp_f_2.8614834683290638,1203,4066563,4067765
GCF_016454425.1_ASM1645442v1,plasmid_AA423,NZ_CP051384.1,S55_LN_i_1203_dp_f_2.8614834683290638,1203,4382699,4383901
GCF_003068025.2_ASM306802v2,plasmid_AB544,NZ_CP077707.1,S32_LN_i_1147_dp_f_2.212634955386935,1147,10790,11936
GCF_003068025.2_ASM306802v2,plasmid_AB544,NZ_CP077707.1,S32_LN_i_1147_dp_f_2.212634955386935,1147,12618,13764
GCF_022670675.1_ASM2267067v1,plasmid_AC358,NZ_CP093401.1,S52_LN_i_1102_dp_f_1.9188646589874008,1102,9969,11070
GCF_022670675.1_ASM2267067v1,plasmid_AC358,NZ_CP093401.1,S52_LN_i_1102_dp_f_1.9188646589874008,1102,141892,142993
GCF_016454225.1_ASM1645422v1,plasmid_AA474,NZ_CP051355.1,S42_LN_i_1058_dp_f_6.116292007815523,1058,1413,2470
GCF_016454225.1_ASM1645422v1,plasmid_AA474,NZ_CP051353.1,S42_LN_i_1058_dp_f_6.116292007815523,1058,1105489,1106546
GCF_016454185.1_ASM1645418v1,plasmid_AA473,NZ_CP051349.1,S59_LN_i_1208_dp_f_47.46468683971461,1208,3907025,3908232
GCF_016454185.1_ASM1645418v1,plasmid_AA473,NZ_CP051349.1,S59_LN_i_1208_dp_f_47.46468683971461,1208,2592984,2594191
GCF_016454185.1_ASM1645418v1,plasmid_AA473,NZ_CP051349.1,S59_LN_i_1208_dp_f_47.46468683971461,1208,1145080,1146287
GCF_016454185.1_ASM1645418v1,plasmid_AA473,NZ_CP051349.1,S59_LN_i_1208_dp_f_47.46468683971461,1208,1116721,1117928
GCF_016454185.1_ASM1645418v1,plasmid_AA473,NZ_CP051349.1,S59_LN_i_1208_dp_f_47.46468683971461,1208,3565948,3567155
GCF_016454185.1_ASM1645418v1,plasmid_AA473,NZ_CP051349.1,S59_LN_i_1208_dp_f_47.46468683971461,1208,2070175,2071382
GCF_016454185.1_ASM1645418v1,plasmid_AA473,NZ_CP051349.1,S59_LN_i_1208_dp_f_47.46468683971461,1208,2658661,2659868
GCF_016454185.1_ASM1645418v1,plasmid_AA473,NZ_CP051349.1,S59_LN_i_1208_dp_f_47.46468683971461,1208,3912930,3914137
GCF_016454185.1_ASM1645418v1,plasmid_AA473,NZ_CP051349.1,S59_LN_i_1208_dp_f_47.46468683971461,1208,1660954,1662161
GCF_016454185.1_ASM1645418v1,plasmid_AA473,NZ_CP051349.1,S59_LN_i_1208_dp_f_47.46468683971461,1208,3953870,3955077
GCF_016454185.1_ASM1645418v1,plasmid_AA473,NZ_CP051349.1,S59_LN_i_1208_dp_f_47.46468683971461,1208,3506328,3507535
GCF_016454185.1_ASM1645418v1,plasmid_AA473,NZ_CP051349.1,S59_LN_i_1208_dp_f_47.46468683971461,1208,3360794,3362001
GCF_016454185.1_ASM1645418v1,plasmid_AA473,NZ_CP051349.1,S59_LN_i_1208_dp_f_47.46468683971461,1208,2099786,2100993
GCF_016454185.1_ASM1645418v1,plasmid_AA473,NZ_CP051349.1,S59_LN_i_1208_dp_f_47.46468683971461,1208,1065762,1066969
GCF_016454185.1_ASM1645418v1,plasmid_AA473,NZ_CP051349.1,S59_LN_i_1208_dp_f_47.46468683971461,1208,802505,803712
GCF_016454185.1_ASM1645418v1,plasmid_AA473,NZ_CP051349.1,S59_LN_i_1208_dp_f_47.46468683971461,1208,3819873,3821080
GCF_016454185.1_ASM1645418v1,plasmid_AA473,NZ_CP051349.1,S59_LN_i_1208_dp_f_47.46468683971461,1208,766634,767841
GCF_016454185.1_ASM1645418v1,plasmid_AA473,NZ_CP051349.1,S59_LN_i_1208_dp_f_47.46468683971461,1208,96458,97665
GCF_016454185.1_ASM1645418v1,plasmid_AA473,NZ_CP051349.1,S59_LN_i_1208_dp_f_47.46468683971461,1208,828918,830125
GCF_016454185.1_ASM1645418v1,plasmid_AA473,NZ_CP051349.1,S59_LN_i_1208_dp_f_47.46468683971461,1208,4591287,4592494
GCF_016454185.1_ASM1645418v1,plasmid_AA473,NZ_CP051349.1,S59_LN_i_1208_dp_f_47.46468683971461,1208,3229197,3230404
GCF_016454185.1_ASM1645418v1,plasmid_AA473,NZ_CP051349.1,S59_LN_i_1208_dp_f_47.46468683971461,1208,1490453,1491660
GCF_016454185.1_ASM1645418v1,plasmid_AA473,NZ_CP051349.1,S59_LN_i_1208_dp_f_47.46468683971461,1208,4616761,4617968
GCF_016454185.1_ASM1645418v1,plasmid_AA473,NZ_CP051349.1,S59_LN_i_1208_dp_f_47.46468683971461,1208,2279421,2280628
GCF_016454185.1_ASM1645418v1,plasmid_AA473,NZ_CP051349.1,S59_LN_i_1208_dp_f_47.46468683971461,1208,3773010,3774217
GCF_016454185.1_ASM1645418v1,plasmid_AA473,NZ_CP051349.1,S59_LN_i_1208_dp_f_47.46468683971461,1208,3990543,3991750
GCF_016454185.1_ASM1645418v1,plasmid_AA473,NZ_CP051349.1,S59_LN_i_1208_dp_f_47.46468683971461,1208,2381299,2382506
GCF_016454185.1_ASM1645418v1,plasmid_AA473,NZ_CP051349.1,S59_LN_i_1208_dp_f_47.46468683971461,1208,2860654,2861861
GCF_016454185.1_ASM1645418v1,plasmid_AA473,NZ_CP051349.1,S59_LN_i_1208_dp_f_47.46468683971461,1208,1030575,1031782
GCF_016454185.1_ASM1645418v1,plasmid_AA473,NZ_CP051349.1,S59_LN_i_1208_dp_f_47.46468683971461,1208,3387207,3388414
GCF_016454185.1_ASM1645418v1,plasmid_AA473,NZ_CP051349.1,S59_LN_i_1208_dp_f_47.46468683971461,1208,4368007,4369214
GCF_016454185.1_ASM1645418v1,plasmid_AA473,NZ_CP051349.1,S59_LN_i_1208_dp_f_47.46468683971461,1208,3167208,3168415
GCF_016454185.1_ASM1645418v1,plasmid_AA473,NZ_CP051349.1,S59_LN_i_1208_dp_f_47.46468683971461,1208,3084484,3085691
GCF_016454185.1_ASM1645418v1,plasmid_AA473,NZ_CP051349.1,S59_LN_i_1208_dp_f_47.46468683971461,1208,1460083,1461290
GCF_016454185.1_ASM1645418v1,plasmid_AA473,NZ_CP051349.1,S59_LN_i_1208_dp_f_47.46468683971461,1208,2226733,2227940
GCF_016454585.1_ASM1645458v1,plasmid_AD530,NZ_CP051402.1,S45_LN_i_1312_dp_f_6.605243627656658,1312,1980780,1982091
GCF_016454585.1_ASM1645458v1,plasmid_AD530,NZ_CP051402.1,S45_LN_i_1312_dp_f_6.605243627656658,1312,419635,420946
GCF_016454585.1_ASM1645458v1,plasmid_AD530,NZ_CP051402.1,S45_LN_i_1312_dp_f_6.605243627656658,1312,684999,686310
GCF_016454585.1_ASM1645458v1,plasmid_AD530,NZ_CP051402.1,S45_LN_i_1312_dp_f_6.605243627656658,1312,4123188,4124499
GCF_016454585.1_ASM1645458v1,plasmid_AD530,NZ_CP051402.1,S45_LN_i_1312_dp_f_6.605243627656658,1312,3291330,3292641
GCF_016454585.1_ASM1645458v1,plasmid_AD530,NZ_CP051402.1,S45_LN_i_1312_dp_f_6.605243627656658,1312,2885187,2886498
GCF_021397625.1_ASM2139762v1,plasmid_AA738,NZ_CP090138.1,S29_LN_i_4733_dp_f_6.8855909901878185,4733,228287,233019
GCF_021397625.1_ASM2139762v1,plasmid_AA738,NZ_CP090138.1,S29_LN_i_4733_dp_f_6.8855909901878185,4733,163628,168360
GCF_021397625.1_ASM2139762v1,plasmid_AA738,NZ_CP090138.1,S34_LN_i_3755_dp_f_6.660175020043836,3755,222769,226523
GCF_021397625.1_ASM2139762v1,plasmid_AA738,NZ_CP090138.1,S34_LN_i_3755_dp_f_6.660175020043836,3755,170124,173878
GCF_021397625.1_ASM2139762v1,plasmid_AA738,NZ_CP090138.1,S37_LN_i_2437_dp_f_6.95487933578269,2437,33589,36025
GCF_021397625.1_ASM2139762v1,plasmid_AA738,NZ_CP090138.1,S37_LN_i_2437_dp_f_6.95487933578269,2437,290157,292593
GCF_021397625.1_ASM2139762v1,plasmid_AA738,NZ_CP090137.1,S41_LN_i_2130_dp_f_20.893209466587734,2130,1975622,1977751
GCF_021397625.1_ASM2139762v1,plasmid_AA738,NZ_CP090138.1,S41_LN_i_2130_dp_f_20.893209466587734,2130,87308,89437
GCF_021397625.1_ASM2139762v1,plasmid_AA738,NZ_CP090138.1,S41_LN_i_2130_dp_f_20.893209466587734,2130,255060,257189
GCF_021397625.1_ASM2139762v1,plasmid_AA738,NZ_CP090138.1,S41_LN_i_2130_dp_f_20.893209466587734,2130,94035,96164
GCF_021397625.1_ASM2139762v1,plasmid_AA738,NZ_CP090138.1,S41_LN_i_2130_dp_f_20.893209466587734,2130,265169,267298
GCF_021397625.1_ASM2139762v1,plasmid_AA738,NZ_CP090140.1,S41_LN_i_2130_dp_f_20.893209466587734,2130,4598,6727
GCF_021397625.1_ASM2139762v1,plasmid_AA738,NZ_CP090138.1,S45_LN_i_1630_dp_f_6.159278207722498,1630,174699,176328
GCF_021397625.1_ASM2139762v1,plasmid_AA738,NZ_CP090138.1,S45_LN_i_1630_dp_f_6.159278207722498,1630,220319,221948
GCF_021397625.1_ASM2139762v1,plasmid_AA738,NZ_CP090138.1,S46_LN_i_1540_dp_f_6.4746824820700795,1540,180920,182459
GCF_021397625.1_ASM2139762v1,plasmid_AA738,NZ_CP090138.1,S46_LN_i_1540_dp_f_6.4746824820700795,1540,176636,178175
GCF_021397625.1_ASM2139762v1,plasmid_AA001,NZ_CP090139.1,S47_LN_i_1200_dp_f_6.329486842363563,1200,13435,14634
GCF_021397625.1_ASM2139762v1,plasmid_AA001,NZ_CP090139.1,S47_LN_i_1200_dp_f_6.329486842363563,1200,8192,9391
GCF_021397625.1_ASM2139762v1,plasmid_AA162,NZ_CP090138.1,S31_LN_i_4597_dp_f_10.963826678902516,4597,89438,94034
GCF_021397625.1_ASM2139762v1,plasmid_AA162,NZ_CP090140.1,S31_LN_i_4597_dp_f_10.963826678902516,4597,1,4597
GCF_016452005.1_ASM1645200v1,plasmid_AA474,NZ_CP051312.1,S43_LN_i_2442_dp_f_1.7818881488141771,2442,79415,81856
GCF_016452005.1_ASM1645200v1,plasmid_AA474,NZ_CP051311.1,S43_LN_i_2442_dp_f_1.7818881488141771,2442,64258,66699
GCF_016452005.1_ASM1645200v1,plasmid_AA738,NZ_CP051310.1,S44_LN_i_2437_dp_f_2.9594505868167413,2437,4157691,4160127
GCF_016452005.1_ASM1645200v1,plasmid_AA738,NZ_CP051311.1,S44_LN_i_2437_dp_f_2.9594505868167413,2437,221771,224207
GCF_016452005.1_ASM1645200v1,plasmid_AA738,NZ_CP051311.1,S44_LN_i_2437_dp_f_2.9594505868167413,2437,47273,49709
GCF_016452005.1_ASM1645200v1,plasmid_AA738,NZ_CP051311.1,S48_LN_i_1954_dp_f_3.0773164990101374,1954,205582,207535
GCF_016452005.1_ASM1645200v1,plasmid_AA738,NZ_CP051311.1,S48_LN_i_1954_dp_f_3.0773164990101374,1954,16011,17964
GCF_016452005.1_ASM1645200v1,plasmid_AA738,NZ_CP051312.1,S48_LN_i_1954_dp_f_3.0773164990101374,1954,8380,10333
GCF_016452005.1_ASM1645200v1,plasmid_AA738,NZ_CP051311.1,S50_LN_i_1535_dp_f_1.7221333745609775,1535,6689,8223
GCF_016452005.1_ASM1645200v1,plasmid_AA738,NZ_CP051311.1,S50_LN_i_1535_dp_f_1.7221333745609775,1535,2404,3938
GCF_016454325.1_ASM1645432v1,plasmid_AA474,NZ_CP051370.1,S31_LN_i_2741_dp_f_1.2594639724076262,2741,1756554,1759294
GCF_016454325.1_ASM1645432v1,plasmid_AA474,NZ_CP051371.1,S31_LN_i_2741_dp_f_1.2594639724076262,2741,80319,83059
GCF_016025415.1_ASM1602541v1,plasmid_AA998,NZ_CP065567.1,S54_LN_i_2595_dp_f_3.1149568456693872,2595,4344564,4347158
GCF_016025415.1_ASM1602541v1,plasmid_AA998,NZ_CP065568.1,S54_LN_i_2595_dp_f_3.1149568456693872,2595,126086,128680
GCF_016025415.1_ASM1602541v1,plasmid_AA998,NZ_CP065568.1,S58_LN_i_2027_dp_f_3.0298677317663745,2027,123734,125760
GCF_016025415.1_ASM1602541v1,plasmid_AA998,NZ_CP065567.1,S58_LN_i_2027_dp_f_3.0298677317663745,2027,4347484,4349510
GCF_016025415.1_ASM1602541v1,plasmid_AA998,NZ_CP065568.1,S66_LN_i_1202_dp_f_3.400960766635236,1202,93723,94924
GCF_016025415.1_ASM1602541v1,plasmid_AA998,NZ_CP065568.1,S66_LN_i_1202_dp_f_3.400960766635236,1202,88235,89436
GCF_016025415.1_ASM1602541v1,plasmid_AA998,NZ_CP065568.1,S73_LN_i_1043_dp_f_3.9136715325694813,1043,99440,100482
GCF_016025415.1_ASM1602541v1,plasmid_AA998,NZ_CP065568.1,S73_LN_i_1043_dp_f_3.9136715325694813,1043,70675,71717
GCF_020736305.1_ASM2073630v1,plasmid_AC358,NZ_CP085984.1,S51_LN_i_1102_dp_f_1.076394667985175,1102,33748,34849
GCF_020736305.1_ASM2073630v1,plasmid_AC358,NZ_CP085984.1,S51_LN_i_1102_dp_f_1.076394667985175,1102,165635,166736
GCF_020736305.1_ASM2073630v1,plasmid_AC358,NZ_CP085983.1,S52_LN_i_1057_dp_f_5.620871047331631,1057,422245,423301
GCF_020736305.1_ASM2073630v1,plasmid_AC358,NZ_CP085985.1,S52_LN_i_1057_dp_f_5.620871047331631,1056,35424,36479
GCF_020736305.1_ASM2073630v1,plasmid_AC358,NZ_CP085983.1,S52_LN_i_1057_dp_f_5.620871047331631,1057,4395614,4396670
GCF_020736305.1_ASM2073630v1,plasmid_AC358,NZ_CP085983.1,S52_LN_i_1057_dp_f_5.620871047331631,1056,4135624,4136679
GCF_020736305.1_ASM2073630v1,plasmid_AC358,NZ_CP085983.1,S52_LN_i_1057_dp_f_5.620871047331631,1056,4470828,4471883
GCF_014334255.1_ASM1433425v1,plasmid_AB461,NZ_CP060523.1,S30_LN_i_1029_dp_f_2.2272167997605976,1029,10192,11220
GCF_014334255.1_ASM1433425v1,plasmid_AB461,NZ_CP060522.1,S30_LN_i_1029_dp_f_2.2272167997605976,1029,4021069,4022097
GCF_014805785.2_ASM1480578v2,plasmid_AD312,NZ_CP061929.2,S26_LN_i_1847_dp_f_1.8858895254952581,1847,582680,584526
GCF_014805785.2_ASM1480578v2,plasmid_AD312,NZ_CP061929.2,S26_LN_i_1847_dp_f_1.8858895254952581,1847,578396,580242
GCF_014805785.2_ASM1480578v2,plasmid_AD312,NZ_CP061929.2,S29_LN_i_1458_dp_f_1.9786404349384046,1458,4788113,4789570
GCF_014805785.2_ASM1480578v2,plasmid_AD312,NZ_CP061929.2,S29_LN_i_1458_dp_f_1.9786404349384046,1458,580725,582182
GCF_019670425.1_ASM1967042v1,plasmid_AA738,NZ_AP023316.1,S34_LN_i_6084_dp_f_1.978750103319113,6084,97843,103926
GCF_019670425.1_ASM1967042v1,plasmid_AA738,NZ_AP023315.1,S34_LN_i_6084_dp_f_1.978750103319113,6084,1141617,1147700
GCF_019670425.1_ASM1967042v1,plasmid_AA738,NZ_AP023316.1,S36_LN_i_4386_dp_f_2.0769045484807873,4386,106606,110991
GCF_019670425.1_ASM1967042v1,plasmid_AA738,NZ_AP023315.1,S36_LN_i_4386_dp_f_2.0769045484807873,4386,1148521,1152906
GCF_019670425.1_ASM1967042v1,plasmid_AA738,NZ_AP023316.1,S47_LN_i_1916_dp_f_2.2937419414500857,1916,111812,113727
GCF_019670425.1_ASM1967042v1,plasmid_AA738,NZ_AP023315.1,S47_LN_i_1916_dp_f_2.2937419414500857,1916,1153726,1155641
GCF_013415925.1_ASM1341592v1,plasmid_AA998,NZ_CP058810.1,S56_LN_i_1444_dp_f_15.918932964236207,1444,138416,139859
GCF_013415925.1_ASM1341592v1,plasmid_AA998,NZ_CP058811.1,S56_LN_i_1444_dp_f_15.918932964236207,1442,8900,10341
GCF_013415925.1_ASM1341592v1,plasmid_AA998,NZ_CP058810.1,S57_LN_i_1129_dp_f_15.697093019897544,1129,142998,144126
GCF_013415925.1_ASM1341592v1,plasmid_AA998,NZ_CP058810.1,S57_LN_i_1129_dp_f_15.697093019897544,1129,133067,134195
GCF_014840915.2_ASM1484091v2,plasmid_AD312,NZ_CP062004.2,S26_LN_i_1847_dp_f_1.9293805274006002,1847,578396,580242
GCF_014840915.2_ASM1484091v2,plasmid_AD312,NZ_CP062004.2,S26_LN_i_1847_dp_f_1.9293805274006002,1847,582680,584526
GCF_014840915.2_ASM1484091v2,plasmid_AD312,NZ_CP062004.2,S29_LN_i_1458_dp_f_2.0999745979305144,1458,580725,582182
GCF_014840915.2_ASM1484091v2,plasmid_AD312,NZ_CP062004.2,S29_LN_i_1458_dp_f_2.0999745979305144,1458,4788113,4789570
GCF_019670385.1_ASM1967038v1,plasmid_AA998,NZ_AP023312.1,S35_LN_i_6084_dp_f_2.155763559276845,6084,95841,101924
GCF_019670385.1_ASM1967038v1,plasmid_AA998,NZ_AP023311.1,S35_LN_i_6084_dp_f_2.155763559276845,6084,1141637,1147720
GCF_019670385.1_ASM1967038v1,plasmid_AA998,NZ_AP023311.1,S37_LN_i_5705_dp_f_2.614730307156763,5705,1135163,1140867
GCF_019670385.1_ASM1967038v1,plasmid_AA998,NZ_AP023312.1,S37_LN_i_5705_dp_f_2.614730307156763,5705,89367,95071
GCF_019670385.1_ASM1967038v1,plasmid_AA998,NZ_AP023312.1,S39_LN_i_4734_dp_f_2.5317940816890454,4734,83302,88035
GCF_019670385.1_ASM1967038v1,plasmid_AA998,NZ_AP023311.1,S39_LN_i_4734_dp_f_2.5317940816890454,4734,1129098,1133831
GCF_019670385.1_ASM1967038v1,plasmid_AA998,NZ_AP023312.1,S57_LN_i_1331_dp_f_4.210636806200969,1331,88036,89366
GCF_019670385.1_ASM1967038v1,plasmid_AA998,NZ_AP023311.1,S57_LN_i_1331_dp_f_4.210636806200969,1331,1133832,1135162
GCF_019670385.1_ASM1967038v1,plasmid_AA998,NZ_AP023312.1,S57_LN_i_1331_dp_f_4.210636806200969,1331,127631,128961
GCF_016454345.1_ASM1645434v1,plasmid_AA627,NZ_CP051373.1,S21_LN_i_10487_dp_f_0.9827654307101399,10487,3092,13578
GCF_016454345.1_ASM1645434v1,plasmid_AA627,NZ_CP051373.1,S21_LN_i_10487_dp_f_0.9827654307101399,10486,111813,122298
GCF_016454345.1_ASM1645434v1,plasmid_AA627,NZ_CP051373.1,S38_LN_i_1140_dp_f_0.9056332864744396,1140,13584,14723
GCF_016454345.1_ASM1645434v1,plasmid_AA627,NZ_CP051373.1,S38_LN_i_1140_dp_f_0.9056332864744396,1140,1952,3091
GCF_001833255.2_ASM183325v2,plasmid_AB544,NZ_CP075130.1,S60_LN_i_1147_dp_f_7.4449280722776665,1147,1361,2507
GCF_001833255.2_ASM183325v2,plasmid_AB544,NZ_CP075130.1,S60_LN_i_1147_dp_f_7.4449280722776665,1147,3189,4335
GCF_022870605.1_ASM2287060v1,plasmid_AA738,NZ_CP058673.1,S69_LN_i_2699_dp_f_10.890246644783918,2698,40594,43291
GCF_022870605.1_ASM2287060v1,plasmid_AA738,NZ_CP058671.1,S69_LN_i_2699_dp_f_10.890246644783918,2699,1709240,1711938
GCF_022870605.1_ASM2287060v1,plasmid_AA738,NZ_CP058671.1,S69_LN_i_2699_dp_f_10.890246644783918,2698,2774470,2777167
GCF_022870605.1_ASM2287060v1,plasmid_AA738,NZ_CP058671.1,S69_LN_i_2699_dp_f_10.890246644783918,2699,4002246,4004944
GCF_022870605.1_ASM2287060v1,plasmid_AA738,NZ_CP058671.1,S69_LN_i_2699_dp_f_10.890246644783918,2698,3414399,3417096
GCF_022870605.1_ASM2287060v1,plasmid_AA738,NZ_CP058672.1,S69_LN_i_2699_dp_f_10.890246644783918,2696,87047,89742
GCF_022870605.1_ASM2287060v1,plasmid_AA738,NZ_CP058671.1,S69_LN_i_2699_dp_f_10.890246644783918,2695,1127844,1130538
GCF_022870605.1_ASM2287060v1,plasmid_AA738,NZ_CP058671.1,S69_LN_i_2699_dp_f_10.890246644783918,2695,2777542,2780236
GCF_022870605.1_ASM2287060v1,plasmid_AA738,NZ_CP058672.1,S69_LN_i_2699_dp_f_10.890246644783918,2693,127790,130482
GCF_022870605.1_ASM2287060v1,plasmid_AA738,NZ_CP058672.1,S69_LN_i_2699_dp_f_10.890246644783918,2691,106161,108851
GCF_022870605.1_ASM2287060v1,plasmid_AA738,NZ_CP058672.1,S72_LN_i_1928_dp_f_3.515992211662044,1928,11460,13387
GCF_022870605.1_ASM2287060v1,plasmid_AA738,NZ_CP058671.1,S72_LN_i_1928_dp_f_3.515992211662044,1928,1322218,1324145
GCF_022870605.1_ASM2287060v1,plasmid_AA738,NZ_CP058672.1,S72_LN_i_1928_dp_f_3.515992211662044,1927,130483,132409
GCF_022870605.1_ASM2287060v1,plasmid_AA738,NZ_CP058672.1,S72_LN_i_1928_dp_f_3.515992211662044,1925,168156,170080
GCF_022870605.1_ASM2287060v1,plasmid_AA738,NZ_CP058672.1,S72_LN_i_1928_dp_f_3.515992211662044,1924,70334,72257
GCF_022870605.1_ASM2287060v1,plasmid_AA738,NZ_CP058671.1,S85_LN_i_1265_dp_f_12.116126220509127,1265,1819123,1820387
GCF_022870605.1_ASM2287060v1,plasmid_AA738,NZ_CP058671.1,S85_LN_i_1265_dp_f_12.116126220509127,1265,2717133,2718397
GCF_022870605.1_ASM2287060v1,plasmid_AA738,NZ_CP058671.1,S85_LN_i_1265_dp_f_12.116126220509127,1265,4681225,4682489
GCF_022870605.1_ASM2287060v1,plasmid_AA738,NZ_CP058671.1,S85_LN_i_1265_dp_f_12.116126220509127,1265,3169255,3170519
GCF_022870605.1_ASM2287060v1,plasmid_AA738,NZ_CP058671.1,S85_LN_i_1265_dp_f_12.116126220509127,1263,1357961,1359223
GCF_022870605.1_ASM2287060v1,plasmid_AA738,NZ_CP058672.1,S85_LN_i_1265_dp_f_12.116126220509127,1263,146028,147290
GCF_022870605.1_ASM2287060v1,plasmid_AA738,NZ_CP058673.1,S85_LN_i_1265_dp_f_12.116126220509127,1263,17868,19130
GCF_022870605.1_ASM2287060v1,plasmid_AA738,NZ_CP058671.1,S85_LN_i_1265_dp_f_12.116126220509127,1263,1971789,1973051
GCF_022870605.1_ASM2287060v1,plasmid_AA738,NZ_CP058672.1,S85_LN_i_1265_dp_f_12.116126220509127,1263,61873,63135
GCF_022870605.1_ASM2287060v1,plasmid_AA738,NZ_CP058672.1,S85_LN_i_1265_dp_f_12.116126220509127,1263,76128,77390
GCF_022870605.1_ASM2287060v1,plasmid_AA738,NZ_CP058671.1,S85_LN_i_1265_dp_f_12.116126220509127,1263,1378072,1379334
GCF_022870605.1_ASM2287060v1,plasmid_AA738,NZ_CP058671.1,S85_LN_i_1265_dp_f_12.116126220509127,1263,1478816,1480078
GCF_022870605.1_ASM2287060v1,plasmid_AA738,NZ_CP058671.1,S87_LN_i_1250_dp_f_2.472690503028016,1250,2253347,2254596
GCF_022870605.1_ASM2287060v1,plasmid_AA738,NZ_CP058671.1,S87_LN_i_1250_dp_f_2.472690503028016,1249,1506412,1507660
GCF_022870605.1_ASM2287060v1,plasmid_AA738,NZ_CP058671.1,S89_LN_i_1199_dp_f_1.7354221764950575,1199,3261505,3262703
GCF_022870605.1_ASM2287060v1,plasmid_AA738,NZ_CP058672.1,S89_LN_i_1199_dp_f_1.7354221764950575,1198,24275,25472
GCF_022870605.1_ASM2287060v1,plasmid_AA738,NZ_CP058671.1,S91_LN_i_1152_dp_f_11.737187632559417,1152,1151598,1152749
GCF_022870605.1_ASM2287060v1,plasmid_AA738,NZ_CP058671.1,S91_LN_i_1152_dp_f_11.737187632559417,1152,2233127,2234278
GCF_022870605.1_ASM2287060v1,plasmid_AA738,NZ_CP058671.1,S91_LN_i_1152_dp_f_11.737187632559417,1152,142098,143249
GCF_022870605.1_ASM2287060v1,plasmid_AA738,NZ_CP058673.1,S91_LN_i_1152_dp_f_11.737187632559417,1152,1983,3134
GCF_022870605.1_ASM2287060v1,plasmid_AA738,NZ_CP058671.1,S91_LN_i_1152_dp_f_11.737187632559417,1152,2084690,2085841
GCF_022870605.1_ASM2287060v1,plasmid_AA738,NZ_CP058671.1,S91_LN_i_1152_dp_f_11.737187632559417,1152,1509570,1510721
GCF_022870605.1_ASM2287060v1,plasmid_AA738,NZ_CP058671.1,S91_LN_i_1152_dp_f_11.737187632559417,1152,3483231,3484382
GCF_022870605.1_ASM2287060v1,plasmid_AA738,NZ_CP058671.1,S91_LN_i_1152_dp_f_11.737187632559417,1152,254421,255572
GCF_022870605.1_ASM2287060v1,plasmid_AA738,NZ_CP058672.1,S91_LN_i_1152_dp_f_11.737187632559417,1151,18968,20118
GCF_022870605.1_ASM2287060v1,plasmid_AA738,NZ_CP058671.1,S91_LN_i_1152_dp_f_11.737187632559417,1150,2685433,2686582
GCF_022870605.1_ASM2287060v1,plasmid_AC024,NZ_CP058673.1,S68_LN_i_2904_dp_f_3.4071536940828357,2904,26475,29378
GCF_022870605.1_ASM2287060v1,plasmid_AC024,NZ_CP058672.1,S68_LN_i_2904_dp_f_3.4071536940828357,2902,133954,136859
GCF_022870605.1_ASM2287060v1,plasmid_AC024,NZ_CP058673.1,S86_LN_i_1256_dp_f_3.582214241843721,1256,38787,40042
GCF_022870605.1_ASM2287060v1,plasmid_AC024,NZ_CP058672.1,S86_LN_i_1256_dp_f_3.582214241843721,1256,138071,139326
GCF_016454165.1_ASM1645416v1,plasmid_AA176,NZ_CP051347.1,S31_LN_i_2456_dp_f_1.4104161850058183,2456,133064,135519
GCF_016454165.1_ASM1645416v1,plasmid_AA176,NZ_CP051348.1,S31_LN_i_2456_dp_f_1.4104161850058183,2456,37340,39795
GCF_016454165.1_ASM1645416v1,plasmid_AA176,NZ_CP051347.1,S39_LN_i_1045_dp_f_3.563421167222157,1045,7093,8137
GCF_016454165.1_ASM1645416v1,plasmid_AA176,NZ_CP051346.1,S39_LN_i_1045_dp_f_3.563421167222157,1045,1557112,1558156
GCF_021397645.1_ASM2139764v1,plasmid_AA738,NZ_CP090142.1,S32_LN_i_4733_dp_f_2.1504373729694715,4733,111478,116210
GCF_021397645.1_ASM2139764v1,plasmid_AA738,NZ_CP090142.1,S32_LN_i_4733_dp_f_2.1504373729694715,4733,176137,180869
GCF_021397645.1_ASM2139764v1,plasmid_AA738,NZ_CP090142.1,S37_LN_i_3755_dp_f_2.340557274819536,3755,117974,121728
GCF_021397645.1_ASM2139764v1,plasmid_AA738,NZ_CP090142.1,S37_LN_i_3755_dp_f_2.340557274819536,3755,170619,174373
GCF_021397645.1_ASM2139764v1,plasmid_AA738,NZ_CP090142.1,S40_LN_i_2437_dp_f_1.8781706701654,2437,283430,285866
GCF_021397645.1_ASM2139764v1,plasmid_AA738,NZ_CP090142.1,S40_LN_i_2437_dp_f_1.8781706701654,2437,33589,36025
GCF_021397645.1_ASM2139764v1,plasmid_AA738,NZ_CP090142.1,S44_LN_i_2130_dp_f_3.5945662956284714,2130,87308,89437
GCF_021397645.1_ASM2139764v1,plasmid_AA738,NZ_CP090142.1,S44_LN_i_2130_dp_f_3.5945662956284714,2130,248333,250462
GCF_021397645.1_ASM2139764v1,plasmid_AA738,NZ_CP090142.1,S44_LN_i_2130_dp_f_3.5945662956284714,2130,258442,260571
GCF_021397645.1_ASM2139764v1,plasmid_AA738,NZ_CP090141.1,S44_LN_i_2130_dp_f_3.5945662956284714,2130,1975624,1977753
GCF_021397645.1_ASM2139764v1,plasmid_AA738,NZ_CP090142.1,S48_LN_i_1630_dp_f_2.49688280186092,1630,122549,124178
GCF_021397645.1_ASM2139764v1,plasmid_AA738,NZ_CP090142.1,S48_LN_i_1630_dp_f_2.49688280186092,1630,168169,169798
GCF_021397645.1_ASM2139764v1,plasmid_AA738,NZ_CP090142.1,S49_LN_i_1540_dp_f_2.4460188859588974,1540,166322,167861
GCF_021397645.1_ASM2139764v1,plasmid_AA738,NZ_CP090142.1,S49_LN_i_1540_dp_f_2.4460188859588974,1540,162038,163577
GCF_021397645.1_ASM2139764v1,plasmid_AA001,NZ_CP090143.1,S52_LN_i_1200_dp_f_7.281975448231539,1200,13435,14634
GCF_021397645.1_ASM2139764v1,plasmid_AA001,NZ_CP090143.1,S52_LN_i_1200_dp_f_7.281975448231539,1200,8192,9391
GCF_016454545.1_ASM1645454v1,plasmid_AA860,NZ_CP051400.1,S49_LN_i_1338_dp_f_1.1802050440633478,1338,78940,80277
GCF_016454545.1_ASM1645454v1,plasmid_AA860,NZ_CP051400.1,S49_LN_i_1338_dp_f_1.1802050440633478,1338,178998,180335
GCF_016454545.1_ASM1645454v1,plasmid_AA860,NZ_CP051400.1,S50_LN_i_1331_dp_f_1.1086299104859625,1331,93583,94913
GCF_016454545.1_ASM1645454v1,plasmid_AA860,NZ_CP051400.1,S50_LN_i_1331_dp_f_1.1086299104859625,1331,89367,90697
GCF_016452165.1_ASM1645216v1,plasmid_AA998,NZ_CP053053.1,S39_LN_i_5674_dp_f_5.844517519626498,5674,213338,219011
GCF_016452165.1_ASM1645216v1,plasmid_AA998,NZ_CP053052.1,S39_LN_i_5674_dp_f_5.844517519626498,5674,17081,22754
GCF_016452165.1_ASM1645216v1,plasmid_AA998,NZ_CP053053.1,S39_LN_i_5674_dp_f_5.844517519626498,5674,2582,8255
GCF_016452165.1_ASM1645216v1,plasmid_AA998,NZ_CP053053.1,S43_LN_i_3881_dp_f_6.060021018049086,3881,9456,13336
GCF_016452165.1_ASM1645216v1,plasmid_AA998,NZ_CP053052.1,S43_LN_i_3881_dp_f_6.060021018049086,3881,12000,15880
GCF_016452165.1_ASM1645216v1,plasmid_AA998,NZ_CP053053.1,S43_LN_i_3881_dp_f_6.060021018049086,3881,208503,212383
GCF_016452165.1_ASM1645216v1,plasmid_AA998,NZ_CP053052.1,S55_LN_i_1241_dp_f_7.186381167438084,1241,9754,10994
GCF_016452165.1_ASM1645216v1,plasmid_AA998,NZ_CP053053.1,S55_LN_i_1241_dp_f_7.186381167438084,1241,14342,15582
GCF_016452165.1_ASM1645216v1,plasmid_AA998,NZ_CP053053.1,S58_LN_i_1065_dp_f_7.7166952074397175,1065,23991,25055
GCF_016452165.1_ASM1645216v1,plasmid_AA998,NZ_CP053053.1,S58_LN_i_1065_dp_f_7.7166952074397175,1065,8256,9320
GCF_016452165.1_ASM1645216v1,plasmid_AA998,NZ_CP053052.1,S58_LN_i_1065_dp_f_7.7166952074397175,1065,16016,17080
GCF_016452165.1_ASM1645216v1,plasmid_AA998,NZ_CP053052.1,S61_LN_i_1003_dp_f_7.2915642150077415,1003,4699,5701
GCF_016452165.1_ASM1645216v1,plasmid_AA998,NZ_CP053051.1,S61_LN_i_1003_dp_f_7.2915642150077415,1003,36336,37338
GCF_001713515.2_ASM171351v2,plasmid_AB461,NZ_CP074662.1,S25_LN_i_1783_dp_f_0.2880700089415109,1782,27790,29571
GCF_001713515.2_ASM171351v2,plasmid_AB461,NZ_CP074662.1,S25_LN_i_1783_dp_f_0.2880700089415109,1781,29870,31650
GCF_019670205.1_ASM1967020v1,plasmid_AC082,NZ_AP023291.1,S57_LN_i_1330_dp_f_3.084480380394808,1330,3602201,3603530
GCF_019670205.1_ASM1967020v1,plasmid_AC082,NZ_AP023291.1,S57_LN_i_1330_dp_f_3.084480380394808,1330,1707468,1708797
GCF_019670205.1_ASM1967020v1,plasmid_AC082,NZ_AP023291.1,S57_LN_i_1330_dp_f_3.084480380394808,1330,1133717,1135046
GCF_019670325.1_ASM1967032v1,plasmid_AA738,NZ_AP023304.1,S50_LN_i_1329_dp_f_3.6651106710883004,1329,1167146,1168474
GCF_019670325.1_ASM1967032v1,plasmid_AA738,NZ_AP023304.1,S50_LN_i_1329_dp_f_3.6651106710883004,1329,264811,266139
GCF_019670325.1_ASM1967032v1,plasmid_AA738,NZ_AP023304.1,S50_LN_i_1329_dp_f_3.6651106710883004,1329,1262347,1263675
GCF_019670345.1_ASM1967034v1,plasmid_AC120,NZ_AP023306.1,S53_LN_i_1599_dp_f_10.984396257184114,1599,1148516,1150114
GCF_019670345.1_ASM1967034v1,plasmid_AC120,NZ_AP023308.1,S53_LN_i_1599_dp_f_10.984396257184114,1599,2802,4400
GCF_019670345.1_ASM1967034v1,plasmid_AA316,NZ_AP023307.1,S55_LN_i_1530_dp_f_3.773401097946318,1530,39368,40897
GCF_019670345.1_ASM1967034v1,plasmid_AA316,NZ_AP023306.1,S55_LN_i_1530_dp_f_3.773401097946318,1530,1154113,1155642
GCF_019670345.1_ASM1967034v1,plasmid_AA316,NZ_AP023307.1,S65_LN_i_1067_dp_f_4.468709868568546,1067,23425,24491
GCF_019670345.1_ASM1967034v1,plasmid_AA316,NZ_AP023307.1,S65_LN_i_1067_dp_f_4.468709868568546,1067,19141,20207
GCF_019670345.1_ASM1967034v1,plasmid_AA316,NZ_AP023307.1,S66_LN_i_1016_dp_f_4.146751587370017,1016,28316,29331
GCF_019670345.1_ASM1967034v1,plasmid_AA316,NZ_AP023307.1,S66_LN_i_1016_dp_f_4.146751587370017,1016,33715,34730
GCF_016451985.1_ASM1645198v1,plasmid_AA860,NZ_CP051307.1,S29_LN_i_19168_dp_f_2.00949117541694,19168,4637832,4656999
GCF_016451985.1_ASM1645198v1,plasmid_AA860,NZ_CP051307.1,S29_LN_i_19168_dp_f_2.00949117541694,19168,1761798,1780965
GCF_016451985.1_ASM1645198v1,plasmid_AA860,NZ_CP051307.1,S31_LN_i_5498_dp_f_1.9904446783179004,5496,1783471,1788966
GCF_016451985.1_ASM1645198v1,plasmid_AA860,NZ_CP051307.1,S31_LN_i_5498_dp_f_1.9904446783179004,5498,4629829,4635326
GCF_016451985.1_ASM1645198v1,plasmid_AA860,NZ_CP051307.1,S40_LN_i_1057_dp_f_3.024228443968434,1057,666350,667406
GCF_016451985.1_ASM1645198v1,plasmid_AA860,NZ_CP051307.1,S40_LN_i_1057_dp_f_3.024228443968434,1057,3056000,3057056
GCF_016451985.1_ASM1645198v1,plasmid_AA860,NZ_CP051307.1,S40_LN_i_1057_dp_f_3.024228443968434,1057,2593777,2594833
GCF_016454665.1_ASM1645466v1,plasmid_AC293,NZ_CP051413.1,S37_LN_i_1833_dp_f_1.7601419418595996,1833,43413,45245
GCF_016454665.1_ASM1645466v1,plasmid_AC293,NZ_CP051413.1,S37_LN_i_1833_dp_f_1.7601419418595996,1833,79598,81430
GCF_016454665.1_ASM1645466v1,plasmid_AC293,NZ_CP051413.1,S41_LN_i_1352_dp_f_2.1384525198963296,1352,46569,47920
GCF_016454665.1_ASM1645466v1,plasmid_AC293,NZ_CP051413.1,S41_LN_i_1352_dp_f_2.1384525198963296,1352,82877,84228
GCF_016452065.1_ASM1645206v1,plasmid_AA860,NZ_CP051319.1,S23_LN_i_10487_dp_f_4.111588116056041,10487,144205,154691
GCF_016452065.1_ASM1645206v1,plasmid_AA860,NZ_CP051319.1,S23_LN_i_10487_dp_f_4.111588116056041,10486,155832,166317
GCF_016452065.1_ASM1645206v1,plasmid_AA860,NZ_CP051319.1,S30_LN_i_3295_dp_f_3.179293916092792,3295,36048,39342
GCF_016452065.1_ASM1645206v1,plasmid_AA860,NZ_CP051318.1,S30_LN_i_3295_dp_f_3.179293916092792,3295,53548,56842
GCF_016452065.1_ASM1645206v1,plasmid_AA860,NZ_CP051318.1,S34_LN_i_2240_dp_f_2.339691020947337,2240,64273,66512
GCF_016452065.1_ASM1645206v1,plasmid_AA860,NZ_CP051319.1,S34_LN_i_2240_dp_f_2.339691020947337,2240,41135,43374
GCF_016452065.1_ASM1645206v1,plasmid_AA860,NZ_CP051319.1,S44_LN_i_1140_dp_f_2.926209677897068,1140,154692,155831
GCF_016452065.1_ASM1645206v1,plasmid_AA860,NZ_CP051319.1,S44_LN_i_1140_dp_f_2.926209677897068,1140,143060,144199
GCF_014858565.1_ASM1485856v1,plasmid_AA738,NZ_CP062226.1,S33_LN_i_2133_dp_f_2.042100209634528,2133,84863,86995
GCF_014858565.1_ASM1485856v1,plasmid_AA738,NZ_CP062226.1,S33_LN_i_2133_dp_f_2.042100209634528,2133,229433,231565
GCF_014858565.1_ASM1485856v1,plasmid_AA738,NZ_CP062226.1,S36_LN_i_1630_dp_f_1.2191826568019595,1630,96026,97655
GCF_014858565.1_ASM1485856v1,plasmid_AA738,NZ_CP062226.1,S36_LN_i_1630_dp_f_1.2191826568019595,1630,141293,142922
GCF_014858565.1_ASM1485856v1,plasmid_AA738,NZ_CP062226.1,S37_LN_i_1540_dp_f_1.6723784529290795,1540,97963,99502
GCF_014858565.1_ASM1485856v1,plasmid_AA738,NZ_CP062226.1,S37_LN_i_1540_dp_f_1.6723784529290795,1540,139446,140985
GCF_016454765.1_ASM1645476v1,plasmid_AA998,NZ_CP053049.1,S37_LN_i_1333_dp_f_1.2593229161207782,1333,84011,85343
GCF_016454765.1_ASM1645476v1,plasmid_AA998,NZ_CP053050.1,S37_LN_i_1333_dp_f_1.2593229161207782,1333,3328,4660
GCF_016454765.1_ASM1645476v1,plasmid_AD672,NZ_CP053048.1,S20_LN_i_21159_dp_f_2.285026731233073,21159,3555689,3576847
GCF_016454765.1_ASM1645476v1,plasmid_AD672,NZ_CP053048.1,S20_LN_i_21159_dp_f_2.285026731233073,21158,4413166,4434325
