GCF_016454725.1_ASM1645472v1,plasmid_AA372,NZ_CP051424.1,27
GCF_020736305.1_ASM2073630v1,plasmid_AC358,NZ_CP085984.1,13
GCF_020736305.1_ASM2073630v1,plasmid_AB233,NZ_CP085985.1,6
GCF_013415925.1_ASM1341592v1,plasmid_AA998,NZ_CP058810.1,142
