#FILE	SEQUENCE	START	END	STRAND	GENE	COVERAGE	COVERAGE_MAP	GAPS	%COVERAGE	%IDENTITY	DATABASE	ACCESSION	PRODUCT	RESISTANCE
/hpc/dla_mm/jkerkvliet/data/gplas/newmodels/results/E_faecium/08_mobsuite/GCF_022647825.1_ASM2264782v1/plasmid_AC731.fasta	S111_LN:i:5225_dp:f:1.2884150910021734	3653	4963	+	aac(6')-aph(2'')_1	130-1440/1440	.==============	0/0	91.04	100.00	resfinder	M13771	aac(6')-aph(2'')	Amikacin;Gentamicin;Tobramycin
/hpc/dla_mm/jkerkvliet/data/gplas/newmodels/results/E_faecium/08_mobsuite/GCF_022647825.1_ASM2264782v1/plasmid_AC731.fasta	S141_LN:i:2862_dp:f:2.1092852741585935	206	2812	+	VanHAX_2	1-2607/2607	===============	0/0	100.00	99.92	resfinder	M97297	VanHAX	Vancomycin;Teicoplanin
/hpc/dla_mm/jkerkvliet/data/gplas/newmodels/results/E_faecium/08_mobsuite/GCF_022647825.1_ASM2264782v1/plasmid_AB756.fasta	S76_LN:i:11349_dp:f:0.9963159809907485	5427	7346	+	tet(M)_10	1-1920/1920	===============	0/0	100.00	97.50	resfinder	EU182585	tet(M)	Doxycycline;Tetracycline;Minocycline
/hpc/dla_mm/jkerkvliet/data/gplas/newmodels/results/E_faecium/08_mobsuite/GCF_022647825.1_ASM2264782v1/plasmid_AB756.fasta	S76_LN:i:11349_dp:f:0.9963159809907485	7475	8817	+	tet(L)_2	35-1377/1377	===============	0/0	97.53	99.93	resfinder	M29725	tet(L)	Doxycycline;Tetracycline
/hpc/dla_mm/jkerkvliet/data/gplas/newmodels/results/E_faecium/08_mobsuite/GCF_021398505.1_ASM2139850v1/plasmid_AB756.fasta	S20_LN:i:34586_dp:f:9.96074803200382	4059	5978	+	tet(M)_10	1-1920/1920	===============	0/0	100.00	96.46	resfinder	EU182585	tet(M)	Doxycycline;Tetracycline;Minocycline
/hpc/dla_mm/jkerkvliet/data/gplas/newmodels/results/E_faecium/08_mobsuite/GCF_021398505.1_ASM2139850v1/plasmid_AB756.fasta	S20_LN:i:34586_dp:f:9.96074803200382	6172	7548	+	tet(L)_2	1-1377/1377	===============	0/0	100.00	100.00	resfinder	M29725	tet(L)	Doxycycline;Tetracycline
/hpc/dla_mm/jkerkvliet/data/gplas/newmodels/results/E_faecium/08_mobsuite/GCF_021398505.1_ASM2139850v1/plasmid_AB756.fasta	S20_LN:i:34586_dp:f:9.96074803200382	19609	20371	-	erm(B)_18	1-762/762	========/======	1/1	100.00	99.61	resfinder	X66468	erm(B)	Erythromycin;Lincomycin;Clindamycin;Quinupristin;Pristinamycin_IA;Virginiamycin_S
/hpc/dla_mm/jkerkvliet/data/gplas/newmodels/results/E_faecium/08_mobsuite/GCF_021398505.1_ASM2139850v1/plasmid_AB756.fasta	S20_LN:i:34586_dp:f:9.96074803200382	22891	23694	-	lnu(B)_2	1-804/804	===============	0/0	100.00	100.00	resfinder	JQ861959	lnu(B)	Lincomycin;Clindamycin
/hpc/dla_mm/jkerkvliet/data/gplas/newmodels/results/E_faecium/08_mobsuite/GCF_021398505.1_ASM2139850v1/plasmid_AB756.fasta	S20_LN:i:34586_dp:f:9.96074803200382	23748	25232	-	lsa(E)_1	1-1485/1485	===============	0/0	100.00	100.00	resfinder	JX560992	lsa(E)	Lincomycin;Clindamycin;Dalfopristin;Pristinamycin_IIA;Virginiamycin_M;Tiamulin
/hpc/dla_mm/jkerkvliet/data/gplas/newmodels/results/E_faecium/08_mobsuite/GCF_021398505.1_ASM2139850v1/plasmid_AB756.fasta	S20_LN:i:34586_dp:f:9.96074803200382	28811	29674	-	ant(6)-Ia_2	1-864/864	===============	0/0	100.00	100.00	resfinder	KF421157	ant(6)-Ia	Streptomycin
/hpc/dla_mm/jkerkvliet/data/gplas/newmodels/results/E_faecium/08_mobsuite/GCF_016406445.1_ASM1640644v1/plasmid_AC731.fasta	S124_LN:i:2921_dp:f:2.509852814912593	206	2812	+	VanHAX_2	1-2607/2607	===============	0/0	100.00	99.92	resfinder	M97297	VanHAX	Vancomycin;Teicoplanin
/hpc/dla_mm/jkerkvliet/data/gplas/newmodels/results/E_faecium/08_mobsuite/GCF_016406445.1_ASM1640644v1/plasmid_AC731.fasta	S71_LN:i:12336_dp:f:0.8693581092181206	80	1390	-	aac(6')-aph(2'')_1	130-1440/1440	.==============	0/0	91.04	100.00	resfinder	M13771	aac(6')-aph(2'')	Amikacin;Gentamicin;Tobramycin
/hpc/dla_mm/jkerkvliet/data/gplas/newmodels/results/E_faecium/08_mobsuite/GCF_016406445.1_ASM1640644v1/plasmid_AB756.fasta	S86_LN:i:7407_dp:f:2.2724885898066263	255	1017	+	erm(B)_18	1-762/762	========/======	1/1	100.00	99.34	resfinder	X66468	erm(B)	Erythromycin;Lincomycin;Clindamycin;Quinupristin;Pristinamycin_IA;Virginiamycin_S
/hpc/dla_mm/jkerkvliet/data/gplas/newmodels/results/E_faecium/08_mobsuite/GCF_016406445.1_ASM1640644v1/plasmid_AB756.fasta	S86_LN:i:7407_dp:f:2.2724885898066263	4276	5188	+	ant(6)-Ia_1	1-909/909	========/======	1/4	100.00	99.56	resfinder	AF330699	ant(6)-Ia	Streptomycin
/hpc/dla_mm/jkerkvliet/data/gplas/newmodels/results/E_faecium/08_mobsuite/GCF_016406445.1_ASM1640644v1/plasmid_AB756.fasta	S86_LN:i:7407_dp:f:2.2724885898066263	5820	6614	+	aph(3')-III_1	1-795/795	===============	0/0	100.00	100.00	resfinder	M26832	aph(3')-III	Amikacin
/hpc/dla_mm/jkerkvliet/data/gplas/newmodels/results/E_faecium/08_mobsuite/GCF_016406445.1_ASM1640644v1/plasmid_AC670.fasta	S100_LN:i:5685_dp:f:0.9968832007642305	2927	4269	-	tet(L)_2	35-1377/1377	===============	0/0	97.53	99.93	resfinder	M29725	tet(L)	Doxycycline;Tetracycline
/hpc/dla_mm/jkerkvliet/data/gplas/newmodels/results/E_faecium/08_mobsuite/GCF_022647945.1_ASM2264794v1/plasmid_AB173.fasta	S143_LN:i:2862_dp:f:1.803255357292805	206	2812	+	VanHAX_2	1-2607/2607	===============	0/0	100.00	99.92	resfinder	M97297	VanHAX	Vancomycin;Teicoplanin
/hpc/dla_mm/jkerkvliet/data/gplas/newmodels/results/E_faecium/08_mobsuite/GCF_022647945.1_ASM2264794v1/plasmid_AB173.fasta	S95_LN:i:7302_dp:f:1.780537976326992	689	1483	-	aph(3')-III_1	1-795/795	===============	0/0	100.00	100.00	resfinder	M26832	aph(3')-III	Amikacin
/hpc/dla_mm/jkerkvliet/data/gplas/newmodels/results/E_faecium/08_mobsuite/GCF_022647945.1_ASM2264794v1/plasmid_AB173.fasta	S95_LN:i:7302_dp:f:1.780537976326992	2115	3027	-	ant(6)-Ia_1	1-909/909	========/======	1/4	100.00	99.56	resfinder	AF330699	ant(6)-Ia	Streptomycin
/hpc/dla_mm/jkerkvliet/data/gplas/newmodels/results/E_faecium/08_mobsuite/GCF_022647945.1_ASM2264794v1/plasmid_AB173.fasta	S95_LN:i:7302_dp:f:1.780537976326992	6286	7048	-	erm(B)_18	1-762/762	========/======	1/1	100.00	99.34	resfinder	X66468	erm(B)	Erythromycin;Lincomycin;Clindamycin;Quinupristin;Pristinamycin_IA;Virginiamycin_S
/hpc/dla_mm/jkerkvliet/data/gplas/newmodels/results/E_faecium/08_mobsuite/GCF_022647945.1_ASM2264794v1/plasmid_AC731.fasta	S111_LN:i:5225_dp:f:1.2961724579003941	3653	4963	+	aac(6')-aph(2'')_1	130-1440/1440	.==============	0/0	91.04	100.00	resfinder	M13771	aac(6')-aph(2'')	Amikacin;Gentamicin;Tobramycin
/hpc/dla_mm/jkerkvliet/data/gplas/newmodels/results/E_faecium/08_mobsuite/GCF_022647945.1_ASM2264794v1/plasmid_AB756.fasta	S76_LN:i:11349_dp:f:1.025798927904011	5427	7346	+	tet(M)_10	1-1920/1920	===============	0/0	100.00	97.50	resfinder	EU182585	tet(M)	Doxycycline;Tetracycline;Minocycline
/hpc/dla_mm/jkerkvliet/data/gplas/newmodels/results/E_faecium/08_mobsuite/GCF_022647945.1_ASM2264794v1/plasmid_AB756.fasta	S76_LN:i:11349_dp:f:1.025798927904011	7475	8817	+	tet(L)_2	35-1377/1377	===============	0/0	97.53	99.93	resfinder	M29725	tet(L)	Doxycycline;Tetracycline
/hpc/dla_mm/jkerkvliet/data/gplas/newmodels/results/E_faecium/08_mobsuite/GCF_015999605.1_ASM1599960v1/plasmid_AB173.fasta	S92_LN:i:7703_dp:f:2.2221126171413763	206	2812	+	VanHAX_2	1-2607/2607	===============	0/0	100.00	99.92	resfinder	M97297	VanHAX	Vancomycin;Teicoplanin
/hpc/dla_mm/jkerkvliet/data/gplas/newmodels/results/E_faecium/08_mobsuite/GCF_015999605.1_ASM1599960v1/plasmid_AB173.fasta	S97_LN:i:6672_dp:f:2.186454587789897	63	857	-	aph(3')-III_1	1-795/795	===============	0/0	100.00	99.87	resfinder	M26832	aph(3')-III	Amikacin
/hpc/dla_mm/jkerkvliet/data/gplas/newmodels/results/E_faecium/08_mobsuite/GCF_015999605.1_ASM1599960v1/plasmid_AB173.fasta	S97_LN:i:6672_dp:f:2.186454587789897	1489	2397	-	ant(6)-Ia_1	1-909/909	===============	0/0	100.00	99.89	resfinder	AF330699	ant(6)-Ia	Streptomycin
/hpc/dla_mm/jkerkvliet/data/gplas/newmodels/results/E_faecium/08_mobsuite/GCF_015999605.1_ASM1599960v1/plasmid_AB173.fasta	S97_LN:i:6672_dp:f:2.186454587789897	5656	6418	-	erm(B)_18	1-762/762	========/======	1/1	100.00	99.34	resfinder	X66468	erm(B)	Erythromycin;Lincomycin;Clindamycin;Quinupristin;Pristinamycin_IA;Virginiamycin_S
/hpc/dla_mm/jkerkvliet/data/gplas/newmodels/results/E_faecium/08_mobsuite/GCF_015999605.1_ASM1599960v1/plasmid_AC731.fasta	S96_LN:i:6820_dp:f:1.0190255076255417	3653	4963	+	aac(6')-aph(2'')_1	130-1440/1440	.==============	0/0	91.04	100.00	resfinder	M13771	aac(6')-aph(2'')	Amikacin;Gentamicin;Tobramycin
/hpc/dla_mm/jkerkvliet/data/gplas/newmodels/results/E_faecium/08_mobsuite/GCF_016406345.1_ASM1640634v1/plasmid_AB173.fasta	S88_LN:i:8023_dp:f:1.2349147783399819	526	3132	+	VanHAX_2	1-2607/2607	===============	0/0	100.00	99.92	resfinder	M97297	VanHAX	Vancomycin;Teicoplanin
/hpc/dla_mm/jkerkvliet/data/gplas/newmodels/results/E_faecium/08_mobsuite/GCF_016406345.1_ASM1640634v1/plasmid_AB173.fasta	S97_LN:i:6672_dp:f:1.2077818297426257	63	857	-	aph(3')-III_1	1-795/795	===============	0/0	100.00	99.87	resfinder	M26832	aph(3')-III	Amikacin
/hpc/dla_mm/jkerkvliet/data/gplas/newmodels/results/E_faecium/08_mobsuite/GCF_016406345.1_ASM1640634v1/plasmid_AB173.fasta	S97_LN:i:6672_dp:f:1.2077818297426257	1489	2397	-	ant(6)-Ia_1	1-909/909	===============	0/0	100.00	99.89	resfinder	AF330699	ant(6)-Ia	Streptomycin
/hpc/dla_mm/jkerkvliet/data/gplas/newmodels/results/E_faecium/08_mobsuite/GCF_016406345.1_ASM1640634v1/plasmid_AB173.fasta	S97_LN:i:6672_dp:f:1.2077818297426257	5656	6418	-	erm(B)_18	1-762/762	========/======	1/1	100.00	99.34	resfinder	X66468	erm(B)	Erythromycin;Lincomycin;Clindamycin;Quinupristin;Pristinamycin_IA;Virginiamycin_S
/hpc/dla_mm/jkerkvliet/data/gplas/newmodels/results/E_faecium/08_mobsuite/GCF_016406345.1_ASM1640634v1/plasmid_AC731.fasta	S95_LN:i:6820_dp:f:0.9851261955773695	1858	3168	-	aac(6')-aph(2'')_1	130-1440/1440	.==============	0/0	91.04	100.00	resfinder	M13771	aac(6')-aph(2'')	Amikacin;Gentamicin;Tobramycin
/hpc/dla_mm/jkerkvliet/data/gplas/newmodels/results/E_faecium/08_mobsuite/GCF_020162175.1_ASM2016217v1/plasmid_AB171.fasta	S104_LN:i:3604_dp:f:2.4326838056285065	2185	3093	+	ant(6)-Ia_1	1-909/909	===============	0/0	100.00	100.00	resfinder	AF330699	ant(6)-Ia	Streptomycin
/hpc/dla_mm/jkerkvliet/data/gplas/newmodels/results/E_faecium/08_mobsuite/GCF_020162175.1_ASM2016217v1/plasmid_AB171.fasta	S153_LN:i:1069_dp:f:2.0662167701494702	171	933	-	erm(B)_18	1-762/762	========/======	1/1	100.00	98.95	resfinder	X66468	erm(B)	Erythromycin;Lincomycin;Clindamycin;Quinupristin;Pristinamycin_IA;Virginiamycin_S
/hpc/dla_mm/jkerkvliet/data/gplas/newmodels/results/E_faecium/08_mobsuite/GCF_020162175.1_ASM2016217v1/plasmid_AB171.fasta	S74_LN:i:10715_dp:f:2.104023094035162	7552	8199	-	cat(pC221)_1	1-648/648	===============	0/0	100.00	97.69	resfinder	X02529	cat(pC221)	Chloramphenicol
/hpc/dla_mm/jkerkvliet/data/gplas/newmodels/results/E_faecium/08_mobsuite/GCF_020162175.1_ASM2016217v1/plasmid_AB171.fasta	S94_LN:i:4724_dp:f:2.8009081470884745	2094	4700	+	VanHAX_2	1-2607/2607	===============	0/0	100.00	100.00	resfinder	M97297	VanHAX	Vancomycin;Teicoplanin
/hpc/dla_mm/jkerkvliet/data/gplas/newmodels/results/E_faecium/08_mobsuite/GCF_907165365.1_USZ_VRE32_P32_hybrid_assembly/plasmid_AB922.fasta	S140_LN:i:1741_dp:f:0.6922341512311386	1	1239	+	aac(6')-aph(2'')_1	130-1368/1440	.==============	0/0	86.04	99.92	resfinder	M13771	aac(6')-aph(2'')	Amikacin;Gentamicin;Tobramycin
/hpc/dla_mm/jkerkvliet/data/gplas/newmodels/results/E_faecium/08_mobsuite/GCF_907165365.1_USZ_VRE32_P32_hybrid_assembly/plasmid_AB117.fasta	S114_LN:i:4589_dp:f:0.8351271924411539	117	614	+	dfrG_1	1-498/498	===============	0/0	100.00	100.00	resfinder	AB205645	dfrG	Trimethoprim
/hpc/dla_mm/jkerkvliet/data/gplas/newmodels/results/E_faecium/08_mobsuite/GCF_907165365.1_USZ_VRE32_P32_hybrid_assembly/plasmid_AB171.fasta	S112_LN:i:4725_dp:f:2.0743856011848303	2094	4700	+	VanHAX_2	1-2607/2607	===============	0/0	100.00	100.00	resfinder	M97297	VanHAX	Vancomycin;Teicoplanin
/hpc/dla_mm/jkerkvliet/data/gplas/newmodels/results/E_faecium/08_mobsuite/GCF_907165365.1_USZ_VRE32_P32_hybrid_assembly/plasmid_AB171.fasta	S121_LN:i:3610_dp:f:2.0429896248185293	512	1420	-	ant(6)-Ia_1	1-909/909	===============	0/0	100.00	100.00	resfinder	AF330699	ant(6)-Ia	Streptomycin
/hpc/dla_mm/jkerkvliet/data/gplas/newmodels/results/E_faecium/08_mobsuite/GCF_907165365.1_USZ_VRE32_P32_hybrid_assembly/plasmid_AB171.fasta	S163_LN:i:1069_dp:f:1.8377699369618257	171	933	-	erm(B)_18	1-762/762	========/======	1/1	100.00	98.95	resfinder	X66468	erm(B)	Erythromycin;Lincomycin;Clindamycin;Quinupristin;Pristinamycin_IA;Virginiamycin_S
/hpc/dla_mm/jkerkvliet/data/gplas/newmodels/results/E_faecium/08_mobsuite/GCF_907165365.1_USZ_VRE32_P32_hybrid_assembly/plasmid_AB171.fasta	S82_LN:i:10714_dp:f:2.0783386141551747	7551	8198	-	cat(pC221)_1	1-648/648	===============	0/0	100.00	97.69	resfinder	X02529	cat(pC221)	Chloramphenicol
/hpc/dla_mm/jkerkvliet/data/gplas/newmodels/results/E_faecium/08_mobsuite/GCF_907176135.1_USZ_VRE5_P5_hybrid_assembly/plasmid_AC731.fasta	S108_LN:i:3985_dp:f:1.162953803124639	2551	3861	+	aac(6')-aph(2'')_1	130-1440/1440	.==============	0/0	91.04	100.00	resfinder	M13771	aac(6')-aph(2'')	Amikacin;Gentamicin;Tobramycin
/hpc/dla_mm/jkerkvliet/data/gplas/newmodels/results/E_faecium/08_mobsuite/GCF_907176135.1_USZ_VRE5_P5_hybrid_assembly/plasmid_AB171.fasta	S100_LN:i:4724_dp:f:0.9760439957978204	25	2631	-	VanHAX_2	1-2607/2607	===============	0/0	100.00	100.00	resfinder	M97297	VanHAX	Vancomycin;Teicoplanin
/hpc/dla_mm/jkerkvliet/data/gplas/newmodels/results/E_faecium/08_mobsuite/GCF_907176135.1_USZ_VRE5_P5_hybrid_assembly/plasmid_AB171.fasta	S111_LN:i:3606_dp:f:1.0515326349675904	511	1419	-	ant(6)-Ia_1	1-909/909	===============	0/0	100.00	100.00	resfinder	AF330699	ant(6)-Ia	Streptomycin
/hpc/dla_mm/jkerkvliet/data/gplas/newmodels/results/E_faecium/08_mobsuite/GCF_907176135.1_USZ_VRE5_P5_hybrid_assembly/plasmid_AB171.fasta	S151_LN:i:1069_dp:f:1.1968704691876964	171	933	-	erm(B)_18	1-762/762	========/======	1/1	100.00	98.95	resfinder	X66468	erm(B)	Erythromycin;Lincomycin;Clindamycin;Quinupristin;Pristinamycin_IA;Virginiamycin_S
/hpc/dla_mm/jkerkvliet/data/gplas/newmodels/results/E_faecium/08_mobsuite/GCF_907176135.1_USZ_VRE5_P5_hybrid_assembly/plasmid_AB171.fasta	S71_LN:i:10714_dp:f:1.0382617719986684	2517	3164	+	cat(pC221)_1	1-648/648	===============	0/0	100.00	97.69	resfinder	X02529	cat(pC221)	Chloramphenicol
/hpc/dla_mm/jkerkvliet/data/gplas/newmodels/results/E_faecium/08_mobsuite/GCF_017584065.1_ASM1758406v1/plasmid_AB918.fasta	S96_LN:i:3630_dp:f:1.6553630141874438	932	1694	+	erm(B)_18	1-762/762	========/======	1/1	100.00	99.21	resfinder	X66468	erm(B)	Erythromycin;Lincomycin;Clindamycin;Quinupristin;Pristinamycin_IA;Virginiamycin_S
/hpc/dla_mm/jkerkvliet/data/gplas/newmodels/results/E_faecium/08_mobsuite/GCF_019175425.1_ASM1917542v1/plasmid_AB756.fasta	S27_LN:i:10012_dp:f:2.001672298280652	3856	5340	+	lsa(E)_1	1-1485/1485	===============	0/0	100.00	100.00	resfinder	JX560992	lsa(E)	Lincomycin;Clindamycin;Dalfopristin;Pristinamycin_IIA;Virginiamycin_M;Tiamulin
/hpc/dla_mm/jkerkvliet/data/gplas/newmodels/results/E_faecium/08_mobsuite/GCF_019175425.1_ASM1917542v1/plasmid_AB756.fasta	S27_LN:i:10012_dp:f:2.001672298280652	5394	6197	+	lnu(B)_2	1-804/804	===============	0/0	100.00	100.00	resfinder	JQ861959	lnu(B)	Lincomycin;Clindamycin
/hpc/dla_mm/jkerkvliet/data/gplas/newmodels/results/E_faecium/08_mobsuite/GCF_019175425.1_ASM1917542v1/plasmid_AB756.fasta	S30_LN:i:8053_dp:f:1.9695867609806466	4807	5569	-	erm(B)_18	1-762/762	========/======	1/1	100.00	99.21	resfinder	X66468	erm(B)	Erythromycin;Lincomycin;Clindamycin;Quinupristin;Pristinamycin_IA;Virginiamycin_S
/hpc/dla_mm/jkerkvliet/data/gplas/newmodels/results/E_faecium/08_mobsuite/GCF_019175425.1_ASM1917542v1/plasmid_AB756.fasta	S30_LN:i:8053_dp:f:1.9695867609806466	6306	7100	-	aph(3')-III_1	1-795/795	===============	0/0	100.00	100.00	resfinder	M26832	aph(3')-III	Amikacin
/hpc/dla_mm/jkerkvliet/data/gplas/newmodels/results/E_faecium/08_mobsuite/GCF_019175425.1_ASM1917542v1/plasmid_AB756.fasta	S32_LN:i:7866_dp:f:1.2918679122785661	1977	3896	+	tet(M)_10	1-1920/1920	===============	0/0	100.00	96.46	resfinder	EU182585	tet(M)	Doxycycline;Tetracycline;Minocycline
/hpc/dla_mm/jkerkvliet/data/gplas/newmodels/results/E_faecium/08_mobsuite/GCF_019175425.1_ASM1917542v1/plasmid_AB756.fasta	S32_LN:i:7866_dp:f:1.2918679122785661	4090	5466	+	tet(L)_8	1-1377/1377	===============	0/0	100.00	99.56	resfinder	AY081910	tet(L)	Doxycycline;Tetracycline
/hpc/dla_mm/jkerkvliet/data/gplas/newmodels/results/E_faecium/08_mobsuite/GCF_019175425.1_ASM1917542v1/plasmid_AB756.fasta	S34_LN:i:7251_dp:f:1.3828120316022434	2069	3478	+	fexB_1	1-1410/1410	===============	0/0	100.00	100.00	resfinder	JN201336	fexB	Chloramphenicol;Florfenicol
/hpc/dla_mm/jkerkvliet/data/gplas/newmodels/results/E_faecium/08_mobsuite/GCF_019175425.1_ASM1917542v1/plasmid_AB756.fasta	S48_LN:i:2235_dp:f:1.2670692898666887	1	1608	-	poxtA_1	1-1608/1629	===============	0/0	98.71	100.00	resfinder	MF095097	poxtA	Chloramphenicol;Florfenicol;Linezolid;Doxycycline;Tetracycline
/hpc/dla_mm/jkerkvliet/data/gplas/newmodels/results/E_faecium/08_mobsuite/GCF_016406425.1_ASM1640642v1/plasmid_AB173.fasta	S90_LN:i:7703_dp:f:2.7533167016122992	206	2812	+	VanHAX_2	1-2607/2607	===============	0/0	100.00	99.92	resfinder	M97297	VanHAX	Vancomycin;Teicoplanin
/hpc/dla_mm/jkerkvliet/data/gplas/newmodels/results/E_faecium/08_mobsuite/GCF_016406425.1_ASM1640642v1/plasmid_AB173.fasta	S95_LN:i:6672_dp:f:2.677683788099048	63	857	-	aph(3')-III_1	1-795/795	===============	0/0	100.00	99.87	resfinder	M26832	aph(3')-III	Amikacin
/hpc/dla_mm/jkerkvliet/data/gplas/newmodels/results/E_faecium/08_mobsuite/GCF_016406425.1_ASM1640642v1/plasmid_AB173.fasta	S95_LN:i:6672_dp:f:2.677683788099048	1489	2397	-	ant(6)-Ia_1	1-909/909	===============	0/0	100.00	99.89	resfinder	AF330699	ant(6)-Ia	Streptomycin
/hpc/dla_mm/jkerkvliet/data/gplas/newmodels/results/E_faecium/08_mobsuite/GCF_016406425.1_ASM1640642v1/plasmid_AB173.fasta	S95_LN:i:6672_dp:f:2.677683788099048	5656	6418	-	erm(B)_18	1-762/762	========/======	1/1	100.00	99.34	resfinder	X66468	erm(B)	Erythromycin;Lincomycin;Clindamycin;Quinupristin;Pristinamycin_IA;Virginiamycin_S
/hpc/dla_mm/jkerkvliet/data/gplas/newmodels/results/E_faecium/08_mobsuite/GCF_016406425.1_ASM1640642v1/plasmid_AC731.fasta	S93_LN:i:6820_dp:f:0.9995577713028567	3653	4963	+	aac(6')-aph(2'')_1	130-1440/1440	.==============	0/0	91.04	100.00	resfinder	M13771	aac(6')-aph(2'')	Amikacin;Gentamicin;Tobramycin
/hpc/dla_mm/jkerkvliet/data/gplas/newmodels/results/E_faecium/08_mobsuite/GCF_016415485.1_ASM1641548v1/plasmid_AB756.fasta	S94_LN:i:6060_dp:f:2.741159627841571	63	857	-	aph(3')-III_1	1-795/795	===============	0/0	100.00	99.87	resfinder	M26832	aph(3')-III	Amikacin
/hpc/dla_mm/jkerkvliet/data/gplas/newmodels/results/E_faecium/08_mobsuite/GCF_016415485.1_ASM1641548v1/plasmid_AB756.fasta	S94_LN:i:6060_dp:f:2.741159627841571	1489	2397	-	ant(6)-Ia_1	1-909/909	===============	0/0	100.00	100.00	resfinder	AF330699	ant(6)-Ia	Streptomycin
/hpc/dla_mm/jkerkvliet/data/gplas/newmodels/results/E_faecium/08_mobsuite/GCF_016406465.1_ASM1640646v1/plasmid_AB977.fasta	S123_LN:i:4415_dp:f:1.1218537706715295	541	1883	+	tet(L)_2	35-1377/1377	===============	0/0	97.53	99.93	resfinder	M29725	tet(L)	Doxycycline;Tetracycline
/hpc/dla_mm/jkerkvliet/data/gplas/newmodels/results/E_faecium/08_mobsuite/GCF_016406465.1_ASM1640646v1/plasmid_AB977.fasta	S128_LN:i:3560_dp:f:1.3498487681716478	2373	3281	+	ant(6)-Ia_1	1-909/909	===============	0/0	100.00	100.00	resfinder	AF330699	ant(6)-Ia	Streptomycin
/hpc/dla_mm/jkerkvliet/data/gplas/newmodels/results/E_faecium/08_mobsuite/GCF_016406465.1_ASM1640646v1/plasmid_AB977.fasta	S151_LN:i:1978_dp:f:1.3140102882538287	1144	1947	-	lnu(B)_2	1-804/804	===============	0/0	100.00	100.00	resfinder	JQ861959	lnu(B)	Lincomycin;Clindamycin
/hpc/dla_mm/jkerkvliet/data/gplas/newmodels/results/E_faecium/08_mobsuite/GCF_016406465.1_ASM1640646v1/plasmid_AB977.fasta	S23_LN:i:38435_dp:f:1.3023021723820856	35783	36280	-	dfrG_1	1-498/498	===============	0/0	100.00	100.00	resfinder	AB205645	dfrG	Trimethoprim
/hpc/dla_mm/jkerkvliet/data/gplas/newmodels/results/E_faecium/08_mobsuite/GCF_016406465.1_ASM1640646v1/plasmid_AB369.fasta	S93_LN:i:7704_dp:f:2.136543255556023	206	2812	+	VanHAX_2	1-2607/2607	===============	0/0	100.00	99.92	resfinder	M97297	VanHAX	Vancomycin;Teicoplanin
/hpc/dla_mm/jkerkvliet/data/gplas/newmodels/results/E_faecium/08_mobsuite/GCF_015476295.1_ASM1547629v1/plasmid_AB173.fasta	S95_LN:i:6332_dp:f:2.6062404515465185	3521	6127	-	VanHAX_2	1-2607/2607	===============	0/0	100.00	99.92	resfinder	M97297	VanHAX	Vancomycin;Teicoplanin
/hpc/dla_mm/jkerkvliet/data/gplas/newmodels/results/E_faecium/08_mobsuite/GCF_015476295.1_ASM1547629v1/plasmid_AC731.fasta	S51_LN:i:18155_dp:f:0.5838319881348276	2492	3254	-	erm(B)_18	1-762/762	========/======	1/1	100.00	99.61	resfinder	X66468	erm(B)	Erythromycin;Lincomycin;Clindamycin;Quinupristin;Pristinamycin_IA;Virginiamycin_S
/hpc/dla_mm/jkerkvliet/data/gplas/newmodels/results/E_faecium/08_mobsuite/GCF_015325925.1_ASM1532592v1/plasmid_AB918.fasta	S87_LN:i:5700_dp:f:5.667630199250011	280	1188	-	ant(6)-Ia_1	1-909/909	===============	0/0	100.00	100.00	resfinder	AF330699	ant(6)-Ia	Streptomycin
/hpc/dla_mm/jkerkvliet/data/gplas/newmodels/results/E_faecium/08_mobsuite/GCF_015325925.1_ASM1532592v1/plasmid_AB918.fasta	S87_LN:i:5700_dp:f:5.667630199250011	4696	5499	-	lnu(B)_2	1-804/804	===============	0/0	100.00	100.00	resfinder	JQ861959	lnu(B)	Lincomycin;Clindamycin
/hpc/dla_mm/jkerkvliet/data/gplas/newmodels/results/E_faecium/08_mobsuite/GCF_015325925.1_ASM1532592v1/plasmid_AB918.fasta	S95_LN:i:4470_dp:f:5.384871213966873	1737	2499	-	erm(B)_18	1-762/762	========/======	1/1	100.00	99.08	resfinder	X66468	erm(B)	Erythromycin;Lincomycin;Clindamycin;Quinupristin;Pristinamycin_IA;Virginiamycin_S
/hpc/dla_mm/jkerkvliet/data/gplas/newmodels/results/E_faecium/08_mobsuite/GCF_015325925.1_ASM1532592v1/plasmid_AB918.fasta	S95_LN:i:4470_dp:f:5.384871213966873	3224	4018	-	aph(3')-III_1	1-795/795	===============	0/0	100.00	100.00	resfinder	M26832	aph(3')-III	Amikacin
/hpc/dla_mm/jkerkvliet/data/gplas/newmodels/results/E_faecium/08_mobsuite/GCF_021228615.1_ASM2122861v1/plasmid_AB173.fasta	S137_LN:i:2922_dp:f:2.5717733917074925	110	2716	-	VanHAX_2	1-2607/2607	===============	0/0	100.00	99.92	resfinder	M97297	VanHAX	Vancomycin;Teicoplanin
/hpc/dla_mm/jkerkvliet/data/gplas/newmodels/results/E_faecium/08_mobsuite/GCF_021228615.1_ASM2122861v1/plasmid_AB173.fasta	S98_LN:i:7353_dp:f:2.447804235410703	740	1534	-	aph(3')-III_1	1-795/795	===============	0/0	100.00	100.00	resfinder	M26832	aph(3')-III	Amikacin
/hpc/dla_mm/jkerkvliet/data/gplas/newmodels/results/E_faecium/08_mobsuite/GCF_021228615.1_ASM2122861v1/plasmid_AB173.fasta	S98_LN:i:7353_dp:f:2.447804235410703	2166	3078	-	ant(6)-Ia_1	1-909/909	========/======	1/4	100.00	99.56	resfinder	AF330699	ant(6)-Ia	Streptomycin
/hpc/dla_mm/jkerkvliet/data/gplas/newmodels/results/E_faecium/08_mobsuite/GCF_021228615.1_ASM2122861v1/plasmid_AB173.fasta	S98_LN:i:7353_dp:f:2.447804235410703	6337	7099	-	erm(B)_18	1-762/762	========/======	1/1	100.00	99.34	resfinder	X66468	erm(B)	Erythromycin;Lincomycin;Clindamycin;Quinupristin;Pristinamycin_IA;Virginiamycin_S
/hpc/dla_mm/jkerkvliet/data/gplas/newmodels/results/E_faecium/08_mobsuite/GCF_021228615.1_ASM2122861v1/plasmid_AC670.fasta	S108_LN:i:5685_dp:f:1.0915120792278912	2927	4269	-	tet(L)_2	35-1377/1377	===============	0/0	97.53	99.93	resfinder	M29725	tet(L)	Doxycycline;Tetracycline
/hpc/dla_mm/jkerkvliet/data/gplas/newmodels/results/E_faecium/08_mobsuite/GCF_023299325.1_ASM2329932v1/plasmid_AB918.fasta	S34_LN:i:19815_dp:f:1.7990114784505868	4409	5212	-	lnu(B)_2	1-804/804	===============	0/0	100.00	100.00	resfinder	JQ861959	lnu(B)	Lincomycin;Clindamycin
/hpc/dla_mm/jkerkvliet/data/gplas/newmodels/results/E_faecium/08_mobsuite/GCF_023299325.1_ASM2329932v1/plasmid_AB918.fasta	S34_LN:i:19815_dp:f:1.7990114784505868	5266	6750	-	lsa(E)_1	1-1485/1485	===============	0/0	100.00	100.00	resfinder	JX560992	lsa(E)	Lincomycin;Clindamycin;Dalfopristin;Pristinamycin_IIA;Virginiamycin_M;Tiamulin
/hpc/dla_mm/jkerkvliet/data/gplas/newmodels/results/E_faecium/08_mobsuite/GCF_023299325.1_ASM2329932v1/plasmid_AB918.fasta	S34_LN:i:19815_dp:f:1.7990114784505868	10329	11192	-	ant(6)-Ia_2	1-864/864	===============	0/0	100.00	100.00	resfinder	KF421157	ant(6)-Ia	Streptomycin
/hpc/dla_mm/jkerkvliet/data/gplas/newmodels/results/E_faecium/08_mobsuite/GCF_023299325.1_ASM2329932v1/plasmid_AB756.fasta	S61_LN:i:7250_dp:f:3.9607901762512756	2068	3477	+	fexB_1	1-1410/1410	===============	0/0	100.00	100.00	resfinder	JN201336	fexB	Chloramphenicol;Florfenicol
/hpc/dla_mm/jkerkvliet/data/gplas/newmodels/results/E_faecium/08_mobsuite/GCF_023299325.1_ASM2329932v1/plasmid_AB756.fasta	S73_LN:i:3880_dp:f:4.037344133542852	2401	3777	-	tet(L)_8	1-1377/1377	===============	0/0	100.00	99.56	resfinder	AY081910	tet(L)	Doxycycline;Tetracycline
/hpc/dla_mm/jkerkvliet/data/gplas/newmodels/results/E_faecium/08_mobsuite/GCF_023299325.1_ASM2329932v1/plasmid_AB756.fasta	S84_LN:i:2310_dp:f:4.1046050400807665	1	1608	-	poxtA_1	1-1608/1629	===============	0/0	98.71	100.00	resfinder	MF095097	poxtA	Chloramphenicol;Florfenicol;Linezolid;Doxycycline;Tetracycline
/hpc/dla_mm/jkerkvliet/data/gplas/newmodels/results/E_faecium/08_mobsuite/GCF_023299325.1_ASM2329932v1/plasmid_AB920.fasta	S45_LN:i:12305_dp:f:2.35729479129911	6282	6875	+	erm(A)_3	1-594/594	===============	0/0	100.00	100.00	resfinder	EU348758	erm(A)	Erythromycin;Lincomycin;Clindamycin;Quinupristin;Pristinamycin_IA;Virginiamycin_S
/hpc/dla_mm/jkerkvliet/data/gplas/newmodels/results/E_faecium/08_mobsuite/GCF_023299325.1_ASM2329932v1/plasmid_AB920.fasta	S45_LN:i:12305_dp:f:2.35729479129911	8337	10304	-	optrA_8	1-1968/1968	===============	0/0	100.00	100.00	resfinder	KT862782	optrA	Linezolid;Chloramphenicol;Florfenicol
/hpc/dla_mm/jkerkvliet/data/gplas/newmodels/results/E_faecium/08_mobsuite/GCF_016415405.1_ASM1641540v1/plasmid_AD100.fasta	S133_LN:i:1500_dp:f:3.0607213594859406	644	1438	+	aph(3')-III_1	1-795/795	===============	0/0	100.00	99.87	resfinder	M26832	aph(3')-III	Amikacin
/hpc/dla_mm/jkerkvliet/data/gplas/newmodels/results/E_faecium/08_mobsuite/GCF_016415405.1_ASM1641540v1/plasmid_AD100.fasta	S95_LN:i:5160_dp:f:2.623202802717596	1	885	-	ant(6)-Ia_1	1-885/909	===============	0/0	97.36	100.00	resfinder	AF330699	ant(6)-Ia	Streptomycin
/hpc/dla_mm/jkerkvliet/data/gplas/newmodels/results/E_faecium/08_mobsuite/GCF_016415405.1_ASM1641540v1/plasmid_AD100.fasta	S95_LN:i:5160_dp:f:2.623202802717596	4144	4906	-	erm(B)_18	1-762/762	========/======	1/1	100.00	99.34	resfinder	X66468	erm(B)	Erythromycin;Lincomycin;Clindamycin;Quinupristin;Pristinamycin_IA;Virginiamycin_S
/hpc/dla_mm/jkerkvliet/data/gplas/newmodels/results/E_faecium/08_mobsuite/GCF_016415405.1_ASM1641540v1/plasmid_AB977.fasta	S24_LN:i:38435_dp:f:1.4117992166344615	35783	36280	-	dfrG_1	1-498/498	===============	0/0	100.00	100.00	resfinder	AB205645	dfrG	Trimethoprim
/hpc/dla_mm/jkerkvliet/data/gplas/newmodels/results/E_faecium/08_mobsuite/GCF_016415405.1_ASM1641540v1/plasmid_AB369.fasta	S85_LN:i:7704_dp:f:2.920137712467522	206	2812	+	VanHAX_2	1-2607/2607	===============	0/0	100.00	99.92	resfinder	M97297	VanHAX	Vancomycin;Teicoplanin
/hpc/dla_mm/jkerkvliet/data/gplas/newmodels/results/E_faecium/08_mobsuite/GCF_023299805.1_ASM2329980v1/plasmid_AE822.fasta	S45_LN:i:9976_dp:f:2.327318184180204	8091	9518	-	fexA_1	1-1428/1428	===============	0/0	100.00	99.72	resfinder	AJ549214	fexA	Chloramphenicol;Florfenicol
/hpc/dla_mm/jkerkvliet/data/gplas/newmodels/results/E_faecium/08_mobsuite/GCF_023299805.1_ASM2329980v1/plasmid_AD055.fasta	S50_LN:i:7703_dp:f:2.33882139555464	6299	7061	-	erm(B)_18	1-762/762	========/======	1/1	100.00	99.48	resfinder	X66468	erm(B)	Erythromycin;Lincomycin;Clindamycin;Quinupristin;Pristinamycin_IA;Virginiamycin_S
/hpc/dla_mm/jkerkvliet/data/gplas/newmodels/results/E_faecium/08_mobsuite/GCF_023299805.1_ASM2329980v1/plasmid_AB756.fasta	S57_LN:i:4056_dp:f:6.875997710450744	1985	3394	+	fexB_1	1-1410/1410	===============	0/0	100.00	100.00	resfinder	JN201336	fexB	Chloramphenicol;Florfenicol
/hpc/dla_mm/jkerkvliet/data/gplas/newmodels/results/E_faecium/08_mobsuite/GCF_023299805.1_ASM2329980v1/plasmid_AB756.fasta	S63_LN:i:2512_dp:f:6.78514028701202	905	2512	+	poxtA_1	1-1608/1629	===============	0/0	98.71	100.00	resfinder	MF095097	poxtA	Chloramphenicol;Florfenicol;Linezolid;Doxycycline;Tetracycline
/hpc/dla_mm/jkerkvliet/data/gplas/newmodels/results/E_faecium/08_mobsuite/GCF_016406365.1_ASM1640636v1/plasmid_AB173.fasta	S95_LN:i:7703_dp:f:0.6774935780001516	4892	7498	-	VanHAX_2	1-2607/2607	===============	0/0	100.00	99.85	resfinder	M97297	VanHAX	Vancomycin;Teicoplanin
/hpc/dla_mm/jkerkvliet/data/gplas/newmodels/results/E_faecium/08_mobsuite/GCF_016406365.1_ASM1640636v1/plasmid_AB173.fasta	S99_LN:i:6638_dp:f:0.6900967310792568	221	983	+	erm(B)_18	1-762/762	========/======	1/1	100.00	99.34	resfinder	X66468	erm(B)	Erythromycin;Lincomycin;Clindamycin;Quinupristin;Pristinamycin_IA;Virginiamycin_S
/hpc/dla_mm/jkerkvliet/data/gplas/newmodels/results/E_faecium/08_mobsuite/GCF_016406365.1_ASM1640636v1/plasmid_AB173.fasta	S99_LN:i:6638_dp:f:0.6900967310792568	4242	5150	+	ant(6)-Ia_1	1-909/909	===============	0/0	100.00	99.89	resfinder	AF330699	ant(6)-Ia	Streptomycin
/hpc/dla_mm/jkerkvliet/data/gplas/newmodels/results/E_faecium/08_mobsuite/GCF_016406365.1_ASM1640636v1/plasmid_AB173.fasta	S99_LN:i:6638_dp:f:0.6900967310792568	5782	6576	+	aph(3')-III_1	1-795/795	===============	0/0	100.00	99.87	resfinder	M26832	aph(3')-III	Amikacin
/hpc/dla_mm/jkerkvliet/data/gplas/newmodels/results/E_faecium/08_mobsuite/GCF_016406365.1_ASM1640636v1/plasmid_AC731.fasta	S113_LN:i:5042_dp:f:1.382294175365869	80	1390	-	aac(6')-aph(2'')_1	130-1440/1440	.==============	0/0	91.04	100.00	resfinder	M13771	aac(6')-aph(2'')	Amikacin;Gentamicin;Tobramycin
/hpc/dla_mm/jkerkvliet/data/gplas/newmodels/results/E_faecium/08_mobsuite/GCF_016415445.1_ASM1641544v1/plasmid_AC731.fasta	S130_LN:i:2845_dp:f:3.5384930079858625	206	2812	+	VanHAX_2	1-2607/2607	===============	0/0	100.00	99.92	resfinder	M97297	VanHAX	Vancomycin;Teicoplanin
/hpc/dla_mm/jkerkvliet/data/gplas/newmodels/results/E_faecium/08_mobsuite/GCF_016415445.1_ASM1641544v1/plasmid_AC731.fasta	S88_LN:i:7402_dp:f:2.72957347283057	255	1017	+	erm(B)_18	1-762/762	========/======	1/1	100.00	99.34	resfinder	X66468	erm(B)	Erythromycin;Lincomycin;Clindamycin;Quinupristin;Pristinamycin_IA;Virginiamycin_S
/hpc/dla_mm/jkerkvliet/data/gplas/newmodels/results/E_faecium/08_mobsuite/GCF_016415445.1_ASM1641544v1/plasmid_AC731.fasta	S88_LN:i:7402_dp:f:2.72957347283057	4276	5184	+	ant(6)-Ia_1	1-909/909	===============	0/0	100.00	100.00	resfinder	AF330699	ant(6)-Ia	Streptomycin
/hpc/dla_mm/jkerkvliet/data/gplas/newmodels/results/E_faecium/08_mobsuite/GCF_016415445.1_ASM1641544v1/plasmid_AC731.fasta	S88_LN:i:7402_dp:f:2.72957347283057	5816	6610	+	aph(3')-III_1	1-795/795	===============	0/0	100.00	100.00	resfinder	M26832	aph(3')-III	Amikacin
/hpc/dla_mm/jkerkvliet/data/gplas/newmodels/results/E_faecium/08_mobsuite/GCF_016415445.1_ASM1641544v1/plasmid_AC670.fasta	S97_LN:i:5683_dp:f:1.1423291505333457	1417	2759	+	tet(L)_2	35-1377/1377	===============	0/0	97.53	99.85	resfinder	M29725	tet(L)	Doxycycline;Tetracycline
/hpc/dla_mm/jkerkvliet/data/gplas/newmodels/results/E_faecium/08_mobsuite/GCF_016415365.1_ASM1641536v1/plasmid_AB173.fasta	S113_LN:i:3260_dp:f:2.666345846191411	449	3055	-	VanHAX_2	1-2607/2607	===============	0/0	100.00	99.92	resfinder	M97297	VanHAX	Vancomycin;Teicoplanin
/hpc/dla_mm/jkerkvliet/data/gplas/newmodels/results/E_faecium/08_mobsuite/GCF_016415365.1_ASM1641536v1/plasmid_AC731.fasta	S124_LN:i:2496_dp:f:2.5712174219278565	909	1703	+	aph(3')-III_1	1-795/795	===============	0/0	100.00	100.00	resfinder	M26832	aph(3')-III	Amikacin
/hpc/dla_mm/jkerkvliet/data/gplas/newmodels/results/E_faecium/08_mobsuite/GCF_016415365.1_ASM1641536v1/plasmid_AC731.fasta	S126_LN:i:2432_dp:f:2.458237034250729	255	1017	+	erm(B)_18	1-762/762	========/======	1/1	100.00	99.34	resfinder	X66468	erm(B)	Erythromycin;Lincomycin;Clindamycin;Quinupristin;Pristinamycin_IA;Virginiamycin_S
/hpc/dla_mm/jkerkvliet/data/gplas/newmodels/results/E_faecium/08_mobsuite/GCF_016415365.1_ASM1641536v1/plasmid_AC731.fasta	S86_LN:i:6820_dp:f:1.1369054913116374	1858	3168	-	aac(6')-aph(2'')_1	130-1440/1440	.==============	0/0	91.04	100.00	resfinder	M13771	aac(6')-aph(2'')	Amikacin;Gentamicin;Tobramycin
/hpc/dla_mm/jkerkvliet/data/gplas/newmodels/results/E_faecium/08_mobsuite/GCF_016406505.1_ASM1640650v1/plasmid_AA769.fasta	S110_LN:i:5865_dp:f:2.701240614276585	2788	3696	+	ant(6)-Ia_1	1-909/909	===============	0/0	100.00	100.00	resfinder	AF330699	ant(6)-Ia	Streptomycin
/hpc/dla_mm/jkerkvliet/data/gplas/newmodels/results/E_faecium/08_mobsuite/GCF_016406505.1_ASM1640650v1/plasmid_AA769.fasta	S110_LN:i:5865_dp:f:2.701240614276585	4328	5122	+	aph(3')-III_1	1-795/795	===============	0/0	100.00	100.00	resfinder	M26832	aph(3')-III	Amikacin
/hpc/dla_mm/jkerkvliet/data/gplas/newmodels/results/E_faecium/08_mobsuite/GCF_016406505.1_ASM1640650v1/plasmid_AA769.fasta	S168_LN:i:1486_dp:f:2.459804069525032	255	1017	+	erm(B)_18	1-762/762	========/======	1/1	100.00	99.34	resfinder	X66468	erm(B)	Erythromycin;Lincomycin;Clindamycin;Quinupristin;Pristinamycin_IA;Virginiamycin_S
/hpc/dla_mm/jkerkvliet/data/gplas/newmodels/results/E_faecium/08_mobsuite/GCF_016406505.1_ASM1640650v1/plasmid_AC731.fasta	S116_LN:i:5042_dp:f:1.4049112276911262	3653	4963	+	aac(6')-aph(2'')_1	130-1440/1440	.==============	0/0	91.04	100.00	resfinder	M13771	aac(6')-aph(2'')	Amikacin;Gentamicin;Tobramycin
/hpc/dla_mm/jkerkvliet/data/gplas/newmodels/results/E_faecium/08_mobsuite/GCF_016406505.1_ASM1640650v1/plasmid_AB369.fasta	S86_LN:i:9602_dp:f:2.602100790337425	2105	4711	+	VanHAX_2	1-2607/2607	===============	0/0	100.00	99.92	resfinder	M97297	VanHAX	Vancomycin;Teicoplanin
/hpc/dla_mm/jkerkvliet/data/gplas/newmodels/results/E_faecium/08_mobsuite/GCF_016406505.1_ASM1640650v1/plasmid_AB756.fasta	S80_LN:i:11352_dp:f:1.243809444229732	2533	3875	-	tet(L)_2	35-1377/1377	===============	0/0	97.53	99.93	resfinder	M29725	tet(L)	Doxycycline;Tetracycline
/hpc/dla_mm/jkerkvliet/data/gplas/newmodels/results/E_faecium/08_mobsuite/GCF_016406505.1_ASM1640650v1/plasmid_AB756.fasta	S80_LN:i:11352_dp:f:1.243809444229732	4004	5923	-	tet(M)_10	1-1920/1920	===============	0/0	100.00	97.50	resfinder	EU182585	tet(M)	Doxycycline;Tetracycline;Minocycline
/hpc/dla_mm/jkerkvliet/data/gplas/newmodels/results/E_faecium/08_mobsuite/GCF_016406585.1_ASM1640658v1/plasmid_AB173.fasta	S114_LN:i:4749_dp:f:2.4677867295624005	206	2812	+	VanHAX_2	1-2607/2607	===============	0/0	100.00	99.92	resfinder	M97297	VanHAX	Vancomycin;Teicoplanin
/hpc/dla_mm/jkerkvliet/data/gplas/newmodels/results/E_faecium/08_mobsuite/GCF_016406585.1_ASM1640658v1/plasmid_AC731.fasta	S101_LN:i:6275_dp:f:0.9123691511917617	1313	2623	-	aac(6')-aph(2'')_1	130-1440/1440	.==============	0/0	91.04	100.00	resfinder	M13771	aac(6')-aph(2'')	Amikacin;Gentamicin;Tobramycin
/hpc/dla_mm/jkerkvliet/data/gplas/newmodels/results/E_faecium/08_mobsuite/GCF_022648125.1_ASM2264812v1/plasmid_AB173.fasta	S143_LN:i:2862_dp:f:1.8786979523680174	206	2812	+	VanHAX_2	1-2607/2607	===============	0/0	100.00	99.92	resfinder	M97297	VanHAX	Vancomycin;Teicoplanin
/hpc/dla_mm/jkerkvliet/data/gplas/newmodels/results/E_faecium/08_mobsuite/GCF_022648125.1_ASM2264812v1/plasmid_AB173.fasta	S95_LN:i:7301_dp:f:1.8455370251393215	688	1482	-	aph(3')-III_1	1-795/795	===============	0/0	100.00	100.00	resfinder	M26832	aph(3')-III	Amikacin
/hpc/dla_mm/jkerkvliet/data/gplas/newmodels/results/E_faecium/08_mobsuite/GCF_022648125.1_ASM2264812v1/plasmid_AB173.fasta	S95_LN:i:7301_dp:f:1.8455370251393215	2114	3026	-	ant(6)-Ia_1	1-909/909	========/======	1/4	100.00	99.56	resfinder	AF330699	ant(6)-Ia	Streptomycin
/hpc/dla_mm/jkerkvliet/data/gplas/newmodels/results/E_faecium/08_mobsuite/GCF_022648125.1_ASM2264812v1/plasmid_AB173.fasta	S95_LN:i:7301_dp:f:1.8455370251393215	6285	7047	-	erm(B)_18	1-762/762	========/======	1/1	100.00	99.34	resfinder	X66468	erm(B)	Erythromycin;Lincomycin;Clindamycin;Quinupristin;Pristinamycin_IA;Virginiamycin_S
/hpc/dla_mm/jkerkvliet/data/gplas/newmodels/results/E_faecium/08_mobsuite/GCF_022648125.1_ASM2264812v1/plasmid_AC731.fasta	S113_LN:i:5161_dp:f:1.723483816837899	263	1573	-	aac(6')-aph(2'')_1	130-1440/1440	.==============	0/0	91.04	100.00	resfinder	M13771	aac(6')-aph(2'')	Amikacin;Gentamicin;Tobramycin
/hpc/dla_mm/jkerkvliet/data/gplas/newmodels/results/E_faecium/08_mobsuite/GCF_022648125.1_ASM2264812v1/plasmid_AB756.fasta	S76_LN:i:11347_dp:f:1.0318512337632444	2531	3873	-	tet(L)_2	35-1377/1377	===============	0/0	97.53	99.93	resfinder	M29725	tet(L)	Doxycycline;Tetracycline
/hpc/dla_mm/jkerkvliet/data/gplas/newmodels/results/E_faecium/08_mobsuite/GCF_022648125.1_ASM2264812v1/plasmid_AB756.fasta	S76_LN:i:11347_dp:f:1.0318512337632444	4002	5921	-	tet(M)_10	1-1920/1920	===============	0/0	100.00	97.50	resfinder	EU182585	tet(M)	Doxycycline;Tetracycline;Minocycline
/hpc/dla_mm/jkerkvliet/data/gplas/newmodels/results/E_faecium/08_mobsuite/GCF_023299745.1_ASM2329974v1/plasmid_AB756.fasta	S107_LN:i:1142_dp:f:5.51379310097936	327	1089	+	erm(B)_18	1-762/762	========/======	1/1	100.00	99.21	resfinder	X66468	erm(B)	Erythromycin;Lincomycin;Clindamycin;Quinupristin;Pristinamycin_IA;Virginiamycin_S
/hpc/dla_mm/jkerkvliet/data/gplas/newmodels/results/E_faecium/08_mobsuite/GCF_023299745.1_ASM2329974v1/plasmid_AB756.fasta	S40_LN:i:15398_dp:f:1.234649041583326	125	919	-	aph(3')-III_1	1-795/795	===============	0/0	100.00	100.00	resfinder	M26832	aph(3')-III	Amikacin
/hpc/dla_mm/jkerkvliet/data/gplas/newmodels/results/E_faecium/08_mobsuite/GCF_023299745.1_ASM2329974v1/plasmid_AB756.fasta	S40_LN:i:15398_dp:f:1.234649041583326	1551	2459	-	ant(6)-Ia_1	1-909/909	===============	0/0	100.00	100.00	resfinder	AF330699	ant(6)-Ia	Streptomycin
/hpc/dla_mm/jkerkvliet/data/gplas/newmodels/results/E_faecium/08_mobsuite/GCF_023299745.1_ASM2329974v1/plasmid_AB756.fasta	S40_LN:i:15398_dp:f:1.234649041583326	6344	7147	-	lnu(B)_2	1-804/804	===============	0/0	100.00	100.00	resfinder	JQ861959	lnu(B)	Lincomycin;Clindamycin
/hpc/dla_mm/jkerkvliet/data/gplas/newmodels/results/E_faecium/08_mobsuite/GCF_023299745.1_ASM2329974v1/plasmid_AB756.fasta	S40_LN:i:15398_dp:f:1.234649041583326	7201	8685	-	lsa(E)_1	1-1485/1485	===============	0/0	100.00	99.93	resfinder	JX560992	lsa(E)	Lincomycin;Clindamycin;Dalfopristin;Pristinamycin_IIA;Virginiamycin_M;Tiamulin
/hpc/dla_mm/jkerkvliet/data/gplas/newmodels/results/E_faecium/08_mobsuite/GCF_023299745.1_ASM2329974v1/plasmid_AB756.fasta	S40_LN:i:15398_dp:f:1.234649041583326	12264	13018	-	ant(6)-Ia_2	110-864/864	.==============	0/0	87.38	100.00	resfinder	KF421157	ant(6)-Ia	Streptomycin
/hpc/dla_mm/jkerkvliet/data/gplas/newmodels/results/E_faecium/08_mobsuite/GCF_023299745.1_ASM2329974v1/plasmid_AB756.fasta	S40_LN:i:15398_dp:f:1.234649041583326	13186	14625	-	aac(6')-aph(2'')_1	1-1440/1440	===============	0/0	100.00	100.00	resfinder	M13771	aac(6')-aph(2'')	Amikacin;Gentamicin;Tobramycin
/hpc/dla_mm/jkerkvliet/data/gplas/newmodels/results/E_faecium/08_mobsuite/GCF_023299745.1_ASM2329974v1/plasmid_AB756.fasta	S55_LN:i:6842_dp:f:3.204646262037057	1660	3069	+	fexB_1	1-1410/1410	===============	0/0	100.00	100.00	resfinder	JN201336	fexB	Chloramphenicol;Florfenicol
/hpc/dla_mm/jkerkvliet/data/gplas/newmodels/results/E_faecium/08_mobsuite/GCF_023299745.1_ASM2329974v1/plasmid_AB756.fasta	S56_LN:i:6414_dp:f:3.0902670553990133	949	2325	-	tet(L)_8	1-1377/1377	===============	0/0	100.00	99.56	resfinder	AY081910	tet(L)	Doxycycline;Tetracycline
/hpc/dla_mm/jkerkvliet/data/gplas/newmodels/results/E_faecium/08_mobsuite/GCF_023299745.1_ASM2329974v1/plasmid_AB756.fasta	S56_LN:i:6414_dp:f:3.0902670553990133	2519	4438	-	tet(M)_10	1-1920/1920	===============	0/0	100.00	96.46	resfinder	EU182585	tet(M)	Doxycycline;Tetracycline;Minocycline
/hpc/dla_mm/jkerkvliet/data/gplas/newmodels/results/E_faecium/08_mobsuite/GCF_023299745.1_ASM2329974v1/plasmid_AB756.fasta	S79_LN:i:2512_dp:f:3.0944291681001292	905	2512	+	poxtA_1	1-1608/1629	===============	0/0	98.71	100.00	resfinder	MF095097	poxtA	Chloramphenicol;Florfenicol;Linezolid;Doxycycline;Tetracycline
/hpc/dla_mm/jkerkvliet/data/gplas/newmodels/results/E_faecium/08_mobsuite/GCF_020162155.1_ASM2016215v1/plasmid_AB171.fasta	S101_LN:i:4724_dp:f:3.9014922157122243	2094	4700	+	VanHAX_2	1-2607/2607	===============	0/0	100.00	100.00	resfinder	M97297	VanHAX	Vancomycin;Teicoplanin
/hpc/dla_mm/jkerkvliet/data/gplas/newmodels/results/E_faecium/08_mobsuite/GCF_020162155.1_ASM2016215v1/plasmid_AB171.fasta	S111_LN:i:3604_dp:f:2.8549629905497884	2185	3093	+	ant(6)-Ia_1	1-909/909	===============	0/0	100.00	100.00	resfinder	AF330699	ant(6)-Ia	Streptomycin
/hpc/dla_mm/jkerkvliet/data/gplas/newmodels/results/E_faecium/08_mobsuite/GCF_020162155.1_ASM2016215v1/plasmid_AB171.fasta	S157_LN:i:1069_dp:f:2.1151148855799478	171	933	-	erm(B)_18	1-762/762	========/======	1/1	100.00	98.95	resfinder	X66468	erm(B)	Erythromycin;Lincomycin;Clindamycin;Quinupristin;Pristinamycin_IA;Virginiamycin_S
/hpc/dla_mm/jkerkvliet/data/gplas/newmodels/results/E_faecium/08_mobsuite/GCF_020162155.1_ASM2016215v1/plasmid_AB171.fasta	S77_LN:i:10713_dp:f:2.604881390198647	7550	8197	-	cat(pC221)_1	1-648/648	===============	0/0	100.00	97.69	resfinder	X02529	cat(pC221)	Chloramphenicol
/hpc/dla_mm/jkerkvliet/data/gplas/newmodels/results/E_faecium/08_mobsuite/GCF_016406545.1_ASM1640654v1/plasmid_AB173.fasta	S100_LN:i:6638_dp:f:0.775125115975278	221	983	+	erm(B)_18	1-762/762	========/======	1/1	100.00	99.34	resfinder	X66468	erm(B)	Erythromycin;Lincomycin;Clindamycin;Quinupristin;Pristinamycin_IA;Virginiamycin_S
/hpc/dla_mm/jkerkvliet/data/gplas/newmodels/results/E_faecium/08_mobsuite/GCF_016406545.1_ASM1640654v1/plasmid_AB173.fasta	S100_LN:i:6638_dp:f:0.775125115975278	4242	5150	+	ant(6)-Ia_1	1-909/909	===============	0/0	100.00	99.89	resfinder	AF330699	ant(6)-Ia	Streptomycin
/hpc/dla_mm/jkerkvliet/data/gplas/newmodels/results/E_faecium/08_mobsuite/GCF_016406545.1_ASM1640654v1/plasmid_AB173.fasta	S100_LN:i:6638_dp:f:0.775125115975278	5782	6576	+	aph(3')-III_1	1-795/795	===============	0/0	100.00	99.87	resfinder	M26832	aph(3')-III	Amikacin
/hpc/dla_mm/jkerkvliet/data/gplas/newmodels/results/E_faecium/08_mobsuite/GCF_016406545.1_ASM1640654v1/plasmid_AB173.fasta	S95_LN:i:7703_dp:f:0.7813398030587434	4892	7498	-	VanHAX_2	1-2607/2607	===============	0/0	100.00	99.85	resfinder	M97297	VanHAX	Vancomycin;Teicoplanin
/hpc/dla_mm/jkerkvliet/data/gplas/newmodels/results/E_faecium/08_mobsuite/GCF_016406545.1_ASM1640654v1/plasmid_AC731.fasta	S114_LN:i:5042_dp:f:0.917826595323615	80	1390	-	aac(6')-aph(2'')_1	130-1440/1440	.==============	0/0	91.04	100.00	resfinder	M13771	aac(6')-aph(2'')	Amikacin;Gentamicin;Tobramycin
/hpc/dla_mm/jkerkvliet/data/gplas/newmodels/results/E_faecium/08_mobsuite/GCF_019977495.1_ASM1997749v1/plasmid_AB756.fasta	S111_LN:i:3912_dp:f:1.0796556038961702	2532	3874	-	tet(L)_2	35-1377/1377	===============	0/0	97.53	99.93	resfinder	M29725	tet(L)	Doxycycline;Tetracycline
/hpc/dla_mm/jkerkvliet/data/gplas/newmodels/results/E_faecium/08_mobsuite/GCF_019977495.1_ASM1997749v1/plasmid_AB117.fasta	S118_LN:i:3285_dp:f:1.2666748627980093	2514	3011	-	dfrG_1	1-498/498	===============	0/0	100.00	100.00	resfinder	AB205645	dfrG	Trimethoprim
/hpc/dla_mm/jkerkvliet/data/gplas/newmodels/results/E_faecium/08_mobsuite/GCF_016415505.1_ASM1641550v1/plasmid_AB173.fasta	S111_LN:i:5865_dp:f:2.9492804633160077	744	1538	-	aph(3')-III_1	1-795/795	===============	0/0	100.00	100.00	resfinder	M26832	aph(3')-III	Amikacin
/hpc/dla_mm/jkerkvliet/data/gplas/newmodels/results/E_faecium/08_mobsuite/GCF_016415505.1_ASM1641550v1/plasmid_AB173.fasta	S111_LN:i:5865_dp:f:2.9492804633160077	2170	3078	-	ant(6)-Ia_1	1-909/909	===============	0/0	100.00	100.00	resfinder	AF330699	ant(6)-Ia	Streptomycin
/hpc/dla_mm/jkerkvliet/data/gplas/newmodels/results/E_faecium/08_mobsuite/GCF_016415505.1_ASM1641550v1/plasmid_AB173.fasta	S165_LN:i:1486_dp:f:2.6371439804679455	470	1232	-	erm(B)_18	1-762/762	========/======	1/1	100.00	99.34	resfinder	X66468	erm(B)	Erythromycin;Lincomycin;Clindamycin;Quinupristin;Pristinamycin_IA;Virginiamycin_S
/hpc/dla_mm/jkerkvliet/data/gplas/newmodels/results/E_faecium/08_mobsuite/GCF_016415505.1_ASM1641550v1/plasmid_AB173.fasta	S83_LN:i:9602_dp:f:2.9767073942298845	2105	4711	+	VanHAX_2	1-2607/2607	===============	0/0	100.00	99.92	resfinder	M97297	VanHAX	Vancomycin;Teicoplanin
/hpc/dla_mm/jkerkvliet/data/gplas/newmodels/results/E_faecium/08_mobsuite/GCF_016415505.1_ASM1641550v1/plasmid_AC731.fasta	S115_LN:i:5042_dp:f:1.3935684142252989	80	1390	-	aac(6')-aph(2'')_1	130-1440/1440	.==============	0/0	91.04	100.00	resfinder	M13771	aac(6')-aph(2'')	Amikacin;Gentamicin;Tobramycin
/hpc/dla_mm/jkerkvliet/data/gplas/newmodels/results/E_faecium/08_mobsuite/GCF_016415505.1_ASM1641550v1/plasmid_AB756.fasta	S76_LN:i:11352_dp:f:1.2113947719951987	2533	3875	-	tet(L)_2	35-1377/1377	===============	0/0	97.53	99.93	resfinder	M29725	tet(L)	Doxycycline;Tetracycline
/hpc/dla_mm/jkerkvliet/data/gplas/newmodels/results/E_faecium/08_mobsuite/GCF_016415505.1_ASM1641550v1/plasmid_AB756.fasta	S76_LN:i:11352_dp:f:1.2113947719951987	4004	5923	-	tet(M)_10	1-1920/1920	===============	0/0	100.00	97.50	resfinder	EU182585	tet(M)	Doxycycline;Tetracycline;Minocycline
/hpc/dla_mm/jkerkvliet/data/gplas/newmodels/results/E_faecium/08_mobsuite/GCF_016415425.1_ASM1641542v1/plasmid_AB173.fasta	S93_LN:i:7703_dp:f:2.65859001702868	206	2812	+	VanHAX_2	1-2607/2607	===============	0/0	100.00	99.92	resfinder	M97297	VanHAX	Vancomycin;Teicoplanin
/hpc/dla_mm/jkerkvliet/data/gplas/newmodels/results/E_faecium/08_mobsuite/GCF_016415425.1_ASM1641542v1/plasmid_AB173.fasta	S97_LN:i:6717_dp:f:2.175714665488817	108	902	-	aph(3')-III_1	1-795/795	===============	0/0	100.00	99.87	resfinder	M26832	aph(3')-III	Amikacin
/hpc/dla_mm/jkerkvliet/data/gplas/newmodels/results/E_faecium/08_mobsuite/GCF_016415425.1_ASM1641542v1/plasmid_AB173.fasta	S97_LN:i:6717_dp:f:2.175714665488817	1534	2442	-	ant(6)-Ia_1	1-909/909	===============	0/0	100.00	99.89	resfinder	AF330699	ant(6)-Ia	Streptomycin
/hpc/dla_mm/jkerkvliet/data/gplas/newmodels/results/E_faecium/08_mobsuite/GCF_016415425.1_ASM1641542v1/plasmid_AB173.fasta	S97_LN:i:6717_dp:f:2.175714665488817	5701	6463	-	erm(B)_18	1-762/762	========/======	1/1	100.00	99.34	resfinder	X66468	erm(B)	Erythromycin;Lincomycin;Clindamycin;Quinupristin;Pristinamycin_IA;Virginiamycin_S
/hpc/dla_mm/jkerkvliet/data/gplas/newmodels/results/E_faecium/08_mobsuite/GCF_016415425.1_ASM1641542v1/plasmid_AC731.fasta	S96_LN:i:6820_dp:f:1.6944200432064613	3653	4963	+	aac(6')-aph(2'')_1	130-1440/1440	.==============	0/0	91.04	100.00	resfinder	M13771	aac(6')-aph(2'')	Amikacin;Gentamicin;Tobramycin
/hpc/dla_mm/jkerkvliet/data/gplas/newmodels/results/E_faecium/08_mobsuite/GCF_016415325.1_ASM1641532v1/plasmid_AB173.fasta	S89_LN:i:7703_dp:f:2.524505949692945	4892	7498	-	VanHAX_2	1-2607/2607	===============	0/0	100.00	99.92	resfinder	M97297	VanHAX	Vancomycin;Teicoplanin
/hpc/dla_mm/jkerkvliet/data/gplas/newmodels/results/E_faecium/08_mobsuite/GCF_016415325.1_ASM1641532v1/plasmid_AB173.fasta	S92_LN:i:6672_dp:f:2.4753535001856997	255	1017	+	erm(B)_18	1-762/762	========/======	1/1	100.00	99.34	resfinder	X66468	erm(B)	Erythromycin;Lincomycin;Clindamycin;Quinupristin;Pristinamycin_IA;Virginiamycin_S
/hpc/dla_mm/jkerkvliet/data/gplas/newmodels/results/E_faecium/08_mobsuite/GCF_016415325.1_ASM1641532v1/plasmid_AB173.fasta	S92_LN:i:6672_dp:f:2.4753535001856997	4276	5184	+	ant(6)-Ia_1	1-909/909	===============	0/0	100.00	99.89	resfinder	AF330699	ant(6)-Ia	Streptomycin
/hpc/dla_mm/jkerkvliet/data/gplas/newmodels/results/E_faecium/08_mobsuite/GCF_016415325.1_ASM1641532v1/plasmid_AB173.fasta	S92_LN:i:6672_dp:f:2.4753535001856997	5816	6610	+	aph(3')-III_1	1-795/795	===============	0/0	100.00	99.87	resfinder	M26832	aph(3')-III	Amikacin
/hpc/dla_mm/jkerkvliet/data/gplas/newmodels/results/E_faecium/08_mobsuite/GCF_016415325.1_ASM1641532v1/plasmid_AC731.fasta	S97_LN:i:6275_dp:f:0.9730330263844136	1313	2623	-	aac(6')-aph(2'')_1	130-1440/1440	.==============	0/0	91.04	100.00	resfinder	M13771	aac(6')-aph(2'')	Amikacin;Gentamicin;Tobramycin
/hpc/dla_mm/jkerkvliet/data/gplas/newmodels/results/E_faecium/08_mobsuite/GCF_016415545.1_ASM1641554v1/plasmid_AC731.fasta	S116_LN:i:3045_dp:f:2.3298608059618853	234	2840	-	VanHAX_2	1-2607/2607	===============	0/0	100.00	99.92	resfinder	M97297	VanHAX	Vancomycin;Teicoplanin
/hpc/dla_mm/jkerkvliet/data/gplas/newmodels/results/E_faecium/08_mobsuite/GCF_016415545.1_ASM1641554v1/plasmid_AC670.fasta	S100_LN:i:4849_dp:f:1.2606857051789069	541	1883	+	tet(L)_2	35-1377/1377	===============	0/0	97.53	99.85	resfinder	M29725	tet(L)	Doxycycline;Tetracycline
/hpc/dla_mm/jkerkvliet/data/gplas/newmodels/results/E_faecium/08_mobsuite/GCF_016126675.1_ASM1612667v1/plasmid_AB173.fasta	S101_LN:i:5167_dp:f:2.645185392568633	1	892	-	ant(6)-Ia_1	1-885/909	========/======	1/7	97.36	99.22	resfinder	AF330699	ant(6)-Ia	Streptomycin
/hpc/dla_mm/jkerkvliet/data/gplas/newmodels/results/E_faecium/08_mobsuite/GCF_016126675.1_ASM1612667v1/plasmid_AB173.fasta	S101_LN:i:5167_dp:f:2.645185392568633	4151	4913	-	erm(B)_18	1-762/762	========/======	1/1	100.00	99.34	resfinder	X66468	erm(B)	Erythromycin;Lincomycin;Clindamycin;Quinupristin;Pristinamycin_IA;Virginiamycin_S
/hpc/dla_mm/jkerkvliet/data/gplas/newmodels/results/E_faecium/08_mobsuite/GCF_016126675.1_ASM1612667v1/plasmid_AB173.fasta	S145_LN:i:1503_dp:f:2.606172858475194	647	1441	+	aph(3')-III_1	1-795/795	===============	0/0	100.00	99.87	resfinder	M26832	aph(3')-III	Amikacin
/hpc/dla_mm/jkerkvliet/data/gplas/newmodels/results/E_faecium/08_mobsuite/GCF_016126675.1_ASM1612667v1/plasmid_AB173.fasta	S85_LN:i:7702_dp:f:2.673630541411757	206	2812	+	VanHAX_2	1-2607/2607	===============	0/0	100.00	99.92	resfinder	M97297	VanHAX	Vancomycin;Teicoplanin
/hpc/dla_mm/jkerkvliet/data/gplas/newmodels/results/E_faecium/08_mobsuite/GCF_015999405.1_ASM1599940v1/plasmid_AB756.fasta	S139_LN:i:1159_dp:f:2.70313093085962	281	1159	-	ant(6)-Ia_1	31-909/909	===============	0/0	96.70	100.00	resfinder	AF330699	ant(6)-Ia	Streptomycin
/hpc/dla_mm/jkerkvliet/data/gplas/newmodels/results/E_faecium/08_mobsuite/GCF_016406605.1_ASM1640660v1/plasmid_AB173.fasta	S107_LN:i:5865_dp:f:1.895690786685424	744	1538	-	aph(3')-III_1	1-795/795	===============	0/0	100.00	100.00	resfinder	M26832	aph(3')-III	Amikacin
/hpc/dla_mm/jkerkvliet/data/gplas/newmodels/results/E_faecium/08_mobsuite/GCF_016406605.1_ASM1640660v1/plasmid_AB173.fasta	S107_LN:i:5865_dp:f:1.895690786685424	2170	3078	-	ant(6)-Ia_1	1-909/909	===============	0/0	100.00	100.00	resfinder	AF330699	ant(6)-Ia	Streptomycin
/hpc/dla_mm/jkerkvliet/data/gplas/newmodels/results/E_faecium/08_mobsuite/GCF_016406605.1_ASM1640660v1/plasmid_AB173.fasta	S163_LN:i:1486_dp:f:1.8316851077406364	255	1017	+	erm(B)_18	1-762/762	========/======	1/1	100.00	99.34	resfinder	X66468	erm(B)	Erythromycin;Lincomycin;Clindamycin;Quinupristin;Pristinamycin_IA;Virginiamycin_S
/hpc/dla_mm/jkerkvliet/data/gplas/newmodels/results/E_faecium/08_mobsuite/GCF_016406605.1_ASM1640660v1/plasmid_AB173.fasta	S85_LN:i:9602_dp:f:1.878318233695288	4892	7498	-	VanHAX_2	1-2607/2607	===============	0/0	100.00	99.92	resfinder	M97297	VanHAX	Vancomycin;Teicoplanin
/hpc/dla_mm/jkerkvliet/data/gplas/newmodels/results/E_faecium/08_mobsuite/GCF_016406605.1_ASM1640660v1/plasmid_AC731.fasta	S111_LN:i:5065_dp:f:0.9491418501377062	80	1390	-	aac(6')-aph(2'')_1	130-1440/1440	.==============	0/0	91.04	100.00	resfinder	M13771	aac(6')-aph(2'')	Amikacin;Gentamicin;Tobramycin
/hpc/dla_mm/jkerkvliet/data/gplas/newmodels/results/E_faecium/08_mobsuite/GCF_016406605.1_ASM1640660v1/plasmid_AB756.fasta	S75_LN:i:11352_dp:f:1.1706741366008093	2533	3875	-	tet(L)_2	35-1377/1377	===============	0/0	97.53	99.93	resfinder	M29725	tet(L)	Doxycycline;Tetracycline
/hpc/dla_mm/jkerkvliet/data/gplas/newmodels/results/E_faecium/08_mobsuite/GCF_016406605.1_ASM1640660v1/plasmid_AB756.fasta	S75_LN:i:11352_dp:f:1.1706741366008093	4004	5923	-	tet(M)_10	1-1920/1920	===============	0/0	100.00	97.50	resfinder	EU182585	tet(M)	Doxycycline;Tetracycline;Minocycline
/hpc/dla_mm/jkerkvliet/data/gplas/newmodels/results/E_faecium/08_mobsuite/GCF_019175525.1_ASM1917552v1/plasmid_AD055.fasta	S36_LN:i:19534_dp:f:0.649230380153655	9022	9702	-	erm(B)_10	58-738/738	.==============	0/0	92.28	99.85	resfinder	U86375	erm(B)	Erythromycin;Lincomycin;Clindamycin;Quinupristin;Pristinamycin_IA;Virginiamycin_S
/hpc/dla_mm/jkerkvliet/data/gplas/newmodels/results/E_faecium/08_mobsuite/GCF_019175525.1_ASM1917552v1/plasmid_AD055.fasta	S36_LN:i:19534_dp:f:0.649230380153655	10187	10969	-	ant(9)-Ia_1	1-783/783	===============	0/0	100.00	100.00	resfinder	X02588	ant(9)-Ia	
/hpc/dla_mm/jkerkvliet/data/gplas/newmodels/results/E_faecium/08_mobsuite/GCF_019175525.1_ASM1917552v1/plasmid_AD055.fasta	S36_LN:i:19534_dp:f:0.649230380153655	11189	13156	-	optrA_9	1-1968/1968	===============	0/0	100.00	99.90	resfinder	KT892063	optrA	Linezolid;Chloramphenicol;Florfenicol
/hpc/dla_mm/jkerkvliet/data/gplas/newmodels/results/E_faecium/08_mobsuite/GCF_019175525.1_ASM1917552v1/plasmid_AD055.fasta	S36_LN:i:19534_dp:f:0.649230380153655	14407	15834	-	fexA_1	1-1428/1428	===============	0/0	100.00	99.72	resfinder	AJ549214	fexA	Chloramphenicol;Florfenicol
/hpc/dla_mm/jkerkvliet/data/gplas/newmodels/results/E_faecium/08_mobsuite/GCF_019175525.1_ASM1917552v1/plasmid_AD055.fasta	S36_LN:i:19534_dp:f:0.649230380153655	18134	18896	-	erm(B)_18	1-762/762	========/======	1/1	100.00	99.61	resfinder	X66468	erm(B)	Erythromycin;Lincomycin;Clindamycin;Quinupristin;Pristinamycin_IA;Virginiamycin_S
/hpc/dla_mm/jkerkvliet/data/gplas/newmodels/results/E_faecium/08_mobsuite/GCF_016406485.1_ASM1640648v1/plasmid_AB173.fasta	S92_LN:i:7349_dp:f:2.915587568146778	255	1017	+	erm(B)_18	1-762/762	========/======	1/1	100.00	99.34	resfinder	X66468	erm(B)	Erythromycin;Lincomycin;Clindamycin;Quinupristin;Pristinamycin_IA;Virginiamycin_S
/hpc/dla_mm/jkerkvliet/data/gplas/newmodels/results/E_faecium/08_mobsuite/GCF_016406485.1_ASM1640648v1/plasmid_AB173.fasta	S92_LN:i:7349_dp:f:2.915587568146778	4276	5184	+	ant(6)-Ia_1	1-909/909	===============	0/0	100.00	100.00	resfinder	AF330699	ant(6)-Ia	Streptomycin
/hpc/dla_mm/jkerkvliet/data/gplas/newmodels/results/E_faecium/08_mobsuite/GCF_016406485.1_ASM1640648v1/plasmid_AB173.fasta	S92_LN:i:7349_dp:f:2.915587568146778	5816	6610	+	aph(3')-III_1	1-795/795	===============	0/0	100.00	99.87	resfinder	M26832	aph(3')-III	Amikacin
/hpc/dla_mm/jkerkvliet/data/gplas/newmodels/results/E_faecium/08_mobsuite/GCF_016406485.1_ASM1640648v1/plasmid_AC630.fasta	S157_LN:i:1578_dp:f:1.1365956892040088	167	901	+	erm(T)_2	1-735/735	===============	0/0	100.00	100.00	resfinder	AY894138	erm(T)	Erythromycin;Lincomycin;Clindamycin;Quinupristin;Pristinamycin_IA;Virginiamycin_S
/hpc/dla_mm/jkerkvliet/data/gplas/newmodels/results/E_faecium/08_mobsuite/GCF_016406485.1_ASM1640648v1/plasmid_AB369.fasta	S131_LN:i:2899_dp:f:5.13472667644031	206	2812	+	VanHAX_2	1-2607/2607	===============	0/0	100.00	99.92	resfinder	M97297	VanHAX	Vancomycin;Teicoplanin
/hpc/dla_mm/jkerkvliet/data/gplas/newmodels/results/E_faecium/08_mobsuite/GCF_016406485.1_ASM1640648v1/plasmid_AB117.fasta	S124_LN:i:3277_dp:f:1.967423453542665	275	772	+	dfrG_1	1-498/498	===============	0/0	100.00	100.00	resfinder	AB205645	dfrG	Trimethoprim
/hpc/dla_mm/jkerkvliet/data/gplas/newmodels/results/E_faecium/08_mobsuite/GCF_016406485.1_ASM1640648v1/plasmid_AC670.fasta	S107_LN:i:4809_dp:f:1.044638682523818	541	1883	+	tet(L)_2	35-1377/1377	===============	0/0	97.53	99.85	resfinder	M29725	tet(L)	Doxycycline;Tetracycline
/hpc/dla_mm/jkerkvliet/data/gplas/newmodels/results/E_faecium/08_mobsuite/GCF_016415385.1_ASM1641538v1/plasmid_AB173.fasta	S112_LN:i:3260_dp:f:4.027761815602799	206	2812	+	VanHAX_2	1-2607/2607	===============	0/0	100.00	99.92	resfinder	M97297	VanHAX	Vancomycin;Teicoplanin
/hpc/dla_mm/jkerkvliet/data/gplas/newmodels/results/E_faecium/08_mobsuite/GCF_016415385.1_ASM1641538v1/plasmid_AC731.fasta	S123_LN:i:2496_dp:f:4.196978578105434	909	1703	+	aph(3')-III_1	1-795/795	===============	0/0	100.00	100.00	resfinder	M26832	aph(3')-III	Amikacin
/hpc/dla_mm/jkerkvliet/data/gplas/newmodels/results/E_faecium/08_mobsuite/GCF_016415385.1_ASM1641538v1/plasmid_AC731.fasta	S125_LN:i:2432_dp:f:4.029065659151704	1416	2178	-	erm(B)_18	1-762/762	========/======	1/1	100.00	99.34	resfinder	X66468	erm(B)	Erythromycin;Lincomycin;Clindamycin;Quinupristin;Pristinamycin_IA;Virginiamycin_S
/hpc/dla_mm/jkerkvliet/data/gplas/newmodels/results/E_faecium/08_mobsuite/GCF_016415385.1_ASM1641538v1/plasmid_AC731.fasta	S85_LN:i:6820_dp:f:1.2891519955556527	3653	4963	+	aac(6')-aph(2'')_1	130-1440/1440	.==============	0/0	91.04	100.00	resfinder	M13771	aac(6')-aph(2'')	Amikacin;Gentamicin;Tobramycin
/hpc/dla_mm/jkerkvliet/data/gplas/newmodels/results/E_faecium/08_mobsuite/GCF_016406565.1_ASM1640656v1/plasmid_AB173.fasta	S101_LN:i:6672_dp:f:2.8226549722537513	255	1017	+	erm(B)_18	1-762/762	========/======	1/1	100.00	99.34	resfinder	X66468	erm(B)	Erythromycin;Lincomycin;Clindamycin;Quinupristin;Pristinamycin_IA;Virginiamycin_S
/hpc/dla_mm/jkerkvliet/data/gplas/newmodels/results/E_faecium/08_mobsuite/GCF_016406565.1_ASM1640656v1/plasmid_AB173.fasta	S101_LN:i:6672_dp:f:2.8226549722537513	4276	5184	+	ant(6)-Ia_1	1-909/909	===============	0/0	100.00	99.89	resfinder	AF330699	ant(6)-Ia	Streptomycin
/hpc/dla_mm/jkerkvliet/data/gplas/newmodels/results/E_faecium/08_mobsuite/GCF_016406565.1_ASM1640656v1/plasmid_AB173.fasta	S101_LN:i:6672_dp:f:2.8226549722537513	5816	6610	+	aph(3')-III_1	1-795/795	===============	0/0	100.00	99.87	resfinder	M26832	aph(3')-III	Amikacin
/hpc/dla_mm/jkerkvliet/data/gplas/newmodels/results/E_faecium/08_mobsuite/GCF_016406565.1_ASM1640656v1/plasmid_AB173.fasta	S95_LN:i:7703_dp:f:2.7934865496421484	4892	7498	-	VanHAX_2	1-2607/2607	===============	0/0	100.00	99.92	resfinder	M97297	VanHAX	Vancomycin;Teicoplanin
/hpc/dla_mm/jkerkvliet/data/gplas/newmodels/results/E_faecium/08_mobsuite/GCF_016406565.1_ASM1640656v1/plasmid_AC731.fasta	S107_LN:i:6275_dp:f:0.9960607328547773	1313	2623	-	aac(6')-aph(2'')_1	130-1440/1440	.==============	0/0	91.04	100.00	resfinder	M13771	aac(6')-aph(2'')	Amikacin;Gentamicin;Tobramycin
/hpc/dla_mm/jkerkvliet/data/gplas/newmodels/results/E_faecium/08_mobsuite/GCF_016406405.1_ASM1640640v1/plasmid_AB173.fasta	S100_LN:i:6672_dp:f:2.407086572519797	255	1017	+	erm(B)_18	1-762/762	========/======	1/1	100.00	99.34	resfinder	X66468	erm(B)	Erythromycin;Lincomycin;Clindamycin;Quinupristin;Pristinamycin_IA;Virginiamycin_S
/hpc/dla_mm/jkerkvliet/data/gplas/newmodels/results/E_faecium/08_mobsuite/GCF_016406405.1_ASM1640640v1/plasmid_AB173.fasta	S100_LN:i:6672_dp:f:2.407086572519797	4276	5184	+	ant(6)-Ia_1	1-909/909	===============	0/0	100.00	100.00	resfinder	AF330699	ant(6)-Ia	Streptomycin
/hpc/dla_mm/jkerkvliet/data/gplas/newmodels/results/E_faecium/08_mobsuite/GCF_016406405.1_ASM1640640v1/plasmid_AB173.fasta	S100_LN:i:6672_dp:f:2.407086572519797	5816	6610	+	aph(3')-III_1	1-795/795	===============	0/0	100.00	99.87	resfinder	M26832	aph(3')-III	Amikacin
/hpc/dla_mm/jkerkvliet/data/gplas/newmodels/results/E_faecium/08_mobsuite/GCF_016406405.1_ASM1640640v1/plasmid_AB173.fasta	S92_LN:i:7696_dp:f:2.434684372717489	4893	7499	-	VanHAX_2	1-2607/2607	===============	0/0	100.00	99.92	resfinder	M97297	VanHAX	Vancomycin;Teicoplanin
/hpc/dla_mm/jkerkvliet/data/gplas/newmodels/results/E_faecium/08_mobsuite/GCF_016406405.1_ASM1640640v1/plasmid_AB977.fasta	S21_LN:i:38435_dp:f:2.0670271752348004	35783	36280	-	dfrG_1	1-498/498	===============	0/0	100.00	100.00	resfinder	AB205645	dfrG	Trimethoprim
/hpc/dla_mm/jkerkvliet/data/gplas/newmodels/results/E_faecium/08_mobsuite/GCF_016415565.1_ASM1641556v1/plasmid_AC731.fasta	S118_LN:i:2845_dp:f:2.2439422591835236	34	2640	-	VanHAX_2	1-2607/2607	===============	0/0	100.00	99.92	resfinder	M97297	VanHAX	Vancomycin;Teicoplanin
/hpc/dla_mm/jkerkvliet/data/gplas/newmodels/results/E_faecium/08_mobsuite/GCF_016415565.1_ASM1641556v1/plasmid_AB756.fasta	S83_LN:i:7402_dp:f:2.162486556795494	255	1017	+	erm(B)_18	1-762/762	========/======	1/1	100.00	99.34	resfinder	X66468	erm(B)	Erythromycin;Lincomycin;Clindamycin;Quinupristin;Pristinamycin_IA;Virginiamycin_S
/hpc/dla_mm/jkerkvliet/data/gplas/newmodels/results/E_faecium/08_mobsuite/GCF_016415565.1_ASM1641556v1/plasmid_AB756.fasta	S83_LN:i:7402_dp:f:2.162486556795494	4276	5184	+	ant(6)-Ia_1	1-909/909	===============	0/0	100.00	100.00	resfinder	AF330699	ant(6)-Ia	Streptomycin
/hpc/dla_mm/jkerkvliet/data/gplas/newmodels/results/E_faecium/08_mobsuite/GCF_016415565.1_ASM1641556v1/plasmid_AB756.fasta	S83_LN:i:7402_dp:f:2.162486556795494	5816	6610	+	aph(3')-III_1	1-795/795	===============	0/0	100.00	100.00	resfinder	M26832	aph(3')-III	Amikacin
/hpc/dla_mm/jkerkvliet/data/gplas/newmodels/results/E_faecium/08_mobsuite/GCF_016415565.1_ASM1641556v1/plasmid_AC670.fasta	S101_LN:i:4849_dp:f:1.2766906451133624	541	1883	+	tet(L)_2	35-1377/1377	===============	0/0	97.53	99.85	resfinder	M29725	tet(L)	Doxycycline;Tetracycline
/hpc/dla_mm/jkerkvliet/data/gplas/newmodels/results/E_faecium/08_mobsuite/GCF_907177285.1_USZ_VRE53_P46_hybrid_assembly/plasmid_AC731.fasta	S167_LN:i:1236_dp:f:2.368541717359217	1	1236	+	aac(6')-aph(2'')_1	130-1365/1440	.==============	0/0	85.83	100.00	resfinder	M13771	aac(6')-aph(2'')	Amikacin;Gentamicin;Tobramycin
/hpc/dla_mm/jkerkvliet/data/gplas/newmodels/results/E_faecium/08_mobsuite/GCF_907177285.1_USZ_VRE53_P46_hybrid_assembly/plasmid_AB171.fasta	S115_LN:i:4725_dp:f:1.2098781881919343	2094	4700	+	VanHAX_2	1-2607/2607	===============	0/0	100.00	100.00	resfinder	M97297	VanHAX	Vancomycin;Teicoplanin
/hpc/dla_mm/jkerkvliet/data/gplas/newmodels/results/E_faecium/08_mobsuite/GCF_907177285.1_USZ_VRE53_P46_hybrid_assembly/plasmid_AB171.fasta	S125_LN:i:3606_dp:f:1.2725321782704866	2188	3096	+	ant(6)-Ia_1	1-909/909	===============	0/0	100.00	100.00	resfinder	AF330699	ant(6)-Ia	Streptomycin
/hpc/dla_mm/jkerkvliet/data/gplas/newmodels/results/E_faecium/08_mobsuite/GCF_907177285.1_USZ_VRE53_P46_hybrid_assembly/plasmid_AB171.fasta	S171_LN:i:1069_dp:f:1.0876239853921303	171	933	-	erm(B)_18	1-762/762	========/======	1/1	100.00	98.95	resfinder	X66468	erm(B)	Erythromycin;Lincomycin;Clindamycin;Quinupristin;Pristinamycin_IA;Virginiamycin_S
/hpc/dla_mm/jkerkvliet/data/gplas/newmodels/results/E_faecium/08_mobsuite/GCF_907177285.1_USZ_VRE53_P46_hybrid_assembly/plasmid_AB171.fasta	S80_LN:i:10714_dp:f:1.1739774503085636	2517	3164	+	cat(pC221)_1	1-648/648	===============	0/0	100.00	97.69	resfinder	X02529	cat(pC221)	Chloramphenicol
/hpc/dla_mm/jkerkvliet/data/gplas/newmodels/results/E_faecium/08_mobsuite/GCF_907176815.1_USZ_VRE67_P60_hybrid_assembly/plasmid_AC731.fasta	S117_LN:i:3985_dp:f:0.8714885645429825	125	1435	-	aac(6')-aph(2'')_1	130-1440/1440	.==============	0/0	91.04	100.00	resfinder	M13771	aac(6')-aph(2'')	Amikacin;Gentamicin;Tobramycin
/hpc/dla_mm/jkerkvliet/data/gplas/newmodels/results/E_faecium/08_mobsuite/GCF_907176815.1_USZ_VRE67_P60_hybrid_assembly/plasmid_AB171.fasta	S107_LN:i:4724_dp:f:0.6835202106078248	2094	4700	+	VanHAX_2	1-2607/2607	===============	0/0	100.00	100.00	resfinder	M97297	VanHAX	Vancomycin;Teicoplanin
/hpc/dla_mm/jkerkvliet/data/gplas/newmodels/results/E_faecium/08_mobsuite/GCF_907176815.1_USZ_VRE67_P60_hybrid_assembly/plasmid_AB171.fasta	S119_LN:i:3606_dp:f:0.7219453351392986	2188	3096	+	ant(6)-Ia_1	1-909/909	===============	0/0	100.00	100.00	resfinder	AF330699	ant(6)-Ia	Streptomycin
/hpc/dla_mm/jkerkvliet/data/gplas/newmodels/results/E_faecium/08_mobsuite/GCF_907176815.1_USZ_VRE67_P60_hybrid_assembly/plasmid_AB171.fasta	S162_LN:i:1069_dp:f:0.633721572604384	171	933	-	erm(B)_18	1-762/762	========/======	1/1	100.00	98.95	resfinder	X66468	erm(B)	Erythromycin;Lincomycin;Clindamycin;Quinupristin;Pristinamycin_IA;Virginiamycin_S
/hpc/dla_mm/jkerkvliet/data/gplas/newmodels/results/E_faecium/08_mobsuite/GCF_907176815.1_USZ_VRE67_P60_hybrid_assembly/plasmid_AB171.fasta	S76_LN:i:10714_dp:f:0.7025468035558927	7551	8198	-	cat(pC221)_1	1-648/648	===============	0/0	100.00	97.69	resfinder	X02529	cat(pC221)	Chloramphenicol
/hpc/dla_mm/jkerkvliet/data/gplas/newmodels/results/E_faecium/08_mobsuite/GCF_019977575.1_ASM1997757v1/plasmid_AC731.fasta	S58_LN:i:15608_dp:f:1.0457773328990552	3800	4663	-	ant(6)-Ia_2	1-864/864	===============	0/0	100.00	100.00	resfinder	KF421157	ant(6)-Ia	Streptomycin
/hpc/dla_mm/jkerkvliet/data/gplas/newmodels/results/E_faecium/08_mobsuite/GCF_019977575.1_ASM1997757v1/plasmid_AB756.fasta	S114_LN:i:3912_dp:f:1.2092917626684154	2532	3874	-	tet(L)_2	35-1377/1377	===============	0/0	97.53	99.93	resfinder	M29725	tet(L)	Doxycycline;Tetracycline
/hpc/dla_mm/jkerkvliet/data/gplas/newmodels/results/E_faecium/08_mobsuite/GCF_019977575.1_ASM1997757v1/plasmid_AB756.fasta	S137_LN:i:1808_dp:f:1.0861713077407238	598	1360	+	erm(B)_18	1-762/762	========/======	1/1	100.00	99.08	resfinder	X66468	erm(B)	Erythromycin;Lincomycin;Clindamycin;Quinupristin;Pristinamycin_IA;Virginiamycin_S
/hpc/dla_mm/jkerkvliet/data/gplas/newmodels/results/E_faecium/08_mobsuite/GCF_019977575.1_ASM1997757v1/plasmid_AB117.fasta	S119_LN:i:3285_dp:f:1.3867792640670764	275	772	+	dfrG_1	1-498/498	===============	0/0	100.00	100.00	resfinder	AB205645	dfrG	Trimethoprim
/hpc/dla_mm/jkerkvliet/data/gplas/newmodels/results/E_faecium/08_mobsuite/GCF_019175465.1_ASM1917546v1/plasmid_AB756.fasta	S17_LN:i:33622_dp:f:1.2567473248085401	20988	21750	-	erm(B)_18	1-762/762	========/======	1/1	100.00	99.21	resfinder	X66468	erm(B)	Erythromycin;Lincomycin;Clindamycin;Quinupristin;Pristinamycin_IA;Virginiamycin_S
/hpc/dla_mm/jkerkvliet/data/gplas/newmodels/results/E_faecium/08_mobsuite/GCF_019175465.1_ASM1917546v1/plasmid_AB756.fasta	S17_LN:i:33622_dp:f:1.2567473248085401	22471	23265	-	aph(3')-III_1	1-795/795	===============	0/0	100.00	100.00	resfinder	M26832	aph(3')-III	Amikacin
/hpc/dla_mm/jkerkvliet/data/gplas/newmodels/results/E_faecium/08_mobsuite/GCF_019175465.1_ASM1917546v1/plasmid_AB756.fasta	S17_LN:i:33622_dp:f:1.2567473248085401	25641	26444	-	lnu(B)_2	1-804/804	===============	0/0	100.00	100.00	resfinder	JQ861959	lnu(B)	Lincomycin;Clindamycin
/hpc/dla_mm/jkerkvliet/data/gplas/newmodels/results/E_faecium/08_mobsuite/GCF_019175465.1_ASM1917546v1/plasmid_AB756.fasta	S17_LN:i:33622_dp:f:1.2567473248085401	26498	27982	-	lsa(E)_1	1-1485/1485	===============	0/0	100.00	100.00	resfinder	JX560992	lsa(E)	Lincomycin;Clindamycin;Dalfopristin;Pristinamycin_IIA;Virginiamycin_M;Tiamulin
/hpc/dla_mm/jkerkvliet/data/gplas/newmodels/results/E_faecium/08_mobsuite/GCF_019175465.1_ASM1917546v1/plasmid_AB756.fasta	S17_LN:i:33622_dp:f:1.2567473248085401	31561	32424	-	ant(6)-Ia_2	1-864/864	===============	0/0	100.00	100.00	resfinder	KF421157	ant(6)-Ia	Streptomycin
/hpc/dla_mm/jkerkvliet/data/gplas/newmodels/results/E_faecium/08_mobsuite/GCF_019175465.1_ASM1917546v1/plasmid_AB756.fasta	S39_LN:i:5159_dp:f:1.3636646170148345	818	2194	-	tet(L)_2	1-1377/1377	===============	0/0	100.00	99.93	resfinder	M29725	tet(L)	Doxycycline;Tetracycline
/hpc/dla_mm/jkerkvliet/data/gplas/newmodels/results/E_faecium/08_mobsuite/GCF_019175465.1_ASM1917546v1/plasmid_AB756.fasta	S39_LN:i:5159_dp:f:1.3636646170148345	2388	4307	-	tet(M)_10	1-1920/1920	===============	0/0	100.00	96.46	resfinder	EU182585	tet(M)	Doxycycline;Tetracycline;Minocycline
/hpc/dla_mm/jkerkvliet/data/gplas/newmodels/results/E_faecium/08_mobsuite/GCF_019175465.1_ASM1917546v1/plasmid_AB756.fasta	S45_LN:i:4042_dp:f:6.005469288616399	663	2072	-	fexB_1	1-1410/1410	===============	0/0	100.00	100.00	resfinder	JN201336	fexB	Chloramphenicol;Florfenicol
/hpc/dla_mm/jkerkvliet/data/gplas/newmodels/results/E_faecium/08_mobsuite/GCF_019175465.1_ASM1917546v1/plasmid_AB756.fasta	S52_LN:i:2512_dp:f:6.115386109040738	905	2512	+	poxtA_1	1-1608/1629	===============	0/0	98.71	100.00	resfinder	MF095097	poxtA	Chloramphenicol;Florfenicol;Linezolid;Doxycycline;Tetracycline
/hpc/dla_mm/jkerkvliet/data/gplas/newmodels/results/E_faecium/08_mobsuite/GCF_016406525.1_ASM1640652v1/plasmid_AB173.fasta	S84_LN:i:7701_dp:f:3.0866288643892617	206	2812	+	VanHAX_2	1-2607/2607	===============	0/0	100.00	99.92	resfinder	M97297	VanHAX	Vancomycin;Teicoplanin
/hpc/dla_mm/jkerkvliet/data/gplas/newmodels/results/E_faecium/08_mobsuite/GCF_016406525.1_ASM1640652v1/plasmid_AB173.fasta	S91_LN:i:6672_dp:f:3.0018519931278096	255	1017	+	erm(B)_18	1-762/762	========/======	1/1	100.00	99.34	resfinder	X66468	erm(B)	Erythromycin;Lincomycin;Clindamycin;Quinupristin;Pristinamycin_IA;Virginiamycin_S
/hpc/dla_mm/jkerkvliet/data/gplas/newmodels/results/E_faecium/08_mobsuite/GCF_016406525.1_ASM1640652v1/plasmid_AB173.fasta	S91_LN:i:6672_dp:f:3.0018519931278096	4276	5184	+	ant(6)-Ia_1	1-909/909	===============	0/0	100.00	99.89	resfinder	AF330699	ant(6)-Ia	Streptomycin
/hpc/dla_mm/jkerkvliet/data/gplas/newmodels/results/E_faecium/08_mobsuite/GCF_016406525.1_ASM1640652v1/plasmid_AB173.fasta	S91_LN:i:6672_dp:f:3.0018519931278096	5816	6610	+	aph(3')-III_1	1-795/795	===============	0/0	100.00	99.87	resfinder	M26832	aph(3')-III	Amikacin
/hpc/dla_mm/jkerkvliet/data/gplas/newmodels/results/E_faecium/08_mobsuite/GCF_016406385.1_ASM1640638v1/plasmid_AB173.fasta	S104_LN:i:5928_dp:f:3.105115423815623	2797	3709	+	ant(6)-Ia_1	1-909/909	========/======	1/4	100.00	99.56	resfinder	AF330699	ant(6)-Ia	Streptomycin
/hpc/dla_mm/jkerkvliet/data/gplas/newmodels/results/E_faecium/08_mobsuite/GCF_016406385.1_ASM1640638v1/plasmid_AB173.fasta	S104_LN:i:5928_dp:f:3.105115423815623	4341	5135	+	aph(3')-III_1	1-795/795	===============	0/0	100.00	100.00	resfinder	M26832	aph(3')-III	Amikacin
/hpc/dla_mm/jkerkvliet/data/gplas/newmodels/results/E_faecium/08_mobsuite/GCF_016406385.1_ASM1640638v1/plasmid_AB173.fasta	S158_LN:i:1487_dp:f:2.826411687258893	471	1233	-	erm(B)_18	1-762/762	========/======	1/1	100.00	99.34	resfinder	X66468	erm(B)	Erythromycin;Lincomycin;Clindamycin;Quinupristin;Pristinamycin_IA;Virginiamycin_S
/hpc/dla_mm/jkerkvliet/data/gplas/newmodels/results/E_faecium/08_mobsuite/GCF_016406385.1_ASM1640638v1/plasmid_AB173.fasta	S91_LN:i:7703_dp:f:3.138806242211387	4892	7498	-	VanHAX_2	1-2607/2607	===============	0/0	100.00	99.92	resfinder	M97297	VanHAX	Vancomycin;Teicoplanin
/hpc/dla_mm/jkerkvliet/data/gplas/newmodels/results/E_faecium/08_mobsuite/GCF_016406385.1_ASM1640638v1/plasmid_AC731.fasta	S111_LN:i:5042_dp:f:1.1748228491458692	80	1390	-	aac(6')-aph(2'')_1	130-1440/1440	.==============	0/0	91.04	100.00	resfinder	M13771	aac(6')-aph(2'')	Amikacin;Gentamicin;Tobramycin
/hpc/dla_mm/jkerkvliet/data/gplas/newmodels/results/E_faecium/08_mobsuite/GCF_016406385.1_ASM1640638v1/plasmid_AB756.fasta	S74_LN:i:11352_dp:f:1.30842044977789	2533	3875	-	tet(L)_2	35-1377/1377	===============	0/0	97.53	99.93	resfinder	M29725	tet(L)	Doxycycline;Tetracycline
/hpc/dla_mm/jkerkvliet/data/gplas/newmodels/results/E_faecium/08_mobsuite/GCF_016406385.1_ASM1640638v1/plasmid_AB756.fasta	S74_LN:i:11352_dp:f:1.30842044977789	4004	5923	-	tet(M)_10	1-1920/1920	===============	0/0	100.00	97.50	resfinder	EU182585	tet(M)	Doxycycline;Tetracycline;Minocycline
/hpc/dla_mm/jkerkvliet/data/gplas/newmodels/results/E_faecium/08_mobsuite/GCF_023299725.1_ASM2329972v1/plasmid_AD100.fasta	S83_LN:i:1810_dp:f:2.8121981212470977	103	750	+	cat(pC233)_1	1-648/648	===============	0/0	100.00	100.00	resfinder	AY355285	cat(pC233)	Chloramphenicol
/hpc/dla_mm/jkerkvliet/data/gplas/newmodels/results/E_faecium/08_mobsuite/GCF_023299725.1_ASM2329972v1/plasmid_AD100.fasta	S86_LN:i:1626_dp:f:2.456655503885911	623	1385	+	erm(B)_18	1-762/762	========/======	1/1	100.00	99.48	resfinder	X66468	erm(B)	Erythromycin;Lincomycin;Clindamycin;Quinupristin;Pristinamycin_IA;Virginiamycin_S
/hpc/dla_mm/jkerkvliet/data/gplas/newmodels/results/E_faecium/08_mobsuite/GCF_023299725.1_ASM2329972v1/plasmid_novel_e40e1755baf660ee418a0d19202ff993.fasta	S62_LN:i:5427_dp:f:2.6589537371023715	2763	3671	+	ant(6)-Ia_1	1-909/909	===============	0/0	100.00	100.00	resfinder	AF330699	ant(6)-Ia	Streptomycin
/hpc/dla_mm/jkerkvliet/data/gplas/newmodels/results/E_faecium/08_mobsuite/GCF_023299725.1_ASM2329972v1/plasmid_novel_e40e1755baf660ee418a0d19202ff993.fasta	S62_LN:i:5427_dp:f:2.6589537371023715	4303	5097	+	aph(3')-III_1	1-795/795	===============	0/0	100.00	100.00	resfinder	M26832	aph(3')-III	Amikacin
/hpc/dla_mm/jkerkvliet/data/gplas/newmodels/results/E_faecium/08_mobsuite/GCF_023299725.1_ASM2329972v1/plasmid_AB756.fasta	S66_LN:i:5043_dp:f:10.700878031159384	1567	2976	-	fexB_1	1-1410/1410	===============	0/0	100.00	100.00	resfinder	JN201336	fexB	Chloramphenicol;Florfenicol
/hpc/dla_mm/jkerkvliet/data/gplas/newmodels/results/E_faecium/08_mobsuite/GCF_023299725.1_ASM2329972v1/plasmid_AB756.fasta	S71_LN:i:3853_dp:f:6.126174553279698	2374	3750	-	tet(L)_2	1-1377/1377	===============	0/0	100.00	100.00	resfinder	M29725	tet(L)	Doxycycline;Tetracycline
/hpc/dla_mm/jkerkvliet/data/gplas/newmodels/results/E_faecium/08_mobsuite/GCF_023299725.1_ASM2329972v1/plasmid_AB756.fasta	S79_LN:i:2512_dp:f:10.45393148450682	1	1608	-	poxtA_1	1-1608/1629	===============	0/0	98.71	100.00	resfinder	MF095097	poxtA	Chloramphenicol;Florfenicol;Linezolid;Doxycycline;Tetracycline
/hpc/dla_mm/jkerkvliet/data/gplas/newmodels/results/E_faecium/08_mobsuite/GCF_016415465.1_ASM1641546v1/plasmid_AB173.fasta	S92_LN:i:7703_dp:f:2.6569438302709787	206	2812	+	VanHAX_2	1-2607/2607	===============	0/0	100.00	99.92	resfinder	M97297	VanHAX	Vancomycin;Teicoplanin
/hpc/dla_mm/jkerkvliet/data/gplas/newmodels/results/E_faecium/08_mobsuite/GCF_016415465.1_ASM1641546v1/plasmid_AB173.fasta	S96_LN:i:6672_dp:f:2.6120742029521624	63	857	-	aph(3')-III_1	1-795/795	===============	0/0	100.00	99.87	resfinder	M26832	aph(3')-III	Amikacin
/hpc/dla_mm/jkerkvliet/data/gplas/newmodels/results/E_faecium/08_mobsuite/GCF_016415465.1_ASM1641546v1/plasmid_AB173.fasta	S96_LN:i:6672_dp:f:2.6120742029521624	1489	2397	-	ant(6)-Ia_1	1-909/909	===============	0/0	100.00	100.00	resfinder	AF330699	ant(6)-Ia	Streptomycin
/hpc/dla_mm/jkerkvliet/data/gplas/newmodels/results/E_faecium/08_mobsuite/GCF_016415465.1_ASM1641546v1/plasmid_AB173.fasta	S96_LN:i:6672_dp:f:2.6120742029521624	5656	6418	-	erm(B)_18	1-762/762	========/======	1/1	100.00	99.34	resfinder	X66468	erm(B)	Erythromycin;Lincomycin;Clindamycin;Quinupristin;Pristinamycin_IA;Virginiamycin_S
/hpc/dla_mm/jkerkvliet/data/gplas/newmodels/results/E_faecium/08_mobsuite/GCF_016415465.1_ASM1641546v1/plasmid_AC731.fasta	S102_LN:i:6275_dp:f:1.01297850385098	1313	2623	-	aac(6')-aph(2'')_1	130-1440/1440	.==============	0/0	91.04	100.00	resfinder	M13771	aac(6')-aph(2'')	Amikacin;Gentamicin;Tobramycin
