#FILE	SEQUENCE	START	END	STRAND	GENE	COVERAGE	COVERAGE_MAP	GAPS	%COVERAGE	%IDENTITY	DATABASE	ACCESSION	PRODUCT	RESISTANCE
/hpc/dla_mm/jkerkvliet/data/gplas/newmodels/results/E_faecium/09_plasmidspades/GCF_022647825.1_ASM2264782v1/bin_component_0.fasta	NODE_25_length_3015_cov_254.504084_component_0	128	2734	-	VanHAX_2	1-2607/2607	===============	0/0	100.00	99.92	resfinder	M97297	VanHAX	Vancomycin;Teicoplanin
/hpc/dla_mm/jkerkvliet/data/gplas/newmodels/results/E_faecium/09_plasmidspades/GCF_021398505.1_ASM2139850v1/bin_component_0.fasta	NODE_2_length_19710_cov_1482.976672_component_0	4990	5853	+	ant(6)-Ia_2	1-864/864	===============	0/0	100.00	100.00	resfinder	KF421157	ant(6)-Ia	Streptomycin
/hpc/dla_mm/jkerkvliet/data/gplas/newmodels/results/E_faecium/09_plasmidspades/GCF_021398505.1_ASM2139850v1/bin_component_0.fasta	NODE_2_length_19710_cov_1482.976672_component_0	9432	10916	+	lsa(E)_1	1-1485/1485	===============	0/0	100.00	100.00	resfinder	JX560992	lsa(E)	Lincomycin;Clindamycin;Dalfopristin;Pristinamycin_IIA;Virginiamycin_M;Tiamulin
/hpc/dla_mm/jkerkvliet/data/gplas/newmodels/results/E_faecium/09_plasmidspades/GCF_021398505.1_ASM2139850v1/bin_component_0.fasta	NODE_2_length_19710_cov_1482.976672_component_0	10970	11773	+	lnu(B)_2	1-804/804	===============	0/0	100.00	100.00	resfinder	JQ861959	lnu(B)	Lincomycin;Clindamycin
/hpc/dla_mm/jkerkvliet/data/gplas/newmodels/results/E_faecium/09_plasmidspades/GCF_021398505.1_ASM2139850v1/bin_component_0.fasta	NODE_2_length_19710_cov_1482.976672_component_0	14293	15055	+	erm(B)_18	1-762/762	========/======	1/1	100.00	99.61	resfinder	X66468	erm(B)	Erythromycin;Lincomycin;Clindamycin;Quinupristin;Pristinamycin_IA;Virginiamycin_S
/hpc/dla_mm/jkerkvliet/data/gplas/newmodels/results/E_faecium/09_plasmidspades/GCF_021398505.1_ASM2139850v1/bin_component_0.fasta	NODE_7_length_9893_cov_1484.766809_component_0	4136	6055	+	tet(M)_10	1-1920/1920	===============	0/0	100.00	96.46	resfinder	EU182585	tet(M)	Doxycycline;Tetracycline;Minocycline
/hpc/dla_mm/jkerkvliet/data/gplas/newmodels/results/E_faecium/09_plasmidspades/GCF_021398505.1_ASM2139850v1/bin_component_0.fasta	NODE_7_length_9893_cov_1484.766809_component_0	6249	7625	+	tet(L)_2	1-1377/1377	===============	0/0	100.00	100.00	resfinder	M29725	tet(L)	Doxycycline;Tetracycline
/hpc/dla_mm/jkerkvliet/data/gplas/newmodels/results/E_faecium/09_plasmidspades/GCF_016406445.1_ASM1640644v1/bin_component_0.fasta	NODE_11_length_8193_cov_244.269714_component_0	555	1317	+	erm(B)_18	1-762/762	========/======	1/1	100.00	99.34	resfinder	X66468	erm(B)	Erythromycin;Lincomycin;Clindamycin;Quinupristin;Pristinamycin_IA;Virginiamycin_S
/hpc/dla_mm/jkerkvliet/data/gplas/newmodels/results/E_faecium/09_plasmidspades/GCF_016406445.1_ASM1640644v1/bin_component_0.fasta	NODE_11_length_8193_cov_244.269714_component_0	4576	5488	+	ant(6)-Ia_1	1-909/909	========/======	1/4	100.00	99.56	resfinder	AF330699	ant(6)-Ia	Streptomycin
/hpc/dla_mm/jkerkvliet/data/gplas/newmodels/results/E_faecium/09_plasmidspades/GCF_016406445.1_ASM1640644v1/bin_component_0.fasta	NODE_11_length_8193_cov_244.269714_component_0	6120	6914	+	aph(3')-III_1	1-795/795	===============	0/0	100.00	100.00	resfinder	M26832	aph(3')-III	Amikacin
/hpc/dla_mm/jkerkvliet/data/gplas/newmodels/results/E_faecium/09_plasmidspades/GCF_016406445.1_ASM1640644v1/bin_component_0.fasta	NODE_24_length_3075_cov_195.397265_component_0	283	2889	+	VanHAX_2	1-2607/2607	===============	0/0	100.00	99.92	resfinder	M97297	VanHAX	Vancomycin;Teicoplanin
/hpc/dla_mm/jkerkvliet/data/gplas/newmodels/results/E_faecium/09_plasmidspades/GCF_022647945.1_ASM2264794v1/bin_component_0.fasta	NODE_27_length_3015_cov_204.196392_component_0	282	2888	+	VanHAX_2	1-2607/2607	===============	0/0	100.00	99.92	resfinder	M97297	VanHAX	Vancomycin;Teicoplanin
/hpc/dla_mm/jkerkvliet/data/gplas/newmodels/results/E_faecium/09_plasmidspades/GCF_022647945.1_ASM2264794v1/bin_component_0.fasta	NODE_7_length_7779_cov_272.335108_component_0	766	1560	-	aph(3')-III_1	1-795/795	===============	0/0	100.00	100.00	resfinder	M26832	aph(3')-III	Amikacin
/hpc/dla_mm/jkerkvliet/data/gplas/newmodels/results/E_faecium/09_plasmidspades/GCF_022647945.1_ASM2264794v1/bin_component_0.fasta	NODE_7_length_7779_cov_272.335108_component_0	2192	3104	-	ant(6)-Ia_1	1-909/909	========/======	1/4	100.00	99.56	resfinder	AF330699	ant(6)-Ia	Streptomycin
/hpc/dla_mm/jkerkvliet/data/gplas/newmodels/results/E_faecium/09_plasmidspades/GCF_022647945.1_ASM2264794v1/bin_component_0.fasta	NODE_7_length_7779_cov_272.335108_component_0	6363	7125	-	erm(B)_18	1-762/762	========/======	1/1	100.00	99.34	resfinder	X66468	erm(B)	Erythromycin;Lincomycin;Clindamycin;Quinupristin;Pristinamycin_IA;Virginiamycin_S
/hpc/dla_mm/jkerkvliet/data/gplas/newmodels/results/E_faecium/09_plasmidspades/GCF_015999605.1_ASM1599960v1/bin_component_0.fasta	NODE_2_length_7912_cov_336.403574_component_0	283	2889	+	VanHAX_2	1-2607/2607	===============	0/0	100.00	99.92	resfinder	M97297	VanHAX	Vancomycin;Teicoplanin
/hpc/dla_mm/jkerkvliet/data/gplas/newmodels/results/E_faecium/09_plasmidspades/GCF_015999605.1_ASM1599960v1/bin_component_0.fasta	NODE_4_length_6826_cov_323.202549_component_0	332	1094	+	erm(B)_18	1-762/762	========/======	1/1	100.00	99.34	resfinder	X66468	erm(B)	Erythromycin;Lincomycin;Clindamycin;Quinupristin;Pristinamycin_IA;Virginiamycin_S
/hpc/dla_mm/jkerkvliet/data/gplas/newmodels/results/E_faecium/09_plasmidspades/GCF_015999605.1_ASM1599960v1/bin_component_0.fasta	NODE_4_length_6826_cov_323.202549_component_0	4353	5261	+	ant(6)-Ia_1	1-909/909	===============	0/0	100.00	99.89	resfinder	AF330699	ant(6)-Ia	Streptomycin
/hpc/dla_mm/jkerkvliet/data/gplas/newmodels/results/E_faecium/09_plasmidspades/GCF_015999605.1_ASM1599960v1/bin_component_0.fasta	NODE_4_length_6826_cov_323.202549_component_0	5893	6687	+	aph(3')-III_1	1-795/795	===============	0/0	100.00	99.87	resfinder	M26832	aph(3')-III	Amikacin
/hpc/dla_mm/jkerkvliet/data/gplas/newmodels/results/E_faecium/09_plasmidspades/GCF_020162175.1_ASM2016217v1/bin_component_0.fasta	NODE_11_length_4879_cov_107.825698_component_0	103	2709	-	VanHAX_2	1-2607/2607	===============	0/0	100.00	100.00	resfinder	M97297	VanHAX	Vancomycin;Teicoplanin
/hpc/dla_mm/jkerkvliet/data/gplas/newmodels/results/E_faecium/09_plasmidspades/GCF_020162175.1_ASM2016217v1/bin_component_0.fasta	NODE_13_length_3763_cov_92.854042_component_0	588	1496	-	ant(6)-Ia_1	1-909/909	===============	0/0	100.00	100.00	resfinder	AF330699	ant(6)-Ia	Streptomycin
/hpc/dla_mm/jkerkvliet/data/gplas/newmodels/results/E_faecium/09_plasmidspades/GCF_020162175.1_ASM2016217v1/bin_component_0.fasta	NODE_15_length_3386_cov_47.779994_component_0	1480	2919	+	aac(6')-aph(2'')_1	1-1440/1440	===============	0/0	100.00	99.93	resfinder	M13771	aac(6')-aph(2'')	Amikacin;Gentamicin;Tobramycin
/hpc/dla_mm/jkerkvliet/data/gplas/newmodels/results/E_faecium/09_plasmidspades/GCF_020162175.1_ASM2016217v1/bin_component_0.fasta	NODE_27_length_1854_cov_76.932470_component_0	1	1789	+	tet(M)_10	43-1831/1920	===============	0/0	93.18	97.54	resfinder	EU182585	tet(M)	Doxycycline;Tetracycline;Minocycline
/hpc/dla_mm/jkerkvliet/data/gplas/newmodels/results/E_faecium/09_plasmidspades/GCF_020162175.1_ASM2016217v1/bin_component_0.fasta	NODE_44_length_1223_cov_79.223386_component_0	248	1010	-	erm(B)_18	1-762/762	========/======	1/1	100.00	98.95	resfinder	X66468	erm(B)	Erythromycin;Lincomycin;Clindamycin;Quinupristin;Pristinamycin_IA;Virginiamycin_S
/hpc/dla_mm/jkerkvliet/data/gplas/newmodels/results/E_faecium/09_plasmidspades/GCF_020162175.1_ASM2016217v1/bin_component_0.fasta	NODE_4_length_11529_cov_107.774450_component_0	7951	8598	-	cat(pC221)_1	1-648/648	===============	0/0	100.00	97.69	resfinder	X02529	cat(pC221)	Chloramphenicol
/hpc/dla_mm/jkerkvliet/data/gplas/newmodels/results/E_faecium/09_plasmidspades/GCF_907165365.1_USZ_VRE32_P32_hybrid_assembly/bin_component_0.fasta	NODE_11_length_3862_cov_58.746720_component_0	638	1546	-	ant(6)-Ia_1	1-909/909	===============	0/0	100.00	100.00	resfinder	AF330699	ant(6)-Ia	Streptomycin
/hpc/dla_mm/jkerkvliet/data/gplas/newmodels/results/E_faecium/09_plasmidspades/GCF_907165365.1_USZ_VRE32_P32_hybrid_assembly/bin_component_0.fasta	NODE_29_length_1323_cov_52.892977_component_0	264	1026	+	erm(B)_18	1-762/762	========/======	1/1	100.00	98.95	resfinder	X66468	erm(B)	Erythromycin;Lincomycin;Clindamycin;Quinupristin;Pristinamycin_IA;Virginiamycin_S
/hpc/dla_mm/jkerkvliet/data/gplas/newmodels/results/E_faecium/09_plasmidspades/GCF_907165365.1_USZ_VRE32_P32_hybrid_assembly/bin_component_0.fasta	NODE_3_length_11704_cov_59.979960_component_0	7678	8325	-	cat(pC221)_1	1-648/648	===============	0/0	100.00	97.69	resfinder	X02529	cat(pC221)	Chloramphenicol
/hpc/dla_mm/jkerkvliet/data/gplas/newmodels/results/E_faecium/09_plasmidspades/GCF_907165365.1_USZ_VRE32_P32_hybrid_assembly/bin_component_0.fasta	NODE_6_length_5353_cov_51.576923_component_0	3486	4724	+	aac(6')-aph(2'')_1	130-1368/1440	.==============	0/0	86.04	99.92	resfinder	M13771	aac(6')-aph(2'')	Amikacin;Gentamicin;Tobramycin
/hpc/dla_mm/jkerkvliet/data/gplas/newmodels/results/E_faecium/09_plasmidspades/GCF_907165365.1_USZ_VRE32_P32_hybrid_assembly/bin_component_0.fasta	NODE_8_length_4978_cov_59.622964_component_0	2221	4827	+	VanHAX_2	1-2607/2607	===============	0/0	100.00	100.00	resfinder	M97297	VanHAX	Vancomycin;Teicoplanin
/hpc/dla_mm/jkerkvliet/data/gplas/newmodels/results/E_faecium/09_plasmidspades/GCF_017584065.1_ASM1758406v1/bin_component_0.fasta	NODE_15_length_3626_cov_81.265388_component_0	930	1692	+	erm(B)_18	1-762/762	========/======	1/1	100.00	99.21	resfinder	X66468	erm(B)	Erythromycin;Lincomycin;Clindamycin;Quinupristin;Pristinamycin_IA;Virginiamycin_S
/hpc/dla_mm/jkerkvliet/data/gplas/newmodels/results/E_faecium/09_plasmidspades/GCF_019175425.1_ASM1917542v1/bin_component_0.fasta	NODE_11_length_7373_cov_50.884183_component_0	2114	3523	+	fexB_1	1-1410/1410	===============	0/0	100.00	100.00	resfinder	JN201336	fexB	Chloramphenicol;Florfenicol
/hpc/dla_mm/jkerkvliet/data/gplas/newmodels/results/E_faecium/09_plasmidspades/GCF_019175425.1_ASM1917542v1/bin_component_0.fasta	NODE_26_length_1829_cov_85.208904_component_0	329	1753	-	aac(6')-aph(2'')_1	16-1440/1440	===============	0/0	98.96	100.00	resfinder	M13771	aac(6')-aph(2'')	Amikacin;Gentamicin;Tobramycin
/hpc/dla_mm/jkerkvliet/data/gplas/newmodels/results/E_faecium/09_plasmidspades/GCF_019175425.1_ASM1917542v1/bin_component_0.fasta	NODE_2_length_39510_cov_76.224102_component_0	4245	6212	+	optrA_8	1-1968/1968	===============	0/0	100.00	100.00	resfinder	KT862782	optrA	Linezolid;Chloramphenicol;Florfenicol
/hpc/dla_mm/jkerkvliet/data/gplas/newmodels/results/E_faecium/09_plasmidspades/GCF_019175425.1_ASM1917542v1/bin_component_0.fasta	NODE_2_length_39510_cov_76.224102_component_0	7674	8267	-	erm(A)_3	1-594/594	===============	0/0	100.00	100.00	resfinder	EU348758	erm(A)	Erythromycin;Lincomycin;Clindamycin;Quinupristin;Pristinamycin_IA;Virginiamycin_S
/hpc/dla_mm/jkerkvliet/data/gplas/newmodels/results/E_faecium/09_plasmidspades/GCF_019175425.1_ASM1917542v1/bin_component_0.fasta	NODE_4_length_19720_cov_70.217940_component_0	18291	18788	-	dfrG_1	1-498/498	===============	0/0	100.00	100.00	resfinder	AB205645	dfrG	Trimethoprim
/hpc/dla_mm/jkerkvliet/data/gplas/newmodels/results/E_faecium/09_plasmidspades/GCF_019175425.1_ASM1917542v1/bin_component_0.fasta	NODE_7_length_10779_cov_75.364885_component_0	3933	5417	+	lsa(E)_1	1-1485/1485	===============	0/0	100.00	100.00	resfinder	JX560992	lsa(E)	Lincomycin;Clindamycin;Dalfopristin;Pristinamycin_IIA;Virginiamycin_M;Tiamulin
/hpc/dla_mm/jkerkvliet/data/gplas/newmodels/results/E_faecium/09_plasmidspades/GCF_019175425.1_ASM1917542v1/bin_component_0.fasta	NODE_7_length_10779_cov_75.364885_component_0	5471	6274	+	lnu(B)_2	1-804/804	===============	0/0	100.00	100.00	resfinder	JQ861959	lnu(B)	Lincomycin;Clindamycin
/hpc/dla_mm/jkerkvliet/data/gplas/newmodels/results/E_faecium/09_plasmidspades/GCF_019175425.1_ASM1917542v1/bin_component_0.fasta	NODE_9_length_8206_cov_72.913643_component_0	4883	5645	-	erm(B)_18	1-762/762	========/======	1/1	100.00	99.21	resfinder	X66468	erm(B)	Erythromycin;Lincomycin;Clindamycin;Quinupristin;Pristinamycin_IA;Virginiamycin_S
/hpc/dla_mm/jkerkvliet/data/gplas/newmodels/results/E_faecium/09_plasmidspades/GCF_019175425.1_ASM1917542v1/bin_component_0.fasta	NODE_9_length_8206_cov_72.913643_component_0	6382	7176	-	aph(3')-III_1	1-795/795	===============	0/0	100.00	100.00	resfinder	M26832	aph(3')-III	Amikacin
/hpc/dla_mm/jkerkvliet/data/gplas/newmodels/results/E_faecium/09_plasmidspades/GCF_016406425.1_ASM1640642v1/bin_component_0.fasta	NODE_2_length_7912_cov_303.823740_component_0	283	2889	+	VanHAX_2	1-2607/2607	===============	0/0	100.00	99.92	resfinder	M97297	VanHAX	Vancomycin;Teicoplanin
/hpc/dla_mm/jkerkvliet/data/gplas/newmodels/results/E_faecium/09_plasmidspades/GCF_016406425.1_ASM1640642v1/bin_component_0.fasta	NODE_4_length_6826_cov_288.998518_component_0	140	934	-	aph(3')-III_1	1-795/795	===============	0/0	100.00	99.87	resfinder	M26832	aph(3')-III	Amikacin
/hpc/dla_mm/jkerkvliet/data/gplas/newmodels/results/E_faecium/09_plasmidspades/GCF_016406425.1_ASM1640642v1/bin_component_0.fasta	NODE_4_length_6826_cov_288.998518_component_0	1566	2474	-	ant(6)-Ia_1	1-909/909	===============	0/0	100.00	99.89	resfinder	AF330699	ant(6)-Ia	Streptomycin
/hpc/dla_mm/jkerkvliet/data/gplas/newmodels/results/E_faecium/09_plasmidspades/GCF_016406425.1_ASM1640642v1/bin_component_0.fasta	NODE_4_length_6826_cov_288.998518_component_0	5733	6495	-	erm(B)_18	1-762/762	========/======	1/1	100.00	99.34	resfinder	X66468	erm(B)	Erythromycin;Lincomycin;Clindamycin;Quinupristin;Pristinamycin_IA;Virginiamycin_S
/hpc/dla_mm/jkerkvliet/data/gplas/newmodels/results/E_faecium/09_plasmidspades/GCF_016415485.1_ASM1641548v1/bin_component_0.fasta	NODE_11_length_6214_cov_165.430504_component_0	140	934	-	aph(3')-III_1	1-795/795	===============	0/0	100.00	99.87	resfinder	M26832	aph(3')-III	Amikacin
/hpc/dla_mm/jkerkvliet/data/gplas/newmodels/results/E_faecium/09_plasmidspades/GCF_016415485.1_ASM1641548v1/bin_component_0.fasta	NODE_11_length_6214_cov_165.430504_component_0	1566	2474	-	ant(6)-Ia_1	1-909/909	===============	0/0	100.00	100.00	resfinder	AF330699	ant(6)-Ia	Streptomycin
/hpc/dla_mm/jkerkvliet/data/gplas/newmodels/results/E_faecium/09_plasmidspades/GCF_016415485.1_ASM1641548v1/bin_component_0.fasta	NODE_14_length_5778_cov_97.538151_component_0	2531	3028	+	dfrG_1	1-498/498	===============	0/0	100.00	100.00	resfinder	AB205645	dfrG	Trimethoprim
/hpc/dla_mm/jkerkvliet/data/gplas/newmodels/results/E_faecium/09_plasmidspades/GCF_016415485.1_ASM1641548v1/bin_component_0.fasta	NODE_30_length_2623_cov_129.990573_component_0	1313	2623	-	aac(6')-aph(2'')_1	130-1440/1440	.==============	0/0	91.04	100.00	resfinder	M13771	aac(6')-aph(2'')	Amikacin;Gentamicin;Tobramycin
/hpc/dla_mm/jkerkvliet/data/gplas/newmodels/results/E_faecium/09_plasmidspades/GCF_016415485.1_ASM1641548v1/bin_component_0.fasta	NODE_58_length_922_cov_185.694675_component_0	174	908	-	erm(T)_2	1-735/735	===============	0/0	100.00	99.86	resfinder	AY894138	erm(T)	Erythromycin;Lincomycin;Clindamycin;Quinupristin;Pristinamycin_IA;Virginiamycin_S
/hpc/dla_mm/jkerkvliet/data/gplas/newmodels/results/E_faecium/09_plasmidspades/GCF_016406465.1_ASM1640646v1/bin_component_0.fasta	NODE_10_length_7855_cov_134.404603_component_0	4968	7574	-	VanHAX_2	1-2607/2607	===============	0/0	100.00	99.92	resfinder	M97297	VanHAX	Vancomycin;Teicoplanin
/hpc/dla_mm/jkerkvliet/data/gplas/newmodels/results/E_faecium/09_plasmidspades/GCF_016406465.1_ASM1640646v1/bin_component_0.fasta	NODE_15_length_4753_cov_87.619760_component_0	529	1323	+	aph(3')-III_1	1-795/795	===============	0/0	100.00	100.00	resfinder	M26832	aph(3')-III	Amikacin
/hpc/dla_mm/jkerkvliet/data/gplas/newmodels/results/E_faecium/09_plasmidspades/GCF_016406465.1_ASM1640646v1/bin_component_0.fasta	NODE_15_length_4753_cov_87.619760_component_0	2048	2810	+	erm(B)_18	1-762/762	========/======	1/1	100.00	99.08	resfinder	X66468	erm(B)	Erythromycin;Lincomycin;Clindamycin;Quinupristin;Pristinamycin_IA;Virginiamycin_S
/hpc/dla_mm/jkerkvliet/data/gplas/newmodels/results/E_faecium/09_plasmidspades/GCF_016406465.1_ASM1640646v1/bin_component_0.fasta	NODE_23_length_3714_cov_85.584548_component_0	357	1265	-	ant(6)-Ia_1	1-909/909	===============	0/0	100.00	100.00	resfinder	AF330699	ant(6)-Ia	Streptomycin
/hpc/dla_mm/jkerkvliet/data/gplas/newmodels/results/E_faecium/09_plasmidspades/GCF_015476295.1_ASM1547629v1/bin_component_0.fasta	NODE_12_length_9428_cov_188.524675_component_0	329	2935	+	VanHAX_2	1-2607/2607	===============	0/0	100.00	99.92	resfinder	M97297	VanHAX	Vancomycin;Teicoplanin
/hpc/dla_mm/jkerkvliet/data/gplas/newmodels/results/E_faecium/09_plasmidspades/GCF_015476295.1_ASM1547629v1/bin_component_0.fasta	NODE_13_length_8280_cov_29.439715_component_0	6981	8280	+	aac(6')-aph(2'')_1	1-1300/1440	==============.	0/0	90.28	99.54	resfinder	M13771	aac(6')-aph(2'')	Amikacin;Gentamicin;Tobramycin
/hpc/dla_mm/jkerkvliet/data/gplas/newmodels/results/E_faecium/09_plasmidspades/GCF_015476295.1_ASM1547629v1/bin_component_0.fasta	NODE_8_length_14313_cov_106.485831_component_0	11444	13363	+	tet(M)_12	1-1920/1920	===============	0/0	100.00	97.81	resfinder	FR671418	tet(M)	Doxycycline;Tetracycline;Minocycline
/hpc/dla_mm/jkerkvliet/data/gplas/newmodels/results/E_faecium/09_plasmidspades/GCF_019456575.1_ASM1945657v1/bin_component_0.fasta	NODE_3_length_26082_cov_145.811459_component_0	6790	9396	-	VanHAX_2	1-2607/2607	===============	0/0	100.00	100.00	resfinder	M97297	VanHAX	Vancomycin;Teicoplanin
/hpc/dla_mm/jkerkvliet/data/gplas/newmodels/results/E_faecium/09_plasmidspades/GCF_015325925.1_ASM1532592v1/bin_component_0.fasta	NODE_7_length_6165_cov_1386.328751_component_0	2021	2815	+	aph(3')-III_1	1-795/795	===============	0/0	100.00	100.00	resfinder	M26832	aph(3')-III	Amikacin
/hpc/dla_mm/jkerkvliet/data/gplas/newmodels/results/E_faecium/09_plasmidspades/GCF_015325925.1_ASM1532592v1/bin_component_0.fasta	NODE_7_length_6165_cov_1386.328751_component_0	3540	4302	+	erm(B)_18	1-762/762	========/======	1/1	100.00	99.08	resfinder	X66468	erm(B)	Erythromycin;Lincomycin;Clindamycin;Quinupristin;Pristinamycin_IA;Virginiamycin_S
/hpc/dla_mm/jkerkvliet/data/gplas/newmodels/results/E_faecium/09_plasmidspades/GCF_015325925.1_ASM1532592v1/bin_component_0.fasta	NODE_8_length_6160_cov_801.603514_component_0	613	1521	-	ant(6)-Ia_1	1-909/909	===============	0/0	100.00	100.00	resfinder	AF330699	ant(6)-Ia	Streptomycin
/hpc/dla_mm/jkerkvliet/data/gplas/newmodels/results/E_faecium/09_plasmidspades/GCF_015325925.1_ASM1532592v1/bin_component_0.fasta	NODE_8_length_6160_cov_801.603514_component_0	5029	5832	-	lnu(B)_2	1-804/804	===============	0/0	100.00	100.00	resfinder	JQ861959	lnu(B)	Lincomycin;Clindamycin
/hpc/dla_mm/jkerkvliet/data/gplas/newmodels/results/E_faecium/09_plasmidspades/GCF_021228615.1_ASM2122861v1/bin_component_0.fasta	NODE_17_length_3175_cov_117.190945_component_0	237	2843	-	VanHAX_2	1-2607/2607	===============	0/0	100.00	99.92	resfinder	M97297	VanHAX	Vancomycin;Teicoplanin
/hpc/dla_mm/jkerkvliet/data/gplas/newmodels/results/E_faecium/09_plasmidspades/GCF_021228615.1_ASM2122861v1/bin_component_0.fasta	NODE_5_length_7607_cov_111.648396_component_0	867	1661	-	aph(3')-III_1	1-795/795	===============	0/0	100.00	100.00	resfinder	M26832	aph(3')-III	Amikacin
/hpc/dla_mm/jkerkvliet/data/gplas/newmodels/results/E_faecium/09_plasmidspades/GCF_021228615.1_ASM2122861v1/bin_component_0.fasta	NODE_5_length_7607_cov_111.648396_component_0	2293	3205	-	ant(6)-Ia_1	1-909/909	========/======	1/4	100.00	99.56	resfinder	AF330699	ant(6)-Ia	Streptomycin
/hpc/dla_mm/jkerkvliet/data/gplas/newmodels/results/E_faecium/09_plasmidspades/GCF_021228615.1_ASM2122861v1/bin_component_0.fasta	NODE_5_length_7607_cov_111.648396_component_0	6464	7226	-	erm(B)_18	1-762/762	========/======	1/1	100.00	99.34	resfinder	X66468	erm(B)	Erythromycin;Lincomycin;Clindamycin;Quinupristin;Pristinamycin_IA;Virginiamycin_S
/hpc/dla_mm/jkerkvliet/data/gplas/newmodels/results/E_faecium/09_plasmidspades/GCF_023299325.1_ASM2329932v1/bin_component_0.fasta	NODE_10_length_7373_cov_131.877878_component_0	3851	5260	-	fexB_1	1-1410/1410	===============	0/0	100.00	100.00	resfinder	JN201336	fexB	Chloramphenicol;Florfenicol
/hpc/dla_mm/jkerkvliet/data/gplas/newmodels/results/E_faecium/09_plasmidspades/GCF_023299325.1_ASM2329932v1/bin_component_0.fasta	NODE_22_length_2459_cov_136.185139_component_0	778	2406	+	poxtA_1	1-1629/1629	===============	0/0	100.00	100.00	resfinder	MF095097	poxtA	Chloramphenicol;Florfenicol;Linezolid;Doxycycline;Tetracycline
/hpc/dla_mm/jkerkvliet/data/gplas/newmodels/results/E_faecium/09_plasmidspades/GCF_023299325.1_ASM2329932v1/bin_component_0.fasta	NODE_3_length_20048_cov_65.101647_component_0	8701	9564	+	ant(6)-Ia_2	1-864/864	===============	0/0	100.00	100.00	resfinder	KF421157	ant(6)-Ia	Streptomycin
/hpc/dla_mm/jkerkvliet/data/gplas/newmodels/results/E_faecium/09_plasmidspades/GCF_023299325.1_ASM2329932v1/bin_component_0.fasta	NODE_3_length_20048_cov_65.101647_component_0	13143	14627	+	lsa(E)_1	1-1485/1485	===============	0/0	100.00	100.00	resfinder	JX560992	lsa(E)	Lincomycin;Clindamycin;Dalfopristin;Pristinamycin_IIA;Virginiamycin_M;Tiamulin
/hpc/dla_mm/jkerkvliet/data/gplas/newmodels/results/E_faecium/09_plasmidspades/GCF_023299325.1_ASM2329932v1/bin_component_0.fasta	NODE_3_length_20048_cov_65.101647_component_0	14681	15484	+	lnu(B)_2	1-804/804	===============	0/0	100.00	100.00	resfinder	JQ861959	lnu(B)	Lincomycin;Clindamycin
/hpc/dla_mm/jkerkvliet/data/gplas/newmodels/results/E_faecium/09_plasmidspades/GCF_023299325.1_ASM2329932v1/bin_component_0.fasta	NODE_4_length_19974_cov_60.750214_component_0	1108	1605	+	dfrG_1	1-498/498	===============	0/0	100.00	100.00	resfinder	AB205645	dfrG	Trimethoprim
/hpc/dla_mm/jkerkvliet/data/gplas/newmodels/results/E_faecium/09_plasmidspades/GCF_023299325.1_ASM2329932v1/bin_component_0.fasta	NODE_7_length_12305_cov_78.973912_component_0	6282	6875	+	erm(A)_3	1-594/594	===============	0/0	100.00	100.00	resfinder	EU348758	erm(A)	Erythromycin;Lincomycin;Clindamycin;Quinupristin;Pristinamycin_IA;Virginiamycin_S
/hpc/dla_mm/jkerkvliet/data/gplas/newmodels/results/E_faecium/09_plasmidspades/GCF_023299325.1_ASM2329932v1/bin_component_0.fasta	NODE_7_length_12305_cov_78.973912_component_0	8337	10304	-	optrA_8	1-1968/1968	===============	0/0	100.00	100.00	resfinder	KT862782	optrA	Linezolid;Chloramphenicol;Florfenicol
/hpc/dla_mm/jkerkvliet/data/gplas/newmodels/results/E_faecium/09_plasmidspades/GCF_023299325.1_ASM2329932v1/bin_component_0.fasta	NODE_8_length_8020_cov_144.842629_component_0	2054	3973	+	tet(M)_10	1-1920/1920	===============	0/0	100.00	96.46	resfinder	EU182585	tet(M)	Doxycycline;Tetracycline;Minocycline
/hpc/dla_mm/jkerkvliet/data/gplas/newmodels/results/E_faecium/09_plasmidspades/GCF_023299325.1_ASM2329932v1/bin_component_0.fasta	NODE_8_length_8020_cov_144.842629_component_0	4167	5543	+	tet(L)_8	1-1377/1377	===============	0/0	100.00	99.56	resfinder	AY081910	tet(L)	Doxycycline;Tetracycline
/hpc/dla_mm/jkerkvliet/data/gplas/newmodels/results/E_faecium/09_plasmidspades/GCF_016415405.1_ASM1641540v1/bin_component_0.fasta	NODE_15_length_8445_cov_414.711401_component_0	332	1094	+	erm(B)_18	1-762/762	========/======	1/1	100.00	99.34	resfinder	X66468	erm(B)	Erythromycin;Lincomycin;Clindamycin;Quinupristin;Pristinamycin_IA;Virginiamycin_S
/hpc/dla_mm/jkerkvliet/data/gplas/newmodels/results/E_faecium/09_plasmidspades/GCF_016415405.1_ASM1641540v1/bin_component_0.fasta	NODE_15_length_8445_cov_414.711401_component_0	4353	5248	+	ant(6)-Ia_1	1-896/909	===============	0/0	98.57	100.00	resfinder	AF330699	ant(6)-Ia	Streptomycin
/hpc/dla_mm/jkerkvliet/data/gplas/newmodels/results/E_faecium/09_plasmidspades/GCF_016415405.1_ASM1641540v1/bin_component_0.fasta	NODE_15_length_8445_cov_414.711401_component_0	7513	8307	+	aph(3')-III_1	1-795/795	===============	0/0	100.00	99.87	resfinder	M26832	aph(3')-III	Amikacin
/hpc/dla_mm/jkerkvliet/data/gplas/newmodels/results/E_faecium/09_plasmidspades/GCF_016415405.1_ASM1641540v1/bin_component_0.fasta	NODE_18_length_7912_cov_377.706445_component_0	283	2889	+	VanHAX_2	1-2607/2607	===============	0/0	100.00	99.92	resfinder	M97297	VanHAX	Vancomycin;Teicoplanin
/hpc/dla_mm/jkerkvliet/data/gplas/newmodels/results/E_faecium/09_plasmidspades/GCF_016415405.1_ASM1641540v1/bin_component_0.fasta	NODE_3_length_38589_cov_180.063487_component_0	35860	36357	-	dfrG_1	1-498/498	===============	0/0	100.00	100.00	resfinder	AB205645	dfrG	Trimethoprim
/hpc/dla_mm/jkerkvliet/data/gplas/newmodels/results/E_faecium/09_plasmidspades/GCF_023299805.1_ASM2329980v1/bin_component_0.fasta	NODE_10_length_4209_cov_282.908035_component_0	2062	3471	+	fexB_1	1-1410/1410	===============	0/0	100.00	100.00	resfinder	JN201336	fexB	Chloramphenicol;Florfenicol
/hpc/dla_mm/jkerkvliet/data/gplas/newmodels/results/E_faecium/09_plasmidspades/GCF_023299805.1_ASM2329980v1/bin_component_0.fasta	NODE_17_length_2664_cov_279.876691_component_0	982	2610	+	poxtA_1	1-1629/1629	===============	0/0	100.00	100.00	resfinder	MF095097	poxtA	Chloramphenicol;Florfenicol;Linezolid;Doxycycline;Tetracycline
/hpc/dla_mm/jkerkvliet/data/gplas/newmodels/results/E_faecium/09_plasmidspades/GCF_023299805.1_ASM2329980v1/bin_component_0.fasta	NODE_1_length_27705_cov_96.722890_component_0	1221	1983	+	erm(B)_18	1-762/762	========/======	1/1	100.00	99.48	resfinder	X66468	erm(B)	Erythromycin;Lincomycin;Clindamycin;Quinupristin;Pristinamycin_IA;Virginiamycin_S
/hpc/dla_mm/jkerkvliet/data/gplas/newmodels/results/E_faecium/09_plasmidspades/GCF_023299805.1_ASM2329980v1/bin_component_0.fasta	NODE_3_length_18618_cov_96.251658_component_0	2381	4348	+	optrA_16	1-1968/1968	===============	0/0	100.00	100.00	resfinder	AMBD01000029	optrA	Linezolid;Chloramphenicol;Florfenicol
/hpc/dla_mm/jkerkvliet/data/gplas/newmodels/results/E_faecium/09_plasmidspades/GCF_023299805.1_ASM2329980v1/bin_component_0.fasta	NODE_6_length_10128_cov_95.851557_component_0	535	1962	+	fexA_1	1-1428/1428	===============	0/0	100.00	99.72	resfinder	AJ549214	fexA	Chloramphenicol;Florfenicol
/hpc/dla_mm/jkerkvliet/data/gplas/newmodels/results/E_faecium/09_plasmidspades/GCF_016406365.1_ASM1640636v1/bin_component_0.fasta	NODE_6_length_12609_cov_232.808809_component_0	157	1467	-	aac(6')-aph(2'')_1	130-1440/1440	.==============	0/0	91.04	100.00	resfinder	M13771	aac(6')-aph(2'')	Amikacin;Gentamicin;Tobramycin
/hpc/dla_mm/jkerkvliet/data/gplas/newmodels/results/E_faecium/09_plasmidspades/GCF_016415445.1_ASM1641544v1/bin_component_0.fasta	NODE_31_length_2999_cov_404.258385_component_0	283	2889	+	VanHAX_2	1-2607/2607	===============	0/0	100.00	99.92	resfinder	M97297	VanHAX	Vancomycin;Teicoplanin
/hpc/dla_mm/jkerkvliet/data/gplas/newmodels/results/E_faecium/09_plasmidspades/GCF_016415445.1_ASM1641544v1/bin_component_0.fasta	NODE_8_length_7557_cov_308.261364_component_0	871	1665	-	aph(3')-III_1	1-795/795	===============	0/0	100.00	100.00	resfinder	M26832	aph(3')-III	Amikacin
/hpc/dla_mm/jkerkvliet/data/gplas/newmodels/results/E_faecium/09_plasmidspades/GCF_016415445.1_ASM1641544v1/bin_component_0.fasta	NODE_8_length_7557_cov_308.261364_component_0	2297	3205	-	ant(6)-Ia_1	1-909/909	===============	0/0	100.00	100.00	resfinder	AF330699	ant(6)-Ia	Streptomycin
/hpc/dla_mm/jkerkvliet/data/gplas/newmodels/results/E_faecium/09_plasmidspades/GCF_016415445.1_ASM1641544v1/bin_component_0.fasta	NODE_8_length_7557_cov_308.261364_component_0	6464	7226	-	erm(B)_18	1-762/762	========/======	1/1	100.00	99.34	resfinder	X66468	erm(B)	Erythromycin;Lincomycin;Clindamycin;Quinupristin;Pristinamycin_IA;Virginiamycin_S
/hpc/dla_mm/jkerkvliet/data/gplas/newmodels/results/E_faecium/09_plasmidspades/GCF_016415365.1_ASM1641536v1/bin_component_0.fasta	NODE_18_length_2648_cov_351.112408_component_0	870	1664	-	aph(3')-III_1	1-795/795	===============	0/0	100.00	100.00	resfinder	M26832	aph(3')-III	Amikacin
/hpc/dla_mm/jkerkvliet/data/gplas/newmodels/results/E_faecium/09_plasmidspades/GCF_016415365.1_ASM1641536v1/bin_component_0.fasta	NODE_20_length_2584_cov_336.474272_component_0	1493	2255	-	erm(B)_18	1-762/762	========/======	1/1	100.00	99.34	resfinder	X66468	erm(B)	Erythromycin;Lincomycin;Clindamycin;Quinupristin;Pristinamycin_IA;Virginiamycin_S
/hpc/dla_mm/jkerkvliet/data/gplas/newmodels/results/E_faecium/09_plasmidspades/GCF_016415365.1_ASM1641536v1/bin_component_0.fasta	NODE_9_length_3409_cov_367.351140_component_0	282	2888	+	VanHAX_2	1-2607/2607	===============	0/0	100.00	99.92	resfinder	M97297	VanHAX	Vancomycin;Teicoplanin
/hpc/dla_mm/jkerkvliet/data/gplas/newmodels/results/E_faecium/09_plasmidspades/GCF_016406505.1_ASM1640650v1/bin_component_0.fasta	NODE_12_length_10264_cov_338.821537_component_0	5477	8083	-	VanHAX_2	1-2607/2607	===============	0/0	100.00	99.92	resfinder	M97297	VanHAX	Vancomycin;Teicoplanin
/hpc/dla_mm/jkerkvliet/data/gplas/newmodels/results/E_faecium/09_plasmidspades/GCF_016406505.1_ASM1640650v1/bin_component_0.fasta	NODE_22_length_6019_cov_284.190003_component_0	821	1615	-	aph(3')-III_1	1-795/795	===============	0/0	100.00	100.00	resfinder	M26832	aph(3')-III	Amikacin
/hpc/dla_mm/jkerkvliet/data/gplas/newmodels/results/E_faecium/09_plasmidspades/GCF_016406505.1_ASM1640650v1/bin_component_0.fasta	NODE_22_length_6019_cov_284.190003_component_0	2247	3155	-	ant(6)-Ia_1	1-909/909	===============	0/0	100.00	100.00	resfinder	AF330699	ant(6)-Ia	Streptomycin
/hpc/dla_mm/jkerkvliet/data/gplas/newmodels/results/E_faecium/09_plasmidspades/GCF_016406505.1_ASM1640650v1/bin_component_0.fasta	NODE_27_length_5072_cov_190.651051_component_0	3606	4916	+	aac(6')-aph(2'')_1	130-1440/1440	.==============	0/0	91.04	100.00	resfinder	M13771	aac(6')-aph(2'')	Amikacin;Gentamicin;Tobramycin
/hpc/dla_mm/jkerkvliet/data/gplas/newmodels/results/E_faecium/09_plasmidspades/GCF_016406505.1_ASM1640650v1/bin_component_0.fasta	NODE_52_length_1638_cov_263.275464_component_0	330	1092	+	erm(B)_18	1-762/762	========/======	1/1	100.00	99.34	resfinder	X66468	erm(B)	Erythromycin;Lincomycin;Clindamycin;Quinupristin;Pristinamycin_IA;Virginiamycin_S
/hpc/dla_mm/jkerkvliet/data/gplas/newmodels/results/E_faecium/09_plasmidspades/GCF_016406585.1_ASM1640658v1/bin_component_0.fasta	NODE_35_length_1135_cov_329.474480_component_0	78	805	-	erm(B)_18	1-727/762	========/======	1/1	95.41	99.31	resfinder	X66468	erm(B)	Erythromycin;Lincomycin;Clindamycin;Quinupristin;Pristinamycin_IA;Virginiamycin_S
/hpc/dla_mm/jkerkvliet/data/gplas/newmodels/results/E_faecium/09_plasmidspades/GCF_016406585.1_ASM1640658v1/bin_component_0.fasta	NODE_5_length_4903_cov_357.660381_component_0	283	2889	+	VanHAX_2	1-2607/2607	===============	0/0	100.00	99.92	resfinder	M97297	VanHAX	Vancomycin;Teicoplanin
/hpc/dla_mm/jkerkvliet/data/gplas/newmodels/results/E_faecium/09_plasmidspades/GCF_022648125.1_ASM2264812v1/bin_component_0.fasta	NODE_11_length_7456_cov_219.632877_component_0	332	1094	+	erm(B)_18	1-762/762	========/======	1/1	100.00	99.34	resfinder	X66468	erm(B)	Erythromycin;Lincomycin;Clindamycin;Quinupristin;Pristinamycin_IA;Virginiamycin_S
/hpc/dla_mm/jkerkvliet/data/gplas/newmodels/results/E_faecium/09_plasmidspades/GCF_022648125.1_ASM2264812v1/bin_component_0.fasta	NODE_11_length_7456_cov_219.632877_component_0	4353	5265	+	ant(6)-Ia_1	1-909/909	========/======	1/4	100.00	99.56	resfinder	AF330699	ant(6)-Ia	Streptomycin
/hpc/dla_mm/jkerkvliet/data/gplas/newmodels/results/E_faecium/09_plasmidspades/GCF_022648125.1_ASM2264812v1/bin_component_0.fasta	NODE_11_length_7456_cov_219.632877_component_0	5897	6691	+	aph(3')-III_1	1-795/795	===============	0/0	100.00	100.00	resfinder	M26832	aph(3')-III	Amikacin
/hpc/dla_mm/jkerkvliet/data/gplas/newmodels/results/E_faecium/09_plasmidspades/GCF_022648125.1_ASM2264812v1/bin_component_0.fasta	NODE_19_length_5252_cov_243.860676_component_0	3603	4913	+	aac(6')-aph(2'')_1	130-1440/1440	.==============	0/0	91.04	100.00	resfinder	M13771	aac(6')-aph(2'')	Amikacin;Gentamicin;Tobramycin
/hpc/dla_mm/jkerkvliet/data/gplas/newmodels/results/E_faecium/09_plasmidspades/GCF_022648125.1_ASM2264812v1/bin_component_0.fasta	NODE_34_length_3016_cov_223.821028_component_0	283	2889	+	VanHAX_2	1-2607/2607	===============	0/0	100.00	99.92	resfinder	M97297	VanHAX	Vancomycin;Teicoplanin
/hpc/dla_mm/jkerkvliet/data/gplas/newmodels/results/E_faecium/09_plasmidspades/GCF_023299745.1_ASM2329974v1/bin_component_0.fasta	NODE_16_length_2662_cov_110.111799_component_0	981	2609	+	poxtA_1	1-1629/1629	===============	0/0	100.00	100.00	resfinder	MF095097	poxtA	Chloramphenicol;Florfenicol;Linezolid;Doxycycline;Tetracycline
/hpc/dla_mm/jkerkvliet/data/gplas/newmodels/results/E_faecium/09_plasmidspades/GCF_023299745.1_ASM2329974v1/bin_component_0.fasta	NODE_18_length_2449_cov_50.940978_component_0	766	2205	+	aac(6')-aph(2'')_1	1-1440/1440	===============	0/0	100.00	100.00	resfinder	M13771	aac(6')-aph(2'')	Amikacin;Gentamicin;Tobramycin
/hpc/dla_mm/jkerkvliet/data/gplas/newmodels/results/E_faecium/09_plasmidspades/GCF_023299745.1_ASM2329974v1/bin_component_0.fasta	NODE_29_length_1040_cov_200.541018_component_0	140	902	+	erm(B)_18	1-762/762	========/======	1/1	100.00	99.21	resfinder	X66468	erm(B)	Erythromycin;Lincomycin;Clindamycin;Quinupristin;Pristinamycin_IA;Virginiamycin_S
/hpc/dla_mm/jkerkvliet/data/gplas/newmodels/results/E_faecium/09_plasmidspades/GCF_023299745.1_ASM2329974v1/bin_component_0.fasta	NODE_2_length_18274_cov_127.813486_component_0	15161	16570	-	fexB_1	1-1410/1410	===============	0/0	100.00	100.00	resfinder	JN201336	fexB	Chloramphenicol;Florfenicol
/hpc/dla_mm/jkerkvliet/data/gplas/newmodels/results/E_faecium/09_plasmidspades/GCF_023299745.1_ASM2329974v1/bin_component_0.fasta	NODE_3_length_9460_cov_116.207503_component_0	2052	3971	+	tet(M)_10	1-1920/1920	===============	0/0	100.00	96.46	resfinder	EU182585	tet(M)	Doxycycline;Tetracycline;Minocycline
/hpc/dla_mm/jkerkvliet/data/gplas/newmodels/results/E_faecium/09_plasmidspades/GCF_023299745.1_ASM2329974v1/bin_component_0.fasta	NODE_3_length_9460_cov_116.207503_component_0	4165	5541	+	tet(L)_8	1-1377/1377	===============	0/0	100.00	99.56	resfinder	AY081910	tet(L)	Doxycycline;Tetracycline
/hpc/dla_mm/jkerkvliet/data/gplas/newmodels/results/E_faecium/09_plasmidspades/GCF_020162155.1_ASM2016215v1/bin_component_0.fasta	NODE_16_length_4879_cov_102.141608_component_0	103	2709	-	VanHAX_2	1-2607/2607	===============	0/0	100.00	100.00	resfinder	M97297	VanHAX	Vancomycin;Teicoplanin
/hpc/dla_mm/jkerkvliet/data/gplas/newmodels/results/E_faecium/09_plasmidspades/GCF_020162155.1_ASM2016215v1/bin_component_0.fasta	NODE_23_length_3760_cov_75.931034_component_0	588	1496	-	ant(6)-Ia_1	1-909/909	===============	0/0	100.00	100.00	resfinder	AF330699	ant(6)-Ia	Streptomycin
/hpc/dla_mm/jkerkvliet/data/gplas/newmodels/results/E_faecium/09_plasmidspades/GCF_020162155.1_ASM2016215v1/bin_component_0.fasta	NODE_43_length_1854_cov_53.192459_component_0	1	1789	+	tet(M)_10	43-1831/1920	===============	0/0	93.18	97.54	resfinder	EU182585	tet(M)	Doxycycline;Tetracycline;Minocycline
/hpc/dla_mm/jkerkvliet/data/gplas/newmodels/results/E_faecium/09_plasmidspades/GCF_020162155.1_ASM2016215v1/bin_component_0.fasta	NODE_57_length_1223_cov_58.613438_component_0	248	1010	-	erm(B)_18	1-762/762	========/======	1/1	100.00	98.95	resfinder	X66468	erm(B)	Erythromycin;Lincomycin;Clindamycin;Quinupristin;Pristinamycin_IA;Virginiamycin_S
/hpc/dla_mm/jkerkvliet/data/gplas/newmodels/results/E_faecium/09_plasmidspades/GCF_020162155.1_ASM2016215v1/bin_component_0.fasta	NODE_6_length_11584_cov_92.588946_component_0	2932	3579	+	cat(pC221)_1	1-648/648	===============	0/0	100.00	97.69	resfinder	X02529	cat(pC221)	Chloramphenicol
/hpc/dla_mm/jkerkvliet/data/gplas/newmodels/results/E_faecium/09_plasmidspades/GCF_016415505.1_ASM1641550v1/bin_component_0.fasta	NODE_17_length_6019_cov_139.390273_component_0	821	1615	-	aph(3')-III_1	1-795/795	===============	0/0	100.00	100.00	resfinder	M26832	aph(3')-III	Amikacin
/hpc/dla_mm/jkerkvliet/data/gplas/newmodels/results/E_faecium/09_plasmidspades/GCF_016415505.1_ASM1641550v1/bin_component_0.fasta	NODE_17_length_6019_cov_139.390273_component_0	2247	3155	-	ant(6)-Ia_1	1-909/909	===============	0/0	100.00	100.00	resfinder	AF330699	ant(6)-Ia	Streptomycin
/hpc/dla_mm/jkerkvliet/data/gplas/newmodels/results/E_faecium/09_plasmidspades/GCF_016415505.1_ASM1641550v1/bin_component_0.fasta	NODE_21_length_5503_cov_155.245485_component_0	4037	5347	+	aac(6')-aph(2'')_1	130-1440/1440	.==============	0/0	91.04	100.00	resfinder	M13771	aac(6')-aph(2'')	Amikacin;Gentamicin;Tobramycin
/hpc/dla_mm/jkerkvliet/data/gplas/newmodels/results/E_faecium/09_plasmidspades/GCF_016415505.1_ASM1641550v1/bin_component_0.fasta	NODE_47_length_1638_cov_124.819987_component_0	331	1093	+	erm(B)_18	1-762/762	========/======	1/1	100.00	99.34	resfinder	X66468	erm(B)	Erythromycin;Lincomycin;Clindamycin;Quinupristin;Pristinamycin_IA;Virginiamycin_S
/hpc/dla_mm/jkerkvliet/data/gplas/newmodels/results/E_faecium/09_plasmidspades/GCF_016415505.1_ASM1641550v1/bin_component_0.fasta	NODE_8_length_9939_cov_145.627256_component_0	2365	4971	+	VanHAX_2	1-2607/2607	===============	0/0	100.00	99.92	resfinder	M97297	VanHAX	Vancomycin;Teicoplanin
/hpc/dla_mm/jkerkvliet/data/gplas/newmodels/results/E_faecium/09_plasmidspades/GCF_019456595.1_ASM1945659v1/bin_component_0.fasta	NODE_3_length_26082_cov_111.457912_component_0	6790	9396	-	VanHAX_2	1-2607/2607	===============	0/0	100.00	100.00	resfinder	M97297	VanHAX	Vancomycin;Teicoplanin
/hpc/dla_mm/jkerkvliet/data/gplas/newmodels/results/E_faecium/09_plasmidspades/GCF_016415425.1_ASM1641542v1/bin_component_0.fasta	NODE_22_length_7894_cov_157.278624_component_0	283	2889	+	VanHAX_2	1-2607/2607	===============	0/0	100.00	99.92	resfinder	M97297	VanHAX	Vancomycin;Teicoplanin
/hpc/dla_mm/jkerkvliet/data/gplas/newmodels/results/E_faecium/09_plasmidspades/GCF_016415425.1_ASM1641542v1/bin_component_0.fasta	NODE_25_length_6871_cov_126.937150_component_0	332	1094	+	erm(B)_18	1-762/762	========/======	1/1	100.00	99.34	resfinder	X66468	erm(B)	Erythromycin;Lincomycin;Clindamycin;Quinupristin;Pristinamycin_IA;Virginiamycin_S
/hpc/dla_mm/jkerkvliet/data/gplas/newmodels/results/E_faecium/09_plasmidspades/GCF_016415425.1_ASM1641542v1/bin_component_0.fasta	NODE_25_length_6871_cov_126.937150_component_0	4353	5261	+	ant(6)-Ia_1	1-909/909	===============	0/0	100.00	99.89	resfinder	AF330699	ant(6)-Ia	Streptomycin
/hpc/dla_mm/jkerkvliet/data/gplas/newmodels/results/E_faecium/09_plasmidspades/GCF_016415425.1_ASM1641542v1/bin_component_0.fasta	NODE_25_length_6871_cov_126.937150_component_0	5893	6687	+	aph(3')-III_1	1-795/795	===============	0/0	100.00	99.87	resfinder	M26832	aph(3')-III	Amikacin
/hpc/dla_mm/jkerkvliet/data/gplas/newmodels/results/E_faecium/09_plasmidspades/GCF_016415425.1_ASM1641542v1/bin_component_0.fasta	NODE_33_length_3752_cov_241.525170_component_0	509	1819	+	aac(6')-aph(2'')_1	130-1440/1440	.==============	0/0	91.04	100.00	resfinder	M13771	aac(6')-aph(2'')	Amikacin;Gentamicin;Tobramycin
/hpc/dla_mm/jkerkvliet/data/gplas/newmodels/results/E_faecium/09_plasmidspades/GCF_016415325.1_ASM1641532v1/bin_component_0.fasta	NODE_5_length_7912_cov_182.330313_component_0	283	2889	+	VanHAX_2	1-2607/2607	===============	0/0	100.00	99.92	resfinder	M97297	VanHAX	Vancomycin;Teicoplanin
/hpc/dla_mm/jkerkvliet/data/gplas/newmodels/results/E_faecium/09_plasmidspades/GCF_016415325.1_ASM1641532v1/bin_component_0.fasta	NODE_7_length_6826_cov_175.082975_component_0	140	934	-	aph(3')-III_1	1-795/795	===============	0/0	100.00	99.87	resfinder	M26832	aph(3')-III	Amikacin
/hpc/dla_mm/jkerkvliet/data/gplas/newmodels/results/E_faecium/09_plasmidspades/GCF_016415325.1_ASM1641532v1/bin_component_0.fasta	NODE_7_length_6826_cov_175.082975_component_0	1566	2474	-	ant(6)-Ia_1	1-909/909	===============	0/0	100.00	99.89	resfinder	AF330699	ant(6)-Ia	Streptomycin
/hpc/dla_mm/jkerkvliet/data/gplas/newmodels/results/E_faecium/09_plasmidspades/GCF_016415325.1_ASM1641532v1/bin_component_0.fasta	NODE_7_length_6826_cov_175.082975_component_0	5733	6495	-	erm(B)_18	1-762/762	========/======	1/1	100.00	99.34	resfinder	X66468	erm(B)	Erythromycin;Lincomycin;Clindamycin;Quinupristin;Pristinamycin_IA;Virginiamycin_S
/hpc/dla_mm/jkerkvliet/data/gplas/newmodels/results/E_faecium/09_plasmidspades/GCF_016415545.1_ASM1641554v1/bin_component_0.fasta	NODE_14_length_3409_cov_232.045018_component_0	283	2889	+	VanHAX_2	1-2607/2607	===============	0/0	100.00	99.92	resfinder	M97297	VanHAX	Vancomycin;Teicoplanin
/hpc/dla_mm/jkerkvliet/data/gplas/newmodels/results/E_faecium/09_plasmidspades/GCF_016415545.1_ASM1641554v1/bin_component_0.fasta	NODE_2_length_28761_cov_93.390671_component_0	264	2183	+	tet(M)_10	1-1920/1920	===============	0/0	100.00	96.56	resfinder	EU182585	tet(M)	Doxycycline;Tetracycline;Minocycline
/hpc/dla_mm/jkerkvliet/data/gplas/newmodels/results/E_faecium/09_plasmidspades/GCF_016126675.1_ASM1612667v1/bin_component_0.fasta	NODE_3_length_10128_cov_404.213412_component_0	226	1020	-	aph(3')-III_1	1-795/795	===============	0/0	100.00	99.87	resfinder	M26832	aph(3')-III	Amikacin
/hpc/dla_mm/jkerkvliet/data/gplas/newmodels/results/E_faecium/09_plasmidspades/GCF_016126675.1_ASM1612667v1/bin_component_0.fasta	NODE_4_length_8000_cov_340.095671_component_0	5112	7718	-	VanHAX_2	1-2607/2607	===============	0/0	100.00	99.92	resfinder	M97297	VanHAX	Vancomycin;Teicoplanin
/hpc/dla_mm/jkerkvliet/data/gplas/newmodels/results/E_faecium/09_plasmidspades/GCF_016126675.1_ASM1612667v1/bin_component_0.fasta	NODE_6_length_5326_cov_309.725853_component_0	332	1094	+	erm(B)_18	1-762/762	========/======	1/1	100.00	99.34	resfinder	X66468	erm(B)	Erythromycin;Lincomycin;Clindamycin;Quinupristin;Pristinamycin_IA;Virginiamycin_S
/hpc/dla_mm/jkerkvliet/data/gplas/newmodels/results/E_faecium/09_plasmidspades/GCF_016126675.1_ASM1612667v1/bin_component_0.fasta	NODE_6_length_5326_cov_309.725853_component_0	4353	5255	+	ant(6)-Ia_1	1-896/909	========/======	1/7	98.57	99.22	resfinder	AF330699	ant(6)-Ia	Streptomycin
/hpc/dla_mm/jkerkvliet/data/gplas/newmodels/results/E_faecium/09_plasmidspades/GCF_019175445.1_ASM1917544v1/bin_component_0.fasta	NODE_2_length_4063_cov_86.061967_component_0	596	1358	-	erm(B)_18	1-762/762	========/======	1/1	100.00	99.08	resfinder	X66468	erm(B)	Erythromycin;Lincomycin;Clindamycin;Quinupristin;Pristinamycin_IA;Virginiamycin_S
/hpc/dla_mm/jkerkvliet/data/gplas/newmodels/results/E_faecium/09_plasmidspades/GCF_015999405.1_ASM1599940v1/bin_component_0.fasta	NODE_42_length_1411_cov_152.375389_component_0	407	1285	-	ant(6)-Ia_1	31-909/909	===============	0/0	96.70	100.00	resfinder	AF330699	ant(6)-Ia	Streptomycin
/hpc/dla_mm/jkerkvliet/data/gplas/newmodels/results/E_faecium/09_plasmidspades/GCF_015999405.1_ASM1599940v1/bin_component_0.fasta	NODE_4_length_11694_cov_186.998530_component_0	7420	8214	+	aph(3')-III_1	1-795/795	===============	0/0	100.00	100.00	resfinder	M26832	aph(3')-III	Amikacin
/hpc/dla_mm/jkerkvliet/data/gplas/newmodels/results/E_faecium/09_plasmidspades/GCF_015999405.1_ASM1599940v1/bin_component_0.fasta	NODE_4_length_11694_cov_186.998530_component_0	8939	9701	+	erm(B)_18	1-762/762	========/======	1/1	100.00	99.08	resfinder	X66468	erm(B)	Erythromycin;Lincomycin;Clindamycin;Quinupristin;Pristinamycin_IA;Virginiamycin_S
/hpc/dla_mm/jkerkvliet/data/gplas/newmodels/results/E_faecium/09_plasmidspades/GCF_016406605.1_ASM1640660v1/bin_component_0.fasta	NODE_27_length_1638_cov_224.964126_component_0	547	1309	-	erm(B)_18	1-762/762	========/======	1/1	100.00	99.34	resfinder	X66468	erm(B)	Erythromycin;Lincomycin;Clindamycin;Quinupristin;Pristinamycin_IA;Virginiamycin_S
/hpc/dla_mm/jkerkvliet/data/gplas/newmodels/results/E_faecium/09_plasmidspades/GCF_016406605.1_ASM1640660v1/bin_component_0.fasta	NODE_2_length_10681_cov_291.222840_component_0	5308	7914	-	VanHAX_2	1-2607/2607	===============	0/0	100.00	99.92	resfinder	M97297	VanHAX	Vancomycin;Teicoplanin
/hpc/dla_mm/jkerkvliet/data/gplas/newmodels/results/E_faecium/09_plasmidspades/GCF_016406605.1_ASM1640660v1/bin_component_0.fasta	NODE_6_length_6019_cov_230.320094_component_0	821	1615	-	aph(3')-III_1	1-795/795	===============	0/0	100.00	100.00	resfinder	M26832	aph(3')-III	Amikacin
/hpc/dla_mm/jkerkvliet/data/gplas/newmodels/results/E_faecium/09_plasmidspades/GCF_016406605.1_ASM1640660v1/bin_component_0.fasta	NODE_6_length_6019_cov_230.320094_component_0	2247	3155	-	ant(6)-Ia_1	1-909/909	===============	0/0	100.00	100.00	resfinder	AF330699	ant(6)-Ia	Streptomycin
/hpc/dla_mm/jkerkvliet/data/gplas/newmodels/results/E_faecium/09_plasmidspades/GCF_019175525.1_ASM1917552v1/bin_component_1.fasta	NODE_2_length_35732_cov_43.440359_component_1	26462	27224	+	erm(B)_18	1-762/762	========/======	1/1	100.00	99.61	resfinder	X66468	erm(B)	Erythromycin;Lincomycin;Clindamycin;Quinupristin;Pristinamycin_IA;Virginiamycin_S
/hpc/dla_mm/jkerkvliet/data/gplas/newmodels/results/E_faecium/09_plasmidspades/GCF_019175525.1_ASM1917552v1/bin_component_1.fasta	NODE_2_length_35732_cov_43.440359_component_1	29524	30951	+	fexA_1	1-1428/1428	===============	0/0	100.00	99.72	resfinder	AJ549214	fexA	Chloramphenicol;Florfenicol
/hpc/dla_mm/jkerkvliet/data/gplas/newmodels/results/E_faecium/09_plasmidspades/GCF_019175525.1_ASM1917552v1/bin_component_1.fasta	NODE_2_length_35732_cov_43.440359_component_1	32202	34169	+	optrA_9	1-1968/1968	===============	0/0	100.00	99.90	resfinder	KT892063	optrA	Linezolid;Chloramphenicol;Florfenicol
/hpc/dla_mm/jkerkvliet/data/gplas/newmodels/results/E_faecium/09_plasmidspades/GCF_019175525.1_ASM1917552v1/bin_component_1.fasta	NODE_2_length_35732_cov_43.440359_component_1	34389	35171	+	ant(9)-Ia_1	1-783/783	===============	0/0	100.00	100.00	resfinder	X02588	ant(9)-Ia	
/hpc/dla_mm/jkerkvliet/data/gplas/newmodels/results/E_faecium/09_plasmidspades/GCF_016406485.1_ASM1640648v1/bin_component_0.fasta	NODE_12_length_4152_cov_516.078037_component_0	1265	3871	-	VanHAX_2	1-2607/2607	===============	0/0	100.00	99.92	resfinder	M97297	VanHAX	Vancomycin;Teicoplanin
/hpc/dla_mm/jkerkvliet/data/gplas/newmodels/results/E_faecium/09_plasmidspades/GCF_016406485.1_ASM1640648v1/bin_component_0.fasta	NODE_4_length_7501_cov_330.084860_component_0	817	1611	-	aph(3')-III_1	1-795/795	===============	0/0	100.00	99.87	resfinder	M26832	aph(3')-III	Amikacin
/hpc/dla_mm/jkerkvliet/data/gplas/newmodels/results/E_faecium/09_plasmidspades/GCF_016406485.1_ASM1640648v1/bin_component_0.fasta	NODE_4_length_7501_cov_330.084860_component_0	2243	3151	-	ant(6)-Ia_1	1-909/909	===============	0/0	100.00	100.00	resfinder	AF330699	ant(6)-Ia	Streptomycin
/hpc/dla_mm/jkerkvliet/data/gplas/newmodels/results/E_faecium/09_plasmidspades/GCF_016406485.1_ASM1640648v1/bin_component_0.fasta	NODE_4_length_7501_cov_330.084860_component_0	6410	7172	-	erm(B)_18	1-762/762	========/======	1/1	100.00	99.34	resfinder	X66468	erm(B)	Erythromycin;Lincomycin;Clindamycin;Quinupristin;Pristinamycin_IA;Virginiamycin_S
/hpc/dla_mm/jkerkvliet/data/gplas/newmodels/results/E_faecium/09_plasmidspades/GCF_016415385.1_ASM1641538v1/bin_component_0.fasta	NODE_14_length_13684_cov_183.834276_component_0	6105	7583	+	msr(C)_1	1-1479/1479	===============	0/0	100.00	98.99	resfinder	AY004350	msr(C)	Erythromycin;Telithromycin;Quinupristin;Pristinamycin_IA;Virginiamycin_S
/hpc/dla_mm/jkerkvliet/data/gplas/newmodels/results/E_faecium/09_plasmidspades/GCF_016415385.1_ASM1641538v1/bin_component_0.fasta	NODE_1_length_104919_cov_202.252008_component_0	73612	75531	-	tet(M)_7	1-1920/1920	===============	0/0	100.00	100.00	resfinder	FN433596	tet(M)	Doxycycline;Tetracycline;Minocycline
/hpc/dla_mm/jkerkvliet/data/gplas/newmodels/results/E_faecium/09_plasmidspades/GCF_016415385.1_ASM1641538v1/bin_component_0.fasta	NODE_35_length_3753_cov_582.042165_component_0	1935	3245	-	aac(6')-aph(2'')_1	130-1440/1440	.==============	0/0	91.04	100.00	resfinder	M13771	aac(6')-aph(2'')	Amikacin;Gentamicin;Tobramycin
/hpc/dla_mm/jkerkvliet/data/gplas/newmodels/results/E_faecium/09_plasmidspades/GCF_016415385.1_ASM1641538v1/bin_component_0.fasta	NODE_37_length_3409_cov_545.434574_component_0	282	2888	+	VanHAX_2	1-2607/2607	===============	0/0	100.00	99.92	resfinder	M97297	VanHAX	Vancomycin;Teicoplanin
/hpc/dla_mm/jkerkvliet/data/gplas/newmodels/results/E_faecium/09_plasmidspades/GCF_016415385.1_ASM1641538v1/bin_component_0.fasta	NODE_47_length_2647_cov_562.182490_component_0	869	1663	-	aph(3')-III_1	1-795/795	===============	0/0	100.00	100.00	resfinder	M26832	aph(3')-III	Amikacin
/hpc/dla_mm/jkerkvliet/data/gplas/newmodels/results/E_faecium/09_plasmidspades/GCF_016415385.1_ASM1641538v1/bin_component_0.fasta	NODE_49_length_2584_cov_542.297168_component_0	1493	2255	-	erm(B)_18	1-762/762	========/======	1/1	100.00	99.34	resfinder	X66468	erm(B)	Erythromycin;Lincomycin;Clindamycin;Quinupristin;Pristinamycin_IA;Virginiamycin_S
/hpc/dla_mm/jkerkvliet/data/gplas/newmodels/results/E_faecium/09_plasmidspades/GCF_016406565.1_ASM1640656v1/bin_component_0.fasta	NODE_2_length_7912_cov_175.605233_component_0	283	2889	+	VanHAX_2	1-2607/2607	===============	0/0	100.00	99.92	resfinder	M97297	VanHAX	Vancomycin;Teicoplanin
/hpc/dla_mm/jkerkvliet/data/gplas/newmodels/results/E_faecium/09_plasmidspades/GCF_016406565.1_ASM1640656v1/bin_component_0.fasta	NODE_5_length_6826_cov_173.913172_component_0	140	934	-	aph(3')-III_1	1-795/795	===============	0/0	100.00	99.87	resfinder	M26832	aph(3')-III	Amikacin
/hpc/dla_mm/jkerkvliet/data/gplas/newmodels/results/E_faecium/09_plasmidspades/GCF_016406565.1_ASM1640656v1/bin_component_0.fasta	NODE_5_length_6826_cov_173.913172_component_0	1566	2474	-	ant(6)-Ia_1	1-909/909	===============	0/0	100.00	99.89	resfinder	AF330699	ant(6)-Ia	Streptomycin
/hpc/dla_mm/jkerkvliet/data/gplas/newmodels/results/E_faecium/09_plasmidspades/GCF_016406565.1_ASM1640656v1/bin_component_0.fasta	NODE_5_length_6826_cov_173.913172_component_0	5733	6495	-	erm(B)_18	1-762/762	========/======	1/1	100.00	99.34	resfinder	X66468	erm(B)	Erythromycin;Lincomycin;Clindamycin;Quinupristin;Pristinamycin_IA;Virginiamycin_S
/hpc/dla_mm/jkerkvliet/data/gplas/newmodels/results/E_faecium/09_plasmidspades/GCF_016406405.1_ASM1640640v1/bin_component_0.fasta	NODE_14_length_6826_cov_151.072011_component_0	332	1094	+	erm(B)_18	1-762/762	========/======	1/1	100.00	99.34	resfinder	X66468	erm(B)	Erythromycin;Lincomycin;Clindamycin;Quinupristin;Pristinamycin_IA;Virginiamycin_S
/hpc/dla_mm/jkerkvliet/data/gplas/newmodels/results/E_faecium/09_plasmidspades/GCF_016406405.1_ASM1640640v1/bin_component_0.fasta	NODE_14_length_6826_cov_151.072011_component_0	4353	5261	+	ant(6)-Ia_1	1-909/909	===============	0/0	100.00	100.00	resfinder	AF330699	ant(6)-Ia	Streptomycin
/hpc/dla_mm/jkerkvliet/data/gplas/newmodels/results/E_faecium/09_plasmidspades/GCF_016406405.1_ASM1640640v1/bin_component_0.fasta	NODE_14_length_6826_cov_151.072011_component_0	5893	6687	+	aph(3')-III_1	1-795/795	===============	0/0	100.00	99.87	resfinder	M26832	aph(3')-III	Amikacin
/hpc/dla_mm/jkerkvliet/data/gplas/newmodels/results/E_faecium/09_plasmidspades/GCF_016406405.1_ASM1640640v1/bin_component_0.fasta	NODE_2_length_38589_cov_129.966140_component_0	2233	2730	+	dfrG_1	1-498/498	===============	0/0	100.00	100.00	resfinder	AB205645	dfrG	Trimethoprim
/hpc/dla_mm/jkerkvliet/data/gplas/newmodels/results/E_faecium/09_plasmidspades/GCF_016406405.1_ASM1640640v1/bin_component_0.fasta	NODE_9_length_7911_cov_155.782997_component_0	5024	7630	-	VanHAX_2	1-2607/2607	===============	0/0	100.00	99.92	resfinder	M97297	VanHAX	Vancomycin;Teicoplanin
/hpc/dla_mm/jkerkvliet/data/gplas/newmodels/results/E_faecium/09_plasmidspades/GCF_016415565.1_ASM1641556v1/bin_component_0.fasta	NODE_17_length_2999_cov_171.424367_component_0	283	2889	+	VanHAX_2	1-2607/2607	===============	0/0	100.00	99.92	resfinder	M97297	VanHAX	Vancomycin;Teicoplanin
/hpc/dla_mm/jkerkvliet/data/gplas/newmodels/results/E_faecium/09_plasmidspades/GCF_016415565.1_ASM1641556v1/bin_component_0.fasta	NODE_5_length_8189_cov_239.079265_component_0	555	1317	+	erm(B)_18	1-762/762	========/======	1/1	100.00	99.34	resfinder	X66468	erm(B)	Erythromycin;Lincomycin;Clindamycin;Quinupristin;Pristinamycin_IA;Virginiamycin_S
/hpc/dla_mm/jkerkvliet/data/gplas/newmodels/results/E_faecium/09_plasmidspades/GCF_016415565.1_ASM1641556v1/bin_component_0.fasta	NODE_5_length_8189_cov_239.079265_component_0	4576	5484	+	ant(6)-Ia_1	1-909/909	===============	0/0	100.00	100.00	resfinder	AF330699	ant(6)-Ia	Streptomycin
/hpc/dla_mm/jkerkvliet/data/gplas/newmodels/results/E_faecium/09_plasmidspades/GCF_016415565.1_ASM1641556v1/bin_component_0.fasta	NODE_5_length_8189_cov_239.079265_component_0	6116	6910	+	aph(3')-III_1	1-795/795	===============	0/0	100.00	100.00	resfinder	M26832	aph(3')-III	Amikacin
/hpc/dla_mm/jkerkvliet/data/gplas/newmodels/results/E_faecium/09_plasmidspades/GCF_907177285.1_USZ_VRE53_P46_hybrid_assembly/bin_component_0.fasta	NODE_10_length_3442_cov_90.897134_component_0	141	1379	+	aac(6')-aph(2'')_1	130-1368/1440	.==============	0/0	86.04	99.92	resfinder	M13771	aac(6')-aph(2'')	Amikacin;Gentamicin;Tobramycin
/hpc/dla_mm/jkerkvliet/data/gplas/newmodels/results/E_faecium/09_plasmidspades/GCF_907177285.1_USZ_VRE53_P46_hybrid_assembly/bin_component_0.fasta	NODE_10_length_3442_cov_90.897134_component_0	1753	3192	+	aac(6')-aph(2'')_1	1-1440/1440	===============	0/0	100.00	99.93	resfinder	M13771	aac(6')-aph(2'')	Amikacin;Gentamicin;Tobramycin
/hpc/dla_mm/jkerkvliet/data/gplas/newmodels/results/E_faecium/09_plasmidspades/GCF_019977575.1_ASM1997757v1/bin_component_1.fasta	NODE_2_length_30068_cov_64.157744_component_1	10168	12777	+	VanHDX_1	1-2607/2607	========/======	1/3	100.00	98.97	resfinder	AF130997	VanHDX	Vancomycin;Teicoplanin
/hpc/dla_mm/jkerkvliet/data/gplas/newmodels/results/E_faecium/09_plasmidspades/GCF_019977575.1_ASM1997757v1/bin_component_0.fasta	NODE_15_length_4041_cov_45.238631_component_0	744	1241	+	dfrG_1	1-498/498	===============	0/0	100.00	100.00	resfinder	AB205645	dfrG	Trimethoprim
/hpc/dla_mm/jkerkvliet/data/gplas/newmodels/results/E_faecium/09_plasmidspades/GCF_019175465.1_ASM1917546v1/bin_component_0.fasta	NODE_2_length_5488_cov_121.651451_component_0	930	2849	+	tet(M)_10	1-1920/1920	===============	0/0	100.00	96.46	resfinder	EU182585	tet(M)	Doxycycline;Tetracycline;Minocycline
/hpc/dla_mm/jkerkvliet/data/gplas/newmodels/results/E_faecium/09_plasmidspades/GCF_019175465.1_ASM1917546v1/bin_component_0.fasta	NODE_2_length_5488_cov_121.651451_component_0	3043	4419	+	tet(L)_2	1-1377/1377	===============	0/0	100.00	99.93	resfinder	M29725	tet(L)	Doxycycline;Tetracycline
/hpc/dla_mm/jkerkvliet/data/gplas/newmodels/results/E_faecium/09_plasmidspades/GCF_019175465.1_ASM1917546v1/bin_component_0.fasta	NODE_3_length_4247_cov_363.736930_component_0	739	2148	-	fexB_1	1-1410/1410	===============	0/0	100.00	100.00	resfinder	JN201336	fexB	Chloramphenicol;Florfenicol
/hpc/dla_mm/jkerkvliet/data/gplas/newmodels/results/E_faecium/09_plasmidspades/GCF_019175465.1_ASM1917546v1/bin_component_0.fasta	NODE_5_length_2665_cov_367.568393_component_0	981	2609	+	poxtA_1	1-1629/1629	===============	0/0	100.00	100.00	resfinder	MF095097	poxtA	Chloramphenicol;Florfenicol;Linezolid;Doxycycline;Tetracycline
/hpc/dla_mm/jkerkvliet/data/gplas/newmodels/results/E_faecium/09_plasmidspades/GCF_019456555.1_ASM1945655v1/bin_component_0.fasta	NODE_3_length_26082_cov_74.961892_component_0	16687	19293	+	VanHAX_2	1-2607/2607	===============	0/0	100.00	100.00	resfinder	M97297	VanHAX	Vancomycin;Teicoplanin
/hpc/dla_mm/jkerkvliet/data/gplas/newmodels/results/E_faecium/09_plasmidspades/GCF_016406525.1_ASM1640652v1/bin_component_0.fasta	NODE_2_length_7911_cov_209.551698_component_0	283	2889	+	VanHAX_2	1-2607/2607	===============	0/0	100.00	99.92	resfinder	M97297	VanHAX	Vancomycin;Teicoplanin
/hpc/dla_mm/jkerkvliet/data/gplas/newmodels/results/E_faecium/09_plasmidspades/GCF_016406525.1_ASM1640652v1/bin_component_0.fasta	NODE_3_length_6905_cov_215.158758_component_0	140	934	-	aph(3')-III_1	1-795/795	===============	0/0	100.00	99.87	resfinder	M26832	aph(3')-III	Amikacin
/hpc/dla_mm/jkerkvliet/data/gplas/newmodels/results/E_faecium/09_plasmidspades/GCF_016406525.1_ASM1640652v1/bin_component_0.fasta	NODE_3_length_6905_cov_215.158758_component_0	1566	2474	-	ant(6)-Ia_1	1-909/909	===============	0/0	100.00	99.89	resfinder	AF330699	ant(6)-Ia	Streptomycin
/hpc/dla_mm/jkerkvliet/data/gplas/newmodels/results/E_faecium/09_plasmidspades/GCF_016406525.1_ASM1640652v1/bin_component_0.fasta	NODE_3_length_6905_cov_215.158758_component_0	5733	6495	-	erm(B)_18	1-762/762	========/======	1/1	100.00	99.34	resfinder	X66468	erm(B)	Erythromycin;Lincomycin;Clindamycin;Quinupristin;Pristinamycin_IA;Virginiamycin_S
/hpc/dla_mm/jkerkvliet/data/gplas/newmodels/results/E_faecium/09_plasmidspades/GCF_016406385.1_ASM1640638v1/bin_component_0.fasta	NODE_24_length_1640_cov_134.193218_component_0	332	1094	+	erm(B)_18	1-762/762	========/======	1/1	100.00	99.34	resfinder	X66468	erm(B)	Erythromycin;Lincomycin;Clindamycin;Quinupristin;Pristinamycin_IA;Virginiamycin_S
/hpc/dla_mm/jkerkvliet/data/gplas/newmodels/results/E_faecium/09_plasmidspades/GCF_016406385.1_ASM1640638v1/bin_component_0.fasta	NODE_3_length_8196_cov_171.718192_component_0	283	2889	+	VanHAX_2	1-2607/2607	===============	0/0	100.00	99.92	resfinder	M97297	VanHAX	Vancomycin;Teicoplanin
/hpc/dla_mm/jkerkvliet/data/gplas/newmodels/results/E_faecium/09_plasmidspades/GCF_016406385.1_ASM1640638v1/bin_component_0.fasta	NODE_7_length_6080_cov_145.809262_component_0	2873	3785	+	ant(6)-Ia_1	1-909/909	========/======	1/4	100.00	99.56	resfinder	AF330699	ant(6)-Ia	Streptomycin
/hpc/dla_mm/jkerkvliet/data/gplas/newmodels/results/E_faecium/09_plasmidspades/GCF_016406385.1_ASM1640638v1/bin_component_0.fasta	NODE_7_length_6080_cov_145.809262_component_0	4417	5211	+	aph(3')-III_1	1-795/795	===============	0/0	100.00	100.00	resfinder	M26832	aph(3')-III	Amikacin
/hpc/dla_mm/jkerkvliet/data/gplas/newmodels/results/E_faecium/09_plasmidspades/GCF_023299725.1_ASM2329972v1/bin_component_0.fasta	NODE_11_length_2662_cov_551.654545_component_0	54	1682	-	poxtA_1	1-1629/1629	===============	0/0	100.00	100.00	resfinder	MF095097	poxtA	Chloramphenicol;Florfenicol;Linezolid;Doxycycline;Tetracycline
/hpc/dla_mm/jkerkvliet/data/gplas/newmodels/results/E_faecium/09_plasmidspades/GCF_023299725.1_ASM2329972v1/bin_component_0.fasta	NODE_14_length_1961_cov_147.676752_component_0	178	825	+	cat(pC233)_1	1-648/648	===============	0/0	100.00	100.00	resfinder	AY355285	cat(pC233)	Chloramphenicol
/hpc/dla_mm/jkerkvliet/data/gplas/newmodels/results/E_faecium/09_plasmidspades/GCF_023299725.1_ASM2329972v1/bin_component_0.fasta	NODE_2_length_9157_cov_173.349559_component_0	408	1202	-	aph(3')-III_1	1-795/795	===============	0/0	100.00	100.00	resfinder	M26832	aph(3')-III	Amikacin
/hpc/dla_mm/jkerkvliet/data/gplas/newmodels/results/E_faecium/09_plasmidspades/GCF_023299725.1_ASM2329972v1/bin_component_0.fasta	NODE_2_length_9157_cov_173.349559_component_0	1834	2742	-	ant(6)-Ia_1	1-909/909	===============	0/0	100.00	100.00	resfinder	AF330699	ant(6)-Ia	Streptomycin
/hpc/dla_mm/jkerkvliet/data/gplas/newmodels/results/E_faecium/09_plasmidspades/GCF_023299725.1_ASM2329972v1/bin_component_0.fasta	NODE_2_length_9157_cov_173.349559_component_0	7523	8285	-	erm(B)_18	1-762/762	========/======	1/1	100.00	99.48	resfinder	X66468	erm(B)	Erythromycin;Lincomycin;Clindamycin;Quinupristin;Pristinamycin_IA;Virginiamycin_S
/hpc/dla_mm/jkerkvliet/data/gplas/newmodels/results/E_faecium/09_plasmidspades/GCF_023299725.1_ASM2329972v1/bin_component_0.fasta	NODE_4_length_5570_cov_293.770253_component_0	2451	3827	-	tet(L)_2	1-1377/1377	===============	0/0	100.00	100.00	resfinder	M29725	tet(L)	Doxycycline;Tetracycline
/hpc/dla_mm/jkerkvliet/data/gplas/newmodels/results/E_faecium/09_plasmidspades/GCF_023299725.1_ASM2329972v1/bin_component_0.fasta	NODE_4_length_5570_cov_293.770253_component_0	4021	5570	-	tet(M)_1	371-1920/1920	..=============	0/0	80.73	99.74	resfinder	X92947	tet(M)	Doxycycline;Tetracycline;Minocycline
/hpc/dla_mm/jkerkvliet/data/gplas/newmodels/results/E_faecium/09_plasmidspades/GCF_023299725.1_ASM2329972v1/bin_component_0.fasta	NODE_6_length_5166_cov_562.074278_component_0	2114	3523	+	fexB_1	1-1410/1410	===============	0/0	100.00	100.00	resfinder	JN201336	fexB	Chloramphenicol;Florfenicol
/hpc/dla_mm/jkerkvliet/data/gplas/newmodels/results/E_faecium/09_plasmidspades/GCF_016415465.1_ASM1641546v1/bin_component_0.fasta	NODE_2_length_7912_cov_165.201914_component_0	283	2889	+	VanHAX_2	1-2607/2607	===============	0/0	100.00	99.92	resfinder	M97297	VanHAX	Vancomycin;Teicoplanin
/hpc/dla_mm/jkerkvliet/data/gplas/newmodels/results/E_faecium/09_plasmidspades/GCF_016415465.1_ASM1641546v1/bin_component_0.fasta	NODE_4_length_6826_cov_158.846644_component_0	140	934	-	aph(3')-III_1	1-795/795	===============	0/0	100.00	99.87	resfinder	M26832	aph(3')-III	Amikacin
/hpc/dla_mm/jkerkvliet/data/gplas/newmodels/results/E_faecium/09_plasmidspades/GCF_016415465.1_ASM1641546v1/bin_component_0.fasta	NODE_4_length_6826_cov_158.846644_component_0	1566	2474	-	ant(6)-Ia_1	1-909/909	===============	0/0	100.00	100.00	resfinder	AF330699	ant(6)-Ia	Streptomycin
/hpc/dla_mm/jkerkvliet/data/gplas/newmodels/results/E_faecium/09_plasmidspades/GCF_016415465.1_ASM1641546v1/bin_component_0.fasta	NODE_4_length_6826_cov_158.846644_component_0	5733	6495	-	erm(B)_18	1-762/762	========/======	1/1	100.00	99.34	resfinder	X66468	erm(B)	Erythromycin;Lincomycin;Clindamycin;Quinupristin;Pristinamycin_IA;Virginiamycin_S
