GCF_022439585.1_ASM2243958v1,GCF_022439585.1_ASM2243958v1_bin_Isolated_4,NZ_CP091126.1,20209,20209
GCF_022439585.1_ASM2243958v1,GCF_022439585.1_ASM2243958v1_bin_Isolated_5,NZ_CP091126.1,11843,11843
GCF_022439585.1_ASM2243958v1,GCF_022439585.1_ASM2243958v1_bin_6,NZ_CP091130.1,3223,3223
GCF_022439585.1_ASM2243958v1,GCF_022439585.1_ASM2243958v1_bin_Isolated_1,NZ_CP091126.1,2874,2874
GCF_022439585.1_ASM2243958v1,GCF_022439585.1_ASM2243958v1_bin_Isolated_2,NZ_CP091126.1,32009,32009
GCF_022439585.1_ASM2243958v1,GCF_022439585.1_ASM2243958v1_bin_3,NZ_CP091127.1,19182,18086
GCF_022439585.1_ASM2243958v1,GCF_022439585.1_ASM2243958v1_bin_3,NZ_CP091125.1,2192,18086
GCF_022439585.1_ASM2243958v1,GCF_022439585.1_ASM2243958v1_bin_2,NZ_CP091126.1,54950,51112
GCF_022439585.1_ASM2243958v1,GCF_022439585.1_ASM2243958v1_bin_2,NZ_CP091125.1,5772,51112
GCF_022439585.1_ASM2243958v1,GCF_022439585.1_ASM2243958v1_bin_4,NZ_CP091128.1,4820,4820
GCF_022439585.1_ASM2243958v1,GCF_022439585.1_ASM2243958v1_bin_5,NZ_CP091129.1,4357,4357
GCF_022439585.1_ASM2243958v1,GCF_022439585.1_ASM2243958v1_bin_Isolated_3,NZ_CP091127.1,2539,27606
GCF_022439585.1_ASM2243958v1,GCF_022439585.1_ASM2243958v1_bin_Isolated_3,NZ_CP091126.1,25064,27606
GCF_022439585.1_ASM2243958v1,GCF_022439585.1_ASM2243958v1_bin_1,NZ_CP091126.1,118533,270083
GCF_022439585.1_ASM2243958v1,GCF_022439585.1_ASM2243958v1_bin_1,NZ_CP091127.1,159328,270083
GCF_022439585.1_ASM2243958v1,GCF_022439585.1_ASM2243958v1_bin_1,NZ_CP091125.1,6644,270083
GCF_022220585.1_ASM2222058v1,GCF_022220585.1_ASM2222058v1_bin_1,NZ_CP076149.1,179903,179903
GCF_022220585.1_ASM2222058v1,GCF_022220585.1_ASM2222058v1_bin_2,NZ_CP076150.1,94815,94815
GCF_021559795.1_ASM2155979v1,GCF_021559795.1_ASM2155979v1_bin_2,NZ_CP055270.1,428820,424470
GCF_021559795.1_ASM2155979v1,GCF_021559795.1_ASM2155979v1_bin_2,NZ_CP055269.1,8323,424470
GCF_021559795.1_ASM2155979v1,GCF_021559795.1_ASM2155979v1_bin_2,NZ_CP055268.1,5409,424470
GCF_021559795.1_ASM2155979v1,GCF_021559795.1_ASM2155979v1_bin_2,NZ_CP055274.1,1085,424470
GCF_021559795.1_ASM2155979v1,GCF_021559795.1_ASM2155979v1_bin_5,NZ_CP055275.1,16110,16110
GCF_021559795.1_ASM2155979v1,GCF_021559795.1_ASM2155979v1_bin_1,NZ_CP055272.1,200741,198828
GCF_021559795.1_ASM2155979v1,GCF_021559795.1_ASM2155979v1_bin_4,NZ_CP055273.1,150182,150182
GCF_021559795.1_ASM2155979v1,GCF_021559795.1_ASM2155979v1_bin_3,NZ_CP055271.1,193630,194716
GCF_021559795.1_ASM2155979v1,GCF_021559795.1_ASM2155979v1_bin_3,NZ_CP055268.1,3726,194716
GCF_021559795.1_ASM2155979v1,GCF_021559795.1_ASM2155979v1_bin_3,NZ_CP055269.1,1085,194716
GCF_021559795.1_ASM2155979v1,GCF_021559795.1_ASM2155979v1_bin_3,NZ_CP055270.1,1085,194716
GCF_021559795.1_ASM2155979v1,GCF_021559795.1_ASM2155979v1_bin_3,NZ_CP055274.1,1085,194716
GCF_022478075.1_ASM2247807v1,GCF_022478075.1_ASM2247807v1_bin_1,NZ_CP089308.1,54937,54937
GCF_022478075.1_ASM2247807v1,GCF_022478075.1_ASM2247807v1_bin_1,NZ_CP089307.1,5300,54937
GCF_023374275.1_ASM2337427v1,GCF_023374275.1_ASM2337427v1_bin_1,NZ_CP097254.1,78613,78645
GCF_000484505.2_ASM48450v2,GCF_000484505.2_ASM48450v2_bin_1,no_correct_alignments,0,0
GCF_023611785.1_ASM2361178v1,GCF_023611785.1_ASM2361178v1_bin_1,NZ_CP048256.1,5111,5111
GCF_023611785.1_ASM2361178v1,GCF_023611785.1_ASM2361178v1_bin_2,NZ_CP048257.1,4153,4153
GCF_024205905.1_ASM2420590v1,GCF_024205905.1_ASM2420590v1_bin_1,NZ_CP073806.1,2426,2426
GCF_023573125.1_ASM2357312v1,GCF_023573125.1_ASM2357312v1_bin_1,NZ_CP097623.1,2507,2507
GCF_022220925.1_ASM2222092v1,GCF_022220925.1_ASM2222092v1_bin_1,NZ_CP076165.1,178160,178160
GCF_022220925.1_ASM2222092v1,GCF_022220925.1_ASM2222092v1_bin_2,NZ_CP076166.1,94811,94811
GCF_021474225.1_ASM2147422v1,GCF_021474225.1_ASM2147422v1_bin_1,NZ_CP090548.1,28567,28567
GCF_022221265.1_ASM2222126v1,GCF_022221265.1_ASM2222126v1_bin_2,NZ_CP076215.1,94809,94809
GCF_022221265.1_ASM2222126v1,GCF_022221265.1_ASM2222126v1_bin_1,NZ_CP076214.1,178144,178144
GCF_024918795.1_ASM2491879v1,GCF_024918795.1_ASM2491879v1_bin_5,NZ_CP103725.1,3223,3223
GCF_024918795.1_ASM2491879v1,GCF_024918795.1_ASM2491879v1_bin_1,NZ_CP103722.1,31988,10448
GCF_024918795.1_ASM2491879v1,GCF_024918795.1_ASM2491879v1_bin_1,NZ_CP103723.1,1391,10448
GCF_024918795.1_ASM2491879v1,GCF_024918795.1_ASM2491879v1_bin_6,NZ_CP103726.1,2495,2495
GCF_024918795.1_ASM2491879v1,GCF_024918795.1_ASM2491879v1_bin_3,NZ_CP103724.1,82579,83665
GCF_024918795.1_ASM2491879v1,GCF_024918795.1_ASM2491879v1_bin_3,NZ_CP103722.1,7740,83665
GCF_024918795.1_ASM2491879v1,GCF_024918795.1_ASM2491879v1_bin_4,NZ_CP103722.1,8266,7180
GCF_024918795.1_ASM2491879v1,GCF_024918795.1_ASM2491879v1_bin_4,NZ_CP103724.1,4482,7180
GCF_024918795.1_ASM2491879v1,GCF_024918795.1_ASM2491879v1_bin_2,NZ_CP103723.1,99592,99592
GCF_024918795.1_ASM2491879v1,GCF_024918795.1_ASM2491879v1_bin_2,NZ_CP103722.1,5143,99592
GCF_023573005.1_ASM2357300v1,GCF_023573005.1_ASM2357300v1_bin_1,NZ_CP097617.1,2516,2516
GCF_023299565.1_ASM2329956v1,GCF_023299565.1_ASM2329956v1_bin_1,NZ_CP097054.1,17563,17563
GCF_023299565.1_ASM2329956v1,GCF_023299565.1_ASM2329956v1_bin_2,NZ_CP097053.1,12336,11161
GCF_022592395.1_ASM2259239v1,GCF_022592395.1_ASM2259239v1_bin_1,NZ_CP093242.1,73149,338688
GCF_022592395.1_ASM2259239v1,GCF_022592395.1_ASM2259239v1_bin_1,NZ_CP093243.1,271700,338688
GCF_022592395.1_ASM2259239v1,GCF_022592395.1_ASM2259239v1_bin_Unbinned,NZ_CP093242.1,1225,1225
GCF_022592395.1_ASM2259239v1,GCF_022592395.1_ASM2259239v1_bin_2,NZ_CP093244.1,4509,4509
GCF_021391475.1_ASM2139147v1,GCF_021391475.1_ASM2139147v1_bin_1,NZ_CP090058.1,76010,76010
GCF_022221085.1_ASM2222108v1,GCF_022221085.1_ASM2222108v1_bin_1,NZ_CP076188.1,117138,117138
GCF_022221085.1_ASM2222108v1,GCF_022221085.1_ASM2222108v1_bin_2,NZ_CP076189.1,94743,94743
GCF_024334025.1_ASM2433402v1,GCF_024334025.1_ASM2433402v1_bin_1,NZ_CP084083.1,40545,40545
GCF_024334025.1_ASM2433402v1,GCF_024334025.1_ASM2433402v1_bin_3,NZ_CP084082.1,6626,5018
GCF_024334025.1_ASM2433402v1,GCF_024334025.1_ASM2433402v1_bin_2,NZ_CP084082.1,3155,3155
GCF_023509255.1_ASM2350925v1,GCF_023509255.1_ASM2350925v1_bin_1,no_correct_alignments,0,0
GCF_022220405.1_ASM2222040v1,GCF_022220405.1_ASM2222040v1_bin_Unbinned,NZ_CP092045.1,3307,6138
GCF_022220405.1_ASM2222040v1,GCF_022220405.1_ASM2222040v1_bin_Unbinned,NZ_CP092046.1,2831,6138
GCF_022220405.1_ASM2222040v1,GCF_022220405.1_ASM2222040v1_bin_1,NZ_CP092044.1,55008,54257
GCF_022220405.1_ASM2222040v1,GCF_022220405.1_ASM2222040v1_bin_1,NZ_CP092042.1,1116,54257
GCF_022220405.1_ASM2222040v1,GCF_022220405.1_ASM2222040v1_bin_Isolated_1,NZ_CP092043.1,110473,110473
GCF_022220405.1_ASM2222040v1,GCF_022220405.1_ASM2222040v1_bin_2,no_correct_alignments,0,0
GCF_022220405.1_ASM2222040v1,GCF_022220405.1_ASM2222040v1_bin_3,NZ_CP092047.1,2454,2454
GCF_024802605.1_ASM2480260v1,GCF_024802605.1_ASM2480260v1_bin_1,NZ_CP102180.1,2011898,2002447
GCF_024802605.1_ASM2480260v1,GCF_024802605.1_ASM2480260v1_bin_1,NZ_CP102181.1,35553,2002447
GCF_022923695.1_ASM2292369v1,GCF_022923695.1_ASM2292369v1_bin_1,NZ_CP094125.1,2723,2723
GCF_024917675.1_ASM2491767v1,GCF_024917675.1_ASM2491767v1_bin_2,NZ_CP103753.1,107862,107862
GCF_024917675.1_ASM2491767v1,GCF_024917675.1_ASM2491767v1_bin_1,NZ_CP103752.1,222194,224130
GCF_024917675.1_ASM2491767v1,GCF_024917675.1_ASM2491767v1_bin_1,NZ_CP103751.1,3243,224130
GCF_024917675.1_ASM2491767v1,GCF_024917675.1_ASM2491767v1_bin_1,NZ_CP103754.1,3354,224130
GCF_023205595.1_ASM2320559v1,GCF_023205595.1_ASM2320559v1_bin_2,NZ_CP050933.1,4207,4207
GCF_023205595.1_ASM2320559v1,GCF_023205595.1_ASM2320559v1_bin_1,NZ_CP050932.1,5600,5600
GCF_023205595.1_ASM2320559v1,GCF_023205595.1_ASM2320559v1_bin_Unbinned,NZ_CP050930.1,146296,146297
GCF_023573065.1_ASM2357306v1,GCF_023573065.1_ASM2357306v1_bin_1,NZ_CP097619.1,3682,3682
GCF_021498225.1_ASM2149822v1,GCF_021498225.1_ASM2149822v1_bin_1,NZ_CP042354.1,3457,3461
GCF_023299185.1_ASM2329918v1,GCF_023299185.1_ASM2329918v1_bin_Unbinned,NZ_CP097017.1,89084,89084
GCF_023299185.1_ASM2329918v1,GCF_023299185.1_ASM2329918v1_bin_1,NZ_CP097018.1,12694,12694
GCF_023170545.1_ASM2317054v1,GCF_023170545.1_ASM2317054v1_bin_Unbinned,NZ_CP084252.1,139175,904205
GCF_023170545.1_ASM2317054v1,GCF_023170545.1_ASM2317054v1_bin_Unbinned,NZ_CP084251.1,82422,904205
GCF_023170545.1_ASM2317054v1,GCF_023170545.1_ASM2317054v1_bin_Unbinned,NZ_CP084253.1,682608,904205
GCF_023170545.1_ASM2317054v1,GCF_023170545.1_ASM2317054v1_bin_1,NZ_CP084251.1,1119784,2044648
GCF_023170545.1_ASM2317054v1,GCF_023170545.1_ASM2317054v1_bin_1,NZ_CP084252.1,924856,2044648
GCF_023170545.1_ASM2317054v1,GCF_023170545.1_ASM2317054v1_bin_1,NZ_CP084250.1,16594,2044648
GCF_023170545.1_ASM2317054v1,GCF_023170545.1_ASM2317054v1_bin_2,NZ_CP084254.1,74244,74244
GCF_022569935.1_ASM2256993v1,GCF_022569935.1_ASM2256993v1_bin_1,NZ_CP093017.1,434827,434827
GCF_022569935.1_ASM2256993v1,GCF_022569935.1_ASM2256993v1_bin_Unbinned,NZ_CP093016.1,106650,106650
GCF_022221285.1_ASM2222128v1,GCF_022221285.1_ASM2222128v1_bin_2,NZ_CP076218.1,94764,94764
GCF_022221285.1_ASM2222128v1,GCF_022221285.1_ASM2222128v1_bin_1,NZ_CP076217.1,117093,117093
GCF_022430545.2_ASM2243054v2,GCF_022430545.2_ASM2243054v2_bin_2,no_correct_alignments,0,0
GCF_022430545.2_ASM2243054v2,GCF_022430545.2_ASM2243054v2_bin_1,no_correct_alignments,0,0
GCF_022430545.2_ASM2243054v2,GCF_022430545.2_ASM2243054v2_bin_3,no_correct_alignments,0,0
GCF_022430545.2_ASM2243054v2,GCF_022430545.2_ASM2243054v2_bin_Unbinned,no_correct_alignments,0,0
GCF_024334045.1_ASM2433404v1,GCF_024334045.1_ASM2433404v1_bin_3,NZ_CP084081.1,5080,5208
GCF_024334045.1_ASM2433404v1,GCF_024334045.1_ASM2433404v1_bin_2,NZ_CP084080.1,9591,6553
GCF_024334045.1_ASM2433404v1,GCF_024334045.1_ASM2433404v1_bin_1,NZ_CP084080.1,3155,3155
GCF_024734275.1_ASM2473427v1,GCF_024734275.1_ASM2473427v1_bin_2,NZ_CP102907.1,5207,5207
GCF_024734275.1_ASM2473427v1,GCF_024734275.1_ASM2473427v1_bin_3,NZ_CP102908.1,4353,4353
GCF_024734275.1_ASM2473427v1,GCF_024734275.1_ASM2473427v1_bin_1,NZ_CP102904.1,91152,169857
GCF_024734275.1_ASM2473427v1,GCF_024734275.1_ASM2473427v1_bin_1,NZ_CP102905.1,44302,169857
GCF_024734275.1_ASM2473427v1,GCF_024734275.1_ASM2473427v1_bin_1,NZ_CP102906.1,13807,169857
GCF_024734275.1_ASM2473427v1,GCF_024734275.1_ASM2473427v1_bin_1,NZ_CP102903.1,30364,169857
GCF_024205865.1_ASM2420586v1,GCF_024205865.1_ASM2420586v1_bin_Unbinned,NZ_CP073802.1,16730,16730
GCF_024205865.1_ASM2420586v1,GCF_024205865.1_ASM2420586v1_bin_1,NZ_CP073803.1,10898,10898
GCF_023195815.2_ASM2319581v2,GCF_023195815.2_ASM2319581v2_bin_1,NZ_CP096206.2,139207,139207
GCF_023195815.2_ASM2319581v2,GCF_023195815.2_ASM2319581v2_bin_Unbinned,NZ_CP096206.2,8349,8349
GCF_022879615.1_ASM2287961v1,GCF_022879615.1_ASM2287961v1_bin_1,NZ_CP084274.1,643696,1707927
GCF_022879615.1_ASM2287961v1,GCF_022879615.1_ASM2287961v1_bin_1,NZ_CP084273.1,887284,1707927
GCF_022879615.1_ASM2287961v1,GCF_022879615.1_ASM2287961v1_bin_1,NZ_CP084276.1,142057,1707927
GCF_022879615.1_ASM2287961v1,GCF_022879615.1_ASM2287961v1_bin_1,NZ_CP084277.1,48331,1707927
GCF_022879615.1_ASM2287961v1,GCF_022879615.1_ASM2287961v1_bin_1,NZ_CP084271.1,4044,1707927
GCF_022879615.1_ASM2287961v1,GCF_022879615.1_ASM2287961v1_bin_1,NZ_CP084272.1,1184,1707927
GCF_022879615.1_ASM2287961v1,GCF_022879615.1_ASM2287961v1_bin_4,NZ_CP084278.1,62597,61041
GCF_022879615.1_ASM2287961v1,GCF_022879615.1_ASM2287961v1_bin_3,NZ_CP084275.1,86721,82832
GCF_022879615.1_ASM2287961v1,GCF_022879615.1_ASM2287961v1_bin_Unbinned,NZ_CP084273.1,17950,20526
GCF_022879615.1_ASM2287961v1,GCF_022879615.1_ASM2287961v1_bin_Unbinned,NZ_CP084276.1,2576,20526
GCF_022879615.1_ASM2287961v1,GCF_022879615.1_ASM2287961v1_bin_2,NZ_CP084272.1,1198201,1196848
GCF_022879615.1_ASM2287961v1,GCF_022879615.1_ASM2287961v1_bin_2,NZ_CP084271.1,23982,1196848
GCF_022879615.1_ASM2287961v1,GCF_022879615.1_ASM2287961v1_bin_2,NZ_CP084273.1,1963,1196848
GCF_021559775.1_ASM2155977v1,GCF_021559775.1_ASM2155977v1_bin_1,NZ_CP056049.1,509588,1099685
GCF_021559775.1_ASM2155977v1,GCF_021559775.1_ASM2155977v1_bin_1,NZ_CP056051.1,241949,1099685
GCF_021559775.1_ASM2155977v1,GCF_021559775.1_ASM2155977v1_bin_1,NZ_CP056050.1,361929,1099685
GCF_021559775.1_ASM2155977v1,GCF_021559775.1_ASM2155977v1_bin_1,NZ_CP056047.1,7260,1099685
GCF_021559775.1_ASM2155977v1,GCF_021559775.1_ASM2155977v1_bin_1,NZ_CP056048.1,1043,1099685
GCF_022221245.1_ASM2222124v1,GCF_022221245.1_ASM2222124v1_bin_1,NZ_CP076211.1,178110,178110
GCF_022221245.1_ASM2222124v1,GCF_022221245.1_ASM2222124v1_bin_2,NZ_CP076212.1,94813,94813
GCF_022049065.2_ASM2204906v2,GCF_022049065.2_ASM2204906v2_bin_3,NZ_CP095744.1,7595,3359
GCF_022049065.2_ASM2204906v2,GCF_022049065.2_ASM2204906v2_bin_4,NZ_CP095748.1,5063,5063
GCF_022049065.2_ASM2204906v2,GCF_022049065.2_ASM2204906v2_bin_Unbinned,NZ_CP095744.1,39855,39855
GCF_022049065.2_ASM2204906v2,GCF_022049065.2_ASM2204906v2_bin_1,NZ_CP095744.1,127275,203262
GCF_022049065.2_ASM2204906v2,GCF_022049065.2_ASM2204906v2_bin_1,NZ_CP095745.1,75985,203262
GCF_022049065.2_ASM2204906v2,GCF_022049065.2_ASM2204906v2_bin_2,NZ_CP095746.1,44401,44401
GCF_022049065.2_ASM2204906v2,GCF_022049065.2_ASM2204906v2_bin_2,NZ_CP095744.1,4674,44401
GCF_021513095.1_ASM2151309v1,GCF_021513095.1_ASM2151309v1_bin_1,NZ_CP090999.1,36856,36862
GCF_021513095.1_ASM2151309v1,GCF_021513095.1_ASM2151309v1_bin_3,NZ_CP091005.1,2135,2135
GCF_021513095.1_ASM2151309v1,GCF_021513095.1_ASM2151309v1_bin_2,NZ_CP091004.1,2410,2410
GCF_021513095.1_ASM2151309v1,GCF_021513095.1_ASM2151309v1_bin_Unbinned,NZ_CP091002.1,6617,27777
GCF_021513095.1_ASM2151309v1,GCF_021513095.1_ASM2151309v1_bin_Unbinned,NZ_CP091003.1,6885,27777
GCF_021513095.1_ASM2151309v1,GCF_021513095.1_ASM2151309v1_bin_Unbinned,NZ_CP091000.1,9580,27777
GCF_021513095.1_ASM2151309v1,GCF_021513095.1_ASM2151309v1_bin_Unbinned,NZ_CP091001.1,4695,27777
GCF_023375325.1_ASM2337532v1,GCF_023375325.1_ASM2337532v1_bin_1,NZ_CP091204.1,34403,33007
GCF_023375325.1_ASM2337532v1,GCF_023375325.1_ASM2337532v1_bin_2,NZ_CP091205.1,18452,18452
GCF_024346605.1_ASM2434660v1,GCF_024346605.1_ASM2434660v1_bin_Unbinned,NZ_CP098803.1,3035,3035
GCF_024346605.1_ASM2434660v1,GCF_024346605.1_ASM2434660v1_bin_1,NZ_CP098804.1,755307,2557212
GCF_024346605.1_ASM2434660v1,GCF_024346605.1_ASM2434660v1_bin_1,NZ_CP098801.1,1436853,2557212
GCF_024346605.1_ASM2434660v1,GCF_024346605.1_ASM2434660v1_bin_1,NZ_CP098802.1,362968,2557212
GCF_024346605.1_ASM2434660v1,GCF_024346605.1_ASM2434660v1_bin_1,NZ_CP098803.1,21044,2557212
GCF_023509275.1_ASM2350927v1,GCF_023509275.1_ASM2350927v1_bin_1,no_correct_alignments,0,0
GCF_024917575.1_ASM2491757v1,GCF_024917575.1_ASM2491757v1_bin_2,NZ_CP103641.1,9294,9294
GCF_024917575.1_ASM2491757v1,GCF_024917575.1_ASM2491757v1_bin_1,NZ_CP103640.1,162939,160878
GCF_021733585.2_ASM2173358v3,GCF_021733585.2_ASM2173358v3_bin_2,NZ_CP090954.2,22837,40369
GCF_021733585.2_ASM2173358v3,GCF_021733585.2_ASM2173358v3_bin_2,NZ_CP096275.1,34701,40369
GCF_021733585.2_ASM2173358v3,GCF_021733585.2_ASM2173358v3_bin_1,no_correct_alignments,0,0
GCF_022221165.1_ASM2222116v1,GCF_022221165.1_ASM2222116v1_bin_2,NZ_CP076200.1,94684,94684
GCF_022221165.1_ASM2222116v1,GCF_022221165.1_ASM2222116v1_bin_1,NZ_CP076199.1,179776,179776
GCF_021484865.1_ASM2148486v1,GCF_021484865.1_ASM2148486v1_bin_3,NZ_CP090578.1,1616,1616
GCF_021484865.1_ASM2148486v1,GCF_021484865.1_ASM2148486v1_bin_1,NZ_CP090577.1,8402,8402
GCF_021484865.1_ASM2148486v1,GCF_021484865.1_ASM2148486v1_bin_2,NZ_CP090576.1,9997,9997
GCF_022845775.1_ASM2284577v1,GCF_022845775.1_ASM2284577v1_bin_1,NZ_AP025567.1,5644,5644
GCF_022845775.1_ASM2284577v1,GCF_022845775.1_ASM2284577v1_bin_2,NZ_AP025567.1,2818,2818
GCF_021390035.1_ASM2139003v1,GCF_021390035.1_ASM2139003v1_bin_2,NZ_CP089995.1,94735,94744
GCF_021390035.1_ASM2139003v1,GCF_021390035.1_ASM2139003v1_bin_1,NZ_CP089994.1,117127,117138
GCF_021496325.1_ASM2149632v1,GCF_021496325.1_ASM2149632v1_bin_1,NZ_CP045100.1,7979,7979
GCF_024224615.1_ASM2422461v1,GCF_024224615.1_ASM2422461v1_bin_1,NZ_CP100495.1,46012,46012
GCF_022220505.1_ASM2222050v1,GCF_022220505.1_ASM2222050v1_bin_2,NZ_CP076140.1,94806,94806
GCF_022220505.1_ASM2222050v1,GCF_022220505.1_ASM2222050v1_bin_1,NZ_CP076139.1,179911,179911
GCF_022788635.1_ASM2278863v1,GCF_022788635.1_ASM2278863v1_bin_Unbinned,NZ_CP076024.1,5378,5378
GCF_022788635.1_ASM2278863v1,GCF_022788635.1_ASM2278863v1_bin_1,NZ_CP076024.1,57598,55926
GCF_022221325.1_ASM2222132v1,GCF_022221325.1_ASM2222132v1_bin_1,NZ_CP076223.1,177869,177869
GCF_022221325.1_ASM2222132v1,GCF_022221325.1_ASM2222132v1_bin_2,NZ_CP076224.1,94824,94825
GCF_023547145.1_ASM2354714v1,GCF_023547145.1_ASM2354714v1_bin_2,no_correct_alignments,0,0
GCF_023547145.1_ASM2354714v1,GCF_023547145.1_ASM2354714v1_bin_1,NZ_CP095444.1,264972,260656
GCF_023547145.1_ASM2354714v1,GCF_023547145.1_ASM2354714v1_bin_1,NZ_CP095443.1,160977,260656
GCF_025150745.1_ASM2515074v1,GCF_025150745.1_ASM2515074v1_bin_1,NZ_CP102282.1,2900,2900
GCF_025150745.1_ASM2515074v1,GCF_025150745.1_ASM2515074v1_bin_2,NZ_CP102282.1,1324,1324
GCF_024206655.1_ASM2420665v1,GCF_024206655.1_ASM2420665v1_bin_1,NZ_CP100335.1,4285,4285
GCF_024206655.1_ASM2420665v1,GCF_024206655.1_ASM2420665v1_bin_Unbinned,NZ_CP100334.1,34233,34233
GCF_022869765.1_ASM2286976v1,GCF_022869765.1_ASM2286976v1_bin_1,NZ_CP094998.1,1176,333716
GCF_022869765.1_ASM2286976v1,GCF_022869765.1_ASM2286976v1_bin_2,no_correct_alignments,0,0
GCF_022869765.1_ASM2286976v1,GCF_022869765.1_ASM2286976v1_bin_3,no_correct_alignments,0,0
GCF_022921275.1_ASM2292127v1,GCF_022921275.1_ASM2292127v1_bin_1,NZ_CP094060.1,3294,3294
GCF_023375285.1_ASM2337528v1,GCF_023375285.1_ASM2337528v1_bin_1,NZ_CP088204.1,16180,16180
GCF_023375285.1_ASM2337528v1,GCF_023375285.1_ASM2337528v1_bin_Unbinned,NZ_CP088205.1,5044,7554
GCF_023375285.1_ASM2337528v1,GCF_023375285.1_ASM2337528v1_bin_Unbinned,NZ_CP088204.1,2510,7554
GCF_022221065.1_ASM2222106v1,GCF_022221065.1_ASM2222106v1_bin_1,NZ_CP076185.1,181751,180710
GCF_022221065.1_ASM2222106v1,GCF_022221065.1_ASM2222106v1_bin_2,NZ_CP076186.1,94822,94822
GCF_024205845.1_ASM2420584v1,GCF_024205845.1_ASM2420584v1_bin_1,NZ_CP073800.1,2426,2426
GCF_021496015.1_ASM2149601v1,GCF_021496015.1_ASM2149601v1_bin_1,NZ_CP090913.1,9925,9925
GCF_021496015.1_ASM2149601v1,GCF_021496015.1_ASM2149601v1_bin_2,NZ_CP090914.1,2352,2352
GCF_024206635.1_ASM2420663v1,GCF_024206635.1_ASM2420663v1_bin_Unbinned,NZ_CP100332.1,5331,5331
GCF_024206635.1_ASM2420663v1,GCF_024206635.1_ASM2420663v1_bin_1,NZ_CP100333.1,4285,4285
GCF_021391455.1_ASM2139145v1,GCF_021391455.1_ASM2139145v1_bin_1,NZ_CP090053.1,62425,58323
GCF_022921235.1_ASM2292123v1,GCF_022921235.1_ASM2292123v1_bin_1,NZ_CP094057.1,3430,3430
GCF_024206675.1_ASM2420667v1,GCF_024206675.1_ASM2420667v1_bin_Isolated_1,NZ_CP100336.1,6968,6968
GCF_024206675.1_ASM2420667v1,GCF_024206675.1_ASM2420667v1_bin_1,NZ_CP100337.1,4285,4285
GCF_024917635.1_ASM2491763v1,GCF_024917635.1_ASM2491763v1_bin_1,NZ_CP103642.1,49967,212527
GCF_024917635.1_ASM2491763v1,GCF_024917635.1_ASM2491763v1_bin_1,NZ_CP103643.1,170050,212527
GCF_024917295.1_ASM2491729v1,GCF_024917295.1_ASM2491729v1_bin_2,NZ_CP103555.1,33390,15866
GCF_024917295.1_ASM2491729v1,GCF_024917295.1_ASM2491729v1_bin_2,NZ_CP103554.1,3157,15866
GCF_024917295.1_ASM2491729v1,GCF_024917295.1_ASM2491729v1_bin_Unbinned,NZ_CP103554.1,43333,153670
GCF_024917295.1_ASM2491729v1,GCF_024917295.1_ASM2491729v1_bin_Unbinned,NZ_CP103556.1,110337,153670
GCF_024917295.1_ASM2491729v1,GCF_024917295.1_ASM2491729v1_bin_1,NZ_CP103555.1,149583,146267
GCF_024758665.1_ASM2475866v1,GCF_024758665.1_ASM2475866v1_bin_1,NZ_CP094951.1,55969,45765
GCF_024758665.1_ASM2475866v1,GCF_024758665.1_ASM2475866v1_bin_1,NZ_CP094950.1,1043,45765
GCF_024758665.1_ASM2475866v1,GCF_024758665.1_ASM2475866v1_bin_2,NZ_CP094951.1,2332,9254
GCF_024758665.1_ASM2475866v1,GCF_024758665.1_ASM2475866v1_bin_3,no_correct_alignments,0,0
GCF_021513075.1_ASM2151307v1,GCF_021513075.1_ASM2151307v1_bin_2,NZ_CP090987.1,10390,10390
GCF_021513075.1_ASM2151307v1,GCF_021513075.1_ASM2151307v1_bin_3,NZ_CP090988.1,5816,5816
GCF_021513075.1_ASM2151307v1,GCF_021513075.1_ASM2151307v1_bin_1,NZ_CP090985.1,30082,62380
GCF_021513075.1_ASM2151307v1,GCF_021513075.1_ASM2151307v1_bin_1,NZ_CP090986.1,40106,62380
GCF_024206715.1_ASM2420671v1,GCF_024206715.1_ASM2420671v1_bin_Isolated_1,NZ_CP100328.1,3480,3480
GCF_024206715.1_ASM2420671v1,GCF_024206715.1_ASM2420671v1_bin_1,NZ_CP100329.1,4285,4285
GCF_022925215.1_ASM2292521v1,GCF_022925215.1_ASM2292521v1_bin_1,NZ_CP094152.1,9668,9668
GCF_022924515.1_ASM2292451v1,GCF_022924515.1_ASM2292451v1_bin_1,NZ_CP094141.1,3491,3491
GCF_023573045.1_ASM2357304v1,GCF_023573045.1_ASM2357304v1_bin_1,NZ_CP097621.1,3346,3346
GCF_023205075.1_ASM2320507v1,GCF_023205075.1_ASM2320507v1_bin_1,NZ_CP096229.1,43655,58920
GCF_023205075.1_ASM2320507v1,GCF_023205075.1_ASM2320507v1_bin_1,NZ_CP096228.1,18730,58920
GCF_023205075.1_ASM2320507v1,GCF_023205075.1_ASM2320507v1_bin_1,NZ_CP096227.1,9189,58920
GCF_023205075.1_ASM2320507v1,GCF_023205075.1_ASM2320507v1_bin_Unbinned,no_correct_alignments,0,0
GCF_023699965.1_ASM2369996v1,GCF_023699965.1_ASM2369996v1_bin_1,NZ_CP077072.1,3426,3426
GCF_023699965.1_ASM2369996v1,GCF_023699965.1_ASM2369996v1_bin_Unbinned,NZ_CP077072.1,4287,4287
GCF_022670815.1_ASM2267081v1,GCF_022670815.1_ASM2267081v1_bin_1,NZ_CP093417.1,27042,132292
GCF_022670815.1_ASM2267081v1,GCF_022670815.1_ASM2267081v1_bin_1,NZ_CP093414.1,38006,132292
GCF_022670815.1_ASM2267081v1,GCF_022670815.1_ASM2267081v1_bin_1,NZ_CP093415.1,42403,132292
GCF_022670815.1_ASM2267081v1,GCF_022670815.1_ASM2267081v1_bin_1,NZ_CP093416.1,23733,132292
GCF_022670815.1_ASM2267081v1,GCF_022670815.1_ASM2267081v1_bin_1,NZ_CP093420.1,5835,132292
GCF_022670815.1_ASM2267081v1,GCF_022670815.1_ASM2267081v1_bin_1,NZ_CP093413.1,10631,132292
GCF_022670815.1_ASM2267081v1,GCF_022670815.1_ASM2267081v1_bin_2,NZ_CP093418.1,9440,14097
GCF_022670815.1_ASM2267081v1,GCF_022670815.1_ASM2267081v1_bin_2,NZ_CP093421.1,4657,14097
GCF_022591735.1_ASM2259173v1,GCF_022591735.1_ASM2259173v1_bin_Unbinned,NZ_CP093260.1,6651,6651
GCF_022591735.1_ASM2259173v1,GCF_022591735.1_ASM2259173v1_bin_1,NZ_CP093261.1,91442,91442
GCF_022591735.1_ASM2259173v1,GCF_022591735.1_ASM2259173v1_bin_1,NZ_CP093260.1,7555,91442
GCF_022591735.1_ASM2259173v1,GCF_022591735.1_ASM2259173v1_bin_3,NZ_CP093263.1,1181,1220
GCF_022591735.1_ASM2259173v1,GCF_022591735.1_ASM2259173v1_bin_2,NZ_CP093262.1,2683,2683
GCF_021498265.1_ASM2149826v1,GCF_021498265.1_ASM2149826v1_bin_1,NZ_CP042358.1,536322,536322
GCF_021498265.1_ASM2149826v1,GCF_021498265.1_ASM2149826v1_bin_1,NZ_CP042357.1,5151,536322
GCF_021498265.1_ASM2149826v1,GCF_021498265.1_ASM2149826v1_bin_2,NZ_CP042359.1,24669,24669
GCF_021498265.1_ASM2149826v1,GCF_021498265.1_ASM2149826v1_bin_Unbinned,NZ_CP042357.1,823837,982718
GCF_021498265.1_ASM2149826v1,GCF_021498265.1_ASM2149826v1_bin_Unbinned,NZ_CP042359.1,158880,982718
GCF_022695635.1_ASM2269563v1,GCF_022695635.1_ASM2269563v1_bin_1,no_correct_alignments,0,0
GCF_024917315.1_ASM2491731v1,GCF_024917315.1_ASM2491731v1_bin_1,NZ_CP103675.1,86349,86349
GCF_025349945.1_ASM2534994v1,GCF_025349945.1_ASM2534994v1_bin_3,NZ_CP104455.1,12149,12149
GCF_025349945.1_ASM2534994v1,GCF_025349945.1_ASM2534994v1_bin_3,NZ_CP104453.1,3664,12149
GCF_025349945.1_ASM2534994v1,GCF_025349945.1_ASM2534994v1_bin_3,NZ_CP104454.1,3664,12149
GCF_025349945.1_ASM2534994v1,GCF_025349945.1_ASM2534994v1_bin_3,NZ_CP104450.1,10992,12149
GCF_025349945.1_ASM2534994v1,GCF_025349945.1_ASM2534994v1_bin_8,NZ_CP104461.1,2886,2886
GCF_025349945.1_ASM2534994v1,GCF_025349945.1_ASM2534994v1_bin_1,NZ_CP104463.1,1063,12947
GCF_025349945.1_ASM2534994v1,GCF_025349945.1_ASM2534994v1_bin_1,NZ_CP104457.1,9734,12947
GCF_025349945.1_ASM2534994v1,GCF_025349945.1_ASM2534994v1_bin_1,NZ_CP104462.1,2150,12947
GCF_025349945.1_ASM2534994v1,GCF_025349945.1_ASM2534994v1_bin_4,NZ_CP104456.1,13466,13466
GCF_025349945.1_ASM2534994v1,GCF_025349945.1_ASM2534994v1_bin_7,NZ_CP104460.1,4665,4665
GCF_025349945.1_ASM2534994v1,GCF_025349945.1_ASM2534994v1_bin_2,NZ_CP104451.1,145455,448907
GCF_025349945.1_ASM2534994v1,GCF_025349945.1_ASM2534994v1_bin_2,NZ_CP104455.1,7039,448907
GCF_025349945.1_ASM2534994v1,GCF_025349945.1_ASM2534994v1_bin_2,NZ_CP104453.1,123032,448907
GCF_025349945.1_ASM2534994v1,GCF_025349945.1_ASM2534994v1_bin_2,NZ_CP104450.1,41512,448907
GCF_025349945.1_ASM2534994v1,GCF_025349945.1_ASM2534994v1_bin_2,NZ_CP104452.1,133709,448907
GCF_025349945.1_ASM2534994v1,GCF_025349945.1_ASM2534994v1_bin_2,NZ_CP104454.1,43074,448907
GCF_025349945.1_ASM2534994v1,GCF_025349945.1_ASM2534994v1_bin_6,NZ_CP104459.1,5065,5065
GCF_025349945.1_ASM2534994v1,GCF_025349945.1_ASM2534994v1_bin_5,NZ_CP104458.1,8282,8282
GCF_024917775.1_ASM2491777v1,GCF_024917775.1_ASM2491777v1_bin_4,NZ_CP103498.1,2511,2511
GCF_024917775.1_ASM2491777v1,GCF_024917775.1_ASM2491777v1_bin_1,NZ_CP103495.1,96221,96221
GCF_024917775.1_ASM2491777v1,GCF_024917775.1_ASM2491777v1_bin_1,NZ_CP103496.1,5226,96221
GCF_024917775.1_ASM2491777v1,GCF_024917775.1_ASM2491777v1_bin_1,NZ_CP103494.1,1342,96221
GCF_024917775.1_ASM2491777v1,GCF_024917775.1_ASM2491777v1_bin_3,NZ_CP103497.1,4760,4760
GCF_024917775.1_ASM2491777v1,GCF_024917775.1_ASM2491777v1_bin_2,NZ_CP103496.1,79250,79250
GCF_024917775.1_ASM2491777v1,GCF_024917775.1_ASM2491777v1_bin_2,NZ_CP103495.1,5226,79250
GCF_022221205.1_ASM2222120v1,GCF_022221205.1_ASM2222120v1_bin_2,NZ_CP076206.1,94800,94800
GCF_022221205.1_ASM2222120v1,GCF_022221205.1_ASM2222120v1_bin_1,NZ_CP076205.1,116979,116979
GCF_000487995.2_ASM48799v2,GCF_000487995.2_ASM48799v2_bin_2,NZ_CP097562.1,3061,3061
GCF_000487995.2_ASM48799v2,GCF_000487995.2_ASM48799v2_bin_Unbinned,NZ_CP097562.1,3417,3419
GCF_000487995.2_ASM48799v2,GCF_000487995.2_ASM48799v2_bin_1,NZ_CP097562.1,76428,76430
GCF_022374895.2_ASM2237489v2,GCF_022374895.2_ASM2237489v2_bin_1,NZ_CP092426.2,15922,15922
GCF_022374895.2_ASM2237489v2,GCF_022374895.2_ASM2237489v2_bin_Unbinned,NZ_CP092424.2,5530,5530
GCF_022845615.1_ASM2284561v1,GCF_022845615.1_ASM2284561v1_bin_1,NZ_AP025559.1,28777,18185
GCF_021398655.1_ASM2139865v1,GCF_021398655.1_ASM2139865v1_bin_1,NZ_CP090317.1,24940,24943
GCF_021398655.1_ASM2139865v1,GCF_021398655.1_ASM2139865v1_bin_2,no_correct_alignments,0,0
GCF_021918005.1_ASM2191800v1,GCF_021918005.1_ASM2191800v1_bin_1,NZ_CP089515.1,33922,7567
GCF_023008225.1_ASM2300822v1,GCF_023008225.1_ASM2300822v1_bin_4,NZ_CP061505.1,15212,15212
GCF_023008225.1_ASM2300822v1,GCF_023008225.1_ASM2300822v1_bin_2,NZ_CP061506.1,7388,9063
GCF_023008225.1_ASM2300822v1,GCF_023008225.1_ASM2300822v1_bin_3,NZ_CP061503.1,34161,34161
GCF_023008225.1_ASM2300822v1,GCF_023008225.1_ASM2300822v1_bin_1,NZ_CP061504.1,15690,23310
GCF_023008225.1_ASM2300822v1,GCF_023008225.1_ASM2300822v1_bin_1,NZ_CP061509.1,7620,23310
GCF_024297125.1_ASM2429712v1,GCF_024297125.1_ASM2429712v1_bin_9,no_correct_alignments,0,0
GCF_024297125.1_ASM2429712v1,GCF_024297125.1_ASM2429712v1_bin_1,no_correct_alignments,0,0
GCF_024297125.1_ASM2429712v1,GCF_024297125.1_ASM2429712v1_bin_3,no_correct_alignments,0,0
GCF_024297125.1_ASM2429712v1,GCF_024297125.1_ASM2429712v1_bin_7,no_correct_alignments,0,0
GCF_024297125.1_ASM2429712v1,GCF_024297125.1_ASM2429712v1_bin_8,no_correct_alignments,0,0
GCF_024297125.1_ASM2429712v1,GCF_024297125.1_ASM2429712v1_bin_5,no_correct_alignments,0,0
GCF_024297125.1_ASM2429712v1,GCF_024297125.1_ASM2429712v1_bin_4,no_correct_alignments,0,0
GCF_024297125.1_ASM2429712v1,GCF_024297125.1_ASM2429712v1_bin_6,no_correct_alignments,0,0
GCF_024297125.1_ASM2429712v1,GCF_024297125.1_ASM2429712v1_bin_2,no_correct_alignments,0,0
GCF_022925255.1_ASM2292525v1,GCF_022925255.1_ASM2292525v1_bin_1,NZ_CP094154.1,5762,5762
GCF_022925255.1_ASM2292525v1,GCF_022925255.1_ASM2292525v1_bin_2,NZ_CP094155.1,3269,3269
GCF_022921795.1_ASM2292179v1,GCF_022921795.1_ASM2292179v1_bin_1,NZ_CP094072.1,3551,3551
GCF_024397415.1_ASM2439741v1,GCF_024397415.1_ASM2439741v1_bin_1,NZ_CP101539.1,12339,12339
GCF_024917615.1_ASM2491761v1,GCF_024917615.1_ASM2491761v1_bin_2,NZ_CP103613.1,5410,5410
GCF_024917615.1_ASM2491761v1,GCF_024917615.1_ASM2491761v1_bin_1,NZ_CP103612.1,159238,159293
GCF_022921855.1_ASM2292185v1,GCF_022921855.1_ASM2292185v1_bin_1,NZ_CP094077.1,8692,8692
GCF_025369755.1_ASM2536975v1,GCF_025369755.1_ASM2536975v1_bin_2,NZ_CP104441.1,4168,4168
GCF_025369755.1_ASM2536975v1,GCF_025369755.1_ASM2536975v1_bin_1,NZ_CP104438.1,3729,39346
GCF_025369755.1_ASM2536975v1,GCF_025369755.1_ASM2536975v1_bin_Unbinned,NZ_CP104438.1,6912,6912
GCF_023639785.1_ASM2363978v1,GCF_023639785.1_ASM2363978v1_bin_1,NZ_CP098326.1,40865,40866
GCF_022819325.1_ASM2281932v1,GCF_022819325.1_ASM2281932v1_bin_1,NZ_CP079857.1,540503,540505
GCF_022819325.1_ASM2281932v1,GCF_022819325.1_ASM2281932v1_bin_1,NZ_CP079855.1,1117,540505
GCF_022819325.1_ASM2281932v1,GCF_022819325.1_ASM2281932v1_bin_Isolated_1,NZ_CP079858.1,114601,114601
GCF_022819325.1_ASM2281932v1,GCF_022819325.1_ASM2281932v1_bin_3,no_correct_alignments,0,0
GCF_022819325.1_ASM2281932v1,GCF_022819325.1_ASM2281932v1_bin_2,NZ_CP079858.1,16996,16996
GCF_022221045.1_ASM2222104v1,GCF_022221045.1_ASM2222104v1_bin_1,NZ_CP076182.1,180010,178969
GCF_022221045.1_ASM2222104v1,GCF_022221045.1_ASM2222104v1_bin_2,NZ_CP076183.1,94822,94822
GCF_022846315.1_ASM2284631v1,GCF_022846315.1_ASM2284631v1_bin_1,NZ_AP025614.1,199086,200097
GCF_022846315.1_ASM2284631v1,GCF_022846315.1_ASM2284631v1_bin_1,NZ_AP025613.1,4013,200097
GCF_022846315.1_ASM2284631v1,GCF_022846315.1_ASM2284631v1_bin_2,NZ_AP025615.1,67819,67840
GCF_022846315.1_ASM2284631v1,GCF_022846315.1_ASM2284631v1_bin_Unbinned,NZ_AP025616.1,18693,18693
GCF_023509295.1_ASM2350929v1,GCF_023509295.1_ASM2350929v1_bin_1,no_correct_alignments,0,0
GCF_022570415.1_ASM2257041v1,GCF_022570415.1_ASM2257041v1_bin_1,NZ_CP093029.1,143021,141602
GCF_022570415.1_ASM2257041v1,GCF_022570415.1_ASM2257041v1_bin_1,NZ_CP093028.1,19866,141602
GCF_022220645.1_ASM2222064v1,GCF_022220645.1_ASM2222064v1_bin_2,NZ_CP076159.1,94822,94822
GCF_022220645.1_ASM2222064v1,GCF_022220645.1_ASM2222064v1_bin_1,NZ_CP076158.1,180010,178969
GCF_025252385.1_ASM2525238v1,GCF_025252385.1_ASM2525238v1_bin_3,no_correct_alignments,0,0
GCF_025252385.1_ASM2525238v1,GCF_025252385.1_ASM2525238v1_bin_Unbinned,NZ_CP104306.1,12973,25861
GCF_025252385.1_ASM2525238v1,GCF_025252385.1_ASM2525238v1_bin_Unbinned,NZ_CP104303.1,12888,25861
GCF_025252385.1_ASM2525238v1,GCF_025252385.1_ASM2525238v1_bin_2,no_correct_alignments,0,0
GCF_025252385.1_ASM2525238v1,GCF_025252385.1_ASM2525238v1_bin_1,NZ_CP104305.1,58667,115315
GCF_025252385.1_ASM2525238v1,GCF_025252385.1_ASM2525238v1_bin_1,NZ_CP104306.1,16904,115315
GCF_025252385.1_ASM2525238v1,GCF_025252385.1_ASM2525238v1_bin_1,NZ_CP104303.1,5024,115315
GCF_025252385.1_ASM2525238v1,GCF_025252385.1_ASM2525238v1_bin_1,NZ_CP104304.1,42097,115315
GCF_022221105.1_ASM2222110v1,GCF_022221105.1_ASM2222110v1_bin_Unbinned,NZ_CP076190.1,897693,898241
GCF_022221105.1_ASM2222110v1,GCF_022221105.1_ASM2222110v1_bin_1,NZ_CP076191.1,94723,94723
GCF_021459865.1_ASM2145986v1,GCF_021459865.1_ASM2145986v1_bin_1,NZ_CP090509.1,24943,24943
GCF_022925795.1_ASM2292579v1,GCF_022925795.1_ASM2292579v1_bin_1,NZ_CP094166.1,6729,6729
GCF_905329885.2_AI2826v1_cpp,GCF_905329885.2_AI2826v1_cpp_bin_2,NZ_OW967267.1,37221,37221
GCF_905329885.2_AI2826v1_cpp,GCF_905329885.2_AI2826v1_cpp_bin_2,NZ_OW967265.1,5562,37221
GCF_905329885.2_AI2826v1_cpp,GCF_905329885.2_AI2826v1_cpp_bin_2,NZ_OW967263.1,5562,37221
GCF_905329885.2_AI2826v1_cpp,GCF_905329885.2_AI2826v1_cpp_bin_2,NZ_OW967264.1,1812,37221
GCF_905329885.2_AI2826v1_cpp,GCF_905329885.2_AI2826v1_cpp_bin_1,NZ_OW967264.1,103219,180656
GCF_905329885.2_AI2826v1_cpp,GCF_905329885.2_AI2826v1_cpp_bin_1,NZ_OW967265.1,90204,180656
GCF_905329885.2_AI2826v1_cpp,GCF_905329885.2_AI2826v1_cpp_bin_1,NZ_OW967267.1,5562,180656
GCF_905329885.2_AI2826v1_cpp,GCF_905329885.2_AI2826v1_cpp_bin_1,NZ_OW967263.1,18065,180656
GCF_905329885.2_AI2826v1_cpp,GCF_905329885.2_AI2826v1_cpp_bin_3,NZ_OW967268.1,3576,3576
GCF_905338025.2_AN2363v1_cp,GCF_905338025.2_AN2363v1_cp_bin_2,NZ_OW969783.1,4665,4665
GCF_905338025.2_AN2363v1_cp,GCF_905338025.2_AN2363v1_cp_bin_1,NZ_OW969782.1,60030,58829
GCF_905331365.1_AI3013v2_cpp,GCF_905331365.1_AI3013v2_cpp_bin_3,NZ_OW968418.1,152475,160887
GCF_905331365.1_AI3013v2_cpp,GCF_905331365.1_AI3013v2_cpp_bin_3,NZ_OW968419.1,13647,160887
GCF_905331365.1_AI3013v2_cpp,GCF_905331365.1_AI3013v2_cpp_bin_3,NZ_OW968420.1,7457,160887
GCF_905331365.1_AI3013v2_cpp,GCF_905331365.1_AI3013v2_cpp_bin_3,NZ_OW968417.1,10519,160887
GCF_905331365.1_AI3013v2_cpp,GCF_905331365.1_AI3013v2_cpp_bin_1,NZ_OW968419.1,163650,217342
GCF_905331365.1_AI3013v2_cpp,GCF_905331365.1_AI3013v2_cpp_bin_1,NZ_OW968420.1,69212,217342
GCF_905331365.1_AI3013v2_cpp,GCF_905331365.1_AI3013v2_cpp_bin_1,NZ_OW968417.1,8869,217342
GCF_905331365.1_AI3013v2_cpp,GCF_905331365.1_AI3013v2_cpp_bin_1,NZ_OW968418.1,13094,217342
GCF_905331365.1_AI3013v2_cpp,GCF_905331365.1_AI3013v2_cpp_bin_2,NZ_OW968418.1,101676,98211
GCF_905331365.1_AI3013v2_cpp,GCF_905331365.1_AI3013v2_cpp_bin_2,NZ_OW968419.1,14776,98211
GCF_905331365.1_AI3013v2_cpp,GCF_905331365.1_AI3013v2_cpp_bin_5,NZ_OW968422.1,2495,2495
GCF_905331365.1_AI3013v2_cpp,GCF_905331365.1_AI3013v2_cpp_bin_Unbinned,NZ_OW968419.1,1608,1608
GCF_905331365.1_AI3013v2_cpp,GCF_905331365.1_AI3013v2_cpp_bin_Unbinned,NZ_OW968418.1,1608,1608
GCF_905331365.1_AI3013v2_cpp,GCF_905331365.1_AI3013v2_cpp_bin_4,NZ_OW968421.1,4550,4550
GCF_023278615.1_ASM2327861v1,GCF_023278615.1_ASM2327861v1_bin_2,NZ_CP026144.1,19268,19268
GCF_023278615.1_ASM2327861v1,GCF_023278615.1_ASM2327861v1_bin_1,NZ_CP026143.1,24464,23388
GCF_022221345.1_ASM2222134v1,GCF_022221345.1_ASM2222134v1_bin_2,NZ_CP076227.1,94893,94893
GCF_022221345.1_ASM2222134v1,GCF_022221345.1_ASM2222134v1_bin_1,NZ_CP076226.1,178173,178173
GCF_020002335.2_ASM2000233v2,GCF_020002335.2_ASM2000233v2_bin_2,NZ_CP091078.1,13220,45661
GCF_020002335.2_ASM2000233v2,GCF_020002335.2_ASM2000233v2_bin_2,NZ_CP091079.1,23551,45661
GCF_020002335.2_ASM2000233v2,GCF_020002335.2_ASM2000233v2_bin_2,NZ_CP091080.1,20174,45661
GCF_020002335.2_ASM2000233v2,GCF_020002335.2_ASM2000233v2_bin_1,NZ_CP091078.1,13220,52530
GCF_020002335.2_ASM2000233v2,GCF_020002335.2_ASM2000233v2_bin_1,NZ_CP091079.1,32352,52530
GCF_020002335.2_ASM2000233v2,GCF_020002335.2_ASM2000233v2_bin_1,NZ_CP091080.1,20174,52530
GCF_905322525.2_AI2623v1_cpp,GCF_905322525.2_AI2623v1_cpp_bin_4,NZ_OW967380.1,2351,2546
GCF_905322525.2_AI2623v1_cpp,GCF_905322525.2_AI2623v1_cpp_bin_1,NZ_OW967375.1,238241,294995
GCF_905322525.2_AI2623v1_cpp,GCF_905322525.2_AI2623v1_cpp_bin_1,NZ_OW967376.1,66322,294995
GCF_905322525.2_AI2623v1_cpp,GCF_905322525.2_AI2623v1_cpp_bin_1,NZ_OW967374.1,12481,294995
GCF_905322525.2_AI2623v1_cpp,GCF_905322525.2_AI2623v1_cpp_bin_3,NZ_OW967379.1,5413,5413
GCF_905322525.2_AI2623v1_cpp,GCF_905322525.2_AI2623v1_cpp_bin_2,NZ_OW967377.1,34760,34760
GCF_022925855.1_ASM2292585v1,GCF_022925855.1_ASM2292585v1_bin_1,NZ_CP094169.1,3465,3465
GCF_019704155.2_ASM1970415v2,GCF_019704155.2_ASM1970415v2_bin_1,NZ_AP024505.1,356830,355174
GCF_019704155.2_ASM1970415v2,GCF_019704155.2_ASM1970415v2_bin_1,NZ_AP024504.2,19333,355174
GCF_019704155.2_ASM1970415v2,GCF_019704155.2_ASM1970415v2_bin_4,NZ_AP024506.1,9518,9518
GCF_019704155.2_ASM1970415v2,GCF_019704155.2_ASM1970415v2_bin_3,NZ_AP024508.1,6962,6962
GCF_019704155.2_ASM1970415v2,GCF_019704155.2_ASM1970415v2_bin_2,NZ_AP024507.1,8937,8937
GCF_019704155.2_ASM1970415v2,GCF_019704155.2_ASM1970415v2_bin_5,NZ_AP024509.1,3166,3166
GCF_024707505.1_ASM2470750v1,GCF_024707505.1_ASM2470750v1_bin_1,NZ_CP102605.1,926110,926302
GCF_025148285.1_ASM2514828v1,GCF_025148285.1_ASM2514828v1_bin_Unbinned,NZ_CP102268.1,3194,3194
GCF_025148285.1_ASM2514828v1,GCF_025148285.1_ASM2514828v1_bin_1,NZ_CP102268.1,21978,6869
GCF_024371385.1_ASM2437138v1,GCF_024371385.1_ASM2437138v1_bin_2,NZ_CP088147.1,32652,30201
GCF_024371385.1_ASM2437138v1,GCF_024371385.1_ASM2437138v1_bin_1,NZ_CP088148.1,454366,454366
GCF_018588615.2_ASM1858861v2,GCF_018588615.2_ASM1858861v2_bin_1,NZ_CP094384.1,34496,34496
GCF_022220985.1_ASM2222098v1,GCF_022220985.1_ASM2222098v1_bin_Unbinned,NZ_CP076174.1,5752,5752
GCF_022220985.1_ASM2222098v1,GCF_022220985.1_ASM2222098v1_bin_1,NZ_CP076175.1,94805,94805
GCF_022220665.1_ASM2222066v1,GCF_022220665.1_ASM2222066v1_bin_2,NZ_CP076162.1,94811,94811
GCF_022220665.1_ASM2222066v1,GCF_022220665.1_ASM2222066v1_bin_1,NZ_CP076161.1,179912,179912
GCF_022537925.1_ASM2253792v1,GCF_022537925.1_ASM2253792v1_bin_3,NZ_CP092392.1,12668,12668
GCF_022537925.1_ASM2253792v1,GCF_022537925.1_ASM2253792v1_bin_2,NZ_CP092389.1,132705,139334
GCF_022537925.1_ASM2253792v1,GCF_022537925.1_ASM2253792v1_bin_2,NZ_CP092393.1,5296,139334
GCF_022537925.1_ASM2253792v1,GCF_022537925.1_ASM2253792v1_bin_1,NZ_CP092388.1,126761,186893
GCF_022537925.1_ASM2253792v1,GCF_022537925.1_ASM2253792v1_bin_1,NZ_CP092391.1,37132,186893
GCF_022537925.1_ASM2253792v1,GCF_022537925.1_ASM2253792v1_bin_1,NZ_CP092390.1,28288,186893
GCF_022537925.1_ASM2253792v1,GCF_022537925.1_ASM2253792v1_bin_1,NZ_CP092387.1,54925,186893
GCF_905335825.2_AN2340v1_cp,GCF_905335825.2_AN2340v1_cp_bin_5,NZ_OW969915.1,4526,4805
GCF_905335825.2_AN2340v1_cp,GCF_905335825.2_AN2340v1_cp_bin_2,NZ_OW969913.1,16880,16880
GCF_905335825.2_AN2340v1_cp,GCF_905335825.2_AN2340v1_cp_bin_4,NZ_OW969914.1,38944,38944
GCF_905335825.2_AN2340v1_cp,GCF_905335825.2_AN2340v1_cp_bin_3,NZ_OW969913.1,70935,70957
GCF_905335825.2_AN2340v1_cp,GCF_905335825.2_AN2340v1_cp_bin_1,NZ_OW969913.1,85411,85411
GCF_905335825.2_AN2340v1_cp,GCF_905335825.2_AN2340v1_cp_bin_Isolated_1,NZ_OW969913.1,25358,25358
GCF_022370635.1_ASM2237063v1,GCF_022370635.1_ASM2237063v1_bin_1,NZ_CP092363.1,46189,46189
GCF_022370635.1_ASM2237063v1,GCF_022370635.1_ASM2237063v1_bin_2,no_correct_alignments,0,0
GCF_905322535.1_AI2624v1_cpp,GCF_905322535.1_AI2624v1_cpp_bin_1,NZ_OW967390.1,25796,21975
GCF_905322535.1_AI2624v1_cpp,GCF_905322535.1_AI2624v1_cpp_bin_1,NZ_OW967388.1,7860,21975
GCF_905322535.1_AI2624v1_cpp,GCF_905322535.1_AI2624v1_cpp_bin_2,NZ_OW967389.1,209929,207444
GCF_905322535.1_AI2624v1_cpp,GCF_905322535.1_AI2624v1_cpp_bin_2,NZ_OW967388.1,8228,207444
GCF_905322535.1_AI2624v1_cpp,GCF_905322535.1_AI2624v1_cpp_bin_4,NZ_OW967391.1,3849,4077
GCF_905322535.1_AI2624v1_cpp,GCF_905322535.1_AI2624v1_cpp_bin_3,NZ_OW967390.1,48168,44347
GCF_905322535.1_AI2624v1_cpp,GCF_905322535.1_AI2624v1_cpp_bin_3,NZ_OW967388.1,7860,44347
GCF_022923135.1_ASM2292313v1,GCF_022923135.1_ASM2292313v1_bin_1,NZ_CP094112.1,3477,3477
GCF_020172765.2_ASM2017276v2,GCF_020172765.2_ASM2017276v2_bin_1,NZ_CP083462.1,154180,153046
GCF_020172765.2_ASM2017276v2,GCF_020172765.2_ASM2017276v2_bin_2,NZ_CP083463.1,1739,1739
GCF_022170805.1_ASM2217080v1,GCF_022170805.1_ASM2217080v1_bin_1,NZ_CP081873.1,347187,347232
GCF_022170805.1_ASM2217080v1,GCF_022170805.1_ASM2217080v1_bin_1,NZ_CP081872.1,2219,347232
GCF_022170805.1_ASM2217080v1,GCF_022170805.1_ASM2217080v1_bin_4,NZ_CP081876.1,2998,3188
GCF_022170805.1_ASM2217080v1,GCF_022170805.1_ASM2217080v1_bin_3,NZ_CP081875.1,13275,13277
GCF_022170805.1_ASM2217080v1,GCF_022170805.1_ASM2217080v1_bin_5,NZ_CP081877.1,1693,1764
GCF_022170805.1_ASM2217080v1,GCF_022170805.1_ASM2217080v1_bin_2,NZ_CP081874.1,259433,257207
GCF_023509315.1_ASM2350931v1,GCF_023509315.1_ASM2350931v1_bin_1,no_correct_alignments,0,0
GCF_022433565.1_ASM2243356v1,GCF_022433565.1_ASM2243356v1_bin_1,NZ_CP067967.1,109782,109782
GCF_023983475.1_ASM2398347v1,GCF_023983475.1_ASM2398347v1_bin_1,NZ_CP092713.1,43936,43936
GCF_023300045.1_ASM2330004v1,GCF_023300045.1_ASM2330004v1_bin_3,NZ_CP097075.1,3402,3402
GCF_023300045.1_ASM2330004v1,GCF_023300045.1_ASM2330004v1_bin_1,NZ_CP097072.1,105235,105235
GCF_023300045.1_ASM2330004v1,GCF_023300045.1_ASM2330004v1_bin_2,NZ_CP097073.1,10004,10004
GCF_024054255.2_ASM2405425v2,GCF_024054255.2_ASM2405425v2_bin_1,NZ_CP102715.1,43855,43855
GCF_024054255.2_ASM2405425v2,GCF_024054255.2_ASM2405425v2_bin_Unbinned,NZ_CP102714.1,2451,2451
GCF_021432745.1_ASM2143274v1,GCF_021432745.1_ASM2143274v1_bin_1,NZ_CP090181.1,8887,8887
GCF_021432745.1_ASM2143274v1,GCF_021432745.1_ASM2143274v1_bin_Unbinned,NZ_CP090180.1,1584,1584
GCF_023734115.1_ASM2373411v1,GCF_023734115.1_ASM2373411v1_bin_Isolated_1,NZ_AP025738.1,38182,38182
GCF_023734115.1_ASM2373411v1,GCF_023734115.1_ASM2373411v1_bin_1,no_correct_alignments,0,0
GCF_023734115.1_ASM2373411v1,GCF_023734115.1_ASM2373411v1_bin_Isolated_2,NZ_AP025737.1,258543,259444
GCF_905333885.2_AI2918v1_cp,GCF_905333885.2_AI2918v1_cp_bin_3,NZ_OW969662.1,60267,60267
GCF_905333885.2_AI2918v1_cp,GCF_905333885.2_AI2918v1_cp_bin_6,NZ_OW969665.1,2495,2495
GCF_905333885.2_AI2918v1_cp,GCF_905333885.2_AI2918v1_cp_bin_1,NZ_OW969663.1,25352,25487
GCF_905333885.2_AI2918v1_cp,GCF_905333885.2_AI2918v1_cp_bin_2,NZ_OW969660.1,160344,152188
GCF_905333885.2_AI2918v1_cp,GCF_905333885.2_AI2918v1_cp_bin_2,NZ_OW969659.1,21581,152188
GCF_905333885.2_AI2918v1_cp,GCF_905333885.2_AI2918v1_cp_bin_2,NZ_OW969663.1,1265,152188
GCF_905333885.2_AI2918v1_cp,GCF_905333885.2_AI2918v1_cp_bin_5,NZ_OW969664.1,6396,6396
GCF_905333885.2_AI2918v1_cp,GCF_905333885.2_AI2918v1_cp_bin_4,NZ_OW969661.1,107836,107836
GCF_905333885.2_AI2918v1_cp,GCF_905333885.2_AI2918v1_cp_bin_Unbinned,NZ_OW969663.1,3053,3053
GCF_022879575.1_ASM2287957v1,GCF_022879575.1_ASM2287957v1_bin_Unbinned,NZ_CP084261.1,128231,187331
GCF_022879575.1_ASM2287957v1,GCF_022879575.1_ASM2287957v1_bin_Unbinned,NZ_CP084263.1,59065,187331
GCF_022879575.1_ASM2287957v1,GCF_022879575.1_ASM2287957v1_bin_3,NZ_CP084264.1,20142,20142
GCF_022879575.1_ASM2287957v1,GCF_022879575.1_ASM2287957v1_bin_2,NZ_CP084262.1,749981,749981
GCF_022879575.1_ASM2287957v1,GCF_022879575.1_ASM2287957v1_bin_1,NZ_CP084263.1,607632,1677728
GCF_022879575.1_ASM2287957v1,GCF_022879575.1_ASM2287957v1_bin_1,NZ_CP084261.1,1071207,1677728
GCF_022879575.1_ASM2287957v1,GCF_022879575.1_ASM2287957v1_bin_1,NZ_CP084260.1,19287,1677728
GCF_022923515.1_ASM2292351v1,GCF_022923515.1_ASM2292351v1_bin_1,NZ_CP094118.1,6948,6948
GCF_021537535.1_ASM2153753v1,GCF_021537535.1_ASM2153753v1_bin_Unbinned,NZ_CP084539.1,3463,3463
GCF_021537535.1_ASM2153753v1,GCF_021537535.1_ASM2153753v1_bin_1,NZ_CP084540.1,135166,133165
GCF_021545335.1_ASM2154533v1,GCF_021545335.1_ASM2154533v1_bin_1,NZ_CP089312.1,1055,1055
GCF_905331345.2_AI3010v1_cpp,GCF_905331345.2_AI3010v1_cpp_bin_Isolated_1,NZ_OW968432.1,35239,35239
GCF_905331345.2_AI3010v1_cpp,GCF_905331345.2_AI3010v1_cpp_bin_1,NZ_OW968433.1,46522,48664
GCF_905331345.2_AI3010v1_cpp,GCF_905331345.2_AI3010v1_cpp_bin_Isolated_3,NZ_OW968432.1,11719,11719
GCF_905331345.2_AI3010v1_cpp,GCF_905331345.2_AI3010v1_cpp_bin_2,NZ_OW968434.1,4375,4375
GCF_905331345.2_AI3010v1_cpp,GCF_905331345.2_AI3010v1_cpp_bin_Isolated_2,NZ_OW968432.1,13429,13429
GCF_905331345.2_AI3010v1_cpp,GCF_905331345.2_AI3010v1_cpp_bin_Unbinned,NZ_OW968432.1,50183,50183
GCF_021496345.1_ASM2149634v1,GCF_021496345.1_ASM2149634v1_bin_1,NZ_CP045101.1,25165,25165
GCF_021496345.1_ASM2149634v1,GCF_021496345.1_ASM2149634v1_bin_2,no_correct_alignments,0,0
GCF_021496345.1_ASM2149634v1,GCF_021496345.1_ASM2149634v1_bin_3,no_correct_alignments,0,0
GCF_022220945.1_ASM2222094v1,GCF_022220945.1_ASM2222094v1_bin_1,NZ_CP076168.1,116982,116982
GCF_022220945.1_ASM2222094v1,GCF_022220945.1_ASM2222094v1_bin_2,NZ_CP076169.1,94805,94805
GCF_022221005.1_ASM2222100v1,GCF_022221005.1_ASM2222100v1_bin_1,NZ_CP076177.1,94815,94815
GCF_022921755.1_ASM2292175v1,GCF_022921755.1_ASM2292175v1_bin_2,NZ_CP094069.1,3202,3202
GCF_022921755.1_ASM2292175v1,GCF_022921755.1_ASM2292175v1_bin_1,NZ_CP094068.1,5695,5695
GCF_021398305.1_ASM2139830v1,GCF_021398305.1_ASM2139830v1_bin_Unbinned,NZ_CP071988.1,4161,4161
GCF_021398305.1_ASM2139830v1,GCF_021398305.1_ASM2139830v1_bin_1,NZ_CP071990.1,9891,9891
GCF_021398305.1_ASM2139830v1,GCF_021398305.1_ASM2139830v1_bin_2,NZ_CP071991.1,3265,3265
GCF_021513035.1_ASM2151303v1,GCF_021513035.1_ASM2151303v1_bin_5,NZ_CP091010.1,7169,7169
GCF_021513035.1_ASM2151303v1,GCF_021513035.1_ASM2151303v1_bin_1,NZ_CP091008.1,24446,24808
GCF_021513035.1_ASM2151303v1,GCF_021513035.1_ASM2151303v1_bin_3,NZ_CP091008.1,4297,4297
GCF_021513035.1_ASM2151303v1,GCF_021513035.1_ASM2151303v1_bin_2,NZ_CP091007.1,41666,40106
GCF_021513035.1_ASM2151303v1,GCF_021513035.1_ASM2151303v1_bin_2,NZ_CP091006.1,9370,40106
GCF_021513035.1_ASM2151303v1,GCF_021513035.1_ASM2151303v1_bin_4,NZ_CP091009.1,10356,10356
GCF_021559755.1_ASM2155975v1,GCF_021559755.1_ASM2155975v1_bin_1,NZ_CP056044.1,509588,1099714
GCF_021559755.1_ASM2155975v1,GCF_021559755.1_ASM2155975v1_bin_1,NZ_CP056046.1,241933,1099714
GCF_021559755.1_ASM2155975v1,GCF_021559755.1_ASM2155975v1_bin_1,NZ_CP056045.1,361974,1099714
GCF_021559755.1_ASM2155975v1,GCF_021559755.1_ASM2155975v1_bin_1,NZ_CP056042.1,7260,1099714
GCF_021559755.1_ASM2155975v1,GCF_021559755.1_ASM2155975v1_bin_1,NZ_CP056043.1,1043,1099714
GCF_905330835.2_AI2945v1_cpp,GCF_905330835.2_AI2945v1_cpp_bin_1,NZ_OW968348.1,86309,85108
GCF_905330835.2_AI2945v1_cpp,GCF_905330835.2_AI2945v1_cpp_bin_2,NZ_OW968349.1,2815,2815
GCF_905338045.2_AI3057v1_cp,GCF_905338045.2_AI3057v1_cp_bin_3,NZ_OW969907.1,12931,12931
GCF_905338045.2_AI3057v1_cp,GCF_905338045.2_AI3057v1_cp_bin_4,NZ_OW969910.1,6653,6653
GCF_905338045.2_AI3057v1_cp,GCF_905338045.2_AI3057v1_cp_bin_Isolated_1,NZ_OW969905.1,10976,10976
GCF_905338045.2_AI3057v1_cp,GCF_905338045.2_AI3057v1_cp_bin_Unbinned,NZ_OW969909.1,3345,3345
GCF_905338045.2_AI3057v1_cp,GCF_905338045.2_AI3057v1_cp_bin_1,NZ_OW969906.1,12190,12190
GCF_905338045.2_AI3057v1_cp,GCF_905338045.2_AI3057v1_cp_bin_1,NZ_OW969908.1,3664,12190
GCF_905338045.2_AI3057v1_cp,GCF_905338045.2_AI3057v1_cp_bin_1,NZ_OW969904.1,5476,12190
GCF_905338045.2_AI3057v1_cp,GCF_905338045.2_AI3057v1_cp_bin_1,NZ_OW969909.1,3664,12190
GCF_905338045.2_AI3057v1_cp,GCF_905338045.2_AI3057v1_cp_bin_5,NZ_OW969905.1,4858,4864
GCF_905338045.2_AI3057v1_cp,GCF_905338045.2_AI3057v1_cp_bin_2,NZ_OW969904.1,61738,153194
GCF_905338045.2_AI3057v1_cp,GCF_905338045.2_AI3057v1_cp_bin_2,NZ_OW969905.1,122182,153194
GCF_905338045.2_AI3057v1_cp,GCF_905338045.2_AI3057v1_cp_bin_2,NZ_OW969908.1,7547,153194
GCF_905338045.2_AI3057v1_cp,GCF_905338045.2_AI3057v1_cp_bin_2,NZ_OW969906.1,8185,153194
GCF_905338045.2_AI3057v1_cp,GCF_905338045.2_AI3057v1_cp_bin_2,NZ_OW969909.1,3664,153194
GCF_905338045.2_AI3057v1_cp,GCF_905338045.2_AI3057v1_cp_bin_6,NZ_OW969911.1,2195,2195
GCF_022394675.1_ASM2239467v1,GCF_022394675.1_ASM2239467v1_bin_1,NZ_CP091883.1,16118,16119
GCF_022394675.1_ASM2239467v1,GCF_022394675.1_ASM2239467v1_bin_Unbinned,NZ_CP091882.1,9611,9611
GCF_022592275.1_ASM2259227v1,GCF_022592275.1_ASM2259227v1_bin_3,no_correct_alignments,0,0
GCF_022592275.1_ASM2259227v1,GCF_022592275.1_ASM2259227v1_bin_1,NZ_CP093256.1,253621,264755
GCF_022592275.1_ASM2259227v1,GCF_022592275.1_ASM2259227v1_bin_1,NZ_CP093255.1,21062,264755
GCF_022592275.1_ASM2259227v1,GCF_022592275.1_ASM2259227v1_bin_2,NZ_CP093258.1,4840,4840
GCF_022592275.1_ASM2259227v1,GCF_022592275.1_ASM2259227v1_bin_Unbinned,NZ_CP093255.1,1386,1386
GCF_905337805.2_AN2353v1_cp,GCF_905337805.2_AN2353v1_cp_bin_4,NZ_OW969714.1,26834,26834
GCF_905337805.2_AN2353v1_cp,GCF_905337805.2_AN2353v1_cp_bin_2,NZ_OW969712.1,63704,62503
GCF_905337805.2_AN2353v1_cp,GCF_905337805.2_AN2353v1_cp_bin_1,NZ_OW969713.1,32262,32262
GCF_905337805.2_AN2353v1_cp,GCF_905337805.2_AN2353v1_cp_bin_3,NZ_OW969713.1,1528,1528
GCF_024205205.1_ASM2420520v1,GCF_024205205.1_ASM2420520v1_bin_1,NZ_CP100552.1,62520,60469
GCF_024721565.1_ASM2472156v1,GCF_024721565.1_ASM2472156v1_bin_1,NZ_CP102628.1,100887,100894
GCF_024225115.1_ASM2422511v1,GCF_024225115.1_ASM2422511v1_bin_2,NZ_CP100499.1,44698,44698
GCF_024225115.1_ASM2422511v1,GCF_024225115.1_ASM2422511v1_bin_1,NZ_CP100498.1,125668,124461
GCF_024225115.1_ASM2422511v1,GCF_024225115.1_ASM2422511v1_bin_1,NZ_CP100497.1,6135,124461
GCF_022922015.1_ASM2292201v1,GCF_022922015.1_ASM2292201v1_bin_1,NZ_CP094089.1,3846,3846
GCF_023757925.1_ASM2375792v1,GCF_023757925.1_ASM2375792v1_bin_3,NZ_CP092457.1,4275,4275
GCF_023757925.1_ASM2375792v1,GCF_023757925.1_ASM2375792v1_bin_2,NZ_CP092456.1,7232,7232
GCF_023757925.1_ASM2375792v1,GCF_023757925.1_ASM2375792v1_bin_1,NZ_CP092455.1,37296,37296
GCF_022439525.1_ASM2243952v1,GCF_022439525.1_ASM2243952v1_bin_Unbinned,NZ_CP091123.1,33351,33351
GCF_022439525.1_ASM2243952v1,GCF_022439525.1_ASM2243952v1_bin_1,NZ_CP091124.1,4504,4747
GCF_023573605.1_ASM2357360v1,GCF_023573605.1_ASM2357360v1_bin_1,NZ_CP097647.1,167404,166175
GCF_023573605.1_ASM2357360v1,GCF_023573605.1_ASM2357360v1_bin_2,NZ_CP097648.1,3148,3148
GCF_024206595.1_ASM2420659v1,GCF_024206595.1_ASM2420659v1_bin_1,NZ_CP100341.1,4285,4285
GCF_024206595.1_ASM2420659v1,GCF_024206595.1_ASM2420659v1_bin_Unbinned,NZ_CP100340.1,34233,34233
GCF_022923155.1_ASM2292315v1,GCF_022923155.1_ASM2292315v1_bin_1,NZ_CP094114.1,3477,3477
GCF_022220625.1_ASM2222062v1,GCF_022220625.1_ASM2222062v1_bin_2,NZ_CP076156.1,94815,94815
GCF_022220625.1_ASM2222062v1,GCF_022220625.1_ASM2222062v1_bin_1,NZ_CP076155.1,179903,179903
GCF_022922655.1_ASM2292265v1,GCF_022922655.1_ASM2292265v1_bin_1,NZ_CP094097.1,3457,3457
GCF_022879815.1_ASM2287981v1,GCF_022879815.1_ASM2287981v1_bin_1,NZ_CP084285.1,1094429,1094429
GCF_022879815.1_ASM2287981v1,GCF_022879815.1_ASM2287981v1_bin_1,NZ_CP084283.1,1114,1094429
GCF_022879815.1_ASM2287981v1,GCF_022879815.1_ASM2287981v1_bin_1,NZ_CP084287.1,1114,1094429
GCF_022879815.1_ASM2287981v1,GCF_022879815.1_ASM2287981v1_bin_Unbinned,NZ_CP084286.1,430057,772746
GCF_022879815.1_ASM2287981v1,GCF_022879815.1_ASM2287981v1_bin_Unbinned,NZ_CP084287.1,8329,772746
GCF_022879815.1_ASM2287981v1,GCF_022879815.1_ASM2287981v1_bin_Unbinned,NZ_CP084288.1,334360,772746
GCF_022879815.1_ASM2287981v1,GCF_022879815.1_ASM2287981v1_bin_2,NZ_CP084287.1,20957,20423
GCF_022879815.1_ASM2287981v1,GCF_022879815.1_ASM2287981v1_bin_2,NZ_CP084283.1,7770,20423
GCF_022879815.1_ASM2287981v1,GCF_022879815.1_ASM2287981v1_bin_3,NZ_CP084289.1,8158,8158
GCF_024741855.1_ASM2474185v1,GCF_024741855.1_ASM2474185v1_bin_1,NZ_CP097247.1,4561,4561
GCF_022921975.1_ASM2292197v1,GCF_022921975.1_ASM2292197v1_bin_1,NZ_CP094086.1,4411,4411
GCF_023375305.1_ASM2337530v1,GCF_023375305.1_ASM2337530v1_bin_2,NZ_CP091203.1,2924,2924
GCF_023375305.1_ASM2337530v1,GCF_023375305.1_ASM2337530v1_bin_1,NZ_CP091202.1,9959,9959
GCF_020641355.2_ASM2064135v2,GCF_020641355.2_ASM2064135v2_bin_1,NZ_CP104292.1,5688,5688
GCF_020641355.2_ASM2064135v2,GCF_020641355.2_ASM2064135v2_bin_2,NZ_CP104294.1,48498,48499
GCF_022925295.1_ASM2292529v1,GCF_022925295.1_ASM2292529v1_bin_1,NZ_CP094158.1,5316,5316
GCF_024206735.1_ASM2420673v1,GCF_024206735.1_ASM2420673v1_bin_Isolated_1,NZ_CP100330.1,6292,6292
GCF_024206735.1_ASM2420673v1,GCF_024206735.1_ASM2420673v1_bin_1,NZ_CP100331.1,4285,4285
GCF_022221025.1_ASM2222102v1,GCF_022221025.1_ASM2222102v1_bin_2,NZ_CP076180.1,94815,94815
GCF_022221025.1_ASM2222102v1,GCF_022221025.1_ASM2222102v1_bin_1,NZ_CP076179.1,179903,179903
GCF_022221185.1_ASM2222118v1,GCF_022221185.1_ASM2222118v1_bin_1,NZ_CP076202.1,180370,177888
GCF_022221185.1_ASM2222118v1,GCF_022221185.1_ASM2222118v1_bin_2,NZ_CP076203.1,94751,94751
GCF_905331265.2_AI2999v1_cpp,GCF_905331265.2_AI2999v1_cpp_bin_2,NZ_OW968329.1,71078,71078
GCF_905331265.2_AI2999v1_cpp,GCF_905331265.2_AI2999v1_cpp_bin_1,NZ_OW968330.1,61789,60588
GCF_021498285.1_ASM2149828v1,GCF_021498285.1_ASM2149828v1_bin_1,NZ_CP042362.1,79630,79630
GCF_004636605.1_ASM463660v2,GCF_004636605.1_ASM463660v2_bin_1,NZ_CP095727.1,661369,632793
GCF_024206755.1_ASM2420675v1,GCF_024206755.1_ASM2420675v1_bin_Isolated_1,NZ_CP100418.1,3496,3689
GCF_024206755.1_ASM2420675v1,GCF_024206755.1_ASM2420675v1_bin_1,NZ_CP100419.1,4284,4285
GCF_024917695.1_ASM2491769v1,GCF_024917695.1_ASM2491769v1_bin_3,NZ_CP103491.1,6920,6920
GCF_024917695.1_ASM2491769v1,GCF_024917695.1_ASM2491769v1_bin_2,NZ_CP103488.1,27205,12866
GCF_024917695.1_ASM2491769v1,GCF_024917695.1_ASM2491769v1_bin_4,NZ_CP103492.1,3887,4143
GCF_024917695.1_ASM2491769v1,GCF_024917695.1_ASM2491769v1_bin_5,NZ_CP103493.1,2772,2772
GCF_024917695.1_ASM2491769v1,GCF_024917695.1_ASM2491769v1_bin_1,NZ_CP103490.1,49837,165843
GCF_024917695.1_ASM2491769v1,GCF_024917695.1_ASM2491769v1_bin_1,NZ_CP103489.1,62364,165843
GCF_024917695.1_ASM2491769v1,GCF_024917695.1_ASM2491769v1_bin_1,NZ_CP103488.1,64909,165843
GCF_024917695.1_ASM2491769v1,GCF_024917695.1_ASM2491769v1_bin_1,NZ_CP103487.1,3659,165843
GCF_023822205.1_ASM2382220v1,GCF_023822205.1_ASM2382220v1_bin_5,NZ_CP087703.1,7402,7402
GCF_023822205.1_ASM2382220v1,GCF_023822205.1_ASM2382220v1_bin_4,NZ_CP087702.1,9044,9044
GCF_023822205.1_ASM2382220v1,GCF_023822205.1_ASM2382220v1_bin_3,NZ_CP087704.1,6968,6968
GCF_023822205.1_ASM2382220v1,GCF_023822205.1_ASM2382220v1_bin_2,NZ_CP087700.1,44775,44948
GCF_023822205.1_ASM2382220v1,GCF_023822205.1_ASM2382220v1_bin_2,NZ_CP087699.1,13512,44948
GCF_023822205.1_ASM2382220v1,GCF_023822205.1_ASM2382220v1_bin_1,NZ_CP087701.1,35746,35746
GCF_021919345.1_ASM2191934v1,GCF_021919345.1_ASM2191934v1_bin_1,NZ_CP089293.1,33916,7566
GCF_018588665.2_ASM1858866v2,GCF_018588665.2_ASM1858866v2_bin_1,NZ_CP094382.1,34496,34496
GCF_022846375.1_ASM2284637v1,GCF_022846375.1_ASM2284637v1_bin_1,NZ_AP025594.1,344851,366952
GCF_022846375.1_ASM2284637v1,GCF_022846375.1_ASM2284637v1_bin_1,NZ_AP025595.1,25316,366952
GCF_022846375.1_ASM2284637v1,GCF_022846375.1_ASM2284637v1_bin_1,NZ_AP025593.1,30139,366952
GCF_020641395.2_ASM2064139v2,GCF_020641395.2_ASM2064139v2_bin_1,NZ_CP104291.1,114869,114869
GCF_021496365.1_ASM2149636v1,GCF_021496365.1_ASM2149636v1_bin_4,NZ_CP045107.1,8543,8543
GCF_021496365.1_ASM2149636v1,GCF_021496365.1_ASM2149636v1_bin_3,NZ_CP045104.1,5811,5811
GCF_021496365.1_ASM2149636v1,GCF_021496365.1_ASM2149636v1_bin_2,NZ_CP045104.1,7790,7790
GCF_021496365.1_ASM2149636v1,GCF_021496365.1_ASM2149636v1_bin_1,NZ_CP045106.1,9843,9893
GCF_022220545.1_ASM2222054v1,GCF_022220545.1_ASM2222054v1_bin_1,NZ_CP076145.1,94684,94684
GCF_022221225.1_ASM2222122v1,GCF_022221225.1_ASM2222122v1_bin_1,NZ_CP076208.1,116978,116978
GCF_022221225.1_ASM2222122v1,GCF_022221225.1_ASM2222122v1_bin_2,NZ_CP076209.1,94812,94812
GCF_905333855.2_AI2913v1_cp,GCF_905333855.2_AI2913v1_cp_bin_1,NZ_OW969635.1,23173,21972
GCF_905333855.2_AI2913v1_cp,GCF_905333855.2_AI2913v1_cp_bin_2,NZ_OW969634.1,158439,150227
GCF_905333855.2_AI2913v1_cp,GCF_905333855.2_AI2913v1_cp_bin_3,NZ_OW969634.1,7980,2660
GCF_905333855.2_AI2913v1_cp,GCF_905333855.2_AI2913v1_cp_bin_Unbinned,NZ_OW969634.1,8744,2186
GCF_022343725.1_ASM2234372v1,GCF_022343725.1_ASM2234372v1_bin_1,NZ_CP092180.1,1828,1828
GCF_024333985.1_ASM2433398v1,GCF_024333985.1_ASM2433398v1_bin_1,NZ_CP084085.1,6067,4363
GCF_024734235.1_ASM2473423v1,GCF_024734235.1_ASM2473423v1_bin_1,NZ_CP102895.1,79433,274286
GCF_024734235.1_ASM2473423v1,GCF_024734235.1_ASM2473423v1_bin_1,NZ_CP102896.1,46161,274286
GCF_024734235.1_ASM2473423v1,GCF_024734235.1_ASM2473423v1_bin_1,NZ_CP102894.1,153979,274286
GCF_024734235.1_ASM2473423v1,GCF_024734235.1_ASM2473423v1_bin_1,NZ_CP102893.1,16181,274286
GCF_024734235.1_ASM2473423v1,GCF_024734235.1_ASM2473423v1_bin_2,NZ_CP102897.1,4513,4513
GCF_024086695.1_ASM2408669v1,GCF_024086695.1_ASM2408669v1_bin_1,no_correct_alignments,0,0
GCF_022846335.1_ASM2284633v1,GCF_022846335.1_ASM2284633v1_bin_1,NZ_AP025619.1,183914,360141
GCF_022846335.1_ASM2284633v1,GCF_022846335.1_ASM2284633v1_bin_1,NZ_AP025618.1,183772,360141
GCF_022846335.1_ASM2284633v1,GCF_022846335.1_ASM2284633v1_bin_1,NZ_AP025620.1,1099,360141
GCF_022846335.1_ASM2284633v1,GCF_022846335.1_ASM2284633v1_bin_2,NZ_AP025620.1,22021,22022
GCF_021398345.1_ASM2139834v1,GCF_021398345.1_ASM2139834v1_bin_1,NZ_CP071995.1,13277,13277
GCF_022220965.1_ASM2222096v1,GCF_022220965.1_ASM2222096v1_bin_1,NZ_CP076171.1,178160,178160
GCF_022220965.1_ASM2222096v1,GCF_022220965.1_ASM2222096v1_bin_2,NZ_CP076172.1,94811,94811
GCF_025146135.1_ASM2514613v1,GCF_025146135.1_ASM2514613v1_bin_1,no_correct_alignments,0,0
GCF_025146135.1_ASM2514613v1,GCF_025146135.1_ASM2514613v1_bin_2,no_correct_alignments,0,0
GCF_024734255.1_ASM2473425v1,GCF_024734255.1_ASM2473425v1_bin_2,NZ_CP102901.1,5207,5207
GCF_024734255.1_ASM2473425v1,GCF_024734255.1_ASM2473425v1_bin_1,NZ_CP102899.1,91152,156661
GCF_024734255.1_ASM2473425v1,GCF_024734255.1_ASM2473425v1_bin_1,NZ_CP102900.1,43692,156661
GCF_024734255.1_ASM2473425v1,GCF_024734255.1_ASM2473425v1_bin_1,NZ_CP102898.1,31686,156661
GCF_024734255.1_ASM2473425v1,GCF_024734255.1_ASM2473425v1_bin_3,NZ_CP102902.1,4353,4353
GCF_023823085.1_ASM2382308v1,GCF_023823085.1_ASM2382308v1_bin_Isolated_1,no_correct_alignments,0,0
GCF_023823085.1_ASM2382308v1,GCF_023823085.1_ASM2382308v1_bin_1,no_correct_alignments,0,0
GCF_022921195.1_ASM2292119v1,GCF_022921195.1_ASM2292119v1_bin_1,NZ_CP094053.1,7072,7072
GCF_022220525.1_ASM2222052v1,GCF_022220525.1_ASM2222052v1_bin_1,NZ_CP076142.1,181751,180710
GCF_022220525.1_ASM2222052v1,GCF_022220525.1_ASM2222052v1_bin_2,NZ_CP076143.1,94822,94822
GCF_023375155.1_ASM2337515v1,GCF_023375155.1_ASM2337515v1_bin_3,NZ_CP088186.1,2659,2924
GCF_023375155.1_ASM2337515v1,GCF_023375155.1_ASM2337515v1_bin_2,NZ_CP088184.1,8617,8617
GCF_023375155.1_ASM2337515v1,GCF_023375155.1_ASM2337515v1_bin_1,NZ_CP088183.1,27304,27304
GCF_023611705.1_ASM2361170v1,GCF_023611705.1_ASM2361170v1_bin_2,NZ_CP048248.1,5111,5111
GCF_023611705.1_ASM2361170v1,GCF_023611705.1_ASM2361170v1_bin_1,NZ_CP048247.1,39072,39072
GCF_023611705.1_ASM2361170v1,GCF_023611705.1_ASM2361170v1_bin_3,NZ_CP048249.1,4207,4207
GCF_022453665.1_ASM2245366v1,GCF_022453665.1_ASM2245366v1_bin_1,NZ_CP092642.1,33038,33038
GCF_022453665.1_ASM2245366v1,GCF_022453665.1_ASM2245366v1_bin_Unbinned,NZ_CP092641.1,24301,24301
GCF_022921835.1_ASM2292183v1,GCF_022921835.1_ASM2292183v1_bin_1,NZ_CP094075.1,4665,4665
GCF_024717335.1_ASM2471733v1,GCF_024717335.1_ASM2471733v1_bin_1,NZ_CP094959.1,17095,17095
GCF_023375135.1_ASM2337513v1,GCF_023375135.1_ASM2337513v1_bin_1,NZ_CP088150.1,9129,9129
GCF_024206615.1_ASM2420661v1,GCF_024206615.1_ASM2420661v1_bin_Unbinned,NZ_CP100338.1,31585,31585
GCF_024206615.1_ASM2420661v1,GCF_024206615.1_ASM2420661v1_bin_1,NZ_CP100339.1,4188,4285
GCF_022648965.1_ASM2264896v1,GCF_022648965.1_ASM2264896v1_bin_1,NZ_CP093377.1,8545,8545
GCF_022648965.1_ASM2264896v1,GCF_022648965.1_ASM2264896v1_bin_Unbinned,NZ_CP093376.1,487694,605923
GCF_022648965.1_ASM2264896v1,GCF_022648965.1_ASM2264896v1_bin_Unbinned,NZ_CP093375.1,117708,605923
GCF_024800705.1_ASM2480070v1,GCF_024800705.1_ASM2480070v1_bin_1,NZ_CP103398.1,54453,54454
GCF_025149125.1_ASM2514912v1,GCF_025149125.1_ASM2514912v1_bin_Unbinned,NZ_CP102272.1,1608,1608
GCF_025149125.1_ASM2514912v1,GCF_025149125.1_ASM2514912v1_bin_1,NZ_CP102272.1,5555,5555
GCF_022591895.1_ASM2259189v1,GCF_022591895.1_ASM2259189v1_bin_Unbinned,NZ_CP093249.1,71437,71439
GCF_022591895.1_ASM2259189v1,GCF_022591895.1_ASM2259189v1_bin_5,NZ_CP093254.1,6554,6554
GCF_022591895.1_ASM2259189v1,GCF_022591895.1_ASM2259189v1_bin_2,NZ_CP093249.1,51894,51894
GCF_022591895.1_ASM2259189v1,GCF_022591895.1_ASM2259189v1_bin_4,NZ_CP093252.1,10213,10213
GCF_022591895.1_ASM2259189v1,GCF_022591895.1_ASM2259189v1_bin_3,NZ_CP093250.1,2780,2780
GCF_022591895.1_ASM2259189v1,GCF_022591895.1_ASM2259189v1_bin_1,NZ_CP093250.1,226642,226642
GCF_022591895.1_ASM2259189v1,GCF_022591895.1_ASM2259189v1_bin_1,NZ_CP093249.1,1078,226642
GCF_021398325.1_ASM2139832v1,GCF_021398325.1_ASM2139832v1_bin_1,NZ_CP071993.1,24268,24268
GCF_021398325.1_ASM2139832v1,GCF_021398325.1_ASM2139832v1_bin_1,NZ_CP071992.1,8838,24268
GCF_023612255.1_ASM2361225v1,GCF_023612255.1_ASM2361225v1_bin_Unbinned,NZ_CP063231.1,1774,1774
GCF_023612255.1_ASM2361225v1,GCF_023612255.1_ASM2361225v1_bin_1,NZ_CP063231.1,1356,1356
GCF_024400535.1_ASM2440053v1,GCF_024400535.1_ASM2440053v1_bin_1,NZ_CP038800.1,2522,2522
GCF_023822185.1_ASM2382218v1,GCF_023822185.1_ASM2382218v1_bin_3,NZ_CP087603.1,47829,63265
GCF_023822185.1_ASM2382218v1,GCF_023822185.1_ASM2382218v1_bin_3,NZ_CP087601.1,15248,63265
GCF_023822185.1_ASM2382218v1,GCF_023822185.1_ASM2382218v1_bin_3,NZ_CP087600.1,1736,63265
GCF_023822185.1_ASM2382218v1,GCF_023822185.1_ASM2382218v1_bin_3,NZ_CP087602.1,1549,63265
GCF_023822185.1_ASM2382218v1,GCF_023822185.1_ASM2382218v1_bin_1,NZ_CP087601.1,68353,67299
GCF_023822185.1_ASM2382218v1,GCF_023822185.1_ASM2382218v1_bin_1,NZ_CP087600.1,1038,67299
GCF_023822185.1_ASM2382218v1,GCF_023822185.1_ASM2382218v1_bin_2,NZ_CP087605.1,29567,81456
GCF_023822185.1_ASM2382218v1,GCF_023822185.1_ASM2382218v1_bin_2,NZ_CP087602.1,48025,81456
GCF_023822185.1_ASM2382218v1,GCF_023822185.1_ASM2382218v1_bin_2,NZ_CP087600.1,4974,81456
GCF_023822185.1_ASM2382218v1,GCF_023822185.1_ASM2382218v1_bin_2,NZ_CP087601.1,5413,81456
GCF_023822185.1_ASM2382218v1,GCF_023822185.1_ASM2382218v1_bin_2,NZ_CP087603.1,1549,81456
GCF_023822185.1_ASM2382218v1,GCF_023822185.1_ASM2382218v1_bin_4,NZ_CP087604.1,34145,34145
GCF_023822185.1_ASM2382218v1,GCF_023822185.1_ASM2382218v1_bin_4,NZ_CP087605.1,1692,34145
GCF_021650955.1_ASM2165095v1,GCF_021650955.1_ASM2165095v1_bin_1,NZ_CP091282.1,4143,4143
GCF_024137845.1_ASM2413784v1,GCF_024137845.1_ASM2413784v1_bin_1,no_correct_alignments,0,0
GCF_905329555.2_AI2744v1_cpp,GCF_905329555.2_AI2744v1_cpp_bin_3,NZ_OW967518.1,16984,16984
GCF_905329555.2_AI2744v1_cpp,GCF_905329555.2_AI2744v1_cpp_bin_2,NZ_OW967519.1,191867,190694
GCF_905329555.2_AI2744v1_cpp,GCF_905329555.2_AI2744v1_cpp_bin_2,NZ_OW967520.1,1330,190694
GCF_905329555.2_AI2744v1_cpp,GCF_905329555.2_AI2744v1_cpp_bin_2,NZ_OW967518.1,1330,190694
GCF_905329555.2_AI2744v1_cpp,GCF_905329555.2_AI2744v1_cpp_bin_1,NZ_OW967520.1,109361,109361
GCF_905329555.2_AI2744v1_cpp,GCF_905329555.2_AI2744v1_cpp_bin_1,NZ_OW967518.1,1330,109361
GCF_905329555.2_AI2744v1_cpp,GCF_905329555.2_AI2744v1_cpp_bin_1,NZ_OW967519.1,1330,109361
GCF_905329555.2_AI2744v1_cpp,GCF_905329555.2_AI2744v1_cpp_bin_4,NZ_OW967521.1,10058,10058
GCF_905329555.2_AI2744v1_cpp,GCF_905329555.2_AI2744v1_cpp_bin_5,NZ_OW967522.1,2495,2495
GCF_023299445.1_ASM2329944v1,GCF_023299445.1_ASM2329944v1_bin_1,NZ_CP097044.1,13800,11580
GCF_022221125.1_ASM2222112v1,GCF_022221125.1_ASM2222112v1_bin_2,NZ_CP076194.1,94808,94808
GCF_022221125.1_ASM2222112v1,GCF_022221125.1_ASM2222112v1_bin_1,NZ_CP076193.1,178164,178164
GCF_024224355.1_ASM2422435v1,GCF_024224355.1_ASM2422435v1_bin_2,NZ_CP100484.1,38149,38149
GCF_024224355.1_ASM2422435v1,GCF_024224355.1_ASM2422435v1_bin_2,NZ_CP100482.1,1335,38149
GCF_024224355.1_ASM2422435v1,GCF_024224355.1_ASM2422435v1_bin_1,NZ_CP100483.1,44698,44698
GCF_024224355.1_ASM2422435v1,GCF_024224355.1_ASM2422435v1_bin_3,NZ_CP100485.1,5962,5962
GCF_021459905.1_ASM2145990v1,GCF_021459905.1_ASM2145990v1_bin_1,NZ_CP090512.1,26361,26361
GCF_022923575.1_ASM2292357v1,GCF_022923575.1_ASM2292357v1_bin_1,NZ_CP094176.1,3355,3355
GCF_023299345.1_ASM2329934v1,GCF_023299345.1_ASM2329934v1_bin_1,NZ_CP097052.1,7764,7764
GCF_024637975.1_ASM2463797v1,GCF_024637975.1_ASM2463797v1_bin_3,NZ_CP097168.1,2439,2439
GCF_024637975.1_ASM2463797v1,GCF_024637975.1_ASM2463797v1_bin_2,NZ_CP097167.1,26379,26381
GCF_024637975.1_ASM2463797v1,GCF_024637975.1_ASM2463797v1_bin_2,NZ_CP097166.1,2197,26381
GCF_024637975.1_ASM2463797v1,GCF_024637975.1_ASM2463797v1_bin_1,NZ_CP097166.1,246265,244976
GCF_024637975.1_ASM2463797v1,GCF_024637975.1_ASM2463797v1_bin_1,NZ_CP097167.1,2197,244976
GCF_024637975.1_ASM2463797v1,GCF_024637975.1_ASM2463797v1_bin_1,NZ_CP097165.1,2578,244976
GCF_024637975.1_ASM2463797v1,GCF_024637975.1_ASM2463797v1_bin_4,NZ_CP097169.1,2898,2898
GCF_024053515.2_ASM2405351v2,GCF_024053515.2_ASM2405351v2_bin_1,no_correct_alignments,0,0
GCF_024053515.2_ASM2405351v2,GCF_024053515.2_ASM2405351v2_bin_Unbinned,NZ_CP102718.1,27744,27744
GCF_022592155.1_ASM2259215v1,GCF_022592155.1_ASM2259215v1_bin_2,NZ_CP093241.1,45794,42940
GCF_022592155.1_ASM2259215v1,GCF_022592155.1_ASM2259215v1_bin_1,NZ_CP093240.1,105950,96578
GCF_022592155.1_ASM2259215v1,GCF_022592155.1_ASM2259215v1_bin_1,NZ_CP093239.1,22964,96578
GCF_024158965.2_ASM2415896v2,GCF_024158965.2_ASM2415896v2_bin_1,NZ_CP102861.1,2589,46587
GCF_024158965.2_ASM2415896v2,GCF_024158965.2_ASM2415896v2_bin_1,NZ_CP102859.1,6381,46587
GCF_024158965.2_ASM2415896v2,GCF_024158965.2_ASM2415896v2_bin_1,NZ_CP102862.1,9376,46587
GCF_024158965.2_ASM2415896v2,GCF_024158965.2_ASM2415896v2_bin_1,NZ_CP102864.1,5709,46587
GCF_024158965.2_ASM2415896v2,GCF_024158965.2_ASM2415896v2_bin_2,NZ_CP102861.1,14280,34543
GCF_024158965.2_ASM2415896v2,GCF_024158965.2_ASM2415896v2_bin_2,NZ_CP102859.1,27459,34543
GCF_024158965.2_ASM2415896v2,GCF_024158965.2_ASM2415896v2_bin_4,NZ_CP102863.1,8713,8713
GCF_024158965.2_ASM2415896v2,GCF_024158965.2_ASM2415896v2_bin_3,NZ_CP102860.1,42901,40239
GCF_024158965.2_ASM2415896v2,GCF_024158965.2_ASM2415896v2_bin_3,NZ_CP102859.1,6655,40239
GCF_024917395.1_ASM2491739v1,GCF_024917395.1_ASM2491739v1_bin_2,NZ_CP103578.1,31220,4460
GCF_024917395.1_ASM2491739v1,GCF_024917395.1_ASM2491739v1_bin_2,NZ_CP103577.1,8920,4460
GCF_024917395.1_ASM2491739v1,GCF_024917395.1_ASM2491739v1_bin_3,NZ_CP103577.1,28777,3953
GCF_024917395.1_ASM2491739v1,GCF_024917395.1_ASM2491739v1_bin_1,NZ_CP103578.1,143039,244877
GCF_024917395.1_ASM2491739v1,GCF_024917395.1_ASM2491739v1_bin_1,NZ_CP103577.1,155799,244877
GCF_022592015.1_ASM2259201v1,GCF_022592015.1_ASM2259201v1_bin_3,NZ_CP093248.1,2513,2515
GCF_022592015.1_ASM2259201v1,GCF_022592015.1_ASM2259201v1_bin_1,NZ_CP093246.1,257087,257087
GCF_022592015.1_ASM2259201v1,GCF_022592015.1_ASM2259201v1_bin_2,NZ_CP093247.1,3090,3091
GCF_021496075.1_ASM2149607v1,GCF_021496075.1_ASM2149607v1_bin_1,NZ_CP090923.1,8258,8258
GCF_018588605.2_ASM1858860v2,GCF_018588605.2_ASM1858860v2_bin_1,NZ_CP094387.1,17188,50069
GCF_018588605.2_ASM1858860v2,GCF_018588605.2_ASM1858860v2_bin_1,NZ_CP094389.1,18282,50069
GCF_018588605.2_ASM1858860v2,GCF_018588605.2_ASM1858860v2_bin_1,NZ_CP094395.1,8209,50069
GCF_018588605.2_ASM1858860v2,GCF_018588605.2_ASM1858860v2_bin_1,NZ_CP094390.1,4052,50069
GCF_018588605.2_ASM1858860v2,GCF_018588605.2_ASM1858860v2_bin_1,NZ_CP094394.1,3353,50069
GCF_018588605.2_ASM1858860v2,GCF_018588605.2_ASM1858860v2_bin_1,NZ_CP094385.1,6392,50069
GCF_018588605.2_ASM1858860v2,GCF_018588605.2_ASM1858860v2_bin_1,NZ_CP094391.1,1015,50069
GCF_018588605.2_ASM1858860v2,GCF_018588605.2_ASM1858860v2_bin_1,NZ_CP094386.1,4060,50069
GCF_018588605.2_ASM1858860v2,GCF_018588605.2_ASM1858860v2_bin_1,NZ_CP094388.1,1015,50069
GCF_018588605.2_ASM1858860v2,GCF_018588605.2_ASM1858860v2_bin_2,NZ_CP094386.1,62123,118511
GCF_018588605.2_ASM1858860v2,GCF_018588605.2_ASM1858860v2_bin_2,NZ_CP094390.1,21771,118511
GCF_018588605.2_ASM1858860v2,GCF_018588605.2_ASM1858860v2_bin_2,NZ_CP094388.1,13425,118511
GCF_018588605.2_ASM1858860v2,GCF_018588605.2_ASM1858860v2_bin_2,NZ_CP094391.1,11040,118511
GCF_018588605.2_ASM1858860v2,GCF_018588605.2_ASM1858860v2_bin_2,NZ_CP094389.1,12071,118511
GCF_018588605.2_ASM1858860v2,GCF_018588605.2_ASM1858860v2_bin_2,NZ_CP094387.1,6243,118511
GCF_018588605.2_ASM1858860v2,GCF_018588605.2_ASM1858860v2_bin_2,NZ_CP094385.1,9025,118511
GCF_018588605.2_ASM1858860v2,GCF_018588605.2_ASM1858860v2_bin_5,NZ_CP094392.1,17237,17237
GCF_018588605.2_ASM1858860v2,GCF_018588605.2_ASM1858860v2_bin_Isolated_1,no_correct_alignments,0,0
GCF_018588605.2_ASM1858860v2,GCF_018588605.2_ASM1858860v2_bin_4,NZ_CP094388.1,25868,62027
GCF_018588605.2_ASM1858860v2,GCF_018588605.2_ASM1858860v2_bin_4,NZ_CP094391.1,7268,62027
GCF_018588605.2_ASM1858860v2,GCF_018588605.2_ASM1858860v2_bin_4,NZ_CP094390.1,8697,62027
GCF_018588605.2_ASM1858860v2,GCF_018588605.2_ASM1858860v2_bin_4,NZ_CP094394.1,6253,62027
GCF_018588605.2_ASM1858860v2,GCF_018588605.2_ASM1858860v2_bin_4,NZ_CP094386.1,13075,62027
GCF_018588605.2_ASM1858860v2,GCF_018588605.2_ASM1858860v2_bin_4,NZ_CP094385.1,14489,62027
GCF_018588605.2_ASM1858860v2,GCF_018588605.2_ASM1858860v2_bin_4,NZ_CP094387.1,9325,62027
GCF_018588605.2_ASM1858860v2,GCF_018588605.2_ASM1858860v2_bin_4,NZ_CP094389.1,1059,62027
GCF_018588605.2_ASM1858860v2,GCF_018588605.2_ASM1858860v2_bin_Unbinned,NZ_CP094393.1,13280,13280
GCF_018588605.2_ASM1858860v2,GCF_018588605.2_ASM1858860v2_bin_3,NZ_CP094387.1,11331,11331
GCF_021559735.1_ASM2155973v1,GCF_021559735.1_ASM2155973v1_bin_Unbinned,NZ_CP055265.1,6796,3398
GCF_021559735.1_ASM2155973v1,GCF_021559735.1_ASM2155973v1_bin_1,NZ_CP055267.1,264795,259779
GCF_021559735.1_ASM2155973v1,GCF_021559735.1_ASM2155973v1_bin_1,NZ_CP055265.1,13642,259779
GCF_021559735.1_ASM2155973v1,GCF_021559735.1_ASM2155973v1_bin_1,NZ_CP055266.1,2720,259779
GCF_021559735.1_ASM2155973v1,GCF_021559735.1_ASM2155973v1_bin_2,NZ_CP055265.1,2008,2008
GCF_021496035.1_ASM2149603v1,GCF_021496035.1_ASM2149603v1_bin_1,NZ_CP090918.1,9511,11696
GCF_021496035.1_ASM2149603v1,GCF_021496035.1_ASM2149603v1_bin_1,NZ_CP090919.1,3935,11696
GCF_021496035.1_ASM2149603v1,GCF_021496035.1_ASM2149603v1_bin_2,NZ_CP090917.1,23404,58157
GCF_021496035.1_ASM2149603v1,GCF_021496035.1_ASM2149603v1_bin_2,NZ_CP090916.1,33292,58157
GCF_021496035.1_ASM2149603v1,GCF_021496035.1_ASM2149603v1_bin_3,NZ_CP090921.1,2141,2141
GCF_021496035.1_ASM2149603v1,GCF_021496035.1_ASM2149603v1_bin_Unbinned,NZ_CP090920.1,5608,9865
GCF_021496035.1_ASM2149603v1,GCF_021496035.1_ASM2149603v1_bin_Unbinned,NZ_CP090919.1,4257,9865
GCF_023822665.1_ASM2382266v1,GCF_023822665.1_ASM2382266v1_bin_2,NZ_CP097848.1,4197,4197
GCF_023822665.1_ASM2382266v1,GCF_023822665.1_ASM2382266v1_bin_1,NZ_CP097847.1,41997,41997
GCF_021498245.1_ASM2149824v1,GCF_021498245.1_ASM2149824v1_bin_1,NZ_CP042356.1,3330,3461
GCF_021459805.1_ASM2145980v1,GCF_021459805.1_ASM2145980v1_bin_1,NZ_CP090507.1,24210,24210
GCF_022221145.1_ASM2222114v1,GCF_022221145.1_ASM2222114v1_bin_1,NZ_CP076196.1,178151,178151
GCF_022221145.1_ASM2222114v1,GCF_022221145.1_ASM2222114v1_bin_2,NZ_CP076197.1,94795,94795
GCF_024397315.1_ASM2439731v1,GCF_024397315.1_ASM2439731v1_bin_1,NZ_CP101614.1,165111,165111
GCF_025232495.1_ASM2523249v1,GCF_025232495.1_ASM2523249v1_bin_Unbinned,NZ_CP012237.1,3035,3035
GCF_025232495.1_ASM2523249v1,GCF_025232495.1_ASM2523249v1_bin_1,NZ_CP012237.1,57464,57464
GCF_022221305.1_ASM2222130v1,GCF_022221305.1_ASM2222130v1_bin_1,NZ_CP076220.1,178291,178291
GCF_022221305.1_ASM2222130v1,GCF_022221305.1_ASM2222130v1_bin_2,NZ_CP076221.1,94760,94760
GCF_024582835.1_ASM2458283v1,GCF_024582835.1_ASM2458283v1_bin_1,NZ_CP102098.1,13637,13637
GCF_024582835.1_ASM2458283v1,GCF_024582835.1_ASM2458283v1_bin_Unbinned,NZ_CP102097.1,1131,1131
GCF_004636745.1_ASM463674v2,GCF_004636745.1_ASM463674v2_bin_1,NZ_CP095729.1,68977,69020
GCF_022674245.1_ASM2267424v1,GCF_022674245.1_ASM2267424v1_bin_1,NZ_CP080467.1,149870,122776
GCF_022674245.1_ASM2267424v1,GCF_022674245.1_ASM2267424v1_bin_1,NZ_CP080468.1,7849,122776
GCF_022845795.1_ASM2284579v1,GCF_022845795.1_ASM2284579v1_bin_2,NZ_AP025568.1,2818,2818
GCF_022845795.1_ASM2284579v1,GCF_022845795.1_ASM2284579v1_bin_1,NZ_AP025568.1,5644,5644
GCF_021899855.1_ASM2189985v1,GCF_021899855.1_ASM2189985v1_bin_Unbinned,NZ_CP091645.1,3571,3571
GCF_021899855.1_ASM2189985v1,GCF_021899855.1_ASM2189985v1_bin_Isolated_1,NZ_CP091645.1,18652,18653
GCF_021899855.1_ASM2189985v1,GCF_021899855.1_ASM2189985v1_bin_3,no_correct_alignments,0,0
GCF_021899855.1_ASM2189985v1,GCF_021899855.1_ASM2189985v1_bin_Isolated_5,NZ_CP091645.1,2902,2902
GCF_021899855.1_ASM2189985v1,GCF_021899855.1_ASM2189985v1_bin_Isolated_2,NZ_CP091645.1,8553,8554
GCF_021899855.1_ASM2189985v1,GCF_021899855.1_ASM2189985v1_bin_1,NZ_CP091645.1,18182,18186
GCF_021899855.1_ASM2189985v1,GCF_021899855.1_ASM2189985v1_bin_Isolated_3,NZ_CP091645.1,3073,3280
GCF_021899855.1_ASM2189985v1,GCF_021899855.1_ASM2189985v1_bin_2,no_correct_alignments,0,0
GCF_021899855.1_ASM2189985v1,GCF_021899855.1_ASM2189985v1_bin_Isolated_4,NZ_CP091645.1,2985,2988
GCF_024918255.1_ASM2491825v1,GCF_024918255.1_ASM2491825v1_bin_1,NZ_CP103684.1,200688,256334
GCF_024918255.1_ASM2491825v1,GCF_024918255.1_ASM2491825v1_bin_1,NZ_CP103685.1,58314,256334
GCF_024918255.1_ASM2491825v1,GCF_024918255.1_ASM2491825v1_bin_1,NZ_CP103683.1,4884,256334
GCF_024918255.1_ASM2491825v1,GCF_024918255.1_ASM2491825v1_bin_2,NZ_CP103686.1,4096,4096
GCF_025151535.1_ASM2515153v1,GCF_025151535.1_ASM2515153v1_bin_1,NZ_CP102288.1,19923,158387
GCF_025151535.1_ASM2515153v1,GCF_025151535.1_ASM2515153v1_bin_2,NZ_CP102288.1,38712,53877
GCF_024218835.1_ASM2421883v1,GCF_024218835.1_ASM2421883v1_bin_1,NZ_CP100389.1,43673,43673
GCF_024206695.1_ASM2420669v1,GCF_024206695.1_ASM2420669v1_bin_1,NZ_CP100326.1,9962,9962
GCF_024206695.1_ASM2420669v1,GCF_024206695.1_ASM2420669v1_bin_2,NZ_CP100327.1,4285,4285
GCF_022922915.1_ASM2292291v1,GCF_022922915.1_ASM2292291v1_bin_1,NZ_CP094100.1,3507,3507
GCF_025148785.1_ASM2514878v1,GCF_025148785.1_ASM2514878v1_bin_Unbinned,NZ_CP102271.1,37564,37564
GCF_025148785.1_ASM2514878v1,GCF_025148785.1_ASM2514878v1_bin_1,NZ_CP102271.1,18888,10355
GCF_025148785.1_ASM2514878v1,GCF_025148785.1_ASM2514878v1_bin_2,NZ_CP102271.1,5054,5054
GCF_022220685.1_ASM2222068v1,GCF_022220685.1_ASM2222068v1_bin_2,NZ_CP076730.1,94342,94342
GCF_022220685.1_ASM2222068v1,GCF_022220685.1_ASM2222068v1_bin_1,NZ_CP076729.1,180073,180073
GCF_023611765.1_ASM2361176v1,GCF_023611765.1_ASM2361176v1_bin_1,NZ_CP048251.1,42001,42001
GCF_023611765.1_ASM2361176v1,GCF_023611765.1_ASM2361176v1_bin_2,NZ_CP048252.1,5155,5155
GCF_023611765.1_ASM2361176v1,GCF_023611765.1_ASM2361176v1_bin_3,NZ_CP048253.1,4207,4207
GCF_022220605.1_ASM2222060v1,GCF_022220605.1_ASM2222060v1_bin_1,NZ_CP076152.1,178162,178162
GCF_022220605.1_ASM2222060v1,GCF_022220605.1_ASM2222060v1_bin_2,NZ_CP076153.1,94815,94815
GCF_024611995.1_ASM2461199v1,GCF_024611995.1_ASM2461199v1_bin_1,NZ_CP102510.1,62176,62203
GCF_024611995.1_ASM2461199v1,GCF_024611995.1_ASM2461199v1_bin_Unbinned,NZ_CP102510.1,142510,142511
GCF_022923675.1_ASM2292367v1,GCF_022923675.1_ASM2292367v1_bin_1,NZ_CP094123.1,9544,9544
GCF_022220565.1_ASM2222056v1,GCF_022220565.1_ASM2222056v1_bin_1,NZ_CP076147.1,94806,94806
GCF_903815275.1_hybrid_BB1454,GCF_903815275.1_hybrid_BB1454_bin_2,NZ_LR813086.1,48365,48365
GCF_903815275.1_hybrid_BB1454,GCF_903815275.1_hybrid_BB1454_bin_Isolated_1,NZ_LR813086.1,41998,41998
GCF_903815275.1_hybrid_BB1454,GCF_903815275.1_hybrid_BB1454_bin_1,NZ_LR813086.1,53046,51727
GCF_022846195.1_ASM2284619v1,GCF_022846195.1_ASM2284619v1_bin_1,NZ_AP025556.1,49686,31000
GCF_022846195.1_ASM2284619v1,GCF_022846195.1_ASM2284619v1_bin_Unbinned,NZ_AP025556.1,3639,1213
GCF_022846195.1_ASM2284619v1,GCF_022846195.1_ASM2284619v1_bin_2,no_correct_alignments,0,0
GCF_905330865.2_AI2946v1_cpp,GCF_905330865.2_AI2946v1_cpp_bin_2,NZ_OW968282.1,2815,2815
GCF_905330865.2_AI2946v1_cpp,GCF_905330865.2_AI2946v1_cpp_bin_1,NZ_OW968281.1,86309,85108
GCF_021586915.1_ASM2158691v1,GCF_021586915.1_ASM2158691v1_bin_1,no_correct_alignments,0,0
GCF_022925675.1_ASM2292567v1,GCF_022925675.1_ASM2292567v1_bin_1,NZ_CP094162.1,9835,9835
GCF_024637915.1_ASM2463791v1,GCF_024637915.1_ASM2463791v1_bin_1,NZ_CP094947.1,51749,51749
GCF_021513115.1_ASM2151311v1,GCF_021513115.1_ASM2151311v1_bin_3,NZ_CP090995.1,4494,4494
GCF_021513115.1_ASM2151311v1,GCF_021513115.1_ASM2151311v1_bin_5,NZ_CP090997.1,7169,7169
GCF_021513115.1_ASM2151311v1,GCF_021513115.1_ASM2151311v1_bin_1,NZ_CP090995.1,24753,24753
GCF_021513115.1_ASM2151311v1,GCF_021513115.1_ASM2151311v1_bin_2,NZ_CP090994.1,41333,39806
GCF_021513115.1_ASM2151311v1,GCF_021513115.1_ASM2151311v1_bin_2,NZ_CP090993.1,9155,39806
GCF_021513115.1_ASM2151311v1,GCF_021513115.1_ASM2151311v1_bin_4,NZ_CP090996.1,10356,10356
GCF_022833145.1_ASM2283314v1,GCF_022833145.1_ASM2283314v1_bin_1,NZ_CP050252.1,13746,13750
GCF_024722495.1_ASM2472249v1,GCF_024722495.1_ASM2472249v1_bin_1,NZ_CP102750.1,3818,3818
GCF_022921915.1_ASM2292191v1,GCF_022921915.1_ASM2292191v1_bin_1,NZ_CP094081.1,6853,6853
GCF_022924655.1_ASM2292465v1,GCF_022924655.1_ASM2292465v1_bin_1,NZ_CP094146.1,9339,9339
GCF_905337845.2_AN2351v1_cp,GCF_905337845.2_AN2351v1_cp_bin_1,NZ_OW969693.1,63698,62497
GCF_905337845.2_AN2351v1_cp,GCF_905337845.2_AN2351v1_cp_bin_Unbinned,NZ_OW969692.1,102922,102922
GCF_021459825.1_ASM2145982v1,GCF_021459825.1_ASM2145982v1_bin_1,NZ_CP090505.1,24210,24210
GCF_022921955.1_ASM2292195v1,GCF_022921955.1_ASM2292195v1_bin_1,NZ_CP094084.1,3322,3322
GCF_022374875.1_ASM2237487v1,GCF_022374875.1_ASM2237487v1_bin_2,NZ_CP092428.1,9830,9830
GCF_022374875.1_ASM2237487v1,GCF_022374875.1_ASM2237487v1_bin_2,NZ_CP092427.1,9336,9830
GCF_022374875.1_ASM2237487v1,GCF_022374875.1_ASM2237487v1_bin_1,no_correct_alignments,0,0
GCF_022374875.1_ASM2237487v1,GCF_022374875.1_ASM2237487v1_bin_3,no_correct_alignments,0,0
GCF_024918215.1_ASM2491821v1,GCF_024918215.1_ASM2491821v1_bin_1,NZ_CP103680.1,200604,256250
GCF_024918215.1_ASM2491821v1,GCF_024918215.1_ASM2491821v1_bin_1,NZ_CP103681.1,58314,256250
GCF_024918215.1_ASM2491821v1,GCF_024918215.1_ASM2491821v1_bin_1,NZ_CP103679.1,4884,256250
GCF_024918215.1_ASM2491821v1,GCF_024918215.1_ASM2491821v1_bin_2,NZ_CP103682.1,4096,4096
GCF_023375175.1_ASM2337517v1,GCF_023375175.1_ASM2337517v1_bin_1,NZ_CP088188.1,30484,30484
GCF_023375175.1_ASM2337517v1,GCF_023375175.1_ASM2337517v1_bin_2,NZ_CP088189.1,15860,15860
GCF_023375175.1_ASM2337517v1,GCF_023375175.1_ASM2337517v1_bin_3,NZ_CP088190.1,3001,3001
GCF_024205945.1_ASM2420594v1,GCF_024205945.1_ASM2420594v1_bin_1,NZ_CP073810.1,7946,7946
GCF_024205945.1_ASM2420594v1,GCF_024205945.1_ASM2420594v1_bin_1,NZ_CP073811.1,2277,7946
GCF_024205945.1_ASM2420594v1,GCF_024205945.1_ASM2420594v1_bin_8,NZ_CP073818.1,1942,1942
GCF_024205945.1_ASM2420594v1,GCF_024205945.1_ASM2420594v1_bin_4,NZ_CP073812.1,5667,5667
GCF_024205945.1_ASM2420594v1,GCF_024205945.1_ASM2420594v1_bin_7,NZ_CP073817.1,2773,2773
GCF_024205945.1_ASM2420594v1,GCF_024205945.1_ASM2420594v1_bin_6,NZ_CP073816.1,2606,2812
GCF_024205945.1_ASM2420594v1,GCF_024205945.1_ASM2420594v1_bin_2,NZ_CP073814.1,3264,3264
GCF_024205945.1_ASM2420594v1,GCF_024205945.1_ASM2420594v1_bin_3,NZ_CP073815.1,2422,2690
GCF_024205945.1_ASM2420594v1,GCF_024205945.1_ASM2420594v1_bin_5,NZ_CP073813.1,4333,4333
GCF_023347215.1_ASM2334721v1,GCF_023347215.1_ASM2334721v1_bin_3,NZ_CP092505.1,7968,7968
GCF_023347215.1_ASM2334721v1,GCF_023347215.1_ASM2334721v1_bin_1,NZ_CP092503.1,29234,29234
GCF_023347215.1_ASM2334721v1,GCF_023347215.1_ASM2334721v1_bin_1,NZ_CP092502.1,1074,29234
GCF_023347215.1_ASM2334721v1,GCF_023347215.1_ASM2334721v1_bin_8,NZ_CP092509.1,3401,3495
GCF_023347215.1_ASM2334721v1,GCF_023347215.1_ASM2334721v1_bin_7,NZ_CP092507.1,8520,8520
GCF_023347215.1_ASM2334721v1,GCF_023347215.1_ASM2334721v1_bin_4,NZ_CP092508.1,6656,6656
GCF_023347215.1_ASM2334721v1,GCF_023347215.1_ASM2334721v1_bin_6,NZ_CP092504.1,13968,13968
GCF_023347215.1_ASM2334721v1,GCF_023347215.1_ASM2334721v1_bin_5,NZ_CP092506.1,7853,7853
GCF_023347215.1_ASM2334721v1,GCF_023347215.1_ASM2334721v1_bin_2,NZ_CP092502.1,66202,66202
GCF_024205225.1_ASM2420522v1,GCF_024205225.1_ASM2420522v1_bin_1,NZ_CP100554.1,8360,5237
GCF_022343705.1_ASM2234370v1,GCF_022343705.1_ASM2234370v1_bin_2,NZ_CP092174.1,4295,4295
GCF_022343705.1_ASM2234370v1,GCF_022343705.1_ASM2234370v1_bin_Unbinned,NZ_CP092172.1,7183,7183
GCF_022343705.1_ASM2234370v1,GCF_022343705.1_ASM2234370v1_bin_6,NZ_CP092178.1,1542,1625
GCF_022343705.1_ASM2234370v1,GCF_022343705.1_ASM2234370v1_bin_5,no_correct_alignments,0,0
GCF_022343705.1_ASM2234370v1,GCF_022343705.1_ASM2234370v1_bin_3,NZ_CP092175.1,3025,3272
GCF_022343705.1_ASM2234370v1,GCF_022343705.1_ASM2234370v1_bin_1,NZ_CP092173.1,12389,12389
GCF_022343705.1_ASM2234370v1,GCF_022343705.1_ASM2234370v1_bin_4,NZ_CP092176.1,3054,3054
GCF_023824315.1_ASM2382431v1,GCF_023824315.1_ASM2382431v1_bin_1,NZ_CP098733.1,8632,8632
GCF_022879595.1_ASM2287959v1,GCF_022879595.1_ASM2287959v1_bin_1,NZ_CP084267.1,808973,1652264
GCF_022879595.1_ASM2287959v1,GCF_022879595.1_ASM2287959v1_bin_1,NZ_CP084266.1,800764,1652264
GCF_022879595.1_ASM2287959v1,GCF_022879595.1_ASM2287959v1_bin_1,NZ_CP084270.1,74742,1652264
GCF_022879595.1_ASM2287959v1,GCF_022879595.1_ASM2287959v1_bin_1,NZ_CP084265.1,37527,1652264
GCF_021513055.1_ASM2151305v1,GCF_021513055.1_ASM2151305v1_bin_3,no_correct_alignments,0,0
GCF_021513055.1_ASM2151305v1,GCF_021513055.1_ASM2151305v1_bin_1,NZ_CP090990.1,21142,21321
GCF_021513055.1_ASM2151305v1,GCF_021513055.1_ASM2151305v1_bin_1,NZ_CP090989.1,3350,21321
GCF_021513055.1_ASM2151305v1,GCF_021513055.1_ASM2151305v1_bin_2,NZ_CP090991.1,6674,6674
GCF_021513055.1_ASM2151305v1,GCF_021513055.1_ASM2151305v1_bin_Unbinned,NZ_CP090989.1,80756,80828
GCF_024206775.1_ASM2420677v1,GCF_024206775.1_ASM2420677v1_bin_2,no_correct_alignments,0,0
GCF_024206775.1_ASM2420677v1,GCF_024206775.1_ASM2420677v1_bin_1,NZ_CP072993.1,103309,97324
GCF_024206775.1_ASM2420677v1,GCF_024206775.1_ASM2420677v1_bin_1,NZ_CP072991.1,1197,97324
GCF_024206775.1_ASM2420677v1,GCF_024206775.1_ASM2420677v1_bin_1,NZ_CP072992.1,1197,97324
GCF_023195715.1_ASM2319571v1,GCF_023195715.1_ASM2319571v1_bin_2,NZ_CP096198.1,3360,3360
GCF_023195715.1_ASM2319571v1,GCF_023195715.1_ASM2319571v1_bin_5,NZ_CP096195.1,3771,6854
GCF_023195715.1_ASM2319571v1,GCF_023195715.1_ASM2319571v1_bin_5,NZ_CP096197.1,3083,6854
GCF_023195715.1_ASM2319571v1,GCF_023195715.1_ASM2319571v1_bin_3,NZ_CP096189.1,74759,80758
GCF_023195715.1_ASM2319571v1,GCF_023195715.1_ASM2319571v1_bin_3,NZ_CP096187.1,33823,80758
GCF_023195715.1_ASM2319571v1,GCF_023195715.1_ASM2319571v1_bin_3,NZ_CP096188.1,1045,80758
GCF_023195715.1_ASM2319571v1,GCF_023195715.1_ASM2319571v1_bin_8,NZ_CP096192.1,6183,6183
GCF_023195715.1_ASM2319571v1,GCF_023195715.1_ASM2319571v1_bin_6,NZ_CP096193.1,3250,3250
GCF_023195715.1_ASM2319571v1,GCF_023195715.1_ASM2319571v1_bin_4,NZ_CP096190.1,70141,68826
GCF_023195715.1_ASM2319571v1,GCF_023195715.1_ASM2319571v1_bin_4,NZ_CP096187.1,1332,68826
GCF_023195715.1_ASM2319571v1,GCF_023195715.1_ASM2319571v1_bin_7,NZ_CP096191.1,12879,12879
GCF_023195715.1_ASM2319571v1,GCF_023195715.1_ASM2319571v1_bin_1,NZ_CP096188.1,111271,111271
GCF_023195715.1_ASM2319571v1,GCF_023195715.1_ASM2319571v1_bin_1,NZ_CP096187.1,23805,111271
GCF_023195715.1_ASM2319571v1,GCF_023195715.1_ASM2319571v1_bin_1,NZ_CP096189.1,1045,111271
GCF_023195715.1_ASM2319571v1,GCF_023195715.1_ASM2319571v1_bin_9,NZ_CP096194.1,4854,4854
GCF_023195715.1_ASM2319571v1,GCF_023195715.1_ASM2319571v1_bin_10,NZ_CP096196.1,4068,4068
GCF_021459945.1_ASM2145994v1,GCF_021459945.1_ASM2145994v1_bin_2,NZ_CP090516.1,36188,36190
GCF_021459945.1_ASM2145994v1,GCF_021459945.1_ASM2145994v1_bin_1,NZ_CP090515.1,57887,57890
GCF_021459945.1_ASM2145994v1,GCF_021459945.1_ASM2145994v1_bin_3,NZ_CP090517.1,1239,1281
