"software","variable","value","percentage","replicon_origin","species"
"gplas2","Detected",96,"84.96","Plasmidome","E. faecium"
"MOB-suite","Detected",102,"90.27","Plasmidome","E. faecium"
"plasmidSPAdes","Detected",94,"83.19","Plasmidome","E. faecium"
"gplas2","Contamination",16,"not_applicable","Chromosome","E. faecium"
"MOB-suite","Contamination",24,"not_applicable","Chromosome","E. faecium"
"plasmidSPAdes","Contamination",8,"not_applicable","Chromosome","E. faecium"
"gplas2","Not detected",17,"15.04","Plasmidome","E. faecium"
"MOB-suite","Not detected",11,"9.73","Plasmidome","E. faecium"
"plasmidSPAdes","Not detected",19,"16.81","Plasmidome","E. faecium"
