"strain","reference_id","total_contigs"
"GCF_013201055.1_ASM1320105v1","NZ_CP053704.1",77
"GCF_015325925.1_ASM1532592v1","NZ_CP064049.1",183
"GCF_015325925.1_ASM1532592v1","NZ_CP064050.1",42
"GCF_015325925.1_ASM1532592v1","NZ_CP064051.1",7
"GCF_015325925.1_ASM1532592v1","NZ_CP064052.1",10
"GCF_015325925.1_ASM1532592v1","NZ_CP064053.1",1
"GCF_015476295.1_ASM1547629v1","NZ_CP064343.1",175
"GCF_015476295.1_ASM1547629v1","NZ_CP064344.1",35
"GCF_015476295.1_ASM1547629v1","NZ_CP064345.1",7
"GCF_015476295.1_ASM1547629v1","NZ_CP064346.1",10
"GCF_015476295.1_ASM1547629v1","NZ_CP064347.1",3
"GCF_015476295.1_ASM1547629v1","NZ_CP064348.1",1
"GCF_015476295.1_ASM1547629v1","NZ_CP064349.1",1
"GCF_015999405.1_ASM1599940v1","NZ_CP065523.1",156
"GCF_015999405.1_ASM1599940v1","NZ_CP065524.1",19
"GCF_015999405.1_ASM1599940v1","NZ_CP065525.1",35
"GCF_015999405.1_ASM1599940v1","NZ_CP065526.1",7
"GCF_015999425.1_ASM1599942v1","NZ_CP065527.1",176
"GCF_015999425.1_ASM1599942v1","NZ_CP065528.1",4
"GCF_015999425.1_ASM1599942v1","NZ_CP065529.1",36
"GCF_015999425.1_ASM1599942v1","NZ_CP065530.1",2
"GCF_015999605.1_ASM1599960v1","NZ_CP065547.1",236
"GCF_015999605.1_ASM1599960v1","NZ_CP065548.1",8
"GCF_015999605.1_ASM1599960v1","NZ_CP065549.1",41
"GCF_015999605.1_ASM1599960v1","NZ_CP065550.1",9
"GCF_015999605.1_ASM1599960v1","NZ_CP065551.1",1
"GCF_015999605.1_ASM1599960v1","NZ_CP065552.1",2
"GCF_015999605.1_ASM1599960v1","NZ_CP065553.1",1
"GCF_016126675.1_ASM1612667v1","NZ_CP065928.1",214
"GCF_016126675.1_ASM1612667v1","NZ_CP065929.1",25
"GCF_016126675.1_ASM1612667v1","NZ_CP065930.1",8
"GCF_016126675.1_ASM1612667v1","NZ_CP065931.1",7
"GCF_016126675.1_ASM1612667v1","NZ_CP065932.1",12
"GCF_016126675.1_ASM1612667v1","NZ_CP065933.1",1
"GCF_016126675.1_ASM1612667v1","NZ_CP065934.1",1
"GCF_016126675.1_ASM1612667v1","NZ_CP065935.1",1
"GCF_016406345.1_ASM1640634v1","NZ_CP066466.1",243
"GCF_016406345.1_ASM1640634v1","NZ_CP066467.1",9
"GCF_016406345.1_ASM1640634v1","NZ_CP066468.1",42
"GCF_016406345.1_ASM1640634v1","NZ_CP066469.1",1
"GCF_016406345.1_ASM1640634v1","NZ_CP066470.1",1
"GCF_016406345.1_ASM1640634v1","NZ_CP066471.1",2
"GCF_016406345.1_ASM1640634v1","NZ_CP066472.1",1
"GCF_016406365.1_ASM1640636v1","NZ_CP066415.1",247
"GCF_016406365.1_ASM1640636v1","NZ_CP066416.1",8
"GCF_016406365.1_ASM1640636v1","NZ_CP066417.1",42
"GCF_016406365.1_ASM1640636v1","NZ_CP066418.1",1
"GCF_016406365.1_ASM1640636v1","NZ_CP066419.1",1
"GCF_016406365.1_ASM1640636v1","NZ_CP066420.1",1
"GCF_016406385.1_ASM1640638v1","NZ_CP066421.1",219
"GCF_016406385.1_ASM1640638v1","NZ_CP066422.1",46
"GCF_016406385.1_ASM1640638v1","NZ_CP066423.1",3
"GCF_016406385.1_ASM1640638v1","NZ_CP066424.1",9
"GCF_016406385.1_ASM1640638v1","NZ_CP066425.1",4
"GCF_016406385.1_ASM1640638v1","NZ_CP066426.1",1
"GCF_016406405.1_ASM1640640v1","NZ_CP066434.1",264
"GCF_016406405.1_ASM1640640v1","NZ_CP066435.1",38
"GCF_016406405.1_ASM1640640v1","NZ_CP066436.1",4
"GCF_016406405.1_ASM1640640v1","NZ_CP066437.1",9
"GCF_016406405.1_ASM1640640v1","NZ_CP066438.1",8
"GCF_016406405.1_ASM1640640v1","NZ_CP066439.1",2
"GCF_016406405.1_ASM1640640v1","NZ_CP066440.1",1
"GCF_016406405.1_ASM1640640v1","NZ_CP066441.1",1
"GCF_016406405.1_ASM1640640v1","NZ_CP066442.1",1
"GCF_016406425.1_ASM1640642v1","NZ_CP066451.1",231
"GCF_016406425.1_ASM1640642v1","NZ_CP066452.1",36
"GCF_016406425.1_ASM1640642v1","NZ_CP066453.1",10
"GCF_016406425.1_ASM1640642v1","NZ_CP066454.1",9
"GCF_016406425.1_ASM1640642v1","NZ_CP066455.1",2
"GCF_016406425.1_ASM1640642v1","NZ_CP066456.1",1
"GCF_016406445.1_ASM1640644v1","NZ_CP066389.1",224
"GCF_016406445.1_ASM1640644v1","NZ_CP066390.1",32
"GCF_016406445.1_ASM1640644v1","NZ_CP066391.1",6
"GCF_016406445.1_ASM1640644v1","NZ_CP066392.1",9
"GCF_016406445.1_ASM1640644v1","NZ_CP066393.1",1
"GCF_016406445.1_ASM1640644v1","NZ_CP066394.1",1
"GCF_016406445.1_ASM1640644v1","NZ_CP066395.1",1
"GCF_016406465.1_ASM1640646v1","NZ_CP066396.1",230
"GCF_016406465.1_ASM1640646v1","NZ_CP066397.1",1
"GCF_016406465.1_ASM1640646v1","NZ_CP066398.1",1
"GCF_016406465.1_ASM1640646v1","NZ_CP066399.1",1
"GCF_016406465.1_ASM1640646v1","NZ_CP066400.1",1
"GCF_016406465.1_ASM1640646v1","NZ_CP066401.1",32
"GCF_016406465.1_ASM1640646v1","NZ_CP066402.1",7
"GCF_016406465.1_ASM1640646v1","NZ_CP066403.1",4
"GCF_016406465.1_ASM1640646v1","NZ_CP066404.1",12
"GCF_016406465.1_ASM1640646v1","NZ_CP066405.1",10
"GCF_016406465.1_ASM1640646v1","NZ_CP066406.1",7
"GCF_016406465.1_ASM1640646v1","NZ_CP066407.1",1
"GCF_016406465.1_ASM1640646v1","NZ_CP066408.1",1
"GCF_016406485.1_ASM1640648v1","NZ_CP066381.1",195
"GCF_016406485.1_ASM1640648v1","NZ_CP066382.1",53
"GCF_016406485.1_ASM1640648v1","NZ_CP066383.1",7
"GCF_016406485.1_ASM1640648v1","NZ_CP066384.1",17
"GCF_016406485.1_ASM1640648v1","NZ_CP066385.1",9
"GCF_016406485.1_ASM1640648v1","NZ_CP066386.1",2
"GCF_016406485.1_ASM1640648v1","NZ_CP066387.1",1
"GCF_016406485.1_ASM1640648v1","NZ_CP066388.1",1
"GCF_016406505.1_ASM1640650v1","NZ_CP066457.1",232
"GCF_016406505.1_ASM1640650v1","NZ_CP066458.1",40
"GCF_016406505.1_ASM1640650v1","NZ_CP066459.1",6
"GCF_016406505.1_ASM1640650v1","NZ_CP066460.1",7
"GCF_016406505.1_ASM1640650v1","NZ_CP066461.1",16
"GCF_016406505.1_ASM1640650v1","NZ_CP066462.1",2
"GCF_016406505.1_ASM1640650v1","NZ_CP066463.1",2
"GCF_016406505.1_ASM1640650v1","NZ_CP066464.1",1
"GCF_016406505.1_ASM1640650v1","NZ_CP066465.1",1
"GCF_016406525.1_ASM1640652v1","NZ_CP066443.1",229
"GCF_016406525.1_ASM1640652v1","NZ_CP066444.1",32
"GCF_016406525.1_ASM1640652v1","NZ_CP066445.1",12
"GCF_016406525.1_ASM1640652v1","NZ_CP066446.1",9
"GCF_016406525.1_ASM1640652v1","NZ_CP066447.1",2
"GCF_016406525.1_ASM1640652v1","NZ_CP066448.1",2
"GCF_016406525.1_ASM1640652v1","NZ_CP066449.1",1
"GCF_016406525.1_ASM1640652v1","NZ_CP066450.1",1
"GCF_016406545.1_ASM1640654v1","NZ_CP066409.1",252
"GCF_016406545.1_ASM1640654v1","NZ_CP066410.1",43
"GCF_016406545.1_ASM1640654v1","NZ_CP066411.1",9
"GCF_016406545.1_ASM1640654v1","NZ_CP066412.1",1
"GCF_016406545.1_ASM1640654v1","NZ_CP066413.1",1
"GCF_016406545.1_ASM1640654v1","NZ_CP066414.1",1
"GCF_016406565.1_ASM1640656v1","NZ_CP066427.1",237
"GCF_016406565.1_ASM1640656v1","NZ_CP066428.1",37
"GCF_016406565.1_ASM1640656v1","NZ_CP066429.1",9
"GCF_016406565.1_ASM1640656v1","NZ_CP066430.1",10
"GCF_016406565.1_ASM1640656v1","NZ_CP066431.1",1
"GCF_016406565.1_ASM1640656v1","NZ_CP066432.1",1
"GCF_016406565.1_ASM1640656v1","NZ_CP066433.1",1
"GCF_016406585.1_ASM1640658v1","NZ_CP066480.1",248
"GCF_016406585.1_ASM1640658v1","NZ_CP066481.1",40
"GCF_016406585.1_ASM1640658v1","NZ_CP066482.1",12
"GCF_016406585.1_ASM1640658v1","NZ_CP066483.1",11
"GCF_016406585.1_ASM1640658v1","NZ_CP066484.1",1
"GCF_016406585.1_ASM1640658v1","NZ_CP066485.1",1
"GCF_016406605.1_ASM1640660v1","NZ_CP066473.1",228
"GCF_016406605.1_ASM1640660v1","NZ_CP066474.1",40
"GCF_016406605.1_ASM1640660v1","NZ_CP066475.1",19
"GCF_016406605.1_ASM1640660v1","NZ_CP066476.1",7
"GCF_016406605.1_ASM1640660v1","NZ_CP066477.1",1
"GCF_016406605.1_ASM1640660v1","NZ_CP066478.1",1
"GCF_016406605.1_ASM1640660v1","NZ_CP066479.1",1
"GCF_016415325.1_ASM1641532v1","NZ_CP066591.1",237
"GCF_016415325.1_ASM1641532v1","NZ_CP066592.1",39
"GCF_016415325.1_ASM1641532v1","NZ_CP066593.1",8
"GCF_016415325.1_ASM1641532v1","NZ_CP066594.1",9
"GCF_016415325.1_ASM1641532v1","NZ_CP066595.1",1
"GCF_016415325.1_ASM1641532v1","NZ_CP066596.1",2
"GCF_016415325.1_ASM1641532v1","NZ_CP066597.1",1
"GCF_016415365.1_ASM1641536v1","NZ_CP066614.1",223
"GCF_016415365.1_ASM1641536v1","NZ_CP066615.1",43
"GCF_016415365.1_ASM1641536v1","NZ_CP066616.1",13
"GCF_016415365.1_ASM1641536v1","NZ_CP066617.1",11
"GCF_016415365.1_ASM1641536v1","NZ_CP066618.1",1
"GCF_016415365.1_ASM1641536v1","NZ_CP066619.1",1
"GCF_016415365.1_ASM1641536v1","NZ_CP066620.1",1
"GCF_016415365.1_ASM1641536v1","NZ_CP066621.1",1
"GCF_016415385.1_ASM1641538v1","NZ_CP066606.1",222
"GCF_016415385.1_ASM1641538v1","NZ_CP066607.1",1
"GCF_016415385.1_ASM1641538v1","NZ_CP066608.1",43
"GCF_016415385.1_ASM1641538v1","NZ_CP066609.1",13
"GCF_016415385.1_ASM1641538v1","NZ_CP066610.1",11
"GCF_016415385.1_ASM1641538v1","NZ_CP066611.1",1
"GCF_016415385.1_ASM1641538v1","NZ_CP066612.1",1
"GCF_016415385.1_ASM1641538v1","NZ_CP066613.1",1
"GCF_016415405.1_ASM1641540v1","NZ_CP066637.1",253
"GCF_016415405.1_ASM1641540v1","NZ_CP066638.1",1
"GCF_016415405.1_ASM1641540v1","NZ_CP066639.1",6
"GCF_016415405.1_ASM1641540v1","NZ_CP066640.1",8
"GCF_016415405.1_ASM1641540v1","NZ_CP066641.1",14
"GCF_016415405.1_ASM1641540v1","NZ_CP066642.1",1
"GCF_016415405.1_ASM1641540v1","NZ_CP066643.1",1
"GCF_016415405.1_ASM1641540v1","NZ_CP066644.1",1
"GCF_016415425.1_ASM1641542v1","NZ_CP066645.1",236
"GCF_016415425.1_ASM1641542v1","NZ_CP066646.1",1
"GCF_016415425.1_ASM1641542v1","NZ_CP066647.1",8
"GCF_016415425.1_ASM1641542v1","NZ_CP066648.1",40
"GCF_016415425.1_ASM1641542v1","NZ_CP066649.1",10
"GCF_016415425.1_ASM1641542v1","NZ_CP066650.1",1
"GCF_016415425.1_ASM1641542v1","NZ_CP066651.1",1
"GCF_016415445.1_ASM1641544v1","NZ_CP066629.1",236
"GCF_016415445.1_ASM1641544v1","NZ_CP066630.1",34
"GCF_016415445.1_ASM1641544v1","NZ_CP066631.1",15
"GCF_016415445.1_ASM1641544v1","NZ_CP066632.1",11
"GCF_016415445.1_ASM1641544v1","NZ_CP066633.1",1
"GCF_016415445.1_ASM1641544v1","NZ_CP066634.1",1
"GCF_016415445.1_ASM1641544v1","NZ_CP066635.1",1
"GCF_016415445.1_ASM1641544v1","NZ_CP066636.1",1
"GCF_016415465.1_ASM1641546v1","NZ_CP066622.1",236
"GCF_016415465.1_ASM1641546v1","NZ_CP066623.1",43
"GCF_016415465.1_ASM1641546v1","NZ_CP066624.1",9
"GCF_016415465.1_ASM1641546v1","NZ_CP066625.1",9
"GCF_016415465.1_ASM1641546v1","NZ_CP066626.1",1
"GCF_016415465.1_ASM1641546v1","NZ_CP066627.1",1
"GCF_016415465.1_ASM1641546v1","NZ_CP066628.1",1
"GCF_016415485.1_ASM1641548v1","NZ_CP066673.1",226
"GCF_016415485.1_ASM1641548v1","NZ_CP066674.1",22
"GCF_016415485.1_ASM1641548v1","NZ_CP066675.1",6
"GCF_016415485.1_ASM1641548v1","NZ_CP066676.1",4
"GCF_016415485.1_ASM1641548v1","NZ_CP066677.1",1
"GCF_016415485.1_ASM1641548v1","NZ_CP066678.1",1
"GCF_016415485.1_ASM1641548v1","NZ_CP066679.1",1
"GCF_016415505.1_ASM1641550v1","NZ_CP066659.1",232
"GCF_016415505.1_ASM1641550v1","NZ_CP066660.1",39
"GCF_016415505.1_ASM1641550v1","NZ_CP066661.1",7
"GCF_016415505.1_ASM1641550v1","NZ_CP066662.1",16
"GCF_016415505.1_ASM1641550v1","NZ_CP066663.1",2
"GCF_016415505.1_ASM1641550v1","NZ_CP066664.1",1
"GCF_016415505.1_ASM1641550v1","NZ_CP066665.1",1
"GCF_016415505.1_ASM1641550v1","NZ_CP066666.1",1
"GCF_016415545.1_ASM1641554v1","NZ_CP066653.1",221
"GCF_016415545.1_ASM1641554v1","NZ_CP066654.1",29
"GCF_016415545.1_ASM1641554v1","NZ_CP066655.1",3
"GCF_016415545.1_ASM1641554v1","NZ_CP066656.1",6
"GCF_016415545.1_ASM1641554v1","NZ_CP066657.1",1
"GCF_016415545.1_ASM1641554v1","NZ_CP066658.1",1
"GCF_016415565.1_ASM1641556v1","NZ_CP066667.1",224
"GCF_016415565.1_ASM1641556v1","NZ_CP066668.1",29
"GCF_016415565.1_ASM1641556v1","NZ_CP066669.1",7
"GCF_016415565.1_ASM1641556v1","NZ_CP066670.1",3
"GCF_016415565.1_ASM1641556v1","NZ_CP066671.1",1
"GCF_016415565.1_ASM1641556v1","NZ_CP066672.1",1
"GCF_017584065.1_ASM1758406v1","NZ_CP071924.1",1
"GCF_017584065.1_ASM1758406v1","NZ_CP071925.1",1
"GCF_017584065.1_ASM1758406v1","NZ_CP071926.1",2
"GCF_017584065.1_ASM1758406v1","NZ_CP071927.1",2
"GCF_017584065.1_ASM1758406v1","NZ_CP071928.1",1
"GCF_017584065.1_ASM1758406v1","NZ_CP071929.1",6
"GCF_017584065.1_ASM1758406v1","NZ_CP071930.1",35
"GCF_017584065.1_ASM1758406v1","NZ_CP071931.1",144
"GCF_019175425.1_ASM1917542v1","NZ_CP072878.1",45
"GCF_019175425.1_ASM1917542v1","NZ_CP072879.1",29
"GCF_019175425.1_ASM1917542v1","NZ_CP072880.1",8
"GCF_019175445.1_ASM1917544v1","NZ_CP072881.1",81
"GCF_019175445.1_ASM1917544v1","NZ_CP072882.1",38
"GCF_019175445.1_ASM1917544v1","NZ_CP072883.1",1
"GCF_019175465.1_ASM1917546v1","NZ_CP072884.1",53
"GCF_019175465.1_ASM1917546v1","NZ_CP072885.1",21
"GCF_019175465.1_ASM1917546v1","NZ_CP072886.1",6
"GCF_019175465.1_ASM1917546v1","NZ_CP072887.1",5
"GCF_019175525.1_ASM1917552v1","NZ_CP072894.1",110
"GCF_019175525.1_ASM1917552v1","NZ_CP072895.1",2
"GCF_019175525.1_ASM1917552v1","NZ_CP072896.1",2
"GCF_019456555.1_ASM1945655v1","NZ_CP074105.1",96
"GCF_019456555.1_ASM1945655v1","NZ_CP074106.1",21
"GCF_019456575.1_ASM1945657v1","NZ_CP074107.1",89
"GCF_019456575.1_ASM1945657v1","NZ_CP074108.1",18
"GCF_019456595.1_ASM1945659v1","NZ_CP074109.1",96
"GCF_019456595.1_ASM1945659v1","NZ_CP074110.1",18
"GCF_019977495.1_ASM1997749v1","NZ_AP024831.1",205
"GCF_019977495.1_ASM1997749v1","NZ_AP024832.1",17
"GCF_019977495.1_ASM1997749v1","NZ_AP024833.1",7
"GCF_019977495.1_ASM1997749v1","NZ_AP024834.1",1
"GCF_019977495.1_ASM1997749v1","NZ_AP024835.1",1
"GCF_019977495.1_ASM1997749v1","NZ_AP024836.1",1
"GCF_019977575.1_ASM1997757v1","NZ_AP024837.1",200
"GCF_019977575.1_ASM1997757v1","NZ_AP024838.1",33
"GCF_019977575.1_ASM1997757v1","NZ_AP024839.1",7
"GCF_019977575.1_ASM1997757v1","NZ_AP024840.1",1
"GCF_019977575.1_ASM1997757v1","NZ_AP024841.1",1
"GCF_019977575.1_ASM1997757v1","NZ_AP024842.1",1
"GCF_019977575.1_ASM1997757v1","NZ_AP024843.1",1
"GCF_020162155.1_ASM2016215v1","NZ_CP083912.1",189
"GCF_020162155.1_ASM2016215v1","NZ_CP083913.1",36
"GCF_020162155.1_ASM2016215v1","NZ_CP083914.1",10
"GCF_020162155.1_ASM2016215v1","NZ_CP083915.1",1
"GCF_020162155.1_ASM2016215v1","NZ_CP083916.1",1
"GCF_020162155.1_ASM2016215v1","NZ_CP083917.1",1
"GCF_020162155.1_ASM2016215v1","NZ_CP083918.1",1
"GCF_020162155.1_ASM2016215v1","NZ_CP083919.1",1
"GCF_020162175.1_ASM2016217v1","NZ_CP083920.1",181
"GCF_020162175.1_ASM2016217v1","NZ_CP083921.1",36
"GCF_020162175.1_ASM2016217v1","NZ_CP083922.1",11
"GCF_020162175.1_ASM2016217v1","NZ_CP083923.1",2
"GCF_020162175.1_ASM2016217v1","NZ_CP083924.1",1
"GCF_020162175.1_ASM2016217v1","NZ_CP083925.1",2
"GCF_020162175.1_ASM2016217v1","NZ_CP083926.1",2
"GCF_020162175.1_ASM2016217v1","NZ_CP083927.1",1
"GCF_020162175.1_ASM2016217v1","NZ_CP083928.1",1
"GCF_020162175.1_ASM2016217v1","NZ_CP083929.1",1
"GCF_021228615.1_ASM2122861v1","NZ_CP089319.1",224
"GCF_021228615.1_ASM2122861v1","NZ_CP089320.1",50
"GCF_021228615.1_ASM2122861v1","NZ_CP089321.1",11
"GCF_021228615.1_ASM2122861v1","NZ_CP089322.1",12
"GCF_021228615.1_ASM2122861v1","NZ_CP089323.1",4
"GCF_021228615.1_ASM2122861v1","NZ_CP089324.1",1
"GCF_021398505.1_ASM2139850v1","NZ_CP083179.1",51
"GCF_021398505.1_ASM2139850v1","NZ_CP083180.1",17
"GCF_022647825.1_ASM2264782v1","NZ_CP076471.1",208
"GCF_022647825.1_ASM2264782v1","NZ_CP076472.1",48
"GCF_022647825.1_ASM2264782v1","NZ_CP076473.1",4
"GCF_022647825.1_ASM2264782v1","NZ_CP076474.1",6
"GCF_022647825.1_ASM2264782v1","NZ_CP076475.1",10
"GCF_022647825.1_ASM2264782v1","NZ_CP076476.1",1
"GCF_022647945.1_ASM2264794v1","NZ_CP076477.1",209
"GCF_022647945.1_ASM2264794v1","NZ_CP076478.1",48
"GCF_022647945.1_ASM2264794v1","NZ_CP076479.1",5
"GCF_022647945.1_ASM2264794v1","NZ_CP076480.1",6
"GCF_022647945.1_ASM2264794v1","NZ_CP076481.1",11
"GCF_022647945.1_ASM2264794v1","NZ_CP076482.1",1
"GCF_022648125.1_ASM2264812v1","NZ_CP076483.1",208
"GCF_022648125.1_ASM2264812v1","NZ_CP076484.1",55
"GCF_022648125.1_ASM2264812v1","NZ_CP076485.1",4
"GCF_022648125.1_ASM2264812v1","NZ_CP076486.1",11
"GCF_022648125.1_ASM2264812v1","NZ_CP076487.1",1
"GCF_023299325.1_ASM2329932v1","NZ_CP097014.1",101
"GCF_023299325.1_ASM2329932v1","NZ_CP097015.1",31
"GCF_023299325.1_ASM2329932v1","NZ_CP097016.1",8
"GCF_023299725.1_ASM2329972v1","NZ_CP097022.1",110
"GCF_023299725.1_ASM2329972v1","NZ_CP097023.1",18
"GCF_023299725.1_ASM2329972v1","NZ_CP097024.1",5
"GCF_023299725.1_ASM2329972v1","NZ_CP097025.1",6
"GCF_023299725.1_ASM2329972v1","NZ_CP097026.1",5
"GCF_023299745.1_ASM2329974v1","NZ_CP097027.1",125
"GCF_023299745.1_ASM2329974v1","NZ_CP097028.1",31
"GCF_023299745.1_ASM2329974v1","NZ_CP097029.1",12
"GCF_023299805.1_ASM2329980v1","NZ_CP097061.1",96
"GCF_023299805.1_ASM2329980v1","NZ_CP097062.1",5
"GCF_023299805.1_ASM2329980v1","NZ_CP097063.1",7
"GCF_023299805.1_ASM2329980v1","NZ_CP097064.1",3
"GCF_023299805.1_ASM2329980v1","NZ_CP097065.1",1
"GCF_907165365.1_USZ_VRE32_P32_hybrid_assembly","NZ_OU015708.1",195
"GCF_907165365.1_USZ_VRE32_P32_hybrid_assembly","NZ_OU015709.1",35
"GCF_907165365.1_USZ_VRE32_P32_hybrid_assembly","NZ_OU015710.1",5
"GCF_907165365.1_USZ_VRE32_P32_hybrid_assembly","NZ_OU015711.1",11
"GCF_907165365.1_USZ_VRE32_P32_hybrid_assembly","NZ_OU015712.1",1
"GCF_907165365.1_USZ_VRE32_P32_hybrid_assembly","NZ_OU015713.1",1
"GCF_907165365.1_USZ_VRE32_P32_hybrid_assembly","NZ_OU015714.1",2
"GCF_907165365.1_USZ_VRE32_P32_hybrid_assembly","NZ_OU015715.1",2
"GCF_907165365.1_USZ_VRE32_P32_hybrid_assembly","NZ_OU015716.1",1
"GCF_907176135.1_USZ_VRE5_P5_hybrid_assembly","NZ_OU015946.1",191
"GCF_907176135.1_USZ_VRE5_P5_hybrid_assembly","NZ_OU015947.1",27
"GCF_907176135.1_USZ_VRE5_P5_hybrid_assembly","NZ_OU015948.1",11
"GCF_907176135.1_USZ_VRE5_P5_hybrid_assembly","NZ_OU015949.1",2
"GCF_907176135.1_USZ_VRE5_P5_hybrid_assembly","NZ_OU015950.1",4
"GCF_907176135.1_USZ_VRE5_P5_hybrid_assembly","NZ_OU015951.1",1
"GCF_907176135.1_USZ_VRE5_P5_hybrid_assembly","NZ_OU015952.1",1
"GCF_907176135.1_USZ_VRE5_P5_hybrid_assembly","NZ_OU015953.1",1
"GCF_907176135.1_USZ_VRE5_P5_hybrid_assembly","NZ_OU015954.1",1
"GCF_907176815.1_USZ_VRE67_P60_hybrid_assembly","NZ_OU016027.1",212
"GCF_907176815.1_USZ_VRE67_P60_hybrid_assembly","NZ_OU016028.1",27
"GCF_907176815.1_USZ_VRE67_P60_hybrid_assembly","NZ_OU016029.1",11
"GCF_907176815.1_USZ_VRE67_P60_hybrid_assembly","NZ_OU016030.1",1
"GCF_907176815.1_USZ_VRE67_P60_hybrid_assembly","NZ_OU016031.1",3
"GCF_907176815.1_USZ_VRE67_P60_hybrid_assembly","NZ_OU016032.1",1
"GCF_907176815.1_USZ_VRE67_P60_hybrid_assembly","NZ_OU016033.1",1
"GCF_907176815.1_USZ_VRE67_P60_hybrid_assembly","NZ_OU016034.1",1
"GCF_907176815.1_USZ_VRE67_P60_hybrid_assembly","NZ_OU016035.1",1
"GCF_907177285.1_USZ_VRE53_P46_hybrid_assembly","NZ_OU016036.1",219
"GCF_907177285.1_USZ_VRE53_P46_hybrid_assembly","NZ_OU016037.1",29
"GCF_907177285.1_USZ_VRE53_P46_hybrid_assembly","NZ_OU016038.1",5
"GCF_907177285.1_USZ_VRE53_P46_hybrid_assembly","NZ_OU016039.1",11
"GCF_907177285.1_USZ_VRE53_P46_hybrid_assembly","NZ_OU016040.1",2
"GCF_907177285.1_USZ_VRE53_P46_hybrid_assembly","NZ_OU016041.1",4
"GCF_907177285.1_USZ_VRE53_P46_hybrid_assembly","NZ_OU016042.1",1
"GCF_907177285.1_USZ_VRE53_P46_hybrid_assembly","NZ_OU016043.1",1
"GCF_907177285.1_USZ_VRE53_P46_hybrid_assembly","NZ_OU016044.1",1
"GCF_907177285.1_USZ_VRE53_P46_hybrid_assembly","NZ_OU016045.1",1
