"reference_id","nr_repeats_per_replicon"
"NZ_AP024831.1",94
"NZ_AP024832.1",3
"NZ_AP024833.1",1
"NZ_AP024837.1",92
"NZ_AP024838.1",11
"NZ_AP024839.1",2
"NZ_CP053704.1",34
"NZ_CP064049.1",93
"NZ_CP064050.1",12
"NZ_CP064051.1",2
"NZ_CP064052.1",3
"NZ_CP064343.1",77
"NZ_CP064344.1",13
"NZ_CP064345.1",3
"NZ_CP064346.1",3
"NZ_CP064347.1",1
"NZ_CP065523.1",77
"NZ_CP065524.1",12
"NZ_CP065525.1",8
"NZ_CP065526.1",1
"NZ_CP065527.1",71
"NZ_CP065529.1",14
"NZ_CP065530.1",2
"NZ_CP065547.1",127
"NZ_CP065548.1",5
"NZ_CP065549.1",19
"NZ_CP065550.1",3
"NZ_CP065928.1",100
"NZ_CP065929.1",9
"NZ_CP065930.1",4
"NZ_CP065931.1",4
"NZ_CP065932.1",4
"NZ_CP066381.1",93
"NZ_CP066382.1",23
"NZ_CP066383.1",4
"NZ_CP066384.1",8
"NZ_CP066385.1",4
"NZ_CP066386.1",1
"NZ_CP066389.1",110
"NZ_CP066390.1",12
"NZ_CP066391.1",2
"NZ_CP066392.1",3
"NZ_CP066396.1",114
"NZ_CP066401.1",14
"NZ_CP066402.1",3
"NZ_CP066403.1",2
"NZ_CP066404.1",6
"NZ_CP066405.1",2
"NZ_CP066406.1",2
"NZ_CP066409.1",133
"NZ_CP066410.1",20
"NZ_CP066411.1",5
"NZ_CP066415.1",129
"NZ_CP066416.1",5
"NZ_CP066417.1",19
"NZ_CP066421.1",103
"NZ_CP066422.1",18
"NZ_CP066423.1",2
"NZ_CP066424.1",2
"NZ_CP066425.1",2
"NZ_CP066427.1",119
"NZ_CP066428.1",17
"NZ_CP066429.1",3
"NZ_CP066430.1",6
"NZ_CP066434.1",142
"NZ_CP066435.1",19
"NZ_CP066436.1",2
"NZ_CP066437.1",5
"NZ_CP066438.1",3
"NZ_CP066439.1",1
"NZ_CP066443.1",126
"NZ_CP066444.1",11
"NZ_CP066445.1",6
"NZ_CP066446.1",3
"NZ_CP066447.1",1
"NZ_CP066448.1",1
"NZ_CP066451.1",124
"NZ_CP066452.1",15
"NZ_CP066453.1",2
"NZ_CP066454.1",3
"NZ_CP066457.1",116
"NZ_CP066458.1",14
"NZ_CP066459.1",2
"NZ_CP066460.1",4
"NZ_CP066461.1",6
"NZ_CP066462.1",1
"NZ_CP066463.1",1
"NZ_CP066466.1",130
"NZ_CP066467.1",5
"NZ_CP066468.1",19
"NZ_CP066473.1",113
"NZ_CP066474.1",15
"NZ_CP066475.1",7
"NZ_CP066476.1",4
"NZ_CP066480.1",133
"NZ_CP066481.1",19
"NZ_CP066482.1",6
"NZ_CP066483.1",4
"NZ_CP066591.1",128
"NZ_CP066592.1",19
"NZ_CP066593.1",5
"NZ_CP066594.1",3
"NZ_CP066596.1",1
"NZ_CP066597.1",1
"NZ_CP066606.1",117
"NZ_CP066608.1",20
"NZ_CP066609.1",8
"NZ_CP066610.1",3
"NZ_CP066614.1",117
"NZ_CP066615.1",20
"NZ_CP066616.1",8
"NZ_CP066617.1",3
"NZ_CP066622.1",125
"NZ_CP066623.1",20
"NZ_CP066624.1",5
"NZ_CP066625.1",3
"NZ_CP066629.1",120
"NZ_CP066630.1",13
"NZ_CP066631.1",6
"NZ_CP066632.1",4
"NZ_CP066637.1",136
"NZ_CP066639.1",3
"NZ_CP066640.1",4
"NZ_CP066641.1",5
"NZ_CP066645.1",127
"NZ_CP066647.1",5
"NZ_CP066648.1",19
"NZ_CP066649.1",4
"NZ_CP066653.1",110
"NZ_CP066654.1",11
"NZ_CP066655.1",1
"NZ_CP066656.1",1
"NZ_CP066659.1",116
"NZ_CP066660.1",14
"NZ_CP066661.1",4
"NZ_CP066662.1",6
"NZ_CP066663.1",1
"NZ_CP066667.1",115
"NZ_CP066668.1",11
"NZ_CP066669.1",1
"NZ_CP066670.1",1
"NZ_CP066673.1",109
"NZ_CP066674.1",3
"NZ_CP066675.1",2
"NZ_CP066676.1",2
"NZ_CP071926.1",1
"NZ_CP071927.1",1
"NZ_CP071930.1",8
"NZ_CP071931.1",59
"NZ_CP072878.1",19
"NZ_CP072879.1",10
"NZ_CP072880.1",2
"NZ_CP072881.1",37
"NZ_CP072882.1",12
"NZ_CP072884.1",23
"NZ_CP072885.1",7
"NZ_CP072886.1",2
"NZ_CP072887.1",2
"NZ_CP072894.1",45
"NZ_CP074105.1",44
"NZ_CP074106.1",9
"NZ_CP074107.1",39
"NZ_CP074108.1",7
"NZ_CP074109.1",43
"NZ_CP074110.1",7
"NZ_CP076471.1",85
"NZ_CP076472.1",19
"NZ_CP076473.1",2
"NZ_CP076474.1",4
"NZ_CP076475.1",3
"NZ_CP076477.1",85
"NZ_CP076478.1",19
"NZ_CP076479.1",2
"NZ_CP076480.1",4
"NZ_CP076481.1",3
"NZ_CP076483.1",85
"NZ_CP076484.1",23
"NZ_CP076485.1",2
"NZ_CP076486.1",3
"NZ_CP083179.1",25
"NZ_CP083180.1",4
"NZ_CP083912.1",85
"NZ_CP083913.1",12
"NZ_CP083914.1",3
"NZ_CP083920.1",82
"NZ_CP083921.1",14
"NZ_CP083922.1",3
"NZ_CP083923.1",1
"NZ_CP083925.1",1
"NZ_CP083926.1",1
"NZ_CP089319.1",102
"NZ_CP089320.1",18
"NZ_CP089321.1",4
"NZ_CP089322.1",4
"NZ_CP089323.1",2
"NZ_CP097014.1",37
"NZ_CP097015.1",15
"NZ_CP097016.1",2
"NZ_CP097022.1",48
"NZ_CP097023.1",7
"NZ_CP097024.1",2
"NZ_CP097025.1",1
"NZ_CP097026.1",3
"NZ_CP097027.1",58
"NZ_CP097028.1",17
"NZ_CP097029.1",4
"NZ_CP097061.1",39
"NZ_CP097062.1",1
"NZ_OU015708.1",87
"NZ_OU015709.1",10
"NZ_OU015710.1",1
"NZ_OU015711.1",3
"NZ_OU015714.1",1
"NZ_OU015715.1",1
"NZ_OU015946.1",90
"NZ_OU015947.1",7
"NZ_OU015948.1",4
"NZ_OU015949.1",1
"NZ_OU015950.1",2
"NZ_OU016027.1",100
"NZ_OU016028.1",7
"NZ_OU016029.1",4
"NZ_OU016036.1",102
"NZ_OU016037.1",9
"NZ_OU016038.1",2
"NZ_OU016039.1",4
"NZ_OU016040.1",1
"NZ_OU016041.1",2
