GCF_906464895.1_WE0851,GCF_906464895.1_WE0851_bin_1,NZ_OD940423.1,56342,76224
GCF_906464895.1_WE0851,GCF_906464895.1_WE0851_bin_1,NZ_OD940424.1,19882,76224
GCF_906464925.1_BX5936,GCF_906464925.1_BX5936_bin_1,NZ_OD940435.1,63434,63434
GCF_906464915.2_WE0254,GCF_906464915.2_WE0254_bin_1,NZ_OU538996.1,69241,82813
GCF_906464915.2_WE0254,GCF_906464915.2_WE0254_bin_1,NZ_OD940440.2,13572,82813
GCF_022648285.1_ASM2264828v1,GCF_022648285.1_ASM2264828v1_bin_Unbinned,NZ_CP076490.1,52120,89288
GCF_022648285.1_ASM2264828v1,GCF_022648285.1_ASM2264828v1_bin_Unbinned,NZ_CP076491.1,31893,89288
GCF_022648285.1_ASM2264828v1,GCF_022648285.1_ASM2264828v1_bin_Unbinned,NZ_CP076488.1,843,89288
GCF_022648285.1_ASM2264828v1,GCF_022648285.1_ASM2264828v1_bin_Unbinned,NZ_CP076489.1,4395,89288
GCF_022648285.1_ASM2264828v1,GCF_022648285.1_ASM2264828v1_bin_2,NZ_CP076489.1,34663,34663
GCF_022648285.1_ASM2264828v1,GCF_022648285.1_ASM2264828v1_bin_1,NZ_CP076489.1,58081,84896
GCF_022648285.1_ASM2264828v1,GCF_022648285.1_ASM2264828v1_bin_1,NZ_CP076492.1,24941,84896
GCF_022648285.1_ASM2264828v1,GCF_022648285.1_ASM2264828v1_bin_1,NZ_CP076488.1,1868,84896
GCF_906464835.1_TM6294,GCF_906464835.1_TM6294_bin_2,NZ_OD940433.1,19181,19181
GCF_906464835.1_TM6294,GCF_906464835.1_TM6294_bin_1,NZ_OD940432.1,69357,69357
GCF_906464875.1_BX8117,GCF_906464875.1_BX8117_bin_1,NZ_OD940439.1,35733,35733
GCF_022648425.1_ASM2264842v1,GCF_022648425.1_ASM2264842v1_bin_Unbinned,NZ_CP076495.1,52112,89288
GCF_022648425.1_ASM2264842v1,GCF_022648425.1_ASM2264842v1_bin_Unbinned,NZ_CP076496.1,32378,89288
GCF_022648425.1_ASM2264842v1,GCF_022648425.1_ASM2264842v1_bin_Unbinned,NZ_CP076494.1,4367,89288
GCF_022648425.1_ASM2264842v1,GCF_022648425.1_ASM2264842v1_bin_1,NZ_CP076494.1,92750,119558
GCF_022648425.1_ASM2264842v1,GCF_022648425.1_ASM2264842v1_bin_1,NZ_CP076497.1,24940,119558
GCF_022648425.1_ASM2264842v1,GCF_022648425.1_ASM2264842v1_bin_1,NZ_CP076493.1,1868,119558
GCF_022648595.1_ASM2264859v1,GCF_022648595.1_ASM2264859v1_bin_1,NZ_CP076499.1,92747,119558
GCF_022648595.1_ASM2264859v1,GCF_022648595.1_ASM2264859v1_bin_1,NZ_CP076502.1,24934,119558
GCF_022648595.1_ASM2264859v1,GCF_022648595.1_ASM2264859v1_bin_1,NZ_CP076498.1,1868,119558
GCF_022648595.1_ASM2264859v1,GCF_022648595.1_ASM2264859v1_bin_Unbinned,NZ_CP076500.1,52138,89288
GCF_022648595.1_ASM2264859v1,GCF_022648595.1_ASM2264859v1_bin_Unbinned,NZ_CP076501.1,32704,89288
GCF_022648595.1_ASM2264859v1,GCF_022648595.1_ASM2264859v1_bin_Unbinned,NZ_CP076499.1,4395,89288
GCF_020844125.1_ASM2084412v1,GCF_020844125.1_ASM2084412v1_bin_1,NZ_CP063981.1,57719,57719
GCF_906464865.1_WE0438,GCF_906464865.1_WE0438_bin_1,NZ_OD940421.1,51659,71212
GCF_906464865.1_WE0438,GCF_906464865.1_WE0438_bin_1,NZ_OD940420.1,19553,71212
GCF_906464865.1_WE0438,GCF_906464865.1_WE0438_bin_2,NZ_OD940420.1,27881,28930
GCF_906464865.1_WE0438,GCF_906464865.1_WE0438_bin_2,NZ_OD940421.1,1049,28930
