GCF_016454725.1_ASM1645472v1,GCF_016454725.1_ASM1645472v1_bin_Isolated_1,NZ_CP051424.1,27
GCF_013348865.1_ASM1334886v1,GCF_013348865.1_ASM1334886v1_bin_1,NZ_CP054716.1,2
GCF_013161805.1_ASM1316180v1,GCF_013161805.1_ASM1316180v1_bin_1,NZ_CP053577.1,864
GCF_020736305.1_ASM2073630v1,GCF_020736305.1_ASM2073630v1_bin_1,NZ_CP085984.1,13
GCF_020736305.1_ASM2073630v1,GCF_020736305.1_ASM2073630v1_bin_1,NZ_CP085985.1,6
GCF_013415925.1_ASM1341592v1,GCF_013415925.1_ASM1341592v1_bin_1,NZ_CP058810.1,142
GCF_022533545.1_ASM2253354v1,GCF_022533545.1_ASM2253354v1_bin_1,NZ_CP092862.1,1304
