<?xml version='1.0' encoding='UTF-8' ?>
<svg xmlns='http://www.w3.org/2000/svg' xmlns:xlink='http://www.w3.org/1999/xlink' class='svglite' width='504.00pt' height='360.00pt' viewBox='0 0 504.00 360.00'>
<defs>
  <style type='text/css'><![CDATA[
    .svglite line, .svglite polyline, .svglite polygon, .svglite path, .svglite rect, .svglite circle {
      fill: none;
      stroke: #000000;
      stroke-linecap: round;
      stroke-linejoin: round;
      stroke-miterlimit: 10.00;
    }
    .svglite text {
      white-space: pre;
    }
  ]]></style>
</defs>
<rect width='100%' height='100%' style='stroke: none; fill: #FFFFFF;'/>
<defs>
  <clipPath id='cpMC4wMHw1MDQuMDB8MC4wMHwzNjAuMDA='>
    <rect x='0.00' y='0.00' width='504.00' height='360.00' />
  </clipPath>
</defs>
<g clip-path='url(#cpMC4wMHw1MDQuMDB8MC4wMHwzNjAuMDA=)'>
</g>
<defs>
  <clipPath id='cpNjAuNzJ8NDk4LjUyfDExLjY4fDMxMS4xOQ=='>
    <rect x='60.72' y='11.68' width='437.80' height='299.51' />
  </clipPath>
</defs>
<g clip-path='url(#cpNjAuNzJ8NDk4LjUyfDExLjY4fDMxMS4xOQ==)'>
<polyline points='60.72,249.37 498.52,249.37 ' style='stroke-width: 0.53; stroke: #EBEBEB; stroke-linecap: butt;' />
<polyline points='60.72,152.96 498.52,152.96 ' style='stroke-width: 0.53; stroke: #EBEBEB; stroke-linecap: butt;' />
<polyline points='60.72,56.56 498.52,56.56 ' style='stroke-width: 0.53; stroke: #EBEBEB; stroke-linecap: butt;' />
<polyline points='66.61,311.19 66.61,11.68 ' style='stroke-width: 0.53; stroke: #EBEBEB; stroke-linecap: butt;' />
<polyline points='178.72,311.19 178.72,11.68 ' style='stroke-width: 0.53; stroke: #EBEBEB; stroke-linecap: butt;' />
<polyline points='290.83,311.19 290.83,11.68 ' style='stroke-width: 0.53; stroke: #EBEBEB; stroke-linecap: butt;' />
<polyline points='402.95,311.19 402.95,11.68 ' style='stroke-width: 0.53; stroke: #EBEBEB; stroke-linecap: butt;' />
<polyline points='60.72,297.57 498.52,297.57 ' style='stroke-width: 1.07; stroke: #EBEBEB; stroke-linecap: butt;' />
<polyline points='60.72,201.17 498.52,201.17 ' style='stroke-width: 1.07; stroke: #EBEBEB; stroke-linecap: butt;' />
<polyline points='60.72,104.76 498.52,104.76 ' style='stroke-width: 1.07; stroke: #EBEBEB; stroke-linecap: butt;' />
<rect x='80.62' y='291.24' width='5.61' height='6.33' style='stroke-width: 1.07; stroke-linecap: butt; stroke-linejoin: miter; fill: #B5B5B5;' />
<rect x='86.23' y='291.24' width='5.61' height='6.33' style='stroke-width: 1.07; stroke-linecap: butt; stroke-linejoin: miter; fill: #B5B5B5;' />
<rect x='91.83' y='297.57' width='5.61' height='0.00' style='stroke-width: 1.07; stroke-linecap: butt; stroke-linejoin: miter; fill: #B5B5B5;' />
<rect x='97.44' y='297.57' width='5.61' height='0.00' style='stroke-width: 1.07; stroke-linecap: butt; stroke-linejoin: miter; fill: #B5B5B5;' />
<rect x='103.05' y='291.24' width='5.61' height='6.33' style='stroke-width: 1.07; stroke-linecap: butt; stroke-linejoin: miter; fill: #B5B5B5;' />
<rect x='108.65' y='297.57' width='5.61' height='0.00' style='stroke-width: 1.07; stroke-linecap: butt; stroke-linejoin: miter; fill: #B5B5B5;' />
<rect x='114.26' y='297.57' width='5.61' height='0.00' style='stroke-width: 1.07; stroke-linecap: butt; stroke-linejoin: miter; fill: #B5B5B5;' />
<rect x='119.86' y='297.57' width='5.61' height='0.00' style='stroke-width: 1.07; stroke-linecap: butt; stroke-linejoin: miter; fill: #B5B5B5;' />
<rect x='125.47' y='291.24' width='5.61' height='6.33' style='stroke-width: 1.07; stroke-linecap: butt; stroke-linejoin: miter; fill: #B5B5B5;' />
<rect x='131.07' y='284.91' width='5.61' height='12.66' style='stroke-width: 1.07; stroke-linecap: butt; stroke-linejoin: miter; fill: #B5B5B5;' />
<rect x='136.68' y='291.24' width='5.61' height='6.33' style='stroke-width: 1.07; stroke-linecap: butt; stroke-linejoin: miter; fill: #B5B5B5;' />
<rect x='142.28' y='284.91' width='5.61' height='12.66' style='stroke-width: 1.07; stroke-linecap: butt; stroke-linejoin: miter; fill: #B5B5B5;' />
<rect x='147.89' y='272.24' width='5.61' height='25.33' style='stroke-width: 1.07; stroke-linecap: butt; stroke-linejoin: miter; fill: #B5B5B5;' />
<rect x='153.50' y='291.24' width='5.61' height='6.33' style='stroke-width: 1.07; stroke-linecap: butt; stroke-linejoin: miter; fill: #B5B5B5;' />
<rect x='159.10' y='246.92' width='5.61' height='50.66' style='stroke-width: 1.07; stroke-linecap: butt; stroke-linejoin: miter; fill: #B5B5B5;' />
<rect x='164.71' y='196.26' width='5.61' height='101.31' style='stroke-width: 1.07; stroke-linecap: butt; stroke-linejoin: miter; fill: #B5B5B5;' />
<rect x='170.31' y='215.26' width='5.61' height='82.32' style='stroke-width: 1.07; stroke-linecap: butt; stroke-linejoin: miter; fill: #B5B5B5;' />
<rect x='175.92' y='215.26' width='5.61' height='82.32' style='stroke-width: 1.07; stroke-linecap: butt; stroke-linejoin: miter; fill: #B5B5B5;' />
<rect x='181.52' y='151.93' width='5.61' height='145.64' style='stroke-width: 1.07; stroke-linecap: butt; stroke-linejoin: miter; fill: #B5B5B5;' />
<rect x='187.13' y='202.59' width='5.61' height='94.98' style='stroke-width: 1.07; stroke-linecap: butt; stroke-linejoin: miter; fill: #B5B5B5;' />
<rect x='192.74' y='132.94' width='5.61' height='164.63' style='stroke-width: 1.07; stroke-linecap: butt; stroke-linejoin: miter; fill: #B5B5B5;' />
<rect x='198.34' y='177.26' width='5.61' height='120.31' style='stroke-width: 1.07; stroke-linecap: butt; stroke-linejoin: miter; fill: #B5B5B5;' />
<rect x='203.95' y='234.25' width='5.61' height='63.32' style='stroke-width: 1.07; stroke-linecap: butt; stroke-linejoin: miter; fill: #B5B5B5;' />
<rect x='209.55' y='246.92' width='5.61' height='50.66' style='stroke-width: 1.07; stroke-linecap: butt; stroke-linejoin: miter; fill: #B5B5B5;' />
<rect x='215.16' y='208.92' width='5.61' height='88.65' style='stroke-width: 1.07; stroke-linecap: butt; stroke-linejoin: miter; fill: #B5B5B5;' />
<rect x='220.76' y='215.26' width='5.61' height='82.32' style='stroke-width: 1.07; stroke-linecap: butt; stroke-linejoin: miter; fill: #B5B5B5;' />
<rect x='226.37' y='139.27' width='5.61' height='158.30' style='stroke-width: 1.07; stroke-linecap: butt; stroke-linejoin: miter; fill: #B5B5B5;' />
<rect x='231.97' y='189.93' width='5.61' height='107.65' style='stroke-width: 1.07; stroke-linecap: butt; stroke-linejoin: miter; fill: #B5B5B5;' />
<rect x='237.58' y='259.58' width='5.61' height='37.99' style='stroke-width: 1.07; stroke-linecap: butt; stroke-linejoin: miter; fill: #B5B5B5;' />
<rect x='243.19' y='246.92' width='5.61' height='50.66' style='stroke-width: 1.07; stroke-linecap: butt; stroke-linejoin: miter; fill: #B5B5B5;' />
<rect x='248.79' y='227.92' width='5.61' height='69.65' style='stroke-width: 1.07; stroke-linecap: butt; stroke-linejoin: miter; fill: #B5B5B5;' />
<rect x='254.40' y='259.58' width='5.61' height='37.99' style='stroke-width: 1.07; stroke-linecap: butt; stroke-linejoin: miter; fill: #B5B5B5;' />
<rect x='260.00' y='272.24' width='5.61' height='25.33' style='stroke-width: 1.07; stroke-linecap: butt; stroke-linejoin: miter; fill: #B5B5B5;' />
<rect x='265.61' y='234.25' width='5.61' height='63.32' style='stroke-width: 1.07; stroke-linecap: butt; stroke-linejoin: miter; fill: #B5B5B5;' />
<rect x='271.21' y='259.58' width='5.61' height='37.99' style='stroke-width: 1.07; stroke-linecap: butt; stroke-linejoin: miter; fill: #B5B5B5;' />
<rect x='276.82' y='253.25' width='5.61' height='44.32' style='stroke-width: 1.07; stroke-linecap: butt; stroke-linejoin: miter; fill: #B5B5B5;' />
<rect x='282.42' y='265.91' width='5.61' height='31.66' style='stroke-width: 1.07; stroke-linecap: butt; stroke-linejoin: miter; fill: #B5B5B5;' />
<rect x='288.03' y='246.92' width='5.61' height='50.66' style='stroke-width: 1.07; stroke-linecap: butt; stroke-linejoin: miter; fill: #B5B5B5;' />
<rect x='293.64' y='208.92' width='5.61' height='88.65' style='stroke-width: 1.07; stroke-linecap: butt; stroke-linejoin: miter; fill: #B5B5B5;' />
<rect x='299.24' y='170.93' width='5.61' height='126.64' style='stroke-width: 1.07; stroke-linecap: butt; stroke-linejoin: miter; fill: #B5B5B5;' />
<rect x='304.85' y='189.93' width='5.61' height='107.65' style='stroke-width: 1.07; stroke-linecap: butt; stroke-linejoin: miter; fill: #B5B5B5;' />
<rect x='310.45' y='196.26' width='5.61' height='101.31' style='stroke-width: 1.07; stroke-linecap: butt; stroke-linejoin: miter; fill: #B5B5B5;' />
<rect x='316.06' y='253.25' width='5.61' height='44.32' style='stroke-width: 1.07; stroke-linecap: butt; stroke-linejoin: miter; fill: #B5B5B5;' />
<rect x='321.66' y='196.26' width='5.61' height='101.31' style='stroke-width: 1.07; stroke-linecap: butt; stroke-linejoin: miter; fill: #B5B5B5;' />
<rect x='327.27' y='221.59' width='5.61' height='75.99' style='stroke-width: 1.07; stroke-linecap: butt; stroke-linejoin: miter; fill: #B5B5B5;' />
<rect x='332.88' y='215.26' width='5.61' height='82.32' style='stroke-width: 1.07; stroke-linecap: butt; stroke-linejoin: miter; fill: #B5B5B5;' />
<rect x='338.48' y='246.92' width='5.61' height='50.66' style='stroke-width: 1.07; stroke-linecap: butt; stroke-linejoin: miter; fill: #B5B5B5;' />
<rect x='344.09' y='25.29' width='5.61' height='272.28' style='stroke-width: 1.07; stroke-linecap: butt; stroke-linejoin: miter; fill: #B5B5B5;' />
<rect x='349.69' y='202.59' width='5.61' height='94.98' style='stroke-width: 1.07; stroke-linecap: butt; stroke-linejoin: miter; fill: #B5B5B5;' />
<rect x='355.30' y='253.25' width='5.61' height='44.32' style='stroke-width: 1.07; stroke-linecap: butt; stroke-linejoin: miter; fill: #B5B5B5;' />
<rect x='360.90' y='253.25' width='5.61' height='44.32' style='stroke-width: 1.07; stroke-linecap: butt; stroke-linejoin: miter; fill: #B5B5B5;' />
<rect x='366.51' y='253.25' width='5.61' height='44.32' style='stroke-width: 1.07; stroke-linecap: butt; stroke-linejoin: miter; fill: #B5B5B5;' />
<rect x='372.11' y='82.28' width='5.61' height='215.29' style='stroke-width: 1.07; stroke-linecap: butt; stroke-linejoin: miter; fill: #B5B5B5;' />
<rect x='377.72' y='221.59' width='5.61' height='75.99' style='stroke-width: 1.07; stroke-linecap: butt; stroke-linejoin: miter; fill: #B5B5B5;' />
<rect x='383.33' y='265.91' width='5.61' height='31.66' style='stroke-width: 1.07; stroke-linecap: butt; stroke-linejoin: miter; fill: #B5B5B5;' />
<rect x='388.93' y='240.58' width='5.61' height='56.99' style='stroke-width: 1.07; stroke-linecap: butt; stroke-linejoin: miter; fill: #B5B5B5;' />
<rect x='394.54' y='259.58' width='5.61' height='37.99' style='stroke-width: 1.07; stroke-linecap: butt; stroke-linejoin: miter; fill: #B5B5B5;' />
<rect x='400.14' y='278.58' width='5.61' height='19.00' style='stroke-width: 1.07; stroke-linecap: butt; stroke-linejoin: miter; fill: #B5B5B5;' />
<rect x='405.75' y='240.58' width='5.61' height='56.99' style='stroke-width: 1.07; stroke-linecap: butt; stroke-linejoin: miter; fill: #B5B5B5;' />
<rect x='411.35' y='284.91' width='5.61' height='12.66' style='stroke-width: 1.07; stroke-linecap: butt; stroke-linejoin: miter; fill: #B5B5B5;' />
<rect x='416.96' y='259.58' width='5.61' height='37.99' style='stroke-width: 1.07; stroke-linecap: butt; stroke-linejoin: miter; fill: #B5B5B5;' />
<rect x='422.56' y='272.24' width='5.61' height='25.33' style='stroke-width: 1.07; stroke-linecap: butt; stroke-linejoin: miter; fill: #B5B5B5;' />
<rect x='428.17' y='284.91' width='5.61' height='12.66' style='stroke-width: 1.07; stroke-linecap: butt; stroke-linejoin: miter; fill: #B5B5B5;' />
<rect x='433.78' y='284.91' width='5.61' height='12.66' style='stroke-width: 1.07; stroke-linecap: butt; stroke-linejoin: miter; fill: #B5B5B5;' />
<rect x='439.38' y='291.24' width='5.61' height='6.33' style='stroke-width: 1.07; stroke-linecap: butt; stroke-linejoin: miter; fill: #B5B5B5;' />
<rect x='444.99' y='278.58' width='5.61' height='19.00' style='stroke-width: 1.07; stroke-linecap: butt; stroke-linejoin: miter; fill: #B5B5B5;' />
<rect x='450.59' y='284.91' width='5.61' height='12.66' style='stroke-width: 1.07; stroke-linecap: butt; stroke-linejoin: miter; fill: #B5B5B5;' />
<rect x='456.20' y='297.57' width='5.61' height='0.00' style='stroke-width: 1.07; stroke-linecap: butt; stroke-linejoin: miter; fill: #B5B5B5;' />
<rect x='461.80' y='291.24' width='5.61' height='6.33' style='stroke-width: 1.07; stroke-linecap: butt; stroke-linejoin: miter; fill: #B5B5B5;' />
<rect x='467.41' y='297.57' width='5.61' height='0.00' style='stroke-width: 1.07; stroke-linecap: butt; stroke-linejoin: miter; fill: #B5B5B5;' />
<rect x='473.02' y='291.24' width='5.61' height='6.33' style='stroke-width: 1.07; stroke-linecap: butt; stroke-linejoin: miter; fill: #B5B5B5;' />
<polygon points='86.21,295.48 86.98,295.44 87.74,295.40 88.51,295.36 89.27,295.32 90.04,295.27 90.80,295.23 91.56,295.19 92.33,295.15 93.09,295.11 93.86,295.06 94.62,295.02 95.39,294.97 96.15,294.92 96.91,294.87 97.68,294.82 98.44,294.77 99.21,294.71 99.97,294.65 100.74,294.59 101.50,294.52 102.27,294.45 103.03,294.37 103.79,294.29 104.56,294.21 105.32,294.12 106.09,294.02 106.85,293.92 107.62,293.81 108.38,293.69 109.14,293.57 109.91,293.44 110.67,293.30 111.44,293.15 112.20,292.99 112.97,292.82 113.73,292.65 114.50,292.46 115.26,292.26 116.02,292.05 116.79,291.82 117.55,291.59 118.32,291.34 119.08,291.08 119.85,290.80 120.61,290.50 121.37,290.20 122.14,289.87 122.90,289.53 123.67,289.17 124.43,288.79 125.20,288.40 125.96,287.98 126.73,287.55 127.49,287.09 128.25,286.62 129.02,286.12 129.78,285.60 130.55,285.06 131.31,284.49 132.08,283.91 132.84,283.29 133.60,282.65 134.37,281.99 135.13,281.29 135.90,280.58 136.66,279.83 137.43,279.06 138.19,278.26 138.96,277.44 139.72,276.59 140.48,275.70 141.25,274.79 142.01,273.85 142.78,272.88 143.54,271.88 144.31,270.86 145.07,269.81 145.83,268.73 146.60,267.62 147.36,266.49 148.13,265.32 148.89,264.13 149.66,262.92 150.42,261.68 151.19,260.42 151.95,259.13 152.71,257.83 153.48,256.50 154.24,255.15 155.01,253.78 155.77,252.40 156.54,251.00 157.30,249.58 158.06,248.16 158.83,246.71 159.59,245.26 160.36,243.81 161.12,242.35 161.89,240.88 162.65,239.41 163.42,237.94 164.18,236.47 164.94,235.01 165.71,233.55 166.47,232.10 167.24,230.66 168.00,229.23 168.77,227.82 169.53,226.42 170.29,225.04 171.06,223.68 171.82,222.35 172.59,221.04 173.35,219.75 174.12,218.49 174.88,217.27 175.65,216.07 176.41,214.90 177.17,213.78 177.94,212.69 178.70,211.63 179.47,210.61 180.23,209.64 181.00,208.70 181.76,207.80 182.52,206.96 183.29,206.15 184.05,205.39 184.82,204.67 185.58,204.00 186.35,203.37 187.11,202.78 187.88,202.24 188.64,201.75 189.40,201.29 190.17,200.88 190.93,200.52 191.70,200.19 192.46,199.91 193.23,199.67 193.99,199.47 194.75,199.30 195.52,199.18 196.28,199.09 197.05,199.03 197.81,199.01 198.58,199.03 199.34,199.07 200.11,199.13 200.87,199.24 201.63,199.37 202.40,199.52 203.16,199.70 203.93,199.90 204.69,200.12 205.46,200.36 206.22,200.63 206.98,200.91 207.75,201.20 208.51,201.52 209.28,201.85 210.04,202.19 210.81,202.55 211.57,202.92 212.33,203.31 213.10,203.70 213.86,204.11 214.63,204.53 215.39,204.96 216.16,205.40 216.92,205.85 217.69,206.32 218.45,206.79 219.21,207.28 219.98,207.77 220.74,208.28 221.51,208.79 222.27,209.32 223.04,209.86 223.80,210.41 224.56,210.97 225.33,211.54 226.09,212.13 226.86,212.72 227.62,213.33 228.39,213.95 229.15,214.58 229.92,215.22 230.68,215.88 231.44,216.54 232.21,217.21 232.97,217.90 233.74,218.59 234.50,219.29 235.27,220.00 236.03,220.72 236.79,221.44 237.56,222.17 238.32,222.91 239.09,223.65 239.85,224.39 240.62,225.13 241.38,225.88 242.15,226.62 242.91,227.37 243.67,228.11 244.44,228.84 245.20,229.57 245.97,230.30 246.73,231.01 247.50,231.72 248.26,232.41 249.02,233.09 249.79,233.76 250.55,234.41 251.32,235.05 252.08,235.67 252.85,236.27 253.61,236.85 254.38,237.40 255.14,237.94 255.90,238.45 256.67,238.93 257.43,239.40 258.20,239.83 258.96,240.23 259.73,240.60 260.49,240.95 261.25,241.26 262.02,241.54 262.78,241.80 263.55,242.02 264.31,242.20 265.08,242.35 265.84,242.48 266.61,242.55 267.37,242.60 268.13,242.62 268.90,242.60 269.66,242.55 270.43,242.46 271.19,242.34 271.96,242.18 272.72,241.99 273.48,241.77 274.25,241.51 275.01,241.23 275.78,240.91 276.54,240.56 277.31,240.18 278.07,239.77 278.84,239.34 279.60,238.87 280.36,238.38 281.13,237.87 281.89,237.33 282.66,236.77 283.42,236.19 284.19,235.59 284.95,234.97 285.71,234.33 286.48,233.68 287.24,233.01 288.01,232.33 288.77,231.64 289.54,230.94 290.30,230.23 291.07,229.51 291.83,228.79 292.59,228.06 293.36,227.34 294.12,226.61 294.89,225.88 295.65,225.15 296.42,224.42 297.18,223.70 297.94,222.98 298.71,222.26 299.47,221.56 300.24,220.86 301.00,220.17 301.77,219.48 302.53,218.81 303.30,218.15 304.06,217.50 304.82,216.85 305.59,216.22 306.35,215.61 307.12,215.00 307.88,214.40 308.65,213.82 309.41,213.25 310.17,212.69 310.94,212.14 311.70,211.60 312.47,211.08 313.23,210.57 314.00,210.07 314.76,209.57 315.53,209.09 316.29,208.63 317.05,208.17 317.82,207.72 318.58,207.28 319.35,206.86 320.11,206.45 320.88,206.04 321.64,205.65 322.40,205.27 323.17,204.89 323.93,204.53 324.70,204.18 325.46,203.85 326.23,203.52 326.99,203.21 327.76,202.91 328.52,202.63 329.28,202.36 330.05,202.10 330.81,201.86 331.58,201.63 332.34,201.43 333.11,201.24 333.87,201.06 334.63,200.91 335.40,200.77 336.16,200.65 336.93,200.56 337.69,200.48 338.46,200.43 339.22,200.39 339.99,200.38 340.75,200.39 341.51,200.42 342.28,200.48 343.04,200.56 343.81,200.65 344.57,200.77 345.34,200.92 346.10,201.09 346.86,201.27 347.63,201.48 348.39,201.72 349.16,201.97 349.92,202.24 350.69,202.54 351.45,202.85 352.22,203.18 352.98,203.53 353.74,203.90 354.51,204.29 355.27,204.69 356.04,205.12 356.80,205.56 357.57,206.01 358.33,206.48 359.09,206.96 359.86,207.46 360.62,207.97 361.39,208.50 362.15,209.04 362.92,209.59 363.68,210.16 364.45,210.74 365.21,211.33 365.97,211.93 366.74,212.55 367.50,213.18 368.27,213.82 369.03,214.48 369.80,215.14 370.56,215.82 371.32,216.52 372.09,217.22 372.85,217.94 373.62,218.67 374.38,219.42 375.15,220.17 375.91,220.94 376.68,221.73 377.44,222.52 378.20,223.33 378.97,224.15 379.73,224.99 380.50,225.83 381.26,226.69 382.03,227.56 382.79,228.44 383.55,229.32 384.32,230.22 385.08,231.13 385.85,232.05 386.61,232.97 387.38,233.90 388.14,234.83 388.91,235.77 389.67,236.72 390.43,237.67 391.20,238.62 391.96,239.57 392.73,240.52 393.49,241.48 394.26,242.43 395.02,243.38 395.78,244.32 396.55,245.26 397.31,246.20 398.08,247.13 398.84,248.05 399.61,248.97 400.37,249.88 401.14,250.78 401.90,251.67 402.66,252.55 403.43,253.42 404.19,254.28 404.96,255.12 405.72,255.96 406.49,256.78 407.25,257.59 408.01,258.39 408.78,259.17 409.54,259.94 410.31,260.70 411.07,261.45 411.84,262.18 412.60,262.90 413.37,263.61 414.13,264.30 414.89,264.98 415.66,265.65 416.42,266.31 417.19,266.95 417.95,267.59 418.72,268.21 419.48,268.82 420.24,269.42 421.01,270.01 421.77,270.58 422.54,271.15 423.30,271.71 424.07,272.26 424.83,272.80 425.60,273.33 426.36,273.85 427.12,274.36 427.89,274.86 428.65,275.36 429.42,275.85 430.18,276.33 430.95,276.80 431.71,277.26 432.47,277.72 433.24,278.17 434.00,278.61 434.77,279.05 435.53,279.48 436.30,279.90 437.06,280.31 437.83,280.72 438.59,281.12 439.35,281.52 440.12,281.91 440.88,282.29 441.65,282.67 442.41,283.04 443.18,283.40 443.94,283.76 444.70,284.12 445.47,284.46 446.23,284.80 447.00,285.14 447.76,285.47 448.53,285.79 449.29,286.11 450.06,286.42 450.82,286.73 451.58,287.03 452.35,287.32 453.11,287.61 453.88,287.90 454.64,288.18 455.41,288.45 456.17,288.72 456.93,288.98 457.70,289.24 458.46,289.50 459.23,289.74 459.99,289.99 460.76,290.23 461.52,290.46 462.29,290.69 463.05,290.91 463.81,291.13 464.58,291.35 465.34,291.56 466.11,291.76 466.87,291.96 467.64,292.16 468.40,292.35 469.16,292.54 469.93,292.72 470.69,292.90 471.46,293.07 472.22,293.24 472.99,293.41 473.75,293.57 474.52,293.72 475.28,293.88 476.04,294.03 476.81,294.17 476.81,297.57 476.04,297.57 475.28,297.57 474.52,297.57 473.75,297.57 472.99,297.57 472.22,297.57 471.46,297.57 470.69,297.57 469.93,297.57 469.16,297.57 468.40,297.57 467.64,297.57 466.87,297.57 466.11,297.57 465.34,297.57 464.58,297.57 463.81,297.57 463.05,297.57 462.29,297.57 461.52,297.57 460.76,297.57 459.99,297.57 459.23,297.57 458.46,297.57 457.70,297.57 456.93,297.57 456.17,297.57 455.41,297.57 454.64,297.57 453.88,297.57 453.11,297.57 452.35,297.57 451.58,297.57 450.82,297.57 450.06,297.57 449.29,297.57 448.53,297.57 447.76,297.57 447.00,297.57 446.23,297.57 445.47,297.57 444.70,297.57 443.94,297.57 443.18,297.57 442.41,297.57 441.65,297.57 440.88,297.57 440.12,297.57 439.35,297.57 438.59,297.57 437.83,297.57 437.06,297.57 436.30,297.57 435.53,297.57 434.77,297.57 434.00,297.57 433.24,297.57 432.47,297.57 431.71,297.57 430.95,297.57 430.18,297.57 429.42,297.57 428.65,297.57 427.89,297.57 427.12,297.57 426.36,297.57 425.60,297.57 424.83,297.57 424.07,297.57 423.30,297.57 422.54,297.57 421.77,297.57 421.01,297.57 420.24,297.57 419.48,297.57 418.72,297.57 417.95,297.57 417.19,297.57 416.42,297.57 415.66,297.57 414.89,297.57 414.13,297.57 413.37,297.57 412.60,297.57 411.84,297.57 411.07,297.57 410.31,297.57 409.54,297.57 408.78,297.57 408.01,297.57 407.25,297.57 406.49,297.57 405.72,297.57 404.96,297.57 404.19,297.57 403.43,297.57 402.66,297.57 401.90,297.57 401.14,297.57 400.37,297.57 399.61,297.57 398.84,297.57 398.08,297.57 397.31,297.57 396.55,297.57 395.78,297.57 395.02,297.57 394.26,297.57 393.49,297.57 392.73,297.57 391.96,297.57 391.20,297.57 390.43,297.57 389.67,297.57 388.91,297.57 388.14,297.57 387.38,297.57 386.61,297.57 385.85,297.57 385.08,297.57 384.32,297.57 383.55,297.57 382.79,297.57 382.03,297.57 381.26,297.57 380.50,297.57 379.73,297.57 378.97,297.57 378.20,297.57 377.44,297.57 376.68,297.57 375.91,297.57 375.15,297.57 374.38,297.57 373.62,297.57 372.85,297.57 372.09,297.57 371.32,297.57 370.56,297.57 369.80,297.57 369.03,297.57 368.27,297.57 367.50,297.57 366.74,297.57 365.97,297.57 365.21,297.57 364.45,297.57 363.68,297.57 362.92,297.57 362.15,297.57 361.39,297.57 360.62,297.57 359.86,297.57 359.09,297.57 358.33,297.57 357.57,297.57 356.80,297.57 356.04,297.57 355.27,297.57 354.51,297.57 353.74,297.57 352.98,297.57 352.22,297.57 351.45,297.57 350.69,297.57 349.92,297.57 349.16,297.57 348.39,297.57 347.63,297.57 346.86,297.57 346.10,297.57 345.34,297.57 344.57,297.57 343.81,297.57 343.04,297.57 342.28,297.57 341.51,297.57 340.75,297.57 339.99,297.57 339.22,297.57 338.46,297.57 337.69,297.57 336.93,297.57 336.16,297.57 335.40,297.57 334.63,297.57 333.87,297.57 333.11,297.57 332.34,297.57 331.58,297.57 330.81,297.57 330.05,297.57 329.28,297.57 328.52,297.57 327.76,297.57 326.99,297.57 326.23,297.57 325.46,297.57 324.70,297.57 323.93,297.57 323.17,297.57 322.40,297.57 321.64,297.57 320.88,297.57 320.11,297.57 319.35,297.57 318.58,297.57 317.82,297.57 317.05,297.57 316.29,297.57 315.53,297.57 314.76,297.57 314.00,297.57 313.23,297.57 312.47,297.57 311.70,297.57 310.94,297.57 310.17,297.57 309.41,297.57 308.65,297.57 307.88,297.57 307.12,297.57 306.35,297.57 305.59,297.57 304.82,297.57 304.06,297.57 303.30,297.57 302.53,297.57 301.77,297.57 301.00,297.57 300.24,297.57 299.47,297.57 298.71,297.57 297.94,297.57 297.18,297.57 296.42,297.57 295.65,297.57 294.89,297.57 294.12,297.57 293.36,297.57 292.59,297.57 291.83,297.57 291.07,297.57 290.30,297.57 289.54,297.57 288.77,297.57 288.01,297.57 287.24,297.57 286.48,297.57 285.71,297.57 284.95,297.57 284.19,297.57 283.42,297.57 282.66,297.57 281.89,297.57 281.13,297.57 280.36,297.57 279.60,297.57 278.84,297.57 278.07,297.57 277.31,297.57 276.54,297.57 275.78,297.57 275.01,297.57 274.25,297.57 273.48,297.57 272.72,297.57 271.96,297.57 271.19,297.57 270.43,297.57 269.66,297.57 268.90,297.57 268.13,297.57 267.37,297.57 266.61,297.57 265.84,297.57 265.08,297.57 264.31,297.57 263.55,297.57 262.78,297.57 262.02,297.57 261.25,297.57 260.49,297.57 259.73,297.57 258.96,297.57 258.20,297.57 257.43,297.57 256.67,297.57 255.90,297.57 255.14,297.57 254.38,297.57 253.61,297.57 252.85,297.57 252.08,297.57 251.32,297.57 250.55,297.57 249.79,297.57 249.02,297.57 248.26,297.57 247.50,297.57 246.73,297.57 245.97,297.57 245.20,297.57 244.44,297.57 243.67,297.57 242.91,297.57 242.15,297.57 241.38,297.57 240.62,297.57 239.85,297.57 239.09,297.57 238.32,297.57 237.56,297.57 236.79,297.57 236.03,297.57 235.27,297.57 234.50,297.57 233.74,297.57 232.97,297.57 232.21,297.57 231.44,297.57 230.68,297.57 229.92,297.57 229.15,297.57 228.39,297.57 227.62,297.57 226.86,297.57 226.09,297.57 225.33,297.57 224.56,297.57 223.80,297.57 223.04,297.57 222.27,297.57 221.51,297.57 220.74,297.57 219.98,297.57 219.21,297.57 218.45,297.57 217.69,297.57 216.92,297.57 216.16,297.57 215.39,297.57 214.63,297.57 213.86,297.57 213.10,297.57 212.33,297.57 211.57,297.57 210.81,297.57 210.04,297.57 209.28,297.57 208.51,297.57 207.75,297.57 206.98,297.57 206.22,297.57 205.46,297.57 204.69,297.57 203.93,297.57 203.16,297.57 202.40,297.57 201.63,297.57 200.87,297.57 200.11,297.57 199.34,297.57 198.58,297.57 197.81,297.57 197.05,297.57 196.28,297.57 195.52,297.57 194.75,297.57 193.99,297.57 193.23,297.57 192.46,297.57 191.70,297.57 190.93,297.57 190.17,297.57 189.40,297.57 188.64,297.57 187.88,297.57 187.11,297.57 186.35,297.57 185.58,297.57 184.82,297.57 184.05,297.57 183.29,297.57 182.52,297.57 181.76,297.57 181.00,297.57 180.23,297.57 179.47,297.57 178.70,297.57 177.94,297.57 177.17,297.57 176.41,297.57 175.65,297.57 174.88,297.57 174.12,297.57 173.35,297.57 172.59,297.57 171.82,297.57 171.06,297.57 170.29,297.57 169.53,297.57 168.77,297.57 168.00,297.57 167.24,297.57 166.47,297.57 165.71,297.57 164.94,297.57 164.18,297.57 163.42,297.57 162.65,297.57 161.89,297.57 161.12,297.57 160.36,297.57 159.59,297.57 158.83,297.57 158.06,297.57 157.30,297.57 156.54,297.57 155.77,297.57 155.01,297.57 154.24,297.57 153.48,297.57 152.71,297.57 151.95,297.57 151.19,297.57 150.42,297.57 149.66,297.57 148.89,297.57 148.13,297.57 147.36,297.57 146.60,297.57 145.83,297.57 145.07,297.57 144.31,297.57 143.54,297.57 142.78,297.57 142.01,297.57 141.25,297.57 140.48,297.57 139.72,297.57 138.96,297.57 138.19,297.57 137.43,297.57 136.66,297.57 135.90,297.57 135.13,297.57 134.37,297.57 133.60,297.57 132.84,297.57 132.08,297.57 131.31,297.57 130.55,297.57 129.78,297.57 129.02,297.57 128.25,297.57 127.49,297.57 126.73,297.57 125.96,297.57 125.20,297.57 124.43,297.57 123.67,297.57 122.90,297.57 122.14,297.57 121.37,297.57 120.61,297.57 119.85,297.57 119.08,297.57 118.32,297.57 117.55,297.57 116.79,297.57 116.02,297.57 115.26,297.57 114.50,297.57 113.73,297.57 112.97,297.57 112.20,297.57 111.44,297.57 110.67,297.57 109.91,297.57 109.14,297.57 108.38,297.57 107.62,297.57 106.85,297.57 106.09,297.57 105.32,297.57 104.56,297.57 103.79,297.57 103.03,297.57 102.27,297.57 101.50,297.57 100.74,297.57 99.97,297.57 99.21,297.57 98.44,297.57 97.68,297.57 96.91,297.57 96.15,297.57 95.39,297.57 94.62,297.57 93.86,297.57 93.09,297.57 92.33,297.57 91.56,297.57 90.80,297.57 90.04,297.57 89.27,297.57 88.51,297.57 87.74,297.57 86.98,297.57 86.21,297.57 ' style='stroke-width: 0.00; stroke: none; stroke-linecap: butt; fill: #FF9933; fill-opacity: 0.50;' />
<polyline points='86.21,295.48 86.98,295.44 87.74,295.40 88.51,295.36 89.27,295.32 90.04,295.27 90.80,295.23 91.56,295.19 92.33,295.15 93.09,295.11 93.86,295.06 94.62,295.02 95.39,294.97 96.15,294.92 96.91,294.87 97.68,294.82 98.44,294.77 99.21,294.71 99.97,294.65 100.74,294.59 101.50,294.52 102.27,294.45 103.03,294.37 103.79,294.29 104.56,294.21 105.32,294.12 106.09,294.02 106.85,293.92 107.62,293.81 108.38,293.69 109.14,293.57 109.91,293.44 110.67,293.30 111.44,293.15 112.20,292.99 112.97,292.82 113.73,292.65 114.50,292.46 115.26,292.26 116.02,292.05 116.79,291.82 117.55,291.59 118.32,291.34 119.08,291.08 119.85,290.80 120.61,290.50 121.37,290.20 122.14,289.87 122.90,289.53 123.67,289.17 124.43,288.79 125.20,288.40 125.96,287.98 126.73,287.55 127.49,287.09 128.25,286.62 129.02,286.12 129.78,285.60 130.55,285.06 131.31,284.49 132.08,283.91 132.84,283.29 133.60,282.65 134.37,281.99 135.13,281.29 135.90,280.58 136.66,279.83 137.43,279.06 138.19,278.26 138.96,277.44 139.72,276.59 140.48,275.70 141.25,274.79 142.01,273.85 142.78,272.88 143.54,271.88 144.31,270.86 145.07,269.81 145.83,268.73 146.60,267.62 147.36,266.49 148.13,265.32 148.89,264.13 149.66,262.92 150.42,261.68 151.19,260.42 151.95,259.13 152.71,257.83 153.48,256.50 154.24,255.15 155.01,253.78 155.77,252.40 156.54,251.00 157.30,249.58 158.06,248.16 158.83,246.71 159.59,245.26 160.36,243.81 161.12,242.35 161.89,240.88 162.65,239.41 163.42,237.94 164.18,236.47 164.94,235.01 165.71,233.55 166.47,232.10 167.24,230.66 168.00,229.23 168.77,227.82 169.53,226.42 170.29,225.04 171.06,223.68 171.82,222.35 172.59,221.04 173.35,219.75 174.12,218.49 174.88,217.27 175.65,216.07 176.41,214.90 177.17,213.78 177.94,212.69 178.70,211.63 179.47,210.61 180.23,209.64 181.00,208.70 181.76,207.80 182.52,206.96 183.29,206.15 184.05,205.39 184.82,204.67 185.58,204.00 186.35,203.37 187.11,202.78 187.88,202.24 188.64,201.75 189.40,201.29 190.17,200.88 190.93,200.52 191.70,200.19 192.46,199.91 193.23,199.67 193.99,199.47 194.75,199.30 195.52,199.18 196.28,199.09 197.05,199.03 197.81,199.01 198.58,199.03 199.34,199.07 200.11,199.13 200.87,199.24 201.63,199.37 202.40,199.52 203.16,199.70 203.93,199.90 204.69,200.12 205.46,200.36 206.22,200.63 206.98,200.91 207.75,201.20 208.51,201.52 209.28,201.85 210.04,202.19 210.81,202.55 211.57,202.92 212.33,203.31 213.10,203.70 213.86,204.11 214.63,204.53 215.39,204.96 216.16,205.40 216.92,205.85 217.69,206.32 218.45,206.79 219.21,207.28 219.98,207.77 220.74,208.28 221.51,208.79 222.27,209.32 223.04,209.86 223.80,210.41 224.56,210.97 225.33,211.54 226.09,212.13 226.86,212.72 227.62,213.33 228.39,213.95 229.15,214.58 229.92,215.22 230.68,215.88 231.44,216.54 232.21,217.21 232.97,217.90 233.74,218.59 234.50,219.29 235.27,220.00 236.03,220.72 236.79,221.44 237.56,222.17 238.32,222.91 239.09,223.65 239.85,224.39 240.62,225.13 241.38,225.88 242.15,226.62 242.91,227.37 243.67,228.11 244.44,228.84 245.20,229.57 245.97,230.30 246.73,231.01 247.50,231.72 248.26,232.41 249.02,233.09 249.79,233.76 250.55,234.41 251.32,235.05 252.08,235.67 252.85,236.27 253.61,236.85 254.38,237.40 255.14,237.94 255.90,238.45 256.67,238.93 257.43,239.40 258.20,239.83 258.96,240.23 259.73,240.60 260.49,240.95 261.25,241.26 262.02,241.54 262.78,241.80 263.55,242.02 264.31,242.20 265.08,242.35 265.84,242.48 266.61,242.55 267.37,242.60 268.13,242.62 268.90,242.60 269.66,242.55 270.43,242.46 271.19,242.34 271.96,242.18 272.72,241.99 273.48,241.77 274.25,241.51 275.01,241.23 275.78,240.91 276.54,240.56 277.31,240.18 278.07,239.77 278.84,239.34 279.60,238.87 280.36,238.38 281.13,237.87 281.89,237.33 282.66,236.77 283.42,236.19 284.19,235.59 284.95,234.97 285.71,234.33 286.48,233.68 287.24,233.01 288.01,232.33 288.77,231.64 289.54,230.94 290.30,230.23 291.07,229.51 291.83,228.79 292.59,228.06 293.36,227.34 294.12,226.61 294.89,225.88 295.65,225.15 296.42,224.42 297.18,223.70 297.94,222.98 298.71,222.26 299.47,221.56 300.24,220.86 301.00,220.17 301.77,219.48 302.53,218.81 303.30,218.15 304.06,217.50 304.82,216.85 305.59,216.22 306.35,215.61 307.12,215.00 307.88,214.40 308.65,213.82 309.41,213.25 310.17,212.69 310.94,212.14 311.70,211.60 312.47,211.08 313.23,210.57 314.00,210.07 314.76,209.57 315.53,209.09 316.29,208.63 317.05,208.17 317.82,207.72 318.58,207.28 319.35,206.86 320.11,206.45 320.88,206.04 321.64,205.65 322.40,205.27 323.17,204.89 323.93,204.53 324.70,204.18 325.46,203.85 326.23,203.52 326.99,203.21 327.76,202.91 328.52,202.63 329.28,202.36 330.05,202.10 330.81,201.86 331.58,201.63 332.34,201.43 333.11,201.24 333.87,201.06 334.63,200.91 335.40,200.77 336.16,200.65 336.93,200.56 337.69,200.48 338.46,200.43 339.22,200.39 339.99,200.38 340.75,200.39 341.51,200.42 342.28,200.48 343.04,200.56 343.81,200.65 344.57,200.77 345.34,200.92 346.10,201.09 346.86,201.27 347.63,201.48 348.39,201.72 349.16,201.97 349.92,202.24 350.69,202.54 351.45,202.85 352.22,203.18 352.98,203.53 353.74,203.90 354.51,204.29 355.27,204.69 356.04,205.12 356.80,205.56 357.57,206.01 358.33,206.48 359.09,206.96 359.86,207.46 360.62,207.97 361.39,208.50 362.15,209.04 362.92,209.59 363.68,210.16 364.45,210.74 365.21,211.33 365.97,211.93 366.74,212.55 367.50,213.18 368.27,213.82 369.03,214.48 369.80,215.14 370.56,215.82 371.32,216.52 372.09,217.22 372.85,217.94 373.62,218.67 374.38,219.42 375.15,220.17 375.91,220.94 376.68,221.73 377.44,222.52 378.20,223.33 378.97,224.15 379.73,224.99 380.50,225.83 381.26,226.69 382.03,227.56 382.79,228.44 383.55,229.32 384.32,230.22 385.08,231.13 385.85,232.05 386.61,232.97 387.38,233.90 388.14,234.83 388.91,235.77 389.67,236.72 390.43,237.67 391.20,238.62 391.96,239.57 392.73,240.52 393.49,241.48 394.26,242.43 395.02,243.38 395.78,244.32 396.55,245.26 397.31,246.20 398.08,247.13 398.84,248.05 399.61,248.97 400.37,249.88 401.14,250.78 401.90,251.67 402.66,252.55 403.43,253.42 404.19,254.28 404.96,255.12 405.72,255.96 406.49,256.78 407.25,257.59 408.01,258.39 408.78,259.17 409.54,259.94 410.31,260.70 411.07,261.45 411.84,262.18 412.60,262.90 413.37,263.61 414.13,264.30 414.89,264.98 415.66,265.65 416.42,266.31 417.19,266.95 417.95,267.59 418.72,268.21 419.48,268.82 420.24,269.42 421.01,270.01 421.77,270.58 422.54,271.15 423.30,271.71 424.07,272.26 424.83,272.80 425.60,273.33 426.36,273.85 427.12,274.36 427.89,274.86 428.65,275.36 429.42,275.85 430.18,276.33 430.95,276.80 431.71,277.26 432.47,277.72 433.24,278.17 434.00,278.61 434.77,279.05 435.53,279.48 436.30,279.90 437.06,280.31 437.83,280.72 438.59,281.12 439.35,281.52 440.12,281.91 440.88,282.29 441.65,282.67 442.41,283.04 443.18,283.40 443.94,283.76 444.70,284.12 445.47,284.46 446.23,284.80 447.00,285.14 447.76,285.47 448.53,285.79 449.29,286.11 450.06,286.42 450.82,286.73 451.58,287.03 452.35,287.32 453.11,287.61 453.88,287.90 454.64,288.18 455.41,288.45 456.17,288.72 456.93,288.98 457.70,289.24 458.46,289.50 459.23,289.74 459.99,289.99 460.76,290.23 461.52,290.46 462.29,290.69 463.05,290.91 463.81,291.13 464.58,291.35 465.34,291.56 466.11,291.76 466.87,291.96 467.64,292.16 468.40,292.35 469.16,292.54 469.93,292.72 470.69,292.90 471.46,293.07 472.22,293.24 472.99,293.41 473.75,293.57 474.52,293.72 475.28,293.88 476.04,294.03 476.81,294.17 ' style='stroke-width: 1.07; stroke-linecap: butt;' />
<line x1='268.41' y1='311.19' x2='268.41' y2='11.68' style='stroke-width: 1.07; stroke-dasharray: 5.69,5.69; stroke-linecap: butt;' />
</g>
<g clip-path='url(#cpMC4wMHw1MDQuMDB8MC4wMHwzNjAuMDA=)'>
<text x='55.79' y='304.03' text-anchor='end' style='font-size: 18.00px;fill: #4D4D4D; font-family: "Arial";' textLength='25.02px' lengthAdjust='spacingAndGlyphs'>0.0</text>
<text x='55.79' y='207.62' text-anchor='end' style='font-size: 18.00px;fill: #4D4D4D; font-family: "Arial";' textLength='25.02px' lengthAdjust='spacingAndGlyphs'>0.5</text>
<text x='55.79' y='111.22' text-anchor='end' style='font-size: 18.00px;fill: #4D4D4D; font-family: "Arial";' textLength='25.02px' lengthAdjust='spacingAndGlyphs'>1.0</text>
<text x='122.67' y='329.03' text-anchor='middle' style='font-size: 18.00px;fill: #4D4D4D; font-family: "Arial";' textLength='10.01px' lengthAdjust='spacingAndGlyphs'>3</text>
<text x='234.78' y='329.03' text-anchor='middle' style='font-size: 18.00px;fill: #4D4D4D; font-family: "Arial";' textLength='10.01px' lengthAdjust='spacingAndGlyphs'>4</text>
<text x='346.89' y='329.03' text-anchor='middle' style='font-size: 18.00px;fill: #4D4D4D; font-family: "Arial";' textLength='10.01px' lengthAdjust='spacingAndGlyphs'>5</text>
<text x='459.00' y='329.03' text-anchor='middle' style='font-size: 18.00px;fill: #4D4D4D; font-family: "Arial";' textLength='10.01px' lengthAdjust='spacingAndGlyphs'>6</text>
<text x='279.62' y='350.12' text-anchor='middle' style='font-size: 20.00px; font-weight: bold; font-family: "Arial";' textLength='108.87px' lengthAdjust='spacingAndGlyphs'>log (length)</text>
<text transform='translate(22.75,161.43) rotate(-90)' text-anchor='middle' style='font-size: 24.00px; font-weight: bold; font-family: "Arial";' textLength='86.70px' lengthAdjust='spacingAndGlyphs'>Density</text>
<text x='279.62' y='6.20' text-anchor='middle' style='font-size: 0.00px; font-weight: bold; font-family: "Arial";' textLength='13.47px' lengthAdjust='spacingAndGlyphs'>Plasmids length distribution</text>
</g>
</svg>
