<?xml version='1.0' encoding='UTF-8' ?>
<svg xmlns='http://www.w3.org/2000/svg' xmlns:xlink='http://www.w3.org/1999/xlink' class='svglite' width='504.00pt' height='360.00pt' viewBox='0 0 504.00 360.00'>
<defs>
  <style type='text/css'><![CDATA[
    .svglite line, .svglite polyline, .svglite polygon, .svglite path, .svglite rect, .svglite circle {
      fill: none;
      stroke: #000000;
      stroke-linecap: round;
      stroke-linejoin: round;
      stroke-miterlimit: 10.00;
    }
    .svglite text {
      white-space: pre;
    }
  ]]></style>
</defs>
<rect width='100%' height='100%' style='stroke: none; fill: #FFFFFF;'/>
<defs>
  <clipPath id='cpMC4wMHw1MDQuMDB8MC4wMHwzNjAuMDA='>
    <rect x='0.00' y='0.00' width='504.00' height='360.00' />
  </clipPath>
</defs>
<g clip-path='url(#cpMC4wMHw1MDQuMDB8MC4wMHwzNjAuMDA=)'>
<rect x='0.000000000000064' y='0.00' width='504.00' height='360.00' style='stroke-width: 1.07; stroke: #FFFFFF; fill: #FFFFFF;' />
</g>
<defs>
  <clipPath id='cpMTY4LjU5fDQ4MS4zMXw1LjQ4fDEzMC4xNg=='>
    <rect x='168.59' y='5.48' width='312.72' height='124.68' />
  </clipPath>
</defs>
<g clip-path='url(#cpMTY4LjU5fDQ4MS4zMXw1LjQ4fDEzMC4xNg==)'>
<rect x='168.59' y='5.48' width='312.72' height='124.68' style='stroke-width: 1.07; stroke: none; fill: #FFFFFF;' />
<polyline points='168.59,110.32 481.31,110.32 ' style='stroke-width: 0.53; stroke: #EBEBEB; stroke-linecap: butt;' />
<polyline points='168.59,81.99 481.31,81.99 ' style='stroke-width: 0.53; stroke: #EBEBEB; stroke-linecap: butt;' />
<polyline points='168.59,53.65 481.31,53.65 ' style='stroke-width: 0.53; stroke: #EBEBEB; stroke-linecap: butt;' />
<polyline points='168.59,25.31 481.31,25.31 ' style='stroke-width: 0.53; stroke: #EBEBEB; stroke-linecap: butt;' />
<polyline points='168.59,124.49 481.31,124.49 ' style='stroke-width: 1.07; stroke: #EBEBEB; stroke-linecap: butt;' />
<polyline points='168.59,96.15 481.31,96.15 ' style='stroke-width: 1.07; stroke: #EBEBEB; stroke-linecap: butt;' />
<polyline points='168.59,67.82 481.31,67.82 ' style='stroke-width: 1.07; stroke: #EBEBEB; stroke-linecap: butt;' />
<polyline points='168.59,39.48 481.31,39.48 ' style='stroke-width: 1.07; stroke: #EBEBEB; stroke-linecap: butt;' />
<polyline points='168.59,11.15 481.31,11.15 ' style='stroke-width: 1.07; stroke: #EBEBEB; stroke-linecap: butt;' />
<polyline points='176.67,130.16 176.67,5.48 ' style='stroke-width: 1.07; stroke: #EBEBEB; stroke-linecap: butt;' />
<polyline points='190.15,130.16 190.15,5.48 ' style='stroke-width: 1.07; stroke: #EBEBEB; stroke-linecap: butt;' />
<polyline points='203.63,130.16 203.63,5.48 ' style='stroke-width: 1.07; stroke: #EBEBEB; stroke-linecap: butt;' />
<polyline points='217.11,130.16 217.11,5.48 ' style='stroke-width: 1.07; stroke: #EBEBEB; stroke-linecap: butt;' />
<polyline points='230.59,130.16 230.59,5.48 ' style='stroke-width: 1.07; stroke: #EBEBEB; stroke-linecap: butt;' />
<polyline points='244.07,130.16 244.07,5.48 ' style='stroke-width: 1.07; stroke: #EBEBEB; stroke-linecap: butt;' />
<polyline points='257.55,130.16 257.55,5.48 ' style='stroke-width: 1.07; stroke: #EBEBEB; stroke-linecap: butt;' />
<polyline points='271.03,130.16 271.03,5.48 ' style='stroke-width: 1.07; stroke: #EBEBEB; stroke-linecap: butt;' />
<polyline points='284.51,130.16 284.51,5.48 ' style='stroke-width: 1.07; stroke: #EBEBEB; stroke-linecap: butt;' />
<polyline points='297.99,130.16 297.99,5.48 ' style='stroke-width: 1.07; stroke: #EBEBEB; stroke-linecap: butt;' />
<polyline points='311.47,130.16 311.47,5.48 ' style='stroke-width: 1.07; stroke: #EBEBEB; stroke-linecap: butt;' />
<polyline points='324.95,130.16 324.95,5.48 ' style='stroke-width: 1.07; stroke: #EBEBEB; stroke-linecap: butt;' />
<polyline points='338.43,130.16 338.43,5.48 ' style='stroke-width: 1.07; stroke: #EBEBEB; stroke-linecap: butt;' />
<polyline points='351.91,130.16 351.91,5.48 ' style='stroke-width: 1.07; stroke: #EBEBEB; stroke-linecap: butt;' />
<polyline points='365.39,130.16 365.39,5.48 ' style='stroke-width: 1.07; stroke: #EBEBEB; stroke-linecap: butt;' />
<polyline points='378.87,130.16 378.87,5.48 ' style='stroke-width: 1.07; stroke: #EBEBEB; stroke-linecap: butt;' />
<polyline points='392.35,130.16 392.35,5.48 ' style='stroke-width: 1.07; stroke: #EBEBEB; stroke-linecap: butt;' />
<polyline points='405.83,130.16 405.83,5.48 ' style='stroke-width: 1.07; stroke: #EBEBEB; stroke-linecap: butt;' />
<polyline points='419.31,130.16 419.31,5.48 ' style='stroke-width: 1.07; stroke: #EBEBEB; stroke-linecap: butt;' />
<polyline points='432.79,130.16 432.79,5.48 ' style='stroke-width: 1.07; stroke: #EBEBEB; stroke-linecap: butt;' />
<polyline points='446.26,130.16 446.26,5.48 ' style='stroke-width: 1.07; stroke: #EBEBEB; stroke-linecap: butt;' />
<polyline points='459.74,130.16 459.74,5.48 ' style='stroke-width: 1.07; stroke: #EBEBEB; stroke-linecap: butt;' />
<polyline points='473.22,130.16 473.22,5.48 ' style='stroke-width: 1.07; stroke: #EBEBEB; stroke-linecap: butt;' />
<circle cx='257.55' cy='62.15' r='3.56' style='stroke-width: 0.71; stroke: #21908C; fill: #21908C;' />
<circle cx='257.55' cy='56.14' r='3.56' style='stroke-width: 0.71; stroke: #FDE725; fill: #FDE725;' />
<circle cx='257.55' cy='48.78' r='3.56' style='stroke-width: 0.71; stroke: #440154; fill: #440154;' />
<circle cx='473.22' cy='11.94' r='3.56' style='stroke-width: 0.71; stroke: #21908C; fill: #21908C;' />
<circle cx='473.22' cy='11.60' r='3.56' style='stroke-width: 0.71; stroke: #FDE725; fill: #FDE725;' />
<circle cx='473.22' cy='11.15' r='3.56' style='stroke-width: 0.71; stroke: #440154; fill: #440154;' />
<rect x='168.59' y='5.48' width='312.72' height='124.68' style='stroke-width: 1.07; stroke: #333333;' />
</g>
<g clip-path='url(#cpMC4wMHw1MDQuMDB8MC4wMHwzNjAuMDA=)'>
</g>
<defs>
  <clipPath id='cpMTY4LjU5fDQ4MS4zMXwxMzUuNjN8MjYwLjMx'>
    <rect x='168.59' y='135.63' width='312.72' height='124.68' />
  </clipPath>
</defs>
<g clip-path='url(#cpMTY4LjU5fDQ4MS4zMXwxMzUuNjN8MjYwLjMx)'>
<rect x='168.59' y='135.63' width='312.72' height='124.68' style='stroke-width: 1.07; stroke: none; fill: #FFFFFF;' />
<polyline points='168.59,240.48 481.31,240.48 ' style='stroke-width: 0.53; stroke: #EBEBEB; stroke-linecap: butt;' />
<polyline points='168.59,212.14 481.31,212.14 ' style='stroke-width: 0.53; stroke: #EBEBEB; stroke-linecap: butt;' />
<polyline points='168.59,183.80 481.31,183.80 ' style='stroke-width: 0.53; stroke: #EBEBEB; stroke-linecap: butt;' />
<polyline points='168.59,155.47 481.31,155.47 ' style='stroke-width: 0.53; stroke: #EBEBEB; stroke-linecap: butt;' />
<polyline points='168.59,254.64 481.31,254.64 ' style='stroke-width: 1.07; stroke: #EBEBEB; stroke-linecap: butt;' />
<polyline points='168.59,226.31 481.31,226.31 ' style='stroke-width: 1.07; stroke: #EBEBEB; stroke-linecap: butt;' />
<polyline points='168.59,197.97 481.31,197.97 ' style='stroke-width: 1.07; stroke: #EBEBEB; stroke-linecap: butt;' />
<polyline points='168.59,169.64 481.31,169.64 ' style='stroke-width: 1.07; stroke: #EBEBEB; stroke-linecap: butt;' />
<polyline points='168.59,141.30 481.31,141.30 ' style='stroke-width: 1.07; stroke: #EBEBEB; stroke-linecap: butt;' />
<polyline points='176.67,260.31 176.67,135.63 ' style='stroke-width: 1.07; stroke: #EBEBEB; stroke-linecap: butt;' />
<polyline points='190.15,260.31 190.15,135.63 ' style='stroke-width: 1.07; stroke: #EBEBEB; stroke-linecap: butt;' />
<polyline points='203.63,260.31 203.63,135.63 ' style='stroke-width: 1.07; stroke: #EBEBEB; stroke-linecap: butt;' />
<polyline points='217.11,260.31 217.11,135.63 ' style='stroke-width: 1.07; stroke: #EBEBEB; stroke-linecap: butt;' />
<polyline points='230.59,260.31 230.59,135.63 ' style='stroke-width: 1.07; stroke: #EBEBEB; stroke-linecap: butt;' />
<polyline points='244.07,260.31 244.07,135.63 ' style='stroke-width: 1.07; stroke: #EBEBEB; stroke-linecap: butt;' />
<polyline points='257.55,260.31 257.55,135.63 ' style='stroke-width: 1.07; stroke: #EBEBEB; stroke-linecap: butt;' />
<polyline points='271.03,260.31 271.03,135.63 ' style='stroke-width: 1.07; stroke: #EBEBEB; stroke-linecap: butt;' />
<polyline points='284.51,260.31 284.51,135.63 ' style='stroke-width: 1.07; stroke: #EBEBEB; stroke-linecap: butt;' />
<polyline points='297.99,260.31 297.99,135.63 ' style='stroke-width: 1.07; stroke: #EBEBEB; stroke-linecap: butt;' />
<polyline points='311.47,260.31 311.47,135.63 ' style='stroke-width: 1.07; stroke: #EBEBEB; stroke-linecap: butt;' />
<polyline points='324.95,260.31 324.95,135.63 ' style='stroke-width: 1.07; stroke: #EBEBEB; stroke-linecap: butt;' />
<polyline points='338.43,260.31 338.43,135.63 ' style='stroke-width: 1.07; stroke: #EBEBEB; stroke-linecap: butt;' />
<polyline points='351.91,260.31 351.91,135.63 ' style='stroke-width: 1.07; stroke: #EBEBEB; stroke-linecap: butt;' />
<polyline points='365.39,260.31 365.39,135.63 ' style='stroke-width: 1.07; stroke: #EBEBEB; stroke-linecap: butt;' />
<polyline points='378.87,260.31 378.87,135.63 ' style='stroke-width: 1.07; stroke: #EBEBEB; stroke-linecap: butt;' />
<polyline points='392.35,260.31 392.35,135.63 ' style='stroke-width: 1.07; stroke: #EBEBEB; stroke-linecap: butt;' />
<polyline points='405.83,260.31 405.83,135.63 ' style='stroke-width: 1.07; stroke: #EBEBEB; stroke-linecap: butt;' />
<polyline points='419.31,260.31 419.31,135.63 ' style='stroke-width: 1.07; stroke: #EBEBEB; stroke-linecap: butt;' />
<polyline points='432.79,260.31 432.79,135.63 ' style='stroke-width: 1.07; stroke: #EBEBEB; stroke-linecap: butt;' />
<polyline points='446.26,260.31 446.26,135.63 ' style='stroke-width: 1.07; stroke: #EBEBEB; stroke-linecap: butt;' />
<polyline points='459.74,260.31 459.74,135.63 ' style='stroke-width: 1.07; stroke: #EBEBEB; stroke-linecap: butt;' />
<polyline points='473.22,260.31 473.22,135.63 ' style='stroke-width: 1.07; stroke: #EBEBEB; stroke-linecap: butt;' />
<circle cx='378.87' cy='251.81' r='3.56' style='stroke-width: 0.71; stroke: #21908C; fill: #21908C;' />
<circle cx='217.11' cy='251.02' r='3.56' style='stroke-width: 0.71; stroke: #21908C; fill: #21908C;' />
<circle cx='378.87' cy='249.09' r='3.56' style='stroke-width: 0.71; stroke: #FDE725; fill: #FDE725;' />
<circle cx='217.11' cy='247.62' r='3.56' style='stroke-width: 0.71; stroke: #FDE725; fill: #FDE725;' />
<circle cx='190.15' cy='236.28' r='3.56' style='stroke-width: 0.71; stroke: #440154; fill: #440154;' />
<circle cx='311.47' cy='235.49' r='3.56' style='stroke-width: 0.71; stroke: #440154; fill: #440154;' />
<circle cx='392.35' cy='232.66' r='3.56' style='stroke-width: 0.71; stroke: #440154; fill: #440154;' />
<circle cx='190.15' cy='229.82' r='3.56' style='stroke-width: 0.71; stroke: #FDE725; fill: #FDE725;' />
<circle cx='324.95' cy='227.67' r='3.56' style='stroke-width: 0.71; stroke: #440154; fill: #440154;' />
<circle cx='338.43' cy='226.53' r='3.56' style='stroke-width: 0.71; stroke: #440154; fill: #440154;' />
<circle cx='311.47' cy='225.85' r='3.56' style='stroke-width: 0.71; stroke: #FDE725; fill: #FDE725;' />
<circle cx='392.35' cy='217.81' r='3.56' style='stroke-width: 0.71; stroke: #FDE725; fill: #FDE725;' />
<circle cx='190.15' cy='216.11' r='3.56' style='stroke-width: 0.71; stroke: #21908C; fill: #21908C;' />
<circle cx='297.99' cy='215.54' r='3.56' style='stroke-width: 0.71; stroke: #440154; fill: #440154;' />
<circle cx='324.95' cy='213.39' r='3.56' style='stroke-width: 0.71; stroke: #FDE725; fill: #FDE725;' />
<circle cx='419.31' cy='213.05' r='3.56' style='stroke-width: 0.71; stroke: #21908C; fill: #21908C;' />
<circle cx='459.74' cy='211.46' r='3.56' style='stroke-width: 0.71; stroke: #21908C; fill: #21908C;' />
<circle cx='338.43' cy='209.65' r='3.56' style='stroke-width: 0.71; stroke: #FDE725; fill: #FDE725;' />
<circle cx='271.03' cy='205.68' r='3.56' style='stroke-width: 0.71; stroke: #440154; fill: #440154;' />
<circle cx='244.07' cy='205.57' r='3.56' style='stroke-width: 0.71; stroke: #440154; fill: #440154;' />
<circle cx='365.39' cy='202.39' r='3.56' style='stroke-width: 0.71; stroke: #440154; fill: #440154;' />
<circle cx='271.03' cy='201.83' r='3.56' style='stroke-width: 0.71; stroke: #FDE725; fill: #FDE725;' />
<circle cx='297.99' cy='198.99' r='3.56' style='stroke-width: 0.71; stroke: #FDE725; fill: #FDE725;' />
<circle cx='271.03' cy='197.29' r='3.56' style='stroke-width: 0.71; stroke: #21908C; fill: #21908C;' />
<circle cx='311.47' cy='196.27' r='3.56' style='stroke-width: 0.71; stroke: #21908C; fill: #21908C;' />
<circle cx='419.31' cy='193.78' r='3.56' style='stroke-width: 0.71; stroke: #FDE725; fill: #FDE725;' />
<circle cx='351.91' cy='193.55' r='3.56' style='stroke-width: 0.71; stroke: #440154; fill: #440154;' />
<circle cx='365.39' cy='193.21' r='3.56' style='stroke-width: 0.71; stroke: #FDE725; fill: #FDE725;' />
<circle cx='244.07' cy='192.08' r='3.56' style='stroke-width: 0.71; stroke: #FDE725; fill: #FDE725;' />
<circle cx='459.74' cy='192.08' r='3.56' style='stroke-width: 0.71; stroke: #FDE725; fill: #FDE725;' />
<circle cx='284.51' cy='190.27' r='3.56' style='stroke-width: 0.71; stroke: #440154; fill: #440154;' />
<circle cx='351.91' cy='185.96' r='3.56' style='stroke-width: 0.71; stroke: #FDE725; fill: #FDE725;' />
<circle cx='365.39' cy='180.18' r='3.56' style='stroke-width: 0.71; stroke: #21908C; fill: #21908C;' />
<circle cx='351.91' cy='176.32' r='3.56' style='stroke-width: 0.71; stroke: #21908C; fill: #21908C;' />
<circle cx='284.51' cy='173.60' r='3.56' style='stroke-width: 0.71; stroke: #FDE725; fill: #FDE725;' />
<circle cx='446.26' cy='173.26' r='3.56' style='stroke-width: 0.71; stroke: #440154; fill: #440154;' />
<circle cx='230.59' cy='169.07' r='3.56' style='stroke-width: 0.71; stroke: #440154; fill: #440154;' />
<circle cx='244.07' cy='168.50' r='3.56' style='stroke-width: 0.71; stroke: #21908C; fill: #21908C;' />
<circle cx='324.95' cy='167.26' r='3.56' style='stroke-width: 0.71; stroke: #21908C; fill: #21908C;' />
<circle cx='446.26' cy='159.89' r='3.56' style='stroke-width: 0.71; stroke: #FDE725; fill: #FDE725;' />
<circle cx='297.99' cy='158.08' r='3.56' style='stroke-width: 0.71; stroke: #21908C; fill: #21908C;' />
<circle cx='230.59' cy='157.28' r='3.56' style='stroke-width: 0.71; stroke: #FDE725; fill: #FDE725;' />
<circle cx='405.83' cy='148.44' r='3.56' style='stroke-width: 0.71; stroke: #21908C; fill: #21908C;' />
<circle cx='203.63' cy='148.10' r='3.56' style='stroke-width: 0.71; stroke: #21908C; fill: #21908C;' />
<circle cx='176.67' cy='146.97' r='3.56' style='stroke-width: 0.71; stroke: #21908C; fill: #21908C;' />
<circle cx='284.51' cy='145.38' r='3.56' style='stroke-width: 0.71; stroke: #21908C; fill: #21908C;' />
<circle cx='432.79' cy='145.16' r='3.56' style='stroke-width: 0.71; stroke: #21908C; fill: #21908C;' />
<circle cx='405.83' cy='145.04' r='3.56' style='stroke-width: 0.71; stroke: #FDE725; fill: #FDE725;' />
<circle cx='203.63' cy='144.82' r='3.56' style='stroke-width: 0.71; stroke: #FDE725; fill: #FDE725;' />
<circle cx='176.67' cy='144.25' r='3.56' style='stroke-width: 0.71; stroke: #FDE725; fill: #FDE725;' />
<circle cx='432.79' cy='143.23' r='3.56' style='stroke-width: 0.71; stroke: #FDE725; fill: #FDE725;' />
<circle cx='392.35' cy='141.76' r='3.56' style='stroke-width: 0.71; stroke: #21908C; fill: #21908C;' />
<circle cx='230.59' cy='141.76' r='3.56' style='stroke-width: 0.71; stroke: #21908C; fill: #21908C;' />
<circle cx='405.83' cy='141.30' r='3.56' style='stroke-width: 0.71; stroke: #440154; fill: #440154;' />
<circle cx='338.43' cy='141.30' r='3.56' style='stroke-width: 0.71; stroke: #21908C; fill: #21908C;' />
<circle cx='217.11' cy='141.30' r='3.56' style='stroke-width: 0.71; stroke: #440154; fill: #440154;' />
<circle cx='378.87' cy='141.30' r='3.56' style='stroke-width: 0.71; stroke: #440154; fill: #440154;' />
<circle cx='176.67' cy='141.30' r='3.56' style='stroke-width: 0.71; stroke: #440154; fill: #440154;' />
<circle cx='432.79' cy='141.30' r='3.56' style='stroke-width: 0.71; stroke: #440154; fill: #440154;' />
<circle cx='203.63' cy='141.30' r='3.56' style='stroke-width: 0.71; stroke: #440154; fill: #440154;' />
<circle cx='419.31' cy='141.30' r='3.56' style='stroke-width: 0.71; stroke: #440154; fill: #440154;' />
<circle cx='446.26' cy='141.30' r='3.56' style='stroke-width: 0.71; stroke: #21908C; fill: #21908C;' />
<circle cx='459.74' cy='141.30' r='3.56' style='stroke-width: 0.71; stroke: #440154; fill: #440154;' />
<rect x='168.59' y='135.63' width='312.72' height='124.68' style='stroke-width: 1.07; stroke: #333333;' />
</g>
<g clip-path='url(#cpMC4wMHw1MDQuMDB8MC4wMHwzNjAuMDA=)'>
</g>
<defs>
  <clipPath id='cpNDgxLjMxfDQ5OC41Mnw1LjQ4fDEzMC4xNg=='>
    <rect x='481.31' y='5.48' width='17.21' height='124.68' />
  </clipPath>
</defs>
<g clip-path='url(#cpNDgxLjMxfDQ5OC41Mnw1LjQ4fDEzMC4xNg==)'>
<rect x='481.31' y='5.48' width='17.21' height='124.68' style='stroke-width: 1.07; stroke: #333333; fill: #D9D9D9;' />
<text transform='translate(486.76,67.82) rotate(90)' text-anchor='middle' style='font-size: 8.80px;fill: #1A1A1A; font-family: "Arial";' textLength='52.31px' lengthAdjust='spacingAndGlyphs'>ARG-plasmid</text>
</g>
<g clip-path='url(#cpMC4wMHw1MDQuMDB8MC4wMHwzNjAuMDA=)'>
</g>
<defs>
  <clipPath id='cpNDgxLjMxfDQ5OC41MnwxMzUuNjN8MjYwLjMx'>
    <rect x='481.31' y='135.63' width='17.21' height='124.68' />
  </clipPath>
</defs>
<g clip-path='url(#cpNDgxLjMxfDQ5OC41MnwxMzUuNjN8MjYwLjMx)'>
<rect x='481.31' y='135.63' width='17.21' height='124.68' style='stroke-width: 1.07; stroke: #333333; fill: #D9D9D9;' />
<text transform='translate(486.76,197.97) rotate(90)' text-anchor='middle' style='font-size: 8.80px;fill: #1A1A1A; font-family: "Arial";' textLength='69.93px' lengthAdjust='spacingAndGlyphs'>non-ARG-plasmid</text>
</g>
<g clip-path='url(#cpMC4wMHw1MDQuMDB8MC4wMHwzNjAuMDA=)'>
<polyline points='176.67,263.05 176.67,260.31 ' style='stroke-width: 1.07; stroke: #333333; stroke-linecap: butt;' />
<polyline points='190.15,263.05 190.15,260.31 ' style='stroke-width: 1.07; stroke: #333333; stroke-linecap: butt;' />
<polyline points='203.63,263.05 203.63,260.31 ' style='stroke-width: 1.07; stroke: #333333; stroke-linecap: butt;' />
<polyline points='217.11,263.05 217.11,260.31 ' style='stroke-width: 1.07; stroke: #333333; stroke-linecap: butt;' />
<polyline points='230.59,263.05 230.59,260.31 ' style='stroke-width: 1.07; stroke: #333333; stroke-linecap: butt;' />
<polyline points='244.07,263.05 244.07,260.31 ' style='stroke-width: 1.07; stroke: #333333; stroke-linecap: butt;' />
<polyline points='257.55,263.05 257.55,260.31 ' style='stroke-width: 1.07; stroke: #333333; stroke-linecap: butt;' />
<polyline points='271.03,263.05 271.03,260.31 ' style='stroke-width: 1.07; stroke: #333333; stroke-linecap: butt;' />
<polyline points='284.51,263.05 284.51,260.31 ' style='stroke-width: 1.07; stroke: #333333; stroke-linecap: butt;' />
<polyline points='297.99,263.05 297.99,260.31 ' style='stroke-width: 1.07; stroke: #333333; stroke-linecap: butt;' />
<polyline points='311.47,263.05 311.47,260.31 ' style='stroke-width: 1.07; stroke: #333333; stroke-linecap: butt;' />
<polyline points='324.95,263.05 324.95,260.31 ' style='stroke-width: 1.07; stroke: #333333; stroke-linecap: butt;' />
<polyline points='338.43,263.05 338.43,260.31 ' style='stroke-width: 1.07; stroke: #333333; stroke-linecap: butt;' />
<polyline points='351.91,263.05 351.91,260.31 ' style='stroke-width: 1.07; stroke: #333333; stroke-linecap: butt;' />
<polyline points='365.39,263.05 365.39,260.31 ' style='stroke-width: 1.07; stroke: #333333; stroke-linecap: butt;' />
<polyline points='378.87,263.05 378.87,260.31 ' style='stroke-width: 1.07; stroke: #333333; stroke-linecap: butt;' />
<polyline points='392.35,263.05 392.35,260.31 ' style='stroke-width: 1.07; stroke: #333333; stroke-linecap: butt;' />
<polyline points='405.83,263.05 405.83,260.31 ' style='stroke-width: 1.07; stroke: #333333; stroke-linecap: butt;' />
<polyline points='419.31,263.05 419.31,260.31 ' style='stroke-width: 1.07; stroke: #333333; stroke-linecap: butt;' />
<polyline points='432.79,263.05 432.79,260.31 ' style='stroke-width: 1.07; stroke: #333333; stroke-linecap: butt;' />
<polyline points='446.26,263.05 446.26,260.31 ' style='stroke-width: 1.07; stroke: #333333; stroke-linecap: butt;' />
<polyline points='459.74,263.05 459.74,260.31 ' style='stroke-width: 1.07; stroke: #333333; stroke-linecap: butt;' />
<polyline points='473.22,263.05 473.22,260.31 ' style='stroke-width: 1.07; stroke: #333333; stroke-linecap: butt;' />
<text transform='translate(183.80,272.36) rotate(-45)' text-anchor='end' style='font-size: 14.00px; font-weight: bold;fill: #4D4D4D; font-family: "Arial";' textLength='104.26px' lengthAdjust='spacingAndGlyphs'>NZ_AP025616.1</text>
<text transform='translate(197.28,272.36) rotate(-45)' text-anchor='end' style='font-size: 14.00px; font-weight: bold;fill: #4D4D4D; font-family: "Arial";' textLength='104.26px' lengthAdjust='spacingAndGlyphs'>NZ_CP042359.1</text>
<text transform='translate(210.76,272.36) rotate(-45)' text-anchor='end' style='font-size: 14.00px; font-weight: bold;fill: #4D4D4D; font-family: "Arial";' textLength='104.26px' lengthAdjust='spacingAndGlyphs'>NZ_CP073802.1</text>
<text transform='translate(224.24,272.36) rotate(-45)' text-anchor='end' style='font-size: 14.00px; font-weight: bold;fill: #4D4D4D; font-family: "Arial";' textLength='104.26px' lengthAdjust='spacingAndGlyphs'>NZ_CP076174.1</text>
<text transform='translate(237.72,272.36) rotate(-45)' text-anchor='end' style='font-size: 14.00px; font-weight: bold;fill: #4D4D4D; font-family: "Arial";' textLength='104.26px' lengthAdjust='spacingAndGlyphs'>NZ_CP084253.1</text>
<text transform='translate(251.19,272.36) rotate(-45)' text-anchor='end' style='font-size: 14.00px; font-weight: bold;fill: #4D4D4D; font-family: "Arial";' textLength='104.26px' lengthAdjust='spacingAndGlyphs'>NZ_CP084288.1</text>
<text transform='translate(264.67,272.36) rotate(-45)' text-anchor='end' style='font-size: 14.00px; font-weight: bold;fill: #4D4D4D; font-family: "Arial";' textLength='104.26px' lengthAdjust='spacingAndGlyphs'>NZ_CP088205.1</text>
<text transform='translate(278.15,272.36) rotate(-45)' text-anchor='end' style='font-size: 14.00px; font-weight: bold;fill: #4D4D4D; font-family: "Arial";' textLength='104.26px' lengthAdjust='spacingAndGlyphs'>NZ_CP090919.1</text>
<text transform='translate(291.63,272.36) rotate(-45)' text-anchor='end' style='font-size: 14.00px; font-weight: bold;fill: #4D4D4D; font-family: "Arial";' textLength='104.26px' lengthAdjust='spacingAndGlyphs'>NZ_CP090920.1</text>
<text transform='translate(305.11,272.36) rotate(-45)' text-anchor='end' style='font-size: 14.00px; font-weight: bold;fill: #4D4D4D; font-family: "Arial";' textLength='104.26px' lengthAdjust='spacingAndGlyphs'>NZ_CP091000.1</text>
<text transform='translate(318.59,272.36) rotate(-45)' text-anchor='end' style='font-size: 14.00px; font-weight: bold;fill: #4D4D4D; font-family: "Arial";' textLength='104.26px' lengthAdjust='spacingAndGlyphs'>NZ_CP091001.1</text>
<text transform='translate(332.07,272.36) rotate(-45)' text-anchor='end' style='font-size: 14.00px; font-weight: bold;fill: #4D4D4D; font-family: "Arial";' textLength='104.26px' lengthAdjust='spacingAndGlyphs'>NZ_CP091002.1</text>
<text transform='translate(345.55,272.36) rotate(-45)' text-anchor='end' style='font-size: 14.00px; font-weight: bold;fill: #4D4D4D; font-family: "Arial";' textLength='104.26px' lengthAdjust='spacingAndGlyphs'>NZ_CP091003.1</text>
<text transform='translate(359.03,272.36) rotate(-45)' text-anchor='end' style='font-size: 14.00px; font-weight: bold;fill: #4D4D4D; font-family: "Arial";' textLength='104.26px' lengthAdjust='spacingAndGlyphs'>NZ_CP092045.1</text>
<text transform='translate(372.51,272.36) rotate(-45)' text-anchor='end' style='font-size: 14.00px; font-weight: bold;fill: #4D4D4D; font-family: "Arial";' textLength='104.26px' lengthAdjust='spacingAndGlyphs'>NZ_CP092046.1</text>
<text transform='translate(385.99,272.36) rotate(-45)' text-anchor='end' style='font-size: 14.00px; font-weight: bold;fill: #4D4D4D; font-family: "Arial";' textLength='104.26px' lengthAdjust='spacingAndGlyphs'>NZ_CP092424.2</text>
<text transform='translate(399.47,272.36) rotate(-45)' text-anchor='end' style='font-size: 14.00px; font-weight: bold;fill: #4D4D4D; font-family: "Arial";' textLength='104.26px' lengthAdjust='spacingAndGlyphs'>NZ_CP093375.1</text>
<text transform='translate(412.95,272.36) rotate(-45)' text-anchor='end' style='font-size: 14.00px; font-weight: bold;fill: #4D4D4D; font-family: "Arial";' textLength='104.26px' lengthAdjust='spacingAndGlyphs'>NZ_CP094393.1</text>
<text transform='translate(426.43,272.36) rotate(-45)' text-anchor='end' style='font-size: 14.00px; font-weight: bold;fill: #4D4D4D; font-family: "Arial";' textLength='104.26px' lengthAdjust='spacingAndGlyphs'>NZ_CP102510.1</text>
<text transform='translate(439.91,272.36) rotate(-45)' text-anchor='end' style='font-size: 14.00px; font-weight: bold;fill: #4D4D4D; font-family: "Arial";' textLength='104.26px' lengthAdjust='spacingAndGlyphs'>NZ_CP102718.1</text>
<text transform='translate(453.39,272.36) rotate(-45)' text-anchor='end' style='font-size: 14.00px; font-weight: bold;fill: #4D4D4D; font-family: "Arial";' textLength='104.26px' lengthAdjust='spacingAndGlyphs'>NZ_CP103556.1</text>
<text transform='translate(466.87,272.36) rotate(-45)' text-anchor='end' style='font-size: 14.00px; font-weight: bold;fill: #4D4D4D; font-family: "Arial";' textLength='108.91px' lengthAdjust='spacingAndGlyphs'>NZ_OW968432.1</text>
<text transform='translate(480.35,272.36) rotate(-45)' text-anchor='end' style='font-size: 14.00px; font-weight: bold;fill: #4D4D4D; font-family: "Arial";' textLength='108.91px' lengthAdjust='spacingAndGlyphs'>NZ_OW969692.1</text>
<text x='163.66' y='129.15' text-anchor='end' style='font-size: 13.00px;fill: #4D4D4D; font-family: "Arial";' textLength='25.30px' lengthAdjust='spacingAndGlyphs'>0.00</text>
<text x='163.66' y='100.81' text-anchor='end' style='font-size: 13.00px;fill: #4D4D4D; font-family: "Arial";' textLength='25.30px' lengthAdjust='spacingAndGlyphs'>0.25</text>
<text x='163.66' y='72.48' text-anchor='end' style='font-size: 13.00px;fill: #4D4D4D; font-family: "Arial";' textLength='25.30px' lengthAdjust='spacingAndGlyphs'>0.50</text>
<text x='163.66' y='44.14' text-anchor='end' style='font-size: 13.00px;fill: #4D4D4D; font-family: "Arial";' textLength='25.30px' lengthAdjust='spacingAndGlyphs'>0.75</text>
<text x='163.66' y='15.81' text-anchor='end' style='font-size: 13.00px;fill: #4D4D4D; font-family: "Arial";' textLength='25.30px' lengthAdjust='spacingAndGlyphs'>1.00</text>
<polyline points='165.85,124.49 168.59,124.49 ' style='stroke-width: 1.07; stroke: #333333; stroke-linecap: butt;' />
<polyline points='165.85,96.15 168.59,96.15 ' style='stroke-width: 1.07; stroke: #333333; stroke-linecap: butt;' />
<polyline points='165.85,67.82 168.59,67.82 ' style='stroke-width: 1.07; stroke: #333333; stroke-linecap: butt;' />
<polyline points='165.85,39.48 168.59,39.48 ' style='stroke-width: 1.07; stroke: #333333; stroke-linecap: butt;' />
<polyline points='165.85,11.15 168.59,11.15 ' style='stroke-width: 1.07; stroke: #333333; stroke-linecap: butt;' />
<text x='163.66' y='259.31' text-anchor='end' style='font-size: 13.00px;fill: #4D4D4D; font-family: "Arial";' textLength='25.30px' lengthAdjust='spacingAndGlyphs'>0.00</text>
<text x='163.66' y='230.97' text-anchor='end' style='font-size: 13.00px;fill: #4D4D4D; font-family: "Arial";' textLength='25.30px' lengthAdjust='spacingAndGlyphs'>0.25</text>
<text x='163.66' y='202.63' text-anchor='end' style='font-size: 13.00px;fill: #4D4D4D; font-family: "Arial";' textLength='25.30px' lengthAdjust='spacingAndGlyphs'>0.50</text>
<text x='163.66' y='174.30' text-anchor='end' style='font-size: 13.00px;fill: #4D4D4D; font-family: "Arial";' textLength='25.30px' lengthAdjust='spacingAndGlyphs'>0.75</text>
<text x='163.66' y='145.96' text-anchor='end' style='font-size: 13.00px;fill: #4D4D4D; font-family: "Arial";' textLength='25.30px' lengthAdjust='spacingAndGlyphs'>1.00</text>
<polyline points='165.85,254.64 168.59,254.64 ' style='stroke-width: 1.07; stroke: #333333; stroke-linecap: butt;' />
<polyline points='165.85,226.31 168.59,226.31 ' style='stroke-width: 1.07; stroke: #333333; stroke-linecap: butt;' />
<polyline points='165.85,197.97 168.59,197.97 ' style='stroke-width: 1.07; stroke: #333333; stroke-linecap: butt;' />
<polyline points='165.85,169.64 168.59,169.64 ' style='stroke-width: 1.07; stroke: #333333; stroke-linecap: butt;' />
<polyline points='165.85,141.30 168.59,141.30 ' style='stroke-width: 1.07; stroke: #333333; stroke-linecap: butt;' />
<text x='324.95' y='354.52' text-anchor='middle' style='font-size: 0.00px; font-weight: bold; font-family: "Arial";' textLength='4.22px' lengthAdjust='spacingAndGlyphs'>Software</text>
<text transform='translate(131.66,132.90) rotate(-90)' text-anchor='middle' style='font-size: 18.00px; font-weight: bold; font-family: "Arial";' textLength='48.02px' lengthAdjust='spacingAndGlyphs'>Value</text>
<rect x='5.48' y='101.50' width='102.27' height='62.80' style='stroke-width: 1.07; stroke: none; fill: #FFFFFF;' />
<text x='10.96' y='107.34' style='font-size: 0.00px; font-family: "Arial";' textLength='2.72px' lengthAdjust='spacingAndGlyphs'>metric</text>
<rect x='10.96' y='106.98' width='17.28' height='17.28' style='stroke-width: 1.07; stroke: none; fill: #FFFFFF;' />
<circle cx='19.60' cy='115.62' r='3.56' style='stroke-width: 0.71; stroke: #440154; fill: #440154;' />
<rect x='10.96' y='124.26' width='17.28' height='17.28' style='stroke-width: 1.07; stroke: none; fill: #FFFFFF;' />
<circle cx='19.60' cy='132.90' r='3.56' style='stroke-width: 0.71; stroke: #21908C; fill: #21908C;' />
<rect x='10.96' y='141.54' width='17.28' height='17.28' style='stroke-width: 1.07; stroke: none; fill: #FFFFFF;' />
<circle cx='19.60' cy='150.18' r='3.56' style='stroke-width: 0.71; stroke: #FDE725; fill: #FDE725;' />
<text x='28.24' y='119.92' style='font-size: 12.00px; font-family: "Arial";' textLength='48.01px' lengthAdjust='spacingAndGlyphs'>accuracy</text>
<text x='28.24' y='137.20' style='font-size: 12.00px; font-family: "Arial";' textLength='74.03px' lengthAdjust='spacingAndGlyphs'>completeness</text>
<text x='28.24' y='154.48' style='font-size: 12.00px; font-family: "Arial";' textLength='50.02px' lengthAdjust='spacingAndGlyphs'>F1_score</text>
</g>
</svg>
