"software","variable","value","species"
"Centrifuge","recall",0.88,"E. coli"
"RFplasmid","recall",0.77,"E. coli"
"Platon","recall",0.79,"E. coli"
"plasmidEC","recall",0.87,"E. coli"
"Centrifuge","precision",0.84,"E. coli"
"RFplasmid","precision",0.73,"E. coli"
"Platon","precision",0.82,"E. coli"
"plasmidEC","precision",0.82,"E. coli"
"Centrifuge","f1_score",0.86,"E. coli"
"RFplasmid","f1_score",0.75,"E. coli"
"Platon","f1_score",0.8,"E. coli"
"plasmidEC","f1_score",0.84,"E. coli"
