GCF_015241115.1_ASM1524111v1,.,NZ_CP063708.1,2546
GCF_001833255.2_ASM183325v2,.,NZ_CP075129.1,287
GCF_013161805.1_ASM1316180v1,.,NZ_CP053577.1,864
GCF_019670245.1_ASM1967024v1,.,NZ_AP023294.1,715
GCF_015240995.1_ASM1524099v1,.,NZ_CP063705.1,189
GCF_022162985.1_ASM2216298v1,.,NZ_CP091878.1,89
GCF_013415925.1_ASM1341592v1,.,NZ_CP058810.1,142
GCF_016454225.1_ASM1645422v1,.,NZ_CP051353.1,100
GCF_022533545.1_ASM2253354v1,.,NZ_CP092861.1,13
GCF_022533545.1_ASM2253354v1,.,NZ_CP092862.1,1304
GCF_022936425.1_ASM2293642v1,.,NZ_CP092009.1,466
GCF_003067445.2_ASM306744v2,.,NZ_CP077704.1,364
GCF_002266205.2_ASM226620v2,.,NZ_CP075115.1,47
GCF_022936485.1_ASM2293648v1,.,NZ_CP092012.1,358
GCF_016454585.1_ASM1645458v1,.,NZ_CP051402.1,9
GCF_020736305.1_ASM2073630v1,.,NZ_CP085983.1,38
GCF_020736305.1_ASM2073630v1,.,NZ_CP085984.1,13
GCF_020736305.1_ASM2073630v1,.,NZ_CP085985.1,6
GCF_022936365.1_ASM2293636v1,.,NZ_CP091999.1,83
GCF_015240635.1_ASM1524063v1,.,NZ_CP063700.1,2546
GCF_016454725.1_ASM1645472v1,.,NZ_CP051425.1,428
GCF_016454725.1_ASM1645472v1,.,NZ_CP051424.1,27
GCF_002507865.2_ASM250786v2,.,NZ_CP075107.1,1412
GCF_001831985.2_ASM183198v2,.,NZ_CP075135.1,114
GCF_006461325.2_ASM646132v2,.,NZ_CP069166.1,261
GCF_001972545.2_ASM197254v2,.,NZ_CP075118.1,2546
GCF_016454445.1_ASM1645444v1,.,NZ_CP051386.1,1
GCF_015240855.1_ASM1524085v1,.,NZ_CP063702.1,2546
GCF_022226915.1_ASM2222691v1,.,NZ_CP092075.1,209
GCF_002507915.2_ASM250791v2,.,NZ_CP075110.1,2156
GCF_020736325.1_ASM2073632v1,.,NZ_CP085981.1,18
GCF_013348865.1_ASM1334886v1,.,NZ_CP054716.1,2
GCF_001652385.2_ASM165238v2,.,NZ_CP075141.1,773
GCF_001834965.2_ASM183496v2,.,NZ_CP075125.1,78
GCF_016454365.1_ASM1645436v1,.,NZ_CP051380.1,584
GCF_016451985.1_ASM1645198v1,.,NZ_CP051307.1,1
