GCF_014705785.1_ASM1470578v1,GCF_014705785.1_ASM1470578v1_raw_nodes,NZ_CP061517.1,3989594,4009938
GCF_014705785.1_ASM1470578v1,GCF_014705785.1_ASM1470578v1_raw_nodes,NZ_CP061518.1,110573,4009938
GCF_014705845.1_ASM1470584v1,GCF_014705845.1_ASM1470584v1_raw_nodes,NZ_CP061523.1,3931963,3955267
GCF_014705845.1_ASM1470584v1,GCF_014705845.1_ASM1470584v1_raw_nodes,NZ_CP061524.1,110845,3955267
GCF_016919525.1_ASM1691952v2,GCF_016919525.1_ASM1691952v2_raw_nodes,NZ_CP070358.1,3789102,3787866
GCF_016919525.1_ASM1691952v2,GCF_016919525.1_ASM1691952v2_raw_nodes,NZ_CP070361.1,59291,3787866
GCF_016919525.1_ASM1691952v2,GCF_016919525.1_ASM1691952v2_raw_nodes,NZ_CP070360.1,8731,3787866
GCF_016919525.1_ASM1691952v2,GCF_016919525.1_ASM1691952v2_raw_nodes,NZ_CP070359.1,1967,3787866
GCF_019903215.1_ASM1990321v1,GCF_019903215.1_ASM1990321v1_raw_nodes,NZ_CP059548.1,3742055,3697999
GCF_019458485.1_ASM1945848v1,GCF_019458485.1_ASM1945848v1_raw_nodes,NZ_CP080452.1,4008215,3951050
GCF_019458485.1_ASM1945848v1,GCF_019458485.1_ASM1945848v1_raw_nodes,NZ_CP080456.1,8593,3951050
GCF_019458485.1_ASM1945848v1,GCF_019458485.1_ASM1945848v1_raw_nodes,NZ_CP080455.1,6772,3951050
GCF_019458485.1_ASM1945848v1,GCF_019458485.1_ASM1945848v1_raw_nodes,NZ_CP080454.1,2725,3951050
GCF_019458485.1_ASM1945848v1,GCF_019458485.1_ASM1945848v1_raw_nodes,NZ_CP080453.1,2178,3951050
GCF_020985285.1_ASM2098528v1,GCF_020985285.1_ASM2098528v1_raw_nodes,NZ_CP087594.1,3874983,3835631
GCF_020985285.1_ASM2098528v1,GCF_020985285.1_ASM2098528v1_raw_nodes,NZ_CP087595.1,8432,3835631
GCF_020985285.1_ASM2098528v1,GCF_020985285.1_ASM2098528v1_raw_nodes,NZ_CP087596.1,5870,3835631
GCF_014705825.1_ASM1470582v1,GCF_014705825.1_ASM1470582v1_raw_nodes,NZ_CP061525.1,3998114,3954990
GCF_014705825.1_ASM1470582v1,GCF_014705825.1_ASM1470582v1_raw_nodes,NZ_CP061526.1,14639,3954990
GCF_020132105.1_ASM2013210v1,GCF_020132105.1_ASM2013210v1_raw_nodes,NZ_CP082952.1,3931280,3905215
GCF_020132105.1_ASM2013210v1,GCF_020132105.1_ASM2013210v1_raw_nodes,NZ_CP082953.1,9205,3905215
GCF_014705865.1_ASM1470586v1,GCF_014705865.1_ASM1470586v1_raw_nodes,NZ_CP061521.1,3898426,3944403
GCF_014705865.1_ASM1470586v1,GCF_014705865.1_ASM1470586v1_raw_nodes,NZ_CP061522.1,109941,3944403
GCF_015910475.1_ASM1591047v1,GCF_015910475.1_ASM1591047v1_raw_nodes,NZ_CP065432.1,3998101,3939218
GCF_015910475.1_ASM1591047v1,GCF_015910475.1_ASM1591047v1_raw_nodes,NZ_CP065434.1,6208,3939218
GCF_015910475.1_ASM1591047v1,GCF_015910475.1_ASM1591047v1_raw_nodes,NZ_CP065433.1,8936,3939218
GCF_017753625.1_ASM1775362v1,GCF_017753625.1_ASM1775362v1_raw_nodes,NZ_CP072526.1,3741583,3914597
GCF_017753625.1_ASM1775362v1,GCF_017753625.1_ASM1775362v1_raw_nodes,NZ_CP072527.1,112641,3914597
GCF_017753625.1_ASM1775362v1,GCF_017753625.1_ASM1775362v1_raw_nodes,NZ_CP072528.1,93364,3914597
GCF_014169655.1_ASM1416965v1,GCF_014169655.1_ASM1416965v1_raw_nodes,NZ_AP022238.1,3711683,3796666
GCF_014169655.1_ASM1416965v1,GCF_014169655.1_ASM1416965v1_raw_nodes,NZ_AP022239.1,114122,3796666
GCF_014169655.1_ASM1416965v1,GCF_014169655.1_ASM1416965v1_raw_nodes,NZ_AP022240.1,10735,3796666
GCF_018604365.1_ASM1860436v1,GCF_018604365.1_ASM1860436v1_raw_nodes,NZ_CP071763.1,3902350,3820886
GCF_018604365.1_ASM1860436v1,GCF_018604365.1_ASM1860436v1_raw_nodes,NZ_CP071764.1,1932,3820886
GCF_018808925.1_ASM1880892v1,GCF_018808925.1_ASM1880892v1_raw_nodes,NZ_CP048849.1,4106957,4189402
GCF_018808925.1_ASM1880892v1,GCF_018808925.1_ASM1880892v1_raw_nodes,NZ_CP048851.1,127372,4189402
GCF_018808925.1_ASM1880892v1,GCF_018808925.1_ASM1880892v1_raw_nodes,NZ_CP048850.1,2277,4189402
GCF_019703285.1_ASM1970328v1,GCF_019703285.1_ASM1970328v1_raw_nodes,NZ_AP024802.1,3796163,3900796
GCF_019703285.1_ASM1970328v1,GCF_019703285.1_ASM1970328v1_raw_nodes,NZ_AP024803.1,82443,3900796
GCF_019703285.1_ASM1970328v1,GCF_019703285.1_ASM1970328v1_raw_nodes,NZ_AP024804.1,12817,3900796
GCF_019703285.1_ASM1970328v1,GCF_019703285.1_ASM1970328v1_raw_nodes,NZ_AP024806.1,8091,3900796
GCF_019703285.1_ASM1970328v1,GCF_019703285.1_ASM1970328v1_raw_nodes,NZ_AP024805.1,10771,3900796
GCF_019703285.1_ASM1970328v1,GCF_019703285.1_ASM1970328v1_raw_nodes,NZ_AP024807.1,7104,3900796
GCF_019703285.1_ASM1970328v1,GCF_019703285.1_ASM1970328v1_raw_nodes,NZ_AP024808.1,5049,3900796
GCF_019703285.1_ASM1970328v1,GCF_019703285.1_ASM1970328v1_raw_nodes,NZ_AP024811.1,3496,3900796
GCF_019703285.1_ASM1970328v1,GCF_019703285.1_ASM1970328v1_raw_nodes,NZ_AP024809.1,3178,3900796
GCF_019703285.1_ASM1970328v1,GCF_019703285.1_ASM1970328v1_raw_nodes,NZ_AP024810.1,2833,3900796
GCF_019703285.1_ASM1970328v1,GCF_019703285.1_ASM1970328v1_raw_nodes,NZ_AP024812.1,2425,3900796
GCF_019703285.1_ASM1970328v1,GCF_019703285.1_ASM1970328v1_raw_nodes,NZ_AP024813.1,2278,3900796
GCF_018135585.1_ASM1813558v1,GCF_018135585.1_ASM1813558v1_raw_nodes,NZ_CP073060.1,3863533,3921695
GCF_018135585.1_ASM1813558v1,GCF_018135585.1_ASM1813558v1_raw_nodes,NZ_CP073061.1,90019,3921695
GCF_015732435.1_ASM1573243v1,GCF_015732435.1_ASM1573243v1_raw_nodes,NZ_CP060732.1,4076694,3990435
GCF_014159355.1_ASM1415935v1,GCF_014159355.1_ASM1415935v1_raw_nodes,NZ_AP022077.1,3858846,3823374
GCF_021484905.1_ASM2148490v1,GCF_021484905.1_ASM2148490v1_raw_nodes,NZ_CP090607.1,4075795,3949623
GCF_018831465.1_ASM1883146v1,GCF_018831465.1_ASM1883146v1_raw_nodes,NZ_CP049240.1,3749617,3720659
GCF_019903155.1_ASM1990315v1,GCF_019903155.1_ASM1990315v1_raw_nodes,NZ_CP059542.1,3947617,4020247
GCF_019903155.1_ASM1990315v1,GCF_019903155.1_ASM1990315v1_raw_nodes,NZ_CP059543.1,117806,4020247
GCF_019903155.1_ASM1990315v1,GCF_019903155.1_ASM1990315v1_raw_nodes,NZ_CP059544.1,11020,4020247
GCF_019903155.1_ASM1990315v1,GCF_019903155.1_ASM1990315v1_raw_nodes,NZ_CP059545.1,7369,4020247
GCF_016919505.2_ASM1691950v2,GCF_016919505.2_ASM1691950v2_raw_nodes,NZ_CP070362.2,3822584,3831185
GCF_016919505.2_ASM1691950v2,GCF_016919505.2_ASM1691950v2_raw_nodes,NZ_CP070365.1,51126,3831185
GCF_016919505.2_ASM1691950v2,GCF_016919505.2_ASM1691950v2_raw_nodes,NZ_CP070364.1,8731,3831185
GCF_016919505.2_ASM1691950v2,GCF_016919505.2_ASM1691950v2_raw_nodes,NZ_CP070363.1,1967,3831185
GCF_016127515.1_ASM1612751v1,GCF_016127515.1_ASM1612751v1_raw_nodes,NZ_CP066016.1,4002373,3954608
GCF_016127515.1_ASM1612751v1,GCF_016127515.1_ASM1612751v1_raw_nodes,NZ_CP066017.1,8731,3954608
GCF_019903235.1_ASM1990323v1,GCF_019903235.1_ASM1990323v1_raw_nodes,NZ_CP061705.1,3165503,3266579
GCF_019903235.1_ASM1990323v1,GCF_019903235.1_ASM1990323v1_raw_nodes,NZ_CP061706.1,101853,3266579
GCF_019903235.1_ASM1990323v1,GCF_019903235.1_ASM1990323v1_raw_nodes,NZ_CP061707.1,19024,3266579
GCF_019903235.1_ASM1990323v1,GCF_019903235.1_ASM1990323v1_raw_nodes,NZ_CP061708.1,18169,3266579
GCF_019903235.1_ASM1990323v1,GCF_019903235.1_ASM1990323v1_raw_nodes,NZ_CP061710.1,7696,3266579
GCF_019903235.1_ASM1990323v1,GCF_019903235.1_ASM1990323v1_raw_nodes,NZ_CP061709.1,9499,3266579
GCF_019903235.1_ASM1990323v1,GCF_019903235.1_ASM1990323v1_raw_nodes,NZ_CP061711.1,6763,3266579
GCF_019903235.1_ASM1990323v1,GCF_019903235.1_ASM1990323v1_raw_nodes,NZ_CP061712.1,5922,3266579
GCF_019903235.1_ASM1990323v1,GCF_019903235.1_ASM1990323v1_raw_nodes,NZ_CP061713.1,4261,3266579
GCF_005519135.2_ASM551913v2,GCF_005519135.2_ASM551913v2_raw_nodes,NZ_CP031380.1,3893664,3938640
GCF_005519135.2_ASM551913v2,GCF_005519135.2_ASM551913v2_raw_nodes,NZ_CP031382.1,64451,3938640
GCF_005519135.2_ASM551913v2,GCF_005519135.2_ASM551913v2_raw_nodes,NZ_CP031381.2,17616,3938640
GCF_014322245.1_ASM1432224v1,GCF_014322245.1_ASM1432224v1_raw_nodes,NZ_CP047973.1,3869648,4004574
GCF_014322245.1_ASM1432224v1,GCF_014322245.1_ASM1432224v1_raw_nodes,NZ_CP047974.1,92069,4004574
GCF_014322245.1_ASM1432224v1,GCF_014322245.1_ASM1432224v1_raw_nodes,NZ_CP047975.1,93368,4004574
GCF_014322245.1_ASM1432224v1,GCF_014322245.1_ASM1432224v1_raw_nodes,NZ_CP047976.1,9132,4004574
GCF_019903175.1_ASM1990317v1,GCF_019903175.1_ASM1990317v1_raw_nodes,NZ_CP059546.1,3789825,3749712
GCF_014705805.1_ASM1470580v1,GCF_014705805.1_ASM1470580v1_raw_nodes,NZ_CP061514.1,3936178,4025219
GCF_014705805.1_ASM1470580v1,GCF_014705805.1_ASM1470580v1_raw_nodes,NZ_CP061515.1,110836,4025219
GCF_014705805.1_ASM1470580v1,GCF_014705805.1_ASM1470580v1_raw_nodes,NZ_CP061516.1,67023,4025219
GCF_019903195.1_ASM1990319v1,GCF_019903195.1_ASM1990319v1_raw_nodes,NZ_CP059547.1,3789508,3755296
GCF_013787185.1_ASM1378718v1,GCF_013787185.1_ASM1378718v1_raw_nodes,NZ_CP059386.1,3635069,3716382
GCF_013787185.1_ASM1378718v1,GCF_013787185.1_ASM1378718v1_raw_nodes,NZ_CP059387.1,109809,3716382
GCF_013787185.1_ASM1378718v1,GCF_013787185.1_ASM1378718v1_raw_nodes,NZ_CP059388.1,9458,3716382
GCF_013787185.1_ASM1378718v1,GCF_013787185.1_ASM1378718v1_raw_nodes,NZ_CP059389.1,5688,3716382
GCF_013787185.1_ASM1378718v1,GCF_013787185.1_ASM1378718v1_raw_nodes,NZ_CP059390.1,4721,3716382
GCF_020810655.1_ASM2081065v1,GCF_020810655.1_ASM2081065v1_raw_nodes,NZ_CP085788.1,3993750,3970746
GCF_020810655.1_ASM2081065v1,GCF_020810655.1_ASM2081065v1_raw_nodes,NZ_CP085789.1,10984,3970746
GCF_020810655.1_ASM2081065v1,GCF_020810655.1_ASM2081065v1_raw_nodes,NZ_CP085790.1,5797,3970746
GCF_016903215.1_ASM1690321v1,GCF_016903215.1_ASM1690321v1_raw_nodes,NZ_CP069851.1,3866242,3830047
GCF_016903215.1_ASM1690321v1,GCF_016903215.1_ASM1690321v1_raw_nodes,NZ_CP069852.1,8731,3830047
GCF_018831485.1_ASM1883148v1,GCF_018831485.1_ASM1883148v1_raw_nodes,NZ_CP049314.1,3884607,3861954
GCF_018831485.1_ASM1883148v1,GCF_018831485.1_ASM1883148v1_raw_nodes,NZ_CP049315.1,11844,3861954
GCF_021609965.1_ASM2160996v1,GCF_021609965.1_ASM2160996v1_raw_nodes,NZ_CP091172.1,4083413,3946021
GCF_018831125.1_ASM1883112v1,GCF_018831125.1_ASM1883112v1_raw_nodes,NZ_CP048131.1,3987465,4198762
GCF_018831125.1_ASM1883112v1,GCF_018831125.1_ASM1883112v1_raw_nodes,NZ_CP048135.1,168560,4198762
GCF_018831125.1_ASM1883112v1,GCF_018831125.1_ASM1883112v1_raw_nodes,NZ_CP048134.1,69764,4198762
GCF_018831125.1_ASM1883112v1,GCF_018831125.1_ASM1883112v1_raw_nodes,NZ_CP048133.1,8730,4198762
GCF_018831125.1_ASM1883112v1,GCF_018831125.1_ASM1883112v1_raw_nodes,NZ_CP048132.1,6078,4198762
GCF_014705885.1_ASM1470588v1,GCF_014705885.1_ASM1470588v1_raw_nodes,NZ_CP061519.1,3982469,4003850
GCF_014705885.1_ASM1470588v1,GCF_014705885.1_ASM1470588v1_raw_nodes,NZ_CP061520.1,110155,4003850
GCF_013372085.1_ASM1337208v1,GCF_013372085.1_ASM1337208v1_raw_nodes,NZ_CP053098.1,3993079,3975906
GCF_013372085.1_ASM1337208v1,GCF_013372085.1_ASM1337208v1_raw_nodes,NZ_CP053099.1,13409,3975906
GCF_013372085.1_ASM1337208v1,GCF_013372085.1_ASM1337208v1_raw_nodes,NZ_CP053100.1,11302,3975906
GCF_016903135.1_ASM1690313v1,GCF_016903135.1_ASM1690313v1_raw_nodes,NZ_CP069840.1,3938038,3979382
GCF_016903135.1_ASM1690313v1,GCF_016903135.1_ASM1690313v1_raw_nodes,NZ_CP069841.1,73709,3979382
GCF_016903135.1_ASM1690313v1,GCF_016903135.1_ASM1690313v1_raw_nodes,NZ_CP069842.1,14879,3979382
