GCF_022405275.1_ASM2240527v1,bin_component_1,0
GCF_022405275.1_ASM2240527v1,bin_component_0,0
GCF_019653615.1_ASM1965361v1,bin_component_1,0
GCF_019653615.1_ASM1965361v1,bin_component_0,1
GCF_019653615.1_ASM1965361v1,bin_component_2,0
GCF_022404695.1_ASM2240469v1,bin_component_1,0
GCF_022404695.1_ASM2240469v1,bin_component_0,0
GCF_013008375.1_ASM1300837v1,bin_component_1,2
GCF_013008375.1_ASM1300837v1,bin_component_0,2
GCF_016727585.1_ASM1672758v1,bin_component_7,0
GCF_016727585.1_ASM1672758v1,bin_component_1,0
GCF_016727585.1_ASM1672758v1,bin_component_3,1
GCF_016727585.1_ASM1672758v1,bin_component_4,0
GCF_016727585.1_ASM1672758v1,bin_component_0,3
GCF_016727585.1_ASM1672758v1,bin_component_2,0
GCF_016727585.1_ASM1672758v1,bin_component_6,0
GCF_016727585.1_ASM1672758v1,bin_component_5,0
GCF_013836745.1_ASM1383674v1,bin_component_1,0
GCF_013836745.1_ASM1383674v1,bin_component_0,3
GCF_022405185.1_ASM2240518v1,bin_component_0,0
GCF_022405075.1_ASM2240507v1,bin_component_1,0
GCF_022405075.1_ASM2240507v1,bin_component_0,0
GCF_013836525.1_ASM1383652v1,bin_component_0,4
GCF_022404635.1_ASM2240463v1,bin_component_1,0
GCF_022404635.1_ASM2240463v1,bin_component_0,0
GCF_022405415.1_ASM2240541v1,bin_component_1,0
GCF_022405415.1_ASM2240541v1,bin_component_0,0
GCF_022405415.1_ASM2240541v1,bin_component_2,0
GCF_022405615.1_ASM2240561v1,bin_component_1,0
GCF_022405615.1_ASM2240561v1,bin_component_0,0
GCF_022406035.1_ASM2240603v1,bin_component_0,0
GCF_022369535.1_ASM2236953v1,bin_component_1,0
GCF_022369535.1_ASM2236953v1,bin_component_0,0
GCF_022405915.1_ASM2240591v1,bin_component_0,0
GCF_022404735.1_ASM2240473v1,bin_component_1,0
GCF_022404735.1_ASM2240473v1,bin_component_0,0
GCF_022405555.1_ASM2240555v1,bin_component_0,0
GCF_022369695.1_ASM2236969v1,bin_component_1,0
GCF_022369695.1_ASM2236969v1,bin_component_0,0
GCF_017088385.1_ASM1708838v1,bin_component_1,2
GCF_017088385.1_ASM1708838v1,bin_component_3,0
GCF_017088385.1_ASM1708838v1,bin_component_4,0
GCF_017088385.1_ASM1708838v1,bin_component_0,0
GCF_017088385.1_ASM1708838v1,bin_component_2,0
GCF_017088385.1_ASM1708838v1,bin_component_6,0
GCF_017088385.1_ASM1708838v1,bin_component_5,0
GCF_022405205.1_ASM2240520v1,bin_component_0,0
GCF_016889145.1_ASM1688914v1,bin_component_1,2
GCF_016889145.1_ASM1688914v1,bin_component_0,0
GCF_022405835.1_ASM2240583v1,bin_component_0,0
GCF_022405755.1_ASM2240575v1,bin_component_0,0
GCF_022404595.1_ASM2240459v1,bin_component_1,0
GCF_022404595.1_ASM2240459v1,bin_component_0,0
GCF_022405435.1_ASM2240543v1,bin_component_1,0
GCF_022405435.1_ASM2240543v1,bin_component_0,0
GCF_022405935.1_ASM2240593v1,bin_component_0,0
GCF_022405855.1_ASM2240585v1,bin_component_0,0
GCF_022226995.1_ASM2222699v1,bin_component_1,1
GCF_022226995.1_ASM2222699v1,bin_component_0,0
GCF_022226995.1_ASM2222699v1,bin_component_2,2
GCF_022404655.1_ASM2240465v1,bin_component_0,0
GCF_018093225.1_ASM1809322v1,bin_component_1,0
GCF_018093225.1_ASM1809322v1,bin_component_3,0
GCF_018093225.1_ASM1809322v1,bin_component_4,0
GCF_018093225.1_ASM1809322v1,bin_component_0,2
GCF_018093225.1_ASM1809322v1,bin_component_2,0
GCF_018093225.1_ASM1809322v1,bin_component_5,0
GCF_022405315.1_ASM2240531v1,bin_component_0,0
GCF_022405375.1_ASM2240537v1,bin_component_0,0
GCF_022405595.1_ASM2240559v1,bin_component_0,0
GCF_015732455.1_ASM1573245v1,bin_component_0,0
GCF_022405145.1_ASM2240514v1,bin_component_1,0
GCF_022405145.1_ASM2240514v1,bin_component_0,1
GCF_022405815.1_ASM2240581v1,bin_component_0,0
GCF_022405995.1_ASM2240599v1,bin_component_0,0
GCF_022493095.1_ASM2249309v1,bin_component_0,0
GCF_022226975.1_ASM2222697v1,bin_component_1,2
GCF_022226975.1_ASM2222697v1,bin_component_0,0
GCF_015475575.1_ASM1547557v1,bin_component_1,0
GCF_015475575.1_ASM1547557v1,bin_component_0,1
GCF_022405355.1_ASM2240535v1,bin_component_1,0
GCF_022405355.1_ASM2240535v1,bin_component_0,0
GCF_022405355.1_ASM2240535v1,bin_component_2,0
GCF_903932595.1_P3.1,bin_component_1,2
GCF_903932595.1_P3.1,bin_component_0,0
GCF_022405975.1_ASM2240597v1,bin_component_0,0
GCF_016591995.1_ASM1659199v1,bin_component_9,0
GCF_016591995.1_ASM1659199v1,bin_component_7,0
GCF_016591995.1_ASM1659199v1,bin_component_1,0
GCF_016591995.1_ASM1659199v1,bin_component_3,2
GCF_016591995.1_ASM1659199v1,bin_component_4,0
GCF_016591995.1_ASM1659199v1,bin_component_0,2
GCF_016591995.1_ASM1659199v1,bin_component_2,0
GCF_016591995.1_ASM1659199v1,bin_component_6,0
GCF_016591995.1_ASM1659199v1,bin_component_5,0
GCF_016591995.1_ASM1659199v1,bin_component_8,0
GCF_022405655.1_ASM2240565v1,bin_component_0,0
GCF_022405395.1_ASM2240539v1,bin_component_0,0
GCF_018093105.1_ASM1809310v1,bin_component_1,0
GCF_018093105.1_ASM1809310v1,bin_component_0,2
GCF_022404775.1_ASM2240477v1,bin_component_1,0
GCF_022404775.1_ASM2240477v1,bin_component_0,1
GCF_022405895.1_ASM2240589v1,bin_component_0,0
GCF_022404615.1_ASM2240461v1,bin_component_0,0
GCF_022405455.1_ASM2240545v1,bin_component_1,0
GCF_022405455.1_ASM2240545v1,bin_component_0,0
GCF_022405475.1_ASM2240547v1,bin_component_1,0
GCF_022405475.1_ASM2240547v1,bin_component_0,0
GCF_018093205.1_ASM1809320v1,bin_component_9,0
GCF_018093205.1_ASM1809320v1,bin_component_7,0
GCF_018093205.1_ASM1809320v1,bin_component_1,3
GCF_018093205.1_ASM1809320v1,bin_component_3,0
GCF_018093205.1_ASM1809320v1,bin_component_4,0
GCF_018093205.1_ASM1809320v1,bin_component_0,0
GCF_018093205.1_ASM1809320v1,bin_component_2,0
GCF_018093205.1_ASM1809320v1,bin_component_6,0
GCF_018093205.1_ASM1809320v1,bin_component_5,0
GCF_018093205.1_ASM1809320v1,bin_component_8,0
GCF_022404675.1_ASM2240467v1,bin_component_1,0
GCF_022404675.1_ASM2240467v1,bin_component_0,0
GCF_022404675.1_ASM2240467v1,bin_component_2,0
GCF_022404715.1_ASM2240471v1,bin_component_1,0
GCF_022404715.1_ASM2240471v1,bin_component_0,0
GCF_022405235.1_ASM2240523v1,bin_component_1,0
GCF_022405235.1_ASM2240523v1,bin_component_0,0
GCF_016889945.1_ASM1688994v1,bin_component_1,2
GCF_016889945.1_ASM1688994v1,bin_component_0,0
GCF_022405535.1_ASM2240553v1,bin_component_1,0
GCF_022405535.1_ASM2240553v1,bin_component_0,0
GCF_022405255.1_ASM2240525v1,bin_component_0,0
GCF_022405575.1_ASM2240557v1,bin_component_1,0
GCF_022405575.1_ASM2240557v1,bin_component_0,0
GCF_022369595.1_ASM2236959v1,bin_component_1,0
GCF_022369595.1_ASM2236959v1,bin_component_0,0
GCF_016894285.1_ASM1689428v1,bin_component_1,0
GCF_016894285.1_ASM1689428v1,bin_component_0,3
GCF_016894285.1_ASM1689428v1,bin_component_2,0
GCF_022405675.1_ASM2240567v1,bin_component_1,0
GCF_022405675.1_ASM2240567v1,bin_component_0,0
GCF_022404755.1_ASM2240475v1,bin_component_1,0
GCF_022404755.1_ASM2240475v1,bin_component_0,0
GCF_022405335.1_ASM2240533v1,bin_component_1,1
GCF_022405335.1_ASM2240533v1,bin_component_0,0
GCF_021869805.1_ASM2186980v1,bin_component_0,2
GCF_022405515.1_ASM2240551v1,bin_component_0,0
GCF_018135565.1_ASM1813556v1,bin_component_1,0
GCF_018135565.1_ASM1813556v1,bin_component_3,1
GCF_018135565.1_ASM1813556v1,bin_component_4,0
GCF_018135565.1_ASM1813556v1,bin_component_0,0
GCF_018135565.1_ASM1813556v1,bin_component_2,0
GCF_018409145.1_ASM1840914v1,bin_component_1,0
GCF_018409145.1_ASM1840914v1,bin_component_0,2
GCF_017088305.1_ASM1708830v1,bin_component_1,0
GCF_017088305.1_ASM1708830v1,bin_component_3,3
GCF_017088305.1_ASM1708830v1,bin_component_4,0
GCF_017088305.1_ASM1708830v1,bin_component_0,0
GCF_017088305.1_ASM1708830v1,bin_component_2,0
GCF_022405875.1_ASM2240587v1,bin_component_0,0
GCF_017161095.1_ASM1716109v1,bin_component_1,2
GCF_017161095.1_ASM1716109v1,bin_component_0,0
GCF_022405055.1_ASM2240505v1,bin_component_1,0
GCF_022405055.1_ASM2240505v1,bin_component_0,0
GCF_903932605.1_HU-14,bin_component_1,2
GCF_903932605.1_HU-14,bin_component_0,0
GCF_022404575.1_ASM2240457v1,bin_component_1,0
GCF_022404575.1_ASM2240457v1,bin_component_0,0
GCF_022405295.1_ASM2240529v1,bin_component_0,0
GCF_018093065.1_ASM1809306v1,bin_component_7,0
GCF_018093065.1_ASM1809306v1,bin_component_1,0
GCF_018093065.1_ASM1809306v1,bin_component_3,0
GCF_018093065.1_ASM1809306v1,bin_component_4,0
GCF_018093065.1_ASM1809306v1,bin_component_0,0
GCF_018093065.1_ASM1809306v1,bin_component_2,0
GCF_018093065.1_ASM1809306v1,bin_component_6,0
GCF_018093065.1_ASM1809306v1,bin_component_5,0
GCF_018093065.1_ASM1809306v1,bin_component_8,0
GCF_022405495.1_ASM2240549v1,bin_component_1,3
GCF_022405495.1_ASM2240549v1,bin_component_0,0
GCF_022405495.1_ASM2240549v1,bin_component_2,1
GCF_022406075.1_ASM2240607v1,bin_component_0,0
