"isolate"	"contig_number"	"true_chromosome_occurences"	"true_plasmidome_occurences"	"true_classification"	"species"	"chromosome"	"plasmid"	"repeat_category_predicted"	"metric_classification"	"contig_length"	"log_contig_length"	"nr_chromosome_matches"	"nr_plasmid_matches"	"nr_unclassified"	"total_matches"	"chromsome_fraction"	"plasmid_fraction"	"final_classification"
"GCF_001713515.2_ASM171351v2"	"25"	0	2	"repeat plasmid"	"S. enterica"	NA	NA	"Not identified"	"FN"	1783	3.25115134317535	0	30	0	30	0	1	"plasmid"
"GCF_001713515.2_ASM171351v2"	"27"	2	0	"repeat chromosome"	"S. enterica"	NA	NA	"Not identified"	"FN"	1261	3.10071508657308	130	0	0	130	1	0	"chromosome"
"GCF_001973785.2_ASM197378v2"	"26"	0	2	"repeat plasmid"	"S. enterica"	NA	NA	"Not identified"	"FN"	1783	3.25115134317535	0	12	0	12	0	1	"plasmid"
"GCF_002507865.2_ASM250786v2"	"40"	2	0	"repeat chromosome"	"S. enterica"	NA	NA	"Not identified"	"FN"	1143	3.05804623039528	5	0	0	5	1	0	"chromosome"
"GCF_006461325.2_ASM646132v2"	"56"	2	0	"repeat chromosome"	"S. enterica"	NA	NA	"Not identified"	"FN"	1128	3.05230909964732	2	0	0	2	1	0	"chromosome"
"GCF_006461325.2_ASM646132v2"	"60"	2	0	"repeat chromosome"	"S. enterica"	NA	NA	"Not identified"	"FN"	1041	3.01745072951054	1	0	0	1	1	0	"chromosome"
"GCF_013348865.1_ASM1334886v1"	"78"	0	2	"repeat plasmid"	"S. enterica"	NA	NA	"Not identified"	"FN"	2407	3.38147609027503	1	0	0	1	1	0	"chromosome"
"GCF_013348865.1_ASM1334886v1"	"93"	2	0	"repeat chromosome"	"S. enterica"	NA	NA	"Not identified"	"FN"	1034	3.01452053875792	1	0	0	1	1	0	"chromosome"
"GCF_014334175.1_ASM1433417v1"	"31"	2	0	"repeat chromosome"	"S. enterica"	NA	NA	"Not identified"	"FN"	4488	3.6520528482481	1	0	0	1	1	0	"chromosome"
"GCF_014858545.1_ASM1485854v1"	"33"	0	2	"repeat plasmid"	"S. enterica"	NA	NA	"Not identified"	"FN"	1630	3.21218760440396	4	51	0	55	0.07	0.93	"plasmid"
"GCF_014858565.1_ASM1485856v1"	"36"	0	2	"repeat plasmid"	"S. enterica"	NA	NA	"Not identified"	"FN"	1630	3.21218760440396	4	51	0	55	0.07	0.93	"plasmid"
"GCF_016454225.1_ASM1645422v1"	"24"	2	0	"repeat chromosome"	"S. enterica"	NA	NA	"Not identified"	"FN"	18579	4.26902233472923	1	0	0	1	1	0	"chromosome"
"GCF_016454265.1_ASM1645426v1"	"25"	2	0	"repeat chromosome"	"S. enterica"	NA	NA	"Not identified"	"FN"	31277	4.49522509010622	14	0	0	14	1	0	"chromosome"
"GCF_016454265.1_ASM1645426v1"	"34"	2	0	"repeat chromosome"	"S. enterica"	NA	NA	"Not identified"	"FN"	4664	3.66875854175096	28	0	0	28	1	0	"chromosome"
"GCF_016454425.1_ASM1645442v1"	"32"	0	2	"repeat plasmid"	"S. enterica"	NA	NA	"Not identified"	"FN"	6136	3.78788535094092	0	1	0	1	0	1	"plasmid"
"GCF_016454425.1_ASM1645442v1"	"48"	0	2	"repeat plasmid"	"S. enterica"	NA	NA	"Not identified"	"FN"	1968	3.29402509409532	0	0	1	1	0.5	0.5	"unclassified"
"GCF_016454645.1_ASM1645464v1"	"35"	0	2	"repeat plasmid"	"S. enterica"	NA	NA	"Not identified"	"FN"	4784	3.67979117098035	25	40	0	65	0.38	0.62	"unclassified"
"GCF_016454645.1_ASM1645464v1"	"37"	0	2	"repeat plasmid"	"S. enterica"	NA	NA	"Not identified"	"FN"	4099	3.6126779183165	0	9	0	9	0	1	"plasmid"
"GCF_016952595.1_ASM1695259v1"	"40"	0	2	"repeat plasmid"	"S. enterica"	NA	NA	"Not identified"	"FN"	1740	3.2405492482826	0	74	0	74	0	1	"plasmid"
"GCF_018340585.1_ASM1834058v1"	"25"	2	0	"repeat chromosome"	"S. enterica"	NA	NA	"Not identified"	"FN"	1268	3.10311925354571	3	0	0	3	1	0	"chromosome"
"GCF_021397625.1_ASM2139762v1"	"31"	0	2	"repeat plasmid"	"S. enterica"	NA	NA	"Not identified"	"FN"	4597	3.66247450375031	0	1	0	1	0	1	"plasmid"
"GCF_021397625.1_ASM2139762v1"	"34"	0	2	"repeat plasmid"	"S. enterica"	NA	NA	"Not identified"	"FN"	3755	3.57460994134019	6	9	0	15	0.4	0.6	"unclassified"
"GCF_021397625.1_ASM2139762v1"	"45"	0	2	"repeat plasmid"	"S. enterica"	NA	NA	"Not identified"	"FN"	1630	3.21218760440396	4	51	0	55	0.07	0.93	"plasmid"
"GCF_021397645.1_ASM2139764v1"	"37"	0	2	"repeat plasmid"	"S. enterica"	NA	NA	"Not identified"	"FN"	3755	3.57460994134019	6	9	0	15	0.4	0.6	"unclassified"
"GCF_021397645.1_ASM2139764v1"	"48"	0	2	"repeat plasmid"	"S. enterica"	NA	NA	"Not identified"	"FN"	1630	3.21218760440396	4	51	0	55	0.07	0.93	"plasmid"
"GCF_021397675.1_ASM2139767v1"	"32"	0	2	"repeat plasmid"	"S. enterica"	NA	NA	"Not identified"	"FN"	3793	3.57898284270279	5	7	0	12	0.42	0.58	"unclassified"
"GCF_021397675.1_ASM2139767v1"	"43"	0	2	"repeat plasmid"	"S. enterica"	NA	NA	"Not identified"	"FN"	1629	3.21192108430851	4	51	0	55	0.07	0.93	"plasmid"
"GCF_001713515.2_ASM171351v2"	"20"	2	0	"repeat chromosome"	"S. enterica"	1	0	"repeat chromosome"	"TN"	6023	3.77981286317058	3	0	0	3	1	0	"chromosome"
"GCF_001713515.2_ASM171351v2"	"22"	7	0	"repeat chromosome"	"S. enterica"	1	0	"repeat chromosome"	"TN"	2291	3.3600250891894	111	0	0	111	1	0	"chromosome"
"GCF_001713515.2_ASM171351v2"	"23"	1	0	"chromosome"	"S. enterica"	0	1	"repeat plasmid"	"FP"	1893	3.2771506139638	3	0	0	3	1	0	"chromosome"
"GCF_001713515.2_ASM171351v2"	"26"	6	0	"repeat chromosome"	"S. enterica"	1	0	"repeat chromosome"	"TN"	1659	3.21984638602436	119	0	0	119	1	0	"chromosome"
"GCF_001831985.2_ASM183198v2"	"10"	1	0	"chromosome"	"S. enterica"	1	0	"repeat chromosome"	"TN"	191182	5.28144700055166	1	0	0	1	1	0	"chromosome"
"GCF_001831985.2_ASM183198v2"	"11"	1	0	"chromosome"	"S. enterica"	1	0	"repeat chromosome"	"TN"	185231	5.26771367134317	1	0	0	1	1	0	"chromosome"
"GCF_001831985.2_ASM183198v2"	"13"	1	0	"chromosome"	"S. enterica"	1	0	"repeat chromosome"	"TN"	104114	5.01750913214202	1	0	0	1	1	0	"chromosome"
"GCF_001831985.2_ASM183198v2"	"24"	1	0	"chromosome"	"S. enterica"	1	0	"repeat chromosome"	"TN"	33335	4.52290045946158	1	0	0	1	1	0	"chromosome"
"GCF_001831985.2_ASM183198v2"	"33"	2	0	"repeat chromosome"	"S. enterica"	1	0	"repeat chromosome"	"TN"	4746	3.67632773388132	1	0	0	1	1	0	"chromosome"
"GCF_001831985.2_ASM183198v2"	"35"	7	0	"repeat chromosome"	"S. enterica"	1	0	"repeat chromosome"	"TN"	3052	3.48458452928284	1	0	0	1	1	0	"chromosome"
"GCF_001831985.2_ASM183198v2"	"36"	2	0	"repeat chromosome"	"S. enterica"	1	0	"repeat chromosome"	"TN"	2766	3.44185217577329	1	0	0	1	1	0	"chromosome"
"GCF_001831985.2_ASM183198v2"	"38"	2	0	"repeat chromosome"	"S. enterica"	1	0	"repeat chromosome"	"TN"	2144	3.33122478102073	1	0	0	1	1	0	"chromosome"
"GCF_001831985.2_ASM183198v2"	"42"	2	0	"repeat chromosome"	"S. enterica"	1	0	"repeat chromosome"	"TN"	1771	3.24821856119007	1	0	0	1	1	0	"chromosome"
"GCF_001831985.2_ASM183198v2"	"43"	1	0	"chromosome"	"S. enterica"	1	0	"repeat chromosome"	"TN"	1723	3.23628527744803	1	0	0	1	1	0	"chromosome"
"GCF_001831985.2_ASM183198v2"	"44"	7	0	"repeat chromosome"	"S. enterica"	1	0	"repeat chromosome"	"TN"	1623	3.21031851982623	21	0	0	21	1	0	"chromosome"
"GCF_001831985.2_ASM183198v2"	"48"	1	0	"chromosome"	"S. enterica"	1	0	"repeat chromosome"	"TN"	1467	3.16643011384328	1	0	0	1	1	0	"chromosome"
"GCF_001831985.2_ASM183198v2"	"49"	2	0	"repeat chromosome"	"S. enterica"	1	0	"repeat chromosome"	"TN"	1413	3.15014216184856	1	0	0	1	1	0	"chromosome"
"GCF_001831985.2_ASM183198v2"	"50"	4	0	"repeat chromosome"	"S. enterica"	1	0	"repeat chromosome"	"TN"	1312	3.11793383503964	4	0	0	4	1	0	"chromosome"
"GCF_001831985.2_ASM183198v2"	"51"	1	0	"chromosome"	"S. enterica"	1	0	"repeat chromosome"	"TN"	1306	3.11594317693906	1	0	0	1	1	0	"chromosome"
"GCF_001831985.2_ASM183198v2"	"52"	2	0	"repeat chromosome"	"S. enterica"	1	0	"repeat chromosome"	"TN"	1283	3.10822665637493	1	0	0	1	1	0	"chromosome"
"GCF_001831985.2_ASM183198v2"	"59"	2	0	"repeat chromosome"	"S. enterica"	1	0	"repeat chromosome"	"TN"	1019	3.00817418400643	44	0	0	44	1	0	"chromosome"
"GCF_001833255.2_ASM183325v2"	"20"	1	0	"chromosome"	"S. enterica"	1	0	"repeat chromosome"	"TN"	46139	4.66406817754554	1	0	0	1	1	0	"chromosome"
"GCF_001833255.2_ASM183325v2"	"24"	1	0	"chromosome"	"S. enterica"	1	0	"repeat chromosome"	"TN"	33248	4.52176552587708	2	0	0	2	1	0	"chromosome"
"GCF_001833255.2_ASM183325v2"	"33"	2	0	"repeat chromosome"	"S. enterica"	1	0	"repeat chromosome"	"TN"	10732	4.0306806639999	1	0	0	1	1	0	"chromosome"
"GCF_001833255.2_ASM183325v2"	"36"	2	0	"repeat chromosome"	"S. enterica"	1	0	"repeat chromosome"	"TN"	4746	3.67632773388132	1	0	0	1	1	0	"chromosome"
"GCF_001833255.2_ASM183325v2"	"37"	2	0	"repeat chromosome"	"S. enterica"	1	0	"repeat chromosome"	"TN"	4465	3.64982146322457	1	0	0	1	1	0	"chromosome"
"GCF_001833255.2_ASM183325v2"	"41"	2	0	"repeat chromosome"	"S. enterica"	1	0	"repeat chromosome"	"TN"	2528	3.40277706961035	1	0	0	1	1	0	"chromosome"
"GCF_001833255.2_ASM183325v2"	"45"	2	0	"repeat chromosome"	"S. enterica"	1	0	"repeat chromosome"	"TN"	1982	3.29710365014926	1	0	0	1	1	0	"chromosome"
"GCF_001833255.2_ASM183325v2"	"46"	6	0	"repeat chromosome"	"S. enterica"	1	0	"repeat chromosome"	"TN"	1781	3.25066391946324	3	0	0	3	1	0	"chromosome"
"GCF_001833255.2_ASM183325v2"	"47"	2	0	"repeat chromosome"	"S. enterica"	1	0	"repeat chromosome"	"TN"	1741	3.24079877111733	1	0	0	1	1	0	"chromosome"
"GCF_001833255.2_ASM183325v2"	"48"	1	0	"chromosome"	"S. enterica"	1	0	"repeat chromosome"	"TN"	1723	3.23628527744803	1	0	0	1	1	0	"chromosome"
"GCF_001833255.2_ASM183325v2"	"49"	7	0	"repeat chromosome"	"S. enterica"	1	0	"repeat chromosome"	"TN"	1623	3.21031851982623	21	0	0	21	1	0	"chromosome"
"GCF_001833255.2_ASM183325v2"	"53"	2	0	"repeat chromosome"	"S. enterica"	1	0	"repeat chromosome"	"TN"	1481	3.17055505852121	1	0	0	1	1	0	"chromosome"
"GCF_001833255.2_ASM183325v2"	"56"	4	0	"repeat chromosome"	"S. enterica"	1	0	"repeat chromosome"	"TN"	1312	3.11793383503964	4	0	0	4	1	0	"chromosome"
"GCF_001833255.2_ASM183325v2"	"57"	7	0	"repeat chromosome"	"S. enterica"	1	0	"repeat chromosome"	"TN"	1291	3.11092624226642	12	0	0	12	1	0	"chromosome"
"GCF_001833255.2_ASM183325v2"	"58"	2	0	"repeat chromosome"	"S. enterica"	1	0	"repeat chromosome"	"TN"	1238	3.0927206446841	1	0	0	1	1	0	"chromosome"
"GCF_001833255.2_ASM183325v2"	"60"	0	2	"repeat plasmid"	"S. enterica"	0	1	"repeat plasmid"	"TP"	1147	3.05956341790127	0	1	0	1	0	1	"plasmid"
"GCF_001833255.2_ASM183325v2"	"65"	2	0	"repeat chromosome"	"S. enterica"	1	0	"repeat chromosome"	"TN"	1019	3.00817418400643	44	0	0	44	1	0	"chromosome"
"GCF_001834735.2_ASM183473v2"	"20"	0	1	"plasmid"	"S. enterica"	0	1	"repeat plasmid"	"TP"	30598	4.48569304029366	0	1	0	1	0	1	"plasmid"
"GCF_001834735.2_ASM183473v2"	"23"	2	0	"repeat chromosome"	"S. enterica"	1	0	"repeat chromosome"	"TN"	19233	4.28404703160339	1	0	0	1	1	0	"chromosome"
"GCF_001834735.2_ASM183473v2"	"26"	2	0	"repeat chromosome"	"S. enterica"	1	0	"repeat chromosome"	"TN"	6293	3.79885773174749	1	0	0	1	1	0	"chromosome"
"GCF_001834735.2_ASM183473v2"	"27"	2	0	"repeat chromosome"	"S. enterica"	1	0	"repeat chromosome"	"TN"	5962	3.77539197169661	1	0	0	1	1	0	"chromosome"
"GCF_001834735.2_ASM183473v2"	"32"	7	0	"repeat chromosome"	"S. enterica"	1	0	"repeat chromosome"	"TN"	2378	3.37621185028267	1	0	0	1	1	0	"chromosome"
"GCF_001834735.2_ASM183473v2"	"37"	7	0	"repeat chromosome"	"S. enterica"	1	0	"repeat chromosome"	"TN"	1606	3.20574554094266	6	0	0	6	1	0	"chromosome"
"GCF_001834735.2_ASM183473v2"	"38"	2	0	"repeat chromosome"	"S. enterica"	1	0	"repeat chromosome"	"TN"	1557	3.19228861256812	1	0	0	1	1	0	"chromosome"
"GCF_001834735.2_ASM183473v2"	"41"	2	0	"repeat chromosome"	"S. enterica"	1	0	"repeat chromosome"	"TN"	1324	3.12188798510368	1	0	0	1	1	0	"chromosome"
"GCF_001834965.2_ASM183496v2"	"30"	2	0	"repeat chromosome"	"S. enterica"	1	0	"repeat chromosome"	"TN"	11158	4.04758635707435	1	0	0	1	1	0	"chromosome"
"GCF_001834965.2_ASM183496v2"	"31"	2	0	"repeat chromosome"	"S. enterica"	1	0	"repeat chromosome"	"TN"	9612	3.98281376213186	1	0	0	1	1	0	"chromosome"
"GCF_001834965.2_ASM183496v2"	"34"	3	0	"repeat chromosome"	"S. enterica"	1	0	"repeat chromosome"	"TN"	4883	3.68868672428412	1	0	0	1	1	0	"chromosome"
"GCF_001834965.2_ASM183496v2"	"35"	2	0	"repeat chromosome"	"S. enterica"	1	0	"repeat chromosome"	"TN"	4746	3.67632773388132	1	0	0	1	1	0	"chromosome"
"GCF_001834965.2_ASM183496v2"	"40"	7	0	"repeat chromosome"	"S. enterica"	1	0	"repeat chromosome"	"TN"	3052	3.48458452928284	1	0	0	1	1	0	"chromosome"
"GCF_001834965.2_ASM183496v2"	"41"	2	0	"repeat chromosome"	"S. enterica"	1	0	"repeat chromosome"	"TN"	2931	3.46701581843844	4	0	0	4	1	0	"chromosome"
"GCF_001834965.2_ASM183496v2"	"42"	2	0	"repeat chromosome"	"S. enterica"	1	0	"repeat chromosome"	"TN"	2766	3.44185217577329	1	0	0	1	1	0	"chromosome"
"GCF_001834965.2_ASM183496v2"	"46"	2	0	"repeat chromosome"	"S. enterica"	1	0	"repeat chromosome"	"TN"	1751	3.24328614608345	1	0	0	1	1	0	"chromosome"
"GCF_001834965.2_ASM183496v2"	"47"	3	0	"repeat chromosome"	"S. enterica"	1	0	"repeat chromosome"	"TN"	1727	3.23729233756746	1	0	0	1	1	0	"chromosome"
"GCF_001834965.2_ASM183496v2"	"48"	7	0	"repeat chromosome"	"S. enterica"	1	0	"repeat chromosome"	"TN"	1623	3.21031851982623	21	0	0	21	1	0	"chromosome"
"GCF_001834965.2_ASM183496v2"	"54"	3	0	"repeat chromosome"	"S. enterica"	1	0	"repeat chromosome"	"TN"	1461	3.1646502159343	1	0	0	1	1	0	"chromosome"
"GCF_001834965.2_ASM183496v2"	"55"	2	0	"repeat chromosome"	"S. enterica"	1	0	"repeat chromosome"	"TN"	1445	3.15986784709257	1	0	0	1	1	0	"chromosome"
"GCF_001834965.2_ASM183496v2"	"57"	2	0	"repeat chromosome"	"S. enterica"	1	0	"repeat chromosome"	"TN"	1413	3.15014216184856	1	0	0	1	1	0	"chromosome"
"GCF_001834965.2_ASM183496v2"	"58"	4	0	"repeat chromosome"	"S. enterica"	1	0	"repeat chromosome"	"TN"	1312	3.11793383503964	4	0	0	4	1	0	"chromosome"
"GCF_001834965.2_ASM183496v2"	"59"	1	0	"chromosome"	"S. enterica"	1	0	"repeat chromosome"	"TN"	1306	3.11594317693906	1	0	0	1	1	0	"chromosome"
"GCF_001834965.2_ASM183496v2"	"62"	3	0	"repeat chromosome"	"S. enterica"	1	0	"repeat chromosome"	"TN"	1147	3.05956341790127	1	0	0	1	1	0	"chromosome"
"GCF_001834965.2_ASM183496v2"	"63"	0	2	"repeat plasmid"	"S. enterica"	0	1	"repeat plasmid"	"TP"	1147	3.05956341790127	0	1	0	1	0	1	"plasmid"
"GCF_001834965.2_ASM183496v2"	"66"	2	0	"repeat chromosome"	"S. enterica"	1	0	"repeat chromosome"	"TN"	1019	3.00817418400643	44	0	0	44	1	0	"chromosome"
"GCF_001972545.2_ASM197254v2"	"19"	2	0	"repeat chromosome"	"S. enterica"	1	0	"repeat chromosome"	"TN"	6086	3.78433194802215	44	0	0	44	1	0	"chromosome"
"GCF_001972545.2_ASM197254v2"	"20"	1	0	"chromosome"	"S. enterica"	1	0	"repeat chromosome"	"TN"	4960	3.6954816764902	33	0	0	33	1	0	"chromosome"
"GCF_001972545.2_ASM197254v2"	"24"	7	0	"repeat chromosome"	"S. enterica"	1	0	"repeat chromosome"	"TN"	2383	3.37712404234646	27	0	0	27	1	0	"chromosome"
"GCF_001972545.2_ASM197254v2"	"27"	7	0	"repeat chromosome"	"S. enterica"	1	0	"repeat chromosome"	"TN"	1697	3.22968184231768	144	0	0	144	1	0	"chromosome"
"GCF_001972545.2_ASM197254v2"	"28"	2	0	"repeat chromosome"	"S. enterica"	1	0	"repeat chromosome"	"TN"	1627	3.21138755293686	103	0	0	103	1	0	"chromosome"
"GCF_001972625.2_ASM197262v2"	"18"	2	0	"repeat chromosome"	"S. enterica"	1	0	"repeat chromosome"	"TN"	6129	3.78738962135211	39	0	0	39	1	0	"chromosome"
"GCF_001972625.2_ASM197262v2"	"20"	1	0	"chromosome"	"S. enterica"	1	0	"repeat chromosome"	"TN"	4960	3.6954816764902	10	0	0	10	1	0	"chromosome"
"GCF_001972625.2_ASM197262v2"	"22"	7	0	"repeat chromosome"	"S. enterica"	1	0	"repeat chromosome"	"TN"	2289	3.35964579267454	141	0	0	141	1	0	"chromosome"
"GCF_001972625.2_ASM197262v2"	"24"	7	0	"repeat chromosome"	"S. enterica"	1	0	"repeat chromosome"	"TN"	1697	3.22968184231768	142	0	0	142	1	0	"chromosome"
"GCF_001972625.2_ASM197262v2"	"25"	2	0	"repeat chromosome"	"S. enterica"	1	0	"repeat chromosome"	"TN"	1509	3.17868923977559	119	0	0	119	1	0	"chromosome"
"GCF_001973785.2_ASM197378v2"	"21"	2	0	"repeat chromosome"	"S. enterica"	1	0	"repeat chromosome"	"TN"	6086	3.78433194802215	44	0	0	44	1	0	"chromosome"
"GCF_001973785.2_ASM197378v2"	"24"	7	0	"repeat chromosome"	"S. enterica"	1	0	"repeat chromosome"	"TN"	2383	3.37712404234646	124	0	0	124	1	0	"chromosome"
"GCF_001973785.2_ASM197378v2"	"25"	1	1	"ambiguous"	"S. enterica"	1	1	"ambiguous"	"TP"	2160	3.33445375115093	0	15	0	15	0	1	"plasmid"
"GCF_001973785.2_ASM197378v2"	"28"	7	0	"repeat chromosome"	"S. enterica"	1	0	"repeat chromosome"	"TN"	1697	3.22968184231768	144	0	0	144	1	0	"chromosome"
"GCF_001973785.2_ASM197378v2"	"29"	2	0	"repeat chromosome"	"S. enterica"	1	0	"repeat chromosome"	"TN"	1509	3.17868923977559	119	0	0	119	1	0	"chromosome"
"GCF_002265865.2_ASM226586v2"	"17"	2	0	"repeat chromosome"	"S. enterica"	1	0	"repeat chromosome"	"TN"	5996	3.77786162417624	1	0	0	1	1	0	"chromosome"
"GCF_002265865.2_ASM226586v2"	"20"	6	0	"repeat chromosome"	"S. enterica"	1	0	"repeat chromosome"	"TN"	1719	3.23527587668705	5	0	0	5	1	0	"chromosome"
"GCF_002265865.2_ASM226586v2"	"21"	7	0	"repeat chromosome"	"S. enterica"	1	0	"repeat chromosome"	"TN"	1459	3.16405529189345	21	0	0	21	1	0	"chromosome"
"GCF_002265865.2_ASM226586v2"	"22"	2	0	"repeat chromosome"	"S. enterica"	1	0	"repeat chromosome"	"TN"	1211	3.08314414314305	5	0	0	5	1	0	"chromosome"
"GCF_002265865.2_ASM226586v2"	"23"	2	0	"repeat chromosome"	"S. enterica"	1	0	"repeat chromosome"	"TN"	1019	3.00817418400643	2	0	0	2	1	0	"chromosome"
"GCF_002266205.2_ASM226620v2"	"15"	2	0	"repeat chromosome"	"S. enterica"	1	0	"repeat chromosome"	"TN"	4383	3.64177147065396	1	0	0	1	1	0	"chromosome"
"GCF_002266205.2_ASM226620v2"	"17"	7	0	"repeat chromosome"	"S. enterica"	1	0	"repeat chromosome"	"TN"	2378	3.37621185028267	3	0	0	3	1	0	"chromosome"
"GCF_002266205.2_ASM226620v2"	"19"	7	0	"repeat chromosome"	"S. enterica"	1	0	"repeat chromosome"	"TN"	1562	3.19368102954128	49	0	0	49	1	0	"chromosome"
"GCF_002266205.2_ASM226620v2"	"20"	2	0	"repeat chromosome"	"S. enterica"	1	0	"repeat chromosome"	"TN"	1180	3.07188200730613	1	0	0	1	1	0	"chromosome"
"GCF_002266205.2_ASM226620v2"	"21"	2	0	"repeat chromosome"	"S. enterica"	1	0	"repeat chromosome"	"TN"	1019	3.00817418400643	7	0	0	7	1	0	"chromosome"
"GCF_002507865.2_ASM250786v2"	"28"	2	0	"repeat chromosome"	"S. enterica"	1	0	"repeat chromosome"	"TN"	6010	3.77887447200274	1	0	0	1	1	0	"chromosome"
"GCF_002507865.2_ASM250786v2"	"32"	5	0	"repeat chromosome"	"S. enterica"	1	0	"repeat chromosome"	"TN"	2378	3.37621185028267	10	0	0	10	1	0	"chromosome"
"GCF_002507865.2_ASM250786v2"	"35"	7	0	"repeat chromosome"	"S. enterica"	1	0	"repeat chromosome"	"TN"	1459	3.16405529189345	39	0	0	39	1	0	"chromosome"
"GCF_003064405.2_ASM306440v2"	"35"	2	0	"repeat chromosome"	"S. enterica"	1	0	"repeat chromosome"	"TN"	12085	4.08224665474367	1	0	0	1	1	0	"chromosome"
"GCF_003064405.2_ASM306440v2"	"36"	2	0	"repeat chromosome"	"S. enterica"	1	0	"repeat chromosome"	"TN"	8869	3.9478746548977	1	0	0	1	1	0	"chromosome"
"GCF_003064405.2_ASM306440v2"	"37"	2	0	"repeat chromosome"	"S. enterica"	1	0	"repeat chromosome"	"TN"	7815	3.89292898235521	1	0	0	1	1	0	"chromosome"
"GCF_003064405.2_ASM306440v2"	"39"	2	0	"repeat chromosome"	"S. enterica"	1	0	"repeat chromosome"	"TN"	6213	3.79330135361311	1	0	0	1	1	0	"chromosome"
"GCF_003064405.2_ASM306440v2"	"47"	2	0	"repeat chromosome"	"S. enterica"	1	0	"repeat chromosome"	"TN"	2923	3.46582881535744	2	0	0	2	1	0	"chromosome"
"GCF_003064405.2_ASM306440v2"	"48"	2	0	"repeat chromosome"	"S. enterica"	1	0	"repeat chromosome"	"TN"	2637	3.42111012979343	1	0	0	1	1	0	"chromosome"
"GCF_003064405.2_ASM306440v2"	"49"	2	0	"repeat chromosome"	"S. enterica"	1	0	"repeat chromosome"	"TN"	2082	3.31848072517452	1	0	0	1	1	0	"chromosome"
"GCF_003064405.2_ASM306440v2"	"51"	7	0	"repeat chromosome"	"S. enterica"	1	0	"repeat chromosome"	"TN"	1749	3.24278980947868	2	0	0	2	1	0	"chromosome"
"GCF_003064405.2_ASM306440v2"	"52"	2	0	"repeat chromosome"	"S. enterica"	1	0	"repeat chromosome"	"TN"	1689	3.22762964957101	1	0	0	1	1	0	"chromosome"
"GCF_003064405.2_ASM306440v2"	"55"	2	0	"repeat chromosome"	"S. enterica"	1	0	"repeat chromosome"	"TN"	1533	3.18554215485437	3	0	0	3	1	0	"chromosome"
"GCF_003064405.2_ASM306440v2"	"58"	7	0	"repeat chromosome"	"S. enterica"	1	0	"repeat chromosome"	"TN"	1438	3.15775888604686	5	0	0	5	1	0	"chromosome"
"GCF_003064405.2_ASM306440v2"	"59"	2	0	"repeat chromosome"	"S. enterica"	1	0	"repeat chromosome"	"TN"	1240	3.09342168516224	1	0	0	1	1	0	"chromosome"
"GCF_003064405.2_ASM306440v2"	"61"	0	2	"repeat plasmid"	"S. enterica"	0	1	"repeat plasmid"	"TP"	1147	3.05956341790127	0	1	0	1	0	1	"plasmid"
"GCF_003064405.2_ASM306440v2"	"62"	7	0	"repeat chromosome"	"S. enterica"	1	0	"repeat chromosome"	"TN"	1033	3.01410032151962	378	2	0	380	0.99	0.01	"chromosome"
"GCF_003067445.2_ASM306744v2"	"27"	2	0	"repeat chromosome"	"S. enterica"	1	0	"repeat chromosome"	"TN"	12605	4.10054285001246	53	0	0	53	1	0	"chromosome"
"GCF_003067445.2_ASM306744v2"	"29"	2	0	"repeat chromosome"	"S. enterica"	1	0	"repeat chromosome"	"TN"	6148	3.78873385882771	1	0	0	1	1	0	"chromosome"
"GCF_003067445.2_ASM306744v2"	"33"	2	0	"repeat chromosome"	"S. enterica"	1	0	"repeat chromosome"	"TN"	1854	3.26810972980848	72	0	0	72	1	0	"chromosome"
"GCF_003067445.2_ASM306744v2"	"34"	2	0	"repeat chromosome"	"S. enterica"	1	0	"repeat chromosome"	"TN"	1738	3.24004977211265	71	0	0	71	1	0	"chromosome"
"GCF_003067445.2_ASM306744v2"	"35"	7	0	"repeat chromosome"	"S. enterica"	1	0	"repeat chromosome"	"TN"	1721	3.23578087032756	3	0	0	3	1	0	"chromosome"
"GCF_003067445.2_ASM306744v2"	"36"	7	0	"repeat chromosome"	"S. enterica"	1	0	"repeat chromosome"	"TN"	1669	3.22245633667925	1	0	0	1	1	0	"chromosome"
"GCF_003067445.2_ASM306744v2"	"39"	3	0	"repeat chromosome"	"S. enterica"	1	0	"repeat chromosome"	"TN"	1313	3.11826472608948	5	0	0	5	1	0	"chromosome"
"GCF_003067445.2_ASM306744v2"	"41"	2	0	"repeat chromosome"	"S. enterica"	1	0	"repeat chromosome"	"TN"	1279	3.10687054447865	1	0	0	1	1	0	"chromosome"
"GCF_003067445.2_ASM306744v2"	"43"	2	0	"repeat chromosome"	"S. enterica"	1	0	"repeat chromosome"	"TN"	1207	3.08170727009735	2	0	0	2	1	0	"chromosome"
"GCF_003067445.2_ASM306744v2"	"44"	2	0	"repeat chromosome"	"S. enterica"	1	0	"repeat chromosome"	"TN"	1107	3.04414762087872	1	0	0	1	1	0	"chromosome"
"GCF_003067445.2_ASM306744v2"	"47"	2	0	"repeat chromosome"	"S. enterica"	1	0	"repeat chromosome"	"TN"	1028	3.01199311465926	2	0	0	2	1	0	"chromosome"
"GCF_003067925.2_ASM306792v2"	"21"	1	0	"chromosome"	"S. enterica"	1	0	"repeat chromosome"	"TN"	33326	4.52278318998285	1	0	0	1	1	0	"chromosome"
"GCF_003067925.2_ASM306792v2"	"30"	2	0	"repeat chromosome"	"S. enterica"	1	0	"repeat chromosome"	"TN"	11156	4.04750850559401	1	0	0	1	1	0	"chromosome"
"GCF_003067925.2_ASM306792v2"	"31"	2	0	"repeat chromosome"	"S. enterica"	1	0	"repeat chromosome"	"TN"	9612	3.98281376213186	1	0	0	1	1	0	"chromosome"
"GCF_003067925.2_ASM306792v2"	"34"	3	0	"repeat chromosome"	"S. enterica"	1	0	"repeat chromosome"	"TN"	4883	3.68868672428412	1	0	0	1	1	0	"chromosome"
"GCF_003067925.2_ASM306792v2"	"35"	2	0	"repeat chromosome"	"S. enterica"	1	0	"repeat chromosome"	"TN"	4746	3.67632773388132	1	0	0	1	1	0	"chromosome"
"GCF_003067925.2_ASM306792v2"	"36"	2	0	"repeat chromosome"	"S. enterica"	1	0	"repeat chromosome"	"TN"	4383	3.64177147065396	1	0	0	1	1	0	"chromosome"
"GCF_003067925.2_ASM306792v2"	"41"	7	0	"repeat chromosome"	"S. enterica"	1	0	"repeat chromosome"	"TN"	3052	3.48458452928284	1	0	0	1	1	0	"chromosome"
"GCF_003067925.2_ASM306792v2"	"42"	1	0	"chromosome"	"S. enterica"	1	0	"repeat chromosome"	"TN"	3008	3.4782778319196	1	0	0	1	1	0	"chromosome"
"GCF_003067925.2_ASM306792v2"	"43"	2	0	"repeat chromosome"	"S. enterica"	1	0	"repeat chromosome"	"TN"	2931	3.46701581843844	4	0	0	4	1	0	"chromosome"
"GCF_003067925.2_ASM306792v2"	"46"	2	0	"repeat chromosome"	"S. enterica"	1	0	"repeat chromosome"	"TN"	2137	3.32980452216407	1	0	0	1	1	0	"chromosome"
"GCF_003067925.2_ASM306792v2"	"48"	2	0	"repeat chromosome"	"S. enterica"	1	0	"repeat chromosome"	"TN"	1751	3.24328614608345	1	0	0	1	1	0	"chromosome"
"GCF_003067925.2_ASM306792v2"	"49"	3	0	"repeat chromosome"	"S. enterica"	1	0	"repeat chromosome"	"TN"	1727	3.23729233756746	1	0	0	1	1	0	"chromosome"
"GCF_003067925.2_ASM306792v2"	"50"	1	0	"chromosome"	"S. enterica"	1	0	"repeat chromosome"	"TN"	1723	3.23628527744803	1	0	0	1	1	0	"chromosome"
"GCF_003067925.2_ASM306792v2"	"52"	7	0	"repeat chromosome"	"S. enterica"	1	0	"repeat chromosome"	"TN"	1623	3.21031851982623	21	0	0	21	1	0	"chromosome"
"GCF_003067925.2_ASM306792v2"	"57"	3	0	"repeat chromosome"	"S. enterica"	1	0	"repeat chromosome"	"TN"	1461	3.1646502159343	1	0	0	1	1	0	"chromosome"
"GCF_003067925.2_ASM306792v2"	"59"	4	0	"repeat chromosome"	"S. enterica"	1	0	"repeat chromosome"	"TN"	1312	3.11793383503964	4	0	0	4	1	0	"chromosome"
"GCF_003067925.2_ASM306792v2"	"60"	1	0	"chromosome"	"S. enterica"	1	0	"repeat chromosome"	"TN"	1306	3.11594317693906	1	0	0	1	1	0	"chromosome"
"GCF_003067925.2_ASM306792v2"	"63"	3	0	"repeat chromosome"	"S. enterica"	1	0	"repeat chromosome"	"TN"	1147	3.05956341790127	1	0	0	1	1	0	"chromosome"
"GCF_003067925.2_ASM306792v2"	"66"	2	0	"repeat chromosome"	"S. enterica"	1	0	"repeat chromosome"	"TN"	1019	3.00817418400643	44	0	0	44	1	0	"chromosome"
"GCF_003067925.2_ASM306792v2"	"67"	2	0	"repeat chromosome"	"S. enterica"	1	0	"repeat chromosome"	"TN"	1010	3.00432137378264	1	0	0	1	1	0	"chromosome"
"GCF_003068025.2_ASM306802v2"	"16"	1	0	"chromosome"	"S. enterica"	1	0	"repeat chromosome"	"TN"	55268	4.74247374891904	1	0	0	1	1	0	"chromosome"
"GCF_003068025.2_ASM306802v2"	"25"	2	0	"repeat chromosome"	"S. enterica"	1	0	"repeat chromosome"	"TN"	4746	3.67632773388132	1	0	0	1	1	0	"chromosome"
"GCF_003068025.2_ASM306802v2"	"28"	7	0	"repeat chromosome"	"S. enterica"	1	0	"repeat chromosome"	"TN"	3052	3.48458452928284	1	0	0	1	1	0	"chromosome"
"GCF_003068025.2_ASM306802v2"	"29"	7	0	"repeat chromosome"	"S. enterica"	1	0	"repeat chromosome"	"TN"	1623	3.21031851982623	21	0	0	21	1	0	"chromosome"
"GCF_003068025.2_ASM306802v2"	"30"	4	0	"repeat chromosome"	"S. enterica"	1	0	"repeat chromosome"	"TN"	1312	3.11793383503964	4	0	0	4	1	0	"chromosome"
"GCF_003068025.2_ASM306802v2"	"32"	0	2	"repeat plasmid"	"S. enterica"	1	1	"ambiguous"	"TP"	1147	3.05956341790127	0	1	0	1	0	1	"plasmid"
"GCF_003068025.2_ASM306802v2"	"35"	2	0	"repeat chromosome"	"S. enterica"	1	0	"repeat chromosome"	"TN"	1019	3.00817418400643	4	0	0	4	1	0	"chromosome"
"GCF_003581245.2_ASM358124v2"	"26"	1	0	"chromosome"	"S. enterica"	1	1	"ambiguous"	"FP"	6675	3.82445127003661	2	1	0	3	0.67	0.33	"unclassified"
"GCF_003581245.2_ASM358124v2"	"27"	2	0	"repeat chromosome"	"S. enterica"	1	0	"repeat chromosome"	"TN"	5885	3.76974646717945	1	0	0	1	1	0	"chromosome"
"GCF_003581245.2_ASM358124v2"	"30"	5	0	"repeat chromosome"	"S. enterica"	1	0	"repeat chromosome"	"TN"	2044	3.31048089146268	1	0	0	1	1	0	"chromosome"
"GCF_003581245.2_ASM358124v2"	"31"	7	0	"repeat chromosome"	"S. enterica"	1	0	"repeat chromosome"	"TN"	1498	3.17551181336345	89	0	0	89	1	0	"chromosome"
"GCF_003581245.2_ASM358124v2"	"32"	7	0	"repeat chromosome"	"S. enterica"	1	0	"repeat chromosome"	"TN"	1181	3.07224989761351	2	0	0	2	1	0	"chromosome"
"GCF_006461325.2_ASM646132v2"	"28"	2	0	"repeat chromosome"	"S. enterica"	1	0	"repeat chromosome"	"TN"	11567	4.06322073558199	7	0	0	7	1	0	"chromosome"
"GCF_006461325.2_ASM646132v2"	"35"	2	0	"repeat chromosome"	"S. enterica"	1	0	"repeat chromosome"	"TN"	6238	3.79504537042112	1	0	0	1	1	0	"chromosome"
"GCF_006461325.2_ASM646132v2"	"38"	2	0	"repeat chromosome"	"S. enterica"	1	0	"repeat chromosome"	"TN"	4220	3.62531245096167	1	0	0	1	1	0	"chromosome"
"GCF_006461325.2_ASM646132v2"	"41"	2	0	"repeat chromosome"	"S. enterica"	1	0	"repeat chromosome"	"TN"	3160	3.4996870826184	1	0	0	1	1	0	"chromosome"
"GCF_006461325.2_ASM646132v2"	"44"	7	0	"repeat chromosome"	"S. enterica"	1	0	"repeat chromosome"	"TN"	2247	3.35160307241913	4	0	0	4	1	0	"chromosome"
"GCF_006461325.2_ASM646132v2"	"45"	0	1	"plasmid"	"S. enterica"	0	1	"repeat plasmid"	"TP"	2243	3.35082927358297	20	6	0	26	0.77	0.23	"chromosome"
"GCF_006461325.2_ASM646132v2"	"46"	1	2	"ambiguous"	"S. enterica"	1	1	"ambiguous"	"TP"	1954	3.29092455938275	9	7	0	16	0.56	0.44	"unclassified"
"GCF_006461325.2_ASM646132v2"	"48"	2	0	"repeat chromosome"	"S. enterica"	1	0	"repeat chromosome"	"TN"	1845	3.26599637049508	1	0	0	1	1	0	"chromosome"
"GCF_006461325.2_ASM646132v2"	"49"	0	2	"repeat plasmid"	"S. enterica"	0	1	"repeat plasmid"	"TP"	1692	3.228400358703	4	12	0	16	0.25	0.75	"plasmid"
"GCF_006461325.2_ASM646132v2"	"50"	3	0	"repeat chromosome"	"S. enterica"	1	0	"repeat chromosome"	"TN"	1578	3.1981069988734	1	0	0	1	1	0	"chromosome"
"GCF_006461325.2_ASM646132v2"	"51"	7	0	"repeat chromosome"	"S. enterica"	1	0	"repeat chromosome"	"TN"	1491	3.17347764345299	6	0	0	6	1	0	"chromosome"
"GCF_006461325.2_ASM646132v2"	"52"	3	0	"repeat chromosome"	"S. enterica"	1	0	"repeat chromosome"	"TN"	1351	3.13065534902203	2	0	0	2	1	0	"chromosome"
"GCF_006461325.2_ASM646132v2"	"53"	3	0	"repeat chromosome"	"S. enterica"	1	0	"repeat chromosome"	"TN"	1273	3.10482840365366	1	0	0	1	1	0	"chromosome"
"GCF_006461325.2_ASM646132v2"	"54"	2	0	"repeat chromosome"	"S. enterica"	1	0	"repeat chromosome"	"TN"	1234	3.09131515969722	1	0	0	1	1	0	"chromosome"
"GCF_006461325.2_ASM646132v2"	"57"	2	0	"repeat chromosome"	"S. enterica"	1	0	"repeat chromosome"	"TN"	1053	3.02242837118549	1	0	0	1	1	0	"chromosome"
"GCF_006461325.2_ASM646132v2"	"58"	2	0	"repeat chromosome"	"S. enterica"	1	0	"repeat chromosome"	"TN"	1043	3.01828430842653	1	0	0	1	1	0	"chromosome"
"GCF_006461415.2_ASM646141v2"	"20"	2	0	"repeat chromosome"	"S. enterica"	1	0	"repeat chromosome"	"TN"	5844	3.76671020726226	1	0	0	1	1	0	"chromosome"
"GCF_006461415.2_ASM646141v2"	"29"	7	0	"repeat chromosome"	"S. enterica"	1	0	"repeat chromosome"	"TN"	1700	3.23044892137827	24	0	0	24	1	0	"chromosome"
"GCF_006461415.2_ASM646141v2"	"31"	7	0	"repeat chromosome"	"S. enterica"	1	0	"repeat chromosome"	"TN"	1569	3.19562294358694	1	0	0	1	1	0	"chromosome"
"GCF_006461415.2_ASM646141v2"	"32"	2	0	"repeat chromosome"	"S. enterica"	1	0	"repeat chromosome"	"TN"	1308	3.11660774398825	50	0	0	50	1	0	"chromosome"
"GCF_013328855.1_ASM1332885v1"	"32"	1	0	"chromosome"	"S. enterica"	1	0	"repeat chromosome"	"TN"	9739	3.98851436583367	1	0	0	1	1	0	"chromosome"
"GCF_013328855.1_ASM1332885v1"	"34"	2	0	"repeat chromosome"	"S. enterica"	1	0	"repeat chromosome"	"TN"	5641	3.75135609972539	1	0	0	1	1	0	"chromosome"
"GCF_013328855.1_ASM1332885v1"	"39"	19	1	"ambiguous"	"S. enterica"	1	1	"ambiguous"	"TP"	2131	3.3285834497142	1	0	0	1	1	0	"chromosome"
"GCF_013328855.1_ASM1332885v1"	"40"	2	0	"repeat chromosome"	"S. enterica"	1	0	"repeat chromosome"	"TN"	2126	3.32756326018728	1	0	0	1	1	0	"chromosome"
"GCF_013328855.1_ASM1332885v1"	"41"	7	0	"repeat chromosome"	"S. enterica"	1	0	"repeat chromosome"	"TN"	1616	3.20844135643857	1	0	0	1	1	0	"chromosome"
"GCF_013328855.1_ASM1332885v1"	"43"	7	0	"repeat chromosome"	"S. enterica"	1	0	"repeat chromosome"	"TN"	1554	3.1914510144649	3	0	0	3	1	0	"chromosome"
"GCF_013348865.1_ASM1334886v1"	"34"	0	1	"plasmid"	"S. enterica"	0	1	"repeat plasmid"	"TP"	45934	4.66213426606429	0	1	0	1	0	1	"plasmid"
"GCF_013348865.1_ASM1334886v1"	"54"	3	0	"repeat chromosome"	"S. enterica"	1	0	"repeat chromosome"	"TN"	16192	4.20930049515971	1	0	0	1	1	0	"chromosome"
"GCF_013348865.1_ASM1334886v1"	"70"	0	2	"repeat plasmid"	"S. enterica"	0	1	"repeat plasmid"	"TP"	4852	3.68592079219454	0	1	0	1	0	1	"plasmid"
"GCF_013348865.1_ASM1334886v1"	"72"	3	0	"repeat chromosome"	"S. enterica"	1	0	"repeat chromosome"	"TN"	3453	3.53819657834945	13	0	0	13	1	0	"chromosome"
"GCF_013348865.1_ASM1334886v1"	"75"	2	0	"repeat chromosome"	"S. enterica"	1	0	"repeat chromosome"	"TN"	3023	3.48043814717782	2	0	0	2	1	0	"chromosome"
"GCF_013348865.1_ASM1334886v1"	"76"	2	0	"repeat chromosome"	"S. enterica"	1	0	"repeat chromosome"	"TN"	2896	3.46179855752511	1	0	0	1	1	0	"chromosome"
"GCF_013348865.1_ASM1334886v1"	"83"	2	0	"repeat chromosome"	"S. enterica"	1	0	"repeat chromosome"	"TN"	1613	3.20763436738896	1	0	0	1	1	0	"chromosome"
"GCF_013348865.1_ASM1334886v1"	"84"	4	0	"repeat chromosome"	"S. enterica"	1	0	"repeat chromosome"	"TN"	1452	3.16196661636407	4	0	0	4	1	0	"chromosome"
"GCF_013348865.1_ASM1334886v1"	"85"	3	0	"repeat chromosome"	"S. enterica"	1	0	"repeat chromosome"	"TN"	1414	3.15044940946088	1	0	0	1	1	0	"chromosome"
"GCF_013348865.1_ASM1334886v1"	"87"	2	0	"repeat chromosome"	"S. enterica"	1	0	"repeat chromosome"	"TN"	1349	3.1300119496719	0	1	0	1	0	1	"plasmid"
"GCF_013348865.1_ASM1334886v1"	"91"	2	0	"repeat chromosome"	"S. enterica"	1	0	"repeat chromosome"	"TN"	1046	3.01953168453126	1	0	0	1	1	0	"chromosome"
"GCF_013348865.1_ASM1334886v1"	"94"	2	0	"repeat chromosome"	"S. enterica"	1	0	"repeat chromosome"	"TN"	1033	3.01410032151962	2	0	0	2	1	0	"chromosome"
"GCF_013348865.1_ASM1334886v1"	"95"	1	2	"ambiguous"	"S. enterica"	1	0	"repeat chromosome"	"FN"	1024	3.01029995663981	1	0	0	1	1	0	"chromosome"
"GCF_014334175.1_ASM1433417v1"	"23"	1	0	"chromosome"	"S. enterica"	1	0	"repeat chromosome"	"TN"	45091	4.6540898669248	1	0	0	1	1	0	"chromosome"
"GCF_014334175.1_ASM1433417v1"	"29"	2	0	"repeat chromosome"	"S. enterica"	1	0	"repeat chromosome"	"TN"	11343	4.0547279320822	1	0	0	1	1	0	"chromosome"
"GCF_014334175.1_ASM1433417v1"	"35"	0	1	"plasmid"	"S. enterica"	0	1	"repeat plasmid"	"TP"	2808	3.44839710345777	0	8	0	8	0	1	"plasmid"
"GCF_014334175.1_ASM1433417v1"	"36"	7	0	"repeat chromosome"	"S. enterica"	1	0	"repeat chromosome"	"TN"	2291	3.3600250891894	1	0	0	1	1	0	"chromosome"
"GCF_014334175.1_ASM1433417v1"	"37"	2	2	"ambiguous"	"S. enterica"	1	1	"ambiguous"	"TP"	1954	3.29092455938275	0	12	0	12	0	1	"plasmid"
"GCF_014334175.1_ASM1433417v1"	"39"	7	0	"repeat chromosome"	"S. enterica"	1	0	"repeat chromosome"	"TN"	1562	3.19368102954128	49	0	0	49	1	0	"chromosome"
"GCF_014334175.1_ASM1433417v1"	"40"	4	0	"repeat chromosome"	"S. enterica"	1	0	"repeat chromosome"	"TN"	1312	3.11793383503964	2	0	0	2	1	0	"chromosome"
"GCF_014334175.1_ASM1433417v1"	"41"	2	0	"repeat chromosome"	"S. enterica"	1	0	"repeat chromosome"	"TN"	1274	3.10516942799933	2	0	0	2	1	0	"chromosome"
"GCF_014334175.1_ASM1433417v1"	"45"	2	0	"repeat chromosome"	"S. enterica"	1	0	"repeat chromosome"	"TN"	1019	3.00817418400643	4	0	0	4	1	0	"chromosome"
"GCF_014334195.1_ASM1433419v1"	"41"	7	0	"repeat chromosome"	"S. enterica"	1	0	"repeat chromosome"	"TN"	1450	3.16136800223497	39	0	0	39	1	0	"chromosome"
"GCF_014334195.1_ASM1433419v1"	"42"	3	0	"repeat chromosome"	"S. enterica"	1	0	"repeat chromosome"	"TN"	1312	3.11793383503964	12	0	0	12	1	0	"chromosome"
"GCF_014334195.1_ASM1433419v1"	"43"	3	0	"repeat chromosome"	"S. enterica"	1	0	"repeat chromosome"	"TN"	1283	3.10822665637493	9	0	0	9	1	0	"chromosome"
"GCF_014334195.1_ASM1433419v1"	"44"	2	0	"repeat chromosome"	"S. enterica"	1	0	"repeat chromosome"	"TN"	1232	3.09061070782841	50	0	0	50	1	0	"chromosome"
"GCF_014334195.1_ASM1433419v1"	"46"	1	2	"ambiguous"	"S. enterica"	1	1	"ambiguous"	"TP"	1101	3.04178731897175	0	11	0	11	0	1	"plasmid"
"GCF_014334235.1_ASM1433423v1"	"34"	7	0	"repeat chromosome"	"S. enterica"	1	0	"repeat chromosome"	"TN"	1457	3.16345955176999	3	0	0	3	1	0	"chromosome"
"GCF_014334235.1_ASM1433423v1"	"36"	2	0	"repeat chromosome"	"S. enterica"	1	0	"repeat chromosome"	"TN"	1207	3.08170727009735	4	0	0	4	1	0	"chromosome"
"GCF_014334235.1_ASM1433423v1"	"37"	2	0	"repeat chromosome"	"S. enterica"	1	0	"repeat chromosome"	"TN"	1043	3.01828430842653	4	0	0	4	1	0	"chromosome"
"GCF_014334255.1_ASM1433425v1"	"20"	2	0	"repeat chromosome"	"S. enterica"	1	0	"repeat chromosome"	"TN"	6129	3.78738962135211	66	0	0	66	1	0	"chromosome"
"GCF_014334255.1_ASM1433425v1"	"24"	7	0	"repeat chromosome"	"S. enterica"	1	0	"repeat chromosome"	"TN"	2289	3.35964579267454	93	0	0	93	1	0	"chromosome"
"GCF_014334255.1_ASM1433425v1"	"28"	7	0	"repeat chromosome"	"S. enterica"	1	0	"repeat chromosome"	"TN"	1697	3.22968184231768	144	0	0	144	1	0	"chromosome"
"GCF_014334255.1_ASM1433425v1"	"29"	2	0	"repeat chromosome"	"S. enterica"	1	0	"repeat chromosome"	"TN"	1659	3.21984638602436	113	0	0	113	1	0	"chromosome"
"GCF_014334255.1_ASM1433425v1"	"30"	1	1	"ambiguous"	"S. enterica"	1	1	"ambiguous"	"TP"	1029	3.01241537476243	5	19	0	24	0.21	0.79	"plasmid"
"GCF_014858545.1_ASM1485854v1"	"22"	2	0	"repeat chromosome"	"S. enterica"	1	0	"repeat chromosome"	"TN"	6122	3.78689332526132	7	0	0	7	1	0	"chromosome"
"GCF_014858545.1_ASM1485854v1"	"30"	0	2	"repeat plasmid"	"S. enterica"	1	1	"ambiguous"	"TP"	2133	3.32899085544943	2	7	0	9	0.22	0.78	"plasmid"
"GCF_014858545.1_ASM1485854v1"	"34"	0	2	"repeat plasmid"	"S. enterica"	0	1	"repeat plasmid"	"TP"	1540	3.18752072083646	0	2	0	2	0	1	"plasmid"
"GCF_014858545.1_ASM1485854v1"	"36"	2	0	"repeat chromosome"	"S. enterica"	1	0	"repeat chromosome"	"TN"	1043	3.01828430842653	3	0	0	3	1	0	"chromosome"
"GCF_014858545.1_ASM1485854v1"	"37"	7	0	"repeat chromosome"	"S. enterica"	1	0	"repeat chromosome"	"TN"	1018	3.00774777800074	527	0	0	527	1	0	"chromosome"
"GCF_014858565.1_ASM1485856v1"	"25"	2	0	"repeat chromosome"	"S. enterica"	1	0	"repeat chromosome"	"TN"	6122	3.78689332526132	7	0	0	7	1	0	"chromosome"
"GCF_014858565.1_ASM1485856v1"	"33"	0	2	"repeat plasmid"	"S. enterica"	0	1	"repeat plasmid"	"TP"	2133	3.32899085544943	2	7	0	9	0.22	0.78	"plasmid"
"GCF_014858565.1_ASM1485856v1"	"37"	0	2	"repeat plasmid"	"S. enterica"	0	1	"repeat plasmid"	"TP"	1540	3.18752072083646	0	2	0	2	0	1	"plasmid"
"GCF_014858565.1_ASM1485856v1"	"40"	2	0	"repeat chromosome"	"S. enterica"	1	0	"repeat chromosome"	"TN"	1043	3.01828430842653	7	0	0	7	1	0	"chromosome"
"GCF_014858565.1_ASM1485856v1"	"41"	7	0	"repeat chromosome"	"S. enterica"	1	0	"repeat chromosome"	"TN"	1018	3.00774777800074	527	0	0	527	1	0	"chromosome"
"GCF_015074885.1_ASM1507488v1"	"21"	2	0	"repeat chromosome"	"S. enterica"	1	0	"repeat chromosome"	"TN"	6129	3.78738962135211	66	0	0	66	1	0	"chromosome"
"GCF_015074885.1_ASM1507488v1"	"23"	1	0	"chromosome"	"S. enterica"	1	0	"repeat chromosome"	"TN"	5213	3.71708772492702	33	0	0	33	1	0	"chromosome"
"GCF_015074885.1_ASM1507488v1"	"27"	7	0	"repeat chromosome"	"S. enterica"	1	0	"repeat chromosome"	"TN"	2383	3.37712404234646	13	0	0	13	1	0	"chromosome"
"GCF_015074885.1_ASM1507488v1"	"29"	7	0	"repeat chromosome"	"S. enterica"	1	0	"repeat chromosome"	"TN"	1697	3.22968184231768	144	0	0	144	1	0	"chromosome"
"GCF_015074885.1_ASM1507488v1"	"30"	2	0	"repeat chromosome"	"S. enterica"	1	0	"repeat chromosome"	"TN"	1659	3.21984638602436	113	0	0	113	1	0	"chromosome"
"GCF_015074885.1_ASM1507488v1"	"31"	1	1	"ambiguous"	"S. enterica"	0	1	"repeat plasmid"	"TP"	1657	3.21932250841934	7	37	0	44	0.16	0.84	"plasmid"
"GCF_015074905.1_ASM1507490v1"	"17"	0	1	"plasmid"	"S. enterica"	0	1	"repeat plasmid"	"TP"	70816	4.85013139224716	0	1	0	1	0	1	"plasmid"
"GCF_015074905.1_ASM1507490v1"	"26"	0	1	"plasmid"	"S. enterica"	0	1	"repeat plasmid"	"TP"	22459	4.35139041514225	0	1	0	1	0	1	"plasmid"
"GCF_015074905.1_ASM1507490v1"	"30"	2	0	"repeat chromosome"	"S. enterica"	1	0	"repeat chromosome"	"TN"	6195	3.79204131071208	3	0	0	3	1	0	"chromosome"
"GCF_015074905.1_ASM1507490v1"	"42"	0	2	"repeat plasmid"	"S. enterica"	1	1	"ambiguous"	"TP"	1354	3.13161866434913	5	12	0	17	0.29	0.71	"plasmid"
"GCF_015074905.1_ASM1507490v1"	"43"	7	0	"repeat chromosome"	"S. enterica"	1	0	"repeat chromosome"	"TN"	1333	3.12483014941386	122	1	0	123	0.99	0.01	"chromosome"
"GCF_015074905.1_ASM1507490v1"	"44"	0	2	"repeat plasmid"	"S. enterica"	1	1	"ambiguous"	"TP"	1134	3.05461305455689	67	110	0	177	0.38	0.62	"unclassified"
"GCF_015074905.1_ASM1507490v1"	"46"	7	0	"repeat chromosome"	"S. enterica"	1	0	"repeat chromosome"	"TN"	1022	3.00945089579869	255	0	0	255	1	0	"chromosome"
"GCF_015159575.1_ASM1515957v1"	"22"	2	0	"repeat chromosome"	"S. enterica"	1	0	"repeat chromosome"	"TN"	2211	3.34458874257871	2	0	0	2	1	0	"chromosome"
"GCF_015159575.1_ASM1515957v1"	"24"	2	0	"repeat chromosome"	"S. enterica"	1	0	"repeat chromosome"	"TN"	1963	3.29292029960001	1	0	0	1	1	0	"chromosome"
"GCF_015159575.1_ASM1515957v1"	"25"	7	0	"repeat chromosome"	"S. enterica"	1	0	"repeat chromosome"	"TN"	1749	3.24278980947868	27	0	0	27	1	0	"chromosome"
"GCF_015159575.1_ASM1515957v1"	"26"	7	0	"repeat chromosome"	"S. enterica"	1	0	"repeat chromosome"	"TN"	1697	3.22968184231768	1	0	0	1	1	0	"chromosome"
"GCF_015240635.1_ASM1524063v1"	"17"	2	0	"repeat chromosome"	"S. enterica"	1	0	"repeat chromosome"	"TN"	6129	3.78738962135211	66	0	0	66	1	0	"chromosome"
"GCF_015240635.1_ASM1524063v1"	"19"	7	0	"repeat chromosome"	"S. enterica"	1	0	"repeat chromosome"	"TN"	2383	3.37712404234646	13	0	0	13	1	0	"chromosome"
"GCF_015240635.1_ASM1524063v1"	"21"	7	0	"repeat chromosome"	"S. enterica"	1	0	"repeat chromosome"	"TN"	1697	3.22968184231768	144	0	0	144	1	0	"chromosome"
"GCF_015240635.1_ASM1524063v1"	"22"	2	0	"repeat chromosome"	"S. enterica"	1	0	"repeat chromosome"	"TN"	1659	3.21984638602436	113	0	0	113	1	0	"chromosome"
"GCF_015240635.1_ASM1524063v1"	"23"	1	1	"ambiguous"	"S. enterica"	1	0	"repeat chromosome"	"FN"	1029	3.01241537476243	5	19	0	24	0.21	0.79	"plasmid"
"GCF_015240995.1_ASM1524099v1"	"24"	2	0	"repeat chromosome"	"S. enterica"	1	0	"repeat chromosome"	"TN"	5770	3.76117581315573	1	0	0	1	1	0	"chromosome"
"GCF_015240995.1_ASM1524099v1"	"28"	2	0	"repeat chromosome"	"S. enterica"	1	0	"repeat chromosome"	"TN"	3157	3.49927458189222	74	0	0	74	1	0	"chromosome"
"GCF_015240995.1_ASM1524099v1"	"29"	7	0	"repeat chromosome"	"S. enterica"	1	0	"repeat chromosome"	"TN"	3059	3.48557947698468	1	0	0	1	1	0	"chromosome"
"GCF_015240995.1_ASM1524099v1"	"31"	2	1	"ambiguous"	"S. enterica"	1	1	"ambiguous"	"TP"	2444	3.38810120157052	0	0	1	1	0.5	0.5	"unclassified"
"GCF_015240995.1_ASM1524099v1"	"33"	2	0	"repeat chromosome"	"S. enterica"	1	0	"repeat chromosome"	"TN"	1962	3.29269900304393	5	0	0	5	1	0	"chromosome"
"GCF_015240995.1_ASM1524099v1"	"36"	0	2	"repeat plasmid"	"S. enterica"	0	1	"repeat plasmid"	"TP"	1714	3.23401081758718	6	74	0	80	0.08	0.92	"plasmid"
"GCF_015240995.1_ASM1524099v1"	"37"	7	0	"repeat chromosome"	"S. enterica"	1	0	"repeat chromosome"	"TN"	1690	3.22788670461367	142	0	0	142	1	0	"chromosome"
"GCF_015240995.1_ASM1524099v1"	"38"	0	2	"repeat plasmid"	"S. enterica"	0	2	"repeat plasmid"	"TP"	1525	3.1832698436828	58	68	0	126	0.46	0.54	"unclassified"
"GCF_015240995.1_ASM1524099v1"	"39"	2	0	"repeat chromosome"	"S. enterica"	1	0	"repeat chromosome"	"TN"	1509	3.17868923977559	7	0	0	7	1	0	"chromosome"
"GCF_015241115.1_ASM1524111v1"	"15"	2	0	"repeat chromosome"	"S. enterica"	1	0	"repeat chromosome"	"TN"	6129	3.78738962135211	66	0	0	66	1	0	"chromosome"
"GCF_015241115.1_ASM1524111v1"	"18"	7	0	"repeat chromosome"	"S. enterica"	1	0	"repeat chromosome"	"TN"	2383	3.37712404234646	78	0	0	78	1	0	"chromosome"
"GCF_015241115.1_ASM1524111v1"	"20"	7	0	"repeat chromosome"	"S. enterica"	1	0	"repeat chromosome"	"TN"	1697	3.22968184231768	144	0	0	144	1	0	"chromosome"
"GCF_015241115.1_ASM1524111v1"	"21"	2	0	"repeat chromosome"	"S. enterica"	1	0	"repeat chromosome"	"TN"	1659	3.21984638602436	113	0	0	113	1	0	"chromosome"
"GCF_015241115.1_ASM1524111v1"	"22"	1	1	"ambiguous"	"S. enterica"	1	0	"repeat chromosome"	"FN"	1029	3.01241537476243	37	0	0	37	1	0	"chromosome"
"GCF_016025375.1_ASM1602537v1"	"13"	1	0	"chromosome"	"S. enterica"	1	0	"repeat chromosome"	"TN"	83688	4.92266318908758	1	0	0	1	1	0	"chromosome"
"GCF_016025375.1_ASM1602537v1"	"20"	2	0	"repeat chromosome"	"S. enterica"	1	0	"repeat chromosome"	"TN"	5688	3.75495958772171	1	0	0	1	1	0	"chromosome"
"GCF_016025375.1_ASM1602537v1"	"23"	1	0	"chromosome"	"S. enterica"	1	0	"repeat chromosome"	"TN"	3206	3.50596351801813	39	0	0	39	1	0	"chromosome"
"GCF_016025375.1_ASM1602537v1"	"25"	7	0	"repeat chromosome"	"S. enterica"	1	0	"repeat chromosome"	"TN"	1749	3.24278980947868	27	0	0	27	1	0	"chromosome"
"GCF_016025375.1_ASM1602537v1"	"26"	7	0	"repeat chromosome"	"S. enterica"	1	0	"repeat chromosome"	"TN"	1678	3.22479195649268	2	0	0	2	1	0	"chromosome"
"GCF_016025415.1_ASM1602541v1"	"40"	2	0	"repeat chromosome"	"S. enterica"	1	0	"repeat chromosome"	"TN"	6011	3.77894672796862	68	0	0	68	1	0	"chromosome"
"GCF_016025415.1_ASM1602541v1"	"46"	2	0	"repeat chromosome"	"S. enterica"	1	0	"repeat chromosome"	"TN"	4022	3.60444206626072	97	0	0	97	1	0	"chromosome"
"GCF_016025415.1_ASM1602541v1"	"50"	2	0	"repeat chromosome"	"S. enterica"	1	0	"repeat chromosome"	"TN"	3121	3.49429376866533	1	0	0	1	1	0	"chromosome"
"GCF_016025415.1_ASM1602541v1"	"54"	1	1	"ambiguous"	"S. enterica"	1	1	"ambiguous"	"TP"	2595	3.41413736218448	2	9	0	11	0.18	0.82	"plasmid"
"GCF_016025415.1_ASM1602541v1"	"55"	2	0	"repeat chromosome"	"S. enterica"	1	0	"repeat chromosome"	"TN"	2563	3.40874860618424	2	0	0	2	1	0	"chromosome"
"GCF_016025415.1_ASM1602541v1"	"58"	1	1	"ambiguous"	"S. enterica"	1	1	"ambiguous"	"TP"	2027	3.30685374869301	5	11	0	16	0.31	0.69	"unclassified"
"GCF_016025415.1_ASM1602541v1"	"61"	7	0	"repeat chromosome"	"S. enterica"	1	0	"repeat chromosome"	"TN"	1700	3.23044892137827	113	0	0	113	1	0	"chromosome"
"GCF_016025415.1_ASM1602541v1"	"62"	7	0	"repeat chromosome"	"S. enterica"	1	0	"repeat chromosome"	"TN"	1569	3.19562294358694	163	0	0	163	1	0	"chromosome"
"GCF_016025415.1_ASM1602541v1"	"64"	1	0	"chromosome"	"S. enterica"	1	0	"repeat chromosome"	"TN"	1207	3.08170727009735	185	0	0	185	1	0	"chromosome"
"GCF_016025415.1_ASM1602541v1"	"65"	2	0	"repeat chromosome"	"S. enterica"	1	0	"repeat chromosome"	"TN"	1204	3.08062648692181	1	0	0	1	1	0	"chromosome"
"GCF_016025415.1_ASM1602541v1"	"66"	0	2	"repeat plasmid"	"S. enterica"	0	1	"repeat plasmid"	"TP"	1202	3.07990446766672	0	3	0	3	0	1	"plasmid"
"GCF_016025415.1_ASM1602541v1"	"73"	0	2	"repeat plasmid"	"S. enterica"	0	1	"repeat plasmid"	"TP"	1043	3.01828430842653	9	46	0	55	0.16	0.84	"plasmid"
"GCF_016026715.1_ASM1602671v1"	"19"	1	0	"chromosome"	"S. enterica"	1	0	"repeat chromosome"	"TN"	44909	4.6523333846259	9	0	0	9	1	0	"chromosome"
"GCF_016026715.1_ASM1602671v1"	"26"	2	0	"repeat chromosome"	"S. enterica"	1	0	"repeat chromosome"	"TN"	6011	3.77894672796862	1	0	0	1	1	0	"chromosome"
"GCF_016026715.1_ASM1602671v1"	"28"	2	0	"repeat chromosome"	"S. enterica"	1	0	"repeat chromosome"	"TN"	5366	3.72965066833592	11	0	0	11	1	0	"chromosome"
"GCF_016026715.1_ASM1602671v1"	"34"	2	0	"repeat chromosome"	"S. enterica"	1	0	"repeat chromosome"	"TN"	2605	3.41580772763554	1	0	0	1	1	0	"chromosome"
"GCF_016026715.1_ASM1602671v1"	"35"	2	0	"repeat chromosome"	"S. enterica"	1	0	"repeat chromosome"	"TN"	1810	3.25767857486918	42	0	0	42	1	0	"chromosome"
"GCF_016026715.1_ASM1602671v1"	"36"	2	0	"repeat chromosome"	"S. enterica"	1	0	"repeat chromosome"	"TN"	1746	3.24204423936955	112	0	0	112	1	0	"chromosome"
"GCF_016026715.1_ASM1602671v1"	"38"	7	0	"repeat chromosome"	"S. enterica"	1	0	"repeat chromosome"	"TN"	1700	3.23044892137827	113	0	0	113	1	0	"chromosome"
"GCF_016026715.1_ASM1602671v1"	"39"	7	0	"repeat chromosome"	"S. enterica"	1	0	"repeat chromosome"	"TN"	1569	3.19562294358694	139	1	0	140	0.99	0.01	"chromosome"
"GCF_016026715.1_ASM1602671v1"	"40"	2	0	"repeat chromosome"	"S. enterica"	1	0	"repeat chromosome"	"TN"	1192	3.07627625540422	15	0	0	15	1	0	"chromosome"
"GCF_016028495.1_ASM1602849v1"	"20"	1	0	"chromosome"	"S. enterica"	1	0	"repeat chromosome"	"TN"	44910	4.65234305506271	9	0	0	9	1	0	"chromosome"
"GCF_016028495.1_ASM1602849v1"	"27"	2	0	"repeat chromosome"	"S. enterica"	1	0	"repeat chromosome"	"TN"	17414	4.24089854012349	4	0	0	4	1	0	"chromosome"
"GCF_016028495.1_ASM1602849v1"	"28"	2	0	"repeat chromosome"	"S. enterica"	1	0	"repeat chromosome"	"TN"	6011	3.77894672796862	1	0	0	1	1	0	"chromosome"
"GCF_016028495.1_ASM1602849v1"	"30"	2	0	"repeat chromosome"	"S. enterica"	1	0	"repeat chromosome"	"TN"	5366	3.72965066833592	11	0	0	11	1	0	"chromosome"
"GCF_016028495.1_ASM1602849v1"	"35"	2	0	"repeat chromosome"	"S. enterica"	1	0	"repeat chromosome"	"TN"	2605	3.41580772763554	9	0	0	9	1	0	"chromosome"
"GCF_016028495.1_ASM1602849v1"	"36"	2	0	"repeat chromosome"	"S. enterica"	1	0	"repeat chromosome"	"TN"	1810	3.25767857486918	42	0	0	42	1	0	"chromosome"
"GCF_016028495.1_ASM1602849v1"	"37"	2	0	"repeat chromosome"	"S. enterica"	1	0	"repeat chromosome"	"TN"	1746	3.24204423936955	111	0	0	111	1	0	"chromosome"
"GCF_016028495.1_ASM1602849v1"	"39"	7	0	"repeat chromosome"	"S. enterica"	1	0	"repeat chromosome"	"TN"	1700	3.23044892137827	113	0	0	113	1	0	"chromosome"
"GCF_016028495.1_ASM1602849v1"	"40"	7	0	"repeat chromosome"	"S. enterica"	1	0	"repeat chromosome"	"TN"	1569	3.19562294358694	139	1	0	140	0.99	0.01	"chromosome"
"GCF_016028495.1_ASM1602849v1"	"41"	2	0	"repeat chromosome"	"S. enterica"	1	0	"repeat chromosome"	"TN"	1192	3.07627625540422	3	0	0	3	1	0	"chromosome"
"GCF_016127435.1_ASM1612743v1"	"22"	0	1	"plasmid"	"S. enterica"	0	1	"repeat plasmid"	"TP"	41868	4.62188221549574	0	6	0	6	0	1	"plasmid"
"GCF_016127435.1_ASM1612743v1"	"33"	2	0	"repeat chromosome"	"S. enterica"	1	0	"repeat chromosome"	"TN"	6086	3.78433194802215	48	0	0	48	1	0	"chromosome"
"GCF_016127435.1_ASM1612743v1"	"40"	2	0	"repeat chromosome"	"S. enterica"	1	0	"repeat chromosome"	"TN"	2552	3.40688067004912	4	0	0	4	1	0	"chromosome"
"GCF_016127435.1_ASM1612743v1"	"42"	2	0	"repeat chromosome"	"S. enterica"	1	0	"repeat chromosome"	"TN"	1833	3.26316246496222	52	0	0	52	1	0	"chromosome"
"GCF_016127435.1_ASM1612743v1"	"44"	7	0	"repeat chromosome"	"S. enterica"	1	0	"repeat chromosome"	"TN"	1700	3.23044892137827	106	0	0	106	1	0	"chromosome"
"GCF_016127435.1_ASM1612743v1"	"45"	7	0	"repeat chromosome"	"S. enterica"	1	0	"repeat chromosome"	"TN"	1627	3.21138755293686	96	0	0	96	1	0	"chromosome"
"GCF_016127435.1_ASM1612743v1"	"47"	2	0	"repeat chromosome"	"S. enterica"	1	0	"repeat chromosome"	"TN"	1192	3.07627625540422	3	0	0	3	1	0	"chromosome"
"GCF_016127835.1_ASM1612783v1"	"17"	2	0	"repeat chromosome"	"S. enterica"	1	0	"repeat chromosome"	"TN"	6086	3.78433194802215	44	0	0	44	1	0	"chromosome"
"GCF_016127835.1_ASM1612783v1"	"21"	7	0	"repeat chromosome"	"S. enterica"	1	0	"repeat chromosome"	"TN"	2289	3.35964579267454	141	0	0	141	1	0	"chromosome"
"GCF_016127835.1_ASM1612783v1"	"24"	7	0	"repeat chromosome"	"S. enterica"	1	0	"repeat chromosome"	"TN"	1697	3.22968184231768	142	0	0	142	1	0	"chromosome"
"GCF_016127835.1_ASM1612783v1"	"25"	2	0	"repeat chromosome"	"S. enterica"	1	0	"repeat chromosome"	"TN"	1509	3.17868923977559	119	0	0	119	1	0	"chromosome"
"GCF_016452045.1_ASM1645204v1"	"16"	2	0	"repeat chromosome"	"S. enterica"	1	0	"repeat chromosome"	"TN"	4225	3.62582671328571	1	0	0	1	1	0	"chromosome"
"GCF_016452045.1_ASM1645204v1"	"20"	7	0	"repeat chromosome"	"S. enterica"	1	0	"repeat chromosome"	"TN"	1753	3.24378191609379	1	0	0	1	1	0	"chromosome"
"GCF_016452065.1_ASM1645206v1"	"11"	0	1	"plasmid"	"S. enterica"	0	1	"repeat plasmid"	"TP"	63490	4.80270532707435	0	1	0	1	0	1	"plasmid"
"GCF_016452065.1_ASM1645206v1"	"23"	0	2	"repeat plasmid"	"S. enterica"	0	1	"repeat plasmid"	"TP"	10487	4.02065126800434	0	21	0	21	0	1	"plasmid"
"GCF_016452065.1_ASM1645206v1"	"26"	2	0	"repeat chromosome"	"S. enterica"	1	0	"repeat chromosome"	"TN"	6271	3.79733680077535	16	0	0	16	1	0	"chromosome"
"GCF_016452065.1_ASM1645206v1"	"30"	0	2	"repeat plasmid"	"S. enterica"	0	1	"repeat plasmid"	"TP"	3295	3.51785541893003	0	3	0	3	0	1	"plasmid"
"GCF_016452065.1_ASM1645206v1"	"33"	2	0	"repeat chromosome"	"S. enterica"	1	0	"repeat chromosome"	"TN"	2552	3.40688067004912	1	0	0	1	1	0	"chromosome"
"GCF_016452065.1_ASM1645206v1"	"34"	0	2	"repeat plasmid"	"S. enterica"	0	1	"repeat plasmid"	"TP"	2240	3.35024801833416	20	9	0	29	0.69	0.31	"unclassified"
"GCF_016452065.1_ASM1645206v1"	"38"	2	0	"repeat chromosome"	"S. enterica"	1	0	"repeat chromosome"	"TN"	1746	3.24204423936955	53	0	0	53	1	0	"chromosome"
"GCF_016452065.1_ASM1645206v1"	"40"	7	0	"repeat chromosome"	"S. enterica"	1	0	"repeat chromosome"	"TN"	1452	3.16196661636407	20	0	0	20	1	0	"chromosome"
"GCF_016452065.1_ASM1645206v1"	"41"	7	0	"repeat chromosome"	"S. enterica"	1	0	"repeat chromosome"	"TN"	1274	3.10516942799933	116	0	0	116	1	0	"chromosome"
"GCF_016452065.1_ASM1645206v1"	"42"	2	0	"repeat chromosome"	"S. enterica"	1	0	"repeat chromosome"	"TN"	1192	3.07627625540422	137	0	0	137	1	0	"chromosome"
"GCF_016452065.1_ASM1645206v1"	"43"	7	0	"repeat chromosome"	"S. enterica"	1	0	"repeat chromosome"	"TN"	1191	3.07591176148278	157	0	0	157	1	0	"chromosome"
"GCF_016452065.1_ASM1645206v1"	"44"	0	2	"repeat plasmid"	"S. enterica"	0	1	"repeat plasmid"	"TP"	1140	3.05690485133647	18	79	0	97	0.19	0.81	"plasmid"
"GCF_016454165.1_ASM1645416v1"	"29"	1	0	"chromosome"	"S. enterica"	1	0	"repeat chromosome"	"TN"	3449	3.53769319436739	1	0	0	1	1	0	"chromosome"
"GCF_016454165.1_ASM1645416v1"	"31"	0	2	"repeat plasmid"	"S. enterica"	0	1	"repeat plasmid"	"TP"	2456	3.39022836246913	0	2	0	2	0	1	"plasmid"
"GCF_016454165.1_ASM1645416v1"	"33"	2	0	"repeat chromosome"	"S. enterica"	1	0	"repeat chromosome"	"TN"	1974	3.29534714833362	1	0	0	1	1	0	"chromosome"
"GCF_016454165.1_ASM1645416v1"	"34"	2	0	"repeat chromosome"	"S. enterica"	1	0	"repeat chromosome"	"TN"	1895	3.27760921430409	1	0	0	1	1	0	"chromosome"
"GCF_016454165.1_ASM1645416v1"	"35"	7	0	"repeat chromosome"	"S. enterica"	1	0	"repeat chromosome"	"TN"	1523	3.18269990333604	137	1	0	138	0.99	0.01	"chromosome"
"GCF_016454165.1_ASM1645416v1"	"36"	2	0	"repeat chromosome"	"S. enterica"	1	0	"repeat chromosome"	"TN"	1355	3.13193929521042	1	0	0	1	1	0	"chromosome"
"GCF_016454165.1_ASM1645416v1"	"37"	3	0	"repeat chromosome"	"S. enterica"	1	0	"repeat chromosome"	"TN"	1312	3.11793383503964	1	0	0	1	1	0	"chromosome"
"GCF_016454165.1_ASM1645416v1"	"38"	5	0	"repeat chromosome"	"S. enterica"	1	0	"repeat chromosome"	"TN"	1279	3.10687054447865	119	0	0	119	1	0	"chromosome"
"GCF_016454165.1_ASM1645416v1"	"39"	1	1	"ambiguous"	"S. enterica"	1	1	"ambiguous"	"TP"	1045	3.01911629044707	64	16	0	80	0.8	0.2	"chromosome"
"GCF_016454165.1_ASM1645416v1"	"40"	2	0	"repeat chromosome"	"S. enterica"	1	0	"repeat chromosome"	"TN"	1019	3.00817418400643	3	0	0	3	1	0	"chromosome"
"GCF_016454185.1_ASM1645418v1"	"52"	2	0	"repeat chromosome"	"S. enterica"	1	0	"repeat chromosome"	"TN"	5684	3.75465406925543	2	0	0	2	1	0	"chromosome"
"GCF_016454185.1_ASM1645418v1"	"57"	7	0	"repeat chromosome"	"S. enterica"	1	0	"repeat chromosome"	"TN"	1457	3.16345955176999	3	0	0	3	1	0	"chromosome"
"GCF_016454185.1_ASM1645418v1"	"59"	35	0	"repeat chromosome"	"S. enterica"	1	1	"ambiguous"	"FP"	1208	3.08206693428511	40	28	0	68	0.59	0.41	"unclassified"
"GCF_016454185.1_ASM1645418v1"	"60"	2	0	"repeat chromosome"	"S. enterica"	1	0	"repeat chromosome"	"TN"	1207	3.08170727009735	4	0	0	4	1	0	"chromosome"
"GCF_016454185.1_ASM1645418v1"	"61"	2	0	"repeat chromosome"	"S. enterica"	1	0	"repeat chromosome"	"TN"	1043	3.01828430842653	13	0	0	13	1	0	"chromosome"
"GCF_016454225.1_ASM1645422v1"	"27"	4	0	"repeat chromosome"	"S. enterica"	1	0	"repeat chromosome"	"TN"	8413	3.92495088891561	1	0	0	1	1	0	"chromosome"
"GCF_016454225.1_ASM1645422v1"	"28"	2	0	"repeat chromosome"	"S. enterica"	1	0	"repeat chromosome"	"TN"	7328	3.86498546065979	1	0	0	1	1	0	"chromosome"
"GCF_016454225.1_ASM1645422v1"	"29"	2	0	"repeat chromosome"	"S. enterica"	1	0	"repeat chromosome"	"TN"	5966	3.77568324902604	2	0	0	2	1	0	"chromosome"
"GCF_016454225.1_ASM1645422v1"	"32"	3	0	"repeat chromosome"	"S. enterica"	1	0	"repeat chromosome"	"TN"	2842	3.45362407359145	1	0	0	1	1	0	"chromosome"
"GCF_016454225.1_ASM1645422v1"	"35"	7	0	"repeat chromosome"	"S. enterica"	1	0	"repeat chromosome"	"TN"	1700	3.23044892137827	144	0	0	144	1	0	"chromosome"
"GCF_016454225.1_ASM1645422v1"	"37"	1	0	"chromosome"	"S. enterica"	1	0	"repeat chromosome"	"TN"	1342	3.12775251583297	3	0	0	3	1	0	"chromosome"
"GCF_016454225.1_ASM1645422v1"	"38"	2	0	"repeat chromosome"	"S. enterica"	1	0	"repeat chromosome"	"TN"	1256	3.09898963940118	3	0	0	3	1	0	"chromosome"
"GCF_016454225.1_ASM1645422v1"	"41"	7	0	"repeat chromosome"	"S. enterica"	1	0	"repeat chromosome"	"TN"	1079	3.03302144468291	307	0	0	307	1	0	"chromosome"
"GCF_016454225.1_ASM1645422v1"	"42"	1	1	"ambiguous"	"S. enterica"	1	0	"repeat chromosome"	"FN"	1058	3.02448566769917	5	1	0	6	0.83	0.17	"chromosome"
"GCF_016454225.1_ASM1645422v1"	"43"	2	0	"repeat chromosome"	"S. enterica"	1	0	"repeat chromosome"	"TN"	1025	3.01072386539177	3	0	0	3	1	0	"chromosome"
"GCF_016454265.1_ASM1645426v1"	"33"	2	0	"repeat chromosome"	"S. enterica"	1	0	"repeat chromosome"	"TN"	6200	3.79239168949825	18	0	0	18	1	0	"chromosome"
"GCF_016454265.1_ASM1645426v1"	"41"	1	2	"ambiguous"	"S. enterica"	1	1	"ambiguous"	"TP"	1954	3.29092455938275	0	1	0	1	0	1	"plasmid"
"GCF_016454265.1_ASM1645426v1"	"43"	0	2	"repeat plasmid"	"S. enterica"	0	1	"repeat plasmid"	"TP"	1710	3.23299611039215	6	74	0	80	0.08	0.92	"plasmid"
"GCF_016454265.1_ASM1645426v1"	"44"	8	0	"repeat chromosome"	"S. enterica"	1	0	"repeat chromosome"	"TN"	1700	3.23044892137827	215	0	0	215	1	0	"chromosome"
"GCF_016454265.1_ASM1645426v1"	"45"	0	2	"repeat plasmid"	"S. enterica"	0	1	"repeat plasmid"	"TP"	1535	3.18610837981321	0	1	0	1	0	1	"plasmid"
"GCF_016454265.1_ASM1645426v1"	"48"	2	0	"repeat chromosome"	"S. enterica"	1	0	"repeat chromosome"	"TN"	1108	3.04453976039241	19	0	0	19	1	0	"chromosome"
"GCF_016454305.1_ASM1645430v1"	"35"	2	0	"repeat chromosome"	"S. enterica"	1	0	"repeat chromosome"	"TN"	6303	3.79954730712562	1	0	0	1	1	0	"chromosome"
"GCF_016454305.1_ASM1645430v1"	"42"	2	0	"repeat chromosome"	"S. enterica"	1	0	"repeat chromosome"	"TN"	2734	3.4367985102318	1	0	0	1	1	0	"chromosome"
"GCF_016454305.1_ASM1645430v1"	"45"	1	0	"chromosome"	"S. enterica"	1	0	"repeat chromosome"	"TN"	2115	3.32531037171106	1	0	0	1	1	0	"chromosome"
"GCF_016454305.1_ASM1645430v1"	"46"	1	1	"ambiguous"	"S. enterica"	1	1	"ambiguous"	"TP"	1981	3.29688447553855	0	0	1	1	0.5	0.5	"unclassified"
"GCF_016454305.1_ASM1645430v1"	"47"	7	0	"repeat chromosome"	"S. enterica"	1	0	"repeat chromosome"	"TN"	1702	3.23095955574857	1	0	0	1	1	0	"chromosome"
"GCF_016454305.1_ASM1645430v1"	"48"	7	0	"repeat chromosome"	"S. enterica"	1	0	"repeat chromosome"	"TN"	1686	3.22685757028872	3	0	0	3	1	0	"chromosome"
"GCF_016454305.1_ASM1645430v1"	"50"	3	0	"repeat chromosome"	"S. enterica"	1	0	"repeat chromosome"	"TN"	1314	3.11859536522376	1	0	0	1	1	0	"chromosome"
"GCF_016454305.1_ASM1645430v1"	"53"	2	0	"repeat chromosome"	"S. enterica"	1	0	"repeat chromosome"	"TN"	1072	3.03019478535675	2	0	0	2	1	0	"chromosome"
"GCF_016454345.1_ASM1645434v1"	"21"	0	2	"repeat plasmid"	"S. enterica"	0	1	"repeat plasmid"	"TP"	10487	4.02065126800434	0	21	0	21	0	1	"plasmid"
"GCF_016454345.1_ASM1645434v1"	"23"	2	0	"repeat chromosome"	"S. enterica"	1	0	"repeat chromosome"	"TN"	6271	3.79733680077535	16	0	0	16	1	0	"chromosome"
"GCF_016454345.1_ASM1645434v1"	"29"	2	0	"repeat chromosome"	"S. enterica"	1	0	"repeat chromosome"	"TN"	2552	3.40688067004912	4	0	0	4	1	0	"chromosome"
"GCF_016454345.1_ASM1645434v1"	"33"	2	0	"repeat chromosome"	"S. enterica"	1	0	"repeat chromosome"	"TN"	1746	3.24204423936955	53	0	0	53	1	0	"chromosome"
"GCF_016454345.1_ASM1645434v1"	"34"	6	2	"ambiguous"	"S. enterica"	1	0	"repeat chromosome"	"FN"	1623	3.21031851982623	18	0	0	18	1	0	"chromosome"
"GCF_016454345.1_ASM1645434v1"	"35"	6	2	"ambiguous"	"S. enterica"	1	0	"repeat chromosome"	"FN"	1274	3.10516942799933	116	0	0	116	1	0	"chromosome"
"GCF_016454345.1_ASM1645434v1"	"36"	2	0	"repeat chromosome"	"S. enterica"	1	0	"repeat chromosome"	"TN"	1192	3.07627625540422	3	0	0	3	1	0	"chromosome"
"GCF_016454345.1_ASM1645434v1"	"37"	6	2	"ambiguous"	"S. enterica"	1	0	"repeat chromosome"	"FN"	1191	3.07591176148278	157	0	0	157	1	0	"chromosome"
"GCF_016454345.1_ASM1645434v1"	"38"	0	2	"repeat plasmid"	"S. enterica"	0	1	"repeat plasmid"	"TP"	1140	3.05690485133647	18	79	0	97	0.19	0.81	"plasmid"
"GCF_016454385.1_ASM1645438v1"	"16"	0	1	"plasmid"	"S. enterica"	0	1	"repeat plasmid"	"TP"	85248	4.93068419881817	0	1	0	1	0	1	"plasmid"
"GCF_016454385.1_ASM1645438v1"	"23"	1	0	"chromosome"	"S. enterica"	1	0	"repeat chromosome"	"TN"	37815	4.57766410473213	3	0	0	3	1	0	"chromosome"
"GCF_016454385.1_ASM1645438v1"	"26"	0	1	"plasmid"	"S. enterica"	0	1	"repeat plasmid"	"TP"	19729	4.29510507280981	0	1	0	1	0	1	"plasmid"
"GCF_016454385.1_ASM1645438v1"	"31"	2	0	"repeat chromosome"	"S. enterica"	1	0	"repeat chromosome"	"TN"	6200	3.79239168949825	18	0	0	18	1	0	"chromosome"
"GCF_016454385.1_ASM1645438v1"	"37"	0	2	"repeat plasmid"	"S. enterica"	0	1	"repeat plasmid"	"TP"	2437	3.38685552918472	0	1	0	1	0	1	"plasmid"
"GCF_016454385.1_ASM1645438v1"	"38"	7	0	"repeat chromosome"	"S. enterica"	1	0	"repeat chromosome"	"TN"	1614	3.20790353038605	6	0	0	6	1	0	"chromosome"
"GCF_016454385.1_ASM1645438v1"	"39"	0	2	"repeat plasmid"	"S. enterica"	0	1	"repeat plasmid"	"TP"	1535	3.18610837981321	0	1	0	1	0	1	"plasmid"
"GCF_016454425.1_ASM1645442v1"	"25"	1	0	"chromosome"	"S. enterica"	1	0	"repeat chromosome"	"TN"	48415	4.68497993618928	7	0	0	7	1	0	"chromosome"
"GCF_016454425.1_ASM1645442v1"	"31"	2	0	"repeat chromosome"	"S. enterica"	1	0	"repeat chromosome"	"TN"	8745	3.9417598138147	1	0	0	1	1	0	"chromosome"
"GCF_016454425.1_ASM1645442v1"	"33"	2	0	"repeat chromosome"	"S. enterica"	1	0	"repeat chromosome"	"TN"	5852	3.76730431745327	3	0	0	3	1	0	"chromosome"
"GCF_016454425.1_ASM1645442v1"	"49"	6	0	"repeat chromosome"	"S. enterica"	1	0	"repeat chromosome"	"TN"	1703	3.2312146479626	79	0	0	79	1	0	"chromosome"
"GCF_016454425.1_ASM1645442v1"	"52"	3	0	"repeat chromosome"	"S. enterica"	1	0	"repeat chromosome"	"TN"	1384	3.14113609012074	1	1	0	2	0.5	0.5	"unclassified"
"GCF_016454425.1_ASM1645442v1"	"53"	0	6	"repeat plasmid"	"S. enterica"	0	1	"repeat plasmid"	"TP"	1327	3.12287092286444	3	1	0	4	0.75	0.25	"chromosome"
"GCF_016454425.1_ASM1645442v1"	"54"	2	0	"repeat chromosome"	"S. enterica"	1	0	"repeat chromosome"	"TN"	1265	3.10209052551184	10	0	0	10	1	0	"chromosome"
"GCF_016454425.1_ASM1645442v1"	"55"	3	0	"repeat chromosome"	"S. enterica"	1	0	"repeat chromosome"	"TN"	1203	3.08026562733984	0	1	0	1	0	1	"plasmid"
"GCF_016454445.1_ASM1645444v1"	"42"	0	1	"plasmid"	"S. enterica"	0	1	"repeat plasmid"	"TP"	12911	4.11095988112488	1	0	0	1	1	0	"chromosome"
"GCF_016454445.1_ASM1645444v1"	"45"	0	1	"plasmid"	"S. enterica"	0	1	"repeat plasmid"	"TP"	10492	4.02085828191832	0	6	0	6	0	1	"plasmid"
"GCF_016454445.1_ASM1645444v1"	"49"	2	0	"repeat chromosome"	"S. enterica"	1	0	"repeat chromosome"	"TN"	5408	3.73303668293358	103	0	0	103	1	0	"chromosome"
"GCF_016454445.1_ASM1645444v1"	"54"	2	0	"repeat chromosome"	"S. enterica"	1	0	"repeat chromosome"	"TN"	2605	3.41580772763554	1	0	0	1	1	0	"chromosome"
"GCF_016454445.1_ASM1645444v1"	"55"	0	2	"repeat plasmid"	"S. enterica"	0	1	"repeat plasmid"	"TP"	2579	3.41145134213794	1	36	0	37	0.03	0.97	"plasmid"
"GCF_016454445.1_ASM1645444v1"	"56"	0	1	"plasmid"	"S. enterica"	0	1	"repeat plasmid"	"TP"	2483	3.39497671955456	1	1	0	2	0.5	0.5	"unclassified"
"GCF_016454445.1_ASM1645444v1"	"59"	2	0	"repeat chromosome"	"S. enterica"	1	0	"repeat chromosome"	"TN"	1886	3.27554168840131	36	0	0	36	1	0	"chromosome"
"GCF_016454445.1_ASM1645444v1"	"60"	2	0	"repeat chromosome"	"S. enterica"	1	0	"repeat chromosome"	"TN"	1746	3.24204423936955	1	0	0	1	1	0	"chromosome"
"GCF_016454445.1_ASM1645444v1"	"61"	1	2	"ambiguous"	"S. enterica"	0	1	"repeat plasmid"	"TP"	1713	3.23375736296551	0	4	0	4	0	1	"plasmid"
"GCF_016454445.1_ASM1645444v1"	"62"	7	0	"repeat chromosome"	"S. enterica"	1	0	"repeat chromosome"	"TN"	1700	3.23044892137827	144	0	0	144	1	0	"chromosome"
"GCF_016454445.1_ASM1645444v1"	"64"	7	0	"repeat chromosome"	"S. enterica"	1	0	"repeat chromosome"	"TN"	1610	3.20682587603185	142	0	0	142	1	0	"chromosome"
"GCF_016454445.1_ASM1645444v1"	"65"	2	0	"repeat chromosome"	"S. enterica"	1	0	"repeat chromosome"	"TN"	1310	3.11727129565576	255	0	0	255	1	0	"chromosome"
"GCF_016454445.1_ASM1645444v1"	"66"	0	3	"repeat plasmid"	"S. enterica"	0	1	"repeat plasmid"	"TP"	1140	3.05690485133647	18	79	0	97	0.19	0.81	"plasmid"
"GCF_016454465.1_ASM1645446v1"	"31"	1	0	"chromosome"	"S. enterica"	1	0	"repeat chromosome"	"TN"	21137	4.3250433474037	1	0	0	1	1	0	"chromosome"
"GCF_016454465.1_ASM1645446v1"	"39"	2	0	"repeat chromosome"	"S. enterica"	1	0	"repeat chromosome"	"TN"	4103	3.61310151696691	1	0	0	1	1	0	"chromosome"
"GCF_016454465.1_ASM1645446v1"	"40"	2	0	"repeat chromosome"	"S. enterica"	1	0	"repeat chromosome"	"TN"	1910	3.28103336724773	2	0	0	2	1	0	"chromosome"
"GCF_016454465.1_ASM1645446v1"	"41"	7	0	"repeat chromosome"	"S. enterica"	1	0	"repeat chromosome"	"TN"	1734	3.23904909314019	25	0	0	25	1	0	"chromosome"
"GCF_016454465.1_ASM1645446v1"	"42"	6	0	"repeat chromosome"	"S. enterica"	1	0	"repeat chromosome"	"TN"	1640	3.2148438480477	3	0	0	3	1	0	"chromosome"
"GCF_016454465.1_ASM1645446v1"	"43"	7	0	"repeat chromosome"	"S. enterica"	1	0	"repeat chromosome"	"TN"	1191	3.07591176148278	11	0	0	11	1	0	"chromosome"
"GCF_016454505.1_ASM1645450v1"	"20"	2	0	"repeat chromosome"	"S. enterica"	1	0	"repeat chromosome"	"TN"	5372	3.73013600399668	4	0	0	4	1	0	"chromosome"
"GCF_016454505.1_ASM1645450v1"	"23"	2	0	"repeat chromosome"	"S. enterica"	1	0	"repeat chromosome"	"TN"	1938	3.28735377271475	11	0	0	11	1	0	"chromosome"
"GCF_016454505.1_ASM1645450v1"	"24"	7	0	"repeat chromosome"	"S. enterica"	1	0	"repeat chromosome"	"TN"	1700	3.23044892137827	46	0	0	46	1	0	"chromosome"
"GCF_016454525.1_ASM1645452v1"	"37"	1	0	"chromosome"	"S. enterica"	1	0	"repeat chromosome"	"TN"	15738	4.196949540974	1	0	0	1	1	0	"chromosome"
"GCF_016454525.1_ASM1645452v1"	"44"	1	0	"chromosome"	"S. enterica"	1	0	"repeat chromosome"	"TN"	5710	3.75663610824585	1	0	0	1	1	0	"chromosome"
"GCF_016454525.1_ASM1645452v1"	"48"	2	0	"repeat chromosome"	"S. enterica"	1	0	"repeat chromosome"	"TN"	4793	3.68060742899179	4	0	0	4	1	0	"chromosome"
"GCF_016454525.1_ASM1645452v1"	"49"	1	0	"chromosome"	"S. enterica"	1	0	"repeat chromosome"	"TN"	4764	3.67797175281074	3	0	0	3	1	0	"chromosome"
"GCF_016454525.1_ASM1645452v1"	"50"	2	0	"repeat chromosome"	"S. enterica"	1	0	"repeat chromosome"	"TN"	4225	3.62582671328571	1	0	0	1	1	0	"chromosome"
"GCF_016454525.1_ASM1645452v1"	"56"	5	0	"repeat chromosome"	"S. enterica"	1	0	"repeat chromosome"	"TN"	1753	3.24378191609379	1	0	0	1	1	0	"chromosome"
"GCF_016454525.1_ASM1645452v1"	"58"	0	2	"repeat plasmid"	"S. enterica"	0	1	"repeat plasmid"	"TP"	1338	3.1264561134318	1	33	0	34	0.03	0.97	"plasmid"
"GCF_016454525.1_ASM1645452v1"	"59"	0	2	"repeat plasmid"	"S. enterica"	1	1	"ambiguous"	"TP"	1331	3.12417805547468	5	12	0	17	0.29	0.71	"plasmid"
"GCF_016454525.1_ASM1645452v1"	"60"	1	0	"chromosome"	"S. enterica"	1	0	"repeat chromosome"	"TN"	1318	3.11991541025799	1	0	0	1	1	0	"chromosome"
"GCF_016454525.1_ASM1645452v1"	"61"	6	0	"repeat chromosome"	"S. enterica"	1	0	"repeat chromosome"	"TN"	1270	3.10380372095596	40	28	0	68	0.59	0.41	"unclassified"
"GCF_016454545.1_ASM1645454v1"	"28"	1	0	"chromosome"	"S. enterica"	1	0	"repeat chromosome"	"TN"	27612	4.44109786471627	1	0	0	1	1	0	"chromosome"
"GCF_016454545.1_ASM1645454v1"	"34"	1	0	"chromosome"	"S. enterica"	1	0	"repeat chromosome"	"TN"	5903	3.77107278322119	1	0	0	1	1	0	"chromosome"
"GCF_016454545.1_ASM1645454v1"	"37"	2	0	"repeat chromosome"	"S. enterica"	1	0	"repeat chromosome"	"TN"	4793	3.68060742899179	4	0	0	4	1	0	"chromosome"
"GCF_016454545.1_ASM1645454v1"	"38"	1	0	"chromosome"	"S. enterica"	1	0	"repeat chromosome"	"TN"	4764	3.67797175281074	3	0	0	3	1	0	"chromosome"
"GCF_016454545.1_ASM1645454v1"	"47"	5	0	"repeat chromosome"	"S. enterica"	1	0	"repeat chromosome"	"TN"	1753	3.24378191609379	1	0	0	1	1	0	"chromosome"
"GCF_016454545.1_ASM1645454v1"	"49"	0	2	"repeat plasmid"	"S. enterica"	0	1	"repeat plasmid"	"TP"	1338	3.1264561134318	1	33	0	34	0.03	0.97	"plasmid"
"GCF_016454545.1_ASM1645454v1"	"50"	0	2	"repeat plasmid"	"S. enterica"	1	0	"repeat chromosome"	"FN"	1331	3.12417805547468	5	12	0	17	0.29	0.71	"plasmid"
"GCF_016454545.1_ASM1645454v1"	"51"	6	0	"repeat chromosome"	"S. enterica"	1	0	"repeat chromosome"	"TN"	1269	3.1034616220947	40	28	0	68	0.59	0.41	"unclassified"
"GCF_016454585.1_ASM1645458v1"	"20"	1	0	"chromosome"	"S. enterica"	1	0	"repeat chromosome"	"TN"	68699	4.83695041540536	3	0	0	3	1	0	"chromosome"
"GCF_016454585.1_ASM1645458v1"	"27"	1	0	"chromosome"	"S. enterica"	1	0	"repeat chromosome"	"TN"	40815	4.61081980083544	7	0	0	7	1	0	"chromosome"
"GCF_016454585.1_ASM1645458v1"	"36"	2	0	"repeat chromosome"	"S. enterica"	1	0	"repeat chromosome"	"TN"	4302	3.63367040605144	7	0	0	7	1	0	"chromosome"
"GCF_016454585.1_ASM1645458v1"	"38"	1	0	"chromosome"	"S. enterica"	1	0	"repeat chromosome"	"TN"	2921	3.46553155697355	4	0	0	4	1	0	"chromosome"
"GCF_016454585.1_ASM1645458v1"	"39"	2	0	"repeat chromosome"	"S. enterica"	1	0	"repeat chromosome"	"TN"	2742	3.43806745045349	4	0	0	4	1	0	"chromosome"
"GCF_016454585.1_ASM1645458v1"	"43"	7	0	"repeat chromosome"	"S. enterica"	1	0	"repeat chromosome"	"TN"	1727	3.23729233756746	34	0	0	34	1	0	"chromosome"
"GCF_016454585.1_ASM1645458v1"	"45"	6	0	"repeat chromosome"	"S. enterica"	1	0	"repeat chromosome"	"TN"	1312	3.11793383503964	20	0	0	20	1	0	"chromosome"
"GCF_016454585.1_ASM1645458v1"	"46"	2	0	"repeat chromosome"	"S. enterica"	1	0	"repeat chromosome"	"TN"	1229	3.08955188288645	14	0	0	14	1	0	"chromosome"
"GCF_016454585.1_ASM1645458v1"	"47"	4	0	"repeat chromosome"	"S. enterica"	1	0	"repeat chromosome"	"TN"	1223	3.08742645703629	21	0	0	21	1	0	"chromosome"
"GCF_016454585.1_ASM1645458v1"	"48"	1	0	"chromosome"	"S. enterica"	1	0	"repeat chromosome"	"TN"	1180	3.07188200730613	5	0	0	5	1	0	"chromosome"
"GCF_016454585.1_ASM1645458v1"	"49"	4	0	"repeat chromosome"	"S. enterica"	1	0	"repeat chromosome"	"TN"	1097	3.04020662757471	5	0	0	5	1	0	"chromosome"
"GCF_016454585.1_ASM1645458v1"	"50"	1	0	"chromosome"	"S. enterica"	1	0	"repeat chromosome"	"TN"	1028	3.01199311465926	2	0	0	2	1	0	"chromosome"
"GCF_016454645.1_ASM1645464v1"	"34"	2	0	"repeat chromosome"	"S. enterica"	1	0	"repeat chromosome"	"TN"	6200	3.79239168949825	18	0	0	18	1	0	"chromosome"
"GCF_016454645.1_ASM1645464v1"	"41"	7	0	"repeat chromosome"	"S. enterica"	1	0	"repeat chromosome"	"TN"	1614	3.20790353038605	215	0	0	215	1	0	"chromosome"
"GCF_016454645.1_ASM1645464v1"	"42"	0	2	"repeat plasmid"	"S. enterica"	0	1	"repeat plasmid"	"TP"	1535	3.18610837981321	0	1	0	1	0	1	"plasmid"
"GCF_016454645.1_ASM1645464v1"	"45"	1	1	"ambiguous"	"S. enterica"	1	1	"ambiguous"	"TP"	1056	3.02366391819779	4	10	0	14	0.29	0.71	"plasmid"
"GCF_016454665.1_ASM1645466v1"	"26"	2	0	"repeat chromosome"	"S. enterica"	1	0	"repeat chromosome"	"TN"	5852	3.76730431745327	1	0	0	1	1	0	"chromosome"
"GCF_016454665.1_ASM1645466v1"	"37"	2	0	"repeat chromosome"	"S. enterica"	1	0	"repeat chromosome"	"TN"	1833	3.26316246496222	27	24	0	51	0.53	0.47	"unclassified"
"GCF_016454665.1_ASM1645466v1"	"38"	5	0	"repeat chromosome"	"S. enterica"	1	0	"repeat chromosome"	"TN"	1701	3.23070431361257	16	0	0	16	1	0	"chromosome"
"GCF_016454665.1_ASM1645466v1"	"41"	2	0	"repeat chromosome"	"S. enterica"	1	0	"repeat chromosome"	"TN"	1352	3.13097669160562	1	0	0	1	1	0	"chromosome"
"GCF_016454665.1_ASM1645466v1"	"42"	3	0	"repeat chromosome"	"S. enterica"	1	0	"repeat chromosome"	"TN"	1331	3.12417805547468	2	1	0	3	0.67	0.33	"unclassified"
"GCF_016454665.1_ASM1645466v1"	"44"	2	0	"repeat chromosome"	"S. enterica"	1	0	"repeat chromosome"	"TN"	1265	3.10209052551184	1	0	0	1	1	0	"chromosome"
"GCF_016454765.1_ASM1645476v1"	"20"	2	0	"repeat chromosome"	"S. enterica"	1	0	"repeat chromosome"	"TN"	21159	4.32549513856426	1	0	0	1	1	0	"chromosome"
"GCF_016454765.1_ASM1645476v1"	"25"	2	0	"repeat chromosome"	"S. enterica"	1	0	"repeat chromosome"	"TN"	5299	3.72419391951433	1	0	0	1	1	0	"chromosome"
"GCF_016454765.1_ASM1645476v1"	"35"	5	0	"repeat chromosome"	"S. enterica"	1	0	"repeat chromosome"	"TN"	1718	3.23502315949522	50	0	0	50	1	0	"chromosome"
"GCF_016454765.1_ASM1645476v1"	"37"	0	2	"repeat plasmid"	"S. enterica"	1	1	"ambiguous"	"TP"	1333	3.12483014941386	60	10	0	70	0.86	0.14	"chromosome"
"GCF_016454765.1_ASM1645476v1"	"38"	1	0	"chromosome"	"S. enterica"	1	0	"repeat chromosome"	"TN"	1161	3.06483221973857	2	0	0	2	1	0	"chromosome"
"GCF_016454765.1_ASM1645476v1"	"39"	2	0	"repeat chromosome"	"S. enterica"	1	0	"repeat chromosome"	"TN"	1154	3.06220580881971	1	0	0	1	1	0	"chromosome"
"GCF_016454765.1_ASM1645476v1"	"40"	7	0	"repeat chromosome"	"S. enterica"	1	0	"repeat chromosome"	"TN"	1146	3.05918461763137	38	0	0	38	1	0	"chromosome"
"GCF_016952595.1_ASM1695259v1"	"34"	2	0	"repeat chromosome"	"S. enterica"	1	0	"repeat chromosome"	"TN"	6086	3.78433194802215	14	0	0	14	1	0	"chromosome"
"GCF_016952595.1_ASM1695259v1"	"41"	7	0	"repeat chromosome"	"S. enterica"	1	0	"repeat chromosome"	"TN"	1700	3.23044892137827	113	0	0	113	1	0	"chromosome"
"GCF_016952595.1_ASM1695259v1"	"42"	7	0	"repeat chromosome"	"S. enterica"	1	0	"repeat chromosome"	"TN"	1610	3.20682587603185	71	0	0	71	1	0	"chromosome"
"GCF_016952595.1_ASM1695259v1"	"43"	2	0	"repeat chromosome"	"S. enterica"	1	0	"repeat chromosome"	"TN"	1479	3.16996817399689	131	0	0	131	1	0	"chromosome"
"GCF_016952595.1_ASM1695259v1"	"44"	2	0	"repeat chromosome"	"S. enterica"	1	0	"repeat chromosome"	"TN"	1207	3.08170727009735	27	0	0	27	1	0	"chromosome"
"GCF_016952595.1_ASM1695259v1"	"45"	2	0	"repeat chromosome"	"S. enterica"	1	0	"repeat chromosome"	"TN"	1145	3.05880548667591	24	0	0	24	1	0	"chromosome"
"GCF_018340585.1_ASM1834058v1"	"16"	2	0	"repeat chromosome"	"S. enterica"	1	0	"repeat chromosome"	"TN"	5684	3.75465406925543	2	0	0	2	1	0	"chromosome"
"GCF_018340585.1_ASM1834058v1"	"22"	7	0	"repeat chromosome"	"S. enterica"	1	0	"repeat chromosome"	"TN"	1719	3.23527587668705	35	0	0	35	1	0	"chromosome"
"GCF_018340585.1_ASM1834058v1"	"23"	7	0	"repeat chromosome"	"S. enterica"	1	0	"repeat chromosome"	"TN"	1457	3.16345955176999	39	0	0	39	1	0	"chromosome"
"GCF_018340585.1_ASM1834058v1"	"26"	2	0	"repeat chromosome"	"S. enterica"	1	0	"repeat chromosome"	"TN"	1207	3.08170727009735	4	0	0	4	1	0	"chromosome"
"GCF_018340585.1_ASM1834058v1"	"27"	2	0	"repeat chromosome"	"S. enterica"	1	0	"repeat chromosome"	"TN"	1043	3.01828430842653	4	0	0	4	1	0	"chromosome"
"GCF_019428465.1_ASM1942846v1"	"23"	2	0	"repeat chromosome"	"S. enterica"	1	0	"repeat chromosome"	"TN"	6129	3.78738962135211	66	0	0	66	1	0	"chromosome"
"GCF_019428465.1_ASM1942846v1"	"27"	7	0	"repeat chromosome"	"S. enterica"	1	0	"repeat chromosome"	"TN"	2383	3.37712404234646	124	0	0	124	1	0	"chromosome"
"GCF_019428465.1_ASM1942846v1"	"30"	7	0	"repeat chromosome"	"S. enterica"	1	0	"repeat chromosome"	"TN"	1697	3.22968184231768	144	0	0	144	1	0	"chromosome"
"GCF_019428465.1_ASM1942846v1"	"31"	2	0	"repeat chromosome"	"S. enterica"	1	0	"repeat chromosome"	"TN"	1659	3.21984638602436	113	0	0	113	1	0	"chromosome"
"GCF_019428465.1_ASM1942846v1"	"32"	1	1	"ambiguous"	"S. enterica"	1	1	"ambiguous"	"TP"	1029	3.01241537476243	37	0	0	37	1	0	"chromosome"
"GCF_019670225.1_ASM1967022v1"	"32"	2	0	"repeat chromosome"	"S. enterica"	1	0	"repeat chromosome"	"TN"	6086	3.78433194802215	60	0	0	60	1	0	"chromosome"
"GCF_019670225.1_ASM1967022v1"	"38"	2	0	"repeat chromosome"	"S. enterica"	1	0	"repeat chromosome"	"TN"	3121	3.49429376866533	1	0	0	1	1	0	"chromosome"
"GCF_019670225.1_ASM1967022v1"	"41"	2	0	"repeat chromosome"	"S. enterica"	1	0	"repeat chromosome"	"TN"	2563	3.40874860618424	4	0	0	4	1	0	"chromosome"
"GCF_019670225.1_ASM1967022v1"	"48"	1	1	"ambiguous"	"S. enterica"	1	1	"ambiguous"	"TP"	1750	3.24303804868629	2	2	0	4	0.5	0.5	"unclassified"
"GCF_019670225.1_ASM1967022v1"	"49"	7	0	"repeat chromosome"	"S. enterica"	1	0	"repeat chromosome"	"TN"	1700	3.23044892137827	113	0	0	113	1	0	"chromosome"
"GCF_019670225.1_ASM1967022v1"	"51"	7	0	"repeat chromosome"	"S. enterica"	1	0	"repeat chromosome"	"TN"	1569	3.19562294358694	163	0	0	163	1	0	"chromosome"
"GCF_019670225.1_ASM1967022v1"	"52"	2	0	"repeat chromosome"	"S. enterica"	1	0	"repeat chromosome"	"TN"	1335	3.12548126570059	58	7	0	65	0.89	0.11	"chromosome"
"GCF_019670225.1_ASM1967022v1"	"54"	2	0	"repeat chromosome"	"S. enterica"	1	0	"repeat chromosome"	"TN"	1207	3.08170727009735	2	0	0	2	1	0	"chromosome"
"GCF_019670225.1_ASM1967022v1"	"55"	2	0	"repeat chromosome"	"S. enterica"	1	0	"repeat chromosome"	"TN"	1204	3.08062648692181	66	0	0	66	1	0	"chromosome"
"GCF_019670345.1_ASM1967034v1"	"35"	2	0	"repeat chromosome"	"S. enterica"	1	0	"repeat chromosome"	"TN"	6086	3.78433194802215	60	0	0	60	1	0	"chromosome"
"GCF_019670345.1_ASM1967034v1"	"42"	2	0	"repeat chromosome"	"S. enterica"	1	0	"repeat chromosome"	"TN"	3121	3.49429376866533	77	0	0	77	1	0	"chromosome"
"GCF_019670345.1_ASM1967034v1"	"46"	2	0	"repeat chromosome"	"S. enterica"	1	0	"repeat chromosome"	"TN"	2563	3.40874860618424	5	0	0	5	1	0	"chromosome"
"GCF_019670345.1_ASM1967034v1"	"52"	7	0	"repeat chromosome"	"S. enterica"	1	0	"repeat chromosome"	"TN"	1700	3.23044892137827	113	0	0	113	1	0	"chromosome"
"GCF_019670345.1_ASM1967034v1"	"53"	1	1	"ambiguous"	"S. enterica"	1	1	"ambiguous"	"TP"	1599	3.20384846374623	63	37	0	100	0.63	0.37	"unclassified"
"GCF_019670345.1_ASM1967034v1"	"54"	7	0	"repeat chromosome"	"S. enterica"	1	0	"repeat chromosome"	"TN"	1569	3.19562294358694	163	0	0	163	1	0	"chromosome"
"GCF_019670345.1_ASM1967034v1"	"55"	1	1	"ambiguous"	"S. enterica"	1	1	"ambiguous"	"TP"	1530	3.1846914308176	55	52	0	107	0.51	0.49	"unclassified"
"GCF_019670345.1_ASM1967034v1"	"59"	2	0	"repeat chromosome"	"S. enterica"	1	0	"repeat chromosome"	"TN"	1207	3.08170727009735	2	0	0	2	1	0	"chromosome"
"GCF_019670345.1_ASM1967034v1"	"60"	2	0	"repeat chromosome"	"S. enterica"	1	0	"repeat chromosome"	"TN"	1204	3.08062648692181	66	0	0	66	1	0	"chromosome"
"GCF_019670345.1_ASM1967034v1"	"65"	0	2	"repeat plasmid"	"S. enterica"	0	1	"repeat plasmid"	"TP"	1067	3.02816441942447	10	48	0	58	0.17	0.83	"plasmid"
"GCF_019670345.1_ASM1967034v1"	"66"	0	2	"repeat plasmid"	"S. enterica"	1	1	"ambiguous"	"TP"	1016	3.0068937079479	26	123	0	149	0.17	0.83	"plasmid"
"GCF_020736305.1_ASM2073630v1"	"37"	2	0	"repeat chromosome"	"S. enterica"	1	0	"repeat chromosome"	"TN"	5896	3.770557474851	2	0	0	2	1	0	"chromosome"
"GCF_020736305.1_ASM2073630v1"	"44"	2	0	"repeat chromosome"	"S. enterica"	1	0	"repeat chromosome"	"TN"	2702	3.43168534468601	9	0	0	9	1	0	"chromosome"
"GCF_020736305.1_ASM2073630v1"	"46"	7	0	"repeat chromosome"	"S. enterica"	1	0	"repeat chromosome"	"TN"	1450	3.16136800223497	39	0	0	39	1	0	"chromosome"
"GCF_020736305.1_ASM2073630v1"	"47"	0	1	"plasmid"	"S. enterica"	0	1	"repeat plasmid"	"TP"	1332	3.12450422483428	14	0	0	14	1	0	"chromosome"
"GCF_020736305.1_ASM2073630v1"	"48"	3	0	"repeat chromosome"	"S. enterica"	1	0	"repeat chromosome"	"TN"	1312	3.11793383503964	12	0	0	12	1	0	"chromosome"
"GCF_020736305.1_ASM2073630v1"	"49"	2	0	"repeat chromosome"	"S. enterica"	1	0	"repeat chromosome"	"TN"	1232	3.09061070782841	50	0	0	50	1	0	"chromosome"
"GCF_020736305.1_ASM2073630v1"	"51"	0	2	"repeat plasmid"	"S. enterica"	0	1	"repeat plasmid"	"TP"	1102	3.04218159451577	0	11	0	11	0	1	"plasmid"
"GCF_020736305.1_ASM2073630v1"	"52"	4	1	"ambiguous"	"S. enterica"	1	1	"ambiguous"	"TP"	1057	3.02407498730743	0	1	0	1	0	1	"plasmid"
"GCF_020736325.1_ASM2073632v1"	"15"	1	0	"chromosome"	"S. enterica"	1	0	"repeat chromosome"	"TN"	91956	4.96358007160431	5	0	0	5	1	0	"chromosome"
"GCF_020736325.1_ASM2073632v1"	"29"	1	0	"chromosome"	"S. enterica"	1	0	"repeat chromosome"	"TN"	46527	4.66770505069684	2	0	0	2	1	0	"chromosome"
"GCF_020736325.1_ASM2073632v1"	"37"	0	1	"plasmid"	"S. enterica"	0	1	"repeat plasmid"	"TP"	8145	3.91089108864453	2	4	0	6	0.33	0.67	"unclassified"
"GCF_020736325.1_ASM2073632v1"	"39"	2	0	"repeat chromosome"	"S. enterica"	1	0	"repeat chromosome"	"TN"	5428	3.7346398389877	1	0	0	1	1	0	"chromosome"
"GCF_020736325.1_ASM2073632v1"	"44"	2	0	"repeat chromosome"	"S. enterica"	1	0	"repeat chromosome"	"TN"	2702	3.43168534468601	9	0	0	9	1	0	"chromosome"
"GCF_020736325.1_ASM2073632v1"	"45"	1	0	"chromosome"	"S. enterica"	1	0	"repeat chromosome"	"TN"	1857	3.26881190373978	2	0	0	2	1	0	"chromosome"
"GCF_020736325.1_ASM2073632v1"	"46"	7	0	"repeat chromosome"	"S. enterica"	1	0	"repeat chromosome"	"TN"	1450	3.16136800223497	39	0	0	39	1	0	"chromosome"
"GCF_020736325.1_ASM2073632v1"	"47"	3	0	"repeat chromosome"	"S. enterica"	1	0	"repeat chromosome"	"TN"	1312	3.11793383503964	12	0	0	12	1	0	"chromosome"
"GCF_020736325.1_ASM2073632v1"	"48"	2	0	"repeat chromosome"	"S. enterica"	1	0	"repeat chromosome"	"TN"	1232	3.09061070782841	50	0	0	50	1	0	"chromosome"
"GCF_020736325.1_ASM2073632v1"	"50"	0	2	"repeat plasmid"	"S. enterica"	0	1	"repeat plasmid"	"TP"	1102	3.04218159451577	0	11	0	11	0	1	"plasmid"
"GCF_020736325.1_ASM2073632v1"	"51"	3	2	"ambiguous"	"S. enterica"	1	1	"ambiguous"	"TP"	1057	3.02407498730743	0	1	0	1	0	1	"plasmid"
"GCF_021397625.1_ASM2139762v1"	"28"	2	0	"repeat chromosome"	"S. enterica"	1	0	"repeat chromosome"	"TN"	6122	3.78689332526132	7	0	0	7	1	0	"chromosome"
"GCF_021397625.1_ASM2139762v1"	"29"	0	2	"repeat plasmid"	"S. enterica"	0	2	"repeat plasmid"	"TP"	4733	3.67513650446799	3	8	0	11	0.27	0.73	"plasmid"
"GCF_021397625.1_ASM2139762v1"	"37"	0	2	"repeat plasmid"	"S. enterica"	0	1	"repeat plasmid"	"TP"	2437	3.38685552918472	5	10	0	15	0.33	0.67	"unclassified"
"GCF_021397625.1_ASM2139762v1"	"41"	1	5	"ambiguous"	"S. enterica"	1	3	"ambiguous"	"TP"	2130	3.32837960343874	3	7	0	10	0.3	0.7	"plasmid"
"GCF_021397625.1_ASM2139762v1"	"46"	0	2	"repeat plasmid"	"S. enterica"	0	2	"repeat plasmid"	"TP"	1540	3.18752072083646	0	2	0	2	0	1	"plasmid"
"GCF_021397625.1_ASM2139762v1"	"47"	0	2	"repeat plasmid"	"S. enterica"	0	1	"repeat plasmid"	"TP"	1200	3.07918124604762	0	0	1	1	0.5	0.5	"unclassified"
"GCF_021397625.1_ASM2139762v1"	"49"	2	0	"repeat chromosome"	"S. enterica"	1	0	"repeat chromosome"	"TN"	1043	3.01828430842653	7	0	0	7	1	0	"chromosome"
"GCF_021397625.1_ASM2139762v1"	"50"	7	0	"repeat chromosome"	"S. enterica"	1	0	"repeat chromosome"	"TN"	1018	3.00774777800074	527	0	0	527	1	0	"chromosome"
"GCF_021397645.1_ASM2139764v1"	"31"	2	0	"repeat chromosome"	"S. enterica"	1	0	"repeat chromosome"	"TN"	6122	3.78689332526132	7	0	0	7	1	0	"chromosome"
"GCF_021397645.1_ASM2139764v1"	"32"	0	2	"repeat plasmid"	"S. enterica"	0	2	"repeat plasmid"	"TP"	4733	3.67513650446799	3	8	0	11	0.27	0.73	"plasmid"
"GCF_021397645.1_ASM2139764v1"	"40"	0	2	"repeat plasmid"	"S. enterica"	0	1	"repeat plasmid"	"TP"	2437	3.38685552918472	5	10	0	15	0.33	0.67	"unclassified"
"GCF_021397645.1_ASM2139764v1"	"44"	1	3	"ambiguous"	"S. enterica"	1	1	"ambiguous"	"TP"	2130	3.32837960343874	3	7	0	10	0.3	0.7	"plasmid"
"GCF_021397645.1_ASM2139764v1"	"49"	0	2	"repeat plasmid"	"S. enterica"	0	1	"repeat plasmid"	"TP"	1540	3.18752072083646	0	2	0	2	0	1	"plasmid"
"GCF_021397645.1_ASM2139764v1"	"52"	0	2	"repeat plasmid"	"S. enterica"	0	1	"repeat plasmid"	"TP"	1200	3.07918124604762	0	0	1	1	0.5	0.5	"unclassified"
"GCF_021397645.1_ASM2139764v1"	"54"	2	0	"repeat chromosome"	"S. enterica"	1	0	"repeat chromosome"	"TN"	1043	3.01828430842653	4	0	0	4	1	0	"chromosome"
"GCF_021397645.1_ASM2139764v1"	"55"	7	0	"repeat chromosome"	"S. enterica"	1	0	"repeat chromosome"	"TN"	1018	3.00774777800074	527	0	0	527	1	0	"chromosome"
"GCF_021397645.1_ASM2139764v1"	"7"	1	0	"chromosome"	"S. enterica"	1	0	"repeat chromosome"	"TN"	320657	5.50604072508342	1	0	0	1	1	0	"chromosome"
"GCF_021397675.1_ASM2139767v1"	"26"	2	0	"repeat chromosome"	"S. enterica"	1	0	"repeat chromosome"	"TN"	6122	3.78689332526132	3	0	0	3	1	0	"chromosome"
"GCF_021397675.1_ASM2139767v1"	"27"	0	2	"repeat plasmid"	"S. enterica"	0	1	"repeat plasmid"	"TP"	4733	3.67513650446799	3	8	0	11	0.27	0.73	"plasmid"
"GCF_021397675.1_ASM2139767v1"	"35"	0	2	"repeat plasmid"	"S. enterica"	0	1	"repeat plasmid"	"TP"	2437	3.38685552918472	5	10	0	15	0.33	0.67	"unclassified"
"GCF_021397675.1_ASM2139767v1"	"39"	1	3	"ambiguous"	"S. enterica"	1	1	"ambiguous"	"TP"	2130	3.32837960343874	3	7	0	10	0.3	0.7	"plasmid"
"GCF_021397675.1_ASM2139767v1"	"44"	0	2	"repeat plasmid"	"S. enterica"	0	1	"repeat plasmid"	"TP"	1540	3.18752072083646	5	73	0	78	0.06	0.94	"plasmid"
"GCF_021397675.1_ASM2139767v1"	"45"	0	2	"repeat plasmid"	"S. enterica"	0	1	"repeat plasmid"	"TP"	1200	3.07918124604762	0	0	1	1	0.5	0.5	"unclassified"
"GCF_021397675.1_ASM2139767v1"	"47"	2	0	"repeat chromosome"	"S. enterica"	1	0	"repeat chromosome"	"TN"	1043	3.01828430842653	7	0	0	7	1	0	"chromosome"
"GCF_021397675.1_ASM2139767v1"	"48"	7	0	"repeat chromosome"	"S. enterica"	1	0	"repeat chromosome"	"TN"	1018	3.00774777800074	527	0	0	527	1	0	"chromosome"
"GCF_022162985.1_ASM2216298v1"	"2"	1	0	"chromosome"	"S. enterica"	1	0	"repeat chromosome"	"TN"	438202	5.64167435539489	1	0	0	1	1	0	"chromosome"
"GCF_022162985.1_ASM2216298v1"	"32"	2	0	"repeat chromosome"	"S. enterica"	1	0	"repeat chromosome"	"TN"	1772	3.24846371755103	3	0	0	3	1	0	"chromosome"
"GCF_022162985.1_ASM2216298v1"	"33"	7	0	"repeat chromosome"	"S. enterica"	1	0	"repeat chromosome"	"TN"	1588	3.20085049809108	8	0	0	8	1	0	"chromosome"
"GCF_022162985.1_ASM2216298v1"	"34"	7	0	"repeat chromosome"	"S. enterica"	1	0	"repeat chromosome"	"TN"	1560	3.19312459835446	58	0	0	58	1	0	"chromosome"
"GCF_022162985.1_ASM2216298v1"	"35"	2	0	"repeat chromosome"	"S. enterica"	1	0	"repeat chromosome"	"TN"	1308	3.11660774398825	8	0	0	8	1	0	"chromosome"
"GCF_022162985.1_ASM2216298v1"	"36"	2	0	"repeat chromosome"	"S. enterica"	1	0	"repeat chromosome"	"TN"	1242	3.09412159584056	3	0	0	3	1	0	"chromosome"
"GCF_022655645.1_ASM2265564v1"	"32"	2	0	"repeat chromosome"	"S. enterica"	1	0	"repeat chromosome"	"TN"	6086	3.78433194802215	7	0	0	7	1	0	"chromosome"
"GCF_022655645.1_ASM2265564v1"	"38"	2	0	"repeat chromosome"	"S. enterica"	1	0	"repeat chromosome"	"TN"	2605	3.41580772763554	5	0	0	5	1	0	"chromosome"
"GCF_022655645.1_ASM2265564v1"	"39"	2	0	"repeat chromosome"	"S. enterica"	1	0	"repeat chromosome"	"TN"	1805	3.25647720624168	1	0	0	1	1	0	"chromosome"
"GCF_022655645.1_ASM2265564v1"	"41"	2	0	"repeat chromosome"	"S. enterica"	1	0	"repeat chromosome"	"TN"	1728	3.23754373814287	2	0	0	2	1	0	"chromosome"
"GCF_022655645.1_ASM2265564v1"	"42"	7	0	"repeat chromosome"	"S. enterica"	1	0	"repeat chromosome"	"TN"	1727	3.23729233756746	79	0	0	79	1	0	"chromosome"
"GCF_022655645.1_ASM2265564v1"	"43"	2	0	"repeat chromosome"	"S. enterica"	1	0	"repeat chromosome"	"TN"	1651	3.21774707326279	1	0	0	1	1	0	"chromosome"
"GCF_022655645.1_ASM2265564v1"	"44"	7	0	"repeat chromosome"	"S. enterica"	1	0	"repeat chromosome"	"TN"	1569	3.19562294358694	113	0	0	113	1	0	"chromosome"
"GCF_022655645.1_ASM2265564v1"	"45"	2	0	"repeat chromosome"	"S. enterica"	1	0	"repeat chromosome"	"TN"	1192	3.07627625540422	3	0	0	3	1	0	"chromosome"
"GCF_022670675.1_ASM2267067v1"	"27"	1	0	"chromosome"	"S. enterica"	0	1	"repeat plasmid"	"FP"	35735	4.55309378643719	0	6	0	6	0	1	"plasmid"
"GCF_022670675.1_ASM2267067v1"	"37"	2	0	"repeat chromosome"	"S. enterica"	1	0	"repeat chromosome"	"TN"	7634	3.88275215561308	7	0	0	7	1	0	"chromosome"
"GCF_022670675.1_ASM2267067v1"	"39"	2	0	"repeat chromosome"	"S. enterica"	1	0	"repeat chromosome"	"TN"	5896	3.770557474851	7	0	0	7	1	0	"chromosome"
"GCF_022670675.1_ASM2267067v1"	"44"	2	0	"repeat chromosome"	"S. enterica"	1	0	"repeat chromosome"	"TN"	4317	3.63518204865627	10	0	0	10	1	0	"chromosome"
"GCF_022670675.1_ASM2267067v1"	"48"	7	0	"repeat chromosome"	"S. enterica"	1	0	"repeat chromosome"	"TN"	1450	3.16136800223497	39	0	0	39	1	0	"chromosome"
"GCF_022670675.1_ASM2267067v1"	"49"	3	0	"repeat chromosome"	"S. enterica"	1	0	"repeat chromosome"	"TN"	1312	3.11793383503964	12	0	0	12	1	0	"chromosome"
"GCF_022670675.1_ASM2267067v1"	"50"	2	0	"repeat chromosome"	"S. enterica"	1	0	"repeat chromosome"	"TN"	1232	3.09061070782841	50	0	0	50	1	0	"chromosome"
"GCF_022670675.1_ASM2267067v1"	"52"	0	2	"repeat plasmid"	"S. enterica"	0	1	"repeat plasmid"	"TP"	1102	3.04218159451577	0	11	0	11	0	1	"plasmid"
"GCF_022870605.1_ASM2287060v1"	"47"	1	0	"chromosome"	"S. enterica"	1	0	"repeat chromosome"	"TN"	17289	4.23776987430102	1	0	0	1	1	0	"chromosome"
"GCF_022870605.1_ASM2287060v1"	"66"	1	0	"chromosome"	"S. enterica"	1	0	"repeat chromosome"	"TN"	3449	3.53769319436739	1	0	0	1	1	0	"chromosome"
"GCF_022870605.1_ASM2287060v1"	"68"	0	2	"repeat plasmid"	"S. enterica"	0	2	"repeat plasmid"	"TP"	2904	3.46299661202806	0	1	0	1	0	1	"plasmid"
"GCF_022870605.1_ASM2287060v1"	"69"	6	4	"ambiguous"	"S. enterica"	1	2	"ambiguous"	"TP"	2699	3.43120288455652	4	14	0	18	0.22	0.78	"plasmid"
"GCF_022870605.1_ASM2287060v1"	"72"	1	4	"ambiguous"	"S. enterica"	1	1	"ambiguous"	"TP"	1928	3.28510702956681	0	1	0	1	0	1	"plasmid"
"GCF_022870605.1_ASM2287060v1"	"73"	2	0	"repeat chromosome"	"S. enterica"	1	0	"repeat chromosome"	"TN"	1895	3.27760921430409	1	0	0	1	1	0	"chromosome"
"GCF_022870605.1_ASM2287060v1"	"77"	7	0	"repeat chromosome"	"S. enterica"	1	0	"repeat chromosome"	"TN"	1523	3.18269990333604	137	1	0	138	0.99	0.01	"chromosome"
"GCF_022870605.1_ASM2287060v1"	"80"	2	0	"repeat chromosome"	"S. enterica"	1	0	"repeat chromosome"	"TN"	1437	3.15745676813423	1	0	0	1	1	0	"chromosome"
"GCF_022870605.1_ASM2287060v1"	"82"	2	0	"repeat chromosome"	"S. enterica"	1	0	"repeat chromosome"	"TN"	1355	3.13193929521042	1	0	0	1	1	0	"chromosome"
"GCF_022870605.1_ASM2287060v1"	"83"	3	0	"repeat chromosome"	"S. enterica"	1	0	"repeat chromosome"	"TN"	1312	3.11793383503964	1	0	0	1	1	0	"chromosome"
"GCF_022870605.1_ASM2287060v1"	"84"	4	0	"repeat chromosome"	"S. enterica"	1	0	"repeat chromosome"	"TN"	1279	3.10687054447865	1	0	0	1	1	0	"chromosome"
"GCF_022870605.1_ASM2287060v1"	"85"	8	4	"ambiguous"	"S. enterica"	1	2	"ambiguous"	"TP"	1265	3.10209052551184	4	0	0	4	1	0	"chromosome"
"GCF_022870605.1_ASM2287060v1"	"86"	0	2	"repeat plasmid"	"S. enterica"	0	2	"repeat plasmid"	"TP"	1256	3.09898963940118	1	1	0	2	0.5	0.5	"unclassified"
"GCF_022870605.1_ASM2287060v1"	"87"	2	0	"repeat chromosome"	"S. enterica"	1	0	"repeat chromosome"	"TN"	1250	3.09691001300806	0	1	0	1	0	1	"plasmid"
"GCF_022870605.1_ASM2287060v1"	"89"	1	1	"ambiguous"	"S. enterica"	1	1	"ambiguous"	"TP"	1199	3.07881918309885	0	2	0	2	0	1	"plasmid"
"GCF_022870605.1_ASM2287060v1"	"91"	8	2	"ambiguous"	"S. enterica"	1	1	"ambiguous"	"TP"	1152	3.06145247908719	3	2	0	5	0.6	0.4	"unclassified"
"GCF_022870605.1_ASM2287060v1"	"93"	2	0	"repeat chromosome"	"S. enterica"	1	0	"repeat chromosome"	"TN"	1019	3.00817418400643	5	0	0	5	1	0	"chromosome"
"GCF_022870605.1_ASM2287060v1"	"94"	1	0	"chromosome"	"S. enterica"	1	0	"repeat chromosome"	"TN"	1012	3.00518051250378	5	0	0	5	1	0	"chromosome"
"GCF_022936425.1_ASM2293642v1"	"25"	2	0	"repeat chromosome"	"S. enterica"	1	0	"repeat chromosome"	"TN"	4272	3.6306312440205	1	0	0	1	1	0	"chromosome"
"GCF_022936425.1_ASM2293642v1"	"33"	7	0	"repeat chromosome"	"S. enterica"	1	0	"repeat chromosome"	"TN"	1393	3.14395111642396	187	0	0	187	1	0	"chromosome"
"GCF_022936425.1_ASM2293642v1"	"34"	0	1	"plasmid"	"S. enterica"	0	1	"repeat plasmid"	"TP"	1329	3.12352498094273	0	0	1	1	0.5	0.5	"unclassified"
"GCF_022936425.1_ASM2293642v1"	"35"	2	0	"repeat chromosome"	"S. enterica"	1	0	"repeat chromosome"	"TN"	1258	3.09968064110925	14	0	0	14	1	0	"chromosome"
"GCF_022936425.1_ASM2293642v1"	"36"	2	0	"repeat chromosome"	"S. enterica"	0	1	"repeat plasmid"	"FP"	1012	3.00518051250378	71	123	0	194	0.37	0.63	"unclassified"
