#FILE	SEQUENCE	START	END	STRAND	GENE	COVERAGE	COVERAGE_MAP	GAPS	%COVERAGE	%IDENTITY	DATABASE	ACCESSION	PRODUCT	RESISTANCE
/hpc/dla_mm/jkerkvliet/data/gplas/newmodels/results/E_faecalis/22_new_gplas_predict/GCF_906464835.1_TM6294_results/GCF_906464835.1_TM6294_bin_1.fasta	S12_LN:i:50157_dp:f:1.373712125045581	10088	10936	-	str_2	1-849/849	===============	0/0	100.00	99.76	resfinder	FN435330	str	Streptomycin
/hpc/dla_mm/jkerkvliet/data/gplas/newmodels/results/E_faecalis/22_new_gplas_predict/GCF_906464835.1_TM6294_results/GCF_906464835.1_TM6294_bin_1.fasta	S12_LN:i:50157_dp:f:1.373712125045581	37475	39394	+	tet(M)_10	1-1920/1920	===============	0/0	100.00	96.46	resfinder	EU182585	tet(M)	Doxycycline;Tetracycline;Minocycline
/hpc/dla_mm/jkerkvliet/data/gplas/newmodels/results/E_faecalis/22_new_gplas_predict/GCF_906464835.1_TM6294_results/GCF_906464835.1_TM6294_bin_1.fasta	S12_LN:i:50157_dp:f:1.373712125045581	39588	40964	+	tet(L)_2	1-1377/1377	===============	0/0	100.00	100.00	resfinder	M29725	tet(L)	Doxycycline;Tetracycline
/hpc/dla_mm/jkerkvliet/data/gplas/newmodels/results/E_faecalis/22_new_gplas_predict/GCF_906464835.1_TM6294_results/GCF_906464835.1_TM6294_bin_1.fasta	S12_LN:i:50157_dp:f:1.373712125045581	42006	42653	+	cat_5	1-648/648	===============	0/0	100.00	98.92	resfinder	U35036	cat	Chloramphenicol
/hpc/dla_mm/jkerkvliet/data/gplas/newmodels/results/E_faecalis/22_new_gplas_predict/GCF_906464835.1_TM6294_results/GCF_906464835.1_TM6294_bin_1.fasta	S16_LN:i:14853_dp:f:1.3742197548690516	126	920	-	aph(3')-III_1	1-795/795	===============	0/0	100.00	100.00	resfinder	M26832	aph(3')-III	Amikacin
/hpc/dla_mm/jkerkvliet/data/gplas/newmodels/results/E_faecalis/22_new_gplas_predict/GCF_906464835.1_TM6294_results/GCF_906464835.1_TM6294_bin_1.fasta	S16_LN:i:14853_dp:f:1.3742197548690516	1552	2460	-	ant(6)-Ia_1	1-909/909	===============	0/0	100.00	100.00	resfinder	AF330699	ant(6)-Ia	Streptomycin
/hpc/dla_mm/jkerkvliet/data/gplas/newmodels/results/E_faecalis/22_new_gplas_predict/GCF_906464835.1_TM6294_results/GCF_906464835.1_TM6294_bin_1.fasta	S16_LN:i:14853_dp:f:1.3742197548690516	5968	6771	-	lnu(B)_2	1-804/804	===============	0/0	100.00	100.00	resfinder	JQ861959	lnu(B)	Lincomycin;Clindamycin
/hpc/dla_mm/jkerkvliet/data/gplas/newmodels/results/E_faecalis/22_new_gplas_predict/GCF_906464835.1_TM6294_results/GCF_906464835.1_TM6294_bin_1.fasta	S16_LN:i:14853_dp:f:1.3742197548690516	6825	8309	-	lsa(E)_1	1-1485/1485	===============	0/0	100.00	99.93	resfinder	JX560992	lsa(E)	Lincomycin;Clindamycin;Dalfopristin;Pristinamycin_IIA;Virginiamycin_M;Tiamulin
/hpc/dla_mm/jkerkvliet/data/gplas/newmodels/results/E_faecalis/22_new_gplas_predict/GCF_906464835.1_TM6294_results/GCF_906464835.1_TM6294_bin_1.fasta	S16_LN:i:14853_dp:f:1.3742197548690516	11888	12642	-	ant(6)-Ia_2	110-864/864	.==============	0/0	87.38	100.00	resfinder	KF421157	ant(6)-Ia	Streptomycin
/hpc/dla_mm/jkerkvliet/data/gplas/newmodels/results/E_faecalis/22_new_gplas_predict/GCF_906464835.1_TM6294_results/GCF_906464835.1_TM6294_bin_1.fasta	S16_LN:i:14853_dp:f:1.3742197548690516	12810	14249	-	aac(6')-aph(2'')_1	1-1440/1440	===============	0/0	100.00	100.00	resfinder	M13771	aac(6')-aph(2'')	Amikacin;Gentamicin;Tobramycin
/hpc/dla_mm/jkerkvliet/data/gplas/newmodels/results/E_faecalis/22_new_gplas_predict/GCF_906464835.1_TM6294_results/GCF_906464835.1_TM6294_bin_1.fasta	S18_LN:i:4347_dp:f:1.401568041878913	332	817	-	dfrG_1	1-486/498	===============	0/0	97.59	100.00	resfinder	AB205645	dfrG	Trimethoprim
/hpc/dla_mm/jkerkvliet/data/gplas/newmodels/results/E_faecalis/22_new_gplas_predict/GCF_018986755.2_ASM1898675v2_results/GCF_018986755.2_ASM1898675v2_bin_3.fasta	S49_LN:i:10990_dp:f:1.7621443893249717	6268	8874	-	VanHAX_2	1-2607/2607	===============	0/0	100.00	100.00	resfinder	M97297	VanHAX	Vancomycin;Teicoplanin
/hpc/dla_mm/jkerkvliet/data/gplas/newmodels/results/E_faecalis/22_new_gplas_predict/GCF_018986755.2_ASM1898675v2_results/GCF_018986755.2_ASM1898675v2_bin_3.fasta	S56_LN:i:7447_dp:f:2.1386121379538654	2583	3230	-	cat(pC221)_1	1-648/648	===============	0/0	100.00	97.69	resfinder	X02529	cat(pC221)	Chloramphenicol
/hpc/dla_mm/jkerkvliet/data/gplas/newmodels/results/E_faecalis/22_new_gplas_predict/GCF_018986755.2_ASM1898675v2_results/GCF_018986755.2_ASM1898675v2_bin_3.fasta	S56_LN:i:7447_dp:f:2.1386121379538654	6613	7375	+	erm(B)_18	1-762/762	========/======	1/1	100.00	99.21	resfinder	X66468	erm(B)	Erythromycin;Lincomycin;Clindamycin;Quinupristin;Pristinamycin_IA;Virginiamycin_S
/hpc/dla_mm/jkerkvliet/data/gplas/newmodels/results/E_faecalis/22_new_gplas_predict/GCF_018986755.2_ASM1898675v2_results/GCF_018986755.2_ASM1898675v2_bin_3.fasta	S57_LN:i:7192_dp:f:2.132082183811055	2989	3783	-	aph(3')-III_1	1-795/795	===============	0/0	100.00	100.00	resfinder	M26832	aph(3')-III	Amikacin
/hpc/dla_mm/jkerkvliet/data/gplas/newmodels/results/E_faecalis/22_new_gplas_predict/GCF_018986755.2_ASM1898675v2_results/GCF_018986755.2_ASM1898675v2_bin_3.fasta	S57_LN:i:7192_dp:f:2.132082183811055	4415	5323	-	ant(6)-Ia_1	1-909/909	===============	0/0	100.00	100.00	resfinder	AF330699	ant(6)-Ia	Streptomycin
/hpc/dla_mm/jkerkvliet/data/gplas/newmodels/results/E_faecalis/22_new_gplas_predict/GCF_018986755.2_ASM1898675v2_results/GCF_018986755.2_ASM1898675v2_bin_1.fasta	S73_LN:i:1916_dp:f:0.918948849437052	79	1518	-	aac(6')-aph(2'')_1	1-1440/1440	===============	0/0	100.00	100.00	resfinder	M13771	aac(6')-aph(2'')	Amikacin;Gentamicin;Tobramycin
/hpc/dla_mm/jkerkvliet/data/gplas/newmodels/results/E_faecalis/22_new_gplas_predict/GCF_906464865.1_WE0438_results/GCF_906464865.1_WE0438_bin_1.fasta	S12_LN:i:40888_dp:f:0.8849466921433575	9678	10440	-	erm(B)_18	1-762/762	========/======	1/1	100.00	99.61	resfinder	X66468	erm(B)	Erythromycin;Lincomycin;Clindamycin;Quinupristin;Pristinamycin_IA;Virginiamycin_S
/hpc/dla_mm/jkerkvliet/data/gplas/newmodels/results/E_faecalis/22_new_gplas_predict/GCF_906464865.1_WE0438_results/GCF_906464865.1_WE0438_bin_1.fasta	S12_LN:i:40888_dp:f:0.8849466921433575	14865	16292	+	fexA_1	1-1428/1428	===============	0/0	100.00	99.65	resfinder	AJ549214	fexA	Chloramphenicol;Florfenicol
/hpc/dla_mm/jkerkvliet/data/gplas/newmodels/results/E_faecalis/22_new_gplas_predict/GCF_906464865.1_WE0438_results/GCF_906464865.1_WE0438_bin_1.fasta	S12_LN:i:40888_dp:f:0.8849466921433575	16979	18946	+	optrA_2	1-1968/1968	===============	0/0	100.00	100.00	resfinder	KT862781	optrA	Linezolid;Chloramphenicol;Florfenicol
/hpc/dla_mm/jkerkvliet/data/gplas/newmodels/results/E_faecalis/22_new_gplas_predict/GCF_906464865.1_WE0438_results/GCF_906464865.1_WE0438_bin_1.fasta	S12_LN:i:40888_dp:f:0.8849466921433575	31510	32358	-	str_2	1-849/849	===============	0/0	100.00	99.88	resfinder	FN435330	str	Streptomycin
/hpc/dla_mm/jkerkvliet/data/gplas/newmodels/results/E_faecalis/22_new_gplas_predict/GCF_906464865.1_WE0438_results/GCF_906464865.1_WE0438_bin_1.fasta	S22_LN:i:6391_dp:f:1.1217239656664046	1888	3264	-	tet(L)_2	1-1377/1377	===============	0/0	100.00	100.00	resfinder	M29725	tet(L)	Doxycycline;Tetracycline
/hpc/dla_mm/jkerkvliet/data/gplas/newmodels/results/E_faecalis/22_new_gplas_predict/GCF_906464865.1_WE0438_results/GCF_906464865.1_WE0438_bin_1.fasta	S22_LN:i:6391_dp:f:1.1217239656664046	3458	5377	-	tet(M)_10	1-1920/1920	===============	0/0	100.00	96.46	resfinder	EU182585	tet(M)	Doxycycline;Tetracycline;Minocycline
/hpc/dla_mm/jkerkvliet/data/gplas/newmodels/results/E_faecalis/22_new_gplas_predict/GCF_906464895.1_WE0851_results/GCF_906464895.1_WE0851_bin_2.fasta	S19_LN:i:43709_dp:f:0.7156513809190045	30596	32023	+	fexA_1	1-1428/1428	===============	0/0	100.00	99.65	resfinder	AJ549214	fexA	Chloramphenicol;Florfenicol
/hpc/dla_mm/jkerkvliet/data/gplas/newmodels/results/E_faecalis/22_new_gplas_predict/GCF_906464895.1_WE0851_results/GCF_906464895.1_WE0851_bin_2.fasta	S19_LN:i:43709_dp:f:0.7156513809190045	32711	34678	+	optrA_14	1-1968/1968	===============	0/0	100.00	99.95	resfinder	KX620941	optrA	Linezolid;Chloramphenicol;Florfenicol
/hpc/dla_mm/jkerkvliet/data/gplas/newmodels/results/E_faecalis/22_new_gplas_predict/GCF_906464895.1_WE0851_results/GCF_906464895.1_WE0851_bin_2.fasta	S19_LN:i:43709_dp:f:0.7156513809190045	36140	36733	-	erm(A)_3	1-594/594	===============	0/0	100.00	100.00	resfinder	EU348758	erm(A)	Erythromycin;Lincomycin;Clindamycin;Quinupristin;Pristinamycin_IA;Virginiamycin_S
/hpc/dla_mm/jkerkvliet/data/gplas/newmodels/results/E_faecalis/22_new_gplas_predict/GCF_906464895.1_WE0851_results/GCF_906464895.1_WE0851_bin_2.fasta	S35_LN:i:1958_dp:f:0.5142097826279285	165	1013	-	str_1	1-849/849	===============	0/0	100.00	100.00	resfinder	X92946	str	Streptomycin
/hpc/dla_mm/jkerkvliet/data/gplas/newmodels/results/E_faecalis/22_new_gplas_predict/GCF_022648595.1_ASM2264859v1_results/GCF_022648595.1_ASM2264859v1_bin_2.fasta	S41_LN:i:10342_dp:f:1.6741145377647262	998	1760	+	erm(B)_18	1-762/762	========/======	1/1	100.00	99.34	resfinder	X66468	erm(B)	Erythromycin;Lincomycin;Clindamycin;Quinupristin;Pristinamycin_IA;Virginiamycin_S
/hpc/dla_mm/jkerkvliet/data/gplas/newmodels/results/E_faecalis/22_new_gplas_predict/GCF_022648595.1_ASM2264859v1_results/GCF_022648595.1_ASM2264859v1_bin_2.fasta	S41_LN:i:10342_dp:f:1.6741145377647262	5019	5927	+	ant(6)-Ia_1	1-909/909	===============	0/0	100.00	100.00	resfinder	AF330699	ant(6)-Ia	Streptomycin
/hpc/dla_mm/jkerkvliet/data/gplas/newmodels/results/E_faecalis/22_new_gplas_predict/GCF_022648595.1_ASM2264859v1_results/GCF_022648595.1_ASM2264859v1_bin_2.fasta	S41_LN:i:10342_dp:f:1.6741145377647262	6559	7353	+	aph(3')-III_1	1-795/795	===============	0/0	100.00	100.00	resfinder	M26832	aph(3')-III	Amikacin
/hpc/dla_mm/jkerkvliet/data/gplas/newmodels/results/E_faecalis/22_new_gplas_predict/GCF_022648595.1_ASM2264859v1_results/GCF_022648595.1_ASM2264859v1_bin_2.fasta	S51_LN:i:4414_dp:f:1.7571966036893871	1140	1910	+	aadD_1	1-771/771	===============	0/0	100.00	99.61	resfinder	AF181950	aadD	Amikacin;Tobramycin
/hpc/dla_mm/jkerkvliet/data/gplas/newmodels/results/E_faecalis/22_new_gplas_predict/GCF_022648595.1_ASM2264859v1_results/GCF_022648595.1_ASM2264859v1_bin_2.fasta	S54_LN:i:4147_dp:f:1.7433689516264754	1442	4048	+	VanHAX_2	1-2607/2607	===============	0/0	100.00	99.96	resfinder	M97297	VanHAX	Vancomycin;Teicoplanin
/hpc/dla_mm/jkerkvliet/data/gplas/newmodels/results/E_faecalis/22_new_gplas_predict/GCF_022648425.1_ASM2264842v1_results/GCF_022648425.1_ASM2264842v1_bin_2.fasta	S41_LN:i:10342_dp:f:1.6846684114293748	998	1760	+	erm(B)_18	1-762/762	========/======	1/1	100.00	99.34	resfinder	X66468	erm(B)	Erythromycin;Lincomycin;Clindamycin;Quinupristin;Pristinamycin_IA;Virginiamycin_S
/hpc/dla_mm/jkerkvliet/data/gplas/newmodels/results/E_faecalis/22_new_gplas_predict/GCF_022648425.1_ASM2264842v1_results/GCF_022648425.1_ASM2264842v1_bin_2.fasta	S41_LN:i:10342_dp:f:1.6846684114293748	5019	5927	+	ant(6)-Ia_1	1-909/909	===============	0/0	100.00	100.00	resfinder	AF330699	ant(6)-Ia	Streptomycin
/hpc/dla_mm/jkerkvliet/data/gplas/newmodels/results/E_faecalis/22_new_gplas_predict/GCF_022648425.1_ASM2264842v1_results/GCF_022648425.1_ASM2264842v1_bin_2.fasta	S41_LN:i:10342_dp:f:1.6846684114293748	6559	7353	+	aph(3')-III_1	1-795/795	===============	0/0	100.00	100.00	resfinder	M26832	aph(3')-III	Amikacin
/hpc/dla_mm/jkerkvliet/data/gplas/newmodels/results/E_faecalis/22_new_gplas_predict/GCF_022648425.1_ASM2264842v1_results/GCF_022648425.1_ASM2264842v1_bin_2.fasta	S51_LN:i:4414_dp:f:1.7192617568014967	2505	3275	-	aadD_1	1-771/771	===============	0/0	100.00	99.61	resfinder	AF181950	aadD	Amikacin;Tobramycin
/hpc/dla_mm/jkerkvliet/data/gplas/newmodels/results/E_faecalis/22_new_gplas_predict/GCF_022648425.1_ASM2264842v1_results/GCF_022648425.1_ASM2264842v1_bin_2.fasta	S54_LN:i:4147_dp:f:1.6718203985884428	1442	4048	+	VanHAX_2	1-2607/2607	===============	0/0	100.00	99.96	resfinder	M97297	VanHAX	Vancomycin;Teicoplanin
/hpc/dla_mm/jkerkvliet/data/gplas/newmodels/results/E_faecalis/22_new_gplas_predict/GCF_906464925.1_BX5936_results/GCF_906464925.1_BX5936_bin_1.fasta	S27_LN:i:11753_dp:f:0.9908899391070597	442	1869	+	fexA_1	1-1428/1428	===============	0/0	100.00	99.65	resfinder	AJ549214	fexA	Chloramphenicol;Florfenicol
/hpc/dla_mm/jkerkvliet/data/gplas/newmodels/results/E_faecalis/22_new_gplas_predict/GCF_906464925.1_BX5936_results/GCF_906464925.1_BX5936_bin_1.fasta	S27_LN:i:11753_dp:f:0.9908899391070597	2557	4524	+	optrA_1	1-1968/1968	===============	0/0	100.00	99.95	resfinder	KP399637	optrA	Linezolid;Chloramphenicol;Florfenicol
/hpc/dla_mm/jkerkvliet/data/gplas/newmodels/results/E_faecalis/22_new_gplas_predict/GCF_022648285.1_ASM2264828v1_results/GCF_022648285.1_ASM2264828v1_bin_2.fasta	S52_LN:i:4414_dp:f:1.874529662304775	2505	3275	-	aadD_1	1-771/771	===============	0/0	100.00	99.61	resfinder	AF181950	aadD	Amikacin;Tobramycin
/hpc/dla_mm/jkerkvliet/data/gplas/newmodels/results/E_faecalis/22_new_gplas_predict/GCF_022648285.1_ASM2264828v1_results/GCF_022648285.1_ASM2264828v1_bin_2.fasta	S55_LN:i:4147_dp:f:1.871575760088877	100	2706	-	VanHAX_2	1-2607/2607	===============	0/0	100.00	99.96	resfinder	M97297	VanHAX	Vancomycin;Teicoplanin
/hpc/dla_mm/jkerkvliet/data/gplas/newmodels/results/E_faecalis/22_new_gplas_predict/GCF_022648285.1_ASM2264828v1_results/GCF_022648285.1_ASM2264828v1_bin_1.fasta	S40_LN:i:10342_dp:f:1.7406902792841459	998	1760	+	erm(B)_18	1-762/762	========/======	1/1	100.00	99.34	resfinder	X66468	erm(B)	Erythromycin;Lincomycin;Clindamycin;Quinupristin;Pristinamycin_IA;Virginiamycin_S
/hpc/dla_mm/jkerkvliet/data/gplas/newmodels/results/E_faecalis/22_new_gplas_predict/GCF_022648285.1_ASM2264828v1_results/GCF_022648285.1_ASM2264828v1_bin_1.fasta	S40_LN:i:10342_dp:f:1.7406902792841459	5019	5927	+	ant(6)-Ia_1	1-909/909	===============	0/0	100.00	100.00	resfinder	AF330699	ant(6)-Ia	Streptomycin
/hpc/dla_mm/jkerkvliet/data/gplas/newmodels/results/E_faecalis/22_new_gplas_predict/GCF_022648285.1_ASM2264828v1_results/GCF_022648285.1_ASM2264828v1_bin_1.fasta	S40_LN:i:10342_dp:f:1.7406902792841459	6559	7353	+	aph(3')-III_1	1-795/795	===============	0/0	100.00	100.00	resfinder	M26832	aph(3')-III	Amikacin
/hpc/dla_mm/jkerkvliet/data/gplas/newmodels/results/E_faecalis/22_new_gplas_predict/GCF_906464875.1_BX8117_results/GCF_906464875.1_BX8117_bin_1.fasta	S13_LN:i:14670_dp:f:1.2171657990375155	5050	6477	+	fexA_1	1-1428/1428	===============	0/0	100.00	99.72	resfinder	AJ549214	fexA	Chloramphenicol;Florfenicol
/hpc/dla_mm/jkerkvliet/data/gplas/newmodels/results/E_faecalis/22_new_gplas_predict/GCF_906464875.1_BX8117_results/GCF_906464875.1_BX8117_bin_1.fasta	S13_LN:i:14670_dp:f:1.2171657990375155	6975	8942	+	optrA_9	1-1968/1968	===============	0/0	100.00	99.85	resfinder	KT892063	optrA	Linezolid;Chloramphenicol;Florfenicol
/hpc/dla_mm/jkerkvliet/data/gplas/newmodels/results/E_faecalis/22_new_gplas_predict/GCF_906464915.2_WE0254_results/GCF_906464915.2_WE0254_bin_1.fasta	S20_LN:i:14303_dp:f:0.8154592773753466	8387	10354	-	optrA_5	1-1968/1968	===============	0/0	100.00	100.00	resfinder	KT862783	optrA	Linezolid;Chloramphenicol;Florfenicol
/hpc/dla_mm/jkerkvliet/data/gplas/newmodels/results/E_faecalis/22_new_gplas_predict/GCF_906464915.2_WE0254_results/GCF_906464915.2_WE0254_bin_1.fasta	S20_LN:i:14303_dp:f:0.8154592773753466	11042	12469	-	fexA_1	1-1428/1428	===============	0/0	100.00	99.65	resfinder	AJ549214	fexA	Chloramphenicol;Florfenicol
/hpc/dla_mm/jkerkvliet/data/gplas/newmodels/results/E_faecalis/22_new_gplas_predict/GCF_906464915.2_WE0254_results/GCF_906464915.2_WE0254_bin_1.fasta	S21_LN:i:13572_dp:f:1.0981817306800883	5785	6693	+	ant(6)-Ia_1	1-909/909	===============	0/0	100.00	100.00	resfinder	AF330699	ant(6)-Ia	Streptomycin
/hpc/dla_mm/jkerkvliet/data/gplas/newmodels/results/E_faecalis/22_new_gplas_predict/GCF_906464915.2_WE0254_results/GCF_906464915.2_WE0254_bin_1.fasta	S21_LN:i:13572_dp:f:1.0981817306800883	7263	8057	+	aph(3')-III_1	1-795/795	===============	0/0	100.00	100.00	resfinder	M26832	aph(3')-III	Amikacin
/hpc/dla_mm/jkerkvliet/data/gplas/newmodels/results/E_faecalis/22_new_gplas_predict/GCF_906464915.2_WE0254_results/GCF_906464915.2_WE0254_bin_1.fasta	S21_LN:i:13572_dp:f:1.0981817306800883	8782	9544	+	erm(B)_18	1-762/762	========/======	1/1	100.00	99.61	resfinder	X66468	erm(B)	Erythromycin;Lincomycin;Clindamycin;Quinupristin;Pristinamycin_IA;Virginiamycin_S
