GCF_005519135.2_ASM551913v2,GCF_005519135.2_ASM551913v2_bin_1,NZ_CP031380.1,S34_LN_i_1075_dp_f_14.523670651954337,1075,2728363,2729437
GCF_005519135.2_ASM551913v2,GCF_005519135.2_ASM551913v2_bin_1,NZ_CP031380.1,S34_LN_i_1075_dp_f_14.523670651954337,1075,976871,977945
GCF_005519135.2_ASM551913v2,GCF_005519135.2_ASM551913v2_bin_1,NZ_CP031382.1,S34_LN_i_1075_dp_f_14.523670651954337,1075,38830,39904
GCF_005519135.2_ASM551913v2,GCF_005519135.2_ASM551913v2_bin_1,NZ_CP031380.1,S34_LN_i_1075_dp_f_14.523670651954337,1075,3174974,3176048
GCF_005519135.2_ASM551913v2,GCF_005519135.2_ASM551913v2_bin_1,NZ_CP031380.1,S34_LN_i_1075_dp_f_14.523670651954337,1075,2572168,2573242
GCF_005519135.2_ASM551913v2,GCF_005519135.2_ASM551913v2_bin_1,NZ_CP031380.1,S34_LN_i_1075_dp_f_14.523670651954337,1075,2227374,2228448
GCF_005519135.2_ASM551913v2,GCF_005519135.2_ASM551913v2_bin_1,NZ_CP031382.1,S34_LN_i_1075_dp_f_14.523670651954337,1075,40815,41889
GCF_005519135.2_ASM551913v2,GCF_005519135.2_ASM551913v2_bin_1,NZ_CP031380.1,S34_LN_i_1075_dp_f_14.523670651954337,1075,773155,774229
GCF_005519135.2_ASM551913v2,GCF_005519135.2_ASM551913v2_bin_1,NZ_CP031380.1,S34_LN_i_1075_dp_f_14.523670651954337,1075,3436774,3437848
GCF_016919525.1_ASM1691952v2,GCF_016919525.1_ASM1691952v2_bin_1,NZ_CP070361.1,S182_LN_i_4970_dp_f_1.5087578262723427,4970,57916,62885
GCF_016919525.1_ASM1691952v2,GCF_016919525.1_ASM1691952v2_bin_1,NZ_CP070361.1,S182_LN_i_4970_dp_f_1.5087578262723427,4970,63936,68905
