GCF_014705825.1_ASM1470582v1,GCF_014705825.1_ASM1470582v1_bin_1,NZ_CP061525.1,S49_LN_i_3657_dp_f_2.8391521793310983,3657,1.0
GCF_014705825.1_ASM1470582v1,GCF_014705825.1_ASM1470582v1_bin_1,NZ_CP061525.1,S51_LN_i_2833_dp_f_2.2344329260947204,2833,1.0
GCF_014705825.1_ASM1470582v1,GCF_014705825.1_ASM1470582v1_bin_2,NZ_CP061526.1,S37_LN_i_14639_dp_f_10.709990638705964,14639,1.0
GCF_019903155.1_ASM1990315v1,GCF_019903155.1_ASM1990315v1_bin_1,NZ_CP059543.1,S11_LN_i_117806_dp_f_1.0308294068044617,117806,1.0
GCF_019903155.1_ASM1990315v1,GCF_019903155.1_ASM1990315v1_bin_3,NZ_CP059545.1,S24_LN_i_7369_dp_f_3.0491810127683867,7369,1.0
GCF_019903155.1_ASM1990315v1,GCF_019903155.1_ASM1990315v1_bin_2,NZ_CP059544.1,S22_LN_i_11020_dp_f_6.999445331525827,11020,1.0
GCF_021609965.1_ASM2160996v1,GCF_021609965.1_ASM2160996v1_bin_1,NZ_CP091172.1,S5_LN_i_245145_dp_f_1.0,245145,1.0
GCF_021609965.1_ASM2160996v1,GCF_021609965.1_ASM2160996v1_bin_1,NZ_CP091172.1,S50_LN_i_2383_dp_f_1.008259338570788,2383,1.0
GCF_013787185.1_ASM1378718v1,GCF_013787185.1_ASM1378718v1_bin_2,NZ_CP059387.1,S127_LN_i_2365_dp_f_0.6591471383539531,2365,1.0
GCF_013787185.1_ASM1378718v1,GCF_013787185.1_ASM1378718v1_bin_2,NZ_CP059387.1,S7_LN_i_96253_dp_f_0.5469873321426358,96253,1.0
GCF_013787185.1_ASM1378718v1,GCF_013787185.1_ASM1378718v1_bin_2,NZ_CP059387.1,S80_LN_i_11191_dp_f_0.528589021586124,11191,1.0
GCF_013787185.1_ASM1378718v1,GCF_013787185.1_ASM1378718v1_bin_3,NZ_CP059388.1,S90_LN_i_9458_dp_f_3.5150399825002903,9458,1.0
GCF_013787185.1_ASM1378718v1,GCF_013787185.1_ASM1378718v1_bin_1,NZ_CP059386.1,S115_LN_i_3704_dp_f_1.14223067927068,3704,1.0
GCF_013787185.1_ASM1378718v1,GCF_013787185.1_ASM1378718v1_bin_1,NZ_CP059386.1,S119_LN_i_3439_dp_f_0.8127813160191885,3439,1.0
GCF_013787185.1_ASM1378718v1,GCF_013787185.1_ASM1378718v1_bin_1,NZ_CP059386.1,S125_LN_i_2433_dp_f_1.0186981703123346,2433,1.0
GCF_013787185.1_ASM1378718v1,GCF_013787185.1_ASM1378718v1_bin_1,NZ_CP059386.1,S139_LN_i_1605_dp_f_1.0996177291346865,1605,1.0
GCF_013787185.1_ASM1378718v1,GCF_013787185.1_ASM1378718v1_bin_1,NZ_CP059386.1,S150_LN_i_1129_dp_f_1.1072136327524178,1129,1.0
GCF_013787185.1_ASM1378718v1,GCF_013787185.1_ASM1378718v1_bin_1,NZ_CP059386.1,S56_LN_i_25019_dp_f_1.03069669598283,25019,1.0
GCF_013787185.1_ASM1378718v1,GCF_013787185.1_ASM1378718v1_bin_1,NZ_CP059386.1,S73_LN_i_12206_dp_f_0.733372368892296,12206,1.0
GCF_013787185.1_ASM1378718v1,GCF_013787185.1_ASM1378718v1_bin_1,NZ_CP059386.1,S87_LN_i_9947_dp_f_1.1488544030365218,9947,1.0
GCF_013787185.1_ASM1378718v1,GCF_013787185.1_ASM1378718v1_bin_4,NZ_CP059389.1,S101_LN_i_5688_dp_f_2.003475239136726,5688,1.0
GCF_013787185.1_ASM1378718v1,GCF_013787185.1_ASM1378718v1_bin_5,NZ_CP059390.1,S109_LN_i_4721_dp_f_8.341534740369244,4721,1.0
GCF_018135585.1_ASM1813558v1,GCF_018135585.1_ASM1813558v1_bin_1,NZ_CP073061.1,S18_LN_i_41123_dp_f_1.4314487068138002,41123,1.0
GCF_018135585.1_ASM1813558v1,GCF_018135585.1_ASM1813558v1_bin_1,NZ_CP073061.1,S23_LN_i_3815_dp_f_1.5186713197149375,3815,1.0
GCF_018135585.1_ASM1813558v1,GCF_018135585.1_ASM1813558v1_bin_2,NZ_CP073061.1,S19_LN_i_33558_dp_f_1.2097449242676737,33558,1.0
GCF_018135585.1_ASM1813558v1,GCF_018135585.1_ASM1813558v1_bin_2,NZ_CP073061.1,S21_LN_i_9195_dp_f_1.1622427713191459,9195,1.0
GCF_005519135.2_ASM551913v2,GCF_005519135.2_ASM551913v2_bin_Unbinned,NZ_CP031381.2,S27_LN_i_10199_dp_f_42.871858735299774,10199,1.0
GCF_005519135.2_ASM551913v2,GCF_005519135.2_ASM551913v2_bin_1,NZ_CP031382.1,S19_LN_i_62301_dp_f_3.477754187007748,62301,1.0
GCF_005519135.2_ASM551913v2,GCF_005519135.2_ASM551913v2_bin_1,NZ_CP031380.1,S34_LN_i_1075_dp_f_14.523670651954337,1075,1.0
GCF_005519135.2_ASM551913v2,GCF_005519135.2_ASM551913v2_bin_1,NZ_CP031380.1,S34_LN_i_1075_dp_f_14.523670651954337,1075,1.0
GCF_005519135.2_ASM551913v2,GCF_005519135.2_ASM551913v2_bin_1,NZ_CP031382.1,S34_LN_i_1075_dp_f_14.523670651954337,1075,1.0
GCF_005519135.2_ASM551913v2,GCF_005519135.2_ASM551913v2_bin_1,NZ_CP031380.1,S34_LN_i_1075_dp_f_14.523670651954337,1075,1.0
GCF_005519135.2_ASM551913v2,GCF_005519135.2_ASM551913v2_bin_1,NZ_CP031380.1,S34_LN_i_1075_dp_f_14.523670651954337,1075,1.0
GCF_005519135.2_ASM551913v2,GCF_005519135.2_ASM551913v2_bin_1,NZ_CP031380.1,S34_LN_i_1075_dp_f_14.523670651954337,1075,1.0
GCF_005519135.2_ASM551913v2,GCF_005519135.2_ASM551913v2_bin_1,NZ_CP031382.1,S34_LN_i_1075_dp_f_14.523670651954337,1075,1.0
GCF_005519135.2_ASM551913v2,GCF_005519135.2_ASM551913v2_bin_1,NZ_CP031380.1,S34_LN_i_1075_dp_f_14.523670651954337,1075,1.0
GCF_005519135.2_ASM551913v2,GCF_005519135.2_ASM551913v2_bin_1,NZ_CP031380.1,S34_LN_i_1075_dp_f_14.523670651954337,1075,1.0
GCF_016903135.1_ASM1690313v1,GCF_016903135.1_ASM1690313v1_bin_2,NZ_CP069842.1,S39_LN_i_13764_dp_f_9.829963478345826,13764,1.0
GCF_016903135.1_ASM1690313v1,GCF_016903135.1_ASM1690313v1_bin_1,NZ_CP069841.1,S25_LN_i_53709_dp_f_2.139088710070923,53709,1.0
GCF_016903135.1_ASM1690313v1,GCF_016903135.1_ASM1690313v1_bin_1,NZ_CP069841.1,S42_LN_i_11896_dp_f_2.1170736828394094,11896,1.0
GCF_016903135.1_ASM1690313v1,GCF_016903135.1_ASM1690313v1_bin_1,NZ_CP069841.1,S51_LN_i_4316_dp_f_2.1158202945604643,4316,1.0
GCF_013372085.1_ASM1337208v1,GCF_013372085.1_ASM1337208v1_bin_2,NZ_CP053099.1,S16_LN_i_13409_dp_f_1.8571449590804787,13409,1.0
GCF_013372085.1_ASM1337208v1,GCF_013372085.1_ASM1337208v1_bin_3,NZ_CP053100.1,S17_LN_i_11302_dp_f_2.9823650849902927,11302,1.0
GCF_013372085.1_ASM1337208v1,GCF_013372085.1_ASM1337208v1_bin_1,NZ_CP053098.1,S19_LN_i_9515_dp_f_1.3956575272814469,9515,1.0
GCF_020132105.1_ASM2013210v1,GCF_020132105.1_ASM2013210v1_bin_1,NZ_CP082953.1,S37_LN_i_9205_dp_f_1.510596041806134,9205,1.0
GCF_017753625.1_ASM1775362v1,GCF_017753625.1_ASM1775362v1_bin_1,NZ_CP072527.1,S18_LN_i_2383_dp_f_1.2696431788084754,2383,1.0
GCF_017753625.1_ASM1775362v1,GCF_017753625.1_ASM1775362v1_bin_1,NZ_CP072527.1,S9_LN_i_107631_dp_f_1.1673506195724153,107631,1.0
GCF_017753625.1_ASM1775362v1,GCF_017753625.1_ASM1775362v1_bin_2,NZ_CP072528.1,S11_LN_i_71430_dp_f_2.099067377990425,71430,1.0
GCF_017753625.1_ASM1775362v1,GCF_017753625.1_ASM1775362v1_bin_2,NZ_CP072528.1,S14_LN_i_15233_dp_f_2.140052014913104,15233,1.0
GCF_020985285.1_ASM2098528v1,GCF_020985285.1_ASM2098528v1_bin_1,NZ_CP087595.1,S31_LN_i_8571_dp_f_7.576232947114663,8571,0.98
GCF_020985285.1_ASM2098528v1,GCF_020985285.1_ASM2098528v1_bin_2,NZ_CP087596.1,S33_LN_i_5870_dp_f_41.911530729526504,5870,1.0
GCF_016919525.1_ASM1691952v2,GCF_016919525.1_ASM1691952v2_bin_Unbinned,NZ_CP070361.1,S179_LN_i_5316_dp_f_0.5286967989564718,5316,1.0
GCF_016919525.1_ASM1691952v2,GCF_016919525.1_ASM1691952v2_bin_Unbinned,NZ_CP070361.1,S183_LN_i_4937_dp_f_0.3469554124948216,4937,1.0
GCF_016919525.1_ASM1691952v2,GCF_016919525.1_ASM1691952v2_bin_Unbinned,NZ_CP070361.1,S213_LN_i_3625_dp_f_0.4808814652816575,3625,1.0
GCF_016919525.1_ASM1691952v2,GCF_016919525.1_ASM1691952v2_bin_Unbinned,NZ_CP070361.1,S249_LN_i_1813_dp_f_0.3808208519841451,1813,1.0
GCF_016919525.1_ASM1691952v2,GCF_016919525.1_ASM1691952v2_bin_Unbinned,NZ_CP070361.1,S250_LN_i_1787_dp_f_1.0197236326475692,1787,1.0
GCF_016919525.1_ASM1691952v2,GCF_016919525.1_ASM1691952v2_bin_Unbinned,NZ_CP070361.1,S57_LN_i_22726_dp_f_0.6315376970026838,22726,1.0
GCF_016919525.1_ASM1691952v2,GCF_016919525.1_ASM1691952v2_bin_2,NZ_CP070359.1,S243_LN_i_1967_dp_f_33.76685313481322,1967,1.0
GCF_016919525.1_ASM1691952v2,GCF_016919525.1_ASM1691952v2_bin_1,NZ_CP070361.1,S174_LN_i_5997_dp_f_0.4591510553555168,5997,1.0
GCF_016919525.1_ASM1691952v2,GCF_016919525.1_ASM1691952v2_bin_1,NZ_CP070361.1,S182_LN_i_4970_dp_f_1.5087578262723427,4970,1.0
GCF_016919525.1_ASM1691952v2,GCF_016919525.1_ASM1691952v2_bin_1,NZ_CP070361.1,S182_LN_i_4970_dp_f_1.5087578262723427,4970,1.0
GCF_018831125.1_ASM1883112v1,GCF_018831125.1_ASM1883112v1_bin_2,NZ_CP048132.1,S54_LN_i_6078_dp_f_9.369893360280269,6078,1.0
GCF_018831125.1_ASM1883112v1,GCF_018831125.1_ASM1883112v1_bin_1,NZ_CP048135.1,S22_LN_i_67284_dp_f_1.2825681337355188,67284,1.0
GCF_018831125.1_ASM1883112v1,GCF_018831125.1_ASM1883112v1_bin_1,NZ_CP048134.1,S24_LN_i_61514_dp_f_1.7868639050319977,61514,1.0
GCF_018831125.1_ASM1883112v1,GCF_018831125.1_ASM1883112v1_bin_1,NZ_CP048135.1,S40_LN_i_19678_dp_f_1.2683873512567456,19678,1.0
GCF_018831125.1_ASM1883112v1,GCF_018831125.1_ASM1883112v1_bin_1,NZ_CP048135.1,S43_LN_i_17882_dp_f_1.324274907517093,17882,1.0
GCF_018831125.1_ASM1883112v1,GCF_018831125.1_ASM1883112v1_bin_1,NZ_CP048135.1,S47_LN_i_12510_dp_f_1.3057186122664906,12510,1.0
GCF_018831125.1_ASM1883112v1,GCF_018831125.1_ASM1883112v1_bin_1,NZ_CP048135.1,S50_LN_i_9343_dp_f_1.172954915607902,9343,1.0
GCF_018831125.1_ASM1883112v1,GCF_018831125.1_ASM1883112v1_bin_1,NZ_CP048135.1,S51_LN_i_9243_dp_f_1.1775284933980432,9243,1.0
GCF_018831125.1_ASM1883112v1,GCF_018831125.1_ASM1883112v1_bin_1,NZ_CP048135.1,S52_LN_i_9062_dp_f_1.3509569147609741,9062,1.0
GCF_018831125.1_ASM1883112v1,GCF_018831125.1_ASM1883112v1_bin_1,NZ_CP048135.1,S58_LN_i_4579_dp_f_1.3096693996275033,4579,1.0
GCF_018831125.1_ASM1883112v1,GCF_018831125.1_ASM1883112v1_bin_1,NZ_CP048135.1,S59_LN_i_4508_dp_f_1.290284259045495,4508,1.0
GCF_018831125.1_ASM1883112v1,GCF_018831125.1_ASM1883112v1_bin_1,NZ_CP048134.1,S63_LN_i_3631_dp_f_1.7541992096743195,3631,1.0
GCF_018831125.1_ASM1883112v1,GCF_018831125.1_ASM1883112v1_bin_1,NZ_CP048135.1,S65_LN_i_1404_dp_f_1.333192459063409,1404,1.0
GCF_016919505.2_ASM1691950v2,GCF_016919505.2_ASM1691950v2_bin_3,NZ_CP070363.1,S175_LN_i_1967_dp_f_30.62812549168686,1967,1.0
GCF_016919505.2_ASM1691950v2,GCF_016919505.2_ASM1691950v2_bin_1,NZ_CP070365.1,S133_LN_i_5997_dp_f_0.3297589200901693,5997,1.0
GCF_016919505.2_ASM1691950v2,GCF_016919505.2_ASM1691950v2_bin_1,NZ_CP070365.1,S139_LN_i_4970_dp_f_0.46853531456812025,4970,1.0
GCF_016919505.2_ASM1691950v2,GCF_016919505.2_ASM1691950v2_bin_2,NZ_CP070365.1,S174_LN_i_1985_dp_f_0.5744242259979684,1985,1.0
GCF_016919505.2_ASM1691950v2,GCF_016919505.2_ASM1691950v2_bin_Unbinned,NZ_CP070365.1,S126_LN_i_7366_dp_f_0.3652307210291845,7366,1.0
GCF_016919505.2_ASM1691950v2,GCF_016919505.2_ASM1691950v2_bin_Unbinned,NZ_CP070365.1,S138_LN_i_5349_dp_f_0.386456573895809,5349,1.0
GCF_016919505.2_ASM1691950v2,GCF_016919505.2_ASM1691950v2_bin_Unbinned,NZ_CP070365.1,S173_LN_i_2002_dp_f_0.28022170319535855,2002,1.0
GCF_016919505.2_ASM1691950v2,GCF_016919505.2_ASM1691950v2_bin_Unbinned,NZ_CP070365.1,S66_LN_i_21357_dp_f_0.5148937284580448,21357,1.0
GCF_019458485.1_ASM1945848v1,GCF_019458485.1_ASM1945848v1_bin_1,NZ_CP080452.1,S49_LN_i_2383_dp_f_1.0419392173233675,2383,1.0
GCF_019458485.1_ASM1945848v1,GCF_019458485.1_ASM1945848v1_bin_1,NZ_CP080452.1,S5_LN_i_245145_dp_f_1.0,245145,1.0
GCF_019458485.1_ASM1945848v1,GCF_019458485.1_ASM1945848v1_bin_4,NZ_CP080453.1,S51_LN_i_2178_dp_f_4.435345445443554,2178,1.0
GCF_019458485.1_ASM1945848v1,GCF_019458485.1_ASM1945848v1_bin_3,NZ_CP080454.1,S47_LN_i_2725_dp_f_3.201629241159743,2725,1.0
GCF_019458485.1_ASM1945848v1,GCF_019458485.1_ASM1945848v1_bin_2,NZ_CP080455.1,S35_LN_i_5685_dp_f_3.614669340862228,5685,1.0
GCF_021484905.1_ASM2148490v1,GCF_021484905.1_ASM2148490v1_bin_1,NZ_CP090607.1,S49_LN_i_2383_dp_f_1.2431428590697335,2383,1.0
GCF_021484905.1_ASM2148490v1,GCF_021484905.1_ASM2148490v1_bin_1,NZ_CP090607.1,S5_LN_i_245144_dp_f_1.0,245144,1.0
GCF_019903235.1_ASM1990323v1,GCF_019903235.1_ASM1990323v1_bin_7,NZ_CP061713.1,S176_LN_i_4483_dp_f_2.9357156049736712,4483,0.95
GCF_019903235.1_ASM1990323v1,GCF_019903235.1_ASM1990323v1_bin_6,NZ_CP061711.1,S141_LN_i_6763_dp_f_1.4292530705879927,6763,1.0
GCF_019903235.1_ASM1990323v1,GCF_019903235.1_ASM1990323v1_bin_4,NZ_CP061712.1,S168_LN_i_4871_dp_f_1.2586467807486834,4871,1.0
GCF_019903235.1_ASM1990323v1,GCF_019903235.1_ASM1990323v1_bin_4,NZ_CP061707.1,S210_LN_i_2126_dp_f_1.3435658481916857,2126,1.0
GCF_019903235.1_ASM1990323v1,GCF_019903235.1_ASM1990323v1_bin_4,NZ_CP061705.1,S224_LN_i_1727_dp_f_0.8955688801874729,1727,1.0
GCF_019903235.1_ASM1990323v1,GCF_019903235.1_ASM1990323v1_bin_4,NZ_CP061707.1,S74_LN_i_15065_dp_f_1.3711951323944065,15065,1.0
GCF_019903235.1_ASM1990323v1,GCF_019903235.1_ASM1990323v1_bin_3,NZ_CP061710.1,S129_LN_i_7696_dp_f_1.9484600273757424,7696,1.0
GCF_019903235.1_ASM1990323v1,GCF_019903235.1_ASM1990323v1_bin_3,NZ_CP061706.1,S150_LN_i_5936_dp_f_1.7992606307986616,5936,1.0
GCF_019903235.1_ASM1990323v1,GCF_019903235.1_ASM1990323v1_bin_3,NZ_CP061706.1,S165_LN_i_5177_dp_f_1.6889157117604006,5177,1.0
GCF_019903235.1_ASM1990323v1,GCF_019903235.1_ASM1990323v1_bin_1,NZ_CP061706.1,S113_LN_i_9323_dp_f_1.9247707707769932,9323,1.0
GCF_019903235.1_ASM1990323v1,GCF_019903235.1_ASM1990323v1_bin_1,NZ_CP061706.1,S130_LN_i_7592_dp_f_1.8058081669300545,7592,1.0
GCF_019903235.1_ASM1990323v1,GCF_019903235.1_ASM1990323v1_bin_1,NZ_CP061706.1,S154_LN_i_5673_dp_f_1.9404367102431295,5673,1.0
GCF_019903235.1_ASM1990323v1,GCF_019903235.1_ASM1990323v1_bin_1,NZ_CP061706.1,S174_LN_i_4594_dp_f_1.8125870622454523,4594,1.0
GCF_019903235.1_ASM1990323v1,GCF_019903235.1_ASM1990323v1_bin_1,NZ_CP061705.1,S206_LN_i_2344_dp_f_1.3245327093781367,2344,1.0
GCF_019903235.1_ASM1990323v1,GCF_019903235.1_ASM1990323v1_bin_1,NZ_CP061706.1,S218_LN_i_1864_dp_f_2.133891265013404,1864,1.0
GCF_019903235.1_ASM1990323v1,GCF_019903235.1_ASM1990323v1_bin_1,NZ_CP061706.1,S248_LN_i_1041_dp_f_2.103621507617334,1041,1.0
GCF_019903235.1_ASM1990323v1,GCF_019903235.1_ASM1990323v1_bin_1,NZ_CP061706.1,S44_LN_i_21898_dp_f_1.9113649948970222,21898,1.0
GCF_019903235.1_ASM1990323v1,GCF_019903235.1_ASM1990323v1_bin_2,NZ_CP061706.1,S119_LN_i_8577_dp_f_1.9691022186256202,8577,1.0
GCF_019903235.1_ASM1990323v1,GCF_019903235.1_ASM1990323v1_bin_2,NZ_CP061706.1,S222_LN_i_1762_dp_f_1.8847920716022684,1762,1.0
GCF_019903235.1_ASM1990323v1,GCF_019903235.1_ASM1990323v1_bin_2,NZ_CP061706.1,S52_LN_i_19895_dp_f_1.9859670358991806,19895,1.0
GCF_019903235.1_ASM1990323v1,GCF_019903235.1_ASM1990323v1_bin_5,NZ_CP061708.1,S109_LN_i_9577_dp_f_2.9035771277585187,9577,1.0
GCF_015910475.1_ASM1591047v1,GCF_015910475.1_ASM1591047v1_bin_1,NZ_CP065434.1,S21_LN_i_5161_dp_f_3.6237425909717187,5161,1.0
GCF_015910475.1_ASM1591047v1,GCF_015910475.1_ASM1591047v1_bin_2,NZ_CP065433.1,S22_LN_i_4578_dp_f_4.497723884215715,4578,1.0
GCF_015910475.1_ASM1591047v1,GCF_015910475.1_ASM1591047v1_bin_2,NZ_CP065433.1,S28_LN_i_2264_dp_f_4.51533941378293,2264,1.0
GCF_019703285.1_ASM1970328v1,GCF_019703285.1_ASM1970328v1_bin_10,NZ_AP024812.1,S122_LN_i_2444_dp_f_21.995468405605592,2444,0.99
GCF_019703285.1_ASM1970328v1,GCF_019703285.1_ASM1970328v1_bin_4,NZ_AP024805.1,S111_LN_i_3530_dp_f_9.305085817049855,3530,1.0
GCF_019703285.1_ASM1970328v1,GCF_019703285.1_ASM1970328v1_bin_4,NZ_AP024805.1,S97_LN_i_7241_dp_f_9.296899777574932,7241,1.0
GCF_019703285.1_ASM1970328v1,GCF_019703285.1_ASM1970328v1_bin_2,NZ_AP024813.1,S124_LN_i_2278_dp_f_25.331264926188947,2278,1.0
GCF_019703285.1_ASM1970328v1,GCF_019703285.1_ASM1970328v1_bin_5,NZ_AP024810.1,S119_LN_i_2833_dp_f_13.803594833545427,2833,1.0
GCF_019703285.1_ASM1970328v1,GCF_019703285.1_ASM1970328v1_bin_1,NZ_AP024803.1,S115_LN_i_3169_dp_f_0.9736580561514954,3169,1.0
GCF_019703285.1_ASM1970328v1,GCF_019703285.1_ASM1970328v1_bin_1,NZ_AP024803.1,S128_LN_i_1531_dp_f_1.0041813239157922,1531,1.0
GCF_019703285.1_ASM1970328v1,GCF_019703285.1_ASM1970328v1_bin_1,NZ_AP024803.1,S133_LN_i_1196_dp_f_0.9404971901805643,1196,1.0
GCF_019703285.1_ASM1970328v1,GCF_019703285.1_ASM1970328v1_bin_1,NZ_AP024803.1,S48_LN_i_25987_dp_f_0.9367357479769054,25987,1.0
GCF_019703285.1_ASM1970328v1,GCF_019703285.1_ASM1970328v1_bin_1,NZ_AP024803.1,S68_LN_i_16950_dp_f_0.9460441122965829,16950,1.0
GCF_019703285.1_ASM1970328v1,GCF_019703285.1_ASM1970328v1_bin_1,NZ_AP024803.1,S77_LN_i_11868_dp_f_0.9377386766601965,11868,1.0
GCF_019703285.1_ASM1970328v1,GCF_019703285.1_ASM1970328v1_bin_1,NZ_AP024803.1,S79_LN_i_11067_dp_f_0.9015686186303291,11067,1.0
GCF_019703285.1_ASM1970328v1,GCF_019703285.1_ASM1970328v1_bin_1,NZ_AP024803.1,S91_LN_i_8105_dp_f_0.9589903187372047,8105,1.0
GCF_019703285.1_ASM1970328v1,GCF_019703285.1_ASM1970328v1_bin_3,NZ_AP024806.1,S92_LN_i_8091_dp_f_7.468508245042428,8091,1.0
GCF_019703285.1_ASM1970328v1,GCF_019703285.1_ASM1970328v1_bin_6,NZ_AP024804.1,S76_LN_i_12817_dp_f_6.57731683587982,12817,1.0
GCF_019703285.1_ASM1970328v1,GCF_019703285.1_ASM1970328v1_bin_8,NZ_AP024808.1,S106_LN_i_5049_dp_f_16.849417962587182,5049,1.0
GCF_019703285.1_ASM1970328v1,GCF_019703285.1_ASM1970328v1_bin_9,NZ_AP024811.1,S112_LN_i_3496_dp_f_15.175455255639397,3496,1.0
GCF_019703285.1_ASM1970328v1,GCF_019703285.1_ASM1970328v1_bin_7,NZ_AP024807.1,S98_LN_i_7104_dp_f_10.037496388445652,7104,1.0
GCF_020810655.1_ASM2081065v1,GCF_020810655.1_ASM2081065v1_bin_2,NZ_CP085788.1,S30_LN_i_3187_dp_f_1.0316522607665064,3187,1.0
GCF_020810655.1_ASM2081065v1,GCF_020810655.1_ASM2081065v1_bin_2,NZ_CP085788.1,S34_LN_i_1332_dp_f_1.1334021041900024,1332,1.0
GCF_020810655.1_ASM2081065v1,GCF_020810655.1_ASM2081065v1_bin_1,NZ_CP085789.1,S25_LN_i_11069_dp_f_8.370303054981568,11069,0.99
GCF_020810655.1_ASM2081065v1,GCF_020810655.1_ASM2081065v1_bin_3,NZ_CP085790.1,S31_LN_i_2696_dp_f_6.284259768553319,2696,1.0
GCF_020810655.1_ASM2081065v1,GCF_020810655.1_ASM2081065v1_bin_3,NZ_CP085790.1,S32_LN_i_1942_dp_f_6.346553841095801,1942,0.96
GCF_020810655.1_ASM2081065v1,GCF_020810655.1_ASM2081065v1_bin_3,NZ_CP085790.1,S36_LN_i_1244_dp_f_6.174124922088781,1244,1.0
GCF_018604365.1_ASM1860436v1,GCF_018604365.1_ASM1860436v1_bin_1,NZ_CP071764.1,S57_LN_i_2277_dp_f_6.928793373829781,2277,0.85,1,1932
GCF_018604365.1_ASM1860436v1,GCF_018604365.1_ASM1860436v1_bin_1,NZ_CP071763.1,S57_LN_i_2277_dp_f_6.928793373829781,2277,0.15,1933,2277
GCF_014322245.1_ASM1432224v1,GCF_014322245.1_ASM1432224v1_bin_1,NZ_CP047974.1,S16_LN_i_87136_dp_f_0.6817756566917318,87136,1.0
GCF_014322245.1_ASM1432224v1,GCF_014322245.1_ASM1432224v1_bin_1,NZ_CP047974.1,S50_LN_i_3096_dp_f_0.780047913061639,3096,1.0
GCF_014322245.1_ASM1432224v1,GCF_014322245.1_ASM1432224v1_bin_1,NZ_CP047974.1,S54_LN_i_1837_dp_f_0.7978041864654309,1837,1.0
GCF_014322245.1_ASM1432224v1,GCF_014322245.1_ASM1432224v1_bin_2,NZ_CP047975.1,S25_LN_i_41975_dp_f_1.2194168303981958,41975,1.0
GCF_014322245.1_ASM1432224v1,GCF_014322245.1_ASM1432224v1_bin_2,NZ_CP047975.1,S32_LN_i_19299_dp_f_1.3109326472138132,19299,1.0
GCF_014322245.1_ASM1432224v1,GCF_014322245.1_ASM1432224v1_bin_2,NZ_CP047975.1,S40_LN_i_10814_dp_f_1.275693411912014,10814,1.0
GCF_014322245.1_ASM1432224v1,GCF_014322245.1_ASM1432224v1_bin_2,NZ_CP047975.1,S48_LN_i_4335_dp_f_1.2160965493751368,4335,1.0
GCF_014322245.1_ASM1432224v1,GCF_014322245.1_ASM1432224v1_bin_3,NZ_CP047976.1,S43_LN_i_7814_dp_f_4.000688443920501,7814,1.0
GCF_014705865.1_ASM1470586v1,GCF_014705865.1_ASM1470586v1_bin_1,NZ_CP061522.1,S18_LN_i_76196_dp_f_0.3799916887777762,76196,1.0
GCF_014705865.1_ASM1470586v1,GCF_014705865.1_ASM1470586v1_bin_1,NZ_CP061522.1,S26_LN_i_33753_dp_f_0.4656635578845998,33753,1.0
GCF_014169655.1_ASM1416965v1,GCF_014169655.1_ASM1416965v1_bin_1,NZ_AP022239.1,S11_LN_i_114122_dp_f_0.44967829192323705,114122,1.0
GCF_014169655.1_ASM1416965v1,GCF_014169655.1_ASM1416965v1_bin_1,NZ_AP022238.1,S29_LN_i_3814_dp_f_0.8883112569305883,3814,1.0
GCF_014169655.1_ASM1416965v1,GCF_014169655.1_ASM1416965v1_bin_2,NZ_AP022240.1,S27_LN_i_10735_dp_f_0.7559595979033731,10735,1.0
GCF_018808925.1_ASM1880892v1,GCF_018808925.1_ASM1880892v1_bin_2,NZ_CP048850.1,S60_LN_i_2277_dp_f_12.80996588576926,2277,1.0
GCF_018808925.1_ASM1880892v1,GCF_018808925.1_ASM1880892v1_bin_1,NZ_CP048851.1,S43_LN_i_14521_dp_f_1.1267800491430586,14521,1.0
GCF_018808925.1_ASM1880892v1,GCF_018808925.1_ASM1880892v1_bin_1,NZ_CP048851.1,S48_LN_i_7380_dp_f_1.1324457429821033,7380,1.0
GCF_018808925.1_ASM1880892v1,GCF_018808925.1_ASM1880892v1_bin_1,NZ_CP048851.1,S51_LN_i_6033_dp_f_1.1376328862090739,6033,1.0
GCF_014705805.1_ASM1470580v1,GCF_014705805.1_ASM1470580v1_bin_1,NZ_CP061516.1,S21_LN_i_67024_dp_f_0.577195489070059,67024,1.0
GCF_019903215.1_ASM1990321v1,GCF_019903215.1_ASM1990321v1_bin_1,NZ_CP059548.1,S54_LN_i_2383_dp_f_1.1720368135002668,2383,1.0
GCF_018831485.1_ASM1883148v1,GCF_018831485.1_ASM1883148v1_bin_1,NZ_CP049315.1,S12_LN_i_11844_dp_f_1.5992689816326495,11844,1.0
