GCF_022592395.1_ASM2259239v1,GCF_022592395.1_ASM2259239v1_bin_1,0
GCF_022592395.1_ASM2259239v1,GCF_022592395.1_ASM2259239v1_bin_2,0
GCF_022923695.1_ASM2292369v1,GCF_022923695.1_ASM2292369v1_bin_1,0
GCF_022220965.1_ASM2222096v1,GCF_022220965.1_ASM2222096v1_bin_1,0
GCF_022220965.1_ASM2222096v1,GCF_022220965.1_ASM2222096v1_bin_2,0
GCF_022832975.1_ASM2283297v1,GCF_022832975.1_ASM2283297v1_bin_1,0
GCF_024917395.1_ASM2491739v1,GCF_024917395.1_ASM2491739v1_bin_2,1
GCF_024917395.1_ASM2491739v1,GCF_024917395.1_ASM2491739v1_bin_3,1
GCF_024917395.1_ASM2491739v1,GCF_024917395.1_ASM2491739v1_bin_1,3
GCF_024206735.1_ASM2420673v1,GCF_024206735.1_ASM2420673v1_bin_Unbinned,0
GCF_024206735.1_ASM2420673v1,GCF_024206735.1_ASM2420673v1_bin_1,0
GCF_022221125.1_ASM2222112v1,GCF_022221125.1_ASM2222112v1_bin_2,0
GCF_022221125.1_ASM2222112v1,GCF_022221125.1_ASM2222112v1_bin_1,0
GCF_024637975.1_ASM2463797v1,GCF_024637975.1_ASM2463797v1_bin_2,0
GCF_024637975.1_ASM2463797v1,GCF_024637975.1_ASM2463797v1_bin_1,0
GCF_021484865.1_ASM2148486v1,GCF_021484865.1_ASM2148486v1_bin_3,0
GCF_021484865.1_ASM2148486v1,GCF_021484865.1_ASM2148486v1_bin_1,0
GCF_021484865.1_ASM2148486v1,GCF_021484865.1_ASM2148486v1_bin_2,0
GCF_018588665.2_ASM1858866v2,GCF_018588665.2_ASM1858866v2_bin_1,0
GCF_025215645.1_ASM2521564v1,GCF_025215645.1_ASM2521564v1_bin_1,0
GCF_022220505.1_ASM2222050v1,GCF_022220505.1_ASM2222050v1_bin_2,0
GCF_022220505.1_ASM2222050v1,GCF_022220505.1_ASM2222050v1_bin_1,0
GCF_022921955.1_ASM2292195v1,GCF_022921955.1_ASM2292195v1_bin_1,0
GCF_023823085.1_ASM2382308v1,GCF_023823085.1_ASM2382308v1_bin_1,0
GCF_023375155.1_ASM2337515v1,GCF_023375155.1_ASM2337515v1_bin_3,0
GCF_023375155.1_ASM2337515v1,GCF_023375155.1_ASM2337515v1_bin_2,0
GCF_023375155.1_ASM2337515v1,GCF_023375155.1_ASM2337515v1_bin_1,0
GCF_022220565.1_ASM2222056v1,GCF_022220565.1_ASM2222056v1_bin_1,0
GCF_023278615.1_ASM2327861v1,GCF_023278615.1_ASM2327861v1_bin_1,0
GCF_021513075.1_ASM2151307v1,GCF_021513075.1_ASM2151307v1_bin_2,0
GCF_021513075.1_ASM2151307v1,GCF_021513075.1_ASM2151307v1_bin_3,0
GCF_021513075.1_ASM2151307v1,GCF_021513075.1_ASM2151307v1_bin_1,0
GCF_022925215.1_ASM2292521v1,GCF_022925215.1_ASM2292521v1_bin_1,0
GCF_022221045.1_ASM2222104v1,GCF_022221045.1_ASM2222104v1_bin_1,0
GCF_022221045.1_ASM2222104v1,GCF_022221045.1_ASM2222104v1_bin_2,0
GCF_021586915.1_ASM2158691v1,GCF_021586915.1_ASM2158691v1_bin_1,0
GCF_021398305.1_ASM2139830v1,GCF_021398305.1_ASM2139830v1_bin_3,0
GCF_021398305.1_ASM2139830v1,GCF_021398305.1_ASM2139830v1_bin_1,0
GCF_021398305.1_ASM2139830v1,GCF_021398305.1_ASM2139830v1_bin_2,0
GCF_021398305.1_ASM2139830v1,GCF_021398305.1_ASM2139830v1_bin_4,0
GCF_023195815.2_ASM2319581v2,GCF_023195815.2_ASM2319581v2_bin_1,0
GCF_023347215.1_ASM2334721v1,GCF_023347215.1_ASM2334721v1_bin_3,0
GCF_023347215.1_ASM2334721v1,GCF_023347215.1_ASM2334721v1_bin_1,0
GCF_023347215.1_ASM2334721v1,GCF_023347215.1_ASM2334721v1_bin_8,0
GCF_023347215.1_ASM2334721v1,GCF_023347215.1_ASM2334721v1_bin_7,0
GCF_023347215.1_ASM2334721v1,GCF_023347215.1_ASM2334721v1_bin_4,0
GCF_023347215.1_ASM2334721v1,GCF_023347215.1_ASM2334721v1_bin_6,0
GCF_023347215.1_ASM2334721v1,GCF_023347215.1_ASM2334721v1_bin_5,0
GCF_023347215.1_ASM2334721v1,GCF_023347215.1_ASM2334721v1_bin_2,0
GCF_022921795.1_ASM2292179v1,GCF_022921795.1_ASM2292179v1_bin_1,0
GCF_024205205.1_ASM2420520v1,GCF_024205205.1_ASM2420520v1_bin_1,0
GCF_022220925.1_ASM2222092v1,GCF_022220925.1_ASM2222092v1_bin_1,0
GCF_022220925.1_ASM2222092v1,GCF_022220925.1_ASM2222092v1_bin_2,0
GCF_905338045.2_AI3057v1_cp,GCF_905338045.2_AI3057v1_cp_bin_3,0
GCF_905338045.2_AI3057v1_cp,GCF_905338045.2_AI3057v1_cp_bin_4,0
GCF_905338045.2_AI3057v1_cp,GCF_905338045.2_AI3057v1_cp_bin_1,0
GCF_905338045.2_AI3057v1_cp,GCF_905338045.2_AI3057v1_cp_bin_5,0
GCF_905338045.2_AI3057v1_cp,GCF_905338045.2_AI3057v1_cp_bin_2,0
GCF_905338045.2_AI3057v1_cp,GCF_905338045.2_AI3057v1_cp_bin_6,0
GCF_021496325.1_ASM2149632v1,GCF_021496325.1_ASM2149632v1_bin_1,0
GCF_024333985.1_ASM2433398v1,GCF_024333985.1_ASM2433398v1_bin_1,0
GCF_002103235.2_ASM210323v2,GCF_002103235.2_ASM210323v2_bin_1,0
GCF_022433565.1_ASM2243356v1,GCF_022433565.1_ASM2243356v1_bin_1,0
GCF_022537925.1_ASM2253792v1,GCF_022537925.1_ASM2253792v1_bin_3,0
GCF_022537925.1_ASM2253792v1,GCF_022537925.1_ASM2253792v1_bin_2,0
GCF_022537925.1_ASM2253792v1,GCF_022537925.1_ASM2253792v1_bin_1,0
GCF_023347315.1_ASM2334731v1,GCF_023347315.1_ASM2334731v1_bin_1,0
GCF_024734255.1_ASM2473425v1,GCF_024734255.1_ASM2473425v1_bin_2,0
GCF_024734255.1_ASM2473425v1,GCF_024734255.1_ASM2473425v1_bin_1,0
GCF_024734255.1_ASM2473425v1,GCF_024734255.1_ASM2473425v1_bin_3,0
GCF_022221105.1_ASM2222110v1,GCF_022221105.1_ASM2222110v1_bin_1,0
GCF_022592275.1_ASM2259227v1,GCF_022592275.1_ASM2259227v1_bin_3,0
GCF_022592275.1_ASM2259227v1,GCF_022592275.1_ASM2259227v1_bin_1,0
GCF_022592275.1_ASM2259227v1,GCF_022592275.1_ASM2259227v1_bin_2,0
GCF_905331345.2_AI3010v1_cpp,GCF_905331345.2_AI3010v1_cpp_bin_1,0
GCF_905331345.2_AI3010v1_cpp,GCF_905331345.2_AI3010v1_cpp_bin_2,0
GCF_905331345.2_AI3010v1_cpp,GCF_905331345.2_AI3010v1_cpp_bin_Unbinned,0
GCF_023757925.1_ASM2375792v1,GCF_023757925.1_ASM2375792v1_bin_2,0
GCF_023757925.1_ASM2375792v1,GCF_023757925.1_ASM2375792v1_bin_1,0
GCF_024734685.1_ASM2473468v1,GCF_024734685.1_ASM2473468v1_bin_1,0
GCF_024741855.1_ASM2474185v1,GCF_024741855.1_ASM2474185v1_bin_1,0
GCF_022049065.2_ASM2204906v2,GCF_022049065.2_ASM2204906v2_bin_1,0
GCF_022049065.2_ASM2204906v2,GCF_022049065.2_ASM2204906v2_bin_2,0
GCF_022343725.1_ASM2234372v1,GCF_022343725.1_ASM2234372v1_bin_1,0
GCF_022453665.1_ASM2245366v1,GCF_022453665.1_ASM2245366v1_bin_1,0
GCF_023375325.1_ASM2337532v1,GCF_023375325.1_ASM2337532v1_bin_1,0
GCF_024722495.1_ASM2472249v1,GCF_024722495.1_ASM2472249v1_bin_1,0
GCF_022923515.1_ASM2292351v1,GCF_022923515.1_ASM2292351v1_bin_1,0
GCF_021559735.1_ASM2155973v1,GCF_021559735.1_ASM2155973v1_bin_1,0
GCF_022394675.1_ASM2239467v1,GCF_022394675.1_ASM2239467v1_bin_1,0
GCF_022925795.1_ASM2292579v1,GCF_022925795.1_ASM2292579v1_bin_1,0
GCF_905337805.2_AN2353v1_cp,GCF_905337805.2_AN2353v1_cp_bin_4,0
GCF_905337805.2_AN2353v1_cp,GCF_905337805.2_AN2353v1_cp_bin_2,0
GCF_905337805.2_AN2353v1_cp,GCF_905337805.2_AN2353v1_cp_bin_1,0
GCF_905337805.2_AN2353v1_cp,GCF_905337805.2_AN2353v1_cp_bin_3,0
GCF_023547145.1_ASM2354714v1,GCF_023547145.1_ASM2354714v1_bin_2,2
GCF_023547145.1_ASM2354714v1,GCF_023547145.1_ASM2354714v1_bin_3,0
GCF_023547145.1_ASM2354714v1,GCF_023547145.1_ASM2354714v1_bin_1,2
GCF_024206635.1_ASM2420663v1,GCF_024206635.1_ASM2420663v1_bin_1,0
GCF_022343705.1_ASM2234370v1,GCF_022343705.1_ASM2234370v1_bin_2,0
GCF_022343705.1_ASM2234370v1,GCF_022343705.1_ASM2234370v1_bin_3,0
GCF_022343705.1_ASM2234370v1,GCF_022343705.1_ASM2234370v1_bin_1,0
GCF_022343705.1_ASM2234370v1,GCF_022343705.1_ASM2234370v1_bin_4,0
GCF_022478075.1_ASM2247807v1,GCF_022478075.1_ASM2247807v1_bin_1,0
GCF_022478075.1_ASM2247807v1,GCF_022478075.1_ASM2247807v1_bin_2,0
GCF_022819325.1_ASM2281932v1,GCF_022819325.1_ASM2281932v1_bin_1,0
GCF_022819325.1_ASM2281932v1,GCF_022819325.1_ASM2281932v1_bin_3,0
GCF_022819325.1_ASM2281932v1,GCF_022819325.1_ASM2281932v1_bin_Unbinned,0
GCF_022819325.1_ASM2281932v1,GCF_022819325.1_ASM2281932v1_bin_2,0
GCF_022220625.1_ASM2222062v1,GCF_022220625.1_ASM2222062v1_bin_2,0
GCF_022220625.1_ASM2222062v1,GCF_022220625.1_ASM2222062v1_bin_1,0
GCF_024918795.1_ASM2491879v1,GCF_024918795.1_ASM2491879v1_bin_1,1
GCF_024918795.1_ASM2491879v1,GCF_024918795.1_ASM2491879v1_bin_3,0
GCF_024918795.1_ASM2491879v1,GCF_024918795.1_ASM2491879v1_bin_4,0
GCF_024918795.1_ASM2491879v1,GCF_024918795.1_ASM2491879v1_bin_2,1
GCF_023008225.1_ASM2300822v1,GCF_023008225.1_ASM2300822v1_bin_2,0
GCF_023008225.1_ASM2300822v1,GCF_023008225.1_ASM2300822v1_bin_3,0
GCF_023008225.1_ASM2300822v1,GCF_023008225.1_ASM2300822v1_bin_1,0
GCF_022439525.1_ASM2243952v1,GCF_022439525.1_ASM2243952v1_bin_Unbinned,0
GCF_022439525.1_ASM2243952v1,GCF_022439525.1_ASM2243952v1_bin_1,0
GCF_022923155.1_ASM2292315v1,GCF_022923155.1_ASM2292315v1_bin_1,0
GCF_905329555.2_AI2744v1_cpp,GCF_905329555.2_AI2744v1_cpp_bin_3,0
GCF_905329555.2_AI2744v1_cpp,GCF_905329555.2_AI2744v1_cpp_bin_2,0
GCF_905329555.2_AI2744v1_cpp,GCF_905329555.2_AI2744v1_cpp_bin_1,0
GCF_905329555.2_AI2744v1_cpp,GCF_905329555.2_AI2744v1_cpp_bin_4,0
GCF_905329555.2_AI2744v1_cpp,GCF_905329555.2_AI2744v1_cpp_bin_5,0
GCF_022220645.1_ASM2222064v1,GCF_022220645.1_ASM2222064v1_bin_2,0
GCF_022220645.1_ASM2222064v1,GCF_022220645.1_ASM2222064v1_bin_1,0
GCF_022921855.1_ASM2292185v1,GCF_022921855.1_ASM2292185v1_bin_1,0
GCF_021397795.1_ASM2139779v1,GCF_021397795.1_ASM2139779v1_bin_1,0
GCF_021459905.1_ASM2145990v1,GCF_021459905.1_ASM2145990v1_bin_1,0
GCF_024918215.1_ASM2491821v1,GCF_024918215.1_ASM2491821v1_bin_1,0
GCF_024918215.1_ASM2491821v1,GCF_024918215.1_ASM2491821v1_bin_2,0
GCF_905333855.2_AI2913v1_cp,GCF_905333855.2_AI2913v1_cp_bin_1,0
GCF_905333855.2_AI2913v1_cp,GCF_905333855.2_AI2913v1_cp_bin_2,0
GCF_905333855.2_AI2913v1_cp,GCF_905333855.2_AI2913v1_cp_bin_3,1
GCF_023299445.1_ASM2329944v1,GCF_023299445.1_ASM2329944v1_bin_1,0
GCF_024397415.1_ASM2439741v1,GCF_024397415.1_ASM2439741v1_bin_2,0
GCF_024397415.1_ASM2439741v1,GCF_024397415.1_ASM2439741v1_bin_1,0
GCF_025252385.1_ASM2525238v1,GCF_025252385.1_ASM2525238v1_bin_3,0
GCF_025252385.1_ASM2525238v1,GCF_025252385.1_ASM2525238v1_bin_2,0
GCF_025252385.1_ASM2525238v1,GCF_025252385.1_ASM2525238v1_bin_1,0
GCF_024917575.1_ASM2491757v1,GCF_024917575.1_ASM2491757v1_bin_2,0
GCF_024917575.1_ASM2491757v1,GCF_024917575.1_ASM2491757v1_bin_1,0
GCF_024206775.1_ASM2420677v1,GCF_024206775.1_ASM2420677v1_bin_1,0
GCF_022221185.1_ASM2222118v1,GCF_022221185.1_ASM2222118v1_bin_1,0
GCF_022221185.1_ASM2222118v1,GCF_022221185.1_ASM2222118v1_bin_2,0
GCF_024717335.1_ASM2471733v1,GCF_024717335.1_ASM2471733v1_bin_1,0
GCF_021391455.1_ASM2139145v1,GCF_021391455.1_ASM2139145v1_bin_1,0
GCF_023983475.1_ASM2398347v1,GCF_023983475.1_ASM2398347v1_bin_1,0
GCF_021459945.1_ASM2145994v1,GCF_021459945.1_ASM2145994v1_bin_2,0
GCF_021459945.1_ASM2145994v1,GCF_021459945.1_ASM2145994v1_bin_1,0
GCF_021459945.1_ASM2145994v1,GCF_021459945.1_ASM2145994v1_bin_3,0
GCF_018588615.2_ASM1858861v2,GCF_018588615.2_ASM1858861v2_bin_1,0
GCF_905330865.2_AI2946v1_cpp,GCF_905330865.2_AI2946v1_cpp_bin_4,0
GCF_905330865.2_AI2946v1_cpp,GCF_905330865.2_AI2946v1_cpp_bin_2,0
GCF_905330865.2_AI2946v1_cpp,GCF_905330865.2_AI2946v1_cpp_bin_3,0
GCF_905330865.2_AI2946v1_cpp,GCF_905330865.2_AI2946v1_cpp_bin_1,0
GCF_022921195.1_ASM2292119v1,GCF_022921195.1_ASM2292119v1_bin_1,0
GCF_905329885.2_AI2826v1_cpp,GCF_905329885.2_AI2826v1_cpp_bin_2,0
GCF_905329885.2_AI2826v1_cpp,GCF_905329885.2_AI2826v1_cpp_bin_1,0
GCF_905329885.2_AI2826v1_cpp,GCF_905329885.2_AI2826v1_cpp_bin_3,0
GCF_023205075.1_ASM2320507v1,GCF_023205075.1_ASM2320507v1_bin_1,0
GCF_024086695.1_ASM2408669v1,GCF_024086695.1_ASM2408669v1_bin_1,0
GCF_023822185.1_ASM2382218v1,GCF_023822185.1_ASM2382218v1_bin_3,0
GCF_023822185.1_ASM2382218v1,GCF_023822185.1_ASM2382218v1_bin_5,0
GCF_023822185.1_ASM2382218v1,GCF_023822185.1_ASM2382218v1_bin_1,0
GCF_023822185.1_ASM2382218v1,GCF_023822185.1_ASM2382218v1_bin_2,0
GCF_023822185.1_ASM2382218v1,GCF_023822185.1_ASM2382218v1_bin_4,0
GCF_023611705.1_ASM2361170v1,GCF_023611705.1_ASM2361170v1_bin_2,0
GCF_023611705.1_ASM2361170v1,GCF_023611705.1_ASM2361170v1_bin_1,0
GCF_023611705.1_ASM2361170v1,GCF_023611705.1_ASM2361170v1_bin_3,0
GCF_021432745.1_ASM2143274v1,GCF_021432745.1_ASM2143274v1_bin_1,0
GCF_021432745.1_ASM2143274v1,GCF_021432745.1_ASM2143274v1_bin_Unbinned,0
GCF_025147765.1_ASM2514776v1,GCF_025147765.1_ASM2514776v1_bin_1,0
GCF_024206615.1_ASM2420661v1,GCF_024206615.1_ASM2420661v1_bin_Unbinned,0
GCF_024206615.1_ASM2420661v1,GCF_024206615.1_ASM2420661v1_bin_1,0
GCF_023824315.1_ASM2382431v1,GCF_023824315.1_ASM2382431v1_bin_1,0
GCF_024334045.1_ASM2433404v1,GCF_024334045.1_ASM2433404v1_bin_2,0
GCF_024334045.1_ASM2433404v1,GCF_024334045.1_ASM2433404v1_bin_1,0
GCF_021496015.1_ASM2149601v1,GCF_021496015.1_ASM2149601v1_bin_1,0
GCF_021496015.1_ASM2149601v1,GCF_021496015.1_ASM2149601v1_bin_2,0
GCF_022923135.1_ASM2292313v1,GCF_022923135.1_ASM2292313v1_bin_1,0
GCF_023509315.1_ASM2350931v1,GCF_023509315.1_ASM2350931v1_bin_1,0
GCF_022592155.1_ASM2259215v1,GCF_022592155.1_ASM2259215v1_bin_2,0
GCF_022592155.1_ASM2259215v1,GCF_022592155.1_ASM2259215v1_bin_1,0
GCF_023299565.1_ASM2329956v1,GCF_023299565.1_ASM2329956v1_bin_1,0
GCF_023299565.1_ASM2329956v1,GCF_023299565.1_ASM2329956v1_bin_3,0
GCF_023299565.1_ASM2329956v1,GCF_023299565.1_ASM2329956v1_bin_2,0
GCF_024917315.1_ASM2491731v1,GCF_024917315.1_ASM2491731v1_bin_1,0
GCF_021733585.2_ASM2173358v3,GCF_021733585.2_ASM2173358v3_bin_2,1
GCF_021733585.2_ASM2173358v3,GCF_021733585.2_ASM2173358v3_bin_1,0
GCF_021459805.1_ASM2145980v1,GCF_021459805.1_ASM2145980v1_bin_1,0
GCF_024205945.1_ASM2420594v1,GCF_024205945.1_ASM2420594v1_bin_1,0
GCF_024205945.1_ASM2420594v1,GCF_024205945.1_ASM2420594v1_bin_4,0
GCF_024205945.1_ASM2420594v1,GCF_024205945.1_ASM2420594v1_bin_6,0
GCF_024205945.1_ASM2420594v1,GCF_024205945.1_ASM2420594v1_bin_2,0
GCF_024205945.1_ASM2420594v1,GCF_024205945.1_ASM2420594v1_bin_3,0
GCF_024205945.1_ASM2420594v1,GCF_024205945.1_ASM2420594v1_bin_5,0
GCF_024224615.1_ASM2422461v1,GCF_024224615.1_ASM2422461v1_bin_1,0
GCF_021559795.1_ASM2155979v1,GCF_021559795.1_ASM2155979v1_bin_2,0
GCF_021559795.1_ASM2155979v1,GCF_021559795.1_ASM2155979v1_bin_5,0
GCF_021559795.1_ASM2155979v1,GCF_021559795.1_ASM2155979v1_bin_1,0
GCF_021559795.1_ASM2155979v1,GCF_021559795.1_ASM2155979v1_bin_4,0
GCF_021559795.1_ASM2155979v1,GCF_021559795.1_ASM2155979v1_bin_3,0
GCF_022220945.1_ASM2222094v1,GCF_022220945.1_ASM2222094v1_bin_1,0
GCF_022220945.1_ASM2222094v1,GCF_022220945.1_ASM2222094v1_bin_2,0
GCF_023374275.1_ASM2337427v1,GCF_023374275.1_ASM2337427v1_bin_1,0
GCF_024917675.1_ASM2491767v1,GCF_024917675.1_ASM2491767v1_bin_2,0
GCF_024917675.1_ASM2491767v1,GCF_024917675.1_ASM2491767v1_bin_1,1
GCF_024334025.1_ASM2433402v1,GCF_024334025.1_ASM2433402v1_bin_1,0
GCF_024334025.1_ASM2433402v1,GCF_024334025.1_ASM2433402v1_bin_3,0
GCF_024334025.1_ASM2433402v1,GCF_024334025.1_ASM2433402v1_bin_2,0
GCF_905322535.1_AI2624v1_cpp,GCF_905322535.1_AI2624v1_cpp_bin_1,0
GCF_905322535.1_AI2624v1_cpp,GCF_905322535.1_AI2624v1_cpp_bin_2,0
GCF_905322535.1_AI2624v1_cpp,GCF_905322535.1_AI2624v1_cpp_bin_4,0
GCF_905322535.1_AI2624v1_cpp,GCF_905322535.1_AI2624v1_cpp_bin_3,0
GCF_022221245.1_ASM2222124v1,GCF_022221245.1_ASM2222124v1_bin_1,0
GCF_022221245.1_ASM2222124v1,GCF_022221245.1_ASM2222124v1_bin_2,0
GCF_022220605.1_ASM2222060v1,GCF_022220605.1_ASM2222060v1_bin_1,0
GCF_022220605.1_ASM2222060v1,GCF_022220605.1_ASM2222060v1_bin_2,0
GCF_025149285.1_ASM2514928v1,GCF_025149285.1_ASM2514928v1_bin_1,0
GCF_022924515.1_ASM2292451v1,GCF_022924515.1_ASM2292451v1_bin_1,0
GCF_022922915.1_ASM2292291v1,GCF_022922915.1_ASM2292291v1_bin_1,0
GCF_024637915.1_ASM2463791v1,GCF_024637915.1_ASM2463791v1_bin_1,0
GCF_022221025.1_ASM2222102v1,GCF_022221025.1_ASM2222102v1_bin_2,0
GCF_022221025.1_ASM2222102v1,GCF_022221025.1_ASM2222102v1_bin_1,0
GCF_021513035.1_ASM2151303v1,GCF_021513035.1_ASM2151303v1_bin_5,0
GCF_021513035.1_ASM2151303v1,GCF_021513035.1_ASM2151303v1_bin_1,0
GCF_021513035.1_ASM2151303v1,GCF_021513035.1_ASM2151303v1_bin_3,0
GCF_021513035.1_ASM2151303v1,GCF_021513035.1_ASM2151303v1_bin_2,0
GCF_021513035.1_ASM2151303v1,GCF_021513035.1_ASM2151303v1_bin_4,0
GCF_023573605.1_ASM2357360v1,GCF_023573605.1_ASM2357360v1_bin_1,0
GCF_023573605.1_ASM2357360v1,GCF_023573605.1_ASM2357360v1_bin_2,0
GCF_022922655.1_ASM2292265v1,GCF_022922655.1_ASM2292265v1_bin_1,0
GCF_024158965.2_ASM2415896v2,GCF_024158965.2_ASM2415896v2_bin_1,0
GCF_024158965.2_ASM2415896v2,GCF_024158965.2_ASM2415896v2_bin_2,0
GCF_024158965.2_ASM2415896v2,GCF_024158965.2_ASM2415896v2_bin_4,0
GCF_024158965.2_ASM2415896v2,GCF_024158965.2_ASM2415896v2_bin_3,0
GCF_024225115.1_ASM2422511v1,GCF_024225115.1_ASM2422511v1_bin_2,0
GCF_024225115.1_ASM2422511v1,GCF_024225115.1_ASM2422511v1_bin_1,0
GCF_024205845.1_ASM2420584v1,GCF_024205845.1_ASM2420584v1_bin_1,0
GCF_022921235.1_ASM2292123v1,GCF_022921235.1_ASM2292123v1_bin_1,0
GCF_022921275.1_ASM2292127v1,GCF_022921275.1_ASM2292127v1_bin_1,0
GCF_004636745.1_ASM463674v2,GCF_004636745.1_ASM463674v2_bin_1,0
GCF_022879615.1_ASM2287961v1,GCF_022879615.1_ASM2287961v1_bin_1,0
GCF_022879615.1_ASM2287961v1,GCF_022879615.1_ASM2287961v1_bin_3,0
GCF_022879615.1_ASM2287961v1,GCF_022879615.1_ASM2287961v1_bin_2,0
GCF_022221225.1_ASM2222122v1,GCF_022221225.1_ASM2222122v1_bin_1,0
GCF_022221225.1_ASM2222122v1,GCF_022221225.1_ASM2222122v1_bin_2,0
GCF_023195715.1_ASM2319571v1,GCF_023195715.1_ASM2319571v1_bin_2,0
GCF_023195715.1_ASM2319571v1,GCF_023195715.1_ASM2319571v1_bin_5,0
GCF_023195715.1_ASM2319571v1,GCF_023195715.1_ASM2319571v1_bin_3,0
GCF_023195715.1_ASM2319571v1,GCF_023195715.1_ASM2319571v1_bin_8,0
GCF_023195715.1_ASM2319571v1,GCF_023195715.1_ASM2319571v1_bin_6,0
GCF_023195715.1_ASM2319571v1,GCF_023195715.1_ASM2319571v1_bin_4,0
GCF_023195715.1_ASM2319571v1,GCF_023195715.1_ASM2319571v1_bin_7,0
GCF_023195715.1_ASM2319571v1,GCF_023195715.1_ASM2319571v1_bin_1,0
GCF_023195715.1_ASM2319571v1,GCF_023195715.1_ASM2319571v1_bin_9,0
GCF_022221065.1_ASM2222106v1,GCF_022221065.1_ASM2222106v1_bin_1,0
GCF_022221065.1_ASM2222106v1,GCF_022221065.1_ASM2222106v1_bin_2,0
GCF_905337845.2_AN2351v1_cp,GCF_905337845.2_AN2351v1_cp_bin_1,0
GCF_020641355.2_ASM2064135v2,GCF_020641355.2_ASM2064135v2_bin_1,0
GCF_020641355.2_ASM2064135v2,GCF_020641355.2_ASM2064135v2_bin_2,0
GCF_021474225.1_ASM2147422v1,GCF_021474225.1_ASM2147422v1_bin_1,0
GCF_022925675.1_ASM2292567v1,GCF_022925675.1_ASM2292567v1_bin_1,0
GCF_023375305.1_ASM2337530v1,GCF_023375305.1_ASM2337530v1_bin_2,0
GCF_023375305.1_ASM2337530v1,GCF_023375305.1_ASM2337530v1_bin_1,0
GCF_024918255.1_ASM2491825v1,GCF_024918255.1_ASM2491825v1_bin_4,0
GCF_024918255.1_ASM2491825v1,GCF_024918255.1_ASM2491825v1_bin_3,0
GCF_024918255.1_ASM2491825v1,GCF_024918255.1_ASM2491825v1_bin_1,0
GCF_024918255.1_ASM2491825v1,GCF_024918255.1_ASM2491825v1_bin_2,0
GCF_024205905.1_ASM2420590v1,GCF_024205905.1_ASM2420590v1_bin_1,0
GCF_024205905.1_ASM2420590v1,GCF_024205905.1_ASM2420590v1_bin_2,0
GCF_025148125.1_ASM2514812v1,GCF_025148125.1_ASM2514812v1_bin_2,0
GCF_025148125.1_ASM2514812v1,GCF_025148125.1_ASM2514812v1_bin_1,0
GCF_905338025.2_AN2363v1_cp,GCF_905338025.2_AN2363v1_cp_bin_2,0
GCF_905338025.2_AN2363v1_cp,GCF_905338025.2_AN2363v1_cp_bin_1,0
GCF_024137845.1_ASM2413784v1,GCF_024137845.1_ASM2413784v1_bin_1,0
GCF_022221305.1_ASM2222130v1,GCF_022221305.1_ASM2222130v1_bin_1,0
GCF_022221305.1_ASM2222130v1,GCF_022221305.1_ASM2222130v1_bin_2,0
GCF_021459825.1_ASM2145982v1,GCF_021459825.1_ASM2145982v1_bin_1,0
GCF_024917295.1_ASM2491729v1,GCF_024917295.1_ASM2491729v1_bin_2,2
GCF_024917295.1_ASM2491729v1,GCF_024917295.1_ASM2491729v1_bin_1,0
GCF_022869765.1_ASM2286976v1,GCF_022869765.1_ASM2286976v1_bin_1,0
GCF_022869765.1_ASM2286976v1,GCF_022869765.1_ASM2286976v1_bin_4,0
GCF_022869765.1_ASM2286976v1,GCF_022869765.1_ASM2286976v1_bin_2,0
GCF_022869765.1_ASM2286976v1,GCF_022869765.1_ASM2286976v1_bin_3,0
GCF_022869765.1_ASM2286976v1,GCF_022869765.1_ASM2286976v1_bin_5,0
GCF_022221205.1_ASM2222120v1,GCF_022221205.1_ASM2222120v1_bin_2,0
GCF_022221205.1_ASM2222120v1,GCF_022221205.1_ASM2222120v1_bin_1,0
GCF_021398325.1_ASM2139832v1,GCF_021398325.1_ASM2139832v1_bin_1,0
GCF_003594935.2_ASM359493v2,GCF_003594935.2_ASM359493v2_bin_1,0
GCF_020641395.2_ASM2064139v2,GCF_020641395.2_ASM2064139v2_bin_1,0
GCF_022439585.1_ASM2243958v1,GCF_022439585.1_ASM2243958v1_bin_6,0
GCF_022439585.1_ASM2243958v1,GCF_022439585.1_ASM2243958v1_bin_Unbinned,0
GCF_022439585.1_ASM2243958v1,GCF_022439585.1_ASM2243958v1_bin_3,0
GCF_022439585.1_ASM2243958v1,GCF_022439585.1_ASM2243958v1_bin_2,0
GCF_022439585.1_ASM2243958v1,GCF_022439585.1_ASM2243958v1_bin_4,0
GCF_022439585.1_ASM2243958v1,GCF_022439585.1_ASM2243958v1_bin_5,0
GCF_022439585.1_ASM2243958v1,GCF_022439585.1_ASM2243958v1_bin_1,0
GCF_024206675.1_ASM2420667v1,GCF_024206675.1_ASM2420667v1_bin_2,0
GCF_024206675.1_ASM2420667v1,GCF_024206675.1_ASM2420667v1_bin_1,0
GCF_022591895.1_ASM2259189v1,GCF_022591895.1_ASM2259189v1_bin_2,0
GCF_022591895.1_ASM2259189v1,GCF_022591895.1_ASM2259189v1_bin_4,0
GCF_022591895.1_ASM2259189v1,GCF_022591895.1_ASM2259189v1_bin_3,0
GCF_022591895.1_ASM2259189v1,GCF_022591895.1_ASM2259189v1_bin_1,0
GCF_022221265.1_ASM2222126v1,GCF_022221265.1_ASM2222126v1_bin_2,0
GCF_022221265.1_ASM2222126v1,GCF_022221265.1_ASM2222126v1_bin_1,0
GCF_023300045.1_ASM2330004v1,GCF_023300045.1_ASM2330004v1_bin_1,0
GCF_023300045.1_ASM2330004v1,GCF_023300045.1_ASM2330004v1_bin_2,0
GCF_022370635.1_ASM2237063v1,GCF_022370635.1_ASM2237063v1_bin_1,0
GCF_022879595.1_ASM2287959v1,GCF_022879595.1_ASM2287959v1_bin_1,0
GCF_022879595.1_ASM2287959v1,GCF_022879595.1_ASM2287959v1_bin_2,0
GCF_022923575.1_ASM2292357v1,GCF_022923575.1_ASM2292357v1_bin_1,0
GCF_022570415.1_ASM2257041v1,GCF_022570415.1_ASM2257041v1_bin_1,0
GCF_024917635.1_ASM2491763v1,GCF_024917635.1_ASM2491763v1_bin_3,0
GCF_024917635.1_ASM2491763v1,GCF_024917635.1_ASM2491763v1_bin_1,0
GCF_024917635.1_ASM2491763v1,GCF_024917635.1_ASM2491763v1_bin_2,0
GCF_024371385.1_ASM2437138v1,GCF_024371385.1_ASM2437138v1_bin_1,0
GCF_022923675.1_ASM2292367v1,GCF_022923675.1_ASM2292367v1_bin_1,0
GCF_022220525.1_ASM2222052v1,GCF_022220525.1_ASM2222052v1_bin_1,0
GCF_022220525.1_ASM2222052v1,GCF_022220525.1_ASM2222052v1_bin_2,0
GCF_023375135.1_ASM2337513v1,GCF_023375135.1_ASM2337513v1_bin_1,0
GCF_023375135.1_ASM2337513v1,GCF_023375135.1_ASM2337513v1_bin_2,0
GCF_024734235.1_ASM2473423v1,GCF_024734235.1_ASM2473423v1_bin_3,0
GCF_024734235.1_ASM2473423v1,GCF_024734235.1_ASM2473423v1_bin_1,0
GCF_024734235.1_ASM2473423v1,GCF_024734235.1_ASM2473423v1_bin_2,0
GCF_023205595.1_ASM2320559v1,GCF_023205595.1_ASM2320559v1_bin_2,0
GCF_023205595.1_ASM2320559v1,GCF_023205595.1_ASM2320559v1_bin_1,0
GCF_023205595.1_ASM2320559v1,GCF_023205595.1_ASM2320559v1_bin_3,0
GCF_021559775.1_ASM2155977v1,GCF_021559775.1_ASM2155977v1_bin_1,0
GCF_018588605.2_ASM1858860v2,GCF_018588605.2_ASM1858860v2_bin_1,0
GCF_018588605.2_ASM1858860v2,GCF_018588605.2_ASM1858860v2_bin_2,0
GCF_018588605.2_ASM1858860v2,GCF_018588605.2_ASM1858860v2_bin_4,0
GCF_018588605.2_ASM1858860v2,GCF_018588605.2_ASM1858860v2_bin_Unbinned,0
GCF_018588605.2_ASM1858860v2,GCF_018588605.2_ASM1858860v2_bin_3,0
GCF_022221085.1_ASM2222108v1,GCF_022221085.1_ASM2222108v1_bin_1,0
GCF_022221085.1_ASM2222108v1,GCF_022221085.1_ASM2222108v1_bin_2,0
GCF_024205865.1_ASM2420586v1,GCF_024205865.1_ASM2420586v1_bin_1,0
GCF_905330835.2_AI2945v1_cpp,GCF_905330835.2_AI2945v1_cpp_bin_1,0
GCF_905330835.2_AI2945v1_cpp,GCF_905330835.2_AI2945v1_cpp_bin_2,0
GCF_022221325.1_ASM2222132v1,GCF_022221325.1_ASM2222132v1_bin_1,0
GCF_022221325.1_ASM2222132v1,GCF_022221325.1_ASM2222132v1_bin_2,0
GCF_024224355.1_ASM2422435v1,GCF_024224355.1_ASM2422435v1_bin_1,0
GCF_022569935.1_ASM2256993v1,GCF_022569935.1_ASM2256993v1_bin_1,0
GCF_019704155.2_ASM1970415v2,GCF_019704155.2_ASM1970415v2_bin_1,0
GCF_019704155.2_ASM1970415v2,GCF_019704155.2_ASM1970415v2_bin_4,0
GCF_019704155.2_ASM1970415v2,GCF_019704155.2_ASM1970415v2_bin_3,0
GCF_019704155.2_ASM1970415v2,GCF_019704155.2_ASM1970415v2_bin_2,0
GCF_019704155.2_ASM1970415v2,GCF_019704155.2_ASM1970415v2_bin_5,0
GCF_022221285.1_ASM2222128v1,GCF_022221285.1_ASM2222128v1_bin_2,0
GCF_022221285.1_ASM2222128v1,GCF_022221285.1_ASM2222128v1_bin_1,0
GCF_022879575.1_ASM2287957v1,GCF_022879575.1_ASM2287957v1_bin_1,0
GCF_021513055.1_ASM2151305v1,GCF_021513055.1_ASM2151305v1_bin_3,0
GCF_021513055.1_ASM2151305v1,GCF_021513055.1_ASM2151305v1_bin_1,0
GCF_021513055.1_ASM2151305v1,GCF_021513055.1_ASM2151305v1_bin_2,0
GCF_022921755.1_ASM2292175v1,GCF_022921755.1_ASM2292175v1_bin_2,0
GCF_022921755.1_ASM2292175v1,GCF_022921755.1_ASM2292175v1_bin_1,0
GCF_023170545.1_ASM2317054v1,GCF_023170545.1_ASM2317054v1_bin_1,0
GCF_024053515.2_ASM2405351v2,GCF_024053515.2_ASM2405351v2_bin_2,0
GCF_024053515.2_ASM2405351v2,GCF_024053515.2_ASM2405351v2_bin_1,0
GCF_024346605.1_ASM2434660v1,GCF_024346605.1_ASM2434660v1_bin_4,0
GCF_024346605.1_ASM2434660v1,GCF_024346605.1_ASM2434660v1_bin_2,0
GCF_024346605.1_ASM2434660v1,GCF_024346605.1_ASM2434660v1_bin_1,0
GCF_024346605.1_ASM2434660v1,GCF_024346605.1_ASM2434660v1_bin_3,0
GCF_023299765.1_ASM2329976v1,GCF_023299765.1_ASM2329976v1_bin_1,0
GCF_023822205.1_ASM2382220v1,GCF_023822205.1_ASM2382220v1_bin_5,0
GCF_023822205.1_ASM2382220v1,GCF_023822205.1_ASM2382220v1_bin_4,0
GCF_023822205.1_ASM2382220v1,GCF_023822205.1_ASM2382220v1_bin_3,0
GCF_023822205.1_ASM2382220v1,GCF_023822205.1_ASM2382220v1_bin_2,0
GCF_023822205.1_ASM2382220v1,GCF_023822205.1_ASM2382220v1_bin_1,0
GCF_020002335.2_ASM2000233v2,GCF_020002335.2_ASM2000233v2_bin_2,0
GCF_020002335.2_ASM2000233v2,GCF_020002335.2_ASM2000233v2_bin_1,0
GCF_023611785.1_ASM2361178v1,GCF_023611785.1_ASM2361178v1_bin_3,0
GCF_023611785.1_ASM2361178v1,GCF_023611785.1_ASM2361178v1_bin_1,0
GCF_023611785.1_ASM2361178v1,GCF_023611785.1_ASM2361178v1_bin_2,0
GCF_024397315.1_ASM2439731v1,GCF_024397315.1_ASM2439731v1_bin_1,0
GCF_024582835.1_ASM2458283v1,GCF_024582835.1_ASM2458283v1_bin_1,0
GCF_024917775.1_ASM2491777v1,GCF_024917775.1_ASM2491777v1_bin_4,0
GCF_024917775.1_ASM2491777v1,GCF_024917775.1_ASM2491777v1_bin_1,0
GCF_024917775.1_ASM2491777v1,GCF_024917775.1_ASM2491777v1_bin_3,0
GCF_024917775.1_ASM2491777v1,GCF_024917775.1_ASM2491777v1_bin_2,0
GCF_022220665.1_ASM2222066v1,GCF_022220665.1_ASM2222066v1_bin_2,0
GCF_022220665.1_ASM2222066v1,GCF_022220665.1_ASM2222066v1_bin_1,0
GCF_022879815.1_ASM2287981v1,GCF_022879815.1_ASM2287981v1_bin_1,0
GCF_022879815.1_ASM2287981v1,GCF_022879815.1_ASM2287981v1_bin_Unbinned,0
GCF_021496365.1_ASM2149636v1,GCF_021496365.1_ASM2149636v1_bin_4,0
GCF_021496365.1_ASM2149636v1,GCF_021496365.1_ASM2149636v1_bin_3,0
GCF_021496365.1_ASM2149636v1,GCF_021496365.1_ASM2149636v1_bin_2,0
GCF_021496365.1_ASM2149636v1,GCF_021496365.1_ASM2149636v1_bin_1,0
GCF_022845775.1_ASM2284577v1,GCF_022845775.1_ASM2284577v1_bin_1,0
GCF_022221005.1_ASM2222100v1,GCF_022221005.1_ASM2222100v1_bin_1,0
GCF_024204625.1_ASM2420462v1,GCF_024204625.1_ASM2420462v1_bin_1,0
GCF_022846335.1_ASM2284633v1,GCF_022846335.1_ASM2284633v1_bin_1,0
GCF_022846335.1_ASM2284633v1,GCF_022846335.1_ASM2284633v1_bin_2,0
GCF_021496075.1_ASM2149607v1,GCF_021496075.1_ASM2149607v1_bin_1,0
GCF_000364165.2_ASM36416v2,GCF_000364165.2_ASM36416v2_bin_1,0
GCF_022170805.1_ASM2217080v1,GCF_022170805.1_ASM2217080v1_bin_1,0
GCF_022170805.1_ASM2217080v1,GCF_022170805.1_ASM2217080v1_bin_4,0
GCF_022170805.1_ASM2217080v1,GCF_022170805.1_ASM2217080v1_bin_3,0
GCF_022170805.1_ASM2217080v1,GCF_022170805.1_ASM2217080v1_bin_2,0
GCF_023822665.1_ASM2382266v1,GCF_023822665.1_ASM2382266v1_bin_2,0
GCF_023822665.1_ASM2382266v1,GCF_023822665.1_ASM2382266v1_bin_1,0
GCF_020172765.2_ASM2017276v2,GCF_020172765.2_ASM2017276v2_bin_1,0
GCF_023375175.1_ASM2337517v1,GCF_023375175.1_ASM2337517v1_bin_1,0
GCF_023375175.1_ASM2337517v1,GCF_023375175.1_ASM2337517v1_bin_2,0
GCF_021498285.1_ASM2149828v1,GCF_021498285.1_ASM2149828v1_bin_1,0
GCF_021398655.1_ASM2139865v1,GCF_021398655.1_ASM2139865v1_bin_1,0
GCF_021398655.1_ASM2139865v1,GCF_021398655.1_ASM2139865v1_bin_2,0
GCF_024721565.1_ASM2472156v1,GCF_024721565.1_ASM2472156v1_bin_1,0
GCF_022846375.1_ASM2284637v1,GCF_022846375.1_ASM2284637v1_bin_1,0
GCF_022221345.1_ASM2222134v1,GCF_022221345.1_ASM2222134v1_bin_2,0
GCF_022221345.1_ASM2222134v1,GCF_022221345.1_ASM2222134v1_bin_1,0
GCF_021391475.1_ASM2139147v1,GCF_021391475.1_ASM2139147v1_bin_1,0
GCF_022845795.1_ASM2284579v1,GCF_022845795.1_ASM2284579v1_bin_1,0
GCF_024917695.1_ASM2491769v1,GCF_024917695.1_ASM2491769v1_bin_3,0
GCF_024917695.1_ASM2491769v1,GCF_024917695.1_ASM2491769v1_bin_2,2
GCF_024917695.1_ASM2491769v1,GCF_024917695.1_ASM2491769v1_bin_4,0
GCF_024917695.1_ASM2491769v1,GCF_024917695.1_ASM2491769v1_bin_1,0
GCF_024054255.2_ASM2405425v2,GCF_024054255.2_ASM2405425v2_bin_1,0
GCF_024054255.2_ASM2405425v2,GCF_024054255.2_ASM2405425v2_bin_2,0
GCF_022430545.2_ASM2243054v2,GCF_022430545.2_ASM2243054v2_bin_2,0
GCF_022430545.2_ASM2243054v2,GCF_022430545.2_ASM2243054v2_bin_1,0
GCF_023299185.1_ASM2329918v1,GCF_023299185.1_ASM2329918v1_bin_Unbinned,0
GCF_023299185.1_ASM2329918v1,GCF_023299185.1_ASM2329918v1_bin_1,0
GCF_022922015.1_ASM2292201v1,GCF_022922015.1_ASM2292201v1_bin_1,0
GCF_025232495.1_ASM2523249v1,GCF_025232495.1_ASM2523249v1_bin_2,0
GCF_025232495.1_ASM2523249v1,GCF_025232495.1_ASM2523249v1_bin_1,0
GCF_022921835.1_ASM2292183v1,GCF_022921835.1_ASM2292183v1_bin_1,0
GCF_022374895.2_ASM2237489v2,GCF_022374895.2_ASM2237489v2_bin_1,0
GCF_021390035.1_ASM2139003v1,GCF_021390035.1_ASM2139003v1_bin_2,0
GCF_021390035.1_ASM2139003v1,GCF_021390035.1_ASM2139003v1_bin_1,0
GCF_021398345.1_ASM2139834v1,GCF_021398345.1_ASM2139834v1_bin_1,0
GCF_024734275.1_ASM2473427v1,GCF_024734275.1_ASM2473427v1_bin_2,0
GCF_024734275.1_ASM2473427v1,GCF_024734275.1_ASM2473427v1_bin_3,0
GCF_024734275.1_ASM2473427v1,GCF_024734275.1_ASM2473427v1_bin_1,0
GCF_905331265.2_AI2999v1_cpp,GCF_905331265.2_AI2999v1_cpp_bin_2,0
GCF_905331265.2_AI2999v1_cpp,GCF_905331265.2_AI2999v1_cpp_bin_1,0
GCF_021899855.1_ASM2189985v1,GCF_021899855.1_ASM2189985v1_bin_Unbinned,0
GCF_021899855.1_ASM2189985v1,GCF_021899855.1_ASM2189985v1_bin_3,0
GCF_021899855.1_ASM2189985v1,GCF_021899855.1_ASM2189985v1_bin_1,0
GCF_021899855.1_ASM2189985v1,GCF_021899855.1_ASM2189985v1_bin_2,0
GCF_022374875.1_ASM2237487v1,GCF_022374875.1_ASM2237487v1_bin_1,0
GCF_021650955.1_ASM2165095v1,GCF_021650955.1_ASM2165095v1_bin_1,0
GCF_022220585.1_ASM2222058v1,GCF_022220585.1_ASM2222058v1_bin_1,0
GCF_022220585.1_ASM2222058v1,GCF_022220585.1_ASM2222058v1_bin_2,0
GCF_024206695.1_ASM2420669v1,GCF_024206695.1_ASM2420669v1_bin_1,0
GCF_024206695.1_ASM2420669v1,GCF_024206695.1_ASM2420669v1_bin_2,0
GCF_905335825.2_AN2340v1_cp,GCF_905335825.2_AN2340v1_cp_bin_5,0
GCF_905335825.2_AN2340v1_cp,GCF_905335825.2_AN2340v1_cp_bin_2,0
GCF_905335825.2_AN2340v1_cp,GCF_905335825.2_AN2340v1_cp_bin_4,0
GCF_905335825.2_AN2340v1_cp,GCF_905335825.2_AN2340v1_cp_bin_3,0
GCF_905335825.2_AN2340v1_cp,GCF_905335825.2_AN2340v1_cp_bin_1,0
GCF_022846315.1_ASM2284631v1,GCF_022846315.1_ASM2284631v1_bin_1,0
GCF_022921915.1_ASM2292191v1,GCF_022921915.1_ASM2292191v1_bin_1,0
GCF_905331365.1_AI3013v2_cpp,GCF_905331365.1_AI3013v2_cpp_bin_6,0
GCF_905331365.1_AI3013v2_cpp,GCF_905331365.1_AI3013v2_cpp_bin_8,0
GCF_905331365.1_AI3013v2_cpp,GCF_905331365.1_AI3013v2_cpp_bin_9,0
GCF_905331365.1_AI3013v2_cpp,GCF_905331365.1_AI3013v2_cpp_bin_3,0
GCF_905331365.1_AI3013v2_cpp,GCF_905331365.1_AI3013v2_cpp_bin_7,0
GCF_905331365.1_AI3013v2_cpp,GCF_905331365.1_AI3013v2_cpp_bin_1,0
GCF_905331365.1_AI3013v2_cpp,GCF_905331365.1_AI3013v2_cpp_bin_2,0
GCF_905331365.1_AI3013v2_cpp,GCF_905331365.1_AI3013v2_cpp_bin_5,0
GCF_905331365.1_AI3013v2_cpp,GCF_905331365.1_AI3013v2_cpp_bin_4,0
GCF_905333885.2_AI2918v1_cp,GCF_905333885.2_AI2918v1_cp_bin_3,0
GCF_905333885.2_AI2918v1_cp,GCF_905333885.2_AI2918v1_cp_bin_6,0
GCF_905333885.2_AI2918v1_cp,GCF_905333885.2_AI2918v1_cp_bin_1,0
GCF_905333885.2_AI2918v1_cp,GCF_905333885.2_AI2918v1_cp_bin_2,0
GCF_905333885.2_AI2918v1_cp,GCF_905333885.2_AI2918v1_cp_bin_5,0
GCF_905333885.2_AI2918v1_cp,GCF_905333885.2_AI2918v1_cp_bin_4,0
GCF_021496345.1_ASM2149634v1,GCF_021496345.1_ASM2149634v1_bin_1,0
GCF_021496345.1_ASM2149634v1,GCF_021496345.1_ASM2149634v1_bin_2,0
GCF_021496345.1_ASM2149634v1,GCF_021496345.1_ASM2149634v1_bin_3,0
GCF_022648965.1_ASM2264896v1,GCF_022648965.1_ASM2264896v1_bin_1,0
GCF_025349945.1_ASM2534994v1,GCF_025349945.1_ASM2534994v1_bin_3,0
GCF_025349945.1_ASM2534994v1,GCF_025349945.1_ASM2534994v1_bin_8,0
GCF_025349945.1_ASM2534994v1,GCF_025349945.1_ASM2534994v1_bin_1,0
GCF_025349945.1_ASM2534994v1,GCF_025349945.1_ASM2534994v1_bin_4,0
GCF_025349945.1_ASM2534994v1,GCF_025349945.1_ASM2534994v1_bin_7,0
GCF_025349945.1_ASM2534994v1,GCF_025349945.1_ASM2534994v1_bin_2,0
GCF_025349945.1_ASM2534994v1,GCF_025349945.1_ASM2534994v1_bin_Unbinned,0
GCF_025349945.1_ASM2534994v1,GCF_025349945.1_ASM2534994v1_bin_6,0
GCF_025349945.1_ASM2534994v1,GCF_025349945.1_ASM2534994v1_bin_5,0
GCF_025349945.1_ASM2534994v1,GCF_025349945.1_ASM2534994v1_bin_9,0
GCF_022924655.1_ASM2292465v1,GCF_022924655.1_ASM2292465v1_bin_1,0
GCF_021496035.1_ASM2149603v1,GCF_021496035.1_ASM2149603v1_bin_1,0
GCF_021496035.1_ASM2149603v1,GCF_021496035.1_ASM2149603v1_bin_2,0
GCF_021496035.1_ASM2149603v1,GCF_021496035.1_ASM2149603v1_bin_3,0
GCF_021496035.1_ASM2149603v1,GCF_021496035.1_ASM2149603v1_bin_Unbinned,0
GCF_022921975.1_ASM2292197v1,GCF_022921975.1_ASM2292197v1_bin_1,0
GCF_022670815.1_ASM2267081v1,GCF_022670815.1_ASM2267081v1_bin_3,0
GCF_022670815.1_ASM2267081v1,GCF_022670815.1_ASM2267081v1_bin_4,0
GCF_022670815.1_ASM2267081v1,GCF_022670815.1_ASM2267081v1_bin_1,0
GCF_022670815.1_ASM2267081v1,GCF_022670815.1_ASM2267081v1_bin_5,0
GCF_022670815.1_ASM2267081v1,GCF_022670815.1_ASM2267081v1_bin_2,0
GCF_023375285.1_ASM2337528v1,GCF_023375285.1_ASM2337528v1_bin_1,0
GCF_022925255.1_ASM2292525v1,GCF_022925255.1_ASM2292525v1_bin_1,0
GCF_022925255.1_ASM2292525v1,GCF_022925255.1_ASM2292525v1_bin_2,0
GCF_022220985.1_ASM2222098v1,GCF_022220985.1_ASM2222098v1_bin_2,0
GCF_022220985.1_ASM2222098v1,GCF_022220985.1_ASM2222098v1_bin_1,0
GCF_024802605.1_ASM2480260v1,GCF_024802605.1_ASM2480260v1_bin_1,0
GCF_024206715.1_ASM2420671v1,GCF_024206715.1_ASM2420671v1_bin_Unbinned,0
GCF_024206715.1_ASM2420671v1,GCF_024206715.1_ASM2420671v1_bin_1,0
GCF_021513095.1_ASM2151309v1,GCF_021513095.1_ASM2151309v1_bin_1,0
GCF_021513095.1_ASM2151309v1,GCF_021513095.1_ASM2151309v1_bin_3,0
GCF_021513095.1_ASM2151309v1,GCF_021513095.1_ASM2151309v1_bin_2,0
GCF_021513095.1_ASM2151309v1,GCF_021513095.1_ASM2151309v1_bin_Unbinned,0
GCF_023639785.1_ASM2363978v1,GCF_023639785.1_ASM2363978v1_bin_1,0
GCF_024206655.1_ASM2420665v1,GCF_024206655.1_ASM2420665v1_bin_2,0
GCF_024206655.1_ASM2420665v1,GCF_024206655.1_ASM2420665v1_bin_1,0
GCF_022220545.1_ASM2222054v1,GCF_022220545.1_ASM2222054v1_bin_1,0
GCF_024800705.1_ASM2480070v1,GCF_024800705.1_ASM2480070v1_bin_1,0
GCF_021513115.1_ASM2151311v1,GCF_021513115.1_ASM2151311v1_bin_3,0
GCF_021513115.1_ASM2151311v1,GCF_021513115.1_ASM2151311v1_bin_5,0
GCF_021513115.1_ASM2151311v1,GCF_021513115.1_ASM2151311v1_bin_1,0
GCF_021513115.1_ASM2151311v1,GCF_021513115.1_ASM2151311v1_bin_2,0
GCF_021513115.1_ASM2151311v1,GCF_021513115.1_ASM2151311v1_bin_4,0
GCF_022221145.1_ASM2222114v1,GCF_022221145.1_ASM2222114v1_bin_1,0
GCF_022221145.1_ASM2222114v1,GCF_022221145.1_ASM2222114v1_bin_2,0
GCF_022925855.1_ASM2292585v1,GCF_022925855.1_ASM2292585v1_bin_1,0
GCF_022592015.1_ASM2259201v1,GCF_022592015.1_ASM2259201v1_bin_3,0
GCF_022592015.1_ASM2259201v1,GCF_022592015.1_ASM2259201v1_bin_1,0
GCF_022592015.1_ASM2259201v1,GCF_022592015.1_ASM2259201v1_bin_2,0
GCF_024758665.1_ASM2475866v1,GCF_024758665.1_ASM2475866v1_bin_1,2
GCF_024758665.1_ASM2475866v1,GCF_024758665.1_ASM2475866v1_bin_2,0
GCF_024758665.1_ASM2475866v1,GCF_024758665.1_ASM2475866v1_bin_3,0
GCF_022591735.1_ASM2259173v1,GCF_022591735.1_ASM2259173v1_bin_1,0
GCF_022591735.1_ASM2259173v1,GCF_022591735.1_ASM2259173v1_bin_2,0
GCF_903815275.1_hybrid_BB1454,GCF_903815275.1_hybrid_BB1454_bin_2,0
GCF_903815275.1_hybrid_BB1454,GCF_903815275.1_hybrid_BB1454_bin_1,0
GCF_024917615.1_ASM2491761v1,GCF_024917615.1_ASM2491761v1_bin_2,0
GCF_024917615.1_ASM2491761v1,GCF_024917615.1_ASM2491761v1_bin_1,0
GCF_022220685.1_ASM2222068v1,GCF_022220685.1_ASM2222068v1_bin_2,0
GCF_022220685.1_ASM2222068v1,GCF_022220685.1_ASM2222068v1_bin_1,0
GCF_021459865.1_ASM2145986v1,GCF_021459865.1_ASM2145986v1_bin_1,0
GCF_021559755.1_ASM2155975v1,GCF_021559755.1_ASM2155975v1_bin_1,0
GCF_905322525.2_AI2623v1_cpp,GCF_905322525.2_AI2623v1_cpp_bin_4,0
GCF_905322525.2_AI2623v1_cpp,GCF_905322525.2_AI2623v1_cpp_bin_1,0
GCF_905322525.2_AI2623v1_cpp,GCF_905322525.2_AI2623v1_cpp_bin_3,0
GCF_905322525.2_AI2623v1_cpp,GCF_905322525.2_AI2623v1_cpp_bin_2,0
GCF_022221165.1_ASM2222116v1,GCF_022221165.1_ASM2222116v1_bin_2,0
GCF_022221165.1_ASM2222116v1,GCF_022221165.1_ASM2222116v1_bin_1,0
GCF_022220405.1_ASM2222040v1,GCF_022220405.1_ASM2222040v1_bin_Unbinned,0
GCF_022220405.1_ASM2222040v1,GCF_022220405.1_ASM2222040v1_bin_1,0
GCF_022220405.1_ASM2222040v1,GCF_022220405.1_ASM2222040v1_bin_2,0
GCF_022220405.1_ASM2222040v1,GCF_022220405.1_ASM2222040v1_bin_3,0
GCF_021498265.1_ASM2149826v1,GCF_021498265.1_ASM2149826v1_bin_3,0
GCF_021498265.1_ASM2149826v1,GCF_021498265.1_ASM2149826v1_bin_1,0
GCF_021498265.1_ASM2149826v1,GCF_021498265.1_ASM2149826v1_bin_2,0
GCF_023611765.1_ASM2361176v1,GCF_023611765.1_ASM2361176v1_bin_1,0
GCF_023611765.1_ASM2361176v1,GCF_023611765.1_ASM2361176v1_bin_2,0
GCF_023611765.1_ASM2361176v1,GCF_023611765.1_ASM2361176v1_bin_3,0
