GCF_001185665.2_ASM118566v3,NZ_CP073055.1
GCF_001185665.2_ASM118566v3,NZ_CP073056.1
GCF_001185665.2_ASM118566v3,NZ_CP073057.1
GCF_001185665.2_ASM118566v3,NZ_CP073058.1
GCF_001185665.2_ASM118566v3,NZ_CP073059.1
GCF_001718115.2_ASM171811v2,NZ_CP089428.1
GCF_001718115.2_ASM171811v2,NZ_CP089429.1
GCF_001718115.2_ASM171811v2,NZ_CP089430.1
GCF_001718115.2_ASM171811v2,NZ_CP089431.1
GCF_001718115.2_ASM171811v2,NZ_CP089432.1
GCF_001718115.2_ASM171811v2,NZ_CP089433.1
GCF_001718115.2_ASM171811v2,NZ_CP089434.1
GCF_001718115.2_ASM171811v2,NZ_CP089435.1
GCF_002852785.2_ASM285278v2,NZ_CP043359.1
GCF_002852785.2_ASM285278v2,NZ_CP043360.1
GCF_002852785.2_ASM285278v2,NZ_CP043358.1
GCF_002852785.2_ASM285278v2,NZ_CP043361.1
GCF_002853115.2_ASM285311v2,NZ_CP073286.1
GCF_003038135.2_ASM303813v2,NZ_CP043355.1
GCF_003038135.2_ASM303813v2,NZ_CP043356.1
GCF_003038135.2_ASM303813v2,NZ_CP043354.1
GCF_003261955.3_ASM326195v3,NZ_CP033392.2
GCF_003261955.3_ASM326195v3,NZ_CP033393.2
GCF_003261955.3_ASM326195v3,NZ_CP033395.2
GCF_003261955.3_ASM326195v3,NZ_CP033394.2
GCF_003937135.2_ASM393713v2,NZ_CP078034.1
GCF_003937135.2_ASM393713v2,NZ_CP078035.1
GCF_003937135.2_ASM393713v2,NZ_CP078036.1
GCF_003937135.2_ASM393713v2,NZ_CP078037.1
GCF_012029695.2_ASM1202969v2,NZ_CP061390.1
GCF_012029695.2_ASM1202969v2,NZ_CP061391.1
GCF_012029695.2_ASM1202969v2,NZ_CP061392.1
GCF_012029695.2_ASM1202969v2,NZ_CP061393.1
GCF_012029695.2_ASM1202969v2,NZ_CP061394.1
GCF_012029695.2_ASM1202969v2,NZ_CP061395.1
GCF_012029895.2_ASM1202989v2,NZ_CP061381.1
GCF_012029895.2_ASM1202989v2,NZ_CP061382.1
GCF_012029895.2_ASM1202989v2,NZ_CP061383.1
GCF_012029895.2_ASM1202989v2,NZ_CP061384.1
GCF_012029935.2_ASM1202993v2,NZ_CP061405.1
GCF_012029935.2_ASM1202993v2,NZ_CP061406.1
GCF_012029935.2_ASM1202993v2,NZ_CP061407.1
GCF_012029975.2_ASM1202997v2,NZ_CP061400.1
GCF_012029975.2_ASM1202997v2,NZ_CP061401.1
GCF_012029975.2_ASM1202997v2,NZ_CP061402.1
GCF_012029975.2_ASM1202997v2,NZ_CP061403.1
GCF_012030545.2_ASM1203054v2,NZ_CP061386.1
GCF_012030545.2_ASM1203054v2,NZ_CP061387.1
GCF_012030545.2_ASM1203054v2,NZ_CP061388.1
GCF_013611495.1_ASM1361149v1,NZ_CP055510.1
GCF_013611495.1_ASM1361149v1,NZ_CP055511.1
GCF_013611495.1_ASM1361149v1,NZ_CP055512.1
GCF_013611495.1_ASM1361149v1,NZ_CP055513.1
GCF_013611495.1_ASM1361149v1,NZ_CP055514.1
GCF_013611495.1_ASM1361149v1,NZ_CP055515.1
GCF_013611495.1_ASM1361149v1,NZ_CP055516.1
GCF_013704985.1_ASM1370498v1,NZ_CP055453.1
GCF_013704985.1_ASM1370498v1,NZ_CP055452.1
GCF_013704985.1_ASM1370498v1,NZ_CP055454.1
GCF_013704985.1_ASM1370498v1,NZ_CP055455.1
GCF_013704985.1_ASM1370498v1,NZ_CP055456.1
GCF_013704985.1_ASM1370498v1,NZ_CP055457.1
GCF_013724605.1_ASM1372460v1,NZ_CP056223.1
GCF_013724605.1_ASM1372460v1,NZ_CP056224.1
GCF_013724605.1_ASM1372460v1,NZ_CP056225.1
GCF_013724605.1_ASM1372460v1,NZ_CP056226.1
GCF_013724605.1_ASM1372460v1,NZ_CP056227.1
GCF_013724605.1_ASM1372460v1,NZ_CP056228.1
GCF_013729075.1_ASM1372907v1,NZ_CP056276.1
GCF_013729075.1_ASM1372907v1,NZ_CP056277.1
GCF_013730675.1_ASM1373067v1,NZ_CP056298.1
GCF_013731305.1_ASM1373130v1,NZ_CP056302.1
GCF_013731305.1_ASM1373130v1,NZ_CP056303.1
GCF_013731735.1_ASM1373173v1,NZ_CP056308.1
GCF_013731735.1_ASM1373173v1,NZ_CP056309.1
GCF_013731735.1_ASM1373173v1,NZ_CP056310.1
GCF_013731735.1_ASM1373173v1,NZ_CP056311.1
GCF_013731735.1_ASM1373173v1,NZ_CP056312.1
GCF_013731735.1_ASM1373173v1,NZ_CP056313.1
GCF_013734035.1_ASM1373403v1,NZ_CP056373.1
GCF_013734035.1_ASM1373403v1,NZ_CP056374.1
GCF_013734035.1_ASM1373403v1,NZ_CP056375.1
GCF_013734035.1_ASM1373403v1,NZ_CP056376.1
GCF_013734035.1_ASM1373403v1,NZ_CP056377.1
GCF_013734035.1_ASM1373403v1,NZ_CP056378.1
GCF_013734035.1_ASM1373403v1,NZ_CP056379.1
GCF_013734035.1_ASM1373403v1,NZ_CP056380.1
GCF_013735155.1_ASM1373515v1,NZ_CP056386.1
GCF_013735155.1_ASM1373515v1,NZ_CP056387.1
GCF_013735155.1_ASM1373515v1,NZ_CP056388.1
GCF_013735155.1_ASM1373515v1,NZ_CP056389.1
GCF_013735155.1_ASM1373515v1,NZ_CP056390.1
GCF_013735155.1_ASM1373515v1,NZ_CP056391.1
GCF_013735895.1_ASM1373589v1,NZ_CP056426.1
GCF_013735895.1_ASM1373589v1,NZ_CP056427.1
GCF_013735895.1_ASM1373589v1,NZ_CP056428.1
GCF_013735895.1_ASM1373589v1,NZ_CP056429.1
GCF_013735895.1_ASM1373589v1,NZ_CP056430.1
GCF_013735895.1_ASM1373589v1,NZ_CP056431.1
GCF_013736155.1_ASM1373615v1,NZ_CP056433.1
GCF_013736155.1_ASM1373615v1,NZ_CP056434.1
GCF_013736155.1_ASM1373615v1,NZ_CP056435.1
GCF_013736155.1_ASM1373615v1,NZ_CP056436.1
GCF_013736155.1_ASM1373615v1,NZ_CP056437.1
GCF_013736155.1_ASM1373615v1,NZ_CP056438.1
GCF_013736155.1_ASM1373615v1,NZ_CP056439.1
GCF_013736155.1_ASM1373615v1,NZ_CP056440.1
GCF_013737695.1_ASM1373769v1,NZ_CP056531.1
GCF_013737695.1_ASM1373769v1,NZ_CP056532.1
GCF_013737695.1_ASM1373769v1,NZ_CP056533.1
GCF_013737695.1_ASM1373769v1,NZ_CP056534.1
GCF_013737695.1_ASM1373769v1,NZ_CP056535.1
GCF_013737695.1_ASM1373769v1,NZ_CP056536.1
GCF_013737695.1_ASM1373769v1,NZ_CP056537.1
GCF_013737695.1_ASM1373769v1,NZ_CP056538.1
GCF_013745295.1_ASM1374529v1,NZ_CP056330.1
GCF_013745295.1_ASM1374529v1,NZ_CP056331.1
GCF_013745295.1_ASM1374529v1,NZ_CP056332.1
GCF_013782105.1_ASM1378210v1,NZ_CP056192.1
GCF_013782105.1_ASM1378210v1,NZ_CP056193.1
GCF_013782105.1_ASM1378210v1,NZ_CP056194.1
GCF_013782105.1_ASM1378210v1,NZ_CP056195.1
GCF_013782105.1_ASM1378210v1,NZ_CP056196.1
GCF_013782105.1_ASM1378210v1,NZ_CP056197.1
GCF_013782105.1_ASM1378210v1,NZ_CP056198.1
GCF_013783245.1_ASM1378324v1,NZ_CP056217.1
GCF_013783245.1_ASM1378324v1,NZ_CP056218.1
GCF_013791265.1_ASM1379126v1,NZ_CP056831.1
GCF_013791265.1_ASM1379126v1,NZ_CP056832.1
GCF_013791265.1_ASM1379126v1,NZ_CP056833.1
GCF_013792545.1_ASM1379254v1,NZ_CP056855.1
GCF_013792545.1_ASM1379254v1,NZ_CP056856.1
GCF_013792545.1_ASM1379254v1,NZ_CP056857.1
GCF_013792545.1_ASM1379254v1,NZ_CP056858.1
GCF_013792545.1_ASM1379254v1,NZ_CP056859.1
GCF_013792545.1_ASM1379254v1,NZ_CP056860.1
GCF_013796245.1_ASM1379624v1,NZ_CP056879.1
GCF_013796245.1_ASM1379624v1,NZ_CP056880.1
GCF_013796245.1_ASM1379624v1,NZ_CP056881.1
GCF_013796245.1_ASM1379624v1,NZ_CP056882.1
GCF_013796485.1_ASM1379648v1,NZ_CP056884.1
GCF_013796485.1_ASM1379648v1,NZ_CP056885.1
GCF_013796485.1_ASM1379648v1,NZ_CP056886.1
GCF_013796485.1_ASM1379648v1,NZ_CP056887.1
GCF_013805705.1_ASM1380570v1,NZ_CP057035.1
GCF_013805705.1_ASM1380570v1,NZ_CP057036.1
GCF_013805705.1_ASM1380570v1,NZ_CP057037.1
GCF_013811445.1_ASM1381144v1,NZ_CP057067.1
GCF_013811445.1_ASM1381144v1,NZ_CP057068.1
GCF_013811845.1_ASM1381184v1,NZ_CP057070.1
GCF_013811845.1_ASM1381184v1,NZ_CP057071.1
GCF_013813035.1_ASM1381303v1,NZ_CP057100.1
GCF_013826045.1_ASM1382604v1,NZ_CP057314.1
GCF_013826045.1_ASM1382604v1,NZ_CP057315.1
GCF_013826045.1_ASM1382604v1,NZ_CP057316.1
GCF_013826045.1_ASM1382604v1,NZ_CP057317.1
GCF_013826045.1_ASM1382604v1,NZ_CP057318.1
GCF_013834745.1_ASM1383474v1,NZ_CP057460.1
GCF_013834745.1_ASM1383474v1,NZ_CP057461.1
GCF_013834745.1_ASM1383474v1,NZ_CP057462.1
GCF_013895695.1_ASM1389569v1,NZ_CP057723.1
GCF_013895695.1_ASM1389569v1,NZ_CP057724.1
GCF_014168575.1_ASM1416857v1,NZ_AP021910.1
GCF_014168575.1_ASM1416857v1,NZ_AP021911.1
GCF_014168575.1_ASM1416857v1,NZ_AP021912.1
GCF_014168575.1_ASM1416857v1,NZ_AP021913.1
GCF_014168655.1_ASM1416865v1,NZ_AP021930.1
GCF_014168655.1_ASM1416865v1,NZ_AP021931.1
GCF_014168655.1_ASM1416865v1,NZ_AP021932.1
GCF_014169335.1_ASM1416933v1,NZ_AP022140.1
GCF_014169335.1_ASM1416933v1,NZ_AP022141.1
GCF_014170015.1_ASM1417001v1,NZ_CP054287.1
GCF_014170015.1_ASM1417001v1,NZ_CP054286.1
GCF_014170015.1_ASM1417001v1,NZ_CP054288.1
GCF_014170935.1_ASM1417093v1,NZ_AP022079.1
GCF_014170935.1_ASM1417093v1,NZ_AP022080.1
GCF_014170935.1_ASM1417093v1,NZ_AP022081.1
GCF_014170935.1_ASM1417093v1,NZ_AP022082.1
GCF_014170935.1_ASM1417093v1,NZ_AP022083.1
GCF_014170935.1_ASM1417093v1,NZ_AP022084.1
GCF_014189335.1_ASM1418933v1,NZ_CP047272.1
GCF_014788765.1_ASM1478876v1,NZ_CP061833.1
GCF_014788765.1_ASM1478876v1,NZ_CP061834.1
GCF_014905815.1_ASM1490581v1,NZ_AP023454.1
GCF_014905815.1_ASM1490581v1,NZ_AP023455.1
GCF_014905815.1_ASM1490581v1,NZ_AP023456.1
GCF_014905815.1_ASM1490581v1,NZ_AP023457.1
GCF_014905815.1_ASM1490581v1,NZ_AP023458.1
GCF_015138775.1_ASM1513877v1,NZ_AP022528.1
GCF_015138775.1_ASM1513877v1,NZ_AP022529.1
GCF_015138775.1_ASM1513877v1,NZ_AP022530.1
GCF_015138775.1_ASM1513877v1,NZ_AP022531.1
GCF_015138775.1_ASM1513877v1,NZ_AP022532.1
GCF_015694065.1_ASM1569406v1,NZ_CP065173.1
GCF_015694065.1_ASM1569406v1,NZ_CP065174.1
GCF_015694065.1_ASM1569406v1,NZ_CP065175.1
GCF_015694065.1_ASM1569406v1,NZ_CP065176.1
GCF_015694085.1_ASM1569408v1,NZ_CP065168.1
GCF_015694085.1_ASM1569408v1,NZ_CP065169.1
GCF_015694085.1_ASM1569408v1,NZ_CP065170.1
GCF_015694085.1_ASM1569408v1,NZ_CP065171.1
GCF_016066025.1_ASM1606602v1,NZ_CP065826.1
GCF_016066025.1_ASM1606602v1,NZ_CP065827.1
GCF_016066025.1_ASM1606602v1,NZ_CP065828.1
GCF_016066025.1_ASM1606602v1,NZ_CP065829.1
GCF_016066025.1_ASM1606602v1,NZ_CP065830.1
GCF_016066295.1_ASM1606629v1,NZ_CP065832.1
GCF_016066475.1_ASM1606647v1,NZ_CP065834.1
GCF_016066475.1_ASM1606647v1,NZ_CP065835.1
GCF_016066475.1_ASM1606647v1,NZ_CP065836.1
GCF_016066475.1_ASM1606647v1,NZ_CP065837.1
GCF_016629585.1_ASM1662958v1,NZ_AP024174.1
GCF_016629585.1_ASM1662958v1,NZ_AP024175.1
GCF_016629585.1_ASM1662958v1,NZ_AP024176.1
GCF_016629585.1_ASM1662958v1,NZ_AP024177.1
GCF_016629585.1_ASM1662958v1,NZ_AP024178.1
GCF_016629585.1_ASM1662958v1,NZ_AP024179.1
GCF_016629585.1_ASM1662958v1,NZ_AP024180.1
GCF_016727425.1_ASM1672742v1,NZ_CP068140.1
GCF_016727425.1_ASM1672742v1,NZ_CP068141.1
GCF_016727425.1_ASM1672742v1,NZ_CP068142.1
GCF_016804025.1_ASM1680402v1,NZ_CP053017.1
GCF_016804025.1_ASM1680402v1,NZ_CP053018.1
GCF_016804025.1_ASM1680402v1,NZ_CP053019.1
GCF_016804025.1_ASM1680402v1,NZ_CP053020.1
GCF_016903115.1_ASM1690311v1,NZ_CP069833.1
GCF_016903115.1_ASM1690311v1,NZ_CP069829.1
GCF_016903115.1_ASM1690311v1,NZ_CP069834.1
GCF_016903115.1_ASM1690311v1,NZ_CP069830.1
GCF_016903115.1_ASM1690311v1,NZ_CP069835.1
GCF_016903115.1_ASM1690311v1,NZ_CP069831.1
GCF_016903115.1_ASM1690311v1,NZ_CP069832.1
GCF_016903115.1_ASM1690311v1,NZ_CP069836.1
GCF_016903115.1_ASM1690311v1,NZ_CP069838.1
GCF_016903115.1_ASM1690311v1,NZ_CP069839.1
GCF_016903115.1_ASM1690311v1,NZ_CP069837.1
GCF_016903155.1_ASM1690315v1,NZ_CP069822.1
GCF_016903155.1_ASM1690315v1,NZ_CP069825.1
GCF_016903155.1_ASM1690315v1,NZ_CP069826.1
GCF_016903155.1_ASM1690315v1,NZ_CP069823.1
GCF_016903155.1_ASM1690315v1,NZ_CP069824.1
GCF_016903155.1_ASM1690315v1,NZ_CP069827.1
GCF_016903195.1_ASM1690319v1,NZ_CP069844.1
GCF_016903195.1_ASM1690319v1,NZ_CP069845.1
GCF_016903195.1_ASM1690319v1,NZ_CP069846.1
GCF_016903195.1_ASM1690319v1,NZ_CP069848.1
GCF_016903195.1_ASM1690319v1,NZ_CP069849.1
GCF_016903195.1_ASM1690319v1,NZ_CP069850.1
GCF_016903235.1_ASM1690323v1,NZ_CP069854.1
GCF_016903235.1_ASM1690323v1,NZ_CP069855.1
GCF_016903235.1_ASM1690323v1,NZ_CP069860.1
GCF_016903235.1_ASM1690323v1,NZ_CP069856.1
GCF_016903235.1_ASM1690323v1,NZ_CP069857.1
GCF_016903235.1_ASM1690323v1,NZ_CP069858.1
GCF_016903235.1_ASM1690323v1,NZ_CP069859.1
GCF_016903255.1_ASM1690325v1,NZ_CP069862.1
GCF_016903255.1_ASM1690325v1,NZ_CP069863.1
GCF_016903295.1_ASM1690329v1,NZ_CP069875.1
GCF_016903295.1_ASM1690329v1,NZ_CP069874.1
GCF_016903295.1_ASM1690329v1,NZ_CP069878.1
GCF_016903295.1_ASM1690329v1,NZ_CP069876.1
GCF_016903295.1_ASM1690329v1,NZ_CP069879.1
GCF_016903295.1_ASM1690329v1,NZ_CP069880.1
GCF_016903295.1_ASM1690329v1,NZ_CP069877.1
GCF_016903295.1_ASM1690329v1,NZ_CP069881.1
GCF_016903395.1_ASM1690339v1,NZ_CP069901.1
GCF_016903395.1_ASM1690339v1,NZ_CP069902.1
GCF_016903395.1_ASM1690339v1,NZ_CP069903.1
GCF_016903395.1_ASM1690339v1,NZ_CP069904.1
GCF_016903395.1_ASM1690339v1,NZ_CP069905.1
GCF_016903395.1_ASM1690339v1,NZ_CP069906.1
GCF_016903395.1_ASM1690339v1,NZ_CP069908.1
GCF_016903395.1_ASM1690339v1,NZ_CP069909.1
GCF_016903475.1_ASM1690347v1,NZ_CP070173.1
GCF_016903475.1_ASM1690347v1,NZ_CP070174.1
GCF_016903475.1_ASM1690347v1,NZ_CP070175.1
GCF_016903475.1_ASM1690347v1,NZ_CP070176.1
GCF_016903495.1_ASM1690349v1,NZ_CP069941.1
GCF_016903515.1_ASM1690351v1,NZ_CP070178.1
GCF_016903515.1_ASM1690351v1,NZ_CP070185.1
GCF_016903515.1_ASM1690351v1,NZ_CP070187.1
GCF_016903515.1_ASM1690351v1,NZ_CP070183.1
GCF_016903515.1_ASM1690351v1,NZ_CP070180.1
GCF_016903515.1_ASM1690351v1,NZ_CP070184.1
GCF_016903515.1_ASM1690351v1,NZ_CP070186.1
GCF_016903515.1_ASM1690351v1,NZ_CP070179.1
GCF_016903515.1_ASM1690351v1,NZ_CP070181.1
GCF_016903515.1_ASM1690351v1,NZ_CP070188.1
GCF_016903515.1_ASM1690351v1,NZ_CP070189.1
GCF_016903515.1_ASM1690351v1,NZ_CP070190.1
GCF_016903515.1_ASM1690351v1,NZ_CP070182.1
GCF_016903735.1_ASM1690373v1,NZ_CP069947.1
GCF_016903735.1_ASM1690373v1,NZ_CP069948.1
GCF_016903735.1_ASM1690373v1,NZ_CP069949.1
GCF_016903775.1_ASM1690377v1,NZ_CP069963.1
GCF_016903775.1_ASM1690377v1,NZ_CP069964.1
GCF_016903775.1_ASM1690377v1,NZ_CP069965.1
GCF_016903775.1_ASM1690377v1,NZ_CP069966.1
GCF_016903795.1_ASM1690379v1,NZ_CP069967.1
GCF_016903795.1_ASM1690379v1,NZ_CP069969.1
GCF_016903875.1_ASM1690387v1,NZ_CP069993.1
GCF_016903895.1_ASM1690389v1,NZ_CP069995.1
GCF_016903955.1_ASM1690395v1,NZ_CP070016.1
GCF_016903955.1_ASM1690395v1,NZ_CP070017.1
GCF_016903955.1_ASM1690395v1,NZ_CP070018.1
GCF_016903955.1_ASM1690395v1,NZ_CP070019.1
GCF_016904035.1_ASM1690403v1,NZ_CP070038.1
GCF_016904035.1_ASM1690403v1,NZ_CP070039.1
GCF_016904035.1_ASM1690403v1,NZ_CP070040.1
GCF_016904095.1_ASM1690409v1,NZ_CP070047.1
GCF_016904275.1_ASM1690427v1,NZ_CP070083.1
GCF_016904275.1_ASM1690427v1,NZ_CP070086.1
GCF_016904275.1_ASM1690427v1,NZ_CP070084.1
GCF_016904275.1_ASM1690427v1,NZ_CP070082.1
GCF_016904275.1_ASM1690427v1,NZ_CP070085.1
GCF_016904295.1_ASM1690429v1,NZ_CP070089.1
GCF_016904295.1_ASM1690429v1,NZ_CP070090.1
GCF_016904295.1_ASM1690429v1,NZ_CP070091.1
GCF_016904315.1_ASM1690431v1,NZ_CP070093.1
GCF_016904315.1_ASM1690431v1,NZ_CP070094.1
GCF_016904415.1_ASM1690441v1,NZ_CP070106.1
GCF_016904415.1_ASM1690441v1,NZ_CP070107.1
GCF_016904415.1_ASM1690441v1,NZ_CP070108.1
GCF_016904415.1_ASM1690441v1,NZ_CP070109.1
GCF_016904415.1_ASM1690441v1,NZ_CP070110.1
GCF_016904595.1_ASM1690459v1,NZ_CP070159.1
GCF_016904595.1_ASM1690459v1,NZ_CP070160.1
GCF_016904595.1_ASM1690459v1,NZ_CP070161.1
GCF_017639065.1_ASM1763906v1,NZ_CP067256.1
GCF_017639065.1_ASM1763906v1,NZ_CP067257.1
GCF_017639065.1_ASM1763906v1,NZ_CP067258.1
GCF_017639065.1_ASM1763906v1,NZ_CP067259.1
GCF_017639065.1_ASM1763906v1,NZ_CP067260.1
GCF_017894285.1_ASM1789428v1,NZ_CP058359.1
GCF_017894285.1_ASM1789428v1,NZ_CP058360.1
GCF_017894305.1_ASM1789430v1,NZ_CP058362.1
GCF_017894305.1_ASM1789430v1,NZ_CP058363.1
GCF_018075085.1_ASM1807508v1,NZ_CP072950.1
GCF_018075085.1_ASM1807508v1,NZ_CP072951.1
GCF_018075085.1_ASM1807508v1,NZ_CP072952.1
GCF_018283505.2_ASM1828350v2,NZ_CP084394.1
GCF_018283505.2_ASM1828350v2,NZ_CP084396.1
GCF_018283505.2_ASM1828350v2,NZ_CP084395.1
GCF_018310495.1_ASM1831049v1,NZ_CP074089.1
GCF_018310495.1_ASM1831049v1,NZ_CP074091.1
GCF_018310495.1_ASM1831049v1,NZ_CP074088.1
GCF_018310495.1_ASM1831049v1,NZ_CP074090.1
GCF_019797985.1_ASM1979798v1,NZ_CP073628.1
GCF_019797985.1_ASM1979798v1,NZ_CP073629.1
GCF_019798005.1_ASM1979800v1,NZ_CP073784.1
GCF_019798005.1_ASM1979800v1,NZ_CP073785.1
GCF_019798005.1_ASM1979800v1,NZ_CP073786.1
GCF_019798005.1_ASM1979800v1,NZ_CP073787.1
GCF_019798025.1_ASM1979802v1,NZ_CP073789.1
GCF_019798025.1_ASM1979802v1,NZ_CP073790.1
GCF_019798185.1_ASM1979818v1,NZ_CP073792.1
GCF_019798185.1_ASM1979818v1,NZ_CP073793.1
GCF_019798185.1_ASM1979818v1,NZ_CP073794.1
GCF_019798185.1_ASM1979818v1,NZ_CP073795.1
GCF_019798185.1_ASM1979818v1,NZ_CP073796.1
GCF_020080145.1_ASM2008014v1,NZ_CP083446.1
GCF_020080145.1_ASM2008014v1,NZ_CP083447.1
GCF_020149785.1_ASM2014978v1,NZ_CP083797.1
GCF_020149785.1_ASM2014978v1,NZ_CP083798.1
GCF_020149785.1_ASM2014978v1,NZ_CP083799.1
GCF_020149785.1_ASM2014978v1,NZ_CP083800.1
GCF_020149785.1_ASM2014978v1,NZ_CP083801.1
GCF_020149825.1_ASM2014982v1,NZ_CP083785.1
GCF_020149825.1_ASM2014982v1,NZ_CP083786.1
GCF_020149825.1_ASM2014982v1,NZ_CP083787.1
GCF_020149825.1_ASM2014982v1,NZ_CP083788.1
GCF_020149825.1_ASM2014982v1,NZ_CP083789.1
GCF_020149875.1_ASM2014987v1,NZ_CP083776.1
GCF_020149875.1_ASM2014987v1,NZ_CP083777.1
GCF_020149875.1_ASM2014987v1,NZ_CP083778.1
GCF_020149875.1_ASM2014987v1,NZ_CP083779.1
GCF_020149875.1_ASM2014987v1,NZ_CP083780.1
GCF_020149875.1_ASM2014987v1,NZ_CP083781.1
GCF_020149875.1_ASM2014987v1,NZ_CP083782.1
GCF_020149875.1_ASM2014987v1,NZ_CP083783.1
GCF_020149895.1_ASM2014989v1,NZ_CP083769.1
GCF_020149895.1_ASM2014989v1,NZ_CP083770.1
GCF_020149895.1_ASM2014989v1,NZ_CP083771.1
GCF_020149895.1_ASM2014989v1,NZ_CP083772.1
GCF_020149895.1_ASM2014989v1,NZ_CP083773.1
GCF_020149895.1_ASM2014989v1,NZ_CP083774.1
GCF_020525485.1_ASM2052548v1,NZ_CP084867.1
GCF_020525645.1_ASM2052564v1,NZ_CP084857.1
GCF_020525645.1_ASM2052564v1,NZ_CP084858.1
GCF_020525845.1_ASM2052584v1,NZ_CP084861.1
GCF_020525845.1_ASM2052584v1,NZ_CP084862.1
GCF_020525845.1_ASM2052584v1,NZ_CP084863.1
GCF_020525845.1_ASM2052584v1,NZ_CP084864.1
GCF_020525845.1_ASM2052584v1,NZ_CP084865.1
GCF_020525865.1_ASM2052586v1,NZ_CP084824.1
GCF_020525885.1_ASM2052588v1,NZ_CP084869.1
GCF_020525905.1_ASM2052590v1,NZ_CP084826.1
GCF_020525905.1_ASM2052590v1,NZ_CP084827.1
GCF_020525905.1_ASM2052590v1,NZ_CP084828.1
GCF_020525965.1_ASM2052596v1,NZ_CP084831.1
GCF_020525965.1_ASM2052596v1,NZ_CP084840.1
GCF_020525965.1_ASM2052596v1,NZ_CP084841.1
GCF_020525965.1_ASM2052596v1,NZ_CP084842.1
GCF_020525965.1_ASM2052596v1,NZ_CP084832.1
GCF_020525965.1_ASM2052596v1,NZ_CP084833.1
GCF_020525965.1_ASM2052596v1,NZ_CP084834.1
GCF_020525965.1_ASM2052596v1,NZ_CP084835.1
GCF_020525965.1_ASM2052596v1,NZ_CP084836.1
GCF_020525965.1_ASM2052596v1,NZ_CP084837.1
GCF_020525965.1_ASM2052596v1,NZ_CP084838.1
GCF_020525965.1_ASM2052596v1,NZ_CP084839.1
GCF_020525985.1_ASM2052598v1,NZ_CP084844.1
GCF_020525985.1_ASM2052598v1,NZ_CP084845.1
GCF_020525985.1_ASM2052598v1,NZ_CP084846.1
GCF_020525985.1_ASM2052598v1,NZ_CP084847.1
GCF_020525985.1_ASM2052598v1,NZ_CP084848.1
GCF_020525985.1_ASM2052598v1,NZ_CP084849.1
GCF_020525985.1_ASM2052598v1,NZ_CP084850.1
GCF_020525985.1_ASM2052598v1,NZ_CP084851.1
GCF_020526005.1_ASM2052600v1,NZ_CP084853.1
GCF_020526005.1_ASM2052600v1,NZ_CP084854.1
GCF_020526005.1_ASM2052600v1,NZ_CP084855.1
GCF_020526025.1_ASM2052602v1,NZ_CP084872.1
GCF_021057265.1_ASM2105726v1,NZ_CP084985.1
GCF_021166235.1_ASM2116623v1,NZ_CP089028.1
GCF_021166235.1_ASM2116623v1,NZ_CP089029.1
GCF_021166235.1_ASM2116623v1,NZ_CP089030.1
GCF_021166235.1_ASM2116623v1,NZ_CP089025.1
GCF_021166235.1_ASM2116623v1,NZ_CP089026.1
GCF_021166235.1_ASM2116623v1,NZ_CP089027.1
GCF_021228815.1_ASM2122881v1,NZ_CP089384.1
GCF_021497265.1_ASM2149726v1,NZ_CP053863.1
GCF_021497265.1_ASM2149726v1,NZ_CP053864.1
GCF_021655415.1_ASM2165541v1,NZ_AP025247.1
GCF_021655435.1_ASM2165543v1,NZ_AP024569.1
GCF_021655455.1_ASM2165545v1,NZ_AP024571.1
GCF_021655475.1_ASM2165547v1,NZ_AP024573.1
GCF_021655475.1_ASM2165547v1,NZ_AP024575.1
GCF_021655475.1_ASM2165547v1,NZ_AP024574.1
GCF_021655495.1_ASM2165549v1,NZ_AP024577.1
GCF_021655495.1_ASM2165549v1,NZ_AP024578.1
GCF_021655515.1_ASM2165551v1,NZ_AP024580.1
GCF_021655515.1_ASM2165551v1,NZ_AP024581.1
GCF_022369815.1_ASM2236981v1,NZ_CP070894.1
GCF_022369815.1_ASM2236981v1,NZ_CP070891.1
GCF_022369815.1_ASM2236981v1,NZ_CP070893.1
GCF_022369815.1_ASM2236981v1,NZ_CP070892.1
GCF_022369925.1_ASM2236992v1,NZ_CP071031.1
GCF_022369925.1_ASM2236992v1,NZ_CP071030.1
GCF_022369925.1_ASM2236992v1,NZ_CP071028.1
GCF_022369925.1_ASM2236992v1,NZ_CP071029.1
GCF_904863055.1_INF022,NZ_LR890210.1
GCF_904863055.1_INF022,NZ_LR890211.1
GCF_904863055.1_INF022,NZ_LR890212.1
GCF_904863055.1_INF022,NZ_LR890213.1
GCF_904863055.1_INF022,NZ_LR890214.1
GCF_904863075.1_INF334,NZ_LR890236.1
GCF_904863075.1_INF334,NZ_LR890237.1
GCF_904863075.1_INF334,NZ_LR890238.1
GCF_904863075.1_INF334,NZ_LR890239.1
GCF_904863095.1_INF174,NZ_LR890246.1
GCF_904863095.1_INF174,NZ_LR890247.1
GCF_904863115.1_INF329,NZ_LR890241.1
GCF_904863115.1_INF329,NZ_LR890242.1
GCF_904863115.1_INF329,NZ_LR890243.1
GCF_904863115.1_INF329,NZ_LR890244.1
GCF_904863125.1_INF357,NZ_LR890218.1
GCF_904863125.1_INF357,NZ_LR890219.1
GCF_904863125.1_INF357,NZ_LR890220.1
GCF_904863125.1_INF357,NZ_LR890221.1
GCF_904863125.1_INF357,NZ_LR890222.1
GCF_904863125.1_INF357,NZ_LR890223.1
GCF_904863125.1_INF357,NZ_LR890224.1
GCF_904863135.1_INF310,NZ_LR890255.1
GCF_904863135.1_INF310,NZ_LR890256.1
GCF_904863135.1_INF310,NZ_LR890257.1
GCF_904863135.1_INF310,NZ_LR890258.1
GCF_904863135.1_INF310,NZ_LR890259.1
GCF_904863135.1_INF310,NZ_LR890260.1
GCF_904863135.1_INF310,NZ_LR890261.1
GCF_904863145.1_INF072,NZ_LR890186.1
GCF_904863145.1_INF072,NZ_LR890187.1
GCF_904863145.1_INF072,NZ_LR890188.1
GCF_904863195.1_INF133,NZ_LR890190.1
GCF_904863195.1_INF133,NZ_LR890191.1
GCF_904863195.1_INF133,NZ_LR890192.1
GCF_904863195.1_INF133,NZ_LR890193.1
GCF_904863195.1_INF133,NZ_LR890194.1
GCF_904863195.1_INF133,NZ_LR890195.1
GCF_904863195.1_INF133,NZ_LR890196.1
GCF_904863195.1_INF133,NZ_LR890197.1
GCF_904863205.1_INF008,NZ_LR890203.1
GCF_904863215.1_INF277,NZ_LR890205.1
GCF_904863215.1_INF277,NZ_LR890206.1
GCF_904863215.1_INF277,NZ_LR890207.1
GCF_904863215.1_INF277,NZ_LR890208.1
GCF_904863225.1_KSB1_6J,NZ_LR890231.1
GCF_904863225.1_KSB1_6J,NZ_LR890232.1
GCF_904863225.1_KSB1_6J,NZ_LR890233.1
GCF_904863225.1_KSB1_6J,NZ_LR890234.1
GCF_904863245.1_INF355,NZ_LR890278.1
GCF_904863245.1_INF355,NZ_LR890279.1
GCF_904863245.1_INF355,NZ_LR890280.1
GCF_904863265.1_INF156,NZ_LR890287.1
GCF_904863275.1_INF188,NZ_LR890308.1
GCF_904863275.1_INF188,NZ_LR890309.1
GCF_904863275.1_INF188,NZ_LR890310.1
GCF_904863275.1_INF188,NZ_LR890311.1
GCF_904863285.1_INF231,NZ_LR890357.1
GCF_904863285.1_INF231,NZ_LR890358.1
GCF_904863285.1_INF231,NZ_LR890359.1
GCF_904863295.1_KSB2_2B,NZ_LR890344.1
GCF_904863295.1_KSB2_2B,NZ_LR890345.1
GCF_904863295.1_KSB2_2B,NZ_LR890346.1
GCF_904863295.1_KSB2_2B,NZ_LR890347.1
GCF_904863295.1_KSB2_2B,NZ_LR890348.1
GCF_904863325.1_INF354,NZ_LR890370.1
GCF_904863325.1_INF354,NZ_LR890371.1
GCF_904863325.1_INF354,NZ_LR890372.1
GCF_904863325.1_INF354,NZ_LR890373.1
GCF_904863335.1_KSB1_5B,NZ_LR890354.1
GCF_904863335.1_KSB1_5B,NZ_LR890355.1
GCF_904863355.1_INF148,NZ_LR890382.1
GCF_904863355.1_INF148,NZ_LR890383.1
GCF_904863365.1_INF049,NZ_LR890361.1
GCF_904863365.1_INF049,NZ_LR890362.1
GCF_904863365.1_INF049,NZ_LR890363.1
GCF_904863365.1_INF049,NZ_LR890364.1
GCF_904863365.1_INF049,NZ_LR890365.1
GCF_904863365.1_INF049,NZ_LR890366.1
GCF_904863365.1_INF049,NZ_LR890367.1
GCF_904863365.1_INF049,NZ_LR890368.1
GCF_904863395.1_INF250,NZ_LR890375.1
GCF_904863395.1_INF250,NZ_LR890376.1
GCF_904863395.1_INF250,NZ_LR890377.1
GCF_904863395.1_INF250,NZ_LR890378.1
GCF_904863395.1_INF250,NZ_LR890379.1
GCF_904863395.1_INF250,NZ_LR890380.1
GCF_904863405.1_INF215,NZ_LR890318.1
GCF_904863405.1_INF215,NZ_LR890319.1
GCF_904863425.1_INF348,NZ_LR890324.1
GCF_904863425.1_INF348,NZ_LR890325.1
GCF_904863435.1_KSB1_1B,NZ_LR890292.1
GCF_904863435.1_KSB1_1B,NZ_LR890293.1
GCF_904863435.1_KSB1_1B,NZ_LR890294.1
GCF_904863435.1_KSB1_1B,NZ_LR890295.1
GCF_904863435.1_KSB1_1B,NZ_LR890296.1
GCF_904863435.1_KSB1_1B,NZ_LR890297.1
GCF_904863435.1_KSB1_1B,NZ_LR890298.1
GCF_904864445.1_KSB1_6G,NZ_LR890458.1
GCF_904864445.1_KSB1_6G,NZ_LR890459.1
GCF_904864445.1_KSB1_6G,NZ_LR890460.1
GCF_904864445.1_KSB1_6G,NZ_LR890461.1
GCF_904864445.1_KSB1_6G,NZ_LR890462.1
GCF_904864445.1_KSB1_6G,NZ_LR890463.1
GCF_904864465.1_INF298,NZ_LR890427.1
GCF_904864465.1_INF298,NZ_LR890428.1
GCF_904864465.1_INF298,NZ_LR890429.1
GCF_904864465.1_INF298,NZ_LR890430.1
GCF_904864465.1_INF298,NZ_LR890431.1
GCF_904864465.1_INF298,NZ_LR890432.1
GCF_904864465.1_INF298,NZ_LR890433.1
GCF_904864475.1_INF168,NZ_LR890472.1
GCF_904864475.1_INF168,NZ_LR890473.1
GCF_904864505.1_INF331,NZ_LR890425.1
GCF_904864515.1_KSB2_2C,NZ_LR890392.1
GCF_904864515.1_KSB2_2C,NZ_LR890393.1
GCF_904864515.1_KSB2_2C,NZ_LR890394.1
GCF_904864525.1_INF350,NZ_LR890423.1
GCF_904864535.1_INF313,NZ_LR890416.1
GCF_904864535.1_INF313,NZ_LR890417.1
GCF_904864535.1_INF313,NZ_LR890418.1
GCF_904864535.1_INF313,NZ_LR890419.1
GCF_904864535.1_INF313,NZ_LR890420.1
GCF_904864535.1_INF313,NZ_LR890421.1
GCF_904864545.1_KSB1_9J,NZ_LR890435.1
GCF_904864545.1_KSB1_9J,NZ_LR890436.1
GCF_904864545.1_KSB1_9J,NZ_LR890437.1
GCF_904864595.1_INF333,NZ_LR890385.1
GCF_904864595.1_INF333,NZ_LR890386.1
GCF_904864595.1_INF333,NZ_LR890387.1
GCF_904864605.1_INF044,NZ_LR890396.1
GCF_904864605.1_INF044,NZ_LR890397.1
GCF_904864605.1_INF044,NZ_LR890398.1
GCF_904864625.1_INF171,NZ_LR890447.1
GCF_904864625.1_INF171,NZ_LR890448.1
GCF_904864625.1_INF171,NZ_LR890449.1
GCF_904864625.1_INF171,NZ_LR890450.1
GCF_904864645.1_INF079,NZ_LR890465.1
GCF_904865675.1_INF358,NZ_LR890475.1
GCF_904865685.1_INF182,NZ_LR890555.1
GCF_904865695.1_INF319,NZ_LR890543.1
GCF_904865695.1_INF319,NZ_LR890544.1
GCF_904865695.1_INF319,NZ_LR890545.1
GCF_904865695.1_INF319,NZ_LR890546.1
GCF_904865715.1_KSB1_5H,NZ_LR890501.1
GCF_904865715.1_KSB1_5H,NZ_LR890502.1
GCF_904865715.1_KSB1_5H,NZ_LR890503.1
GCF_904865715.1_KSB1_5H,NZ_LR890504.1
GCF_904865715.1_KSB1_5H,NZ_LR890505.1
GCF_904865715.1_KSB1_5H,NZ_LR890506.1
GCF_904865715.1_KSB1_5H,NZ_LR890507.1
GCF_904865735.1_INF361,NZ_LR890528.1
GCF_904865735.1_INF361,NZ_LR890529.1
GCF_904865735.1_INF361,NZ_LR890530.1
GCF_904865745.1_INF247,NZ_LR890563.1
GCF_904865755.1_INF341,NZ_LR890491.1
GCF_904865755.1_INF341,NZ_LR890492.1
GCF_904865765.1_KSB2_9A,NZ_LR890565.1
GCF_904865765.1_KSB2_9A,NZ_LR890566.1
GCF_904865765.1_KSB2_9A,NZ_LR890567.1
GCF_904865765.1_KSB2_9A,NZ_LR890568.1
GCF_904865785.1_INF142,NZ_LR890548.1
GCF_904865785.1_INF142,NZ_LR890549.1
GCF_904865785.1_INF142,NZ_LR890550.1
GCF_904865785.1_INF142,NZ_LR890551.1
GCF_904865785.1_INF142,NZ_LR890552.1
GCF_904865785.1_INF142,NZ_LR890553.1
GCF_904865795.1_KSB2_10B,NZ_LR890485.1
GCF_904865795.1_KSB2_10B,NZ_LR890486.1
GCF_904865795.1_KSB2_10B,NZ_LR890487.1
GCF_904865795.1_KSB2_10B,NZ_LR890488.1
GCF_904865795.1_KSB2_10B,NZ_LR890489.1
GCF_904865805.1_INF144,NZ_LR890570.1
GCF_904865815.1_INF281,NZ_LR890516.1
GCF_904865815.1_INF281,NZ_LR890517.1
GCF_904865815.1_INF281,NZ_LR890518.1
GCF_904865815.1_INF281,NZ_LR890519.1
GCF_904865815.1_INF281,NZ_LR890520.1
GCF_904865815.1_INF281,NZ_LR890521.1
GCF_904865815.1_INF281,NZ_LR890522.1
GCF_904865825.1_INF018,NZ_LR890494.1
GCF_904865825.1_INF018,NZ_LR890495.1
GCF_904865825.1_INF018,NZ_LR890496.1
GCF_904865825.1_INF018,NZ_LR890497.1
GCF_904865825.1_INF018,NZ_LR890498.1
GCF_904865825.1_INF018,NZ_LR890499.1
GCF_904865845.1_INF302,NZ_LR890557.1
GCF_904865845.1_INF302,NZ_LR890558.1
GCF_904865845.1_INF302,NZ_LR890559.1
GCF_904865845.1_INF302,NZ_LR890560.1
GCF_904865845.1_INF302,NZ_LR890561.1
GCF_904866195.1_INF327,NZ_LR890572.1
GCF_904866195.1_INF327,NZ_LR890573.1
GCF_904866195.1_INF327,NZ_LR890574.1
GCF_904866195.1_INF327,NZ_LR890575.1
GCF_904866205.1_INF145,NZ_LR890584.1
GCF_904866205.1_INF145,NZ_LR890585.1
GCF_904866205.1_INF145,NZ_LR890586.1
GCF_904866215.1_INF359,NZ_LR890617.1
GCF_904866215.1_INF359,NZ_LR890618.1
GCF_904866235.1_INF122,NZ_LR890601.1
GCF_904866235.1_INF122,NZ_LR890602.1
GCF_904866255.1_INF223,NZ_LR890596.1
GCF_904866255.1_INF223,NZ_LR890597.1
GCF_904866285.1_INF344,NZ_LR890641.1
GCF_904866285.1_INF344,NZ_LR890642.1
GCF_904866295.1_KSB2_1C,NZ_LR890621.1
GCF_904866295.1_KSB2_1C,NZ_LR890622.1
GCF_904866295.1_KSB2_1C,NZ_LR890623.1
GCF_904866315.1_INF346,NZ_LR890644.1
GCF_904866315.1_INF346,NZ_LR890645.1
GCF_904866315.1_INF346,NZ_LR890646.1
GCF_904866315.1_INF346,NZ_LR890647.1
GCF_904866325.1_INF299,NZ_LR890633.1
GCF_904866325.1_INF299,NZ_LR890634.1
GCF_904866325.1_INF299,NZ_LR890635.1
GCF_904866325.1_INF299,NZ_LR890636.1
GCF_904866325.1_INF299,NZ_LR890637.1
GCF_904866325.1_INF299,NZ_LR890638.1
GCF_904866325.1_INF299,NZ_LR890639.1
GCF_904866335.1_INF266,NZ_LR890649.1
GCF_904866335.1_INF266,NZ_LR890650.1
GCF_904866375.1_INF242,NZ_LR890625.1
GCF_904866375.1_INF242,NZ_LR890626.1
GCF_904866395.1_INF321,NZ_LR890670.1
GCF_904866395.1_INF321,NZ_LR890671.1
GCF_904866395.1_INF321,NZ_LR890672.1
GCF_904866395.1_INF321,NZ_LR890673.1
GCF_904866395.1_INF321,NZ_LR890674.1
GCF_904866395.1_INF321,NZ_LR890675.1
GCF_904866395.1_INF321,NZ_LR890676.1
GCF_904866395.1_INF321,NZ_LR890677.1
GCF_904866395.1_INF321,NZ_LR890678.1
GCF_904866405.1_INF279,NZ_LR890680.1
GCF_904866405.1_INF279,NZ_LR890681.1
GCF_904866405.1_INF279,NZ_LR890682.1
GCF_904866405.1_INF279,NZ_LR890683.1
GCF_904866405.1_INF279,NZ_LR890684.1
GCF_904866405.1_INF279,NZ_LR890685.1
GCF_904866415.1_INF201,NZ_LR890687.1
GCF_904866415.1_INF201,NZ_LR890688.1
GCF_904866415.1_INF201,NZ_LR890689.1
GCF_904866415.1_INF201,NZ_LR890690.1
GCF_904866425.1_INF065,NZ_LR890666.1
GCF_904866425.1_INF065,NZ_LR890667.1
GCF_904866425.1_INF065,NZ_LR890668.1
GCF_904866435.1_INF119,NZ_LR890692.1
GCF_904866445.1_INF305,NZ_LR890703.1
GCF_904866445.1_INF305,NZ_LR890704.1
GCF_904866445.1_INF305,NZ_LR890705.1
GCF_904866445.1_INF305,NZ_LR890706.1
GCF_904866445.1_INF305,NZ_LR890707.1
GCF_904866445.1_INF305,NZ_LR890708.1
GCF_904866445.1_INF305,NZ_LR890709.1
GCF_904866465.1_INF161,NZ_LR890720.1
GCF_904866465.1_INF161,NZ_LR890721.1
GCF_904866475.1_KSB2_9B,NZ_LR890711.1
GCF_904866475.1_KSB2_9B,NZ_LR890712.1
GCF_904866475.1_KSB2_9B,NZ_LR890713.1
GCF_904866485.1_KSB1_1H,NZ_LR890723.1
GCF_904866485.1_KSB1_1H,NZ_LR890724.1
GCF_904866485.1_KSB1_1H,NZ_LR890725.1
GCF_904866505.1_INF323,NZ_LR890736.1
GCF_904866505.1_INF323,NZ_LR890737.1
GCF_904866505.1_INF323,NZ_LR890738.1
GCF_904866505.1_INF323,NZ_LR890739.1
GCF_904866535.1_KSB1_8C,NZ_LR890752.1
GCF_904866535.1_KSB1_8C,NZ_LR890753.1
GCF_904866555.1_INF102,NZ_LR890727.1
GCF_904866555.1_INF102,NZ_LR890728.1
GCF_904866555.1_INF102,NZ_LR890729.1
GCF_904866555.1_INF102,NZ_LR890730.1
GCF_904866555.1_INF102,NZ_LR890731.1
GCF_904866555.1_INF102,NZ_LR890732.1
GCF_904866555.1_INF102,NZ_LR890733.1
GCF_904866555.1_INF102,NZ_LR890734.1
GCF_920103885.1_DJ,NZ_OV049809.1
GCF_920103885.1_DJ,NZ_OV049810.1
GCF_920103885.1_DJ,NZ_OV049811.1
GCF_920103885.1_DJ,NZ_OV049812.1
GCF_920103885.1_DJ,NZ_OV049813.1
GCF_920103885.1_DJ,NZ_OV049814.1
GCF_920103885.1_DJ,NZ_OV049815.1
GCF_920103885.1_DJ,NZ_OV049816.1
