<?xml version='1.0' encoding='UTF-8' ?>
<svg xmlns='http://www.w3.org/2000/svg' xmlns:xlink='http://www.w3.org/1999/xlink' class='svglite' width='720.00pt' height='576.00pt' viewBox='0 0 720.00 576.00'>
<defs>
  <style type='text/css'><![CDATA[
    .svglite line, .svglite polyline, .svglite polygon, .svglite path, .svglite rect, .svglite circle {
      fill: none;
      stroke: #000000;
      stroke-linecap: round;
      stroke-linejoin: round;
      stroke-miterlimit: 10.00;
    }
    .svglite text {
      white-space: pre;
    }
  ]]></style>
</defs>
<rect width='100%' height='100%' style='stroke: none; fill: #FFFFFF;'/>
<defs>
  <clipPath id='cpMC4wMHw3MjAuMDB8MC4wMHw1NzYuMDA='>
    <rect x='0.00' y='0.00' width='720.00' height='576.00' />
  </clipPath>
</defs>
<g clip-path='url(#cpMC4wMHw3MjAuMDB8MC4wMHw1NzYuMDA=)'>
</g>
<defs>
  <clipPath id='cpNDUuNzR8NzE0LjUyfDExLjkwfDUyNy4xNA=='>
    <rect x='45.74' y='11.90' width='668.78' height='515.24' />
  </clipPath>
</defs>
<g clip-path='url(#cpNDUuNzR8NzE0LjUyfDExLjkwfDUyNy4xNA==)'>
<polyline points='45.74,422.49 714.52,422.49 ' style='stroke-width: 0.53; stroke: #EBEBEB; stroke-linecap: butt;' />
<polyline points='45.74,260.01 714.52,260.01 ' style='stroke-width: 0.53; stroke: #EBEBEB; stroke-linecap: butt;' />
<polyline points='45.74,97.53 714.52,97.53 ' style='stroke-width: 0.53; stroke: #EBEBEB; stroke-linecap: butt;' />
<polyline points='153.90,527.14 153.90,11.90 ' style='stroke-width: 0.53; stroke: #EBEBEB; stroke-linecap: butt;' />
<polyline points='295.29,527.14 295.29,11.90 ' style='stroke-width: 0.53; stroke: #EBEBEB; stroke-linecap: butt;' />
<polyline points='436.69,527.14 436.69,11.90 ' style='stroke-width: 0.53; stroke: #EBEBEB; stroke-linecap: butt;' />
<polyline points='578.08,527.14 578.08,11.90 ' style='stroke-width: 0.53; stroke: #EBEBEB; stroke-linecap: butt;' />
<polyline points='45.74,503.72 714.52,503.72 ' style='stroke-width: 1.07; stroke: #EBEBEB; stroke-linecap: butt;' />
<polyline points='45.74,341.25 714.52,341.25 ' style='stroke-width: 1.07; stroke: #EBEBEB; stroke-linecap: butt;' />
<polyline points='45.74,178.77 714.52,178.77 ' style='stroke-width: 1.07; stroke: #EBEBEB; stroke-linecap: butt;' />
<polyline points='45.74,16.29 714.52,16.29 ' style='stroke-width: 1.07; stroke: #EBEBEB; stroke-linecap: butt;' />
<rect x='76.14' y='474.45' width='14.14' height='29.28' style='stroke-width: 1.07; stroke-linecap: butt; stroke-linejoin: miter; fill: #B5B5B5;' />
<rect x='90.28' y='503.72' width='14.14' height='0.00' style='stroke-width: 1.07; stroke-linecap: butt; stroke-linejoin: miter; fill: #B5B5B5;' />
<rect x='104.42' y='503.72' width='14.14' height='0.00' style='stroke-width: 1.07; stroke-linecap: butt; stroke-linejoin: miter; fill: #B5B5B5;' />
<rect x='118.55' y='503.72' width='14.14' height='0.00' style='stroke-width: 1.07; stroke-linecap: butt; stroke-linejoin: miter; fill: #B5B5B5;' />
<rect x='132.69' y='503.72' width='14.14' height='0.00' style='stroke-width: 1.07; stroke-linecap: butt; stroke-linejoin: miter; fill: #B5B5B5;' />
<rect x='146.83' y='503.72' width='14.14' height='0.00' style='stroke-width: 1.07; stroke-linecap: butt; stroke-linejoin: miter; fill: #B5B5B5;' />
<rect x='160.97' y='445.17' width='14.14' height='58.55' style='stroke-width: 1.07; stroke-linecap: butt; stroke-linejoin: miter; fill: #B5B5B5;' />
<rect x='175.11' y='503.72' width='14.14' height='0.00' style='stroke-width: 1.07; stroke-linecap: butt; stroke-linejoin: miter; fill: #B5B5B5;' />
<rect x='189.25' y='503.72' width='14.14' height='0.00' style='stroke-width: 1.07; stroke-linecap: butt; stroke-linejoin: miter; fill: #B5B5B5;' />
<rect x='203.39' y='503.72' width='14.14' height='0.00' style='stroke-width: 1.07; stroke-linecap: butt; stroke-linejoin: miter; fill: #B5B5B5;' />
<rect x='217.53' y='445.17' width='14.14' height='58.55' style='stroke-width: 1.07; stroke-linecap: butt; stroke-linejoin: miter; fill: #B5B5B5;' />
<rect x='231.67' y='474.45' width='14.14' height='29.28' style='stroke-width: 1.07; stroke-linecap: butt; stroke-linejoin: miter; fill: #B5B5B5;' />
<rect x='245.81' y='503.72' width='14.14' height='0.00' style='stroke-width: 1.07; stroke-linecap: butt; stroke-linejoin: miter; fill: #B5B5B5;' />
<rect x='259.95' y='474.45' width='14.14' height='29.28' style='stroke-width: 1.07; stroke-linecap: butt; stroke-linejoin: miter; fill: #B5B5B5;' />
<rect x='274.09' y='357.35' width='14.14' height='146.38' style='stroke-width: 1.07; stroke-linecap: butt; stroke-linejoin: miter; fill: #B5B5B5;' />
<rect x='288.22' y='503.72' width='14.14' height='0.00' style='stroke-width: 1.07; stroke-linecap: butt; stroke-linejoin: miter; fill: #B5B5B5;' />
<rect x='302.36' y='503.72' width='14.14' height='0.00' style='stroke-width: 1.07; stroke-linecap: butt; stroke-linejoin: miter; fill: #B5B5B5;' />
<rect x='316.50' y='503.72' width='14.14' height='0.00' style='stroke-width: 1.07; stroke-linecap: butt; stroke-linejoin: miter; fill: #B5B5B5;' />
<rect x='330.64' y='503.72' width='14.14' height='0.00' style='stroke-width: 1.07; stroke-linecap: butt; stroke-linejoin: miter; fill: #B5B5B5;' />
<rect x='344.78' y='474.45' width='14.14' height='29.28' style='stroke-width: 1.07; stroke-linecap: butt; stroke-linejoin: miter; fill: #B5B5B5;' />
<rect x='358.92' y='474.45' width='14.14' height='29.28' style='stroke-width: 1.07; stroke-linecap: butt; stroke-linejoin: miter; fill: #B5B5B5;' />
<rect x='373.06' y='474.45' width='14.14' height='29.28' style='stroke-width: 1.07; stroke-linecap: butt; stroke-linejoin: miter; fill: #B5B5B5;' />
<rect x='387.20' y='503.72' width='14.14' height='0.00' style='stroke-width: 1.07; stroke-linecap: butt; stroke-linejoin: miter; fill: #B5B5B5;' />
<rect x='401.34' y='474.45' width='14.14' height='29.28' style='stroke-width: 1.07; stroke-linecap: butt; stroke-linejoin: miter; fill: #B5B5B5;' />
<rect x='415.48' y='503.72' width='14.14' height='0.00' style='stroke-width: 1.07; stroke-linecap: butt; stroke-linejoin: miter; fill: #B5B5B5;' />
<rect x='429.62' y='503.72' width='14.14' height='0.00' style='stroke-width: 1.07; stroke-linecap: butt; stroke-linejoin: miter; fill: #B5B5B5;' />
<rect x='443.76' y='474.45' width='14.14' height='29.28' style='stroke-width: 1.07; stroke-linecap: butt; stroke-linejoin: miter; fill: #B5B5B5;' />
<rect x='457.89' y='474.45' width='14.14' height='29.28' style='stroke-width: 1.07; stroke-linecap: butt; stroke-linejoin: miter; fill: #B5B5B5;' />
<rect x='472.03' y='474.45' width='14.14' height='29.28' style='stroke-width: 1.07; stroke-linecap: butt; stroke-linejoin: miter; fill: #B5B5B5;' />
<rect x='486.17' y='474.45' width='14.14' height='29.28' style='stroke-width: 1.07; stroke-linecap: butt; stroke-linejoin: miter; fill: #B5B5B5;' />
<rect x='500.31' y='474.45' width='14.14' height='29.28' style='stroke-width: 1.07; stroke-linecap: butt; stroke-linejoin: miter; fill: #B5B5B5;' />
<rect x='514.45' y='328.07' width='14.14' height='175.65' style='stroke-width: 1.07; stroke-linecap: butt; stroke-linejoin: miter; fill: #B5B5B5;' />
<rect x='528.59' y='298.80' width='14.14' height='204.93' style='stroke-width: 1.07; stroke-linecap: butt; stroke-linejoin: miter; fill: #B5B5B5;' />
<rect x='542.73' y='445.17' width='14.14' height='58.55' style='stroke-width: 1.07; stroke-linecap: butt; stroke-linejoin: miter; fill: #B5B5B5;' />
<rect x='556.87' y='298.80' width='14.14' height='204.93' style='stroke-width: 1.07; stroke-linecap: butt; stroke-linejoin: miter; fill: #B5B5B5;' />
<rect x='571.01' y='35.32' width='14.14' height='468.40' style='stroke-width: 1.07; stroke-linecap: butt; stroke-linejoin: miter; fill: #B5B5B5;' />
<rect x='585.15' y='35.32' width='14.14' height='468.40' style='stroke-width: 1.07; stroke-linecap: butt; stroke-linejoin: miter; fill: #B5B5B5;' />
<rect x='599.29' y='64.60' width='14.14' height='439.13' style='stroke-width: 1.07; stroke-linecap: butt; stroke-linejoin: miter; fill: #B5B5B5;' />
<rect x='613.43' y='152.42' width='14.14' height='351.30' style='stroke-width: 1.07; stroke-linecap: butt; stroke-linejoin: miter; fill: #B5B5B5;' />
<rect x='627.56' y='445.17' width='14.14' height='58.55' style='stroke-width: 1.07; stroke-linecap: butt; stroke-linejoin: miter; fill: #B5B5B5;' />
<rect x='641.70' y='386.62' width='14.14' height='117.10' style='stroke-width: 1.07; stroke-linecap: butt; stroke-linejoin: miter; fill: #B5B5B5;' />
<rect x='655.84' y='503.72' width='14.14' height='0.00' style='stroke-width: 1.07; stroke-linecap: butt; stroke-linejoin: miter; fill: #B5B5B5;' />
<rect x='669.98' y='415.90' width='14.14' height='87.83' style='stroke-width: 1.07; stroke-linecap: butt; stroke-linejoin: miter; fill: #B5B5B5;' />
<polygon points='81.35,495.74 82.50,495.76 83.66,495.80 84.81,495.86 85.97,495.94 87.12,496.05 88.27,496.18 89.43,496.33 90.58,496.50 91.73,496.68 92.89,496.88 94.04,497.10 95.19,497.33 96.35,497.57 97.50,497.82 98.66,498.07 99.81,498.33 100.96,498.59 102.12,498.85 103.27,499.11 104.42,499.36 105.58,499.61 106.73,499.86 107.89,500.09 109.04,500.32 110.19,500.53 111.35,500.73 112.50,500.92 113.65,501.09 114.81,501.24 115.96,501.38 117.11,501.50 118.27,501.60 119.42,501.68 120.58,501.73 121.73,501.77 122.88,501.79 124.04,501.78 125.19,501.74 126.34,501.69 127.50,501.61 128.65,501.50 129.80,501.37 130.96,501.21 132.11,501.03 133.27,500.82 134.42,500.58 135.57,500.31 136.73,500.02 137.88,499.71 139.03,499.37 140.19,499.00 141.34,498.60 142.50,498.19 143.65,497.75 144.80,497.29 145.96,496.82 147.11,496.32 148.26,495.81 149.42,495.29 150.57,494.76 151.72,494.22 152.88,493.68 154.03,493.14 155.19,492.61 156.34,492.08 157.49,491.56 158.65,491.05 159.80,490.55 160.95,490.08 162.11,489.64 163.26,489.22 164.42,488.82 165.57,488.46 166.72,488.13 167.88,487.84 169.03,487.58 170.18,487.36 171.34,487.17 172.49,487.03 173.64,486.92 174.80,486.84 175.95,486.80 177.11,486.79 178.26,486.81 179.41,486.86 180.57,486.92 181.72,487.01 182.87,487.11 184.03,487.23 185.18,487.35 186.33,487.47 187.49,487.59 188.64,487.70 189.80,487.80 190.95,487.89 192.10,487.97 193.26,488.01 194.41,488.04 195.56,488.04 196.72,488.01 197.87,487.94 199.03,487.85 200.18,487.72 201.33,487.56 202.49,487.37 203.64,487.13 204.79,486.87 205.95,486.59 207.10,486.27 208.25,485.93 209.41,485.57 210.56,485.18 211.72,484.78 212.87,484.37 214.02,483.94 215.18,483.51 216.33,483.08 217.48,482.64 218.64,482.20 219.79,481.77 220.95,481.34 222.10,480.92 223.25,480.51 224.41,480.11 225.56,479.72 226.71,479.34 227.87,478.97 229.02,478.61 230.17,478.25 231.33,477.90 232.48,477.56 233.64,477.21 234.79,476.87 235.94,476.52 237.10,476.16 238.25,475.80 239.40,475.42 240.56,475.02 241.71,474.60 242.86,474.16 244.02,473.70 245.17,473.21 246.33,472.68 247.48,472.13 248.63,471.55 249.79,470.93 250.94,470.28 252.09,469.60 253.25,468.89 254.40,468.15 255.56,467.39 256.71,466.60 257.86,465.80 259.02,464.99 260.17,464.18 261.32,463.36 262.48,462.55 263.63,461.75 264.78,460.97 265.94,460.22 267.09,459.52 268.25,458.85 269.40,458.24 270.55,457.67 271.71,457.19 272.86,456.79 274.01,456.46 275.17,456.21 276.32,456.04 277.48,456.00 278.63,456.05 279.78,456.20 280.94,456.44 282.09,456.81 283.24,457.28 284.40,457.86 285.55,458.53 286.70,459.29 287.86,460.17 289.01,461.14 290.17,462.18 291.32,463.30 292.47,464.50 293.63,465.77 294.78,467.08 295.93,468.44 297.09,469.83 298.24,471.26 299.39,472.71 300.55,474.16 301.70,475.62 302.86,477.07 304.01,478.49 305.16,479.90 306.32,481.27 307.47,482.61 308.62,483.89 309.78,485.11 310.93,486.29 312.09,487.40 313.24,488.44 314.39,489.40 315.55,490.29 316.70,491.11 317.85,491.86 319.01,492.51 320.16,493.08 321.31,493.57 322.47,493.99 323.62,494.33 324.78,494.57 325.93,494.74 327.08,494.83 328.24,494.86 329.39,494.81 330.54,494.68 331.70,494.50 332.85,494.25 334.01,493.95 335.16,493.58 336.31,493.17 337.47,492.71 338.62,492.21 339.77,491.67 340.93,491.09 342.08,490.49 343.23,489.86 344.39,489.22 345.54,488.56 346.70,487.89 347.85,487.22 349.00,486.55 350.16,485.89 351.31,485.24 352.46,484.60 353.62,483.99 354.77,483.40 355.92,482.84 357.08,482.31 358.23,481.82 359.39,481.37 360.54,480.96 361.69,480.59 362.85,480.28 364.00,480.00 365.15,479.77 366.31,479.60 367.46,479.48 368.62,479.40 369.77,479.37 370.92,479.38 372.08,479.44 373.23,479.55 374.38,479.70 375.54,479.88 376.69,480.10 377.84,480.36 379.00,480.64 380.15,480.96 381.31,481.29 382.46,481.65 383.61,482.04 384.77,482.43 385.92,482.84 387.07,483.26 388.23,483.68 389.38,484.12 390.54,484.55 391.69,484.99 392.84,485.42 394.00,485.85 395.15,486.27 396.30,486.69 397.46,487.10 398.61,487.50 399.76,487.89 400.92,488.26 402.07,488.62 403.23,488.97 404.38,489.30 405.53,489.61 406.69,489.90 407.84,490.18 408.99,490.43 410.15,490.66 411.30,490.87 412.45,491.05 413.61,491.21 414.76,491.34 415.92,491.45 417.07,491.53 418.22,491.58 419.38,491.60 420.53,491.59 421.68,491.56 422.84,491.50 423.99,491.40 425.15,491.28 426.30,491.13 427.45,490.95 428.61,490.75 429.76,490.51 430.91,490.25 432.07,489.97 433.22,489.67 434.37,489.35 435.53,489.00 436.68,488.64 437.84,488.27 438.99,487.88 440.14,487.47 441.30,487.06 442.45,486.63 443.60,486.20 444.76,485.77 445.91,485.33 447.07,484.88 448.22,484.43 449.37,483.98 450.53,483.53 451.68,483.08 452.83,482.62 453.99,482.17 455.14,481.71 456.29,481.25 457.45,480.78 458.60,480.31 459.76,479.83 460.91,479.34 462.06,478.84 463.22,478.33 464.37,477.80 465.52,477.25 466.68,476.68 467.83,476.08 468.98,475.45 470.14,474.79 471.29,474.10 472.45,473.36 473.60,472.57 474.75,471.74 475.91,470.87 477.06,469.92 478.21,468.91 479.37,467.85 480.52,466.72 481.68,465.51 482.83,464.22 483.98,462.86 485.14,461.42 486.29,459.91 487.44,458.30 488.60,456.61 489.75,454.83 490.90,452.98 492.06,451.05 493.21,449.02 494.37,446.92 495.52,444.74 496.67,442.51 497.83,440.19 498.98,437.81 500.13,435.38 501.29,432.91 502.44,430.39 503.60,427.84 504.75,425.25 505.90,422.65 507.06,420.04 508.21,417.42 509.36,414.81 510.52,412.20 511.67,409.62 512.82,407.05 513.98,404.51 515.13,402.01 516.29,399.54 517.44,397.10 518.59,394.71 519.75,392.35 520.90,390.03 522.05,387.75 523.21,385.48 524.36,383.25 525.51,381.02 526.67,378.81 527.82,376.58 528.98,374.35 530.13,372.07 531.28,369.76 532.44,367.39 533.59,364.95 534.74,362.41 535.90,359.76 537.05,356.99 538.21,354.09 539.36,351.04 540.51,347.78 541.67,344.35 542.82,340.72 543.97,336.90 545.13,332.83 546.28,328.51 547.43,323.96 548.59,319.18 549.74,314.17 550.90,308.85 552.05,303.29 553.20,297.50 554.36,291.50 555.51,285.25 556.66,278.77 557.82,272.10 558.97,265.27 560.13,258.28 561.28,251.13 562.43,243.87 563.59,236.54 564.74,229.16 565.89,221.74 567.05,214.33 568.20,206.97 569.35,199.66 570.51,192.45 571.66,185.39 572.82,178.50 573.97,171.81 575.12,165.32 576.28,159.07 577.43,153.18 578.58,147.58 579.74,142.29 580.89,137.32 582.04,132.78 583.20,128.67 584.35,124.95 585.51,121.61 586.66,118.69 587.81,116.33 588.97,114.40 590.12,112.90 591.27,111.82 592.43,111.26 593.58,111.23 594.74,111.62 595.89,112.45 597.04,113.70 598.20,115.53 599.35,117.79 600.50,120.45 601.66,123.51 602.81,127.02 603.96,131.01 605.12,135.36 606.27,140.07 607.43,145.12 608.58,150.60 609.73,156.41 610.89,162.51 612.04,168.90 613.19,175.56 614.35,182.53 615.50,189.72 616.66,197.09 617.81,204.65 618.96,212.39 620.12,220.26 621.27,228.24 622.42,236.29 623.58,244.40 624.73,252.54 625.88,260.68 627.04,268.80 628.19,276.88 629.35,284.88 630.50,292.77 631.65,300.55 632.81,308.20 633.96,315.71 635.11,323.00 636.27,330.11 637.42,337.04 638.57,343.77 639.73,350.25 640.88,356.48 642.04,362.50 643.19,368.29 644.34,373.87 645.50,379.15 646.65,384.20 647.80,389.04 648.96,393.68 650.11,398.08 651.27,402.25 652.42,406.23 653.57,410.03 654.73,413.67 655.88,417.11 657.03,420.39 658.19,423.53 659.34,426.55 660.49,429.45 661.65,432.21 662.80,434.88 663.96,437.46 665.11,439.97 666.26,442.39 667.42,444.74 668.57,447.03 669.72,449.27 670.88,451.47 670.88,503.72 669.72,503.72 668.57,503.72 667.42,503.72 666.26,503.72 665.11,503.72 663.96,503.72 662.80,503.72 661.65,503.72 660.49,503.72 659.34,503.72 658.19,503.72 657.03,503.72 655.88,503.72 654.73,503.72 653.57,503.72 652.42,503.72 651.27,503.72 650.11,503.72 648.96,503.72 647.80,503.72 646.65,503.72 645.50,503.72 644.34,503.72 643.19,503.72 642.04,503.72 640.88,503.72 639.73,503.72 638.57,503.72 637.42,503.72 636.27,503.72 635.11,503.72 633.96,503.72 632.81,503.72 631.65,503.72 630.50,503.72 629.35,503.72 628.19,503.72 627.04,503.72 625.88,503.72 624.73,503.72 623.58,503.72 622.42,503.72 621.27,503.72 620.12,503.72 618.96,503.72 617.81,503.72 616.66,503.72 615.50,503.72 614.35,503.72 613.19,503.72 612.04,503.72 610.89,503.72 609.73,503.72 608.58,503.72 607.43,503.72 606.27,503.72 605.12,503.72 603.96,503.72 602.81,503.72 601.66,503.72 600.50,503.72 599.35,503.72 598.20,503.72 597.04,503.72 595.89,503.72 594.74,503.72 593.58,503.72 592.43,503.72 591.27,503.72 590.12,503.72 588.97,503.72 587.81,503.72 586.66,503.72 585.51,503.72 584.35,503.72 583.20,503.72 582.04,503.72 580.89,503.72 579.74,503.72 578.58,503.72 577.43,503.72 576.28,503.72 575.12,503.72 573.97,503.72 572.82,503.72 571.66,503.72 570.51,503.72 569.35,503.72 568.20,503.72 567.05,503.72 565.89,503.72 564.74,503.72 563.59,503.72 562.43,503.72 561.28,503.72 560.13,503.72 558.97,503.72 557.82,503.72 556.66,503.72 555.51,503.72 554.36,503.72 553.20,503.72 552.05,503.72 550.90,503.72 549.74,503.72 548.59,503.72 547.43,503.72 546.28,503.72 545.13,503.72 543.97,503.72 542.82,503.72 541.67,503.72 540.51,503.72 539.36,503.72 538.21,503.72 537.05,503.72 535.90,503.72 534.74,503.72 533.59,503.72 532.44,503.72 531.28,503.72 530.13,503.72 528.98,503.72 527.82,503.72 526.67,503.72 525.51,503.72 524.36,503.72 523.21,503.72 522.05,503.72 520.90,503.72 519.75,503.72 518.59,503.72 517.44,503.72 516.29,503.72 515.13,503.72 513.98,503.72 512.82,503.72 511.67,503.72 510.52,503.72 509.36,503.72 508.21,503.72 507.06,503.72 505.90,503.72 504.75,503.72 503.60,503.72 502.44,503.72 501.29,503.72 500.13,503.72 498.98,503.72 497.83,503.72 496.67,503.72 495.52,503.72 494.37,503.72 493.21,503.72 492.06,503.72 490.90,503.72 489.75,503.72 488.60,503.72 487.44,503.72 486.29,503.72 485.14,503.72 483.98,503.72 482.83,503.72 481.68,503.72 480.52,503.72 479.37,503.72 478.21,503.72 477.06,503.72 475.91,503.72 474.75,503.72 473.60,503.72 472.45,503.72 471.29,503.72 470.14,503.72 468.98,503.72 467.83,503.72 466.68,503.72 465.52,503.72 464.37,503.72 463.22,503.72 462.06,503.72 460.91,503.72 459.76,503.72 458.60,503.72 457.45,503.72 456.29,503.72 455.14,503.72 453.99,503.72 452.83,503.72 451.68,503.72 450.53,503.72 449.37,503.72 448.22,503.72 447.07,503.72 445.91,503.72 444.76,503.72 443.60,503.72 442.45,503.72 441.30,503.72 440.14,503.72 438.99,503.72 437.84,503.72 436.68,503.72 435.53,503.72 434.37,503.72 433.22,503.72 432.07,503.72 430.91,503.72 429.76,503.72 428.61,503.72 427.45,503.72 426.30,503.72 425.15,503.72 423.99,503.72 422.84,503.72 421.68,503.72 420.53,503.72 419.38,503.72 418.22,503.72 417.07,503.72 415.92,503.72 414.76,503.72 413.61,503.72 412.45,503.72 411.30,503.72 410.15,503.72 408.99,503.72 407.84,503.72 406.69,503.72 405.53,503.72 404.38,503.72 403.23,503.72 402.07,503.72 400.92,503.72 399.76,503.72 398.61,503.72 397.46,503.72 396.30,503.72 395.15,503.72 394.00,503.72 392.84,503.72 391.69,503.72 390.54,503.72 389.38,503.72 388.23,503.72 387.07,503.72 385.92,503.72 384.77,503.72 383.61,503.72 382.46,503.72 381.31,503.72 380.15,503.72 379.00,503.72 377.84,503.72 376.69,503.72 375.54,503.72 374.38,503.72 373.23,503.72 372.08,503.72 370.92,503.72 369.77,503.72 368.62,503.72 367.46,503.72 366.31,503.72 365.15,503.72 364.00,503.72 362.85,503.72 361.69,503.72 360.54,503.72 359.39,503.72 358.23,503.72 357.08,503.72 355.92,503.72 354.77,503.72 353.62,503.72 352.46,503.72 351.31,503.72 350.16,503.72 349.00,503.72 347.85,503.72 346.70,503.72 345.54,503.72 344.39,503.72 343.23,503.72 342.08,503.72 340.93,503.72 339.77,503.72 338.62,503.72 337.47,503.72 336.31,503.72 335.16,503.72 334.01,503.72 332.85,503.72 331.70,503.72 330.54,503.72 329.39,503.72 328.24,503.72 327.08,503.72 325.93,503.72 324.78,503.72 323.62,503.72 322.47,503.72 321.31,503.72 320.16,503.72 319.01,503.72 317.85,503.72 316.70,503.72 315.55,503.72 314.39,503.72 313.24,503.72 312.09,503.72 310.93,503.72 309.78,503.72 308.62,503.72 307.47,503.72 306.32,503.72 305.16,503.72 304.01,503.72 302.86,503.72 301.70,503.72 300.55,503.72 299.39,503.72 298.24,503.72 297.09,503.72 295.93,503.72 294.78,503.72 293.63,503.72 292.47,503.72 291.32,503.72 290.17,503.72 289.01,503.72 287.86,503.72 286.70,503.72 285.55,503.72 284.40,503.72 283.24,503.72 282.09,503.72 280.94,503.72 279.78,503.72 278.63,503.72 277.48,503.72 276.32,503.72 275.17,503.72 274.01,503.72 272.86,503.72 271.71,503.72 270.55,503.72 269.40,503.72 268.25,503.72 267.09,503.72 265.94,503.72 264.78,503.72 263.63,503.72 262.48,503.72 261.32,503.72 260.17,503.72 259.02,503.72 257.86,503.72 256.71,503.72 255.56,503.72 254.40,503.72 253.25,503.72 252.09,503.72 250.94,503.72 249.79,503.72 248.63,503.72 247.48,503.72 246.33,503.72 245.17,503.72 244.02,503.72 242.86,503.72 241.71,503.72 240.56,503.72 239.40,503.72 238.25,503.72 237.10,503.72 235.94,503.72 234.79,503.72 233.64,503.72 232.48,503.72 231.33,503.72 230.17,503.72 229.02,503.72 227.87,503.72 226.71,503.72 225.56,503.72 224.41,503.72 223.25,503.72 222.10,503.72 220.95,503.72 219.79,503.72 218.64,503.72 217.48,503.72 216.33,503.72 215.18,503.72 214.02,503.72 212.87,503.72 211.72,503.72 210.56,503.72 209.41,503.72 208.25,503.72 207.10,503.72 205.95,503.72 204.79,503.72 203.64,503.72 202.49,503.72 201.33,503.72 200.18,503.72 199.03,503.72 197.87,503.72 196.72,503.72 195.56,503.72 194.41,503.72 193.26,503.72 192.10,503.72 190.95,503.72 189.80,503.72 188.64,503.72 187.49,503.72 186.33,503.72 185.18,503.72 184.03,503.72 182.87,503.72 181.72,503.72 180.57,503.72 179.41,503.72 178.26,503.72 177.11,503.72 175.95,503.72 174.80,503.72 173.64,503.72 172.49,503.72 171.34,503.72 170.18,503.72 169.03,503.72 167.88,503.72 166.72,503.72 165.57,503.72 164.42,503.72 163.26,503.72 162.11,503.72 160.95,503.72 159.80,503.72 158.65,503.72 157.49,503.72 156.34,503.72 155.19,503.72 154.03,503.72 152.88,503.72 151.72,503.72 150.57,503.72 149.42,503.72 148.26,503.72 147.11,503.72 145.96,503.72 144.80,503.72 143.65,503.72 142.50,503.72 141.34,503.72 140.19,503.72 139.03,503.72 137.88,503.72 136.73,503.72 135.57,503.72 134.42,503.72 133.27,503.72 132.11,503.72 130.96,503.72 129.80,503.72 128.65,503.72 127.50,503.72 126.34,503.72 125.19,503.72 124.04,503.72 122.88,503.72 121.73,503.72 120.58,503.72 119.42,503.72 118.27,503.72 117.11,503.72 115.96,503.72 114.81,503.72 113.65,503.72 112.50,503.72 111.35,503.72 110.19,503.72 109.04,503.72 107.89,503.72 106.73,503.72 105.58,503.72 104.42,503.72 103.27,503.72 102.12,503.72 100.96,503.72 99.81,503.72 98.66,503.72 97.50,503.72 96.35,503.72 95.19,503.72 94.04,503.72 92.89,503.72 91.73,503.72 90.58,503.72 89.43,503.72 88.27,503.72 87.12,503.72 85.97,503.72 84.81,503.72 83.66,503.72 82.50,503.72 81.35,503.72 ' style='stroke-width: 0.00; stroke: none; stroke-linecap: butt; fill: #FF9933; fill-opacity: 0.50;' />
<polyline points='81.35,495.74 82.50,495.76 83.66,495.80 84.81,495.86 85.97,495.94 87.12,496.05 88.27,496.18 89.43,496.33 90.58,496.50 91.73,496.68 92.89,496.88 94.04,497.10 95.19,497.33 96.35,497.57 97.50,497.82 98.66,498.07 99.81,498.33 100.96,498.59 102.12,498.85 103.27,499.11 104.42,499.36 105.58,499.61 106.73,499.86 107.89,500.09 109.04,500.32 110.19,500.53 111.35,500.73 112.50,500.92 113.65,501.09 114.81,501.24 115.96,501.38 117.11,501.50 118.27,501.60 119.42,501.68 120.58,501.73 121.73,501.77 122.88,501.79 124.04,501.78 125.19,501.74 126.34,501.69 127.50,501.61 128.65,501.50 129.80,501.37 130.96,501.21 132.11,501.03 133.27,500.82 134.42,500.58 135.57,500.31 136.73,500.02 137.88,499.71 139.03,499.37 140.19,499.00 141.34,498.60 142.50,498.19 143.65,497.75 144.80,497.29 145.96,496.82 147.11,496.32 148.26,495.81 149.42,495.29 150.57,494.76 151.72,494.22 152.88,493.68 154.03,493.14 155.19,492.61 156.34,492.08 157.49,491.56 158.65,491.05 159.80,490.55 160.95,490.08 162.11,489.64 163.26,489.22 164.42,488.82 165.57,488.46 166.72,488.13 167.88,487.84 169.03,487.58 170.18,487.36 171.34,487.17 172.49,487.03 173.64,486.92 174.80,486.84 175.95,486.80 177.11,486.79 178.26,486.81 179.41,486.86 180.57,486.92 181.72,487.01 182.87,487.11 184.03,487.23 185.18,487.35 186.33,487.47 187.49,487.59 188.64,487.70 189.80,487.80 190.95,487.89 192.10,487.97 193.26,488.01 194.41,488.04 195.56,488.04 196.72,488.01 197.87,487.94 199.03,487.85 200.18,487.72 201.33,487.56 202.49,487.37 203.64,487.13 204.79,486.87 205.95,486.59 207.10,486.27 208.25,485.93 209.41,485.57 210.56,485.18 211.72,484.78 212.87,484.37 214.02,483.94 215.18,483.51 216.33,483.08 217.48,482.64 218.64,482.20 219.79,481.77 220.95,481.34 222.10,480.92 223.25,480.51 224.41,480.11 225.56,479.72 226.71,479.34 227.87,478.97 229.02,478.61 230.17,478.25 231.33,477.90 232.48,477.56 233.64,477.21 234.79,476.87 235.94,476.52 237.10,476.16 238.25,475.80 239.40,475.42 240.56,475.02 241.71,474.60 242.86,474.16 244.02,473.70 245.17,473.21 246.33,472.68 247.48,472.13 248.63,471.55 249.79,470.93 250.94,470.28 252.09,469.60 253.25,468.89 254.40,468.15 255.56,467.39 256.71,466.60 257.86,465.80 259.02,464.99 260.17,464.18 261.32,463.36 262.48,462.55 263.63,461.75 264.78,460.97 265.94,460.22 267.09,459.52 268.25,458.85 269.40,458.24 270.55,457.67 271.71,457.19 272.86,456.79 274.01,456.46 275.17,456.21 276.32,456.04 277.48,456.00 278.63,456.05 279.78,456.20 280.94,456.44 282.09,456.81 283.24,457.28 284.40,457.86 285.55,458.53 286.70,459.29 287.86,460.17 289.01,461.14 290.17,462.18 291.32,463.30 292.47,464.50 293.63,465.77 294.78,467.08 295.93,468.44 297.09,469.83 298.24,471.26 299.39,472.71 300.55,474.16 301.70,475.62 302.86,477.07 304.01,478.49 305.16,479.90 306.32,481.27 307.47,482.61 308.62,483.89 309.78,485.11 310.93,486.29 312.09,487.40 313.24,488.44 314.39,489.40 315.55,490.29 316.70,491.11 317.85,491.86 319.01,492.51 320.16,493.08 321.31,493.57 322.47,493.99 323.62,494.33 324.78,494.57 325.93,494.74 327.08,494.83 328.24,494.86 329.39,494.81 330.54,494.68 331.70,494.50 332.85,494.25 334.01,493.95 335.16,493.58 336.31,493.17 337.47,492.71 338.62,492.21 339.77,491.67 340.93,491.09 342.08,490.49 343.23,489.86 344.39,489.22 345.54,488.56 346.70,487.89 347.85,487.22 349.00,486.55 350.16,485.89 351.31,485.24 352.46,484.60 353.62,483.99 354.77,483.40 355.92,482.84 357.08,482.31 358.23,481.82 359.39,481.37 360.54,480.96 361.69,480.59 362.85,480.28 364.00,480.00 365.15,479.77 366.31,479.60 367.46,479.48 368.62,479.40 369.77,479.37 370.92,479.38 372.08,479.44 373.23,479.55 374.38,479.70 375.54,479.88 376.69,480.10 377.84,480.36 379.00,480.64 380.15,480.96 381.31,481.29 382.46,481.65 383.61,482.04 384.77,482.43 385.92,482.84 387.07,483.26 388.23,483.68 389.38,484.12 390.54,484.55 391.69,484.99 392.84,485.42 394.00,485.85 395.15,486.27 396.30,486.69 397.46,487.10 398.61,487.50 399.76,487.89 400.92,488.26 402.07,488.62 403.23,488.97 404.38,489.30 405.53,489.61 406.69,489.90 407.84,490.18 408.99,490.43 410.15,490.66 411.30,490.87 412.45,491.05 413.61,491.21 414.76,491.34 415.92,491.45 417.07,491.53 418.22,491.58 419.38,491.60 420.53,491.59 421.68,491.56 422.84,491.50 423.99,491.40 425.15,491.28 426.30,491.13 427.45,490.95 428.61,490.75 429.76,490.51 430.91,490.25 432.07,489.97 433.22,489.67 434.37,489.35 435.53,489.00 436.68,488.64 437.84,488.27 438.99,487.88 440.14,487.47 441.30,487.06 442.45,486.63 443.60,486.20 444.76,485.77 445.91,485.33 447.07,484.88 448.22,484.43 449.37,483.98 450.53,483.53 451.68,483.08 452.83,482.62 453.99,482.17 455.14,481.71 456.29,481.25 457.45,480.78 458.60,480.31 459.76,479.83 460.91,479.34 462.06,478.84 463.22,478.33 464.37,477.80 465.52,477.25 466.68,476.68 467.83,476.08 468.98,475.45 470.14,474.79 471.29,474.10 472.45,473.36 473.60,472.57 474.75,471.74 475.91,470.87 477.06,469.92 478.21,468.91 479.37,467.85 480.52,466.72 481.68,465.51 482.83,464.22 483.98,462.86 485.14,461.42 486.29,459.91 487.44,458.30 488.60,456.61 489.75,454.83 490.90,452.98 492.06,451.05 493.21,449.02 494.37,446.92 495.52,444.74 496.67,442.51 497.83,440.19 498.98,437.81 500.13,435.38 501.29,432.91 502.44,430.39 503.60,427.84 504.75,425.25 505.90,422.65 507.06,420.04 508.21,417.42 509.36,414.81 510.52,412.20 511.67,409.62 512.82,407.05 513.98,404.51 515.13,402.01 516.29,399.54 517.44,397.10 518.59,394.71 519.75,392.35 520.90,390.03 522.05,387.75 523.21,385.48 524.36,383.25 525.51,381.02 526.67,378.81 527.82,376.58 528.98,374.35 530.13,372.07 531.28,369.76 532.44,367.39 533.59,364.95 534.74,362.41 535.90,359.76 537.05,356.99 538.21,354.09 539.36,351.04 540.51,347.78 541.67,344.35 542.82,340.72 543.97,336.90 545.13,332.83 546.28,328.51 547.43,323.96 548.59,319.18 549.74,314.17 550.90,308.85 552.05,303.29 553.20,297.50 554.36,291.50 555.51,285.25 556.66,278.77 557.82,272.10 558.97,265.27 560.13,258.28 561.28,251.13 562.43,243.87 563.59,236.54 564.74,229.16 565.89,221.74 567.05,214.33 568.20,206.97 569.35,199.66 570.51,192.45 571.66,185.39 572.82,178.50 573.97,171.81 575.12,165.32 576.28,159.07 577.43,153.18 578.58,147.58 579.74,142.29 580.89,137.32 582.04,132.78 583.20,128.67 584.35,124.95 585.51,121.61 586.66,118.69 587.81,116.33 588.97,114.40 590.12,112.90 591.27,111.82 592.43,111.26 593.58,111.23 594.74,111.62 595.89,112.45 597.04,113.70 598.20,115.53 599.35,117.79 600.50,120.45 601.66,123.51 602.81,127.02 603.96,131.01 605.12,135.36 606.27,140.07 607.43,145.12 608.58,150.60 609.73,156.41 610.89,162.51 612.04,168.90 613.19,175.56 614.35,182.53 615.50,189.72 616.66,197.09 617.81,204.65 618.96,212.39 620.12,220.26 621.27,228.24 622.42,236.29 623.58,244.40 624.73,252.54 625.88,260.68 627.04,268.80 628.19,276.88 629.35,284.88 630.50,292.77 631.65,300.55 632.81,308.20 633.96,315.71 635.11,323.00 636.27,330.11 637.42,337.04 638.57,343.77 639.73,350.25 640.88,356.48 642.04,362.50 643.19,368.29 644.34,373.87 645.50,379.15 646.65,384.20 647.80,389.04 648.96,393.68 650.11,398.08 651.27,402.25 652.42,406.23 653.57,410.03 654.73,413.67 655.88,417.11 657.03,420.39 658.19,423.53 659.34,426.55 660.49,429.45 661.65,432.21 662.80,434.88 663.96,437.46 665.11,439.97 666.26,442.39 667.42,444.74 668.57,447.03 669.72,449.27 670.88,451.47 ' style='stroke-width: 1.07; stroke-linecap: butt;' />
</g>
<g clip-path='url(#cpMC4wMHw3MjAuMDB8MC4wMHw1NzYuMDA=)'>
<text x='40.81' y='510.18' text-anchor='end' style='font-size: 18.00px;fill: #4D4D4D; font-family: "Arial";' textLength='10.01px' lengthAdjust='spacingAndGlyphs'>0</text>
<text x='40.81' y='347.70' text-anchor='end' style='font-size: 18.00px;fill: #4D4D4D; font-family: "Arial";' textLength='10.01px' lengthAdjust='spacingAndGlyphs'>1</text>
<text x='40.81' y='185.23' text-anchor='end' style='font-size: 18.00px;fill: #4D4D4D; font-family: "Arial";' textLength='10.01px' lengthAdjust='spacingAndGlyphs'>2</text>
<text x='40.81' y='22.75' text-anchor='end' style='font-size: 18.00px;fill: #4D4D4D; font-family: "Arial";' textLength='10.01px' lengthAdjust='spacingAndGlyphs'>3</text>
<text x='83.21' y='544.99' text-anchor='middle' style='font-size: 18.00px;fill: #4D4D4D; font-family: "Arial";' textLength='25.02px' lengthAdjust='spacingAndGlyphs'>3.0</text>
<text x='224.60' y='544.99' text-anchor='middle' style='font-size: 18.00px;fill: #4D4D4D; font-family: "Arial";' textLength='25.02px' lengthAdjust='spacingAndGlyphs'>3.5</text>
<text x='365.99' y='544.99' text-anchor='middle' style='font-size: 18.00px;fill: #4D4D4D; font-family: "Arial";' textLength='25.02px' lengthAdjust='spacingAndGlyphs'>4.0</text>
<text x='507.38' y='544.99' text-anchor='middle' style='font-size: 18.00px;fill: #4D4D4D; font-family: "Arial";' textLength='25.02px' lengthAdjust='spacingAndGlyphs'>4.5</text>
<text x='648.77' y='544.99' text-anchor='middle' style='font-size: 18.00px;fill: #4D4D4D; font-family: "Arial";' textLength='25.02px' lengthAdjust='spacingAndGlyphs'>5.0</text>
<text x='380.13' y='566.10' text-anchor='middle' style='font-size: 20.00px; font-weight: bold; font-family: "Arial";' textLength='108.87px' lengthAdjust='spacingAndGlyphs'>log (length)</text>
<text transform='translate(22.75,269.52) rotate(-90)' text-anchor='middle' style='font-size: 24.00px; font-weight: bold; font-family: "Arial";' textLength='86.70px' lengthAdjust='spacingAndGlyphs'>Density</text>
<text x='380.13' y='6.20' text-anchor='middle' style='font-size: 0.00px; font-weight: bold; font-family: "Arial";' textLength='13.47px' lengthAdjust='spacingAndGlyphs'>Plasmids length distribution</text>
</g>
</svg>
