#FILE	SEQUENCE	START	END	STRAND	GENE	COVERAGE	COVERAGE_MAP	GAPS	%COVERAGE	%IDENTITY	DATABASE	ACCESSION	PRODUCT	RESISTANCE
/hpc/dla_mm/jkerkvliet/data/gplas/newmodels/results/A_baumannii/09_plasmidspades/GCF_018604365.1_ASM1860436v1/bin_component_0.fasta	NODE_3_length_2445_cov_323.157415_component_0	1590	2411	-	blaOXA-23_1	1-822/822	===============	0/0	100.00	100.00	resfinder	AY795964	blaOXA-23	Imipenem;Meropenem
/hpc/dla_mm/jkerkvliet/data/gplas/newmodels/results/A_baumannii/09_plasmidspades/GCF_021609965.1_ASM2160996v1/bin_component_1.fasta	NODE_1_length_25323_cov_544.607874_component_1	9884	10682	-	ant(3'')-Ia_1	171-972/972	..======/======	1/3	82.20	99.38	resfinder	X02340	ant(3'')-Ia	Streptomycin
/hpc/dla_mm/jkerkvliet/data/gplas/newmodels/results/A_baumannii/09_plasmidspades/GCF_021609965.1_ASM2160996v1/bin_component_1.fasta	NODE_1_length_25323_cov_544.607874_component_1	11716	12249	-	aac(3)-Ia_1	1-534/534	===============	0/0	100.00	99.06	resfinder	X15852	aac(3)-Ia	Gentamicin
/hpc/dla_mm/jkerkvliet/data/gplas/newmodels/results/A_baumannii/09_plasmidspades/GCF_021609965.1_ASM2160996v1/bin_component_1.fasta	NODE_1_length_25323_cov_544.607874_component_1	14791	15606	+	aph(3')-Ia_7	1-816/816	===============	0/0	100.00	100.00	resfinder	X62115	aph(3')-Ia	
/hpc/dla_mm/jkerkvliet/data/gplas/newmodels/results/A_baumannii/09_plasmidspades/GCF_021609965.1_ASM2160996v1/bin_component_1.fasta	NODE_1_length_25323_cov_544.607874_component_1	23744	24610	-	sul1_5	1-867/867	===============	0/0	100.00	99.89	resfinder	EU780013	sul1	Sulfamethoxazole
/hpc/dla_mm/jkerkvliet/data/gplas/newmodels/results/A_baumannii/09_plasmidspades/GCF_021609965.1_ASM2160996v1/bin_component_0.fasta	NODE_6_length_2445_cov_250.229005_component_0	1590	2411	-	blaOXA-23_1	1-822/822	===============	0/0	100.00	100.00	resfinder	AY795964	blaOXA-23	Imipenem;Meropenem
/hpc/dla_mm/jkerkvliet/data/gplas/newmodels/results/A_baumannii/09_plasmidspades/GCF_016919525.1_ASM1691952v2/bin_component_1.fasta	NODE_2_length_15502_cov_16.422439_component_1	5796	6662	-	sul1_5	1-867/867	===============	0/0	100.00	99.89	resfinder	EU780013	sul1	Sulfamethoxazole
/hpc/dla_mm/jkerkvliet/data/gplas/newmodels/results/A_baumannii/09_plasmidspades/GCF_016919525.1_ASM1691952v2/bin_component_1.fasta	NODE_2_length_15502_cov_16.422439_component_1	7106	7679	-	dfrA7_5	1-570/570	========/======	3/4	100.00	98.78	resfinder	AJ419170	dfrA7	Trimethoprim
/hpc/dla_mm/jkerkvliet/data/gplas/newmodels/results/A_baumannii/09_plasmidspades/GCF_016919525.1_ASM1691952v2/bin_component_1.fasta	NODE_2_length_15502_cov_16.422439_component_1	7761	8340	-	aac(6')-Ib_1	27-606/606	===============	0/0	95.71	99.66	resfinder	M21682	aac(6')-Ib	Amikacin;Tobramycin
/hpc/dla_mm/jkerkvliet/data/gplas/newmodels/results/A_baumannii/09_plasmidspades/GCF_016919525.1_ASM1691952v2/bin_component_1.fasta	NODE_2_length_15502_cov_16.422439_component_1	8453	9316	-	blaGES-11_1	1-864/864	===============	0/0	100.00	100.00	resfinder	FJ854362	blaGES-11	
/hpc/dla_mm/jkerkvliet/data/gplas/newmodels/results/A_baumannii/09_plasmidspades/GCF_016919525.1_ASM1691952v2/bin_component_1.fasta	NODE_2_length_15502_cov_16.422439_component_1	10535	11371	-	aph(6)-Id_1	1-837/837	===============	0/0	100.00	99.04	resfinder	M28829	aph(6)-Id	Streptomycin
/hpc/dla_mm/jkerkvliet/data/gplas/newmodels/results/A_baumannii/09_plasmidspades/GCF_016919525.1_ASM1691952v2/bin_component_1.fasta	NODE_2_length_15502_cov_16.422439_component_1	11371	12174	-	aph(3'')-Ib_5	1-804/804	===============	0/0	100.00	97.89	resfinder	AF321551	aph(3'')-Ib	Streptomycin
/hpc/dla_mm/jkerkvliet/data/gplas/newmodels/results/A_baumannii/09_plasmidspades/GCF_016919525.1_ASM1691952v2/bin_component_1.fasta	NODE_2_length_15502_cov_16.422439_component_1	12204	13005	-	aadA2_1	18-819/819	===============	0/0	97.92	99.88	resfinder	NC_010870	aadA2	Streptomycin
/hpc/dla_mm/jkerkvliet/data/gplas/newmodels/results/A_baumannii/09_plasmidspades/GCF_016919525.1_ASM1691952v2/bin_component_1.fasta	NODE_2_length_15502_cov_16.422439_component_1	13088	14347	-	cmlA1_2	1-1260/1260	===============	0/0	100.00	99.60	resfinder	AB212941	cmlA1	Chloramphenicol
/hpc/dla_mm/jkerkvliet/data/gplas/newmodels/results/A_baumannii/09_plasmidspades/GCF_016919525.1_ASM1691952v2/bin_component_1.fasta	NODE_2_length_15502_cov_16.422439_component_1	14602	15135	-	ant(2'')-Ia_1	1-534/534	===============	0/0	100.00	100.00	resfinder	X04555	ant(2'')-Ia	Gentamicin;Tobramycin
/hpc/dla_mm/jkerkvliet/data/gplas/newmodels/results/A_baumannii/09_plasmidspades/GCF_014705865.1_ASM1470586v1/bin_component_2.fasta	NODE_13_length_2664_cov_80.014978_component_2	72	605	+	aac(3)-Ia_1	1-534/534	===============	0/0	100.00	99.06	resfinder	X15852	aac(3)-Ia	Gentamicin
/hpc/dla_mm/jkerkvliet/data/gplas/newmodels/results/A_baumannii/09_plasmidspades/GCF_014705865.1_ASM1470586v1/bin_component_2.fasta	NODE_14_length_2541_cov_53.929992_component_2	145	1005	-	blaTEM-1D_1	1-861/861	===============	0/0	100.00	100.00	resfinder	AF188200	blaTEM-1D	Amoxicillin;Ampicillin;Cephalothin;Piperacillin;Ticarcillin
/hpc/dla_mm/jkerkvliet/data/gplas/newmodels/results/A_baumannii/09_plasmidspades/GCF_014705865.1_ASM1470586v1/bin_component_2.fasta	NODE_15_length_2521_cov_70.612782_component_2	919	1785	+	sul1_5	1-867/867	===============	0/0	100.00	99.89	resfinder	EU780013	sul1	Sulfamethoxazole
/hpc/dla_mm/jkerkvliet/data/gplas/newmodels/results/A_baumannii/09_plasmidspades/GCF_014705865.1_ASM1470586v1/bin_component_2.fasta	NODE_16_length_1679_cov_46.475515_component_2	193	1008	+	aph(3')-Ia_7	1-816/816	===============	0/0	100.00	100.00	resfinder	X62115	aph(3')-Ia	
/hpc/dla_mm/jkerkvliet/data/gplas/newmodels/results/A_baumannii/09_plasmidspades/GCF_014705865.1_ASM1470586v1/bin_component_2.fasta	NODE_19_length_963_cov_52.978469_component_2	238	789	-	aac(6')-Iaf_1	1-552/552	===============	0/0	100.00	98.01	resfinder	AB462903	aac(6')-Iaf	Amikacin;Tobramycin
/hpc/dla_mm/jkerkvliet/data/gplas/newmodels/results/A_baumannii/09_plasmidspades/GCF_014705865.1_ASM1470586v1/bin_component_0.fasta	NODE_1_length_149293_cov_17.914498_component_0	66023	66847	-	blaOXA-66_1	1-825/825	===============	0/0	100.00	100.00	resfinder	AY750909	blaOXA-66	
/hpc/dla_mm/jkerkvliet/data/gplas/newmodels/results/A_baumannii/09_plasmidspades/GCF_014705865.1_ASM1470586v1/bin_component_0.fasta	NODE_4_length_80797_cov_36.817900_component_0	336	1535	-	tet(B)_1	1-1200/1206	===============	0/0	99.50	100.00	resfinder	AP000342	tet(B)	Doxycycline;Tetracycline;Minocycline
/hpc/dla_mm/jkerkvliet/data/gplas/newmodels/results/A_baumannii/09_plasmidspades/GCF_014705865.1_ASM1470586v1/bin_component_0.fasta	NODE_4_length_80797_cov_36.817900_component_0	4908	5744	-	aph(6)-Id_1	1-837/837	===============	0/0	100.00	100.00	resfinder	M28829	aph(6)-Id	Streptomycin
/hpc/dla_mm/jkerkvliet/data/gplas/newmodels/results/A_baumannii/09_plasmidspades/GCF_014705865.1_ASM1470586v1/bin_component_0.fasta	NODE_4_length_80797_cov_36.817900_component_0	5744	6546	-	aph(3'')-Ib_2	2-804/804	===============	0/0	99.88	100.00	resfinder	AF024602	aph(3'')-Ib	Streptomycin
/hpc/dla_mm/jkerkvliet/data/gplas/newmodels/results/A_baumannii/09_plasmidspades/GCF_015732435.1_ASM1573243v1/bin_component_2.fasta	NODE_1_length_7321_cov_674.602706_component_2	125	946	+	blaOXA-23_1	1-822/822	===============	0/0	100.00	100.00	resfinder	AY795964	blaOXA-23	Imipenem;Meropenem
/hpc/dla_mm/jkerkvliet/data/gplas/newmodels/results/A_baumannii/09_plasmidspades/GCF_005519135.2_ASM551913v2/bin_component_1.fasta	NODE_7_length_812_cov_887.290511_component_1	18	812	+	blaOXA-58_1	1-795/843	===============	0/0	94.31	100.00	resfinder	AY665723	blaOXA-58	Amoxicillin;Amoxicillin+Clavulanic_acid;Ampicillin;Ampicillin+Clavulanic_acid;Imipenem;Meropenem
/hpc/dla_mm/jkerkvliet/data/gplas/newmodels/results/A_baumannii/09_plasmidspades/GCF_005519135.2_ASM551913v2/bin_component_0.fasta	NODE_1_length_70525_cov_42.017785_component_0	13501	14280	+	aph(3')-VIa_1	1-780/780	===============	0/0	100.00	99.87	resfinder	X07753	aph(3')-VIa	Amikacin
/hpc/dla_mm/jkerkvliet/data/gplas/newmodels/results/A_baumannii/09_plasmidspades/GCF_019458485.1_ASM1945848v1/bin_component_0.fasta	NODE_1_length_18478_cov_184.601057_component_0	9884	10683	-	ant(3'')-Ia_1	170-972/972	..======/======	1/3	82.30	99.38	resfinder	X02340	ant(3'')-Ia	Streptomycin
/hpc/dla_mm/jkerkvliet/data/gplas/newmodels/results/A_baumannii/09_plasmidspades/GCF_019458485.1_ASM1945848v1/bin_component_0.fasta	NODE_1_length_18478_cov_184.601057_component_0	11349	11822	-	dfrA1_8	1-474/474	===============	0/0	100.00	100.00	resfinder	X00926	dfrA1	Trimethoprim
/hpc/dla_mm/jkerkvliet/data/gplas/newmodels/results/A_baumannii/09_plasmidspades/GCF_019458485.1_ASM1945848v1/bin_component_0.fasta	NODE_1_length_18478_cov_184.601057_component_0	14066	14790	+	aph(6)-Id_1	113-837/837	..=============	0/0	86.62	100.00	resfinder	M28829	aph(6)-Id	Streptomycin
/hpc/dla_mm/jkerkvliet/data/gplas/newmodels/results/A_baumannii/09_plasmidspades/GCF_019458485.1_ASM1945848v1/bin_component_0.fasta	NODE_1_length_18478_cov_184.601057_component_0	17403	18218	-	sul2_2	1-816/816	===============	0/0	100.00	100.00	resfinder	AY034138	sul2	Sulfamethoxazole
/hpc/dla_mm/jkerkvliet/data/gplas/newmodels/results/A_baumannii/09_plasmidspades/GCF_019458485.1_ASM1945848v1/bin_component_0.fasta	NODE_3_length_9661_cov_83.643382_component_0	8082	8948	-	sul1_5	1-867/867	===============	0/0	100.00	99.89	resfinder	EU780013	sul1	Sulfamethoxazole
/hpc/dla_mm/jkerkvliet/data/gplas/newmodels/results/A_baumannii/09_plasmidspades/GCF_019458485.1_ASM1945848v1/bin_component_0.fasta	NODE_7_length_2445_cov_278.397356_component_0	1590	2411	-	blaOXA-23_1	1-822/822	===============	0/0	100.00	100.00	resfinder	AY795964	blaOXA-23	Imipenem;Meropenem
/hpc/dla_mm/jkerkvliet/data/gplas/newmodels/results/A_baumannii/09_plasmidspades/GCF_013787185.1_ASM1378718v1/bin_component_0.fasta	NODE_2_length_50277_cov_246.595015_component_0	5308	6123	+	sul2_2	1-816/816	===============	0/0	100.00	100.00	resfinder	AY034138	sul2	Sulfamethoxazole
/hpc/dla_mm/jkerkvliet/data/gplas/newmodels/results/A_baumannii/09_plasmidspades/GCF_013787185.1_ASM1378718v1/bin_component_6.fasta	NODE_12_length_2493_cov_6.275148_component_6	515	1249	-	erm(C)_13	1-735/735	===============	0/0	100.00	100.00	resfinder	M13761	erm(C)	Erythromycin;Lincomycin;Clindamycin;Quinupristin;Pristinamycin_IA;Virginiamycin_S
/hpc/dla_mm/jkerkvliet/data/gplas/newmodels/results/A_baumannii/09_plasmidspades/GCF_013787185.1_ASM1378718v1/bin_component_5.fasta	NODE_10_length_3035_cov_6.776479_component_5	291	941	-	cat(pC194)_1	1-651/651	===============	0/0	100.00	100.00	resfinder	NC_002013	cat(pC194)	Chloramphenicol
/hpc/dla_mm/jkerkvliet/data/gplas/newmodels/results/A_baumannii/09_plasmidspades/GCF_013372085.1_ASM1337208v1/bin_component_0.fasta	NODE_1_length_30882_cov_108.303717_component_0	5198	6013	+	sul2_2	1-816/816	===============	0/0	100.00	100.00	resfinder	AY034138	sul2	Sulfamethoxazole
/hpc/dla_mm/jkerkvliet/data/gplas/newmodels/results/A_baumannii/09_plasmidspades/GCF_014705885.1_ASM1470588v1/bin_component_2.fasta	NODE_10_length_963_cov_59.715311_component_2	238	789	-	aac(6')-Iaf_1	1-552/552	===============	0/0	100.00	98.01	resfinder	AB462903	aac(6')-Iaf	Amikacin;Tobramycin
/hpc/dla_mm/jkerkvliet/data/gplas/newmodels/results/A_baumannii/09_plasmidspades/GCF_014705885.1_ASM1470588v1/bin_component_2.fasta	NODE_5_length_3246_cov_66.222187_component_2	1343	2209	-	sul1_5	1-867/867	===============	0/0	100.00	99.89	resfinder	EU780013	sul1	Sulfamethoxazole
/hpc/dla_mm/jkerkvliet/data/gplas/newmodels/results/A_baumannii/09_plasmidspades/GCF_014705885.1_ASM1470588v1/bin_component_2.fasta	NODE_6_length_2541_cov_58.522370_component_2	1537	2397	+	blaTEM-1D_1	1-861/861	===============	0/0	100.00	100.00	resfinder	AF188200	blaTEM-1D	Amoxicillin;Ampicillin;Cephalothin;Piperacillin;Ticarcillin
/hpc/dla_mm/jkerkvliet/data/gplas/newmodels/results/A_baumannii/09_plasmidspades/GCF_014705885.1_ASM1470588v1/bin_component_2.fasta	NODE_7_length_2303_cov_80.262868_component_2	1699	2232	-	aac(3)-Ia_1	1-534/534	===============	0/0	100.00	99.06	resfinder	X15852	aac(3)-Ia	Gentamicin
/hpc/dla_mm/jkerkvliet/data/gplas/newmodels/results/A_baumannii/09_plasmidspades/GCF_014705885.1_ASM1470588v1/bin_component_2.fasta	NODE_9_length_1680_cov_54.597553_component_2	672	1487	-	aph(3')-Ia_7	1-816/816	===============	0/0	100.00	100.00	resfinder	X62115	aph(3')-Ia	
/hpc/dla_mm/jkerkvliet/data/gplas/newmodels/results/A_baumannii/09_plasmidspades/GCF_014705885.1_ASM1470588v1/bin_component_0.fasta	NODE_1_length_40821_cov_70.762913_component_0	10469	11668	-	tet(B)_1	1-1200/1206	===============	0/0	99.50	100.00	resfinder	AP000342	tet(B)	Doxycycline;Tetracycline;Minocycline
/hpc/dla_mm/jkerkvliet/data/gplas/newmodels/results/A_baumannii/09_plasmidspades/GCF_014705885.1_ASM1470588v1/bin_component_0.fasta	NODE_1_length_40821_cov_70.762913_component_0	15041	15877	-	aph(6)-Id_1	1-837/837	===============	0/0	100.00	100.00	resfinder	M28829	aph(6)-Id	Streptomycin
/hpc/dla_mm/jkerkvliet/data/gplas/newmodels/results/A_baumannii/09_plasmidspades/GCF_014705885.1_ASM1470588v1/bin_component_0.fasta	NODE_1_length_40821_cov_70.762913_component_0	15877	16679	-	aph(3'')-Ib_2	2-804/804	===============	0/0	99.88	100.00	resfinder	AF024602	aph(3'')-Ib	Streptomycin
/hpc/dla_mm/jkerkvliet/data/gplas/newmodels/results/A_baumannii/09_plasmidspades/GCF_014705885.1_ASM1470588v1/bin_component_0.fasta	NODE_1_length_40821_cov_70.762913_component_0	18951	20150	-	tet(B)_1	1-1200/1206	===============	0/0	99.50	100.00	resfinder	AP000342	tet(B)	Doxycycline;Tetracycline;Minocycline
/hpc/dla_mm/jkerkvliet/data/gplas/newmodels/results/A_baumannii/09_plasmidspades/GCF_014705825.1_ASM1470582v1/bin_component_0.fasta	NODE_10_length_3911_cov_73.812368_component_0	2815	3384	+	dfrA19_1	1-570/570	===============	0/0	100.00	100.00	resfinder	EU855687	dfrA19	Trimethoprim
/hpc/dla_mm/jkerkvliet/data/gplas/newmodels/results/A_baumannii/09_plasmidspades/GCF_014705825.1_ASM1470582v1/bin_component_0.fasta	NODE_11_length_3086_cov_57.902670_component_0	524	1999	+	msr(E)_1	1-1476/1476	===============	0/0	100.00	100.00	resfinder	FR751518	msr(E)	
/hpc/dla_mm/jkerkvliet/data/gplas/newmodels/results/A_baumannii/09_plasmidspades/GCF_014705825.1_ASM1470582v1/bin_component_0.fasta	NODE_11_length_3086_cov_57.902670_component_0	2055	2939	+	mph(E)_1	1-885/885	===============	0/0	100.00	100.00	resfinder	DQ839391	mph(E)	Erythromycin
/hpc/dla_mm/jkerkvliet/data/gplas/newmodels/results/A_baumannii/09_plasmidspades/GCF_014705825.1_ASM1470582v1/bin_component_0.fasta	NODE_12_length_2543_cov_55.879139_component_0	1538	2398	+	blaTEM-1D_1	1-861/861	===============	0/0	100.00	100.00	resfinder	AF188200	blaTEM-1D	Amoxicillin;Ampicillin;Cephalothin;Piperacillin;Ticarcillin
/hpc/dla_mm/jkerkvliet/data/gplas/newmodels/results/A_baumannii/09_plasmidspades/GCF_014705825.1_ASM1470582v1/bin_component_0.fasta	NODE_17_length_1557_cov_99.804895_component_0	135	668	+	ant(2'')-Ia_1	1-534/534	===============	0/0	100.00	100.00	resfinder	X04555	ant(2'')-Ia	Gentamicin;Tobramycin
/hpc/dla_mm/jkerkvliet/data/gplas/newmodels/results/A_baumannii/09_plasmidspades/GCF_014705825.1_ASM1470582v1/bin_component_0.fasta	NODE_17_length_1557_cov_99.804895_component_0	751	1383	+	catB3_2	1-633/633	===============	0/0	100.00	100.00	resfinder	U13880	catB3	Chloramphenicol
/hpc/dla_mm/jkerkvliet/data/gplas/newmodels/results/A_baumannii/09_plasmidspades/GCF_014705825.1_ASM1470582v1/bin_component_0.fasta	NODE_18_length_1417_cov_44.973643_component_0	455	1270	-	sul2_2	1-816/816	===============	0/0	100.00	100.00	resfinder	AY034138	sul2	Sulfamethoxazole
/hpc/dla_mm/jkerkvliet/data/gplas/newmodels/results/A_baumannii/09_plasmidspades/GCF_014705825.1_ASM1470582v1/bin_component_0.fasta	NODE_19_length_1331_cov_62.823920_component_0	175	726	+	aac(6')-Iaf_1	1-552/552	===============	0/0	100.00	98.01	resfinder	AB462903	aac(6')-Iaf	Amikacin;Tobramycin
/hpc/dla_mm/jkerkvliet/data/gplas/newmodels/results/A_baumannii/09_plasmidspades/GCF_014705825.1_ASM1470582v1/bin_component_0.fasta	NODE_1_length_77032_cov_38.805058_component_0	10469	11668	-	tet(B)_1	1-1200/1206	===============	0/0	99.50	100.00	resfinder	AP000342	tet(B)	Doxycycline;Tetracycline;Minocycline
/hpc/dla_mm/jkerkvliet/data/gplas/newmodels/results/A_baumannii/09_plasmidspades/GCF_014705825.1_ASM1470582v1/bin_component_0.fasta	NODE_1_length_77032_cov_38.805058_component_0	15041	15877	-	aph(6)-Id_1	1-837/837	===============	0/0	100.00	100.00	resfinder	M28829	aph(6)-Id	Streptomycin
/hpc/dla_mm/jkerkvliet/data/gplas/newmodels/results/A_baumannii/09_plasmidspades/GCF_014705825.1_ASM1470582v1/bin_component_0.fasta	NODE_1_length_77032_cov_38.805058_component_0	15877	16679	-	aph(3'')-Ib_2	2-804/804	===============	0/0	99.88	100.00	resfinder	AF024602	aph(3'')-Ib	Streptomycin
/hpc/dla_mm/jkerkvliet/data/gplas/newmodels/results/A_baumannii/09_plasmidspades/GCF_014705825.1_ASM1470582v1/bin_component_0.fasta	NODE_20_length_1314_cov_146.355518_component_0	424	1290	+	sul1_5	1-867/867	===============	0/0	100.00	99.89	resfinder	EU780013	sul1	Sulfamethoxazole
/hpc/dla_mm/jkerkvliet/data/gplas/newmodels/results/A_baumannii/09_plasmidspades/GCF_020810655.1_ASM2081065v1/bin_component_0.fasta	NODE_1_length_11157_cov_392.474059_component_0	8005	9126	+	tet(39)_1	1-1122/1122	===============	0/0	100.00	100.00	resfinder	KT346360	tet(39)	Doxycycline;Tetracycline
/hpc/dla_mm/jkerkvliet/data/gplas/newmodels/results/A_baumannii/09_plasmidspades/GCF_021484905.1_ASM2148490v1/bin_component_0.fasta	NODE_4_length_3020_cov_3123.765206_component_0	548	1363	-	aph(3')-Ia_7	1-816/816	===============	0/0	100.00	100.00	resfinder	X62115	aph(3')-Ia	
/hpc/dla_mm/jkerkvliet/data/gplas/newmodels/results/A_baumannii/09_plasmidspades/GCF_021484905.1_ASM2148490v1/bin_component_0.fasta	NODE_6_length_2445_cov_65.923870_component_0	35	856	+	blaOXA-23_1	1-822/822	===============	0/0	100.00	100.00	resfinder	AY795964	blaOXA-23	Imipenem;Meropenem
/hpc/dla_mm/jkerkvliet/data/gplas/newmodels/results/A_baumannii/09_plasmidspades/GCF_019903235.1_ASM1990323v1/bin_component_0.fasta	NODE_4_length_15218_cov_48.758008_component_0	1133	1948	+	sul2_2	1-816/816	===============	0/0	100.00	100.00	resfinder	AY034138	sul2	Sulfamethoxazole
/hpc/dla_mm/jkerkvliet/data/gplas/newmodels/results/A_baumannii/09_plasmidspades/GCF_019903235.1_ASM1990323v1/bin_component_0.fasta	NODE_6_length_9477_cov_67.952128_component_0	7440	9065	+	mcr-4.3_1	1-1626/1626	===============	0/0	100.00	99.88	resfinder	MG026621	mcr-4.3	Colistin
/hpc/dla_mm/jkerkvliet/data/gplas/newmodels/results/A_baumannii/09_plasmidspades/GCF_014705785.1_ASM1470578v1/bin_component_0.fasta	NODE_10_length_2541_cov_68.024027_component_0	145	1005	-	blaTEM-1D_1	1-861/861	===============	0/0	100.00	100.00	resfinder	AF188200	blaTEM-1D	Amoxicillin;Ampicillin;Cephalothin;Piperacillin;Ticarcillin
/hpc/dla_mm/jkerkvliet/data/gplas/newmodels/results/A_baumannii/09_plasmidspades/GCF_014705785.1_ASM1470578v1/bin_component_0.fasta	NODE_11_length_2521_cov_102.054302_component_0	919	1785	+	sul1_5	1-867/867	===============	0/0	100.00	99.89	resfinder	EU780013	sul1	Sulfamethoxazole
/hpc/dla_mm/jkerkvliet/data/gplas/newmodels/results/A_baumannii/09_plasmidspades/GCF_014705785.1_ASM1470578v1/bin_component_0.fasta	NODE_15_length_1679_cov_65.113402_component_0	672	1487	-	aph(3')-Ia_7	1-816/816	===============	0/0	100.00	100.00	resfinder	X62115	aph(3')-Ia	
/hpc/dla_mm/jkerkvliet/data/gplas/newmodels/results/A_baumannii/09_plasmidspades/GCF_014705785.1_ASM1470578v1/bin_component_0.fasta	NODE_16_length_963_cov_68.363636_component_0	238	789	-	aac(6')-Iaf_1	1-552/552	===============	0/0	100.00	98.01	resfinder	AB462903	aac(6')-Iaf	Amikacin;Tobramycin
/hpc/dla_mm/jkerkvliet/data/gplas/newmodels/results/A_baumannii/09_plasmidspades/GCF_014705785.1_ASM1470578v1/bin_component_0.fasta	NODE_3_length_18735_cov_58.370271_component_0	10469	11668	-	tet(B)_1	1-1200/1206	===============	0/0	99.50	100.00	resfinder	AP000342	tet(B)	Doxycycline;Tetracycline;Minocycline
/hpc/dla_mm/jkerkvliet/data/gplas/newmodels/results/A_baumannii/09_plasmidspades/GCF_014705785.1_ASM1470578v1/bin_component_0.fasta	NODE_3_length_18735_cov_58.370271_component_0	15041	15877	-	aph(6)-Id_1	1-837/837	===============	0/0	100.00	100.00	resfinder	M28829	aph(6)-Id	Streptomycin
/hpc/dla_mm/jkerkvliet/data/gplas/newmodels/results/A_baumannii/09_plasmidspades/GCF_014705785.1_ASM1470578v1/bin_component_0.fasta	NODE_3_length_18735_cov_58.370271_component_0	15877	16679	-	aph(3'')-Ib_2	2-804/804	===============	0/0	99.88	100.00	resfinder	AF024602	aph(3'')-Ib	Streptomycin
/hpc/dla_mm/jkerkvliet/data/gplas/newmodels/results/A_baumannii/09_plasmidspades/GCF_014705785.1_ASM1470578v1/bin_component_0.fasta	NODE_6_length_4299_cov_210.277325_component_0	1202	2017	+	sul2_2	1-816/816	===============	0/0	100.00	100.00	resfinder	AY034138	sul2	Sulfamethoxazole
/hpc/dla_mm/jkerkvliet/data/gplas/newmodels/results/A_baumannii/09_plasmidspades/GCF_014705785.1_ASM1470578v1/bin_component_0.fasta	NODE_9_length_2664_cov_96.256602_component_0	72	605	+	aac(3)-Ia_1	1-534/534	===============	0/0	100.00	99.06	resfinder	X15852	aac(3)-Ia	Gentamicin
/hpc/dla_mm/jkerkvliet/data/gplas/newmodels/results/A_baumannii/09_plasmidspades/GCF_016903135.1_ASM1690313v1/bin_component_0.fasta	NODE_6_length_2224_cov_501.557988_component_0	135	937	+	aph(3'')-Ib_2	2-804/804	===============	0/0	99.88	100.00	resfinder	AF024602	aph(3'')-Ib	Streptomycin
/hpc/dla_mm/jkerkvliet/data/gplas/newmodels/results/A_baumannii/09_plasmidspades/GCF_016903135.1_ASM1690313v1/bin_component_0.fasta	NODE_6_length_2224_cov_501.557988_component_0	1343	2122	+	aph(3')-VIa_1	1-780/780	===============	0/0	100.00	99.74	resfinder	X07753	aph(3')-VIa	Amikacin
/hpc/dla_mm/jkerkvliet/data/gplas/newmodels/results/A_baumannii/09_plasmidspades/GCF_016903135.1_ASM1690313v1/bin_component_0.fasta	NODE_7_length_2180_cov_805.705183_component_0	1143	1964	-	blaOXA-23_1	1-822/822	===============	0/0	100.00	100.00	resfinder	AY795964	blaOXA-23	Imipenem;Meropenem
/hpc/dla_mm/jkerkvliet/data/gplas/newmodels/results/A_baumannii/09_plasmidspades/GCF_017753625.1_ASM1775362v1/bin_component_0.fasta	NODE_14_length_2824_cov_355.717874_component_0	1572	2387	-	sul2_2	1-816/816	===============	0/0	100.00	100.00	resfinder	AY034138	sul2	Sulfamethoxazole
/hpc/dla_mm/jkerkvliet/data/gplas/newmodels/results/A_baumannii/09_plasmidspades/GCF_017753625.1_ASM1775362v1/bin_component_0.fasta	NODE_1_length_54721_cov_279.654967_component_0	46580	47440	+	aac(3)-IId_1	1-861/861	===============	0/0	100.00	99.88	resfinder	EU022314	aac(3)-IId	Gentamicin;Tobramycin
/hpc/dla_mm/jkerkvliet/data/gplas/newmodels/results/A_baumannii/09_plasmidspades/GCF_017753625.1_ASM1775362v1/bin_component_0.fasta	NODE_20_length_887_cov_304.942946_component_0	18	860	+	blaOXA-58_1	1-843/843	===============	0/0	100.00	100.00	resfinder	AY665723	blaOXA-58	Amoxicillin;Amoxicillin+Clavulanic_acid;Ampicillin;Ampicillin+Clavulanic_acid;Imipenem;Meropenem
/hpc/dla_mm/jkerkvliet/data/gplas/newmodels/results/A_baumannii/09_plasmidspades/GCF_017753625.1_ASM1775362v1/bin_component_0.fasta	NODE_3_length_16466_cov_286.954116_component_0	9812	10624	+	blaNDM-1_1	1-813/813	===============	0/0	100.00	100.00	resfinder	FN396876	blaNDM-1	Amoxicillin;Amoxicillin+Clavulanic_acid;Ampicillin;Ampicillin+Clavulanic_acid;Cefepime;Cefixime;Cefotaxime;Cefoxitin;Ceftazidime;Ertapenem;Imipenem;Meropenem;Piperacillin;Piperacillin+Tazobactam
/hpc/dla_mm/jkerkvliet/data/gplas/newmodels/results/A_baumannii/09_plasmidspades/GCF_017753625.1_ASM1775362v1/bin_component_0.fasta	NODE_4_length_14644_cov_284.128456_component_0	11836	13311	+	msr(E)_1	1-1476/1476	===============	0/0	100.00	100.00	resfinder	FR751518	msr(E)	
/hpc/dla_mm/jkerkvliet/data/gplas/newmodels/results/A_baumannii/09_plasmidspades/GCF_017753625.1_ASM1775362v1/bin_component_0.fasta	NODE_4_length_14644_cov_284.128456_component_0	13367	14251	+	mph(E)_1	1-885/885	===============	0/0	100.00	100.00	resfinder	DQ839391	mph(E)	Erythromycin
/hpc/dla_mm/jkerkvliet/data/gplas/newmodels/results/A_baumannii/09_plasmidspades/GCF_016919505.2_ASM1691950v2/bin_component_1.fasta	NODE_4_length_11834_cov_10.175536_component_1	2128	2994	-	sul1_5	1-867/867	===============	0/0	100.00	99.89	resfinder	EU780013	sul1	Sulfamethoxazole
/hpc/dla_mm/jkerkvliet/data/gplas/newmodels/results/A_baumannii/09_plasmidspades/GCF_016919505.2_ASM1691950v2/bin_component_1.fasta	NODE_4_length_11834_cov_10.175536_component_1	3438	4011	-	dfrA7_5	1-570/570	========/======	3/4	100.00	98.78	resfinder	AJ419170	dfrA7	Trimethoprim
/hpc/dla_mm/jkerkvliet/data/gplas/newmodels/results/A_baumannii/09_plasmidspades/GCF_016919505.2_ASM1691950v2/bin_component_1.fasta	NODE_4_length_11834_cov_10.175536_component_1	4093	4672	-	aac(6')-Ib_1	27-606/606	===============	0/0	95.71	99.66	resfinder	M21682	aac(6')-Ib	Amikacin;Tobramycin
/hpc/dla_mm/jkerkvliet/data/gplas/newmodels/results/A_baumannii/09_plasmidspades/GCF_016919505.2_ASM1691950v2/bin_component_1.fasta	NODE_4_length_11834_cov_10.175536_component_1	4785	5648	-	blaGES-11_1	1-864/864	===============	0/0	100.00	100.00	resfinder	FJ854362	blaGES-11	
/hpc/dla_mm/jkerkvliet/data/gplas/newmodels/results/A_baumannii/09_plasmidspades/GCF_016919505.2_ASM1691950v2/bin_component_1.fasta	NODE_4_length_11834_cov_10.175536_component_1	6867	7703	-	aph(6)-Id_1	1-837/837	===============	0/0	100.00	99.04	resfinder	M28829	aph(6)-Id	Streptomycin
/hpc/dla_mm/jkerkvliet/data/gplas/newmodels/results/A_baumannii/09_plasmidspades/GCF_016919505.2_ASM1691950v2/bin_component_1.fasta	NODE_4_length_11834_cov_10.175536_component_1	7703	8506	-	aph(3'')-Ib_5	1-804/804	===============	0/0	100.00	97.89	resfinder	AF321551	aph(3'')-Ib	Streptomycin
/hpc/dla_mm/jkerkvliet/data/gplas/newmodels/results/A_baumannii/09_plasmidspades/GCF_016919505.2_ASM1691950v2/bin_component_1.fasta	NODE_4_length_11834_cov_10.175536_component_1	8536	9337	-	aadA2_1	18-819/819	===============	0/0	97.92	99.88	resfinder	NC_010870	aadA2	Streptomycin
/hpc/dla_mm/jkerkvliet/data/gplas/newmodels/results/A_baumannii/09_plasmidspades/GCF_016919505.2_ASM1691950v2/bin_component_1.fasta	NODE_4_length_11834_cov_10.175536_component_1	9420	10679	-	cmlA1_2	1-1260/1260	===============	0/0	100.00	99.60	resfinder	AB212941	cmlA1	Chloramphenicol
/hpc/dla_mm/jkerkvliet/data/gplas/newmodels/results/A_baumannii/09_plasmidspades/GCF_016919505.2_ASM1691950v2/bin_component_1.fasta	NODE_4_length_11834_cov_10.175536_component_1	10934	11467	-	ant(2'')-Ia_1	1-534/534	===============	0/0	100.00	100.00	resfinder	X04555	ant(2'')-Ia	Gentamicin;Tobramycin
/hpc/dla_mm/jkerkvliet/data/gplas/newmodels/results/A_baumannii/09_plasmidspades/GCF_016919505.2_ASM1691950v2/bin_component_7.fasta	NODE_11_length_2112_cov_13.424181_component_7	1113	1892	-	aph(3')-VIa_1	1-780/780	===============	0/0	100.00	99.87	resfinder	X07753	aph(3')-VIa	Amikacin
/hpc/dla_mm/jkerkvliet/data/gplas/newmodels/results/A_baumannii/09_plasmidspades/GCF_014322245.1_ASM1432224v1/bin_component_1.fasta	NODE_2_length_25483_cov_224.891443_component_1	18079	19554	+	msr(E)_1	1-1476/1476	===============	0/0	100.00	100.00	resfinder	FR751518	msr(E)	
/hpc/dla_mm/jkerkvliet/data/gplas/newmodels/results/A_baumannii/09_plasmidspades/GCF_014322245.1_ASM1432224v1/bin_component_1.fasta	NODE_2_length_25483_cov_224.891443_component_1	19610	20494	+	mph(E)_1	1-885/885	===============	0/0	100.00	100.00	resfinder	DQ839391	mph(E)	Erythromycin
/hpc/dla_mm/jkerkvliet/data/gplas/newmodels/results/A_baumannii/09_plasmidspades/GCF_014322245.1_ASM1432224v1/bin_component_1.fasta	NODE_2_length_25483_cov_224.891443_component_1	23210	24331	+	tet(39)_1	1-1122/1122	===============	0/0	100.00	100.00	resfinder	KT346360	tet(39)	Doxycycline;Tetracycline
/hpc/dla_mm/jkerkvliet/data/gplas/newmodels/results/A_baumannii/09_plasmidspades/GCF_014705845.1_ASM1470584v1/bin_component_0.fasta	NODE_10_length_2541_cov_56.048053_component_0	145	1005	-	blaTEM-1D_1	1-861/861	===============	0/0	100.00	100.00	resfinder	AF188200	blaTEM-1D	Amoxicillin;Ampicillin;Cephalothin;Piperacillin;Ticarcillin
/hpc/dla_mm/jkerkvliet/data/gplas/newmodels/results/A_baumannii/09_plasmidspades/GCF_014705845.1_ASM1470584v1/bin_component_0.fasta	NODE_11_length_2521_cov_79.961571_component_0	919	1785	+	sul1_5	1-867/867	===============	0/0	100.00	99.89	resfinder	EU780013	sul1	Sulfamethoxazole
/hpc/dla_mm/jkerkvliet/data/gplas/newmodels/results/A_baumannii/09_plasmidspades/GCF_014705845.1_ASM1470584v1/bin_component_0.fasta	NODE_15_length_1679_cov_54.324098_component_0	193	1008	+	aph(3')-Ia_7	1-816/816	===============	0/0	100.00	100.00	resfinder	X62115	aph(3')-Ia	
/hpc/dla_mm/jkerkvliet/data/gplas/newmodels/results/A_baumannii/09_plasmidspades/GCF_014705845.1_ASM1470584v1/bin_component_0.fasta	NODE_18_length_963_cov_62.899522_component_0	238	789	-	aac(6')-Iaf_1	1-552/552	===============	0/0	100.00	98.01	resfinder	AB462903	aac(6')-Iaf	Amikacin;Tobramycin
/hpc/dla_mm/jkerkvliet/data/gplas/newmodels/results/A_baumannii/09_plasmidspades/GCF_014705845.1_ASM1470584v1/bin_component_0.fasta	NODE_1_length_93170_cov_21.061789_component_0	91901	92716	+	sul2_2	1-816/816	===============	0/0	100.00	100.00	resfinder	AY034138	sul2	Sulfamethoxazole
/hpc/dla_mm/jkerkvliet/data/gplas/newmodels/results/A_baumannii/09_plasmidspades/GCF_014705845.1_ASM1470584v1/bin_component_0.fasta	NODE_2_length_77032_cov_34.585684_component_0	10469	11668	-	tet(B)_1	1-1200/1206	===============	0/0	99.50	100.00	resfinder	AP000342	tet(B)	Doxycycline;Tetracycline;Minocycline
/hpc/dla_mm/jkerkvliet/data/gplas/newmodels/results/A_baumannii/09_plasmidspades/GCF_014705845.1_ASM1470584v1/bin_component_0.fasta	NODE_2_length_77032_cov_34.585684_component_0	15041	15877	-	aph(6)-Id_1	1-837/837	===============	0/0	100.00	100.00	resfinder	M28829	aph(6)-Id	Streptomycin
/hpc/dla_mm/jkerkvliet/data/gplas/newmodels/results/A_baumannii/09_plasmidspades/GCF_014705845.1_ASM1470584v1/bin_component_0.fasta	NODE_2_length_77032_cov_34.585684_component_0	15877	16679	-	aph(3'')-Ib_2	2-804/804	===============	0/0	99.88	100.00	resfinder	AF024602	aph(3'')-Ib	Streptomycin
/hpc/dla_mm/jkerkvliet/data/gplas/newmodels/results/A_baumannii/09_plasmidspades/GCF_014705845.1_ASM1470584v1/bin_component_0.fasta	NODE_9_length_2664_cov_84.325581_component_0	2060	2593	-	aac(3)-Ia_1	1-534/534	===============	0/0	100.00	99.06	resfinder	X15852	aac(3)-Ia	Gentamicin
/hpc/dla_mm/jkerkvliet/data/gplas/newmodels/results/A_baumannii/09_plasmidspades/GCF_018831125.1_ASM1883112v1/bin_component_1.fasta	NODE_5_length_6133_cov_440.840408_component_1	832	1365	+	ant(2'')-Ia_13	1-534/534	===============	0/0	100.00	99.06	resfinder	DQ176450	ant(2'')-Ia	Gentamicin;Tobramycin
/hpc/dla_mm/jkerkvliet/data/gplas/newmodels/results/A_baumannii/09_plasmidspades/GCF_018831125.1_ASM1883112v1/bin_component_0.fasta	NODE_10_length_2445_cov_82.332000_component_0	1590	2411	-	blaOXA-23_1	1-822/822	===============	0/0	100.00	100.00	resfinder	AY795964	blaOXA-23	Imipenem;Meropenem
/hpc/dla_mm/jkerkvliet/data/gplas/newmodels/results/A_baumannii/09_plasmidspades/GCF_018831125.1_ASM1883112v1/bin_component_0.fasta	NODE_1_length_65048_cov_94.284292_component_0	62682	63461	-	aph(3')-VIa_1	1-780/780	===============	0/0	100.00	99.87	resfinder	X07753	aph(3')-VIa	Amikacin
/hpc/dla_mm/jkerkvliet/data/gplas/newmodels/results/A_baumannii/09_plasmidspades/GCF_018831125.1_ASM1883112v1/bin_component_0.fasta	NODE_6_length_4642_cov_60.587966_component_0	451	1926	+	msr(E)_1	1-1476/1476	===============	0/0	100.00	100.00	resfinder	FR751518	msr(E)	
/hpc/dla_mm/jkerkvliet/data/gplas/newmodels/results/A_baumannii/09_plasmidspades/GCF_018831125.1_ASM1883112v1/bin_component_0.fasta	NODE_6_length_4642_cov_60.587966_component_0	1982	2866	+	mph(E)_1	1-885/885	===============	0/0	100.00	100.00	resfinder	DQ839391	mph(E)	Erythromycin
/hpc/dla_mm/jkerkvliet/data/gplas/newmodels/results/A_baumannii/09_plasmidspades/GCF_018831125.1_ASM1883112v1/bin_component_0.fasta	NODE_7_length_3749_cov_82.017055_component_0	146	1351	-	tet(B)_1	1-1206/1206	===============	0/0	100.00	100.00	resfinder	AP000342	tet(B)	Doxycycline;Tetracycline;Minocycline
