#FILE	SEQUENCE	START	END	STRAND	GENE	COVERAGE	COVERAGE_MAP	GAPS	%COVERAGE	%IDENTITY	DATABASE	ACCESSION	PRODUCT	RESISTANCE
/hpc/dla_mm/jkerkvliet/data/gplas/newmodels/results/S_aureus/08_mobsuite/GCF_022405395.1_ASM2240539v1/plasmid_AA848.fasta	S14_LN:i:27267_dp:f:1.6372115048720284	9096	9995	-	blaZ_29	1-900/900	===============	0/0	100.00	100.00	resfinder	JDXN01000019	blaZ	Amoxicillin;Ampicillin;Penicillin;Piperacillin
/hpc/dla_mm/jkerkvliet/data/gplas/newmodels/results/S_aureus/08_mobsuite/GCF_022405455.1_ASM2240545v1/plasmid_AA848.fasta	S13_LN:i:27265_dp:f:1.9251678744664034	9093	9992	-	blaZ_29	1-900/900	===============	0/0	100.00	100.00	resfinder	JDXN01000019	blaZ	Amoxicillin;Ampicillin;Penicillin;Piperacillin
/hpc/dla_mm/jkerkvliet/data/gplas/newmodels/results/S_aureus/08_mobsuite/GCF_022405145.1_ASM2240514v1/plasmid_AA411.fasta	S16_LN:i:20653_dp:f:3.095843846291579	10166	11053	+	blaZ_79	1-888/888	===============	0/0	100.00	99.21	resfinder	KU607584	blaZ	Amoxicillin;Ampicillin;Penicillin;Piperacillin
/hpc/dla_mm/jkerkvliet/data/gplas/newmodels/results/S_aureus/08_mobsuite/GCF_022404635.1_ASM2240463v1/plasmid_AA411.fasta	S11_LN:i:20730_dp:f:3.1999966075705673	10168	11055	+	blaZ_79	1-888/888	===============	0/0	100.00	99.21	resfinder	KU607584	blaZ	Amoxicillin;Ampicillin;Penicillin;Piperacillin
/hpc/dla_mm/jkerkvliet/data/gplas/newmodels/results/S_aureus/08_mobsuite/GCF_022405235.1_ASM2240523v1/plasmid_AA411.fasta	S13_LN:i:20680_dp:f:1.8797521371612822	10129	11016	+	blaZ_79	1-888/888	===============	0/0	100.00	99.21	resfinder	KU607584	blaZ	Amoxicillin;Ampicillin;Penicillin;Piperacillin
/hpc/dla_mm/jkerkvliet/data/gplas/newmodels/results/S_aureus/08_mobsuite/GCF_903932605.1_HU-14/plasmid_AA769.fasta	S41_LN:i:6937_dp:f:1.1398697639916489	2615	3409	-	aph(3')-III_1	1-795/795	===============	0/0	100.00	100.00	resfinder	M26832	aph(3')-III	Amikacin
/hpc/dla_mm/jkerkvliet/data/gplas/newmodels/results/S_aureus/08_mobsuite/GCF_903932605.1_HU-14/plasmid_AA769.fasta	S41_LN:i:6937_dp:f:1.1398697639916489	4041	4949	-	ant(6)-Ia_1	1-909/909	===============	0/0	100.00	100.00	resfinder	AF330699	ant(6)-Ia	Streptomycin
/hpc/dla_mm/jkerkvliet/data/gplas/newmodels/results/S_aureus/08_mobsuite/GCF_903932605.1_HU-14/plasmid_AA849.fasta	S31_LN:i:19264_dp:f:4.062534592702542	2293	3180	+	blaZ_78	1-888/888	===============	0/0	100.00	99.66	resfinder	KU607301	blaZ	Amoxicillin;Ampicillin;Penicillin;Piperacillin
/hpc/dla_mm/jkerkvliet/data/gplas/newmodels/results/S_aureus/08_mobsuite/GCF_013836525.1_ASM1383652v1/plasmid_AA770.fasta	S39_LN:i:3334_dp:f:0.2631561012005711	1357	1998	-	fusB_1	1-642/642	===============	0/0	100.00	100.00	resfinder	AY373761	fusB	Fusidic_acid
/hpc/dla_mm/jkerkvliet/data/gplas/newmodels/results/S_aureus/08_mobsuite/GCF_022405435.1_ASM2240543v1/plasmid_AA411.fasta	S17_LN:i:19781_dp:f:4.037323981679163	9196	10083	+	blaZ_79	1-888/888	===============	0/0	100.00	99.21	resfinder	KU607584	blaZ	Amoxicillin;Ampicillin;Penicillin;Piperacillin
/hpc/dla_mm/jkerkvliet/data/gplas/newmodels/results/S_aureus/08_mobsuite/GCF_022404755.1_ASM2240475v1/plasmid_AA411.fasta	S12_LN:i:20721_dp:f:3.391212674227666	10159	11046	+	blaZ_79	1-888/888	===============	0/0	100.00	99.21	resfinder	KU607584	blaZ	Amoxicillin;Ampicillin;Penicillin;Piperacillin
/hpc/dla_mm/jkerkvliet/data/gplas/newmodels/results/S_aureus/08_mobsuite/GCF_022404575.1_ASM2240457v1/plasmid_AA840.fasta	S12_LN:i:27068_dp:f:3.015200402009901	11454	12341	-	blaZ_79	1-888/888	===============	0/0	100.00	99.89	resfinder	KU607584	blaZ	Amoxicillin;Ampicillin;Penicillin;Piperacillin
/hpc/dla_mm/jkerkvliet/data/gplas/newmodels/results/S_aureus/08_mobsuite/GCF_022404575.1_ASM2240457v1/plasmid_AA840.fasta	S12_LN:i:27068_dp:f:3.015200402009901	17735	18529	-	aph(3')-III_1	1-795/795	===============	0/0	100.00	100.00	resfinder	M26832	aph(3')-III	Amikacin
/hpc/dla_mm/jkerkvliet/data/gplas/newmodels/results/S_aureus/08_mobsuite/GCF_022404575.1_ASM2240457v1/plasmid_AA840.fasta	S12_LN:i:27068_dp:f:3.015200402009901	25082	26548	+	msr(A)_1	1-1467/1467	===============	0/0	100.00	98.98	resfinder	X52085	msr(A)	Erythromycin;Azithromycin;Telithromycin;Quinupristin;Pristinamycin_IA;Virginiamycin_S
/hpc/dla_mm/jkerkvliet/data/gplas/newmodels/results/S_aureus/08_mobsuite/GCF_016889945.1_ASM1688994v1/plasmid_AA840.fasta	S14_LN:i:31949_dp:f:3.0639688776135197	3755	4642	+	blaZ_79	1-888/888	===============	0/0	100.00	99.89	resfinder	KU607584	blaZ	Amoxicillin;Ampicillin;Penicillin;Piperacillin
/hpc/dla_mm/jkerkvliet/data/gplas/newmodels/results/S_aureus/08_mobsuite/GCF_016889945.1_ASM1688994v1/plasmid_AA840.fasta	S14_LN:i:31949_dp:f:3.0639688776135197	21182	22081	-	mph(C)_2	1-900/900	===============	0/0	100.00	100.00	resfinder	AF167161	mph(C)	Erythromycin;Spiramycin;Telithromycin
/hpc/dla_mm/jkerkvliet/data/gplas/newmodels/results/S_aureus/08_mobsuite/GCF_016889945.1_ASM1688994v1/plasmid_AA840.fasta	S14_LN:i:31949_dp:f:3.0639688776135197	22180	23646	-	msr(A)_1	1-1467/1467	===============	0/0	100.00	98.98	resfinder	X52085	msr(A)	Erythromycin;Azithromycin;Telithromycin;Quinupristin;Pristinamycin_IA;Virginiamycin_S
/hpc/dla_mm/jkerkvliet/data/gplas/newmodels/results/S_aureus/08_mobsuite/GCF_016889945.1_ASM1688994v1/plasmid_AA840.fasta	S14_LN:i:31949_dp:f:3.0639688776135197	30199	30993	+	aph(3')-III_1	1-795/795	===============	0/0	100.00	100.00	resfinder	M26832	aph(3')-III	Amikacin
/hpc/dla_mm/jkerkvliet/data/gplas/newmodels/results/S_aureus/08_mobsuite/GCF_022369595.1_ASM2236959v1/plasmid_AA840.fasta	S13_LN:i:22878_dp:f:2.4406031091195937	4830	6296	+	msr(A)_1	1-1467/1467	===============	0/0	100.00	98.98	resfinder	X52085	msr(A)	Erythromycin;Azithromycin;Telithromycin;Quinupristin;Pristinamycin_IA;Virginiamycin_S
/hpc/dla_mm/jkerkvliet/data/gplas/newmodels/results/S_aureus/08_mobsuite/GCF_022369595.1_ASM2236959v1/plasmid_AA840.fasta	S13_LN:i:22878_dp:f:2.4406031091195937	6395	7294	+	mph(C)_2	1-900/900	===============	0/0	100.00	100.00	resfinder	AF167161	mph(C)	Erythromycin;Spiramycin;Telithromycin
/hpc/dla_mm/jkerkvliet/data/gplas/newmodels/results/S_aureus/08_mobsuite/GCF_022369595.1_ASM2236959v1/plasmid_AA840.fasta	S13_LN:i:22878_dp:f:2.4406031091195937	18237	19124	-	blaZ_79	1-888/888	===============	0/0	100.00	99.89	resfinder	KU607584	blaZ	Amoxicillin;Ampicillin;Penicillin;Piperacillin
/hpc/dla_mm/jkerkvliet/data/gplas/newmodels/results/S_aureus/08_mobsuite/GCF_022369595.1_ASM2236959v1/plasmid_AA840.fasta	S18_LN:i:3146_dp:f:2.692092045926978	1396	2190	+	aph(3')-III_1	1-795/795	===============	0/0	100.00	100.00	resfinder	M26832	aph(3')-III	Amikacin
/hpc/dla_mm/jkerkvliet/data/gplas/newmodels/results/S_aureus/08_mobsuite/GCF_022369595.1_ASM2236959v1/plasmid_AC627.fasta	S23_LN:i:2473_dp:f:14.901772568060764	35	769	-	erm(C)_2	1-735/735	===============	0/0	100.00	100.00	resfinder	M19652	erm(C)	Erythromycin;Lincomycin;Clindamycin;Quinupristin;Pristinamycin_IA;Virginiamycin_S
/hpc/dla_mm/jkerkvliet/data/gplas/newmodels/results/S_aureus/08_mobsuite/GCF_016727585.1_ASM1672758v1/plasmid_AA411.fasta	S18_LN:i:19758_dp:f:1.480235133846732	9196	10083	+	blaZ_79	1-888/888	===============	0/0	100.00	99.21	resfinder	KU607584	blaZ	Amoxicillin;Ampicillin;Penicillin;Piperacillin
/hpc/dla_mm/jkerkvliet/data/gplas/newmodels/results/S_aureus/08_mobsuite/GCF_019653615.1_ASM1965361v1/plasmid_AA069.fasta	S45_LN:i:7713_dp:f:2.785223489650061	6786	7673	+	blaZ_78	1-888/888	===============	0/0	100.00	99.89	resfinder	KU607301	blaZ	Amoxicillin;Ampicillin;Penicillin;Piperacillin
/hpc/dla_mm/jkerkvliet/data/gplas/newmodels/results/S_aureus/08_mobsuite/GCF_022404775.1_ASM2240477v1/plasmid_AA411.fasta	S18_LN:i:20691_dp:f:3.1539620822181766	10129	11016	+	blaZ_79	1-888/888	===============	0/0	100.00	99.21	resfinder	KU607584	blaZ	Amoxicillin;Ampicillin;Penicillin;Piperacillin
/hpc/dla_mm/jkerkvliet/data/gplas/newmodels/results/S_aureus/08_mobsuite/GCF_022404615.1_ASM2240461v1/plasmid_AA840.fasta	S16_LN:i:26385_dp:f:2.7683075542059377	3755	4642	+	blaZ_79	1-888/888	===============	0/0	100.00	99.89	resfinder	KU607584	blaZ	Amoxicillin;Ampicillin;Penicillin;Piperacillin
/hpc/dla_mm/jkerkvliet/data/gplas/newmodels/results/S_aureus/08_mobsuite/GCF_022404615.1_ASM2240461v1/plasmid_AA840.fasta	S16_LN:i:26385_dp:f:2.7683075542059377	15618	16517	-	mph(C)_2	1-900/900	===============	0/0	100.00	100.00	resfinder	AF167161	mph(C)	Erythromycin;Spiramycin;Telithromycin
/hpc/dla_mm/jkerkvliet/data/gplas/newmodels/results/S_aureus/08_mobsuite/GCF_022404615.1_ASM2240461v1/plasmid_AA840.fasta	S16_LN:i:26385_dp:f:2.7683075542059377	16616	18082	-	msr(A)_1	1-1467/1467	===============	0/0	100.00	98.98	resfinder	X52085	msr(A)	Erythromycin;Azithromycin;Telithromycin;Quinupristin;Pristinamycin_IA;Virginiamycin_S
/hpc/dla_mm/jkerkvliet/data/gplas/newmodels/results/S_aureus/08_mobsuite/GCF_022404615.1_ASM2240461v1/plasmid_AA840.fasta	S16_LN:i:26385_dp:f:2.7683075542059377	24635	25429	+	aph(3')-III_1	1-795/795	===============	0/0	100.00	100.00	resfinder	M26832	aph(3')-III	Amikacin
/hpc/dla_mm/jkerkvliet/data/gplas/newmodels/results/S_aureus/08_mobsuite/GCF_016889145.1_ASM1688914v1/plasmid_AA840.fasta	S13_LN:i:28474_dp:f:2.989400135186002	3755	4642	+	blaZ_79	1-888/888	===============	0/0	100.00	99.89	resfinder	KU607584	blaZ	Amoxicillin;Ampicillin;Penicillin;Piperacillin
/hpc/dla_mm/jkerkvliet/data/gplas/newmodels/results/S_aureus/08_mobsuite/GCF_016889145.1_ASM1688914v1/plasmid_AA840.fasta	S13_LN:i:28474_dp:f:2.989400135186002	21182	22081	-	mph(C)_2	1-900/900	===============	0/0	100.00	100.00	resfinder	AF167161	mph(C)	Erythromycin;Spiramycin;Telithromycin
/hpc/dla_mm/jkerkvliet/data/gplas/newmodels/results/S_aureus/08_mobsuite/GCF_016889145.1_ASM1688914v1/plasmid_AA840.fasta	S13_LN:i:28474_dp:f:2.989400135186002	22180	23646	-	msr(A)_1	1-1467/1467	===============	0/0	100.00	98.98	resfinder	X52085	msr(A)	Erythromycin;Azithromycin;Telithromycin;Quinupristin;Pristinamycin_IA;Virginiamycin_S
/hpc/dla_mm/jkerkvliet/data/gplas/newmodels/results/S_aureus/08_mobsuite/GCF_016889145.1_ASM1688914v1/plasmid_AA840.fasta	S18_LN:i:3146_dp:f:2.7649673684984544	957	1751	-	aph(3')-III_1	1-795/795	===============	0/0	100.00	100.00	resfinder	M26832	aph(3')-III	Amikacin
/hpc/dla_mm/jkerkvliet/data/gplas/newmodels/results/S_aureus/08_mobsuite/GCF_016591995.1_ASM1659199v1/plasmid_AA409.fasta	S41_LN:i:22474_dp:f:1.431554717038481	3511	4398	-	blaZ_79	1-888/888	===============	0/0	100.00	99.78	resfinder	KU607584	blaZ	Amoxicillin;Ampicillin;Penicillin;Piperacillin
/hpc/dla_mm/jkerkvliet/data/gplas/newmodels/results/S_aureus/08_mobsuite/GCF_016591995.1_ASM1659199v1/plasmid_AC670.fasta	S86_LN:i:4556_dp:f:0.8088502660832266	134	904	+	aadD_1	1-771/771	===============	0/0	100.00	99.74	resfinder	AF181950	aadD	Amikacin;Tobramycin
/hpc/dla_mm/jkerkvliet/data/gplas/newmodels/results/S_aureus/08_mobsuite/GCF_022404715.1_ASM2240471v1/plasmid_AA411.fasta	S19_LN:i:20730_dp:f:4.443417630080317	10168	11055	+	blaZ_79	1-888/888	===============	0/0	100.00	99.21	resfinder	KU607584	blaZ	Amoxicillin;Ampicillin;Penicillin;Piperacillin
/hpc/dla_mm/jkerkvliet/data/gplas/newmodels/results/S_aureus/08_mobsuite/GCF_022405515.1_ASM2240551v1/plasmid_AA411.fasta	S9_LN:i:20730_dp:f:2.763332544826607	10168	11055	+	blaZ_79	1-888/888	===============	0/0	100.00	99.10	resfinder	KU607584	blaZ	Amoxicillin;Ampicillin;Penicillin;Piperacillin
/hpc/dla_mm/jkerkvliet/data/gplas/newmodels/results/S_aureus/08_mobsuite/GCF_903932595.1_P3.1/plasmid_AA769.fasta	S39_LN:i:6937_dp:f:1.124134233509325	2615	3409	-	aph(3')-III_1	1-795/795	===============	0/0	100.00	100.00	resfinder	M26832	aph(3')-III	Amikacin
/hpc/dla_mm/jkerkvliet/data/gplas/newmodels/results/S_aureus/08_mobsuite/GCF_903932595.1_P3.1/plasmid_AA769.fasta	S39_LN:i:6937_dp:f:1.124134233509325	4041	4949	-	ant(6)-Ia_1	1-909/909	===============	0/0	100.00	100.00	resfinder	AF330699	ant(6)-Ia	Streptomycin
/hpc/dla_mm/jkerkvliet/data/gplas/newmodels/results/S_aureus/08_mobsuite/GCF_903932595.1_P3.1/plasmid_AA849.fasta	S31_LN:i:19264_dp:f:4.420794170424951	16085	16972	-	blaZ_78	1-888/888	===============	0/0	100.00	99.66	resfinder	KU607301	blaZ	Amoxicillin;Ampicillin;Penicillin;Piperacillin
/hpc/dla_mm/jkerkvliet/data/gplas/newmodels/results/S_aureus/08_mobsuite/GCF_022405375.1_ASM2240537v1/plasmid_AA848.fasta	S15_LN:i:27268_dp:f:1.7513524999692485	9096	9995	-	blaZ_29	1-900/900	===============	0/0	100.00	100.00	resfinder	JDXN01000019	blaZ	Amoxicillin;Ampicillin;Penicillin;Piperacillin
/hpc/dla_mm/jkerkvliet/data/gplas/newmodels/results/S_aureus/08_mobsuite/GCF_022226995.1_ASM2222699v1/plasmid_AA840.fasta	S16_LN:i:13032_dp:f:2.95716289602532	6573	7460	+	blaZ_79	1-888/888	===============	0/0	100.00	99.89	resfinder	KU607584	blaZ	Amoxicillin;Ampicillin;Penicillin;Piperacillin
/hpc/dla_mm/jkerkvliet/data/gplas/newmodels/results/S_aureus/08_mobsuite/GCF_022404695.1_ASM2240469v1/plasmid_AA411.fasta	S14_LN:i:20691_dp:f:3.879973052318051	10129	11016	+	blaZ_79	1-888/888	===============	0/0	100.00	99.21	resfinder	KU607584	blaZ	Amoxicillin;Ampicillin;Penicillin;Piperacillin
/hpc/dla_mm/jkerkvliet/data/gplas/newmodels/results/S_aureus/08_mobsuite/GCF_022405555.1_ASM2240555v1/plasmid_AA848.fasta	S17_LN:i:27269_dp:f:1.6708059741386903	9097	9996	-	blaZ_29	1-900/900	===============	0/0	100.00	100.00	resfinder	JDXN01000019	blaZ	Amoxicillin;Ampicillin;Penicillin;Piperacillin
/hpc/dla_mm/jkerkvliet/data/gplas/newmodels/results/S_aureus/08_mobsuite/GCF_022405895.1_ASM2240589v1/plasmid_AE407.fasta	S18_LN:i:8842_dp:f:1.1140179404057824	5961	6860	-	mph(C)_2	1-900/900	===============	0/0	100.00	100.00	resfinder	AF167161	mph(C)	Erythromycin;Spiramycin;Telithromycin
/hpc/dla_mm/jkerkvliet/data/gplas/newmodels/results/S_aureus/08_mobsuite/GCF_022405895.1_ASM2240589v1/plasmid_AE407.fasta	S18_LN:i:8842_dp:f:1.1140179404057824	6959	8425	-	msr(A)_1	1-1467/1467	===============	0/0	100.00	99.05	resfinder	X52085	msr(A)	Erythromycin;Azithromycin;Telithromycin;Quinupristin;Pristinamycin_IA;Virginiamycin_S
/hpc/dla_mm/jkerkvliet/data/gplas/newmodels/results/S_aureus/08_mobsuite/GCF_022405895.1_ASM2240589v1/plasmid_AB915.fasta	S20_LN:i:4591_dp:f:1.0795682019275477	2448	3242	-	aph(3')-III_1	1-795/795	===============	0/0	100.00	100.00	resfinder	M26832	aph(3')-III	Amikacin
/hpc/dla_mm/jkerkvliet/data/gplas/newmodels/results/S_aureus/08_mobsuite/GCF_022405055.1_ASM2240505v1/plasmid_AA069.fasta	S11_LN:i:17329_dp:f:2.3198277380259325	4881	5768	+	blaZ_78	1-888/888	===============	0/0	100.00	99.66	resfinder	KU607301	blaZ	Amoxicillin;Ampicillin;Penicillin;Piperacillin
/hpc/dla_mm/jkerkvliet/data/gplas/newmodels/results/S_aureus/08_mobsuite/GCF_022405595.1_ASM2240559v1/plasmid_AA848.fasta	S17_LN:i:8779_dp:f:3.167614337862079	2177	3076	-	blaZ_29	1-900/900	===============	0/0	100.00	100.00	resfinder	JDXN01000019	blaZ	Amoxicillin;Ampicillin;Penicillin;Piperacillin
/hpc/dla_mm/jkerkvliet/data/gplas/newmodels/results/S_aureus/08_mobsuite/GCF_022405355.1_ASM2240535v1/plasmid_AA840.fasta	S20_LN:i:18563_dp:f:2.3182799026894387	482	1948	+	msr(A)_1	1-1467/1467	===============	0/0	100.00	98.91	resfinder	X52085	msr(A)	Erythromycin;Azithromycin;Telithromycin;Quinupristin;Pristinamycin_IA;Virginiamycin_S
/hpc/dla_mm/jkerkvliet/data/gplas/newmodels/results/S_aureus/08_mobsuite/GCF_022405355.1_ASM2240535v1/plasmid_AA840.fasta	S20_LN:i:18563_dp:f:2.3182799026894387	2047	2946	+	mph(C)_2	1-900/900	===============	0/0	100.00	100.00	resfinder	AF167161	mph(C)	Erythromycin;Spiramycin;Telithromycin
/hpc/dla_mm/jkerkvliet/data/gplas/newmodels/results/S_aureus/08_mobsuite/GCF_022405355.1_ASM2240535v1/plasmid_AA840.fasta	S20_LN:i:18563_dp:f:2.3182799026894387	13922	14809	-	blaZ_79	1-888/888	===============	0/0	100.00	99.89	resfinder	KU607584	blaZ	Amoxicillin;Ampicillin;Penicillin;Piperacillin
/hpc/dla_mm/jkerkvliet/data/gplas/newmodels/results/S_aureus/08_mobsuite/GCF_022405355.1_ASM2240535v1/plasmid_AA840.fasta	S28_LN:i:3146_dp:f:2.0018043683456135	957	1751	-	aph(3')-III_1	1-795/795	===============	0/0	100.00	100.00	resfinder	M26832	aph(3')-III	Amikacin
/hpc/dla_mm/jkerkvliet/data/gplas/newmodels/results/S_aureus/08_mobsuite/GCF_017088385.1_ASM1708838v1/plasmid_AA411.fasta	S17_LN:i:20730_dp:f:3.21066834873403	10168	11055	+	blaZ_79	1-888/888	===============	0/0	100.00	99.21	resfinder	KU607584	blaZ	Amoxicillin;Ampicillin;Penicillin;Piperacillin
/hpc/dla_mm/jkerkvliet/data/gplas/newmodels/results/S_aureus/08_mobsuite/GCF_022405575.1_ASM2240557v1/plasmid_AA409.fasta	S11_LN:i:24655_dp:f:1.8108690448690872	14570	15457	-	blaZ_79	1-888/888	===============	0/0	100.00	99.89	resfinder	KU607584	blaZ	Amoxicillin;Ampicillin;Penicillin;Piperacillin
/hpc/dla_mm/jkerkvliet/data/gplas/newmodels/results/S_aureus/08_mobsuite/GCF_022406795.1_ASM2240679v1/plasmid_AB641.fasta	S18_LN:i:3892_dp:f:0.9737112504995412	2973	3707	+	erm(T)_2	1-735/735	===============	0/0	100.00	98.91	resfinder	AY894138	erm(T)	Erythromycin;Lincomycin;Clindamycin;Quinupristin;Pristinamycin_IA;Virginiamycin_S
/hpc/dla_mm/jkerkvliet/data/gplas/newmodels/results/S_aureus/08_mobsuite/GCF_022404675.1_ASM2240467v1/plasmid_AA840.fasta	S18_LN:i:10958_dp:f:3.567492925673209	6561	7448	+	blaZ_79	1-888/888	===============	0/0	100.00	99.89	resfinder	KU607584	blaZ	Amoxicillin;Ampicillin;Penicillin;Piperacillin
/hpc/dla_mm/jkerkvliet/data/gplas/newmodels/results/S_aureus/08_mobsuite/GCF_022405275.1_ASM2240527v1/plasmid_AA848.fasta	S16_LN:i:27268_dp:f:2.1936652678062285	9096	9995	-	blaZ_29	1-900/900	===============	0/0	100.00	100.00	resfinder	JDXN01000019	blaZ	Amoxicillin;Ampicillin;Penicillin;Piperacillin
/hpc/dla_mm/jkerkvliet/data/gplas/newmodels/results/S_aureus/08_mobsuite/GCF_022405415.1_ASM2240541v1/plasmid_AC627.fasta	S20_LN:i:2366_dp:f:15.199368609010852	740	1474	-	erm(C)_2	1-735/735	===============	0/0	100.00	100.00	resfinder	M19652	erm(C)	Erythromycin;Lincomycin;Clindamycin;Quinupristin;Pristinamycin_IA;Virginiamycin_S
/hpc/dla_mm/jkerkvliet/data/gplas/newmodels/results/S_aureus/08_mobsuite/GCF_018409145.1_ASM1840914v1/plasmid_AA840.fasta	S37_LN:i:18398_dp:f:25.513846641818674	14001	14888	+	blaZ_79	1-888/888	===============	0/0	100.00	99.78	resfinder	KU607584	blaZ	Amoxicillin;Ampicillin;Penicillin;Piperacillin
/hpc/dla_mm/jkerkvliet/data/gplas/newmodels/results/S_aureus/08_mobsuite/GCF_018409145.1_ASM1840914v1/plasmid_AA840.fasta	S53_LN:i:1918_dp:f:0.39565507438785874	80	1519	-	aac(6')-aph(2'')_1	1-1440/1440	===============	0/0	100.00	100.00	resfinder	M13771	aac(6')-aph(2'')	Amikacin;Gentamicin;Tobramycin
/hpc/dla_mm/jkerkvliet/data/gplas/newmodels/results/S_aureus/08_mobsuite/GCF_022369695.1_ASM2236969v1/plasmid_AA409.fasta	S17_LN:i:24654_dp:f:2.311456880031795	8470	9357	+	blaZ_79	1-888/888	===============	0/0	100.00	99.89	resfinder	KU607584	blaZ	Amoxicillin;Ampicillin;Penicillin;Piperacillin
/hpc/dla_mm/jkerkvliet/data/gplas/newmodels/results/S_aureus/08_mobsuite/GCF_017088305.1_ASM1708830v1/plasmid_AA411.fasta	S14_LN:i:20653_dp:f:1.6864354861740767	10166	11053	+	blaZ_79	1-888/888	===============	0/0	100.00	99.21	resfinder	KU607584	blaZ	Amoxicillin;Ampicillin;Penicillin;Piperacillin
/hpc/dla_mm/jkerkvliet/data/gplas/newmodels/results/S_aureus/08_mobsuite/GCF_022404595.1_ASM2240459v1/plasmid_AA411.fasta	S15_LN:i:20691_dp:f:4.41158458427947	10129	11016	+	blaZ_79	1-888/888	===============	0/0	100.00	99.21	resfinder	KU607584	blaZ	Amoxicillin;Ampicillin;Penicillin;Piperacillin
/hpc/dla_mm/jkerkvliet/data/gplas/newmodels/results/S_aureus/08_mobsuite/GCF_018135565.1_ASM1813556v1/plasmid_AA010.fasta	S33_LN:i:4397_dp:f:8.748909733143847	810	1658	+	str_2	1-849/849	===============	0/0	100.00	99.88	resfinder	FN435330	str	Streptomycin
/hpc/dla_mm/jkerkvliet/data/gplas/newmodels/results/S_aureus/08_mobsuite/GCF_013836745.1_ASM1383674v1/plasmid_AA770.fasta	S47_LN:i:3334_dp:f:0.2643379552888843	1357	1998	-	fusB_1	1-642/642	===============	0/0	100.00	100.00	resfinder	AY373761	fusB	Fusidic_acid
/hpc/dla_mm/jkerkvliet/data/gplas/newmodels/results/S_aureus/08_mobsuite/GCF_013836745.1_ASM1383674v1/plasmid_AC627.fasta	S55_LN:i:2473_dp:f:19.207691143627386	1559	2293	-	erm(C)_13	1-735/735	===============	0/0	100.00	100.00	resfinder	M13761	erm(C)	Erythromycin;Lincomycin;Clindamycin;Quinupristin;Pristinamycin_IA;Virginiamycin_S
