"true_classification"	"repeat_category_predicted"	"metric_classification"	"frequency"	"species"
"ambiguous"	"ambiguous"	"TP"	8	"E. faecalis"
"ambiguous"	"repeat plasmid"	"TP"	1	"E. faecalis"
"chromosome"	"repeat chromosome"	"TN"	2	"E. faecalis"
"plasmid"	"ambiguous"	"TP"	1	"E. faecalis"
"plasmid"	"repeat chromosome"	"FN"	1	"E. faecalis"
"repeat chromosome"	"ambiguous"	"FP"	1	"E. faecalis"
"repeat chromosome"	"repeat chromosome"	"TN"	27	"E. faecalis"
"repeat plasmid"	"ambiguous"	"TP"	1	"E. faecalis"
"repeat plasmid"	"repeat plasmid"	"TP"	3	"E. faecalis"
