"isolate"	"contig_number"	"true_chromosome_occurences"	"true_plasmidome_occurences"	"true_classification"	"species"	"chromosome"	"plasmid"	"repeat_category_predicted"	"metric_classification"	"contig_length"	"log_contig_length"	"nr_chromosome_matches"	"nr_plasmid_matches"	"nr_unclassified"	"total_matches"	"chromsome_fraction"	"plasmid_fraction"	"final_classification"
"GCF_013344605.1"	"25"	1	2	"ambiguous"	"E. faecalis"	1	1	"ambiguous"	"TP"	5882	3.76952502017105	1	2	0	3	0.33	0.67	"unclassified"
"GCF_013344605.1"	"27"	4	0	"repeat chromosome"	"E. faecalis"	1	0	"repeat chromosome"	"TN"	3283	3.51627088272934	18	0	0	18	1	0	"chromosome"
"GCF_013344605.1"	"28"	0	2	"repeat plasmid"	"E. faecalis"	0	1	"repeat plasmid"	"TP"	2251	3.35237549500052	0	4	0	4	0	1	"plasmid"
"GCF_013344605.1"	"30"	4	0	"repeat chromosome"	"E. faecalis"	1	0	"repeat chromosome"	"TN"	1834	3.263399331334	6	0	0	6	1	0	"chromosome"
"GCF_013344605.1"	"33"	3	0	"repeat chromosome"	"E. faecalis"	1	0	"repeat chromosome"	"TN"	1514	3.18012587516405	7	0	0	7	1	0	"chromosome"
"GCF_013344605.1"	"34"	1	1	"ambiguous"	"E. faecalis"	1	1	"ambiguous"	"TP"	1244	3.0948203803548	0	2	0	2	0	1	"plasmid"
"GCF_020844125.1"	"13"	1	1	"ambiguous"	"E. faecalis"	1	1	"ambiguous"	"TP"	5643	3.75151005027004	2	0	0	2	1	0	"chromosome"
"GCF_020844125.1"	"16"	4	0	"repeat chromosome"	"E. faecalis"	1	0	"repeat chromosome"	"TN"	3283	3.51627088272934	18	0	0	18	1	0	"chromosome"
"GCF_020844125.1"	"17"	4	0	"repeat chromosome"	"E. faecalis"	1	0	"repeat chromosome"	"TN"	1811	3.25791845031406	69	0	0	69	1	0	"chromosome"
"GCF_020844125.1"	"18"	1	1	"ambiguous"	"E. faecalis"	1	1	"ambiguous"	"TP"	1734	3.23904909314019	12	7	0	19	0.63	0.37	"unclassified"
"GCF_020844125.1"	"19"	2	0	"repeat chromosome"	"E. faecalis"	1	0	"repeat chromosome"	"TN"	1292	3.11126251365907	3	0	0	3	1	0	"chromosome"
"GCF_021655635.1"	"15"	0	1	"plasmid"	"E. faecalis"	1	0	"repeat chromosome"	"FN"	13459	4.12901279312604	8	0	0	8	1	0	"chromosome"
"GCF_021655635.1"	"17"	4	0	"repeat chromosome"	"E. faecalis"	1	0	"repeat chromosome"	"TN"	3143	3.49734438101758	1	0	0	1	1	0	"chromosome"
"GCF_021655635.1"	"19"	4	0	"repeat chromosome"	"E. faecalis"	1	0	"repeat chromosome"	"TN"	1815	3.25887662937213	23	0	0	23	1	0	"chromosome"
"GCF_906464835.1"	"17"	1	1	"ambiguous"	"E. faecalis"	1	1	"ambiguous"	"TP"	9002	3.95433900860246	4	0	0	4	1	0	"chromosome"
"GCF_906464835.1"	"21"	4	0	"repeat chromosome"	"E. faecalis"	1	0	"repeat chromosome"	"TN"	3283	3.51627088272934	8	0	0	8	1	0	"chromosome"
"GCF_906464835.1"	"24"	1	1	"ambiguous"	"E. faecalis"	1	1	"ambiguous"	"TP"	2926	3.46627432178929	15	0	0	15	1	0	"chromosome"
"GCF_906464835.1"	"25"	1	1	"ambiguous"	"E. faecalis"	1	1	"ambiguous"	"TP"	2361	3.37309598707873	19	0	0	19	1	0	"chromosome"
"GCF_906464835.1"	"27"	4	0	"repeat chromosome"	"E. faecalis"	1	0	"repeat chromosome"	"TN"	1831	3.2626883443017	55	0	0	55	1	0	"chromosome"
"GCF_906464835.1"	"29"	3	0	"repeat chromosome"	"E. faecalis"	1	0	"repeat chromosome"	"TN"	1350	3.13033376849501	1	0	0	1	1	0	"chromosome"
"GCF_906464835.1"	"30"	0	3	"repeat plasmid"	"E. faecalis"	0	1	"repeat plasmid"	"TP"	1181	3.07224989761351	1	8	0	9	0.11	0.89	"plasmid"
"GCF_906464865.1"	"25"	2	0	"repeat chromosome"	"E. faecalis"	1	0	"repeat chromosome"	"TN"	3653	3.56264967221192	2	0	0	2	1	0	"chromosome"
"GCF_906464865.1"	"26"	4	0	"repeat chromosome"	"E. faecalis"	1	0	"repeat chromosome"	"TN"	3283	3.51627088272934	18	0	0	18	1	0	"chromosome"
"GCF_906464865.1"	"27"	1	1	"ambiguous"	"E. faecalis"	0	1	"repeat plasmid"	"TP"	3080	3.48855071650044	0	1	0	1	0	1	"plasmid"
"GCF_906464865.1"	"29"	4	0	"repeat chromosome"	"E. faecalis"	1	0	"repeat chromosome"	"TN"	1835	3.26363606858811	55	0	0	55	1	0	"chromosome"
"GCF_906464865.1"	"30"	2	0	"repeat chromosome"	"E. faecalis"	1	1	"ambiguous"	"FP"	1589	3.20112389720738	0	0	1	1	0.5	0.5	"unclassified"
"GCF_906464865.1"	"31"	2	0	"repeat chromosome"	"E. faecalis"	1	0	"repeat chromosome"	"TN"	1587	3.20057692675485	23	0	0	23	1	0	"chromosome"
"GCF_906464865.1"	"32"	2	0	"repeat chromosome"	"E. faecalis"	1	0	"repeat chromosome"	"TN"	1513	3.17983892802319	3	0	0	3	1	0	"chromosome"
"GCF_906464895.1"	"33"	4	0	"repeat chromosome"	"E. faecalis"	1	0	"repeat chromosome"	"TN"	3283	3.51627088272934	7	0	0	7	1	0	"chromosome"
"GCF_906464895.1"	"34"	1	0	"chromosome"	"E. faecalis"	1	0	"repeat chromosome"	"TN"	2374	3.37548071461857	9	0	0	9	1	0	"chromosome"
"GCF_906464895.1"	"37"	4	0	"repeat chromosome"	"E. faecalis"	1	0	"repeat chromosome"	"TN"	1791	3.25309558584903	77	0	0	77	1	0	"chromosome"
"GCF_906464895.1"	"38"	1	0	"chromosome"	"E. faecalis"	1	0	"repeat chromosome"	"TN"	1340	3.12710479836481	5	0	0	5	1	0	"chromosome"
"GCF_906464895.1"	"39"	4	0	"repeat chromosome"	"E. faecalis"	1	0	"repeat chromosome"	"TN"	1338	3.1264561134318	13	4	0	17	0.76	0.24	"chromosome"
"GCF_906464895.1"	"40"	13	0	"repeat chromosome"	"E. faecalis"	1	0	"repeat chromosome"	"TN"	1324	3.12188798510368	1	1	0	2	0.5	0.5	"unclassified"
"GCF_906464895.1"	"42"	0	2	"repeat plasmid"	"E. faecalis"	0	1	"repeat plasmid"	"TP"	1279	3.10687054447865	1	3	0	4	0.25	0.75	"plasmid"
"GCF_906464895.1"	"43"	0	1	"plasmid"	"E. faecalis"	1	1	"ambiguous"	"TP"	1236	3.0920184707528	19	15	0	34	0.56	0.44	"unclassified"
"GCF_906464895.1"	"44"	5	0	"repeat chromosome"	"E. faecalis"	1	0	"repeat chromosome"	"TN"	1016	3.0068937079479	3	0	0	3	1	0	"chromosome"
"GCF_906464915.2"	"26"	4	0	"repeat chromosome"	"E. faecalis"	1	0	"repeat chromosome"	"TN"	3249	3.51174971134498	9	0	0	9	1	0	"chromosome"
"GCF_906464915.2"	"27"	4	0	"repeat chromosome"	"E. faecalis"	1	0	"repeat chromosome"	"TN"	1782	3.25090769970086	1	0	0	1	1	0	"chromosome"
"GCF_906464915.2"	"28"	5	0	"repeat chromosome"	"E. faecalis"	1	0	"repeat chromosome"	"TN"	1517	3.18098558078673	1	0	0	1	1	0	"chromosome"
"GCF_906464915.2"	"30"	0	3	"repeat plasmid"	"E. faecalis"	1	1	"ambiguous"	"TP"	1278	3.10653085382238	2	5	0	7	0.29	0.71	"plasmid"
"GCF_906464925.1"	"34"	4	0	"repeat chromosome"	"E. faecalis"	1	0	"repeat chromosome"	"TN"	3283	3.51627088272934	18	0	0	18	1	0	"chromosome"
"GCF_906464925.1"	"36"	4	0	"repeat chromosome"	"E. faecalis"	1	0	"repeat chromosome"	"TN"	1679	3.22505069613805	83	0	0	83	1	0	"chromosome"
"GCF_906464925.1"	"37"	5	1	"ambiguous"	"E. faecalis"	1	1	"ambiguous"	"TP"	1276	3.10585067438514	13	4	0	17	0.76	0.24	"chromosome"
"GCF_906464925.1"	"38"	10	0	"repeat chromosome"	"E. faecalis"	1	0	"repeat chromosome"	"TN"	1201	3.07954300740291	1	1	0	2	0.5	0.5	"unclassified"
