GCF_000391485.2_ASM39148v2,NZ_CP041738.1
GCF_000550745.1_ASM55074v1,NZ_CP004081.1
GCF_000742975.1_ASM74297v1,NZ_CP008816.1
GCF_001598635.1_ASM159863v1,NZ_CP014949.1
GCF_001689055.2_ASM168905v2,NZ_CP015410.2
GCF_001989555.1_ASM198955v1,NZ_CP019512.1
GCF_002163735.1_ASM216373v1,NZ_CP015883.1
GCF_002208945.1_ASM220894v2,NZ_CP022059.1
GCF_002289045.2_ASM228904v2,NZ_CP029612.1
GCF_002355755.1_ASM235575v1,NZ_AP017623.1
GCF_002814115.1_ASM281411v1,NZ_CP022488.1
GCF_003030425.1_ASM303042v1,NZ_CP028285.1
GCF_003345275.1_ASM334527v1,NZ_CP031027.1
GCF_003812665.1_ASM381266v1,NZ_CP033787.1
GCF_003966385.1_ASM396638v1,NZ_AP018538.1
GCF_003966405.1_ASM396640v1,NZ_AP018543.1
GCF_004332015.1_ASM433201v1,NZ_CP028720.1
GCF_004332035.1_ASM433203v1,NZ_CP028724.1
GCF_005158025.1_ASM515802v1,NZ_CP028835.1
GCF_005484525.1_ASM548452v1,NZ_CP039434.1
GCF_005979285.1_ASM597928v1,NZ_CP030042.1
GCF_005979305.1_ASM597930v1,NZ_CP030045.1
GCF_006349345.1_ASM634934v1,NZ_CP040898.1
GCF_006364815.1_ASM636481v1,NZ_CP041012.1
GCF_006494835.1_ASM649483v1,NZ_CP039296.1
GCF_006494855.1_ASM649485v1,NZ_CP039548.1
GCF_006494875.1_ASM649487v1,NZ_CP039549.1
GCF_006766145.1_ASM676614v1,NZ_CP041344.1
GCF_009498175.3_ASM949817v3,NZ_CP042216.2
GCF_009662495.1_ASM966249v1,NZ_CP036249.1
GCF_010103655.1_ASM1010365v1,NZ_CP045045.1
GCF_011193375.1_ASM1119337v1,NZ_CP049775.1
GCF_012594215.1_ASM1259421v1,NZ_CP051005.1
GCF_013344605.1_ASM1334460v1,NZ_CP046108.1
GCF_013344625.1_ASM1334462v1,NZ_CP046111.1
GCF_013344645.1_ASM1334464v1,NZ_CP046112.1
GCF_013344665.1_ASM1334466v1,NZ_CP046113.1
GCF_014489455.1_ASM1448945v1,NZ_CP060804.1
GCF_014844235.1_ASM1484423v1,NZ_CP050491.1
GCF_015377745.1_ASM1537774v1,NZ_CP045598.1
GCF_016743895.1_ASM1674389v1,NZ_CP068249.1
GCF_016812095.1_ASM1681209v1,NZ_CP069185.1
GCF_017280035.1_ASM1728003v1,NZ_CP071172.1
GCF_017280235.1_ASM1728023v1,NZ_CP071176.1
GCF_017357805.1_ASM1735780v1,NZ_CP046022.1
GCF_017639585.1_ASM1763958v1,NZ_CP060796.1
GCF_018517125.1_ASM1851712v1,NZ_CP065784.1
GCF_018986755.2_ASM1898675v2,NZ_CP075604.2
GCF_019195415.1_ASM1919541v1,NZ_CP078015.1
GCF_019222705.1_ASM1922270v1,NZ_CP078162.1
GCF_019774535.1_ASM1977453v1,NZ_CP081505.1
GCF_019856595.1_ASM1985659v1,NZ_CP082231.1
GCF_020616775.1_ASM2061677v1,NZ_CP085289.1
GCF_020616875.1_ASM2061687v1,NZ_CP085291.1
GCF_020616935.1_ASM2061693v1,NZ_CP085294.1
GCF_020844125.1_ASM2084412v1,NZ_CP063980.1
GCF_020881975.1_ASM2088197v1,NZ_CP086411.1
GCF_020882035.1_ASM2088203v1,NZ_CP086558.1
GCF_020882055.1_ASM2088205v1,NZ_CP086566.1
GCF_020882075.1_ASM2088207v1,NZ_CP086560.1
GCF_020882095.1_ASM2088209v1,NZ_CP086564.1
GCF_020882115.1_ASM2088211v1,NZ_CP086592.1
GCF_020906605.1_ASM2090660v1,NZ_CP086726.1
GCF_021484825.1_ASM2148482v1,NZ_CP090558.1
GCF_021610105.1_ASM2161010v1,NZ_CP091198.1
GCF_021655635.1_ASM2165563v1,NZ_AP025270.1
GCF_022212845.1_ASM2221284v1,NZ_CP091884.1
GCF_022212865.1_ASM2221286v1,NZ_CP091886.1
GCF_022212885.1_ASM2221288v1,NZ_CP091889.1
GCF_022212905.1_ASM2221290v1,NZ_CP091892.1
GCF_022212925.1_ASM2221292v1,NZ_CP091895.1
GCF_022212945.1_ASM2221294v1,NZ_CP091897.1
GCF_022212965.1_ASM2221296v1,NZ_CP091899.1
GCF_022212985.1_ASM2221298v1,NZ_CP091901.1
GCF_022213005.1_ASM2221300v1,NZ_CP091904.1
GCF_022213025.1_ASM2221302v1,NZ_CP091906.1
GCF_022557275.1_ASM2255727v1,NZ_CP092907.1
GCF_022648285.1_ASM2264828v1,NZ_CP076488.1
GCF_022648425.1_ASM2264842v1,NZ_CP076493.1
GCF_022648595.1_ASM2264859v1,NZ_CP076498.1
GCF_022691465.1_ASM2269146v1,NZ_CP092574.1
GCF_022691485.1_ASM2269148v1,NZ_CP092576.1
GCF_022699585.1_ASM2269958v1,NZ_CP093957.1
GCF_022810805.1_ASM2281080v1,NZ_CP046247.1
GCF_022869705.1_ASM2286970v1,NZ_CP064374.1
GCF_900636775.1_44087_G01,NZ_LR134312.1
GCF_901553725.1_42197_D01,NZ_LR594051.1
GCF_902379005.2_UHGG_MGYG-HGUT-01694,NZ_LR698844.1
GCF_906464835.1_TM6294,NZ_OD940431.1
GCF_906464865.1_WE0438,NZ_OD940420.1
GCF_906464875.1_BX8117,NZ_OD940437.1
GCF_906464895.1_WE0851,NZ_OD940422.1
GCF_906464895.1_WE0851,NZ_OD940426.1
GCF_906464895.1_WE0851,NZ_OD940427.1
GCF_906464895.1_WE0851,NZ_OD940428.1
GCF_906464895.1_WE0851,NZ_OD940429.1
GCF_906464895.1_WE0851,NZ_OD940430.1
GCF_906464915.2_WE0254,NZ_OD940440.2
GCF_906464925.1_BX5936,NZ_OD940434.1
