GCF_014705885.1_ASM1470588v1,plasmid_AB114,NZ_CP061520.1,110155,117253
GCF_014705885.1_ASM1470588v1,plasmid_AB114,NZ_CP061519.1,32547,117253
GCF_014705885.1_ASM1470588v1,plasmid_AE272,NZ_CP061519.1,98243,98243
GCF_014705885.1_ASM1470588v1,plasmid_AD096,NZ_CP061519.1,22431,22431
GCF_018604365.1_ASM1860436v1,plasmid_AF972,NZ_CP071763.1,37447,27315
GCF_018604365.1_ASM1860436v1,plasmid_AE272,NZ_CP071763.1,47370,40662
GCF_018604365.1_ASM1860436v1,plasmid_AE296,NZ_CP071764.1,1932,2277
GCF_018604365.1_ASM1860436v1,plasmid_AE296,NZ_CP071763.1,345,2277
GCF_018604365.1_ASM1860436v1,plasmid_AC715,NZ_CP071763.1,53262,22631
GCF_018604365.1_ASM1860436v1,plasmid_AC163,NZ_CP071763.1,18511,11176
GCF_014705825.1_ASM1470582v1,plasmid_AE272,NZ_CP061525.1,125407,105229
GCF_014705825.1_ASM1470582v1,plasmid_AC163,NZ_CP061526.1,14639,14639
GCF_005519135.2_ASM551913v2,plasmid_AE272,NZ_CP031380.1,36471,36471
GCF_005519135.2_ASM551913v2,plasmid_AB082,NZ_CP031382.1,64451,63376
GCF_005519135.2_ASM551913v2,plasmid_AB082,NZ_CP031380.1,7525,63376
GCF_005519135.2_ASM551913v2,plasmid_AE027,NZ_CP031381.2,17616,17616
GCF_015910475.1_ASM1591047v1,plasmid_AB337,NZ_CP065434.1,5161,5161
GCF_015910475.1_ASM1591047v1,plasmid_AE689,NZ_CP065433.1,8936,7889
GCF_015910475.1_ASM1591047v1,plasmid_AE689,NZ_CP065434.1,1047,7889
GCF_018808925.1_ASM1880892v1,plasmid_AE272,NZ_CP048849.1,96532,96532
GCF_018808925.1_ASM1880892v1,plasmid_AE296,NZ_CP048850.1,2277,2277
GCF_018808925.1_ASM1880892v1,plasmid_AC716,NZ_CP048851.1,127372,122560
GCF_018808925.1_ASM1880892v1,plasmid_AC716,NZ_CP048849.1,50059,122560
GCF_018808925.1_ASM1880892v1,plasmid_AD036,no_correct_alignments,0,0
GCF_018808925.1_ASM1880892v1,plasmid_AF874,no_correct_alignments,0,0
GCF_019903235.1_ASM1990323v1,plasmid_AB348,NZ_CP061712.1,4871,4871
GCF_019903235.1_ASM1990323v1,plasmid_AE204,NZ_CP061706.1,10364,10364
GCF_019903235.1_ASM1990323v1,plasmid_AE272,NZ_CP061705.1,85651,85652
GCF_019903235.1_ASM1990323v1,plasmid_novel_8f6e6eeff90e98d77a322e58569027c7,NZ_CP061706.1,57803,57805
GCF_019903235.1_ASM1990323v1,plasmid_AE271,NZ_CP061705.1,59248,65468
GCF_019903235.1_ASM1990323v1,plasmid_AE271,NZ_CP061709.1,7478,65468
GCF_019903235.1_ASM1990323v1,plasmid_AH171,NZ_CP061705.1,33136,33136
GCF_018135585.1_ASM1813558v1,plasmid_AB406,NZ_CP073061.1,56461,56579
GCF_018135585.1_ASM1813558v1,plasmid_AB406,NZ_CP073060.1,8974,56579
GCF_018135585.1_ASM1813558v1,plasmid_AB413,NZ_CP073061.1,33558,33558
GCF_018135585.1_ASM1813558v1,plasmid_AE272,NZ_CP073060.1,84001,84001
GCF_020132105.1_ASM2013210v1,plasmid_AE688,NZ_CP082953.1,9205,9205
GCF_013372085.1_ASM1337208v1,plasmid_AC716,NZ_CP053098.1,157239,143831
GCF_013372085.1_ASM1337208v1,plasmid_AE186,NZ_CP053099.1,13409,13409
GCF_013372085.1_ASM1337208v1,plasmid_AC162,NZ_CP053100.1,11302,11302
GCF_016919525.1_ASM1691952v2,plasmid_AF972,NZ_CP070358.1,33374,30455
GCF_016919525.1_ASM1691952v2,plasmid_AE272,NZ_CP070358.1,97989,95671
GCF_016919525.1_ASM1691952v2,plasmid_AE271,NZ_CP070358.1,76777,76780
GCF_016919525.1_ASM1691952v2,plasmid_AF524,NZ_CP070359.1,1967,1967
GCF_016919525.1_ASM1691952v2,plasmid_AB082,NZ_CP070361.1,59291,72398
GCF_016919525.1_ASM1691952v2,plasmid_AB082,NZ_CP070358.1,22133,72398
GCF_016919525.1_ASM1691952v2,plasmid_AH171,NZ_CP070358.1,45986,45986
GCF_016919525.1_ASM1691952v2,plasmid_AD096,NZ_CP070358.1,7836,7837
GCF_016919525.1_ASM1691952v2,plasmid_AC163,NZ_CP070360.1,8731,8731
GCF_014705845.1_ASM1470584v1,plasmid_AB114,NZ_CP061524.1,110845,117943
GCF_014705845.1_ASM1470584v1,plasmid_AB114,NZ_CP061523.1,32547,117943
GCF_014705845.1_ASM1470584v1,plasmid_AE272,NZ_CP061523.1,98413,98413
GCF_019703285.1_ASM1970328v1,plasmid_AB413,NZ_AP024802.1,37134,37134
GCF_019703285.1_ASM1970328v1,plasmid_AE272,NZ_AP024802.1,65737,65737
GCF_019703285.1_ASM1970328v1,plasmid_AE690,NZ_AP024804.1,12817,14264
GCF_019703285.1_ASM1970328v1,plasmid_AE690,NZ_AP024802.1,1447,14264
GCF_019703285.1_ASM1970328v1,plasmid_AC965,NZ_AP024803.1,82443,82443
GCF_019703285.1_ASM1970328v1,plasmid_AC965,NZ_AP024802.1,2561,82443
GCF_019703285.1_ASM1970328v1,plasmid_AE271,NZ_AP024802.1,29977,29977
GCF_019703285.1_ASM1970328v1,plasmid_AE296,NZ_AP024813.1,2278,2278
GCF_019703285.1_ASM1970328v1,plasmid_AH281,NZ_AP024811.1,3496,3496
GCF_019703285.1_ASM1970328v1,plasmid_AC598,NZ_AP024806.1,8091,8091
GCF_019703285.1_ASM1970328v1,plasmid_AD743,NZ_AP024807.1,7104,10634
GCF_019703285.1_ASM1970328v1,plasmid_AD743,NZ_AP024805.1,3530,10634
GCF_019903175.1_ASM1990317v1,plasmid_AE272,NZ_CP059546.1,79700,79700
GCF_015732435.1_ASM1573243v1,plasmid_AF972,NZ_CP060732.1,65988,31569
GCF_015732435.1_ASM1573243v1,plasmid_AE272,NZ_CP060732.1,41073,41073
GCF_015732435.1_ASM1573243v1,plasmid_AE271,NZ_CP060732.1,64339,42145
GCF_015732435.1_ASM1573243v1,plasmid_AE689,no_correct_alignments,0,0
GCF_021484905.1_ASM2148490v1,plasmid_AB878,no_correct_alignments,0,0
GCF_021484905.1_ASM2148490v1,plasmid_AF972,NZ_CP090607.1,25873,17500
GCF_021484905.1_ASM2148490v1,plasmid_AB879,no_correct_alignments,0,0
GCF_021484905.1_ASM2148490v1,plasmid_AC715,NZ_CP090607.1,24476,20109
GCF_021484905.1_ASM2148490v1,plasmid_AC163,NZ_CP090607.1,25389,12201
GCF_017753625.1_ASM1775362v1,plasmid_AB114,NZ_CP072527.1,112641,112641
GCF_017753625.1_ASM1775362v1,plasmid_AB114,NZ_CP072528.1,2627,112641
GCF_017753625.1_ASM1775362v1,plasmid_AC861,NZ_CP072528.1,90737,90737
GCF_013787185.1_ASM1378718v1,plasmid_AB409,NZ_CP059386.1,51677,46734
GCF_013787185.1_ASM1378718v1,plasmid_AB114,NZ_CP059387.1,109809,110827
GCF_013787185.1_ASM1378718v1,plasmid_AB114,NZ_CP059386.1,10180,110827
GCF_013787185.1_ASM1378718v1,plasmid_AD825,NZ_CP059390.1,4721,4721
GCF_013787185.1_ASM1378718v1,plasmid_AE272,NZ_CP059386.1,103915,103915
GCF_013787185.1_ASM1378718v1,plasmid_AE271,NZ_CP059386.1,61364,60193
GCF_013787185.1_ASM1378718v1,plasmid_AB340,NZ_CP059388.1,9458,9458
GCF_013787185.1_ASM1378718v1,plasmid_AD096,NZ_CP059386.1,7091,7091
GCF_013787185.1_ASM1378718v1,plasmid_AD743,NZ_CP059389.1,5688,14566
GCF_013787185.1_ASM1378718v1,plasmid_AD743,NZ_CP059386.1,12046,14566
GCF_018831125.1_ASM1883112v1,plasmid_AE271,NZ_CP048131.1,45712,45712
GCF_018831125.1_ASM1883112v1,plasmid_AC716,NZ_CP048135.1,165942,167049
GCF_018831125.1_ASM1883112v1,plasmid_AC716,NZ_CP048131.1,3319,167049
GCF_018831125.1_ASM1883112v1,plasmid_AB702,NZ_CP048132.1,6078,6078
GCF_018831125.1_ASM1883112v1,plasmid_AB082,NZ_CP048134.1,69764,78716
GCF_018831125.1_ASM1883112v1,plasmid_AB082,NZ_CP048133.1,8730,78716
GCF_018831125.1_ASM1883112v1,plasmid_AB082,NZ_CP048135.1,2618,78716
GCF_018831125.1_ASM1883112v1,plasmid_AB082,NZ_CP048131.1,10227,78716
GCF_019903155.1_ASM1990315v1,plasmid_AB114,NZ_CP059543.1,117806,119082
GCF_019903155.1_ASM1990315v1,plasmid_AB114,NZ_CP059542.1,3828,119082
GCF_019903155.1_ASM1990315v1,plasmid_AD745,NZ_CP059545.1,7369,7369
GCF_014322245.1_ASM1432224v1,plasmid_AB685,no_correct_alignments,0,0
GCF_014322245.1_ASM1432224v1,plasmid_AB114,NZ_CP047974.1,92069,97193
GCF_014322245.1_ASM1432224v1,plasmid_AB114,NZ_CP047975.1,2767,97193
GCF_014322245.1_ASM1432224v1,plasmid_AB114,NZ_CP047973.1,13940,97193
GCF_014322245.1_ASM1432224v1,plasmid_AB114,NZ_CP047976.1,1318,97193
GCF_014322245.1_ASM1432224v1,plasmid_AE271,NZ_CP047973.1,56796,56796
GCF_014322245.1_ASM1432224v1,plasmid_AC861,NZ_CP047975.1,82676,82628
GCF_014322245.1_ASM1432224v1,plasmid_AC861,NZ_CP047973.1,17646,82628
GCF_014322245.1_ASM1432224v1,plasmid_AD096,NZ_CP047973.1,12852,12852
GCF_014322245.1_ASM1432224v1,plasmid_AD743,NZ_CP047976.1,7814,7814
GCF_020985285.1_ASM2098528v1,plasmid_AD745,NZ_CP087595.1,8432,8571
GCF_016903215.1_ASM1690321v1,plasmid_AE272,NZ_CP069851.1,157329,143147
GCF_016903215.1_ASM1690321v1,plasmid_AC237,NZ_CP069851.1,18487,18487
GCF_016903215.1_ASM1690321v1,plasmid_AC163,NZ_CP069852.1,8731,11412
GCF_016903215.1_ASM1690321v1,plasmid_AC163,NZ_CP069851.1,2681,11412
GCF_014169655.1_ASM1416965v1,plasmid_AB114,NZ_AP022239.1,114122,114122
GCF_014169655.1_ASM1416965v1,plasmid_AD743,NZ_AP022240.1,10735,10735
GCF_014705785.1_ASM1470578v1,plasmid_AE272,NZ_CP061517.1,120833,99593
GCF_020810655.1_ASM2081065v1,plasmid_AB337,NZ_CP085790.1,3940,3940
GCF_020810655.1_ASM2081065v1,plasmid_AA858,NZ_CP085788.1,84925,84925
GCF_020810655.1_ASM2081065v1,plasmid_AA667,NZ_CP085788.1,25915,21517
GCF_020810655.1_ASM2081065v1,plasmid_AB338,NZ_CP085790.1,1857,1942
GCF_020810655.1_ASM2081065v1,plasmid_AC163,NZ_CP085789.1,10984,11069
GCF_016127515.1_ASM1612751v1,plasmid_AC715,NZ_CP066016.1,13296,12255
GCF_016127515.1_ASM1612751v1,plasmid_AC163,NZ_CP066017.1,8731,12201
GCF_016127515.1_ASM1612751v1,plasmid_AC163,NZ_CP066016.1,16165,12201
GCF_014159355.1_ASM1415935v1,plasmid_novel_791ac9a2fe26c962086c2e39f4f3a87c,no_correct_alignments,0,0
GCF_014159355.1_ASM1415935v1,plasmid_AE272,NZ_AP022077.1,65843,65843
GCF_014159355.1_ASM1415935v1,plasmid_AB826,no_correct_alignments,0,0
GCF_014159355.1_ASM1415935v1,plasmid_AE271,NZ_AP022077.1,43770,43770
GCF_019903215.1_ASM1990321v1,plasmid_AC715,NZ_CP059548.1,36429,20865
GCF_019903215.1_ASM1990321v1,plasmid_AC163,NZ_CP059548.1,5081,3763
GCF_016919505.2_ASM1691950v2,plasmid_AF972,NZ_CP070362.2,26517,23599
GCF_016919505.2_ASM1691950v2,plasmid_AE272,NZ_CP070362.2,91080,88725
GCF_016919505.2_ASM1691950v2,plasmid_AE271,NZ_CP070362.2,60706,60707
GCF_016919505.2_ASM1691950v2,plasmid_AF524,NZ_CP070363.1,1967,1967
GCF_016919505.2_ASM1691950v2,plasmid_AB082,NZ_CP070365.1,51126,59171
GCF_016919505.2_ASM1691950v2,plasmid_AB082,NZ_CP070362.2,9094,59171
GCF_016919505.2_ASM1691950v2,plasmid_AH171,NZ_CP070362.2,35820,35820
GCF_016919505.2_ASM1691950v2,plasmid_AD096,NZ_CP070362.2,7905,7908
GCF_016919505.2_ASM1691950v2,plasmid_AC163,NZ_CP070364.1,8731,8731
GCF_019458485.1_ASM1945848v1,plasmid_AB878,NZ_CP080454.1,2725,2725
GCF_019458485.1_ASM1945848v1,plasmid_AF972,NZ_CP080452.1,25873,17500
GCF_019458485.1_ASM1945848v1,plasmid_AB879,NZ_CP080453.1,2178,2178
GCF_019458485.1_ASM1945848v1,plasmid_AC715,NZ_CP080452.1,24477,20110
GCF_019458485.1_ASM1945848v1,plasmid_AC715,NZ_CP080455.1,1087,20110
GCF_019458485.1_ASM1945848v1,plasmid_AC163,NZ_CP080456.1,8593,12186
GCF_019458485.1_ASM1945848v1,plasmid_AC163,NZ_CP080452.1,25090,12186
GCF_018831485.1_ASM1883148v1,plasmid_AC163,NZ_CP049315.1,11844,11844
GCF_021609965.1_ASM2160996v1,plasmid_AF972,NZ_CP091172.1,25873,17500
GCF_021609965.1_ASM2160996v1,plasmid_AB879,no_correct_alignments,0,0
GCF_021609965.1_ASM2160996v1,plasmid_AC715,NZ_CP091172.1,24477,20110
GCF_021609965.1_ASM2160996v1,plasmid_AC163,NZ_CP091172.1,25390,12201
GCF_014705865.1_ASM1470586v1,plasmid_AB114,NZ_CP061522.1,109941,112405
GCF_014705865.1_ASM1470586v1,plasmid_AB114,NZ_CP061521.1,23888,112405
GCF_014705865.1_ASM1470586v1,plasmid_AF972,NZ_CP061521.1,25849,25849
GCF_014705865.1_ASM1470586v1,plasmid_AE272,NZ_CP061521.1,98413,98413
GCF_014705805.1_ASM1470580v1,plasmid_AB114,NZ_CP061515.1,110836,113478
GCF_014705805.1_ASM1470580v1,plasmid_AB114,NZ_CP061514.1,23882,113478
GCF_014705805.1_ASM1470580v1,plasmid_AE272,NZ_CP061514.1,98413,98413
GCF_014705805.1_ASM1470580v1,plasmid_AB082,NZ_CP061516.1,67023,74001
GCF_014705805.1_ASM1470580v1,plasmid_AB082,NZ_CP061514.1,13707,74001
GCF_016903135.1_ASM1690313v1,plasmid_AB082,NZ_CP069841.1,73709,74970
GCF_016903135.1_ASM1690313v1,plasmid_AB082,NZ_CP069840.1,18638,74970
GCF_016903135.1_ASM1690313v1,plasmid_AB595,NZ_CP069840.1,10190,10190
GCF_016903135.1_ASM1690313v1,plasmid_AD036,NZ_CP069842.1,14879,14879
GCF_016903135.1_ASM1690313v1,plasmid_AD036,NZ_CP069840.1,1115,14879
