<?xml version='1.0' encoding='UTF-8' ?>
<svg xmlns='http://www.w3.org/2000/svg' xmlns:xlink='http://www.w3.org/1999/xlink' class='svglite' width='504.00pt' height='360.00pt' viewBox='0 0 504.00 360.00'>
<defs>
  <style type='text/css'><![CDATA[
    .svglite line, .svglite polyline, .svglite polygon, .svglite path, .svglite rect, .svglite circle {
      fill: none;
      stroke: #000000;
      stroke-linecap: round;
      stroke-linejoin: round;
      stroke-miterlimit: 10.00;
    }
    .svglite text {
      white-space: pre;
    }
  ]]></style>
</defs>
<rect width='100%' height='100%' style='stroke: none; fill: #FFFFFF;'/>
<defs>
  <clipPath id='cpMC4wMHw1MDQuMDB8MC4wMHwzNjAuMDA='>
    <rect x='0.00' y='0.00' width='504.00' height='360.00' />
  </clipPath>
</defs>
<g clip-path='url(#cpMC4wMHw1MDQuMDB8MC4wMHwzNjAuMDA=)'>
</g>
<defs>
  <clipPath id='cpNjAuNzJ8NDk4LjUyfDExLjY4fDMxMS4xOQ=='>
    <rect x='60.72' y='11.68' width='437.80' height='299.51' />
  </clipPath>
</defs>
<g clip-path='url(#cpNjAuNzJ8NDk4LjUyfDExLjY4fDMxMS4xOQ==)'>
<polyline points='60.72,253.43 498.52,253.43 ' style='stroke-width: 0.53; stroke: #EBEBEB; stroke-linecap: butt;' />
<polyline points='60.72,165.14 498.52,165.14 ' style='stroke-width: 0.53; stroke: #EBEBEB; stroke-linecap: butt;' />
<polyline points='60.72,76.84 498.52,76.84 ' style='stroke-width: 0.53; stroke: #EBEBEB; stroke-linecap: butt;' />
<polyline points='149.13,311.19 149.13,11.68 ' style='stroke-width: 0.53; stroke: #EBEBEB; stroke-linecap: butt;' />
<polyline points='279.62,311.19 279.62,11.68 ' style='stroke-width: 0.53; stroke: #EBEBEB; stroke-linecap: butt;' />
<polyline points='410.11,311.19 410.11,11.68 ' style='stroke-width: 0.53; stroke: #EBEBEB; stroke-linecap: butt;' />
<polyline points='60.72,297.57 498.52,297.57 ' style='stroke-width: 1.07; stroke: #EBEBEB; stroke-linecap: butt;' />
<polyline points='60.72,209.28 498.52,209.28 ' style='stroke-width: 1.07; stroke: #EBEBEB; stroke-linecap: butt;' />
<polyline points='60.72,120.99 498.52,120.99 ' style='stroke-width: 1.07; stroke: #EBEBEB; stroke-linecap: butt;' />
<polyline points='60.72,32.70 498.52,32.70 ' style='stroke-width: 1.07; stroke: #EBEBEB; stroke-linecap: butt;' />
<rect x='80.62' y='295.15' width='6.52' height='2.42' style='stroke-width: 1.07; stroke-linecap: butt; stroke-linejoin: miter; fill: #B5B5B5;' />
<rect x='87.15' y='296.36' width='6.52' height='1.21' style='stroke-width: 1.07; stroke-linecap: butt; stroke-linejoin: miter; fill: #B5B5B5;' />
<rect x='93.67' y='283.05' width='6.52' height='14.52' style='stroke-width: 1.07; stroke-linecap: butt; stroke-linejoin: miter; fill: #B5B5B5;' />
<rect x='100.20' y='290.31' width='6.52' height='7.26' style='stroke-width: 1.07; stroke-linecap: butt; stroke-linejoin: miter; fill: #B5B5B5;' />
<rect x='106.72' y='270.95' width='6.52' height='26.62' style='stroke-width: 1.07; stroke-linecap: butt; stroke-linejoin: miter; fill: #B5B5B5;' />
<rect x='113.25' y='293.94' width='6.52' height='3.63' style='stroke-width: 1.07; stroke-linecap: butt; stroke-linejoin: miter; fill: #B5B5B5;' />
<rect x='119.77' y='220.12' width='6.52' height='77.45' style='stroke-width: 1.07; stroke-linecap: butt; stroke-linejoin: miter; fill: #B5B5B5;' />
<rect x='126.30' y='279.42' width='6.52' height='18.15' style='stroke-width: 1.07; stroke-linecap: butt; stroke-linejoin: miter; fill: #B5B5B5;' />
<rect x='132.82' y='273.37' width='6.52' height='24.20' style='stroke-width: 1.07; stroke-linecap: butt; stroke-linejoin: miter; fill: #B5B5B5;' />
<rect x='139.34' y='251.59' width='6.52' height='45.99' style='stroke-width: 1.07; stroke-linecap: butt; stroke-linejoin: miter; fill: #B5B5B5;' />
<rect x='145.87' y='226.18' width='6.52' height='71.40' style='stroke-width: 1.07; stroke-linecap: butt; stroke-linejoin: miter; fill: #B5B5B5;' />
<rect x='152.39' y='185.03' width='6.52' height='112.54' style='stroke-width: 1.07; stroke-linecap: butt; stroke-linejoin: miter; fill: #B5B5B5;' />
<rect x='158.92' y='139.05' width='6.52' height='158.53' style='stroke-width: 1.07; stroke-linecap: butt; stroke-linejoin: miter; fill: #B5B5B5;' />
<rect x='165.44' y='194.71' width='6.52' height='102.86' style='stroke-width: 1.07; stroke-linecap: butt; stroke-linejoin: miter; fill: #B5B5B5;' />
<rect x='171.97' y='204.39' width='6.52' height='93.18' style='stroke-width: 1.07; stroke-linecap: butt; stroke-linejoin: miter; fill: #B5B5B5;' />
<rect x='178.49' y='89.43' width='6.52' height='208.14' style='stroke-width: 1.07; stroke-linecap: butt; stroke-linejoin: miter; fill: #B5B5B5;' />
<rect x='185.02' y='214.07' width='6.52' height='83.50' style='stroke-width: 1.07; stroke-linecap: butt; stroke-linejoin: miter; fill: #B5B5B5;' />
<rect x='191.54' y='273.37' width='6.52' height='24.20' style='stroke-width: 1.07; stroke-linecap: butt; stroke-linejoin: miter; fill: #B5B5B5;' />
<rect x='198.07' y='268.53' width='6.52' height='29.04' style='stroke-width: 1.07; stroke-linecap: butt; stroke-linejoin: miter; fill: #B5B5B5;' />
<rect x='204.59' y='231.02' width='6.52' height='66.56' style='stroke-width: 1.07; stroke-linecap: butt; stroke-linejoin: miter; fill: #B5B5B5;' />
<rect x='211.11' y='194.71' width='6.52' height='102.86' style='stroke-width: 1.07; stroke-linecap: butt; stroke-linejoin: miter; fill: #B5B5B5;' />
<rect x='217.64' y='281.84' width='6.52' height='15.73' style='stroke-width: 1.07; stroke-linecap: butt; stroke-linejoin: miter; fill: #B5B5B5;' />
<rect x='224.16' y='217.70' width='6.52' height='79.87' style='stroke-width: 1.07; stroke-linecap: butt; stroke-linejoin: miter; fill: #B5B5B5;' />
<rect x='230.69' y='246.75' width='6.52' height='50.83' style='stroke-width: 1.07; stroke-linecap: butt; stroke-linejoin: miter; fill: #B5B5B5;' />
<rect x='237.21' y='269.74' width='6.52' height='27.83' style='stroke-width: 1.07; stroke-linecap: butt; stroke-linejoin: miter; fill: #B5B5B5;' />
<rect x='243.74' y='289.10' width='6.52' height='8.47' style='stroke-width: 1.07; stroke-linecap: butt; stroke-linejoin: miter; fill: #B5B5B5;' />
<rect x='250.26' y='285.47' width='6.52' height='12.10' style='stroke-width: 1.07; stroke-linecap: butt; stroke-linejoin: miter; fill: #B5B5B5;' />
<rect x='256.79' y='277.00' width='6.52' height='20.57' style='stroke-width: 1.07; stroke-linecap: butt; stroke-linejoin: miter; fill: #B5B5B5;' />
<rect x='263.31' y='277.00' width='6.52' height='20.57' style='stroke-width: 1.07; stroke-linecap: butt; stroke-linejoin: miter; fill: #B5B5B5;' />
<rect x='269.84' y='279.42' width='6.52' height='18.15' style='stroke-width: 1.07; stroke-linecap: butt; stroke-linejoin: miter; fill: #B5B5B5;' />
<rect x='276.36' y='272.16' width='6.52' height='25.41' style='stroke-width: 1.07; stroke-linecap: butt; stroke-linejoin: miter; fill: #B5B5B5;' />
<rect x='282.88' y='243.12' width='6.52' height='54.46' style='stroke-width: 1.07; stroke-linecap: butt; stroke-linejoin: miter; fill: #B5B5B5;' />
<rect x='289.41' y='251.59' width='6.52' height='45.99' style='stroke-width: 1.07; stroke-linecap: butt; stroke-linejoin: miter; fill: #B5B5B5;' />
<rect x='295.93' y='199.55' width='6.52' height='98.02' style='stroke-width: 1.07; stroke-linecap: butt; stroke-linejoin: miter; fill: #B5B5B5;' />
<rect x='302.46' y='228.60' width='6.52' height='68.98' style='stroke-width: 1.07; stroke-linecap: butt; stroke-linejoin: miter; fill: #B5B5B5;' />
<rect x='308.98' y='160.83' width='6.52' height='136.75' style='stroke-width: 1.07; stroke-linecap: butt; stroke-linejoin: miter; fill: #B5B5B5;' />
<rect x='315.51' y='134.20' width='6.52' height='163.37' style='stroke-width: 1.07; stroke-linecap: butt; stroke-linejoin: miter; fill: #B5B5B5;' />
<rect x='322.03' y='134.20' width='6.52' height='163.37' style='stroke-width: 1.07; stroke-linecap: butt; stroke-linejoin: miter; fill: #B5B5B5;' />
<rect x='328.56' y='172.93' width='6.52' height='124.64' style='stroke-width: 1.07; stroke-linecap: butt; stroke-linejoin: miter; fill: #B5B5B5;' />
<rect x='335.08' y='142.68' width='6.52' height='154.90' style='stroke-width: 1.07; stroke-linecap: butt; stroke-linejoin: miter; fill: #B5B5B5;' />
<rect x='341.61' y='140.26' width='6.52' height='157.32' style='stroke-width: 1.07; stroke-linecap: butt; stroke-linejoin: miter; fill: #B5B5B5;' />
<rect x='348.13' y='25.29' width='6.52' height='272.28' style='stroke-width: 1.07; stroke-linecap: butt; stroke-linejoin: miter; fill: #B5B5B5;' />
<rect x='354.65' y='118.47' width='6.52' height='179.10' style='stroke-width: 1.07; stroke-linecap: butt; stroke-linejoin: miter; fill: #B5B5B5;' />
<rect x='361.18' y='113.63' width='6.52' height='183.94' style='stroke-width: 1.07; stroke-linecap: butt; stroke-linejoin: miter; fill: #B5B5B5;' />
<rect x='367.70' y='137.84' width='6.52' height='159.74' style='stroke-width: 1.07; stroke-linecap: butt; stroke-linejoin: miter; fill: #B5B5B5;' />
<rect x='374.23' y='124.52' width='6.52' height='173.05' style='stroke-width: 1.07; stroke-linecap: butt; stroke-linejoin: miter; fill: #B5B5B5;' />
<rect x='380.75' y='80.96' width='6.52' height='216.61' style='stroke-width: 1.07; stroke-linecap: butt; stroke-linejoin: miter; fill: #B5B5B5;' />
<rect x='387.28' y='51.92' width='6.52' height='245.66' style='stroke-width: 1.07; stroke-linecap: butt; stroke-linejoin: miter; fill: #B5B5B5;' />
<rect x='393.80' y='182.61' width='6.52' height='114.96' style='stroke-width: 1.07; stroke-linecap: butt; stroke-linejoin: miter; fill: #B5B5B5;' />
<rect x='400.33' y='231.02' width='6.52' height='66.56' style='stroke-width: 1.07; stroke-linecap: butt; stroke-linejoin: miter; fill: #B5B5B5;' />
<rect x='406.85' y='261.27' width='6.52' height='36.30' style='stroke-width: 1.07; stroke-linecap: butt; stroke-linejoin: miter; fill: #B5B5B5;' />
<rect x='413.38' y='262.48' width='6.52' height='35.09' style='stroke-width: 1.07; stroke-linecap: butt; stroke-linejoin: miter; fill: #B5B5B5;' />
<rect x='419.90' y='292.73' width='6.52' height='4.84' style='stroke-width: 1.07; stroke-linecap: butt; stroke-linejoin: miter; fill: #B5B5B5;' />
<rect x='426.42' y='293.94' width='6.52' height='3.63' style='stroke-width: 1.07; stroke-linecap: butt; stroke-linejoin: miter; fill: #B5B5B5;' />
<rect x='432.95' y='297.57' width='6.52' height='0.00' style='stroke-width: 1.07; stroke-linecap: butt; stroke-linejoin: miter; fill: #B5B5B5;' />
<rect x='439.47' y='297.57' width='6.52' height='0.00' style='stroke-width: 1.07; stroke-linecap: butt; stroke-linejoin: miter; fill: #B5B5B5;' />
<rect x='446.00' y='297.57' width='6.52' height='0.00' style='stroke-width: 1.07; stroke-linecap: butt; stroke-linejoin: miter; fill: #B5B5B5;' />
<rect x='452.52' y='297.57' width='6.52' height='0.00' style='stroke-width: 1.07; stroke-linecap: butt; stroke-linejoin: miter; fill: #B5B5B5;' />
<rect x='459.05' y='297.57' width='6.52' height='0.00' style='stroke-width: 1.07; stroke-linecap: butt; stroke-linejoin: miter; fill: #B5B5B5;' />
<rect x='465.57' y='297.57' width='6.52' height='0.00' style='stroke-width: 1.07; stroke-linecap: butt; stroke-linejoin: miter; fill: #B5B5B5;' />
<rect x='472.10' y='296.36' width='6.52' height='1.21' style='stroke-width: 1.07; stroke-linecap: butt; stroke-linejoin: miter; fill: #B5B5B5;' />
<polygon points='81.51,293.59 82.29,293.33 83.06,293.06 83.84,292.77 84.61,292.48 85.39,292.17 86.16,291.84 86.94,291.51 87.71,291.17 88.49,290.81 89.26,290.43 90.04,290.05 90.81,289.66 91.59,289.25 92.36,288.83 93.14,288.39 93.91,287.95 94.69,287.49 95.46,287.02 96.24,286.54 97.01,286.04 97.79,285.54 98.56,285.02 99.34,284.50 100.11,283.96 100.89,283.41 101.66,282.85 102.44,282.29 103.21,281.71 103.99,281.13 104.76,280.53 105.54,279.93 106.31,279.32 107.09,278.71 107.86,278.08 108.64,277.45 109.41,276.82 110.19,276.18 110.96,275.53 111.74,274.88 112.51,274.22 113.29,273.56 114.06,272.89 114.84,272.21 115.61,271.53 116.39,270.85 117.16,270.15 117.94,269.45 118.71,268.74 119.49,268.02 120.26,267.29 121.04,266.55 121.81,265.79 122.59,265.02 123.36,264.23 124.14,263.43 124.91,262.60 125.69,261.75 126.46,260.88 127.24,259.99 128.01,259.06 128.79,258.10 129.56,257.12 130.34,256.10 131.11,255.05 131.89,253.95 132.66,252.83 133.44,251.67 134.21,250.45 134.99,249.20 135.76,247.91 136.54,246.58 137.31,245.20 138.09,243.77 138.86,242.31 139.64,240.81 140.41,239.27 141.19,237.68 141.96,236.06 142.74,234.41 143.51,232.73 144.29,231.01 145.06,229.27 145.84,227.51 146.61,225.72 147.39,223.92 148.16,222.11 148.94,220.29 149.71,218.47 150.49,216.65 151.26,214.84 152.04,213.04 152.81,211.25 153.59,209.49 154.36,207.76 155.14,206.06 155.91,204.38 156.69,202.76 157.46,201.19 158.24,199.66 159.01,198.18 159.79,196.77 160.56,195.43 161.34,194.15 162.11,192.94 162.89,191.81 163.66,190.78 164.44,189.82 165.21,188.94 165.99,188.15 166.76,187.47 167.54,186.89 168.31,186.39 169.09,185.98 169.86,185.70 170.64,185.51 171.41,185.42 172.19,185.43 172.96,185.56 173.74,185.79 174.51,186.11 175.29,186.53 176.06,187.06 176.84,187.69 177.61,188.41 178.39,189.21 179.16,190.11 179.94,191.10 180.71,192.16 181.49,193.29 182.26,194.48 183.04,195.76 183.81,197.08 184.59,198.45 185.36,199.86 186.14,201.32 186.91,202.81 187.69,204.31 188.46,205.83 189.24,207.37 190.01,208.90 190.79,210.43 191.56,211.95 192.34,213.45 193.11,214.92 193.89,216.37 194.66,217.78 195.44,219.15 196.21,220.48 196.99,221.76 197.76,222.99 198.54,224.17 199.31,225.29 200.09,226.36 200.86,227.37 201.64,228.34 202.41,229.23 203.19,230.07 203.96,230.87 204.74,231.62 205.51,232.31 206.29,232.96 207.06,233.57 207.84,234.15 208.61,234.69 209.39,235.20 210.16,235.69 210.94,236.16 211.71,236.61 212.49,237.06 213.26,237.50 214.04,237.94 214.81,238.38 215.59,238.83 216.36,239.29 217.14,239.77 217.91,240.26 218.69,240.78 219.46,241.32 220.23,241.88 221.01,242.46 221.78,243.08 222.56,243.73 223.33,244.41 224.11,245.11 224.88,245.85 225.66,246.62 226.43,247.41 227.21,248.23 227.98,249.07 228.76,249.94 229.53,250.83 230.31,251.74 231.08,252.66 231.86,253.61 232.63,254.56 233.41,255.51 234.18,256.48 234.96,257.44 235.73,258.41 236.51,259.37 237.28,260.32 238.06,261.27 238.83,262.19 239.61,263.11 240.38,264.01 241.16,264.88 241.93,265.72 242.71,266.54 243.48,267.34 244.26,268.10 245.03,268.82 245.81,269.51 246.58,270.17 247.36,270.79 248.13,271.36 248.91,271.90 249.68,272.39 250.46,272.84 251.23,273.24 252.01,273.60 252.78,273.92 253.56,274.20 254.33,274.41 255.11,274.59 255.88,274.72 256.66,274.81 257.43,274.85 258.21,274.84 258.98,274.79 259.76,274.69 260.53,274.54 261.31,274.35 262.08,274.11 262.86,273.83 263.63,273.51 264.41,273.13 265.18,272.71 265.96,272.25 266.73,271.75 267.51,271.19 268.28,270.59 269.06,269.96 269.83,269.28 270.61,268.54 271.38,267.77 272.16,266.96 272.93,266.10 273.71,265.20 274.48,264.25 275.26,263.26 276.03,262.23 276.81,261.16 277.58,260.04 278.36,258.88 279.13,257.68 279.91,256.44 280.68,255.15 281.46,253.83 282.23,252.47 283.01,251.07 283.78,249.62 284.56,248.14 285.33,246.63 286.11,245.08 286.88,243.49 287.66,241.87 288.43,240.21 289.21,238.53 289.98,236.81 290.76,235.06 291.53,233.29 292.31,231.49 293.08,229.66 293.86,227.80 294.63,225.93 295.41,224.03 296.18,222.12 296.96,220.19 297.73,218.24 298.51,216.28 299.28,214.30 300.06,212.32 300.83,210.32 301.61,208.32 302.38,206.32 303.16,204.32 303.93,202.31 304.71,200.31 305.48,198.30 306.26,196.31 307.03,194.32 307.81,192.34 308.58,190.37 309.36,188.42 310.13,186.48 310.91,184.56 311.68,182.65 312.46,180.76 313.23,178.89 314.01,177.05 314.78,175.22 315.56,173.42 316.33,171.64 317.11,169.88 317.88,168.15 318.66,166.44 319.43,164.75 320.21,163.09 320.98,161.45 321.76,159.83 322.53,158.24 323.31,156.67 324.08,155.12 324.86,153.59 325.63,152.08 326.41,150.59 327.18,149.12 327.96,147.66 328.73,146.23 329.51,144.81 330.28,143.40 331.06,142.01 331.83,140.64 332.61,139.29 333.38,137.95 334.16,136.62 334.93,135.31 335.71,134.03 336.48,132.76 337.26,131.51 338.03,130.29 338.81,129.09 339.58,127.91 340.36,126.76 341.13,125.64 341.91,124.55 342.68,123.50 343.46,122.47 344.23,121.48 345.01,120.54 345.78,119.64 346.56,118.77 347.33,117.95 348.11,117.18 348.88,116.45 349.66,115.77 350.43,115.13 351.21,114.54 351.98,114.01 352.76,113.53 353.53,113.08 354.31,112.68 355.08,112.34 355.86,112.04 356.63,111.78 357.41,111.56 358.18,111.39 358.96,111.26 359.73,111.17 360.51,111.10 361.28,111.08 362.06,111.10 362.83,111.14 363.61,111.21 364.38,111.32 365.16,111.46 365.93,111.63 366.71,111.82 367.48,112.05 368.26,112.32 369.03,112.61 369.81,112.94 370.58,113.30 371.36,113.71 372.13,114.17 372.91,114.66 373.68,115.20 374.46,115.81 375.23,116.48 376.01,117.20 376.78,117.98 377.56,118.85 378.33,119.79 379.11,120.82 379.88,121.92 380.66,123.12 381.43,124.42 382.21,125.82 382.98,127.30 383.76,128.90 384.53,130.62 385.31,132.45 386.08,134.37 386.86,136.40 387.63,138.57 388.41,140.84 389.18,143.21 389.96,145.68 390.73,148.29 391.51,150.99 392.28,153.78 393.06,156.65 393.83,159.64 394.61,162.70 395.38,165.83 396.16,169.03 396.93,172.30 397.71,175.62 398.48,178.99 399.26,182.39 400.03,185.83 400.81,189.29 401.58,192.76 402.36,196.24 403.13,199.72 403.91,203.18 404.68,206.63 405.46,210.06 406.23,213.46 407.01,216.81 407.78,220.11 408.56,223.37 409.33,226.58 410.11,229.71 410.88,232.78 411.66,235.78 412.43,238.72 413.21,241.56 413.98,244.32 414.76,247.01 415.53,249.63 416.31,252.15 417.08,254.57 417.86,256.91 418.63,259.18 419.41,261.36 420.18,263.43 420.96,265.43 421.73,267.35 422.51,269.19 423.28,270.93 424.06,272.59 424.83,274.18 425.61,275.71 426.38,277.13 427.16,278.49 427.93,279.79 428.71,281.02 429.48,282.17 430.26,283.26 431.03,284.29 431.81,285.27 432.58,286.18 433.36,287.04 434.13,287.84 434.91,288.60 435.68,289.31 436.46,289.97 437.23,290.59 438.01,291.17 438.78,291.71 439.56,292.20 440.33,292.66 441.10,293.09 441.88,293.49 442.65,293.85 443.43,294.19 444.20,294.50 444.98,294.79 445.75,295.05 446.53,295.29 447.30,295.51 448.08,295.72 448.85,295.90 449.63,296.06 450.40,296.21 451.18,296.35 451.95,296.47 452.73,296.58 453.50,296.68 454.28,296.77 455.05,296.85 455.83,296.92 456.60,296.98 457.38,297.04 458.15,297.09 458.93,297.13 459.70,297.16 460.48,297.20 461.25,297.22 462.03,297.25 462.80,297.27 463.58,297.28 464.35,297.30 465.13,297.31 465.90,297.32 466.68,297.33 467.45,297.34 468.23,297.34 469.00,297.34 469.78,297.35 470.55,297.35 471.33,297.35 472.10,297.35 472.88,297.35 473.65,297.36 474.43,297.36 475.20,297.36 475.98,297.36 476.75,297.36 477.53,297.36 477.53,297.57 476.75,297.57 475.98,297.57 475.20,297.57 474.43,297.57 473.65,297.57 472.88,297.57 472.10,297.57 471.33,297.57 470.55,297.57 469.78,297.57 469.00,297.57 468.23,297.57 467.45,297.57 466.68,297.57 465.90,297.57 465.13,297.57 464.35,297.57 463.58,297.57 462.80,297.57 462.03,297.57 461.25,297.57 460.48,297.57 459.70,297.57 458.93,297.57 458.15,297.57 457.38,297.57 456.60,297.57 455.83,297.57 455.05,297.57 454.28,297.57 453.50,297.57 452.73,297.57 451.95,297.57 451.18,297.57 450.40,297.57 449.63,297.57 448.85,297.57 448.08,297.57 447.30,297.57 446.53,297.57 445.75,297.57 444.98,297.57 444.20,297.57 443.43,297.57 442.65,297.57 441.88,297.57 441.10,297.57 440.33,297.57 439.56,297.57 438.78,297.57 438.01,297.57 437.23,297.57 436.46,297.57 435.68,297.57 434.91,297.57 434.13,297.57 433.36,297.57 432.58,297.57 431.81,297.57 431.03,297.57 430.26,297.57 429.48,297.57 428.71,297.57 427.93,297.57 427.16,297.57 426.38,297.57 425.61,297.57 424.83,297.57 424.06,297.57 423.28,297.57 422.51,297.57 421.73,297.57 420.96,297.57 420.18,297.57 419.41,297.57 418.63,297.57 417.86,297.57 417.08,297.57 416.31,297.57 415.53,297.57 414.76,297.57 413.98,297.57 413.21,297.57 412.43,297.57 411.66,297.57 410.88,297.57 410.11,297.57 409.33,297.57 408.56,297.57 407.78,297.57 407.01,297.57 406.23,297.57 405.46,297.57 404.68,297.57 403.91,297.57 403.13,297.57 402.36,297.57 401.58,297.57 400.81,297.57 400.03,297.57 399.26,297.57 398.48,297.57 397.71,297.57 396.93,297.57 396.16,297.57 395.38,297.57 394.61,297.57 393.83,297.57 393.06,297.57 392.28,297.57 391.51,297.57 390.73,297.57 389.96,297.57 389.18,297.57 388.41,297.57 387.63,297.57 386.86,297.57 386.08,297.57 385.31,297.57 384.53,297.57 383.76,297.57 382.98,297.57 382.21,297.57 381.43,297.57 380.66,297.57 379.88,297.57 379.11,297.57 378.33,297.57 377.56,297.57 376.78,297.57 376.01,297.57 375.23,297.57 374.46,297.57 373.68,297.57 372.91,297.57 372.13,297.57 371.36,297.57 370.58,297.57 369.81,297.57 369.03,297.57 368.26,297.57 367.48,297.57 366.71,297.57 365.93,297.57 365.16,297.57 364.38,297.57 363.61,297.57 362.83,297.57 362.06,297.57 361.28,297.57 360.51,297.57 359.73,297.57 358.96,297.57 358.18,297.57 357.41,297.57 356.63,297.57 355.86,297.57 355.08,297.57 354.31,297.57 353.53,297.57 352.76,297.57 351.98,297.57 351.21,297.57 350.43,297.57 349.66,297.57 348.88,297.57 348.11,297.57 347.33,297.57 346.56,297.57 345.78,297.57 345.01,297.57 344.23,297.57 343.46,297.57 342.68,297.57 341.91,297.57 341.13,297.57 340.36,297.57 339.58,297.57 338.81,297.57 338.03,297.57 337.26,297.57 336.48,297.57 335.71,297.57 334.93,297.57 334.16,297.57 333.38,297.57 332.61,297.57 331.83,297.57 331.06,297.57 330.28,297.57 329.51,297.57 328.73,297.57 327.96,297.57 327.18,297.57 326.41,297.57 325.63,297.57 324.86,297.57 324.08,297.57 323.31,297.57 322.53,297.57 321.76,297.57 320.98,297.57 320.21,297.57 319.43,297.57 318.66,297.57 317.88,297.57 317.11,297.57 316.33,297.57 315.56,297.57 314.78,297.57 314.01,297.57 313.23,297.57 312.46,297.57 311.68,297.57 310.91,297.57 310.13,297.57 309.36,297.57 308.58,297.57 307.81,297.57 307.03,297.57 306.26,297.57 305.48,297.57 304.71,297.57 303.93,297.57 303.16,297.57 302.38,297.57 301.61,297.57 300.83,297.57 300.06,297.57 299.28,297.57 298.51,297.57 297.73,297.57 296.96,297.57 296.18,297.57 295.41,297.57 294.63,297.57 293.86,297.57 293.08,297.57 292.31,297.57 291.53,297.57 290.76,297.57 289.98,297.57 289.21,297.57 288.43,297.57 287.66,297.57 286.88,297.57 286.11,297.57 285.33,297.57 284.56,297.57 283.78,297.57 283.01,297.57 282.23,297.57 281.46,297.57 280.68,297.57 279.91,297.57 279.13,297.57 278.36,297.57 277.58,297.57 276.81,297.57 276.03,297.57 275.26,297.57 274.48,297.57 273.71,297.57 272.93,297.57 272.16,297.57 271.38,297.57 270.61,297.57 269.83,297.57 269.06,297.57 268.28,297.57 267.51,297.57 266.73,297.57 265.96,297.57 265.18,297.57 264.41,297.57 263.63,297.57 262.86,297.57 262.08,297.57 261.31,297.57 260.53,297.57 259.76,297.57 258.98,297.57 258.21,297.57 257.43,297.57 256.66,297.57 255.88,297.57 255.11,297.57 254.33,297.57 253.56,297.57 252.78,297.57 252.01,297.57 251.23,297.57 250.46,297.57 249.68,297.57 248.91,297.57 248.13,297.57 247.36,297.57 246.58,297.57 245.81,297.57 245.03,297.57 244.26,297.57 243.48,297.57 242.71,297.57 241.93,297.57 241.16,297.57 240.38,297.57 239.61,297.57 238.83,297.57 238.06,297.57 237.28,297.57 236.51,297.57 235.73,297.57 234.96,297.57 234.18,297.57 233.41,297.57 232.63,297.57 231.86,297.57 231.08,297.57 230.31,297.57 229.53,297.57 228.76,297.57 227.98,297.57 227.21,297.57 226.43,297.57 225.66,297.57 224.88,297.57 224.11,297.57 223.33,297.57 222.56,297.57 221.78,297.57 221.01,297.57 220.23,297.57 219.46,297.57 218.69,297.57 217.91,297.57 217.14,297.57 216.36,297.57 215.59,297.57 214.81,297.57 214.04,297.57 213.26,297.57 212.49,297.57 211.71,297.57 210.94,297.57 210.16,297.57 209.39,297.57 208.61,297.57 207.84,297.57 207.06,297.57 206.29,297.57 205.51,297.57 204.74,297.57 203.96,297.57 203.19,297.57 202.41,297.57 201.64,297.57 200.86,297.57 200.09,297.57 199.31,297.57 198.54,297.57 197.76,297.57 196.99,297.57 196.21,297.57 195.44,297.57 194.66,297.57 193.89,297.57 193.11,297.57 192.34,297.57 191.56,297.57 190.79,297.57 190.01,297.57 189.24,297.57 188.46,297.57 187.69,297.57 186.91,297.57 186.14,297.57 185.36,297.57 184.59,297.57 183.81,297.57 183.04,297.57 182.26,297.57 181.49,297.57 180.71,297.57 179.94,297.57 179.16,297.57 178.39,297.57 177.61,297.57 176.84,297.57 176.06,297.57 175.29,297.57 174.51,297.57 173.74,297.57 172.96,297.57 172.19,297.57 171.41,297.57 170.64,297.57 169.86,297.57 169.09,297.57 168.31,297.57 167.54,297.57 166.76,297.57 165.99,297.57 165.21,297.57 164.44,297.57 163.66,297.57 162.89,297.57 162.11,297.57 161.34,297.57 160.56,297.57 159.79,297.57 159.01,297.57 158.24,297.57 157.46,297.57 156.69,297.57 155.91,297.57 155.14,297.57 154.36,297.57 153.59,297.57 152.81,297.57 152.04,297.57 151.26,297.57 150.49,297.57 149.71,297.57 148.94,297.57 148.16,297.57 147.39,297.57 146.61,297.57 145.84,297.57 145.06,297.57 144.29,297.57 143.51,297.57 142.74,297.57 141.96,297.57 141.19,297.57 140.41,297.57 139.64,297.57 138.86,297.57 138.09,297.57 137.31,297.57 136.54,297.57 135.76,297.57 134.99,297.57 134.21,297.57 133.44,297.57 132.66,297.57 131.89,297.57 131.11,297.57 130.34,297.57 129.56,297.57 128.79,297.57 128.01,297.57 127.24,297.57 126.46,297.57 125.69,297.57 124.91,297.57 124.14,297.57 123.36,297.57 122.59,297.57 121.81,297.57 121.04,297.57 120.26,297.57 119.49,297.57 118.71,297.57 117.94,297.57 117.16,297.57 116.39,297.57 115.61,297.57 114.84,297.57 114.06,297.57 113.29,297.57 112.51,297.57 111.74,297.57 110.96,297.57 110.19,297.57 109.41,297.57 108.64,297.57 107.86,297.57 107.09,297.57 106.31,297.57 105.54,297.57 104.76,297.57 103.99,297.57 103.21,297.57 102.44,297.57 101.66,297.57 100.89,297.57 100.11,297.57 99.34,297.57 98.56,297.57 97.79,297.57 97.01,297.57 96.24,297.57 95.46,297.57 94.69,297.57 93.91,297.57 93.14,297.57 92.36,297.57 91.59,297.57 90.81,297.57 90.04,297.57 89.26,297.57 88.49,297.57 87.71,297.57 86.94,297.57 86.16,297.57 85.39,297.57 84.61,297.57 83.84,297.57 83.06,297.57 82.29,297.57 81.51,297.57 ' style='stroke-width: 0.00; stroke: none; stroke-linecap: butt; fill: #FF9933; fill-opacity: 0.50;' />
<polyline points='81.51,293.59 82.29,293.33 83.06,293.06 83.84,292.77 84.61,292.48 85.39,292.17 86.16,291.84 86.94,291.51 87.71,291.17 88.49,290.81 89.26,290.43 90.04,290.05 90.81,289.66 91.59,289.25 92.36,288.83 93.14,288.39 93.91,287.95 94.69,287.49 95.46,287.02 96.24,286.54 97.01,286.04 97.79,285.54 98.56,285.02 99.34,284.50 100.11,283.96 100.89,283.41 101.66,282.85 102.44,282.29 103.21,281.71 103.99,281.13 104.76,280.53 105.54,279.93 106.31,279.32 107.09,278.71 107.86,278.08 108.64,277.45 109.41,276.82 110.19,276.18 110.96,275.53 111.74,274.88 112.51,274.22 113.29,273.56 114.06,272.89 114.84,272.21 115.61,271.53 116.39,270.85 117.16,270.15 117.94,269.45 118.71,268.74 119.49,268.02 120.26,267.29 121.04,266.55 121.81,265.79 122.59,265.02 123.36,264.23 124.14,263.43 124.91,262.60 125.69,261.75 126.46,260.88 127.24,259.99 128.01,259.06 128.79,258.10 129.56,257.12 130.34,256.10 131.11,255.05 131.89,253.95 132.66,252.83 133.44,251.67 134.21,250.45 134.99,249.20 135.76,247.91 136.54,246.58 137.31,245.20 138.09,243.77 138.86,242.31 139.64,240.81 140.41,239.27 141.19,237.68 141.96,236.06 142.74,234.41 143.51,232.73 144.29,231.01 145.06,229.27 145.84,227.51 146.61,225.72 147.39,223.92 148.16,222.11 148.94,220.29 149.71,218.47 150.49,216.65 151.26,214.84 152.04,213.04 152.81,211.25 153.59,209.49 154.36,207.76 155.14,206.06 155.91,204.38 156.69,202.76 157.46,201.19 158.24,199.66 159.01,198.18 159.79,196.77 160.56,195.43 161.34,194.15 162.11,192.94 162.89,191.81 163.66,190.78 164.44,189.82 165.21,188.94 165.99,188.15 166.76,187.47 167.54,186.89 168.31,186.39 169.09,185.98 169.86,185.70 170.64,185.51 171.41,185.42 172.19,185.43 172.96,185.56 173.74,185.79 174.51,186.11 175.29,186.53 176.06,187.06 176.84,187.69 177.61,188.41 178.39,189.21 179.16,190.11 179.94,191.10 180.71,192.16 181.49,193.29 182.26,194.48 183.04,195.76 183.81,197.08 184.59,198.45 185.36,199.86 186.14,201.32 186.91,202.81 187.69,204.31 188.46,205.83 189.24,207.37 190.01,208.90 190.79,210.43 191.56,211.95 192.34,213.45 193.11,214.92 193.89,216.37 194.66,217.78 195.44,219.15 196.21,220.48 196.99,221.76 197.76,222.99 198.54,224.17 199.31,225.29 200.09,226.36 200.86,227.37 201.64,228.34 202.41,229.23 203.19,230.07 203.96,230.87 204.74,231.62 205.51,232.31 206.29,232.96 207.06,233.57 207.84,234.15 208.61,234.69 209.39,235.20 210.16,235.69 210.94,236.16 211.71,236.61 212.49,237.06 213.26,237.50 214.04,237.94 214.81,238.38 215.59,238.83 216.36,239.29 217.14,239.77 217.91,240.26 218.69,240.78 219.46,241.32 220.23,241.88 221.01,242.46 221.78,243.08 222.56,243.73 223.33,244.41 224.11,245.11 224.88,245.85 225.66,246.62 226.43,247.41 227.21,248.23 227.98,249.07 228.76,249.94 229.53,250.83 230.31,251.74 231.08,252.66 231.86,253.61 232.63,254.56 233.41,255.51 234.18,256.48 234.96,257.44 235.73,258.41 236.51,259.37 237.28,260.32 238.06,261.27 238.83,262.19 239.61,263.11 240.38,264.01 241.16,264.88 241.93,265.72 242.71,266.54 243.48,267.34 244.26,268.10 245.03,268.82 245.81,269.51 246.58,270.17 247.36,270.79 248.13,271.36 248.91,271.90 249.68,272.39 250.46,272.84 251.23,273.24 252.01,273.60 252.78,273.92 253.56,274.20 254.33,274.41 255.11,274.59 255.88,274.72 256.66,274.81 257.43,274.85 258.21,274.84 258.98,274.79 259.76,274.69 260.53,274.54 261.31,274.35 262.08,274.11 262.86,273.83 263.63,273.51 264.41,273.13 265.18,272.71 265.96,272.25 266.73,271.75 267.51,271.19 268.28,270.59 269.06,269.96 269.83,269.28 270.61,268.54 271.38,267.77 272.16,266.96 272.93,266.10 273.71,265.20 274.48,264.25 275.26,263.26 276.03,262.23 276.81,261.16 277.58,260.04 278.36,258.88 279.13,257.68 279.91,256.44 280.68,255.15 281.46,253.83 282.23,252.47 283.01,251.07 283.78,249.62 284.56,248.14 285.33,246.63 286.11,245.08 286.88,243.49 287.66,241.87 288.43,240.21 289.21,238.53 289.98,236.81 290.76,235.06 291.53,233.29 292.31,231.49 293.08,229.66 293.86,227.80 294.63,225.93 295.41,224.03 296.18,222.12 296.96,220.19 297.73,218.24 298.51,216.28 299.28,214.30 300.06,212.32 300.83,210.32 301.61,208.32 302.38,206.32 303.16,204.32 303.93,202.31 304.71,200.31 305.48,198.30 306.26,196.31 307.03,194.32 307.81,192.34 308.58,190.37 309.36,188.42 310.13,186.48 310.91,184.56 311.68,182.65 312.46,180.76 313.23,178.89 314.01,177.05 314.78,175.22 315.56,173.42 316.33,171.64 317.11,169.88 317.88,168.15 318.66,166.44 319.43,164.75 320.21,163.09 320.98,161.45 321.76,159.83 322.53,158.24 323.31,156.67 324.08,155.12 324.86,153.59 325.63,152.08 326.41,150.59 327.18,149.12 327.96,147.66 328.73,146.23 329.51,144.81 330.28,143.40 331.06,142.01 331.83,140.64 332.61,139.29 333.38,137.95 334.16,136.62 334.93,135.31 335.71,134.03 336.48,132.76 337.26,131.51 338.03,130.29 338.81,129.09 339.58,127.91 340.36,126.76 341.13,125.64 341.91,124.55 342.68,123.50 343.46,122.47 344.23,121.48 345.01,120.54 345.78,119.64 346.56,118.77 347.33,117.95 348.11,117.18 348.88,116.45 349.66,115.77 350.43,115.13 351.21,114.54 351.98,114.01 352.76,113.53 353.53,113.08 354.31,112.68 355.08,112.34 355.86,112.04 356.63,111.78 357.41,111.56 358.18,111.39 358.96,111.26 359.73,111.17 360.51,111.10 361.28,111.08 362.06,111.10 362.83,111.14 363.61,111.21 364.38,111.32 365.16,111.46 365.93,111.63 366.71,111.82 367.48,112.05 368.26,112.32 369.03,112.61 369.81,112.94 370.58,113.30 371.36,113.71 372.13,114.17 372.91,114.66 373.68,115.20 374.46,115.81 375.23,116.48 376.01,117.20 376.78,117.98 377.56,118.85 378.33,119.79 379.11,120.82 379.88,121.92 380.66,123.12 381.43,124.42 382.21,125.82 382.98,127.30 383.76,128.90 384.53,130.62 385.31,132.45 386.08,134.37 386.86,136.40 387.63,138.57 388.41,140.84 389.18,143.21 389.96,145.68 390.73,148.29 391.51,150.99 392.28,153.78 393.06,156.65 393.83,159.64 394.61,162.70 395.38,165.83 396.16,169.03 396.93,172.30 397.71,175.62 398.48,178.99 399.26,182.39 400.03,185.83 400.81,189.29 401.58,192.76 402.36,196.24 403.13,199.72 403.91,203.18 404.68,206.63 405.46,210.06 406.23,213.46 407.01,216.81 407.78,220.11 408.56,223.37 409.33,226.58 410.11,229.71 410.88,232.78 411.66,235.78 412.43,238.72 413.21,241.56 413.98,244.32 414.76,247.01 415.53,249.63 416.31,252.15 417.08,254.57 417.86,256.91 418.63,259.18 419.41,261.36 420.18,263.43 420.96,265.43 421.73,267.35 422.51,269.19 423.28,270.93 424.06,272.59 424.83,274.18 425.61,275.71 426.38,277.13 427.16,278.49 427.93,279.79 428.71,281.02 429.48,282.17 430.26,283.26 431.03,284.29 431.81,285.27 432.58,286.18 433.36,287.04 434.13,287.84 434.91,288.60 435.68,289.31 436.46,289.97 437.23,290.59 438.01,291.17 438.78,291.71 439.56,292.20 440.33,292.66 441.10,293.09 441.88,293.49 442.65,293.85 443.43,294.19 444.20,294.50 444.98,294.79 445.75,295.05 446.53,295.29 447.30,295.51 448.08,295.72 448.85,295.90 449.63,296.06 450.40,296.21 451.18,296.35 451.95,296.47 452.73,296.58 453.50,296.68 454.28,296.77 455.05,296.85 455.83,296.92 456.60,296.98 457.38,297.04 458.15,297.09 458.93,297.13 459.70,297.16 460.48,297.20 461.25,297.22 462.03,297.25 462.80,297.27 463.58,297.28 464.35,297.30 465.13,297.31 465.90,297.32 466.68,297.33 467.45,297.34 468.23,297.34 469.00,297.34 469.78,297.35 470.55,297.35 471.33,297.35 472.10,297.35 472.88,297.35 473.65,297.36 474.43,297.36 475.20,297.36 475.98,297.36 476.75,297.36 477.53,297.36 ' style='stroke-width: 1.07; stroke-linecap: butt;' />
<line x1='247.00' y1='311.19' x2='247.00' y2='11.68' style='stroke-width: 1.07; stroke-dasharray: 5.69,5.69; stroke-linecap: butt;' />
</g>
<g clip-path='url(#cpMC4wMHw1MDQuMDB8MC4wMHwzNjAuMDA=)'>
<text x='55.79' y='304.03' text-anchor='end' style='font-size: 18.00px;fill: #4D4D4D; font-family: "Arial";' textLength='25.02px' lengthAdjust='spacingAndGlyphs'>0.0</text>
<text x='55.79' y='215.74' text-anchor='end' style='font-size: 18.00px;fill: #4D4D4D; font-family: "Arial";' textLength='25.02px' lengthAdjust='spacingAndGlyphs'>0.4</text>
<text x='55.79' y='127.45' text-anchor='end' style='font-size: 18.00px;fill: #4D4D4D; font-family: "Arial";' textLength='25.02px' lengthAdjust='spacingAndGlyphs'>0.8</text>
<text x='55.79' y='39.15' text-anchor='end' style='font-size: 18.00px;fill: #4D4D4D; font-family: "Arial";' textLength='25.02px' lengthAdjust='spacingAndGlyphs'>1.2</text>
<text x='83.89' y='329.03' text-anchor='middle' style='font-size: 18.00px;fill: #4D4D4D; font-family: "Arial";' textLength='10.01px' lengthAdjust='spacingAndGlyphs'>3</text>
<text x='214.38' y='329.03' text-anchor='middle' style='font-size: 18.00px;fill: #4D4D4D; font-family: "Arial";' textLength='10.01px' lengthAdjust='spacingAndGlyphs'>4</text>
<text x='344.87' y='329.03' text-anchor='middle' style='font-size: 18.00px;fill: #4D4D4D; font-family: "Arial";' textLength='10.01px' lengthAdjust='spacingAndGlyphs'>5</text>
<text x='475.36' y='329.03' text-anchor='middle' style='font-size: 18.00px;fill: #4D4D4D; font-family: "Arial";' textLength='10.01px' lengthAdjust='spacingAndGlyphs'>6</text>
<text x='279.62' y='350.12' text-anchor='middle' style='font-size: 20.00px; font-weight: bold; font-family: "Arial";' textLength='108.87px' lengthAdjust='spacingAndGlyphs'>log (length)</text>
<text transform='translate(22.75,161.43) rotate(-90)' text-anchor='middle' style='font-size: 24.00px; font-weight: bold; font-family: "Arial";' textLength='86.70px' lengthAdjust='spacingAndGlyphs'>Density</text>
<text x='279.62' y='6.20' text-anchor='middle' style='font-size: 0.00px; font-weight: bold; font-family: "Arial";' textLength='13.47px' lengthAdjust='spacingAndGlyphs'>Plasmids length distribution</text>
</g>
</svg>
