GCF_015999605.1,plasmid_AB173,1
GCF_015999605.1,plasmid_AH273,0
GCF_015999605.1,plasmid_AD910,2
GCF_015999605.1,plasmid_AE672,0
GCF_015999605.1,plasmid_AC731,16
GCF_015999605.1,plasmid_AA892,0
GCF_016406505.1,plasmid_AB369,2
GCF_016406505.1,plasmid_AA769,1
GCF_016406505.1,plasmid_AB756,1
GCF_016406505.1,plasmid_AA893,0
GCF_016406505.1,plasmid_AD100,3
GCF_016406505.1,plasmid_AH273,0
GCF_016406505.1,plasmid_AC731,14
GCF_016406505.1,plasmid_AB760,0
GCF_016406505.1,plasmid_AB615,0
GCF_016406505.1,plasmid_AA892,1
GCF_028335625.1,plasmid_AD055,0
GCF_028335625.1,plasmid_AB756,0
GCF_028335625.1,plasmid_AB173,6
GCF_028335625.1,plasmid_AD906,2
GCF_028335625.1,plasmid_AD582,1
GCF_028335625.1,plasmid_AC731,1
GCF_028335625.1,plasmid_AD907,0
GCF_016406485.1,plasmid_AB369,2
GCF_016406485.1,plasmid_AB756,0
GCF_016406485.1,plasmid_AB173,2
GCF_016406485.1,plasmid_AH273,0
GCF_016406485.1,plasmid_AC630,0
GCF_016406485.1,plasmid_AC732,18
GCF_016406485.1,plasmid_AA890,0
GCF_016406485.1,plasmid_AC670,0
GCF_016406485.1,plasmid_AB117,1
GCF_016406485.1,plasmid_AA891,1
GCF_017584065.1,plasmid_AA893,0
GCF_017584065.1,plasmid_AE577,0
GCF_017584065.1,plasmid_AH273,0
GCF_017584065.1,plasmid_AC731,10
GCF_017584065.1,plasmid_AH188,0
GCF_017584065.1,plasmid_AA894,1
GCF_017584065.1,plasmid_AB918,1
GCF_017584065.1,plasmid_AB615,0
GCF_021398505.1,plasmid_AB756,3
GCF_021398505.1,plasmid_AD100,0
GCF_021398505.1,plasmid_AD910,0
GCF_016406585.1,plasmid_AB173,1
GCF_016406585.1,plasmid_AH273,0
GCF_016406585.1,plasmid_AD910,3
GCF_016406585.1,plasmid_AE672,0
GCF_016406585.1,plasmid_AC731,16
GCF_019977495.1,plasmid_AB756,1
GCF_019977495.1,plasmid_AE577,0
GCF_019977495.1,plasmid_AH273,0
GCF_019977495.1,plasmid_novel_85b037556cfb6b6c298663e9f795dca8,6
GCF_019977495.1,plasmid_AD910,3
GCF_019977495.1,plasmid_AE672,0
GCF_019977495.1,plasmid_AC731,3
GCF_019977495.1,plasmid_AA890,0
GCF_019977495.1,plasmid_AB117,0
GCF_019977495.1,plasmid_AA894,1
GCF_019977495.1,plasmid_AB613,0
GCF_907165365.1,plasmid_AB369,1
GCF_907165365.1,plasmid_AA893,0
GCF_907165365.1,plasmid_AC733,6
GCF_907165365.1,plasmid_AE577,1
GCF_907165365.1,plasmid_AB171,2
GCF_907165365.1,plasmid_AB922,1
GCF_907165365.1,plasmid_novel_fbc8e2d47435c6d1a1e4a19665b8c8ad,4
GCF_907165365.1,plasmid_AE672,0
GCF_907165365.1,plasmid_AB117,0
GCF_016406345.1,plasmid_AA893,0
GCF_016406345.1,plasmid_AB173,1
GCF_016406345.1,plasmid_AH273,0
GCF_016406345.1,plasmid_AD910,3
GCF_016406345.1,plasmid_AE672,0
GCF_016406345.1,plasmid_AC731,15
GCF_016406345.1,plasmid_AA892,0
GCF_022647945.1,plasmid_AB369,2
GCF_022647945.1,plasmid_AB756,1
GCF_022647945.1,plasmid_AB173,1
GCF_022647945.1,plasmid_AD100,1
GCF_022647945.1,plasmid_AH273,0
GCF_022647945.1,plasmid_AC731,14
GCF_016406425.1,plasmid_AB173,1
GCF_016406425.1,plasmid_AH273,0
GCF_016406425.1,plasmid_AD910,3
GCF_016406425.1,plasmid_AE672,0
GCF_016406425.1,plasmid_AC731,12
GCF_016406425.1,plasmid_AA892,0
GCF_016415405.1,plasmid_AB369,5
GCF_016415405.1,plasmid_AC534,0
GCF_016415405.1,plasmid_AD100,1
GCF_016415405.1,plasmid_AH273,0
GCF_016415405.1,plasmid_AD910,8
GCF_016415405.1,plasmid_AB977,1
GCF_023375405.1,plasmid_AB756,2
GCF_023375405.1,plasmid_AC728,3
GCF_023375405.1,plasmid_AB173,1
GCF_023375405.1,plasmid_AD268,0
GCF_023375405.1,plasmid_AA894,1
GCF_020162155.1,plasmid_novel_d34db322af935432a71ea2ced652fbfb,2
GCF_020162155.1,plasmid_AB756,0
GCF_020162155.1,plasmid_AE577,0
GCF_020162155.1,plasmid_AH273,0
GCF_020162155.1,plasmid_AB171,1
GCF_020162155.1,plasmid_AC732,12
GCF_020162155.1,plasmid_AB614,0
GCF_016406545.1,plasmid_AB173,1
GCF_016406545.1,plasmid_AH273,0
GCF_016406545.1,plasmid_AD910,3
GCF_016406545.1,plasmid_AE672,0
GCF_016406545.1,plasmid_AC731,16
GCF_028335205.1,plasmid_AB756,1
GCF_028335205.1,plasmid_AC729,3
GCF_028335205.1,plasmid_AE672,0
GCF_028335205.1,plasmid_AA894,2
GCF_028335205.1,plasmid_AD907,0
GCF_022648125.1,plasmid_AB369,2
GCF_022648125.1,plasmid_AB756,1
GCF_022648125.1,plasmid_AB173,1
GCF_022648125.1,plasmid_AD100,1
GCF_022648125.1,plasmid_AH273,0
GCF_022648125.1,plasmid_AC731,14
GCF_019175425.1,plasmid_AB756,3
GCF_019175425.1,plasmid_AC726,2
GCF_019175425.1,plasmid_AD907,0
GCF_016406365.1,plasmid_AB173,1
GCF_016406365.1,plasmid_AH273,0
GCF_016406365.1,plasmid_AD910,2
GCF_016406365.1,plasmid_AE672,0
GCF_016406365.1,plasmid_AC731,16
GCF_016415485.1,plasmid_AB756,1
GCF_016415485.1,plasmid_AD906,4
GCF_016415485.1,plasmid_AC729,0
GCF_016415485.1,plasmid_AH273,0
GCF_016415485.1,plasmid_AD910,7
GCF_016415485.1,plasmid_AC537,0
GCF_016415485.1,plasmid_AC731,4
GCF_016415485.1,plasmid_AH188,0
GCF_016415485.1,plasmid_AA892,0
GCF_016415485.1,plasmid_AA891,0
GCF_019175525.1,plasmid_AD055,0
GCF_019175525.1,plasmid_AD906,3
GCF_023375205.1,plasmid_AB756,2
GCF_023375205.1,plasmid_AC730,4
GCF_023375205.1,plasmid_AD907,0
GCF_023375445.1,plasmid_AB756,3
GCF_023375445.1,plasmid_AA894,1
GCF_019175465.1,plasmid_AB756,2
GCF_019175465.1,plasmid_AC727,3
GCF_019175465.1,plasmid_AA894,1
GCF_023299725.1,plasmid_AB756,1
GCF_023299725.1,plasmid_AD100,2
GCF_023299725.1,plasmid_novel_e40e1755baf660ee418a0d19202ff993,1
GCF_023299725.1,plasmid_AD268,0
GCF_023299725.1,plasmid_AA894,2
GCF_023299725.1,plasmid_AD907,0
GCF_023299325.1,plasmid_AB756,2
GCF_023299325.1,plasmid_AB920,4
GCF_023299325.1,plasmid_AC345,0
GCF_023299325.1,plasmid_AD908,1
GCF_023299325.1,plasmid_AB918,0
GCF_023299325.1,plasmid_AC726,4
GCF_023299325.1,plasmid_AD907,0
GCF_016415325.1,plasmid_AB173,1
GCF_016415325.1,plasmid_AB616,0
GCF_016415325.1,plasmid_AH273,0
GCF_016415325.1,plasmid_AD910,2
GCF_016415325.1,plasmid_AC537,0
GCF_016415325.1,plasmid_AE672,0
GCF_016415325.1,plasmid_AC731,16
GCF_016415325.1,plasmid_AA892,1
GCF_028335225.1,plasmid_AB756,0
GCF_028335225.1,plasmid_novel_e98a902c460b9a7d666e28fdebc783db,0
GCF_028335225.1,plasmid_AA894,1
GCF_028335225.1,plasmid_AC750,0
GCF_028335225.1,plasmid_AD907,0
GCF_019175445.1,plasmid_AC728,5
GCF_016406445.1,plasmid_AB756,2
GCF_016406445.1,plasmid_AA893,0
GCF_016406445.1,plasmid_AE577,0
GCF_016406445.1,plasmid_AD910,7
GCF_016406445.1,plasmid_AC731,7
GCF_016406445.1,plasmid_AC670,0
GCF_016406445.1,plasmid_AD269,0
GCF_028335485.1,plasmid_AB756,1
GCF_028335485.1,plasmid_AC729,3
GCF_028335485.1,plasmid_AA894,1
GCF_028335485.1,plasmid_AC750,0
GCF_028335485.1,plasmid_AD907,0
GCF_019456555.1,plasmid_AD907,0
GCF_023375345.1,plasmid_AB756,1
GCF_023375345.1,plasmid_AC727,4
GCF_023375345.1,plasmid_AA894,1
GCF_023375345.1,plasmid_AD907,0
GCF_028335605.1,plasmid_AB756,0
GCF_028335605.1,plasmid_AB173,1
GCF_028335605.1,plasmid_AD906,5
GCF_028335605.1,plasmid_AD582,3
GCF_028335605.1,plasmid_AC731,1
GCF_028335605.1,plasmid_AD907,0
GCF_028335265.1,plasmid_AB756,0
GCF_028335265.1,plasmid_AC728,5
GCF_028335265.1,plasmid_AD582,1
GCF_028335265.1,plasmid_AC670,0
GCF_028335265.1,plasmid_AD907,0
GCF_016126675.1,plasmid_AC534,0
GCF_016126675.1,plasmid_AB173,0
GCF_016126675.1,plasmid_AB616,0
GCF_016126675.1,plasmid_AH273,0
GCF_016126675.1,plasmid_AD910,11
GCF_016126675.1,plasmid_AC731,5
GCF_016126675.1,plasmid_AH188,0
GCF_016126675.1,plasmid_AD269,0
GCF_016126675.1,plasmid_AA894,0
GCF_022647825.1,plasmid_AB369,3
GCF_022647825.1,plasmid_AB756,1
GCF_022647825.1,plasmid_AD100,1
GCF_022647825.1,plasmid_AH273,0
GCF_022647825.1,plasmid_AC731,14
GCF_016415565.1,plasmid_AB756,3
GCF_016415565.1,plasmid_AA893,0
GCF_016415565.1,plasmid_AB173,0
GCF_016415565.1,plasmid_AH273,0
GCF_016415565.1,plasmid_AC731,11
GCF_016415565.1,plasmid_AC670,0
GCF_016415565.1,plasmid_AA892,0
GCF_028335525.1,plasmid_AB756,1
GCF_028335525.1,plasmid_AC729,0
GCF_028335525.1,plasmid_AE816,0
GCF_028335525.1,plasmid_AD907,1
GCF_023375225.1,plasmid_AB756,2
GCF_023375225.1,plasmid_AA894,0
GCF_907176135.1,plasmid_AA893,0
GCF_907176135.1,plasmid_AB173,6
GCF_907176135.1,plasmid_AE577,1
GCF_907176135.1,plasmid_AB171,3
GCF_907176135.1,plasmid_AE672,0
GCF_907176135.1,plasmid_AB614,1
GCF_907176135.1,plasmid_AC731,4
GCF_907176135.1,plasmid_AD909,0
GCF_023375425.1,plasmid_AB756,0
GCF_023375425.1,plasmid_AC726,0
GCF_023375425.1,plasmid_AD907,0
GCF_016406385.1,plasmid_AB756,1
GCF_016406385.1,plasmid_AB173,0
GCF_016406385.1,plasmid_AD100,4
GCF_016406385.1,plasmid_AH273,0
GCF_016406385.1,plasmid_AC731,14
GCF_016406385.1,plasmid_AA891,0
GCF_016415545.1,plasmid_AB756,0
GCF_016415545.1,plasmid_AB173,0
GCF_016415545.1,plasmid_AH273,0
GCF_016415545.1,plasmid_AC731,13
GCF_016415545.1,plasmid_AC670,0
GCF_016415545.1,plasmid_AA892,0
GCF_020162175.1,plasmid_AB756,0
GCF_020162175.1,plasmid_AE577,1
GCF_020162175.1,plasmid_AH273,0
GCF_020162175.1,plasmid_AB171,1
GCF_020162175.1,plasmid_AE672,0
GCF_020162175.1,plasmid_AC732,15
GCF_020162175.1,plasmid_AB614,0
GCF_016415365.1,plasmid_AB173,1
GCF_016415365.1,plasmid_AE577,0
GCF_016415365.1,plasmid_AH273,0
GCF_016415365.1,plasmid_AD910,2
GCF_016415365.1,plasmid_AC537,0
GCF_016415365.1,plasmid_AE672,0
GCF_016415365.1,plasmid_AC731,16
GCF_016415365.1,plasmid_AA892,0
GCF_015325925.1,plasmid_AB756,1
GCF_015325925.1,plasmid_AA893,0
GCF_015325925.1,plasmid_AH273,0
GCF_015325925.1,plasmid_AD910,0
GCF_015325925.1,plasmid_AC732,13
GCF_015325925.1,plasmid_AB918,0
GCF_015999425.1,plasmid_AB756,0
GCF_015999425.1,plasmid_AC733,9
GCF_015999425.1,plasmid_AH273,0
GCF_015999425.1,plasmid_AA890,0
GCF_015999425.1,plasmid_AE673,0
GCF_015999425.1,plasmid_AB615,0
GCF_015999425.1,plasmid_AA891,1
GCF_016406565.1,plasmid_AB173,1
GCF_016406565.1,plasmid_AH273,0
GCF_016406565.1,plasmid_AD910,2
GCF_016406565.1,plasmid_AC537,0
GCF_016406565.1,plasmid_AE672,0
GCF_016406565.1,plasmid_AC731,16
GCF_019456595.1,plasmid_AC726,3
GCF_019456595.1,plasmid_AD907,0
GCF_009938285.1,plasmid_AB369,2
GCF_009938285.1,plasmid_AD906,6
GCF_009938285.1,plasmid_AH273,0
GCF_009938285.1,plasmid_AE672,0
GCF_009938285.1,plasmid_AC731,3
GCF_009938285.1,plasmid_AC670,0
GCF_009938285.1,plasmid_AA892,0
GCF_016415425.1,plasmid_AB173,1
GCF_016415425.1,plasmid_AH273,0
GCF_016415425.1,plasmid_AD910,3
GCF_016415425.1,plasmid_AE672,0
GCF_016415425.1,plasmid_AC731,15
GCF_016415425.1,plasmid_AA892,0
GCF_021228615.1,plasmid_AB756,1
GCF_021228615.1,plasmid_AB173,1
GCF_021228615.1,plasmid_AH273,0
GCF_021228615.1,plasmid_AD910,4
GCF_021228615.1,plasmid_AE672,0
GCF_021228615.1,plasmid_AC731,8
GCF_021228615.1,plasmid_AC670,0
GCF_021228615.1,plasmid_AA894,2
GCF_016406465.1,plasmid_AB369,6
GCF_016406465.1,plasmid_AD906,1
GCF_016406465.1,plasmid_AD100,1
GCF_016406465.1,plasmid_AH273,0
GCF_016406465.1,plasmid_AD910,9
GCF_016406465.1,plasmid_AE672,0
GCF_016406465.1,plasmid_AB977,1
GCF_016406465.1,plasmid_AA890,0
GCF_016406465.1,plasmid_AH188,0
GCF_016406465.1,plasmid_AD274,0
GCF_016406605.1,plasmid_AB756,1
GCF_016406605.1,plasmid_AB173,0
GCF_016406605.1,plasmid_AD100,2
GCF_016406605.1,plasmid_AE577,3
GCF_016406605.1,plasmid_AH273,0
GCF_016406605.1,plasmid_AC731,14
GCF_016406605.1,plasmid_AB760,0
GCF_016406605.1,plasmid_AB615,0
GCF_016406605.1,plasmid_AA892,0
GCF_907176815.1,plasmid_AA893,0
GCF_907176815.1,plasmid_AB173,6
GCF_907176815.1,plasmid_AE577,0
GCF_907176815.1,plasmid_AB171,3
GCF_907176815.1,plasmid_AE672,0
GCF_907176815.1,plasmid_AB614,1
GCF_907176815.1,plasmid_AC731,4
GCF_907176815.1,plasmid_AD909,0
GCF_023299745.1,plasmid_AB756,5
GCF_023299745.1,plasmid_AC729,7
GCF_023299745.1,plasmid_AD907,0
GCF_016415465.1,plasmid_AB173,1
GCF_016415465.1,plasmid_AH273,0
GCF_016415465.1,plasmid_AD910,2
GCF_016415465.1,plasmid_AC537,0
GCF_016415465.1,plasmid_AE672,0
GCF_016415465.1,plasmid_AC731,16
GCF_016415445.1,plasmid_AC534,0
GCF_016415445.1,plasmid_AB173,0
GCF_016415445.1,plasmid_AE577,0
GCF_016415445.1,plasmid_AH273,0
GCF_016415445.1,plasmid_AC537,0
GCF_016415445.1,plasmid_AC731,17
GCF_016415445.1,plasmid_AC670,0
GCF_016415445.1,plasmid_AA892,0
GCF_028335465.1,plasmid_novel_f22703105274c5af8cc0d379229c45ad,0
GCF_028335465.1,plasmid_AB756,1
GCF_028335465.1,plasmid_AA894,1
GCF_028335465.1,plasmid_AC750,0
GCF_028335465.1,plasmid_AD907,8
GCF_016406525.1,plasmid_AB173,3
GCF_016406525.1,plasmid_AD906,2
GCF_016406525.1,plasmid_AH273,0
GCF_016406525.1,plasmid_AD910,13
GCF_016406525.1,plasmid_AC537,0
GCF_016406525.1,plasmid_AE672,0
GCF_016406525.1,plasmid_AC732,1
GCF_016406525.1,plasmid_AA892,1
GCF_023299805.1,plasmid_AD055,0
GCF_023299805.1,plasmid_AB756,0
GCF_023299805.1,plasmid_AB616,0
GCF_023299805.1,plasmid_AC731,3
GCF_023299805.1,plasmid_AE822,0
GCF_023299805.1,plasmid_AB759,0
GCF_023299805.1,plasmid_AA894,1
GCF_023375385.1,plasmid_AB756,0
GCF_023375385.1,plasmid_AC728,7
GCF_023375385.1,plasmid_AC729,1
GCF_023375385.1,plasmid_AD907,0
GCF_016415505.1,plasmid_AB756,1
GCF_016415505.1,plasmid_AA893,0
GCF_016415505.1,plasmid_AB173,1
GCF_016415505.1,plasmid_AD100,2
GCF_016415505.1,plasmid_AH273,0
GCF_016415505.1,plasmid_AC731,15
GCF_016415505.1,plasmid_AB760,0
GCF_016415505.1,plasmid_AB615,0
GCF_016415505.1,plasmid_AA892,0
GCF_028335245.1,plasmid_AB756,1
GCF_028335245.1,plasmid_AC728,6
GCF_028335245.1,plasmid_AD907,0
GCF_016406405.1,plasmid_AB173,1
GCF_016406405.1,plasmid_AH273,0
GCF_016406405.1,plasmid_AD910,2
GCF_016406405.1,plasmid_AC537,0
GCF_016406405.1,plasmid_AE672,0
GCF_016406405.1,plasmid_AB977,0
GCF_016406405.1,plasmid_AC731,18
GCF_016406405.1,plasmid_AH188,0
GCF_016406405.1,plasmid_AA892,0
GCF_019456575.1,plasmid_AC726,3
GCF_019456575.1,plasmid_AD907,0
GCF_907177285.1,plasmid_AB369,2
GCF_907177285.1,plasmid_AA893,0
GCF_907177285.1,plasmid_AB173,5
GCF_907177285.1,plasmid_AE577,1
GCF_907177285.1,plasmid_AB171,3
GCF_907177285.1,plasmid_AE672,0
GCF_907177285.1,plasmid_AB614,0
GCF_907177285.1,plasmid_AC731,4
GCF_907177285.1,plasmid_AD268,1
GCF_907177285.1,plasmid_AD909,0
GCF_028335565.1,plasmid_AB756,0
GCF_028335565.1,plasmid_AB173,1
GCF_028335565.1,plasmid_AD906,5
GCF_028335565.1,plasmid_AD582,3
GCF_028335565.1,plasmid_AC731,1
GCF_028335565.1,plasmid_AD907,0
GCF_019977575.1,plasmid_AB756,1
GCF_019977575.1,plasmid_AD906,6
GCF_019977575.1,plasmid_AE577,0
GCF_019977575.1,plasmid_AH273,0
GCF_019977575.1,plasmid_AD910,4
GCF_019977575.1,plasmid_AE672,0
GCF_019977575.1,plasmid_AC731,4
GCF_019977575.1,plasmid_AA890,0
GCF_019977575.1,plasmid_AB117,0
GCF_019977575.1,plasmid_AA894,1
GCF_019977575.1,plasmid_AB613,0
GCF_028335585.1,plasmid_AB756,9
GCF_028335585.1,plasmid_AB173,1
GCF_028335585.1,plasmid_AB920,1
GCF_028335585.1,plasmid_AH273,0
GCF_028335585.1,plasmid_AB117,1
GCF_028335585.1,plasmid_AD907,0
GCF_016415385.1,plasmid_AB173,1
GCF_016415385.1,plasmid_AE577,0
GCF_016415385.1,plasmid_AH273,0
GCF_016415385.1,plasmid_AD910,2
GCF_016415385.1,plasmid_AC537,0
GCF_016415385.1,plasmid_AE672,0
GCF_016415385.1,plasmid_AC731,16
GCF_016415385.1,plasmid_AA892,0
GCF_023375365.1,plasmid_AB756,0
GCF_023375365.1,plasmid_AC728,3
GCF_026409165.1,plasmid_AB369,2
GCF_026409165.1,plasmid_AB756,2
GCF_026409165.1,plasmid_AH273,0
GCF_026409165.1,plasmid_AE672,0
GCF_026409165.1,plasmid_AC731,12
GCF_026409165.1,plasmid_AC670,0
GCF_026409165.1,plasmid_AD907,0
GCF_015999405.1,plasmid_AB756,0
GCF_015999405.1,plasmid_novel_aca9caf0f856c47b773b550b52d2ca82,0
GCF_015999405.1,plasmid_AE577,0
GCF_015999405.1,plasmid_AD910,9
GCF_015999405.1,plasmid_AC732,6
GCF_015999405.1,plasmid_AD909,0
GCF_015999405.1,plasmid_AA891,0
GCF_015476295.1,plasmid_AB369,1
GCF_015476295.1,plasmid_AA893,0
GCF_015476295.1,plasmid_AB173,1
GCF_015476295.1,plasmid_AE577,0
GCF_015476295.1,plasmid_AC731,10
GCF_015476295.1,plasmid_AA890,0
GCF_015476295.1,plasmid_AD274,0
