GCF_906464875.1_BX8117,plasmid_AD582,NZ_OD940439.1,S24_LN_i_1291_dp_f_1.054021583724877,1291,5732,7022
GCF_906464875.1_BX8117,plasmid_AD582,NZ_OD940437.1,S24_LN_i_1291_dp_f_1.054021583724877,1291,1531498,1532788
GCF_022648285.1_ASM2264828v1,plasmid_AC345,NZ_CP076488.1,S32_LN_i_18034_dp_f_2.1944590124347902,18032,742815,760850
GCF_022648285.1_ASM2264828v1,plasmid_AC345,NZ_CP076488.1,S32_LN_i_18034_dp_f_2.1944590124347902,18033,430617,448651
GCF_022648285.1_ASM2264828v1,plasmid_AC345,NZ_CP076488.1,S76_LN_i_1201_dp_f_8.701867799907793,1201,103807,105007
GCF_022648285.1_ASM2264828v1,plasmid_AC345,NZ_CP076488.1,S76_LN_i_1201_dp_f_8.701867799907793,1201,2835561,2836761
GCF_022648285.1_ASM2264828v1,plasmid_AC345,NZ_CP076488.1,S76_LN_i_1201_dp_f_8.701867799907793,1200,2297446,2298647
GCF_022648285.1_ASM2264828v1,plasmid_AC345,NZ_CP076488.1,S76_LN_i_1201_dp_f_8.701867799907793,1200,1067586,1068787
GCF_022648285.1_ASM2264828v1,plasmid_AC345,NZ_CP076488.1,S76_LN_i_1201_dp_f_8.701867799907793,1200,2845574,2846775
GCF_022648285.1_ASM2264828v1,plasmid_AC345,NZ_CP076488.1,S76_LN_i_1201_dp_f_8.701867799907793,1200,1502466,1503667
GCF_022648285.1_ASM2264828v1,plasmid_AC345,NZ_CP076488.1,S76_LN_i_1201_dp_f_8.701867799907793,1200,1990247,1991446
GCF_022648285.1_ASM2264828v1,plasmid_AC345,NZ_CP076488.1,S76_LN_i_1201_dp_f_8.701867799907793,1201,2613539,2614739
GCF_022648285.1_ASM2264828v1,plasmid_AC345,NZ_CP076488.1,S76_LN_i_1201_dp_f_8.701867799907793,1201,1250256,1251456
GCF_022648285.1_ASM2264828v1,plasmid_AE309,NZ_CP076489.1,S56_LN_i_3945_dp_f_3.616804826417698,3945,35787,39731
GCF_022648285.1_ASM2264828v1,plasmid_AE309,NZ_CP076492.1,S56_LN_i_3945_dp_f_3.616804826417698,3944,29716,33659
GCF_022648285.1_ASM2264828v1,plasmid_AE309,NZ_CP076489.1,S65_LN_i_2034_dp_f_3.3698654109253545,2034,67376,69409
GCF_022648285.1_ASM2264828v1,plasmid_AE309,NZ_CP076489.1,S65_LN_i_2034_dp_f_3.3698654109253545,2034,2292,4325
GCF_022648285.1_ASM2264828v1,plasmid_AB528,NZ_CP076491.1,S62_LN_i_2324_dp_f_2.628063971774861,2324,2720,5043
GCF_022648285.1_ASM2264828v1,plasmid_AB528,NZ_CP076488.1,S62_LN_i_2324_dp_f_2.628063971774861,2324,2867618,2869941
GCF_022648285.1_ASM2264828v1,plasmid_AB528,NZ_CP076491.1,S63_LN_i_2316_dp_f_2.3011160437476676,2316,18985,21300
GCF_022648285.1_ASM2264828v1,plasmid_AB528,NZ_CP076488.1,S63_LN_i_2316_dp_f_2.3011160437476676,2315,2851372,2853688
GCF_022648285.1_ASM2264828v1,plasmid_AB528,NZ_CP076491.1,S70_LN_i_1349_dp_f_2.6033109147276465,1349,7387,8735
GCF_022648285.1_ASM2264828v1,plasmid_AB528,NZ_CP076488.1,S70_LN_i_1349_dp_f_2.6033109147276465,1349,2863926,2865274
GCF_022648285.1_ASM2264828v1,plasmid_AB528,NZ_CP076491.1,S79_LN_i_1063_dp_f_2.6475839350848815,1063,15418,16480
GCF_022648285.1_ASM2264828v1,plasmid_AB528,NZ_CP076488.1,S79_LN_i_1063_dp_f_2.6475839350848815,1063,2856193,2857255
GCF_022648285.1_ASM2264828v1,plasmid_AB528,NZ_CP076488.1,S81_LN_i_1024_dp_f_8.528442125539081,1024,1621329,1622352
GCF_022648285.1_ASM2264828v1,plasmid_AB528,NZ_CP076488.1,S81_LN_i_1024_dp_f_8.528442125539081,1024,1663638,1664661
GCF_022648285.1_ASM2264828v1,plasmid_AB528,NZ_CP076492.1,S81_LN_i_1024_dp_f_8.528442125539081,1024,9821,10844
GCF_022648285.1_ASM2264828v1,plasmid_AB528,NZ_CP076488.1,S81_LN_i_1024_dp_f_8.528442125539081,1024,2135086,2136109
GCF_022648285.1_ASM2264828v1,plasmid_AB528,NZ_CP076488.1,S81_LN_i_1024_dp_f_8.528442125539081,1024,1607522,1608545
GCF_022648285.1_ASM2264828v1,plasmid_AB528,NZ_CP076488.1,S81_LN_i_1024_dp_f_8.528442125539081,1024,1624488,1625511
GCF_022648285.1_ASM2264828v1,plasmid_AB528,NZ_CP076489.1,S81_LN_i_1024_dp_f_8.528442125539081,1024,79853,80876
GCF_906464865.1_WE0438,plasmid_AD582,NZ_OD940421.1,S27_LN_i_3080_dp_f_1.7947348086891957,3080,17947,21026
GCF_906464865.1_WE0438,plasmid_AD582,NZ_OD940420.1,S27_LN_i_3080_dp_f_1.7947348086891957,3080,776630,779709
GCF_020844125.1_ASM2084412v1,plasmid_AB920,NZ_CP063980.1,S13_LN_i_5643_dp_f_1.605790075601862,5643,910822,916464
GCF_020844125.1_ASM2084412v1,plasmid_AB920,NZ_CP063981.1,S13_LN_i_5643_dp_f_1.605790075601862,5643,3640,9282
GCF_020844125.1_ASM2084412v1,plasmid_AB920,NZ_CP063981.1,S18_LN_i_1734_dp_f_1.413616965149895,1734,888,2621
GCF_020844125.1_ASM2084412v1,plasmid_AB920,NZ_CP063980.1,S18_LN_i_1734_dp_f_1.413616965149895,1734,908236,909969
GCF_022648595.1_ASM2264859v1,plasmid_AC345,NZ_CP076498.1,S32_LN_i_18034_dp_f_2.159639681614865,18034,592017,610050
GCF_022648595.1_ASM2264859v1,plasmid_AC345,NZ_CP076498.1,S32_LN_i_18034_dp_f_2.159639681614865,18028,904215,922254
GCF_022648595.1_ASM2264859v1,plasmid_AC345,NZ_CP076498.1,S75_LN_i_1204_dp_f_7.802491456700458,1204,1228987,1230190
GCF_022648595.1_ASM2264859v1,plasmid_AC345,NZ_CP076498.1,S75_LN_i_1204_dp_f_7.802491456700458,1203,2774944,2776148
GCF_022648595.1_ASM2264859v1,plasmid_AC345,NZ_CP076498.1,S75_LN_i_1204_dp_f_7.802491456700458,1203,2996967,2998171
GCF_022648595.1_ASM2264859v1,plasmid_AC345,NZ_CP076498.1,S75_LN_i_1204_dp_f_7.802491456700458,1203,1411656,1412860
GCF_022648595.1_ASM2264859v1,plasmid_AC345,NZ_CP076498.1,S75_LN_i_1204_dp_f_7.802491456700458,1203,265206,266410
GCF_022648595.1_ASM2264859v1,plasmid_AC345,NZ_CP076498.1,S75_LN_i_1204_dp_f_7.802491456700458,1203,2458849,2460053
GCF_022648595.1_ASM2264859v1,plasmid_AC345,NZ_CP076498.1,S75_LN_i_1204_dp_f_7.802491456700458,1203,2151649,2152853
GCF_022648595.1_ASM2264859v1,plasmid_AC345,NZ_CP076498.1,S75_LN_i_1204_dp_f_7.802491456700458,1203,1663866,1665070
GCF_022648595.1_ASM2264859v1,plasmid_AE309,NZ_CP076499.1,S55_LN_i_3945_dp_f_3.511444505906534,3943,38843,42789
GCF_022648595.1_ASM2264859v1,plasmid_AE309,NZ_CP076502.1,S55_LN_i_3945_dp_f_3.511444505906534,3943,29708,33652
GCF_022648595.1_ASM2264859v1,plasmid_AE309,NZ_CP076499.1,S64_LN_i_2034_dp_f_3.39545382181882,2034,9164,11197
GCF_022648595.1_ASM2264859v1,plasmid_AE309,NZ_CP076499.1,S64_LN_i_2034_dp_f_3.39545382181882,2034,74251,76284
GCF_022648595.1_ASM2264859v1,plasmid_AB528,NZ_CP076501.1,S62_LN_i_2316_dp_f_2.2375967644650463,2316,52,2367
GCF_022648595.1_ASM2264859v1,plasmid_AB528,NZ_CP076498.1,S62_LN_i_2316_dp_f_2.2375967644650463,2313,3011448,3013766
GCF_022648595.1_ASM2264859v1,plasmid_AB528,NZ_CP076501.1,S70_LN_i_1349_dp_f_2.4910181215945046,1349,12617,13965
GCF_022648595.1_ASM2264859v1,plasmid_AB528,NZ_CP076498.1,S70_LN_i_1349_dp_f_2.4910181215945046,1349,3024005,3025353
GCF_022648595.1_ASM2264859v1,plasmid_AB528,NZ_CP076501.1,S78_LN_i_1063_dp_f_2.658864995990042,1063,4872,5934
GCF_022648595.1_ASM2264859v1,plasmid_AB528,NZ_CP076498.1,S78_LN_i_1063_dp_f_2.658864995990042,1062,3016271,3017334
GCF_022648595.1_ASM2264859v1,plasmid_AB528,NZ_CP076498.1,S80_LN_i_1024_dp_f_8.432595458148493,1024,2296491,2297514
GCF_022648595.1_ASM2264859v1,plasmid_AB528,NZ_CP076498.1,S80_LN_i_1024_dp_f_8.432595458148493,1024,1768924,1769947
GCF_022648595.1_ASM2264859v1,plasmid_AB528,NZ_CP076498.1,S80_LN_i_1024_dp_f_8.432595458148493,1024,1782731,1783754
GCF_022648595.1_ASM2264859v1,plasmid_AB528,NZ_CP076502.1,S80_LN_i_1024_dp_f_8.432595458148493,1023,18864,19888
GCF_022648595.1_ASM2264859v1,plasmid_AB528,NZ_CP076498.1,S80_LN_i_1024_dp_f_8.432595458148493,1023,1825040,1826064
GCF_022648595.1_ASM2264859v1,plasmid_AB528,NZ_CP076498.1,S80_LN_i_1024_dp_f_8.432595458148493,1024,1785890,1786913
GCF_022648595.1_ASM2264859v1,plasmid_AB528,NZ_CP076499.1,S80_LN_i_1024_dp_f_8.432595458148493,1023,117419,118443
GCF_013344605.1_ASM1334460v1,plasmid_AB530,NZ_CP046110.1,S25_LN_i_5882_dp_f_6.062133387442284,5882,24329,30210
GCF_013344605.1_ASM1334460v1,plasmid_AB530,NZ_CP046108.1,S25_LN_i_5882_dp_f_6.062133387442284,5882,2652744,2658625
GCF_013344605.1_ASM1334460v1,plasmid_AB530,NZ_CP046109.1,S25_LN_i_5882_dp_f_6.062133387442284,5882,62379,68260
GCF_013344605.1_ASM1334460v1,plasmid_AB530,NZ_CP046109.1,S28_LN_i_2251_dp_f_7.244211154449122,2251,70714,72964
GCF_013344605.1_ASM1334460v1,plasmid_AB530,NZ_CP046110.1,S28_LN_i_2251_dp_f_7.244211154449122,2251,49371,51621
GCF_906464925.1_BX5936,plasmid_AE311,NZ_OD940434.1,S37_LN_i_1276_dp_f_8.50220448568089,1276,2196509,2197784
GCF_906464925.1_BX5936,plasmid_AE311,NZ_OD940434.1,S37_LN_i_1276_dp_f_8.50220448568089,1276,450684,451959
GCF_906464925.1_BX5936,plasmid_AE311,NZ_OD940434.1,S37_LN_i_1276_dp_f_8.50220448568089,1276,1207521,1208796
GCF_906464925.1_BX5936,plasmid_AE311,NZ_OD940434.1,S37_LN_i_1276_dp_f_8.50220448568089,1276,1043149,1044424
GCF_906464925.1_BX5936,plasmid_AE311,NZ_OD940434.1,S37_LN_i_1276_dp_f_8.50220448568089,1276,1260431,1261706
GCF_906464925.1_BX5936,plasmid_AE311,NZ_OD940435.1,S37_LN_i_1276_dp_f_8.50220448568089,1275,1266,2542
GCF_906464835.1_TM6294,plasmid_AD582,NZ_OD940431.1,S25_LN_i_2361_dp_f_2.18766747722859,2361,401052,403412
GCF_906464835.1_TM6294,plasmid_AD582,NZ_OD940433.1,S25_LN_i_2361_dp_f_2.18766747722859,2361,27517,29877
GCF_906464835.1_TM6294,plasmid_AD582,NZ_OD940432.1,S30_LN_i_1181_dp_f_2.9519484000901004,1181,48462,49642
GCF_906464835.1_TM6294,plasmid_AD582,NZ_OD940432.1,S30_LN_i_1181_dp_f_2.9519484000901004,1181,72135,73315
GCF_906464835.1_TM6294,plasmid_AD582,NZ_OD940432.1,S30_LN_i_1181_dp_f_2.9519484000901004,1181,64899,66079
GCF_906464835.1_TM6294,plasmid_AE311,NZ_OD940431.1,S17_LN_i_9002_dp_f_2.910551248060695,9002,388197,397198
GCF_906464835.1_TM6294,plasmid_AE311,NZ_OD940433.1,S17_LN_i_9002_dp_f_2.910551248060695,8984,14675,23658
GCF_906464835.1_TM6294,plasmid_AE311,NZ_OD940433.1,S24_LN_i_2926_dp_f_2.5970279726326457,2926,24210,27135
GCF_906464835.1_TM6294,plasmid_AE311,NZ_OD940431.1,S24_LN_i_2926_dp_f_2.5970279726326457,2926,397745,400670
GCF_022648425.1_ASM2264842v1,plasmid_AC345,NZ_CP076493.1,S32_LN_i_18034_dp_f_2.148153714774959,18017,294165,312215
GCF_022648425.1_ASM2264842v1,plasmid_AC345,NZ_CP076493.1,S32_LN_i_18034_dp_f_2.148153714774959,17926,3012497,3030422
GCF_022648425.1_ASM2264842v1,plasmid_AC345,NZ_CP076493.1,S75_LN_i_1204_dp_f_7.938025785519129,1204,2685686,2686889
GCF_022648425.1_ASM2264842v1,plasmid_AC345,NZ_CP076493.1,S75_LN_i_1204_dp_f_7.938025785519129,1204,1541614,1542817
GCF_022648425.1_ASM2264842v1,plasmid_AC345,NZ_CP076493.1,S75_LN_i_1204_dp_f_7.938025785519129,1204,1053832,1055035
GCF_022648425.1_ASM2264842v1,plasmid_AC345,NZ_CP076493.1,S75_LN_i_1204_dp_f_7.938025785519129,1203,1848814,1850018
GCF_022648425.1_ASM2264842v1,plasmid_AC345,NZ_CP076493.1,S75_LN_i_1204_dp_f_7.938025785519129,1203,2386929,2388133
GCF_022648425.1_ASM2264842v1,plasmid_AC345,NZ_CP076493.1,S75_LN_i_1204_dp_f_7.938025785519129,1203,618953,620155
GCF_022648425.1_ASM2264842v1,plasmid_AC345,NZ_CP076493.1,S75_LN_i_1204_dp_f_7.938025785519129,1203,2164909,2166111
GCF_022648425.1_ASM2264842v1,plasmid_AC345,NZ_CP076493.1,S75_LN_i_1204_dp_f_7.938025785519129,1202,801621,802826
GCF_022648425.1_ASM2264842v1,plasmid_AE309,NZ_CP076494.1,S55_LN_i_3945_dp_f_3.3934258900440923,3943,80067,84013
GCF_022648425.1_ASM2264842v1,plasmid_AE309,NZ_CP076497.1,S55_LN_i_3945_dp_f_3.3934258900440923,3943,29712,33656
GCF_022648425.1_ASM2264842v1,plasmid_AE309,NZ_CP076494.1,S64_LN_i_2034_dp_f_3.2080095741466526,2034,111658,113691
GCF_022648425.1_ASM2264842v1,plasmid_AE309,NZ_CP076494.1,S64_LN_i_2034_dp_f_3.2080095741466526,2033,46571,48605
GCF_022648425.1_ASM2264842v1,plasmid_AB528,NZ_CP076496.1,S61_LN_i_2324_dp_f_2.524926626522801,2324,3803,6126
GCF_022648425.1_ASM2264842v1,plasmid_AB528,NZ_CP076493.1,S61_LN_i_2324_dp_f_2.524926626522801,2324,2417656,2419979
GCF_022648425.1_ASM2264842v1,plasmid_AB528,NZ_CP076496.1,S62_LN_i_2316_dp_f_2.2580193952502126,2314,20068,22385
GCF_022648425.1_ASM2264842v1,plasmid_AB528,NZ_CP076493.1,S62_LN_i_2316_dp_f_2.2580193952502126,2315,2401410,2403726
GCF_022648425.1_ASM2264842v1,plasmid_AB528,NZ_CP076496.1,S70_LN_i_1349_dp_f_2.6177463871986864,1349,8470,9818
GCF_022648425.1_ASM2264842v1,plasmid_AB528,NZ_CP076493.1,S70_LN_i_1349_dp_f_2.6177463871986864,1349,2413964,2415312
GCF_022648425.1_ASM2264842v1,plasmid_AB528,NZ_CP076496.1,S78_LN_i_1063_dp_f_2.559084551774705,1063,16501,17563
GCF_022648425.1_ASM2264842v1,plasmid_AB528,NZ_CP076493.1,S78_LN_i_1063_dp_f_2.559084551774705,1063,2406231,2407293
GCF_022648425.1_ASM2264842v1,plasmid_AB528,NZ_CP076493.1,S80_LN_i_1024_dp_f_8.340976013800454,1024,1686455,1687478
GCF_022648425.1_ASM2264842v1,plasmid_AB528,NZ_CP076497.1,S80_LN_i_1024_dp_f_8.340976013800454,1024,9820,10843
GCF_022648425.1_ASM2264842v1,plasmid_AB528,NZ_CP076493.1,S80_LN_i_1024_dp_f_8.340976013800454,1024,1215006,1216029
GCF_022648425.1_ASM2264842v1,plasmid_AB528,NZ_CP076493.1,S80_LN_i_1024_dp_f_8.340976013800454,1024,1172697,1173720
GCF_022648425.1_ASM2264842v1,plasmid_AB528,NZ_CP076493.1,S80_LN_i_1024_dp_f_8.340976013800454,1024,1158890,1159913
GCF_022648425.1_ASM2264842v1,plasmid_AB528,NZ_CP076493.1,S80_LN_i_1024_dp_f_8.340976013800454,1024,1175856,1176879
GCF_022648425.1_ASM2264842v1,plasmid_AB528,NZ_CP076494.1,S80_LN_i_1024_dp_f_8.340976013800454,1024,4413,5436
