<?xml version='1.0' encoding='UTF-8' ?>
<svg xmlns='http://www.w3.org/2000/svg' xmlns:xlink='http://www.w3.org/1999/xlink' class='svglite' width='504.00pt' height='360.00pt' viewBox='0 0 504.00 360.00'>
<defs>
  <style type='text/css'><![CDATA[
    .svglite line, .svglite polyline, .svglite polygon, .svglite path, .svglite rect, .svglite circle {
      fill: none;
      stroke: #000000;
      stroke-linecap: round;
      stroke-linejoin: round;
      stroke-miterlimit: 10.00;
    }
    .svglite text {
      white-space: pre;
    }
  ]]></style>
</defs>
<rect width='100%' height='100%' style='stroke: none; fill: #FFFFFF;'/>
<defs>
  <clipPath id='cpMC4wMHw1MDQuMDB8MC4wMHwzNjAuMDA='>
    <rect x='0.00' y='0.00' width='504.00' height='360.00' />
  </clipPath>
</defs>
<g clip-path='url(#cpMC4wMHw1MDQuMDB8MC4wMHwzNjAuMDA=)'>
<rect x='0.000000000000064' y='0.00' width='504.00' height='360.00' style='stroke-width: 1.07; stroke: #FFFFFF; fill: #FFFFFF;' />
</g>
<defs>
  <clipPath id='cpMTY4LjU5fDQ4MS4zMXw1LjQ4fDEzMS41Ng=='>
    <rect x='168.59' y='5.48' width='312.72' height='126.08' />
  </clipPath>
</defs>
<g clip-path='url(#cpMTY4LjU5fDQ4MS4zMXw1LjQ4fDEzMS41Ng==)'>
<rect x='168.59' y='5.48' width='312.72' height='126.08' style='stroke-width: 1.07; stroke: none; fill: #FFFFFF;' />
<polyline points='168.59,111.50 481.31,111.50 ' style='stroke-width: 0.53; stroke: #EBEBEB; stroke-linecap: butt;' />
<polyline points='168.59,82.84 481.31,82.84 ' style='stroke-width: 0.53; stroke: #EBEBEB; stroke-linecap: butt;' />
<polyline points='168.59,54.19 481.31,54.19 ' style='stroke-width: 0.53; stroke: #EBEBEB; stroke-linecap: butt;' />
<polyline points='168.59,25.54 481.31,25.54 ' style='stroke-width: 0.53; stroke: #EBEBEB; stroke-linecap: butt;' />
<polyline points='168.59,125.83 481.31,125.83 ' style='stroke-width: 1.07; stroke: #EBEBEB; stroke-linecap: butt;' />
<polyline points='168.59,97.17 481.31,97.17 ' style='stroke-width: 1.07; stroke: #EBEBEB; stroke-linecap: butt;' />
<polyline points='168.59,68.52 481.31,68.52 ' style='stroke-width: 1.07; stroke: #EBEBEB; stroke-linecap: butt;' />
<polyline points='168.59,39.86 481.31,39.86 ' style='stroke-width: 1.07; stroke: #EBEBEB; stroke-linecap: butt;' />
<polyline points='168.59,11.21 481.31,11.21 ' style='stroke-width: 1.07; stroke: #EBEBEB; stroke-linecap: butt;' />
<polyline points='198.85,131.56 198.85,5.48 ' style='stroke-width: 1.07; stroke: #EBEBEB; stroke-linecap: butt;' />
<polyline points='249.29,131.56 249.29,5.48 ' style='stroke-width: 1.07; stroke: #EBEBEB; stroke-linecap: butt;' />
<polyline points='299.73,131.56 299.73,5.48 ' style='stroke-width: 1.07; stroke: #EBEBEB; stroke-linecap: butt;' />
<polyline points='350.17,131.56 350.17,5.48 ' style='stroke-width: 1.07; stroke: #EBEBEB; stroke-linecap: butt;' />
<polyline points='400.61,131.56 400.61,5.48 ' style='stroke-width: 1.07; stroke: #EBEBEB; stroke-linecap: butt;' />
<polyline points='451.05,131.56 451.05,5.48 ' style='stroke-width: 1.07; stroke: #EBEBEB; stroke-linecap: butt;' />
<circle cx='299.73' cy='121.58' r='3.56' style='stroke-width: 0.71; stroke: #21908C; fill: #21908C;' />
<circle cx='299.73' cy='117.69' r='3.56' style='stroke-width: 0.71; stroke: #FDE725; fill: #FDE725;' />
<circle cx='299.73' cy='11.21' r='3.56' style='stroke-width: 0.71; stroke: #440154; fill: #440154;' />
<rect x='168.59' y='5.48' width='312.72' height='126.08' style='stroke-width: 1.07; stroke: #333333;' />
</g>
<g clip-path='url(#cpMC4wMHw1MDQuMDB8MC4wMHwzNjAuMDA=)'>
</g>
<defs>
  <clipPath id='cpMTY4LjU5fDQ4MS4zMXwxMzcuMDR8MjYzLjEx'>
    <rect x='168.59' y='137.04' width='312.72' height='126.08' />
  </clipPath>
</defs>
<g clip-path='url(#cpMTY4LjU5fDQ4MS4zMXwxMzcuMDR8MjYzLjEx)'>
<rect x='168.59' y='137.04' width='312.72' height='126.08' style='stroke-width: 1.07; stroke: none; fill: #FFFFFF;' />
<polyline points='168.59,243.05 481.31,243.05 ' style='stroke-width: 0.53; stroke: #EBEBEB; stroke-linecap: butt;' />
<polyline points='168.59,214.40 481.31,214.40 ' style='stroke-width: 0.53; stroke: #EBEBEB; stroke-linecap: butt;' />
<polyline points='168.59,185.75 481.31,185.75 ' style='stroke-width: 0.53; stroke: #EBEBEB; stroke-linecap: butt;' />
<polyline points='168.59,157.09 481.31,157.09 ' style='stroke-width: 0.53; stroke: #EBEBEB; stroke-linecap: butt;' />
<polyline points='168.59,257.38 481.31,257.38 ' style='stroke-width: 1.07; stroke: #EBEBEB; stroke-linecap: butt;' />
<polyline points='168.59,228.73 481.31,228.73 ' style='stroke-width: 1.07; stroke: #EBEBEB; stroke-linecap: butt;' />
<polyline points='168.59,200.07 481.31,200.07 ' style='stroke-width: 1.07; stroke: #EBEBEB; stroke-linecap: butt;' />
<polyline points='168.59,171.42 481.31,171.42 ' style='stroke-width: 1.07; stroke: #EBEBEB; stroke-linecap: butt;' />
<polyline points='168.59,142.77 481.31,142.77 ' style='stroke-width: 1.07; stroke: #EBEBEB; stroke-linecap: butt;' />
<polyline points='198.85,263.11 198.85,137.04 ' style='stroke-width: 1.07; stroke: #EBEBEB; stroke-linecap: butt;' />
<polyline points='249.29,263.11 249.29,137.04 ' style='stroke-width: 1.07; stroke: #EBEBEB; stroke-linecap: butt;' />
<polyline points='299.73,263.11 299.73,137.04 ' style='stroke-width: 1.07; stroke: #EBEBEB; stroke-linecap: butt;' />
<polyline points='350.17,263.11 350.17,137.04 ' style='stroke-width: 1.07; stroke: #EBEBEB; stroke-linecap: butt;' />
<polyline points='400.61,263.11 400.61,137.04 ' style='stroke-width: 1.07; stroke: #EBEBEB; stroke-linecap: butt;' />
<polyline points='451.05,263.11 451.05,137.04 ' style='stroke-width: 1.07; stroke: #EBEBEB; stroke-linecap: butt;' />
<circle cx='350.17' cy='253.94' r='3.56' style='stroke-width: 0.71; stroke: #21908C; fill: #21908C;' />
<circle cx='350.17' cy='250.73' r='3.56' style='stroke-width: 0.71; stroke: #FDE725; fill: #FDE725;' />
<circle cx='198.85' cy='167.98' r='3.56' style='stroke-width: 0.71; stroke: #21908C; fill: #21908C;' />
<circle cx='249.29' cy='167.98' r='3.56' style='stroke-width: 0.71; stroke: #21908C; fill: #21908C;' />
<circle cx='400.61' cy='164.89' r='3.56' style='stroke-width: 0.71; stroke: #21908C; fill: #21908C;' />
<circle cx='451.05' cy='164.89' r='3.56' style='stroke-width: 0.71; stroke: #21908C; fill: #21908C;' />
<circle cx='198.85' cy='156.98' r='3.56' style='stroke-width: 0.71; stroke: #FDE725; fill: #FDE725;' />
<circle cx='249.29' cy='156.98' r='3.56' style='stroke-width: 0.71; stroke: #FDE725; fill: #FDE725;' />
<circle cx='400.61' cy='155.03' r='3.56' style='stroke-width: 0.71; stroke: #FDE725; fill: #FDE725;' />
<circle cx='451.05' cy='155.03' r='3.56' style='stroke-width: 0.71; stroke: #FDE725; fill: #FDE725;' />
<circle cx='400.61' cy='142.77' r='3.56' style='stroke-width: 0.71; stroke: #440154; fill: #440154;' />
<circle cx='451.05' cy='142.77' r='3.56' style='stroke-width: 0.71; stroke: #440154; fill: #440154;' />
<circle cx='350.17' cy='142.77' r='3.56' style='stroke-width: 0.71; stroke: #440154; fill: #440154;' />
<circle cx='198.85' cy='142.77' r='3.56' style='stroke-width: 0.71; stroke: #440154; fill: #440154;' />
<circle cx='249.29' cy='142.77' r='3.56' style='stroke-width: 0.71; stroke: #440154; fill: #440154;' />
<rect x='168.59' y='137.04' width='312.72' height='126.08' style='stroke-width: 1.07; stroke: #333333;' />
</g>
<g clip-path='url(#cpMC4wMHw1MDQuMDB8MC4wMHwzNjAuMDA=)'>
</g>
<defs>
  <clipPath id='cpNDgxLjMxfDQ5OC41Mnw1LjQ4fDEzMS41Ng=='>
    <rect x='481.31' y='5.48' width='17.21' height='126.08' />
  </clipPath>
</defs>
<g clip-path='url(#cpNDgxLjMxfDQ5OC41Mnw1LjQ4fDEzMS41Ng==)'>
<rect x='481.31' y='5.48' width='17.21' height='126.08' style='stroke-width: 1.07; stroke: #333333; fill: #D9D9D9;' />
<text transform='translate(486.76,68.52) rotate(90)' text-anchor='middle' style='font-size: 8.80px;fill: #1A1A1A; font-family: "Arial";' textLength='52.31px' lengthAdjust='spacingAndGlyphs'>ARG-plasmid</text>
</g>
<g clip-path='url(#cpMC4wMHw1MDQuMDB8MC4wMHwzNjAuMDA=)'>
</g>
<defs>
  <clipPath id='cpNDgxLjMxfDQ5OC41MnwxMzcuMDR8MjYzLjEx'>
    <rect x='481.31' y='137.04' width='17.21' height='126.08' />
  </clipPath>
</defs>
<g clip-path='url(#cpNDgxLjMxfDQ5OC41MnwxMzcuMDR8MjYzLjEx)'>
<rect x='481.31' y='137.04' width='17.21' height='126.08' style='stroke-width: 1.07; stroke: #333333; fill: #D9D9D9;' />
<text transform='translate(486.76,200.07) rotate(90)' text-anchor='middle' style='font-size: 8.80px;fill: #1A1A1A; font-family: "Arial";' textLength='69.93px' lengthAdjust='spacingAndGlyphs'>non-ARG-plasmid</text>
</g>
<g clip-path='url(#cpMC4wMHw1MDQuMDB8MC4wMHwzNjAuMDA=)'>
<polyline points='198.85,265.85 198.85,263.11 ' style='stroke-width: 1.07; stroke: #333333; stroke-linecap: butt;' />
<polyline points='249.29,265.85 249.29,263.11 ' style='stroke-width: 1.07; stroke: #333333; stroke-linecap: butt;' />
<polyline points='299.73,265.85 299.73,263.11 ' style='stroke-width: 1.07; stroke: #333333; stroke-linecap: butt;' />
<polyline points='350.17,265.85 350.17,263.11 ' style='stroke-width: 1.07; stroke: #333333; stroke-linecap: butt;' />
<polyline points='400.61,265.85 400.61,263.11 ' style='stroke-width: 1.07; stroke: #333333; stroke-linecap: butt;' />
<polyline points='451.05,265.85 451.05,263.11 ' style='stroke-width: 1.07; stroke: #333333; stroke-linecap: butt;' />
<text transform='translate(205.97,275.17) rotate(-45)' text-anchor='end' style='font-size: 14.00px; font-weight: bold;fill: #4D4D4D; font-family: "Arial";' textLength='104.26px' lengthAdjust='spacingAndGlyphs'>NZ_AP023302.1</text>
<text transform='translate(256.41,275.17) rotate(-45)' text-anchor='end' style='font-size: 14.00px; font-weight: bold;fill: #4D4D4D; font-family: "Arial";' textLength='104.26px' lengthAdjust='spacingAndGlyphs'>NZ_AP023308.1</text>
<text transform='translate(306.85,275.17) rotate(-45)' text-anchor='end' style='font-size: 14.00px; font-weight: bold;fill: #4D4D4D; font-family: "Arial";' textLength='104.26px' lengthAdjust='spacingAndGlyphs'>NZ_CP060519.1</text>
<text transform='translate(357.29,275.17) rotate(-45)' text-anchor='end' style='font-size: 14.00px; font-weight: bold;fill: #4D4D4D; font-family: "Arial";' textLength='104.26px' lengthAdjust='spacingAndGlyphs'>NZ_CP063291.1</text>
<text transform='translate(407.73,275.17) rotate(-45)' text-anchor='end' style='font-size: 14.00px; font-weight: bold;fill: #4D4D4D; font-family: "Arial";' textLength='104.26px' lengthAdjust='spacingAndGlyphs'>NZ_CP075119.1</text>
<text transform='translate(458.17,275.17) rotate(-45)' text-anchor='end' style='font-size: 14.00px; font-weight: bold;fill: #4D4D4D; font-family: "Arial";' textLength='104.26px' lengthAdjust='spacingAndGlyphs'>NZ_CP075121.1</text>
<text x='163.66' y='130.49' text-anchor='end' style='font-size: 13.00px;fill: #4D4D4D; font-family: "Arial";' textLength='25.30px' lengthAdjust='spacingAndGlyphs'>0.00</text>
<text x='163.66' y='101.83' text-anchor='end' style='font-size: 13.00px;fill: #4D4D4D; font-family: "Arial";' textLength='25.30px' lengthAdjust='spacingAndGlyphs'>0.25</text>
<text x='163.66' y='73.18' text-anchor='end' style='font-size: 13.00px;fill: #4D4D4D; font-family: "Arial";' textLength='25.30px' lengthAdjust='spacingAndGlyphs'>0.50</text>
<text x='163.66' y='44.53' text-anchor='end' style='font-size: 13.00px;fill: #4D4D4D; font-family: "Arial";' textLength='25.30px' lengthAdjust='spacingAndGlyphs'>0.75</text>
<text x='163.66' y='15.87' text-anchor='end' style='font-size: 13.00px;fill: #4D4D4D; font-family: "Arial";' textLength='25.30px' lengthAdjust='spacingAndGlyphs'>1.00</text>
<polyline points='165.85,125.83 168.59,125.83 ' style='stroke-width: 1.07; stroke: #333333; stroke-linecap: butt;' />
<polyline points='165.85,97.17 168.59,97.17 ' style='stroke-width: 1.07; stroke: #333333; stroke-linecap: butt;' />
<polyline points='165.85,68.52 168.59,68.52 ' style='stroke-width: 1.07; stroke: #333333; stroke-linecap: butt;' />
<polyline points='165.85,39.86 168.59,39.86 ' style='stroke-width: 1.07; stroke: #333333; stroke-linecap: butt;' />
<polyline points='165.85,11.21 168.59,11.21 ' style='stroke-width: 1.07; stroke: #333333; stroke-linecap: butt;' />
<text x='163.66' y='262.04' text-anchor='end' style='font-size: 13.00px;fill: #4D4D4D; font-family: "Arial";' textLength='25.30px' lengthAdjust='spacingAndGlyphs'>0.00</text>
<text x='163.66' y='233.39' text-anchor='end' style='font-size: 13.00px;fill: #4D4D4D; font-family: "Arial";' textLength='25.30px' lengthAdjust='spacingAndGlyphs'>0.25</text>
<text x='163.66' y='204.74' text-anchor='end' style='font-size: 13.00px;fill: #4D4D4D; font-family: "Arial";' textLength='25.30px' lengthAdjust='spacingAndGlyphs'>0.50</text>
<text x='163.66' y='176.08' text-anchor='end' style='font-size: 13.00px;fill: #4D4D4D; font-family: "Arial";' textLength='25.30px' lengthAdjust='spacingAndGlyphs'>0.75</text>
<text x='163.66' y='147.43' text-anchor='end' style='font-size: 13.00px;fill: #4D4D4D; font-family: "Arial";' textLength='25.30px' lengthAdjust='spacingAndGlyphs'>1.00</text>
<polyline points='165.85,257.38 168.59,257.38 ' style='stroke-width: 1.07; stroke: #333333; stroke-linecap: butt;' />
<polyline points='165.85,228.73 168.59,228.73 ' style='stroke-width: 1.07; stroke: #333333; stroke-linecap: butt;' />
<polyline points='165.85,200.07 168.59,200.07 ' style='stroke-width: 1.07; stroke: #333333; stroke-linecap: butt;' />
<polyline points='165.85,171.42 168.59,171.42 ' style='stroke-width: 1.07; stroke: #333333; stroke-linecap: butt;' />
<polyline points='165.85,142.77 168.59,142.77 ' style='stroke-width: 1.07; stroke: #333333; stroke-linecap: butt;' />
<text x='324.95' y='354.52' text-anchor='middle' style='font-size: 0.00px; font-weight: bold; font-family: "Arial";' textLength='4.22px' lengthAdjust='spacingAndGlyphs'>Software</text>
<text transform='translate(131.66,134.30) rotate(-90)' text-anchor='middle' style='font-size: 18.00px; font-weight: bold; font-family: "Arial";' textLength='48.02px' lengthAdjust='spacingAndGlyphs'>Value</text>
<rect x='5.48' y='102.90' width='102.27' height='62.80' style='stroke-width: 1.07; stroke: none; fill: #FFFFFF;' />
<text x='10.96' y='108.74' style='font-size: 0.00px; font-family: "Arial";' textLength='2.72px' lengthAdjust='spacingAndGlyphs'>metric</text>
<rect x='10.96' y='108.38' width='17.28' height='17.28' style='stroke-width: 1.07; stroke: none; fill: #FFFFFF;' />
<circle cx='19.60' cy='117.02' r='3.56' style='stroke-width: 0.71; stroke: #440154; fill: #440154;' />
<rect x='10.96' y='125.66' width='17.28' height='17.28' style='stroke-width: 1.07; stroke: none; fill: #FFFFFF;' />
<circle cx='19.60' cy='134.30' r='3.56' style='stroke-width: 0.71; stroke: #21908C; fill: #21908C;' />
<rect x='10.96' y='142.94' width='17.28' height='17.28' style='stroke-width: 1.07; stroke: none; fill: #FFFFFF;' />
<circle cx='19.60' cy='151.58' r='3.56' style='stroke-width: 0.71; stroke: #FDE725; fill: #FDE725;' />
<text x='28.24' y='121.32' style='font-size: 12.00px; font-family: "Arial";' textLength='48.01px' lengthAdjust='spacingAndGlyphs'>accuracy</text>
<text x='28.24' y='138.60' style='font-size: 12.00px; font-family: "Arial";' textLength='74.03px' lengthAdjust='spacingAndGlyphs'>completeness</text>
<text x='28.24' y='155.88' style='font-size: 12.00px; font-family: "Arial";' textLength='50.02px' lengthAdjust='spacingAndGlyphs'>F1_score</text>
</g>
</svg>
