<?xml version='1.0' encoding='UTF-8' ?>
<svg xmlns='http://www.w3.org/2000/svg' xmlns:xlink='http://www.w3.org/1999/xlink' class='svglite' width='504.00pt' height='360.00pt' viewBox='0 0 504.00 360.00'>
<defs>
  <style type='text/css'><![CDATA[
    .svglite line, .svglite polyline, .svglite polygon, .svglite path, .svglite rect, .svglite circle {
      fill: none;
      stroke: #000000;
      stroke-linecap: round;
      stroke-linejoin: round;
      stroke-miterlimit: 10.00;
    }
    .svglite text {
      white-space: pre;
    }
  ]]></style>
</defs>
<rect width='100%' height='100%' style='stroke: none; fill: #FFFFFF;'/>
<defs>
  <clipPath id='cpMC4wMHw1MDQuMDB8MC4wMHwzNjAuMDA='>
    <rect x='0.00' y='0.00' width='504.00' height='360.00' />
  </clipPath>
</defs>
<g clip-path='url(#cpMC4wMHw1MDQuMDB8MC4wMHwzNjAuMDA=)'>
<rect x='0.00' y='0.00' width='504.00' height='360.00' style='stroke-width: 1.07; stroke: #FFFFFF; fill: #FFFFFF;' />
</g>
<defs>
  <clipPath id='cpNDAuNTl8MTc2LjE3fDUuNDh8MzI4LjI1'>
    <rect x='40.59' y='5.48' width='135.58' height='322.77' />
  </clipPath>
</defs>
<g clip-path='url(#cpNDAuNTl8MTc2LjE3fDUuNDh8MzI4LjI1)'>
<rect x='40.59' y='5.48' width='135.58' height='322.77' style='stroke-width: 1.07; stroke: none; fill: #EBEBEB;' />
<polyline points='40.59,276.90 176.17,276.90 ' style='stroke-width: 0.53; stroke: #FFFFFF; stroke-linecap: butt;' />
<polyline points='40.59,203.54 176.17,203.54 ' style='stroke-width: 0.53; stroke: #FFFFFF; stroke-linecap: butt;' />
<polyline points='40.59,130.19 176.17,130.19 ' style='stroke-width: 0.53; stroke: #FFFFFF; stroke-linecap: butt;' />
<polyline points='40.59,56.83 176.17,56.83 ' style='stroke-width: 0.53; stroke: #FFFFFF; stroke-linecap: butt;' />
<polyline points='40.59,313.58 176.17,313.58 ' style='stroke-width: 1.07; stroke: #FFFFFF; stroke-linecap: butt;' />
<polyline points='40.59,240.22 176.17,240.22 ' style='stroke-width: 1.07; stroke: #FFFFFF; stroke-linecap: butt;' />
<polyline points='40.59,166.87 176.17,166.87 ' style='stroke-width: 1.07; stroke: #FFFFFF; stroke-linecap: butt;' />
<polyline points='40.59,93.51 176.17,93.51 ' style='stroke-width: 1.07; stroke: #FFFFFF; stroke-linecap: butt;' />
<polyline points='40.59,20.15 176.17,20.15 ' style='stroke-width: 1.07; stroke: #FFFFFF; stroke-linecap: butt;' />
<polyline points='66.01,328.25 66.01,5.48 ' style='stroke-width: 1.07; stroke: #FFFFFF; stroke-linecap: butt;' />
<polyline points='108.38,328.25 108.38,5.48 ' style='stroke-width: 1.07; stroke: #FFFFFF; stroke-linecap: butt;' />
<polyline points='150.75,328.25 150.75,5.48 ' style='stroke-width: 1.07; stroke: #FFFFFF; stroke-linecap: butt;' />
<rect x='46.95' y='196.82' width='38.13' height='26.12' style='stroke-width: 1.07; stroke: none; stroke-linecap: butt; stroke-linejoin: miter; fill: #A3A500;' />
<rect x='46.95' y='235.23' width='38.13' height='15.36' style='stroke-width: 1.07; stroke: none; stroke-linecap: butt; stroke-linejoin: miter; fill: #00B0F6;' />
<rect x='46.95' y='222.94' width='38.13' height='12.29' style='stroke-width: 1.07; stroke: none; stroke-linecap: butt; stroke-linejoin: miter; fill: #00BF7D;' />
<rect x='46.95' y='20.15' width='38.13' height='176.67' style='stroke-width: 1.07; stroke: none; stroke-linecap: butt; stroke-linejoin: miter; fill: #F8766D;' />
<rect x='46.95' y='250.59' width='38.13' height='62.99' style='stroke-width: 1.07; stroke: none; stroke-linecap: butt; stroke-linejoin: miter; fill: #E76BF3;' />
<rect x='89.31' y='204.43' width='38.13' height='43.94' style='stroke-width: 1.07; stroke: none; stroke-linecap: butt; stroke-linejoin: miter; fill: #A3A500;' />
<rect x='89.31' y='256.88' width='38.13' height='14.18' style='stroke-width: 1.07; stroke: none; stroke-linecap: butt; stroke-linejoin: miter; fill: #00B0F6;' />
<rect x='89.31' y='248.37' width='38.13' height='8.51' style='stroke-width: 1.07; stroke: none; stroke-linecap: butt; stroke-linejoin: miter; fill: #00BF7D;' />
<rect x='89.31' y='20.15' width='38.13' height='184.28' style='stroke-width: 1.07; stroke: none; stroke-linecap: butt; stroke-linejoin: miter; fill: #F8766D;' />
<rect x='89.31' y='271.05' width='38.13' height='42.53' style='stroke-width: 1.07; stroke: none; stroke-linecap: butt; stroke-linejoin: miter; fill: #E76BF3;' />
<rect x='131.68' y='144.13' width='38.13' height='90.92' style='stroke-width: 1.07; stroke: none; stroke-linecap: butt; stroke-linejoin: miter; fill: #A3A500;' />
<rect x='131.68' y='251.59' width='38.13' height='8.27' style='stroke-width: 1.07; stroke: none; stroke-linecap: butt; stroke-linejoin: miter; fill: #00B0F6;' />
<rect x='131.68' y='235.06' width='38.13' height='16.53' style='stroke-width: 1.07; stroke: none; stroke-linecap: butt; stroke-linejoin: miter; fill: #00BF7D;' />
<rect x='131.68' y='20.15' width='38.13' height='123.98' style='stroke-width: 1.07; stroke: none; stroke-linecap: butt; stroke-linejoin: miter; fill: #F8766D;' />
<rect x='131.68' y='259.85' width='38.13' height='53.73' style='stroke-width: 1.07; stroke: none; stroke-linecap: butt; stroke-linejoin: miter; fill: #E76BF3;' />
</g>
<g clip-path='url(#cpMC4wMHw1MDQuMDB8MC4wMHwzNjAuMDA=)'>
<text x='35.66' y='316.73' text-anchor='end' style='font-size: 8.80px;fill: #4D4D4D; font-family: "Arial";' textLength='17.13px' lengthAdjust='spacingAndGlyphs'>0.00</text>
<text x='35.66' y='243.38' text-anchor='end' style='font-size: 8.80px;fill: #4D4D4D; font-family: "Arial";' textLength='17.13px' lengthAdjust='spacingAndGlyphs'>0.25</text>
<text x='35.66' y='170.02' text-anchor='end' style='font-size: 8.80px;fill: #4D4D4D; font-family: "Arial";' textLength='17.13px' lengthAdjust='spacingAndGlyphs'>0.50</text>
<text x='35.66' y='96.66' text-anchor='end' style='font-size: 8.80px;fill: #4D4D4D; font-family: "Arial";' textLength='17.13px' lengthAdjust='spacingAndGlyphs'>0.75</text>
<text x='35.66' y='23.30' text-anchor='end' style='font-size: 8.80px;fill: #4D4D4D; font-family: "Arial";' textLength='17.13px' lengthAdjust='spacingAndGlyphs'>1.00</text>
<polyline points='37.85,313.58 40.59,313.58 ' style='stroke-width: 1.07; stroke: #333333; stroke-linecap: butt;' />
<polyline points='37.85,240.22 40.59,240.22 ' style='stroke-width: 1.07; stroke: #333333; stroke-linecap: butt;' />
<polyline points='37.85,166.87 40.59,166.87 ' style='stroke-width: 1.07; stroke: #333333; stroke-linecap: butt;' />
<polyline points='37.85,93.51 40.59,93.51 ' style='stroke-width: 1.07; stroke: #333333; stroke-linecap: butt;' />
<polyline points='37.85,20.15 40.59,20.15 ' style='stroke-width: 1.07; stroke: #333333; stroke-linecap: butt;' />
<polyline points='66.01,330.99 66.01,328.25 ' style='stroke-width: 1.07; stroke: #333333; stroke-linecap: butt;' />
<polyline points='108.38,330.99 108.38,328.25 ' style='stroke-width: 1.07; stroke: #333333; stroke-linecap: butt;' />
<polyline points='150.75,330.99 150.75,328.25 ' style='stroke-width: 1.07; stroke: #333333; stroke-linecap: butt;' />
<text x='66.01' y='339.49' text-anchor='middle' style='font-size: 8.80px;fill: #4D4D4D; font-family: "Arial";' textLength='25.93px' lengthAdjust='spacingAndGlyphs'>gplas2</text>
<text x='108.38' y='339.49' text-anchor='middle' style='font-size: 8.80px;fill: #4D4D4D; font-family: "Arial";' textLength='41.55px' lengthAdjust='spacingAndGlyphs'>MOB-suite</text>
<text x='150.75' y='339.49' text-anchor='middle' style='font-size: 8.80px;fill: #4D4D4D; font-family: "Arial";' textLength='62.11px' lengthAdjust='spacingAndGlyphs'>plasmidSPAdes</text>
<text x='108.38' y='352.10' text-anchor='middle' style='font-size: 11.00px; font-family: "Arial";' textLength='41.57px' lengthAdjust='spacingAndGlyphs'>software</text>
<text transform='translate(13.37,166.87) rotate(-90)' text-anchor='middle' style='font-size: 11.00px; font-family: "Arial";' textLength='69.72px' lengthAdjust='spacingAndGlyphs'>perc_category</text>
<rect x='187.13' y='110.29' width='311.39' height='113.16' style='stroke-width: 1.07; stroke: none; fill: #FFFFFF;' />
<text x='192.61' y='124.87' style='font-size: 11.00px; font-family: "Arial";' textLength='302.51px' lengthAdjust='spacingAndGlyphs'>factor(bin_quality, levels = c("very high", "high", "moderate", ...</text>
<rect x='192.61' y='131.56' width='17.28' height='17.28' style='stroke-width: 1.07; stroke: none; fill: #F2F2F2;' />
<rect x='193.32' y='132.27' width='15.86' height='15.86' style='stroke-width: 1.07; stroke: none; stroke-linecap: butt; stroke-linejoin: miter; fill: #F8766D;' />
<rect x='192.61' y='148.84' width='17.28' height='17.28' style='stroke-width: 1.07; stroke: none; fill: #F2F2F2;' />
<rect x='193.32' y='149.55' width='15.86' height='15.86' style='stroke-width: 1.07; stroke: none; stroke-linecap: butt; stroke-linejoin: miter; fill: #A3A500;' />
<rect x='192.61' y='166.12' width='17.28' height='17.28' style='stroke-width: 1.07; stroke: none; fill: #F2F2F2;' />
<rect x='193.32' y='166.83' width='15.86' height='15.86' style='stroke-width: 1.07; stroke: none; stroke-linecap: butt; stroke-linejoin: miter; fill: #00BF7D;' />
<rect x='192.61' y='183.40' width='17.28' height='17.28' style='stroke-width: 1.07; stroke: none; fill: #F2F2F2;' />
<rect x='193.32' y='184.11' width='15.86' height='15.86' style='stroke-width: 1.07; stroke: none; stroke-linecap: butt; stroke-linejoin: miter; fill: #00B0F6;' />
<rect x='192.61' y='200.68' width='17.28' height='17.28' style='stroke-width: 1.07; stroke: none; fill: #F2F2F2;' />
<rect x='193.32' y='201.39' width='15.86' height='15.86' style='stroke-width: 1.07; stroke: none; stroke-linecap: butt; stroke-linejoin: miter; fill: #E76BF3;' />
<text x='215.37' y='143.36' style='font-size: 8.80px; font-family: "Arial";' textLength='35.70px' lengthAdjust='spacingAndGlyphs'>very high</text>
<text x='215.37' y='160.64' style='font-size: 8.80px; font-family: "Arial";' textLength='16.64px' lengthAdjust='spacingAndGlyphs'>high</text>
<text x='215.37' y='177.92' style='font-size: 8.80px; font-family: "Arial";' textLength='37.18px' lengthAdjust='spacingAndGlyphs'>moderate</text>
<text x='215.37' y='195.20' style='font-size: 8.80px; font-family: "Arial";' textLength='13.20px' lengthAdjust='spacingAndGlyphs'>low</text>
<text x='215.37' y='212.48' style='font-size: 8.80px; font-family: "Arial";' textLength='32.26px' lengthAdjust='spacingAndGlyphs'>very low</text>
</g>
</svg>
