GCF_904864535.1_INF313,GCF_904864535.1_INF313_raw_nodes,NZ_LR890415.1,5312529,5574292
GCF_904864535.1_INF313,GCF_904864535.1_INF313_raw_nodes,NZ_LR890416.1,228233,5574292
GCF_904864535.1_INF313,GCF_904864535.1_INF313_raw_nodes,NZ_LR890417.1,67105,5574292
GCF_904864535.1_INF313,GCF_904864535.1_INF313_raw_nodes,NZ_LR890418.1,5599,5574292
GCF_904864535.1_INF313,GCF_904864535.1_INF313_raw_nodes,NZ_LR890419.1,3216,5574292
GCF_904864535.1_INF313,GCF_904864535.1_INF313_raw_nodes,NZ_LR890420.1,3223,5574292
GCF_904864535.1_INF313,GCF_904864535.1_INF313_raw_nodes,NZ_LR890421.1,2723,5574292
GCF_016903295.1_ASM1690329v1,GCF_016903295.1_ASM1690329v1_raw_nodes,NZ_CP069873.1,5274921,6136257
GCF_016903295.1_ASM1690329v1,GCF_016903295.1_ASM1690329v1_raw_nodes,NZ_CP069874.1,15995,6136257
GCF_016903295.1_ASM1690329v1,GCF_016903295.1_ASM1690329v1_raw_nodes,NZ_CP069875.1,134529,6136257
GCF_016903295.1_ASM1690329v1,GCF_016903295.1_ASM1690329v1_raw_nodes,NZ_CP069878.1,3664,6136257
GCF_016903295.1_ASM1690329v1,GCF_016903295.1_ASM1690329v1_raw_nodes,NZ_CP069876.1,3373,6136257
GCF_016903295.1_ASM1690329v1,GCF_016903295.1_ASM1690329v1_raw_nodes,NZ_CP069877.1,1917,6136257
GCF_016903295.1_ASM1690329v1,GCF_016903295.1_ASM1690329v1_raw_nodes,NZ_CP069881.1,1442,6136257
GCF_020525945.1_ASM2052594v1,GCF_020525945.1_ASM2052594v1_raw_nodes,NZ_CP084829.1,5157192,5112803
GCF_020526045.1_ASM2052604v1,GCF_020526045.1_ASM2052604v1_raw_nodes,NZ_CP084873.1,5129356,5088899
GCF_003038135.2_ASM303813v2,GCF_003038135.2_ASM303813v2_raw_nodes,NZ_CP043353.1,5398029,5494611
GCF_003038135.2_ASM303813v2,GCF_003038135.2_ASM303813v2_raw_nodes,NZ_CP043355.1,72774,5494611
GCF_003038135.2_ASM303813v2,GCF_003038135.2_ASM303813v2_raw_nodes,NZ_CP043354.1,81051,5494611
GCF_003038135.2_ASM303813v2,GCF_003038135.2_ASM303813v2_raw_nodes,NZ_CP043356.1,5596,5494611
GCF_013737695.1_ASM1373769v1,GCF_013737695.1_ASM1373769v1_raw_nodes,NZ_CP056530.1,5140633,5371409
GCF_013737695.1_ASM1373769v1,GCF_013737695.1_ASM1373769v1_raw_nodes,NZ_CP056533.1,57981,5371409
GCF_013737695.1_ASM1373769v1,GCF_013737695.1_ASM1373769v1_raw_nodes,NZ_CP056531.1,180564,5371409
GCF_013737695.1_ASM1373769v1,GCF_013737695.1_ASM1373769v1_raw_nodes,NZ_CP056532.1,84661,5371409
GCF_013737695.1_ASM1373769v1,GCF_013737695.1_ASM1373769v1_raw_nodes,NZ_CP056537.1,4728,5371409
GCF_013737695.1_ASM1373769v1,GCF_013737695.1_ASM1373769v1_raw_nodes,NZ_CP056536.1,5586,5371409
GCF_013737695.1_ASM1373769v1,GCF_013737695.1_ASM1373769v1_raw_nodes,NZ_CP056534.1,4831,5371409
GCF_013737695.1_ASM1373769v1,GCF_013737695.1_ASM1373769v1_raw_nodes,NZ_CP056535.1,3664,5371409
GCF_013737695.1_ASM1373769v1,GCF_013737695.1_ASM1373769v1_raw_nodes,NZ_CP056538.1,3398,5371409
GCF_016804025.1_ASM1680402v1,GCF_016804025.1_ASM1680402v1_raw_nodes,NZ_CP053016.1,5053339,5752859
GCF_016804025.1_ASM1680402v1,GCF_016804025.1_ASM1680402v1_raw_nodes,NZ_CP053018.1,209421,5752859
GCF_016804025.1_ASM1680402v1,GCF_016804025.1_ASM1680402v1_raw_nodes,NZ_CP053017.1,147331,5752859
GCF_016804025.1_ASM1680402v1,GCF_016804025.1_ASM1680402v1_raw_nodes,NZ_CP053019.1,10060,5752859
GCF_016804025.1_ASM1680402v1,GCF_016804025.1_ASM1680402v1_raw_nodes,NZ_CP053020.1,5596,5752859
GCF_904863265.1_INF156,GCF_904863265.1_INF156_raw_nodes,NZ_LR890286.1,5128511,5246704
GCF_904863265.1_INF156,GCF_904863265.1_INF156_raw_nodes,NZ_LR890287.1,149786,5246704
GCF_016903155.1_ASM1690315v1,GCF_016903155.1_ASM1690315v1_raw_nodes,NZ_CP069821.1,5247133,5402416
GCF_016903155.1_ASM1690315v1,GCF_016903155.1_ASM1690315v1_raw_nodes,NZ_CP069822.1,174347,5402416
GCF_016903155.1_ASM1690315v1,GCF_016903155.1_ASM1690315v1_raw_nodes,NZ_CP069823.1,9294,5402416
GCF_016903155.1_ASM1690315v1,GCF_016903155.1_ASM1690315v1_raw_nodes,NZ_CP069824.1,4167,5402416
GCF_904865765.1_KSB2_9A,GCF_904865765.1_KSB2_9A_raw_nodes,NZ_LR890564.1,4843376,17860455
GCF_904865765.1_KSB2_9A,GCF_904865765.1_KSB2_9A_raw_nodes,NZ_LR890565.1,153352,17860455
GCF_904865765.1_KSB2_9A,GCF_904865765.1_KSB2_9A_raw_nodes,NZ_LR890566.1,4064,17860455
GCF_904865765.1_KSB2_9A,GCF_904865765.1_KSB2_9A_raw_nodes,NZ_LR890567.1,3223,17860455
GCF_904865765.1_KSB2_9A,GCF_904865765.1_KSB2_9A_raw_nodes,NZ_LR890568.1,1916,17860455
GCF_904866235.1_INF122,GCF_904866235.1_INF122_raw_nodes,NZ_LR890600.1,5320868,5361054
GCF_904866235.1_INF122,GCF_904866235.1_INF122_raw_nodes,NZ_LR890601.1,71274,5361054
GCF_904866235.1_INF122,GCF_904866235.1_INF122_raw_nodes,NZ_LR890602.1,6573,5361054
GCF_904863435.1_KSB1_1B,GCF_904863435.1_KSB1_1B_raw_nodes,NZ_LR890291.1,5207798,5553906
GCF_904863435.1_KSB1_1B,GCF_904863435.1_KSB1_1B_raw_nodes,NZ_LR890292.1,118881,5553906
GCF_904863435.1_KSB1_1B,GCF_904863435.1_KSB1_1B_raw_nodes,NZ_LR890293.1,113743,5553906
GCF_904863435.1_KSB1_1B,GCF_904863435.1_KSB1_1B_raw_nodes,NZ_LR890295.1,55939,5553906
GCF_904863435.1_KSB1_1B,GCF_904863435.1_KSB1_1B_raw_nodes,NZ_LR890294.1,59560,5553906
GCF_904863435.1_KSB1_1B,GCF_904863435.1_KSB1_1B_raw_nodes,NZ_LR890296.1,6134,5553906
GCF_904863435.1_KSB1_1B,GCF_904863435.1_KSB1_1B_raw_nodes,NZ_LR890297.1,5585,5553906
GCF_904863435.1_KSB1_1B,GCF_904863435.1_KSB1_1B_raw_nodes,NZ_LR890298.1,5393,5553906
GCF_001185665.2_ASM118566v3,GCF_001185665.2_ASM118566v3_raw_nodes,NZ_CP073054.1,5279015,5840682
GCF_001185665.2_ASM118566v3,GCF_001185665.2_ASM118566v3_raw_nodes,NZ_CP073056.1,140531,5840682
GCF_001185665.2_ASM118566v3,GCF_001185665.2_ASM118566v3_raw_nodes,NZ_CP073055.1,322228,5840682
GCF_001185665.2_ASM118566v3,GCF_001185665.2_ASM118566v3_raw_nodes,NZ_CP073057.1,89522,5840682
GCF_001185665.2_ASM118566v3,GCF_001185665.2_ASM118566v3_raw_nodes,NZ_CP073058.1,31364,5840682
GCF_013811845.1_ASM1381184v1,GCF_013811845.1_ASM1381184v1_raw_nodes,NZ_CP057069.1,5419939,5385475
GCF_013811845.1_ASM1381184v1,GCF_013811845.1_ASM1381184v1_raw_nodes,NZ_CP057070.1,3770,5385475
GCF_013811845.1_ASM1381184v1,GCF_013811845.1_ASM1381184v1_raw_nodes,NZ_CP057071.1,2020,5385475
GCF_013731305.1_ASM1373130v1,GCF_013731305.1_ASM1373130v1_raw_nodes,NZ_CP056301.1,5263996,5564393
GCF_013731305.1_ASM1373130v1,GCF_013731305.1_ASM1373130v1_raw_nodes,NZ_CP056303.1,108572,5564393
GCF_013731305.1_ASM1373130v1,GCF_013731305.1_ASM1373130v1_raw_nodes,NZ_CP056302.1,244436,5564393
GCF_013796245.1_ASM1379624v1,GCF_013796245.1_ASM1379624v1_raw_nodes,NZ_CP056878.1,5243245,5493558
GCF_013796245.1_ASM1379624v1,GCF_013796245.1_ASM1379624v1_raw_nodes,NZ_CP056879.1,192030,5493558
GCF_013796245.1_ASM1379624v1,GCF_013796245.1_ASM1379624v1_raw_nodes,NZ_CP056880.1,100656,5493558
GCF_013796245.1_ASM1379624v1,GCF_013796245.1_ASM1379624v1_raw_nodes,NZ_CP056881.1,4512,5493558
GCF_013796245.1_ASM1379624v1,GCF_013796245.1_ASM1379624v1_raw_nodes,NZ_CP056882.1,3845,5493558
GCF_904863215.1_INF277,GCF_904863215.1_INF277_raw_nodes,NZ_LR890204.1,5195296,5483135
GCF_904863215.1_INF277,GCF_904863215.1_INF277_raw_nodes,NZ_LR890206.1,94255,5483135
GCF_904863215.1_INF277,GCF_904863215.1_INF277_raw_nodes,NZ_LR890205.1,241706,5483135
GCF_904863215.1_INF277,GCF_904863215.1_INF277_raw_nodes,NZ_LR890207.1,3088,5483135
GCF_904863215.1_INF277,GCF_904863215.1_INF277_raw_nodes,NZ_LR890208.1,1916,5483135
GCF_016727425.1_ASM1672742v1,GCF_016727425.1_ASM1672742v1_raw_nodes,NZ_CP068139.1,5153414,5714085
GCF_016727425.1_ASM1672742v1,GCF_016727425.1_ASM1672742v1_raw_nodes,NZ_CP068140.1,189791,5714085
GCF_016727425.1_ASM1672742v1,GCF_016727425.1_ASM1672742v1_raw_nodes,NZ_CP068141.1,3991,5714085
GCF_016727425.1_ASM1672742v1,GCF_016727425.1_ASM1672742v1_raw_nodes,NZ_CP068142.1,3407,5714085
GCF_020149895.1_ASM2014989v1,GCF_020149895.1_ASM2014989v1_raw_nodes,NZ_CP083768.1,5193488,5263451
GCF_020149895.1_ASM2014989v1,GCF_020149895.1_ASM2014989v1_raw_nodes,NZ_CP083769.1,237569,5263451
GCF_020149895.1_ASM2014989v1,GCF_020149895.1_ASM2014989v1_raw_nodes,NZ_CP083770.1,32395,5263451
GCF_020149895.1_ASM2014989v1,GCF_020149895.1_ASM2014989v1_raw_nodes,NZ_CP083771.1,6352,5263451
GCF_020149895.1_ASM2014989v1,GCF_020149895.1_ASM2014989v1_raw_nodes,NZ_CP083772.1,5214,5263451
GCF_020149895.1_ASM2014989v1,GCF_020149895.1_ASM2014989v1_raw_nodes,NZ_CP083773.1,4176,5263451
GCF_020149895.1_ASM2014989v1,GCF_020149895.1_ASM2014989v1_raw_nodes,NZ_CP083774.1,2833,5263451
GCF_904865715.1_KSB1_5H,GCF_904865715.1_KSB1_5H_raw_nodes,NZ_LR890500.1,5495659,6042947
GCF_904865715.1_KSB1_5H,GCF_904865715.1_KSB1_5H_raw_nodes,NZ_LR890503.1,111123,6042947
GCF_904865715.1_KSB1_5H,GCF_904865715.1_KSB1_5H_raw_nodes,NZ_LR890501.1,159434,6042947
GCF_904865715.1_KSB1_5H,GCF_904865715.1_KSB1_5H_raw_nodes,NZ_LR890504.1,68766,6042947
GCF_904865715.1_KSB1_5H,GCF_904865715.1_KSB1_5H_raw_nodes,NZ_LR890506.1,53918,6042947
GCF_904865715.1_KSB1_5H,GCF_904865715.1_KSB1_5H_raw_nodes,NZ_LR890502.1,125729,6042947
GCF_904865715.1_KSB1_5H,GCF_904865715.1_KSB1_5H_raw_nodes,NZ_LR890505.1,63524,6042947
GCF_904865715.1_KSB1_5H,GCF_904865715.1_KSB1_5H_raw_nodes,NZ_LR890507.1,9294,6042947
GCF_013735155.1_ASM1373515v1,GCF_013735155.1_ASM1373515v1_raw_nodes,NZ_CP056385.1,5272599,5478857
GCF_013735155.1_ASM1373515v1,GCF_013735155.1_ASM1373515v1_raw_nodes,NZ_CP056386.1,246810,5478857
GCF_013735155.1_ASM1373515v1,GCF_013735155.1_ASM1373515v1_raw_nodes,NZ_CP056389.1,4426,5478857
GCF_013735155.1_ASM1373515v1,GCF_013735155.1_ASM1373515v1_raw_nodes,NZ_CP056388.1,4013,5478857
GCF_013735155.1_ASM1373515v1,GCF_013735155.1_ASM1373515v1_raw_nodes,NZ_CP056387.1,3664,5478857
GCF_013735155.1_ASM1373515v1,GCF_013735155.1_ASM1373515v1_raw_nodes,NZ_CP056390.1,3418,5478857
GCF_013735155.1_ASM1373515v1,GCF_013735155.1_ASM1373515v1_raw_nodes,NZ_CP056391.1,2173,5478857
GCF_904866285.1_INF344,GCF_904866285.1_INF344_raw_nodes,NZ_LR890640.1,5082536,5318920
GCF_904866285.1_INF344,GCF_904866285.1_INF344_raw_nodes,NZ_LR890641.1,177222,5318920
GCF_904866285.1_INF344,GCF_904866285.1_INF344_raw_nodes,NZ_LR890642.1,117634,5318920
GCF_020080145.1_ASM2008014v1,GCF_020080145.1_ASM2008014v1_raw_nodes,NZ_CP083445.1,5224461,5549136
GCF_020080145.1_ASM2008014v1,GCF_020080145.1_ASM2008014v1_raw_nodes,NZ_CP083446.1,339646,5549136
GCF_020080145.1_ASM2008014v1,GCF_020080145.1_ASM2008014v1_raw_nodes,NZ_CP083447.1,42112,5549136
GCF_020525845.1_ASM2052584v1,GCF_020525845.1_ASM2052584v1_raw_nodes,NZ_CP084860.1,5193829,5411684
GCF_020525845.1_ASM2052584v1,GCF_020525845.1_ASM2052584v1_raw_nodes,NZ_CP084861.1,210205,5411684
GCF_020525845.1_ASM2052584v1,GCF_020525845.1_ASM2052584v1_raw_nodes,NZ_CP084862.1,53575,5411684
GCF_020525845.1_ASM2052584v1,GCF_020525845.1_ASM2052584v1_raw_nodes,NZ_CP084863.1,3557,5411684
GCF_020525845.1_ASM2052584v1,GCF_020525845.1_ASM2052584v1_raw_nodes,NZ_CP084864.1,3202,5411684
GCF_020525845.1_ASM2052584v1,GCF_020525845.1_ASM2052584v1_raw_nodes,NZ_CP084865.1,2160,5411684
GCF_013811445.1_ASM1381144v1,GCF_013811445.1_ASM1381144v1_raw_nodes,NZ_CP057066.1,5120143,5538022
GCF_013811445.1_ASM1381144v1,GCF_013811445.1_ASM1381144v1_raw_nodes,NZ_CP057068.1,207043,5538022
GCF_013811445.1_ASM1381144v1,GCF_013811445.1_ASM1381144v1_raw_nodes,NZ_CP057067.1,235834,5538022
GCF_020525505.1_ASM2052550v1,GCF_020525505.1_ASM2052550v1_raw_nodes,NZ_CP084859.1,5356536,5323527
GCF_014170015.1_ASM1417001v1,GCF_014170015.1_ASM1417001v1_raw_nodes,NZ_CP054285.1,5246415,5539470
GCF_014170015.1_ASM1417001v1,GCF_014170015.1_ASM1417001v1_raw_nodes,NZ_CP054286.1,151530,5539470
GCF_014170015.1_ASM1417001v1,GCF_014170015.1_ASM1417001v1_raw_nodes,NZ_CP054287.1,135145,5539470
GCF_014170015.1_ASM1417001v1,GCF_014170015.1_ASM1417001v1_raw_nodes,NZ_CP054288.1,41501,5539470
GCF_013791265.1_ASM1379126v1,GCF_013791265.1_ASM1379126v1_raw_nodes,NZ_CP056830.1,5315436,5428113
GCF_013791265.1_ASM1379126v1,GCF_013791265.1_ASM1379126v1_raw_nodes,NZ_CP056831.1,139787,5428113
GCF_013791265.1_ASM1379126v1,GCF_013791265.1_ASM1379126v1_raw_nodes,NZ_CP056832.1,5733,5428113
GCF_013791265.1_ASM1379126v1,GCF_013791265.1_ASM1379126v1_raw_nodes,NZ_CP056833.1,3980,5428113
GCF_904863355.1_INF148,GCF_904863355.1_INF148_raw_nodes,NZ_LR890381.1,5426964,5393478
GCF_904863355.1_INF148,GCF_904863355.1_INF148_raw_nodes,NZ_LR890382.1,4064,5393478
GCF_904863355.1_INF148,GCF_904863355.1_INF148_raw_nodes,NZ_LR890383.1,3223,5393478
GCF_001718115.2_ASM171811v2,GCF_001718115.2_ASM171811v2_raw_nodes,NZ_CP089427.1,4998431,4961992
GCF_001718115.2_ASM171811v2,GCF_001718115.2_ASM171811v2_raw_nodes,NZ_CP089431.1,1911,4961992
GCF_001718115.2_ASM171811v2,GCF_001718115.2_ASM171811v2_raw_nodes,NZ_CP089429.1,1910,4961992
GCF_001718115.2_ASM171811v2,GCF_001718115.2_ASM171811v2_raw_nodes,NZ_CP089428.1,5728,4961992
GCF_021655455.1_ASM2165545v1,GCF_021655455.1_ASM2165545v1_raw_nodes,NZ_AP024570.1,5269789,5441192
GCF_021655455.1_ASM2165545v1,GCF_021655455.1_ASM2165545v1_raw_nodes,NZ_AP024571.1,214071,5441192
GCF_904863115.1_INF329,GCF_904863115.1_INF329_raw_nodes,NZ_LR890240.1,5208217,5386453
GCF_904863115.1_INF329,GCF_904863115.1_INF329_raw_nodes,NZ_LR890241.1,209289,5386453
GCF_904863115.1_INF329,GCF_904863115.1_INF329_raw_nodes,NZ_LR890242.1,4064,5386453
GCF_904863115.1_INF329,GCF_904863115.1_INF329_raw_nodes,NZ_LR890243.1,3223,5386453
GCF_904863115.1_INF329,GCF_904863115.1_INF329_raw_nodes,NZ_LR890244.1,1916,5386453
GCF_904865755.1_INF341,GCF_904865755.1_INF341_raw_nodes,NZ_LR890490.1,5472534,5634441
GCF_904865755.1_INF341,GCF_904865755.1_INF341_raw_nodes,NZ_LR890491.1,193041,5634441
GCF_904865755.1_INF341,GCF_904865755.1_INF341_raw_nodes,NZ_LR890492.1,9294,5634441
GCF_016903795.1_ASM1690379v1,GCF_016903795.1_ASM1690379v1_raw_nodes,NZ_CP069968.1,5281237,5491907
GCF_016903795.1_ASM1690379v1,GCF_016903795.1_ASM1690379v1_raw_nodes,NZ_CP069969.1,196073,5491907
GCF_016903795.1_ASM1690379v1,GCF_016903795.1_ASM1690379v1_raw_nodes,NZ_CP069967.1,45541,5491907
GCF_904865815.1_INF281,GCF_904865815.1_INF281_raw_nodes,NZ_LR890515.1,5497112,6041360
GCF_904865815.1_INF281,GCF_904865815.1_INF281_raw_nodes,NZ_LR890518.1,111123,6041360
GCF_904865815.1_INF281,GCF_904865815.1_INF281_raw_nodes,NZ_LR890516.1,159434,6041360
GCF_904865815.1_INF281,GCF_904865815.1_INF281_raw_nodes,NZ_LR890521.1,53943,6041360
GCF_904865815.1_INF281,GCF_904865815.1_INF281_raw_nodes,NZ_LR890519.1,68766,6041360
GCF_904865815.1_INF281,GCF_904865815.1_INF281_raw_nodes,NZ_LR890517.1,125729,6041360
GCF_904865815.1_INF281,GCF_904865815.1_INF281_raw_nodes,NZ_LR890520.1,63691,6041360
GCF_904865815.1_INF281,GCF_904865815.1_INF281_raw_nodes,NZ_LR890522.1,9294,6041360
GCF_904864645.1_INF079,GCF_904864645.1_INF079_raw_nodes,NZ_LR890464.1,5389064,5561540
GCF_904864645.1_INF079,GCF_904864645.1_INF079_raw_nodes,NZ_LR890465.1,225429,5561540
GCF_904864515.1_KSB2_2C,GCF_904864515.1_KSB2_2C_raw_nodes,NZ_LR890391.1,5188998,5411058
GCF_904864515.1_KSB2_2C,GCF_904864515.1_KSB2_2C_raw_nodes,NZ_LR890392.1,228640,5411058
GCF_904864515.1_KSB2_2C,GCF_904864515.1_KSB2_2C_raw_nodes,NZ_LR890393.1,3223,5411058
GCF_904864515.1_KSB2_2C,GCF_904864515.1_KSB2_2C_raw_nodes,NZ_LR890394.1,1916,5411058
GCF_016903195.1_ASM1690319v1,GCF_016903195.1_ASM1690319v1_raw_nodes,NZ_CP069847.1,5260311,5536795
GCF_016903195.1_ASM1690319v1,GCF_016903195.1_ASM1690319v1_raw_nodes,NZ_CP069846.1,215178,5536795
GCF_016903195.1_ASM1690319v1,GCF_016903195.1_ASM1690319v1_raw_nodes,NZ_CP069848.1,61121,5536795
GCF_016903195.1_ASM1690319v1,GCF_016903195.1_ASM1690319v1_raw_nodes,NZ_CP069844.1,39943,5536795
GCF_016903195.1_ASM1690319v1,GCF_016903195.1_ASM1690319v1_raw_nodes,NZ_CP069849.1,29973,5536795
GCF_016903195.1_ASM1690319v1,GCF_016903195.1_ASM1690319v1_raw_nodes,NZ_CP069850.1,5698,5536795
GCF_016903195.1_ASM1690319v1,GCF_016903195.1_ASM1690319v1_raw_nodes,NZ_CP069845.1,44313,5536795
GCF_020526065.1_ASM2052606v1,GCF_020526065.1_ASM2052606v1_raw_nodes,NZ_CP084870.1,5232750,5432693
GCF_904865825.1_INF018,GCF_904865825.1_INF018_raw_nodes,NZ_LR890493.1,5207513,5336515
GCF_904865825.1_INF018,GCF_904865825.1_INF018_raw_nodes,NZ_LR890494.1,4986,5336515
GCF_904865825.1_INF018,GCF_904865825.1_INF018_raw_nodes,NZ_LR890495.1,3385,5336515
GCF_904865825.1_INF018,GCF_904865825.1_INF018_raw_nodes,NZ_LR890496.1,3223,5336515
GCF_904865825.1_INF018,GCF_904865825.1_INF018_raw_nodes,NZ_LR890497.1,3012,5336515
GCF_904865825.1_INF018,GCF_904865825.1_INF018_raw_nodes,NZ_LR890498.1,2870,5336515
GCF_904865825.1_INF018,GCF_904865825.1_INF018_raw_nodes,NZ_LR890499.1,1916,5336515
GCF_021655495.1_ASM2165549v1,GCF_021655495.1_ASM2165549v1_raw_nodes,NZ_AP024576.1,5272577,5438686
GCF_021655495.1_ASM2165549v1,GCF_021655495.1_ASM2165549v1_raw_nodes,NZ_AP024577.1,212094,5438686
GCF_021655495.1_ASM2165549v1,GCF_021655495.1_ASM2165549v1_raw_nodes,NZ_AP024578.1,33514,5438686
GCF_904866485.1_KSB1_1H,GCF_904866485.1_KSB1_1H_raw_nodes,NZ_LR890722.1,5180229,5468945
GCF_904866485.1_KSB1_1H,GCF_904866485.1_KSB1_1H_raw_nodes,NZ_LR890724.1,94363,5468945
GCF_904866485.1_KSB1_1H,GCF_904866485.1_KSB1_1H_raw_nodes,NZ_LR890723.1,209495,5468945
GCF_904866485.1_KSB1_1H,GCF_904866485.1_KSB1_1H_raw_nodes,NZ_LR890725.1,3223,5468945
GCF_904866335.1_INF266,GCF_904866335.1_INF266_raw_nodes,NZ_LR890648.1,5316496,5522112
GCF_904866335.1_INF266,GCF_904866335.1_INF266_raw_nodes,NZ_LR890649.1,178129,5522112
GCF_904866335.1_INF266,GCF_904866335.1_INF266_raw_nodes,NZ_LR890650.1,64287,5522112
GCF_012029695.2_ASM1202969v2,GCF_012029695.2_ASM1202969v2_raw_nodes,NZ_CP061389.1,5410371,5831928
GCF_012029695.2_ASM1202969v2,GCF_012029695.2_ASM1202969v2_raw_nodes,NZ_CP061391.1,112025,5831928
GCF_012029695.2_ASM1202969v2,GCF_012029695.2_ASM1202969v2_raw_nodes,NZ_CP061390.1,175985,5831928
GCF_012029695.2_ASM1202969v2,GCF_012029695.2_ASM1202969v2_raw_nodes,NZ_CP061392.1,71276,5831928
GCF_012029695.2_ASM1202969v2,GCF_012029695.2_ASM1202969v2_raw_nodes,NZ_CP061393.1,61470,5831928
GCF_012029695.2_ASM1202969v2,GCF_012029695.2_ASM1202969v2_raw_nodes,NZ_CP061394.1,41818,5831928
GCF_012029695.2_ASM1202969v2,GCF_012029695.2_ASM1202969v2_raw_nodes,NZ_CP061395.1,9294,5831928
GCF_013724605.1_ASM1372460v1,GCF_013724605.1_ASM1372460v1_raw_nodes,NZ_CP056222.1,5343234,5654361
GCF_013724605.1_ASM1372460v1,GCF_013724605.1_ASM1372460v1_raw_nodes,NZ_CP056224.1,109848,5654361
GCF_013724605.1_ASM1372460v1,GCF_013724605.1_ASM1372460v1_raw_nodes,NZ_CP056226.1,60792,5654361
GCF_013724605.1_ASM1372460v1,GCF_013724605.1_ASM1372460v1_raw_nodes,NZ_CP056225.1,36696,5654361
GCF_013724605.1_ASM1372460v1,GCF_013724605.1_ASM1372460v1_raw_nodes,NZ_CP056223.1,162135,5654361
GCF_013724605.1_ASM1372460v1,GCF_013724605.1_ASM1372460v1_raw_nodes,NZ_CP056227.1,3223,5654361
GCF_018283505.2_ASM1828350v2,GCF_018283505.2_ASM1828350v2_raw_nodes,NZ_CP084397.1,5400373,5805767
GCF_018283505.2_ASM1828350v2,GCF_018283505.2_ASM1828350v2_raw_nodes,NZ_CP084394.1,112696,5805767
GCF_018283505.2_ASM1828350v2,GCF_018283505.2_ASM1828350v2_raw_nodes,NZ_CP084395.1,359672,5805767
GCF_018283505.2_ASM1828350v2,GCF_018283505.2_ASM1828350v2_raw_nodes,NZ_CP084396.1,4167,5805767
GCF_904864465.1_INF298,GCF_904864465.1_INF298_raw_nodes,NZ_LR890426.1,5481243,6025061
GCF_904864465.1_INF298,GCF_904864465.1_INF298_raw_nodes,NZ_LR890429.1,111123,6025061
GCF_904864465.1_INF298,GCF_904864465.1_INF298_raw_nodes,NZ_LR890427.1,159768,6025061
GCF_904864465.1_INF298,GCF_904864465.1_INF298_raw_nodes,NZ_LR890430.1,68790,6025061
GCF_904864465.1_INF298,GCF_904864465.1_INF298_raw_nodes,NZ_LR890432.1,53938,6025061
GCF_904864465.1_INF298,GCF_904864465.1_INF298_raw_nodes,NZ_LR890428.1,125164,6025061
GCF_904864465.1_INF298,GCF_904864465.1_INF298_raw_nodes,NZ_LR890431.1,63549,6025061
GCF_904864465.1_INF298,GCF_904864465.1_INF298_raw_nodes,NZ_LR890433.1,9294,6025061
GCF_904865845.1_INF302,GCF_904865845.1_INF302_raw_nodes,NZ_LR890556.1,5193865,5435721
GCF_904865845.1_INF302,GCF_904865845.1_INF302_raw_nodes,NZ_LR890557.1,230501,5435721
GCF_904865845.1_INF302,GCF_904865845.1_INF302_raw_nodes,NZ_LR890558.1,47658,5435721
GCF_904865845.1_INF302,GCF_904865845.1_INF302_raw_nodes,NZ_LR890559.1,4064,5435721
GCF_904865845.1_INF302,GCF_904865845.1_INF302_raw_nodes,NZ_LR890560.1,3223,5435721
GCF_904865845.1_INF302,GCF_904865845.1_INF302_raw_nodes,NZ_LR890561.1,1916,5435721
GCF_016904035.1_ASM1690403v1,GCF_016904035.1_ASM1690403v1_raw_nodes,NZ_CP070037.1,5145831,5341381
GCF_016904035.1_ASM1690403v1,GCF_016904035.1_ASM1690403v1_raw_nodes,NZ_CP070038.1,147489,5341381
GCF_016904035.1_ASM1690403v1,GCF_016904035.1_ASM1690403v1_raw_nodes,NZ_CP070039.1,96693,5341381
GCF_016904035.1_ASM1690403v1,GCF_016904035.1_ASM1690403v1_raw_nodes,NZ_CP070040.1,1917,5341381
GCF_020525985.1_ASM2052598v1,GCF_020525985.1_ASM2052598v1_raw_nodes,NZ_CP084843.1,5240130,5488045
GCF_020525985.1_ASM2052598v1,GCF_020525985.1_ASM2052598v1_raw_nodes,NZ_CP084845.1,110699,5488045
GCF_020525985.1_ASM2052598v1,GCF_020525985.1_ASM2052598v1_raw_nodes,NZ_CP084844.1,111052,5488045
GCF_020525985.1_ASM2052598v1,GCF_020525985.1_ASM2052598v1_raw_nodes,NZ_CP084846.1,89784,5488045
GCF_020525985.1_ASM2052598v1,GCF_020525985.1_ASM2052598v1_raw_nodes,NZ_CP084847.1,42041,5488045
GCF_020525985.1_ASM2052598v1,GCF_020525985.1_ASM2052598v1_raw_nodes,NZ_CP084848.1,14343,5488045
GCF_020525985.1_ASM2052598v1,GCF_020525985.1_ASM2052598v1_raw_nodes,NZ_CP084849.1,9812,5488045
GCF_020525985.1_ASM2052598v1,GCF_020525985.1_ASM2052598v1_raw_nodes,NZ_CP084850.1,4018,5488045
GCF_018310495.1_ASM1831049v1,GCF_018310495.1_ASM1831049v1_raw_nodes,NZ_CP074087.1,5358141,5796696
GCF_018310495.1_ASM1831049v1,GCF_018310495.1_ASM1831049v1_raw_nodes,NZ_CP074089.1,112745,5796696
GCF_018310495.1_ASM1831049v1,GCF_018310495.1_ASM1831049v1_raw_nodes,NZ_CP074088.1,324692,5796696
GCF_018310495.1_ASM1831049v1,GCF_018310495.1_ASM1831049v1_raw_nodes,NZ_CP074090.1,47493,5796696
GCF_018310495.1_ASM1831049v1,GCF_018310495.1_ASM1831049v1_raw_nodes,NZ_CP074091.1,4167,5796696
GCF_904863325.1_INF354,GCF_904863325.1_INF354_raw_nodes,NZ_LR890369.1,5313349,5559753
GCF_904863325.1_INF354,GCF_904863325.1_INF354_raw_nodes,NZ_LR890370.1,220227,5559753
GCF_904863325.1_INF354,GCF_904863325.1_INF354_raw_nodes,NZ_LR890371.1,68856,5559753
GCF_904863325.1_INF354,GCF_904863325.1_INF354_raw_nodes,NZ_LR890372.1,2997,5559753
GCF_904863325.1_INF354,GCF_904863325.1_INF354_raw_nodes,NZ_LR890373.1,2723,5559753
GCF_017894305.1_ASM1789430v1,GCF_017894305.1_ASM1789430v1_raw_nodes,NZ_CP058361.1,5349558,5631943
GCF_017894305.1_ASM1789430v1,GCF_017894305.1_ASM1789430v1_raw_nodes,NZ_CP058362.1,191595,5631943
GCF_017894305.1_ASM1789430v1,GCF_017894305.1_ASM1789430v1_raw_nodes,NZ_CP058363.1,142594,5631943
GCF_013731735.1_ASM1373173v1,GCF_013731735.1_ASM1373173v1_raw_nodes,NZ_CP056307.1,5392375,5688008
GCF_013731735.1_ASM1373173v1,GCF_013731735.1_ASM1373173v1_raw_nodes,NZ_CP056308.1,223571,5688008
GCF_013731735.1_ASM1373173v1,GCF_013731735.1_ASM1373173v1_raw_nodes,NZ_CP056309.1,113608,5688008
GCF_013731735.1_ASM1373173v1,GCF_013731735.1_ASM1373173v1_raw_nodes,NZ_CP056310.1,89587,5688008
GCF_013731735.1_ASM1373173v1,GCF_013731735.1_ASM1373173v1_raw_nodes,NZ_CP056311.1,36438,5688008
GCF_013731735.1_ASM1373173v1,GCF_013731735.1_ASM1373173v1_raw_nodes,NZ_CP056312.1,4056,5688008
GCF_013731735.1_ASM1373173v1,GCF_013731735.1_ASM1373173v1_raw_nodes,NZ_CP056313.1,2799,5688008
GCF_020149785.1_ASM2014978v1,GCF_020149785.1_ASM2014978v1_raw_nodes,NZ_CP083796.1,5310621,5660238
GCF_020149785.1_ASM2014978v1,GCF_020149785.1_ASM2014978v1_raw_nodes,NZ_CP083798.1,117033,5660238
GCF_020149785.1_ASM2014978v1,GCF_020149785.1_ASM2014978v1_raw_nodes,NZ_CP083797.1,263917,5660238
GCF_020149785.1_ASM2014978v1,GCF_020149785.1_ASM2014978v1_raw_nodes,NZ_CP083799.1,31359,5660238
GCF_020149785.1_ASM2014978v1,GCF_020149785.1_ASM2014978v1_raw_nodes,NZ_CP083800.1,4048,5660238
GCF_020149785.1_ASM2014978v1,GCF_020149785.1_ASM2014978v1_raw_nodes,NZ_CP083801.1,3514,5660238
GCF_904864445.1_KSB1_6G,GCF_904864445.1_KSB1_6G_raw_nodes,NZ_LR890457.1,5299547,5692140
GCF_904864445.1_KSB1_6G,GCF_904864445.1_KSB1_6G_raw_nodes,NZ_LR890458.1,266734,5692140
GCF_904864445.1_KSB1_6G,GCF_904864445.1_KSB1_6G_raw_nodes,NZ_LR890459.1,181459,5692140
GCF_904864445.1_KSB1_6G,GCF_904864445.1_KSB1_6G_raw_nodes,NZ_LR890460.1,5840,5692140
GCF_904864445.1_KSB1_6G,GCF_904864445.1_KSB1_6G_raw_nodes,NZ_LR890461.1,4665,5692140
GCF_904864445.1_KSB1_6G,GCF_904864445.1_KSB1_6G_raw_nodes,NZ_LR890462.1,3514,5692140
GCF_904864445.1_KSB1_6G,GCF_904864445.1_KSB1_6G_raw_nodes,NZ_LR890463.1,1602,5692140
GCF_013895695.1_ASM1389569v1,GCF_013895695.1_ASM1389569v1_raw_nodes,NZ_CP057722.1,5121422,5280293
GCF_013895695.1_ASM1389569v1,GCF_013895695.1_ASM1389569v1_raw_nodes,NZ_CP057723.1,146742,5280293
GCF_013895695.1_ASM1389569v1,GCF_013895695.1_ASM1389569v1_raw_nodes,NZ_CP057724.1,45899,5280293
GCF_904863405.1_INF215,GCF_904863405.1_INF215_raw_nodes,NZ_LR890317.1,5186593,5373535
GCF_904863405.1_INF215,GCF_904863405.1_INF215_raw_nodes,NZ_LR890318.1,194027,5373535
GCF_904863405.1_INF215,GCF_904863405.1_INF215_raw_nodes,NZ_LR890319.1,46723,5373535
GCF_020149825.1_ASM2014982v1,GCF_020149825.1_ASM2014982v1_raw_nodes,NZ_CP083784.1,5198234,5257987
GCF_020149825.1_ASM2014982v1,GCF_020149825.1_ASM2014982v1_raw_nodes,NZ_CP083785.1,41212,5257987
GCF_020149825.1_ASM2014982v1,GCF_020149825.1_ASM2014982v1_raw_nodes,NZ_CP083786.1,37960,5257987
GCF_020149825.1_ASM2014982v1,GCF_020149825.1_ASM2014982v1_raw_nodes,NZ_CP083787.1,5542,5257987
GCF_020149825.1_ASM2014982v1,GCF_020149825.1_ASM2014982v1_raw_nodes,NZ_CP083788.1,4408,5257987
GCF_020149825.1_ASM2014982v1,GCF_020149825.1_ASM2014982v1_raw_nodes,NZ_CP083789.1,4268,5257987
GCF_016903955.1_ASM1690395v1,GCF_016903955.1_ASM1690395v1_raw_nodes,NZ_CP070015.1,5328402,5525114
GCF_016903955.1_ASM1690395v1,GCF_016903955.1_ASM1690395v1_raw_nodes,NZ_CP070016.1,237132,5525114
GCF_016903955.1_ASM1690395v1,GCF_016903955.1_ASM1690395v1_raw_nodes,NZ_CP070017.1,5627,5525114
GCF_016903775.1_ASM1690377v1,GCF_016903775.1_ASM1690377v1_raw_nodes,NZ_CP069962.1,5324678,5588184
GCF_016903775.1_ASM1690377v1,GCF_016903775.1_ASM1690377v1_raw_nodes,NZ_CP069964.1,224944,5588184
GCF_016903775.1_ASM1690377v1,GCF_016903775.1_ASM1690377v1_raw_nodes,NZ_CP069963.1,63881,5588184
GCF_016903775.1_ASM1690377v1,GCF_016903775.1_ASM1690377v1_raw_nodes,NZ_CP069965.1,5463,5588184
GCF_016903775.1_ASM1690377v1,GCF_016903775.1_ASM1690377v1_raw_nodes,NZ_CP069966.1,5230,5588184
GCF_022369815.1_ASM2236981v1,GCF_022369815.1_ASM2236981v1_raw_nodes,NZ_CP070890.1,5359273,5786305
GCF_022369815.1_ASM2236981v1,GCF_022369815.1_ASM2236981v1_raw_nodes,NZ_CP070892.1,112696,5786305
GCF_022369815.1_ASM2236981v1,GCF_022369815.1_ASM2236981v1_raw_nodes,NZ_CP070891.1,331507,5786305
GCF_022369815.1_ASM2236981v1,GCF_022369815.1_ASM2236981v1_raw_nodes,NZ_CP070893.1,37637,5786305
GCF_022369815.1_ASM2236981v1,GCF_022369815.1_ASM2236981v1_raw_nodes,NZ_CP070894.1,4167,5786305
GCF_021496545.1_ASM2149654v1,GCF_021496545.1_ASM2149654v1_raw_nodes,NZ_CP055293.1,5226512,5418060
GCF_016066295.1_ASM1606629v1,GCF_016066295.1_ASM1606629v1_raw_nodes,NZ_CP065831.1,5434756,5557897
GCF_016066295.1_ASM1606629v1,GCF_016066295.1_ASM1606629v1_raw_nodes,NZ_CP065832.1,199372,5557897
GCF_904864545.1_KSB1_9J,GCF_904864545.1_KSB1_9J_raw_nodes,NZ_LR890434.1,5341031,5573054
GCF_904864545.1_KSB1_9J,GCF_904864545.1_KSB1_9J_raw_nodes,NZ_LR890436.1,58367,5573054
GCF_904864545.1_KSB1_9J,GCF_904864545.1_KSB1_9J_raw_nodes,NZ_LR890437.1,33332,5573054
GCF_904864545.1_KSB1_9J,GCF_904864545.1_KSB1_9J_raw_nodes,NZ_LR890435.1,197867,5573054
GCF_016903515.1_ASM1690351v1,GCF_016903515.1_ASM1690351v1_raw_nodes,NZ_CP070177.1,5188659,5886261
GCF_016903515.1_ASM1690351v1,GCF_016903515.1_ASM1690351v1_raw_nodes,NZ_CP070178.1,63351,5886261
GCF_016903515.1_ASM1690351v1,GCF_016903515.1_ASM1690351v1_raw_nodes,NZ_CP070185.1,29379,5886261
GCF_016903515.1_ASM1690351v1,GCF_016903515.1_ASM1690351v1_raw_nodes,NZ_CP070187.1,12285,5886261
GCF_016903515.1_ASM1690351v1,GCF_016903515.1_ASM1690351v1_raw_nodes,NZ_CP070183.1,5180,5886261
GCF_016903515.1_ASM1690351v1,GCF_016903515.1_ASM1690351v1_raw_nodes,NZ_CP070180.1,5167,5886261
GCF_016903515.1_ASM1690351v1,GCF_016903515.1_ASM1690351v1_raw_nodes,NZ_CP070184.1,4823,5886261
GCF_016903515.1_ASM1690351v1,GCF_016903515.1_ASM1690351v1_raw_nodes,NZ_CP070186.1,4438,5886261
GCF_016903515.1_ASM1690351v1,GCF_016903515.1_ASM1690351v1_raw_nodes,NZ_CP070179.1,4062,5886261
GCF_016903515.1_ASM1690351v1,GCF_016903515.1_ASM1690351v1_raw_nodes,NZ_CP070181.1,2579,5886261
GCF_016903515.1_ASM1690351v1,GCF_016903515.1_ASM1690351v1_raw_nodes,NZ_CP070188.1,2495,5886261
GCF_016903515.1_ASM1690351v1,GCF_016903515.1_ASM1690351v1_raw_nodes,NZ_CP070182.1,1506,5886261
GCF_014169335.1_ASM1416933v1,GCF_014169335.1_ASM1416933v1_raw_nodes,NZ_AP022139.1,5265997,5316359
GCF_014169335.1_ASM1416933v1,GCF_014169335.1_ASM1416933v1_raw_nodes,NZ_AP022140.1,83914,5316359
GCF_014169335.1_ASM1416933v1,GCF_014169335.1_ASM1416933v1_raw_nodes,NZ_AP022141.1,3852,5316359
GCF_014170935.1_ASM1417093v1,GCF_014170935.1_ASM1417093v1_raw_nodes,NZ_AP022078.1,5310336,5731292
GCF_014170935.1_ASM1417093v1,GCF_014170935.1_ASM1417093v1_raw_nodes,NZ_AP022079.1,205710,5731292
GCF_014170935.1_ASM1417093v1,GCF_014170935.1_ASM1417093v1_raw_nodes,NZ_AP022080.1,168049,5731292
GCF_014170935.1_ASM1417093v1,GCF_014170935.1_ASM1417093v1_raw_nodes,NZ_AP022082.1,41084,5731292
GCF_014170935.1_ASM1417093v1,GCF_014170935.1_ASM1417093v1_raw_nodes,NZ_AP022081.1,47649,5731292
GCF_014170935.1_ASM1417093v1,GCF_014170935.1_ASM1417093v1_raw_nodes,NZ_AP022083.1,3768,5731292
GCF_014170935.1_ASM1417093v1,GCF_014170935.1_ASM1417093v1_raw_nodes,NZ_AP022084.1,3729,5731292
GCF_016903115.1_ASM1690311v1,GCF_016903115.1_ASM1690311v1_raw_nodes,NZ_CP069828.1,5296925,5414057
GCF_016903115.1_ASM1690311v1,GCF_016903115.1_ASM1690311v1_raw_nodes,NZ_CP069833.1,77448,5414057
GCF_016903115.1_ASM1690311v1,GCF_016903115.1_ASM1690311v1_raw_nodes,NZ_CP069829.1,33945,5414057
GCF_016903115.1_ASM1690311v1,GCF_016903115.1_ASM1690311v1_raw_nodes,NZ_CP069834.1,25715,5414057
GCF_016903115.1_ASM1690311v1,GCF_016903115.1_ASM1690311v1_raw_nodes,NZ_CP069830.1,5167,5414057
GCF_016903115.1_ASM1690311v1,GCF_016903115.1_ASM1690311v1_raw_nodes,NZ_CP069835.1,4823,5414057
GCF_016903115.1_ASM1690311v1,GCF_016903115.1_ASM1690311v1_raw_nodes,NZ_CP069831.1,4476,5414057
GCF_016903115.1_ASM1690311v1,GCF_016903115.1_ASM1690311v1_raw_nodes,NZ_CP069832.1,4062,5414057
GCF_016903115.1_ASM1690311v1,GCF_016903115.1_ASM1690311v1_raw_nodes,NZ_CP069836.1,2579,5414057
GCF_016903115.1_ASM1690311v1,GCF_016903115.1_ASM1690311v1_raw_nodes,NZ_CP069838.1,2297,5414057
GCF_016903115.1_ASM1690311v1,GCF_016903115.1_ASM1690311v1_raw_nodes,NZ_CP069837.1,1506,5414057
GCF_904866255.1_INF223,GCF_904866255.1_INF223_raw_nodes,NZ_LR890595.1,5248715,5492493
GCF_904866255.1_INF223,GCF_904866255.1_INF223_raw_nodes,NZ_LR890596.1,236169,5492493
GCF_904866255.1_INF223,GCF_904866255.1_INF223_raw_nodes,NZ_LR890597.1,58375,5492493
GCF_016903455.1_ASM1690345v1,GCF_016903455.1_ASM1690345v1_raw_nodes,NZ_CP069939.1,5159571,5122002
GCF_013792545.1_ASM1379254v1,GCF_013792545.1_ASM1379254v1_raw_nodes,NZ_CP056854.1,5041791,5359602
GCF_013792545.1_ASM1379254v1,GCF_013792545.1_ASM1379254v1_raw_nodes,NZ_CP056856.1,109158,5359602
GCF_013792545.1_ASM1379254v1,GCF_013792545.1_ASM1379254v1_raw_nodes,NZ_CP056857.1,55736,5359602
GCF_013792545.1_ASM1379254v1,GCF_013792545.1_ASM1379254v1_raw_nodes,NZ_CP056855.1,172676,5359602
GCF_013792545.1_ASM1379254v1,GCF_013792545.1_ASM1379254v1_raw_nodes,NZ_CP056858.1,43812,5359602
GCF_013792545.1_ASM1379254v1,GCF_013792545.1_ASM1379254v1_raw_nodes,NZ_CP056859.1,2330,5359602
GCF_013792545.1_ASM1379254v1,GCF_013792545.1_ASM1379254v1_raw_nodes,NZ_CP056860.1,1916,5359602
GCF_021655515.1_ASM2165551v1,GCF_021655515.1_ASM2165551v1_raw_nodes,NZ_AP024579.1,5365321,5430505
GCF_021655515.1_ASM2165551v1,GCF_021655515.1_ASM2165551v1_raw_nodes,NZ_AP024580.1,212094,5430505
GCF_021655515.1_ASM2165551v1,GCF_021655515.1_ASM2165551v1_raw_nodes,NZ_AP024581.1,33514,5430505
GCF_013745295.1_ASM1374529v1,GCF_013745295.1_ASM1374529v1_raw_nodes,NZ_CP056329.1,5251633,5223550
GCF_013745295.1_ASM1374529v1,GCF_013745295.1_ASM1374529v1_raw_nodes,NZ_CP056330.1,6757,5223550
GCF_013745295.1_ASM1374529v1,GCF_013745295.1_ASM1374529v1_raw_nodes,NZ_CP056331.1,5167,5223550
GCF_013745295.1_ASM1374529v1,GCF_013745295.1_ASM1374529v1_raw_nodes,NZ_CP056332.1,4074,5223550
GCF_016066475.1_ASM1606647v1,GCF_016066475.1_ASM1606647v1_raw_nodes,NZ_CP065833.1,5067835,5323239
GCF_016066475.1_ASM1606647v1,GCF_016066475.1_ASM1606647v1_raw_nodes,NZ_CP065834.1,288292,5323239
GCF_016066475.1_ASM1606647v1,GCF_016066475.1_ASM1606647v1_raw_nodes,NZ_CP065835.1,5542,5323239
GCF_016066475.1_ASM1606647v1,GCF_016066475.1_ASM1606647v1_raw_nodes,NZ_CP065836.1,4165,5323239
GCF_016066475.1_ASM1606647v1,GCF_016066475.1_ASM1606647v1_raw_nodes,NZ_CP065837.1,3550,5323239
GCF_021655435.1_ASM2165543v1,GCF_021655435.1_ASM2165543v1_raw_nodes,NZ_AP024568.1,5269016,5440417
GCF_021655435.1_ASM2165543v1,GCF_021655435.1_ASM2165543v1_raw_nodes,NZ_AP024569.1,214071,5440417
GCF_018075085.1_ASM1807508v1,GCF_018075085.1_ASM1807508v1_raw_nodes,NZ_CP072949.1,5327669,5593688
GCF_018075085.1_ASM1807508v1,GCF_018075085.1_ASM1807508v1_raw_nodes,NZ_CP072951.1,117924,5593688
GCF_018075085.1_ASM1807508v1,GCF_018075085.1_ASM1807508v1_raw_nodes,NZ_CP072950.1,210074,5593688
GCF_018075085.1_ASM1807508v1,GCF_018075085.1_ASM1807508v1_raw_nodes,NZ_CP072952.1,2328,5593688
GCF_017894285.1_ASM1789428v1,GCF_017894285.1_ASM1789428v1_raw_nodes,NZ_CP058358.1,5435588,5641641
GCF_017894285.1_ASM1789428v1,GCF_017894285.1_ASM1789428v1_raw_nodes,NZ_CP058359.1,159742,5641641
GCF_017894285.1_ASM1789428v1,GCF_017894285.1_ASM1789428v1_raw_nodes,NZ_CP058360.1,102185,5641641
GCF_904866315.1_INF346,GCF_904866315.1_INF346_raw_nodes,NZ_LR890643.1,5187976,5253268
GCF_904866315.1_INF346,GCF_904866315.1_INF346_raw_nodes,NZ_LR890645.1,41212,5253268
GCF_904866315.1_INF346,GCF_904866315.1_INF346_raw_nodes,NZ_LR890644.1,38056,5253268
GCF_904866315.1_INF346,GCF_904866315.1_INF346_raw_nodes,NZ_LR890646.1,5542,5253268
GCF_904866315.1_INF346,GCF_904866315.1_INF346_raw_nodes,NZ_LR890647.1,4616,5253268
GCF_904866425.1_INF065,GCF_904866425.1_INF065_raw_nodes,NZ_LR890665.1,5277875,5466892
GCF_904866425.1_INF065,GCF_904866425.1_INF065_raw_nodes,NZ_LR890666.1,230550,5466892
GCF_904866425.1_INF065,GCF_904866425.1_INF065_raw_nodes,NZ_LR890667.1,5825,5466892
GCF_904866425.1_INF065,GCF_904866425.1_INF065_raw_nodes,NZ_LR890668.1,5542,5466892
GCF_013730675.1_ASM1373067v1,GCF_013730675.1_ASM1373067v1_raw_nodes,NZ_CP056297.1,5145401,5234277
GCF_013730675.1_ASM1373067v1,GCF_013730675.1_ASM1373067v1_raw_nodes,NZ_CP056298.1,122890,5234277
GCF_016629585.1_ASM1662958v1,GCF_016629585.1_ASM1662958v1_raw_nodes,NZ_AP024173.1,5188143,5645005
GCF_016629585.1_ASM1662958v1,GCF_016629585.1_ASM1662958v1_raw_nodes,NZ_AP024176.1,110494,5645005
GCF_016629585.1_ASM1662958v1,GCF_016629585.1_ASM1662958v1_raw_nodes,NZ_AP024174.1,220052,5645005
GCF_016629585.1_ASM1662958v1,GCF_016629585.1_ASM1662958v1_raw_nodes,NZ_AP024177.1,66660,5645005
GCF_016629585.1_ASM1662958v1,GCF_016629585.1_ASM1662958v1_raw_nodes,NZ_AP024175.1,107758,5645005
GCF_016629585.1_ASM1662958v1,GCF_016629585.1_ASM1662958v1_raw_nodes,NZ_AP024180.1,2966,5645005
GCF_016629585.1_ASM1662958v1,GCF_016629585.1_ASM1662958v1_raw_nodes,NZ_AP024178.1,5783,5645005
GCF_016629585.1_ASM1662958v1,GCF_016629585.1_ASM1662958v1_raw_nodes,NZ_AP024179.1,3617,5645005
GCF_013813035.1_ASM1381303v1,GCF_013813035.1_ASM1381303v1_raw_nodes,NZ_CP057099.1,5199095,5302374
GCF_013813035.1_ASM1381303v1,GCF_013813035.1_ASM1381303v1_raw_nodes,NZ_CP057100.1,139155,5302374
GCF_904863225.1_KSB1_6J,GCF_904863225.1_KSB1_6J_raw_nodes,NZ_LR890230.1,5170210,5396578
GCF_904863225.1_KSB1_6J,GCF_904863225.1_KSB1_6J_raw_nodes,NZ_LR890231.1,192309,5396578
GCF_904863225.1_KSB1_6J,GCF_904863225.1_KSB1_6J_raw_nodes,NZ_LR890232.1,4064,5396578
GCF_904863225.1_KSB1_6J,GCF_904863225.1_KSB1_6J_raw_nodes,NZ_LR890233.1,3223,5396578
GCF_904863225.1_KSB1_6J,GCF_904863225.1_KSB1_6J_raw_nodes,NZ_LR890234.1,1916,5396578
GCF_904864565.1_INF032,GCF_904864565.1_INF032_raw_nodes,NZ_LR890456.1,5091530,5056238
GCF_014189335.1_ASM1418933v1,GCF_014189335.1_ASM1418933v1_raw_nodes,NZ_CP047271.1,5264553,5775487
GCF_014189335.1_ASM1418933v1,GCF_014189335.1_ASM1418933v1_raw_nodes,NZ_CP047272.1,251993,5775487
GCF_904863075.1_INF334,GCF_904863075.1_INF334_raw_nodes,NZ_LR890235.1,5220674,5466861
GCF_904863075.1_INF334,GCF_904863075.1_INF334_raw_nodes,NZ_LR890237.1,112069,5466861
GCF_904863075.1_INF334,GCF_904863075.1_INF334_raw_nodes,NZ_LR890236.1,166634,5466861
GCF_904863075.1_INF334,GCF_904863075.1_INF334_raw_nodes,NZ_LR890238.1,3712,5466861
GCF_904863075.1_INF334,GCF_904863075.1_INF334_raw_nodes,NZ_LR890239.1,3619,5466861
GCF_016903495.1_ASM1690349v1,GCF_016903495.1_ASM1690349v1_raw_nodes,NZ_CP069940.1,5319433,5512356
GCF_016903495.1_ASM1690349v1,GCF_016903495.1_ASM1690349v1_raw_nodes,NZ_CP069941.1,220234,5512356
GCF_012029935.2_ASM1202993v2,GCF_012029935.2_ASM1202993v2_raw_nodes,NZ_CP061404.1,5405067,5581635
GCF_012029935.2_ASM1202993v2,GCF_012029935.2_ASM1202993v2_raw_nodes,NZ_CP061405.1,155650,5581635
GCF_012029935.2_ASM1202993v2,GCF_012029935.2_ASM1202993v2_raw_nodes,NZ_CP061407.1,66874,5581635
GCF_012029935.2_ASM1202993v2,GCF_012029935.2_ASM1202993v2_raw_nodes,NZ_CP061406.1,79254,5581635
GCF_904863205.1_INF008,GCF_904863205.1_INF008_raw_nodes,NZ_LR890202.1,5300490,5475766
GCF_904863205.1_INF008,GCF_904863205.1_INF008_raw_nodes,NZ_LR890203.1,224700,5475766
GCF_904863195.1_INF133,GCF_904863195.1_INF133_raw_nodes,NZ_LR890189.1,5209810,5732146
GCF_904863195.1_INF133,GCF_904863195.1_INF133_raw_nodes,NZ_LR890193.1,112671,5732146
GCF_904863195.1_INF133,GCF_904863195.1_INF133_raw_nodes,NZ_LR890192.1,215296,5732146
GCF_904863195.1_INF133,GCF_904863195.1_INF133_raw_nodes,NZ_LR890191.1,226218,5732146
GCF_904863195.1_INF133,GCF_904863195.1_INF133_raw_nodes,NZ_LR890194.1,4064,5732146
GCF_904863195.1_INF133,GCF_904863195.1_INF133_raw_nodes,NZ_LR890195.1,3619,5732146
GCF_904863195.1_INF133,GCF_904863195.1_INF133_raw_nodes,NZ_LR890196.1,3377,5732146
GCF_904863195.1_INF133,GCF_904863195.1_INF133_raw_nodes,NZ_LR890197.1,3223,5732146
GCF_904863195.1_INF133,GCF_904863195.1_INF133_raw_nodes,NZ_LR890190.1,1879,5732146
GCF_016904635.1_ASM1690463v1,GCF_016904635.1_ASM1690463v1_raw_nodes,NZ_CP070169.1,5241430,5200917
GCF_016903895.1_ASM1690389v1,GCF_016903895.1_ASM1690389v1_raw_nodes,NZ_CP069994.1,5227637,5352556
GCF_016903895.1_ASM1690389v1,GCF_016903895.1_ASM1690389v1_raw_nodes,NZ_CP069995.1,164917,5352556
GCF_016066025.1_ASM1606602v1,GCF_016066025.1_ASM1606602v1_raw_nodes,NZ_CP065825.1,5106761,5393655
GCF_016066025.1_ASM1606602v1,GCF_016066025.1_ASM1606602v1_raw_nodes,NZ_CP065827.1,110785,5393655
GCF_016066025.1_ASM1606602v1,GCF_016066025.1_ASM1606602v1_raw_nodes,NZ_CP065826.1,203506,5393655
GCF_016066025.1_ASM1606602v1,GCF_016066025.1_ASM1606602v1_raw_nodes,NZ_CP065828.1,4444,5393655
GCF_016066025.1_ASM1606602v1,GCF_016066025.1_ASM1606602v1_raw_nodes,NZ_CP065829.1,3674,5393655
GCF_016066025.1_ASM1606602v1,GCF_016066025.1_ASM1606602v1_raw_nodes,NZ_CP065830.1,3303,5393655
GCF_904863395.1_INF250,GCF_904863395.1_INF250_raw_nodes,NZ_LR890374.1,5305579,5568137
GCF_904863395.1_INF250,GCF_904863395.1_INF250_raw_nodes,NZ_LR890375.1,229327,5568137
GCF_904863395.1_INF250,GCF_904863395.1_INF250_raw_nodes,NZ_LR890376.1,68584,5568137
GCF_904863395.1_INF250,GCF_904863395.1_INF250_raw_nodes,NZ_LR890378.1,3514,5568137
GCF_904863395.1_INF250,GCF_904863395.1_INF250_raw_nodes,NZ_LR890379.1,3223,5568137
GCF_904863395.1_INF250,GCF_904863395.1_INF250_raw_nodes,NZ_LR890380.1,2723,5568137
GCF_904863395.1_INF250,GCF_904863395.1_INF250_raw_nodes,NZ_LR890377.1,2402,5568137
GCF_019798185.1_ASM1979818v1,GCF_019798185.1_ASM1979818v1_raw_nodes,NZ_CP073791.1,5294249,5494397
GCF_019798185.1_ASM1979818v1,GCF_019798185.1_ASM1979818v1_raw_nodes,NZ_CP073792.1,150880,5494397
GCF_019798185.1_ASM1979818v1,GCF_019798185.1_ASM1979818v1_raw_nodes,NZ_CP073793.1,71213,5494397
GCF_019798185.1_ASM1979818v1,GCF_019798185.1_ASM1979818v1_raw_nodes,NZ_CP073794.1,8801,5494397
GCF_019798185.1_ASM1979818v1,GCF_019798185.1_ASM1979818v1_raw_nodes,NZ_CP073795.1,5463,5494397
GCF_019798185.1_ASM1979818v1,GCF_019798185.1_ASM1979818v1_raw_nodes,NZ_CP073796.1,4947,5494397
GCF_904863095.1_INF174,GCF_904863095.1_INF174_raw_nodes,NZ_LR890245.1,5272767,5472099
GCF_904863095.1_INF174,GCF_904863095.1_INF174_raw_nodes,NZ_LR890246.1,229252,5472099
GCF_904863095.1_INF174,GCF_904863095.1_INF174_raw_nodes,NZ_LR890247.1,4369,5472099
GCF_013783245.1_ASM1378324v1,GCF_013783245.1_ASM1378324v1_raw_nodes,NZ_CP056216.1,5200055,5312744
GCF_013783245.1_ASM1378324v1,GCF_013783245.1_ASM1378324v1_raw_nodes,NZ_CP056217.1,144699,5312744
GCF_013783245.1_ASM1378324v1,GCF_013783245.1_ASM1378324v1_raw_nodes,NZ_CP056218.1,4805,5312744
GCF_013729075.1_ASM1372907v1,GCF_013729075.1_ASM1372907v1_raw_nodes,NZ_CP056275.1,5176757,5428901
GCF_013729075.1_ASM1372907v1,GCF_013729075.1_ASM1372907v1_raw_nodes,NZ_CP056276.1,244883,5428901
GCF_013729075.1_ASM1372907v1,GCF_013729075.1_ASM1372907v1_raw_nodes,NZ_CP056277.1,48174,5428901
GCF_904863285.1_INF231,GCF_904863285.1_INF231_raw_nodes,NZ_LR890356.1,5395202,5558722
GCF_904863285.1_INF231,GCF_904863285.1_INF231_raw_nodes,NZ_LR890357.1,188484,5558722
GCF_904863285.1_INF231,GCF_904863285.1_INF231_raw_nodes,NZ_LR890358.1,3664,5558722
GCF_904863285.1_INF231,GCF_904863285.1_INF231_raw_nodes,NZ_LR890359.1,2667,5558722
GCF_012030545.2_ASM1203054v2,GCF_012030545.2_ASM1203054v2_raw_nodes,NZ_CP061385.1,5402934,5611986
GCF_012030545.2_ASM1203054v2,GCF_012030545.2_ASM1203054v2_raw_nodes,NZ_CP061386.1,169659,5611986
GCF_012030545.2_ASM1203054v2,GCF_012030545.2_ASM1203054v2_raw_nodes,NZ_CP061387.1,98677,5611986
GCF_012030545.2_ASM1203054v2,GCF_012030545.2_ASM1203054v2_raw_nodes,NZ_CP061388.1,11102,5611986
GCF_019798025.1_ASM1979802v1,GCF_019798025.1_ASM1979802v1_raw_nodes,NZ_CP073788.1,5259189,5482662
GCF_019798025.1_ASM1979802v1,GCF_019798025.1_ASM1979802v1_raw_nodes,NZ_CP073789.1,225750,5482662
GCF_019798025.1_ASM1979802v1,GCF_019798025.1_ASM1979802v1_raw_nodes,NZ_CP073790.1,34681,5482662
GCF_904863145.1_INF072,GCF_904863145.1_INF072_raw_nodes,NZ_LR890185.1,5326619,5528967
GCF_904863145.1_INF072,GCF_904863145.1_INF072_raw_nodes,NZ_LR890186.1,232285,5528967
GCF_904863145.1_INF072,GCF_904863145.1_INF072_raw_nodes,NZ_LR890187.1,4693,5528967
GCF_904863145.1_INF072,GCF_904863145.1_INF072_raw_nodes,NZ_LR890188.1,3302,5528967
GCF_020525485.1_ASM2052548v1,GCF_020525485.1_ASM2052548v1_raw_nodes,NZ_CP084866.1,5409458,5547706
GCF_020525485.1_ASM2052548v1,GCF_020525485.1_ASM2052548v1_raw_nodes,NZ_CP084867.1,224267,5547706
GCF_016903255.1_ASM1690325v1,GCF_016903255.1_ASM1690325v1_raw_nodes,NZ_CP069861.1,5195161,5475935
GCF_016903255.1_ASM1690325v1,GCF_016903255.1_ASM1690325v1_raw_nodes,NZ_CP069862.1,132365,5475935
GCF_016903255.1_ASM1690325v1,GCF_016903255.1_ASM1690325v1_raw_nodes,NZ_CP069863.1,181091,5475935
GCF_904864505.1_INF331,GCF_904864505.1_INF331_raw_nodes,NZ_LR890424.1,5230755,5370585
GCF_904864505.1_INF331,GCF_904864505.1_INF331_raw_nodes,NZ_LR890425.1,184566,5370585
GCF_014788765.1_ASM1478876v1,GCF_014788765.1_ASM1478876v1_raw_nodes,NZ_CP061832.1,5327705,5485717
GCF_014788765.1_ASM1478876v1,GCF_014788765.1_ASM1478876v1_raw_nodes,NZ_CP061833.1,172952,5485717
GCF_014788765.1_ASM1478876v1,GCF_014788765.1_ASM1478876v1_raw_nodes,NZ_CP061834.1,38025,5485717
GCF_012029895.2_ASM1202989v2,GCF_012029895.2_ASM1202989v2_raw_nodes,NZ_CP061380.1,5189577,5424611
GCF_012029895.2_ASM1202989v2,GCF_012029895.2_ASM1202989v2_raw_nodes,NZ_CP061382.1,124987,5424611
GCF_012029895.2_ASM1202989v2,GCF_012029895.2_ASM1202989v2_raw_nodes,NZ_CP061381.1,155260,5424611
GCF_012029895.2_ASM1202989v2,GCF_012029895.2_ASM1202989v2_raw_nodes,NZ_CP061383.1,3701,5424611
GCF_012029895.2_ASM1202989v2,GCF_012029895.2_ASM1202989v2_raw_nodes,NZ_CP061384.1,1934,5424611
GCF_013834745.1_ASM1383474v1,GCF_013834745.1_ASM1383474v1_raw_nodes,NZ_CP057459.1,5345273,5567554
GCF_013834745.1_ASM1383474v1,GCF_013834745.1_ASM1383474v1_raw_nodes,NZ_CP057460.1,247382,5567554
GCF_013834745.1_ASM1383474v1,GCF_013834745.1_ASM1383474v1_raw_nodes,NZ_CP057461.1,4671,5567554
GCF_013834745.1_ASM1383474v1,GCF_013834745.1_ASM1383474v1_raw_nodes,NZ_CP057462.1,3959,5567554
GCF_904865795.1_KSB2_10B,GCF_904865795.1_KSB2_10B_raw_nodes,NZ_LR890484.1,5188531,5432021
GCF_904865795.1_KSB2_10B,GCF_904865795.1_KSB2_10B_raw_nodes,NZ_LR890485.1,231939,5432021
GCF_904865795.1_KSB2_10B,GCF_904865795.1_KSB2_10B_raw_nodes,NZ_LR890486.1,47830,5432021
GCF_904865795.1_KSB2_10B,GCF_904865795.1_KSB2_10B_raw_nodes,NZ_LR890487.1,4016,5432021
GCF_904865795.1_KSB2_10B,GCF_904865795.1_KSB2_10B_raw_nodes,NZ_LR890488.1,3223,5432021
GCF_904865795.1_KSB2_10B,GCF_904865795.1_KSB2_10B_raw_nodes,NZ_LR890489.1,1916,5432021
GCF_021166235.1_ASM2116623v1,GCF_021166235.1_ASM2116623v1_raw_nodes,NZ_CP089024.1,5437756,5819206
GCF_021166235.1_ASM2116623v1,GCF_021166235.1_ASM2116623v1_raw_nodes,NZ_CP089030.1,222196,5819206
GCF_021166235.1_ASM2116623v1,GCF_021166235.1_ASM2116623v1_raw_nodes,NZ_CP089029.1,98219,5819206
GCF_021166235.1_ASM2116623v1,GCF_021166235.1_ASM2116623v1_raw_nodes,NZ_CP089027.1,61604,5819206
GCF_021166235.1_ASM2116623v1,GCF_021166235.1_ASM2116623v1_raw_nodes,NZ_CP089028.1,85924,5819206
GCF_021166235.1_ASM2116623v1,GCF_021166235.1_ASM2116623v1_raw_nodes,NZ_CP089026.1,3631,5819206
GCF_021166235.1_ASM2116623v1,GCF_021166235.1_ASM2116623v1_raw_nodes,NZ_CP089025.1,3511,5819206
GCF_002852785.2_ASM285278v2,GCF_002852785.2_ASM285278v2_raw_nodes,NZ_CP043357.1,5413756,5677276
GCF_002852785.2_ASM285278v2,GCF_002852785.2_ASM285278v2_raw_nodes,NZ_CP043359.1,185548,5677276
GCF_002852785.2_ASM285278v2,GCF_002852785.2_ASM285278v2_raw_nodes,NZ_CP043358.1,133535,5677276
GCF_002852785.2_ASM285278v2,GCF_002852785.2_ASM285278v2_raw_nodes,NZ_CP043360.1,10060,5677276
GCF_002852785.2_ASM285278v2,GCF_002852785.2_ASM285278v2_raw_nodes,NZ_CP043361.1,5596,5677276
GCF_021655415.1_ASM2165541v1,GCF_021655415.1_ASM2165541v1_raw_nodes,NZ_AP025246.1,5411977,5571357
GCF_021655415.1_ASM2165541v1,GCF_021655415.1_ASM2165541v1_raw_nodes,NZ_AP025247.1,206798,5571357
GCF_904865805.1_INF144,GCF_904865805.1_INF144_raw_nodes,NZ_LR890569.1,5232014,5376949
GCF_904865805.1_INF144,GCF_904865805.1_INF144_raw_nodes,NZ_LR890570.1,185388,5376949
GCF_003937135.2_ASM393713v2,GCF_003937135.2_ASM393713v2_raw_nodes,NZ_CP078033.1,5398375,5794095
GCF_003937135.2_ASM393713v2,GCF_003937135.2_ASM393713v2_raw_nodes,NZ_CP078036.1,65960,5794095
GCF_003937135.2_ASM393713v2,GCF_003937135.2_ASM393713v2_raw_nodes,NZ_CP078034.1,302919,5794095
GCF_003937135.2_ASM393713v2,GCF_003937135.2_ASM393713v2_raw_nodes,NZ_CP078035.1,101952,5794095
GCF_003937135.2_ASM393713v2,GCF_003937135.2_ASM393713v2_raw_nodes,NZ_CP078037.1,5997,5794095
GCF_904863365.1_INF049,GCF_904863365.1_INF049_raw_nodes,NZ_LR890360.1,5210641,5523964
GCF_904863365.1_INF049,GCF_904863365.1_INF049_raw_nodes,NZ_LR890361.1,217987,5523964
GCF_904863365.1_INF049,GCF_904863365.1_INF049_raw_nodes,NZ_LR890363.1,69309,5523964
GCF_904863365.1_INF049,GCF_904863365.1_INF049_raw_nodes,NZ_LR890362.1,71859,5523964
GCF_904863365.1_INF049,GCF_904863365.1_INF049_raw_nodes,NZ_LR890366.1,3405,5523964
GCF_904863365.1_INF049,GCF_904863365.1_INF049_raw_nodes,NZ_LR890364.1,4211,5523964
GCF_904863365.1_INF049,GCF_904863365.1_INF049_raw_nodes,NZ_LR890368.1,2496,5523964
GCF_904863365.1_INF049,GCF_904863365.1_INF049_raw_nodes,NZ_LR890367.1,2362,5523964
GCF_904863365.1_INF049,GCF_904863365.1_INF049_raw_nodes,NZ_LR890365.1,2020,5523964
GCF_016904595.1_ASM1690459v1,GCF_016904595.1_ASM1690459v1_raw_nodes,NZ_CP070158.1,5325344,5531151
GCF_016904595.1_ASM1690459v1,GCF_016904595.1_ASM1690459v1_raw_nodes,NZ_CP070159.1,233105,5531151
GCF_016904595.1_ASM1690459v1,GCF_016904595.1_ASM1690459v1_raw_nodes,NZ_CP070160.1,2058,5531151
GCF_904863245.1_INF355,GCF_904863245.1_INF355_raw_nodes,NZ_LR890277.1,5078609,5316560
GCF_904863245.1_INF355,GCF_904863245.1_INF355_raw_nodes,NZ_LR890278.1,172255,5316560
GCF_904863245.1_INF355,GCF_904863245.1_INF355_raw_nodes,NZ_LR890279.1,120320,5316560
GCF_904863245.1_INF355,GCF_904863245.1_INF355_raw_nodes,NZ_LR890280.1,3514,5316560
GCF_003261955.3_ASM326195v3,GCF_003261955.3_ASM326195v3_raw_nodes,NZ_CP033396.2,5396921,5498146
GCF_003261955.3_ASM326195v3,GCF_003261955.3_ASM326195v3_raw_nodes,NZ_CP033394.2,68698,5498146
GCF_003261955.3_ASM326195v3,GCF_003261955.3_ASM326195v3_raw_nodes,NZ_CP033395.2,51329,5498146
GCF_003261955.3_ASM326195v3,GCF_003261955.3_ASM326195v3_raw_nodes,NZ_CP033392.2,9222,5498146
GCF_003261955.3_ASM326195v3,GCF_003261955.3_ASM326195v3_raw_nodes,NZ_CP033393.2,5423,5498146
GCF_013704985.1_ASM1370498v1,GCF_013704985.1_ASM1370498v1_raw_nodes,NZ_CP055451.1,5199300,5452918
GCF_013704985.1_ASM1370498v1,GCF_013704985.1_ASM1370498v1_raw_nodes,NZ_CP055452.1,222449,5452918
GCF_013704985.1_ASM1370498v1,GCF_013704985.1_ASM1370498v1_raw_nodes,NZ_CP055453.1,41042,5452918
GCF_013704985.1_ASM1370498v1,GCF_013704985.1_ASM1370498v1_raw_nodes,NZ_CP055454.1,38470,5452918
GCF_013704985.1_ASM1370498v1,GCF_013704985.1_ASM1370498v1_raw_nodes,NZ_CP055455.1,3155,5452918
GCF_013704985.1_ASM1370498v1,GCF_013704985.1_ASM1370498v1_raw_nodes,NZ_CP055456.1,3100,5452918
GCF_013704985.1_ASM1370498v1,GCF_013704985.1_ASM1370498v1_raw_nodes,NZ_CP055457.1,2988,5452918
GCF_904863135.1_INF310,GCF_904863135.1_INF310_raw_nodes,NZ_LR890254.1,5493607,6043950
GCF_904863135.1_INF310,GCF_904863135.1_INF310_raw_nodes,NZ_LR890257.1,111123,6043950
GCF_904863135.1_INF310,GCF_904863135.1_INF310_raw_nodes,NZ_LR890255.1,159768,6043950
GCF_904863135.1_INF310,GCF_904863135.1_INF310_raw_nodes,NZ_LR890258.1,69066,6043950
GCF_904863135.1_INF310,GCF_904863135.1_INF310_raw_nodes,NZ_LR890260.1,53920,6043950
GCF_904863135.1_INF310,GCF_904863135.1_INF310_raw_nodes,NZ_LR890256.1,125729,6043950
GCF_904863135.1_INF310,GCF_904863135.1_INF310_raw_nodes,NZ_LR890259.1,63691,6043950
GCF_904863135.1_INF310,GCF_904863135.1_INF310_raw_nodes,NZ_LR890261.1,9294,6043950
GCF_904863125.1_INF357,GCF_904863125.1_INF357_raw_nodes,NZ_LR890217.1,5201011,5343900
GCF_904863125.1_INF357,GCF_904863125.1_INF357_raw_nodes,NZ_LR890218.1,172961,5343900
GCF_904863125.1_INF357,GCF_904863125.1_INF357_raw_nodes,NZ_LR890219.1,4938,5343900
GCF_904863125.1_INF357,GCF_904863125.1_INF357_raw_nodes,NZ_LR890220.1,3539,5343900
GCF_904863125.1_INF357,GCF_904863125.1_INF357_raw_nodes,NZ_LR890222.1,3392,5343900
GCF_904863125.1_INF357,GCF_904863125.1_INF357_raw_nodes,NZ_LR890223.1,3302,5343900
GCF_904863125.1_INF357,GCF_904863125.1_INF357_raw_nodes,NZ_LR890221.1,3169,5343900
GCF_904863125.1_INF357,GCF_904863125.1_INF357_raw_nodes,NZ_LR890224.1,2892,5343900
GCF_012029975.2_ASM1202997v2,GCF_012029975.2_ASM1202997v2_raw_nodes,NZ_CP061399.1,5468692,5600091
GCF_012029975.2_ASM1202997v2,GCF_012029975.2_ASM1202997v2_raw_nodes,NZ_CP061400.1,118855,5600091
GCF_012029975.2_ASM1202997v2,GCF_012029975.2_ASM1202997v2_raw_nodes,NZ_CP061401.1,67045,5600091
GCF_012029975.2_ASM1202997v2,GCF_012029975.2_ASM1202997v2_raw_nodes,NZ_CP061402.1,9294,5600091
GCF_012029975.2_ASM1202997v2,GCF_012029975.2_ASM1202997v2_raw_nodes,NZ_CP061403.1,3258,5600091
GCF_020525965.1_ASM2052596v1,GCF_020525965.1_ASM2052596v1_raw_nodes,NZ_CP084830.1,5277690,5683521
GCF_020525965.1_ASM2052596v1,GCF_020525965.1_ASM2052596v1_raw_nodes,NZ_CP084833.1,110305,5683521
GCF_020525965.1_ASM2052596v1,GCF_020525965.1_ASM2052596v1_raw_nodes,NZ_CP084831.1,142018,5683521
GCF_020525965.1_ASM2052596v1,GCF_020525965.1_ASM2052596v1_raw_nodes,NZ_CP084834.1,97286,5683521
GCF_020525965.1_ASM2052596v1,GCF_020525965.1_ASM2052596v1_raw_nodes,NZ_CP084832.1,97955,5683521
GCF_020525965.1_ASM2052596v1,GCF_020525965.1_ASM2052596v1_raw_nodes,NZ_CP084835.1,8314,5683521
GCF_020525965.1_ASM2052596v1,GCF_020525965.1_ASM2052596v1_raw_nodes,NZ_CP084841.1,4134,5683521
GCF_020525965.1_ASM2052596v1,GCF_020525965.1_ASM2052596v1_raw_nodes,NZ_CP084836.1,6365,5683521
GCF_020525965.1_ASM2052596v1,GCF_020525965.1_ASM2052596v1_raw_nodes,NZ_CP084839.1,5760,5683521
GCF_020525965.1_ASM2052596v1,GCF_020525965.1_ASM2052596v1_raw_nodes,NZ_CP084838.1,6278,5683521
GCF_020525965.1_ASM2052596v1,GCF_020525965.1_ASM2052596v1_raw_nodes,NZ_CP084840.1,5775,5683521
GCF_020525965.1_ASM2052596v1,GCF_020525965.1_ASM2052596v1_raw_nodes,NZ_CP084842.1,2350,5683521
GCF_020525965.1_ASM2052596v1,GCF_020525965.1_ASM2052596v1_raw_nodes,NZ_CP084837.1,2737,5683521
GCF_904865685.1_INF182,GCF_904865685.1_INF182_raw_nodes,NZ_LR890554.1,5343305,5420729
GCF_904865685.1_INF182,GCF_904865685.1_INF182_raw_nodes,NZ_LR890555.1,111779,5420729
GCF_016903875.1_ASM1690387v1,GCF_016903875.1_ASM1690387v1_raw_nodes,NZ_CP069992.1,5354757,5498902
GCF_016903875.1_ASM1690387v1,GCF_016903875.1_ASM1690387v1_raw_nodes,NZ_CP069993.1,177068,5498902
GCF_013805705.1_ASM1380570v1,GCF_013805705.1_ASM1380570v1_raw_nodes,NZ_CP057034.1,5153091,5407161
GCF_013805705.1_ASM1380570v1,GCF_013805705.1_ASM1380570v1_raw_nodes,NZ_CP057036.1,86316,5407161
GCF_013805705.1_ASM1380570v1,GCF_013805705.1_ASM1380570v1_raw_nodes,NZ_CP057035.1,202239,5407161
GCF_013805705.1_ASM1380570v1,GCF_013805705.1_ASM1380570v1_raw_nodes,NZ_CP057037.1,4671,5407161
GCF_020525885.1_ASM2052588v1,GCF_020525885.1_ASM2052588v1_raw_nodes,NZ_CP084868.1,5308531,5490688
GCF_020525885.1_ASM2052588v1,GCF_020525885.1_ASM2052588v1_raw_nodes,NZ_CP084869.1,226070,5490688
GCF_904866505.1_INF323,GCF_904866505.1_INF323_raw_nodes,NZ_LR890735.1,5129895,5619549
GCF_904866505.1_INF323,GCF_904866505.1_INF323_raw_nodes,NZ_LR890737.1,213507,5619549
GCF_904866505.1_INF323,GCF_904866505.1_INF323_raw_nodes,NZ_LR890736.1,203301,5619549
GCF_904866505.1_INF323,GCF_904866505.1_INF323_raw_nodes,NZ_LR890738.1,122835,5619549
GCF_904866505.1_INF323,GCF_904866505.1_INF323_raw_nodes,NZ_LR890739.1,3514,5619549
GCF_014168655.1_ASM1416865v1,GCF_014168655.1_ASM1416865v1_raw_nodes,NZ_AP021929.1,4966234,5185622
GCF_014168655.1_ASM1416865v1,GCF_014168655.1_ASM1416865v1_raw_nodes,NZ_AP021930.1,138868,5185622
GCF_014168655.1_ASM1416865v1,GCF_014168655.1_ASM1416865v1_raw_nodes,NZ_AP021931.1,123594,5185622
GCF_014168655.1_ASM1416865v1,GCF_014168655.1_ASM1416865v1_raw_nodes,NZ_AP021932.1,3981,5185622
GCF_019797985.1_ASM1979798v1,GCF_019797985.1_ASM1979798v1_raw_nodes,NZ_CP073627.1,5256815,5446534
GCF_019797985.1_ASM1979798v1,GCF_019797985.1_ASM1979798v1_raw_nodes,NZ_CP073628.1,232617,5446534
GCF_019797985.1_ASM1979798v1,GCF_019797985.1_ASM1979798v1_raw_nodes,NZ_CP073629.1,3991,5446534
GCF_020525645.1_ASM2052564v1,GCF_020525645.1_ASM2052564v1_raw_nodes,NZ_CP084856.1,5439369,5582032
GCF_020525645.1_ASM2052564v1,GCF_020525645.1_ASM2052564v1_raw_nodes,NZ_CP084857.1,167482,5582032
GCF_020525645.1_ASM2052564v1,GCF_020525645.1_ASM2052564v1_raw_nodes,NZ_CP084858.1,4369,5582032
GCF_904864475.1_INF168,GCF_904864475.1_INF168_raw_nodes,NZ_LR890471.1,5353751,5489088
GCF_904864475.1_INF168,GCF_904864475.1_INF168_raw_nodes,NZ_LR890472.1,175859,5489088
GCF_904864475.1_INF168,GCF_904864475.1_INF168_raw_nodes,NZ_LR890473.1,40217,5489088
GCF_904863425.1_INF348,GCF_904863425.1_INF348_raw_nodes,NZ_LR890323.1,5113005,5323239
GCF_904863425.1_INF348,GCF_904863425.1_INF348_raw_nodes,NZ_LR890325.1,127562,5323239
GCF_904863425.1_INF348,GCF_904863425.1_INF348_raw_nodes,NZ_LR890324.1,122057,5323239
GCF_904863275.1_INF188,GCF_904863275.1_INF188_raw_nodes,NZ_LR890307.1,5208423,5424086
GCF_904863275.1_INF188,GCF_904863275.1_INF188_raw_nodes,NZ_LR890308.1,251254,5424086
GCF_904863275.1_INF188,GCF_904863275.1_INF188_raw_nodes,NZ_LR890309.1,4443,5424086
GCF_904863275.1_INF188,GCF_904863275.1_INF188_raw_nodes,NZ_LR890310.1,2863,5424086
GCF_904863275.1_INF188,GCF_904863275.1_INF188_raw_nodes,NZ_LR890311.1,2703,5424086
GCF_013735895.1_ASM1373589v1,GCF_013735895.1_ASM1373589v1_raw_nodes,NZ_CP056425.1,5375684,5568992
GCF_013735895.1_ASM1373589v1,GCF_013735895.1_ASM1373589v1_raw_nodes,NZ_CP056426.1,203122,5568992
GCF_013735895.1_ASM1373589v1,GCF_013735895.1_ASM1373589v1_raw_nodes,NZ_CP056428.1,25549,5568992
GCF_013735895.1_ASM1373589v1,GCF_013735895.1_ASM1373589v1_raw_nodes,NZ_CP056427.1,69814,5568992
GCF_013735895.1_ASM1373589v1,GCF_013735895.1_ASM1373589v1_raw_nodes,NZ_CP056429.1,5783,5568992
GCF_013735895.1_ASM1373589v1,GCF_013735895.1_ASM1373589v1_raw_nodes,NZ_CP056430.1,3733,5568992
GCF_013735895.1_ASM1373589v1,GCF_013735895.1_ASM1373589v1_raw_nodes,NZ_CP056431.1,2836,5568992
GCF_904866535.1_KSB1_8C,GCF_904866535.1_KSB1_8C_raw_nodes,NZ_LR890751.1,5272195,5427254
GCF_904866535.1_KSB1_8C,GCF_904866535.1_KSB1_8C_raw_nodes,NZ_LR890752.1,155110,5427254
GCF_904866535.1_KSB1_8C,GCF_904866535.1_KSB1_8C_raw_nodes,NZ_LR890753.1,36385,5427254
GCF_013782105.1_ASM1378210v1,GCF_013782105.1_ASM1378210v1_raw_nodes,NZ_CP056191.1,5161607,5443908
GCF_013782105.1_ASM1378210v1,GCF_013782105.1_ASM1378210v1_raw_nodes,NZ_CP056194.1,57937,5443908
GCF_013782105.1_ASM1378210v1,GCF_013782105.1_ASM1378210v1_raw_nodes,NZ_CP056192.1,215967,5443908
GCF_013782105.1_ASM1378210v1,GCF_013782105.1_ASM1378210v1_raw_nodes,NZ_CP056193.1,58791,5443908
GCF_013782105.1_ASM1378210v1,GCF_013782105.1_ASM1378210v1_raw_nodes,NZ_CP056195.1,14959,5443908
GCF_013782105.1_ASM1378210v1,GCF_013782105.1_ASM1378210v1_raw_nodes,NZ_CP056196.1,5783,5443908
GCF_013782105.1_ASM1378210v1,GCF_013782105.1_ASM1378210v1_raw_nodes,NZ_CP056197.1,2426,5443908
GCF_013782105.1_ASM1378210v1,GCF_013782105.1_ASM1378210v1_raw_nodes,NZ_CP056198.1,1917,5443908
GCF_016904415.1_ASM1690441v1,GCF_016904415.1_ASM1690441v1_raw_nodes,NZ_CP070105.1,5322822,5542217
GCF_016904415.1_ASM1690441v1,GCF_016904415.1_ASM1690441v1_raw_nodes,NZ_CP070110.1,77186,5542217
GCF_016904415.1_ASM1690441v1,GCF_016904415.1_ASM1690441v1_raw_nodes,NZ_CP070108.1,159745,5542217
GCF_016904415.1_ASM1690441v1,GCF_016904415.1_ASM1690441v1_raw_nodes,NZ_CP070109.1,4149,5542217
GCF_016904415.1_ASM1690441v1,GCF_016904415.1_ASM1690441v1_raw_nodes,NZ_CP070106.1,1637,5542217
GCF_013796485.1_ASM1379648v1,GCF_013796485.1_ASM1379648v1_raw_nodes,NZ_CP056883.1,5241166,5489325
GCF_013796485.1_ASM1379648v1,GCF_013796485.1_ASM1379648v1_raw_nodes,NZ_CP056885.1,100325,5489325
GCF_013796485.1_ASM1379648v1,GCF_013796485.1_ASM1379648v1_raw_nodes,NZ_CP056884.1,181361,5489325
GCF_013796485.1_ASM1379648v1,GCF_013796485.1_ASM1379648v1_raw_nodes,NZ_CP056886.1,4512,5489325
GCF_013796485.1_ASM1379648v1,GCF_013796485.1_ASM1379648v1_raw_nodes,NZ_CP056887.1,3980,5489325
GCF_904864605.1_INF044,GCF_904864605.1_INF044_raw_nodes,NZ_LR890395.1,5270115,5435975
GCF_904864605.1_INF044,GCF_904864605.1_INF044_raw_nodes,NZ_LR890396.1,212175,5435975
GCF_904864605.1_INF044,GCF_904864605.1_INF044_raw_nodes,NZ_LR890397.1,4411,5435975
GCF_904864605.1_INF044,GCF_904864605.1_INF044_raw_nodes,NZ_LR890398.1,3559,5435975
GCF_904866475.1_KSB2_9B,GCF_904866475.1_KSB2_9B_raw_nodes,NZ_LR890710.1,5214607,5481238
GCF_904866475.1_KSB2_9B,GCF_904866475.1_KSB2_9B_raw_nodes,NZ_LR890711.1,201598,5481238
GCF_904866475.1_KSB2_9B,GCF_904866475.1_KSB2_9B_raw_nodes,NZ_LR890713.1,33796,5481238
GCF_904866475.1_KSB2_9B,GCF_904866475.1_KSB2_9B_raw_nodes,NZ_LR890712.1,68154,5481238
GCF_904864595.1_INF333,GCF_904864595.1_INF333_raw_nodes,NZ_LR890384.1,5179907,5386529
GCF_904864595.1_INF333,GCF_904864595.1_INF333_raw_nodes,NZ_LR890385.1,230808,5386529
GCF_904864595.1_INF333,GCF_904864595.1_INF333_raw_nodes,NZ_LR890386.1,3223,5386529
GCF_904864595.1_INF333,GCF_904864595.1_INF333_raw_nodes,NZ_LR890387.1,1916,5386529
GCF_016903395.1_ASM1690339v1,GCF_016903395.1_ASM1690339v1_raw_nodes,NZ_CP069907.1,5184358,5630605
GCF_016903395.1_ASM1690339v1,GCF_016903395.1_ASM1690339v1_raw_nodes,NZ_CP069902.1,54848,5630605
GCF_016903395.1_ASM1690339v1,GCF_016903395.1_ASM1690339v1_raw_nodes,NZ_CP069908.1,8911,5630605
GCF_016903395.1_ASM1690339v1,GCF_016903395.1_ASM1690339v1_raw_nodes,NZ_CP069904.1,334953,5630605
GCF_016903395.1_ASM1690339v1,GCF_016903395.1_ASM1690339v1_raw_nodes,NZ_CP069903.1,84670,5630605
GCF_016903395.1_ASM1690339v1,GCF_016903395.1_ASM1690339v1_raw_nodes,NZ_CP069906.1,21398,5630605
GCF_016903395.1_ASM1690339v1,GCF_016903395.1_ASM1690339v1_raw_nodes,NZ_CP069909.1,4809,5630605
GCF_016903395.1_ASM1690339v1,GCF_016903395.1_ASM1690339v1_raw_nodes,NZ_CP069905.1,3424,5630605
GCF_016903395.1_ASM1690339v1,GCF_016903395.1_ASM1690339v1_raw_nodes,NZ_CP069901.1,3223,5630605
GCF_904866215.1_INF359,GCF_904866215.1_INF359_raw_nodes,NZ_LR890616.1,5312586,5587436
GCF_904866215.1_INF359,GCF_904866215.1_INF359_raw_nodes,NZ_LR890617.1,252580,5587436
GCF_904866215.1_INF359,GCF_904866215.1_INF359_raw_nodes,NZ_LR890618.1,63154,5587436
GCF_904866295.1_KSB2_1C,GCF_904866295.1_KSB2_1C_raw_nodes,NZ_LR890620.1,5250877,5413550
GCF_904866295.1_KSB2_1C,GCF_904866295.1_KSB2_1C_raw_nodes,NZ_LR890621.1,220357,5413550
GCF_904866295.1_KSB2_1C,GCF_904866295.1_KSB2_1C_raw_nodes,NZ_LR890622.1,3759,5413550
GCF_904866295.1_KSB2_1C,GCF_904866295.1_KSB2_1C_raw_nodes,NZ_LR890623.1,3412,5413550
GCF_904866555.1_INF102,GCF_904866555.1_INF102_raw_nodes,NZ_LR890726.1,5168082,5475037
GCF_904866555.1_INF102,GCF_904866555.1_INF102_raw_nodes,NZ_LR890729.1,103830,5475037
GCF_904866555.1_INF102,GCF_904866555.1_INF102_raw_nodes,NZ_LR890727.1,111270,5475037
GCF_904866555.1_INF102,GCF_904866555.1_INF102_raw_nodes,NZ_LR890728.1,116482,5475037
GCF_904866555.1_INF102,GCF_904866555.1_INF102_raw_nodes,NZ_LR890730.1,41891,5475037
GCF_904866555.1_INF102,GCF_904866555.1_INF102_raw_nodes,NZ_LR890731.1,8712,5475037
GCF_904866555.1_INF102,GCF_904866555.1_INF102_raw_nodes,NZ_LR890733.1,3329,5475037
GCF_904866555.1_INF102,GCF_904866555.1_INF102_raw_nodes,NZ_LR890732.1,3329,5475037
GCF_904866555.1_INF102,GCF_904866555.1_INF102_raw_nodes,NZ_LR890734.1,1919,5475037
GCF_021228815.1_ASM2122881v1,GCF_021228815.1_ASM2122881v1_raw_nodes,NZ_CP089383.1,5155806,5340851
GCF_021228815.1_ASM2122881v1,GCF_021228815.1_ASM2122881v1_raw_nodes,NZ_CP089384.1,230032,5340851
GCF_904865735.1_INF361,GCF_904865735.1_INF361_raw_nodes,NZ_LR890527.1,5080583,5322309
GCF_904865735.1_INF361,GCF_904865735.1_INF361_raw_nodes,NZ_LR890528.1,177220,5322309
GCF_904865735.1_INF361,GCF_904865735.1_INF361_raw_nodes,NZ_LR890529.1,120320,5322309
GCF_904865735.1_INF361,GCF_904865735.1_INF361_raw_nodes,NZ_LR890530.1,3514,5322309
GCF_015694085.1_ASM1569408v1,GCF_015694085.1_ASM1569408v1_raw_nodes,NZ_CP065167.1,5309497,5504245
GCF_015694085.1_ASM1569408v1,GCF_015694085.1_ASM1569408v1_raw_nodes,NZ_CP065168.1,221549,5504245
GCF_015694085.1_ASM1569408v1,GCF_015694085.1_ASM1569408v1_raw_nodes,NZ_CP065169.1,3514,5504245
GCF_015694085.1_ASM1569408v1,GCF_015694085.1_ASM1569408v1_raw_nodes,NZ_CP065170.1,3058,5504245
GCF_015694085.1_ASM1569408v1,GCF_015694085.1_ASM1569408v1_raw_nodes,NZ_CP065171.1,2723,5504245
GCF_013826045.1_ASM1382604v1,GCF_013826045.1_ASM1382604v1_raw_nodes,NZ_CP057313.1,5117548,5612583
GCF_013826045.1_ASM1382604v1,GCF_013826045.1_ASM1382604v1_raw_nodes,NZ_CP057314.1,192170,5612583
GCF_013826045.1_ASM1382604v1,GCF_013826045.1_ASM1382604v1_raw_nodes,NZ_CP057316.1,109658,5612583
GCF_013826045.1_ASM1382604v1,GCF_013826045.1_ASM1382604v1_raw_nodes,NZ_CP057315.1,145962,5612583
GCF_013826045.1_ASM1382604v1,GCF_013826045.1_ASM1382604v1_raw_nodes,NZ_CP057318.1,43813,5612583
GCF_013826045.1_ASM1382604v1,GCF_013826045.1_ASM1382604v1_raw_nodes,NZ_CP057317.1,40464,5612583
GCF_013736155.1_ASM1373615v1,GCF_013736155.1_ASM1373615v1_raw_nodes,NZ_CP056432.1,5307883,5798435
GCF_013736155.1_ASM1373615v1,GCF_013736155.1_ASM1373615v1_raw_nodes,NZ_CP056436.1,107037,5798435
GCF_013736155.1_ASM1373615v1,GCF_013736155.1_ASM1373615v1_raw_nodes,NZ_CP056433.1,187275,5798435
GCF_013736155.1_ASM1373615v1,GCF_013736155.1_ASM1373615v1_raw_nodes,NZ_CP056437.1,45633,5798435
GCF_013736155.1_ASM1373615v1,GCF_013736155.1_ASM1373615v1_raw_nodes,NZ_CP056435.1,116142,5798435
GCF_013736155.1_ASM1373615v1,GCF_013736155.1_ASM1373615v1_raw_nodes,NZ_CP056434.1,111553,5798435
GCF_013736155.1_ASM1373615v1,GCF_013736155.1_ASM1373615v1_raw_nodes,NZ_CP056438.1,5726,5798435
GCF_013736155.1_ASM1373615v1,GCF_013736155.1_ASM1373615v1_raw_nodes,NZ_CP056439.1,3514,5798435
GCF_013736155.1_ASM1373615v1,GCF_013736155.1_ASM1373615v1_raw_nodes,NZ_CP056440.1,1763,5798435
GCF_016903235.1_ASM1690323v1,GCF_016903235.1_ASM1690323v1_raw_nodes,NZ_CP069853.1,5253930,5592255
GCF_016903235.1_ASM1690323v1,GCF_016903235.1_ASM1690323v1_raw_nodes,NZ_CP069855.1,100135,5592255
GCF_016903235.1_ASM1690323v1,GCF_016903235.1_ASM1690323v1_raw_nodes,NZ_CP069854.1,124038,5592255
GCF_016903235.1_ASM1690323v1,GCF_016903235.1_ASM1690323v1_raw_nodes,NZ_CP069856.1,6655,5592255
GCF_016903235.1_ASM1690323v1,GCF_016903235.1_ASM1690323v1_raw_nodes,NZ_CP069858.1,2851,5592255
GCF_020526005.1_ASM2052600v1,GCF_020526005.1_ASM2052600v1_raw_nodes,NZ_CP084852.1,5318033,5614195
GCF_020526005.1_ASM2052600v1,GCF_020526005.1_ASM2052600v1_raw_nodes,NZ_CP084854.1,110871,5614195
GCF_020526005.1_ASM2052600v1,GCF_020526005.1_ASM2052600v1_raw_nodes,NZ_CP084853.1,177879,5614195
GCF_020526005.1_ASM2052600v1,GCF_020526005.1_ASM2052600v1_raw_nodes,NZ_CP084855.1,43550,5614195
GCF_920103885.1_DJ,GCF_920103885.1_DJ_raw_nodes,NZ_OV049808.1,5392160,5593607
GCF_920103885.1_DJ,GCF_920103885.1_DJ_raw_nodes,NZ_OV049815.1,34080,5593607
GCF_920103885.1_DJ,GCF_920103885.1_DJ_raw_nodes,NZ_OV049814.1,113925,5593607
GCF_920103885.1_DJ,GCF_920103885.1_DJ_raw_nodes,NZ_OV049816.1,54975,5593607
GCF_920103885.1_DJ,GCF_920103885.1_DJ_raw_nodes,NZ_OV049813.1,45510,5593607
GCF_920103885.1_DJ,GCF_920103885.1_DJ_raw_nodes,NZ_OV049812.1,5590,5593607
GCF_920103885.1_DJ,GCF_920103885.1_DJ_raw_nodes,NZ_OV049811.1,4715,5593607
GCF_920103885.1_DJ,GCF_920103885.1_DJ_raw_nodes,NZ_OV049810.1,2056,5593607
GCF_920103885.1_DJ,GCF_920103885.1_DJ_raw_nodes,NZ_OV049809.1,1549,5593607
GCF_904864625.1_INF171,GCF_904864625.1_INF171_raw_nodes,NZ_LR890446.1,5326477,5478083
GCF_904864625.1_INF171,GCF_904864625.1_INF171_raw_nodes,NZ_LR890447.1,156683,5478083
GCF_904864625.1_INF171,GCF_904864625.1_INF171_raw_nodes,NZ_LR890448.1,29473,5478083
GCF_904864625.1_INF171,GCF_904864625.1_INF171_raw_nodes,NZ_LR890449.1,3966,5478083
GCF_904864625.1_INF171,GCF_904864625.1_INF171_raw_nodes,NZ_LR890450.1,2442,5478083
GCF_904863295.1_KSB2_2B,GCF_904863295.1_KSB2_2B_raw_nodes,NZ_LR890343.1,5209380,5429372
GCF_904863295.1_KSB2_2B,GCF_904863295.1_KSB2_2B_raw_nodes,NZ_LR890344.1,242987,5429372
GCF_904863295.1_KSB2_2B,GCF_904863295.1_KSB2_2B_raw_nodes,NZ_LR890346.1,4064,5429372
GCF_904863295.1_KSB2_2B,GCF_904863295.1_KSB2_2B_raw_nodes,NZ_LR890347.1,3223,5429372
GCF_904863295.1_KSB2_2B,GCF_904863295.1_KSB2_2B_raw_nodes,NZ_LR890345.1,5904,5429372
GCF_015694065.1_ASM1569406v1,GCF_015694065.1_ASM1569406v1_raw_nodes,NZ_CP065172.1,5250659,5826121
GCF_015694065.1_ASM1569406v1,GCF_015694065.1_ASM1569406v1_raw_nodes,NZ_CP065174.1,212902,5826121
GCF_015694065.1_ASM1569406v1,GCF_015694065.1_ASM1569406v1_raw_nodes,NZ_CP065175.1,120860,5826121
GCF_015694065.1_ASM1569406v1,GCF_015694065.1_ASM1569406v1_raw_nodes,NZ_CP065173.1,203885,5826121
GCF_015694065.1_ASM1569406v1,GCF_015694065.1_ASM1569406v1_raw_nodes,NZ_CP065176.1,89521,5826121
GCF_904866375.1_INF242,GCF_904866375.1_INF242_raw_nodes,NZ_LR890624.1,5212906,5420262
GCF_904866375.1_INF242,GCF_904866375.1_INF242_raw_nodes,NZ_LR890625.1,231519,5420262
GCF_904866375.1_INF242,GCF_904866375.1_INF242_raw_nodes,NZ_LR890626.1,5074,5420262
GCF_904866405.1_INF279,GCF_904866405.1_INF279_raw_nodes,NZ_LR890679.1,5314004,5575835
GCF_904866405.1_INF279,GCF_904866405.1_INF279_raw_nodes,NZ_LR890680.1,228840,5575835
GCF_904866405.1_INF279,GCF_904866405.1_INF279_raw_nodes,NZ_LR890681.1,68392,5575835
GCF_904866405.1_INF279,GCF_904866405.1_INF279_raw_nodes,NZ_LR890682.1,5341,5575835
GCF_904866405.1_INF279,GCF_904866405.1_INF279_raw_nodes,NZ_LR890683.1,3400,5575835
GCF_904866405.1_INF279,GCF_904866405.1_INF279_raw_nodes,NZ_LR890684.1,3128,5575835
GCF_904866405.1_INF279,GCF_904866405.1_INF279_raw_nodes,NZ_LR890685.1,2723,5575835
GCF_016904275.1_ASM1690427v1,GCF_016904275.1_ASM1690427v1_raw_nodes,NZ_CP070087.1,5405041,5623321
GCF_016904275.1_ASM1690427v1,GCF_016904275.1_ASM1690427v1_raw_nodes,NZ_CP070083.1,198193,5623321
GCF_016904275.1_ASM1690427v1,GCF_016904275.1_ASM1690427v1_raw_nodes,NZ_CP070086.1,41386,5623321
GCF_016904275.1_ASM1690427v1,GCF_016904275.1_ASM1690427v1_raw_nodes,NZ_CP070082.1,13917,5623321
GCF_016904275.1_ASM1690427v1,GCF_016904275.1_ASM1690427v1_raw_nodes,NZ_CP070084.1,32476,5623321
GCF_016904275.1_ASM1690427v1,GCF_016904275.1_ASM1690427v1_raw_nodes,NZ_CP070085.1,5585,5623321
GCF_015138775.1_ASM1513877v1,GCF_015138775.1_ASM1513877v1_raw_nodes,NZ_AP022527.1,5231606,5372809
GCF_015138775.1_ASM1513877v1,GCF_015138775.1_ASM1513877v1_raw_nodes,NZ_AP022528.1,137794,5372809
GCF_015138775.1_ASM1513877v1,GCF_015138775.1_ASM1513877v1_raw_nodes,NZ_AP022529.1,39672,5372809
GCF_015138775.1_ASM1513877v1,GCF_015138775.1_ASM1513877v1_raw_nodes,NZ_AP022530.1,4906,5372809
GCF_015138775.1_ASM1513877v1,GCF_015138775.1_ASM1513877v1_raw_nodes,NZ_AP022531.1,3860,5372809
GCF_015138775.1_ASM1513877v1,GCF_015138775.1_ASM1513877v1_raw_nodes,NZ_AP022532.1,2315,5372809
GCF_904866445.1_INF305,GCF_904866445.1_INF305_raw_nodes,NZ_LR890702.1,5499091,6040633
GCF_904866445.1_INF305,GCF_904866445.1_INF305_raw_nodes,NZ_LR890705.1,111123,6040633
GCF_904866445.1_INF305,GCF_904866445.1_INF305_raw_nodes,NZ_LR890703.1,160593,6040633
GCF_904866445.1_INF305,GCF_904866445.1_INF305_raw_nodes,NZ_LR890706.1,69066,6040633
GCF_904866445.1_INF305,GCF_904866445.1_INF305_raw_nodes,NZ_LR890708.1,53747,6040633
GCF_904866445.1_INF305,GCF_904866445.1_INF305_raw_nodes,NZ_LR890704.1,123927,6040633
GCF_904866445.1_INF305,GCF_904866445.1_INF305_raw_nodes,NZ_LR890707.1,63691,6040633
GCF_904866445.1_INF305,GCF_904866445.1_INF305_raw_nodes,NZ_LR890709.1,9294,6040633
GCF_904865675.1_INF358,GCF_904865675.1_INF358_raw_nodes,NZ_LR890474.1,5273283,5496114
GCF_904865675.1_INF358,GCF_904865675.1_INF358_raw_nodes,NZ_LR890475.1,265697,5496114
GCF_904866395.1_INF321,GCF_904866395.1_INF321_raw_nodes,NZ_LR890669.1,5030323,5326821
GCF_904866395.1_INF321,GCF_904866395.1_INF321_raw_nodes,NZ_LR890670.1,113800,5326821
GCF_904866395.1_INF321,GCF_904866395.1_INF321_raw_nodes,NZ_LR890671.1,110422,5326821
GCF_904866395.1_INF321,GCF_904866395.1_INF321_raw_nodes,NZ_LR890672.1,4286,5326821
GCF_904866395.1_INF321,GCF_904866395.1_INF321_raw_nodes,NZ_LR890673.1,3620,5326821
GCF_904866395.1_INF321,GCF_904866395.1_INF321_raw_nodes,NZ_LR890674.1,3415,5326821
GCF_904866395.1_INF321,GCF_904866395.1_INF321_raw_nodes,NZ_LR890676.1,3109,5326821
GCF_904866395.1_INF321,GCF_904866395.1_INF321_raw_nodes,NZ_LR890675.1,3074,5326821
GCF_904866395.1_INF321,GCF_904866395.1_INF321_raw_nodes,NZ_LR890677.1,1870,5326821
GCF_904866395.1_INF321,GCF_904866395.1_INF321_raw_nodes,NZ_LR890678.1,1240,5326821
GCF_904865745.1_INF247,GCF_904865745.1_INF247_raw_nodes,NZ_LR890562.1,5185650,5293830
GCF_904865745.1_INF247,GCF_904865745.1_INF247_raw_nodes,NZ_LR890563.1,153941,5293830
GCF_014905815.1_ASM1490581v1,GCF_014905815.1_ASM1490581v1_raw_nodes,NZ_AP023453.1,5371921,5622838
GCF_014905815.1_ASM1490581v1,GCF_014905815.1_ASM1490581v1_raw_nodes,NZ_AP023454.1,87822,5622838
GCF_014905815.1_ASM1490581v1,GCF_014905815.1_ASM1490581v1_raw_nodes,NZ_AP023455.1,182819,5622838
GCF_014905815.1_ASM1490581v1,GCF_014905815.1_ASM1490581v1_raw_nodes,NZ_AP023456.1,45937,5622838
GCF_014905815.1_ASM1490581v1,GCF_014905815.1_ASM1490581v1_raw_nodes,NZ_AP023457.1,9294,5622838
GCF_014905815.1_ASM1490581v1,GCF_014905815.1_ASM1490581v1_raw_nodes,NZ_AP023458.1,3991,5622838
GCF_022369925.1_ASM2236992v1,GCF_022369925.1_ASM2236992v1_raw_nodes,NZ_CP071027.1,5356219,5797024
GCF_022369925.1_ASM2236992v1,GCF_022369925.1_ASM2236992v1_raw_nodes,NZ_CP071029.1,112696,5797024
GCF_022369925.1_ASM2236992v1,GCF_022369925.1_ASM2236992v1_raw_nodes,NZ_CP071028.1,330481,5797024
GCF_022369925.1_ASM2236992v1,GCF_022369925.1_ASM2236992v1_raw_nodes,NZ_CP071030.1,51320,5797024
GCF_022369925.1_ASM2236992v1,GCF_022369925.1_ASM2236992v1_raw_nodes,NZ_CP071031.1,4167,5797024
GCF_016904315.1_ASM1690431v1,GCF_016904315.1_ASM1690431v1_raw_nodes,NZ_CP070092.1,5253784,5428736
GCF_016904315.1_ASM1690431v1,GCF_016904315.1_ASM1690431v1_raw_nodes,NZ_CP070093.1,201094,5428736
GCF_016904315.1_ASM1690431v1,GCF_016904315.1_ASM1690431v1_raw_nodes,NZ_CP070094.1,4071,5428736
GCF_016903475.1_ASM1690347v1,GCF_016903475.1_ASM1690347v1_raw_nodes,NZ_CP070172.1,5167326,5399253
GCF_016903475.1_ASM1690347v1,GCF_016903475.1_ASM1690347v1_raw_nodes,NZ_CP070173.1,215917,5399253
GCF_016903475.1_ASM1690347v1,GCF_016903475.1_ASM1690347v1_raw_nodes,NZ_CP070174.1,59420,5399253
GCF_016903475.1_ASM1690347v1,GCF_016903475.1_ASM1690347v1_raw_nodes,NZ_CP070175.1,3810,5399253
GCF_904866205.1_INF145,GCF_904866205.1_INF145_raw_nodes,NZ_LR890583.1,5244880,5339786
GCF_904866205.1_INF145,GCF_904866205.1_INF145_raw_nodes,NZ_LR890584.1,126908,5339786
GCF_904866205.1_INF145,GCF_904866205.1_INF145_raw_nodes,NZ_LR890585.1,5629,5339786
GCF_904866205.1_INF145,GCF_904866205.1_INF145_raw_nodes,NZ_LR890586.1,4439,5339786
GCF_021655475.1_ASM2165547v1,GCF_021655475.1_ASM2165547v1_raw_nodes,NZ_AP024572.1,5269014,5551286
GCF_021655475.1_ASM2165547v1,GCF_021655475.1_ASM2165547v1_raw_nodes,NZ_AP024574.1,110870,5551286
GCF_021655475.1_ASM2165547v1,GCF_021655475.1_ASM2165547v1_raw_nodes,NZ_AP024573.1,214071,5551286
GCF_021655475.1_ASM2165547v1,GCF_021655475.1_ASM2165547v1_raw_nodes,NZ_AP024575.1,35491,5551286
GCF_021057265.1_ASM2105726v1,GCF_021057265.1_ASM2105726v1_raw_nodes,NZ_CP084984.1,5329503,5793711
GCF_021057265.1_ASM2105726v1,GCF_021057265.1_ASM2105726v1_raw_nodes,NZ_CP084985.1,365926,5793711
GCF_904866325.1_INF299,GCF_904866325.1_INF299_raw_nodes,NZ_LR890632.1,5493872,6037997
GCF_904866325.1_INF299,GCF_904866325.1_INF299_raw_nodes,NZ_LR890635.1,111123,6037997
GCF_904866325.1_INF299,GCF_904866325.1_INF299_raw_nodes,NZ_LR890633.1,159768,6037997
GCF_904866325.1_INF299,GCF_904866325.1_INF299_raw_nodes,NZ_LR890636.1,69066,6037997
GCF_904866325.1_INF299,GCF_904866325.1_INF299_raw_nodes,NZ_LR890638.1,53863,6037997
GCF_904866325.1_INF299,GCF_904866325.1_INF299_raw_nodes,NZ_LR890634.1,125729,6037997
GCF_904866325.1_INF299,GCF_904866325.1_INF299_raw_nodes,NZ_LR890637.1,63691,6037997
GCF_904866325.1_INF299,GCF_904866325.1_INF299_raw_nodes,NZ_LR890639.1,9294,6037997
GCF_016903755.1_ASM1690375v1,GCF_016903755.1_ASM1690375v1_raw_nodes,NZ_CP069961.1,5213040,5187366
GCF_904866195.1_INF327,GCF_904866195.1_INF327_raw_nodes,NZ_LR890571.1,5204280,5595252
GCF_904866195.1_INF327,GCF_904866195.1_INF327_raw_nodes,NZ_LR890573.1,210184,5595252
GCF_904866195.1_INF327,GCF_904866195.1_INF327_raw_nodes,NZ_LR890572.1,211153,5595252
GCF_904866195.1_INF327,GCF_904866195.1_INF327_raw_nodes,NZ_LR890574.1,4064,5595252
GCF_904866195.1_INF327,GCF_904866195.1_INF327_raw_nodes,NZ_LR890575.1,3223,5595252
GCF_002853115.2_ASM285311v2,GCF_002853115.2_ASM285311v2_raw_nodes,NZ_CP073285.1,5450890,5623194
GCF_002853115.2_ASM285311v2,GCF_002853115.2_ASM285311v2_raw_nodes,NZ_CP073286.1,217238,5623194
GCF_014168575.1_ASM1416857v1,GCF_014168575.1_ASM1416857v1_raw_nodes,NZ_AP021909.1,5248988,5431389
GCF_014168575.1_ASM1416857v1,GCF_014168575.1_ASM1416857v1_raw_nodes,NZ_AP021910.1,134521,5431389
GCF_014168575.1_ASM1416857v1,GCF_014168575.1_ASM1416857v1_raw_nodes,NZ_AP021911.1,72259,5431389
GCF_014168575.1_ASM1416857v1,GCF_014168575.1_ASM1416857v1_raw_nodes,NZ_AP021912.1,4572,5431389
GCF_014168575.1_ASM1416857v1,GCF_014168575.1_ASM1416857v1_raw_nodes,NZ_AP021913.1,4163,5431389
GCF_904866435.1_INF119,GCF_904866435.1_INF119_raw_nodes,NZ_LR890691.1,5167835,5347481
GCF_904866435.1_INF119,GCF_904866435.1_INF119_raw_nodes,NZ_LR890692.1,220875,5347481
GCF_904865785.1_INF142,GCF_904865785.1_INF142_raw_nodes,NZ_LR890547.1,5269415,5582862
GCF_904865785.1_INF142,GCF_904865785.1_INF142_raw_nodes,NZ_LR890549.1,142697,5582862
GCF_904865785.1_INF142,GCF_904865785.1_INF142_raw_nodes,NZ_LR890548.1,169037,5582862
GCF_904865785.1_INF142,GCF_904865785.1_INF142_raw_nodes,NZ_LR890550.1,74246,5582862
GCF_904865785.1_INF142,GCF_904865785.1_INF142_raw_nodes,NZ_LR890552.1,4536,5582862
GCF_904865785.1_INF142,GCF_904865785.1_INF142_raw_nodes,NZ_LR890551.1,8608,5582862
GCF_904865785.1_INF142,GCF_904865785.1_INF142_raw_nodes,NZ_LR890553.1,3825,5582862
GCF_904863055.1_INF022,GCF_904863055.1_INF022_raw_nodes,NZ_LR890209.1,5167510,5391165
GCF_904863055.1_INF022,GCF_904863055.1_INF022_raw_nodes,NZ_LR890210.1,183755,5391165
GCF_904863055.1_INF022,GCF_904863055.1_INF022_raw_nodes,NZ_LR890211.1,103921,5391165
GCF_904863055.1_INF022,GCF_904863055.1_INF022_raw_nodes,NZ_LR890213.1,2297,5391165
GCF_904863055.1_INF022,GCF_904863055.1_INF022_raw_nodes,NZ_LR890212.1,3130,5391165
GCF_904863055.1_INF022,GCF_904863055.1_INF022_raw_nodes,NZ_LR890214.1,1263,5391165
GCF_020149875.1_ASM2014987v1,GCF_020149875.1_ASM2014987v1_raw_nodes,NZ_CP083775.1,5406397,5671865
GCF_020149875.1_ASM2014987v1,GCF_020149875.1_ASM2014987v1_raw_nodes,NZ_CP083777.1,68891,5671865
GCF_020149875.1_ASM2014987v1,GCF_020149875.1_ASM2014987v1_raw_nodes,NZ_CP083776.1,239694,5671865
GCF_020149875.1_ASM2014987v1,GCF_020149875.1_ASM2014987v1_raw_nodes,NZ_CP083778.1,33609,5671865
GCF_020149875.1_ASM2014987v1,GCF_020149875.1_ASM2014987v1_raw_nodes,NZ_CP083779.1,5521,5671865
GCF_020149875.1_ASM2014987v1,GCF_020149875.1_ASM2014987v1_raw_nodes,NZ_CP083780.1,4740,5671865
GCF_020149875.1_ASM2014987v1,GCF_020149875.1_ASM2014987v1_raw_nodes,NZ_CP083781.1,3594,5671865
GCF_020149875.1_ASM2014987v1,GCF_020149875.1_ASM2014987v1_raw_nodes,NZ_CP083782.1,3549,5671865
GCF_020149875.1_ASM2014987v1,GCF_020149875.1_ASM2014987v1_raw_nodes,NZ_CP083783.1,2892,5671865
GCF_020525905.1_ASM2052590v1,GCF_020525905.1_ASM2052590v1_raw_nodes,NZ_CP084825.1,5268653,5368730
GCF_020525905.1_ASM2052590v1,GCF_020525905.1_ASM2052590v1_raw_nodes,NZ_CP084826.1,109041,5368730
GCF_020525905.1_ASM2052590v1,GCF_020525905.1_ASM2052590v1_raw_nodes,NZ_CP084827.1,14984,5368730
GCF_020525905.1_ASM2052590v1,GCF_020525905.1_ASM2052590v1_raw_nodes,NZ_CP084828.1,2970,5368730
GCF_016904095.1_ASM1690409v1,GCF_016904095.1_ASM1690409v1_raw_nodes,NZ_CP070046.1,5283237,5440015
GCF_016904095.1_ASM1690409v1,GCF_016904095.1_ASM1690409v1_raw_nodes,NZ_CP070047.1,205847,5440015
GCF_016904295.1_ASM1690429v1,GCF_016904295.1_ASM1690429v1_raw_nodes,NZ_CP070088.1,5334207,5514353
GCF_016904295.1_ASM1690429v1,GCF_016904295.1_ASM1690429v1_raw_nodes,NZ_CP070089.1,205900,5514353
GCF_016904295.1_ASM1690429v1,GCF_016904295.1_ASM1690429v1_raw_nodes,NZ_CP070091.1,8832,5514353
GCF_904866415.1_INF201,GCF_904866415.1_INF201_raw_nodes,NZ_LR890686.1,5261707,5394719
GCF_904866415.1_INF201,GCF_904866415.1_INF201_raw_nodes,NZ_LR890687.1,166977,5394719
GCF_904866415.1_INF201,GCF_904866415.1_INF201_raw_nodes,NZ_LR890688.1,4387,5394719
GCF_904866415.1_INF201,GCF_904866415.1_INF201_raw_nodes,NZ_LR890689.1,4268,5394719
GCF_904866415.1_INF201,GCF_904866415.1_INF201_raw_nodes,NZ_LR890690.1,2665,5394719
GCF_020526025.1_ASM2052602v1,GCF_020526025.1_ASM2052602v1_raw_nodes,NZ_CP084871.1,5330202,5440702
GCF_020526025.1_ASM2052602v1,GCF_020526025.1_ASM2052602v1_raw_nodes,NZ_CP084872.1,145926,5440702
GCF_013611495.1_ASM1361149v1,GCF_013611495.1_ASM1361149v1_raw_nodes,NZ_CP055509.1,5385026,5752027
GCF_013611495.1_ASM1361149v1,GCF_013611495.1_ASM1361149v1_raw_nodes,NZ_CP055511.1,114495,5752027
GCF_013611495.1_ASM1361149v1,GCF_013611495.1_ASM1361149v1_raw_nodes,NZ_CP055512.1,84628,5752027
GCF_013611495.1_ASM1361149v1,GCF_013611495.1_ASM1361149v1_raw_nodes,NZ_CP055513.1,35237,5752027
GCF_013611495.1_ASM1361149v1,GCF_013611495.1_ASM1361149v1_raw_nodes,NZ_CP055510.1,307010,5752027
GCF_013611495.1_ASM1361149v1,GCF_013611495.1_ASM1361149v1_raw_nodes,NZ_CP055514.1,3970,5752027
GCF_013611495.1_ASM1361149v1,GCF_013611495.1_ASM1361149v1_raw_nodes,NZ_CP055515.1,2775,5752027
GCF_013611495.1_ASM1361149v1,GCF_013611495.1_ASM1361149v1_raw_nodes,NZ_CP055516.1,1919,5752027
GCF_017639065.1_ASM1763906v1,GCF_017639065.1_ASM1763906v1_raw_nodes,NZ_CP067255.1,5325459,5512640
GCF_017639065.1_ASM1763906v1,GCF_017639065.1_ASM1763906v1_raw_nodes,NZ_CP067256.1,166666,5512640
GCF_017639065.1_ASM1763906v1,GCF_017639065.1_ASM1763906v1_raw_nodes,NZ_CP067257.1,56042,5512640
GCF_017639065.1_ASM1763906v1,GCF_017639065.1_ASM1763906v1_raw_nodes,NZ_CP067258.1,3898,5512640
GCF_017639065.1_ASM1763906v1,GCF_017639065.1_ASM1763906v1_raw_nodes,NZ_CP067259.1,3357,5512640
GCF_017639065.1_ASM1763906v1,GCF_017639065.1_ASM1763906v1_raw_nodes,NZ_CP067260.1,3005,5512640
GCF_904866465.1_INF161,GCF_904866465.1_INF161_raw_nodes,NZ_LR890719.1,5155882,5262675
GCF_904866465.1_INF161,GCF_904866465.1_INF161_raw_nodes,NZ_LR890720.1,97878,5262675
GCF_904866465.1_INF161,GCF_904866465.1_INF161_raw_nodes,NZ_LR890721.1,85250,5262675
GCF_021497265.1_ASM2149726v1,GCF_021497265.1_ASM2149726v1_raw_nodes,NZ_CP053862.1,5396418,5680849
GCF_021497265.1_ASM2149726v1,GCF_021497265.1_ASM2149726v1_raw_nodes,NZ_CP053863.1,216801,5680849
GCF_021497265.1_ASM2149726v1,GCF_021497265.1_ASM2149726v1_raw_nodes,NZ_CP053864.1,110998,5680849
GCF_016903735.1_ASM1690373v1,GCF_016903735.1_ASM1690373v1_raw_nodes,NZ_CP069946.1,5289642,5407864
GCF_016903735.1_ASM1690373v1,GCF_016903735.1_ASM1690373v1_raw_nodes,NZ_CP069948.1,81443,5407864
GCF_016903735.1_ASM1690373v1,GCF_016903735.1_ASM1690373v1_raw_nodes,NZ_CP069947.1,84475,5407864
GCF_016903735.1_ASM1690373v1,GCF_016903735.1_ASM1690373v1_raw_nodes,NZ_CP069949.1,4167,5407864
GCF_904863335.1_KSB1_5B,GCF_904863335.1_KSB1_5B_raw_nodes,NZ_LR890353.1,5237027,5428916
GCF_904863335.1_KSB1_5B,GCF_904863335.1_KSB1_5B_raw_nodes,NZ_LR890354.1,151279,5428916
GCF_904863335.1_KSB1_5B,GCF_904863335.1_KSB1_5B_raw_nodes,NZ_LR890355.1,91864,5428916
GCF_904864525.1_INF350,GCF_904864525.1_INF350_raw_nodes,NZ_LR890422.1,5334005,5449172
GCF_904864525.1_INF350,GCF_904864525.1_INF350_raw_nodes,NZ_LR890423.1,150352,5449172
GCF_013734035.1_ASM1373403v1,GCF_013734035.1_ASM1373403v1_raw_nodes,NZ_CP056372.1,5258997,5618011
GCF_013734035.1_ASM1373403v1,GCF_013734035.1_ASM1373403v1_raw_nodes,NZ_CP056375.1,107685,5618011
GCF_013734035.1_ASM1373403v1,GCF_013734035.1_ASM1373403v1_raw_nodes,NZ_CP056374.1,155768,5618011
GCF_013734035.1_ASM1373403v1,GCF_013734035.1_ASM1373403v1_raw_nodes,NZ_CP056373.1,161801,5618011
GCF_013734035.1_ASM1373403v1,GCF_013734035.1_ASM1373403v1_raw_nodes,NZ_CP056376.1,5783,5618011
GCF_013734035.1_ASM1373403v1,GCF_013734035.1_ASM1373403v1_raw_nodes,NZ_CP056377.1,5525,5618011
GCF_013734035.1_ASM1373403v1,GCF_013734035.1_ASM1373403v1_raw_nodes,NZ_CP056378.1,4416,5618011
GCF_013734035.1_ASM1373403v1,GCF_013734035.1_ASM1373403v1_raw_nodes,NZ_CP056379.1,4018,5618011
GCF_013734035.1_ASM1373403v1,GCF_013734035.1_ASM1373403v1_raw_nodes,NZ_CP056380.1,1916,5618011
GCF_020525865.1_ASM2052586v1,GCF_020525865.1_ASM2052586v1_raw_nodes,NZ_CP084823.1,5344663,5488475
GCF_020525865.1_ASM2052586v1,GCF_020525865.1_ASM2052586v1_raw_nodes,NZ_CP084824.1,191237,5488475
GCF_904865695.1_INF319,GCF_904865695.1_INF319_raw_nodes,NZ_LR890542.1,5320632,5762163
GCF_904865695.1_INF319,GCF_904865695.1_INF319_raw_nodes,NZ_LR890544.1,110937,5762163
GCF_904865695.1_INF319,GCF_904865695.1_INF319_raw_nodes,NZ_LR890543.1,242735,5762163
GCF_904865695.1_INF319,GCF_904865695.1_INF319_raw_nodes,NZ_LR890546.1,48363,5762163
GCF_904865695.1_INF319,GCF_904865695.1_INF319_raw_nodes,NZ_LR890545.1,63235,5762163
GCF_019798005.1_ASM1979800v1,GCF_019798005.1_ASM1979800v1_raw_nodes,NZ_CP073783.1,5202424,5607513
GCF_019798005.1_ASM1979800v1,GCF_019798005.1_ASM1979800v1_raw_nodes,NZ_CP073786.1,110542,5607513
GCF_019798005.1_ASM1979800v1,GCF_019798005.1_ASM1979800v1_raw_nodes,NZ_CP073785.1,110316,5607513
GCF_019798005.1_ASM1979800v1,GCF_019798005.1_ASM1979800v1_raw_nodes,NZ_CP073784.1,214228,5607513
GCF_019798005.1_ASM1979800v1,GCF_019798005.1_ASM1979800v1_raw_nodes,NZ_CP073787.1,4627,5607513
