<?xml version='1.0' encoding='UTF-8' ?>
<svg xmlns='http://www.w3.org/2000/svg' xmlns:xlink='http://www.w3.org/1999/xlink' class='svglite' width='504.00pt' height='360.00pt' viewBox='0 0 504.00 360.00'>
<defs>
  <style type='text/css'><![CDATA[
    .svglite line, .svglite polyline, .svglite polygon, .svglite path, .svglite rect, .svglite circle {
      fill: none;
      stroke: #000000;
      stroke-linecap: round;
      stroke-linejoin: round;
      stroke-miterlimit: 10.00;
    }
    .svglite text {
      white-space: pre;
    }
  ]]></style>
</defs>
<rect width='100%' height='100%' style='stroke: none; fill: #FFFFFF;'/>
<defs>
  <clipPath id='cpMC4wMHw1MDQuMDB8MC4wMHwzNjAuMDA='>
    <rect x='0.00' y='0.00' width='504.00' height='360.00' />
  </clipPath>
</defs>
<g clip-path='url(#cpMC4wMHw1MDQuMDB8MC4wMHwzNjAuMDA=)'>
</g>
<defs>
  <clipPath id='cpNDUuNzF8NDk4LjUyfDExLjY4fDMxMS4xOQ=='>
    <rect x='45.71' y='11.68' width='452.81' height='299.51' />
  </clipPath>
</defs>
<g clip-path='url(#cpNDUuNzF8NDk4LjUyfDExLjY4fDMxMS4xOQ==)'>
<polyline points='45.71,262.57 498.52,262.57 ' style='stroke-width: 0.53; stroke: #EBEBEB; stroke-linecap: butt;' />
<polyline points='45.71,192.55 498.52,192.55 ' style='stroke-width: 0.53; stroke: #EBEBEB; stroke-linecap: butt;' />
<polyline points='45.71,122.54 498.52,122.54 ' style='stroke-width: 0.53; stroke: #EBEBEB; stroke-linecap: butt;' />
<polyline points='45.71,52.52 498.52,52.52 ' style='stroke-width: 0.53; stroke: #EBEBEB; stroke-linecap: butt;' />
<polyline points='118.95,311.19 118.95,11.68 ' style='stroke-width: 0.53; stroke: #EBEBEB; stroke-linecap: butt;' />
<polyline points='214.68,311.19 214.68,11.68 ' style='stroke-width: 0.53; stroke: #EBEBEB; stroke-linecap: butt;' />
<polyline points='310.41,311.19 310.41,11.68 ' style='stroke-width: 0.53; stroke: #EBEBEB; stroke-linecap: butt;' />
<polyline points='406.14,311.19 406.14,11.68 ' style='stroke-width: 0.53; stroke: #EBEBEB; stroke-linecap: butt;' />
<polyline points='45.71,297.57 498.52,297.57 ' style='stroke-width: 1.07; stroke: #EBEBEB; stroke-linecap: butt;' />
<polyline points='45.71,227.56 498.52,227.56 ' style='stroke-width: 1.07; stroke: #EBEBEB; stroke-linecap: butt;' />
<polyline points='45.71,157.54 498.52,157.54 ' style='stroke-width: 1.07; stroke: #EBEBEB; stroke-linecap: butt;' />
<polyline points='45.71,87.53 498.52,87.53 ' style='stroke-width: 1.07; stroke: #EBEBEB; stroke-linecap: butt;' />
<polyline points='45.71,17.51 498.52,17.51 ' style='stroke-width: 1.07; stroke: #EBEBEB; stroke-linecap: butt;' />
<rect x='66.29' y='258.68' width='9.57' height='38.90' style='stroke-width: 1.07; stroke-linecap: butt; stroke-linejoin: miter; fill: #B5B5B5;' />
<rect x='75.87' y='297.57' width='9.57' height='0.00' style='stroke-width: 1.07; stroke-linecap: butt; stroke-linejoin: miter; fill: #B5B5B5;' />
<rect x='85.44' y='297.57' width='9.57' height='0.00' style='stroke-width: 1.07; stroke-linecap: butt; stroke-linejoin: miter; fill: #B5B5B5;' />
<rect x='95.01' y='297.57' width='9.57' height='0.00' style='stroke-width: 1.07; stroke-linecap: butt; stroke-linejoin: miter; fill: #B5B5B5;' />
<rect x='104.59' y='297.57' width='9.57' height='0.00' style='stroke-width: 1.07; stroke-linecap: butt; stroke-linejoin: miter; fill: #B5B5B5;' />
<rect x='114.16' y='297.57' width='9.57' height='0.00' style='stroke-width: 1.07; stroke-linecap: butt; stroke-linejoin: miter; fill: #B5B5B5;' />
<rect x='123.73' y='258.68' width='9.57' height='38.90' style='stroke-width: 1.07; stroke-linecap: butt; stroke-linejoin: miter; fill: #B5B5B5;' />
<rect x='133.31' y='297.57' width='9.57' height='0.00' style='stroke-width: 1.07; stroke-linecap: butt; stroke-linejoin: miter; fill: #B5B5B5;' />
<rect x='142.88' y='297.57' width='9.57' height='0.00' style='stroke-width: 1.07; stroke-linecap: butt; stroke-linejoin: miter; fill: #B5B5B5;' />
<rect x='152.45' y='297.57' width='9.57' height='0.00' style='stroke-width: 1.07; stroke-linecap: butt; stroke-linejoin: miter; fill: #B5B5B5;' />
<rect x='162.03' y='297.57' width='9.57' height='0.00' style='stroke-width: 1.07; stroke-linecap: butt; stroke-linejoin: miter; fill: #B5B5B5;' />
<rect x='171.60' y='297.57' width='9.57' height='0.00' style='stroke-width: 1.07; stroke-linecap: butt; stroke-linejoin: miter; fill: #B5B5B5;' />
<rect x='181.17' y='297.57' width='9.57' height='0.00' style='stroke-width: 1.07; stroke-linecap: butt; stroke-linejoin: miter; fill: #B5B5B5;' />
<rect x='190.74' y='258.68' width='9.57' height='38.90' style='stroke-width: 1.07; stroke-linecap: butt; stroke-linejoin: miter; fill: #B5B5B5;' />
<rect x='200.32' y='297.57' width='9.57' height='0.00' style='stroke-width: 1.07; stroke-linecap: butt; stroke-linejoin: miter; fill: #B5B5B5;' />
<rect x='209.89' y='297.57' width='9.57' height='0.00' style='stroke-width: 1.07; stroke-linecap: butt; stroke-linejoin: miter; fill: #B5B5B5;' />
<rect x='219.46' y='297.57' width='9.57' height='0.00' style='stroke-width: 1.07; stroke-linecap: butt; stroke-linejoin: miter; fill: #B5B5B5;' />
<rect x='229.04' y='297.57' width='9.57' height='0.00' style='stroke-width: 1.07; stroke-linecap: butt; stroke-linejoin: miter; fill: #B5B5B5;' />
<rect x='238.61' y='297.57' width='9.57' height='0.00' style='stroke-width: 1.07; stroke-linecap: butt; stroke-linejoin: miter; fill: #B5B5B5;' />
<rect x='248.18' y='297.57' width='9.57' height='0.00' style='stroke-width: 1.07; stroke-linecap: butt; stroke-linejoin: miter; fill: #B5B5B5;' />
<rect x='257.76' y='297.57' width='9.57' height='0.00' style='stroke-width: 1.07; stroke-linecap: butt; stroke-linejoin: miter; fill: #B5B5B5;' />
<rect x='267.33' y='258.68' width='9.57' height='38.90' style='stroke-width: 1.07; stroke-linecap: butt; stroke-linejoin: miter; fill: #B5B5B5;' />
<rect x='276.90' y='297.57' width='9.57' height='0.00' style='stroke-width: 1.07; stroke-linecap: butt; stroke-linejoin: miter; fill: #B5B5B5;' />
<rect x='286.48' y='297.57' width='9.57' height='0.00' style='stroke-width: 1.07; stroke-linecap: butt; stroke-linejoin: miter; fill: #B5B5B5;' />
<rect x='296.05' y='297.57' width='9.57' height='0.00' style='stroke-width: 1.07; stroke-linecap: butt; stroke-linejoin: miter; fill: #B5B5B5;' />
<rect x='305.62' y='297.57' width='9.57' height='0.00' style='stroke-width: 1.07; stroke-linecap: butt; stroke-linejoin: miter; fill: #B5B5B5;' />
<rect x='315.20' y='297.57' width='9.57' height='0.00' style='stroke-width: 1.07; stroke-linecap: butt; stroke-linejoin: miter; fill: #B5B5B5;' />
<rect x='324.77' y='258.68' width='9.57' height='38.90' style='stroke-width: 1.07; stroke-linecap: butt; stroke-linejoin: miter; fill: #B5B5B5;' />
<rect x='334.34' y='297.57' width='9.57' height='0.00' style='stroke-width: 1.07; stroke-linecap: butt; stroke-linejoin: miter; fill: #B5B5B5;' />
<rect x='343.91' y='258.68' width='9.57' height='38.90' style='stroke-width: 1.07; stroke-linecap: butt; stroke-linejoin: miter; fill: #B5B5B5;' />
<rect x='353.49' y='297.57' width='9.57' height='0.00' style='stroke-width: 1.07; stroke-linecap: butt; stroke-linejoin: miter; fill: #B5B5B5;' />
<rect x='363.06' y='180.88' width='9.57' height='116.69' style='stroke-width: 1.07; stroke-linecap: butt; stroke-linejoin: miter; fill: #B5B5B5;' />
<rect x='372.63' y='258.68' width='9.57' height='38.90' style='stroke-width: 1.07; stroke-linecap: butt; stroke-linejoin: miter; fill: #B5B5B5;' />
<rect x='382.21' y='258.68' width='9.57' height='38.90' style='stroke-width: 1.07; stroke-linecap: butt; stroke-linejoin: miter; fill: #B5B5B5;' />
<rect x='391.78' y='180.88' width='9.57' height='116.69' style='stroke-width: 1.07; stroke-linecap: butt; stroke-linejoin: miter; fill: #B5B5B5;' />
<rect x='401.35' y='25.29' width='9.57' height='272.28' style='stroke-width: 1.07; stroke-linecap: butt; stroke-linejoin: miter; fill: #B5B5B5;' />
<rect x='410.93' y='141.98' width='9.57' height='155.59' style='stroke-width: 1.07; stroke-linecap: butt; stroke-linejoin: miter; fill: #B5B5B5;' />
<rect x='420.50' y='141.98' width='9.57' height='155.59' style='stroke-width: 1.07; stroke-linecap: butt; stroke-linejoin: miter; fill: #B5B5B5;' />
<rect x='430.07' y='141.98' width='9.57' height='155.59' style='stroke-width: 1.07; stroke-linecap: butt; stroke-linejoin: miter; fill: #B5B5B5;' />
<rect x='439.65' y='297.57' width='9.57' height='0.00' style='stroke-width: 1.07; stroke-linecap: butt; stroke-linejoin: miter; fill: #B5B5B5;' />
<rect x='449.22' y='297.57' width='9.57' height='0.00' style='stroke-width: 1.07; stroke-linecap: butt; stroke-linejoin: miter; fill: #B5B5B5;' />
<rect x='458.79' y='297.57' width='9.57' height='0.00' style='stroke-width: 1.07; stroke-linecap: butt; stroke-linejoin: miter; fill: #B5B5B5;' />
<rect x='468.37' y='180.88' width='9.57' height='116.69' style='stroke-width: 1.07; stroke-linecap: butt; stroke-linejoin: miter; fill: #B5B5B5;' />
<polygon points='69.82,287.82 70.60,287.83 71.39,287.87 72.17,287.93 72.95,288.02 73.73,288.13 74.51,288.26 75.29,288.41 76.07,288.59 76.85,288.79 77.63,289.00 78.42,289.23 79.20,289.47 79.98,289.72 80.76,289.99 81.54,290.26 82.32,290.54 83.10,290.83 83.88,291.12 84.66,291.40 85.45,291.69 86.23,291.98 87.01,292.25 87.79,292.53 88.57,292.79 89.35,293.05 90.13,293.29 90.91,293.52 91.69,293.74 92.48,293.94 93.26,294.12 94.04,294.29 94.82,294.45 95.60,294.58 96.38,294.69 97.16,294.79 97.94,294.86 98.72,294.92 99.51,294.95 100.29,294.97 101.07,294.96 101.85,294.93 102.63,294.89 103.41,294.82 104.19,294.73 104.97,294.62 105.75,294.50 106.54,294.35 107.32,294.18 108.10,294.00 108.88,293.81 109.66,293.59 110.44,293.37 111.22,293.13 112.00,292.88 112.78,292.62 113.57,292.35 114.35,292.07 115.13,291.79 115.91,291.50 116.69,291.21 117.47,290.92 118.25,290.64 119.03,290.36 119.81,290.08 120.60,289.81 121.38,289.55 122.16,289.31 122.94,289.07 123.72,288.86 124.50,288.66 125.28,288.47 126.06,288.31 126.84,288.17 127.63,288.05 128.41,287.95 129.19,287.88 129.97,287.84 130.75,287.82 131.53,287.82 132.31,287.85 133.09,287.91 133.87,287.99 134.66,288.09 135.44,288.21 136.22,288.36 137.00,288.53 137.78,288.72 138.56,288.93 139.34,289.15 140.12,289.40 140.90,289.65 141.69,289.91 142.47,290.18 143.25,290.47 144.03,290.75 144.81,291.04 145.59,291.33 146.37,291.62 147.15,291.91 147.93,292.20 148.72,292.48 149.50,292.75 150.28,293.02 151.06,293.27 151.84,293.52 152.62,293.75 153.40,293.96 154.18,294.17 154.96,294.35 155.75,294.53 156.53,294.68 157.31,294.81 158.09,294.93 158.87,295.03 159.65,295.11 160.43,295.17 161.21,295.21 161.99,295.23 162.78,295.23 163.56,295.21 164.34,295.17 165.12,295.11 165.90,295.04 166.68,294.94 167.46,294.82 168.24,294.69 169.02,294.54 169.81,294.36 170.59,294.18 171.37,293.98 172.15,293.76 172.93,293.53 173.71,293.29 174.49,293.03 175.27,292.77 176.05,292.50 176.84,292.22 177.62,291.93 178.40,291.64 179.18,291.35 179.96,291.06 180.74,290.77 181.52,290.48 182.30,290.20 183.08,289.93 183.87,289.66 184.65,289.41 185.43,289.17 186.21,288.94 186.99,288.74 187.77,288.55 188.55,288.37 189.33,288.22 190.11,288.10 190.90,287.99 191.68,287.91 192.46,287.85 193.24,287.82 194.02,287.82 194.80,287.84 195.58,287.88 196.36,287.96 197.14,288.05 197.93,288.17 198.71,288.31 199.49,288.47 200.27,288.66 201.05,288.86 201.83,289.08 202.61,289.32 203.39,289.57 204.17,289.83 204.96,290.11 205.74,290.39 206.52,290.68 207.30,290.98 208.08,291.28 208.86,291.58 209.64,291.88 210.42,292.18 211.20,292.48 211.99,292.77 212.77,293.06 213.55,293.34 214.33,293.62 215.11,293.88 215.89,294.14 216.67,294.38 217.45,294.61 218.23,294.83 219.02,295.04 219.80,295.24 220.58,295.42 221.36,295.60 222.14,295.75 222.92,295.90 223.70,296.03 224.48,296.15 225.26,296.26 226.05,296.35 226.83,296.43 227.61,296.50 228.39,296.55 229.17,296.60 229.95,296.63 230.73,296.64 231.51,296.65 232.29,296.64 233.08,296.63 233.86,296.59 234.64,296.55 235.42,296.49 236.20,296.42 236.98,296.34 237.76,296.25 238.54,296.14 239.32,296.02 240.11,295.89 240.89,295.74 241.67,295.58 242.45,295.41 243.23,295.22 244.01,295.02 244.79,294.81 245.57,294.59 246.35,294.36 247.14,294.11 247.92,293.85 248.70,293.59 249.48,293.32 250.26,293.03 251.04,292.74 251.82,292.45 252.60,292.15 253.38,291.85 254.17,291.55 254.95,291.25 255.73,290.95 256.51,290.65 257.29,290.36 258.07,290.08 258.85,289.80 259.63,289.54 260.41,289.29 261.20,289.06 261.98,288.84 262.76,288.63 263.54,288.45 264.32,288.29 265.10,288.15 265.88,288.03 266.66,287.94 267.44,287.88 268.23,287.83 269.01,287.81 269.79,287.82 270.57,287.85 271.35,287.91 272.13,287.99 272.91,288.09 273.69,288.22 274.47,288.37 275.26,288.54 276.04,288.73 276.82,288.93 277.60,289.16 278.38,289.39 279.16,289.64 279.94,289.89 280.72,290.16 281.50,290.43 282.29,290.70 283.07,290.98 283.85,291.25 284.63,291.53 285.41,291.80 286.19,292.06 286.97,292.31 287.75,292.55 288.53,292.79 289.32,293.01 290.10,293.21 290.88,293.40 291.66,293.57 292.44,293.72 293.22,293.85 294.00,293.96 294.78,294.05 295.56,294.12 296.35,294.17 297.13,294.19 297.91,294.18 298.69,294.16 299.47,294.11 300.25,294.03 301.03,293.93 301.81,293.81 302.59,293.66 303.38,293.49 304.16,293.29 304.94,293.08 305.72,292.84 306.50,292.58 307.28,292.30 308.06,291.99 308.84,291.67 309.62,291.34 310.41,290.98 311.19,290.60 311.97,290.22 312.75,289.82 313.53,289.40 314.31,288.98 315.09,288.54 315.87,288.10 316.65,287.64 317.44,287.18 318.22,286.72 319.00,286.25 319.78,285.78 320.56,285.30 321.34,284.82 322.12,284.34 322.90,283.85 323.68,283.37 324.47,282.89 325.25,282.40 326.03,281.91 326.81,281.43 327.59,280.94 328.37,280.45 329.15,279.96 329.93,279.46 330.71,278.96 331.50,278.46 332.28,277.95 333.06,277.44 333.84,276.92 334.62,276.39 335.40,275.85 336.18,275.30 336.96,274.74 337.74,274.17 338.53,273.59 339.31,273.00 340.09,272.39 340.87,271.77 341.65,271.14 342.43,270.49 343.21,269.84 343.99,269.17 344.77,268.49 345.56,267.80 346.34,267.10 347.12,266.40 347.90,265.69 348.68,264.97 349.46,264.26 350.24,263.54 351.02,262.82 351.80,262.11 352.59,261.40 353.37,260.69 354.15,260.00 354.93,259.31 355.71,258.63 356.49,257.96 357.27,257.31 358.05,256.66 358.83,256.02 359.62,255.39 360.40,254.77 361.18,254.15 361.96,253.53 362.74,252.92 363.52,252.30 364.30,251.67 365.08,251.03 365.86,250.37 366.65,249.69 367.43,248.97 368.21,248.22 368.99,247.43 369.77,246.59 370.55,245.69 371.33,244.72 372.11,243.69 372.89,242.58 373.68,241.38 374.46,240.08 375.24,238.69 376.02,237.21 376.80,235.61 377.58,233.88 378.36,232.05 379.14,230.11 379.92,228.05 380.71,225.84 381.49,223.52 382.27,221.10 383.05,218.57 383.83,215.88 384.61,213.11 385.39,210.23 386.17,207.27 386.95,204.21 387.74,201.07 388.52,197.86 389.30,194.61 390.08,191.30 390.86,187.95 391.64,184.60 392.42,181.23 393.20,177.87 393.98,174.54 394.77,171.24 395.55,167.99 396.33,164.80 397.11,161.71 397.89,158.70 398.67,155.79 399.45,152.99 400.23,150.34 401.01,147.83 401.80,145.46 402.58,143.24 403.36,141.19 404.14,139.34 404.92,137.66 405.70,136.15 406.48,134.81 407.26,133.72 408.04,132.80 408.83,132.07 409.61,131.51 410.39,131.19 411.17,131.06 411.95,131.11 412.73,131.33 413.51,131.76 414.29,132.39 415.07,133.19 415.86,134.14 416.64,135.27 417.42,136.60 418.20,138.07 418.98,139.69 419.76,141.44 420.54,143.39 421.32,145.46 422.10,147.65 422.89,149.95 423.67,152.40 424.45,154.97 425.23,157.64 426.01,160.40 426.79,163.26 427.57,166.22 428.35,169.25 429.13,172.34 429.92,175.50 430.70,178.72 431.48,181.99 432.26,185.28 433.04,188.61 433.82,191.95 434.60,195.30 435.38,198.65 436.16,201.99 436.95,205.30 437.73,208.57 438.51,211.80 439.29,214.99 440.07,218.11 440.85,221.15 441.63,224.11 442.41,226.99 443.19,229.79 443.98,232.45 444.76,235.00 445.54,237.46 446.32,239.80 447.10,241.99 447.88,244.06 448.66,246.01 449.44,247.84 450.22,249.53 451.01,251.08 451.79,252.51 452.57,253.83 453.35,255.04 454.13,256.10 454.91,257.07 455.69,257.94 456.47,258.73 457.25,259.41 458.04,260.02 458.82,260.56 459.60,261.04 460.38,261.47 461.16,261.85 461.94,262.20 462.72,262.52 463.50,262.83 464.28,263.12 465.07,263.42 465.85,263.72 466.63,264.03 467.41,264.37 468.19,264.73 468.97,265.12 468.97,297.57 468.19,297.57 467.41,297.57 466.63,297.57 465.85,297.57 465.07,297.57 464.28,297.57 463.50,297.57 462.72,297.57 461.94,297.57 461.16,297.57 460.38,297.57 459.60,297.57 458.82,297.57 458.04,297.57 457.25,297.57 456.47,297.57 455.69,297.57 454.91,297.57 454.13,297.57 453.35,297.57 452.57,297.57 451.79,297.57 451.01,297.57 450.22,297.57 449.44,297.57 448.66,297.57 447.88,297.57 447.10,297.57 446.32,297.57 445.54,297.57 444.76,297.57 443.98,297.57 443.19,297.57 442.41,297.57 441.63,297.57 440.85,297.57 440.07,297.57 439.29,297.57 438.51,297.57 437.73,297.57 436.95,297.57 436.16,297.57 435.38,297.57 434.60,297.57 433.82,297.57 433.04,297.57 432.26,297.57 431.48,297.57 430.70,297.57 429.92,297.57 429.13,297.57 428.35,297.57 427.57,297.57 426.79,297.57 426.01,297.57 425.23,297.57 424.45,297.57 423.67,297.57 422.89,297.57 422.10,297.57 421.32,297.57 420.54,297.57 419.76,297.57 418.98,297.57 418.20,297.57 417.42,297.57 416.64,297.57 415.86,297.57 415.07,297.57 414.29,297.57 413.51,297.57 412.73,297.57 411.95,297.57 411.17,297.57 410.39,297.57 409.61,297.57 408.83,297.57 408.04,297.57 407.26,297.57 406.48,297.57 405.70,297.57 404.92,297.57 404.14,297.57 403.36,297.57 402.58,297.57 401.80,297.57 401.01,297.57 400.23,297.57 399.45,297.57 398.67,297.57 397.89,297.57 397.11,297.57 396.33,297.57 395.55,297.57 394.77,297.57 393.98,297.57 393.20,297.57 392.42,297.57 391.64,297.57 390.86,297.57 390.08,297.57 389.30,297.57 388.52,297.57 387.74,297.57 386.95,297.57 386.17,297.57 385.39,297.57 384.61,297.57 383.83,297.57 383.05,297.57 382.27,297.57 381.49,297.57 380.71,297.57 379.92,297.57 379.14,297.57 378.36,297.57 377.58,297.57 376.80,297.57 376.02,297.57 375.24,297.57 374.46,297.57 373.68,297.57 372.89,297.57 372.11,297.57 371.33,297.57 370.55,297.57 369.77,297.57 368.99,297.57 368.21,297.57 367.43,297.57 366.65,297.57 365.86,297.57 365.08,297.57 364.30,297.57 363.52,297.57 362.74,297.57 361.96,297.57 361.18,297.57 360.40,297.57 359.62,297.57 358.83,297.57 358.05,297.57 357.27,297.57 356.49,297.57 355.71,297.57 354.93,297.57 354.15,297.57 353.37,297.57 352.59,297.57 351.80,297.57 351.02,297.57 350.24,297.57 349.46,297.57 348.68,297.57 347.90,297.57 347.12,297.57 346.34,297.57 345.56,297.57 344.77,297.57 343.99,297.57 343.21,297.57 342.43,297.57 341.65,297.57 340.87,297.57 340.09,297.57 339.31,297.57 338.53,297.57 337.74,297.57 336.96,297.57 336.18,297.57 335.40,297.57 334.62,297.57 333.84,297.57 333.06,297.57 332.28,297.57 331.50,297.57 330.71,297.57 329.93,297.57 329.15,297.57 328.37,297.57 327.59,297.57 326.81,297.57 326.03,297.57 325.25,297.57 324.47,297.57 323.68,297.57 322.90,297.57 322.12,297.57 321.34,297.57 320.56,297.57 319.78,297.57 319.00,297.57 318.22,297.57 317.44,297.57 316.65,297.57 315.87,297.57 315.09,297.57 314.31,297.57 313.53,297.57 312.75,297.57 311.97,297.57 311.19,297.57 310.41,297.57 309.62,297.57 308.84,297.57 308.06,297.57 307.28,297.57 306.50,297.57 305.72,297.57 304.94,297.57 304.16,297.57 303.38,297.57 302.59,297.57 301.81,297.57 301.03,297.57 300.25,297.57 299.47,297.57 298.69,297.57 297.91,297.57 297.13,297.57 296.35,297.57 295.56,297.57 294.78,297.57 294.00,297.57 293.22,297.57 292.44,297.57 291.66,297.57 290.88,297.57 290.10,297.57 289.32,297.57 288.53,297.57 287.75,297.57 286.97,297.57 286.19,297.57 285.41,297.57 284.63,297.57 283.85,297.57 283.07,297.57 282.29,297.57 281.50,297.57 280.72,297.57 279.94,297.57 279.16,297.57 278.38,297.57 277.60,297.57 276.82,297.57 276.04,297.57 275.26,297.57 274.47,297.57 273.69,297.57 272.91,297.57 272.13,297.57 271.35,297.57 270.57,297.57 269.79,297.57 269.01,297.57 268.23,297.57 267.44,297.57 266.66,297.57 265.88,297.57 265.10,297.57 264.32,297.57 263.54,297.57 262.76,297.57 261.98,297.57 261.20,297.57 260.41,297.57 259.63,297.57 258.85,297.57 258.07,297.57 257.29,297.57 256.51,297.57 255.73,297.57 254.95,297.57 254.17,297.57 253.38,297.57 252.60,297.57 251.82,297.57 251.04,297.57 250.26,297.57 249.48,297.57 248.70,297.57 247.92,297.57 247.14,297.57 246.35,297.57 245.57,297.57 244.79,297.57 244.01,297.57 243.23,297.57 242.45,297.57 241.67,297.57 240.89,297.57 240.11,297.57 239.32,297.57 238.54,297.57 237.76,297.57 236.98,297.57 236.20,297.57 235.42,297.57 234.64,297.57 233.86,297.57 233.08,297.57 232.29,297.57 231.51,297.57 230.73,297.57 229.95,297.57 229.17,297.57 228.39,297.57 227.61,297.57 226.83,297.57 226.05,297.57 225.26,297.57 224.48,297.57 223.70,297.57 222.92,297.57 222.14,297.57 221.36,297.57 220.58,297.57 219.80,297.57 219.02,297.57 218.23,297.57 217.45,297.57 216.67,297.57 215.89,297.57 215.11,297.57 214.33,297.57 213.55,297.57 212.77,297.57 211.99,297.57 211.20,297.57 210.42,297.57 209.64,297.57 208.86,297.57 208.08,297.57 207.30,297.57 206.52,297.57 205.74,297.57 204.96,297.57 204.17,297.57 203.39,297.57 202.61,297.57 201.83,297.57 201.05,297.57 200.27,297.57 199.49,297.57 198.71,297.57 197.93,297.57 197.14,297.57 196.36,297.57 195.58,297.57 194.80,297.57 194.02,297.57 193.24,297.57 192.46,297.57 191.68,297.57 190.90,297.57 190.11,297.57 189.33,297.57 188.55,297.57 187.77,297.57 186.99,297.57 186.21,297.57 185.43,297.57 184.65,297.57 183.87,297.57 183.08,297.57 182.30,297.57 181.52,297.57 180.74,297.57 179.96,297.57 179.18,297.57 178.40,297.57 177.62,297.57 176.84,297.57 176.05,297.57 175.27,297.57 174.49,297.57 173.71,297.57 172.93,297.57 172.15,297.57 171.37,297.57 170.59,297.57 169.81,297.57 169.02,297.57 168.24,297.57 167.46,297.57 166.68,297.57 165.90,297.57 165.12,297.57 164.34,297.57 163.56,297.57 162.78,297.57 161.99,297.57 161.21,297.57 160.43,297.57 159.65,297.57 158.87,297.57 158.09,297.57 157.31,297.57 156.53,297.57 155.75,297.57 154.96,297.57 154.18,297.57 153.40,297.57 152.62,297.57 151.84,297.57 151.06,297.57 150.28,297.57 149.50,297.57 148.72,297.57 147.93,297.57 147.15,297.57 146.37,297.57 145.59,297.57 144.81,297.57 144.03,297.57 143.25,297.57 142.47,297.57 141.69,297.57 140.90,297.57 140.12,297.57 139.34,297.57 138.56,297.57 137.78,297.57 137.00,297.57 136.22,297.57 135.44,297.57 134.66,297.57 133.87,297.57 133.09,297.57 132.31,297.57 131.53,297.57 130.75,297.57 129.97,297.57 129.19,297.57 128.41,297.57 127.63,297.57 126.84,297.57 126.06,297.57 125.28,297.57 124.50,297.57 123.72,297.57 122.94,297.57 122.16,297.57 121.38,297.57 120.60,297.57 119.81,297.57 119.03,297.57 118.25,297.57 117.47,297.57 116.69,297.57 115.91,297.57 115.13,297.57 114.35,297.57 113.57,297.57 112.78,297.57 112.00,297.57 111.22,297.57 110.44,297.57 109.66,297.57 108.88,297.57 108.10,297.57 107.32,297.57 106.54,297.57 105.75,297.57 104.97,297.57 104.19,297.57 103.41,297.57 102.63,297.57 101.85,297.57 101.07,297.57 100.29,297.57 99.51,297.57 98.72,297.57 97.94,297.57 97.16,297.57 96.38,297.57 95.60,297.57 94.82,297.57 94.04,297.57 93.26,297.57 92.48,297.57 91.69,297.57 90.91,297.57 90.13,297.57 89.35,297.57 88.57,297.57 87.79,297.57 87.01,297.57 86.23,297.57 85.45,297.57 84.66,297.57 83.88,297.57 83.10,297.57 82.32,297.57 81.54,297.57 80.76,297.57 79.98,297.57 79.20,297.57 78.42,297.57 77.63,297.57 76.85,297.57 76.07,297.57 75.29,297.57 74.51,297.57 73.73,297.57 72.95,297.57 72.17,297.57 71.39,297.57 70.60,297.57 69.82,297.57 ' style='stroke-width: 0.00; stroke: none; stroke-linecap: butt; fill: #FF9933; fill-opacity: 0.50;' />
<polyline points='69.82,287.82 70.60,287.83 71.39,287.87 72.17,287.93 72.95,288.02 73.73,288.13 74.51,288.26 75.29,288.41 76.07,288.59 76.85,288.79 77.63,289.00 78.42,289.23 79.20,289.47 79.98,289.72 80.76,289.99 81.54,290.26 82.32,290.54 83.10,290.83 83.88,291.12 84.66,291.40 85.45,291.69 86.23,291.98 87.01,292.25 87.79,292.53 88.57,292.79 89.35,293.05 90.13,293.29 90.91,293.52 91.69,293.74 92.48,293.94 93.26,294.12 94.04,294.29 94.82,294.45 95.60,294.58 96.38,294.69 97.16,294.79 97.94,294.86 98.72,294.92 99.51,294.95 100.29,294.97 101.07,294.96 101.85,294.93 102.63,294.89 103.41,294.82 104.19,294.73 104.97,294.62 105.75,294.50 106.54,294.35 107.32,294.18 108.10,294.00 108.88,293.81 109.66,293.59 110.44,293.37 111.22,293.13 112.00,292.88 112.78,292.62 113.57,292.35 114.35,292.07 115.13,291.79 115.91,291.50 116.69,291.21 117.47,290.92 118.25,290.64 119.03,290.36 119.81,290.08 120.60,289.81 121.38,289.55 122.16,289.31 122.94,289.07 123.72,288.86 124.50,288.66 125.28,288.47 126.06,288.31 126.84,288.17 127.63,288.05 128.41,287.95 129.19,287.88 129.97,287.84 130.75,287.82 131.53,287.82 132.31,287.85 133.09,287.91 133.87,287.99 134.66,288.09 135.44,288.21 136.22,288.36 137.00,288.53 137.78,288.72 138.56,288.93 139.34,289.15 140.12,289.40 140.90,289.65 141.69,289.91 142.47,290.18 143.25,290.47 144.03,290.75 144.81,291.04 145.59,291.33 146.37,291.62 147.15,291.91 147.93,292.20 148.72,292.48 149.50,292.75 150.28,293.02 151.06,293.27 151.84,293.52 152.62,293.75 153.40,293.96 154.18,294.17 154.96,294.35 155.75,294.53 156.53,294.68 157.31,294.81 158.09,294.93 158.87,295.03 159.65,295.11 160.43,295.17 161.21,295.21 161.99,295.23 162.78,295.23 163.56,295.21 164.34,295.17 165.12,295.11 165.90,295.04 166.68,294.94 167.46,294.82 168.24,294.69 169.02,294.54 169.81,294.36 170.59,294.18 171.37,293.98 172.15,293.76 172.93,293.53 173.71,293.29 174.49,293.03 175.27,292.77 176.05,292.50 176.84,292.22 177.62,291.93 178.40,291.64 179.18,291.35 179.96,291.06 180.74,290.77 181.52,290.48 182.30,290.20 183.08,289.93 183.87,289.66 184.65,289.41 185.43,289.17 186.21,288.94 186.99,288.74 187.77,288.55 188.55,288.37 189.33,288.22 190.11,288.10 190.90,287.99 191.68,287.91 192.46,287.85 193.24,287.82 194.02,287.82 194.80,287.84 195.58,287.88 196.36,287.96 197.14,288.05 197.93,288.17 198.71,288.31 199.49,288.47 200.27,288.66 201.05,288.86 201.83,289.08 202.61,289.32 203.39,289.57 204.17,289.83 204.96,290.11 205.74,290.39 206.52,290.68 207.30,290.98 208.08,291.28 208.86,291.58 209.64,291.88 210.42,292.18 211.20,292.48 211.99,292.77 212.77,293.06 213.55,293.34 214.33,293.62 215.11,293.88 215.89,294.14 216.67,294.38 217.45,294.61 218.23,294.83 219.02,295.04 219.80,295.24 220.58,295.42 221.36,295.60 222.14,295.75 222.92,295.90 223.70,296.03 224.48,296.15 225.26,296.26 226.05,296.35 226.83,296.43 227.61,296.50 228.39,296.55 229.17,296.60 229.95,296.63 230.73,296.64 231.51,296.65 232.29,296.64 233.08,296.63 233.86,296.59 234.64,296.55 235.42,296.49 236.20,296.42 236.98,296.34 237.76,296.25 238.54,296.14 239.32,296.02 240.11,295.89 240.89,295.74 241.67,295.58 242.45,295.41 243.23,295.22 244.01,295.02 244.79,294.81 245.57,294.59 246.35,294.36 247.14,294.11 247.92,293.85 248.70,293.59 249.48,293.32 250.26,293.03 251.04,292.74 251.82,292.45 252.60,292.15 253.38,291.85 254.17,291.55 254.95,291.25 255.73,290.95 256.51,290.65 257.29,290.36 258.07,290.08 258.85,289.80 259.63,289.54 260.41,289.29 261.20,289.06 261.98,288.84 262.76,288.63 263.54,288.45 264.32,288.29 265.10,288.15 265.88,288.03 266.66,287.94 267.44,287.88 268.23,287.83 269.01,287.81 269.79,287.82 270.57,287.85 271.35,287.91 272.13,287.99 272.91,288.09 273.69,288.22 274.47,288.37 275.26,288.54 276.04,288.73 276.82,288.93 277.60,289.16 278.38,289.39 279.16,289.64 279.94,289.89 280.72,290.16 281.50,290.43 282.29,290.70 283.07,290.98 283.85,291.25 284.63,291.53 285.41,291.80 286.19,292.06 286.97,292.31 287.75,292.55 288.53,292.79 289.32,293.01 290.10,293.21 290.88,293.40 291.66,293.57 292.44,293.72 293.22,293.85 294.00,293.96 294.78,294.05 295.56,294.12 296.35,294.17 297.13,294.19 297.91,294.18 298.69,294.16 299.47,294.11 300.25,294.03 301.03,293.93 301.81,293.81 302.59,293.66 303.38,293.49 304.16,293.29 304.94,293.08 305.72,292.84 306.50,292.58 307.28,292.30 308.06,291.99 308.84,291.67 309.62,291.34 310.41,290.98 311.19,290.60 311.97,290.22 312.75,289.82 313.53,289.40 314.31,288.98 315.09,288.54 315.87,288.10 316.65,287.64 317.44,287.18 318.22,286.72 319.00,286.25 319.78,285.78 320.56,285.30 321.34,284.82 322.12,284.34 322.90,283.85 323.68,283.37 324.47,282.89 325.25,282.40 326.03,281.91 326.81,281.43 327.59,280.94 328.37,280.45 329.15,279.96 329.93,279.46 330.71,278.96 331.50,278.46 332.28,277.95 333.06,277.44 333.84,276.92 334.62,276.39 335.40,275.85 336.18,275.30 336.96,274.74 337.74,274.17 338.53,273.59 339.31,273.00 340.09,272.39 340.87,271.77 341.65,271.14 342.43,270.49 343.21,269.84 343.99,269.17 344.77,268.49 345.56,267.80 346.34,267.10 347.12,266.40 347.90,265.69 348.68,264.97 349.46,264.26 350.24,263.54 351.02,262.82 351.80,262.11 352.59,261.40 353.37,260.69 354.15,260.00 354.93,259.31 355.71,258.63 356.49,257.96 357.27,257.31 358.05,256.66 358.83,256.02 359.62,255.39 360.40,254.77 361.18,254.15 361.96,253.53 362.74,252.92 363.52,252.30 364.30,251.67 365.08,251.03 365.86,250.37 366.65,249.69 367.43,248.97 368.21,248.22 368.99,247.43 369.77,246.59 370.55,245.69 371.33,244.72 372.11,243.69 372.89,242.58 373.68,241.38 374.46,240.08 375.24,238.69 376.02,237.21 376.80,235.61 377.58,233.88 378.36,232.05 379.14,230.11 379.92,228.05 380.71,225.84 381.49,223.52 382.27,221.10 383.05,218.57 383.83,215.88 384.61,213.11 385.39,210.23 386.17,207.27 386.95,204.21 387.74,201.07 388.52,197.86 389.30,194.61 390.08,191.30 390.86,187.95 391.64,184.60 392.42,181.23 393.20,177.87 393.98,174.54 394.77,171.24 395.55,167.99 396.33,164.80 397.11,161.71 397.89,158.70 398.67,155.79 399.45,152.99 400.23,150.34 401.01,147.83 401.80,145.46 402.58,143.24 403.36,141.19 404.14,139.34 404.92,137.66 405.70,136.15 406.48,134.81 407.26,133.72 408.04,132.80 408.83,132.07 409.61,131.51 410.39,131.19 411.17,131.06 411.95,131.11 412.73,131.33 413.51,131.76 414.29,132.39 415.07,133.19 415.86,134.14 416.64,135.27 417.42,136.60 418.20,138.07 418.98,139.69 419.76,141.44 420.54,143.39 421.32,145.46 422.10,147.65 422.89,149.95 423.67,152.40 424.45,154.97 425.23,157.64 426.01,160.40 426.79,163.26 427.57,166.22 428.35,169.25 429.13,172.34 429.92,175.50 430.70,178.72 431.48,181.99 432.26,185.28 433.04,188.61 433.82,191.95 434.60,195.30 435.38,198.65 436.16,201.99 436.95,205.30 437.73,208.57 438.51,211.80 439.29,214.99 440.07,218.11 440.85,221.15 441.63,224.11 442.41,226.99 443.19,229.79 443.98,232.45 444.76,235.00 445.54,237.46 446.32,239.80 447.10,241.99 447.88,244.06 448.66,246.01 449.44,247.84 450.22,249.53 451.01,251.08 451.79,252.51 452.57,253.83 453.35,255.04 454.13,256.10 454.91,257.07 455.69,257.94 456.47,258.73 457.25,259.41 458.04,260.02 458.82,260.56 459.60,261.04 460.38,261.47 461.16,261.85 461.94,262.20 462.72,262.52 463.50,262.83 464.28,263.12 465.07,263.42 465.85,263.72 466.63,264.03 467.41,264.37 468.19,264.73 468.97,265.12 ' style='stroke-width: 1.07; stroke-linecap: butt;' />
</g>
<g clip-path='url(#cpMC4wMHw1MDQuMDB8MC4wMHwzNjAuMDA=)'>
<text x='40.78' y='304.03' text-anchor='end' style='font-size: 18.00px;fill: #4D4D4D; font-family: "Arial";' textLength='10.01px' lengthAdjust='spacingAndGlyphs'>0</text>
<text x='40.78' y='234.01' text-anchor='end' style='font-size: 18.00px;fill: #4D4D4D; font-family: "Arial";' textLength='10.01px' lengthAdjust='spacingAndGlyphs'>1</text>
<text x='40.78' y='164.00' text-anchor='end' style='font-size: 18.00px;fill: #4D4D4D; font-family: "Arial";' textLength='10.01px' lengthAdjust='spacingAndGlyphs'>2</text>
<text x='40.78' y='93.98' text-anchor='end' style='font-size: 18.00px;fill: #4D4D4D; font-family: "Arial";' textLength='10.01px' lengthAdjust='spacingAndGlyphs'>3</text>
<text x='40.78' y='23.97' text-anchor='end' style='font-size: 18.00px;fill: #4D4D4D; font-family: "Arial";' textLength='10.01px' lengthAdjust='spacingAndGlyphs'>4</text>
<text x='71.08' y='329.03' text-anchor='middle' style='font-size: 18.00px;fill: #4D4D4D; font-family: "Arial";' textLength='25.02px' lengthAdjust='spacingAndGlyphs'>3.0</text>
<text x='166.81' y='329.03' text-anchor='middle' style='font-size: 18.00px;fill: #4D4D4D; font-family: "Arial";' textLength='25.02px' lengthAdjust='spacingAndGlyphs'>3.5</text>
<text x='262.54' y='329.03' text-anchor='middle' style='font-size: 18.00px;fill: #4D4D4D; font-family: "Arial";' textLength='25.02px' lengthAdjust='spacingAndGlyphs'>4.0</text>
<text x='358.27' y='329.03' text-anchor='middle' style='font-size: 18.00px;fill: #4D4D4D; font-family: "Arial";' textLength='25.02px' lengthAdjust='spacingAndGlyphs'>4.5</text>
<text x='454.01' y='329.03' text-anchor='middle' style='font-size: 18.00px;fill: #4D4D4D; font-family: "Arial";' textLength='25.02px' lengthAdjust='spacingAndGlyphs'>5.0</text>
<text x='272.12' y='350.12' text-anchor='middle' style='font-size: 20.00px; font-weight: bold; font-family: "Arial";' textLength='108.87px' lengthAdjust='spacingAndGlyphs'>log (length)</text>
<text transform='translate(22.75,161.43) rotate(-90)' text-anchor='middle' style='font-size: 24.00px; font-weight: bold; font-family: "Arial";' textLength='86.70px' lengthAdjust='spacingAndGlyphs'>Density</text>
<text x='272.12' y='6.20' text-anchor='middle' style='font-size: 0.00px; font-weight: bold; font-family: "Arial";' textLength='13.47px' lengthAdjust='spacingAndGlyphs'>Plasmids length distribution</text>
</g>
</svg>
