<?xml version='1.0' encoding='UTF-8' ?>
<svg xmlns='http://www.w3.org/2000/svg' xmlns:xlink='http://www.w3.org/1999/xlink' class='svglite' width='504.00pt' height='360.00pt' viewBox='0 0 504.00 360.00'>
<defs>
  <style type='text/css'><![CDATA[
    .svglite line, .svglite polyline, .svglite polygon, .svglite path, .svglite rect, .svglite circle {
      fill: none;
      stroke: #000000;
      stroke-linecap: round;
      stroke-linejoin: round;
      stroke-miterlimit: 10.00;
    }
    .svglite text {
      white-space: pre;
    }
  ]]></style>
</defs>
<rect width='100%' height='100%' style='stroke: none; fill: #FFFFFF;'/>
<defs>
  <clipPath id='cpMC4wMHw1MDQuMDB8MC4wMHwzNjAuMDA='>
    <rect x='0.00' y='0.00' width='504.00' height='360.00' />
  </clipPath>
</defs>
<g clip-path='url(#cpMC4wMHw1MDQuMDB8MC4wMHwzNjAuMDA=)'>
</g>
<defs>
  <clipPath id='cpNDUuNzF8NDk4LjUyfDExLjY4fDMxMS4xOQ=='>
    <rect x='45.71' y='11.68' width='452.81' height='299.51' />
  </clipPath>
</defs>
<g clip-path='url(#cpNDUuNzF8NDk4LjUyfDExLjY4fDMxMS4xOQ==)'>
<polyline points='45.71,246.83 498.52,246.83 ' style='stroke-width: 0.53; stroke: #EBEBEB; stroke-linecap: butt;' />
<polyline points='45.71,145.36 498.52,145.36 ' style='stroke-width: 0.53; stroke: #EBEBEB; stroke-linecap: butt;' />
<polyline points='45.71,43.88 498.52,43.88 ' style='stroke-width: 0.53; stroke: #EBEBEB; stroke-linecap: butt;' />
<polyline points='128.78,311.19 128.78,11.68 ' style='stroke-width: 0.53; stroke: #EBEBEB; stroke-linecap: butt;' />
<polyline points='275.79,311.19 275.79,11.68 ' style='stroke-width: 0.53; stroke: #EBEBEB; stroke-linecap: butt;' />
<polyline points='422.81,311.19 422.81,11.68 ' style='stroke-width: 0.53; stroke: #EBEBEB; stroke-linecap: butt;' />
<polyline points='45.71,297.57 498.52,297.57 ' style='stroke-width: 1.07; stroke: #EBEBEB; stroke-linecap: butt;' />
<polyline points='45.71,196.09 498.52,196.09 ' style='stroke-width: 1.07; stroke: #EBEBEB; stroke-linecap: butt;' />
<polyline points='45.71,94.62 498.52,94.62 ' style='stroke-width: 1.07; stroke: #EBEBEB; stroke-linecap: butt;' />
<rect x='66.29' y='293.99' width='7.35' height='3.58' style='stroke-width: 1.07; stroke-linecap: butt; stroke-linejoin: miter; fill: #B5B5B5;' />
<rect x='73.64' y='297.57' width='7.35' height='0.00' style='stroke-width: 1.07; stroke-linecap: butt; stroke-linejoin: miter; fill: #B5B5B5;' />
<rect x='81.00' y='293.99' width='7.35' height='3.58' style='stroke-width: 1.07; stroke-linecap: butt; stroke-linejoin: miter; fill: #B5B5B5;' />
<rect x='88.35' y='292.20' width='7.35' height='5.37' style='stroke-width: 1.07; stroke-linecap: butt; stroke-linejoin: miter; fill: #B5B5B5;' />
<rect x='95.70' y='265.33' width='7.35' height='32.24' style='stroke-width: 1.07; stroke-linecap: butt; stroke-linejoin: miter; fill: #B5B5B5;' />
<rect x='103.05' y='272.49' width='7.35' height='25.08' style='stroke-width: 1.07; stroke-linecap: butt; stroke-linejoin: miter; fill: #B5B5B5;' />
<rect x='110.40' y='279.66' width='7.35' height='17.91' style='stroke-width: 1.07; stroke-linecap: butt; stroke-linejoin: miter; fill: #B5B5B5;' />
<rect x='117.75' y='281.45' width='7.35' height='16.12' style='stroke-width: 1.07; stroke-linecap: butt; stroke-linejoin: miter; fill: #B5B5B5;' />
<rect x='125.10' y='247.42' width='7.35' height='50.16' style='stroke-width: 1.07; stroke-linecap: butt; stroke-linejoin: miter; fill: #B5B5B5;' />
<rect x='132.45' y='225.92' width='7.35' height='71.65' style='stroke-width: 1.07; stroke-linecap: butt; stroke-linejoin: miter; fill: #B5B5B5;' />
<rect x='139.80' y='220.55' width='7.35' height='77.03' style='stroke-width: 1.07; stroke-linecap: butt; stroke-linejoin: miter; fill: #B5B5B5;' />
<rect x='147.15' y='211.59' width='7.35' height='85.98' style='stroke-width: 1.07; stroke-linecap: butt; stroke-linejoin: miter; fill: #B5B5B5;' />
<rect x='154.50' y='281.45' width='7.35' height='16.12' style='stroke-width: 1.07; stroke-linecap: butt; stroke-linejoin: miter; fill: #B5B5B5;' />
<rect x='161.85' y='270.70' width='7.35' height='26.87' style='stroke-width: 1.07; stroke-linecap: butt; stroke-linejoin: miter; fill: #B5B5B5;' />
<rect x='169.20' y='285.03' width='7.35' height='12.54' style='stroke-width: 1.07; stroke-linecap: butt; stroke-linejoin: miter; fill: #B5B5B5;' />
<rect x='176.56' y='272.49' width='7.35' height='25.08' style='stroke-width: 1.07; stroke-linecap: butt; stroke-linejoin: miter; fill: #B5B5B5;' />
<rect x='183.91' y='292.20' width='7.35' height='5.37' style='stroke-width: 1.07; stroke-linecap: butt; stroke-linejoin: miter; fill: #B5B5B5;' />
<rect x='191.26' y='277.87' width='7.35' height='19.70' style='stroke-width: 1.07; stroke-linecap: butt; stroke-linejoin: miter; fill: #B5B5B5;' />
<rect x='198.61' y='286.83' width='7.35' height='10.75' style='stroke-width: 1.07; stroke-linecap: butt; stroke-linejoin: miter; fill: #B5B5B5;' />
<rect x='205.96' y='285.03' width='7.35' height='12.54' style='stroke-width: 1.07; stroke-linecap: butt; stroke-linejoin: miter; fill: #B5B5B5;' />
<rect x='213.31' y='297.57' width='7.35' height='0.00' style='stroke-width: 1.07; stroke-linecap: butt; stroke-linejoin: miter; fill: #B5B5B5;' />
<rect x='220.66' y='297.57' width='7.35' height='0.00' style='stroke-width: 1.07; stroke-linecap: butt; stroke-linejoin: miter; fill: #B5B5B5;' />
<rect x='228.01' y='295.78' width='7.35' height='1.79' style='stroke-width: 1.07; stroke-linecap: butt; stroke-linejoin: miter; fill: #B5B5B5;' />
<rect x='235.36' y='290.41' width='7.35' height='7.17' style='stroke-width: 1.07; stroke-linecap: butt; stroke-linejoin: miter; fill: #B5B5B5;' />
<rect x='242.71' y='292.20' width='7.35' height='5.37' style='stroke-width: 1.07; stroke-linecap: butt; stroke-linejoin: miter; fill: #B5B5B5;' />
<rect x='250.06' y='292.20' width='7.35' height='5.37' style='stroke-width: 1.07; stroke-linecap: butt; stroke-linejoin: miter; fill: #B5B5B5;' />
<rect x='257.41' y='272.49' width='7.35' height='25.08' style='stroke-width: 1.07; stroke-linecap: butt; stroke-linejoin: miter; fill: #B5B5B5;' />
<rect x='264.77' y='285.03' width='7.35' height='12.54' style='stroke-width: 1.07; stroke-linecap: butt; stroke-linejoin: miter; fill: #B5B5B5;' />
<rect x='272.12' y='261.75' width='7.35' height='35.83' style='stroke-width: 1.07; stroke-linecap: butt; stroke-linejoin: miter; fill: #B5B5B5;' />
<rect x='279.47' y='274.29' width='7.35' height='23.29' style='stroke-width: 1.07; stroke-linecap: butt; stroke-linejoin: miter; fill: #B5B5B5;' />
<rect x='286.82' y='229.50' width='7.35' height='68.07' style='stroke-width: 1.07; stroke-linecap: butt; stroke-linejoin: miter; fill: #B5B5B5;' />
<rect x='294.17' y='281.45' width='7.35' height='16.12' style='stroke-width: 1.07; stroke-linecap: butt; stroke-linejoin: miter; fill: #B5B5B5;' />
<rect x='301.52' y='258.16' width='7.35' height='39.41' style='stroke-width: 1.07; stroke-linecap: butt; stroke-linejoin: miter; fill: #B5B5B5;' />
<rect x='308.87' y='163.22' width='7.35' height='134.35' style='stroke-width: 1.07; stroke-linecap: butt; stroke-linejoin: miter; fill: #B5B5B5;' />
<rect x='316.22' y='249.21' width='7.35' height='48.37' style='stroke-width: 1.07; stroke-linecap: butt; stroke-linejoin: miter; fill: #B5B5B5;' />
<rect x='323.57' y='268.91' width='7.35' height='28.66' style='stroke-width: 1.07; stroke-linecap: butt; stroke-linejoin: miter; fill: #B5B5B5;' />
<rect x='330.92' y='224.13' width='7.35' height='73.44' style='stroke-width: 1.07; stroke-linecap: butt; stroke-linejoin: miter; fill: #B5B5B5;' />
<rect x='338.27' y='25.29' width='7.35' height='272.28' style='stroke-width: 1.07; stroke-linecap: butt; stroke-linejoin: miter; fill: #B5B5B5;' />
<rect x='345.62' y='184.72' width='7.35' height='112.85' style='stroke-width: 1.07; stroke-linecap: butt; stroke-linejoin: miter; fill: #B5B5B5;' />
<rect x='352.97' y='182.93' width='7.35' height='114.64' style='stroke-width: 1.07; stroke-linecap: butt; stroke-linejoin: miter; fill: #B5B5B5;' />
<rect x='360.33' y='242.04' width='7.35' height='55.53' style='stroke-width: 1.07; stroke-linecap: butt; stroke-linejoin: miter; fill: #B5B5B5;' />
<rect x='367.68' y='245.62' width='7.35' height='51.95' style='stroke-width: 1.07; stroke-linecap: butt; stroke-linejoin: miter; fill: #B5B5B5;' />
<rect x='375.03' y='249.21' width='7.35' height='48.37' style='stroke-width: 1.07; stroke-linecap: butt; stroke-linejoin: miter; fill: #B5B5B5;' />
<rect x='382.38' y='268.91' width='7.35' height='28.66' style='stroke-width: 1.07; stroke-linecap: butt; stroke-linejoin: miter; fill: #B5B5B5;' />
<rect x='389.73' y='258.16' width='7.35' height='39.41' style='stroke-width: 1.07; stroke-linecap: butt; stroke-linejoin: miter; fill: #B5B5B5;' />
<rect x='397.08' y='204.42' width='7.35' height='93.15' style='stroke-width: 1.07; stroke-linecap: butt; stroke-linejoin: miter; fill: #B5B5B5;' />
<rect x='404.43' y='195.47' width='7.35' height='102.11' style='stroke-width: 1.07; stroke-linecap: butt; stroke-linejoin: miter; fill: #B5B5B5;' />
<rect x='411.78' y='259.96' width='7.35' height='37.62' style='stroke-width: 1.07; stroke-linecap: butt; stroke-linejoin: miter; fill: #B5B5B5;' />
<rect x='419.13' y='272.49' width='7.35' height='25.08' style='stroke-width: 1.07; stroke-linecap: butt; stroke-linejoin: miter; fill: #B5B5B5;' />
<rect x='426.48' y='297.57' width='7.35' height='0.00' style='stroke-width: 1.07; stroke-linecap: butt; stroke-linejoin: miter; fill: #B5B5B5;' />
<rect x='433.83' y='295.78' width='7.35' height='1.79' style='stroke-width: 1.07; stroke-linecap: butt; stroke-linejoin: miter; fill: #B5B5B5;' />
<rect x='441.18' y='297.57' width='7.35' height='0.00' style='stroke-width: 1.07; stroke-linecap: butt; stroke-linejoin: miter; fill: #B5B5B5;' />
<rect x='448.54' y='295.78' width='7.35' height='1.79' style='stroke-width: 1.07; stroke-linecap: butt; stroke-linejoin: miter; fill: #B5B5B5;' />
<rect x='455.89' y='297.57' width='7.35' height='0.00' style='stroke-width: 1.07; stroke-linecap: butt; stroke-linejoin: miter; fill: #B5B5B5;' />
<rect x='463.24' y='297.57' width='7.35' height='0.00' style='stroke-width: 1.07; stroke-linecap: butt; stroke-linejoin: miter; fill: #B5B5B5;' />
<rect x='470.59' y='295.78' width='7.35' height='1.79' style='stroke-width: 1.07; stroke-linecap: butt; stroke-linejoin: miter; fill: #B5B5B5;' />
<polygon points='68.85,293.51 69.64,293.29 70.44,293.06 71.24,292.83 72.03,292.58 72.83,292.33 73.63,292.06 74.43,291.78 75.22,291.50 76.02,291.21 76.82,290.90 77.61,290.59 78.41,290.26 79.21,289.92 80.00,289.58 80.80,289.22 81.60,288.85 82.39,288.48 83.19,288.09 83.99,287.69 84.78,287.28 85.58,286.86 86.38,286.43 87.17,285.99 87.97,285.53 88.77,285.07 89.57,284.60 90.36,284.12 91.16,283.63 91.96,283.12 92.75,282.61 93.55,282.09 94.35,281.56 95.14,281.02 95.94,280.47 96.74,279.91 97.53,279.34 98.33,278.77 99.13,278.18 99.92,277.59 100.72,276.99 101.52,276.39 102.32,275.77 103.11,275.15 103.91,274.53 104.71,273.89 105.50,273.26 106.30,272.61 107.10,271.97 107.89,271.31 108.69,270.66 109.49,270.00 110.28,269.34 111.08,268.68 111.88,268.02 112.67,267.36 113.47,266.70 114.27,266.04 115.06,265.38 115.86,264.72 116.66,264.07 117.46,263.43 118.25,262.79 119.05,262.16 119.85,261.53 120.64,260.92 121.44,260.31 122.24,259.72 123.03,259.14 123.83,258.58 124.63,258.03 125.42,257.50 126.22,256.98 127.02,256.48 127.81,256.00 128.61,255.54 129.41,255.10 130.20,254.70 131.00,254.31 131.80,253.94 132.60,253.61 133.39,253.30 134.19,253.02 134.99,252.76 135.78,252.55 136.58,252.35 137.38,252.18 138.17,252.06 138.97,251.96 139.77,251.89 140.56,251.86 141.36,251.86 142.16,251.89 142.95,251.95 143.75,252.05 144.55,252.18 145.35,252.33 146.14,252.53 146.94,252.75 147.74,253.00 148.53,253.28 149.33,253.60 150.13,253.93 150.92,254.30 151.72,254.69 152.52,255.11 153.31,255.55 154.11,256.01 154.91,256.50 155.70,257.00 156.50,257.52 157.30,258.07 158.09,258.63 158.89,259.20 159.69,259.78 160.49,260.38 161.28,260.99 162.08,261.60 162.88,262.23 163.67,262.86 164.47,263.49 165.27,264.13 166.06,264.78 166.86,265.42 167.66,266.06 168.45,266.70 169.25,267.34 170.05,267.98 170.84,268.61 171.64,269.24 172.44,269.87 173.23,270.48 174.03,271.09 174.83,271.69 175.63,272.28 176.42,272.86 177.22,273.44 178.02,274.00 178.81,274.56 179.61,275.10 180.41,275.63 181.20,276.15 182.00,276.66 182.80,277.17 183.59,277.66 184.39,278.13 185.19,278.60 185.98,279.06 186.78,279.50 187.58,279.93 188.37,280.36 189.17,280.77 189.97,281.17 190.77,281.57 191.56,281.95 192.36,282.32 193.16,282.69 193.95,283.04 194.75,283.39 195.55,283.72 196.34,284.05 197.14,284.37 197.94,284.68 198.73,284.99 199.53,285.28 200.33,285.57 201.12,285.85 201.92,286.12 202.72,286.39 203.52,286.64 204.31,286.89 205.11,287.14 205.91,287.37 206.70,287.60 207.50,287.82 208.30,288.03 209.09,288.23 209.89,288.43 210.69,288.62 211.48,288.80 212.28,288.98 213.08,289.15 213.87,289.30 214.67,289.45 215.47,289.59 216.26,289.72 217.06,289.84 217.86,289.96 218.66,290.06 219.45,290.16 220.25,290.24 221.05,290.32 221.84,290.38 222.64,290.43 223.44,290.48 224.23,290.51 225.03,290.53 225.83,290.54 226.62,290.54 227.42,290.52 228.22,290.50 229.01,290.46 229.81,290.41 230.61,290.35 231.40,290.28 232.20,290.19 233.00,290.09 233.80,289.97 234.59,289.85 235.39,289.71 236.19,289.56 236.98,289.39 237.78,289.21 238.58,289.02 239.37,288.82 240.17,288.60 240.97,288.36 241.76,288.12 242.56,287.86 243.36,287.59 244.15,287.30 244.95,287.00 245.75,286.69 246.55,286.36 247.34,286.02 248.14,285.67 248.94,285.31 249.73,284.93 250.53,284.54 251.33,284.14 252.12,283.73 252.92,283.31 253.72,282.87 254.51,282.42 255.31,281.97 256.11,281.50 256.90,281.02 257.70,280.53 258.50,280.04 259.29,279.53 260.09,279.02 260.89,278.49 261.69,277.96 262.48,277.42 263.28,276.87 264.08,276.32 264.87,275.76 265.67,275.19 266.47,274.62 267.26,274.04 268.06,273.45 268.86,272.86 269.65,272.27 270.45,271.67 271.25,271.06 272.04,270.46 272.84,269.84 273.64,269.23 274.43,268.61 275.23,267.98 276.03,267.35 276.83,266.72 277.62,266.09 278.42,265.45 279.22,264.80 280.01,264.16 280.81,263.51 281.61,262.85 282.40,262.19 283.20,261.53 284.00,260.86 284.79,260.18 285.59,259.50 286.39,258.82 287.18,258.13 287.98,257.43 288.78,256.72 289.58,256.01 290.37,255.29 291.17,254.56 291.97,253.82 292.76,253.07 293.56,252.32 294.36,251.55 295.15,250.77 295.95,249.98 296.75,249.18 297.54,248.37 298.34,247.54 299.14,246.70 299.93,245.85 300.73,244.98 301.53,244.10 302.32,243.21 303.12,242.30 303.92,241.37 304.72,240.44 305.51,239.48 306.31,238.51 307.11,237.52 307.90,236.52 308.70,235.51 309.50,234.48 310.29,233.44 311.09,232.37 311.89,231.30 312.68,230.22 313.48,229.12 314.28,228.01 315.07,226.90 315.87,225.77 316.67,224.64 317.46,223.50 318.26,222.35 319.06,221.20 319.86,220.05 320.65,218.90 321.45,217.75 322.25,216.60 323.04,215.46 323.84,214.32 324.64,213.20 325.43,212.09 326.23,211.00 327.03,209.92 327.82,208.87 328.62,207.83 329.42,206.82 330.21,205.84 331.01,204.89 331.81,203.96 332.60,203.09 333.40,202.25 334.20,201.44 335.00,200.69 335.79,199.98 336.59,199.32 337.39,198.70 338.18,198.15 338.98,197.64 339.78,197.18 340.57,196.80 341.37,196.47 342.17,196.20 342.96,195.99 343.76,195.85 344.56,195.76 345.35,195.73 346.15,195.79 346.95,195.90 347.75,196.06 348.54,196.29 349.34,196.59 350.14,196.94 350.93,197.35 351.73,197.83 352.53,198.36 353.32,198.93 354.12,199.57 354.92,200.26 355.71,200.98 356.51,201.75 357.31,202.57 358.10,203.42 358.90,204.30 359.70,205.23 360.49,206.18 361.29,207.15 362.09,208.15 362.89,209.17 363.68,210.20 364.48,211.24 365.28,212.29 366.07,213.35 366.87,214.41 367.67,215.48 368.46,216.53 369.26,217.59 370.06,218.63 370.85,219.66 371.65,220.68 372.45,221.69 373.24,222.68 374.04,223.65 374.84,224.60 375.63,225.52 376.43,226.42 377.23,227.31 378.03,228.16 378.82,228.99 379.62,229.80 380.42,230.58 381.21,231.33 382.01,232.06 382.81,232.77 383.60,233.45 384.40,234.11 385.20,234.75 385.99,235.37 386.79,235.96 387.59,236.54 388.38,237.11 389.18,237.66 389.98,238.19 390.78,238.72 391.57,239.23 392.37,239.74 393.17,240.24 393.96,240.74 394.76,241.24 395.56,241.74 396.35,242.24 397.15,242.74 397.95,243.25 398.74,243.76 399.54,244.28 400.34,244.82 401.13,245.36 401.93,245.92 402.73,246.49 403.52,247.08 404.32,247.68 405.12,248.30 405.92,248.94 406.71,249.59 407.51,250.26 408.31,250.96 409.10,251.67 409.90,252.39 410.70,253.14 411.49,253.91 412.29,254.68 413.09,255.48 413.88,256.30 414.68,257.13 415.48,257.97 416.27,258.83 417.07,259.70 417.87,260.58 418.66,261.48 419.46,262.38 420.26,263.29 421.06,264.20 421.85,265.12 422.65,266.04 423.45,266.96 424.24,267.89 425.04,268.81 425.84,269.73 426.63,270.65 427.43,271.56 428.23,272.46 429.02,273.36 429.82,274.24 430.62,275.11 431.41,275.98 432.21,276.83 433.01,277.66 433.81,278.48 434.60,279.28 435.40,280.07 436.20,280.84 436.99,281.59 437.79,282.32 438.59,283.03 439.38,283.72 440.18,284.39 440.98,285.04 441.77,285.67 442.57,286.28 443.37,286.86 444.16,287.42 444.96,287.97 445.76,288.49 446.55,288.99 447.35,289.47 448.15,289.93 448.95,290.36 449.74,290.78 450.54,291.19 451.34,291.56 452.13,291.92 452.93,292.27 453.73,292.59 454.52,292.90 455.32,293.19 456.12,293.47 456.91,293.73 457.71,293.97 458.51,294.21 459.30,294.42 460.10,294.62 460.90,294.82 461.69,295.00 462.49,295.16 463.29,295.32 464.09,295.47 464.88,295.61 465.68,295.74 466.48,295.86 467.27,295.97 468.07,296.07 468.87,296.17 469.66,296.26 470.46,296.34 471.26,296.42 472.05,296.49 472.85,296.56 473.65,296.62 474.44,296.68 475.24,296.73 476.04,296.78 476.04,297.57 475.24,297.57 474.44,297.57 473.65,297.57 472.85,297.57 472.05,297.57 471.26,297.57 470.46,297.57 469.66,297.57 468.87,297.57 468.07,297.57 467.27,297.57 466.48,297.57 465.68,297.57 464.88,297.57 464.09,297.57 463.29,297.57 462.49,297.57 461.69,297.57 460.90,297.57 460.10,297.57 459.30,297.57 458.51,297.57 457.71,297.57 456.91,297.57 456.12,297.57 455.32,297.57 454.52,297.57 453.73,297.57 452.93,297.57 452.13,297.57 451.34,297.57 450.54,297.57 449.74,297.57 448.95,297.57 448.15,297.57 447.35,297.57 446.55,297.57 445.76,297.57 444.96,297.57 444.16,297.57 443.37,297.57 442.57,297.57 441.77,297.57 440.98,297.57 440.18,297.57 439.38,297.57 438.59,297.57 437.79,297.57 436.99,297.57 436.20,297.57 435.40,297.57 434.60,297.57 433.81,297.57 433.01,297.57 432.21,297.57 431.41,297.57 430.62,297.57 429.82,297.57 429.02,297.57 428.23,297.57 427.43,297.57 426.63,297.57 425.84,297.57 425.04,297.57 424.24,297.57 423.45,297.57 422.65,297.57 421.85,297.57 421.06,297.57 420.26,297.57 419.46,297.57 418.66,297.57 417.87,297.57 417.07,297.57 416.27,297.57 415.48,297.57 414.68,297.57 413.88,297.57 413.09,297.57 412.29,297.57 411.49,297.57 410.70,297.57 409.90,297.57 409.10,297.57 408.31,297.57 407.51,297.57 406.71,297.57 405.92,297.57 405.12,297.57 404.32,297.57 403.52,297.57 402.73,297.57 401.93,297.57 401.13,297.57 400.34,297.57 399.54,297.57 398.74,297.57 397.95,297.57 397.15,297.57 396.35,297.57 395.56,297.57 394.76,297.57 393.96,297.57 393.17,297.57 392.37,297.57 391.57,297.57 390.78,297.57 389.98,297.57 389.18,297.57 388.38,297.57 387.59,297.57 386.79,297.57 385.99,297.57 385.20,297.57 384.40,297.57 383.60,297.57 382.81,297.57 382.01,297.57 381.21,297.57 380.42,297.57 379.62,297.57 378.82,297.57 378.03,297.57 377.23,297.57 376.43,297.57 375.63,297.57 374.84,297.57 374.04,297.57 373.24,297.57 372.45,297.57 371.65,297.57 370.85,297.57 370.06,297.57 369.26,297.57 368.46,297.57 367.67,297.57 366.87,297.57 366.07,297.57 365.28,297.57 364.48,297.57 363.68,297.57 362.89,297.57 362.09,297.57 361.29,297.57 360.49,297.57 359.70,297.57 358.90,297.57 358.10,297.57 357.31,297.57 356.51,297.57 355.71,297.57 354.92,297.57 354.12,297.57 353.32,297.57 352.53,297.57 351.73,297.57 350.93,297.57 350.14,297.57 349.34,297.57 348.54,297.57 347.75,297.57 346.95,297.57 346.15,297.57 345.35,297.57 344.56,297.57 343.76,297.57 342.96,297.57 342.17,297.57 341.37,297.57 340.57,297.57 339.78,297.57 338.98,297.57 338.18,297.57 337.39,297.57 336.59,297.57 335.79,297.57 335.00,297.57 334.20,297.57 333.40,297.57 332.60,297.57 331.81,297.57 331.01,297.57 330.21,297.57 329.42,297.57 328.62,297.57 327.82,297.57 327.03,297.57 326.23,297.57 325.43,297.57 324.64,297.57 323.84,297.57 323.04,297.57 322.25,297.57 321.45,297.57 320.65,297.57 319.86,297.57 319.06,297.57 318.26,297.57 317.46,297.57 316.67,297.57 315.87,297.57 315.07,297.57 314.28,297.57 313.48,297.57 312.68,297.57 311.89,297.57 311.09,297.57 310.29,297.57 309.50,297.57 308.70,297.57 307.90,297.57 307.11,297.57 306.31,297.57 305.51,297.57 304.72,297.57 303.92,297.57 303.12,297.57 302.32,297.57 301.53,297.57 300.73,297.57 299.93,297.57 299.14,297.57 298.34,297.57 297.54,297.57 296.75,297.57 295.95,297.57 295.15,297.57 294.36,297.57 293.56,297.57 292.76,297.57 291.97,297.57 291.17,297.57 290.37,297.57 289.58,297.57 288.78,297.57 287.98,297.57 287.18,297.57 286.39,297.57 285.59,297.57 284.79,297.57 284.00,297.57 283.20,297.57 282.40,297.57 281.61,297.57 280.81,297.57 280.01,297.57 279.22,297.57 278.42,297.57 277.62,297.57 276.83,297.57 276.03,297.57 275.23,297.57 274.43,297.57 273.64,297.57 272.84,297.57 272.04,297.57 271.25,297.57 270.45,297.57 269.65,297.57 268.86,297.57 268.06,297.57 267.26,297.57 266.47,297.57 265.67,297.57 264.87,297.57 264.08,297.57 263.28,297.57 262.48,297.57 261.69,297.57 260.89,297.57 260.09,297.57 259.29,297.57 258.50,297.57 257.70,297.57 256.90,297.57 256.11,297.57 255.31,297.57 254.51,297.57 253.72,297.57 252.92,297.57 252.12,297.57 251.33,297.57 250.53,297.57 249.73,297.57 248.94,297.57 248.14,297.57 247.34,297.57 246.55,297.57 245.75,297.57 244.95,297.57 244.15,297.57 243.36,297.57 242.56,297.57 241.76,297.57 240.97,297.57 240.17,297.57 239.37,297.57 238.58,297.57 237.78,297.57 236.98,297.57 236.19,297.57 235.39,297.57 234.59,297.57 233.80,297.57 233.00,297.57 232.20,297.57 231.40,297.57 230.61,297.57 229.81,297.57 229.01,297.57 228.22,297.57 227.42,297.57 226.62,297.57 225.83,297.57 225.03,297.57 224.23,297.57 223.44,297.57 222.64,297.57 221.84,297.57 221.05,297.57 220.25,297.57 219.45,297.57 218.66,297.57 217.86,297.57 217.06,297.57 216.26,297.57 215.47,297.57 214.67,297.57 213.87,297.57 213.08,297.57 212.28,297.57 211.48,297.57 210.69,297.57 209.89,297.57 209.09,297.57 208.30,297.57 207.50,297.57 206.70,297.57 205.91,297.57 205.11,297.57 204.31,297.57 203.52,297.57 202.72,297.57 201.92,297.57 201.12,297.57 200.33,297.57 199.53,297.57 198.73,297.57 197.94,297.57 197.14,297.57 196.34,297.57 195.55,297.57 194.75,297.57 193.95,297.57 193.16,297.57 192.36,297.57 191.56,297.57 190.77,297.57 189.97,297.57 189.17,297.57 188.37,297.57 187.58,297.57 186.78,297.57 185.98,297.57 185.19,297.57 184.39,297.57 183.59,297.57 182.80,297.57 182.00,297.57 181.20,297.57 180.41,297.57 179.61,297.57 178.81,297.57 178.02,297.57 177.22,297.57 176.42,297.57 175.63,297.57 174.83,297.57 174.03,297.57 173.23,297.57 172.44,297.57 171.64,297.57 170.84,297.57 170.05,297.57 169.25,297.57 168.45,297.57 167.66,297.57 166.86,297.57 166.06,297.57 165.27,297.57 164.47,297.57 163.67,297.57 162.88,297.57 162.08,297.57 161.28,297.57 160.49,297.57 159.69,297.57 158.89,297.57 158.09,297.57 157.30,297.57 156.50,297.57 155.70,297.57 154.91,297.57 154.11,297.57 153.31,297.57 152.52,297.57 151.72,297.57 150.92,297.57 150.13,297.57 149.33,297.57 148.53,297.57 147.74,297.57 146.94,297.57 146.14,297.57 145.35,297.57 144.55,297.57 143.75,297.57 142.95,297.57 142.16,297.57 141.36,297.57 140.56,297.57 139.77,297.57 138.97,297.57 138.17,297.57 137.38,297.57 136.58,297.57 135.78,297.57 134.99,297.57 134.19,297.57 133.39,297.57 132.60,297.57 131.80,297.57 131.00,297.57 130.20,297.57 129.41,297.57 128.61,297.57 127.81,297.57 127.02,297.57 126.22,297.57 125.42,297.57 124.63,297.57 123.83,297.57 123.03,297.57 122.24,297.57 121.44,297.57 120.64,297.57 119.85,297.57 119.05,297.57 118.25,297.57 117.46,297.57 116.66,297.57 115.86,297.57 115.06,297.57 114.27,297.57 113.47,297.57 112.67,297.57 111.88,297.57 111.08,297.57 110.28,297.57 109.49,297.57 108.69,297.57 107.89,297.57 107.10,297.57 106.30,297.57 105.50,297.57 104.71,297.57 103.91,297.57 103.11,297.57 102.32,297.57 101.52,297.57 100.72,297.57 99.92,297.57 99.13,297.57 98.33,297.57 97.53,297.57 96.74,297.57 95.94,297.57 95.14,297.57 94.35,297.57 93.55,297.57 92.75,297.57 91.96,297.57 91.16,297.57 90.36,297.57 89.57,297.57 88.77,297.57 87.97,297.57 87.17,297.57 86.38,297.57 85.58,297.57 84.78,297.57 83.99,297.57 83.19,297.57 82.39,297.57 81.60,297.57 80.80,297.57 80.00,297.57 79.21,297.57 78.41,297.57 77.61,297.57 76.82,297.57 76.02,297.57 75.22,297.57 74.43,297.57 73.63,297.57 72.83,297.57 72.03,297.57 71.24,297.57 70.44,297.57 69.64,297.57 68.85,297.57 ' style='stroke-width: 0.00; stroke: none; stroke-linecap: butt; fill: #FF9933; fill-opacity: 0.50;' />
<polyline points='68.85,293.51 69.64,293.29 70.44,293.06 71.24,292.83 72.03,292.58 72.83,292.33 73.63,292.06 74.43,291.78 75.22,291.50 76.02,291.21 76.82,290.90 77.61,290.59 78.41,290.26 79.21,289.92 80.00,289.58 80.80,289.22 81.60,288.85 82.39,288.48 83.19,288.09 83.99,287.69 84.78,287.28 85.58,286.86 86.38,286.43 87.17,285.99 87.97,285.53 88.77,285.07 89.57,284.60 90.36,284.12 91.16,283.63 91.96,283.12 92.75,282.61 93.55,282.09 94.35,281.56 95.14,281.02 95.94,280.47 96.74,279.91 97.53,279.34 98.33,278.77 99.13,278.18 99.92,277.59 100.72,276.99 101.52,276.39 102.32,275.77 103.11,275.15 103.91,274.53 104.71,273.89 105.50,273.26 106.30,272.61 107.10,271.97 107.89,271.31 108.69,270.66 109.49,270.00 110.28,269.34 111.08,268.68 111.88,268.02 112.67,267.36 113.47,266.70 114.27,266.04 115.06,265.38 115.86,264.72 116.66,264.07 117.46,263.43 118.25,262.79 119.05,262.16 119.85,261.53 120.64,260.92 121.44,260.31 122.24,259.72 123.03,259.14 123.83,258.58 124.63,258.03 125.42,257.50 126.22,256.98 127.02,256.48 127.81,256.00 128.61,255.54 129.41,255.10 130.20,254.70 131.00,254.31 131.80,253.94 132.60,253.61 133.39,253.30 134.19,253.02 134.99,252.76 135.78,252.55 136.58,252.35 137.38,252.18 138.17,252.06 138.97,251.96 139.77,251.89 140.56,251.86 141.36,251.86 142.16,251.89 142.95,251.95 143.75,252.05 144.55,252.18 145.35,252.33 146.14,252.53 146.94,252.75 147.74,253.00 148.53,253.28 149.33,253.60 150.13,253.93 150.92,254.30 151.72,254.69 152.52,255.11 153.31,255.55 154.11,256.01 154.91,256.50 155.70,257.00 156.50,257.52 157.30,258.07 158.09,258.63 158.89,259.20 159.69,259.78 160.49,260.38 161.28,260.99 162.08,261.60 162.88,262.23 163.67,262.86 164.47,263.49 165.27,264.13 166.06,264.78 166.86,265.42 167.66,266.06 168.45,266.70 169.25,267.34 170.05,267.98 170.84,268.61 171.64,269.24 172.44,269.87 173.23,270.48 174.03,271.09 174.83,271.69 175.63,272.28 176.42,272.86 177.22,273.44 178.02,274.00 178.81,274.56 179.61,275.10 180.41,275.63 181.20,276.15 182.00,276.66 182.80,277.17 183.59,277.66 184.39,278.13 185.19,278.60 185.98,279.06 186.78,279.50 187.58,279.93 188.37,280.36 189.17,280.77 189.97,281.17 190.77,281.57 191.56,281.95 192.36,282.32 193.16,282.69 193.95,283.04 194.75,283.39 195.55,283.72 196.34,284.05 197.14,284.37 197.94,284.68 198.73,284.99 199.53,285.28 200.33,285.57 201.12,285.85 201.92,286.12 202.72,286.39 203.52,286.64 204.31,286.89 205.11,287.14 205.91,287.37 206.70,287.60 207.50,287.82 208.30,288.03 209.09,288.23 209.89,288.43 210.69,288.62 211.48,288.80 212.28,288.98 213.08,289.15 213.87,289.30 214.67,289.45 215.47,289.59 216.26,289.72 217.06,289.84 217.86,289.96 218.66,290.06 219.45,290.16 220.25,290.24 221.05,290.32 221.84,290.38 222.64,290.43 223.44,290.48 224.23,290.51 225.03,290.53 225.83,290.54 226.62,290.54 227.42,290.52 228.22,290.50 229.01,290.46 229.81,290.41 230.61,290.35 231.40,290.28 232.20,290.19 233.00,290.09 233.80,289.97 234.59,289.85 235.39,289.71 236.19,289.56 236.98,289.39 237.78,289.21 238.58,289.02 239.37,288.82 240.17,288.60 240.97,288.36 241.76,288.12 242.56,287.86 243.36,287.59 244.15,287.30 244.95,287.00 245.75,286.69 246.55,286.36 247.34,286.02 248.14,285.67 248.94,285.31 249.73,284.93 250.53,284.54 251.33,284.14 252.12,283.73 252.92,283.31 253.72,282.87 254.51,282.42 255.31,281.97 256.11,281.50 256.90,281.02 257.70,280.53 258.50,280.04 259.29,279.53 260.09,279.02 260.89,278.49 261.69,277.96 262.48,277.42 263.28,276.87 264.08,276.32 264.87,275.76 265.67,275.19 266.47,274.62 267.26,274.04 268.06,273.45 268.86,272.86 269.65,272.27 270.45,271.67 271.25,271.06 272.04,270.46 272.84,269.84 273.64,269.23 274.43,268.61 275.23,267.98 276.03,267.35 276.83,266.72 277.62,266.09 278.42,265.45 279.22,264.80 280.01,264.16 280.81,263.51 281.61,262.85 282.40,262.19 283.20,261.53 284.00,260.86 284.79,260.18 285.59,259.50 286.39,258.82 287.18,258.13 287.98,257.43 288.78,256.72 289.58,256.01 290.37,255.29 291.17,254.56 291.97,253.82 292.76,253.07 293.56,252.32 294.36,251.55 295.15,250.77 295.95,249.98 296.75,249.18 297.54,248.37 298.34,247.54 299.14,246.70 299.93,245.85 300.73,244.98 301.53,244.10 302.32,243.21 303.12,242.30 303.92,241.37 304.72,240.44 305.51,239.48 306.31,238.51 307.11,237.52 307.90,236.52 308.70,235.51 309.50,234.48 310.29,233.44 311.09,232.37 311.89,231.30 312.68,230.22 313.48,229.12 314.28,228.01 315.07,226.90 315.87,225.77 316.67,224.64 317.46,223.50 318.26,222.35 319.06,221.20 319.86,220.05 320.65,218.90 321.45,217.75 322.25,216.60 323.04,215.46 323.84,214.32 324.64,213.20 325.43,212.09 326.23,211.00 327.03,209.92 327.82,208.87 328.62,207.83 329.42,206.82 330.21,205.84 331.01,204.89 331.81,203.96 332.60,203.09 333.40,202.25 334.20,201.44 335.00,200.69 335.79,199.98 336.59,199.32 337.39,198.70 338.18,198.15 338.98,197.64 339.78,197.18 340.57,196.80 341.37,196.47 342.17,196.20 342.96,195.99 343.76,195.85 344.56,195.76 345.35,195.73 346.15,195.79 346.95,195.90 347.75,196.06 348.54,196.29 349.34,196.59 350.14,196.94 350.93,197.35 351.73,197.83 352.53,198.36 353.32,198.93 354.12,199.57 354.92,200.26 355.71,200.98 356.51,201.75 357.31,202.57 358.10,203.42 358.90,204.30 359.70,205.23 360.49,206.18 361.29,207.15 362.09,208.15 362.89,209.17 363.68,210.20 364.48,211.24 365.28,212.29 366.07,213.35 366.87,214.41 367.67,215.48 368.46,216.53 369.26,217.59 370.06,218.63 370.85,219.66 371.65,220.68 372.45,221.69 373.24,222.68 374.04,223.65 374.84,224.60 375.63,225.52 376.43,226.42 377.23,227.31 378.03,228.16 378.82,228.99 379.62,229.80 380.42,230.58 381.21,231.33 382.01,232.06 382.81,232.77 383.60,233.45 384.40,234.11 385.20,234.75 385.99,235.37 386.79,235.96 387.59,236.54 388.38,237.11 389.18,237.66 389.98,238.19 390.78,238.72 391.57,239.23 392.37,239.74 393.17,240.24 393.96,240.74 394.76,241.24 395.56,241.74 396.35,242.24 397.15,242.74 397.95,243.25 398.74,243.76 399.54,244.28 400.34,244.82 401.13,245.36 401.93,245.92 402.73,246.49 403.52,247.08 404.32,247.68 405.12,248.30 405.92,248.94 406.71,249.59 407.51,250.26 408.31,250.96 409.10,251.67 409.90,252.39 410.70,253.14 411.49,253.91 412.29,254.68 413.09,255.48 413.88,256.30 414.68,257.13 415.48,257.97 416.27,258.83 417.07,259.70 417.87,260.58 418.66,261.48 419.46,262.38 420.26,263.29 421.06,264.20 421.85,265.12 422.65,266.04 423.45,266.96 424.24,267.89 425.04,268.81 425.84,269.73 426.63,270.65 427.43,271.56 428.23,272.46 429.02,273.36 429.82,274.24 430.62,275.11 431.41,275.98 432.21,276.83 433.01,277.66 433.81,278.48 434.60,279.28 435.40,280.07 436.20,280.84 436.99,281.59 437.79,282.32 438.59,283.03 439.38,283.72 440.18,284.39 440.98,285.04 441.77,285.67 442.57,286.28 443.37,286.86 444.16,287.42 444.96,287.97 445.76,288.49 446.55,288.99 447.35,289.47 448.15,289.93 448.95,290.36 449.74,290.78 450.54,291.19 451.34,291.56 452.13,291.92 452.93,292.27 453.73,292.59 454.52,292.90 455.32,293.19 456.12,293.47 456.91,293.73 457.71,293.97 458.51,294.21 459.30,294.42 460.10,294.62 460.90,294.82 461.69,295.00 462.49,295.16 463.29,295.32 464.09,295.47 464.88,295.61 465.68,295.74 466.48,295.86 467.27,295.97 468.07,296.07 468.87,296.17 469.66,296.26 470.46,296.34 471.26,296.42 472.05,296.49 472.85,296.56 473.65,296.62 474.44,296.68 475.24,296.73 476.04,296.78 ' style='stroke-width: 1.07; stroke-linecap: butt;' />
</g>
<g clip-path='url(#cpMC4wMHw1MDQuMDB8MC4wMHwzNjAuMDA=)'>
<text x='40.78' y='304.03' text-anchor='end' style='font-size: 18.00px;fill: #4D4D4D; font-family: "Arial";' textLength='10.01px' lengthAdjust='spacingAndGlyphs'>0</text>
<text x='40.78' y='202.55' text-anchor='end' style='font-size: 18.00px;fill: #4D4D4D; font-family: "Arial";' textLength='10.01px' lengthAdjust='spacingAndGlyphs'>1</text>
<text x='40.78' y='101.07' text-anchor='end' style='font-size: 18.00px;fill: #4D4D4D; font-family: "Arial";' textLength='10.01px' lengthAdjust='spacingAndGlyphs'>2</text>
<text x='55.27' y='329.03' text-anchor='middle' style='font-size: 18.00px;fill: #4D4D4D; font-family: "Arial";' textLength='10.01px' lengthAdjust='spacingAndGlyphs'>3</text>
<text x='202.28' y='329.03' text-anchor='middle' style='font-size: 18.00px;fill: #4D4D4D; font-family: "Arial";' textLength='10.01px' lengthAdjust='spacingAndGlyphs'>4</text>
<text x='349.30' y='329.03' text-anchor='middle' style='font-size: 18.00px;fill: #4D4D4D; font-family: "Arial";' textLength='10.01px' lengthAdjust='spacingAndGlyphs'>5</text>
<text x='496.32' y='329.03' text-anchor='middle' style='font-size: 18.00px;fill: #4D4D4D; font-family: "Arial";' textLength='10.01px' lengthAdjust='spacingAndGlyphs'>6</text>
<text x='272.12' y='350.12' text-anchor='middle' style='font-size: 20.00px; font-weight: bold; font-family: "Arial";' textLength='108.87px' lengthAdjust='spacingAndGlyphs'>log (length)</text>
<text transform='translate(22.75,161.43) rotate(-90)' text-anchor='middle' style='font-size: 24.00px; font-weight: bold; font-family: "Arial";' textLength='86.70px' lengthAdjust='spacingAndGlyphs'>Density</text>
<text x='272.12' y='6.20' text-anchor='middle' style='font-size: 0.00px; font-weight: bold; font-family: "Arial";' textLength='13.47px' lengthAdjust='spacingAndGlyphs'>Plasmids length distribution</text>
</g>
</svg>
