<?xml version='1.0' encoding='UTF-8' ?>
<svg xmlns='http://www.w3.org/2000/svg' xmlns:xlink='http://www.w3.org/1999/xlink' class='svglite' width='504.00pt' height='360.00pt' viewBox='0 0 504.00 360.00'>
<defs>
  <style type='text/css'><![CDATA[
    .svglite line, .svglite polyline, .svglite polygon, .svglite path, .svglite rect, .svglite circle {
      fill: none;
      stroke: #000000;
      stroke-linecap: round;
      stroke-linejoin: round;
      stroke-miterlimit: 10.00;
    }
    .svglite text {
      white-space: pre;
    }
  ]]></style>
</defs>
<rect width='100%' height='100%' style='stroke: none; fill: #FFFFFF;'/>
<defs>
  <clipPath id='cpMC4wMHw1MDQuMDB8MC4wMHwzNjAuMDA='>
    <rect x='0.00' y='0.00' width='504.00' height='360.00' />
  </clipPath>
</defs>
<g clip-path='url(#cpMC4wMHw1MDQuMDB8MC4wMHwzNjAuMDA=)'>
<rect x='0.00' y='0.00' width='504.00' height='360.00' style='stroke-width: 1.07; stroke: #FFFFFF; fill: #FFFFFF;' />
</g>
<defs>
  <clipPath id='cpNTEuNTR8MTk2Ljg4fDY1LjY0fDMyNC4zMg=='>
    <rect x='51.54' y='65.64' width='145.34' height='258.68' />
  </clipPath>
</defs>
<g clip-path='url(#cpNTEuNTR8MTk2Ljg4fDY1LjY0fDMyNC4zMg==)'>
<rect x='51.54' y='65.64' width='145.34' height='258.68' style='stroke-width: 1.07; stroke: none; fill: #FFFFFF;' />
<polyline points='51.54,290.03 196.88,290.03 ' style='stroke-width: 0.53; stroke: #EBEBEB; stroke-linecap: butt;' />
<polyline points='51.54,244.98 196.88,244.98 ' style='stroke-width: 0.53; stroke: #EBEBEB; stroke-linecap: butt;' />
<polyline points='51.54,199.93 196.88,199.93 ' style='stroke-width: 0.53; stroke: #EBEBEB; stroke-linecap: butt;' />
<polyline points='51.54,154.88 196.88,154.88 ' style='stroke-width: 0.53; stroke: #EBEBEB; stroke-linecap: butt;' />
<polyline points='51.54,109.83 196.88,109.83 ' style='stroke-width: 0.53; stroke: #EBEBEB; stroke-linecap: butt;' />
<polyline points='51.54,312.56 196.88,312.56 ' style='stroke-width: 1.07; stroke: #EBEBEB; stroke-linecap: butt;' />
<polyline points='51.54,267.51 196.88,267.51 ' style='stroke-width: 1.07; stroke: #EBEBEB; stroke-linecap: butt;' />
<polyline points='51.54,222.46 196.88,222.46 ' style='stroke-width: 1.07; stroke: #EBEBEB; stroke-linecap: butt;' />
<polyline points='51.54,177.41 196.88,177.41 ' style='stroke-width: 1.07; stroke: #EBEBEB; stroke-linecap: butt;' />
<polyline points='51.54,132.36 196.88,132.36 ' style='stroke-width: 1.07; stroke: #EBEBEB; stroke-linecap: butt;' />
<polyline points='51.54,87.31 196.88,87.31 ' style='stroke-width: 1.07; stroke: #EBEBEB; stroke-linecap: butt;' />
<polyline points='91.17,324.32 91.17,65.64 ' style='stroke-width: 1.07; stroke: #EBEBEB; stroke-linecap: butt;' />
<polyline points='157.24,324.32 157.24,65.64 ' style='stroke-width: 1.07; stroke: #EBEBEB; stroke-linecap: butt;' />
<rect x='127.51' y='158.49' width='59.46' height='154.07' style='stroke-width: 1.07; stroke: none; stroke-linecap: butt; stroke-linejoin: miter; fill: #FF9933;' />
<rect x='61.45' y='299.04' width='59.46' height='13.52' style='stroke-width: 1.07; stroke: none; stroke-linecap: butt; stroke-linejoin: miter; fill: #434343;' />
<rect x='127.51' y='77.40' width='59.46' height='81.09' style='stroke-width: 1.07; stroke: none; stroke-linecap: butt; stroke-linejoin: miter; fill: #A6A6A6;' />
<rect x='51.54' y='65.64' width='145.34' height='258.68' style='stroke-width: 1.07; stroke: #333333;' />
</g>
<g clip-path='url(#cpMC4wMHw1MDQuMDB8MC4wMHwzNjAuMDA=)'>
</g>
<defs>
  <clipPath id='cpMjAyLjM2fDM0Ny43MHw2NS42NHwzMjQuMzI='>
    <rect x='202.36' y='65.64' width='145.34' height='258.68' />
  </clipPath>
</defs>
<g clip-path='url(#cpMjAyLjM2fDM0Ny43MHw2NS42NHwzMjQuMzI=)'>
<rect x='202.36' y='65.64' width='145.34' height='258.68' style='stroke-width: 1.07; stroke: none; fill: #FFFFFF;' />
<polyline points='202.36,290.03 347.70,290.03 ' style='stroke-width: 0.53; stroke: #EBEBEB; stroke-linecap: butt;' />
<polyline points='202.36,244.98 347.70,244.98 ' style='stroke-width: 0.53; stroke: #EBEBEB; stroke-linecap: butt;' />
<polyline points='202.36,199.93 347.70,199.93 ' style='stroke-width: 0.53; stroke: #EBEBEB; stroke-linecap: butt;' />
<polyline points='202.36,154.88 347.70,154.88 ' style='stroke-width: 0.53; stroke: #EBEBEB; stroke-linecap: butt;' />
<polyline points='202.36,109.83 347.70,109.83 ' style='stroke-width: 0.53; stroke: #EBEBEB; stroke-linecap: butt;' />
<polyline points='202.36,312.56 347.70,312.56 ' style='stroke-width: 1.07; stroke: #EBEBEB; stroke-linecap: butt;' />
<polyline points='202.36,267.51 347.70,267.51 ' style='stroke-width: 1.07; stroke: #EBEBEB; stroke-linecap: butt;' />
<polyline points='202.36,222.46 347.70,222.46 ' style='stroke-width: 1.07; stroke: #EBEBEB; stroke-linecap: butt;' />
<polyline points='202.36,177.41 347.70,177.41 ' style='stroke-width: 1.07; stroke: #EBEBEB; stroke-linecap: butt;' />
<polyline points='202.36,132.36 347.70,132.36 ' style='stroke-width: 1.07; stroke: #EBEBEB; stroke-linecap: butt;' />
<polyline points='202.36,87.31 347.70,87.31 ' style='stroke-width: 1.07; stroke: #EBEBEB; stroke-linecap: butt;' />
<polyline points='242.00,324.32 242.00,65.64 ' style='stroke-width: 1.07; stroke: #EBEBEB; stroke-linecap: butt;' />
<polyline points='308.06,324.32 308.06,65.64 ' style='stroke-width: 1.07; stroke: #EBEBEB; stroke-linecap: butt;' />
<rect x='278.33' y='110.28' width='59.46' height='202.28' style='stroke-width: 1.07; stroke: none; stroke-linecap: butt; stroke-linejoin: miter; fill: #FF9933;' />
<rect x='212.27' y='260.30' width='59.46' height='52.26' style='stroke-width: 1.07; stroke: none; stroke-linecap: butt; stroke-linejoin: miter; fill: #434343;' />
<rect x='278.33' y='77.40' width='59.46' height='32.89' style='stroke-width: 1.07; stroke: none; stroke-linecap: butt; stroke-linejoin: miter; fill: #A6A6A6;' />
<rect x='202.36' y='65.64' width='145.34' height='258.68' style='stroke-width: 1.07; stroke: #333333;' />
</g>
<g clip-path='url(#cpMC4wMHw1MDQuMDB8MC4wMHwzNjAuMDA=)'>
</g>
<defs>
  <clipPath id='cpMzUzLjE4fDQ5OC41Mnw2NS42NHwzMjQuMzI='>
    <rect x='353.18' y='65.64' width='145.34' height='258.68' />
  </clipPath>
</defs>
<g clip-path='url(#cpMzUzLjE4fDQ5OC41Mnw2NS42NHwzMjQuMzI=)'>
<rect x='353.18' y='65.64' width='145.34' height='258.68' style='stroke-width: 1.07; stroke: none; fill: #FFFFFF;' />
<polyline points='353.18,290.03 498.52,290.03 ' style='stroke-width: 0.53; stroke: #EBEBEB; stroke-linecap: butt;' />
<polyline points='353.18,244.98 498.52,244.98 ' style='stroke-width: 0.53; stroke: #EBEBEB; stroke-linecap: butt;' />
<polyline points='353.18,199.93 498.52,199.93 ' style='stroke-width: 0.53; stroke: #EBEBEB; stroke-linecap: butt;' />
<polyline points='353.18,154.88 498.52,154.88 ' style='stroke-width: 0.53; stroke: #EBEBEB; stroke-linecap: butt;' />
<polyline points='353.18,109.83 498.52,109.83 ' style='stroke-width: 0.53; stroke: #EBEBEB; stroke-linecap: butt;' />
<polyline points='353.18,312.56 498.52,312.56 ' style='stroke-width: 1.07; stroke: #EBEBEB; stroke-linecap: butt;' />
<polyline points='353.18,267.51 498.52,267.51 ' style='stroke-width: 1.07; stroke: #EBEBEB; stroke-linecap: butt;' />
<polyline points='353.18,222.46 498.52,222.46 ' style='stroke-width: 1.07; stroke: #EBEBEB; stroke-linecap: butt;' />
<polyline points='353.18,177.41 498.52,177.41 ' style='stroke-width: 1.07; stroke: #EBEBEB; stroke-linecap: butt;' />
<polyline points='353.18,132.36 498.52,132.36 ' style='stroke-width: 1.07; stroke: #EBEBEB; stroke-linecap: butt;' />
<polyline points='353.18,87.31 498.52,87.31 ' style='stroke-width: 1.07; stroke: #EBEBEB; stroke-linecap: butt;' />
<polyline points='392.82,324.32 392.82,65.64 ' style='stroke-width: 1.07; stroke: #EBEBEB; stroke-linecap: butt;' />
<polyline points='458.88,324.32 458.88,65.64 ' style='stroke-width: 1.07; stroke: #EBEBEB; stroke-linecap: butt;' />
<rect x='429.15' y='212.10' width='59.46' height='100.46' style='stroke-width: 1.07; stroke: none; stroke-linecap: butt; stroke-linejoin: miter; fill: #FF9933;' />
<rect x='363.09' y='304.00' width='59.46' height='8.56' style='stroke-width: 1.07; stroke: none; stroke-linecap: butt; stroke-linejoin: miter; fill: #434343;' />
<rect x='429.15' y='77.40' width='59.46' height='134.70' style='stroke-width: 1.07; stroke: none; stroke-linecap: butt; stroke-linejoin: miter; fill: #A6A6A6;' />
<rect x='353.18' y='65.64' width='145.34' height='258.68' style='stroke-width: 1.07; stroke: #333333;' />
</g>
<g clip-path='url(#cpMC4wMHw1MDQuMDB8MC4wMHwzNjAuMDA=)'>
</g>
<defs>
  <clipPath id='cpNTEuNTR8MTk2Ljg4fDQ0LjY4fDY1LjY0'>
    <rect x='51.54' y='44.68' width='145.34' height='20.96' />
  </clipPath>
</defs>
<g clip-path='url(#cpNTEuNTR8MTk2Ljg4fDQ0LjY4fDY1LjY0)'>
<rect x='51.54' y='44.68' width='145.34' height='20.96' style='stroke-width: 1.07; stroke: #333333; fill: #D9D9D9;' />
<text x='124.21' y='59.82' text-anchor='middle' style='font-size: 13.00px;fill: #1A1A1A; font-family: "Arial";' textLength='38.30px' lengthAdjust='spacingAndGlyphs'>gplas2</text>
</g>
<g clip-path='url(#cpMC4wMHw1MDQuMDB8MC4wMHwzNjAuMDA=)'>
</g>
<defs>
  <clipPath id='cpMjAyLjM2fDM0Ny43MHw0NC42OHw2NS42NA=='>
    <rect x='202.36' y='44.68' width='145.34' height='20.96' />
  </clipPath>
</defs>
<g clip-path='url(#cpMjAyLjM2fDM0Ny43MHw0NC42OHw2NS42NA==)'>
<rect x='202.36' y='44.68' width='145.34' height='20.96' style='stroke-width: 1.07; stroke: #333333; fill: #D9D9D9;' />
<text x='275.03' y='59.82' text-anchor='middle' style='font-size: 13.00px;fill: #1A1A1A; font-family: "Arial";' textLength='61.39px' lengthAdjust='spacingAndGlyphs'>MOB-suite</text>
</g>
<g clip-path='url(#cpMC4wMHw1MDQuMDB8MC4wMHwzNjAuMDA=)'>
</g>
<defs>
  <clipPath id='cpMzUzLjE4fDQ5OC41Mnw0NC42OHw2NS42NA=='>
    <rect x='353.18' y='44.68' width='145.34' height='20.96' />
  </clipPath>
</defs>
<g clip-path='url(#cpMzUzLjE4fDQ5OC41Mnw0NC42OHw2NS42NA==)'>
<rect x='353.18' y='44.68' width='145.34' height='20.96' style='stroke-width: 1.07; stroke: #333333; fill: #D9D9D9;' />
<text x='425.85' y='59.82' text-anchor='middle' style='font-size: 13.00px;fill: #1A1A1A; font-family: "Arial";' textLength='91.76px' lengthAdjust='spacingAndGlyphs'>plasmidSPAdes</text>
</g>
<g clip-path='url(#cpMC4wMHw1MDQuMDB8MC4wMHwzNjAuMDA=)'>
<polyline points='91.17,327.06 91.17,324.32 ' style='stroke-width: 1.07; stroke: #333333; stroke-linecap: butt;' />
<polyline points='157.24,327.06 157.24,324.32 ' style='stroke-width: 1.07; stroke: #333333; stroke-linecap: butt;' />
<text x='91.17' y='336.43' text-anchor='middle' style='font-size: 10.00px;fill: #4D4D4D; font-family: "Arial";' textLength='60.00px' lengthAdjust='spacingAndGlyphs'>Chromosome</text>
<text x='157.24' y='336.43' text-anchor='middle' style='font-size: 10.00px;fill: #4D4D4D; font-family: "Arial";' textLength='55.01px' lengthAdjust='spacingAndGlyphs'>Plasmidome</text>
<polyline points='242.00,327.06 242.00,324.32 ' style='stroke-width: 1.07; stroke: #333333; stroke-linecap: butt;' />
<polyline points='308.06,327.06 308.06,324.32 ' style='stroke-width: 1.07; stroke: #333333; stroke-linecap: butt;' />
<text x='242.00' y='336.43' text-anchor='middle' style='font-size: 10.00px;fill: #4D4D4D; font-family: "Arial";' textLength='60.00px' lengthAdjust='spacingAndGlyphs'>Chromosome</text>
<text x='308.06' y='336.43' text-anchor='middle' style='font-size: 10.00px;fill: #4D4D4D; font-family: "Arial";' textLength='55.01px' lengthAdjust='spacingAndGlyphs'>Plasmidome</text>
<polyline points='392.82,327.06 392.82,324.32 ' style='stroke-width: 1.07; stroke: #333333; stroke-linecap: butt;' />
<polyline points='458.88,327.06 458.88,324.32 ' style='stroke-width: 1.07; stroke: #333333; stroke-linecap: butt;' />
<text x='392.82' y='336.43' text-anchor='middle' style='font-size: 10.00px;fill: #4D4D4D; font-family: "Arial";' textLength='60.00px' lengthAdjust='spacingAndGlyphs'>Chromosome</text>
<text x='458.88' y='336.43' text-anchor='middle' style='font-size: 10.00px;fill: #4D4D4D; font-family: "Arial";' textLength='55.01px' lengthAdjust='spacingAndGlyphs'>Plasmidome</text>
<text x='46.60' y='317.58' text-anchor='end' style='font-size: 14.00px;fill: #4D4D4D; font-family: "Arial";' textLength='7.78px' lengthAdjust='spacingAndGlyphs'>0</text>
<text x='46.60' y='272.53' text-anchor='end' style='font-size: 14.00px;fill: #4D4D4D; font-family: "Arial";' textLength='23.35px' lengthAdjust='spacingAndGlyphs'>100</text>
<text x='46.60' y='227.48' text-anchor='end' style='font-size: 14.00px;fill: #4D4D4D; font-family: "Arial";' textLength='23.35px' lengthAdjust='spacingAndGlyphs'>200</text>
<text x='46.60' y='182.43' text-anchor='end' style='font-size: 14.00px;fill: #4D4D4D; font-family: "Arial";' textLength='23.35px' lengthAdjust='spacingAndGlyphs'>300</text>
<text x='46.60' y='137.38' text-anchor='end' style='font-size: 14.00px;fill: #4D4D4D; font-family: "Arial";' textLength='23.35px' lengthAdjust='spacingAndGlyphs'>400</text>
<text x='46.60' y='92.33' text-anchor='end' style='font-size: 14.00px;fill: #4D4D4D; font-family: "Arial";' textLength='23.35px' lengthAdjust='spacingAndGlyphs'>500</text>
<polyline points='48.80,312.56 51.54,312.56 ' style='stroke-width: 1.07; stroke: #333333; stroke-linecap: butt;' />
<polyline points='48.80,267.51 51.54,267.51 ' style='stroke-width: 1.07; stroke: #333333; stroke-linecap: butt;' />
<polyline points='48.80,222.46 51.54,222.46 ' style='stroke-width: 1.07; stroke: #333333; stroke-linecap: butt;' />
<polyline points='48.80,177.41 51.54,177.41 ' style='stroke-width: 1.07; stroke: #333333; stroke-linecap: butt;' />
<polyline points='48.80,132.36 51.54,132.36 ' style='stroke-width: 1.07; stroke: #333333; stroke-linecap: butt;' />
<polyline points='48.80,87.31 51.54,87.31 ' style='stroke-width: 1.07; stroke: #333333; stroke-linecap: butt;' />
<text x='275.03' y='351.44' text-anchor='middle' style='font-size: 14.00px; font-weight: bold; font-family: "Arial";' textLength='104.18px' lengthAdjust='spacingAndGlyphs'>ARG true origin</text>
<text transform='translate(16.99,194.98) rotate(-90)' text-anchor='middle' style='font-size: 16.00px; font-weight: bold; font-family: "Arial";' textLength='71.12px' lengthAdjust='spacingAndGlyphs'>Nr. ARGs</text>
<rect x='98.34' y='5.48' width='353.38' height='28.24' style='stroke-width: 1.07; stroke: none; fill: #FFFFFF;' />
<text x='103.82' y='23.92' style='font-size: 12.00px; font-weight: bold; font-family: "Arial";' textLength='106.04px' lengthAdjust='spacingAndGlyphs'>ARG classification</text>
<rect x='215.59' y='10.96' width='17.28' height='17.28' style='stroke-width: 1.07; stroke: none; fill: #FFFFFF;' />
<rect x='216.30' y='11.67' width='15.86' height='15.86' style='stroke-width: 1.07; stroke: none; stroke-linecap: butt; stroke-linejoin: miter; fill: #434343;' />
<rect x='302.61' y='10.96' width='17.28' height='17.28' style='stroke-width: 1.07; stroke: none; fill: #FFFFFF;' />
<rect x='303.32' y='11.67' width='15.86' height='15.86' style='stroke-width: 1.07; stroke: none; stroke-linecap: butt; stroke-linejoin: miter; fill: #A6A6A6;' />
<rect x='388.53' y='10.96' width='17.28' height='17.28' style='stroke-width: 1.07; stroke: none; fill: #FFFFFF;' />
<rect x='389.24' y='11.67' width='15.86' height='15.86' style='stroke-width: 1.07; stroke: none; stroke-linecap: butt; stroke-linejoin: miter; fill: #FF9933;' />
<text x='238.85' y='23.19' style='font-size: 10.00px; font-family: "Arial";' textLength='57.78px' lengthAdjust='spacingAndGlyphs'>chromosome</text>
<text x='325.87' y='23.19' style='font-size: 10.00px; font-family: "Arial";' textLength='56.67px' lengthAdjust='spacingAndGlyphs'>missed_args</text>
<text x='411.79' y='23.19' style='font-size: 10.00px; font-family: "Arial";' textLength='34.45px' lengthAdjust='spacingAndGlyphs'>plasmid</text>
</g>
</svg>
