"true_classification"	"repeat_category_predicted"	"metric_classification"	"frequency"	"species"
"ambiguous"	"ambiguous"	"TP"	271	"K. pneumoniae"
"ambiguous"	"Not identified"	"FN"	10	"K. pneumoniae"
"ambiguous"	"repeat chromosome"	"FN"	25	"K. pneumoniae"
"ambiguous"	"repeat plasmid"	"TP"	12	"K. pneumoniae"
"chromosome"	"ambiguous"	"FP"	9	"K. pneumoniae"
"chromosome"	"repeat chromosome"	"TN"	106	"K. pneumoniae"
"chromosome"	"repeat plasmid"	"FP"	7	"K. pneumoniae"
"plasmid"	"ambiguous"	"TP"	13	"K. pneumoniae"
"plasmid"	"repeat chromosome"	"FN"	6	"K. pneumoniae"
"plasmid"	"repeat plasmid"	"TP"	41	"K. pneumoniae"
"repeat chromosome"	"ambiguous"	"FP"	8	"K. pneumoniae"
"repeat chromosome"	"Not identified"	"FN"	20	"K. pneumoniae"
"repeat chromosome"	"repeat chromosome"	"TN"	785	"K. pneumoniae"
"repeat chromosome"	"repeat plasmid"	"FP"	1	"K. pneumoniae"
"repeat plasmid"	"ambiguous"	"TP"	27	"K. pneumoniae"
"repeat plasmid"	"Not identified"	"FN"	28	"K. pneumoniae"
"repeat plasmid"	"repeat plasmid"	"TP"	162	"K. pneumoniae"
