GCF_022405375.1_ASM2240537v1,GCF_022405375.1_ASM2240537v1_bin_1,NZ_CP062369.1,S15_LN_i_27268_dp_f_1.7513524999692485,27268,1.0
GCF_022405815.1_ASM2240581v1,GCF_022405815.1_ASM2240581v1_bin_1,NZ_CP062404.1,S25_LN_i_14841_dp_f_0.9042906576828036,14841,1.0
GCF_022405815.1_ASM2240581v1,GCF_022405815.1_ASM2240581v1_bin_1,NZ_CP062404.1,S26_LN_i_6634_dp_f_0.935179794953332,6634,1.0
GCF_022405515.1_ASM2240551v1,GCF_022405515.1_ASM2240551v1_bin_1,NZ_CP062385.1,S9_LN_i_20730_dp_f_2.763332544826607,20730,1.0
GCF_022405455.1_ASM2240545v1,GCF_022405455.1_ASM2240545v1_bin_1,NZ_CP062379.1,S13_LN_i_27265_dp_f_1.9251678744664034,27265,1.0
GCF_017161095.1_ASM1716109v1,GCF_017161095.1_ASM1716109v1_bin_1,NZ_CP046477.1,S15_LN_i_16100_dp_f_0.883679061380802,16100,1.0
GCF_022404595.1_ASM2240459v1,GCF_022404595.1_ASM2240459v1_bin_1,NZ_CP062323.1,S15_LN_i_20691_dp_f_4.41158458427947,20691,1.0
GCF_022404635.1_ASM2240463v1,GCF_022404635.1_ASM2240463v1_bin_1,NZ_CP062327.1,S10_LN_i_28841_dp_f_1.469087268163505,28841,1.0
GCF_022404635.1_ASM2240463v1,GCF_022404635.1_ASM2240463v1_bin_2,NZ_CP062328.1,S11_LN_i_20730_dp_f_3.1999966075705673,20730,1.0
GCF_022405145.1_ASM2240514v1,GCF_022405145.1_ASM2240514v1_bin_1,NZ_CP062349.1,S16_LN_i_20653_dp_f_3.095843846291579,20653,1.0
GCF_022405295.1_ASM2240529v1,GCF_022405295.1_ASM2240529v1_bin_1,NZ_CP062361.1,S7_LN_i_31943_dp_f_1.0544567395112439,31943,0.99
GCF_016727585.1_ASM1672758v1,GCF_016727585.1_ASM1672758v1_bin_1,NZ_CP068144.1,S18_LN_i_19758_dp_f_1.480235133846732,19758,1.0
GCF_022493095.1_ASM2249309v1,GCF_022493095.1_ASM2249309v1_bin_1,NZ_CP062440.1,S17_LN_i_3126_dp_f_20.758604285852766,3126,1.0
GCF_022405415.1_ASM2240541v1,GCF_022405415.1_ASM2240541v1_bin_1,NZ_CP062373.1,S16_LN_i_28364_dp_f_0.593346562005527,28364,1.0
GCF_022405415.1_ASM2240541v1,GCF_022405415.1_ASM2240541v1_bin_2,NZ_CP062374.1,S18_LN_i_3566_dp_f_10.550933311920279,3566,1.0
GCF_022405415.1_ASM2240541v1,GCF_022405415.1_ASM2240541v1_bin_3,NZ_CP062375.1,S20_LN_i_2366_dp_f_15.199368609010852,2366,1.0
GCF_022405595.1_ASM2240559v1,GCF_022405595.1_ASM2240559v1_bin_1,NZ_CP062394.1,S16_LN_i_18246_dp_f_3.258702810782527,18246,1.0
GCF_022405595.1_ASM2240559v1,GCF_022405595.1_ASM2240559v1_bin_1,NZ_CP062394.1,S17_LN_i_8779_dp_f_3.167614337862079,8779,1.0
GCF_022405555.1_ASM2240555v1,GCF_022405555.1_ASM2240555v1_bin_1,NZ_CP062389.1,S17_LN_i_27269_dp_f_1.6708059741386903,27269,1.0
GCF_022405205.1_ASM2240520v1,GCF_022405205.1_ASM2240520v1_bin_1,NZ_CP062353.1,S13_LN_i_29018_dp_f_1.410889830573959,29018,1.0
GCF_022405835.1_ASM2240583v1,GCF_022405835.1_ASM2240583v1_bin_1,NZ_CP062405.1,S25_LN_i_14841_dp_f_0.9895808886952393,14841,1.0
GCF_022405835.1_ASM2240583v1,GCF_022405835.1_ASM2240583v1_bin_1,NZ_CP062405.1,S26_LN_i_6634_dp_f_0.9327934509348386,6634,1.0
GCF_015475575.1_ASM1547557v1,GCF_015475575.1_ASM1547557v1_bin_1,NZ_CP055226.1,S19_LN_i_3125_dp_f_27.46883443794567,3125,1.0
GCF_013836745.1_ASM1383674v1,GCF_013836745.1_ASM1383674v1_bin_2,NZ_CP058614.1,S55_LN_i_2473_dp_f_19.207691143627386,2473,1.0
GCF_013836745.1_ASM1383674v1,GCF_013836745.1_ASM1383674v1_bin_1,NZ_CP058613.1,S38_LN_i_14442_dp_f_0.3752033528446977,14442,1.0
GCF_013836745.1_ASM1383674v1,GCF_013836745.1_ASM1383674v1_bin_1,NZ_CP058613.1,S44_LN_i_4575_dp_f_1.307282276367291,4575,1.0
GCF_013836745.1_ASM1383674v1,GCF_013836745.1_ASM1383674v1_bin_1,NZ_CP058613.1,S45_LN_i_3816_dp_f_0.41237273813703595,3816,1.0
GCF_013836745.1_ASM1383674v1,GCF_013836745.1_ASM1383674v1_bin_1,NZ_CP058613.1,S46_LN_i_3545_dp_f_0.39450112992751274,3545,1.0
GCF_013836745.1_ASM1383674v1,GCF_013836745.1_ASM1383674v1_bin_1,NZ_CP058613.1,S65_LN_i_1154_dp_f_0.6475422961075571,1154,1.0
GCF_013836745.1_ASM1383674v1,GCF_013836745.1_ASM1383674v1_bin_1,NZ_CP058613.1,S66_LN_i_1109_dp_f_0.5908188640652453,1109,1.0
GCF_022405275.1_ASM2240527v1,GCF_022405275.1_ASM2240527v1_bin_1,NZ_CP062359.1,S16_LN_i_27268_dp_f_2.1936652678062285,27268,1.0
GCF_022405435.1_ASM2240543v1,GCF_022405435.1_ASM2240543v1_bin_1,NZ_CP062377.1,S17_LN_i_19781_dp_f_4.037323981679163,19781,1.0
GCF_022405075.1_ASM2240507v1,GCF_022405075.1_ASM2240507v1_bin_1,NZ_CP062347.1,S28_LN_i_17334_dp_f_2.203405136615692,17334,1.0
GCF_022405075.1_ASM2240507v1,GCF_022405075.1_ASM2240507v1_bin_1,NZ_CP062347.1,S31_LN_i_13473_dp_f_2.034922038509776,13473,1.0
GCF_022405075.1_ASM2240507v1,GCF_022405075.1_ASM2240507v1_bin_1,NZ_CP062347.1,S33_LN_i_8229_dp_f_2.090022972374318,8229,1.0
GCF_016889145.1_ASM1688914v1,GCF_016889145.1_ASM1688914v1_bin_1,NZ_CP069471.1,S13_LN_i_28474_dp_f_2.989400135186002,28474,1.0
GCF_016889145.1_ASM1688914v1,GCF_016889145.1_ASM1688914v1_bin_1,NZ_CP069471.1,S18_LN_i_3146_dp_f_2.7649673684984544,3146,1.0
GCF_016889145.1_ASM1688914v1,GCF_016889145.1_ASM1688914v1_bin_2,NZ_CP069472.1,S20_LN_i_3111_dp_f_25.1399744971789,3111,1.0
GCF_013836525.1_ASM1383652v1,GCF_013836525.1_ASM1383652v1_bin_1,NZ_CP058615.1,S36_LN_i_4575_dp_f_1.4509250225289203,4575,1.0
GCF_013836525.1_ASM1383652v1,GCF_013836525.1_ASM1383652v1_bin_1,NZ_CP058615.1,S37_LN_i_4246_dp_f_0.3785605064733675,4246,1.0
GCF_013836525.1_ASM1383652v1,GCF_013836525.1_ASM1383652v1_bin_1,NZ_CP058615.1,S38_LN_i_3816_dp_f_0.389134571584191,3816,1.0
GCF_013836525.1_ASM1383652v1,GCF_013836525.1_ASM1383652v1_bin_1,NZ_CP058615.1,S40_LN_i_3270_dp_f_0.8512214061697733,3270,1.0
GCF_013836525.1_ASM1383652v1,GCF_013836525.1_ASM1383652v1_bin_1,NZ_CP058615.1,S58_LN_i_1109_dp_f_0.6065737172823507,1109,1.0
GCF_022404735.1_ASM2240473v1,GCF_022404735.1_ASM2240473v1_bin_1,NZ_CP062339.1,S13_LN_i_2564_dp_f_12.448146271551769,2564,1.0
GCF_022404715.1_ASM2240471v1,GCF_022404715.1_ASM2240471v1_bin_1,NZ_CP062337.1,S19_LN_i_20730_dp_f_4.443417630080317,20730,1.0
GCF_022404755.1_ASM2240475v1,GCF_022404755.1_ASM2240475v1_bin_1,NZ_CP062341.1,S12_LN_i_20721_dp_f_3.391212674227666,20721,1.0
GCF_022404575.1_ASM2240457v1,GCF_022404575.1_ASM2240457v1_bin_1,NZ_CP062321.1,S12_LN_i_27068_dp_f_3.015200402009901,27068,1.0
GCF_016591995.1_ASM1659199v1,GCF_016591995.1_ASM1659199v1_bin_1,NZ_AP024171.1,S102_LN_i_1917_dp_f_1.4296356684321117,1917,1.0
GCF_016591995.1_ASM1659199v1,GCF_016591995.1_ASM1659199v1_bin_1,NZ_AP024171.1,S41_LN_i_22474_dp_f_1.431554717038481,22474,1.0
GCF_022369595.1_ASM2236959v1,GCF_022369595.1_ASM2236959v1_bin_3,NZ_CP062317.1,S23_LN_i_2473_dp_f_14.901772568060764,2473,1.0
GCF_022369595.1_ASM2236959v1,GCF_022369595.1_ASM2236959v1_bin_2,NZ_CP062316.1,S20_LN_i_3111_dp_f_14.440614503142857,3111,1.0
GCF_022369595.1_ASM2236959v1,GCF_022369595.1_ASM2236959v1_bin_1,NZ_CP062315.1,S13_LN_i_22878_dp_f_2.4406031091195937,22878,1.0
GCF_022369595.1_ASM2236959v1,GCF_022369595.1_ASM2236959v1_bin_1,NZ_CP062315.1,S18_LN_i_3146_dp_f_2.692092045926978,3146,1.0
GCF_022404615.1_ASM2240461v1,GCF_022404615.1_ASM2240461v1_bin_1,NZ_CP062325.1,S16_LN_i_26385_dp_f_2.7683075542059377,26385,1.0
GCF_016894285.1_ASM1689428v1,GCF_016894285.1_ASM1689428v1_bin_1,NZ_CP069800.1,S17_LN_i_2539_dp_f_37.3635015207044,2539,1.0
GCF_017088305.1_ASM1708830v1,GCF_017088305.1_ASM1708830v1_bin_2,NZ_CP070988.1,S16_LN_i_2473_dp_f_5.458855077035284,2473,1.0
GCF_017088305.1_ASM1708830v1,GCF_017088305.1_ASM1708830v1_bin_1,NZ_CP070987.1,S14_LN_i_20653_dp_f_1.6864354861740767,20653,0.96
GCF_022406035.1_ASM2240603v1,GCF_022406035.1_ASM2240603v1_bin_1,NZ_CP062415.1,S32_LN_i_14635_dp_f_0.9407967380232665,14635,1.0
GCF_022406035.1_ASM2240603v1,GCF_022406035.1_ASM2240603v1_bin_1,NZ_CP062415.1,S35_LN_i_6696_dp_f_0.989719482809263,6696,1.0
GCF_022405475.1_ASM2240547v1,GCF_022405475.1_ASM2240547v1_bin_1,NZ_CP062381.1,S27_LN_i_21223_dp_f_1.5502020528686504,21223,1.0
GCF_022405475.1_ASM2240547v1,GCF_022405475.1_ASM2240547v1_bin_1,NZ_CP062381.1,S32_LN_i_13599_dp_f_1.4972379571603913,13599,1.0
GCF_022405475.1_ASM2240547v1,GCF_022405475.1_ASM2240547v1_bin_1,NZ_CP062381.1,S37_LN_i_2616_dp_f_1.704386983966115,2616,1.0
GCF_022405315.1_ASM2240531v1,GCF_022405315.1_ASM2240531v1_bin_1,NZ_CP062363.1,S16_LN_i_33094_dp_f_1.1997413287426326,33094,1.0
GCF_018093225.1_ASM1809322v1,GCF_018093225.1_ASM1809322v1_bin_1,NZ_CP071104.1,S47_LN_i_7976_dp_f_0.9115629625746992,7976,0.1
GCF_018093225.1_ASM1809322v1,GCF_018093225.1_ASM1809322v1_bin_2,NZ_CP071105.1,S51_LN_i_4264_dp_f_11.303663342265198,4264,1.0
GCF_018093225.1_ASM1809322v1,GCF_018093225.1_ASM1809322v1_bin_3,NZ_CP071106.1,S55_LN_i_2751_dp_f_1.2214444177633212,2751,1.0
GCF_016889945.1_ASM1688994v1,GCF_016889945.1_ASM1688994v1_bin_2,NZ_CP069566.1,S20_LN_i_3111_dp_f_20.790731204570925,3111,0.24
GCF_016889945.1_ASM1688994v1,GCF_016889945.1_ASM1688994v1_bin_1,NZ_CP069566.1,S14_LN_i_31949_dp_f_3.0639688776135197,31949,1.0
GCF_022226995.1_ASM2222699v1,GCF_022226995.1_ASM2222699v1_bin_1,NZ_CP092053.1,S16_LN_i_13032_dp_f_2.95716289602532,13032,1.0
GCF_022226995.1_ASM2222699v1,GCF_022226995.1_ASM2222699v1_bin_2,NZ_CP092054.1,S20_LN_i_2995_dp_f_12.48520160631236,2995,1.0
GCF_022404775.1_ASM2240477v1,GCF_022404775.1_ASM2240477v1_bin_1,NZ_CP062343.1,S18_LN_i_20691_dp_f_3.1539620822181766,20691,1.0
GCF_022405055.1_ASM2240505v1,GCF_022405055.1_ASM2240505v1_bin_1,NZ_CP062345.1,S11_LN_i_17329_dp_f_2.3198277380259325,17329,1.0
GCF_019653615.1_ASM1965361v1,GCF_019653615.1_ASM1965361v1_bin_Unbinned,NZ_CP077098.1,S59_LN_i_1922_dp_f_0.930805700056548,1922,1.0
GCF_022405185.1_ASM2240518v1,GCF_022405185.1_ASM2240518v1_bin_1,NZ_CP062351.1,S13_LN_i_16691_dp_f_1.3226522613500231,16691,1.0
GCF_022405535.1_ASM2240553v1,GCF_022405535.1_ASM2240553v1_bin_1,NZ_CP062387.1,S19_LN_i_2416_dp_f_9.479921617853309,2416,1.0
GCF_022405575.1_ASM2240557v1,GCF_022405575.1_ASM2240557v1_bin_1,NZ_CP062391.1,S10_LN_i_37087_dp_f_1.179680822066059,37087,1.0
GCF_022405575.1_ASM2240557v1,GCF_022405575.1_ASM2240557v1_bin_2,NZ_CP062392.1,S11_LN_i_24655_dp_f_1.8108690448690872,24655,1.0
GCF_022405255.1_ASM2240525v1,GCF_022405255.1_ASM2240525v1_bin_1,NZ_CP062357.1,S11_LN_i_29018_dp_f_2.0292863415920386,29018,1.0
GCF_022405495.1_ASM2240549v1,GCF_022405495.1_ASM2240549v1_bin_1,NZ_CP062383.1,S31_LN_i_17330_dp_f_1.588186918589043,17330,1.0
GCF_022405495.1_ASM2240549v1,GCF_022405495.1_ASM2240549v1_bin_1,NZ_CP062383.1,S33_LN_i_13686_dp_f_1.5263931775952617,13686,1.0
GCF_022405495.1_ASM2240549v1,GCF_022405495.1_ASM2240549v1_bin_1,NZ_CP062383.1,S34_LN_i_8268_dp_f_1.5643158295987623,8268,1.0
GCF_022405335.1_ASM2240533v1,GCF_022405335.1_ASM2240533v1_bin_1,NZ_CP062365.1,S21_LN_i_27117_dp_f_2.487579227916022,27117,1.0
GCF_018135565.1_ASM1813556v1,GCF_018135565.1_ASM1813556v1_bin_1,NZ_CP073064.1,S33_LN_i_4397_dp_f_8.748909733143847,4397,0.97
GCF_022405395.1_ASM2240539v1,GCF_022405395.1_ASM2240539v1_bin_1,NZ_CP062371.1,S14_LN_i_27267_dp_f_1.6372115048720284,27267,1.0
GCF_018409145.1_ASM1840914v1,GCF_018409145.1_ASM1840914v1_bin_1,NZ_AP024512.1,S37_LN_i_18398_dp_f_25.513846641818674,18398,1.0
GCF_018409145.1_ASM1840914v1,GCF_018409145.1_ASM1840914v1_bin_1,NZ_AP024512.1,S54_LN_i_1841_dp_f_24.381396531932612,1841,1.0
GCF_022404695.1_ASM2240469v1,GCF_022404695.1_ASM2240469v1_bin_1,NZ_CP062335.1,S14_LN_i_20691_dp_f_3.879973052318051,20691,1.0
GCF_022405895.1_ASM2240589v1,GCF_022405895.1_ASM2240589v1_bin_1,NZ_CP062408.1,S18_LN_i_8842_dp_f_1.1140179404057824,8842,1.0
GCF_022405895.1_ASM2240589v1,GCF_022405895.1_ASM2240589v1_bin_1,NZ_CP062408.1,S19_LN_i_5467_dp_f_1.150476998162138,5467,1.0
GCF_022405895.1_ASM2240589v1,GCF_022405895.1_ASM2240589v1_bin_1,NZ_CP062408.1,S20_LN_i_4591_dp_f_1.0795682019275477,4591,1.0
GCF_022405895.1_ASM2240589v1,GCF_022405895.1_ASM2240589v1_bin_1,NZ_CP062408.1,S22_LN_i_3599_dp_f_1.1983801330069832,3599,1.0
GCF_022405235.1_ASM2240523v1,GCF_022405235.1_ASM2240523v1_bin_1,NZ_CP062355.1,S13_LN_i_20680_dp_f_1.8797521371612822,20680,1.0
GCF_022404675.1_ASM2240467v1,GCF_022404675.1_ASM2240467v1_bin_1,NZ_CP062332.1,S18_LN_i_10958_dp_f_3.567492925673209,10958,1.0
GCF_022404675.1_ASM2240467v1,GCF_022404675.1_ASM2240467v1_bin_1,NZ_CP062332.1,S26_LN_i_1905_dp_f_3.5906182138570917,1905,1.0
GCF_022404675.1_ASM2240467v1,GCF_022404675.1_ASM2240467v1_bin_2,NZ_CP062333.1,S22_LN_i_2981_dp_f_42.30942251229934,2981,1.0
GCF_022404655.1_ASM2240465v1,GCF_022404655.1_ASM2240465v1_bin_1,NZ_CP062330.1,S15_LN_i_3332_dp_f_21.001220321442723,3332,1.0
GCF_022405355.1_ASM2240535v1,GCF_022405355.1_ASM2240535v1_bin_1,NZ_CP062367.1,S20_LN_i_18563_dp_f_2.3182799026894387,18563,1.0
GCF_022405355.1_ASM2240535v1,GCF_022405355.1_ASM2240535v1_bin_1,NZ_CP062367.1,S27_LN_i_3607_dp_f_2.206752749992035,3607,1.0
GCF_022405355.1_ASM2240535v1,GCF_022405355.1_ASM2240535v1_bin_1,NZ_CP062367.1,S28_LN_i_3146_dp_f_2.0018043683456135,3146,1.0
GCF_017088385.1_ASM1708838v1,GCF_017088385.1_ASM1708838v1_bin_1,NZ_CP070984.1,S17_LN_i_20730_dp_f_3.21066834873403,20730,0.99
GCF_017088385.1_ASM1708838v1,GCF_017088385.1_ASM1708838v1_bin_2,NZ_CP070985.1,S23_LN_i_2397_dp_f_6.926093830174144,2397,1.0
GCF_022369695.1_ASM2236969v1,GCF_022369695.1_ASM2236969v1_bin_1,NZ_CP062319.1,S17_LN_i_24654_dp_f_2.311456880031795,24654,1.0
GCF_022405615.1_ASM2240561v1,GCF_022405615.1_ASM2240561v1_bin_1,NZ_CP062397.1,S26_LN_i_21223_dp_f_1.9037117496519664,21223,1.0
GCF_022405615.1_ASM2240561v1,GCF_022405615.1_ASM2240561v1_bin_1,NZ_CP062397.1,S31_LN_i_13599_dp_f_1.881069031207984,13599,1.0
GCF_022405615.1_ASM2240561v1,GCF_022405615.1_ASM2240561v1_bin_1,NZ_CP062397.1,S35_LN_i_2616_dp_f_1.8400556204049814,2616,1.0
