"true_classification","variable","value","species"
"ambiguous","count",218,"General"
"chromosome","count",21986,"General"
"plasmid","count",1674,"General"
"repeat chromosome","count",3700,"General"
"repeat plasmid","count",160,"General"
"unaligned","count",258,"General"
"ambiguous","percentage",0.78,"General"
"chromosome","percentage",78.53,"General"
"plasmid","percentage",5.98,"General"
"repeat chromosome","percentage",13.22,"General"
"repeat plasmid","percentage",0.57,"General"
"unaligned","percentage",0.92,"General"
