"software","variable","value","species"
"RFplasmid","recall",0.76,"General"
"Centrifuge","recall",0.79,"General"
"Platon","recall",0.57,"General"
"plasmidEC","recall",0.73,"General"
"RFplasmid","precision",0.58,"General"
"Centrifuge","precision",0.87,"General"
"Platon","precision",0.56,"General"
"plasmidEC","precision",0.85,"General"
"RFplasmid","f1_score",0.66,"General"
"Centrifuge","f1_score",0.83,"General"
"Platon","f1_score",0.56,"General"
"plasmidEC","f1_score",0.79,"General"
