GCF_022406015.1_ASM2240601v1,plasmid_AE018,NZ_CP062414.1,18234,3039
GCF_018409145.1_ASM1840914v1,plasmid_AE387,NZ_AP024511.1,8205,1641
GCF_018409145.1_ASM1840914v1,plasmid_AF724,NZ_AP024511.1,28664,28664
GCF_018409145.1_ASM1840914v1,plasmid_AE018,NZ_AP024511.1,7365,1473
GCF_018409145.1_ASM1840914v1,plasmid_AA840,NZ_AP024512.1,20239,23481
GCF_018409145.1_ASM1840914v1,plasmid_AA840,NZ_AP024511.1,8538,23481
GCF_022405995.1_ASM2240599v1,plasmid_AE387,NZ_CP062413.1,9846,1641
GCF_022405995.1_ASM2240599v1,plasmid_AE018,NZ_CP062413.1,17868,2978
GCF_022404675.1_ASM2240467v1,plasmid_AB721,NZ_CP062333.1,2981,2981
GCF_022404675.1_ASM2240467v1,plasmid_AE387,NZ_CP062331.1,9864,1644
GCF_022404675.1_ASM2240467v1,plasmid_AE018,NZ_CP062331.1,18726,3121
GCF_022404675.1_ASM2240467v1,plasmid_AA840,NZ_CP062332.1,12859,12863
GCF_022404675.1_ASM2240467v1,plasmid_AH207,NZ_CP062331.1,5448,5448
GCF_022405795.1_ASM2240579v1,plasmid_AE387,NZ_CP062403.1,9720,1620
GCF_022405795.1_ASM2240579v1,plasmid_AE018,NZ_CP062403.1,18726,3121
GCF_022405795.1_ASM2240579v1,plasmid_AH207,NZ_CP062403.1,1884,1884
GCF_022405575.1_ASM2240557v1,plasmid_AE387,NZ_CP062390.1,10104,1684
GCF_022405575.1_ASM2240557v1,plasmid_AA409,NZ_CP062392.1,24655,24655
GCF_022405575.1_ASM2240557v1,plasmid_AE018,NZ_CP062390.1,18150,3025
GCF_022405575.1_ASM2240557v1,plasmid_AB110,NZ_CP062391.1,37087,37087
GCF_022405315.1_ASM2240531v1,plasmid_AD159,NZ_CP062363.1,33094,33094
GCF_022405315.1_ASM2240531v1,plasmid_AE018,NZ_CP062362.1,18234,3039
GCF_022405835.1_ASM2240583v1,plasmid_AE387,NZ_CP062405.1,10008,1668
GCF_022405835.1_ASM2240583v1,plasmid_AA410,NZ_CP062405.1,24986,24986
GCF_022405835.1_ASM2240583v1,plasmid_AE018,NZ_CP062405.1,18724,3121
GCF_022405875.1_ASM2240587v1,plasmid_AE387,NZ_CP062407.1,9768,1628
GCF_022405875.1_ASM2240587v1,plasmid_AE018,NZ_CP062407.1,18659,3110
GCF_022369695.1_ASM2236969v1,plasmid_AE387,NZ_CP062318.1,8420,1684
GCF_022369695.1_ASM2236969v1,plasmid_AA409,NZ_CP062319.1,24654,24654
GCF_022369695.1_ASM2236969v1,plasmid_AE018,NZ_CP062318.1,15605,3121
GCF_022405335.1_ASM2240533v1,plasmid_AE387,NZ_CP062364.1,9768,1628
GCF_022405335.1_ASM2240533v1,plasmid_AE018,NZ_CP062364.1,18722,3121
GCF_022405255.1_ASM2240525v1,plasmid_AE387,NZ_CP062356.1,9846,1641
GCF_022405255.1_ASM2240525v1,plasmid_AA083,NZ_CP062357.1,29018,29018
GCF_022405255.1_ASM2240525v1,plasmid_AE018,NZ_CP062356.1,18714,3119
GCF_022404595.1_ASM2240459v1,plasmid_AE387,NZ_CP062322.1,9720,1620
GCF_022404595.1_ASM2240459v1,plasmid_AA411,NZ_CP062323.1,20691,20691
GCF_022404595.1_ASM2240459v1,plasmid_AE018,NZ_CP062322.1,18726,3121
GCF_022404595.1_ASM2240459v1,plasmid_AE942,NZ_CP062322.1,3409,3409
GCF_022404615.1_ASM2240461v1,plasmid_AE387,NZ_CP062324.1,9864,1644
GCF_022404615.1_ASM2240461v1,plasmid_AE018,NZ_CP062324.1,18726,3121
GCF_022404615.1_ASM2240461v1,plasmid_AA840,NZ_CP062325.1,26385,26385
GCF_022404615.1_ASM2240461v1,plasmid_AH207,NZ_CP062324.1,5448,5448
GCF_016591995.1_ASM1659199v1,plasmid_AG777,NZ_AP024170.1,9559,9559
GCF_016591995.1_ASM1659199v1,plasmid_AE387,NZ_AP024170.1,8115,1623
GCF_016591995.1_ASM1659199v1,plasmid_AA409,NZ_AP024171.1,24391,24391
GCF_016591995.1_ASM1659199v1,plasmid_novel_11d8166ba99eddcd01dafec61e5cbc43,NZ_AP024170.1,7940,2613
GCF_016591995.1_ASM1659199v1,plasmid_AE018,NZ_AP024170.1,14960,2992
GCF_016591995.1_ASM1659199v1,plasmid_AC670,NZ_AP024170.1,4556,4556
GCF_022405475.1_ASM2240547v1,plasmid_AE018,NZ_CP062380.1,18062,3011
GCF_022405475.1_ASM2240547v1,plasmid_AA837,NZ_CP062381.1,37438,37438
GCF_022405275.1_ASM2240527v1,plasmid_AE387,NZ_CP062358.1,9846,1641
GCF_022405275.1_ASM2240527v1,plasmid_AE018,NZ_CP062358.1,17950,2992
GCF_022405275.1_ASM2240527v1,plasmid_AA848,NZ_CP062359.1,27268,28769
GCF_022405275.1_ASM2240527v1,plasmid_AA848,NZ_CP062358.1,12008,28769
GCF_022404755.1_ASM2240475v1,plasmid_AE387,NZ_CP062340.1,10104,1684
GCF_022404755.1_ASM2240475v1,plasmid_AA411,NZ_CP062341.1,20721,20721
GCF_022404755.1_ASM2240475v1,plasmid_AE018,NZ_CP062340.1,18726,3121
GCF_018135565.1_ASM1813556v1,plasmid_AE387,NZ_CP073065.1,8110,1622
GCF_018135565.1_ASM1813556v1,plasmid_AE018,NZ_CP073065.1,14800,2960
GCF_018135565.1_ASM1813556v1,plasmid_AE942,NZ_CP073065.1,1207,1207
GCF_018135565.1_ASM1813556v1,plasmid_AA010,NZ_CP073064.1,4254,4397
GCF_022406075.1_ASM2240607v1,plasmid_AE387,NZ_CP062417.1,9846,1641
GCF_022406075.1_ASM2240607v1,plasmid_AE018,NZ_CP062417.1,18714,3119
GCF_022405935.1_ASM2240593v1,plasmid_AE387,NZ_CP062410.1,9846,1641
GCF_022405935.1_ASM2240593v1,plasmid_AE018,NZ_CP062410.1,18726,3121
GCF_022404735.1_ASM2240473v1,plasmid_AE387,NZ_CP062338.1,9720,1620
GCF_022404735.1_ASM2240473v1,plasmid_AE018,NZ_CP062338.1,18726,3121
GCF_022404735.1_ASM2240473v1,plasmid_AB724,NZ_CP062339.1,2564,2564
GCF_022405895.1_ASM2240589v1,plasmid_AE018,NZ_CP062408.1,18234,3039
GCF_022405895.1_ASM2240589v1,plasmid_AB915,NZ_CP062408.1,8190,8190
GCF_022405895.1_ASM2240589v1,plasmid_AE407,NZ_CP062408.1,15787,10231
GCF_022405145.1_ASM2240514v1,plasmid_AA411,NZ_CP062349.1,20653,20653
GCF_022405145.1_ASM2240514v1,plasmid_AE018,NZ_CP062348.1,18726,3121
GCF_022405145.1_ASM2240514v1,plasmid_AG371,NZ_CP062348.1,18339,18339
GCF_017161095.1_ASM1716109v1,plasmid_AE387,NZ_CP046476.1,9816,1636
GCF_017161095.1_ASM1716109v1,plasmid_AE018,NZ_CP046476.1,17946,2991
GCF_017161095.1_ASM1716109v1,plasmid_AA851,NZ_CP046477.1,16100,16100
GCF_022405815.1_ASM2240581v1,plasmid_AE387,NZ_CP062404.1,10008,1668
GCF_022405815.1_ASM2240581v1,plasmid_AA410,NZ_CP062404.1,24986,24986
GCF_022405815.1_ASM2240581v1,plasmid_AE018,NZ_CP062404.1,18724,3121
GCF_022406795.1_ASM2240679v1,plasmid_AE387,NZ_CP063745.1,9900,1650
GCF_022406795.1_ASM2240679v1,plasmid_AB641,NZ_CP063745.1,3892,3892
GCF_022406795.1_ASM2240679v1,plasmid_AE018,NZ_CP063745.1,17688,2948
GCF_022405615.1_ASM2240561v1,plasmid_AE018,NZ_CP062395.1,17942,2991
GCF_022405615.1_ASM2240561v1,plasmid_AA837,NZ_CP062397.1,37438,37438
GCF_022406315.1_ASM2240631v1,plasmid_AE018,NZ_CP062419.1,18234,3039
GCF_022406315.1_ASM2240631v1,plasmid_AH207,NZ_CP062419.1,2167,2167
GCF_022405735.1_ASM2240573v1,plasmid_AE387,NZ_CP062400.1,9816,1636
GCF_022405735.1_ASM2240573v1,plasmid_AE018,NZ_CP062400.1,18234,3039
GCF_903932595.1_P3.1,plasmid_AA769,NZ_LR822060.1,6937,6937
GCF_903932595.1_P3.1,plasmid_AE387,NZ_LR822060.1,9846,1641
GCF_903932595.1_P3.1,plasmid_AE220,NZ_LR822060.1,21190,19184
GCF_903932595.1_P3.1,plasmid_AE018,NZ_LR822060.1,18726,3121
GCF_903932595.1_P3.1,plasmid_AA849,NZ_LR822060.1,21229,34190
GCF_903932595.1_P3.1,plasmid_AG180,NZ_LR822060.1,1360,1360
GCF_903932595.1_P3.1,plasmid_AG705,NZ_LR822060.1,9660,5851
GCF_022406055.1_ASM2240605v1,plasmid_AE018,NZ_CP062416.1,18234,3039
GCF_022405295.1_ASM2240529v1,plasmid_AE387,NZ_CP062360.1,9360,1560
GCF_022405295.1_ASM2240529v1,plasmid_AE018,NZ_CP062360.1,17946,2991
GCF_022406035.1_ASM2240603v1,plasmid_AE387,NZ_CP062415.1,9690,1615
GCF_022406035.1_ASM2240603v1,plasmid_AF724,NZ_CP062415.1,30263,30263
GCF_022406035.1_ASM2240603v1,plasmid_AA410,NZ_CP062415.1,39693,25923
GCF_022406035.1_ASM2240603v1,plasmid_AE018,NZ_CP062415.1,18724,3121
GCF_022405235.1_ASM2240523v1,plasmid_AE387,NZ_CP062354.1,9720,1620
GCF_022405235.1_ASM2240523v1,plasmid_AA411,NZ_CP062355.1,20680,20680
GCF_022405235.1_ASM2240523v1,plasmid_AE018,NZ_CP062354.1,18726,3121
GCF_022405235.1_ASM2240523v1,plasmid_AH207,NZ_CP062354.1,1884,1884
GCF_022405855.1_ASM2240585v1,plasmid_AE387,NZ_CP062406.1,9846,1641
GCF_022405855.1_ASM2240585v1,plasmid_AE018,NZ_CP062406.1,18726,3121
GCF_022405535.1_ASM2240553v1,plasmid_AE018,NZ_CP062386.1,18222,3037
GCF_022405535.1_ASM2240553v1,plasmid_AB724,NZ_CP062387.1,2416,2416
GCF_022405535.1_ASM2240553v1,plasmid_AH207,NZ_CP062386.1,2205,2205
GCF_022405555.1_ASM2240555v1,plasmid_AE387,NZ_CP062388.1,9846,1641
GCF_022405555.1_ASM2240555v1,plasmid_AE018,NZ_CP062388.1,18726,3121
GCF_022405555.1_ASM2240555v1,plasmid_AA848,NZ_CP062389.1,27269,28720
GCF_022405555.1_ASM2240555v1,plasmid_AA848,NZ_CP062388.1,14510,28720
GCF_022405355.1_ASM2240535v1,plasmid_AE387,NZ_CP062366.1,9864,1644
GCF_022405355.1_ASM2240535v1,plasmid_AE018,NZ_CP062366.1,18726,3121
GCF_022405355.1_ASM2240535v1,plasmid_AA840,NZ_CP062367.1,25316,25316
GCF_022405355.1_ASM2240535v1,plasmid_AH207,NZ_CP062366.1,2671,2671
GCF_022404715.1_ASM2240471v1,plasmid_AE387,NZ_CP062336.1,9726,1621
GCF_022404715.1_ASM2240471v1,plasmid_AA411,NZ_CP062337.1,20730,20730
GCF_022404715.1_ASM2240471v1,plasmid_AE018,NZ_CP062336.1,18834,3139
GCF_018093105.1_ASM1809310v1,plasmid_AE387,NZ_CP071100.1,9970,1662
GCF_018093105.1_ASM1809310v1,plasmid_AE018,NZ_CP071100.1,18015,3009
GCF_018093105.1_ASM1809310v1,plasmid_AA842,no_correct_alignments,0,0
GCF_013836525.1_ASM1383652v1,plasmid_AE387,NZ_CP058615.1,9173,1529
GCF_013836525.1_ASM1383652v1,plasmid_AE018,NZ_CP058615.1,18046,3008
GCF_013836525.1_ASM1383652v1,plasmid_AA770,NZ_CP058615.1,14995,14995
GCF_018093065.1_ASM1809306v1,plasmid_AE387,NZ_CP070991.1,9358,1560
GCF_018093065.1_ASM1809306v1,plasmid_AE018,NZ_CP070991.1,17940,2991
GCF_018093065.1_ASM1809306v1,plasmid_AB628,NZ_CP070992.1,10942,10942
GCF_022404635.1_ASM2240463v1,plasmid_AE387,NZ_CP062326.1,9678,1613
GCF_022404635.1_ASM2240463v1,plasmid_AA411,NZ_CP062328.1,20730,20730
GCF_022404635.1_ASM2240463v1,plasmid_AE018,NZ_CP062326.1,18054,3009
GCF_022405455.1_ASM2240545v1,plasmid_AG370,NZ_CP062378.1,10401,10401
GCF_022405455.1_ASM2240545v1,plasmid_AE387,NZ_CP062378.1,9846,1641
GCF_022405455.1_ASM2240545v1,plasmid_AE940,NZ_CP062378.1,5742,2871
GCF_022405455.1_ASM2240545v1,plasmid_AE018,NZ_CP062378.1,18726,3121
GCF_022405455.1_ASM2240545v1,plasmid_AA848,NZ_CP062379.1,27265,28715
GCF_022405455.1_ASM2240545v1,plasmid_AA848,NZ_CP062378.1,8700,28715
GCF_022405455.1_ASM2240545v1,plasmid_AG371,NZ_CP062378.1,26458,26458
GCF_018093225.1_ASM1809322v1,plasmid_AF646,NZ_CP071105.1,4263,4264
GCF_018093225.1_ASM1809322v1,plasmid_AE387,NZ_CP071104.1,9689,1615
GCF_018093225.1_ASM1809322v1,plasmid_AB636,NZ_CP071106.1,2751,2751
GCF_018093225.1_ASM1809322v1,plasmid_AA410,NZ_CP071104.1,4603,24376
GCF_018093225.1_ASM1809322v1,plasmid_AE018,NZ_CP071104.1,18722,3121
GCF_022405205.1_ASM2240520v1,plasmid_AE387,NZ_CP062352.1,9846,1641
GCF_022405205.1_ASM2240520v1,plasmid_AA083,NZ_CP062353.1,29018,29018
GCF_022405205.1_ASM2240520v1,plasmid_AE018,NZ_CP062352.1,18714,3119
GCF_015732455.1_ASM1573245v1,plasmid_AE387,NZ_CP061349.1,9668,1613
GCF_015732455.1_ASM1573245v1,plasmid_AE018,NZ_CP061349.1,18809,3139
GCF_022405515.1_ASM2240551v1,plasmid_AE387,NZ_CP062384.1,9816,1636
GCF_022405515.1_ASM2240551v1,plasmid_AA411,NZ_CP062385.1,20730,20730
GCF_022405515.1_ASM2240551v1,plasmid_AE018,NZ_CP062384.1,18054,3009
GCF_903932605.1_HU-14,plasmid_AA769,NZ_LR822061.1,6937,6937
GCF_903932605.1_HU-14,plasmid_AE387,NZ_LR822061.1,9846,1641
GCF_903932605.1_HU-14,plasmid_AF724,NZ_LR822061.1,31477,31477
GCF_903932605.1_HU-14,plasmid_AE220,NZ_LR822061.1,22505,19184
GCF_903932605.1_HU-14,plasmid_AE018,NZ_LR822061.1,18726,3121
GCF_903932605.1_HU-14,plasmid_AA849,NZ_LR822061.1,22553,34190
GCF_903932605.1_HU-14,plasmid_AG180,NZ_LR822061.1,1360,1360
GCF_903932605.1_HU-14,plasmid_AG705,NZ_LR822061.1,9660,5851
GCF_016727585.1_ASM1672758v1,plasmid_AE387,NZ_CP068143.1,8245,1649
GCF_016727585.1_ASM1672758v1,plasmid_AA411,NZ_CP068144.1,19758,19758
GCF_016727585.1_ASM1672758v1,plasmid_AE018,NZ_CP068143.1,15055,3011
GCF_022404695.1_ASM2240469v1,plasmid_AE387,NZ_CP062334.1,9720,1620
GCF_022404695.1_ASM2240469v1,plasmid_AA411,NZ_CP062335.1,20691,20691
GCF_022404695.1_ASM2240469v1,plasmid_AE018,NZ_CP062334.1,18726,3121
GCF_022404695.1_ASM2240469v1,plasmid_AH207,NZ_CP062334.1,1884,1884
GCF_022405055.1_ASM2240505v1,plasmid_AE387,NZ_CP062344.1,9936,1656
GCF_022405055.1_ASM2240505v1,plasmid_AE018,NZ_CP062344.1,18845,3141
GCF_022405055.1_ASM2240505v1,plasmid_AA069,NZ_CP062345.1,17329,17329
GCF_022226995.1_ASM2222699v1,plasmid_AB721,NZ_CP092054.1,2995,2995
GCF_022226995.1_ASM2222699v1,plasmid_AE387,NZ_CP092052.1,9864,1644
GCF_022226995.1_ASM2222699v1,plasmid_AE018,NZ_CP092052.1,18726,3121
GCF_022226995.1_ASM2222699v1,plasmid_AA840,NZ_CP092053.1,13032,13032
GCF_022405915.1_ASM2240591v1,plasmid_AE387,NZ_CP062409.1,9846,1641
GCF_022405915.1_ASM2240591v1,plasmid_AE018,NZ_CP062409.1,18714,3119
GCF_013836745.1_ASM1383674v1,plasmid_AA071,NZ_CP058613.1,5674,4227
GCF_013836745.1_ASM1383674v1,plasmid_AE387,NZ_CP058613.1,9864,1644
GCF_013836745.1_ASM1383674v1,plasmid_AE018,NZ_CP058613.1,18726,3121
GCF_013836745.1_ASM1383674v1,plasmid_AC627,NZ_CP058614.1,2473,2473
GCF_013836745.1_ASM1383674v1,plasmid_AA770,NZ_CP058613.1,21765,19649
GCF_022404575.1_ASM2240457v1,plasmid_AE387,NZ_CP062320.1,9864,1644
GCF_022404575.1_ASM2240457v1,plasmid_AE018,NZ_CP062320.1,18726,3121
GCF_022404575.1_ASM2240457v1,plasmid_AA840,NZ_CP062321.1,27068,27068
GCF_022404575.1_ASM2240457v1,plasmid_AH207,NZ_CP062320.1,5448,5448
GCF_022404575.1_ASM2240457v1,plasmid_AG371,NZ_CP062320.1,39612,32672
GCF_017088305.1_ASM1708830v1,plasmid_AA411,NZ_CP070987.1,19826,20653
GCF_017088305.1_ASM1708830v1,plasmid_AE018,NZ_CP070986.1,15603,3121
GCF_017088305.1_ASM1708830v1,plasmid_AC627,NZ_CP070988.1,2473,2473
GCF_018093205.1_ASM1809320v1,plasmid_AE018,NZ_CP071102.1,14498,2418
GCF_022405675.1_ASM2240567v1,plasmid_AE387,NZ_CP062399.1,9954,1659
GCF_022405675.1_ASM2240567v1,plasmid_AE018,NZ_CP062399.1,18726,3121
GCF_022405395.1_ASM2240539v1,plasmid_AE387,NZ_CP062370.1,9846,1641
GCF_022405395.1_ASM2240539v1,plasmid_AE018,NZ_CP062370.1,17950,2992
GCF_022405395.1_ASM2240539v1,plasmid_AA848,NZ_CP062371.1,27267,28718
GCF_022405395.1_ASM2240539v1,plasmid_AA848,NZ_CP062370.1,11608,28718
GCF_019653615.1_ASM1965361v1,plasmid_AE387,NZ_CP077098.1,9864,1644
GCF_019653615.1_ASM1965361v1,plasmid_AE018,NZ_CP077098.1,18725,3121
GCF_019653615.1_ASM1965361v1,plasmid_AA069,no_correct_alignments,0,0
GCF_019653615.1_ASM1965361v1,plasmid_AC627,no_correct_alignments,0,0
GCF_019653615.1_ASM1965361v1,plasmid_AB725,no_correct_alignments,0,0
GCF_019653615.1_ASM1965361v1,plasmid_AD258,no_correct_alignments,0,0
GCF_019653615.1_ASM1965361v1,plasmid_AG371,NZ_CP077098.1,26069,26069
GCF_019653615.1_ASM1965361v1,plasmid_AA842,NZ_CP077098.1,18761,18644
GCF_016889145.1_ASM1688914v1,plasmid_AE387,NZ_CP069470.1,9864,1644
GCF_016889145.1_ASM1688914v1,plasmid_AE018,NZ_CP069470.1,18726,3121
GCF_016889145.1_ASM1688914v1,plasmid_AA840,NZ_CP069471.1,31618,34731
GCF_016889145.1_ASM1688914v1,plasmid_AA840,NZ_CP069472.1,3105,34731
GCF_016889145.1_ASM1688914v1,plasmid_AH207,NZ_CP069470.1,5448,5448
GCF_022405595.1_ASM2240559v1,plasmid_AE387,NZ_CP062393.1,9864,1644
GCF_022405595.1_ASM2240559v1,plasmid_AE018,NZ_CP062393.1,18726,3121
GCF_022405595.1_ASM2240559v1,plasmid_AA848,NZ_CP062394.1,27025,28235
GCF_022405595.1_ASM2240559v1,plasmid_AA848,NZ_CP062393.1,2420,28235
GCF_022405595.1_ASM2240559v1,plasmid_AH207,NZ_CP062393.1,5448,5448
GCF_022405655.1_ASM2240565v1,plasmid_AE387,NZ_CP062398.1,8115,1623
GCF_022405655.1_ASM2240565v1,plasmid_AE018,NZ_CP062398.1,15605,3121
GCF_017088385.1_ASM1708838v1,plasmid_AA411,NZ_CP070984.1,20565,20730
GCF_017088385.1_ASM1708838v1,plasmid_AE018,NZ_CP070983.1,18558,3093
GCF_017088385.1_ASM1708838v1,plasmid_AD258,NZ_CP070985.1,2393,2397
GCF_022405075.1_ASM2240507v1,plasmid_AG370,NZ_CP062346.1,7302,7302
GCF_022405075.1_ASM2240507v1,plasmid_AE387,NZ_CP062346.1,9474,1579
GCF_022405075.1_ASM2240507v1,plasmid_AE018,NZ_CP062346.1,18066,3011
GCF_022405075.1_ASM2240507v1,plasmid_AA840,NZ_CP062347.1,8229,8229
GCF_022405075.1_ASM2240507v1,plasmid_AA837,NZ_CP062347.1,30807,30807
GCF_022405075.1_ASM2240507v1,plasmid_AG371,NZ_CP062346.1,24366,21018
GCF_013008375.1_ASM1300837v1,plasmid_AF724,NZ_CP053101.1,27945,27945
GCF_013008375.1_ASM1300837v1,plasmid_AE018,NZ_CP053101.1,18125,3024
GCF_022493095.1_ASM2249309v1,plasmid_AB721,NZ_CP062440.1,3126,3126
GCF_022493095.1_ASM2249309v1,plasmid_AE387,NZ_CP062439.1,9864,1644
GCF_022493095.1_ASM2249309v1,plasmid_AE018,NZ_CP062439.1,18726,3121
GCF_022493095.1_ASM2249309v1,plasmid_AH207,NZ_CP062439.1,5448,5448
GCF_021869805.1_ASM2186980v1,plasmid_AE387,NZ_CP086215.1,9738,1623
GCF_021869805.1_ASM2186980v1,plasmid_AE018,NZ_CP086215.1,18726,3121
GCF_021869805.1_ASM2186980v1,plasmid_AC404,NZ_CP086215.1,7673,7673
GCF_022406125.1_ASM2240612v1,plasmid_AE387,NZ_CP062418.1,9816,1636
GCF_022406125.1_ASM2240612v1,plasmid_AE018,NZ_CP062418.1,17946,2991
GCF_022405775.1_ASM2240577v1,plasmid_AE018,NZ_CP062402.1,18234,3039
GCF_022406555.1_ASM2240655v1,plasmid_AE387,NZ_CP062421.1,9720,1620
GCF_022406555.1_ASM2240655v1,plasmid_AE018,NZ_CP062421.1,18726,3121
GCF_022405755.1_ASM2240575v1,plasmid_AE387,NZ_CP062401.1,9732,1622
GCF_022405755.1_ASM2240575v1,plasmid_AE018,NZ_CP062401.1,18354,3059
GCF_015475575.1_ASM1547557v1,plasmid_AB721,NZ_CP055226.1,3125,3125
GCF_015475575.1_ASM1547557v1,plasmid_AE387,NZ_CP055225.1,9864,1644
GCF_015475575.1_ASM1547557v1,plasmid_AE018,NZ_CP055225.1,18018,3003
GCF_015475575.1_ASM1547557v1,plasmid_AH207,NZ_CP055225.1,2661,2661
GCF_022405375.1_ASM2240537v1,plasmid_AE387,NZ_CP062368.1,9846,1641
GCF_022405375.1_ASM2240537v1,plasmid_AE018,NZ_CP062368.1,17950,2992
GCF_022405375.1_ASM2240537v1,plasmid_AA848,NZ_CP062369.1,27268,28718
GCF_022405375.1_ASM2240537v1,plasmid_AA848,NZ_CP062368.1,11600,28718
GCF_022404775.1_ASM2240477v1,plasmid_AE387,NZ_CP062342.1,9720,1620
GCF_022404775.1_ASM2240477v1,plasmid_AA411,NZ_CP062343.1,20691,20691
GCF_022404775.1_ASM2240477v1,plasmid_AE220,NZ_CP062342.1,25917,25917
GCF_022404775.1_ASM2240477v1,plasmid_AE018,NZ_CP062342.1,18726,3121
GCF_022404775.1_ASM2240477v1,plasmid_AH207,NZ_CP062342.1,1884,1884
GCF_022405435.1_ASM2240543v1,plasmid_AE387,NZ_CP062376.1,9894,1649
GCF_022405435.1_ASM2240543v1,plasmid_AA411,NZ_CP062377.1,19781,19781
GCF_022405435.1_ASM2240543v1,plasmid_AE018,NZ_CP062376.1,18810,3135
GCF_022406435.1_ASM2240643v1,plasmid_AE387,NZ_CP062420.1,9816,1636
GCF_022406435.1_ASM2240643v1,plasmid_AE018,NZ_CP062420.1,18234,3039
GCF_018141385.1_ASM1814138v1,plasmid_AE387,NZ_CP047646.1,9900,1650
GCF_018141385.1_ASM1814138v1,plasmid_AE018,NZ_CP047646.1,17760,2960
GCF_022405955.1_ASM2240595v1,plasmid_AE387,NZ_CP062411.1,9846,1641
GCF_022405955.1_ASM2240595v1,plasmid_AE018,NZ_CP062411.1,18714,3119
GCF_022405185.1_ASM2240518v1,plasmid_AE387,NZ_CP062350.1,9702,1617
GCF_022405185.1_ASM2240518v1,plasmid_AE018,NZ_CP062350.1,19326,3221
GCF_022405415.1_ASM2240541v1,plasmid_AE821,NZ_CP062373.1,28364,28364
GCF_022405415.1_ASM2240541v1,plasmid_AB633,NZ_CP062374.1,3566,3566
GCF_022405415.1_ASM2240541v1,plasmid_AE018,NZ_CP062372.1,18234,3039
GCF_022405415.1_ASM2240541v1,plasmid_AC627,NZ_CP062375.1,2366,2366
GCF_022369595.1_ASM2236959v1,plasmid_AE387,NZ_CP062314.1,9792,1632
GCF_022369595.1_ASM2236959v1,plasmid_AE018,NZ_CP062314.1,18726,3121
GCF_022369595.1_ASM2236959v1,plasmid_AC627,NZ_CP062317.1,2473,2473
GCF_022369595.1_ASM2236959v1,plasmid_AA840,NZ_CP062315.1,26024,29135
GCF_022369595.1_ASM2236959v1,plasmid_AA840,NZ_CP062316.1,3111,29135
GCF_022369595.1_ASM2236959v1,plasmid_AH207,NZ_CP062314.1,2671,2671
GCF_022369535.1_ASM2236953v1,plasmid_AE387,NZ_CP062312.1,9936,1656
GCF_022369535.1_ASM2236953v1,plasmid_AF724,NZ_CP062312.1,31034,31034
GCF_022369535.1_ASM2236953v1,plasmid_AE018,NZ_CP062312.1,18845,3141
GCF_022369535.1_ASM2236953v1,plasmid_AC404,NZ_CP062312.1,9699,9699
GCF_022369535.1_ASM2236953v1,plasmid_AG371,NZ_CP062312.1,27677,27677
GCF_022405495.1_ASM2240549v1,plasmid_AE387,NZ_CP062382.1,9468,1578
GCF_022405495.1_ASM2240549v1,plasmid_AE018,NZ_CP062382.1,18066,3011
GCF_022405495.1_ASM2240549v1,plasmid_AA840,NZ_CP062383.1,8268,8268
GCF_022405495.1_ASM2240549v1,plasmid_AA837,NZ_CP062383.1,31016,31016
GCF_022226975.1_ASM2222697v1,plasmid_AE387,NZ_CP092055.1,9798,1633
GCF_022226975.1_ASM2222697v1,plasmid_AE018,NZ_CP092055.1,17598,2933
GCF_022405975.1_ASM2240597v1,plasmid_AE018,NZ_CP062412.1,18234,3039
GCF_016894285.1_ASM1689428v1,plasmid_AB728,NZ_CP069800.1,2539,2539
GCF_016894285.1_ASM1689428v1,plasmid_AE018,NZ_CP069799.1,17616,2936
GCF_022404655.1_ASM2240465v1,plasmid_AE018,NZ_CP062329.1,18234,3039
GCF_022404655.1_ASM2240465v1,plasmid_AB722,NZ_CP062330.1,3332,3332
GCF_016889945.1_ASM1688994v1,plasmid_AE387,NZ_CP069565.1,9864,1644
GCF_016889945.1_ASM1688994v1,plasmid_AE018,NZ_CP069565.1,18726,3121
GCF_016889945.1_ASM1688994v1,plasmid_AA840,NZ_CP069566.1,31928,35060
GCF_016889945.1_ASM1688994v1,plasmid_AH207,NZ_CP069565.1,5448,5448
