"software","FN","FP","TN","TP","recall","precision","f1_score"
"RFplasmid",0,130,1033,39,1,0.23,0.37
"Centrifuge",7,1,1162,32,0.82,0.97,0.89
"Platon",0,14,1149,39,1,0.74,0.85
"plasmidEC",0,15,1148,39,1,0.72,0.84
