"reference_id","nr_repeats_per_replicon"
"NZ_AP024170.1",24
"NZ_AP024511.1",27
"NZ_CP046476.1",17
"NZ_CP047646.1",15
"NZ_CP053101.1",26
"NZ_CP055225.1",16
"NZ_CP058613.1",35
"NZ_CP058615.1",39
"NZ_CP061349.1",12
"NZ_CP062312.1",14
"NZ_CP062314.1",18
"NZ_CP062318.1",10
"NZ_CP062320.1",18
"NZ_CP062322.1",14
"NZ_CP062324.1",16
"NZ_CP062326.1",16
"NZ_CP062329.1",17
"NZ_CP062331.1",16
"NZ_CP062334.1",16
"NZ_CP062336.1",12
"NZ_CP062338.1",12
"NZ_CP062340.1",14
"NZ_CP062342.1",16
"NZ_CP062344.1",14
"NZ_CP062346.1",27
"NZ_CP062348.1",16
"NZ_CP062350.1",12
"NZ_CP062352.1",18
"NZ_CP062354.1",12
"NZ_CP062356.1",18
"NZ_CP062358.1",22
"NZ_CP062360.1",12
"NZ_CP062362.1",19
"NZ_CP062364.1",20
"NZ_CP062366.1",20
"NZ_CP062368.1",22
"NZ_CP062370.1",22
"NZ_CP062372.1",19
"NZ_CP062376.1",16
"NZ_CP062378.1",20
"NZ_CP062380.1",36
"NZ_CP062382.1",44
"NZ_CP062384.1",16
"NZ_CP062386.1",18
"NZ_CP062388.1",22
"NZ_CP062390.1",12
"NZ_CP062393.1",16
"NZ_CP062395.1",36
"NZ_CP062398.1",17
"NZ_CP062399.1",15
"NZ_CP062400.1",17
"NZ_CP062401.1",17
"NZ_CP062402.1",16
"NZ_CP062403.1",12
"NZ_CP062404.1",20
"NZ_CP062405.1",20
"NZ_CP062406.1",22
"NZ_CP062407.1",27
"NZ_CP062408.1",17
"NZ_CP062409.1",18
"NZ_CP062410.1",23
"NZ_CP062411.1",18
"NZ_CP062412.1",18
"NZ_CP062413.1",24
"NZ_CP062414.1",17
"NZ_CP062415.1",33
"NZ_CP062416.1",17
"NZ_CP062417.1",18
"NZ_CP062418.1",17
"NZ_CP062419.1",17
"NZ_CP062420.1",17
"NZ_CP062421.1",12
"NZ_CP062439.1",16
"NZ_CP063745.1",22
"NZ_CP068143.1",20
"NZ_CP069470.1",18
"NZ_CP069565.1",18
"NZ_CP069799.1",12
"NZ_CP070983.1",6
"NZ_CP070986.1",11
"NZ_CP070991.1",14
"NZ_CP071100.1",12
"NZ_CP071102.1",12
"NZ_CP071104.1",15
"NZ_CP073065.1",10
"NZ_CP077098.1",41
"NZ_CP086215.1",26
"NZ_CP092052.1",20
"NZ_CP092055.1",16
"NZ_LR822060.1",45
