"strain","bin_name","reference_id","self_alignment_length","length_classification","true_nr_args","arg_plasmid","variable","value","software","species"
"GCF_016406405.1","bin_component_1","NZ_CP066439.1",NA,"small",0,"non-ARG-plasmid","accuracy",0.54,"plasmidSPAdes","E. faecium"
"GCF_016415445.1","bin_component_3","NZ_CP066633.1",NA,"small",0,"non-ARG-plasmid","accuracy",0.976,"plasmidSPAdes","E. faecium"
"GCF_016415445.1","bin_component_4","NZ_CP066636.1",NA,"small",0,"non-ARG-plasmid","accuracy",0.95,"plasmidSPAdes","E. faecium"
"GCF_016415445.1","bin_component_2","NZ_CP066634.1",NA,"small",0,"non-ARG-plasmid","accuracy",0.495,"plasmidSPAdes","E. faecium"
"GCF_016415445.1","bin_component_2","NZ_CP066635.1",NA,"small",0,"non-ARG-plasmid","accuracy",0.473,"plasmidSPAdes","E. faecium"
"GCF_016406365.1","bin_component_1","NZ_CP066419.1",NA,"small",0,"non-ARG-plasmid","accuracy",0.976,"plasmidSPAdes","E. faecium"
"GCF_016406365.1","bin_component_0","NZ_CP066418.1",NA,"small",0,"non-ARG-plasmid","accuracy",0.03,"plasmidSPAdes","E. faecium"
"GCF_016406365.1","bin_component_2","NZ_CP066420.1",NA,"small",0,"non-ARG-plasmid","accuracy",0.925,"plasmidSPAdes","E. faecium"
"GCF_016406345.1","bin_component_1","NZ_CP066472.1",NA,"small",0,"non-ARG-plasmid","accuracy",0.925,"plasmidSPAdes","E. faecium"
"GCF_016126675.1","bin_component_1","NZ_CP065934.1",NA,"small",0,"non-ARG-plasmid","accuracy",0.347,"plasmidSPAdes","E. faecium"
"GCF_016126675.1","bin_component_1","NZ_CP065935.1",NA,"small",0,"non-ARG-plasmid","accuracy",0.165,"plasmidSPAdes","E. faecium"
"GCF_016415385.1","bin_component_1","NZ_CP066611.1",NA,"small",0,"non-ARG-plasmid","accuracy",0.976,"plasmidSPAdes","E. faecium"
"GCF_016415385.1","bin_component_0","NZ_CP066613.1",NA,"small",0,"non-ARG-plasmid","accuracy",0.003,"plasmidSPAdes","E. faecium"
"GCF_028335225.1","bin_component_0","NZ_CP116535.1",NA,"small",2,"ARG-plasmid","accuracy",0.218,"plasmidSPAdes","E. faecium"
"GCF_016415465.1","bin_component_1","NZ_CP066626.1",NA,"small",0,"non-ARG-plasmid","accuracy",0.976,"plasmidSPAdes","E. faecium"
"GCF_016406585.1","bin_component_1","NZ_CP066484.1",NA,"small",0,"non-ARG-plasmid","accuracy",0.976,"plasmidSPAdes","E. faecium"
"GCF_016406585.1","bin_component_2","NZ_CP066485.1",NA,"small",0,"non-ARG-plasmid","accuracy",0.925,"plasmidSPAdes","E. faecium"
"GCF_028335525.1","bin_component_0","NZ_CP116539.1",NA,"small",0,"non-ARG-plasmid","accuracy",0.99,"plasmidSPAdes","E. faecium"
"GCF_022648125.1","bin_component_1","NZ_CP076487.1",NA,"small",0,"non-ARG-plasmid","accuracy",0.965,"plasmidSPAdes","E. faecium"
"GCF_015999605.1","bin_component_1","NZ_CP065553.1",NA,"small",0,"non-ARG-plasmid","accuracy",0.925,"plasmidSPAdes","E. faecium"
"GCF_019977495.1","bin_component_1","NZ_AP024835.1",NA,"small",0,"non-ARG-plasmid","accuracy",0.284,"plasmidSPAdes","E. faecium"
"GCF_019977495.1","bin_component_1","NZ_AP024834.1",NA,"small",0,"non-ARG-plasmid","accuracy",0.423,"plasmidSPAdes","E. faecium"
"GCF_019977495.1","bin_component_2","NZ_AP024836.1",NA,"small",0,"non-ARG-plasmid","accuracy",0.958,"plasmidSPAdes","E. faecium"
"GCF_016415545.1","bin_component_1","NZ_CP066657.1",NA,"small",0,"non-ARG-plasmid","accuracy",0.512,"plasmidSPAdes","E. faecium"
"GCF_016406485.1","bin_component_1","NZ_CP066387.1",NA,"small",0,"non-ARG-plasmid","accuracy",0.567,"plasmidSPAdes","E. faecium"
"GCF_016406485.1","bin_component_1","NZ_CP066388.1",NA,"small",0,"non-ARG-plasmid","accuracy",0.399,"plasmidSPAdes","E. faecium"
"GCF_016406485.1","bin_component_0","NZ_CP066386.1",NA,"small",0,"non-ARG-plasmid","accuracy",0.018,"plasmidSPAdes","E. faecium"
"GCF_016406545.1","bin_component_1","NZ_CP066413.1",NA,"small",0,"non-ARG-plasmid","accuracy",0.976,"plasmidSPAdes","E. faecium"
"GCF_016406545.1","bin_component_2","NZ_CP066414.1",NA,"small",0,"non-ARG-plasmid","accuracy",0.925,"plasmidSPAdes","E. faecium"
"GCF_015325925.1","bin_component_2","NZ_CP064053.1",NA,"small",0,"non-ARG-plasmid","accuracy",0.944,"plasmidSPAdes","E. faecium"
"GCF_016406605.1","bin_component_1","NZ_CP066477.1",NA,"small",0,"non-ARG-plasmid","accuracy",0.976,"plasmidSPAdes","E. faecium"
"GCF_016406605.1","bin_component_3","NZ_CP066479.1",NA,"small",0,"non-ARG-plasmid","accuracy",0.965,"plasmidSPAdes","E. faecium"
"GCF_016406605.1","bin_component_2","NZ_CP066478.1",NA,"small",0,"non-ARG-plasmid","accuracy",0.971,"plasmidSPAdes","E. faecium"
"GCF_015476295.1","bin_component_3","NZ_CP064349.1",NA,"small",0,"non-ARG-plasmid","accuracy",0.945,"plasmidSPAdes","E. faecium"
"GCF_015476295.1","bin_component_0","NZ_CP064347.1",NA,"small",0,"non-ARG-plasmid","accuracy",0.023,"plasmidSPAdes","E. faecium"
"GCF_015476295.1","bin_component_2","NZ_CP064348.1",NA,"small",0,"non-ARG-plasmid","accuracy",0.96,"plasmidSPAdes","E. faecium"
"GCF_017584065.1","bin_component_1","NZ_CP071928.1",NA,"small",0,"non-ARG-plasmid","accuracy",0.582,"plasmidSPAdes","E. faecium"
"GCF_017584065.1","bin_component_1","NZ_CP071925.1",NA,"small",0,"non-ARG-plasmid","accuracy",0.37,"plasmidSPAdes","E. faecium"
"GCF_017584065.1","bin_component_0","NZ_CP071927.1",NA,"small",0,"non-ARG-plasmid","accuracy",0.032,"plasmidSPAdes","E. faecium"
"GCF_017584065.1","bin_component_0","NZ_CP071926.1",NA,"small",0,"non-ARG-plasmid","accuracy",0.024,"plasmidSPAdes","E. faecium"
"GCF_017584065.1","bin_component_2","NZ_CP071924.1",NA,"small",0,"non-ARG-plasmid","accuracy",0.915,"plasmidSPAdes","E. faecium"
"GCF_009938285.1","bin_component_1","NZ_AP022344.1",NA,"small",0,"non-ARG-plasmid","accuracy",0.969,"plasmidSPAdes","E. faecium"
"GCF_021228615.1","bin_component_0","NZ_CP089323.1",NA,"small",0,"non-ARG-plasmid","accuracy",0.062,"plasmidSPAdes","E. faecium"
"GCF_016406405.1","bin_component_1","NZ_CP066439.1",NA,"small",0,"non-ARG-plasmid","completeness",0.991,"plasmidSPAdes","E. faecium"
"GCF_016415445.1","bin_component_3","NZ_CP066633.1",NA,"small",0,"non-ARG-plasmid","completeness",0.988,"plasmidSPAdes","E. faecium"
"GCF_016415445.1","bin_component_4","NZ_CP066636.1",NA,"small",0,"non-ARG-plasmid","completeness",0.974,"plasmidSPAdes","E. faecium"
"GCF_016415445.1","bin_component_2","NZ_CP066634.1",NA,"small",0,"non-ARG-plasmid","completeness",0.982,"plasmidSPAdes","E. faecium"
"GCF_016415445.1","bin_component_2","NZ_CP066635.1",NA,"small",0,"non-ARG-plasmid","completeness",0.99,"plasmidSPAdes","E. faecium"
"GCF_016406365.1","bin_component_1","NZ_CP066419.1",NA,"small",0,"non-ARG-plasmid","completeness",0.988,"plasmidSPAdes","E. faecium"
"GCF_016406365.1","bin_component_0","NZ_CP066418.1",NA,"small",0,"non-ARG-plasmid","completeness",0.755,"plasmidSPAdes","E. faecium"
"GCF_016406365.1","bin_component_2","NZ_CP066420.1",NA,"small",0,"non-ARG-plasmid","completeness",0.961,"plasmidSPAdes","E. faecium"
"GCF_016406345.1","bin_component_1","NZ_CP066472.1",NA,"small",0,"non-ARG-plasmid","completeness",0.961,"plasmidSPAdes","E. faecium"
"GCF_016126675.1","bin_component_1","NZ_CP065934.1",NA,"small",0,"non-ARG-plasmid","completeness",0.946,"plasmidSPAdes","E. faecium"
"GCF_016126675.1","bin_component_1","NZ_CP065935.1",NA,"small",0,"non-ARG-plasmid","completeness",0.927,"plasmidSPAdes","E. faecium"
"GCF_016415385.1","bin_component_1","NZ_CP066611.1",NA,"small",0,"non-ARG-plasmid","completeness",0.988,"plasmidSPAdes","E. faecium"
"GCF_016415385.1","bin_component_0","NZ_CP066613.1",NA,"small",0,"non-ARG-plasmid","completeness",0.67,"plasmidSPAdes","E. faecium"
"GCF_028335225.1","bin_component_0","NZ_CP116535.1",NA,"small",2,"ARG-plasmid","completeness",0.949,"plasmidSPAdes","E. faecium"
"GCF_016415465.1","bin_component_1","NZ_CP066626.1",NA,"small",0,"non-ARG-plasmid","completeness",0.988,"plasmidSPAdes","E. faecium"
"GCF_016406585.1","bin_component_1","NZ_CP066484.1",NA,"small",0,"non-ARG-plasmid","completeness",0.988,"plasmidSPAdes","E. faecium"
"GCF_016406585.1","bin_component_2","NZ_CP066485.1",NA,"small",0,"non-ARG-plasmid","completeness",0.961,"plasmidSPAdes","E. faecium"
"GCF_028335525.1","bin_component_0","NZ_CP116539.1",NA,"small",0,"non-ARG-plasmid","completeness",0.995,"plasmidSPAdes","E. faecium"
"GCF_022648125.1","bin_component_1","NZ_CP076487.1",NA,"small",0,"non-ARG-plasmid","completeness",0.982,"plasmidSPAdes","E. faecium"
"GCF_015999605.1","bin_component_1","NZ_CP065553.1",NA,"small",0,"non-ARG-plasmid","completeness",0.961,"plasmidSPAdes","E. faecium"
"GCF_019977495.1","bin_component_1","NZ_AP024835.1",NA,"small",0,"non-ARG-plasmid","completeness",0.967,"plasmidSPAdes","E. faecium"
"GCF_019977495.1","bin_component_1","NZ_AP024834.1",NA,"small",0,"non-ARG-plasmid","completeness",0.956,"plasmidSPAdes","E. faecium"
"GCF_019977495.1","bin_component_2","NZ_AP024836.1",NA,"small",0,"non-ARG-plasmid","completeness",0.978,"plasmidSPAdes","E. faecium"
"GCF_016415545.1","bin_component_1","NZ_CP066657.1",NA,"small",0,"non-ARG-plasmid","completeness",0.98,"plasmidSPAdes","E. faecium"
"GCF_016406485.1","bin_component_1","NZ_CP066387.1",NA,"small",0,"non-ARG-plasmid","completeness",0.988,"plasmidSPAdes","E. faecium"
"GCF_016406485.1","bin_component_1","NZ_CP066388.1",NA,"small",0,"non-ARG-plasmid","completeness",0.983,"plasmidSPAdes","E. faecium"
"GCF_016406485.1","bin_component_0","NZ_CP066386.1",NA,"small",0,"non-ARG-plasmid","completeness",0.703,"plasmidSPAdes","E. faecium"
"GCF_016406545.1","bin_component_1","NZ_CP066413.1",NA,"small",0,"non-ARG-plasmid","completeness",0.988,"plasmidSPAdes","E. faecium"
"GCF_016406545.1","bin_component_2","NZ_CP066414.1",NA,"small",0,"non-ARG-plasmid","completeness",0.961,"plasmidSPAdes","E. faecium"
"GCF_015325925.1","bin_component_2","NZ_CP064053.1",NA,"small",0,"non-ARG-plasmid","completeness",0.971,"plasmidSPAdes","E. faecium"
"GCF_016406605.1","bin_component_1","NZ_CP066477.1",NA,"small",0,"non-ARG-plasmid","completeness",0.988,"plasmidSPAdes","E. faecium"
"GCF_016406605.1","bin_component_3","NZ_CP066479.1",NA,"small",0,"non-ARG-plasmid","completeness",0.982,"plasmidSPAdes","E. faecium"
"GCF_016406605.1","bin_component_2","NZ_CP066478.1",NA,"small",0,"non-ARG-plasmid","completeness",0.985,"plasmidSPAdes","E. faecium"
"GCF_015476295.1","bin_component_3","NZ_CP064349.1",NA,"small",0,"non-ARG-plasmid","completeness",0.972,"plasmidSPAdes","E. faecium"
"GCF_015476295.1","bin_component_0","NZ_CP064347.1",NA,"small",0,"non-ARG-plasmid","completeness",0.807,"plasmidSPAdes","E. faecium"
"GCF_015476295.1","bin_component_2","NZ_CP064348.1",NA,"small",0,"non-ARG-plasmid","completeness",0.979,"plasmidSPAdes","E. faecium"
"GCF_017584065.1","bin_component_1","NZ_CP071928.1",NA,"small",0,"non-ARG-plasmid","completeness",0.986,"plasmidSPAdes","E. faecium"
"GCF_017584065.1","bin_component_1","NZ_CP071925.1",NA,"small",0,"non-ARG-plasmid","completeness",0.947,"plasmidSPAdes","E. faecium"
"GCF_017584065.1","bin_component_0","NZ_CP071927.1",NA,"small",0,"non-ARG-plasmid","completeness",0.741,"plasmidSPAdes","E. faecium"
"GCF_017584065.1","bin_component_0","NZ_CP071926.1",NA,"small",0,"non-ARG-plasmid","completeness",0.697,"plasmidSPAdes","E. faecium"
"GCF_017584065.1","bin_component_2","NZ_CP071924.1",NA,"small",0,"non-ARG-plasmid","completeness",0.956,"plasmidSPAdes","E. faecium"
"GCF_009938285.1","bin_component_1","NZ_AP022344.1",NA,"small",0,"non-ARG-plasmid","completeness",0.988,"plasmidSPAdes","E. faecium"
"GCF_021228615.1","bin_component_0","NZ_CP089323.1",NA,"small",0,"non-ARG-plasmid","completeness",0.737,"plasmidSPAdes","E. faecium"
"GCF_016406405.1","bin_component_1","NZ_CP066439.1",NA,"small",0,"non-ARG-plasmid","F1_score",0.699,"plasmidSPAdes","E. faecium"
"GCF_016415445.1","bin_component_3","NZ_CP066633.1",NA,"small",0,"non-ARG-plasmid","F1_score",0.982,"plasmidSPAdes","E. faecium"
"GCF_016415445.1","bin_component_4","NZ_CP066636.1",NA,"small",0,"non-ARG-plasmid","F1_score",0.962,"plasmidSPAdes","E. faecium"
"GCF_016415445.1","bin_component_2","NZ_CP066634.1",NA,"small",0,"non-ARG-plasmid","F1_score",0.658,"plasmidSPAdes","E. faecium"
"GCF_016415445.1","bin_component_2","NZ_CP066635.1",NA,"small",0,"non-ARG-plasmid","F1_score",0.64,"plasmidSPAdes","E. faecium"
"GCF_016406365.1","bin_component_1","NZ_CP066419.1",NA,"small",0,"non-ARG-plasmid","F1_score",0.982,"plasmidSPAdes","E. faecium"
"GCF_016406365.1","bin_component_0","NZ_CP066418.1",NA,"small",0,"non-ARG-plasmid","F1_score",0.058,"plasmidSPAdes","E. faecium"
"GCF_016406365.1","bin_component_2","NZ_CP066420.1",NA,"small",0,"non-ARG-plasmid","F1_score",0.943,"plasmidSPAdes","E. faecium"
"GCF_016406345.1","bin_component_1","NZ_CP066472.1",NA,"small",0,"non-ARG-plasmid","F1_score",0.943,"plasmidSPAdes","E. faecium"
"GCF_016126675.1","bin_component_1","NZ_CP065934.1",NA,"small",0,"non-ARG-plasmid","F1_score",0.508,"plasmidSPAdes","E. faecium"
"GCF_016126675.1","bin_component_1","NZ_CP065935.1",NA,"small",0,"non-ARG-plasmid","F1_score",0.28,"plasmidSPAdes","E. faecium"
"GCF_016415385.1","bin_component_1","NZ_CP066611.1",NA,"small",0,"non-ARG-plasmid","F1_score",0.982,"plasmidSPAdes","E. faecium"
"GCF_016415385.1","bin_component_0","NZ_CP066613.1",NA,"small",0,"non-ARG-plasmid","F1_score",0.006,"plasmidSPAdes","E. faecium"
"GCF_028335225.1","bin_component_0","NZ_CP116535.1",NA,"small",2,"ARG-plasmid","F1_score",0.355,"plasmidSPAdes","E. faecium"
"GCF_016415465.1","bin_component_1","NZ_CP066626.1",NA,"small",0,"non-ARG-plasmid","F1_score",0.982,"plasmidSPAdes","E. faecium"
"GCF_016406585.1","bin_component_1","NZ_CP066484.1",NA,"small",0,"non-ARG-plasmid","F1_score",0.982,"plasmidSPAdes","E. faecium"
"GCF_016406585.1","bin_component_2","NZ_CP066485.1",NA,"small",0,"non-ARG-plasmid","F1_score",0.943,"plasmidSPAdes","E. faecium"
"GCF_028335525.1","bin_component_0","NZ_CP116539.1",NA,"small",0,"non-ARG-plasmid","F1_score",0.992,"plasmidSPAdes","E. faecium"
"GCF_022648125.1","bin_component_1","NZ_CP076487.1",NA,"small",0,"non-ARG-plasmid","F1_score",0.973,"plasmidSPAdes","E. faecium"
"GCF_015999605.1","bin_component_1","NZ_CP065553.1",NA,"small",0,"non-ARG-plasmid","F1_score",0.943,"plasmidSPAdes","E. faecium"
"GCF_019977495.1","bin_component_1","NZ_AP024835.1",NA,"small",0,"non-ARG-plasmid","F1_score",0.439,"plasmidSPAdes","E. faecium"
"GCF_019977495.1","bin_component_1","NZ_AP024834.1",NA,"small",0,"non-ARG-plasmid","F1_score",0.586,"plasmidSPAdes","E. faecium"
"GCF_019977495.1","bin_component_2","NZ_AP024836.1",NA,"small",0,"non-ARG-plasmid","F1_score",0.968,"plasmidSPAdes","E. faecium"
"GCF_016415545.1","bin_component_1","NZ_CP066657.1",NA,"small",0,"non-ARG-plasmid","F1_score",0.673,"plasmidSPAdes","E. faecium"
"GCF_016406485.1","bin_component_1","NZ_CP066387.1",NA,"small",0,"non-ARG-plasmid","F1_score",0.721,"plasmidSPAdes","E. faecium"
"GCF_016406485.1","bin_component_1","NZ_CP066388.1",NA,"small",0,"non-ARG-plasmid","F1_score",0.568,"plasmidSPAdes","E. faecium"
"GCF_016406485.1","bin_component_0","NZ_CP066386.1",NA,"small",0,"non-ARG-plasmid","F1_score",0.035,"plasmidSPAdes","E. faecium"
"GCF_016406545.1","bin_component_1","NZ_CP066413.1",NA,"small",0,"non-ARG-plasmid","F1_score",0.982,"plasmidSPAdes","E. faecium"
"GCF_016406545.1","bin_component_2","NZ_CP066414.1",NA,"small",0,"non-ARG-plasmid","F1_score",0.943,"plasmidSPAdes","E. faecium"
"GCF_015325925.1","bin_component_2","NZ_CP064053.1",NA,"small",0,"non-ARG-plasmid","F1_score",0.957,"plasmidSPAdes","E. faecium"
"GCF_016406605.1","bin_component_1","NZ_CP066477.1",NA,"small",0,"non-ARG-plasmid","F1_score",0.982,"plasmidSPAdes","E. faecium"
"GCF_016406605.1","bin_component_3","NZ_CP066479.1",NA,"small",0,"non-ARG-plasmid","F1_score",0.973,"plasmidSPAdes","E. faecium"
"GCF_016406605.1","bin_component_2","NZ_CP066478.1",NA,"small",0,"non-ARG-plasmid","F1_score",0.978,"plasmidSPAdes","E. faecium"
"GCF_015476295.1","bin_component_3","NZ_CP064349.1",NA,"small",0,"non-ARG-plasmid","F1_score",0.958,"plasmidSPAdes","E. faecium"
"GCF_015476295.1","bin_component_0","NZ_CP064347.1",NA,"small",0,"non-ARG-plasmid","F1_score",0.045,"plasmidSPAdes","E. faecium"
"GCF_015476295.1","bin_component_2","NZ_CP064348.1",NA,"small",0,"non-ARG-plasmid","F1_score",0.969,"plasmidSPAdes","E. faecium"
"GCF_017584065.1","bin_component_1","NZ_CP071928.1",NA,"small",0,"non-ARG-plasmid","F1_score",0.732,"plasmidSPAdes","E. faecium"
"GCF_017584065.1","bin_component_1","NZ_CP071925.1",NA,"small",0,"non-ARG-plasmid","F1_score",0.532,"plasmidSPAdes","E. faecium"
"GCF_017584065.1","bin_component_0","NZ_CP071927.1",NA,"small",0,"non-ARG-plasmid","F1_score",0.061,"plasmidSPAdes","E. faecium"
"GCF_017584065.1","bin_component_0","NZ_CP071926.1",NA,"small",0,"non-ARG-plasmid","F1_score",0.046,"plasmidSPAdes","E. faecium"
"GCF_017584065.1","bin_component_2","NZ_CP071924.1",NA,"small",0,"non-ARG-plasmid","F1_score",0.935,"plasmidSPAdes","E. faecium"
"GCF_009938285.1","bin_component_1","NZ_AP022344.1",NA,"small",0,"non-ARG-plasmid","F1_score",0.978,"plasmidSPAdes","E. faecium"
"GCF_021228615.1","bin_component_0","NZ_CP089323.1",NA,"small",0,"non-ARG-plasmid","F1_score",0.114,"plasmidSPAdes","E. faecium"
"GCF_028335525.1","GCF_028335525.1_bin_2","NZ_CP116539.1",NA,"small",0,"non-ARG-plasmid","accuracy",1,"gplas2","E. faecium"
"GCF_016406545.1","GCF_016406545.1_bin_4","NZ_CP066414.1",NA,"small",0,"non-ARG-plasmid","accuracy",0.95,"gplas2","E. faecium"
"GCF_016406545.1","GCF_016406545.1_bin_3","NZ_CP066413.1",NA,"small",0,"non-ARG-plasmid","accuracy",0.991,"gplas2","E. faecium"
"GCF_016406545.1","GCF_016406545.1_bin_1","NZ_CP066412.1",NA,"small",0,"non-ARG-plasmid","accuracy",0.038,"gplas2","E. faecium"
"GCF_016406585.1","GCF_016406585.1_bin_5","NZ_CP066485.1",NA,"small",0,"non-ARG-plasmid","accuracy",1,"gplas2","E. faecium"
"GCF_016406585.1","GCF_016406585.1_bin_4","NZ_CP066484.1",NA,"small",0,"non-ARG-plasmid","accuracy",1,"gplas2","E. faecium"
"GCF_016126675.1","GCF_016126675.1_bin_4","NZ_CP065933.1",NA,"small",0,"non-ARG-plasmid","accuracy",1,"gplas2","E. faecium"
"GCF_016126675.1","GCF_016126675.1_bin_1","NZ_CP065934.1",NA,"small",0,"non-ARG-plasmid","accuracy",0.484,"gplas2","E. faecium"
"GCF_016126675.1","GCF_016126675.1_bin_1","NZ_CP065935.1",NA,"small",0,"non-ARG-plasmid","accuracy",0.242,"gplas2","E. faecium"
"GCF_016415545.1","GCF_016415545.1_bin_2","NZ_CP066658.1",NA,"small",0,"non-ARG-plasmid","accuracy",1,"gplas2","E. faecium"
"GCF_016415545.1","GCF_016415545.1_bin_4","NZ_CP066657.1",NA,"small",0,"non-ARG-plasmid","accuracy",1,"gplas2","E. faecium"
"GCF_015476295.1","GCF_015476295.1_bin_9","NZ_CP064348.1",NA,"small",0,"non-ARG-plasmid","accuracy",1,"gplas2","E. faecium"
"GCF_015476295.1","GCF_015476295.1_bin_10","NZ_CP064349.1",NA,"small",0,"non-ARG-plasmid","accuracy",0.954,"gplas2","E. faecium"
"GCF_015476295.1","GCF_015476295.1_bin_6","NZ_CP064347.1",NA,"small",0,"non-ARG-plasmid","accuracy",0.344,"gplas2","E. faecium"
"GCF_028335225.1","GCF_028335225.1_bin_1","NZ_CP116535.1",NA,"small",2,"ARG-plasmid","accuracy",0.063,"gplas2","E. faecium"
"GCF_019977495.1","GCF_019977495.1_bin_6","NZ_AP024836.1",NA,"small",0,"non-ARG-plasmid","accuracy",1,"gplas2","E. faecium"
"GCF_019977495.1","GCF_019977495.1_bin_3","NZ_AP024834.1",NA,"small",0,"non-ARG-plasmid","accuracy",1,"gplas2","E. faecium"
"GCF_019977495.1","GCF_019977495.1_bin_4","NZ_AP024835.1",NA,"small",0,"non-ARG-plasmid","accuracy",0.999,"gplas2","E. faecium"
"GCF_016406405.1","GCF_016406405.1_bin_6","NZ_CP066441.1",NA,"small",0,"non-ARG-plasmid","accuracy",1,"gplas2","E. faecium"
"GCF_016406405.1","GCF_016406405.1_bin_5","NZ_CP066439.1",NA,"small",0,"non-ARG-plasmid","accuracy",0.402,"gplas2","E. faecium"
"GCF_016406405.1","GCF_016406405.1_bin_5","NZ_CP066440.1",NA,"small",0,"non-ARG-plasmid","accuracy",0.461,"gplas2","E. faecium"
"GCF_015999605.1","GCF_015999605.1_bin_3","NZ_CP065551.1",NA,"small",0,"non-ARG-plasmid","accuracy",0.377,"gplas2","E. faecium"
"GCF_015999605.1","GCF_015999605.1_bin_3","NZ_CP065552.1",NA,"small",0,"non-ARG-plasmid","accuracy",0.251,"gplas2","E. faecium"
"GCF_009938285.1","GCF_009938285.1_bin_7","NZ_AP022344.1",NA,"small",0,"non-ARG-plasmid","accuracy",0.993,"gplas2","E. faecium"
"GCF_022648125.1","GCF_022648125.1_bin_4","NZ_CP076487.1",NA,"small",0,"non-ARG-plasmid","accuracy",1,"gplas2","E. faecium"
"GCF_016415465.1","GCF_016415465.1_bin_6","NZ_CP066626.1",NA,"small",0,"non-ARG-plasmid","accuracy",1,"gplas2","E. faecium"
"GCF_016415465.1","GCF_016415465.1_bin_4","NZ_CP066627.1",NA,"small",0,"non-ARG-plasmid","accuracy",0.984,"gplas2","E. faecium"
"GCF_016415465.1","GCF_016415465.1_bin_5","NZ_CP066628.1",NA,"small",0,"non-ARG-plasmid","accuracy",1,"gplas2","E. faecium"
"GCF_015325925.1","GCF_015325925.1_bin_7","NZ_CP064053.1",NA,"small",0,"non-ARG-plasmid","accuracy",1,"gplas2","E. faecium"
"GCF_016406485.1","GCF_016406485.1_bin_5","NZ_CP066386.1",NA,"small",0,"non-ARG-plasmid","accuracy",0.738,"gplas2","E. faecium"
"GCF_016406485.1","GCF_016406485.1_bin_7","NZ_CP066388.1",NA,"small",0,"non-ARG-plasmid","accuracy",1,"gplas2","E. faecium"
"GCF_016406485.1","GCF_016406485.1_bin_6","NZ_CP066387.1",NA,"small",0,"non-ARG-plasmid","accuracy",1,"gplas2","E. faecium"
"GCF_016406365.1","GCF_016406365.1_bin_3","NZ_CP066419.1",NA,"small",0,"non-ARG-plasmid","accuracy",1,"gplas2","E. faecium"
"GCF_016406365.1","GCF_016406365.1_bin_4","NZ_CP066420.1",NA,"small",0,"non-ARG-plasmid","accuracy",1,"gplas2","E. faecium"
"GCF_016406365.1","GCF_016406365.1_bin_2","NZ_CP066418.1",NA,"small",0,"non-ARG-plasmid","accuracy",0.068,"gplas2","E. faecium"
"GCF_016406605.1","GCF_016406605.1_bin_5","NZ_CP066478.1",NA,"small",0,"non-ARG-plasmid","accuracy",1,"gplas2","E. faecium"
"GCF_016406605.1","GCF_016406605.1_bin_6","NZ_CP066479.1",NA,"small",0,"non-ARG-plasmid","accuracy",1,"gplas2","E. faecium"
"GCF_016406605.1","GCF_016406605.1_bin_4","NZ_CP066477.1",NA,"small",0,"non-ARG-plasmid","accuracy",0.967,"gplas2","E. faecium"
"GCF_021228615.1","GCF_021228615.1_bin_2","NZ_CP089323.1",NA,"small",0,"non-ARG-plasmid","accuracy",0.058,"gplas2","E. faecium"
"GCF_016415445.1","GCF_016415445.1_bin_4","NZ_CP066633.1",NA,"small",0,"non-ARG-plasmid","accuracy",1,"gplas2","E. faecium"
"GCF_016415445.1","GCF_016415445.1_bin_7","NZ_CP066636.1",NA,"small",0,"non-ARG-plasmid","accuracy",1,"gplas2","E. faecium"
"GCF_016415445.1","GCF_016415445.1_bin_5","NZ_CP066634.1",NA,"small",0,"non-ARG-plasmid","accuracy",1,"gplas2","E. faecium"
"GCF_016415445.1","GCF_016415445.1_bin_6","NZ_CP066635.1",NA,"small",0,"non-ARG-plasmid","accuracy",1,"gplas2","E. faecium"
"GCF_016406345.1","GCF_016406345.1_bin_1","NZ_CP066469.1",NA,"small",0,"non-ARG-plasmid","accuracy",0.046,"gplas2","E. faecium"
"GCF_016406345.1","GCF_016406345.1_bin_3","NZ_CP066470.1",NA,"small",0,"non-ARG-plasmid","accuracy",0.376,"gplas2","E. faecium"
"GCF_016406345.1","GCF_016406345.1_bin_3","NZ_CP066471.1",NA,"small",0,"non-ARG-plasmid","accuracy",0.252,"gplas2","E. faecium"
"GCF_016406345.1","GCF_016406345.1_bin_4","NZ_CP066472.1",NA,"small",0,"non-ARG-plasmid","accuracy",1,"gplas2","E. faecium"
"GCF_016415385.1","GCF_016415385.1_bin_4","NZ_CP066607.1",NA,"small",0,"non-ARG-plasmid","accuracy",1,"gplas2","E. faecium"
"GCF_016415385.1","GCF_016415385.1_bin_3","NZ_CP066612.1",NA,"small",0,"non-ARG-plasmid","accuracy",0.984,"gplas2","E. faecium"
"GCF_016415385.1","GCF_016415385.1_bin_5","NZ_CP066611.1",NA,"small",0,"non-ARG-plasmid","accuracy",1,"gplas2","E. faecium"
"GCF_017584065.1","GCF_017584065.1_bin_3","NZ_CP071927.1",NA,"small",0,"non-ARG-plasmid","accuracy",0.77,"gplas2","E. faecium"
"GCF_017584065.1","GCF_017584065.1_bin_6","NZ_CP071926.1",NA,"small",0,"non-ARG-plasmid","accuracy",0.712,"gplas2","E. faecium"
"GCF_017584065.1","GCF_017584065.1_bin_2","NZ_CP071928.1",NA,"small",0,"non-ARG-plasmid","accuracy",1,"gplas2","E. faecium"
"GCF_017584065.1","GCF_017584065.1_bin_7","NZ_CP071924.1",NA,"small",0,"non-ARG-plasmid","accuracy",1,"gplas2","E. faecium"
"GCF_017584065.1","GCF_017584065.1_bin_4","NZ_CP071925.1",NA,"small",0,"non-ARG-plasmid","accuracy",1,"gplas2","E. faecium"
"GCF_028335525.1","GCF_028335525.1_bin_2","NZ_CP116539.1",NA,"small",0,"non-ARG-plasmid","completeness",1,"gplas2","E. faecium"
"GCF_016406545.1","GCF_016406545.1_bin_4","NZ_CP066414.1",NA,"small",0,"non-ARG-plasmid","completeness",0.95,"gplas2","E. faecium"
"GCF_016406545.1","GCF_016406545.1_bin_3","NZ_CP066413.1",NA,"small",0,"non-ARG-plasmid","completeness",0.991,"gplas2","E. faecium"
"GCF_016406545.1","GCF_016406545.1_bin_1","NZ_CP066412.1",NA,"small",0,"non-ARG-plasmid","completeness",0.804,"gplas2","E. faecium"
"GCF_016406585.1","GCF_016406585.1_bin_5","NZ_CP066485.1",NA,"small",0,"non-ARG-plasmid","completeness",1,"gplas2","E. faecium"
"GCF_016406585.1","GCF_016406585.1_bin_4","NZ_CP066484.1",NA,"small",0,"non-ARG-plasmid","completeness",1,"gplas2","E. faecium"
"GCF_016126675.1","GCF_016126675.1_bin_4","NZ_CP065933.1",NA,"small",0,"non-ARG-plasmid","completeness",1,"gplas2","E. faecium"
"GCF_016126675.1","GCF_016126675.1_bin_1","NZ_CP065934.1",NA,"small",0,"non-ARG-plasmid","completeness",0.909,"gplas2","E. faecium"
"GCF_016126675.1","GCF_016126675.1_bin_1","NZ_CP065935.1",NA,"small",0,"non-ARG-plasmid","completeness",0.933,"gplas2","E. faecium"
"GCF_016415545.1","GCF_016415545.1_bin_2","NZ_CP066658.1",NA,"small",0,"non-ARG-plasmid","completeness",0.976,"gplas2","E. faecium"
"GCF_016415545.1","GCF_016415545.1_bin_4","NZ_CP066657.1",NA,"small",0,"non-ARG-plasmid","completeness",1,"gplas2","E. faecium"
"GCF_015476295.1","GCF_015476295.1_bin_9","NZ_CP064348.1",NA,"small",0,"non-ARG-plasmid","completeness",1,"gplas2","E. faecium"
"GCF_015476295.1","GCF_015476295.1_bin_10","NZ_CP064349.1",NA,"small",0,"non-ARG-plasmid","completeness",0.954,"gplas2","E. faecium"
"GCF_015476295.1","GCF_015476295.1_bin_6","NZ_CP064347.1",NA,"small",0,"non-ARG-plasmid","completeness",0.636,"gplas2","E. faecium"
"GCF_028335225.1","GCF_028335225.1_bin_1","NZ_CP116535.1",NA,"small",2,"ARG-plasmid","completeness",0.938,"gplas2","E. faecium"
"GCF_019977495.1","GCF_019977495.1_bin_6","NZ_AP024836.1",NA,"small",0,"non-ARG-plasmid","completeness",1,"gplas2","E. faecium"
"GCF_019977495.1","GCF_019977495.1_bin_3","NZ_AP024834.1",NA,"small",0,"non-ARG-plasmid","completeness",0.926,"gplas2","E. faecium"
"GCF_019977495.1","GCF_019977495.1_bin_4","NZ_AP024835.1",NA,"small",0,"non-ARG-plasmid","completeness",0.926,"gplas2","E. faecium"
"GCF_016406405.1","GCF_016406405.1_bin_6","NZ_CP066441.1",NA,"small",0,"non-ARG-plasmid","completeness",0.965,"gplas2","E. faecium"
"GCF_016406405.1","GCF_016406405.1_bin_5","NZ_CP066439.1",NA,"small",0,"non-ARG-plasmid","completeness",0.733,"gplas2","E. faecium"
"GCF_016406405.1","GCF_016406405.1_bin_5","NZ_CP066440.1",NA,"small",0,"non-ARG-plasmid","completeness",0.982,"gplas2","E. faecium"
"GCF_015999605.1","GCF_015999605.1_bin_3","NZ_CP065551.1",NA,"small",0,"non-ARG-plasmid","completeness",0.6,"gplas2","E. faecium"
"GCF_015999605.1","GCF_015999605.1_bin_3","NZ_CP065552.1",NA,"small",0,"non-ARG-plasmid","completeness",0.403,"gplas2","E. faecium"
"GCF_009938285.1","GCF_009938285.1_bin_7","NZ_AP022344.1",NA,"small",0,"non-ARG-plasmid","completeness",1,"gplas2","E. faecium"
"GCF_022648125.1","GCF_022648125.1_bin_4","NZ_CP076487.1",NA,"small",0,"non-ARG-plasmid","completeness",1,"gplas2","E. faecium"
"GCF_016415465.1","GCF_016415465.1_bin_6","NZ_CP066626.1",NA,"small",0,"non-ARG-plasmid","completeness",1,"gplas2","E. faecium"
"GCF_016415465.1","GCF_016415465.1_bin_4","NZ_CP066627.1",NA,"small",0,"non-ARG-plasmid","completeness",0.95,"gplas2","E. faecium"
"GCF_016415465.1","GCF_016415465.1_bin_5","NZ_CP066628.1",NA,"small",0,"non-ARG-plasmid","completeness",0.925,"gplas2","E. faecium"
"GCF_015325925.1","GCF_015325925.1_bin_7","NZ_CP064053.1",NA,"small",0,"non-ARG-plasmid","completeness",1,"gplas2","E. faecium"
"GCF_016406485.1","GCF_016406485.1_bin_5","NZ_CP066386.1",NA,"small",0,"non-ARG-plasmid","completeness",0.725,"gplas2","E. faecium"
"GCF_016406485.1","GCF_016406485.1_bin_7","NZ_CP066388.1",NA,"small",0,"non-ARG-plasmid","completeness",1,"gplas2","E. faecium"
"GCF_016406485.1","GCF_016406485.1_bin_6","NZ_CP066387.1",NA,"small",0,"non-ARG-plasmid","completeness",1,"gplas2","E. faecium"
"GCF_016406365.1","GCF_016406365.1_bin_3","NZ_CP066419.1",NA,"small",0,"non-ARG-plasmid","completeness",1,"gplas2","E. faecium"
"GCF_016406365.1","GCF_016406365.1_bin_4","NZ_CP066420.1",NA,"small",0,"non-ARG-plasmid","completeness",1,"gplas2","E. faecium"
"GCF_016406365.1","GCF_016406365.1_bin_2","NZ_CP066418.1",NA,"small",0,"non-ARG-plasmid","completeness",0.804,"gplas2","E. faecium"
"GCF_016406605.1","GCF_016406605.1_bin_5","NZ_CP066478.1",NA,"small",0,"non-ARG-plasmid","completeness",1,"gplas2","E. faecium"
"GCF_016406605.1","GCF_016406605.1_bin_6","NZ_CP066479.1",NA,"small",0,"non-ARG-plasmid","completeness",1,"gplas2","E. faecium"
"GCF_016406605.1","GCF_016406605.1_bin_4","NZ_CP066477.1",NA,"small",0,"non-ARG-plasmid","completeness",0.967,"gplas2","E. faecium"
"GCF_021228615.1","GCF_021228615.1_bin_2","NZ_CP089323.1",NA,"small",0,"non-ARG-plasmid","completeness",0.135,"gplas2","E. faecium"
"GCF_016415445.1","GCF_016415445.1_bin_4","NZ_CP066633.1",NA,"small",0,"non-ARG-plasmid","completeness",1,"gplas2","E. faecium"
"GCF_016415445.1","GCF_016415445.1_bin_7","NZ_CP066636.1",NA,"small",0,"non-ARG-plasmid","completeness",1,"gplas2","E. faecium"
"GCF_016415445.1","GCF_016415445.1_bin_5","NZ_CP066634.1",NA,"small",0,"non-ARG-plasmid","completeness",1,"gplas2","E. faecium"
"GCF_016415445.1","GCF_016415445.1_bin_6","NZ_CP066635.1",NA,"small",0,"non-ARG-plasmid","completeness",1,"gplas2","E. faecium"
"GCF_016406345.1","GCF_016406345.1_bin_1","NZ_CP066469.1",NA,"small",0,"non-ARG-plasmid","completeness",0.867,"gplas2","E. faecium"
"GCF_016406345.1","GCF_016406345.1_bin_3","NZ_CP066470.1",NA,"small",0,"non-ARG-plasmid","completeness",0.599,"gplas2","E. faecium"
"GCF_016406345.1","GCF_016406345.1_bin_3","NZ_CP066471.1",NA,"small",0,"non-ARG-plasmid","completeness",0.404,"gplas2","E. faecium"
"GCF_016406345.1","GCF_016406345.1_bin_4","NZ_CP066472.1",NA,"small",0,"non-ARG-plasmid","completeness",1,"gplas2","E. faecium"
"GCF_016415385.1","GCF_016415385.1_bin_4","NZ_CP066607.1",NA,"small",0,"non-ARG-plasmid","completeness",0.925,"gplas2","E. faecium"
"GCF_016415385.1","GCF_016415385.1_bin_3","NZ_CP066612.1",NA,"small",0,"non-ARG-plasmid","completeness",0.95,"gplas2","E. faecium"
"GCF_016415385.1","GCF_016415385.1_bin_5","NZ_CP066611.1",NA,"small",0,"non-ARG-plasmid","completeness",1,"gplas2","E. faecium"
"GCF_017584065.1","GCF_017584065.1_bin_3","NZ_CP071927.1",NA,"small",0,"non-ARG-plasmid","completeness",0.758,"gplas2","E. faecium"
"GCF_017584065.1","GCF_017584065.1_bin_6","NZ_CP071926.1",NA,"small",0,"non-ARG-plasmid","completeness",0.698,"gplas2","E. faecium"
"GCF_017584065.1","GCF_017584065.1_bin_2","NZ_CP071928.1",NA,"small",0,"non-ARG-plasmid","completeness",0.938,"gplas2","E. faecium"
"GCF_017584065.1","GCF_017584065.1_bin_7","NZ_CP071924.1",NA,"small",0,"non-ARG-plasmid","completeness",1,"gplas2","E. faecium"
"GCF_017584065.1","GCF_017584065.1_bin_4","NZ_CP071925.1",NA,"small",0,"non-ARG-plasmid","completeness",0.906,"gplas2","E. faecium"
"GCF_028335525.1","GCF_028335525.1_bin_2","NZ_CP116539.1",NA,"small",0,"non-ARG-plasmid","F1_score",1,"gplas2","E. faecium"
"GCF_016406545.1","GCF_016406545.1_bin_4","NZ_CP066414.1",NA,"small",0,"non-ARG-plasmid","F1_score",0.95,"gplas2","E. faecium"
"GCF_016406545.1","GCF_016406545.1_bin_3","NZ_CP066413.1",NA,"small",0,"non-ARG-plasmid","F1_score",0.991,"gplas2","E. faecium"
"GCF_016406545.1","GCF_016406545.1_bin_1","NZ_CP066412.1",NA,"small",0,"non-ARG-plasmid","F1_score",0.073,"gplas2","E. faecium"
"GCF_016406585.1","GCF_016406585.1_bin_5","NZ_CP066485.1",NA,"small",0,"non-ARG-plasmid","F1_score",1,"gplas2","E. faecium"
"GCF_016406585.1","GCF_016406585.1_bin_4","NZ_CP066484.1",NA,"small",0,"non-ARG-plasmid","F1_score",1,"gplas2","E. faecium"
"GCF_016126675.1","GCF_016126675.1_bin_4","NZ_CP065933.1",NA,"small",0,"non-ARG-plasmid","F1_score",1,"gplas2","E. faecium"
"GCF_016126675.1","GCF_016126675.1_bin_1","NZ_CP065934.1",NA,"small",0,"non-ARG-plasmid","F1_score",0.632,"gplas2","E. faecium"
"GCF_016126675.1","GCF_016126675.1_bin_1","NZ_CP065935.1",NA,"small",0,"non-ARG-plasmid","F1_score",0.384,"gplas2","E. faecium"
"GCF_016415545.1","GCF_016415545.1_bin_2","NZ_CP066658.1",NA,"small",0,"non-ARG-plasmid","F1_score",0.988,"gplas2","E. faecium"
"GCF_016415545.1","GCF_016415545.1_bin_4","NZ_CP066657.1",NA,"small",0,"non-ARG-plasmid","F1_score",1,"gplas2","E. faecium"
"GCF_015476295.1","GCF_015476295.1_bin_9","NZ_CP064348.1",NA,"small",0,"non-ARG-plasmid","F1_score",1,"gplas2","E. faecium"
"GCF_015476295.1","GCF_015476295.1_bin_10","NZ_CP064349.1",NA,"small",0,"non-ARG-plasmid","F1_score",0.954,"gplas2","E. faecium"
"GCF_015476295.1","GCF_015476295.1_bin_6","NZ_CP064347.1",NA,"small",0,"non-ARG-plasmid","F1_score",0.446,"gplas2","E. faecium"
"GCF_028335225.1","GCF_028335225.1_bin_1","NZ_CP116535.1",NA,"small",2,"ARG-plasmid","F1_score",0.118,"gplas2","E. faecium"
"GCF_019977495.1","GCF_019977495.1_bin_6","NZ_AP024836.1",NA,"small",0,"non-ARG-plasmid","F1_score",1,"gplas2","E. faecium"
"GCF_019977495.1","GCF_019977495.1_bin_3","NZ_AP024834.1",NA,"small",0,"non-ARG-plasmid","F1_score",0.962,"gplas2","E. faecium"
"GCF_019977495.1","GCF_019977495.1_bin_4","NZ_AP024835.1",NA,"small",0,"non-ARG-plasmid","F1_score",0.961,"gplas2","E. faecium"
"GCF_016406405.1","GCF_016406405.1_bin_6","NZ_CP066441.1",NA,"small",0,"non-ARG-plasmid","F1_score",0.982,"gplas2","E. faecium"
"GCF_016406405.1","GCF_016406405.1_bin_5","NZ_CP066439.1",NA,"small",0,"non-ARG-plasmid","F1_score",0.519,"gplas2","E. faecium"
"GCF_016406405.1","GCF_016406405.1_bin_5","NZ_CP066440.1",NA,"small",0,"non-ARG-plasmid","F1_score",0.627,"gplas2","E. faecium"
"GCF_015999605.1","GCF_015999605.1_bin_3","NZ_CP065551.1",NA,"small",0,"non-ARG-plasmid","F1_score",0.463,"gplas2","E. faecium"
"GCF_015999605.1","GCF_015999605.1_bin_3","NZ_CP065552.1",NA,"small",0,"non-ARG-plasmid","F1_score",0.309,"gplas2","E. faecium"
"GCF_009938285.1","GCF_009938285.1_bin_7","NZ_AP022344.1",NA,"small",0,"non-ARG-plasmid","F1_score",0.996,"gplas2","E. faecium"
"GCF_022648125.1","GCF_022648125.1_bin_4","NZ_CP076487.1",NA,"small",0,"non-ARG-plasmid","F1_score",1,"gplas2","E. faecium"
"GCF_016415465.1","GCF_016415465.1_bin_6","NZ_CP066626.1",NA,"small",0,"non-ARG-plasmid","F1_score",1,"gplas2","E. faecium"
"GCF_016415465.1","GCF_016415465.1_bin_4","NZ_CP066627.1",NA,"small",0,"non-ARG-plasmid","F1_score",0.967,"gplas2","E. faecium"
"GCF_016415465.1","GCF_016415465.1_bin_5","NZ_CP066628.1",NA,"small",0,"non-ARG-plasmid","F1_score",0.961,"gplas2","E. faecium"
"GCF_015325925.1","GCF_015325925.1_bin_7","NZ_CP064053.1",NA,"small",0,"non-ARG-plasmid","F1_score",1,"gplas2","E. faecium"
"GCF_016406485.1","GCF_016406485.1_bin_5","NZ_CP066386.1",NA,"small",0,"non-ARG-plasmid","F1_score",0.731,"gplas2","E. faecium"
"GCF_016406485.1","GCF_016406485.1_bin_7","NZ_CP066388.1",NA,"small",0,"non-ARG-plasmid","F1_score",1,"gplas2","E. faecium"
"GCF_016406485.1","GCF_016406485.1_bin_6","NZ_CP066387.1",NA,"small",0,"non-ARG-plasmid","F1_score",1,"gplas2","E. faecium"
"GCF_016406365.1","GCF_016406365.1_bin_3","NZ_CP066419.1",NA,"small",0,"non-ARG-plasmid","F1_score",1,"gplas2","E. faecium"
"GCF_016406365.1","GCF_016406365.1_bin_4","NZ_CP066420.1",NA,"small",0,"non-ARG-plasmid","F1_score",1,"gplas2","E. faecium"
"GCF_016406365.1","GCF_016406365.1_bin_2","NZ_CP066418.1",NA,"small",0,"non-ARG-plasmid","F1_score",0.125,"gplas2","E. faecium"
"GCF_016406605.1","GCF_016406605.1_bin_5","NZ_CP066478.1",NA,"small",0,"non-ARG-plasmid","F1_score",1,"gplas2","E. faecium"
"GCF_016406605.1","GCF_016406605.1_bin_6","NZ_CP066479.1",NA,"small",0,"non-ARG-plasmid","F1_score",1,"gplas2","E. faecium"
"GCF_016406605.1","GCF_016406605.1_bin_4","NZ_CP066477.1",NA,"small",0,"non-ARG-plasmid","F1_score",0.967,"gplas2","E. faecium"
"GCF_021228615.1","GCF_021228615.1_bin_2","NZ_CP089323.1",NA,"small",0,"non-ARG-plasmid","F1_score",0.081,"gplas2","E. faecium"
"GCF_016415445.1","GCF_016415445.1_bin_4","NZ_CP066633.1",NA,"small",0,"non-ARG-plasmid","F1_score",1,"gplas2","E. faecium"
"GCF_016415445.1","GCF_016415445.1_bin_7","NZ_CP066636.1",NA,"small",0,"non-ARG-plasmid","F1_score",1,"gplas2","E. faecium"
"GCF_016415445.1","GCF_016415445.1_bin_5","NZ_CP066634.1",NA,"small",0,"non-ARG-plasmid","F1_score",1,"gplas2","E. faecium"
"GCF_016415445.1","GCF_016415445.1_bin_6","NZ_CP066635.1",NA,"small",0,"non-ARG-plasmid","F1_score",1,"gplas2","E. faecium"
"GCF_016406345.1","GCF_016406345.1_bin_1","NZ_CP066469.1",NA,"small",0,"non-ARG-plasmid","F1_score",0.087,"gplas2","E. faecium"
"GCF_016406345.1","GCF_016406345.1_bin_3","NZ_CP066470.1",NA,"small",0,"non-ARG-plasmid","F1_score",0.462,"gplas2","E. faecium"
"GCF_016406345.1","GCF_016406345.1_bin_3","NZ_CP066471.1",NA,"small",0,"non-ARG-plasmid","F1_score",0.31,"gplas2","E. faecium"
"GCF_016406345.1","GCF_016406345.1_bin_4","NZ_CP066472.1",NA,"small",0,"non-ARG-plasmid","F1_score",1,"gplas2","E. faecium"
"GCF_016415385.1","GCF_016415385.1_bin_4","NZ_CP066607.1",NA,"small",0,"non-ARG-plasmid","F1_score",0.961,"gplas2","E. faecium"
"GCF_016415385.1","GCF_016415385.1_bin_3","NZ_CP066612.1",NA,"small",0,"non-ARG-plasmid","F1_score",0.967,"gplas2","E. faecium"
"GCF_016415385.1","GCF_016415385.1_bin_5","NZ_CP066611.1",NA,"small",0,"non-ARG-plasmid","F1_score",1,"gplas2","E. faecium"
"GCF_017584065.1","GCF_017584065.1_bin_3","NZ_CP071927.1",NA,"small",0,"non-ARG-plasmid","F1_score",0.764,"gplas2","E. faecium"
"GCF_017584065.1","GCF_017584065.1_bin_6","NZ_CP071926.1",NA,"small",0,"non-ARG-plasmid","F1_score",0.705,"gplas2","E. faecium"
"GCF_017584065.1","GCF_017584065.1_bin_2","NZ_CP071928.1",NA,"small",0,"non-ARG-plasmid","F1_score",0.968,"gplas2","E. faecium"
"GCF_017584065.1","GCF_017584065.1_bin_7","NZ_CP071924.1",NA,"small",0,"non-ARG-plasmid","F1_score",1,"gplas2","E. faecium"
"GCF_017584065.1","GCF_017584065.1_bin_4","NZ_CP071925.1",NA,"small",0,"non-ARG-plasmid","F1_score",0.951,"gplas2","E. faecium"
"GCF_016406345.1","plasmid_AB173","NZ_CP066469.1",NA,"small",0,"non-ARG-plasmid","accuracy",0.329,"MOB-suite","E. faecium"
"GCF_016406345.1","plasmid_AE672","NZ_CP066472.1",NA,"small",0,"non-ARG-plasmid","accuracy",1,"MOB-suite","E. faecium"
"GCF_016406345.1","plasmid_AA892","NZ_CP066470.1",NA,"small",0,"non-ARG-plasmid","accuracy",0.599,"MOB-suite","E. faecium"
"GCF_016406345.1","plasmid_AA892","NZ_CP066471.1",NA,"small",0,"non-ARG-plasmid","accuracy",0.401,"MOB-suite","E. faecium"
"GCF_015476295.1","plasmid_AB369","NZ_CP064347.1",NA,"small",0,"non-ARG-plasmid","accuracy",0.08,"MOB-suite","E. faecium"
"GCF_015476295.1","plasmid_AA893","NZ_CP064348.1",NA,"small",0,"non-ARG-plasmid","accuracy",1,"MOB-suite","E. faecium"
"GCF_015476295.1","plasmid_AA890","NZ_CP064349.1",NA,"small",0,"non-ARG-plasmid","accuracy",0.954,"MOB-suite","E. faecium"
"GCF_016415445.1","plasmid_AC534","NZ_CP066635.1",NA,"small",0,"non-ARG-plasmid","accuracy",1,"MOB-suite","E. faecium"
"GCF_016415445.1","plasmid_AE577","NZ_CP066636.1",NA,"small",0,"non-ARG-plasmid","accuracy",1,"MOB-suite","E. faecium"
"GCF_016415445.1","plasmid_AC537","NZ_CP066634.1",NA,"small",0,"non-ARG-plasmid","accuracy",1,"MOB-suite","E. faecium"
"GCF_016415445.1","plasmid_AA892","NZ_CP066633.1",NA,"small",0,"non-ARG-plasmid","accuracy",1,"MOB-suite","E. faecium"
"GCF_016406585.1","plasmid_AB173","NZ_CP066484.1",NA,"small",0,"non-ARG-plasmid","accuracy",0.21,"MOB-suite","E. faecium"
"GCF_016406585.1","plasmid_AE672","NZ_CP066485.1",NA,"small",0,"non-ARG-plasmid","accuracy",1,"MOB-suite","E. faecium"
"GCF_016406485.1","plasmid_AB173","NZ_CP066387.1",NA,"small",0,"non-ARG-plasmid","accuracy",0.163,"MOB-suite","E. faecium"
"GCF_016406485.1","plasmid_AA890","NZ_CP066388.1",NA,"small",0,"non-ARG-plasmid","accuracy",1,"MOB-suite","E. faecium"
"GCF_016406485.1","plasmid_AA891","NZ_CP066386.1",NA,"small",0,"non-ARG-plasmid","accuracy",0.789,"MOB-suite","E. faecium"
"GCF_016406405.1","plasmid_AB173","NZ_CP066440.1",NA,"small",0,"non-ARG-plasmid","accuracy",0.183,"MOB-suite","E. faecium"
"GCF_016406405.1","plasmid_AC537","NZ_CP066441.1",NA,"small",0,"non-ARG-plasmid","accuracy",1,"MOB-suite","E. faecium"
"GCF_016406405.1","plasmid_AA892","NZ_CP066439.1",NA,"small",0,"non-ARG-plasmid","accuracy",0.975,"MOB-suite","E. faecium"
"GCF_021228615.1","plasmid_AA894","NZ_CP089323.1",NA,"small",0,"non-ARG-plasmid","accuracy",0.775,"MOB-suite","E. faecium"
"GCF_016415545.1","plasmid_AA892","NZ_CP066657.1",NA,"small",0,"non-ARG-plasmid","accuracy",0.511,"MOB-suite","E. faecium"
"GCF_016415545.1","plasmid_AA892","NZ_CP066658.1",NA,"small",0,"non-ARG-plasmid","accuracy",0.489,"MOB-suite","E. faecium"
"GCF_016406365.1","plasmid_AB173","NZ_CP066418.1",NA,"small",0,"non-ARG-plasmid","accuracy",0.225,"MOB-suite","E. faecium"
"GCF_016406365.1","plasmid_AB173","NZ_CP066419.1",NA,"small",0,"non-ARG-plasmid","accuracy",0.149,"MOB-suite","E. faecium"
"GCF_016406365.1","plasmid_AE672","NZ_CP066420.1",NA,"small",0,"non-ARG-plasmid","accuracy",1,"MOB-suite","E. faecium"
"GCF_016415465.1","plasmid_AB173","NZ_CP066626.1",NA,"small",0,"non-ARG-plasmid","accuracy",0.151,"MOB-suite","E. faecium"
"GCF_016415465.1","plasmid_AC537","NZ_CP066627.1",NA,"small",0,"non-ARG-plasmid","accuracy",0.984,"MOB-suite","E. faecium"
"GCF_016415465.1","plasmid_AE672","NZ_CP066628.1",NA,"small",0,"non-ARG-plasmid","accuracy",1,"MOB-suite","E. faecium"
"GCF_016406545.1","plasmid_AB173","NZ_CP066412.1",NA,"small",0,"non-ARG-plasmid","accuracy",0.225,"MOB-suite","E. faecium"
"GCF_016406545.1","plasmid_AB173","NZ_CP066413.1",NA,"small",0,"non-ARG-plasmid","accuracy",0.148,"MOB-suite","E. faecium"
"GCF_016406545.1","plasmid_AE672","NZ_CP066414.1",NA,"small",0,"non-ARG-plasmid","accuracy",0.95,"MOB-suite","E. faecium"
"GCF_017584065.1","plasmid_AA893","NZ_CP071925.1",NA,"small",0,"non-ARG-plasmid","accuracy",1,"MOB-suite","E. faecium"
"GCF_017584065.1","plasmid_AA894","NZ_CP071928.1",NA,"small",0,"non-ARG-plasmid","accuracy",0.831,"MOB-suite","E. faecium"
"GCF_017584065.1","plasmid_AB615","NZ_CP071927.1",NA,"small",0,"non-ARG-plasmid","accuracy",1,"MOB-suite","E. faecium"
"GCF_016415385.1","plasmid_AC537","NZ_CP066612.1",NA,"small",0,"non-ARG-plasmid","accuracy",0.984,"MOB-suite","E. faecium"
"GCF_016415385.1","plasmid_AE672","NZ_CP066607.1",NA,"small",0,"non-ARG-plasmid","accuracy",1,"MOB-suite","E. faecium"
"GCF_016415385.1","plasmid_AA892","NZ_CP066611.1",NA,"small",0,"non-ARG-plasmid","accuracy",1,"MOB-suite","E. faecium"
"GCF_016126675.1","plasmid_AC534","NZ_CP065934.1",NA,"small",0,"non-ARG-plasmid","accuracy",0.667,"MOB-suite","E. faecium"
"GCF_016126675.1","plasmid_AC534","NZ_CP065935.1",NA,"small",0,"non-ARG-plasmid","accuracy",0.333,"MOB-suite","E. faecium"
"GCF_016126675.1","plasmid_AA894","NZ_CP065933.1",NA,"small",0,"non-ARG-plasmid","accuracy",1,"MOB-suite","E. faecium"
"GCF_009938285.1","plasmid_AA892","NZ_AP022344.1",NA,"small",0,"non-ARG-plasmid","accuracy",0.993,"MOB-suite","E. faecium"
"GCF_019977495.1","plasmid_AA894","NZ_AP024834.1",NA,"small",0,"non-ARG-plasmid","accuracy",0.56,"MOB-suite","E. faecium"
"GCF_019977495.1","plasmid_AA894","NZ_AP024835.1",NA,"small",0,"non-ARG-plasmid","accuracy",0.372,"MOB-suite","E. faecium"
"GCF_019977495.1","plasmid_AB613","NZ_AP024836.1",NA,"small",0,"non-ARG-plasmid","accuracy",1,"MOB-suite","E. faecium"
"GCF_016406605.1","plasmid_AB615","NZ_CP066478.1",NA,"small",0,"non-ARG-plasmid","accuracy",1,"MOB-suite","E. faecium"
"GCF_016406605.1","plasmid_AA892","NZ_CP066477.1",NA,"small",0,"non-ARG-plasmid","accuracy",0.967,"MOB-suite","E. faecium"
"GCF_028335225.1","plasmid_AB756","NZ_CP116535.1",NA,"small",2,"ARG-plasmid","accuracy",0.808,"MOB-suite","E. faecium"
"GCF_015999605.1","plasmid_AA892","NZ_CP065551.1",NA,"small",0,"non-ARG-plasmid","accuracy",0.6,"MOB-suite","E. faecium"
"GCF_015999605.1","plasmid_AA892","NZ_CP065552.1",NA,"small",0,"non-ARG-plasmid","accuracy",0.4,"MOB-suite","E. faecium"
"GCF_028335525.1","plasmid_AE816","NZ_CP116539.1",NA,"small",0,"non-ARG-plasmid","accuracy",1,"MOB-suite","E. faecium"
"GCF_016406345.1","plasmid_AB173","NZ_CP066469.1",NA,"small",0,"non-ARG-plasmid","completeness",0.867,"MOB-suite","E. faecium"
"GCF_016406345.1","plasmid_AE672","NZ_CP066472.1",NA,"small",0,"non-ARG-plasmid","completeness",1,"MOB-suite","E. faecium"
"GCF_016406345.1","plasmid_AA892","NZ_CP066470.1",NA,"small",0,"non-ARG-plasmid","completeness",0.599,"MOB-suite","E. faecium"
"GCF_016406345.1","plasmid_AA892","NZ_CP066471.1",NA,"small",0,"non-ARG-plasmid","completeness",0.404,"MOB-suite","E. faecium"
"GCF_015476295.1","plasmid_AB369","NZ_CP064347.1",NA,"small",0,"non-ARG-plasmid","completeness",0.636,"MOB-suite","E. faecium"
"GCF_015476295.1","plasmid_AA893","NZ_CP064348.1",NA,"small",0,"non-ARG-plasmid","completeness",1,"MOB-suite","E. faecium"
"GCF_015476295.1","plasmid_AA890","NZ_CP064349.1",NA,"small",0,"non-ARG-plasmid","completeness",0.954,"MOB-suite","E. faecium"
"GCF_016415445.1","plasmid_AC534","NZ_CP066635.1",NA,"small",0,"non-ARG-plasmid","completeness",1,"MOB-suite","E. faecium"
"GCF_016415445.1","plasmid_AE577","NZ_CP066636.1",NA,"small",0,"non-ARG-plasmid","completeness",1,"MOB-suite","E. faecium"
"GCF_016415445.1","plasmid_AC537","NZ_CP066634.1",NA,"small",0,"non-ARG-plasmid","completeness",1,"MOB-suite","E. faecium"
"GCF_016415445.1","plasmid_AA892","NZ_CP066633.1",NA,"small",0,"non-ARG-plasmid","completeness",1,"MOB-suite","E. faecium"
"GCF_016406585.1","plasmid_AB173","NZ_CP066484.1",NA,"small",0,"non-ARG-plasmid","completeness",1,"MOB-suite","E. faecium"
"GCF_016406585.1","plasmid_AE672","NZ_CP066485.1",NA,"small",0,"non-ARG-plasmid","completeness",1,"MOB-suite","E. faecium"
"GCF_016406485.1","plasmid_AB173","NZ_CP066387.1",NA,"small",0,"non-ARG-plasmid","completeness",1,"MOB-suite","E. faecium"
"GCF_016406485.1","plasmid_AA890","NZ_CP066388.1",NA,"small",0,"non-ARG-plasmid","completeness",1,"MOB-suite","E. faecium"
"GCF_016406485.1","plasmid_AA891","NZ_CP066386.1",NA,"small",0,"non-ARG-plasmid","completeness",0.725,"MOB-suite","E. faecium"
"GCF_016406405.1","plasmid_AB173","NZ_CP066440.1",NA,"small",0,"non-ARG-plasmid","completeness",0.982,"MOB-suite","E. faecium"
"GCF_016406405.1","plasmid_AC537","NZ_CP066441.1",NA,"small",0,"non-ARG-plasmid","completeness",0.965,"MOB-suite","E. faecium"
"GCF_016406405.1","plasmid_AA892","NZ_CP066439.1",NA,"small",0,"non-ARG-plasmid","completeness",0.733,"MOB-suite","E. faecium"
"GCF_021228615.1","plasmid_AA894","NZ_CP089323.1",NA,"small",0,"non-ARG-plasmid","completeness",0.779,"MOB-suite","E. faecium"
"GCF_016415545.1","plasmid_AA892","NZ_CP066657.1",NA,"small",0,"non-ARG-plasmid","completeness",1,"MOB-suite","E. faecium"
"GCF_016415545.1","plasmid_AA892","NZ_CP066658.1",NA,"small",0,"non-ARG-plasmid","completeness",0.976,"MOB-suite","E. faecium"
"GCF_016406365.1","plasmid_AB173","NZ_CP066418.1",NA,"small",0,"non-ARG-plasmid","completeness",0.804,"MOB-suite","E. faecium"
"GCF_016406365.1","plasmid_AB173","NZ_CP066419.1",NA,"small",0,"non-ARG-plasmid","completeness",1,"MOB-suite","E. faecium"
"GCF_016406365.1","plasmid_AE672","NZ_CP066420.1",NA,"small",0,"non-ARG-plasmid","completeness",1,"MOB-suite","E. faecium"
"GCF_016415465.1","plasmid_AB173","NZ_CP066626.1",NA,"small",0,"non-ARG-plasmid","completeness",1,"MOB-suite","E. faecium"
"GCF_016415465.1","plasmid_AC537","NZ_CP066627.1",NA,"small",0,"non-ARG-plasmid","completeness",0.95,"MOB-suite","E. faecium"
"GCF_016415465.1","plasmid_AE672","NZ_CP066628.1",NA,"small",0,"non-ARG-plasmid","completeness",0.925,"MOB-suite","E. faecium"
"GCF_016406545.1","plasmid_AB173","NZ_CP066412.1",NA,"small",0,"non-ARG-plasmid","completeness",0.804,"MOB-suite","E. faecium"
"GCF_016406545.1","plasmid_AB173","NZ_CP066413.1",NA,"small",0,"non-ARG-plasmid","completeness",0.991,"MOB-suite","E. faecium"
"GCF_016406545.1","plasmid_AE672","NZ_CP066414.1",NA,"small",0,"non-ARG-plasmid","completeness",0.95,"MOB-suite","E. faecium"
"GCF_017584065.1","plasmid_AA893","NZ_CP071925.1",NA,"small",0,"non-ARG-plasmid","completeness",0.906,"MOB-suite","E. faecium"
"GCF_017584065.1","plasmid_AA894","NZ_CP071928.1",NA,"small",0,"non-ARG-plasmid","completeness",0.938,"MOB-suite","E. faecium"
"GCF_017584065.1","plasmid_AB615","NZ_CP071927.1",NA,"small",0,"non-ARG-plasmid","completeness",0.758,"MOB-suite","E. faecium"
"GCF_016415385.1","plasmid_AC537","NZ_CP066612.1",NA,"small",0,"non-ARG-plasmid","completeness",0.95,"MOB-suite","E. faecium"
"GCF_016415385.1","plasmid_AE672","NZ_CP066607.1",NA,"small",0,"non-ARG-plasmid","completeness",0.925,"MOB-suite","E. faecium"
"GCF_016415385.1","plasmid_AA892","NZ_CP066611.1",NA,"small",0,"non-ARG-plasmid","completeness",1,"MOB-suite","E. faecium"
"GCF_016126675.1","plasmid_AC534","NZ_CP065934.1",NA,"small",0,"non-ARG-plasmid","completeness",0.909,"MOB-suite","E. faecium"
"GCF_016126675.1","plasmid_AC534","NZ_CP065935.1",NA,"small",0,"non-ARG-plasmid","completeness",0.933,"MOB-suite","E. faecium"
"GCF_016126675.1","plasmid_AA894","NZ_CP065933.1",NA,"small",0,"non-ARG-plasmid","completeness",1,"MOB-suite","E. faecium"
"GCF_009938285.1","plasmid_AA892","NZ_AP022344.1",NA,"small",0,"non-ARG-plasmid","completeness",1,"MOB-suite","E. faecium"
"GCF_019977495.1","plasmid_AA894","NZ_AP024834.1",NA,"small",0,"non-ARG-plasmid","completeness",0.926,"MOB-suite","E. faecium"
"GCF_019977495.1","plasmid_AA894","NZ_AP024835.1",NA,"small",0,"non-ARG-plasmid","completeness",0.926,"MOB-suite","E. faecium"
"GCF_019977495.1","plasmid_AB613","NZ_AP024836.1",NA,"small",0,"non-ARG-plasmid","completeness",1,"MOB-suite","E. faecium"
"GCF_016406605.1","plasmid_AB615","NZ_CP066478.1",NA,"small",0,"non-ARG-plasmid","completeness",1,"MOB-suite","E. faecium"
"GCF_016406605.1","plasmid_AA892","NZ_CP066477.1",NA,"small",0,"non-ARG-plasmid","completeness",0.967,"MOB-suite","E. faecium"
"GCF_028335225.1","plasmid_AB756","NZ_CP116535.1",NA,"small",2,"ARG-plasmid","completeness",0.938,"MOB-suite","E. faecium"
"GCF_015999605.1","plasmid_AA892","NZ_CP065551.1",NA,"small",0,"non-ARG-plasmid","completeness",0.6,"MOB-suite","E. faecium"
"GCF_015999605.1","plasmid_AA892","NZ_CP065552.1",NA,"small",0,"non-ARG-plasmid","completeness",0.403,"MOB-suite","E. faecium"
"GCF_028335525.1","plasmid_AE816","NZ_CP116539.1",NA,"small",0,"non-ARG-plasmid","completeness",1,"MOB-suite","E. faecium"
"GCF_016406345.1","plasmid_AB173","NZ_CP066469.1",NA,"small",0,"non-ARG-plasmid","F1_score",0.477,"MOB-suite","E. faecium"
"GCF_016406345.1","plasmid_AE672","NZ_CP066472.1",NA,"small",0,"non-ARG-plasmid","F1_score",1,"MOB-suite","E. faecium"
"GCF_016406345.1","plasmid_AA892","NZ_CP066470.1",NA,"small",0,"non-ARG-plasmid","F1_score",0.599,"MOB-suite","E. faecium"
"GCF_016406345.1","plasmid_AA892","NZ_CP066471.1",NA,"small",0,"non-ARG-plasmid","F1_score",0.402,"MOB-suite","E. faecium"
"GCF_015476295.1","plasmid_AB369","NZ_CP064347.1",NA,"small",0,"non-ARG-plasmid","F1_score",0.142,"MOB-suite","E. faecium"
"GCF_015476295.1","plasmid_AA893","NZ_CP064348.1",NA,"small",0,"non-ARG-plasmid","F1_score",1,"MOB-suite","E. faecium"
"GCF_015476295.1","plasmid_AA890","NZ_CP064349.1",NA,"small",0,"non-ARG-plasmid","F1_score",0.954,"MOB-suite","E. faecium"
"GCF_016415445.1","plasmid_AC534","NZ_CP066635.1",NA,"small",0,"non-ARG-plasmid","F1_score",1,"MOB-suite","E. faecium"
"GCF_016415445.1","plasmid_AE577","NZ_CP066636.1",NA,"small",0,"non-ARG-plasmid","F1_score",1,"MOB-suite","E. faecium"
"GCF_016415445.1","plasmid_AC537","NZ_CP066634.1",NA,"small",0,"non-ARG-plasmid","F1_score",1,"MOB-suite","E. faecium"
"GCF_016415445.1","plasmid_AA892","NZ_CP066633.1",NA,"small",0,"non-ARG-plasmid","F1_score",1,"MOB-suite","E. faecium"
"GCF_016406585.1","plasmid_AB173","NZ_CP066484.1",NA,"small",0,"non-ARG-plasmid","F1_score",0.347,"MOB-suite","E. faecium"
"GCF_016406585.1","plasmid_AE672","NZ_CP066485.1",NA,"small",0,"non-ARG-plasmid","F1_score",1,"MOB-suite","E. faecium"
"GCF_016406485.1","plasmid_AB173","NZ_CP066387.1",NA,"small",0,"non-ARG-plasmid","F1_score",0.28,"MOB-suite","E. faecium"
"GCF_016406485.1","plasmid_AA890","NZ_CP066388.1",NA,"small",0,"non-ARG-plasmid","F1_score",1,"MOB-suite","E. faecium"
"GCF_016406485.1","plasmid_AA891","NZ_CP066386.1",NA,"small",0,"non-ARG-plasmid","F1_score",0.756,"MOB-suite","E. faecium"
"GCF_016406405.1","plasmid_AB173","NZ_CP066440.1",NA,"small",0,"non-ARG-plasmid","F1_score",0.309,"MOB-suite","E. faecium"
"GCF_016406405.1","plasmid_AC537","NZ_CP066441.1",NA,"small",0,"non-ARG-plasmid","F1_score",0.982,"MOB-suite","E. faecium"
"GCF_016406405.1","plasmid_AA892","NZ_CP066439.1",NA,"small",0,"non-ARG-plasmid","F1_score",0.837,"MOB-suite","E. faecium"
"GCF_021228615.1","plasmid_AA894","NZ_CP089323.1",NA,"small",0,"non-ARG-plasmid","F1_score",0.777,"MOB-suite","E. faecium"
"GCF_016415545.1","plasmid_AA892","NZ_CP066657.1",NA,"small",0,"non-ARG-plasmid","F1_score",0.676,"MOB-suite","E. faecium"
"GCF_016415545.1","plasmid_AA892","NZ_CP066658.1",NA,"small",0,"non-ARG-plasmid","F1_score",0.652,"MOB-suite","E. faecium"
"GCF_016406365.1","plasmid_AB173","NZ_CP066418.1",NA,"small",0,"non-ARG-plasmid","F1_score",0.352,"MOB-suite","E. faecium"
"GCF_016406365.1","plasmid_AB173","NZ_CP066419.1",NA,"small",0,"non-ARG-plasmid","F1_score",0.259,"MOB-suite","E. faecium"
"GCF_016406365.1","plasmid_AE672","NZ_CP066420.1",NA,"small",0,"non-ARG-plasmid","F1_score",1,"MOB-suite","E. faecium"
"GCF_016415465.1","plasmid_AB173","NZ_CP066626.1",NA,"small",0,"non-ARG-plasmid","F1_score",0.262,"MOB-suite","E. faecium"
"GCF_016415465.1","plasmid_AC537","NZ_CP066627.1",NA,"small",0,"non-ARG-plasmid","F1_score",0.967,"MOB-suite","E. faecium"
"GCF_016415465.1","plasmid_AE672","NZ_CP066628.1",NA,"small",0,"non-ARG-plasmid","F1_score",0.961,"MOB-suite","E. faecium"
"GCF_016406545.1","plasmid_AB173","NZ_CP066412.1",NA,"small",0,"non-ARG-plasmid","F1_score",0.352,"MOB-suite","E. faecium"
"GCF_016406545.1","plasmid_AB173","NZ_CP066413.1",NA,"small",0,"non-ARG-plasmid","F1_score",0.258,"MOB-suite","E. faecium"
"GCF_016406545.1","plasmid_AE672","NZ_CP066414.1",NA,"small",0,"non-ARG-plasmid","F1_score",0.95,"MOB-suite","E. faecium"
"GCF_017584065.1","plasmid_AA893","NZ_CP071925.1",NA,"small",0,"non-ARG-plasmid","F1_score",0.951,"MOB-suite","E. faecium"
"GCF_017584065.1","plasmid_AA894","NZ_CP071928.1",NA,"small",0,"non-ARG-plasmid","F1_score",0.881,"MOB-suite","E. faecium"
"GCF_017584065.1","plasmid_AB615","NZ_CP071927.1",NA,"small",0,"non-ARG-plasmid","F1_score",0.862,"MOB-suite","E. faecium"
"GCF_016415385.1","plasmid_AC537","NZ_CP066612.1",NA,"small",0,"non-ARG-plasmid","F1_score",0.967,"MOB-suite","E. faecium"
"GCF_016415385.1","plasmid_AE672","NZ_CP066607.1",NA,"small",0,"non-ARG-plasmid","F1_score",0.961,"MOB-suite","E. faecium"
"GCF_016415385.1","plasmid_AA892","NZ_CP066611.1",NA,"small",0,"non-ARG-plasmid","F1_score",1,"MOB-suite","E. faecium"
"GCF_016126675.1","plasmid_AC534","NZ_CP065934.1",NA,"small",0,"non-ARG-plasmid","F1_score",0.769,"MOB-suite","E. faecium"
"GCF_016126675.1","plasmid_AC534","NZ_CP065935.1",NA,"small",0,"non-ARG-plasmid","F1_score",0.491,"MOB-suite","E. faecium"
"GCF_016126675.1","plasmid_AA894","NZ_CP065933.1",NA,"small",0,"non-ARG-plasmid","F1_score",1,"MOB-suite","E. faecium"
"GCF_009938285.1","plasmid_AA892","NZ_AP022344.1",NA,"small",0,"non-ARG-plasmid","F1_score",0.996,"MOB-suite","E. faecium"
"GCF_019977495.1","plasmid_AA894","NZ_AP024834.1",NA,"small",0,"non-ARG-plasmid","F1_score",0.698,"MOB-suite","E. faecium"
"GCF_019977495.1","plasmid_AA894","NZ_AP024835.1",NA,"small",0,"non-ARG-plasmid","F1_score",0.531,"MOB-suite","E. faecium"
"GCF_019977495.1","plasmid_AB613","NZ_AP024836.1",NA,"small",0,"non-ARG-plasmid","F1_score",1,"MOB-suite","E. faecium"
"GCF_016406605.1","plasmid_AB615","NZ_CP066478.1",NA,"small",0,"non-ARG-plasmid","F1_score",1,"MOB-suite","E. faecium"
"GCF_016406605.1","plasmid_AA892","NZ_CP066477.1",NA,"small",0,"non-ARG-plasmid","F1_score",0.967,"MOB-suite","E. faecium"
"GCF_028335225.1","plasmid_AB756","NZ_CP116535.1",NA,"small",2,"ARG-plasmid","F1_score",0.868,"MOB-suite","E. faecium"
"GCF_015999605.1","plasmid_AA892","NZ_CP065551.1",NA,"small",0,"non-ARG-plasmid","F1_score",0.6,"MOB-suite","E. faecium"
"GCF_015999605.1","plasmid_AA892","NZ_CP065552.1",NA,"small",0,"non-ARG-plasmid","F1_score",0.401,"MOB-suite","E. faecium"
"GCF_028335525.1","plasmid_AE816","NZ_CP116539.1",NA,"small",0,"non-ARG-plasmid","F1_score",1,"MOB-suite","E. faecium"
"GCF_021228615.1","GCF_021228615.1_bin_2","NZ_CP089323.1",NA,"small",0,"non-ARG-plasmid","accuracy",0.051,"gplas2_plasmidCC","E. faecium"
"GCF_028335525.1","GCF_028335525.1_bin_2","NZ_CP116539.1",NA,"small",0,"non-ARG-plasmid","accuracy",1,"gplas2_plasmidCC","E. faecium"
"GCF_028335225.1","GCF_028335225.1_bin_3","NZ_CP116535.1",NA,"small",2,"ARG-plasmid","accuracy",0.916,"gplas2_plasmidCC","E. faecium"
"GCF_016406365.1","GCF_016406365.1_bin_3","NZ_CP066420.1",NA,"small",0,"non-ARG-plasmid","accuracy",1,"gplas2_plasmidCC","E. faecium"
"GCF_016406365.1","GCF_016406365.1_bin_1","NZ_CP066418.1",NA,"small",0,"non-ARG-plasmid","accuracy",0.04,"gplas2_plasmidCC","E. faecium"
"GCF_016406365.1","GCF_016406365.1_bin_4","NZ_CP066420.1",NA,"small",0,"non-ARG-plasmid","accuracy",1,"gplas2_plasmidCC","E. faecium"
"GCF_016406365.1","GCF_016406365.1_bin_2","NZ_CP066419.1",NA,"small",0,"non-ARG-plasmid","accuracy",1,"gplas2_plasmidCC","E. faecium"
"GCF_016415545.1","GCF_016415545.1_bin_2","NZ_CP066658.1",NA,"small",0,"non-ARG-plasmid","accuracy",1,"gplas2_plasmidCC","E. faecium"
"GCF_016415545.1","GCF_016415545.1_bin_4","NZ_CP066657.1",NA,"small",0,"non-ARG-plasmid","accuracy",1,"gplas2_plasmidCC","E. faecium"
"GCF_016406605.1","GCF_016406605.1_bin_5","NZ_CP066478.1",NA,"small",0,"non-ARG-plasmid","accuracy",1,"gplas2_plasmidCC","E. faecium"
"GCF_016406605.1","GCF_016406605.1_bin_6","NZ_CP066479.1",NA,"small",0,"non-ARG-plasmid","accuracy",1,"gplas2_plasmidCC","E. faecium"
"GCF_016406605.1","GCF_016406605.1_bin_4","NZ_CP066477.1",NA,"small",0,"non-ARG-plasmid","accuracy",0.967,"gplas2_plasmidCC","E. faecium"
"GCF_016415445.1","GCF_016415445.1_bin_4","NZ_CP066633.1",NA,"small",0,"non-ARG-plasmid","accuracy",1,"gplas2_plasmidCC","E. faecium"
"GCF_016415445.1","GCF_016415445.1_bin_7","NZ_CP066636.1",NA,"small",0,"non-ARG-plasmid","accuracy",1,"gplas2_plasmidCC","E. faecium"
"GCF_016415445.1","GCF_016415445.1_bin_5","NZ_CP066634.1",NA,"small",0,"non-ARG-plasmid","accuracy",1,"gplas2_plasmidCC","E. faecium"
"GCF_016415445.1","GCF_016415445.1_bin_6","NZ_CP066635.1",NA,"small",0,"non-ARG-plasmid","accuracy",1,"gplas2_plasmidCC","E. faecium"
"GCF_016406585.1","GCF_016406585.1_bin_5","NZ_CP066485.1",NA,"small",0,"non-ARG-plasmid","accuracy",1,"gplas2_plasmidCC","E. faecium"
"GCF_016406585.1","GCF_016406585.1_bin_4","NZ_CP066484.1",NA,"small",0,"non-ARG-plasmid","accuracy",1,"gplas2_plasmidCC","E. faecium"
"GCF_019977495.1","GCF_019977495.1_bin_7","NZ_AP024836.1",NA,"small",0,"non-ARG-plasmid","accuracy",1,"gplas2_plasmidCC","E. faecium"
"GCF_019977495.1","GCF_019977495.1_bin_4","NZ_AP024834.1",NA,"small",0,"non-ARG-plasmid","accuracy",1,"gplas2_plasmidCC","E. faecium"
"GCF_019977495.1","GCF_019977495.1_bin_5","NZ_AP024835.1",NA,"small",0,"non-ARG-plasmid","accuracy",0.999,"gplas2_plasmidCC","E. faecium"
"GCF_016126675.1","GCF_016126675.1_bin_4","NZ_CP065933.1",NA,"small",0,"non-ARG-plasmid","accuracy",1,"gplas2_plasmidCC","E. faecium"
"GCF_016126675.1","GCF_016126675.1_bin_1","NZ_CP065934.1",NA,"small",0,"non-ARG-plasmid","accuracy",0.484,"gplas2_plasmidCC","E. faecium"
"GCF_016126675.1","GCF_016126675.1_bin_1","NZ_CP065935.1",NA,"small",0,"non-ARG-plasmid","accuracy",0.242,"gplas2_plasmidCC","E. faecium"
"GCF_016415385.1","GCF_016415385.1_bin_4","NZ_CP066607.1",NA,"small",0,"non-ARG-plasmid","accuracy",1,"gplas2_plasmidCC","E. faecium"
"GCF_016415385.1","GCF_016415385.1_bin_3","NZ_CP066612.1",NA,"small",0,"non-ARG-plasmid","accuracy",0.984,"gplas2_plasmidCC","E. faecium"
"GCF_016415385.1","GCF_016415385.1_bin_5","NZ_CP066611.1",NA,"small",0,"non-ARG-plasmid","accuracy",1,"gplas2_plasmidCC","E. faecium"
"GCF_022648125.1","GCF_022648125.1_bin_3","NZ_CP076487.1",NA,"small",0,"non-ARG-plasmid","accuracy",1,"gplas2_plasmidCC","E. faecium"
"GCF_015325925.1","GCF_015325925.1_bin_3","NZ_CP064053.1",NA,"small",0,"non-ARG-plasmid","accuracy",1,"gplas2_plasmidCC","E. faecium"
"GCF_016415465.1","GCF_016415465.1_bin_3","NZ_CP066627.1",NA,"small",0,"non-ARG-plasmid","accuracy",0.984,"gplas2_plasmidCC","E. faecium"
"GCF_016415465.1","GCF_016415465.1_bin_6","NZ_CP066626.1",NA,"small",0,"non-ARG-plasmid","accuracy",1,"gplas2_plasmidCC","E. faecium"
"GCF_016415465.1","GCF_016415465.1_bin_4","NZ_CP066628.1",NA,"small",0,"non-ARG-plasmid","accuracy",1,"gplas2_plasmidCC","E. faecium"
"GCF_016415465.1","GCF_016415465.1_bin_5","NZ_CP066626.1",NA,"small",0,"non-ARG-plasmid","accuracy",1,"gplas2_plasmidCC","E. faecium"
"GCF_016406405.1","GCF_016406405.1_bin_5","NZ_CP066441.1",NA,"small",0,"non-ARG-plasmid","accuracy",1,"gplas2_plasmidCC","E. faecium"
"GCF_016406405.1","GCF_016406405.1_bin_4","NZ_CP066439.1",NA,"small",0,"non-ARG-plasmid","accuracy",0.402,"gplas2_plasmidCC","E. faecium"
"GCF_016406405.1","GCF_016406405.1_bin_4","NZ_CP066440.1",NA,"small",0,"non-ARG-plasmid","accuracy",0.461,"gplas2_plasmidCC","E. faecium"
"GCF_009938285.1","GCF_009938285.1_bin_8","NZ_AP022344.1",NA,"small",0,"non-ARG-plasmid","accuracy",0.993,"gplas2_plasmidCC","E. faecium"
"GCF_016406545.1","GCF_016406545.1_bin_4","NZ_CP066414.1",NA,"small",0,"non-ARG-plasmid","accuracy",0.95,"gplas2_plasmidCC","E. faecium"
"GCF_016406545.1","GCF_016406545.1_bin_3","NZ_CP066413.1",NA,"small",0,"non-ARG-plasmid","accuracy",0.991,"gplas2_plasmidCC","E. faecium"
"GCF_016406545.1","GCF_016406545.1_bin_1","NZ_CP066412.1",NA,"small",0,"non-ARG-plasmid","accuracy",0.045,"gplas2_plasmidCC","E. faecium"
"GCF_015999605.1","GCF_015999605.1_bin_3","NZ_CP065551.1",NA,"small",0,"non-ARG-plasmid","accuracy",0.377,"gplas2_plasmidCC","E. faecium"
"GCF_015999605.1","GCF_015999605.1_bin_3","NZ_CP065552.1",NA,"small",0,"non-ARG-plasmid","accuracy",0.251,"gplas2_plasmidCC","E. faecium"
"GCF_016406345.1","GCF_016406345.1_bin_1","NZ_CP066469.1",NA,"small",0,"non-ARG-plasmid","accuracy",0.041,"gplas2_plasmidCC","E. faecium"
"GCF_016406345.1","GCF_016406345.1_bin_3","NZ_CP066472.1",NA,"small",0,"non-ARG-plasmid","accuracy",1,"gplas2_plasmidCC","E. faecium"
"GCF_016406345.1","GCF_016406345.1_bin_2","NZ_CP066470.1",NA,"small",0,"non-ARG-plasmid","accuracy",0.376,"gplas2_plasmidCC","E. faecium"
"GCF_016406345.1","GCF_016406345.1_bin_2","NZ_CP066471.1",NA,"small",0,"non-ARG-plasmid","accuracy",0.252,"gplas2_plasmidCC","E. faecium"
"GCF_016406345.1","GCF_016406345.1_bin_4","NZ_CP066472.1",NA,"small",0,"non-ARG-plasmid","accuracy",1,"gplas2_plasmidCC","E. faecium"
"GCF_015476295.1","GCF_015476295.1_bin_9","NZ_CP064349.1",NA,"small",0,"non-ARG-plasmid","accuracy",0.954,"gplas2_plasmidCC","E. faecium"
"GCF_015476295.1","GCF_015476295.1_bin_6","NZ_CP064347.1",NA,"small",0,"non-ARG-plasmid","accuracy",0.344,"gplas2_plasmidCC","E. faecium"
"GCF_015476295.1","GCF_015476295.1_bin_8","NZ_CP064348.1",NA,"small",0,"non-ARG-plasmid","accuracy",1,"gplas2_plasmidCC","E. faecium"
"GCF_017584065.1","GCF_017584065.1_bin_3","NZ_CP071927.1",NA,"small",0,"non-ARG-plasmid","accuracy",0.77,"gplas2_plasmidCC","E. faecium"
"GCF_017584065.1","GCF_017584065.1_bin_6","NZ_CP071926.1",NA,"small",0,"non-ARG-plasmid","accuracy",0.712,"gplas2_plasmidCC","E. faecium"
"GCF_017584065.1","GCF_017584065.1_bin_2","NZ_CP071928.1",NA,"small",0,"non-ARG-plasmid","accuracy",1,"gplas2_plasmidCC","E. faecium"
"GCF_017584065.1","GCF_017584065.1_bin_7","NZ_CP071924.1",NA,"small",0,"non-ARG-plasmid","accuracy",1,"gplas2_plasmidCC","E. faecium"
"GCF_017584065.1","GCF_017584065.1_bin_4","NZ_CP071925.1",NA,"small",0,"non-ARG-plasmid","accuracy",1,"gplas2_plasmidCC","E. faecium"
"GCF_016406485.1","GCF_016406485.1_bin_5","NZ_CP066386.1",NA,"small",0,"non-ARG-plasmid","accuracy",0.738,"gplas2_plasmidCC","E. faecium"
"GCF_016406485.1","GCF_016406485.1_bin_7","NZ_CP066388.1",NA,"small",0,"non-ARG-plasmid","accuracy",1,"gplas2_plasmidCC","E. faecium"
"GCF_016406485.1","GCF_016406485.1_bin_6","NZ_CP066387.1",NA,"small",0,"non-ARG-plasmid","accuracy",1,"gplas2_plasmidCC","E. faecium"
"GCF_021228615.1","GCF_021228615.1_bin_2","NZ_CP089323.1",NA,"small",0,"non-ARG-plasmid","completeness",0.135,"gplas2_plasmidCC","E. faecium"
"GCF_028335525.1","GCF_028335525.1_bin_2","NZ_CP116539.1",NA,"small",0,"non-ARG-plasmid","completeness",1,"gplas2_plasmidCC","E. faecium"
"GCF_028335225.1","GCF_028335225.1_bin_3","NZ_CP116535.1",NA,"small",2,"ARG-plasmid","completeness",0.938,"gplas2_plasmidCC","E. faecium"
"GCF_016406365.1","GCF_016406365.1_bin_3","NZ_CP066420.1",NA,"small",0,"non-ARG-plasmid","completeness",1,"gplas2_plasmidCC","E. faecium"
"GCF_016406365.1","GCF_016406365.1_bin_1","NZ_CP066418.1",NA,"small",0,"non-ARG-plasmid","completeness",0.804,"gplas2_plasmidCC","E. faecium"
"GCF_016406365.1","GCF_016406365.1_bin_4","NZ_CP066420.1",NA,"small",0,"non-ARG-plasmid","completeness",1,"gplas2_plasmidCC","E. faecium"
"GCF_016406365.1","GCF_016406365.1_bin_2","NZ_CP066419.1",NA,"small",0,"non-ARG-plasmid","completeness",1,"gplas2_plasmidCC","E. faecium"
"GCF_016415545.1","GCF_016415545.1_bin_2","NZ_CP066658.1",NA,"small",0,"non-ARG-plasmid","completeness",0.976,"gplas2_plasmidCC","E. faecium"
"GCF_016415545.1","GCF_016415545.1_bin_4","NZ_CP066657.1",NA,"small",0,"non-ARG-plasmid","completeness",1,"gplas2_plasmidCC","E. faecium"
"GCF_016406605.1","GCF_016406605.1_bin_5","NZ_CP066478.1",NA,"small",0,"non-ARG-plasmid","completeness",1,"gplas2_plasmidCC","E. faecium"
"GCF_016406605.1","GCF_016406605.1_bin_6","NZ_CP066479.1",NA,"small",0,"non-ARG-plasmid","completeness",1,"gplas2_plasmidCC","E. faecium"
"GCF_016406605.1","GCF_016406605.1_bin_4","NZ_CP066477.1",NA,"small",0,"non-ARG-plasmid","completeness",0.967,"gplas2_plasmidCC","E. faecium"
"GCF_016415445.1","GCF_016415445.1_bin_4","NZ_CP066633.1",NA,"small",0,"non-ARG-plasmid","completeness",1,"gplas2_plasmidCC","E. faecium"
"GCF_016415445.1","GCF_016415445.1_bin_7","NZ_CP066636.1",NA,"small",0,"non-ARG-plasmid","completeness",1,"gplas2_plasmidCC","E. faecium"
"GCF_016415445.1","GCF_016415445.1_bin_5","NZ_CP066634.1",NA,"small",0,"non-ARG-plasmid","completeness",1,"gplas2_plasmidCC","E. faecium"
"GCF_016415445.1","GCF_016415445.1_bin_6","NZ_CP066635.1",NA,"small",0,"non-ARG-plasmid","completeness",1,"gplas2_plasmidCC","E. faecium"
"GCF_016406585.1","GCF_016406585.1_bin_5","NZ_CP066485.1",NA,"small",0,"non-ARG-plasmid","completeness",1,"gplas2_plasmidCC","E. faecium"
"GCF_016406585.1","GCF_016406585.1_bin_4","NZ_CP066484.1",NA,"small",0,"non-ARG-plasmid","completeness",1,"gplas2_plasmidCC","E. faecium"
"GCF_019977495.1","GCF_019977495.1_bin_7","NZ_AP024836.1",NA,"small",0,"non-ARG-plasmid","completeness",1,"gplas2_plasmidCC","E. faecium"
"GCF_019977495.1","GCF_019977495.1_bin_4","NZ_AP024834.1",NA,"small",0,"non-ARG-plasmid","completeness",0.926,"gplas2_plasmidCC","E. faecium"
"GCF_019977495.1","GCF_019977495.1_bin_5","NZ_AP024835.1",NA,"small",0,"non-ARG-plasmid","completeness",0.926,"gplas2_plasmidCC","E. faecium"
"GCF_016126675.1","GCF_016126675.1_bin_4","NZ_CP065933.1",NA,"small",0,"non-ARG-plasmid","completeness",1,"gplas2_plasmidCC","E. faecium"
"GCF_016126675.1","GCF_016126675.1_bin_1","NZ_CP065934.1",NA,"small",0,"non-ARG-plasmid","completeness",0.909,"gplas2_plasmidCC","E. faecium"
"GCF_016126675.1","GCF_016126675.1_bin_1","NZ_CP065935.1",NA,"small",0,"non-ARG-plasmid","completeness",0.933,"gplas2_plasmidCC","E. faecium"
"GCF_016415385.1","GCF_016415385.1_bin_4","NZ_CP066607.1",NA,"small",0,"non-ARG-plasmid","completeness",0.925,"gplas2_plasmidCC","E. faecium"
"GCF_016415385.1","GCF_016415385.1_bin_3","NZ_CP066612.1",NA,"small",0,"non-ARG-plasmid","completeness",0.95,"gplas2_plasmidCC","E. faecium"
"GCF_016415385.1","GCF_016415385.1_bin_5","NZ_CP066611.1",NA,"small",0,"non-ARG-plasmid","completeness",1,"gplas2_plasmidCC","E. faecium"
"GCF_022648125.1","GCF_022648125.1_bin_3","NZ_CP076487.1",NA,"small",0,"non-ARG-plasmid","completeness",1,"gplas2_plasmidCC","E. faecium"
"GCF_015325925.1","GCF_015325925.1_bin_3","NZ_CP064053.1",NA,"small",0,"non-ARG-plasmid","completeness",1,"gplas2_plasmidCC","E. faecium"
"GCF_016415465.1","GCF_016415465.1_bin_3","NZ_CP066627.1",NA,"small",0,"non-ARG-plasmid","completeness",0.95,"gplas2_plasmidCC","E. faecium"
"GCF_016415465.1","GCF_016415465.1_bin_6","NZ_CP066626.1",NA,"small",0,"non-ARG-plasmid","completeness",1,"gplas2_plasmidCC","E. faecium"
"GCF_016415465.1","GCF_016415465.1_bin_4","NZ_CP066628.1",NA,"small",0,"non-ARG-plasmid","completeness",0.925,"gplas2_plasmidCC","E. faecium"
"GCF_016415465.1","GCF_016415465.1_bin_5","NZ_CP066626.1",NA,"small",0,"non-ARG-plasmid","completeness",1,"gplas2_plasmidCC","E. faecium"
"GCF_016406405.1","GCF_016406405.1_bin_5","NZ_CP066441.1",NA,"small",0,"non-ARG-plasmid","completeness",0.965,"gplas2_plasmidCC","E. faecium"
"GCF_016406405.1","GCF_016406405.1_bin_4","NZ_CP066439.1",NA,"small",0,"non-ARG-plasmid","completeness",0.733,"gplas2_plasmidCC","E. faecium"
"GCF_016406405.1","GCF_016406405.1_bin_4","NZ_CP066440.1",NA,"small",0,"non-ARG-plasmid","completeness",0.982,"gplas2_plasmidCC","E. faecium"
"GCF_009938285.1","GCF_009938285.1_bin_8","NZ_AP022344.1",NA,"small",0,"non-ARG-plasmid","completeness",1,"gplas2_plasmidCC","E. faecium"
"GCF_016406545.1","GCF_016406545.1_bin_4","NZ_CP066414.1",NA,"small",0,"non-ARG-plasmid","completeness",0.95,"gplas2_plasmidCC","E. faecium"
"GCF_016406545.1","GCF_016406545.1_bin_3","NZ_CP066413.1",NA,"small",0,"non-ARG-plasmid","completeness",0.991,"gplas2_plasmidCC","E. faecium"
"GCF_016406545.1","GCF_016406545.1_bin_1","NZ_CP066412.1",NA,"small",0,"non-ARG-plasmid","completeness",0.804,"gplas2_plasmidCC","E. faecium"
"GCF_015999605.1","GCF_015999605.1_bin_3","NZ_CP065551.1",NA,"small",0,"non-ARG-plasmid","completeness",0.6,"gplas2_plasmidCC","E. faecium"
"GCF_015999605.1","GCF_015999605.1_bin_3","NZ_CP065552.1",NA,"small",0,"non-ARG-plasmid","completeness",0.403,"gplas2_plasmidCC","E. faecium"
"GCF_016406345.1","GCF_016406345.1_bin_1","NZ_CP066469.1",NA,"small",0,"non-ARG-plasmid","completeness",0.867,"gplas2_plasmidCC","E. faecium"
"GCF_016406345.1","GCF_016406345.1_bin_3","NZ_CP066472.1",NA,"small",0,"non-ARG-plasmid","completeness",1,"gplas2_plasmidCC","E. faecium"
"GCF_016406345.1","GCF_016406345.1_bin_2","NZ_CP066470.1",NA,"small",0,"non-ARG-plasmid","completeness",0.599,"gplas2_plasmidCC","E. faecium"
"GCF_016406345.1","GCF_016406345.1_bin_2","NZ_CP066471.1",NA,"small",0,"non-ARG-plasmid","completeness",0.404,"gplas2_plasmidCC","E. faecium"
"GCF_016406345.1","GCF_016406345.1_bin_4","NZ_CP066472.1",NA,"small",0,"non-ARG-plasmid","completeness",1,"gplas2_plasmidCC","E. faecium"
"GCF_015476295.1","GCF_015476295.1_bin_9","NZ_CP064349.1",NA,"small",0,"non-ARG-plasmid","completeness",0.954,"gplas2_plasmidCC","E. faecium"
"GCF_015476295.1","GCF_015476295.1_bin_6","NZ_CP064347.1",NA,"small",0,"non-ARG-plasmid","completeness",0.636,"gplas2_plasmidCC","E. faecium"
"GCF_015476295.1","GCF_015476295.1_bin_8","NZ_CP064348.1",NA,"small",0,"non-ARG-plasmid","completeness",1,"gplas2_plasmidCC","E. faecium"
"GCF_017584065.1","GCF_017584065.1_bin_3","NZ_CP071927.1",NA,"small",0,"non-ARG-plasmid","completeness",0.758,"gplas2_plasmidCC","E. faecium"
"GCF_017584065.1","GCF_017584065.1_bin_6","NZ_CP071926.1",NA,"small",0,"non-ARG-plasmid","completeness",0.698,"gplas2_plasmidCC","E. faecium"
"GCF_017584065.1","GCF_017584065.1_bin_2","NZ_CP071928.1",NA,"small",0,"non-ARG-plasmid","completeness",0.938,"gplas2_plasmidCC","E. faecium"
"GCF_017584065.1","GCF_017584065.1_bin_7","NZ_CP071924.1",NA,"small",0,"non-ARG-plasmid","completeness",1,"gplas2_plasmidCC","E. faecium"
"GCF_017584065.1","GCF_017584065.1_bin_4","NZ_CP071925.1",NA,"small",0,"non-ARG-plasmid","completeness",0.906,"gplas2_plasmidCC","E. faecium"
"GCF_016406485.1","GCF_016406485.1_bin_5","NZ_CP066386.1",NA,"small",0,"non-ARG-plasmid","completeness",0.725,"gplas2_plasmidCC","E. faecium"
"GCF_016406485.1","GCF_016406485.1_bin_7","NZ_CP066388.1",NA,"small",0,"non-ARG-plasmid","completeness",1,"gplas2_plasmidCC","E. faecium"
"GCF_016406485.1","GCF_016406485.1_bin_6","NZ_CP066387.1",NA,"small",0,"non-ARG-plasmid","completeness",1,"gplas2_plasmidCC","E. faecium"
"GCF_021228615.1","GCF_021228615.1_bin_2","NZ_CP089323.1",NA,"small",0,"non-ARG-plasmid","F1_score",0.074,"gplas2_plasmidCC","E. faecium"
"GCF_028335525.1","GCF_028335525.1_bin_2","NZ_CP116539.1",NA,"small",0,"non-ARG-plasmid","F1_score",1,"gplas2_plasmidCC","E. faecium"
"GCF_028335225.1","GCF_028335225.1_bin_3","NZ_CP116535.1",NA,"small",2,"ARG-plasmid","F1_score",0.927,"gplas2_plasmidCC","E. faecium"
"GCF_016406365.1","GCF_016406365.1_bin_3","NZ_CP066420.1",NA,"small",0,"non-ARG-plasmid","F1_score",1,"gplas2_plasmidCC","E. faecium"
"GCF_016406365.1","GCF_016406365.1_bin_1","NZ_CP066418.1",NA,"small",0,"non-ARG-plasmid","F1_score",0.076,"gplas2_plasmidCC","E. faecium"
"GCF_016406365.1","GCF_016406365.1_bin_4","NZ_CP066420.1",NA,"small",0,"non-ARG-plasmid","F1_score",1,"gplas2_plasmidCC","E. faecium"
"GCF_016406365.1","GCF_016406365.1_bin_2","NZ_CP066419.1",NA,"small",0,"non-ARG-plasmid","F1_score",1,"gplas2_plasmidCC","E. faecium"
"GCF_016415545.1","GCF_016415545.1_bin_2","NZ_CP066658.1",NA,"small",0,"non-ARG-plasmid","F1_score",0.988,"gplas2_plasmidCC","E. faecium"
"GCF_016415545.1","GCF_016415545.1_bin_4","NZ_CP066657.1",NA,"small",0,"non-ARG-plasmid","F1_score",1,"gplas2_plasmidCC","E. faecium"
"GCF_016406605.1","GCF_016406605.1_bin_5","NZ_CP066478.1",NA,"small",0,"non-ARG-plasmid","F1_score",1,"gplas2_plasmidCC","E. faecium"
"GCF_016406605.1","GCF_016406605.1_bin_6","NZ_CP066479.1",NA,"small",0,"non-ARG-plasmid","F1_score",1,"gplas2_plasmidCC","E. faecium"
"GCF_016406605.1","GCF_016406605.1_bin_4","NZ_CP066477.1",NA,"small",0,"non-ARG-plasmid","F1_score",0.967,"gplas2_plasmidCC","E. faecium"
"GCF_016415445.1","GCF_016415445.1_bin_4","NZ_CP066633.1",NA,"small",0,"non-ARG-plasmid","F1_score",1,"gplas2_plasmidCC","E. faecium"
"GCF_016415445.1","GCF_016415445.1_bin_7","NZ_CP066636.1",NA,"small",0,"non-ARG-plasmid","F1_score",1,"gplas2_plasmidCC","E. faecium"
"GCF_016415445.1","GCF_016415445.1_bin_5","NZ_CP066634.1",NA,"small",0,"non-ARG-plasmid","F1_score",1,"gplas2_plasmidCC","E. faecium"
"GCF_016415445.1","GCF_016415445.1_bin_6","NZ_CP066635.1",NA,"small",0,"non-ARG-plasmid","F1_score",1,"gplas2_plasmidCC","E. faecium"
"GCF_016406585.1","GCF_016406585.1_bin_5","NZ_CP066485.1",NA,"small",0,"non-ARG-plasmid","F1_score",1,"gplas2_plasmidCC","E. faecium"
"GCF_016406585.1","GCF_016406585.1_bin_4","NZ_CP066484.1",NA,"small",0,"non-ARG-plasmid","F1_score",1,"gplas2_plasmidCC","E. faecium"
"GCF_019977495.1","GCF_019977495.1_bin_7","NZ_AP024836.1",NA,"small",0,"non-ARG-plasmid","F1_score",1,"gplas2_plasmidCC","E. faecium"
"GCF_019977495.1","GCF_019977495.1_bin_4","NZ_AP024834.1",NA,"small",0,"non-ARG-plasmid","F1_score",0.962,"gplas2_plasmidCC","E. faecium"
"GCF_019977495.1","GCF_019977495.1_bin_5","NZ_AP024835.1",NA,"small",0,"non-ARG-plasmid","F1_score",0.961,"gplas2_plasmidCC","E. faecium"
"GCF_016126675.1","GCF_016126675.1_bin_4","NZ_CP065933.1",NA,"small",0,"non-ARG-plasmid","F1_score",1,"gplas2_plasmidCC","E. faecium"
"GCF_016126675.1","GCF_016126675.1_bin_1","NZ_CP065934.1",NA,"small",0,"non-ARG-plasmid","F1_score",0.632,"gplas2_plasmidCC","E. faecium"
"GCF_016126675.1","GCF_016126675.1_bin_1","NZ_CP065935.1",NA,"small",0,"non-ARG-plasmid","F1_score",0.384,"gplas2_plasmidCC","E. faecium"
"GCF_016415385.1","GCF_016415385.1_bin_4","NZ_CP066607.1",NA,"small",0,"non-ARG-plasmid","F1_score",0.961,"gplas2_plasmidCC","E. faecium"
"GCF_016415385.1","GCF_016415385.1_bin_3","NZ_CP066612.1",NA,"small",0,"non-ARG-plasmid","F1_score",0.967,"gplas2_plasmidCC","E. faecium"
"GCF_016415385.1","GCF_016415385.1_bin_5","NZ_CP066611.1",NA,"small",0,"non-ARG-plasmid","F1_score",1,"gplas2_plasmidCC","E. faecium"
"GCF_022648125.1","GCF_022648125.1_bin_3","NZ_CP076487.1",NA,"small",0,"non-ARG-plasmid","F1_score",1,"gplas2_plasmidCC","E. faecium"
"GCF_015325925.1","GCF_015325925.1_bin_3","NZ_CP064053.1",NA,"small",0,"non-ARG-plasmid","F1_score",1,"gplas2_plasmidCC","E. faecium"
"GCF_016415465.1","GCF_016415465.1_bin_3","NZ_CP066627.1",NA,"small",0,"non-ARG-plasmid","F1_score",0.967,"gplas2_plasmidCC","E. faecium"
"GCF_016415465.1","GCF_016415465.1_bin_6","NZ_CP066626.1",NA,"small",0,"non-ARG-plasmid","F1_score",1,"gplas2_plasmidCC","E. faecium"
"GCF_016415465.1","GCF_016415465.1_bin_4","NZ_CP066628.1",NA,"small",0,"non-ARG-plasmid","F1_score",0.961,"gplas2_plasmidCC","E. faecium"
"GCF_016415465.1","GCF_016415465.1_bin_5","NZ_CP066626.1",NA,"small",0,"non-ARG-plasmid","F1_score",1,"gplas2_plasmidCC","E. faecium"
"GCF_016406405.1","GCF_016406405.1_bin_5","NZ_CP066441.1",NA,"small",0,"non-ARG-plasmid","F1_score",0.982,"gplas2_plasmidCC","E. faecium"
"GCF_016406405.1","GCF_016406405.1_bin_4","NZ_CP066439.1",NA,"small",0,"non-ARG-plasmid","F1_score",0.519,"gplas2_plasmidCC","E. faecium"
"GCF_016406405.1","GCF_016406405.1_bin_4","NZ_CP066440.1",NA,"small",0,"non-ARG-plasmid","F1_score",0.627,"gplas2_plasmidCC","E. faecium"
"GCF_009938285.1","GCF_009938285.1_bin_8","NZ_AP022344.1",NA,"small",0,"non-ARG-plasmid","F1_score",0.996,"gplas2_plasmidCC","E. faecium"
"GCF_016406545.1","GCF_016406545.1_bin_4","NZ_CP066414.1",NA,"small",0,"non-ARG-plasmid","F1_score",0.95,"gplas2_plasmidCC","E. faecium"
"GCF_016406545.1","GCF_016406545.1_bin_3","NZ_CP066413.1",NA,"small",0,"non-ARG-plasmid","F1_score",0.991,"gplas2_plasmidCC","E. faecium"
"GCF_016406545.1","GCF_016406545.1_bin_1","NZ_CP066412.1",NA,"small",0,"non-ARG-plasmid","F1_score",0.085,"gplas2_plasmidCC","E. faecium"
"GCF_015999605.1","GCF_015999605.1_bin_3","NZ_CP065551.1",NA,"small",0,"non-ARG-plasmid","F1_score",0.463,"gplas2_plasmidCC","E. faecium"
"GCF_015999605.1","GCF_015999605.1_bin_3","NZ_CP065552.1",NA,"small",0,"non-ARG-plasmid","F1_score",0.309,"gplas2_plasmidCC","E. faecium"
"GCF_016406345.1","GCF_016406345.1_bin_1","NZ_CP066469.1",NA,"small",0,"non-ARG-plasmid","F1_score",0.078,"gplas2_plasmidCC","E. faecium"
"GCF_016406345.1","GCF_016406345.1_bin_3","NZ_CP066472.1",NA,"small",0,"non-ARG-plasmid","F1_score",1,"gplas2_plasmidCC","E. faecium"
"GCF_016406345.1","GCF_016406345.1_bin_2","NZ_CP066470.1",NA,"small",0,"non-ARG-plasmid","F1_score",0.462,"gplas2_plasmidCC","E. faecium"
"GCF_016406345.1","GCF_016406345.1_bin_2","NZ_CP066471.1",NA,"small",0,"non-ARG-plasmid","F1_score",0.31,"gplas2_plasmidCC","E. faecium"
"GCF_016406345.1","GCF_016406345.1_bin_4","NZ_CP066472.1",NA,"small",0,"non-ARG-plasmid","F1_score",1,"gplas2_plasmidCC","E. faecium"
"GCF_015476295.1","GCF_015476295.1_bin_9","NZ_CP064349.1",NA,"small",0,"non-ARG-plasmid","F1_score",0.954,"gplas2_plasmidCC","E. faecium"
"GCF_015476295.1","GCF_015476295.1_bin_6","NZ_CP064347.1",NA,"small",0,"non-ARG-plasmid","F1_score",0.446,"gplas2_plasmidCC","E. faecium"
"GCF_015476295.1","GCF_015476295.1_bin_8","NZ_CP064348.1",NA,"small",0,"non-ARG-plasmid","F1_score",1,"gplas2_plasmidCC","E. faecium"
"GCF_017584065.1","GCF_017584065.1_bin_3","NZ_CP071927.1",NA,"small",0,"non-ARG-plasmid","F1_score",0.764,"gplas2_plasmidCC","E. faecium"
"GCF_017584065.1","GCF_017584065.1_bin_6","NZ_CP071926.1",NA,"small",0,"non-ARG-plasmid","F1_score",0.705,"gplas2_plasmidCC","E. faecium"
"GCF_017584065.1","GCF_017584065.1_bin_2","NZ_CP071928.1",NA,"small",0,"non-ARG-plasmid","F1_score",0.968,"gplas2_plasmidCC","E. faecium"
"GCF_017584065.1","GCF_017584065.1_bin_7","NZ_CP071924.1",NA,"small",0,"non-ARG-plasmid","F1_score",1,"gplas2_plasmidCC","E. faecium"
"GCF_017584065.1","GCF_017584065.1_bin_4","NZ_CP071925.1",NA,"small",0,"non-ARG-plasmid","F1_score",0.951,"gplas2_plasmidCC","E. faecium"
"GCF_016406485.1","GCF_016406485.1_bin_5","NZ_CP066386.1",NA,"small",0,"non-ARG-plasmid","F1_score",0.731,"gplas2_plasmidCC","E. faecium"
"GCF_016406485.1","GCF_016406485.1_bin_7","NZ_CP066388.1",NA,"small",0,"non-ARG-plasmid","F1_score",1,"gplas2_plasmidCC","E. faecium"
"GCF_016406485.1","GCF_016406485.1_bin_6","NZ_CP066387.1",NA,"small",0,"non-ARG-plasmid","F1_score",1,"gplas2_plasmidCC","E. faecium"
