"strain","bin_name","reference_id","alignment_length","bin_length","classification","Chromosome_contamination","software","species"
"GCF_023375345.1","plasmid_AC727","NZ_CP091206.1",45964,78785,"chromosome",0.433,"MOB-suite","E. faecium"
"GCF_016406565.1","plasmid_AH273","NZ_CP066427.1",26320,26320,"chromosome",1,"MOB-suite","E. faecium"
"GCF_016406345.1","plasmid_AB173","NZ_CP066466.1",35833,28918,"chromosome",0.62,"MOB-suite","E. faecium"
"GCF_016406345.1","plasmid_AH273","NZ_CP066466.1",27925,27925,"chromosome",1,"MOB-suite","E. faecium"
"GCF_028335245.1","plasmid_AC728","NZ_CP116517.1",38939,58964,"chromosome",0.096,"MOB-suite","E. faecium"
"GCF_028335605.1","plasmid_AB173","NZ_CP116546.1",14666,21519,"chromosome",0.545,"MOB-suite","E. faecium"
"GCF_028335605.1","plasmid_AD906","NZ_CP116546.1",34187,30037,"chromosome",0.182,"MOB-suite","E. faecium"
"GCF_028335605.1","plasmid_AD582","NZ_CP116546.1",40538,21140,"chromosome",0.407,"MOB-suite","E. faecium"
"GCF_023299805.1","plasmid_AC731","NZ_CP097061.1",57211,39451,"chromosome",0.906,"MOB-suite","E. faecium"
"GCF_023299805.1","plasmid_AB759","NZ_CP097061.1",1905,20125,"chromosome",0.095,"MOB-suite","E. faecium"
"GCF_023299745.1","plasmid_AC729","NZ_CP097027.1",37657,63235,"chromosome",0.208,"MOB-suite","E. faecium"
"GCF_015476295.1","plasmid_AC731","NZ_CP064343.1",67854,179218,"chromosome",0.013,"MOB-suite","E. faecium"
"GCF_015476295.1","plasmid_AD274","NZ_CP064343.1",9093,9093,"chromosome",1,"MOB-suite","E. faecium"
"GCF_016415425.1","plasmid_AH273","NZ_CP066645.1",27924,27924,"chromosome",1,"MOB-suite","E. faecium"
"GCF_019175445.1","plasmid_AC728","NZ_CP072881.1",24526,54951,"chromosome",0.028,"MOB-suite","E. faecium"
"GCF_907176815.1","plasmid_AA893","NZ_OU016032.1",6174,6174,"chromosome",1,"MOB-suite","E. faecium"
"GCF_907176815.1","plasmid_AB173","NZ_OU016027.1",62840,23115,"chromosome",0.509,"MOB-suite","E. faecium"
"GCF_907176815.1","plasmid_AB173","NZ_OU016034.1",2947,23115,"chromosome",0.127,"MOB-suite","E. faecium"
"GCF_907176815.1","plasmid_AE577","NZ_OU016031.1",3198,3199,"chromosome",1,"MOB-suite","E. faecium"
"GCF_907176815.1","plasmid_AB171","NZ_OU016029.1",40000,40098,"chromosome",0.896,"MOB-suite","E. faecium"
"GCF_907176815.1","plasmid_AE672","NZ_OU016035.1",1596,1760,"chromosome",0.907,"MOB-suite","E. faecium"
"GCF_907176815.1","plasmid_AB614","NZ_OU016030.1",5774,7546,"chromosome",0.765,"MOB-suite","E. faecium"
"GCF_907176815.1","plasmid_AC731","NZ_OU016028.1",106870,107933,"chromosome",0.939,"MOB-suite","E. faecium"
"GCF_907176815.1","plasmid_AD909","NZ_OU016028.1",45732,45732,"chromosome",1,"MOB-suite","E. faecium"
"GCF_016415445.1","plasmid_AH273","NZ_CP066629.1",18826,18826,"chromosome",1,"MOB-suite","E. faecium"
"GCF_016415445.1","plasmid_AC731","NZ_CP066629.1",131150,201648,"chromosome",0.027,"MOB-suite","E. faecium"
"GCF_016415445.1","plasmid_AC670","NZ_CP066629.1",5683,5683,"chromosome",1,"MOB-suite","E. faecium"
"GCF_028335465.1","plasmid_novel_f22703105274c5af8cc0d379229c45ad","NZ_CP116523.1",9396,72462,"chromosome",0.13,"MOB-suite","E. faecium"
"GCF_028335465.1","plasmid_AD907","NZ_CP116523.1",21467,80032,"chromosome",0.08,"MOB-suite","E. faecium"
"GCF_015999405.1","plasmid_AB756","NZ_CP065523.1",24067,36293,"chromosome",0.663,"MOB-suite","E. faecium"
"GCF_015999405.1","plasmid_AC732","NZ_CP065523.1",52012,144554,"chromosome",0.029,"MOB-suite","E. faecium"
"GCF_015999425.1","plasmid_AB756","NZ_CP065527.1",24754,24754,"chromosome",1,"MOB-suite","E. faecium"
"GCF_015999425.1","plasmid_AC733","NZ_CP065527.1",103196,178310,"chromosome",0.091,"MOB-suite","E. faecium"
"GCF_015999425.1","plasmid_AH273","NZ_CP065527.1",27606,27606,"chromosome",1,"MOB-suite","E. faecium"
"GCF_016415565.1","plasmid_AB756","NZ_CP066667.1",43534,35760,"chromosome",0.686,"MOB-suite","E. faecium"
"GCF_016415565.1","plasmid_AH273","NZ_CP066667.1",18826,18826,"chromosome",1,"MOB-suite","E. faecium"
"GCF_016415565.1","plasmid_AC670","NZ_CP066667.1",4849,4849,"chromosome",1,"MOB-suite","E. faecium"
"GCF_016415405.1","plasmid_AH273","NZ_CP066637.1",27922,27922,"chromosome",1,"MOB-suite","E. faecium"
"GCF_016415405.1","plasmid_AD910","NZ_CP066637.1",92746,63709,"chromosome",0.04,"MOB-suite","E. faecium"
"GCF_022648125.1","plasmid_AB756","NZ_CP076483.1",21352,18591,"chromosome",0.851,"MOB-suite","E. faecium"
"GCF_022648125.1","plasmid_AH273","NZ_CP076483.1",27982,27982,"chromosome",1,"MOB-suite","E. faecium"
"GCF_016406505.1","plasmid_AB756","NZ_CP066457.1",19654,16893,"chromosome",0.837,"MOB-suite","E. faecium"
"GCF_016406505.1","plasmid_AH273","NZ_CP066457.1",27983,27983,"chromosome",1,"MOB-suite","E. faecium"
"GCF_023375405.1","plasmid_AB173","NZ_CP091217.1",13433,15192,"chromosome",0.774,"MOB-suite","E. faecium"
"GCF_023375405.1","plasmid_AD268","NZ_CP091217.1",12742,12742,"chromosome",1,"MOB-suite","E. faecium"
"GCF_023299725.1","plasmid_AD100","NZ_CP097022.1",13446,37607,"chromosome",0.203,"MOB-suite","E. faecium"
"GCF_023299725.1","plasmid_AD268","NZ_CP097022.1",9434,9434,"chromosome",1,"MOB-suite","E. faecium"
"GCF_016406585.1","plasmid_AH273","NZ_CP066480.1",26801,26801,"chromosome",1,"MOB-suite","E. faecium"
"GCF_907165365.1","plasmid_AB369","NZ_OU015710.1",97391,98721,"chromosome",0.987,"MOB-suite","E. faecium"
"GCF_907165365.1","plasmid_AA893","NZ_OU015712.1",7019,7019,"chromosome",1,"MOB-suite","E. faecium"
"GCF_907165365.1","plasmid_AC733","NZ_OU015709.1",182999,185447,"chromosome",0.95,"MOB-suite","E. faecium"
"GCF_907165365.1","plasmid_AE577","NZ_OU015715.1",3221,3221,"chromosome",0.588,"MOB-suite","E. faecium"
"GCF_907165365.1","plasmid_AB171","NZ_OU015711.1",38593,38709,"chromosome",0.929,"MOB-suite","E. faecium"
"GCF_907165365.1","plasmid_AB922","NZ_OU015709.1",1741,2953,"chromosome",0.59,"MOB-suite","E. faecium"
"GCF_907165365.1","plasmid_novel_fbc8e2d47435c6d1a1e4a19665b8c8ad","NZ_OU015711.1",4083,8414,"chromosome",0.351,"MOB-suite","E. faecium"
"GCF_907165365.1","plasmid_AE672","NZ_OU015716.1",1760,1760,"chromosome",1,"MOB-suite","E. faecium"
"GCF_907165365.1","plasmid_AB117","NZ_OU015708.1",4589,4589,"chromosome",1,"MOB-suite","E. faecium"
"GCF_907176135.1","plasmid_AA893","NZ_OU015951.1",6174,6174,"chromosome",1,"MOB-suite","E. faecium"
"GCF_907176135.1","plasmid_AB173","NZ_OU015946.1",60584,23115,"chromosome",0.509,"MOB-suite","E. faecium"
"GCF_907176135.1","plasmid_AB173","NZ_OU015953.1",2947,23115,"chromosome",0.127,"MOB-suite","E. faecium"
"GCF_907176135.1","plasmid_AE577","NZ_OU015950.1",4350,3199,"chromosome",0.53,"MOB-suite","E. faecium"
"GCF_907176135.1","plasmid_AB171","NZ_OU015948.1",40000,40098,"chromosome",0.896,"MOB-suite","E. faecium"
"GCF_907176135.1","plasmid_AE672","NZ_OU015954.1",1760,1760,"chromosome",1,"MOB-suite","E. faecium"
"GCF_907176135.1","plasmid_AB614","NZ_OU015949.1",7546,7546,"chromosome",0.765,"MOB-suite","E. faecium"
"GCF_907176135.1","plasmid_AC731","NZ_OU015947.1",106894,107957,"chromosome",0.939,"MOB-suite","E. faecium"
"GCF_907176135.1","plasmid_AD909","NZ_OU015947.1",45733,45733,"chromosome",1,"MOB-suite","E. faecium"
"GCF_016406485.1","plasmid_AB756","NZ_CP066381.1",24754,24754,"chromosome",1,"MOB-suite","E. faecium"
"GCF_016406485.1","plasmid_AH273","NZ_CP066381.1",27907,27907,"chromosome",1,"MOB-suite","E. faecium"
"GCF_016406485.1","plasmid_AC630","NZ_CP066381.1",1578,1578,"chromosome",1,"MOB-suite","E. faecium"
"GCF_016406485.1","plasmid_AC732","NZ_CP066381.1",87024,241857,"chromosome",0.011,"MOB-suite","E. faecium"
"GCF_016406485.1","plasmid_AC670","NZ_CP066381.1",4809,4809,"chromosome",1,"MOB-suite","E. faecium"
"GCF_016415365.1","plasmid_AH273","NZ_CP066614.1",27925,27925,"chromosome",1,"MOB-suite","E. faecium"
"GCF_019977575.1","plasmid_AB756","NZ_AP024837.1",17191,18074,"chromosome",0.646,"MOB-suite","E. faecium"
"GCF_019977575.1","plasmid_AD906","NZ_AP024837.1",29125,40868,"chromosome",0.134,"MOB-suite","E. faecium"
"GCF_019977575.1","plasmid_AH273","NZ_AP024837.1",27916,27916,"chromosome",1,"MOB-suite","E. faecium"
"GCF_019977575.1","plasmid_AB117","NZ_AP024837.1",3285,3285,"chromosome",1,"MOB-suite","E. faecium"
"GCF_022647945.1","plasmid_AB756","NZ_CP076477.1",21354,18593,"chromosome",0.852,"MOB-suite","E. faecium"
"GCF_022647945.1","plasmid_AH273","NZ_CP076477.1",27983,27983,"chromosome",1,"MOB-suite","E. faecium"
"GCF_907177285.1","plasmid_AB369","NZ_OU016038.1",103233,107923,"chromosome",0.885,"MOB-suite","E. faecium"
"GCF_907177285.1","plasmid_AA893","NZ_OU016042.1",6174,6174,"chromosome",1,"MOB-suite","E. faecium"
"GCF_907177285.1","plasmid_AB173","NZ_OU016036.1",49250,21777,"chromosome",0.541,"MOB-suite","E. faecium"
"GCF_907177285.1","plasmid_AB173","NZ_OU016044.1",2947,21777,"chromosome",0.135,"MOB-suite","E. faecium"
"GCF_907177285.1","plasmid_AE577","NZ_OU016041.1",4525,3198,"chromosome",0.585,"MOB-suite","E. faecium"
"GCF_907177285.1","plasmid_AB171","NZ_OU016039.1",40001,40099,"chromosome",0.896,"MOB-suite","E. faecium"
"GCF_907177285.1","plasmid_AE672","NZ_OU016045.1",1760,1760,"chromosome",1,"MOB-suite","E. faecium"
"GCF_907177285.1","plasmid_AB614","NZ_OU016040.1",5774,5774,"chromosome",1,"MOB-suite","E. faecium"
"GCF_907177285.1","plasmid_AC731","NZ_OU016037.1",106083,105911,"chromosome",0.94,"MOB-suite","E. faecium"
"GCF_907177285.1","plasmid_AD268","NZ_OU016036.1",15388,10927,"chromosome",0.864,"MOB-suite","E. faecium"
"GCF_907177285.1","plasmid_AD909","NZ_OU016037.1",45732,45732,"chromosome",1,"MOB-suite","E. faecium"
"GCF_020162155.1","plasmid_AB756","NZ_CP083912.1",25941,25941,"chromosome",1,"MOB-suite","E. faecium"
"GCF_020162155.1","plasmid_AH273","NZ_CP083912.1",27922,27922,"chromosome",1,"MOB-suite","E. faecium"
"GCF_020162155.1","plasmid_AC732","NZ_CP083912.1",72648,185296,"chromosome",0.014,"MOB-suite","E. faecium"
"GCF_028335625.1","plasmid_AB173","NZ_CP116549.1",53036,27891,"chromosome",0.421,"MOB-suite","E. faecium"
"GCF_028335625.1","plasmid_AD906","NZ_CP116549.1",15700,21764,"chromosome",0.251,"MOB-suite","E. faecium"
"GCF_028335625.1","plasmid_AD582","NZ_CP116549.1",17616,26409,"chromosome",0.326,"MOB-suite","E. faecium"
"GCF_016406405.1","plasmid_AH273","NZ_CP066434.1",27919,27919,"chromosome",1,"MOB-suite","E. faecium"
"GCF_016406405.1","plasmid_AH188","NZ_CP066434.1",5461,5461,"chromosome",1,"MOB-suite","E. faecium"
"GCF_021228615.1","plasmid_AB756","NZ_CP089319.1",19901,17140,"chromosome",0.839,"MOB-suite","E. faecium"
"GCF_021228615.1","plasmid_AB173","NZ_CP089319.1",4892,30349,"chromosome",0.071,"MOB-suite","E. faecium"
"GCF_021228615.1","plasmid_AH273","NZ_CP089319.1",27914,27914,"chromosome",1,"MOB-suite","E. faecium"
"GCF_021228615.1","plasmid_AC670","NZ_CP089319.1",5685,5685,"chromosome",1,"MOB-suite","E. faecium"
"GCF_016406445.1","plasmid_AB756","NZ_CP066389.1",27582,25777,"chromosome",0.558,"MOB-suite","E. faecium"
"GCF_016406445.1","plasmid_AC731","NZ_CP066389.1",76711,95299,"chromosome",0.041,"MOB-suite","E. faecium"
"GCF_016406445.1","plasmid_AC670","NZ_CP066389.1",5685,5685,"chromosome",1,"MOB-suite","E. faecium"
"GCF_016415545.1","plasmid_AB756","NZ_CP066653.1",26000,26000,"chromosome",1,"MOB-suite","E. faecium"
"GCF_016415545.1","plasmid_AH273","NZ_CP066653.1",18826,18826,"chromosome",1,"MOB-suite","E. faecium"
"GCF_016415545.1","plasmid_AC670","NZ_CP066653.1",4849,4849,"chromosome",1,"MOB-suite","E. faecium"
"GCF_016406365.1","plasmid_AB173","NZ_CP066415.1",42906,42301,"chromosome",0.591,"MOB-suite","E. faecium"
"GCF_016406365.1","plasmid_AH273","NZ_CP066415.1",27925,27925,"chromosome",1,"MOB-suite","E. faecium"
"GCF_016415465.1","plasmid_AH273","NZ_CP066622.1",27925,27925,"chromosome",1,"MOB-suite","E. faecium"
"GCF_016406545.1","plasmid_AB173","NZ_CP066409.1",44406,42301,"chromosome",0.591,"MOB-suite","E. faecium"
"GCF_016406545.1","plasmid_AH273","NZ_CP066409.1",27925,27925,"chromosome",1,"MOB-suite","E. faecium"
"GCF_016406465.1","plasmid_AD906","NZ_CP066396.1",7005,42272,"chromosome",0.129,"MOB-suite","E. faecium"
"GCF_016406465.1","plasmid_AH273","NZ_CP066396.1",27922,27922,"chromosome",1,"MOB-suite","E. faecium"
"GCF_016406465.1","plasmid_AB977","NZ_CP066396.1",13981,85133,"chromosome",0.116,"MOB-suite","E. faecium"
"GCF_016406465.1","plasmid_AH188","NZ_CP066396.1",3117,3117,"chromosome",1,"MOB-suite","E. faecium"
"GCF_016406465.1","plasmid_AD274","NZ_CP066396.1",9088,9088,"chromosome",1,"MOB-suite","E. faecium"
"GCF_016415505.1","plasmid_AB756","NZ_CP066659.1",19654,16893,"chromosome",0.837,"MOB-suite","E. faecium"
"GCF_016415505.1","plasmid_AH273","NZ_CP066659.1",27983,27983,"chromosome",1,"MOB-suite","E. faecium"
"GCF_023375205.1","plasmid_AC730","NZ_CP088191.1",19763,83970,"chromosome",0.076,"MOB-suite","E. faecium"
"GCF_022647825.1","plasmid_AB756","NZ_CP076471.1",21354,18593,"chromosome",0.852,"MOB-suite","E. faecium"
"GCF_022647825.1","plasmid_AH273","NZ_CP076471.1",27982,27982,"chromosome",1,"MOB-suite","E. faecium"
"GCF_028335585.1","plasmid_AB756","NZ_CP116543.1",46474,86082,"chromosome",0.068,"MOB-suite","E. faecium"
"GCF_028335585.1","plasmid_AB173","NZ_CP116543.1",16521,22271,"chromosome",0.61,"MOB-suite","E. faecium"
"GCF_028335585.1","plasmid_AH273","NZ_CP116543.1",30221,30221,"chromosome",1,"MOB-suite","E. faecium"
"GCF_028335485.1","plasmid_AC729","NZ_CP116528.1",24326,66142,"chromosome",0.225,"MOB-suite","E. faecium"
"GCF_017584065.1","plasmid_AH273","NZ_CP071931.1",26577,26577,"chromosome",1,"MOB-suite","E. faecium"
"GCF_017584065.1","plasmid_AH188","NZ_CP071931.1",2674,2674,"chromosome",1,"MOB-suite","E. faecium"
"GCF_016415385.1","plasmid_AH273","NZ_CP066606.1",27925,27925,"chromosome",1,"MOB-suite","E. faecium"
"GCF_016126675.1","plasmid_AH273","NZ_CP065928.1",27925,27925,"chromosome",1,"MOB-suite","E. faecium"
"GCF_016126675.1","plasmid_AC731","NZ_CP065928.1",30981,68372,"chromosome",0.08,"MOB-suite","E. faecium"
"GCF_016126675.1","plasmid_AH188","NZ_CP065928.1",5432,5432,"chromosome",1,"MOB-suite","E. faecium"
"GCF_016406385.1","plasmid_AB756","NZ_CP066421.1",21357,18596,"chromosome",0.852,"MOB-suite","E. faecium"
"GCF_016406385.1","plasmid_AH273","NZ_CP066421.1",27922,27922,"chromosome",1,"MOB-suite","E. faecium"
"GCF_009938285.1","plasmid_AD906","NZ_AP022341.1",47510,105037,"chromosome",0.052,"MOB-suite","E. faecium"
"GCF_009938285.1","plasmid_AH273","NZ_AP022341.1",27820,27820,"chromosome",1,"MOB-suite","E. faecium"
"GCF_009938285.1","plasmid_AC670","NZ_AP022341.1",5682,5685,"chromosome",0.999,"MOB-suite","E. faecium"
"GCF_019977495.1","plasmid_AB756","NZ_AP024831.1",17188,14431,"chromosome",0.809,"MOB-suite","E. faecium"
"GCF_019977495.1","plasmid_AH273","NZ_AP024831.1",27916,27916,"chromosome",1,"MOB-suite","E. faecium"
"GCF_019977495.1","plasmid_novel_85b037556cfb6b6c298663e9f795dca8","NZ_AP024831.1",48823,30338,"chromosome",0.18,"MOB-suite","E. faecium"
"GCF_019977495.1","plasmid_AB117","NZ_AP024831.1",3285,3285,"chromosome",1,"MOB-suite","E. faecium"
"GCF_016406605.1","plasmid_AB756","NZ_CP066473.1",19654,16893,"chromosome",0.837,"MOB-suite","E. faecium"
"GCF_016406605.1","plasmid_AH273","NZ_CP066473.1",27982,27982,"chromosome",1,"MOB-suite","E. faecium"
"GCF_015325925.1","plasmid_AB756","NZ_CP064049.1",8304,6946,"chromosome",0.401,"MOB-suite","E. faecium"
"GCF_015325925.1","plasmid_AH273","NZ_CP064049.1",26576,26576,"chromosome",1,"MOB-suite","E. faecium"
"GCF_023375385.1","plasmid_AC728","NZ_CP091213.1",65970,49114,"chromosome",0.503,"MOB-suite","E. faecium"
"GCF_023375385.1","plasmid_AC729","NZ_CP091213.1",11329,43668,"chromosome",0.096,"MOB-suite","E. faecium"
"GCF_028335565.1","plasmid_AB173","NZ_CP116540.1",14666,21518,"chromosome",0.545,"MOB-suite","E. faecium"
"GCF_028335565.1","plasmid_AD906","NZ_CP116540.1",34195,30038,"chromosome",0.182,"MOB-suite","E. faecium"
"GCF_028335565.1","plasmid_AD582","NZ_CP116540.1",40538,21140,"chromosome",0.407,"MOB-suite","E. faecium"
"GCF_028335265.1","plasmid_AC728","NZ_CP116520.1",24652,58427,"chromosome",0.019,"MOB-suite","E. faecium"
"GCF_016406425.1","plasmid_AH273","NZ_CP066451.1",27925,27925,"chromosome",1,"MOB-suite","E. faecium"
"GCF_019175465.1","plasmid_AC727","NZ_CP072884.1",16072,134634,"chromosome",0.073,"MOB-suite","E. faecium"
"GCF_016415325.1","plasmid_AH273","NZ_CP066591.1",27925,27925,"chromosome",1,"MOB-suite","E. faecium"
"GCF_020162175.1","plasmid_AB756","NZ_CP083920.1",25941,25941,"chromosome",1,"MOB-suite","E. faecium"
"GCF_020162175.1","plasmid_AH273","NZ_CP083920.1",27922,27922,"chromosome",1,"MOB-suite","E. faecium"
"GCF_020162175.1","plasmid_AC732","NZ_CP083920.1",112523,190159,"chromosome",0.04,"MOB-suite","E. faecium"
"GCF_028335225.1","plasmid_novel_e98a902c460b9a7d666e28fdebc783db","NZ_CP116532.1",6426,45001,"chromosome",0.143,"MOB-suite","E. faecium"
"GCF_023299325.1","plasmid_AC345","NZ_CP097014.1",18970,18970,"chromosome",1,"MOB-suite","E. faecium"
"GCF_023299325.1","plasmid_AD908","NZ_CP097014.1",49169,54052,"chromosome",0.744,"MOB-suite","E. faecium"
"GCF_023299325.1","plasmid_AC726","NZ_CP097014.1",32654,54205,"chromosome",0.199,"MOB-suite","E. faecium"
"GCF_016415485.1","plasmid_AB756","NZ_CP066673.1",34622,39983,"chromosome",0.758,"MOB-suite","E. faecium"
"GCF_016415485.1","plasmid_AD906","NZ_CP066673.1",48218,41119,"chromosome",0.458,"MOB-suite","E. faecium"
"GCF_016415485.1","plasmid_AC729","NZ_CP066673.1",20046,33493,"chromosome",0.599,"MOB-suite","E. faecium"
"GCF_016415485.1","plasmid_AH273","NZ_CP066673.1",27902,27902,"chromosome",1,"MOB-suite","E. faecium"
"GCF_016415485.1","plasmid_AD910","NZ_CP066673.1",77941,97374,"chromosome",0.023,"MOB-suite","E. faecium"
"GCF_016415485.1","plasmid_AC731","NZ_CP066673.1",60629,87906,"chromosome",0.424,"MOB-suite","E. faecium"
"GCF_016415485.1","plasmid_AH188","NZ_CP066673.1",2182,2182,"chromosome",1,"MOB-suite","E. faecium"
"GCF_015999605.1","plasmid_AH273","NZ_CP065547.1",27925,27925,"chromosome",1,"MOB-suite","E. faecium"
"GCF_019175525.1","plasmid_AD906","NZ_CP072894.1",52330,27144,"chromosome",0.855,"MOB-suite","E. faecium"
"GCF_026409165.1","plasmid_AB756","NZ_CP112862.1",16536,12383,"chromosome",0.666,"MOB-suite","E. faecium"
"GCF_026409165.1","plasmid_AH273","NZ_CP112862.1",27909,27909,"chromosome",1,"MOB-suite","E. faecium"
"GCF_026409165.1","plasmid_AC670","NZ_CP112862.1",5686,5686,"chromosome",1,"MOB-suite","E. faecium"
"GCF_028335205.1","plasmid_AC729","NZ_CP116514.1",24462,70968,"chromosome",0.209,"MOB-suite","E. faecium"
"GCF_028335205.1","plasmid_AE672","NZ_CP116514.1",2029,5274,"chromosome",0.385,"MOB-suite","E. faecium"
"GCF_016406525.1","plasmid_AD906","NZ_CP066443.1",12979,47641,"chromosome",0.115,"MOB-suite","E. faecium"
"GCF_016406525.1","plasmid_AH273","NZ_CP066443.1",27925,27925,"chromosome",1,"MOB-suite","E. faecium"
"GCF_028335525.1","plasmid_AC729","NZ_CP116536.1",4147,62296,"chromosome",0.067,"MOB-suite","E. faecium"
"GCF_019977575.1","bin_component_1","NZ_AP024837.1",30057,30068,"chromosome",1,"plasmidSPAdes","E. faecium"
"GCF_019977575.1","bin_component_0","NZ_AP024837.1",86480,144744,"chromosome",0.329,"plasmidSPAdes","E. faecium"
"GCF_028335585.1","bin_component_0","NZ_CP116543.1",96738,295056,"chromosome",0.065,"plasmidSPAdes","E. faecium"
"GCF_016406425.1","bin_component_0","NZ_CP066451.1",114027,157423,"chromosome",0.1,"plasmidSPAdes","E. faecium"
"GCF_028335265.1","bin_component_0","NZ_CP116520.1",10397,55274,"chromosome",0.088,"plasmidSPAdes","E. faecium"
"GCF_016406405.1","bin_component_0","NZ_CP066434.1",212527,295206,"chromosome",0.301,"plasmidSPAdes","E. faecium"
"GCF_020162155.1","bin_component_1","NZ_CP083912.1",10488,10488,"chromosome",1,"plasmidSPAdes","E. faecium"
"GCF_020162155.1","bin_component_0","NZ_CP083912.1",174613,319502,"chromosome",0.126,"plasmidSPAdes","E. faecium"
"GCF_016415505.1","bin_component_0","NZ_CP066659.1",186826,378161,"chromosome",0.25,"plasmidSPAdes","E. faecium"
"GCF_015999405.1","bin_component_0","NZ_CP065523.1",82403,251698,"chromosome",0.233,"plasmidSPAdes","E. faecium"
"GCF_016415445.1","bin_component_1","NZ_CP066629.1",54585,54724,"chromosome",0.997,"plasmidSPAdes","E. faecium"
"GCF_016415445.1","bin_component_0","NZ_CP066629.1",148428,251395,"chromosome",0.258,"plasmidSPAdes","E. faecium"
"GCF_028335625.1","bin_component_0","NZ_CP116549.1",41527,68177,"chromosome",0.142,"plasmidSPAdes","E. faecium"
"GCF_019456595.1","bin_component_1","NZ_CP074109.1",31994,11170,"chromosome",0.326,"plasmidSPAdes","E. faecium"
"GCF_019456595.1","bin_component_0","NZ_CP074109.1",32082,168911,"chromosome",0.038,"plasmidSPAdes","E. faecium"
"GCF_016415485.1","bin_component_0","NZ_CP066673.1",155937,270135,"chromosome",0.12,"plasmidSPAdes","E. faecium"
"GCF_016415365.1","bin_component_0","NZ_CP066614.1",97899,159622,"chromosome",0.116,"plasmidSPAdes","E. faecium"
"GCF_023375225.1","bin_component_0","NZ_CP088195.1",1603,38919,"chromosome",0.041,"plasmidSPAdes","E. faecium"
"GCF_016406465.1","bin_component_0","NZ_CP066396.1",291430,432312,"chromosome",0.512,"plasmidSPAdes","E. faecium"
"GCF_016406365.1","bin_component_0","NZ_CP066415.1",226957,299671,"chromosome",0.354,"plasmidSPAdes","E. faecium"
"GCF_023375385.1","bin_component_0","NZ_CP091213.1",66245,45310,"chromosome",0.253,"plasmidSPAdes","E. faecium"
"GCF_016406525.1","bin_component_0","NZ_CP066443.1",128771,157933,"chromosome",0.102,"plasmidSPAdes","E. faecium"
"GCF_016406345.1","bin_component_0","NZ_CP066466.1",110441,120412,"chromosome",0.15,"plasmidSPAdes","E. faecium"
"GCF_023375405.1","bin_component_0","NZ_CP091217.1",8677,34401,"chromosome",0.248,"plasmidSPAdes","E. faecium"
"GCF_016415405.1","bin_component_0","NZ_CP066637.1",334582,371542,"chromosome",0.461,"plasmidSPAdes","E. faecium"
"GCF_016415405.1","bin_component_2","NZ_CP066637.1",54566,54603,"chromosome",0.999,"plasmidSPAdes","E. faecium"
"GCF_016406385.1","bin_component_0","NZ_CP066421.1",112479,154377,"chromosome",0.175,"plasmidSPAdes","E. faecium"
"GCF_026409165.1","bin_component_0","NZ_CP112862.1",98888,148501,"chromosome",0.178,"plasmidSPAdes","E. faecium"
"GCF_016406565.1","bin_component_0","NZ_CP066427.1",107003,150229,"chromosome",0.099,"plasmidSPAdes","E. faecium"
"GCF_016406565.1","bin_component_2","NZ_CP066427.1",1971,2048,"chromosome",0.962,"plasmidSPAdes","E. faecium"
"GCF_016415425.1","bin_component_1","NZ_CP066645.1",21665,21830,"chromosome",0.992,"plasmidSPAdes","E. faecium"
"GCF_016415425.1","bin_component_0","NZ_CP066645.1",631036,651580,"chromosome",0.768,"plasmidSPAdes","E. faecium"
"GCF_015999425.1","bin_component_0","NZ_CP065527.1",96849,111769,"chromosome",0.569,"plasmidSPAdes","E. faecium"
"GCF_016415325.1","bin_component_1","NZ_CP066591.1",54566,54603,"chromosome",0.999,"plasmidSPAdes","E. faecium"
"GCF_016415325.1","bin_component_0","NZ_CP066591.1",156018,205414,"chromosome",0.355,"plasmidSPAdes","E. faecium"
"GCF_016126675.1","bin_component_0","NZ_CP065928.1",75718,171177,"chromosome",0.11,"plasmidSPAdes","E. faecium"
"GCF_016415385.1","bin_component_0","NZ_CP066606.1",914655,995039,"chromosome",0.791,"plasmidSPAdes","E. faecium"
"GCF_028335205.1","bin_component_0","NZ_CP116514.1",5423,63203,"chromosome",0.065,"plasmidSPAdes","E. faecium"
"GCF_028335225.1","bin_component_0","NZ_CP116532.1",7297,56557,"chromosome",0.129,"plasmidSPAdes","E. faecium"
"GCF_022647945.1","bin_component_0","NZ_CP076477.1",83490,297583,"chromosome",0.051,"plasmidSPAdes","E. faecium"
"GCF_907177285.1","bin_component_1","NZ_OU016042.1",6174,6301,"chromosome",0.96,"plasmidSPAdes","E. faecium"
"GCF_907177285.1","bin_component_3","NZ_OU016044.1",2947,3074,"chromosome",0.917,"plasmidSPAdes","E. faecium"
"GCF_907177285.1","bin_component_0","NZ_OU016038.1",103236,177154,"chromosome",0.535,"plasmidSPAdes","E. faecium"
"GCF_907177285.1","bin_component_0","NZ_OU016037.1",20490,177154,"chromosome",0.089,"plasmidSPAdes","E. faecium"
"GCF_907177285.1","bin_component_0","NZ_OU016036.1",94284,177154,"chromosome",0.167,"plasmidSPAdes","E. faecium"
"GCF_907177285.1","bin_component_0","NZ_OU016040.1",7670,177154,"chromosome",0.033,"plasmidSPAdes","E. faecium"
"GCF_907177285.1","bin_component_2","NZ_OU016041.1",6501,5682,"chromosome",0.61,"plasmidSPAdes","E. faecium"
"GCF_016415465.1","bin_component_0","NZ_CP066622.1",109670,154455,"chromosome",0.083,"plasmidSPAdes","E. faecium"
"GCF_019456555.1","bin_component_1","NZ_CP074105.1",31994,11170,"chromosome",0.326,"plasmidSPAdes","E. faecium"
"GCF_019456555.1","bin_component_0","NZ_CP074105.1",35052,169616,"chromosome",0.028,"plasmidSPAdes","E. faecium"
"GCF_028335485.1","bin_component_0","NZ_CP116528.1",5548,56281,"chromosome",0.099,"plasmidSPAdes","E. faecium"
"GCF_023375365.1","bin_component_0","NZ_CP091210.1",43667,112162,"chromosome",0.109,"plasmidSPAdes","E. faecium"
"GCF_016406585.1","bin_component_0","NZ_CP066480.1",104996,140042,"chromosome",0.094,"plasmidSPAdes","E. faecium"
"GCF_028335525.1","bin_component_1","NZ_CP116536.1",32427,11241,"chromosome",0.342,"plasmidSPAdes","E. faecium"
"GCF_020162175.1","bin_component_0","NZ_CP083920.1",257353,290538,"chromosome",0.617,"plasmidSPAdes","E. faecium"
"GCF_028335245.1","bin_component_0","NZ_CP116517.1",66727,189735,"chromosome",0.071,"plasmidSPAdes","E. faecium"
"GCF_019175525.1","bin_component_0","NZ_CP072894.1",58873,66197,"chromosome",0.211,"plasmidSPAdes","E. faecium"
"GCF_028335565.1","bin_component_0","NZ_CP116540.1",39362,26395,"chromosome",0.282,"plasmidSPAdes","E. faecium"
"GCF_016406445.1","bin_component_0","NZ_CP066389.1",322914,312208,"chromosome",0.6,"plasmidSPAdes","E. faecium"
"GCF_907176815.1","bin_component_1","NZ_OU016032.1",6174,6301,"chromosome",0.96,"plasmidSPAdes","E. faecium"
"GCF_907176815.1","bin_component_3","NZ_OU016034.1",2947,3074,"chromosome",0.917,"plasmidSPAdes","E. faecium"
"GCF_907176815.1","bin_component_0","NZ_OU016030.1",6479,57427,"chromosome",0.113,"plasmidSPAdes","E. faecium"
"GCF_907176815.1","bin_component_0","NZ_OU016028.1",4897,57427,"chromosome",0.066,"plasmidSPAdes","E. faecium"
"GCF_907176815.1","bin_component_0","NZ_OU016027.1",88115,57427,"chromosome",0.485,"plasmidSPAdes","E. faecium"
"GCF_907176815.1","bin_component_0","NZ_OU016029.1",5624,57427,"chromosome",0.051,"plasmidSPAdes","E. faecium"
"GCF_907176815.1","bin_component_2","NZ_OU016031.1",5428,5683,"chromosome",0.91,"plasmidSPAdes","E. faecium"
"GCF_016415565.1","bin_component_0","NZ_CP066667.1",310599,280327,"chromosome",0.71,"plasmidSPAdes","E. faecium"
"GCF_022648125.1","bin_component_0","NZ_CP076483.1",91535,385003,"chromosome",0.034,"plasmidSPAdes","E. faecium"
"GCF_015999605.1","bin_component_0","NZ_CP065547.1",118452,152666,"chromosome",0.117,"plasmidSPAdes","E. faecium"
"GCF_016406505.1","bin_component_0","NZ_CP066457.1",230920,503216,"chromosome",0.275,"plasmidSPAdes","E. faecium"
"GCF_907165365.1","bin_component_1","NZ_OU015712.1",6967,7146,"chromosome",0.975,"plasmidSPAdes","E. faecium"
"GCF_907165365.1","bin_component_0","NZ_OU015710.1",100317,206062,"chromosome",0.472,"plasmidSPAdes","E. faecium"
"GCF_907165365.1","bin_component_0","NZ_OU015711.1",44020,206062,"chromosome",0.188,"plasmidSPAdes","E. faecium"
"GCF_907165365.1","bin_component_0","NZ_OU015709.1",19599,206062,"chromosome",0.074,"plasmidSPAdes","E. faecium"
"GCF_907165365.1","bin_component_0","NZ_OU015708.1",118463,206062,"chromosome",0.094,"plasmidSPAdes","E. faecium"
"GCF_907165365.1","bin_component_2","NZ_OU015714.1",3304,5705,"chromosome",0.324,"plasmidSPAdes","E. faecium"
"GCF_907165365.1","bin_component_2","NZ_OU015715.1",3221,5705,"chromosome",0.31,"plasmidSPAdes","E. faecium"
"GCF_019977495.1","bin_component_0","NZ_AP024831.1",76426,202488,"chromosome",0.155,"plasmidSPAdes","E. faecium"
"GCF_023299325.1","bin_component_0","NZ_CP097014.1",32472,263402,"chromosome",0.019,"plasmidSPAdes","E. faecium"
"GCF_016415545.1","bin_component_0","NZ_CP066653.1",222131,201468,"chromosome",0.615,"plasmidSPAdes","E. faecium"
"GCF_016406485.1","bin_component_0","NZ_CP066381.1",124201,273229,"chromosome",0.078,"plasmidSPAdes","E. faecium"
"GCF_016406545.1","bin_component_0","NZ_CP066409.1",96550,123072,"chromosome",0.153,"plasmidSPAdes","E. faecium"
"GCF_028335465.1","bin_component_0","NZ_CP116523.1",20696,179080,"chromosome",0.062,"plasmidSPAdes","E. faecium"
"GCF_015325925.1","bin_component_0","NZ_CP064049.1",55225,141679,"chromosome",0.348,"plasmidSPAdes","E. faecium"
"GCF_023299805.1","bin_component_0","NZ_CP097061.1",66196,178408,"chromosome",0.107,"plasmidSPAdes","E. faecium"
"GCF_022647825.1","bin_component_0","NZ_CP076471.1",82810,284053,"chromosome",0.051,"plasmidSPAdes","E. faecium"
"GCF_016406605.1","bin_component_0","NZ_CP066473.1",91523,174048,"chromosome",0.154,"plasmidSPAdes","E. faecium"
"GCF_015476295.1","bin_component_0","NZ_CP064343.1",229887,377260,"chromosome",0.4,"plasmidSPAdes","E. faecium"
"GCF_023299745.1","bin_component_0","NZ_CP097027.1",95229,149440,"chromosome",0.355,"plasmidSPAdes","E. faecium"
"GCF_017584065.1","bin_component_0","NZ_CP071931.1",129766,181324,"chromosome",0.442,"plasmidSPAdes","E. faecium"
"GCF_019175425.1","bin_component_0","NZ_CP072878.1",42593,295706,"chromosome",0.139,"plasmidSPAdes","E. faecium"
"GCF_019456575.1","bin_component_1","NZ_CP074107.1",33175,11450,"chromosome",0.345,"plasmidSPAdes","E. faecium"
"GCF_019456575.1","bin_component_0","NZ_CP074107.1",30284,169493,"chromosome",0.027,"plasmidSPAdes","E. faecium"
"GCF_021398505.1","bin_component_0","NZ_CP083179.1",39636,197460,"chromosome",0.021,"plasmidSPAdes","E. faecium"
"GCF_028335605.1","bin_component_1","NZ_CP116546.1",39360,26394,"chromosome",0.282,"plasmidSPAdes","E. faecium"
"GCF_019175445.1","bin_component_0","NZ_CP072881.1",55475,74722,"chromosome",0.116,"plasmidSPAdes","E. faecium"
"GCF_023375345.1","bin_component_0","NZ_CP091206.1",186326,321197,"chromosome",0.375,"plasmidSPAdes","E. faecium"
"GCF_023375445.1","bin_component_0","NZ_CP091224.1",19652,46057,"chromosome",0.155,"plasmidSPAdes","E. faecium"
"GCF_009938285.1","bin_component_0","NZ_AP022341.1",136574,260676,"chromosome",0.216,"plasmidSPAdes","E. faecium"
"GCF_021228615.1","bin_component_0","NZ_CP089319.1",147969,141846,"chromosome",0.207,"plasmidSPAdes","E. faecium"
"GCF_907176135.1","bin_component_1","NZ_OU015951.1",6174,6301,"chromosome",0.96,"plasmidSPAdes","E. faecium"
"GCF_907176135.1","bin_component_3","NZ_OU015953.1",2947,3074,"chromosome",0.917,"plasmidSPAdes","E. faecium"
"GCF_907176135.1","bin_component_0","NZ_OU015946.1",64113,53599,"chromosome",0.573,"plasmidSPAdes","E. faecium"
"GCF_907176135.1","bin_component_0","NZ_OU015947.1",3579,53599,"chromosome",0.046,"plasmidSPAdes","E. faecium"
"GCF_907176135.1","bin_component_0","NZ_OU015949.1",7670,53599,"chromosome",0.141,"plasmidSPAdes","E. faecium"
"GCF_907176135.1","bin_component_0","NZ_OU015948.1",5625,53599,"chromosome",0.055,"plasmidSPAdes","E. faecium"
"GCF_907176135.1","bin_component_2","NZ_OU015950.1",6503,5683,"chromosome",0.588,"plasmidSPAdes","E. faecium"
"GCF_023299725.1","bin_component_0","NZ_CP097022.1",7597,79436,"chromosome",0.096,"plasmidSPAdes","E. faecium"
"GCF_020162175.1","GCF_020162175.1_bin_1","NZ_CP083920.1",82937,225792,"chromosome",0.028,"gplas2","E. faecium"
"GCF_023375445.1","GCF_023375445.1_bin_1","NZ_CP091224.1",18163,39388,"chromosome",0.163,"gplas2","E. faecium"
"GCF_028335585.1","GCF_028335585.1_bin_1","NZ_CP116543.1",41751,221014,"chromosome",0.008,"gplas2","E. faecium"
"GCF_023375365.1","GCF_023375365.1_bin_2","NZ_CP091210.1",12749,24004,"chromosome",0.145,"gplas2","E. faecium"
"GCF_907176815.1","GCF_907176815.1_bin_6","NZ_OU016031.1",3303,3304,"chromosome",1,"gplas2","E. faecium"
"GCF_907176815.1","GCF_907176815.1_bin_7","NZ_OU016031.1",1871,1871,"chromosome",1,"gplas2","E. faecium"
"GCF_907176815.1","GCF_907176815.1_bin_10","NZ_OU016034.1",2947,2947,"chromosome",1,"gplas2","E. faecium"
"GCF_907176815.1","GCF_907176815.1_bin_9","NZ_OU016032.1",6174,6174,"chromosome",1,"gplas2","E. faecium"
"GCF_907176815.1","GCF_907176815.1_bin_2","NZ_OU016028.1",51886,51886,"chromosome",0.928,"gplas2","E. faecium"
"GCF_907176815.1","GCF_907176815.1_bin_8","NZ_OU016035.1",1596,1760,"chromosome",0.907,"gplas2","E. faecium"
"GCF_907176815.1","GCF_907176815.1_bin_4","NZ_OU016030.1",5774,7546,"chromosome",0.765,"gplas2","E. faecium"
"GCF_907176815.1","GCF_907176815.1_bin_1","NZ_OU016028.1",68653,107329,"chromosome",0.617,"gplas2","E. faecium"
"GCF_907176815.1","GCF_907176815.1_bin_1","NZ_OU016029.1",41128,107329,"chromosome",0.335,"gplas2","E. faecium"
"GCF_907176815.1","GCF_907176815.1_bin_5","NZ_OU016033.1",4206,4206,"chromosome",1,"gplas2","E. faecium"
"GCF_907176815.1","GCF_907176815.1_bin_3","NZ_OU016028.1",66661,64889,"chromosome",0.945,"gplas2","E. faecium"
"GCF_023299325.1","GCF_023299325.1_bin_1","NZ_CP097014.1",112168,251346,"chromosome",0.242,"gplas2","E. faecium"
"GCF_016406545.1","GCF_016406545.1_bin_1","NZ_CP066409.1",220095,247037,"chromosome",0.246,"gplas2","E. faecium"
"GCF_028335265.1","GCF_028335265.1_bin_1","NZ_CP116520.1",41462,159813,"chromosome",0.11,"gplas2","E. faecium"
"GCF_019977575.1","GCF_019977575.1_bin_1","NZ_AP024837.1",69236,195288,"chromosome",0.02,"gplas2","E. faecium"
"GCF_023299725.1","GCF_023299725.1_bin_1","NZ_CP097022.1",50109,192666,"chromosome",0.073,"gplas2","E. faecium"
"GCF_028335465.1","GCF_028335465.1_bin_1","NZ_CP116523.1",17384,215230,"chromosome",0.03,"gplas2","E. faecium"
"GCF_023375385.1","GCF_023375385.1_bin_1","NZ_CP091213.1",65097,184499,"chromosome",0.157,"gplas2","E. faecium"
"GCF_019175525.1","GCF_019175525.1_bin_2","NZ_CP072894.1",23530,19006,"chromosome",0.921,"gplas2","E. faecium"
"GCF_016415405.1","GCF_016415405.1_bin_1","NZ_CP066637.1",66277,122507,"chromosome",0.012,"gplas2","E. faecium"
"GCF_023375345.1","GCF_023375345.1_bin_1","NZ_CP091206.1",37197,172095,"chromosome",0.191,"gplas2","E. faecium"
"GCF_016415545.1","GCF_016415545.1_bin_1","NZ_CP066653.1",92563,129814,"chromosome",0.049,"gplas2","E. faecium"
"GCF_028335225.1","GCF_028335225.1_bin_1","NZ_CP116532.1",22082,192293,"chromosome",0.077,"gplas2","E. faecium"
"GCF_019977495.1","GCF_019977495.1_bin_2","NZ_AP024831.1",31427,80528,"chromosome",0.049,"gplas2","E. faecium"
"GCF_907165365.1","GCF_907165365.1_bin_7","NZ_OU015716.1",1760,1760,"chromosome",1,"gplas2","E. faecium"
"GCF_907165365.1","GCF_907165365.1_bin_6","NZ_OU015715.1",1893,1893,"chromosome",1,"gplas2","E. faecium"
"GCF_907165365.1","GCF_907165365.1_bin_4","NZ_OU015713.1",4206,4206,"chromosome",1,"gplas2","E. faecium"
"GCF_907165365.1","GCF_907165365.1_bin_8","NZ_OU015712.1",7019,7019,"chromosome",1,"gplas2","E. faecium"
"GCF_907165365.1","GCF_907165365.1_bin_5","NZ_OU015714.1",3304,3304,"chromosome",0.598,"gplas2","E. faecium"
"GCF_907165365.1","GCF_907165365.1_bin_1","NZ_OU015709.1",51638,47540,"chromosome",0.94,"gplas2","E. faecium"
"GCF_907165365.1","GCF_907165365.1_bin_3","NZ_OU015709.1",141363,137265,"chromosome",0.943,"gplas2","E. faecium"
"GCF_907165365.1","GCF_907165365.1_bin_2","NZ_OU015711.1",41548,139943,"chromosome",0.278,"gplas2","E. faecium"
"GCF_907165365.1","GCF_907165365.1_bin_2","NZ_OU015710.1",98603,139943,"chromosome",0.696,"gplas2","E. faecium"
"GCF_907165365.1","GCF_907165365.1_bin_2","NZ_OU015709.1",1110,139943,"chromosome",0.008,"gplas2","E. faecium"
"GCF_023375205.1","GCF_023375205.1_bin_1","NZ_CP088191.1",31818,183252,"chromosome",0.09,"gplas2","E. faecium"
"GCF_026409165.1","GCF_026409165.1_bin_3","NZ_CP112862.1",16920,54572,"chromosome",0.104,"gplas2","E. faecium"
"GCF_009938285.1","GCF_009938285.1_bin_4","NZ_AP022341.1",18368,10940,"chromosome",0.519,"gplas2","E. faecium"
"GCF_028335485.1","GCF_028335485.1_bin_1","NZ_CP116528.1",22082,190295,"chromosome",0.078,"gplas2","E. faecium"
"GCF_023299745.1","GCF_023299745.1_bin_1","NZ_CP097027.1",72229,187031,"chromosome",0.157,"gplas2","E. faecium"
"GCF_020162155.1","GCF_020162155.1_bin_1","NZ_CP083912.1",74048,219324,"chromosome",0.006,"gplas2","E. faecium"
"GCF_023375425.1","GCF_023375425.1_bin_1","NZ_CP091221.1",17596,169963,"chromosome",0.089,"gplas2","E. faecium"
"GCF_015999425.1","GCF_015999425.1_bin_4","NZ_CP065527.1",43053,55639,"chromosome",0.285,"gplas2","E. faecium"
"GCF_015999425.1","GCF_015999425.1_bin_3","NZ_CP065527.1",68707,65322,"chromosome",0.57,"gplas2","E. faecium"
"GCF_016406485.1","GCF_016406485.1_bin_2","NZ_CP066381.1",67670,164826,"chromosome",0.046,"gplas2","E. faecium"
"GCF_016406365.1","GCF_016406365.1_bin_1","NZ_CP066415.1",146480,162159,"chromosome",0.375,"gplas2","E. faecium"
"GCF_016415565.1","GCF_016415565.1_bin_1","NZ_CP066667.1",97665,131191,"chromosome",0.037,"gplas2","E. faecium"
"GCF_907176135.1","GCF_907176135.1_bin_5","NZ_OU015950.1",4350,3199,"chromosome",0.53,"gplas2","E. faecium"
"GCF_907176135.1","GCF_907176135.1_bin_1","NZ_OU015948.1",41128,226675,"chromosome",0.159,"gplas2","E. faecium"
"GCF_907176135.1","GCF_907176135.1_bin_1","NZ_OU015947.1",187225,226675,"chromosome",0.775,"gplas2","E. faecium"
"GCF_907176135.1","GCF_907176135.1_bin_4","NZ_OU015950.1",4632,3304,"chromosome",0.598,"gplas2","E. faecium"
"GCF_907176135.1","GCF_907176135.1_bin_3","NZ_OU015952.1",4206,4206,"chromosome",1,"gplas2","E. faecium"
"GCF_907176135.1","GCF_907176135.1_bin_8","NZ_OU015953.1",2947,2947,"chromosome",1,"gplas2","E. faecium"
"GCF_907176135.1","GCF_907176135.1_bin_7","NZ_OU015951.1",6174,6174,"chromosome",1,"gplas2","E. faecium"
"GCF_907176135.1","GCF_907176135.1_bin_6","NZ_OU015954.1",1760,1760,"chromosome",1,"gplas2","E. faecium"
"GCF_907176135.1","GCF_907176135.1_bin_2","NZ_OU015949.1",7546,7546,"chromosome",0.765,"gplas2","E. faecium"
"GCF_028335245.1","GCF_028335245.1_bin_3","NZ_CP116517.1",5667,5667,"chromosome",1,"gplas2","E. faecium"
"GCF_028335245.1","GCF_028335245.1_bin_1","NZ_CP116517.1",31565,126829,"chromosome",0.062,"gplas2","E. faecium"
"GCF_023375225.1","GCF_023375225.1_bin_1","NZ_CP088195.1",13863,41313,"chromosome",0.193,"gplas2","E. faecium"
"GCF_021228615.1","GCF_021228615.1_bin_3","NZ_CP089319.1",68581,112037,"chromosome",0.132,"gplas2","E. faecium"
"GCF_016415445.1","GCF_016415445.1_bin_1","NZ_CP066629.1",76265,134657,"chromosome",0.042,"gplas2","E. faecium"
"GCF_023299805.1","GCF_023299805.1_bin_1","NZ_CP097061.1",54402,117827,"chromosome",0.282,"gplas2","E. faecium"
"GCF_019175445.1","GCF_019175445.1_bin_1","NZ_CP072881.1",25610,144913,"chromosome",0.045,"gplas2","E. faecium"
"GCF_016415485.1","GCF_016415485.1_bin_1","NZ_CP066673.1",167021,239123,"chromosome",0.321,"gplas2","E. faecium"
"GCF_016406345.1","GCF_016406345.1_bin_1","NZ_CP066466.1",173820,205253,"chromosome",0.087,"gplas2","E. faecium"
"GCF_028335205.1","GCF_028335205.1_bin_3","NZ_CP116514.1",16879,16879,"chromosome",1,"gplas2","E. faecium"
"GCF_907177285.1","GCF_907177285.1_bin_1","NZ_OU016038.1",103233,107923,"chromosome",0.885,"gplas2","E. faecium"
"GCF_907177285.1","GCF_907177285.1_bin_5","NZ_OU016041.1",6501,5174,"chromosome",0.744,"gplas2","E. faecium"
"GCF_907177285.1","GCF_907177285.1_bin_2","NZ_OU016037.1",187900,226116,"chromosome",0.769,"gplas2","E. faecium"
"GCF_907177285.1","GCF_907177285.1_bin_2","NZ_OU016039.1",41129,226116,"chromosome",0.159,"gplas2","E. faecium"
"GCF_907177285.1","GCF_907177285.1_bin_4","NZ_OU016043.1",4206,4206,"chromosome",1,"gplas2","E. faecium"
"GCF_907177285.1","GCF_907177285.1_bin_8","NZ_OU016044.1",2947,2947,"chromosome",1,"gplas2","E. faecium"
"GCF_907177285.1","GCF_907177285.1_bin_6","NZ_OU016045.1",1760,1760,"chromosome",1,"gplas2","E. faecium"
"GCF_907177285.1","GCF_907177285.1_bin_7","NZ_OU016042.1",6174,6174,"chromosome",1,"gplas2","E. faecium"
"GCF_907177285.1","GCF_907177285.1_bin_3","NZ_OU016040.1",7546,7546,"chromosome",0.765,"gplas2","E. faecium"
"GCF_016406465.1","GCF_016406465.1_bin_3","NZ_CP066396.1",101804,247944,"chromosome",0.018,"gplas2","E. faecium"
"GCF_019175465.1","GCF_019175465.1_bin_1","NZ_CP072884.1",41759,229325,"chromosome",0.145,"gplas2","E. faecium"
"GCF_016406445.1","GCF_016406445.1_bin_1","NZ_CP066389.1",146214,220159,"chromosome",0.026,"gplas2","E. faecium"
"GCF_020162175.1","GCF_020162175.1_bin_1","NZ_CP083920.1",82937,225792,"chromosome",0.028,"gplas2_plasmidCC","E. faecium"
"GCF_023375445.1","GCF_023375445.1_bin_1","NZ_CP091224.1",18163,39388,"chromosome",0.163,"gplas2_plasmidCC","E. faecium"
"GCF_028335585.1","GCF_028335585.1_bin_1","NZ_CP116543.1",41751,221014,"chromosome",0.008,"gplas2_plasmidCC","E. faecium"
"GCF_023375365.1","GCF_023375365.1_bin_2","NZ_CP091210.1",12749,24004,"chromosome",0.145,"gplas2_plasmidCC","E. faecium"
"GCF_907176815.1","GCF_907176815.1_bin_6","NZ_OU016031.1",3303,3304,"chromosome",1,"gplas2_plasmidCC","E. faecium"
"GCF_907176815.1","GCF_907176815.1_bin_7","NZ_OU016031.1",1871,1871,"chromosome",1,"gplas2_plasmidCC","E. faecium"
"GCF_907176815.1","GCF_907176815.1_bin_10","NZ_OU016034.1",2947,2947,"chromosome",1,"gplas2_plasmidCC","E. faecium"
"GCF_907176815.1","GCF_907176815.1_bin_9","NZ_OU016032.1",6174,6174,"chromosome",1,"gplas2_plasmidCC","E. faecium"
"GCF_907176815.1","GCF_907176815.1_bin_2","NZ_OU016028.1",51886,51886,"chromosome",0.928,"gplas2_plasmidCC","E. faecium"
"GCF_907176815.1","GCF_907176815.1_bin_8","NZ_OU016035.1",1596,1760,"chromosome",0.907,"gplas2_plasmidCC","E. faecium"
"GCF_907176815.1","GCF_907176815.1_bin_4","NZ_OU016030.1",5774,7546,"chromosome",0.765,"gplas2_plasmidCC","E. faecium"
"GCF_907176815.1","GCF_907176815.1_bin_1","NZ_OU016028.1",68653,107329,"chromosome",0.617,"gplas2_plasmidCC","E. faecium"
"GCF_907176815.1","GCF_907176815.1_bin_1","NZ_OU016029.1",41128,107329,"chromosome",0.335,"gplas2_plasmidCC","E. faecium"
"GCF_907176815.1","GCF_907176815.1_bin_5","NZ_OU016033.1",4206,4206,"chromosome",1,"gplas2_plasmidCC","E. faecium"
"GCF_907176815.1","GCF_907176815.1_bin_3","NZ_OU016028.1",66661,64889,"chromosome",0.945,"gplas2_plasmidCC","E. faecium"
"GCF_023299325.1","GCF_023299325.1_bin_1","NZ_CP097014.1",112168,251346,"chromosome",0.242,"gplas2_plasmidCC","E. faecium"
"GCF_016406545.1","GCF_016406545.1_bin_1","NZ_CP066409.1",220095,247037,"chromosome",0.246,"gplas2_plasmidCC","E. faecium"
"GCF_028335265.1","GCF_028335265.1_bin_1","NZ_CP116520.1",41462,159813,"chromosome",0.11,"gplas2_plasmidCC","E. faecium"
"GCF_019977575.1","GCF_019977575.1_bin_1","NZ_AP024837.1",69236,195288,"chromosome",0.02,"gplas2_plasmidCC","E. faecium"
"GCF_023299725.1","GCF_023299725.1_bin_1","NZ_CP097022.1",50109,192666,"chromosome",0.073,"gplas2_plasmidCC","E. faecium"
"GCF_028335465.1","GCF_028335465.1_bin_1","NZ_CP116523.1",17384,215230,"chromosome",0.03,"gplas2_plasmidCC","E. faecium"
"GCF_023375385.1","GCF_023375385.1_bin_1","NZ_CP091213.1",65097,184499,"chromosome",0.157,"gplas2_plasmidCC","E. faecium"
"GCF_019175525.1","GCF_019175525.1_bin_2","NZ_CP072894.1",23530,19006,"chromosome",0.921,"gplas2_plasmidCC","E. faecium"
"GCF_016415405.1","GCF_016415405.1_bin_1","NZ_CP066637.1",66277,122507,"chromosome",0.012,"gplas2_plasmidCC","E. faecium"
"GCF_023375345.1","GCF_023375345.1_bin_1","NZ_CP091206.1",37197,172095,"chromosome",0.191,"gplas2_plasmidCC","E. faecium"
"GCF_016415545.1","GCF_016415545.1_bin_1","NZ_CP066653.1",92563,129814,"chromosome",0.049,"gplas2_plasmidCC","E. faecium"
"GCF_028335225.1","GCF_028335225.1_bin_1","NZ_CP116532.1",22082,192293,"chromosome",0.077,"gplas2_plasmidCC","E. faecium"
"GCF_019977495.1","GCF_019977495.1_bin_2","NZ_AP024831.1",31427,80528,"chromosome",0.049,"gplas2_plasmidCC","E. faecium"
"GCF_907165365.1","GCF_907165365.1_bin_7","NZ_OU015716.1",1760,1760,"chromosome",1,"gplas2_plasmidCC","E. faecium"
"GCF_907165365.1","GCF_907165365.1_bin_6","NZ_OU015715.1",1893,1893,"chromosome",1,"gplas2_plasmidCC","E. faecium"
"GCF_907165365.1","GCF_907165365.1_bin_4","NZ_OU015713.1",4206,4206,"chromosome",1,"gplas2_plasmidCC","E. faecium"
"GCF_907165365.1","GCF_907165365.1_bin_8","NZ_OU015712.1",7019,7019,"chromosome",1,"gplas2_plasmidCC","E. faecium"
"GCF_907165365.1","GCF_907165365.1_bin_5","NZ_OU015714.1",3304,3304,"chromosome",0.598,"gplas2_plasmidCC","E. faecium"
"GCF_907165365.1","GCF_907165365.1_bin_1","NZ_OU015709.1",51638,47540,"chromosome",0.94,"gplas2_plasmidCC","E. faecium"
"GCF_907165365.1","GCF_907165365.1_bin_3","NZ_OU015709.1",141363,137265,"chromosome",0.943,"gplas2_plasmidCC","E. faecium"
"GCF_907165365.1","GCF_907165365.1_bin_2","NZ_OU015711.1",41548,139943,"chromosome",0.278,"gplas2_plasmidCC","E. faecium"
"GCF_907165365.1","GCF_907165365.1_bin_2","NZ_OU015710.1",98603,139943,"chromosome",0.696,"gplas2_plasmidCC","E. faecium"
"GCF_907165365.1","GCF_907165365.1_bin_2","NZ_OU015709.1",1110,139943,"chromosome",0.008,"gplas2_plasmidCC","E. faecium"
"GCF_023375205.1","GCF_023375205.1_bin_1","NZ_CP088191.1",31818,183252,"chromosome",0.09,"gplas2_plasmidCC","E. faecium"
"GCF_026409165.1","GCF_026409165.1_bin_3","NZ_CP112862.1",16920,54572,"chromosome",0.104,"gplas2_plasmidCC","E. faecium"
"GCF_009938285.1","GCF_009938285.1_bin_4","NZ_AP022341.1",18368,10940,"chromosome",0.519,"gplas2_plasmidCC","E. faecium"
"GCF_028335485.1","GCF_028335485.1_bin_1","NZ_CP116528.1",22082,190295,"chromosome",0.078,"gplas2_plasmidCC","E. faecium"
"GCF_023299745.1","GCF_023299745.1_bin_1","NZ_CP097027.1",72229,187031,"chromosome",0.157,"gplas2_plasmidCC","E. faecium"
"GCF_020162155.1","GCF_020162155.1_bin_1","NZ_CP083912.1",74048,219324,"chromosome",0.006,"gplas2_plasmidCC","E. faecium"
"GCF_023375425.1","GCF_023375425.1_bin_1","NZ_CP091221.1",17596,169963,"chromosome",0.089,"gplas2_plasmidCC","E. faecium"
"GCF_015999425.1","GCF_015999425.1_bin_4","NZ_CP065527.1",43053,55639,"chromosome",0.285,"gplas2_plasmidCC","E. faecium"
"GCF_015999425.1","GCF_015999425.1_bin_3","NZ_CP065527.1",68707,65322,"chromosome",0.57,"gplas2_plasmidCC","E. faecium"
"GCF_016406485.1","GCF_016406485.1_bin_2","NZ_CP066381.1",67670,164826,"chromosome",0.046,"gplas2_plasmidCC","E. faecium"
"GCF_016406365.1","GCF_016406365.1_bin_1","NZ_CP066415.1",146480,162159,"chromosome",0.375,"gplas2_plasmidCC","E. faecium"
"GCF_016415565.1","GCF_016415565.1_bin_1","NZ_CP066667.1",97665,131191,"chromosome",0.037,"gplas2_plasmidCC","E. faecium"
"GCF_907176135.1","GCF_907176135.1_bin_5","NZ_OU015950.1",4350,3199,"chromosome",0.53,"gplas2_plasmidCC","E. faecium"
"GCF_907176135.1","GCF_907176135.1_bin_1","NZ_OU015948.1",41128,226675,"chromosome",0.159,"gplas2_plasmidCC","E. faecium"
"GCF_907176135.1","GCF_907176135.1_bin_1","NZ_OU015947.1",187225,226675,"chromosome",0.775,"gplas2_plasmidCC","E. faecium"
"GCF_907176135.1","GCF_907176135.1_bin_4","NZ_OU015950.1",4632,3304,"chromosome",0.598,"gplas2_plasmidCC","E. faecium"
"GCF_907176135.1","GCF_907176135.1_bin_3","NZ_OU015952.1",4206,4206,"chromosome",1,"gplas2_plasmidCC","E. faecium"
"GCF_907176135.1","GCF_907176135.1_bin_8","NZ_OU015953.1",2947,2947,"chromosome",1,"gplas2_plasmidCC","E. faecium"
"GCF_907176135.1","GCF_907176135.1_bin_7","NZ_OU015951.1",6174,6174,"chromosome",1,"gplas2_plasmidCC","E. faecium"
"GCF_907176135.1","GCF_907176135.1_bin_6","NZ_OU015954.1",1760,1760,"chromosome",1,"gplas2_plasmidCC","E. faecium"
"GCF_907176135.1","GCF_907176135.1_bin_2","NZ_OU015949.1",7546,7546,"chromosome",0.765,"gplas2_plasmidCC","E. faecium"
"GCF_028335245.1","GCF_028335245.1_bin_3","NZ_CP116517.1",5667,5667,"chromosome",1,"gplas2_plasmidCC","E. faecium"
"GCF_028335245.1","GCF_028335245.1_bin_1","NZ_CP116517.1",31565,126829,"chromosome",0.062,"gplas2_plasmidCC","E. faecium"
"GCF_023375225.1","GCF_023375225.1_bin_1","NZ_CP088195.1",13863,41313,"chromosome",0.193,"gplas2_plasmidCC","E. faecium"
"GCF_021228615.1","GCF_021228615.1_bin_3","NZ_CP089319.1",68581,112037,"chromosome",0.132,"gplas2_plasmidCC","E. faecium"
"GCF_016415445.1","GCF_016415445.1_bin_1","NZ_CP066629.1",76265,134657,"chromosome",0.042,"gplas2_plasmidCC","E. faecium"
"GCF_023299805.1","GCF_023299805.1_bin_1","NZ_CP097061.1",54402,117827,"chromosome",0.282,"gplas2_plasmidCC","E. faecium"
"GCF_019175445.1","GCF_019175445.1_bin_1","NZ_CP072881.1",25610,144913,"chromosome",0.045,"gplas2_plasmidCC","E. faecium"
"GCF_016415485.1","GCF_016415485.1_bin_1","NZ_CP066673.1",167021,239123,"chromosome",0.321,"gplas2_plasmidCC","E. faecium"
"GCF_016406345.1","GCF_016406345.1_bin_1","NZ_CP066466.1",173820,205253,"chromosome",0.087,"gplas2_plasmidCC","E. faecium"
"GCF_028335205.1","GCF_028335205.1_bin_3","NZ_CP116514.1",16879,16879,"chromosome",1,"gplas2_plasmidCC","E. faecium"
"GCF_907177285.1","GCF_907177285.1_bin_1","NZ_OU016038.1",103233,107923,"chromosome",0.885,"gplas2_plasmidCC","E. faecium"
"GCF_907177285.1","GCF_907177285.1_bin_5","NZ_OU016041.1",6501,5174,"chromosome",0.744,"gplas2_plasmidCC","E. faecium"
"GCF_907177285.1","GCF_907177285.1_bin_2","NZ_OU016037.1",187900,226116,"chromosome",0.769,"gplas2_plasmidCC","E. faecium"
"GCF_907177285.1","GCF_907177285.1_bin_2","NZ_OU016039.1",41129,226116,"chromosome",0.159,"gplas2_plasmidCC","E. faecium"
"GCF_907177285.1","GCF_907177285.1_bin_4","NZ_OU016043.1",4206,4206,"chromosome",1,"gplas2_plasmidCC","E. faecium"
"GCF_907177285.1","GCF_907177285.1_bin_8","NZ_OU016044.1",2947,2947,"chromosome",1,"gplas2_plasmidCC","E. faecium"
"GCF_907177285.1","GCF_907177285.1_bin_6","NZ_OU016045.1",1760,1760,"chromosome",1,"gplas2_plasmidCC","E. faecium"
"GCF_907177285.1","GCF_907177285.1_bin_7","NZ_OU016042.1",6174,6174,"chromosome",1,"gplas2_plasmidCC","E. faecium"
"GCF_907177285.1","GCF_907177285.1_bin_3","NZ_OU016040.1",7546,7546,"chromosome",0.765,"gplas2_plasmidCC","E. faecium"
"GCF_016406465.1","GCF_016406465.1_bin_3","NZ_CP066396.1",101804,247944,"chromosome",0.018,"gplas2_plasmidCC","E. faecium"
"GCF_019175465.1","GCF_019175465.1_bin_1","NZ_CP072884.1",41759,229325,"chromosome",0.145,"gplas2_plasmidCC","E. faecium"
"GCF_016406445.1","GCF_016406445.1_bin_1","NZ_CP066389.1",146214,220159,"chromosome",0.026,"gplas2_plasmidCC","E. faecium"
