#FILE	SEQUENCE	START	END	STRAND	GENE	COVERAGE	COVERAGE_MAP	GAPS	%COVERAGE	%IDENTITY	DATABASE	ACCESSION	PRODUCT	RESISTANCE
/hpc/dla_mm/jkerkvliet/data/gplas/newmodels/results/E_faecalis/09_plasmidspades/GCF_022648285.1_ASM2264828v1/bin_component_0.fasta	NODE_7_length_10567_cov_181.863108_component_0	1075	1837	+	erm(B)_18	1-762/762	========/======	1/1	100.00	99.34	resfinder	X66468	erm(B)	Erythromycin;Lincomycin;Clindamycin;Quinupristin;Pristinamycin_IA;Virginiamycin_S
/hpc/dla_mm/jkerkvliet/data/gplas/newmodels/results/E_faecalis/09_plasmidspades/GCF_022648285.1_ASM2264828v1/bin_component_0.fasta	NODE_7_length_10567_cov_181.863108_component_0	5096	6004	+	ant(6)-Ia_1	1-909/909	===============	0/0	100.00	100.00	resfinder	AF330699	ant(6)-Ia	Streptomycin
/hpc/dla_mm/jkerkvliet/data/gplas/newmodels/results/E_faecalis/09_plasmidspades/GCF_022648285.1_ASM2264828v1/bin_component_0.fasta	NODE_7_length_10567_cov_181.863108_component_0	6636	7430	+	aph(3')-III_1	1-795/795	===============	0/0	100.00	100.00	resfinder	M26832	aph(3')-III	Amikacin
/hpc/dla_mm/jkerkvliet/data/gplas/newmodels/results/E_faecalis/09_plasmidspades/GCF_022648285.1_ASM2264828v1/bin_component_0.fasta	NODE_8_length_9877_cov_217.404286_component_0	1339	2109	+	aadD_1	1-771/771	===============	0/0	100.00	99.61	resfinder	AF181950	aadD	Amikacin;Tobramycin
/hpc/dla_mm/jkerkvliet/data/gplas/newmodels/results/E_faecalis/09_plasmidspades/GCF_022648285.1_ASM2264828v1/bin_component_0.fasta	NODE_8_length_9877_cov_217.404286_component_0	5753	8359	-	VanHAX_2	1-2607/2607	===============	0/0	100.00	99.96	resfinder	M97297	VanHAX	Vancomycin;Teicoplanin
/hpc/dla_mm/jkerkvliet/data/gplas/newmodels/results/E_faecalis/09_plasmidspades/GCF_906464895.1_WE0851/bin_component_2.fasta	NODE_13_length_2109_cov_38.748524_component_2	241	1089	-	str_1	1-849/849	===============	0/0	100.00	100.00	resfinder	X92946	str	Streptomycin
/hpc/dla_mm/jkerkvliet/data/gplas/newmodels/results/E_faecalis/09_plasmidspades/GCF_906464895.1_WE0851/bin_component_2.fasta	NODE_15_length_1484_cov_13.182658_component_2	193	840	-	cat_5	1-648/648	===============	0/0	100.00	99.85	resfinder	U35036	cat	Chloramphenicol
/hpc/dla_mm/jkerkvliet/data/gplas/newmodels/results/E_faecalis/09_plasmidspades/GCF_906464895.1_WE0851/bin_component_2.fasta	NODE_9_length_4030_cov_161.935492_component_2	903	2342	-	aac(6')-aph(2'')_1	1-1440/1440	===============	0/0	100.00	99.93	resfinder	M13771	aac(6')-aph(2'')	Amikacin;Gentamicin;Tobramycin
/hpc/dla_mm/jkerkvliet/data/gplas/newmodels/results/E_faecalis/09_plasmidspades/GCF_906464895.1_WE0851/bin_component_2.fasta	NODE_9_length_4030_cov_161.935492_component_2	2716	3954	-	aac(6')-aph(2'')_1	130-1368/1440	.==============	0/0	86.04	99.92	resfinder	M13771	aac(6')-aph(2'')	Amikacin;Gentamicin;Tobramycin
/hpc/dla_mm/jkerkvliet/data/gplas/newmodels/results/E_faecalis/09_plasmidspades/GCF_906464895.1_WE0851/bin_component_1.fasta	NODE_2_length_73532_cov_109.247104_component_1	46283	48202	+	tet(M)_10	1-1920/1920	===============	0/0	100.00	96.46	resfinder	EU182585	tet(M)	Doxycycline;Tetracycline;Minocycline
/hpc/dla_mm/jkerkvliet/data/gplas/newmodels/results/E_faecalis/09_plasmidspades/GCF_906464895.1_WE0851/bin_component_1.fasta	NODE_2_length_73532_cov_109.247104_component_1	48396	49772	+	tet(L)_2	1-1377/1377	===============	0/0	100.00	100.00	resfinder	M29725	tet(L)	Doxycycline;Tetracycline
/hpc/dla_mm/jkerkvliet/data/gplas/newmodels/results/E_faecalis/09_plasmidspades/GCF_906464835.1_TM6294/bin_component_1.fasta	NODE_12_length_2938_cov_217.787487_component_1	248	1010	-	erm(B)_18	1-762/762	========/======	1/1	100.00	99.08	resfinder	X66468	erm(B)	Erythromycin;Lincomycin;Clindamycin;Quinupristin;Pristinamycin_IA;Virginiamycin_S
/hpc/dla_mm/jkerkvliet/data/gplas/newmodels/results/E_faecalis/09_plasmidspades/GCF_906464835.1_TM6294/bin_component_1.fasta	NODE_14_length_2232_cov_38.397680_component_1	245	1684	-	aac(6')-aph(2'')_1	1-1440/1440	===============	0/0	100.00	100.00	resfinder	M13771	aac(6')-aph(2'')	Amikacin;Gentamicin;Tobramycin
/hpc/dla_mm/jkerkvliet/data/gplas/newmodels/results/E_faecalis/09_plasmidspades/GCF_906464835.1_TM6294/bin_component_1.fasta	NODE_7_length_10233_cov_113.027570_component_1	1	755	+	ant(6)-Ia_2	110-864/864	.==============	0/0	87.38	100.00	resfinder	KF421157	ant(6)-Ia	Streptomycin
/hpc/dla_mm/jkerkvliet/data/gplas/newmodels/results/E_faecalis/09_plasmidspades/GCF_906464835.1_TM6294/bin_component_1.fasta	NODE_7_length_10233_cov_113.027570_component_1	4334	5818	+	lsa(E)_1	1-1485/1485	===============	0/0	100.00	99.93	resfinder	JX560992	lsa(E)	Lincomycin;Clindamycin;Dalfopristin;Pristinamycin_IIA;Virginiamycin_M;Tiamulin
/hpc/dla_mm/jkerkvliet/data/gplas/newmodels/results/E_faecalis/09_plasmidspades/GCF_906464835.1_TM6294/bin_component_1.fasta	NODE_7_length_10233_cov_113.027570_component_1	5872	6675	+	lnu(B)_2	1-804/804	===============	0/0	100.00	100.00	resfinder	JQ861959	lnu(B)	Lincomycin;Clindamycin
/hpc/dla_mm/jkerkvliet/data/gplas/newmodels/results/E_faecalis/09_plasmidspades/GCF_013344605.1_ASM1334460v1/bin_component_1.fasta	NODE_1_length_150704_cov_419.999090_component_1	108126	110045	+	tet(M)_13	1-1920/1920	===============	0/0	100.00	99.90	resfinder	AM990992	tet(M)	Doxycycline;Tetracycline;Minocycline
/hpc/dla_mm/jkerkvliet/data/gplas/newmodels/results/E_faecalis/09_plasmidspades/GCF_020844125.1_ASM2084412v1/bin_component_0.fasta	NODE_2_length_10883_cov_95.871792_component_0	5716	7143	+	fexA_1	1-1428/1428	===============	0/0	100.00	99.65	resfinder	AJ549214	fexA	Chloramphenicol;Florfenicol
/hpc/dla_mm/jkerkvliet/data/gplas/newmodels/results/E_faecalis/09_plasmidspades/GCF_020844125.1_ASM2084412v1/bin_component_0.fasta	NODE_2_length_10883_cov_95.871792_component_0	7831	9798	+	optrA_5	1-1968/1968	===============	0/0	100.00	100.00	resfinder	KT862783	optrA	Linezolid;Chloramphenicol;Florfenicol
/hpc/dla_mm/jkerkvliet/data/gplas/newmodels/results/E_faecalis/09_plasmidspades/GCF_022648425.1_ASM2264842v1/bin_component_0.fasta	NODE_7_length_10567_cov_190.289990_component_0	1075	1837	+	erm(B)_18	1-762/762	========/======	1/1	100.00	99.34	resfinder	X66468	erm(B)	Erythromycin;Lincomycin;Clindamycin;Quinupristin;Pristinamycin_IA;Virginiamycin_S
/hpc/dla_mm/jkerkvliet/data/gplas/newmodels/results/E_faecalis/09_plasmidspades/GCF_022648425.1_ASM2264842v1/bin_component_0.fasta	NODE_7_length_10567_cov_190.289990_component_0	5096	6004	+	ant(6)-Ia_1	1-909/909	===============	0/0	100.00	100.00	resfinder	AF330699	ant(6)-Ia	Streptomycin
/hpc/dla_mm/jkerkvliet/data/gplas/newmodels/results/E_faecalis/09_plasmidspades/GCF_022648425.1_ASM2264842v1/bin_component_0.fasta	NODE_7_length_10567_cov_190.289990_component_0	6636	7430	+	aph(3')-III_1	1-795/795	===============	0/0	100.00	100.00	resfinder	M26832	aph(3')-III	Amikacin
/hpc/dla_mm/jkerkvliet/data/gplas/newmodels/results/E_faecalis/09_plasmidspades/GCF_022648425.1_ASM2264842v1/bin_component_0.fasta	NODE_8_length_9877_cov_218.029592_component_0	1339	2109	+	aadD_1	1-771/771	===============	0/0	100.00	99.61	resfinder	AF181950	aadD	Amikacin;Tobramycin
/hpc/dla_mm/jkerkvliet/data/gplas/newmodels/results/E_faecalis/09_plasmidspades/GCF_022648425.1_ASM2264842v1/bin_component_0.fasta	NODE_8_length_9877_cov_218.029592_component_0	5753	8359	-	VanHAX_2	1-2607/2607	===============	0/0	100.00	99.96	resfinder	M97297	VanHAX	Vancomycin;Teicoplanin
/hpc/dla_mm/jkerkvliet/data/gplas/newmodels/results/E_faecalis/09_plasmidspades/GCF_906464915.2_WE0254/bin_component_2.fasta	NODE_2_length_72680_cov_84.004958_component_2	49687	51606	+	tet(M)_4	1-1920/1920	===============	0/0	100.00	99.90	resfinder	X75073	tet(M)	Doxycycline;Tetracycline;Minocycline
/hpc/dla_mm/jkerkvliet/data/gplas/newmodels/results/E_faecalis/09_plasmidspades/GCF_018986755.2_ASM1898675v2/bin_component_0.fasta	NODE_4_length_11244_cov_35.901862_component_0	6395	9001	-	VanHAX_2	1-2607/2607	===============	0/0	100.00	100.00	resfinder	M97297	VanHAX	Vancomycin;Teicoplanin
/hpc/dla_mm/jkerkvliet/data/gplas/newmodels/results/E_faecalis/09_plasmidspades/GCF_018986755.2_ASM1898675v2/bin_component_0.fasta	NODE_6_length_7701_cov_43.573541_component_0	2710	3357	-	cat(pC221)_1	1-648/648	===============	0/0	100.00	97.69	resfinder	X02529	cat(pC221)	Chloramphenicol
/hpc/dla_mm/jkerkvliet/data/gplas/newmodels/results/E_faecalis/09_plasmidspades/GCF_018986755.2_ASM1898675v2/bin_component_0.fasta	NODE_6_length_7701_cov_43.573541_component_0	6740	7502	+	erm(B)_18	1-762/762	========/======	1/1	100.00	99.21	resfinder	X66468	erm(B)	Erythromycin;Lincomycin;Clindamycin;Quinupristin;Pristinamycin_IA;Virginiamycin_S
/hpc/dla_mm/jkerkvliet/data/gplas/newmodels/results/E_faecalis/09_plasmidspades/GCF_018986755.2_ASM1898675v2/bin_component_0.fasta	NODE_8_length_7445_cov_43.444520_component_0	3116	3910	-	aph(3')-III_1	1-795/795	===============	0/0	100.00	100.00	resfinder	M26832	aph(3')-III	Amikacin
/hpc/dla_mm/jkerkvliet/data/gplas/newmodels/results/E_faecalis/09_plasmidspades/GCF_018986755.2_ASM1898675v2/bin_component_0.fasta	NODE_8_length_7445_cov_43.444520_component_0	4542	5450	-	ant(6)-Ia_1	1-909/909	===============	0/0	100.00	100.00	resfinder	AF330699	ant(6)-Ia	Streptomycin
/hpc/dla_mm/jkerkvliet/data/gplas/newmodels/results/E_faecalis/09_plasmidspades/GCF_022648595.1_ASM2264859v1/bin_component_0.fasta	NODE_7_length_10567_cov_161.852336_component_0	3138	3932	-	aph(3')-III_1	1-795/795	===============	0/0	100.00	100.00	resfinder	M26832	aph(3')-III	Amikacin
/hpc/dla_mm/jkerkvliet/data/gplas/newmodels/results/E_faecalis/09_plasmidspades/GCF_022648595.1_ASM2264859v1/bin_component_0.fasta	NODE_7_length_10567_cov_161.852336_component_0	4564	5472	-	ant(6)-Ia_1	1-909/909	===============	0/0	100.00	100.00	resfinder	AF330699	ant(6)-Ia	Streptomycin
/hpc/dla_mm/jkerkvliet/data/gplas/newmodels/results/E_faecalis/09_plasmidspades/GCF_022648595.1_ASM2264859v1/bin_component_0.fasta	NODE_7_length_10567_cov_161.852336_component_0	8731	9493	-	erm(B)_18	1-762/762	========/======	1/1	100.00	99.34	resfinder	X66468	erm(B)	Erythromycin;Lincomycin;Clindamycin;Quinupristin;Pristinamycin_IA;Virginiamycin_S
/hpc/dla_mm/jkerkvliet/data/gplas/newmodels/results/E_faecalis/09_plasmidspades/GCF_022648595.1_ASM2264859v1/bin_component_0.fasta	NODE_8_length_9877_cov_191.197041_component_0	1339	2109	+	aadD_1	1-771/771	===============	0/0	100.00	99.61	resfinder	AF181950	aadD	Amikacin;Tobramycin
/hpc/dla_mm/jkerkvliet/data/gplas/newmodels/results/E_faecalis/09_plasmidspades/GCF_022648595.1_ASM2264859v1/bin_component_0.fasta	NODE_8_length_9877_cov_191.197041_component_0	5753	8359	-	VanHAX_2	1-2607/2607	===============	0/0	100.00	99.96	resfinder	M97297	VanHAX	Vancomycin;Teicoplanin
