"software","arg_classification","reference_id","FN","TP","recall","recovered_length","true_plasmid_length","recall_length","length_classification","detected"
"RFplasmid","ARG-plasmid","NZ_AP023312.1",1,10,0.91,197112,230500,0.86,"large","detected"
"RFplasmid","ARG-plasmid","NZ_AP023318.1",0,6,1,146901,151734,0.97,"large","detected"
"RFplasmid","ARG-plasmid","NZ_CP050832.1",0,7,1,146982,152940,0.96,"large","detected"
"RFplasmid","ARG-plasmid","NZ_CP051311.1",0,11,1,223285,239428,0.93,"large","detected"
"RFplasmid","ARG-plasmid","NZ_CP051312.1",0,3,1,95987,101468,0.95,"large","detected"
"RFplasmid","ARG-plasmid","NZ_CP051318.1",1,4,0.8,88136,105973,0.83,"large","detected"
"RFplasmid","ARG-plasmid","NZ_CP051319.1",0,5,1,136699,170814,0.8,"large","detected"
"RFplasmid","ARG-plasmid","NZ_CP051347.1",0,7,1,139708,146811,0.95,"large","detected"
"RFplasmid","ARG-plasmid","NZ_CP051354.1",0,1,1,102702,104600,0.98,"large","detected"
"RFplasmid","ARG-plasmid","NZ_CP051355.1",0,1,1,9267,10454,0.89,"small","detected"
"RFplasmid","ARG-plasmid","NZ_CP051365.1",0,1,1,8688,8688,1,"small","detected"
"RFplasmid","ARG-plasmid","NZ_CP051371.1",0,2,1,97013,101673,0.95,"large","detected"
"RFplasmid","ARG-plasmid","NZ_CP051379.1",0,11,1,199150,224721,0.89,"large","detected"
"RFplasmid","ARG-plasmid","NZ_CP051382.1",0,7,1,225345,235025,0.96,"large","detected"
"RFplasmid","ARG-plasmid","NZ_CP051383.1",1,2,0.67,104977,112349,0.93,"large","detected"
"RFplasmid","ARG-plasmid","NZ_CP051400.1",1,10,0.91,170113,183507,0.93,"large","detected"
"RFplasmid","ARG-plasmid","NZ_CP051403.1",0,3,1,96477,102040,0.95,"large","detected"
"RFplasmid","ARG-plasmid","NZ_CP051421.1",0,1,1,5430,8496,0.64,"small","detected"
"RFplasmid","ARG-plasmid","NZ_CP051426.1",1,9,0.9,177806,188725,0.94,"large","detected"
"RFplasmid","ARG-plasmid","NZ_CP058672.1",2,17,0.89,204155,242694,0.84,"large","detected"
"RFplasmid","ARG-plasmid","NZ_CP058810.1",0,10,1,190715,205772,0.93,"large","detected"
"RFplasmid","ARG-plasmid","NZ_CP058811.1",0,2,1,86703,90483,0.96,"large","detected"
"RFplasmid","ARG-plasmid","NZ_CP060513.1",1,8,0.89,247047,254662,0.97,"large","detected"
"RFplasmid","ARG-plasmid","NZ_CP060518.1",0,3,1,231558,233305,0.99,"large","detected"
"RFplasmid","ARG-plasmid","NZ_CP060519.1",0,3,1,61124,64443,0.95,"large","detected"
"RFplasmid","ARG-plasmid","NZ_CP062224.1",0,16,1,245299,270696,0.91,"large","detected"
"RFplasmid","ARG-plasmid","NZ_CP062226.1",0,14,1,241606,265014,0.91,"large","detected"
"RFplasmid","ARG-plasmid","NZ_CP063290.1",0,4,1,109669,113786,0.96,"large","detected"
"RFplasmid","ARG-plasmid","NZ_CP063295.1",0,6,1,150401,159330,0.94,"large","detected"
"RFplasmid","ARG-plasmid","NZ_CP063296.1",0,4,1,98876,102507,0.96,"large","detected"
"RFplasmid","ARG-plasmid","NZ_CP063706.1",0,10,1,81570,95694,0.85,"large","detected"
"RFplasmid","ARG-plasmid","NZ_CP063707.1",0,1,1,6974,8688,0.8,"small","detected"
"RFplasmid","ARG-plasmid","NZ_CP065568.1",1,11,0.92,224431,247565,0.91,"large","detected"
"RFplasmid","ARG-plasmid","NZ_CP065569.1",0,2,1,5788,9344,0.62,"small","detected"
"RFplasmid","ARG-plasmid","NZ_CP066008.1",0,1,1,8688,8688,1,"small","detected"
"RFplasmid","ARG-plasmid","NZ_CP085984.1",1,9,0.9,263677,280239,0.94,"large","detected"
"RFplasmid","ARG-plasmid","NZ_CP085985.1",0,4,1,52109,53154,0.98,"large","detected"
"RFplasmid","ARG-plasmid","NZ_CP090138.1",0,20,1,239603,300750,0.8,"large","detected"
"RFplasmid","ARG-plasmid","NZ_CP090139.1",0,3,1,48349,53329,0.91,"large","detected"
"RFplasmid","ARG-plasmid","NZ_CP090142.1",0,20,1,239603,294023,0.81,"large","detected"
"RFplasmid","ARG-plasmid","NZ_CP090143.1",0,3,1,48349,53329,0.91,"large","detected"
"RFplasmid","non-ARG-plasmid","NZ_AP023293.1",0,1,1,5846,7618,0.77,"small","detected"
"RFplasmid","non-ARG-plasmid","NZ_AP023295.1",0,2,1,59801,60222,0.99,"large","detected"
"RFplasmid","non-ARG-plasmid","NZ_AP023296.1",0,1,1,6835,6835,1,"small","detected"
"RFplasmid","non-ARG-plasmid","NZ_AP023297.1",1,0,0,0,4869,0,"small","not_detected"
"RFplasmid","non-ARG-plasmid","NZ_AP023298.1",0,1,1,4060,4060,1,"small","detected"
"RFplasmid","non-ARG-plasmid","NZ_CP051348.1",0,2,1,44628,48581,0.92,"large","detected"
"RFplasmid","non-ARG-plasmid","NZ_CP051367.1",0,1,1,49438,49582,1,"large","detected"
"RFplasmid","non-ARG-plasmid","NZ_CP051369.1",1,2,0.67,128365,136285,0.94,"large","detected"
"RFplasmid","non-ARG-plasmid","NZ_CP051376.1",0,1,1,3830,3829,1,"small","detected"
"RFplasmid","non-ARG-plasmid","NZ_CP051377.1",0,2,1,93700,94046,1,"large","detected"
"RFplasmid","non-ARG-plasmid","NZ_CP051378.1",0,1,1,3188,3188,1,"small","detected"
"RFplasmid","non-ARG-plasmid","NZ_CP051399.1",0,1,1,4198,4198,1,"small","detected"
"RFplasmid","non-ARG-plasmid","NZ_CP051401.1",0,1,1,3372,3372,1,"small","detected"
"RFplasmid","non-ARG-plasmid","NZ_CP051414.1",0,1,1,3372,3371,1,"small","detected"
"RFplasmid","non-ARG-plasmid","NZ_CP051415.1",0,1,1,3319,3319,1,"small","detected"
"RFplasmid","non-ARG-plasmid","NZ_CP051419.1",0,1,1,3372,3372,1,"small","detected"
"RFplasmid","non-ARG-plasmid","NZ_CP051420.1",0,1,1,83776,83778,1,"large","detected"
"RFplasmid","non-ARG-plasmid","NZ_CP051422.1",0,1,1,2096,2096,1,"small","detected"
"RFplasmid","non-ARG-plasmid","NZ_CP051423.1",0,1,1,2444,2444,1,"small","detected"
"RFplasmid","non-ARG-plasmid","NZ_CP051424.1",0,1,1,58411,57420,1,"large","detected"
"RFplasmid","non-ARG-plasmid","NZ_CP054716.1",0,2,1,80092,51651,1,"large","detected"
"RFplasmid","non-ARG-plasmid","NZ_CP054717.1",1,4,0.8,144764,162029,0.89,"large","detected"
"RFplasmid","non-ARG-plasmid","NZ_CP054718.1",1,2,0.67,50829,118798,0.43,"large","detected"
"RFplasmid","non-ARG-plasmid","NZ_CP058673.1",0,7,1,39795,51521,0.77,"large","detected"
"RFplasmid","non-ARG-plasmid","NZ_CP058674.1",0,1,1,3371,3371,1,"small","detected"
"RFplasmid","non-ARG-plasmid","NZ_CP058808.1",0,1,1,3752,3752,1,"small","detected"
"RFplasmid","non-ARG-plasmid","NZ_CP058809.1",0,1,1,93853,93853,1,"large","detected"
"RFplasmid","non-ARG-plasmid","NZ_CP060170.1",0,4,1,92042,93813,0.98,"large","detected"
"RFplasmid","non-ARG-plasmid","NZ_CP060171.1",0,1,1,1975,1975,1,"small","detected"
"RFplasmid","non-ARG-plasmid","NZ_CP060514.1",0,1,1,41605,41605,1,"large","detected"
"RFplasmid","non-ARG-plasmid","NZ_CP060520.1",0,1,1,4073,4073,1,"small","detected"
"RFplasmid","non-ARG-plasmid","NZ_CP060521.1",0,1,1,3830,3830,1,"small","detected"
"RFplasmid","non-ARG-plasmid","NZ_CP062227.1",0,1,1,3172,3172,1,"small","detected"
"RFplasmid","non-ARG-plasmid","NZ_CP063291.1",0,2,1,58193,59372,0.98,"large","detected"
"RFplasmid","non-ARG-plasmid","NZ_CP063292.1",0,1,1,5633,5633,1,"small","detected"
"RFplasmid","non-ARG-plasmid","NZ_CP063293.1",0,1,1,3610,3610,1,"small","detected"
"RFplasmid","non-ARG-plasmid","NZ_CP063297.1",0,3,1,33702,34894,0.97,"large","detected"
"RFplasmid","non-ARG-plasmid","NZ_CP063298.1",0,1,1,4234,4234,1,"small","detected"
"RFplasmid","non-ARG-plasmid","NZ_CP063299.1",1,0,0,0,3257,0,"small","not_detected"
"RFplasmid","non-ARG-plasmid","NZ_CP063300.1",0,1,1,1718,1718,1,"small","detected"
"RFplasmid","non-ARG-plasmid","NZ_CP063331.1",0,1,1,2097,2097,1,"small","detected"
"RFplasmid","non-ARG-plasmid","NZ_CP063701.1",0,2,1,58043,59372,0.98,"large","detected"
"RFplasmid","non-ARG-plasmid","NZ_CP063709.1",0,2,1,58043,59372,0.98,"large","detected"
"RFplasmid","non-ARG-plasmid","NZ_CP063710.1",0,1,1,3272,3272,1,"small","detected"
"RFplasmid","non-ARG-plasmid","NZ_CP065565.1",0,1,1,1982,1982,1,"small","detected"
"RFplasmid","non-ARG-plasmid","NZ_CP065570.1",0,1,1,5570,5570,1,"small","detected"
"RFplasmid","non-ARG-plasmid","NZ_CP065571.1",0,1,1,4073,4073,1,"small","detected"
"RFplasmid","non-ARG-plasmid","NZ_CP065573.1",0,1,1,83532,84218,0.99,"large","detected"
"RFplasmid","non-ARG-plasmid","NZ_CP065638.1",0,2,1,93617,93933,1,"large","detected"
"RFplasmid","non-ARG-plasmid","NZ_CP066010.1",0,3,1,85406,86768,0.98,"large","detected"
"RFplasmid","non-ARG-plasmid","NZ_CP066011.1",0,2,1,93488,93851,1,"large","detected"
"RFplasmid","non-ARG-plasmid","NZ_CP066048.1",0,2,1,56914,59372,0.96,"large","detected"
"RFplasmid","non-ARG-plasmid","NZ_CP074662.1",0,2,1,49243,58711,0.84,"large","detected"
"RFplasmid","non-ARG-plasmid","NZ_CP075038.1",0,1,1,142317,147099,0.97,"large","detected"
"RFplasmid","non-ARG-plasmid","NZ_CP075111.1",1,3,0.75,62317,101510,0.61,"large","detected"
"RFplasmid","non-ARG-plasmid","NZ_CP075119.1",0,1,1,49594,61453,0.81,"large","detected"
"RFplasmid","non-ARG-plasmid","NZ_CP075121.1",0,1,1,49599,61453,0.81,"large","detected"
"RFplasmid","non-ARG-plasmid","NZ_CP075123.1",0,1,1,49590,61453,0.81,"large","detected"
"RFplasmid","non-ARG-plasmid","NZ_CP075124.1",0,1,1,32950,33067,1,"large","detected"
"RFplasmid","non-ARG-plasmid","NZ_CP075136.1",0,1,1,26031,26158,1,"large","detected"
"RFplasmid","non-ARG-plasmid","NZ_CP075139.1",0,1,1,123664,123781,1,"large","detected"
"RFplasmid","non-ARG-plasmid","NZ_CP077692.1",0,4,1,130311,137180,0.95,"large","detected"
"RFplasmid","non-ARG-plasmid","NZ_CP077697.1",0,3,1,88124,94857,0.93,"large","detected"
"RFplasmid","non-ARG-plasmid","NZ_CP077698.1",0,1,1,26030,26030,1,"large","detected"
"RFplasmid","non-ARG-plasmid","NZ_CP077707.1",1,4,0.8,128902,137180,0.94,"large","detected"
"RFplasmid","non-ARG-plasmid","NZ_CP077708.1",0,1,1,96045,96045,1,"large","detected"
"RFplasmid","non-ARG-plasmid","NZ_CP077709.1",0,1,1,26031,26031,1,"large","detected"
"RFplasmid","non-ARG-plasmid","NZ_CP085986.1",0,1,1,78565,79333,0.99,"large","detected"
"RFplasmid","non-ARG-plasmid","NZ_CP090144.1",0,1,1,4593,4593,1,"small","detected"
"RFplasmid","non-ARG-plasmid","NZ_CP091879.1",0,1,1,3967,3967,1,"small","detected"
"RFplasmid","non-ARG-plasmid","NZ_CP092862.1",0,14,1,210202,246756,0.85,"large","detected"
"Centrifuge","ARG-plasmid","NZ_AP023312.1",5,6,0.55,177206,230500,0.77,"large","detected"
"Centrifuge","ARG-plasmid","NZ_AP023318.1",1,5,0.83,136708,151734,0.9,"large","detected"
"Centrifuge","ARG-plasmid","NZ_CP050832.1",0,7,1,146982,152940,0.96,"large","detected"
"Centrifuge","ARG-plasmid","NZ_CP051311.1",0,11,1,223285,239428,0.93,"large","detected"
"Centrifuge","ARG-plasmid","NZ_CP051312.1",0,3,1,95987,101468,0.95,"large","detected"
"Centrifuge","ARG-plasmid","NZ_CP051318.1",0,5,1,95566,105973,0.9,"large","detected"
"Centrifuge","ARG-plasmid","NZ_CP051319.1",1,4,0.8,134907,170814,0.79,"large","detected"
"Centrifuge","ARG-plasmid","NZ_CP051347.1",0,7,1,139708,146811,0.95,"large","detected"
"Centrifuge","ARG-plasmid","NZ_CP051354.1",0,1,1,102702,104600,0.98,"large","detected"
"Centrifuge","ARG-plasmid","NZ_CP051355.1",0,1,1,9267,10454,0.89,"small","detected"
"Centrifuge","ARG-plasmid","NZ_CP051365.1",0,1,1,8688,8688,1,"small","detected"
"Centrifuge","ARG-plasmid","NZ_CP051371.1",1,1,0.5,66865,101673,0.66,"large","detected"
"Centrifuge","ARG-plasmid","NZ_CP051379.1",3,8,0.73,185625,224721,0.83,"large","detected"
"Centrifuge","ARG-plasmid","NZ_CP051382.1",0,7,1,225345,235025,0.96,"large","detected"
"Centrifuge","ARG-plasmid","NZ_CP051383.1",1,2,0.67,104977,112349,0.93,"large","detected"
"Centrifuge","ARG-plasmid","NZ_CP051400.1",1,10,0.91,168692,183507,0.92,"large","detected"
"Centrifuge","ARG-plasmid","NZ_CP051403.1",0,3,1,96477,102040,0.95,"large","detected"
"Centrifuge","ARG-plasmid","NZ_CP051421.1",0,1,1,5430,8496,0.64,"small","detected"
"Centrifuge","ARG-plasmid","NZ_CP051426.1",1,9,0.9,176385,188725,0.93,"large","detected"
"Centrifuge","ARG-plasmid","NZ_CP058672.1",4,15,0.79,129858,242694,0.54,"large","detected"
"Centrifuge","ARG-plasmid","NZ_CP058810.1",4,6,0.6,152554,205772,0.74,"large","detected"
"Centrifuge","ARG-plasmid","NZ_CP058811.1",0,2,1,86703,90483,0.96,"large","detected"
"Centrifuge","ARG-plasmid","NZ_CP060513.1",0,9,1,248272,254662,0.97,"large","detected"
"Centrifuge","ARG-plasmid","NZ_CP060518.1",3,0,0,0,233305,0,"large","not_detected"
"Centrifuge","ARG-plasmid","NZ_CP060519.1",0,3,1,61124,64443,0.95,"large","detected"
"Centrifuge","ARG-plasmid","NZ_CP062224.1",10,6,0.38,87143,270696,0.32,"large","detected"
"Centrifuge","ARG-plasmid","NZ_CP062226.1",7,7,0.5,142610,265014,0.54,"large","detected"
"Centrifuge","ARG-plasmid","NZ_CP063290.1",1,3,0.75,102968,113786,0.9,"large","detected"
"Centrifuge","ARG-plasmid","NZ_CP063295.1",3,3,0.5,129606,159330,0.81,"large","detected"
"Centrifuge","ARG-plasmid","NZ_CP063296.1",0,4,1,98876,102507,0.96,"large","detected"
"Centrifuge","ARG-plasmid","NZ_CP063706.1",0,10,1,81570,95694,0.85,"large","detected"
"Centrifuge","ARG-plasmid","NZ_CP063707.1",0,1,1,6974,8688,0.8,"small","detected"
"Centrifuge","ARG-plasmid","NZ_CP065568.1",1,11,0.92,222649,247565,0.9,"large","detected"
"Centrifuge","ARG-plasmid","NZ_CP065569.1",1,1,0.5,2187,9344,0.23,"small","detected"
"Centrifuge","ARG-plasmid","NZ_CP066008.1",0,1,1,8688,8688,1,"small","detected"
"Centrifuge","ARG-plasmid","NZ_CP085984.1",0,10,1,264902,280239,0.95,"large","detected"
"Centrifuge","ARG-plasmid","NZ_CP085985.1",1,3,0.75,50777,53154,0.96,"large","detected"
"Centrifuge","ARG-plasmid","NZ_CP090138.1",8,12,0.6,165935,300750,0.55,"large","detected"
"Centrifuge","ARG-plasmid","NZ_CP090139.1",1,2,0.67,46118,53329,0.86,"large","detected"
"Centrifuge","ARG-plasmid","NZ_CP090142.1",8,12,0.6,165935,294023,0.56,"large","detected"
"Centrifuge","ARG-plasmid","NZ_CP090143.1",1,2,0.67,46118,53329,0.86,"large","detected"
"Centrifuge","non-ARG-plasmid","NZ_AP023293.1",0,1,1,5846,7618,0.77,"small","detected"
"Centrifuge","non-ARG-plasmid","NZ_AP023295.1",0,2,1,59801,60222,0.99,"large","detected"
"Centrifuge","non-ARG-plasmid","NZ_AP023296.1",0,1,1,6835,6835,1,"small","detected"
"Centrifuge","non-ARG-plasmid","NZ_AP023297.1",1,0,0,0,4869,0,"small","not_detected"
"Centrifuge","non-ARG-plasmid","NZ_AP023298.1",0,1,1,4060,4060,1,"small","detected"
"Centrifuge","non-ARG-plasmid","NZ_CP051348.1",0,2,1,44628,48581,0.92,"large","detected"
"Centrifuge","non-ARG-plasmid","NZ_CP051367.1",0,1,1,49438,49582,1,"large","detected"
"Centrifuge","non-ARG-plasmid","NZ_CP051369.1",0,3,1,133530,136285,0.98,"large","detected"
"Centrifuge","non-ARG-plasmid","NZ_CP051376.1",0,1,1,3830,3829,1,"small","detected"
"Centrifuge","non-ARG-plasmid","NZ_CP051377.1",0,2,1,93700,94046,1,"large","detected"
"Centrifuge","non-ARG-plasmid","NZ_CP051378.1",0,1,1,3188,3188,1,"small","detected"
"Centrifuge","non-ARG-plasmid","NZ_CP051399.1",0,1,1,4198,4198,1,"small","detected"
"Centrifuge","non-ARG-plasmid","NZ_CP051401.1",0,1,1,3372,3372,1,"small","detected"
"Centrifuge","non-ARG-plasmid","NZ_CP051414.1",0,1,1,3372,3371,1,"small","detected"
"Centrifuge","non-ARG-plasmid","NZ_CP051415.1",0,1,1,3319,3319,1,"small","detected"
"Centrifuge","non-ARG-plasmid","NZ_CP051419.1",0,1,1,3372,3372,1,"small","detected"
"Centrifuge","non-ARG-plasmid","NZ_CP051420.1",0,1,1,83776,83778,1,"large","detected"
"Centrifuge","non-ARG-plasmid","NZ_CP051422.1",0,1,1,2096,2096,1,"small","detected"
"Centrifuge","non-ARG-plasmid","NZ_CP051423.1",0,1,1,2444,2444,1,"small","detected"
"Centrifuge","non-ARG-plasmid","NZ_CP051424.1",0,1,1,58411,57420,1,"large","detected"
"Centrifuge","non-ARG-plasmid","NZ_CP054716.1",0,2,1,80092,51651,1,"large","detected"
"Centrifuge","non-ARG-plasmid","NZ_CP054717.1",0,5,1,147979,162029,0.91,"large","detected"
"Centrifuge","non-ARG-plasmid","NZ_CP054718.1",0,3,1,55785,118798,0.47,"large","detected"
"Centrifuge","non-ARG-plasmid","NZ_CP058673.1",0,7,1,39795,51521,0.77,"large","detected"
"Centrifuge","non-ARG-plasmid","NZ_CP058674.1",0,1,1,3371,3371,1,"small","detected"
"Centrifuge","non-ARG-plasmid","NZ_CP058808.1",0,1,1,3752,3752,1,"small","detected"
"Centrifuge","non-ARG-plasmid","NZ_CP058809.1",0,1,1,93853,93853,1,"large","detected"
"Centrifuge","non-ARG-plasmid","NZ_CP060170.1",1,3,0.75,86247,93813,0.92,"large","detected"
"Centrifuge","non-ARG-plasmid","NZ_CP060171.1",0,1,1,1975,1975,1,"small","detected"
"Centrifuge","non-ARG-plasmid","NZ_CP060514.1",1,0,0,0,41605,0,"large","not_detected"
"Centrifuge","non-ARG-plasmid","NZ_CP060520.1",0,1,1,4073,4073,1,"small","detected"
"Centrifuge","non-ARG-plasmid","NZ_CP060521.1",0,1,1,3830,3830,1,"small","detected"
"Centrifuge","non-ARG-plasmid","NZ_CP062227.1",0,1,1,3172,3172,1,"small","detected"
"Centrifuge","non-ARG-plasmid","NZ_CP063291.1",0,2,1,58193,59372,0.98,"large","detected"
"Centrifuge","non-ARG-plasmid","NZ_CP063292.1",0,1,1,5633,5633,1,"small","detected"
"Centrifuge","non-ARG-plasmid","NZ_CP063293.1",1,0,0,0,3610,0,"small","not_detected"
"Centrifuge","non-ARG-plasmid","NZ_CP063297.1",0,3,1,33702,34894,0.97,"large","detected"
"Centrifuge","non-ARG-plasmid","NZ_CP063298.1",0,1,1,4234,4234,1,"small","detected"
"Centrifuge","non-ARG-plasmid","NZ_CP063299.1",0,1,1,3257,3257,1,"small","detected"
"Centrifuge","non-ARG-plasmid","NZ_CP063300.1",0,1,1,1718,1718,1,"small","detected"
"Centrifuge","non-ARG-plasmid","NZ_CP063331.1",0,1,1,2097,2097,1,"small","detected"
"Centrifuge","non-ARG-plasmid","NZ_CP063701.1",0,2,1,58043,59372,0.98,"large","detected"
"Centrifuge","non-ARG-plasmid","NZ_CP063709.1",0,2,1,58043,59372,0.98,"large","detected"
"Centrifuge","non-ARG-plasmid","NZ_CP063710.1",0,1,1,3272,3272,1,"small","detected"
"Centrifuge","non-ARG-plasmid","NZ_CP065565.1",0,1,1,1982,1982,1,"small","detected"
"Centrifuge","non-ARG-plasmid","NZ_CP065570.1",0,1,1,5570,5570,1,"small","detected"
"Centrifuge","non-ARG-plasmid","NZ_CP065571.1",0,1,1,4073,4073,1,"small","detected"
"Centrifuge","non-ARG-plasmid","NZ_CP065573.1",0,1,1,83532,84218,0.99,"large","detected"
"Centrifuge","non-ARG-plasmid","NZ_CP065638.1",0,2,1,93617,93933,1,"large","detected"
"Centrifuge","non-ARG-plasmid","NZ_CP066010.1",0,3,1,85406,86768,0.98,"large","detected"
"Centrifuge","non-ARG-plasmid","NZ_CP066011.1",1,1,0.5,1740,93851,0.02,"large","detected"
"Centrifuge","non-ARG-plasmid","NZ_CP066048.1",0,2,1,56914,59372,0.96,"large","detected"
"Centrifuge","non-ARG-plasmid","NZ_CP074662.1",0,2,1,49243,58711,0.84,"large","detected"
"Centrifuge","non-ARG-plasmid","NZ_CP075038.1",0,1,1,142317,147099,0.97,"large","detected"
"Centrifuge","non-ARG-plasmid","NZ_CP075111.1",0,4,1,68756,101510,0.68,"large","detected"
"Centrifuge","non-ARG-plasmid","NZ_CP075119.1",0,1,1,49594,61453,0.81,"large","detected"
"Centrifuge","non-ARG-plasmid","NZ_CP075121.1",0,1,1,49599,61453,0.81,"large","detected"
"Centrifuge","non-ARG-plasmid","NZ_CP075123.1",0,1,1,49590,61453,0.81,"large","detected"
"Centrifuge","non-ARG-plasmid","NZ_CP075124.1",0,1,1,32950,33067,1,"large","detected"
"Centrifuge","non-ARG-plasmid","NZ_CP075136.1",0,1,1,26031,26158,1,"large","detected"
"Centrifuge","non-ARG-plasmid","NZ_CP075139.1",0,1,1,123664,123781,1,"large","detected"
"Centrifuge","non-ARG-plasmid","NZ_CP077692.1",0,4,1,130311,137180,0.95,"large","detected"
"Centrifuge","non-ARG-plasmid","NZ_CP077697.1",0,3,1,88124,94857,0.93,"large","detected"
"Centrifuge","non-ARG-plasmid","NZ_CP077698.1",0,1,1,26030,26030,1,"large","detected"
"Centrifuge","non-ARG-plasmid","NZ_CP077707.1",1,4,0.8,130935,137180,0.95,"large","detected"
"Centrifuge","non-ARG-plasmid","NZ_CP077708.1",0,1,1,96045,96045,1,"large","detected"
"Centrifuge","non-ARG-plasmid","NZ_CP077709.1",0,1,1,26031,26031,1,"large","detected"
"Centrifuge","non-ARG-plasmid","NZ_CP085986.1",0,1,1,78565,79333,0.99,"large","detected"
"Centrifuge","non-ARG-plasmid","NZ_CP090144.1",0,1,1,4593,4593,1,"small","detected"
"Centrifuge","non-ARG-plasmid","NZ_CP091879.1",0,1,1,3967,3967,1,"small","detected"
"Centrifuge","non-ARG-plasmid","NZ_CP092862.1",1,13,0.93,197638,246756,0.8,"large","detected"
"Platon","ARG-plasmid","NZ_AP023312.1",3,8,0.73,185436,230500,0.8,"large","detected"
"Platon","ARG-plasmid","NZ_AP023318.1",1,5,0.83,136708,151734,0.9,"large","detected"
"Platon","ARG-plasmid","NZ_CP050832.1",1,6,0.86,144848,152940,0.95,"large","detected"
"Platon","ARG-plasmid","NZ_CP051311.1",2,9,0.82,170407,239428,0.71,"large","detected"
"Platon","ARG-plasmid","NZ_CP051312.1",0,3,1,95987,101468,0.95,"large","detected"
"Platon","ARG-plasmid","NZ_CP051318.1",0,5,1,95566,105973,0.9,"large","detected"
"Platon","ARG-plasmid","NZ_CP051319.1",0,5,1,136699,170814,0.8,"large","detected"
"Platon","ARG-plasmid","NZ_CP051347.1",1,6,0.86,133138,146811,0.91,"large","detected"
"Platon","ARG-plasmid","NZ_CP051354.1",0,1,1,102702,104600,0.98,"large","detected"
"Platon","ARG-plasmid","NZ_CP051355.1",0,1,1,9267,10454,0.89,"small","detected"
"Platon","ARG-plasmid","NZ_CP051365.1",0,1,1,8688,8688,1,"small","detected"
"Platon","ARG-plasmid","NZ_CP051371.1",0,2,1,97013,101673,0.95,"large","detected"
"Platon","ARG-plasmid","NZ_CP051379.1",1,10,0.91,171371,224721,0.76,"large","detected"
"Platon","ARG-plasmid","NZ_CP051382.1",2,5,0.71,172934,235025,0.74,"large","detected"
"Platon","ARG-plasmid","NZ_CP051383.1",0,3,1,109667,112349,0.98,"large","detected"
"Platon","ARG-plasmid","NZ_CP051400.1",2,9,0.82,166796,183507,0.91,"large","detected"
"Platon","ARG-plasmid","NZ_CP051403.1",0,3,1,96477,102040,0.95,"large","detected"
"Platon","ARG-plasmid","NZ_CP051421.1",0,1,1,5430,8496,0.64,"small","detected"
"Platon","ARG-plasmid","NZ_CP051426.1",1,9,0.9,176385,188725,0.93,"large","detected"
"Platon","ARG-plasmid","NZ_CP058672.1",6,13,0.68,176201,242694,0.73,"large","detected"
"Platon","ARG-plasmid","NZ_CP058810.1",2,8,0.8,160730,205772,0.78,"large","detected"
"Platon","ARG-plasmid","NZ_CP058811.1",0,2,1,86703,90483,0.96,"large","detected"
"Platon","ARG-plasmid","NZ_CP060513.1",3,6,0.67,170533,254662,0.67,"large","detected"
"Platon","ARG-plasmid","NZ_CP060518.1",0,3,1,231558,233305,0.99,"large","detected"
"Platon","ARG-plasmid","NZ_CP060519.1",0,3,1,61124,64443,0.95,"large","detected"
"Platon","ARG-plasmid","NZ_CP062224.1",0,16,1,245299,270696,0.91,"large","detected"
"Platon","ARG-plasmid","NZ_CP062226.1",0,14,1,241606,265014,0.91,"large","detected"
"Platon","ARG-plasmid","NZ_CP063290.1",1,3,0.75,102968,113786,0.9,"large","detected"
"Platon","ARG-plasmid","NZ_CP063295.1",0,6,1,150401,159330,0.94,"large","detected"
"Platon","ARG-plasmid","NZ_CP063296.1",1,3,0.75,95858,102507,0.94,"large","detected"
"Platon","ARG-plasmid","NZ_CP063706.1",0,10,1,81570,95694,0.85,"large","detected"
"Platon","ARG-plasmid","NZ_CP063707.1",0,1,1,6974,8688,0.8,"small","detected"
"Platon","ARG-plasmid","NZ_CP065568.1",4,8,0.67,205654,247565,0.83,"large","detected"
"Platon","ARG-plasmid","NZ_CP065569.1",0,2,1,5788,9344,0.62,"small","detected"
"Platon","ARG-plasmid","NZ_CP066008.1",0,1,1,8688,8688,1,"small","detected"
"Platon","ARG-plasmid","NZ_CP085984.1",3,7,0.7,187164,280239,0.67,"large","detected"
"Platon","ARG-plasmid","NZ_CP085985.1",1,3,0.75,50777,53154,0.96,"large","detected"
"Platon","ARG-plasmid","NZ_CP090138.1",0,20,1,239603,300750,0.8,"large","detected"
"Platon","ARG-plasmid","NZ_CP090139.1",0,3,1,48349,53329,0.91,"large","detected"
"Platon","ARG-plasmid","NZ_CP090142.1",0,20,1,239603,294023,0.81,"large","detected"
"Platon","ARG-plasmid","NZ_CP090143.1",0,3,1,48349,53329,0.91,"large","detected"
"Platon","non-ARG-plasmid","NZ_AP023293.1",0,1,1,5846,7618,0.77,"small","detected"
"Platon","non-ARG-plasmid","NZ_AP023295.1",0,2,1,59801,60222,0.99,"large","detected"
"Platon","non-ARG-plasmid","NZ_AP023296.1",0,1,1,6835,6835,1,"small","detected"
"Platon","non-ARG-plasmid","NZ_AP023297.1",0,1,1,4869,4869,1,"small","detected"
"Platon","non-ARG-plasmid","NZ_AP023298.1",0,1,1,4060,4060,1,"small","detected"
"Platon","non-ARG-plasmid","NZ_CP051348.1",0,2,1,44628,48581,0.92,"large","detected"
"Platon","non-ARG-plasmid","NZ_CP051367.1",0,1,1,49438,49582,1,"large","detected"
"Platon","non-ARG-plasmid","NZ_CP051369.1",1,2,0.67,128365,136285,0.94,"large","detected"
"Platon","non-ARG-plasmid","NZ_CP051376.1",0,1,1,3830,3829,1,"small","detected"
"Platon","non-ARG-plasmid","NZ_CP051377.1",0,2,1,93700,94046,1,"large","detected"
"Platon","non-ARG-plasmid","NZ_CP051378.1",0,1,1,3188,3188,1,"small","detected"
"Platon","non-ARG-plasmid","NZ_CP051399.1",0,1,1,4198,4198,1,"small","detected"
"Platon","non-ARG-plasmid","NZ_CP051401.1",0,1,1,3372,3372,1,"small","detected"
"Platon","non-ARG-plasmid","NZ_CP051414.1",0,1,1,3372,3371,1,"small","detected"
"Platon","non-ARG-plasmid","NZ_CP051415.1",0,1,1,3319,3319,1,"small","detected"
"Platon","non-ARG-plasmid","NZ_CP051419.1",0,1,1,3372,3372,1,"small","detected"
"Platon","non-ARG-plasmid","NZ_CP051420.1",0,1,1,83776,83778,1,"large","detected"
"Platon","non-ARG-plasmid","NZ_CP051422.1",0,1,1,2096,2096,1,"small","detected"
"Platon","non-ARG-plasmid","NZ_CP051423.1",0,1,1,2444,2444,1,"small","detected"
"Platon","non-ARG-plasmid","NZ_CP051424.1",0,1,1,58411,57420,1,"large","detected"
"Platon","non-ARG-plasmid","NZ_CP054716.1",0,2,1,80092,51651,1,"large","detected"
"Platon","non-ARG-plasmid","NZ_CP054717.1",3,2,0.4,89678,162029,0.55,"large","detected"
"Platon","non-ARG-plasmid","NZ_CP054718.1",2,1,0.33,12732,118798,0.11,"large","detected"
"Platon","non-ARG-plasmid","NZ_CP058673.1",0,7,1,39795,51521,0.77,"large","detected"
"Platon","non-ARG-plasmid","NZ_CP058674.1",0,1,1,3371,3371,1,"small","detected"
"Platon","non-ARG-plasmid","NZ_CP058808.1",0,1,1,3752,3752,1,"small","detected"
"Platon","non-ARG-plasmid","NZ_CP058809.1",0,1,1,93853,93853,1,"large","detected"
"Platon","non-ARG-plasmid","NZ_CP060170.1",0,4,1,92042,93813,0.98,"large","detected"
"Platon","non-ARG-plasmid","NZ_CP060171.1",0,1,1,1975,1975,1,"small","detected"
"Platon","non-ARG-plasmid","NZ_CP060514.1",0,1,1,41605,41605,1,"large","detected"
"Platon","non-ARG-plasmid","NZ_CP060520.1",0,1,1,4073,4073,1,"small","detected"
"Platon","non-ARG-plasmid","NZ_CP060521.1",0,1,1,3830,3830,1,"small","detected"
"Platon","non-ARG-plasmid","NZ_CP062227.1",0,1,1,3172,3172,1,"small","detected"
"Platon","non-ARG-plasmid","NZ_CP063291.1",0,2,1,58193,59372,0.98,"large","detected"
"Platon","non-ARG-plasmid","NZ_CP063292.1",0,1,1,5633,5633,1,"small","detected"
"Platon","non-ARG-plasmid","NZ_CP063293.1",0,1,1,3610,3610,1,"small","detected"
"Platon","non-ARG-plasmid","NZ_CP063297.1",0,3,1,33702,34894,0.97,"large","detected"
"Platon","non-ARG-plasmid","NZ_CP063298.1",0,1,1,4234,4234,1,"small","detected"
"Platon","non-ARG-plasmid","NZ_CP063299.1",0,1,1,3257,3257,1,"small","detected"
"Platon","non-ARG-plasmid","NZ_CP063300.1",0,1,1,1718,1718,1,"small","detected"
"Platon","non-ARG-plasmid","NZ_CP063331.1",0,1,1,2097,2097,1,"small","detected"
"Platon","non-ARG-plasmid","NZ_CP063701.1",0,2,1,58043,59372,0.98,"large","detected"
"Platon","non-ARG-plasmid","NZ_CP063709.1",0,2,1,58043,59372,0.98,"large","detected"
"Platon","non-ARG-plasmid","NZ_CP063710.1",0,1,1,3272,3272,1,"small","detected"
"Platon","non-ARG-plasmid","NZ_CP065565.1",0,1,1,1982,1982,1,"small","detected"
"Platon","non-ARG-plasmid","NZ_CP065570.1",0,1,1,5570,5570,1,"small","detected"
"Platon","non-ARG-plasmid","NZ_CP065571.1",0,1,1,4073,4073,1,"small","detected"
"Platon","non-ARG-plasmid","NZ_CP065573.1",0,1,1,83532,84218,0.99,"large","detected"
"Platon","non-ARG-plasmid","NZ_CP065638.1",0,2,1,93617,93933,1,"large","detected"
"Platon","non-ARG-plasmid","NZ_CP066010.1",0,3,1,85406,86768,0.98,"large","detected"
"Platon","non-ARG-plasmid","NZ_CP066011.1",0,2,1,93488,93851,1,"large","detected"
"Platon","non-ARG-plasmid","NZ_CP066048.1",0,2,1,56914,59372,0.96,"large","detected"
"Platon","non-ARG-plasmid","NZ_CP074662.1",0,2,1,49243,58711,0.84,"large","detected"
"Platon","non-ARG-plasmid","NZ_CP075038.1",0,1,1,142317,147099,0.97,"large","detected"
"Platon","non-ARG-plasmid","NZ_CP075111.1",1,3,0.75,62317,101510,0.61,"large","detected"
"Platon","non-ARG-plasmid","NZ_CP075119.1",0,1,1,49594,61453,0.81,"large","detected"
"Platon","non-ARG-plasmid","NZ_CP075121.1",0,1,1,49599,61453,0.81,"large","detected"
"Platon","non-ARG-plasmid","NZ_CP075123.1",0,1,1,49590,61453,0.81,"large","detected"
"Platon","non-ARG-plasmid","NZ_CP075124.1",0,1,1,32950,33067,1,"large","detected"
"Platon","non-ARG-plasmid","NZ_CP075136.1",1,0,0,0,26158,0,"large","not_detected"
"Platon","non-ARG-plasmid","NZ_CP075139.1",0,1,1,123664,123781,1,"large","detected"
"Platon","non-ARG-plasmid","NZ_CP077692.1",0,4,1,130311,137180,0.95,"large","detected"
"Platon","non-ARG-plasmid","NZ_CP077697.1",2,1,0.33,79678,94857,0.84,"large","detected"
"Platon","non-ARG-plasmid","NZ_CP077698.1",1,0,0,0,26030,0,"large","not_detected"
"Platon","non-ARG-plasmid","NZ_CP077707.1",1,4,0.8,124672,137180,0.91,"large","detected"
"Platon","non-ARG-plasmid","NZ_CP077708.1",0,1,1,96045,96045,1,"large","detected"
"Platon","non-ARG-plasmid","NZ_CP077709.1",1,0,0,0,26031,0,"large","not_detected"
"Platon","non-ARG-plasmid","NZ_CP085986.1",0,1,1,78565,79333,0.99,"large","detected"
"Platon","non-ARG-plasmid","NZ_CP090144.1",0,1,1,4593,4593,1,"small","detected"
"Platon","non-ARG-plasmid","NZ_CP091879.1",0,1,1,3967,3967,1,"small","detected"
"Platon","non-ARG-plasmid","NZ_CP092862.1",8,6,0.43,85972,246756,0.35,"large","detected"
"plasmidEC","ARG-plasmid","NZ_AP023312.1",2,9,0.82,186518,230500,0.81,"large","detected"
"plasmidEC","ARG-plasmid","NZ_AP023318.1",1,5,0.83,136708,151734,0.9,"large","detected"
"plasmidEC","ARG-plasmid","NZ_CP050832.1",0,7,1,146982,152940,0.96,"large","detected"
"plasmidEC","ARG-plasmid","NZ_CP051311.1",0,11,1,223285,239428,0.93,"large","detected"
"plasmidEC","ARG-plasmid","NZ_CP051312.1",0,3,1,95987,101468,0.95,"large","detected"
"plasmidEC","ARG-plasmid","NZ_CP051318.1",0,5,1,95566,105973,0.9,"large","detected"
"plasmidEC","ARG-plasmid","NZ_CP051319.1",0,5,1,136699,170814,0.8,"large","detected"
"plasmidEC","ARG-plasmid","NZ_CP051347.1",0,7,1,139708,146811,0.95,"large","detected"
"plasmidEC","ARG-plasmid","NZ_CP051354.1",0,1,1,102702,104600,0.98,"large","detected"
"plasmidEC","ARG-plasmid","NZ_CP051355.1",0,1,1,9267,10454,0.89,"small","detected"
"plasmidEC","ARG-plasmid","NZ_CP051365.1",0,1,1,8688,8688,1,"small","detected"
"plasmidEC","ARG-plasmid","NZ_CP051371.1",0,2,1,97013,101673,0.95,"large","detected"
"plasmidEC","ARG-plasmid","NZ_CP051379.1",0,11,1,199150,224721,0.89,"large","detected"
"plasmidEC","ARG-plasmid","NZ_CP051382.1",0,7,1,225345,235025,0.96,"large","detected"
"plasmidEC","ARG-plasmid","NZ_CP051383.1",1,2,0.67,104977,112349,0.93,"large","detected"
"plasmidEC","ARG-plasmid","NZ_CP051400.1",1,10,0.91,168692,183507,0.92,"large","detected"
"plasmidEC","ARG-plasmid","NZ_CP051403.1",0,3,1,96477,102040,0.95,"large","detected"
"plasmidEC","ARG-plasmid","NZ_CP051421.1",0,1,1,5430,8496,0.64,"small","detected"
"plasmidEC","ARG-plasmid","NZ_CP051426.1",1,9,0.9,176385,188725,0.93,"large","detected"
"plasmidEC","ARG-plasmid","NZ_CP058672.1",3,16,0.84,200351,242694,0.83,"large","detected"
"plasmidEC","ARG-plasmid","NZ_CP058810.1",1,9,0.9,162936,205772,0.79,"large","detected"
"plasmidEC","ARG-plasmid","NZ_CP058811.1",0,2,1,86703,90483,0.96,"large","detected"
"plasmidEC","ARG-plasmid","NZ_CP060513.1",0,9,1,248272,254662,0.97,"large","detected"
"plasmidEC","ARG-plasmid","NZ_CP060518.1",0,3,1,231558,233305,0.99,"large","detected"
"plasmidEC","ARG-plasmid","NZ_CP060519.1",0,3,1,61124,64443,0.95,"large","detected"
"plasmidEC","ARG-plasmid","NZ_CP062224.1",0,16,1,245299,270696,0.91,"large","detected"
"plasmidEC","ARG-plasmid","NZ_CP062226.1",0,14,1,241606,265014,0.91,"large","detected"
"plasmidEC","ARG-plasmid","NZ_CP063290.1",1,3,0.75,102968,113786,0.9,"large","detected"
"plasmidEC","ARG-plasmid","NZ_CP063295.1",0,6,1,150401,159330,0.94,"large","detected"
"plasmidEC","ARG-plasmid","NZ_CP063296.1",0,4,1,98876,102507,0.96,"large","detected"
"plasmidEC","ARG-plasmid","NZ_CP063706.1",0,10,1,81570,95694,0.85,"large","detected"
"plasmidEC","ARG-plasmid","NZ_CP063707.1",0,1,1,6974,8688,0.8,"small","detected"
"plasmidEC","ARG-plasmid","NZ_CP065568.1",1,11,0.92,224431,247565,0.91,"large","detected"
"plasmidEC","ARG-plasmid","NZ_CP065569.1",0,2,1,5788,9344,0.62,"small","detected"
"plasmidEC","ARG-plasmid","NZ_CP066008.1",0,1,1,8688,8688,1,"small","detected"
"plasmidEC","ARG-plasmid","NZ_CP085984.1",0,10,1,264902,280239,0.95,"large","detected"
"plasmidEC","ARG-plasmid","NZ_CP085985.1",1,3,0.75,50777,53154,0.96,"large","detected"
"plasmidEC","ARG-plasmid","NZ_CP090138.1",0,20,1,239603,300750,0.8,"large","detected"
"plasmidEC","ARG-plasmid","NZ_CP090139.1",0,3,1,48349,53329,0.91,"large","detected"
"plasmidEC","ARG-plasmid","NZ_CP090142.1",0,20,1,239603,294023,0.81,"large","detected"
"plasmidEC","ARG-plasmid","NZ_CP090143.1",0,3,1,48349,53329,0.91,"large","detected"
"plasmidEC","non-ARG-plasmid","NZ_AP023293.1",0,1,1,5846,7618,0.77,"small","detected"
"plasmidEC","non-ARG-plasmid","NZ_AP023295.1",0,2,1,59801,60222,0.99,"large","detected"
"plasmidEC","non-ARG-plasmid","NZ_AP023296.1",0,1,1,6835,6835,1,"small","detected"
"plasmidEC","non-ARG-plasmid","NZ_AP023297.1",1,0,0,0,4869,0,"small","not_detected"
"plasmidEC","non-ARG-plasmid","NZ_AP023298.1",0,1,1,4060,4060,1,"small","detected"
"plasmidEC","non-ARG-plasmid","NZ_CP051348.1",0,2,1,44628,48581,0.92,"large","detected"
"plasmidEC","non-ARG-plasmid","NZ_CP051367.1",0,1,1,49438,49582,1,"large","detected"
"plasmidEC","non-ARG-plasmid","NZ_CP051369.1",1,2,0.67,128365,136285,0.94,"large","detected"
"plasmidEC","non-ARG-plasmid","NZ_CP051376.1",0,1,1,3830,3829,1,"small","detected"
"plasmidEC","non-ARG-plasmid","NZ_CP051377.1",0,2,1,93700,94046,1,"large","detected"
"plasmidEC","non-ARG-plasmid","NZ_CP051378.1",0,1,1,3188,3188,1,"small","detected"
"plasmidEC","non-ARG-plasmid","NZ_CP051399.1",0,1,1,4198,4198,1,"small","detected"
"plasmidEC","non-ARG-plasmid","NZ_CP051401.1",0,1,1,3372,3372,1,"small","detected"
"plasmidEC","non-ARG-plasmid","NZ_CP051414.1",0,1,1,3372,3371,1,"small","detected"
"plasmidEC","non-ARG-plasmid","NZ_CP051415.1",0,1,1,3319,3319,1,"small","detected"
"plasmidEC","non-ARG-plasmid","NZ_CP051419.1",0,1,1,3372,3372,1,"small","detected"
"plasmidEC","non-ARG-plasmid","NZ_CP051420.1",0,1,1,83776,83778,1,"large","detected"
"plasmidEC","non-ARG-plasmid","NZ_CP051422.1",0,1,1,2096,2096,1,"small","detected"
"plasmidEC","non-ARG-plasmid","NZ_CP051423.1",0,1,1,2444,2444,1,"small","detected"
"plasmidEC","non-ARG-plasmid","NZ_CP051424.1",0,1,1,58411,57420,1,"large","detected"
"plasmidEC","non-ARG-plasmid","NZ_CP054716.1",0,2,1,80092,51651,1,"large","detected"
"plasmidEC","non-ARG-plasmid","NZ_CP054717.1",1,4,0.8,144764,162029,0.89,"large","detected"
"plasmidEC","non-ARG-plasmid","NZ_CP054718.1",1,2,0.67,50829,118798,0.43,"large","detected"
"plasmidEC","non-ARG-plasmid","NZ_CP058673.1",0,7,1,39795,51521,0.77,"large","detected"
"plasmidEC","non-ARG-plasmid","NZ_CP058674.1",0,1,1,3371,3371,1,"small","detected"
"plasmidEC","non-ARG-plasmid","NZ_CP058808.1",0,1,1,3752,3752,1,"small","detected"
"plasmidEC","non-ARG-plasmid","NZ_CP058809.1",0,1,1,93853,93853,1,"large","detected"
"plasmidEC","non-ARG-plasmid","NZ_CP060170.1",0,4,1,92042,93813,0.98,"large","detected"
"plasmidEC","non-ARG-plasmid","NZ_CP060171.1",0,1,1,1975,1975,1,"small","detected"
"plasmidEC","non-ARG-plasmid","NZ_CP060514.1",0,1,1,41605,41605,1,"large","detected"
"plasmidEC","non-ARG-plasmid","NZ_CP060520.1",0,1,1,4073,4073,1,"small","detected"
"plasmidEC","non-ARG-plasmid","NZ_CP060521.1",0,1,1,3830,3830,1,"small","detected"
"plasmidEC","non-ARG-plasmid","NZ_CP062227.1",0,1,1,3172,3172,1,"small","detected"
"plasmidEC","non-ARG-plasmid","NZ_CP063291.1",0,2,1,58193,59372,0.98,"large","detected"
"plasmidEC","non-ARG-plasmid","NZ_CP063292.1",0,1,1,5633,5633,1,"small","detected"
"plasmidEC","non-ARG-plasmid","NZ_CP063293.1",0,1,1,3610,3610,1,"small","detected"
"plasmidEC","non-ARG-plasmid","NZ_CP063297.1",0,3,1,33702,34894,0.97,"large","detected"
"plasmidEC","non-ARG-plasmid","NZ_CP063298.1",0,1,1,4234,4234,1,"small","detected"
"plasmidEC","non-ARG-plasmid","NZ_CP063299.1",0,1,1,3257,3257,1,"small","detected"
"plasmidEC","non-ARG-plasmid","NZ_CP063300.1",0,1,1,1718,1718,1,"small","detected"
"plasmidEC","non-ARG-plasmid","NZ_CP063331.1",0,1,1,2097,2097,1,"small","detected"
"plasmidEC","non-ARG-plasmid","NZ_CP063701.1",0,2,1,58043,59372,0.98,"large","detected"
"plasmidEC","non-ARG-plasmid","NZ_CP063709.1",0,2,1,58043,59372,0.98,"large","detected"
"plasmidEC","non-ARG-plasmid","NZ_CP063710.1",0,1,1,3272,3272,1,"small","detected"
"plasmidEC","non-ARG-plasmid","NZ_CP065565.1",0,1,1,1982,1982,1,"small","detected"
"plasmidEC","non-ARG-plasmid","NZ_CP065570.1",0,1,1,5570,5570,1,"small","detected"
"plasmidEC","non-ARG-plasmid","NZ_CP065571.1",0,1,1,4073,4073,1,"small","detected"
"plasmidEC","non-ARG-plasmid","NZ_CP065573.1",0,1,1,83532,84218,0.99,"large","detected"
"plasmidEC","non-ARG-plasmid","NZ_CP065638.1",0,2,1,93617,93933,1,"large","detected"
"plasmidEC","non-ARG-plasmid","NZ_CP066010.1",0,3,1,85406,86768,0.98,"large","detected"
"plasmidEC","non-ARG-plasmid","NZ_CP066011.1",0,2,1,93488,93851,1,"large","detected"
"plasmidEC","non-ARG-plasmid","NZ_CP066048.1",0,2,1,56914,59372,0.96,"large","detected"
"plasmidEC","non-ARG-plasmid","NZ_CP074662.1",0,2,1,49243,58711,0.84,"large","detected"
"plasmidEC","non-ARG-plasmid","NZ_CP075038.1",0,1,1,142317,147099,0.97,"large","detected"
"plasmidEC","non-ARG-plasmid","NZ_CP075111.1",1,3,0.75,62317,101510,0.61,"large","detected"
"plasmidEC","non-ARG-plasmid","NZ_CP075119.1",0,1,1,49594,61453,0.81,"large","detected"
"plasmidEC","non-ARG-plasmid","NZ_CP075121.1",0,1,1,49599,61453,0.81,"large","detected"
"plasmidEC","non-ARG-plasmid","NZ_CP075123.1",0,1,1,49590,61453,0.81,"large","detected"
"plasmidEC","non-ARG-plasmid","NZ_CP075124.1",0,1,1,32950,33067,1,"large","detected"
"plasmidEC","non-ARG-plasmid","NZ_CP075136.1",0,1,1,26031,26158,1,"large","detected"
"plasmidEC","non-ARG-plasmid","NZ_CP075139.1",0,1,1,123664,123781,1,"large","detected"
"plasmidEC","non-ARG-plasmid","NZ_CP077692.1",0,4,1,130311,137180,0.95,"large","detected"
"plasmidEC","non-ARG-plasmid","NZ_CP077697.1",0,3,1,88124,94857,0.93,"large","detected"
"plasmidEC","non-ARG-plasmid","NZ_CP077698.1",0,1,1,26030,26030,1,"large","detected"
"plasmidEC","non-ARG-plasmid","NZ_CP077707.1",0,5,1,132201,137180,0.96,"large","detected"
"plasmidEC","non-ARG-plasmid","NZ_CP077708.1",0,1,1,96045,96045,1,"large","detected"
"plasmidEC","non-ARG-plasmid","NZ_CP077709.1",0,1,1,26031,26031,1,"large","detected"
"plasmidEC","non-ARG-plasmid","NZ_CP085986.1",0,1,1,78565,79333,0.99,"large","detected"
"plasmidEC","non-ARG-plasmid","NZ_CP090144.1",0,1,1,4593,4593,1,"small","detected"
"plasmidEC","non-ARG-plasmid","NZ_CP091879.1",0,1,1,3967,3967,1,"small","detected"
"plasmidEC","non-ARG-plasmid","NZ_CP092862.1",1,13,0.93,197638,246756,0.8,"large","detected"
