"strain","reference_id","total_contigs"
"GCF_000732045.2_ASM73204v2","NZ_CP075037.1",41
"GCF_000732045.2_ASM73204v2","NZ_CP075038.1",1
"GCF_001652385.2_ASM165238v2","NZ_CP075141.1",66
"GCF_001652385.2_ASM165238v2","NZ_CP075142.1",3
"GCF_001713515.2_ASM171351v2","NZ_CP074661.1",34
"GCF_001713515.2_ASM171351v2","NZ_CP074662.1",4
"GCF_001756025.2_ASM175602v2","NZ_CP074663.1",66
"GCF_001756025.2_ASM175602v2","NZ_CP074664.1",2
"GCF_001831555.2_ASM183155v2","NZ_CP075140.1",99
"GCF_001831715.2_ASM183171v2","NZ_CP075138.1",40
"GCF_001831715.2_ASM183171v2","NZ_CP075139.1",1
"GCF_001831915.2_ASM183191v2","NZ_CP075137.1",38
"GCF_001831985.2_ASM183198v2","NZ_CP075135.1",76
"GCF_001831985.2_ASM183198v2","NZ_CP075136.1",1
"GCF_001832255.2_ASM183225v2","NZ_CP075128.1",86
"GCF_001833225.2_ASM183322v2","NZ_CP075134.1",63
"GCF_001833255.2_ASM183325v2","NZ_CP075129.1",89
"GCF_001833255.2_ASM183325v2","NZ_CP075130.1",5
"GCF_001833255.2_ASM183325v2","NZ_CP075131.1",1
"GCF_001833305.2_ASM183330v2","NZ_CP075127.1",66
"GCF_001834735.2_ASM183473v2","NZ_CP075132.1",57
"GCF_001834735.2_ASM183473v2","NZ_CP075133.1",2
"GCF_001834965.2_ASM183496v2","NZ_CP075125.1",93
"GCF_001834965.2_ASM183496v2","NZ_CP075126.1",6
"GCF_001972545.2_ASM197254v2","NZ_CP075118.1",38
"GCF_001972545.2_ASM197254v2","NZ_CP075119.1",1
"GCF_001972625.2_ASM197262v2","NZ_CP075120.1",35
"GCF_001972625.2_ASM197262v2","NZ_CP075121.1",1
"GCF_001973785.2_ASM197378v2","NZ_CP075122.1",40
"GCF_001973785.2_ASM197378v2","NZ_CP075123.1",4
"GCF_001973785.2_ASM197378v2","NZ_CP075124.1",1
"GCF_002265865.2_ASM226586v2","NZ_CP075112.1",36
"GCF_002266085.2_ASM226608v2","NZ_CP075113.1",37
"GCF_002266085.2_ASM226608v2","NZ_CP075114.1",1
"GCF_002266205.2_ASM226620v2","NZ_CP075115.1",35
"GCF_002266325.2_ASM226632v2","NZ_CP075116.1",37
"GCF_002507715.2_ASM250771v2","NZ_CP075106.1",34
"GCF_002507745.2_ASM250774v2","NZ_CP075108.1",47
"GCF_002507865.2_ASM250786v2","NZ_CP075107.1",43
"GCF_002507875.2_ASM250787v2","NZ_CP075109.1",33
"GCF_002507915.2_ASM250791v2","NZ_CP075110.1",41
"GCF_002507915.2_ASM250791v2","NZ_CP075111.1",4
"GCF_003064165.2_ASM306416v2","NZ_CP077691.1",60
"GCF_003064165.2_ASM306416v2","NZ_CP077692.1",4
"GCF_003064365.2_ASM306436v2","NZ_CP077711.1",78
"GCF_003064405.2_ASM306440v2","NZ_CP077693.1",83
"GCF_003064405.2_ASM306440v2","NZ_CP077694.1",7
"GCF_003064405.2_ASM306440v2","NZ_CP077695.1",1
"GCF_003067445.2_ASM306744v2","NZ_CP077704.1",68
"GCF_003067445.2_ASM306744v2","NZ_CP077705.1",1
"GCF_003067765.2_ASM306776v2","NZ_CP077696.1",54
"GCF_003067765.2_ASM306776v2","NZ_CP077697.1",3
"GCF_003067765.2_ASM306776v2","NZ_CP077698.1",1
"GCF_003067925.2_ASM306792v2","NZ_CP077699.1",94
"GCF_003067925.2_ASM306792v2","NZ_CP077700.1",4
"GCF_003067925.2_ASM306792v2","NZ_CP077701.1",1
"GCF_003067985.2_ASM306798v2","NZ_CP077702.1",43
"GCF_003068025.2_ASM306802v2","NZ_CP077706.1",44
"GCF_003068025.2_ASM306802v2","NZ_CP077707.1",7
"GCF_003068025.2_ASM306802v2","NZ_CP077708.1",1
"GCF_003068025.2_ASM306802v2","NZ_CP077709.1",1
"GCF_003068145.2_ASM306814v2","NZ_CP077710.1",94
"GCF_003581245.2_ASM358124v2","NZ_CP074606.1",48
"GCF_006461325.2_ASM646132v2","NZ_CP069166.1",73
"GCF_006461325.2_ASM646132v2","NZ_CP069167.1",17
"GCF_006461415.2_ASM646141v2","NZ_CP050832.1",7
"GCF_006461415.2_ASM646141v2","NZ_CP050833.1",41
"GCF_013161805.1_ASM1316180v1","NZ_CP053576.1",1
"GCF_013161805.1_ASM1316180v1","NZ_CP053577.1",2
"GCF_013161805.1_ASM1316180v1","NZ_CP053579.1",79
"GCF_013162165.1_ASM1316216v1","NZ_CP053582.1",47
"GCF_013328855.1_ASM1332885v1","NZ_CP054422.1",76
"GCF_013328855.1_ASM1332885v1","NZ_CP054423.1",2
"GCF_013348865.1_ASM1334886v1","NZ_CP054715.1",98
"GCF_013348865.1_ASM1334886v1","NZ_CP054716.1",3
"GCF_013348865.1_ASM1334886v1","NZ_CP054717.1",6
"GCF_013348865.1_ASM1334886v1","NZ_CP054718.1",7
"GCF_013415925.1_ASM1341592v1","NZ_CP058807.1",60
"GCF_013415925.1_ASM1341592v1","NZ_CP058808.1",1
"GCF_013415925.1_ASM1341592v1","NZ_CP058809.1",1
"GCF_013415925.1_ASM1341592v1","NZ_CP058810.1",13
"GCF_013415925.1_ASM1341592v1","NZ_CP058811.1",3
"GCF_014250355.1_ASM1425035v1","NZ_CP060169.1",77
"GCF_014250355.1_ASM1425035v1","NZ_CP060170.1",4
"GCF_014250355.1_ASM1425035v1","NZ_CP060171.1",1
"GCF_014334175.1_ASM1433417v1","NZ_CP060508.1",57
"GCF_014334175.1_ASM1433417v1","NZ_CP060509.1",8
"GCF_014334175.1_ASM1433417v1","NZ_CP060510.1",1
"GCF_014334175.1_ASM1433417v1","NZ_CP060511.1",1
"GCF_014334195.1_ASM1433419v1","NZ_CP060512.1",46
"GCF_014334195.1_ASM1433419v1","NZ_CP060513.1",11
"GCF_014334195.1_ASM1433419v1","NZ_CP060514.1",1
"GCF_014334235.1_ASM1433423v1","NZ_CP060517.1",37
"GCF_014334235.1_ASM1433423v1","NZ_CP060518.1",3
"GCF_014334235.1_ASM1433423v1","NZ_CP060519.1",3
"GCF_014334235.1_ASM1433423v1","NZ_CP060520.1",1
"GCF_014334235.1_ASM1433423v1","NZ_CP060521.1",1
"GCF_014334255.1_ASM1433425v1","NZ_CP060522.1",40
"GCF_014334255.1_ASM1433425v1","NZ_CP060523.1",3
"GCF_014334255.1_ASM1433425v1","NZ_CP060524.1",1
"GCF_014334255.1_ASM1433425v1","NZ_CP060525.1",1
"GCF_014394985.2_ASM1439498v2","NZ_CP060730.2",50
"GCF_014805785.2_ASM1480578v2","NZ_CP061929.2",49
"GCF_014840915.2_ASM1484091v2","NZ_CP062004.2",49
"GCF_014858545.1_ASM1485854v1","NZ_CP062223.1",26
"GCF_014858545.1_ASM1485854v1","NZ_CP062224.1",22
"GCF_014858565.1_ASM1485856v1","NZ_CP062225.1",31
"GCF_014858565.1_ASM1485856v1","NZ_CP062226.1",20
"GCF_014858565.1_ASM1485856v1","NZ_CP062227.1",1
"GCF_015074885.1_ASM1507488v1","NZ_CP063289.1",37
"GCF_015074885.1_ASM1507488v1","NZ_CP063290.1",5
"GCF_015074885.1_ASM1507488v1","NZ_CP063291.1",2
"GCF_015074885.1_ASM1507488v1","NZ_CP063292.1",1
"GCF_015074885.1_ASM1507488v1","NZ_CP063293.1",1
"GCF_015074905.1_ASM1507490v1","NZ_CP063294.1",41
"GCF_015074905.1_ASM1507490v1","NZ_CP063295.1",10
"GCF_015074905.1_ASM1507490v1","NZ_CP063296.1",4
"GCF_015074905.1_ASM1507490v1","NZ_CP063297.1",3
"GCF_015074905.1_ASM1507490v1","NZ_CP063298.1",1
"GCF_015074905.1_ASM1507490v1","NZ_CP063299.1",1
"GCF_015074905.1_ASM1507490v1","NZ_CP063300.1",1
"GCF_015159575.1_ASM1515957v1","NZ_CP063330.1",41
"GCF_015159575.1_ASM1515957v1","NZ_CP063331.1",1
"GCF_015240635.1_ASM1524063v1","NZ_CP063700.1",35
"GCF_015240635.1_ASM1524063v1","NZ_CP063701.1",3
"GCF_015240855.1_ASM1524085v1","NZ_CP063702.1",48
"GCF_015240855.1_ASM1524085v1","NZ_CP063703.1",17
"GCF_015240855.1_ASM1524085v1","NZ_CP063704.1",1
"GCF_015240995.1_ASM1524099v1","NZ_CP063705.1",45
"GCF_015240995.1_ASM1524099v1","NZ_CP063706.1",14
"GCF_015240995.1_ASM1524099v1","NZ_CP063707.1",2
"GCF_015241115.1_ASM1524111v1","NZ_CP063708.1",33
"GCF_015241115.1_ASM1524111v1","NZ_CP063709.1",3
"GCF_015241115.1_ASM1524111v1","NZ_CP063710.1",1
"GCF_015708295.1_ASM1570829v1","NZ_CP062795.1",38
"GCF_016025375.1_ASM1602537v1","NZ_CP065564.1",40
"GCF_016025375.1_ASM1602537v1","NZ_CP065565.1",1
"GCF_016025395.1_ASM1602539v1","NZ_CP065566.1",51
"GCF_016025415.1_ASM1602541v1","NZ_CP065567.1",71
"GCF_016025415.1_ASM1602541v1","NZ_CP065568.1",18
"GCF_016025415.1_ASM1602541v1","NZ_CP065569.1",2
"GCF_016025415.1_ASM1602541v1","NZ_CP065570.1",1
"GCF_016025415.1_ASM1602541v1","NZ_CP065571.1",1
"GCF_016025435.1_ASM1602543v1","NZ_CP065572.1",53
"GCF_016025435.1_ASM1602543v1","NZ_CP065573.1",1
"GCF_016026715.1_ASM1602671v1","NZ_CP065638.1",2
"GCF_016026715.1_ASM1602671v1","NZ_CP065639.1",57
"GCF_016028495.1_ASM1602849v1","NZ_CP065718.1",59
"GCF_016028495.1_ASM1602849v1","NZ_CP065719.1",2
"GCF_016127435.1_ASM1612743v1","NZ_CP066008.1",1
"GCF_016127435.1_ASM1612743v1","NZ_CP066009.1",59
"GCF_016127435.1_ASM1612743v1","NZ_CP066010.1",3
"GCF_016127435.1_ASM1612743v1","NZ_CP066011.1",2
"GCF_016127835.1_ASM1612783v1","NZ_CP066047.1",36
"GCF_016127835.1_ASM1612783v1","NZ_CP066048.1",2
"GCF_016451985.1_ASM1645198v1","NZ_CP051307.1",52
"GCF_016451985.1_ASM1645198v1","NZ_CP051308.1",6
"GCF_016451985.1_ASM1645198v1","NZ_CP051309.1",1
"GCF_016452005.1_ASM1645200v1","NZ_CP051310.1",43
"GCF_016452005.1_ASM1645200v1","NZ_CP051311.1",18
"GCF_016452005.1_ASM1645200v1","NZ_CP051312.1",5
"GCF_016452045.1_ASM1645204v1","NZ_CP051315.1",23
"GCF_016452045.1_ASM1645204v1","NZ_CP051316.1",6
"GCF_016452065.1_ASM1645206v1","NZ_CP051317.1",53
"GCF_016452065.1_ASM1645206v1","NZ_CP051318.1",7
"GCF_016452065.1_ASM1645206v1","NZ_CP051319.1",11
"GCF_016452165.1_ASM1645216v1","NZ_CP053051.1",59
"GCF_016452165.1_ASM1645216v1","NZ_CP053052.1",7
"GCF_016452165.1_ASM1645216v1","NZ_CP053053.1",15
"GCF_016452165.1_ASM1645216v1","NZ_CP053054.1",2
"GCF_016452165.1_ASM1645216v1","NZ_CP054465.1",1
"GCF_016452165.1_ASM1645216v1","NZ_CP054466.1",1
"GCF_016454165.1_ASM1645416v1","NZ_CP051346.1",46
"GCF_016454165.1_ASM1645416v1","NZ_CP051347.1",9
"GCF_016454165.1_ASM1645416v1","NZ_CP051348.1",3
"GCF_016454185.1_ASM1645418v1","NZ_CP051349.1",104
"GCF_016454205.1_ASM1645420v1","NZ_CP051350.1",46
"GCF_016454205.1_ASM1645420v1","NZ_CP051351.1",2
"GCF_016454205.1_ASM1645420v1","NZ_CP051352.1",2
"GCF_016454225.1_ASM1645422v1","NZ_CP051353.1",62
"GCF_016454225.1_ASM1645422v1","NZ_CP051354.1",1
"GCF_016454225.1_ASM1645422v1","NZ_CP051355.1",2
"GCF_016454245.1_ASM1645424v1","NZ_CP051356.1",65
"GCF_016454245.1_ASM1645424v1","NZ_CP051357.1",6
"GCF_016454265.1_ASM1645426v1","NZ_CP051358.1",42
"GCF_016454265.1_ASM1645426v1","NZ_CP051359.1",12
"GCF_016454265.1_ASM1645426v1","NZ_CP051360.1",9
"GCF_016454285.1_ASM1645428v1","NZ_CP051365.1",1
"GCF_016454285.1_ASM1645428v1","NZ_CP051366.1",80
"GCF_016454285.1_ASM1645428v1","NZ_CP051367.1",1
"GCF_016454305.1_ASM1645430v1","NZ_CP051368.1",67
"GCF_016454305.1_ASM1645430v1","NZ_CP051369.1",4
"GCF_016454325.1_ASM1645432v1","NZ_CP051370.1",60
"GCF_016454325.1_ASM1645432v1","NZ_CP051371.1",3
"GCF_016454345.1_ASM1645434v1","NZ_CP051372.1",52
"GCF_016454345.1_ASM1645434v1","NZ_CP051373.1",7
"GCF_016454345.1_ASM1645434v1","NZ_CP051374.1",7
"GCF_016454345.1_ASM1645434v1","NZ_CP051375.1",1
"GCF_016454365.1_ASM1645436v1","NZ_CP051376.1",1
"GCF_016454365.1_ASM1645436v1","NZ_CP051377.1",2
"GCF_016454365.1_ASM1645436v1","NZ_CP051378.1",1
"GCF_016454365.1_ASM1645436v1","NZ_CP051379.1",17
"GCF_016454365.1_ASM1645436v1","NZ_CP051380.1",52
"GCF_016454385.1_ASM1645438v1","NZ_CP051381.1",35
"GCF_016454385.1_ASM1645438v1","NZ_CP051382.1",11
"GCF_016454385.1_ASM1645438v1","NZ_CP051383.1",3
"GCF_016454425.1_ASM1645442v1","NZ_CP051384.1",59
"GCF_016454425.1_ASM1645442v1","NZ_CP051385.1",11
"GCF_016454445.1_ASM1645444v1","NZ_CP051386.1",66
"GCF_016454445.1_ASM1645444v1","NZ_CP051387.1",14
"GCF_016454445.1_ASM1645444v1","NZ_CP051388.1",8
"GCF_016454465.1_ASM1645446v1","NZ_CP051389.1",60
"GCF_016454465.1_ASM1645446v1","NZ_CP051390.1",1
"GCF_016454505.1_ASM1645450v1","NZ_CP051394.1",29
"GCF_016454505.1_ASM1645450v1","NZ_CP051395.1",4
"GCF_016454525.1_ASM1645452v1","NZ_CP051396.1",57
"GCF_016454525.1_ASM1645452v1","NZ_CP051397.1",16
"GCF_016454545.1_ASM1645454v1","NZ_CP051398.1",45
"GCF_016454545.1_ASM1645454v1","NZ_CP051399.1",1
"GCF_016454545.1_ASM1645454v1","NZ_CP051400.1",15
"GCF_016454545.1_ASM1645454v1","NZ_CP051401.1",1
"GCF_016454585.1_ASM1645458v1","NZ_CP051402.1",67
"GCF_016454585.1_ASM1645458v1","NZ_CP051403.1",3
"GCF_016454605.1_ASM1645460v1","NZ_CP051404.1",55
"GCF_016454605.1_ASM1645460v1","NZ_CP051405.1",2
"GCF_016454605.1_ASM1645460v1","NZ_CP051406.1",1
"GCF_016454645.1_ASM1645464v1","NZ_CP051410.1",41
"GCF_016454645.1_ASM1645464v1","NZ_CP051411.1",7
"GCF_016454645.1_ASM1645464v1","NZ_CP051412.1",9
"GCF_016454665.1_ASM1645466v1","NZ_CP051413.1",52
"GCF_016454665.1_ASM1645466v1","NZ_CP051414.1",1
"GCF_016454665.1_ASM1645466v1","NZ_CP051415.1",1
"GCF_016454705.1_ASM1645470v1","NZ_CP051416.1",53
"GCF_016454725.1_ASM1645472v1","NZ_CP051419.1",1
"GCF_016454725.1_ASM1645472v1","NZ_CP051420.1",1
"GCF_016454725.1_ASM1645472v1","NZ_CP051421.1",1
"GCF_016454725.1_ASM1645472v1","NZ_CP051422.1",1
"GCF_016454725.1_ASM1645472v1","NZ_CP051423.1",1
"GCF_016454725.1_ASM1645472v1","NZ_CP051424.1",1
"GCF_016454725.1_ASM1645472v1","NZ_CP051425.1",27
"GCF_016454725.1_ASM1645472v1","NZ_CP051426.1",14
"GCF_016454765.1_ASM1645476v1","NZ_CP053048.1",43
"GCF_016454765.1_ASM1645476v1","NZ_CP053049.1",6
"GCF_016454765.1_ASM1645476v1","NZ_CP053050.1",5
"GCF_016864955.1_ASM1686495v1","NZ_CP063140.1",3
"GCF_016889645.1_ASM1688964v1","NZ_CP069518.1",42
"GCF_016889645.1_ASM1688964v1","NZ_CP069519.1",1
"GCF_016952595.1_ASM1695259v1","NZ_CP051362.1",1
"GCF_016952595.1_ASM1695259v1","NZ_CP051363.1",58
"GCF_016952595.1_ASM1695259v1","NZ_CP051364.1",3
"GCF_018340585.1_ASM1834058v1","NZ_CP073715.1",41
"GCF_018340585.1_ASM1834058v1","NZ_CP073716.1",1
"GCF_018340585.1_ASM1834058v1","NZ_CP073717.1",1
"GCF_019426245.1_ASM1942624v1","NZ_CP066851.1",58
"GCF_019426245.1_ASM1942624v1","NZ_CP066852.1",2
"GCF_019428465.1_ASM1942846v1","NZ_CP080091.1",40
"GCF_019428465.1_ASM1942846v1","NZ_CP080092.1",3
"GCF_019428465.1_ASM1942846v1","NZ_CP080093.1",2
"GCF_019428465.1_ASM1942846v1","NZ_CP080094.1",1
"GCF_019670145.1_ASM1967014v1","NZ_AP023288.1",76
"GCF_019670165.1_ASM1967016v1","NZ_AP023289.1",77
"GCF_019670185.1_ASM1967018v1","NZ_AP023290.1",69
"GCF_019670205.1_ASM1967020v1","NZ_AP023291.1",83
"GCF_019670225.1_ASM1967022v1","NZ_AP023292.1",76
"GCF_019670225.1_ASM1967022v1","NZ_AP023293.1",2
"GCF_019670245.1_ASM1967024v1","NZ_AP023294.1",208
"GCF_019670245.1_ASM1967024v1","NZ_AP023295.1",2
"GCF_019670245.1_ASM1967024v1","NZ_AP023296.1",1
"GCF_019670245.1_ASM1967024v1","NZ_AP023297.1",1
"GCF_019670245.1_ASM1967024v1","NZ_AP023298.1",1
"GCF_019670265.1_ASM1967026v1","NZ_AP023299.1",70
"GCF_019670285.1_ASM1967028v1","NZ_AP023300.1",68
"GCF_019670285.1_ASM1967028v1","NZ_AP023301.1",17
"GCF_019670285.1_ASM1967028v1","NZ_AP023302.1",2
"GCF_019670305.1_ASM1967030v1","NZ_AP023303.1",67
"GCF_019670325.1_ASM1967032v1","NZ_AP023304.1",72
"GCF_019670325.1_ASM1967032v1","NZ_AP023305.1",3
"GCF_019670345.1_ASM1967034v1","NZ_AP023306.1",69
"GCF_019670345.1_ASM1967034v1","NZ_AP023307.1",17
"GCF_019670345.1_ASM1967034v1","NZ_AP023308.1",2
"GCF_019670365.1_ASM1967036v1","NZ_AP023309.1",67
"GCF_019670365.1_ASM1967036v1","NZ_AP023310.1",8
"GCF_019670385.1_ASM1967038v1","NZ_AP023311.1",71
"GCF_019670385.1_ASM1967038v1","NZ_AP023312.1",16
"GCF_019670405.1_ASM1967040v1","NZ_AP023313.1",67
"GCF_019670405.1_ASM1967040v1","NZ_AP023314.1",7
"GCF_019670425.1_ASM1967042v1","NZ_AP023315.1",69
"GCF_019670425.1_ASM1967042v1","NZ_AP023316.1",8
"GCF_019670445.1_ASM1967044v1","NZ_AP023317.1",72
"GCF_019670445.1_ASM1967044v1","NZ_AP023318.1",6
"GCF_019670465.1_ASM1967046v1","NZ_AP023319.1",74
"GCF_020736305.1_ASM2073630v1","NZ_CP085983.1",51
"GCF_020736305.1_ASM2073630v1","NZ_CP085984.1",12
"GCF_020736305.1_ASM2073630v1","NZ_CP085985.1",5
"GCF_020736325.1_ASM2073632v1","NZ_CP085980.1",4
"GCF_020736325.1_ASM2073632v1","NZ_CP085981.1",52
"GCF_020736325.1_ASM2073632v1","NZ_CP085982.1",11
"GCF_020736345.1_ASM2073634v1","NZ_CP085986.1",1
"GCF_020736345.1_ASM2073634v1","NZ_CP085987.1",70
"GCF_021397625.1_ASM2139762v1","NZ_CP090137.1",28
"GCF_021397625.1_ASM2139762v1","NZ_CP090138.1",35
"GCF_021397625.1_ASM2139762v1","NZ_CP090139.1",5
"GCF_021397625.1_ASM2139762v1","NZ_CP090140.1",2
"GCF_021397645.1_ASM2139764v1","NZ_CP090141.1",33
"GCF_021397645.1_ASM2139764v1","NZ_CP090142.1",33
"GCF_021397645.1_ASM2139764v1","NZ_CP090143.1",5
"GCF_021397645.1_ASM2139764v1","NZ_CP090144.1",1
"GCF_021397675.1_ASM2139767v1","NZ_CP090133.1",26
"GCF_021397675.1_ASM2139767v1","NZ_CP090134.1",33
"GCF_021397675.1_ASM2139767v1","NZ_CP090135.1",5
"GCF_021397675.1_ASM2139767v1","NZ_CP090136.1",1
"GCF_022162985.1_ASM2216298v1","NZ_CP091878.1",50
"GCF_022162985.1_ASM2216298v1","NZ_CP091879.1",1
"GCF_022226915.1_ASM2222691v1","NZ_CP092075.1",57
"GCF_022226915.1_ASM2222691v1","NZ_CP092076.1",4
"GCF_022533545.1_ASM2253354v1","NZ_CP092861.1",161
"GCF_022533545.1_ASM2253354v1","NZ_CP092862.1",25
"GCF_022655645.1_ASM2265564v1","NZ_CP093386.1",61
"GCF_022655645.1_ASM2265564v1","NZ_CP093387.1",2
"GCF_022655645.1_ASM2265564v1","NZ_CP093388.1",1
"GCF_022655645.1_ASM2265564v1","NZ_CP093389.1",1
"GCF_022655665.1_ASM2265566v1","NZ_CP093391.1",52
"GCF_022655685.1_ASM2265568v1","NZ_CP093390.1",64
"GCF_022655705.1_ASM2265570v1","NZ_CP093392.1",56
"GCF_022655705.1_ASM2265570v1","NZ_CP093393.1",2
"GCF_022670675.1_ASM2267067v1","NZ_CP093400.1",55
"GCF_022670675.1_ASM2267067v1","NZ_CP093401.1",10
"GCF_022670835.1_ASM2267083v1","NZ_CP093445.1",38
"GCF_022870605.1_ASM2287060v1","NZ_CP058671.1",100
"GCF_022870605.1_ASM2287060v1","NZ_CP058672.1",33
"GCF_022870605.1_ASM2287060v1","NZ_CP058673.1",12
"GCF_022870605.1_ASM2287060v1","NZ_CP058674.1",1
"GCF_022936345.1_ASM2293634v1","NZ_CP091998.1",42
"GCF_022936365.1_ASM2293636v1","NZ_CP091999.1",26
"GCF_022936365.1_ASM2293636v1","NZ_CP092000.1",1
"GCF_022936365.1_ASM2293636v1","NZ_CP092001.1",1
"GCF_022936365.1_ASM2293636v1","NZ_CP092002.1",1
"GCF_022936365.1_ASM2293636v1","NZ_CP092003.1",1
"GCF_022936385.1_ASM2293638v1","NZ_CP092004.1",37
"GCF_022936385.1_ASM2293638v1","NZ_CP092005.1",1
"GCF_022936425.1_ASM2293642v1","NZ_CP092009.1",40
"GCF_022936425.1_ASM2293642v1","NZ_CP092010.1",4
"GCF_022936425.1_ASM2293642v1","NZ_CP092011.1",1
"GCF_022936485.1_ASM2293648v1","NZ_CP092012.1",31
"GCF_022936485.1_ASM2293648v1","NZ_CP092013.1",1
