"software","variable","value","species"
"RFplasmid","recall",0.96,"S. enterica"
"Centrifuge","recall",0.82,"S. enterica"
"Platon","recall",0.86,"S. enterica"
"plasmidEC","recall",0.95,"S. enterica"
"RFplasmid","precision",0.63,"S. enterica"
"Centrifuge","precision",0.95,"S. enterica"
"Platon","precision",0.87,"S. enterica"
"plasmidEC","precision",0.88,"S. enterica"
"RFplasmid","f1_score",0.76,"S. enterica"
"Centrifuge","f1_score",0.88,"S. enterica"
"Platon","f1_score",0.86,"S. enterica"
"plasmidEC","f1_score",0.91,"S. enterica"
