"arg_plasmid","length_classification","count","species"
"ARG-plasmid","large",74,"S. enterica"
"ARG-plasmid","small",10,"S. enterica"
"non-ARG-plasmid","large",70,"S. enterica"
"non-ARG-plasmid","small",53,"S. enterica"
