<?xml version='1.0' encoding='UTF-8' ?>
<svg xmlns='http://www.w3.org/2000/svg' xmlns:xlink='http://www.w3.org/1999/xlink' class='svglite' width='504.00pt' height='360.00pt' viewBox='0 0 504.00 360.00'>
<defs>
  <style type='text/css'><![CDATA[
    .svglite line, .svglite polyline, .svglite polygon, .svglite path, .svglite rect, .svglite circle {
      fill: none;
      stroke: #000000;
      stroke-linecap: round;
      stroke-linejoin: round;
      stroke-miterlimit: 10.00;
    }
    .svglite text {
      white-space: pre;
    }
  ]]></style>
</defs>
<rect width='100%' height='100%' style='stroke: none; fill: #FFFFFF;'/>
<defs>
  <clipPath id='cpMC4wMHw1MDQuMDB8MC4wMHwzNjAuMDA='>
    <rect x='0.00' y='0.00' width='504.00' height='360.00' />
  </clipPath>
</defs>
<g clip-path='url(#cpMC4wMHw1MDQuMDB8MC4wMHwzNjAuMDA=)'>
<rect x='0.00' y='0.00' width='504.00' height='360.00' style='stroke-width: 1.07; stroke: #FFFFFF; fill: #FFFFFF;' />
</g>
<defs>
  <clipPath id='cpNDAuNTl8MzkxLjQwfDUuNDh8MzI4LjI1'>
    <rect x='40.59' y='5.48' width='350.81' height='322.77' />
  </clipPath>
</defs>
<g clip-path='url(#cpNDAuNTl8MzkxLjQwfDUuNDh8MzI4LjI1)'>
<rect x='40.59' y='5.48' width='350.81' height='322.77' style='stroke-width: 1.07; stroke: none; fill: #EBEBEB;' />
<polyline points='40.59,278.71 391.40,278.71 ' style='stroke-width: 0.53; stroke: #FFFFFF; stroke-linecap: butt;' />
<polyline points='40.59,204.84 391.40,204.84 ' style='stroke-width: 0.53; stroke: #FFFFFF; stroke-linecap: butt;' />
<polyline points='40.59,130.96 391.40,130.96 ' style='stroke-width: 0.53; stroke: #FFFFFF; stroke-linecap: butt;' />
<polyline points='40.59,57.09 391.40,57.09 ' style='stroke-width: 0.53; stroke: #FFFFFF; stroke-linecap: butt;' />
<polyline points='78.90,328.25 78.90,5.48 ' style='stroke-width: 0.53; stroke: #FFFFFF; stroke-linecap: butt;' />
<polyline points='163.63,328.25 163.63,5.48 ' style='stroke-width: 0.53; stroke: #FFFFFF; stroke-linecap: butt;' />
<polyline points='248.36,328.25 248.36,5.48 ' style='stroke-width: 0.53; stroke: #FFFFFF; stroke-linecap: butt;' />
<polyline points='333.09,328.25 333.09,5.48 ' style='stroke-width: 0.53; stroke: #FFFFFF; stroke-linecap: butt;' />
<polyline points='40.59,315.65 391.40,315.65 ' style='stroke-width: 1.07; stroke: #FFFFFF; stroke-linecap: butt;' />
<polyline points='40.59,241.77 391.40,241.77 ' style='stroke-width: 1.07; stroke: #FFFFFF; stroke-linecap: butt;' />
<polyline points='40.59,167.90 391.40,167.90 ' style='stroke-width: 1.07; stroke: #FFFFFF; stroke-linecap: butt;' />
<polyline points='40.59,94.03 391.40,94.03 ' style='stroke-width: 1.07; stroke: #FFFFFF; stroke-linecap: butt;' />
<polyline points='40.59,20.15 391.40,20.15 ' style='stroke-width: 1.07; stroke: #FFFFFF; stroke-linecap: butt;' />
<polyline points='121.27,328.25 121.27,5.48 ' style='stroke-width: 1.07; stroke: #FFFFFF; stroke-linecap: butt;' />
<polyline points='206.00,328.25 206.00,5.48 ' style='stroke-width: 1.07; stroke: #FFFFFF; stroke-linecap: butt;' />
<polyline points='290.73,328.25 290.73,5.48 ' style='stroke-width: 1.07; stroke: #FFFFFF; stroke-linecap: butt;' />
<polyline points='375.46,328.25 375.46,5.48 ' style='stroke-width: 1.07; stroke: #FFFFFF; stroke-linecap: butt;' />
<circle cx='375.46' cy='285.51' r='1.95' style='stroke-width: 0.71; stroke: #F8766D; fill: #F8766D;' />
<circle cx='336.14' cy='236.75' r='1.95' style='stroke-width: 0.71; stroke: #F8766D; fill: #F8766D;' />
<circle cx='297.17' cy='304.12' r='1.95' style='stroke-width: 0.71; stroke: #F8766D; fill: #F8766D;' />
<circle cx='375.46' cy='308.85' r='1.95' style='stroke-width: 0.71; stroke: #F8766D; fill: #F8766D;' />
<circle cx='375.46' cy='312.99' r='1.95' style='stroke-width: 0.71; stroke: #F8766D; fill: #F8766D;' />
<circle cx='375.46' cy='299.69' r='1.95' style='stroke-width: 0.71; stroke: #F8766D; fill: #F8766D;' />
<circle cx='319.20' cy='306.78' r='1.95' style='stroke-width: 0.71; stroke: #F8766D; fill: #F8766D;' />
<circle cx='375.46' cy='92.25' r='1.95' style='stroke-width: 0.71; stroke: #F8766D; fill: #F8766D;' />
<circle cx='375.46' cy='269.55' r='1.95' style='stroke-width: 0.71; stroke: #F8766D; fill: #F8766D;' />
<circle cx='373.08' cy='20.15' r='1.95' style='stroke-width: 0.71; stroke: #F8766D; fill: #F8766D;' />
<circle cx='265.99' cy='99.64' r='1.95' style='stroke-width: 0.71; stroke: #F8766D; fill: #F8766D;' />
<circle cx='341.56' cy='133.92' r='1.95' style='stroke-width: 0.71; stroke: #F8766D; fill: #F8766D;' />
<circle cx='375.46' cy='20.15' r='1.95' style='stroke-width: 0.71; stroke: #F8766D; fill: #F8766D;' />
<circle cx='354.78' cy='241.77' r='1.95' style='stroke-width: 0.71; stroke: #F8766D; fill: #F8766D;' />
<circle cx='375.46' cy='288.46' r='1.95' style='stroke-width: 0.71; stroke: #F8766D; fill: #F8766D;' />
<circle cx='348.34' cy='247.68' r='1.95' style='stroke-width: 0.71; stroke: #F8766D; fill: #F8766D;' />
<circle cx='355.80' cy='282.26' r='1.95' style='stroke-width: 0.71; stroke: #F8766D; fill: #F8766D;' />
<circle cx='282.93' cy='288.17' r='1.95' style='stroke-width: 0.71; stroke: #F8766D; fill: #F8766D;' />
<circle cx='364.95' cy='36.40' r='1.95' style='stroke-width: 0.71; stroke: #F8766D; fill: #F8766D;' />
<circle cx='334.79' cy='144.85' r='1.95' style='stroke-width: 0.71; stroke: #F8766D; fill: #F8766D;' />
<circle cx='185.32' cy='250.93' r='1.95' style='stroke-width: 0.71; stroke: #F8766D; fill: #F8766D;' />
<circle cx='375.46' cy='20.15' r='1.95' style='stroke-width: 0.71; stroke: #F8766D; fill: #F8766D;' />
<circle cx='359.87' cy='33.74' r='1.95' style='stroke-width: 0.71; stroke: #F8766D; fill: #F8766D;' />
<circle cx='265.65' cy='251.82' r='1.95' style='stroke-width: 0.71; stroke: #F8766D; fill: #F8766D;' />
<circle cx='336.14' cy='297.92' r='1.95' style='stroke-width: 0.71; stroke: #F8766D; fill: #F8766D;' />
<circle cx='354.10' cy='185.04' r='1.95' style='stroke-width: 0.71; stroke: #F8766D; fill: #F8766D;' />
<circle cx='183.29' cy='257.44' r='1.95' style='stroke-width: 0.71; stroke: #F8766D; fill: #F8766D;' />
<circle cx='317.84' cy='150.17' r='1.95' style='stroke-width: 0.71; stroke: #F8766D; fill: #F8766D;' />
<circle cx='375.46' cy='312.99' r='1.95' style='stroke-width: 0.71; stroke: #F8766D; fill: #F8766D;' />
<circle cx='325.30' cy='278.12' r='1.95' style='stroke-width: 0.71; stroke: #F8766D; fill: #F8766D;' />
<circle cx='361.56' cy='282.85' r='1.95' style='stroke-width: 0.71; stroke: #F8766D; fill: #F8766D;' />
<circle cx='349.70' cy='265.41' r='1.95' style='stroke-width: 0.71; stroke: #F8766D; fill: #F8766D;' />
<circle cx='365.29' cy='235.57' r='1.95' style='stroke-width: 0.71; stroke: #F8766D; fill: #F8766D;' />
<circle cx='375.46' cy='238.82' r='1.95' style='stroke-width: 0.71; stroke: #F8766D; fill: #F8766D;' />
<circle cx='83.31' cy='280.19' r='1.95' style='stroke-width: 0.71; stroke: #F8766D; fill: #F8766D;' />
<circle cx='256.16' cy='118.55' r='1.95' style='stroke-width: 0.71; stroke: #F8766D; fill: #F8766D;' />
<circle cx='352.41' cy='86.05' r='1.95' style='stroke-width: 0.71; stroke: #F8766D; fill: #F8766D;' />
<circle cx='164.31' cy='138.35' r='1.95' style='stroke-width: 0.71; stroke: #F8766D; fill: #F8766D;' />
<circle cx='226.33' cy='98.16' r='1.95' style='stroke-width: 0.71; stroke: #F8766D; fill: #F8766D;' />
<circle cx='338.17' cy='104.66' r='1.95' style='stroke-width: 0.71; stroke: #F8766D; fill: #F8766D;' />
<circle cx='200.58' cy='47.04' r='1.95' style='stroke-width: 0.71; stroke: #F8766D; fill: #F8766D;' />
<circle cx='375.46' cy='20.15' r='1.95' style='stroke-width: 0.71; stroke: #F8766D; fill: #F8766D;' />
<circle cx='375.46' cy='20.15' r='1.95' style='stroke-width: 0.71; stroke: #F8766D; fill: #F8766D;' />
<circle cx='375.46' cy='20.15' r='1.95' style='stroke-width: 0.71; stroke: #F8766D; fill: #F8766D;' />
<circle cx='230.40' cy='120.32' r='1.95' style='stroke-width: 0.71; stroke: #F8766D; fill: #F8766D;' />
<circle cx='163.97' cy='138.65' r='1.95' style='stroke-width: 0.71; stroke: #F8766D; fill: #F8766D;' />
<circle cx='375.46' cy='20.15' r='1.95' style='stroke-width: 0.71; stroke: #F8766D; fill: #F8766D;' />
<circle cx='375.46' cy='20.15' r='1.95' style='stroke-width: 0.71; stroke: #F8766D; fill: #F8766D;' />
<circle cx='224.98' cy='119.44' r='1.95' style='stroke-width: 0.71; stroke: #F8766D; fill: #F8766D;' />
<circle cx='375.46' cy='20.15' r='1.95' style='stroke-width: 0.71; stroke: #F8766D; fill: #F8766D;' />
<circle cx='310.72' cy='139.24' r='1.95' style='stroke-width: 0.71; stroke: #F8766D; fill: #F8766D;' />
<circle cx='375.46' cy='286.10' r='1.95' style='stroke-width: 0.71; stroke: #F8766D; fill: #F8766D;' />
<circle cx='329.02' cy='96.09' r='1.95' style='stroke-width: 0.71; stroke: #F8766D; fill: #F8766D;' />
<circle cx='330.38' cy='166.42' r='1.95' style='stroke-width: 0.71; stroke: #F8766D; fill: #F8766D;' />
<circle cx='375.46' cy='20.15' r='1.95' style='stroke-width: 0.71; stroke: #F8766D; fill: #F8766D;' />
<circle cx='346.65' cy='45.27' r='1.95' style='stroke-width: 0.71; stroke: #F8766D; fill: #F8766D;' />
<circle cx='245.65' cy='104.96' r='1.95' style='stroke-width: 0.71; stroke: #F8766D; fill: #F8766D;' />
<circle cx='338.85' cy='90.18' r='1.95' style='stroke-width: 0.71; stroke: #F8766D; fill: #F8766D;' />
<circle cx='375.46' cy='30.49' r='1.95' style='stroke-width: 0.71; stroke: #F8766D; fill: #F8766D;' />
<circle cx='354.44' cy='38.47' r='1.95' style='stroke-width: 0.71; stroke: #F8766D; fill: #F8766D;' />
<circle cx='192.78' cy='25.47' r='1.95' style='stroke-width: 0.71; stroke: #F8766D; fill: #F8766D;' />
<circle cx='346.31' cy='45.56' r='1.95' style='stroke-width: 0.71; stroke: #F8766D; fill: #F8766D;' />
<circle cx='245.31' cy='91.66' r='1.95' style='stroke-width: 0.71; stroke: #F8766D; fill: #F8766D;' />
<circle cx='361.22' cy='86.05' r='1.95' style='stroke-width: 0.71; stroke: #F8766D; fill: #F8766D;' />
<circle cx='233.45' cy='64.48' r='1.95' style='stroke-width: 0.71; stroke: #F8766D; fill: #F8766D;' />
<circle cx='181.26' cy='84.57' r='1.95' style='stroke-width: 0.71; stroke: #F8766D; fill: #F8766D;' />
<circle cx='375.46' cy='20.15' r='1.95' style='stroke-width: 0.71; stroke: #F8766D; fill: #F8766D;' />
<circle cx='375.46' cy='20.15' r='1.95' style='stroke-width: 0.71; stroke: #F8766D; fill: #F8766D;' />
<circle cx='375.46' cy='20.15' r='1.95' style='stroke-width: 0.71; stroke: #F8766D; fill: #F8766D;' />
<circle cx='375.46' cy='90.48' r='1.95' style='stroke-width: 0.71; stroke: #F8766D; fill: #F8766D;' />
<circle cx='375.46' cy='89.00' r='1.95' style='stroke-width: 0.71; stroke: #F8766D; fill: #F8766D;' />
<circle cx='317.16' cy='127.42' r='1.95' style='stroke-width: 0.71; stroke: #F8766D; fill: #F8766D;' />
<circle cx='375.46' cy='20.15' r='1.95' style='stroke-width: 0.71; stroke: #F8766D; fill: #F8766D;' />
<circle cx='375.46' cy='20.15' r='1.95' style='stroke-width: 0.71; stroke: #F8766D; fill: #F8766D;' />
<circle cx='375.46' cy='20.15' r='1.95' style='stroke-width: 0.71; stroke: #F8766D; fill: #F8766D;' />
<circle cx='176.85' cy='38.47' r='1.95' style='stroke-width: 0.71; stroke: #F8766D; fill: #F8766D;' />
<circle cx='375.46' cy='20.15' r='1.95' style='stroke-width: 0.71; stroke: #F8766D; fill: #F8766D;' />
<circle cx='286.66' cy='39.36' r='1.95' style='stroke-width: 0.71; stroke: #F8766D; fill: #F8766D;' />
<circle cx='255.82' cy='65.07' r='1.95' style='stroke-width: 0.71; stroke: #F8766D; fill: #F8766D;' />
<circle cx='314.11' cy='267.19' r='1.95' style='stroke-width: 0.71; stroke: #F8766D; fill: #F8766D;' />
<circle cx='336.14' cy='156.38' r='1.95' style='stroke-width: 0.71; stroke: #F8766D; fill: #F8766D;' />
<circle cx='294.45' cy='135.39' r='1.95' style='stroke-width: 0.71; stroke: #F8766D; fill: #F8766D;' />
<circle cx='375.46' cy='20.15' r='1.95' style='stroke-width: 0.71; stroke: #F8766D; fill: #F8766D;' />
<circle cx='375.46' cy='20.15' r='1.95' style='stroke-width: 0.71; stroke: #F8766D; fill: #F8766D;' />
<circle cx='286.66' cy='101.41' r='1.95' style='stroke-width: 0.71; stroke: #F8766D; fill: #F8766D;' />
<circle cx='337.50' cy='88.41' r='1.95' style='stroke-width: 0.71; stroke: #F8766D; fill: #F8766D;' />
<circle cx='375.46' cy='20.15' r='1.95' style='stroke-width: 0.71; stroke: #F8766D; fill: #F8766D;' />
<circle cx='263.95' cy='141.30' r='1.95' style='stroke-width: 0.71; stroke: #F8766D; fill: #F8766D;' />
<circle cx='375.46' cy='20.15' r='1.95' style='stroke-width: 0.71; stroke: #F8766D; fill: #F8766D;' />
<circle cx='312.08' cy='75.41' r='1.95' style='stroke-width: 0.71; stroke: #F8766D; fill: #F8766D;' />
<circle cx='323.94' cy='66.25' r='1.95' style='stroke-width: 0.71; stroke: #F8766D; fill: #F8766D;' />
<circle cx='318.52' cy='77.48' r='1.95' style='stroke-width: 0.71; stroke: #F8766D; fill: #F8766D;' />
<circle cx='277.85' cy='94.62' r='1.95' style='stroke-width: 0.71; stroke: #F8766D; fill: #F8766D;' />
<circle cx='375.46' cy='30.49' r='1.95' style='stroke-width: 0.71; stroke: #F8766D; fill: #F8766D;' />
<circle cx='331.40' cy='85.75' r='1.95' style='stroke-width: 0.71; stroke: #F8766D; fill: #F8766D;' />
<circle cx='179.56' cy='133.33' r='1.95' style='stroke-width: 0.71; stroke: #F8766D; fill: #F8766D;' />
<circle cx='358.51' cy='34.93' r='1.95' style='stroke-width: 0.71; stroke: #F8766D; fill: #F8766D;' />
<circle cx='244.30' cy='122.98' r='1.95' style='stroke-width: 0.71; stroke: #F8766D; fill: #F8766D;' />
<circle cx='200.24' cy='187.40' r='1.95' style='stroke-width: 0.71; stroke: #F8766D; fill: #F8766D;' />
<circle cx='372.41' cy='22.81' r='1.95' style='stroke-width: 0.71; stroke: #F8766D; fill: #F8766D;' />
<circle cx='375.46' cy='42.31' r='1.95' style='stroke-width: 0.71; stroke: #F8766D; fill: #F8766D;' />
<circle cx='283.61' cy='120.32' r='1.95' style='stroke-width: 0.71; stroke: #F8766D; fill: #F8766D;' />
<circle cx='375.46' cy='30.49' r='1.95' style='stroke-width: 0.71; stroke: #F8766D; fill: #F8766D;' />
<circle cx='352.41' cy='85.75' r='1.95' style='stroke-width: 0.71; stroke: #F8766D; fill: #F8766D;' />
<circle cx='187.02' cy='203.95' r='1.95' style='stroke-width: 0.71; stroke: #F8766D; fill: #F8766D;' />
<circle cx='375.46' cy='20.15' r='1.95' style='stroke-width: 0.71; stroke: #F8766D; fill: #F8766D;' />
<circle cx='375.46' cy='20.15' r='1.95' style='stroke-width: 0.71; stroke: #F8766D; fill: #F8766D;' />
<circle cx='283.61' cy='121.21' r='1.95' style='stroke-width: 0.71; stroke: #F8766D; fill: #F8766D;' />
<circle cx='269.71' cy='123.28' r='1.95' style='stroke-width: 0.71; stroke: #F8766D; fill: #F8766D;' />
<circle cx='171.77' cy='208.09' r='1.95' style='stroke-width: 0.71; stroke: #F8766D; fill: #F8766D;' />
<circle cx='375.46' cy='20.15' r='1.95' style='stroke-width: 0.71; stroke: #F8766D; fill: #F8766D;' />
<circle cx='348.34' cy='88.12' r='1.95' style='stroke-width: 0.71; stroke: #F8766D; fill: #F8766D;' />
<circle cx='375.46' cy='20.15' r='1.95' style='stroke-width: 0.71; stroke: #F8766D; fill: #F8766D;' />
<circle cx='375.46' cy='20.15' r='1.95' style='stroke-width: 0.71; stroke: #F8766D; fill: #F8766D;' />
<circle cx='364.27' cy='29.90' r='1.95' style='stroke-width: 0.71; stroke: #F8766D; fill: #F8766D;' />
<circle cx='323.94' cy='66.25' r='1.95' style='stroke-width: 0.71; stroke: #F8766D; fill: #F8766D;' />
<circle cx='313.43' cy='119.73' r='1.95' style='stroke-width: 0.71; stroke: #F8766D; fill: #F8766D;' />
<circle cx='375.46' cy='171.45' r='1.95' style='stroke-width: 0.71; stroke: #F8766D; fill: #F8766D;' />
<circle cx='251.75' cy='114.41' r='1.95' style='stroke-width: 0.71; stroke: #F8766D; fill: #F8766D;' />
<circle cx='350.04' cy='91.66' r='1.95' style='stroke-width: 0.71; stroke: #F8766D; fill: #F8766D;' />
<circle cx='195.49' cy='113.23' r='1.95' style='stroke-width: 0.71; stroke: #F8766D; fill: #F8766D;' />
<circle cx='375.46' cy='42.31' r='1.95' style='stroke-width: 0.71; stroke: #F8766D; fill: #F8766D;' />
<circle cx='257.85' cy='120.92' r='1.95' style='stroke-width: 0.71; stroke: #F8766D; fill: #F8766D;' />
<circle cx='333.09' cy='97.87' r='1.95' style='stroke-width: 0.71; stroke: #F8766D; fill: #F8766D;' />
<circle cx='370.03' cy='34.93' r='1.95' style='stroke-width: 0.71; stroke: #F8766D; fill: #F8766D;' />
<circle cx='375.46' cy='20.15' r='1.95' style='stroke-width: 0.71; stroke: #F8766D; fill: #F8766D;' />
<circle cx='375.46' cy='42.31' r='1.95' style='stroke-width: 0.71; stroke: #F8766D; fill: #F8766D;' />
<circle cx='256.50' cy='120.92' r='1.95' style='stroke-width: 0.71; stroke: #F8766D; fill: #F8766D;' />
<circle cx='342.92' cy='97.87' r='1.95' style='stroke-width: 0.71; stroke: #F8766D; fill: #F8766D;' />
<circle cx='370.03' cy='34.93' r='1.95' style='stroke-width: 0.71; stroke: #F8766D; fill: #F8766D;' />
<circle cx='375.46' cy='20.15' r='1.95' style='stroke-width: 0.71; stroke: #F8766D; fill: #F8766D;' />
<circle cx='375.46' cy='20.15' r='1.95' style='stroke-width: 0.71; stroke: #F8766D; fill: #F8766D;' />
<circle cx='221.25' cy='119.44' r='1.95' style='stroke-width: 0.71; stroke: #F8766D; fill: #F8766D;' />
<circle cx='195.49' cy='113.23' r='1.95' style='stroke-width: 0.71; stroke: #F8766D; fill: #F8766D;' />
<circle cx='322.92' cy='120.03' r='1.95' style='stroke-width: 0.71; stroke: #F8766D; fill: #F8766D;' />
<circle cx='295.13' cy='130.37' r='1.95' style='stroke-width: 0.71; stroke: #F8766D; fill: #F8766D;' />
<circle cx='336.48' cy='143.96' r='1.95' style='stroke-width: 0.71; stroke: #F8766D; fill: #F8766D;' />
<circle cx='375.46' cy='20.15' r='1.95' style='stroke-width: 0.71; stroke: #F8766D; fill: #F8766D;' />
<circle cx='375.46' cy='20.15' r='1.95' style='stroke-width: 0.71; stroke: #F8766D; fill: #F8766D;' />
<circle cx='375.46' cy='20.15' r='1.95' style='stroke-width: 0.71; stroke: #F8766D; fill: #F8766D;' />
<circle cx='375.46' cy='20.15' r='1.95' style='stroke-width: 0.71; stroke: #F8766D; fill: #F8766D;' />
<circle cx='258.87' cy='122.69' r='1.95' style='stroke-width: 0.71; stroke: #F8766D; fill: #F8766D;' />
<circle cx='352.07' cy='86.93' r='1.95' style='stroke-width: 0.71; stroke: #F8766D; fill: #F8766D;' />
<circle cx='375.46' cy='20.15' r='1.95' style='stroke-width: 0.71; stroke: #F8766D; fill: #F8766D;' />
<circle cx='375.46' cy='20.15' r='1.95' style='stroke-width: 0.71; stroke: #F8766D; fill: #F8766D;' />
<circle cx='370.03' cy='34.93' r='1.95' style='stroke-width: 0.71; stroke: #F8766D; fill: #F8766D;' />
<circle cx='375.46' cy='42.31' r='1.95' style='stroke-width: 0.71; stroke: #F8766D; fill: #F8766D;' />
<circle cx='226.33' cy='69.79' r='1.95' style='stroke-width: 0.71; stroke: #F8766D; fill: #F8766D;' />
<circle cx='293.78' cy='149.58' r='1.95' style='stroke-width: 0.71; stroke: #F8766D; fill: #F8766D;' />
<circle cx='375.46' cy='26.36' r='1.95' style='stroke-width: 0.71; stroke: #F8766D; fill: #F8766D;' />
<circle cx='375.46' cy='27.24' r='1.95' style='stroke-width: 0.71; stroke: #F8766D; fill: #F8766D;' />
<circle cx='375.46' cy='20.15' r='1.95' style='stroke-width: 0.71; stroke: #F8766D; fill: #F8766D;' />
<circle cx='338.85' cy='91.37' r='1.95' style='stroke-width: 0.71; stroke: #F8766D; fill: #F8766D;' />
<circle cx='304.96' cy='66.25' r='1.95' style='stroke-width: 0.71; stroke: #F8766D; fill: #F8766D;' />
<circle cx='348.68' cy='124.76' r='1.95' style='stroke-width: 0.71; stroke: #F8766D; fill: #F8766D;' />
<circle cx='294.79' cy='104.66' r='1.95' style='stroke-width: 0.71; stroke: #F8766D; fill: #F8766D;' />
<circle cx='370.03' cy='24.88' r='1.95' style='stroke-width: 0.71; stroke: #F8766D; fill: #F8766D;' />
<circle cx='375.46' cy='20.15' r='1.95' style='stroke-width: 0.71; stroke: #F8766D; fill: #F8766D;' />
<circle cx='375.46' cy='20.15' r='1.95' style='stroke-width: 0.71; stroke: #F8766D; fill: #F8766D;' />
<circle cx='296.15' cy='107.62' r='1.95' style='stroke-width: 0.71; stroke: #F8766D; fill: #F8766D;' />
<circle cx='335.46' cy='170.56' r='1.95' style='stroke-width: 0.71; stroke: #F8766D; fill: #F8766D;' />
<circle cx='375.46' cy='20.15' r='1.95' style='stroke-width: 0.71; stroke: #F8766D; fill: #F8766D;' />
<circle cx='375.46' cy='27.24' r='1.95' style='stroke-width: 0.71; stroke: #F8766D; fill: #F8766D;' />
<circle cx='207.69' cy='107.32' r='1.95' style='stroke-width: 0.71; stroke: #F8766D; fill: #F8766D;' />
<circle cx='350.04' cy='140.12' r='1.95' style='stroke-width: 0.71; stroke: #F8766D; fill: #F8766D;' />
<circle cx='375.46' cy='28.72' r='1.95' style='stroke-width: 0.71; stroke: #F8766D; fill: #F8766D;' />
<circle cx='375.46' cy='28.72' r='1.95' style='stroke-width: 0.71; stroke: #F8766D; fill: #F8766D;' />
<circle cx='347.66' cy='109.69' r='1.95' style='stroke-width: 0.71; stroke: #F8766D; fill: #F8766D;' />
<circle cx='375.46' cy='145.44' r='1.95' style='stroke-width: 0.71; stroke: #F8766D; fill: #F8766D;' />
<circle cx='375.46' cy='38.47' r='1.95' style='stroke-width: 0.71; stroke: #F8766D; fill: #F8766D;' />
<circle cx='297.50' cy='91.66' r='1.95' style='stroke-width: 0.71; stroke: #F8766D; fill: #F8766D;' />
<circle cx='277.85' cy='109.39' r='1.95' style='stroke-width: 0.71; stroke: #F8766D; fill: #F8766D;' />
<circle cx='375.46' cy='47.93' r='1.95' style='stroke-width: 0.71; stroke: #F8766D; fill: #F8766D;' />
<circle cx='375.46' cy='20.15' r='1.95' style='stroke-width: 0.71; stroke: #F8766D; fill: #F8766D;' />
<circle cx='315.47' cy='86.34' r='1.95' style='stroke-width: 0.71; stroke: #F8766D; fill: #F8766D;' />
<circle cx='336.82' cy='108.50' r='1.95' style='stroke-width: 0.71; stroke: #F8766D; fill: #F8766D;' />
<circle cx='331.40' cy='55.32' r='1.95' style='stroke-width: 0.71; stroke: #F8766D; fill: #F8766D;' />
<circle cx='367.32' cy='59.45' r='1.95' style='stroke-width: 0.71; stroke: #F8766D; fill: #F8766D;' />
<circle cx='375.46' cy='108.21' r='1.95' style='stroke-width: 0.71; stroke: #F8766D; fill: #F8766D;' />
<circle cx='374.44' cy='28.72' r='1.95' style='stroke-width: 0.71; stroke: #F8766D; fill: #F8766D;' />
<circle cx='365.29' cy='85.75' r='1.95' style='stroke-width: 0.71; stroke: #F8766D; fill: #F8766D;' />
<circle cx='375.46' cy='289.64' r='1.95' style='stroke-width: 0.71; stroke: #F8766D; fill: #F8766D;' />
<circle cx='361.22' cy='84.27' r='1.95' style='stroke-width: 0.71; stroke: #F8766D; fill: #F8766D;' />
<circle cx='375.46' cy='265.71' r='1.95' style='stroke-width: 0.71; stroke: #F8766D; fill: #F8766D;' />
<circle cx='334.79' cy='144.26' r='1.95' style='stroke-width: 0.71; stroke: #F8766D; fill: #F8766D;' />
<circle cx='368.68' cy='81.91' r='1.95' style='stroke-width: 0.71; stroke: #F8766D; fill: #F8766D;' />
<circle cx='375.46' cy='42.02' r='1.95' style='stroke-width: 0.71; stroke: #F8766D; fill: #F8766D;' />
<circle cx='375.12' cy='42.02' r='1.95' style='stroke-width: 0.71; stroke: #F8766D; fill: #F8766D;' />
<circle cx='375.46' cy='20.15' r='1.95' style='stroke-width: 0.71; stroke: #F8766D; fill: #F8766D;' />
<circle cx='284.63' cy='99.64' r='1.95' style='stroke-width: 0.71; stroke: #F8766D; fill: #F8766D;' />
<circle cx='375.46' cy='20.15' r='1.95' style='stroke-width: 0.71; stroke: #F8766D; fill: #F8766D;' />
<circle cx='375.46' cy='34.93' r='1.95' style='stroke-width: 0.71; stroke: #F8766D; fill: #F8766D;' />
<circle cx='375.46' cy='35.22' r='1.95' style='stroke-width: 0.71; stroke: #F8766D; fill: #F8766D;' />
<circle cx='375.46' cy='20.15' r='1.95' style='stroke-width: 0.71; stroke: #F8766D; fill: #F8766D;' />
<circle cx='275.14' cy='101.71' r='1.95' style='stroke-width: 0.71; stroke: #F8766D; fill: #F8766D;' />
<circle cx='217.52' cy='157.85' r='1.95' style='stroke-width: 0.71; stroke: #F8766D; fill: #F8766D;' />
<circle cx='375.46' cy='34.93' r='1.95' style='stroke-width: 0.71; stroke: #F8766D; fill: #F8766D;' />
<circle cx='375.46' cy='35.22' r='1.95' style='stroke-width: 0.71; stroke: #F8766D; fill: #F8766D;' />
<circle cx='375.46' cy='20.15' r='1.95' style='stroke-width: 0.71; stroke: #F8766D; fill: #F8766D;' />
<circle cx='333.09' cy='208.09' r='1.95' style='stroke-width: 0.71; stroke: #F8766D; fill: #F8766D;' />
<circle cx='341.90' cy='239.11' r='1.95' style='stroke-width: 0.71; stroke: #F8766D; fill: #F8766D;' />
<circle cx='217.86' cy='125.05' r='1.95' style='stroke-width: 0.71; stroke: #F8766D; fill: #F8766D;' />
<circle cx='311.06' cy='127.12' r='1.95' style='stroke-width: 0.71; stroke: #F8766D; fill: #F8766D;' />
<circle cx='363.25' cy='72.75' r='1.95' style='stroke-width: 0.71; stroke: #F8766D; fill: #F8766D;' />
<circle cx='56.54' cy='306.49' r='1.95' style='stroke-width: 0.71; stroke: #F8766D; fill: #F8766D;' />
<circle cx='202.95' cy='98.16' r='1.95' style='stroke-width: 0.71; stroke: #F8766D; fill: #F8766D;' />
<circle cx='375.46' cy='20.15' r='1.95' style='stroke-width: 0.71; stroke: #F8766D; fill: #F8766D;' />
<circle cx='196.17' cy='98.16' r='1.95' style='stroke-width: 0.71; stroke: #F8766D; fill: #F8766D;' />
<circle cx='375.46' cy='20.15' r='1.95' style='stroke-width: 0.71; stroke: #F8766D; fill: #F8766D;' />
<circle cx='326.99' cy='219.32' r='1.95' style='stroke-width: 0.71; stroke: #F8766D; fill: #F8766D;' />
<circle cx='204.98' cy='194.79' r='1.95' style='stroke-width: 0.71; stroke: #F8766D; fill: #F8766D;' />
<circle cx='375.46' cy='20.15' r='1.95' style='stroke-width: 0.71; stroke: #F8766D; fill: #F8766D;' />
<circle cx='243.28' cy='137.46' r='1.95' style='stroke-width: 0.71; stroke: #F8766D; fill: #F8766D;' />
<circle cx='324.62' cy='104.37' r='1.95' style='stroke-width: 0.71; stroke: #F8766D; fill: #F8766D;' />
<circle cx='281.58' cy='61.22' r='1.95' style='stroke-width: 0.71; stroke: #F8766D; fill: #F8766D;' />
<circle cx='375.46' cy='114.12' r='1.95' style='stroke-width: 0.71; stroke: #F8766D; fill: #F8766D;' />
<circle cx='348.68' cy='92.84' r='1.95' style='stroke-width: 0.71; stroke: #F8766D; fill: #F8766D;' />
<circle cx='330.04' cy='171.74' r='1.95' style='stroke-width: 0.71; stroke: #F8766D; fill: #F8766D;' />
<circle cx='309.37' cy='136.87' r='1.95' style='stroke-width: 0.71; stroke: #F8766D; fill: #F8766D;' />
<circle cx='302.59' cy='104.37' r='1.95' style='stroke-width: 0.71; stroke: #F8766D; fill: #F8766D;' />
<circle cx='367.32' cy='54.72' r='1.95' style='stroke-width: 0.71; stroke: #F8766D; fill: #F8766D;' />
<circle cx='348.34' cy='53.84' r='1.95' style='stroke-width: 0.71; stroke: #F8766D; fill: #F8766D;' />
<circle cx='375.12' cy='84.57' r='1.95' style='stroke-width: 0.71; stroke: #F8766D; fill: #F8766D;' />
<circle cx='375.46' cy='20.15' r='1.95' style='stroke-width: 0.71; stroke: #F8766D; fill: #F8766D;' />
<circle cx='356.14' cy='55.02' r='1.95' style='stroke-width: 0.71; stroke: #F8766D; fill: #F8766D;' />
<circle cx='287.34' cy='223.45' r='1.95' style='stroke-width: 0.71; stroke: #F8766D; fill: #F8766D;' />
<circle cx='375.46' cy='215.18' r='1.95' style='stroke-width: 0.71; stroke: #F8766D; fill: #F8766D;' />
<circle cx='375.46' cy='20.15' r='1.95' style='stroke-width: 0.71; stroke: #F8766D; fill: #F8766D;' />
<circle cx='255.48' cy='89.59' r='1.95' style='stroke-width: 0.71; stroke: #F8766D; fill: #F8766D;' />
<circle cx='370.71' cy='71.27' r='1.95' style='stroke-width: 0.71; stroke: #F8766D; fill: #F8766D;' />
<circle cx='375.46' cy='88.12' r='1.95' style='stroke-width: 0.71; stroke: #F8766D; fill: #F8766D;' />
<circle cx='279.20' cy='114.12' r='1.95' style='stroke-width: 0.71; stroke: #F8766D; fill: #F8766D;' />
<circle cx='296.83' cy='93.14' r='1.95' style='stroke-width: 0.71; stroke: #F8766D; fill: #F8766D;' />
<circle cx='375.46' cy='78.07' r='1.95' style='stroke-width: 0.71; stroke: #F8766D; fill: #F8766D;' />
<circle cx='375.46' cy='20.15' r='1.95' style='stroke-width: 0.71; stroke: #F8766D; fill: #F8766D;' />
<circle cx='361.90' cy='60.04' r='1.95' style='stroke-width: 0.71; stroke: #F8766D; fill: #F8766D;' />
<circle cx='375.46' cy='61.52' r='1.95' style='stroke-width: 0.71; stroke: #F8766D; fill: #F8766D;' />
<circle cx='340.89' cy='212.81' r='1.95' style='stroke-width: 0.71; stroke: #F8766D; fill: #F8766D;' />
<circle cx='349.70' cy='212.22' r='1.95' style='stroke-width: 0.71; stroke: #F8766D; fill: #F8766D;' />
<circle cx='360.88' cy='39.36' r='1.95' style='stroke-width: 0.71; stroke: #F8766D; fill: #F8766D;' />
<circle cx='292.08' cy='118.26' r='1.95' style='stroke-width: 0.71; stroke: #F8766D; fill: #F8766D;' />
<circle cx='315.81' cy='137.17' r='1.95' style='stroke-width: 0.71; stroke: #F8766D; fill: #F8766D;' />
<circle cx='346.99' cy='38.47' r='1.95' style='stroke-width: 0.71; stroke: #F8766D; fill: #F8766D;' />
<circle cx='364.95' cy='109.69' r='1.95' style='stroke-width: 0.71; stroke: #F8766D; fill: #F8766D;' />
<circle cx='375.46' cy='115.30' r='1.95' style='stroke-width: 0.71; stroke: #F8766D; fill: #F8766D;' />
<circle cx='330.04' cy='51.77' r='1.95' style='stroke-width: 0.71; stroke: #F8766D; fill: #F8766D;' />
<circle cx='360.54' cy='84.27' r='1.95' style='stroke-width: 0.71; stroke: #F8766D; fill: #F8766D;' />
<circle cx='325.30' cy='60.93' r='1.95' style='stroke-width: 0.71; stroke: #F8766D; fill: #F8766D;' />
<circle cx='334.45' cy='79.84' r='1.95' style='stroke-width: 0.71; stroke: #F8766D; fill: #F8766D;' />
<circle cx='339.87' cy='191.24' r='1.95' style='stroke-width: 0.71; stroke: #F8766D; fill: #F8766D;' />
<circle cx='332.07' cy='263.34' r='1.95' style='stroke-width: 0.71; stroke: #F8766D; fill: #F8766D;' />
<circle cx='338.85' cy='92.55' r='1.95' style='stroke-width: 0.71; stroke: #F8766D; fill: #F8766D;' />
<circle cx='227.35' cy='141.90' r='1.95' style='stroke-width: 0.71; stroke: #F8766D; fill: #F8766D;' />
<circle cx='361.90' cy='110.57' r='1.95' style='stroke-width: 0.71; stroke: #F8766D; fill: #F8766D;' />
<circle cx='375.46' cy='116.19' r='1.95' style='stroke-width: 0.71; stroke: #F8766D; fill: #F8766D;' />
<circle cx='346.99' cy='121.51' r='1.95' style='stroke-width: 0.71; stroke: #F8766D; fill: #F8766D;' />
<circle cx='321.23' cy='47.63' r='1.95' style='stroke-width: 0.71; stroke: #F8766D; fill: #F8766D;' />
<circle cx='375.46' cy='20.15' r='1.95' style='stroke-width: 0.71; stroke: #F8766D; fill: #F8766D;' />
<circle cx='355.80' cy='68.02' r='1.95' style='stroke-width: 0.71; stroke: #F8766D; fill: #F8766D;' />
<circle cx='375.46' cy='61.82' r='1.95' style='stroke-width: 0.71; stroke: #F8766D; fill: #F8766D;' />
<circle cx='260.56' cy='145.15' r='1.95' style='stroke-width: 0.71; stroke: #F8766D; fill: #F8766D;' />
<circle cx='352.41' cy='68.02' r='1.95' style='stroke-width: 0.71; stroke: #F8766D; fill: #F8766D;' />
<circle cx='375.46' cy='61.82' r='1.95' style='stroke-width: 0.71; stroke: #F8766D; fill: #F8766D;' />
<circle cx='362.58' cy='185.04' r='1.95' style='stroke-width: 0.71; stroke: #F8766D; fill: #F8766D;' />
<circle cx='375.46' cy='56.50' r='1.95' style='stroke-width: 0.71; stroke: #F8766D; fill: #F8766D;' />
<circle cx='375.46' cy='61.82' r='1.95' style='stroke-width: 0.71; stroke: #F8766D; fill: #F8766D;' />
<circle cx='272.43' cy='33.15' r='1.95' style='stroke-width: 0.71; stroke: #F8766D; fill: #F8766D;' />
<circle cx='356.14' cy='155.49' r='1.95' style='stroke-width: 0.71; stroke: #F8766D; fill: #F8766D;' />
<circle cx='355.46' cy='258.91' r='1.95' style='stroke-width: 0.71; stroke: #F8766D; fill: #F8766D;' />
<circle cx='375.46' cy='20.15' r='1.95' style='stroke-width: 0.71; stroke: #F8766D; fill: #F8766D;' />
<circle cx='375.46' cy='31.38' r='1.95' style='stroke-width: 0.71; stroke: #F8766D; fill: #F8766D;' />
<circle cx='239.21' cy='138.94' r='1.95' style='stroke-width: 0.71; stroke: #F8766D; fill: #F8766D;' />
<circle cx='375.46' cy='141.90' r='1.95' style='stroke-width: 0.71; stroke: #F8766D; fill: #F8766D;' />
<circle cx='375.46' cy='45.86' r='1.95' style='stroke-width: 0.71; stroke: #F8766D; fill: #F8766D;' />
<circle cx='299.20' cy='59.45' r='1.95' style='stroke-width: 0.71; stroke: #F8766D; fill: #F8766D;' />
<circle cx='295.81' cy='93.14' r='1.95' style='stroke-width: 0.71; stroke: #F8766D; fill: #F8766D;' />
<circle cx='216.17' cy='238.82' r='1.95' style='stroke-width: 0.71; stroke: #F8766D; fill: #F8766D;' />
<circle cx='239.21' cy='225.82' r='1.95' style='stroke-width: 0.71; stroke: #F8766D; fill: #F8766D;' />
<circle cx='375.46' cy='20.15' r='1.95' style='stroke-width: 0.71; stroke: #F8766D; fill: #F8766D;' />
<circle cx='375.46' cy='31.38' r='1.95' style='stroke-width: 0.71; stroke: #F8766D; fill: #F8766D;' />
<circle cx='375.46' cy='20.15' r='1.95' style='stroke-width: 0.71; stroke: #F8766D; fill: #F8766D;' />
<circle cx='375.46' cy='45.86' r='1.95' style='stroke-width: 0.71; stroke: #F8766D; fill: #F8766D;' />
<circle cx='351.05' cy='245.62' r='1.95' style='stroke-width: 0.71; stroke: #F8766D; fill: #F8766D;' />
<circle cx='245.65' cy='219.02' r='1.95' style='stroke-width: 0.71; stroke: #F8766D; fill: #F8766D;' />
<circle cx='356.82' cy='226.11' r='1.95' style='stroke-width: 0.71; stroke: #F8766D; fill: #F8766D;' />
<circle cx='295.81' cy='93.14' r='1.95' style='stroke-width: 0.71; stroke: #F8766D; fill: #F8766D;' />
<circle cx='375.46' cy='165.54' r='1.95' style='stroke-width: 0.71; stroke: #F8766D; fill: #F8766D;' />
<circle cx='375.46' cy='230.54' r='1.95' style='stroke-width: 0.71; stroke: #F8766D; fill: #F8766D;' />
<circle cx='375.46' cy='20.15' r='1.95' style='stroke-width: 0.71; stroke: #F8766D; fill: #F8766D;' />
<circle cx='375.46' cy='31.38' r='1.95' style='stroke-width: 0.71; stroke: #F8766D; fill: #F8766D;' />
<circle cx='375.46' cy='20.15' r='1.95' style='stroke-width: 0.71; stroke: #F8766D; fill: #F8766D;' />
<circle cx='343.94' cy='70.98' r='1.95' style='stroke-width: 0.71; stroke: #F8766D; fill: #F8766D;' />
<circle cx='336.48' cy='42.61' r='1.95' style='stroke-width: 0.71; stroke: #F8766D; fill: #F8766D;' />
<circle cx='297.17' cy='64.18' r='1.95' style='stroke-width: 0.71; stroke: #F8766D; fill: #F8766D;' />
<circle cx='295.81' cy='93.14' r='1.95' style='stroke-width: 0.71; stroke: #F8766D; fill: #F8766D;' />
<circle cx='288.69' cy='140.71' r='1.95' style='stroke-width: 0.71; stroke: #F8766D; fill: #F8766D;' />
<circle cx='375.46' cy='20.15' r='1.95' style='stroke-width: 0.71; stroke: #F8766D; fill: #F8766D;' />
<circle cx='375.46' cy='31.38' r='1.95' style='stroke-width: 0.71; stroke: #F8766D; fill: #F8766D;' />
<circle cx='375.46' cy='20.15' r='1.95' style='stroke-width: 0.71; stroke: #F8766D; fill: #F8766D;' />
<circle cx='375.46' cy='45.86' r='1.95' style='stroke-width: 0.71; stroke: #F8766D; fill: #F8766D;' />
<circle cx='319.53' cy='213.41' r='1.95' style='stroke-width: 0.71; stroke: #00BA38; fill: #00BA38;' />
<circle cx='290.39' cy='267.48' r='1.95' style='stroke-width: 0.71; stroke: #00BA38; fill: #00BA38;' />
<circle cx='323.26' cy='69.50' r='1.95' style='stroke-width: 0.71; stroke: #00BA38; fill: #00BA38;' />
<circle cx='373.08' cy='20.15' r='1.95' style='stroke-width: 0.71; stroke: #00BA38; fill: #00BA38;' />
<circle cx='234.13' cy='302.35' r='1.95' style='stroke-width: 0.71; stroke: #00BA38; fill: #00BA38;' />
<circle cx='271.75' cy='112.94' r='1.95' style='stroke-width: 0.71; stroke: #00BA38; fill: #00BA38;' />
<circle cx='375.46' cy='280.78' r='1.95' style='stroke-width: 0.71; stroke: #00BA38; fill: #00BA38;' />
<circle cx='375.46' cy='151.35' r='1.95' style='stroke-width: 0.71; stroke: #00BA38; fill: #00BA38;' />
<circle cx='334.11' cy='78.66' r='1.95' style='stroke-width: 0.71; stroke: #00BA38; fill: #00BA38;' />
<circle cx='341.22' cy='79.25' r='1.95' style='stroke-width: 0.71; stroke: #00BA38; fill: #00BA38;' />
<circle cx='358.85' cy='102.89' r='1.95' style='stroke-width: 0.71; stroke: #00BA38; fill: #00BA38;' />
<circle cx='375.46' cy='292.89' r='1.95' style='stroke-width: 0.71; stroke: #00BA38; fill: #00BA38;' />
<circle cx='375.46' cy='20.15' r='1.95' style='stroke-width: 0.71; stroke: #00BA38; fill: #00BA38;' />
<circle cx='359.87' cy='33.74' r='1.95' style='stroke-width: 0.71; stroke: #00BA38; fill: #00BA38;' />
<circle cx='375.46' cy='311.22' r='1.95' style='stroke-width: 0.71; stroke: #00BA38; fill: #00BA38;' />
<circle cx='343.94' cy='145.15' r='1.95' style='stroke-width: 0.71; stroke: #00BA38; fill: #00BA38;' />
<circle cx='375.46' cy='298.21' r='1.95' style='stroke-width: 0.71; stroke: #00BA38; fill: #00BA38;' />
<circle cx='161.60' cy='226.41' r='1.95' style='stroke-width: 0.71; stroke: #00BA38; fill: #00BA38;' />
<circle cx='318.86' cy='112.35' r='1.95' style='stroke-width: 0.71; stroke: #00BA38; fill: #00BA38;' />
<circle cx='375.46' cy='203.36' r='1.95' style='stroke-width: 0.71; stroke: #00BA38; fill: #00BA38;' />
<circle cx='284.97' cy='118.55' r='1.95' style='stroke-width: 0.71; stroke: #00BA38; fill: #00BA38;' />
<circle cx='330.72' cy='86.05' r='1.95' style='stroke-width: 0.71; stroke: #00BA38; fill: #00BA38;' />
<circle cx='334.11' cy='213.11' r='1.95' style='stroke-width: 0.71; stroke: #00BA38; fill: #00BA38;' />
<circle cx='239.89' cy='138.35' r='1.95' style='stroke-width: 0.71; stroke: #00BA38; fill: #00BA38;' />
<circle cx='314.11' cy='184.74' r='1.95' style='stroke-width: 0.71; stroke: #00BA38; fill: #00BA38;' />
<circle cx='375.46' cy='270.14' r='1.95' style='stroke-width: 0.71; stroke: #00BA38; fill: #00BA38;' />
<circle cx='375.46' cy='187.70' r='1.95' style='stroke-width: 0.71; stroke: #00BA38; fill: #00BA38;' />
<circle cx='375.46' cy='284.33' r='1.95' style='stroke-width: 0.71; stroke: #00BA38; fill: #00BA38;' />
<circle cx='262.60' cy='47.04' r='1.95' style='stroke-width: 0.71; stroke: #00BA38; fill: #00BA38;' />
<circle cx='211.76' cy='64.77' r='1.95' style='stroke-width: 0.71; stroke: #00BA38; fill: #00BA38;' />
<circle cx='375.46' cy='20.15' r='1.95' style='stroke-width: 0.71; stroke: #00BA38; fill: #00BA38;' />
<circle cx='375.46' cy='20.15' r='1.95' style='stroke-width: 0.71; stroke: #00BA38; fill: #00BA38;' />
<circle cx='295.13' cy='120.32' r='1.95' style='stroke-width: 0.71; stroke: #00BA38; fill: #00BA38;' />
<circle cx='326.99' cy='187.40' r='1.95' style='stroke-width: 0.71; stroke: #00BA38; fill: #00BA38;' />
<circle cx='239.55' cy='138.65' r='1.95' style='stroke-width: 0.71; stroke: #00BA38; fill: #00BA38;' />
<circle cx='375.46' cy='20.15' r='1.95' style='stroke-width: 0.71; stroke: #00BA38; fill: #00BA38;' />
<circle cx='285.98' cy='119.44' r='1.95' style='stroke-width: 0.71; stroke: #00BA38; fill: #00BA38;' />
<circle cx='334.11' cy='213.11' r='1.95' style='stroke-width: 0.71; stroke: #00BA38; fill: #00BA38;' />
<circle cx='375.46' cy='109.39' r='1.95' style='stroke-width: 0.71; stroke: #00BA38; fill: #00BA38;' />
<circle cx='265.99' cy='96.09' r='1.95' style='stroke-width: 0.71; stroke: #00BA38; fill: #00BA38;' />
<circle cx='375.46' cy='108.50' r='1.95' style='stroke-width: 0.71; stroke: #00BA38; fill: #00BA38;' />
<circle cx='169.06' cy='284.62' r='1.95' style='stroke-width: 0.71; stroke: #00BA38; fill: #00BA38;' />
<circle cx='259.21' cy='104.96' r='1.95' style='stroke-width: 0.71; stroke: #00BA38; fill: #00BA38;' />
<circle cx='300.22' cy='90.18' r='1.95' style='stroke-width: 0.71; stroke: #00BA38; fill: #00BA38;' />
<circle cx='375.46' cy='30.49' r='1.95' style='stroke-width: 0.71; stroke: #00BA38; fill: #00BA38;' />
<circle cx='317.84' cy='247.68' r='1.95' style='stroke-width: 0.71; stroke: #00BA38; fill: #00BA38;' />
<circle cx='375.46' cy='38.47' r='1.95' style='stroke-width: 0.71; stroke: #00BA38; fill: #00BA38;' />
<circle cx='366.98' cy='99.05' r='1.95' style='stroke-width: 0.71; stroke: #00BA38; fill: #00BA38;' />
<circle cx='346.31' cy='45.56' r='1.95' style='stroke-width: 0.71; stroke: #00BA38; fill: #00BA38;' />
<circle cx='283.27' cy='91.66' r='1.95' style='stroke-width: 0.71; stroke: #00BA38; fill: #00BA38;' />
<circle cx='330.04' cy='86.05' r='1.95' style='stroke-width: 0.71; stroke: #00BA38; fill: #00BA38;' />
<circle cx='326.99' cy='187.40' r='1.95' style='stroke-width: 0.71; stroke: #00BA38; fill: #00BA38;' />
<circle cx='374.78' cy='64.48' r='1.95' style='stroke-width: 0.71; stroke: #00BA38; fill: #00BA38;' />
<circle cx='317.84' cy='163.76' r='1.95' style='stroke-width: 0.71; stroke: #00BA38; fill: #00BA38;' />
<circle cx='375.46' cy='279.60' r='1.95' style='stroke-width: 0.71; stroke: #00BA38; fill: #00BA38;' />
<circle cx='375.46' cy='20.15' r='1.95' style='stroke-width: 0.71; stroke: #00BA38; fill: #00BA38;' />
<circle cx='219.89' cy='67.43' r='1.95' style='stroke-width: 0.71; stroke: #00BA38; fill: #00BA38;' />
<circle cx='375.46' cy='20.15' r='1.95' style='stroke-width: 0.71; stroke: #00BA38; fill: #00BA38;' />
<circle cx='208.71' cy='89.00' r='1.95' style='stroke-width: 0.71; stroke: #00BA38; fill: #00BA38;' />
<circle cx='319.20' cy='237.93' r='1.95' style='stroke-width: 0.71; stroke: #00BA38; fill: #00BA38;' />
<circle cx='224.30' cy='220.20' r='1.95' style='stroke-width: 0.71; stroke: #00BA38; fill: #00BA38;' />
<circle cx='375.46' cy='20.15' r='1.95' style='stroke-width: 0.71; stroke: #00BA38; fill: #00BA38;' />
<circle cx='221.93' cy='91.07' r='1.95' style='stroke-width: 0.71; stroke: #00BA38; fill: #00BA38;' />
<circle cx='280.56' cy='38.47' r='1.95' style='stroke-width: 0.71; stroke: #00BA38; fill: #00BA38;' />
<circle cx='286.32' cy='39.36' r='1.95' style='stroke-width: 0.71; stroke: #00BA38; fill: #00BA38;' />
<circle cx='360.54' cy='65.07' r='1.95' style='stroke-width: 0.71; stroke: #00BA38; fill: #00BA38;' />
<circle cx='290.73' cy='107.62' r='1.95' style='stroke-width: 0.71; stroke: #00BA38; fill: #00BA38;' />
<circle cx='259.21' cy='135.39' r='1.95' style='stroke-width: 0.71; stroke: #00BA38; fill: #00BA38;' />
<circle cx='375.46' cy='20.15' r='1.95' style='stroke-width: 0.71; stroke: #00BA38; fill: #00BA38;' />
<circle cx='303.94' cy='101.41' r='1.95' style='stroke-width: 0.71; stroke: #00BA38; fill: #00BA38;' />
<circle cx='263.27' cy='88.41' r='1.95' style='stroke-width: 0.71; stroke: #00BA38; fill: #00BA38;' />
<circle cx='312.42' cy='277.53' r='1.95' style='stroke-width: 0.71; stroke: #00BA38; fill: #00BA38;' />
<circle cx='263.95' cy='278.42' r='1.95' style='stroke-width: 0.71; stroke: #00BA38; fill: #00BA38;' />
<circle cx='375.46' cy='260.69' r='1.95' style='stroke-width: 0.71; stroke: #00BA38; fill: #00BA38;' />
<circle cx='375.46' cy='20.15' r='1.95' style='stroke-width: 0.71; stroke: #00BA38; fill: #00BA38;' />
<circle cx='312.08' cy='75.41' r='1.95' style='stroke-width: 0.71; stroke: #00BA38; fill: #00BA38;' />
<circle cx='316.82' cy='32.86' r='1.95' style='stroke-width: 0.71; stroke: #00BA38; fill: #00BA38;' />
<circle cx='311.40' cy='256.25' r='1.95' style='stroke-width: 0.71; stroke: #00BA38; fill: #00BA38;' />
<circle cx='365.29' cy='243.55' r='1.95' style='stroke-width: 0.71; stroke: #00BA38; fill: #00BA38;' />
<circle cx='375.46' cy='30.49' r='1.95' style='stroke-width: 0.71; stroke: #00BA38; fill: #00BA38;' />
<circle cx='312.76' cy='85.75' r='1.95' style='stroke-width: 0.71; stroke: #00BA38; fill: #00BA38;' />
<circle cx='165.67' cy='139.53' r='1.95' style='stroke-width: 0.71; stroke: #00BA38; fill: #00BA38;' />
<circle cx='282.25' cy='133.33' r='1.95' style='stroke-width: 0.71; stroke: #00BA38; fill: #00BA38;' />
<circle cx='358.51' cy='34.93' r='1.95' style='stroke-width: 0.71; stroke: #00BA38; fill: #00BA38;' />
<circle cx='293.44' cy='122.98' r='1.95' style='stroke-width: 0.71; stroke: #00BA38; fill: #00BA38;' />
<circle cx='326.99' cy='187.40' r='1.95' style='stroke-width: 0.71; stroke: #00BA38; fill: #00BA38;' />
<circle cx='375.46' cy='42.31' r='1.95' style='stroke-width: 0.71; stroke: #00BA38; fill: #00BA38;' />
<circle cx='283.27' cy='120.32' r='1.95' style='stroke-width: 0.71; stroke: #00BA38; fill: #00BA38;' />
<circle cx='375.46' cy='30.49' r='1.95' style='stroke-width: 0.71; stroke: #00BA38; fill: #00BA38;' />
<circle cx='313.10' cy='85.75' r='1.95' style='stroke-width: 0.71; stroke: #00BA38; fill: #00BA38;' />
<circle cx='337.84' cy='203.95' r='1.95' style='stroke-width: 0.71; stroke: #00BA38; fill: #00BA38;' />
<circle cx='375.46' cy='20.15' r='1.95' style='stroke-width: 0.71; stroke: #00BA38; fill: #00BA38;' />
<circle cx='283.61' cy='121.21' r='1.95' style='stroke-width: 0.71; stroke: #00BA38; fill: #00BA38;' />
<circle cx='287.34' cy='123.28' r='1.95' style='stroke-width: 0.71; stroke: #00BA38; fill: #00BA38;' />
<circle cx='320.55' cy='208.09' r='1.95' style='stroke-width: 0.71; stroke: #00BA38; fill: #00BA38;' />
<circle cx='263.27' cy='88.12' r='1.95' style='stroke-width: 0.71; stroke: #00BA38; fill: #00BA38;' />
<circle cx='375.46' cy='20.15' r='1.95' style='stroke-width: 0.71; stroke: #00BA38; fill: #00BA38;' />
<circle cx='364.27' cy='29.90' r='1.95' style='stroke-width: 0.71; stroke: #00BA38; fill: #00BA38;' />
<circle cx='375.46' cy='229.07' r='1.95' style='stroke-width: 0.71; stroke: #00BA38; fill: #00BA38;' />
<circle cx='278.86' cy='281.96' r='1.95' style='stroke-width: 0.71; stroke: #00BA38; fill: #00BA38;' />
<circle cx='213.12' cy='289.94' r='1.95' style='stroke-width: 0.71; stroke: #00BA38; fill: #00BA38;' />
<circle cx='375.46' cy='266.00' r='1.95' style='stroke-width: 0.71; stroke: #00BA38; fill: #00BA38;' />
<circle cx='375.46' cy='171.45' r='1.95' style='stroke-width: 0.71; stroke: #00BA38; fill: #00BA38;' />
<circle cx='291.40' cy='114.41' r='1.95' style='stroke-width: 0.71; stroke: #00BA38; fill: #00BA38;' />
<circle cx='323.26' cy='104.66' r='1.95' style='stroke-width: 0.71; stroke: #00BA38; fill: #00BA38;' />
<circle cx='375.46' cy='302.65' r='1.95' style='stroke-width: 0.71; stroke: #00BA38; fill: #00BA38;' />
<circle cx='342.92' cy='180.90' r='1.95' style='stroke-width: 0.71; stroke: #00BA38; fill: #00BA38;' />
<circle cx='282.93' cy='133.03' r='1.95' style='stroke-width: 0.71; stroke: #00BA38; fill: #00BA38;' />
<circle cx='375.46' cy='42.31' r='1.95' style='stroke-width: 0.71; stroke: #00BA38; fill: #00BA38;' />
<circle cx='287.34' cy='120.92' r='1.95' style='stroke-width: 0.71; stroke: #00BA38; fill: #00BA38;' />
<circle cx='351.73' cy='161.40' r='1.95' style='stroke-width: 0.71; stroke: #00BA38; fill: #00BA38;' />
<circle cx='375.46' cy='290.53' r='1.95' style='stroke-width: 0.71; stroke: #00BA38; fill: #00BA38;' />
<circle cx='370.03' cy='34.93' r='1.95' style='stroke-width: 0.71; stroke: #00BA38; fill: #00BA38;' />
<circle cx='341.56' cy='196.27' r='1.95' style='stroke-width: 0.71; stroke: #00BA38; fill: #00BA38;' />
<circle cx='375.46' cy='20.15' r='1.95' style='stroke-width: 0.71; stroke: #00BA38; fill: #00BA38;' />
<circle cx='375.46' cy='42.31' r='1.95' style='stroke-width: 0.71; stroke: #00BA38; fill: #00BA38;' />
<circle cx='287.34' cy='120.92' r='1.95' style='stroke-width: 0.71; stroke: #00BA38; fill: #00BA38;' />
<circle cx='351.73' cy='161.40' r='1.95' style='stroke-width: 0.71; stroke: #00BA38; fill: #00BA38;' />
<circle cx='375.46' cy='290.53' r='1.95' style='stroke-width: 0.71; stroke: #00BA38; fill: #00BA38;' />
<circle cx='370.03' cy='34.93' r='1.95' style='stroke-width: 0.71; stroke: #00BA38; fill: #00BA38;' />
<circle cx='341.56' cy='196.27' r='1.95' style='stroke-width: 0.71; stroke: #00BA38; fill: #00BA38;' />
<circle cx='375.46' cy='20.15' r='1.95' style='stroke-width: 0.71; stroke: #00BA38; fill: #00BA38;' />
<circle cx='283.61' cy='185.63' r='1.95' style='stroke-width: 0.71; stroke: #00BA38; fill: #00BA38;' />
<circle cx='267.68' cy='30.79' r='1.95' style='stroke-width: 0.71; stroke: #00BA38; fill: #00BA38;' />
<circle cx='293.78' cy='62.41' r='1.95' style='stroke-width: 0.71; stroke: #00BA38; fill: #00BA38;' />
<circle cx='368.00' cy='44.09' r='1.95' style='stroke-width: 0.71; stroke: #00BA38; fill: #00BA38;' />
<circle cx='313.10' cy='20.15' r='1.95' style='stroke-width: 0.71; stroke: #00BA38; fill: #00BA38;' />
<circle cx='375.46' cy='20.15' r='1.95' style='stroke-width: 0.71; stroke: #00BA38; fill: #00BA38;' />
<circle cx='290.39' cy='119.44' r='1.95' style='stroke-width: 0.71; stroke: #00BA38; fill: #00BA38;' />
<circle cx='330.04' cy='93.43' r='1.95' style='stroke-width: 0.71; stroke: #00BA38; fill: #00BA38;' />
<circle cx='329.02' cy='180.90' r='1.95' style='stroke-width: 0.71; stroke: #00BA38; fill: #00BA38;' />
<circle cx='282.93' cy='133.03' r='1.95' style='stroke-width: 0.71; stroke: #00BA38; fill: #00BA38;' />
<circle cx='224.98' cy='114.41' r='1.95' style='stroke-width: 0.71; stroke: #00BA38; fill: #00BA38;' />
<circle cx='375.46' cy='256.84' r='1.95' style='stroke-width: 0.71; stroke: #00BA38; fill: #00BA38;' />
<circle cx='375.46' cy='20.15' r='1.95' style='stroke-width: 0.71; stroke: #00BA38; fill: #00BA38;' />
<circle cx='375.46' cy='20.15' r='1.95' style='stroke-width: 0.71; stroke: #00BA38; fill: #00BA38;' />
<circle cx='375.46' cy='20.15' r='1.95' style='stroke-width: 0.71; stroke: #00BA38; fill: #00BA38;' />
<circle cx='375.46' cy='20.15' r='1.95' style='stroke-width: 0.71; stroke: #00BA38; fill: #00BA38;' />
<circle cx='285.30' cy='122.69' r='1.95' style='stroke-width: 0.71; stroke: #00BA38; fill: #00BA38;' />
<circle cx='331.74' cy='219.61' r='1.95' style='stroke-width: 0.71; stroke: #00BA38; fill: #00BA38;' />
<circle cx='312.08' cy='86.93' r='1.95' style='stroke-width: 0.71; stroke: #00BA38; fill: #00BA38;' />
<circle cx='370.03' cy='34.93' r='1.95' style='stroke-width: 0.71; stroke: #00BA38; fill: #00BA38;' />
<circle cx='375.46' cy='42.31' r='1.95' style='stroke-width: 0.71; stroke: #00BA38; fill: #00BA38;' />
<circle cx='243.62' cy='213.11' r='1.95' style='stroke-width: 0.71; stroke: #00BA38; fill: #00BA38;' />
<circle cx='213.12' cy='236.75' r='1.95' style='stroke-width: 0.71; stroke: #00BA38; fill: #00BA38;' />
<circle cx='375.46' cy='26.36' r='1.95' style='stroke-width: 0.71; stroke: #00BA38; fill: #00BA38;' />
<circle cx='375.46' cy='27.24' r='1.95' style='stroke-width: 0.71; stroke: #00BA38; fill: #00BA38;' />
<circle cx='375.46' cy='20.15' r='1.95' style='stroke-width: 0.71; stroke: #00BA38; fill: #00BA38;' />
<circle cx='257.51' cy='91.37' r='1.95' style='stroke-width: 0.71; stroke: #00BA38; fill: #00BA38;' />
<circle cx='347.33' cy='219.91' r='1.95' style='stroke-width: 0.71; stroke: #00BA38; fill: #00BA38;' />
<circle cx='300.22' cy='278.42' r='1.95' style='stroke-width: 0.71; stroke: #00BA38; fill: #00BA38;' />
<circle cx='375.46' cy='260.69' r='1.95' style='stroke-width: 0.71; stroke: #00BA38; fill: #00BA38;' />
<circle cx='375.46' cy='104.66' r='1.95' style='stroke-width: 0.71; stroke: #00BA38; fill: #00BA38;' />
<circle cx='370.03' cy='24.88' r='1.95' style='stroke-width: 0.71; stroke: #00BA38; fill: #00BA38;' />
<circle cx='375.46' cy='20.15' r='1.95' style='stroke-width: 0.71; stroke: #00BA38; fill: #00BA38;' />
<circle cx='266.32' cy='107.62' r='1.95' style='stroke-width: 0.71; stroke: #00BA38; fill: #00BA38;' />
<circle cx='375.46' cy='195.97' r='1.95' style='stroke-width: 0.71; stroke: #00BA38; fill: #00BA38;' />
<circle cx='209.73' cy='20.15' r='1.95' style='stroke-width: 0.71; stroke: #00BA38; fill: #00BA38;' />
<circle cx='270.73' cy='107.32' r='1.95' style='stroke-width: 0.71; stroke: #00BA38; fill: #00BA38;' />
<circle cx='375.46' cy='227.59' r='1.95' style='stroke-width: 0.71; stroke: #00BA38; fill: #00BA38;' />
<circle cx='375.46' cy='28.72' r='1.95' style='stroke-width: 0.71; stroke: #00BA38; fill: #00BA38;' />
<circle cx='375.46' cy='28.72' r='1.95' style='stroke-width: 0.71; stroke: #00BA38; fill: #00BA38;' />
<circle cx='345.29' cy='104.07' r='1.95' style='stroke-width: 0.71; stroke: #00BA38; fill: #00BA38;' />
<circle cx='375.12' cy='279.30' r='1.95' style='stroke-width: 0.71; stroke: #00BA38; fill: #00BA38;' />
<circle cx='320.89' cy='140.71' r='1.95' style='stroke-width: 0.71; stroke: #00BA38; fill: #00BA38;' />
<circle cx='318.18' cy='38.47' r='1.95' style='stroke-width: 0.71; stroke: #00BA38; fill: #00BA38;' />
<circle cx='375.46' cy='91.66' r='1.95' style='stroke-width: 0.71; stroke: #00BA38; fill: #00BA38;' />
<circle cx='375.46' cy='47.93' r='1.95' style='stroke-width: 0.71; stroke: #00BA38; fill: #00BA38;' />
<circle cx='356.48' cy='268.37' r='1.95' style='stroke-width: 0.71; stroke: #00BA38; fill: #00BA38;' />
<circle cx='375.46' cy='253.59' r='1.95' style='stroke-width: 0.71; stroke: #00BA38; fill: #00BA38;' />
<circle cx='226.33' cy='83.98' r='1.95' style='stroke-width: 0.71; stroke: #00BA38; fill: #00BA38;' />
<circle cx='327.33' cy='239.71' r='1.95' style='stroke-width: 0.71; stroke: #00BA38; fill: #00BA38;' />
<circle cx='341.56' cy='110.87' r='1.95' style='stroke-width: 0.71; stroke: #00BA38; fill: #00BA38;' />
<circle cx='313.10' cy='59.45' r='1.95' style='stroke-width: 0.71; stroke: #00BA38; fill: #00BA38;' />
<circle cx='348.34' cy='180.90' r='1.95' style='stroke-width: 0.71; stroke: #00BA38; fill: #00BA38;' />
<circle cx='374.44' cy='28.72' r='1.95' style='stroke-width: 0.71; stroke: #00BA38; fill: #00BA38;' />
<circle cx='375.46' cy='235.57' r='1.95' style='stroke-width: 0.71; stroke: #00BA38; fill: #00BA38;' />
<circle cx='344.28' cy='245.32' r='1.95' style='stroke-width: 0.71; stroke: #00BA38; fill: #00BA38;' />
<circle cx='375.46' cy='235.86' r='1.95' style='stroke-width: 0.71; stroke: #00BA38; fill: #00BA38;' />
<circle cx='344.28' cy='245.32' r='1.95' style='stroke-width: 0.71; stroke: #00BA38; fill: #00BA38;' />
<circle cx='375.46' cy='234.39' r='1.95' style='stroke-width: 0.71; stroke: #00BA38; fill: #00BA38;' />
<circle cx='178.88' cy='274.87' r='1.95' style='stroke-width: 0.71; stroke: #00BA38; fill: #00BA38;' />
<circle cx='342.92' cy='156.38' r='1.95' style='stroke-width: 0.71; stroke: #00BA38; fill: #00BA38;' />
<circle cx='315.81' cy='101.12' r='1.95' style='stroke-width: 0.71; stroke: #00BA38; fill: #00BA38;' />
<circle cx='226.33' cy='42.02' r='1.95' style='stroke-width: 0.71; stroke: #00BA38; fill: #00BA38;' />
<circle cx='375.46' cy='20.15' r='1.95' style='stroke-width: 0.71; stroke: #00BA38; fill: #00BA38;' />
<circle cx='230.06' cy='271.32' r='1.95' style='stroke-width: 0.71; stroke: #00BA38; fill: #00BA38;' />
<circle cx='349.02' cy='177.06' r='1.95' style='stroke-width: 0.71; stroke: #00BA38; fill: #00BA38;' />
<circle cx='296.49' cy='99.34' r='1.95' style='stroke-width: 0.71; stroke: #00BA38; fill: #00BA38;' />
<circle cx='227.69' cy='24.88' r='1.95' style='stroke-width: 0.71; stroke: #00BA38; fill: #00BA38;' />
<circle cx='375.46' cy='20.15' r='1.95' style='stroke-width: 0.71; stroke: #00BA38; fill: #00BA38;' />
<circle cx='331.06' cy='92.55' r='1.95' style='stroke-width: 0.71; stroke: #00BA38; fill: #00BA38;' />
<circle cx='363.25' cy='95.21' r='1.95' style='stroke-width: 0.71; stroke: #00BA38; fill: #00BA38;' />
<circle cx='375.46' cy='93.14' r='1.95' style='stroke-width: 0.71; stroke: #00BA38; fill: #00BA38;' />
<circle cx='375.46' cy='20.15' r='1.95' style='stroke-width: 0.71; stroke: #00BA38; fill: #00BA38;' />
<circle cx='204.30' cy='34.93' r='1.95' style='stroke-width: 0.71; stroke: #00BA38; fill: #00BA38;' />
<circle cx='311.74' cy='101.71' r='1.95' style='stroke-width: 0.71; stroke: #00BA38; fill: #00BA38;' />
<circle cx='363.25' cy='111.75' r='1.95' style='stroke-width: 0.71; stroke: #00BA38; fill: #00BA38;' />
<circle cx='375.46' cy='93.14' r='1.95' style='stroke-width: 0.71; stroke: #00BA38; fill: #00BA38;' />
<circle cx='217.52' cy='157.85' r='1.95' style='stroke-width: 0.71; stroke: #00BA38; fill: #00BA38;' />
<circle cx='375.46' cy='20.15' r='1.95' style='stroke-width: 0.71; stroke: #00BA38; fill: #00BA38;' />
<circle cx='350.38' cy='130.67' r='1.95' style='stroke-width: 0.71; stroke: #00BA38; fill: #00BA38;' />
<circle cx='265.65' cy='125.05' r='1.95' style='stroke-width: 0.71; stroke: #00BA38; fill: #00BA38;' />
<circle cx='336.14' cy='120.32' r='1.95' style='stroke-width: 0.71; stroke: #00BA38; fill: #00BA38;' />
<circle cx='299.20' cy='85.46' r='1.95' style='stroke-width: 0.71; stroke: #00BA38; fill: #00BA38;' />
<circle cx='123.98' cy='284.03' r='1.95' style='stroke-width: 0.71; stroke: #00BA38; fill: #00BA38;' />
<circle cx='281.24' cy='205.13' r='1.95' style='stroke-width: 0.71; stroke: #00BA38; fill: #00BA38;' />
<circle cx='254.80' cy='98.16' r='1.95' style='stroke-width: 0.71; stroke: #00BA38; fill: #00BA38;' />
<circle cx='331.74' cy='43.20' r='1.95' style='stroke-width: 0.71; stroke: #00BA38; fill: #00BA38;' />
<circle cx='269.04' cy='285.51' r='1.95' style='stroke-width: 0.71; stroke: #00BA38; fill: #00BA38;' />
<circle cx='265.31' cy='98.16' r='1.95' style='stroke-width: 0.71; stroke: #00BA38; fill: #00BA38;' />
<circle cx='364.27' cy='43.79' r='1.95' style='stroke-width: 0.71; stroke: #00BA38; fill: #00BA38;' />
<circle cx='341.22' cy='147.21' r='1.95' style='stroke-width: 0.71; stroke: #00BA38; fill: #00BA38;' />
<circle cx='269.04' cy='290.53' r='1.95' style='stroke-width: 0.71; stroke: #00BA38; fill: #00BA38;' />
<circle cx='338.17' cy='92.55' r='1.95' style='stroke-width: 0.71; stroke: #00BA38; fill: #00BA38;' />
<circle cx='364.27' cy='43.20' r='1.95' style='stroke-width: 0.71; stroke: #00BA38; fill: #00BA38;' />
<circle cx='341.22' cy='147.21' r='1.95' style='stroke-width: 0.71; stroke: #00BA38; fill: #00BA38;' />
<circle cx='268.70' cy='290.53' r='1.95' style='stroke-width: 0.71; stroke: #00BA38; fill: #00BA38;' />
<circle cx='375.46' cy='290.53' r='1.95' style='stroke-width: 0.71; stroke: #00BA38; fill: #00BA38;' />
<circle cx='278.86' cy='266.30' r='1.95' style='stroke-width: 0.71; stroke: #00BA38; fill: #00BA38;' />
<circle cx='375.46' cy='261.87' r='1.95' style='stroke-width: 0.71; stroke: #00BA38; fill: #00BA38;' />
<circle cx='324.62' cy='104.37' r='1.95' style='stroke-width: 0.71; stroke: #00BA38; fill: #00BA38;' />
<circle cx='322.25' cy='241.48' r='1.95' style='stroke-width: 0.71; stroke: #00BA38; fill: #00BA38;' />
<circle cx='375.46' cy='220.79' r='1.95' style='stroke-width: 0.71; stroke: #00BA38; fill: #00BA38;' />
<circle cx='215.83' cy='225.52' r='1.95' style='stroke-width: 0.71; stroke: #00BA38; fill: #00BA38;' />
<circle cx='296.15' cy='204.54' r='1.95' style='stroke-width: 0.71; stroke: #00BA38; fill: #00BA38;' />
<circle cx='147.37' cy='161.10' r='1.95' style='stroke-width: 0.71; stroke: #00BA38; fill: #00BA38;' />
<circle cx='205.66' cy='266.60' r='1.95' style='stroke-width: 0.71; stroke: #00BA38; fill: #00BA38;' />
<circle cx='375.46' cy='250.93' r='1.95' style='stroke-width: 0.71; stroke: #00BA38; fill: #00BA38;' />
<circle cx='221.93' cy='104.37' r='1.95' style='stroke-width: 0.71; stroke: #00BA38; fill: #00BA38;' />
<circle cx='375.46' cy='268.37' r='1.95' style='stroke-width: 0.71; stroke: #00BA38; fill: #00BA38;' />
<circle cx='375.46' cy='207.79' r='1.95' style='stroke-width: 0.71; stroke: #00BA38; fill: #00BA38;' />
<circle cx='343.26' cy='213.11' r='1.95' style='stroke-width: 0.71; stroke: #00BA38; fill: #00BA38;' />
<circle cx='340.21' cy='264.23' r='1.95' style='stroke-width: 0.71; stroke: #00BA38; fill: #00BA38;' />
<circle cx='375.12' cy='84.57' r='1.95' style='stroke-width: 0.71; stroke: #00BA38; fill: #00BA38;' />
<circle cx='375.46' cy='20.15' r='1.95' style='stroke-width: 0.71; stroke: #00BA38; fill: #00BA38;' />
<circle cx='295.47' cy='209.27' r='1.95' style='stroke-width: 0.71; stroke: #00BA38; fill: #00BA38;' />
<circle cx='375.46' cy='171.74' r='1.95' style='stroke-width: 0.71; stroke: #00BA38; fill: #00BA38;' />
<circle cx='267.68' cy='198.34' r='1.95' style='stroke-width: 0.71; stroke: #00BA38; fill: #00BA38;' />
<circle cx='375.46' cy='201.88' r='1.95' style='stroke-width: 0.71; stroke: #00BA38; fill: #00BA38;' />
<circle cx='243.96' cy='87.52' r='1.95' style='stroke-width: 0.71; stroke: #00BA38; fill: #00BA38;' />
<circle cx='206.34' cy='231.43' r='1.95' style='stroke-width: 0.71; stroke: #00BA38; fill: #00BA38;' />
<circle cx='375.46' cy='224.34' r='1.95' style='stroke-width: 0.71; stroke: #00BA38; fill: #00BA38;' />
<circle cx='278.53' cy='138.35' r='1.95' style='stroke-width: 0.71; stroke: #00BA38; fill: #00BA38;' />
<circle cx='333.09' cy='209.86' r='1.95' style='stroke-width: 0.71; stroke: #00BA38; fill: #00BA38;' />
<circle cx='345.29' cy='187.99' r='1.95' style='stroke-width: 0.71; stroke: #00BA38; fill: #00BA38;' />
<circle cx='375.46' cy='88.12' r='1.95' style='stroke-width: 0.71; stroke: #00BA38; fill: #00BA38;' />
<circle cx='246.33' cy='251.23' r='1.95' style='stroke-width: 0.71; stroke: #00BA38; fill: #00BA38;' />
<circle cx='287.34' cy='260.98' r='1.95' style='stroke-width: 0.71; stroke: #00BA38; fill: #00BA38;' />
<circle cx='375.46' cy='240.30' r='1.95' style='stroke-width: 0.71; stroke: #00BA38; fill: #00BA38;' />
<circle cx='361.90' cy='164.65' r='1.95' style='stroke-width: 0.71; stroke: #00BA38; fill: #00BA38;' />
<circle cx='239.55' cy='211.63' r='1.95' style='stroke-width: 0.71; stroke: #00BA38; fill: #00BA38;' />
<circle cx='328.35' cy='206.02' r='1.95' style='stroke-width: 0.71; stroke: #00BA38; fill: #00BA38;' />
<circle cx='221.59' cy='277.53' r='1.95' style='stroke-width: 0.71; stroke: #00BA38; fill: #00BA38;' />
<circle cx='375.46' cy='230.84' r='1.95' style='stroke-width: 0.71; stroke: #00BA38; fill: #00BA38;' />
<circle cx='375.46' cy='243.25' r='1.95' style='stroke-width: 0.71; stroke: #00BA38; fill: #00BA38;' />
<circle cx='333.77' cy='198.93' r='1.95' style='stroke-width: 0.71; stroke: #00BA38; fill: #00BA38;' />
<circle cx='224.64' cy='110.57' r='1.95' style='stroke-width: 0.71; stroke: #00BA38; fill: #00BA38;' />
<circle cx='265.65' cy='186.22' r='1.95' style='stroke-width: 0.71; stroke: #00BA38; fill: #00BA38;' />
<circle cx='375.46' cy='249.16' r='1.95' style='stroke-width: 0.71; stroke: #00BA38; fill: #00BA38;' />
<circle cx='364.61' cy='39.36' r='1.95' style='stroke-width: 0.71; stroke: #00BA38; fill: #00BA38;' />
<circle cx='375.46' cy='306.19' r='1.95' style='stroke-width: 0.71; stroke: #00BA38; fill: #00BA38;' />
<circle cx='272.76' cy='217.25' r='1.95' style='stroke-width: 0.71; stroke: #00BA38; fill: #00BA38;' />
<circle cx='375.46' cy='232.02' r='1.95' style='stroke-width: 0.71; stroke: #00BA38; fill: #00BA38;' />
<circle cx='343.94' cy='246.21' r='1.95' style='stroke-width: 0.71; stroke: #00BA38; fill: #00BA38;' />
<circle cx='303.27' cy='256.25' r='1.95' style='stroke-width: 0.71; stroke: #00BA38; fill: #00BA38;' />
<circle cx='310.38' cy='38.47' r='1.95' style='stroke-width: 0.71; stroke: #00BA38; fill: #00BA38;' />
<circle cx='326.99' cy='254.78' r='1.95' style='stroke-width: 0.71; stroke: #00BA38; fill: #00BA38;' />
<circle cx='218.54' cy='302.06' r='1.95' style='stroke-width: 0.71; stroke: #00BA38; fill: #00BA38;' />
<circle cx='375.46' cy='248.87' r='1.95' style='stroke-width: 0.71; stroke: #00BA38; fill: #00BA38;' />
<circle cx='332.75' cy='204.54' r='1.95' style='stroke-width: 0.71; stroke: #00BA38; fill: #00BA38;' />
<circle cx='297.84' cy='206.31' r='1.95' style='stroke-width: 0.71; stroke: #00BA38; fill: #00BA38;' />
<circle cx='375.46' cy='212.81' r='1.95' style='stroke-width: 0.71; stroke: #00BA38; fill: #00BA38;' />
<circle cx='356.82' cy='134.80' r='1.95' style='stroke-width: 0.71; stroke: #00BA38; fill: #00BA38;' />
<circle cx='331.06' cy='219.32' r='1.95' style='stroke-width: 0.71; stroke: #00BA38; fill: #00BA38;' />
<circle cx='255.48' cy='258.62' r='1.95' style='stroke-width: 0.71; stroke: #00BA38; fill: #00BA38;' />
<circle cx='375.46' cy='230.25' r='1.95' style='stroke-width: 0.71; stroke: #00BA38; fill: #00BA38;' />
<circle cx='375.46' cy='204.84' r='1.95' style='stroke-width: 0.71; stroke: #00BA38; fill: #00BA38;' />
<circle cx='375.46' cy='287.87' r='1.95' style='stroke-width: 0.71; stroke: #00BA38; fill: #00BA38;' />
<circle cx='230.06' cy='249.46' r='1.95' style='stroke-width: 0.71; stroke: #00BA38; fill: #00BA38;' />
<circle cx='218.54' cy='301.76' r='1.95' style='stroke-width: 0.71; stroke: #00BA38; fill: #00BA38;' />
<circle cx='197.86' cy='254.78' r='1.95' style='stroke-width: 0.71; stroke: #00BA38; fill: #00BA38;' />
<circle cx='332.75' cy='219.32' r='1.95' style='stroke-width: 0.71; stroke: #00BA38; fill: #00BA38;' />
<circle cx='309.37' cy='125.94' r='1.95' style='stroke-width: 0.71; stroke: #00BA38; fill: #00BA38;' />
<circle cx='273.10' cy='241.77' r='1.95' style='stroke-width: 0.71; stroke: #00BA38; fill: #00BA38;' />
<circle cx='220.91' cy='301.76' r='1.95' style='stroke-width: 0.71; stroke: #00BA38; fill: #00BA38;' />
<circle cx='375.46' cy='248.27' r='1.95' style='stroke-width: 0.71; stroke: #00BA38; fill: #00BA38;' />
<circle cx='333.09' cy='203.36' r='1.95' style='stroke-width: 0.71; stroke: #00BA38; fill: #00BA38;' />
<circle cx='352.07' cy='75.41' r='1.95' style='stroke-width: 0.71; stroke: #00BA38; fill: #00BA38;' />
<circle cx='352.75' cy='187.70' r='1.95' style='stroke-width: 0.71; stroke: #00BA38; fill: #00BA38;' />
<circle cx='368.68' cy='169.97' r='1.95' style='stroke-width: 0.71; stroke: #00BA38; fill: #00BA38;' />
<circle cx='359.87' cy='81.91' r='1.95' style='stroke-width: 0.71; stroke: #00BA38; fill: #00BA38;' />
<circle cx='375.46' cy='20.15' r='1.95' style='stroke-width: 0.71; stroke: #00BA38; fill: #00BA38;' />
<circle cx='232.09' cy='283.44' r='1.95' style='stroke-width: 0.71; stroke: #00BA38; fill: #00BA38;' />
<circle cx='364.61' cy='236.45' r='1.95' style='stroke-width: 0.71; stroke: #00BA38; fill: #00BA38;' />
<circle cx='375.46' cy='216.07' r='1.95' style='stroke-width: 0.71; stroke: #00BA38; fill: #00BA38;' />
<circle cx='375.46' cy='180.01' r='1.95' style='stroke-width: 0.71; stroke: #00BA38; fill: #00BA38;' />
<circle cx='207.35' cy='262.75' r='1.95' style='stroke-width: 0.71; stroke: #00BA38; fill: #00BA38;' />
<circle cx='375.46' cy='252.71' r='1.95' style='stroke-width: 0.71; stroke: #00BA38; fill: #00BA38;' />
<circle cx='232.09' cy='283.44' r='1.95' style='stroke-width: 0.71; stroke: #00BA38; fill: #00BA38;' />
<circle cx='364.61' cy='236.45' r='1.95' style='stroke-width: 0.71; stroke: #00BA38; fill: #00BA38;' />
<circle cx='375.46' cy='216.07' r='1.95' style='stroke-width: 0.71; stroke: #00BA38; fill: #00BA38;' />
<circle cx='375.46' cy='180.01' r='1.95' style='stroke-width: 0.71; stroke: #00BA38; fill: #00BA38;' />
<circle cx='202.95' cy='295.85' r='1.95' style='stroke-width: 0.71; stroke: #00BA38; fill: #00BA38;' />
<circle cx='364.95' cy='234.68' r='1.95' style='stroke-width: 0.71; stroke: #00BA38; fill: #00BA38;' />
<circle cx='375.46' cy='216.66' r='1.95' style='stroke-width: 0.71; stroke: #00BA38; fill: #00BA38;' />
<circle cx='375.46' cy='117.96' r='1.95' style='stroke-width: 0.71; stroke: #00BA38; fill: #00BA38;' />
<circle cx='375.46' cy='180.01' r='1.95' style='stroke-width: 0.71; stroke: #00BA38; fill: #00BA38;' />
<circle cx='371.05' cy='33.15' r='1.95' style='stroke-width: 0.71; stroke: #00BA38; fill: #00BA38;' />
<circle cx='358.51' cy='97.28' r='1.95' style='stroke-width: 0.71; stroke: #00BA38; fill: #00BA38;' />
<circle cx='236.50' cy='313.58' r='1.95' style='stroke-width: 0.71; stroke: #00BA38; fill: #00BA38;' />
<circle cx='351.39' cy='108.50' r='1.95' style='stroke-width: 0.71; stroke: #00BA38; fill: #00BA38;' />
<circle cx='155.50' cy='298.51' r='1.95' style='stroke-width: 0.71; stroke: #00BA38; fill: #00BA38;' />
<circle cx='375.46' cy='20.15' r='1.95' style='stroke-width: 0.71; stroke: #00BA38; fill: #00BA38;' />
<circle cx='235.82' cy='141.90' r='1.95' style='stroke-width: 0.71; stroke: #00BA38; fill: #00BA38;' />
<circle cx='375.46' cy='45.86' r='1.95' style='stroke-width: 0.71; stroke: #00BA38; fill: #00BA38;' />
<circle cx='354.78' cy='167.90' r='1.95' style='stroke-width: 0.71; stroke: #00BA38; fill: #00BA38;' />
<circle cx='375.46' cy='248.87' r='1.95' style='stroke-width: 0.71; stroke: #00BA38; fill: #00BA38;' />
<circle cx='340.21' cy='92.25' r='1.95' style='stroke-width: 0.71; stroke: #00BA38; fill: #00BA38;' />
<circle cx='295.81' cy='93.14' r='1.95' style='stroke-width: 0.71; stroke: #00BA38; fill: #00BA38;' />
<circle cx='216.17' cy='238.82' r='1.95' style='stroke-width: 0.71; stroke: #00BA38; fill: #00BA38;' />
<circle cx='375.46' cy='20.15' r='1.95' style='stroke-width: 0.71; stroke: #00BA38; fill: #00BA38;' />
<circle cx='375.46' cy='45.86' r='1.95' style='stroke-width: 0.71; stroke: #00BA38; fill: #00BA38;' />
<circle cx='354.78' cy='167.90' r='1.95' style='stroke-width: 0.71; stroke: #00BA38; fill: #00BA38;' />
<circle cx='375.46' cy='248.87' r='1.95' style='stroke-width: 0.71; stroke: #00BA38; fill: #00BA38;' />
<circle cx='340.21' cy='92.25' r='1.95' style='stroke-width: 0.71; stroke: #00BA38; fill: #00BA38;' />
<circle cx='295.81' cy='93.14' r='1.95' style='stroke-width: 0.71; stroke: #00BA38; fill: #00BA38;' />
<circle cx='375.46' cy='170.26' r='1.95' style='stroke-width: 0.71; stroke: #00BA38; fill: #00BA38;' />
<circle cx='375.46' cy='20.15' r='1.95' style='stroke-width: 0.71; stroke: #00BA38; fill: #00BA38;' />
<circle cx='343.94' cy='70.98' r='1.95' style='stroke-width: 0.71; stroke: #00BA38; fill: #00BA38;' />
<circle cx='336.48' cy='42.61' r='1.95' style='stroke-width: 0.71; stroke: #00BA38; fill: #00BA38;' />
<circle cx='355.12' cy='171.74' r='1.95' style='stroke-width: 0.71; stroke: #00BA38; fill: #00BA38;' />
<circle cx='375.46' cy='249.46' r='1.95' style='stroke-width: 0.71; stroke: #00BA38; fill: #00BA38;' />
<circle cx='340.21' cy='92.25' r='1.95' style='stroke-width: 0.71; stroke: #00BA38; fill: #00BA38;' />
<circle cx='375.46' cy='93.14' r='1.95' style='stroke-width: 0.71; stroke: #00BA38; fill: #00BA38;' />
<circle cx='234.81' cy='230.54' r='1.95' style='stroke-width: 0.71; stroke: #00BA38; fill: #00BA38;' />
<circle cx='375.46' cy='20.15' r='1.95' style='stroke-width: 0.71; stroke: #00BA38; fill: #00BA38;' />
<circle cx='375.46' cy='45.86' r='1.95' style='stroke-width: 0.71; stroke: #00BA38; fill: #00BA38;' />
<circle cx='164.65' cy='46.15' r='1.95' style='stroke-width: 0.71; stroke: #619CFF; fill: #619CFF;' />
<circle cx='364.95' cy='23.70' r='1.95' style='stroke-width: 0.71; stroke: #619CFF; fill: #619CFF;' />
<circle cx='350.38' cy='96.98' r='1.95' style='stroke-width: 0.71; stroke: #619CFF; fill: #619CFF;' />
<circle cx='356.48' cy='28.72' r='1.95' style='stroke-width: 0.71; stroke: #619CFF; fill: #619CFF;' />
<circle cx='361.90' cy='26.36' r='1.95' style='stroke-width: 0.71; stroke: #619CFF; fill: #619CFF;' />
<circle cx='356.82' cy='28.42' r='1.95' style='stroke-width: 0.71; stroke: #619CFF; fill: #619CFF;' />
<circle cx='176.17' cy='180.61' r='1.95' style='stroke-width: 0.71; stroke: #619CFF; fill: #619CFF;' />
<circle cx='167.36' cy='151.06' r='1.95' style='stroke-width: 0.71; stroke: #619CFF; fill: #619CFF;' />
<circle cx='350.04' cy='31.68' r='1.95' style='stroke-width: 0.71; stroke: #619CFF; fill: #619CFF;' />
<circle cx='111.78' cy='89.30' r='1.95' style='stroke-width: 0.71; stroke: #619CFF; fill: #619CFF;' />
<circle cx='154.14' cy='36.11' r='1.95' style='stroke-width: 0.71; stroke: #619CFF; fill: #619CFF;' />
<circle cx='145.33' cy='26.95' r='1.95' style='stroke-width: 0.71; stroke: #619CFF; fill: #619CFF;' />
<circle cx='350.04' cy='31.68' r='1.95' style='stroke-width: 0.71; stroke: #619CFF; fill: #619CFF;' />
<circle cx='107.03' cy='182.67' r='1.95' style='stroke-width: 0.71; stroke: #619CFF; fill: #619CFF;' />
<circle cx='350.04' cy='31.68' r='1.95' style='stroke-width: 0.71; stroke: #619CFF; fill: #619CFF;' />
<circle cx='367.32' cy='23.70' r='1.95' style='stroke-width: 0.71; stroke: #619CFF; fill: #619CFF;' />
<circle cx='297.84' cy='116.78' r='1.95' style='stroke-width: 0.71; stroke: #619CFF; fill: #619CFF;' />
<circle cx='363.59' cy='25.47' r='1.95' style='stroke-width: 0.71; stroke: #619CFF; fill: #619CFF;' />
<circle cx='154.82' cy='25.17' r='1.95' style='stroke-width: 0.71; stroke: #619CFF; fill: #619CFF;' />
<circle cx='219.55' cy='22.81' r='1.95' style='stroke-width: 0.71; stroke: #619CFF; fill: #619CFF;' />
<circle cx='350.04' cy='31.68' r='1.95' style='stroke-width: 0.71; stroke: #619CFF; fill: #619CFF;' />
<circle cx='135.84' cy='70.09' r='1.95' style='stroke-width: 0.71; stroke: #619CFF; fill: #619CFF;' />
<circle cx='220.57' cy='26.95' r='1.95' style='stroke-width: 0.71; stroke: #619CFF; fill: #619CFF;' />
<circle cx='359.53' cy='27.24' r='1.95' style='stroke-width: 0.71; stroke: #619CFF; fill: #619CFF;' />
<circle cx='363.59' cy='25.47' r='1.95' style='stroke-width: 0.71; stroke: #619CFF; fill: #619CFF;' />
<circle cx='366.98' cy='23.70' r='1.95' style='stroke-width: 0.71; stroke: #619CFF; fill: #619CFF;' />
<circle cx='351.05' cy='31.08' r='1.95' style='stroke-width: 0.71; stroke: #619CFF; fill: #619CFF;' />
<circle cx='363.59' cy='25.47' r='1.95' style='stroke-width: 0.71; stroke: #619CFF; fill: #619CFF;' />
<circle cx='363.93' cy='25.17' r='1.95' style='stroke-width: 0.71; stroke: #619CFF; fill: #619CFF;' />
<circle cx='366.98' cy='23.70' r='1.95' style='stroke-width: 0.71; stroke: #619CFF; fill: #619CFF;' />
<circle cx='146.35' cy='64.77' r='1.95' style='stroke-width: 0.71; stroke: #619CFF; fill: #619CFF;' />
<circle cx='228.71' cy='23.70' r='1.95' style='stroke-width: 0.71; stroke: #619CFF; fill: #619CFF;' />
<circle cx='363.59' cy='25.47' r='1.95' style='stroke-width: 0.71; stroke: #619CFF; fill: #619CFF;' />
<circle cx='140.25' cy='23.70' r='1.95' style='stroke-width: 0.71; stroke: #619CFF; fill: #619CFF;' />
<circle cx='111.44' cy='83.98' r='1.95' style='stroke-width: 0.71; stroke: #619CFF; fill: #619CFF;' />
<circle cx='222.94' cy='23.70' r='1.95' style='stroke-width: 0.71; stroke: #619CFF; fill: #619CFF;' />
<circle cx='350.04' cy='31.68' r='1.95' style='stroke-width: 0.71; stroke: #619CFF; fill: #619CFF;' />
<circle cx='100.93' cy='190.95' r='1.95' style='stroke-width: 0.71; stroke: #619CFF; fill: #619CFF;' />
<circle cx='367.32' cy='23.70' r='1.95' style='stroke-width: 0.71; stroke: #619CFF; fill: #619CFF;' />
<circle cx='116.86' cy='78.36' r='1.95' style='stroke-width: 0.71; stroke: #619CFF; fill: #619CFF;' />
<circle cx='367.32' cy='23.70' r='1.95' style='stroke-width: 0.71; stroke: #619CFF; fill: #619CFF;' />
<circle cx='350.04' cy='31.68' r='1.95' style='stroke-width: 0.71; stroke: #619CFF; fill: #619CFF;' />
<circle cx='91.78' cy='118.26' r='1.95' style='stroke-width: 0.71; stroke: #619CFF; fill: #619CFF;' />
<circle cx='367.32' cy='23.70' r='1.95' style='stroke-width: 0.71; stroke: #619CFF; fill: #619CFF;' />
<circle cx='363.59' cy='25.47' r='1.95' style='stroke-width: 0.71; stroke: #619CFF; fill: #619CFF;' />
<circle cx='365.63' cy='24.58' r='1.95' style='stroke-width: 0.71; stroke: #619CFF; fill: #619CFF;' />
<circle cx='367.32' cy='23.70' r='1.95' style='stroke-width: 0.71; stroke: #619CFF; fill: #619CFF;' />
<circle cx='151.77' cy='34.93' r='1.95' style='stroke-width: 0.71; stroke: #619CFF; fill: #619CFF;' />
<circle cx='222.60' cy='23.70' r='1.95' style='stroke-width: 0.71; stroke: #619CFF; fill: #619CFF;' />
<circle cx='95.51' cy='98.75' r='1.95' style='stroke-width: 0.71; stroke: #619CFF; fill: #619CFF;' />
<circle cx='367.32' cy='23.70' r='1.95' style='stroke-width: 0.71; stroke: #619CFF; fill: #619CFF;' />
<circle cx='367.32' cy='23.70' r='1.95' style='stroke-width: 0.71; stroke: #619CFF; fill: #619CFF;' />
<circle cx='367.32' cy='23.70' r='1.95' style='stroke-width: 0.71; stroke: #619CFF; fill: #619CFF;' />
<circle cx='372.74' cy='20.74' r='1.95' style='stroke-width: 0.71; stroke: #619CFF; fill: #619CFF;' />
<circle cx='350.04' cy='31.68' r='1.95' style='stroke-width: 0.71; stroke: #619CFF; fill: #619CFF;' />
<circle cx='217.86' cy='27.54' r='1.95' style='stroke-width: 0.71; stroke: #619CFF; fill: #619CFF;' />
<circle cx='367.32' cy='23.70' r='1.95' style='stroke-width: 0.71; stroke: #619CFF; fill: #619CFF;' />
<circle cx='204.30' cy='25.47' r='1.95' style='stroke-width: 0.71; stroke: #619CFF; fill: #619CFF;' />
<circle cx='358.51' cy='27.83' r='1.95' style='stroke-width: 0.71; stroke: #619CFF; fill: #619CFF;' />
<circle cx='110.09' cy='89.89' r='1.95' style='stroke-width: 0.71; stroke: #619CFF; fill: #619CFF;' />
<circle cx='367.32' cy='23.70' r='1.95' style='stroke-width: 0.71; stroke: #619CFF; fill: #619CFF;' />
<circle cx='215.15' cy='70.98' r='1.95' style='stroke-width: 0.71; stroke: #619CFF; fill: #619CFF;' />
<circle cx='206.34' cy='23.40' r='1.95' style='stroke-width: 0.71; stroke: #619CFF; fill: #619CFF;' />
<circle cx='363.59' cy='25.47' r='1.95' style='stroke-width: 0.71; stroke: #619CFF; fill: #619CFF;' />
<circle cx='149.40' cy='117.07' r='1.95' style='stroke-width: 0.71; stroke: #619CFF; fill: #619CFF;' />
<circle cx='363.59' cy='25.47' r='1.95' style='stroke-width: 0.71; stroke: #619CFF; fill: #619CFF;' />
<circle cx='210.06' cy='26.06' r='1.95' style='stroke-width: 0.71; stroke: #619CFF; fill: #619CFF;' />
<circle cx='210.06' cy='26.06' r='1.95' style='stroke-width: 0.71; stroke: #619CFF; fill: #619CFF;' />
<circle cx='233.79' cy='24.29' r='1.95' style='stroke-width: 0.71; stroke: #619CFF; fill: #619CFF;' />
<circle cx='346.65' cy='33.15' r='1.95' style='stroke-width: 0.71; stroke: #619CFF; fill: #619CFF;' />
<circle cx='280.22' cy='60.34' r='1.95' style='stroke-width: 0.71; stroke: #619CFF; fill: #619CFF;' />
<circle cx='218.88' cy='20.74' r='1.95' style='stroke-width: 0.71; stroke: #619CFF; fill: #619CFF;' />
<circle cx='250.06' cy='89.59' r='1.95' style='stroke-width: 0.71; stroke: #619CFF; fill: #619CFF;' />
<circle cx='226.33' cy='20.74' r='1.95' style='stroke-width: 0.71; stroke: #619CFF; fill: #619CFF;' />
<circle cx='375.46' cy='26.06' r='1.95' style='stroke-width: 0.71; stroke: #619CFF; fill: #619CFF;' />
<circle cx='339.87' cy='49.11' r='1.95' style='stroke-width: 0.71; stroke: #619CFF; fill: #619CFF;' />
<circle cx='340.55' cy='44.38' r='1.95' style='stroke-width: 0.71; stroke: #619CFF; fill: #619CFF;' />
<circle cx='341.90' cy='44.09' r='1.95' style='stroke-width: 0.71; stroke: #619CFF; fill: #619CFF;' />
<circle cx='157.19' cy='85.46' r='1.95' style='stroke-width: 0.71; stroke: #619CFF; fill: #619CFF;' />
<circle cx='179.90' cy='33.15' r='1.95' style='stroke-width: 0.71; stroke: #619CFF; fill: #619CFF;' />
<circle cx='361.22' cy='26.65' r='1.95' style='stroke-width: 0.71; stroke: #619CFF; fill: #619CFF;' />
<circle cx='198.88' cy='31.08' r='1.95' style='stroke-width: 0.71; stroke: #619CFF; fill: #619CFF;' />
<circle cx='190.41' cy='24.29' r='1.95' style='stroke-width: 0.71; stroke: #619CFF; fill: #619CFF;' />
<circle cx='360.88' cy='26.65' r='1.95' style='stroke-width: 0.71; stroke: #619CFF; fill: #619CFF;' />
<circle cx='202.61' cy='98.75' r='1.95' style='stroke-width: 0.71; stroke: #619CFF; fill: #619CFF;' />
<circle cx='350.04' cy='31.68' r='1.95' style='stroke-width: 0.71; stroke: #619CFF; fill: #619CFF;' />
<circle cx='350.04' cy='31.68' r='1.95' style='stroke-width: 0.71; stroke: #619CFF; fill: #619CFF;' />
<circle cx='237.86' cy='224.93' r='1.95' style='stroke-width: 0.71; stroke: #619CFF; fill: #619CFF;' />
<circle cx='112.46' cy='84.57' r='1.95' style='stroke-width: 0.71; stroke: #619CFF; fill: #619CFF;' />
<circle cx='235.14' cy='42.02' r='1.95' style='stroke-width: 0.71; stroke: #619CFF; fill: #619CFF;' />
<circle cx='188.04' cy='133.03' r='1.95' style='stroke-width: 0.71; stroke: #619CFF; fill: #619CFF;' />
<circle cx='355.80' cy='32.56' r='1.95' style='stroke-width: 0.71; stroke: #619CFF; fill: #619CFF;' />
<circle cx='187.36' cy='125.05' r='1.95' style='stroke-width: 0.71; stroke: #619CFF; fill: #619CFF;' />
<circle cx='363.59' cy='25.47' r='1.95' style='stroke-width: 0.71; stroke: #619CFF; fill: #619CFF;' />
<circle cx='215.83' cy='87.82' r='1.95' style='stroke-width: 0.71; stroke: #619CFF; fill: #619CFF;' />
<circle cx='363.59' cy='25.47' r='1.95' style='stroke-width: 0.71; stroke: #619CFF; fill: #619CFF;' />
<circle cx='277.85' cy='76.89' r='1.95' style='stroke-width: 0.71; stroke: #619CFF; fill: #619CFF;' />
<circle cx='126.69' cy='50.00' r='1.95' style='stroke-width: 0.71; stroke: #619CFF; fill: #619CFF;' />
<circle cx='144.32' cy='46.15' r='1.95' style='stroke-width: 0.71; stroke: #619CFF; fill: #619CFF;' />
<circle cx='365.63' cy='24.58' r='1.95' style='stroke-width: 0.71; stroke: #619CFF; fill: #619CFF;' />
<circle cx='363.25' cy='25.77' r='1.95' style='stroke-width: 0.71; stroke: #619CFF; fill: #619CFF;' />
<circle cx='204.30' cy='37.59' r='1.95' style='stroke-width: 0.71; stroke: #619CFF; fill: #619CFF;' />
<circle cx='169.06' cy='47.34' r='1.95' style='stroke-width: 0.71; stroke: #619CFF; fill: #619CFF;' />
<circle cx='278.53' cy='76.59' r='1.95' style='stroke-width: 0.71; stroke: #619CFF; fill: #619CFF;' />
<circle cx='127.71' cy='294.96' r='1.95' style='stroke-width: 0.71; stroke: #619CFF; fill: #619CFF;' />
<circle cx='374.10' cy='20.74' r='1.95' style='stroke-width: 0.71; stroke: #619CFF; fill: #619CFF;' />
<circle cx='222.60' cy='55.02' r='1.95' style='stroke-width: 0.71; stroke: #619CFF; fill: #619CFF;' />
<circle cx='366.30' cy='24.29' r='1.95' style='stroke-width: 0.71; stroke: #619CFF; fill: #619CFF;' />
<circle cx='212.10' cy='277.53' r='1.95' style='stroke-width: 0.71; stroke: #619CFF; fill: #619CFF;' />
<circle cx='164.65' cy='97.87' r='1.95' style='stroke-width: 0.71; stroke: #619CFF; fill: #619CFF;' />
<circle cx='217.86' cy='31.97' r='1.95' style='stroke-width: 0.71; stroke: #619CFF; fill: #619CFF;' />
<circle cx='223.28' cy='81.61' r='1.95' style='stroke-width: 0.71; stroke: #619CFF; fill: #619CFF;' />
<circle cx='164.99' cy='59.75' r='1.95' style='stroke-width: 0.71; stroke: #619CFF; fill: #619CFF;' />
<circle cx='202.95' cy='91.37' r='1.95' style='stroke-width: 0.71; stroke: #619CFF; fill: #619CFF;' />
<circle cx='289.71' cy='53.25' r='1.95' style='stroke-width: 0.71; stroke: #619CFF; fill: #619CFF;' />
<circle cx='217.18' cy='162.88' r='1.95' style='stroke-width: 0.71; stroke: #619CFF; fill: #619CFF;' />
<circle cx='157.19' cy='74.82' r='1.95' style='stroke-width: 0.71; stroke: #619CFF; fill: #619CFF;' />
<circle cx='372.07' cy='21.63' r='1.95' style='stroke-width: 0.71; stroke: #619CFF; fill: #619CFF;' />
<circle cx='239.21' cy='101.12' r='1.95' style='stroke-width: 0.71; stroke: #619CFF; fill: #619CFF;' />
<circle cx='352.75' cy='46.15' r='1.95' style='stroke-width: 0.71; stroke: #619CFF; fill: #619CFF;' />
<circle cx='209.39' cy='48.22' r='1.95' style='stroke-width: 0.71; stroke: #619CFF; fill: #619CFF;' />
<circle cx='196.51' cy='33.15' r='1.95' style='stroke-width: 0.71; stroke: #619CFF; fill: #619CFF;' />
<circle cx='366.98' cy='22.22' r='1.95' style='stroke-width: 0.71; stroke: #619CFF; fill: #619CFF;' />
<circle cx='146.35' cy='150.17' r='1.95' style='stroke-width: 0.71; stroke: #619CFF; fill: #619CFF;' />
<circle cx='235.82' cy='164.06' r='1.95' style='stroke-width: 0.71; stroke: #619CFF; fill: #619CFF;' />
<circle cx='361.90' cy='26.36' r='1.95' style='stroke-width: 0.71; stroke: #619CFF; fill: #619CFF;' />
<circle cx='347.33' cy='32.86' r='1.95' style='stroke-width: 0.71; stroke: #619CFF; fill: #619CFF;' />
<circle cx='344.95' cy='80.43' r='1.95' style='stroke-width: 0.71; stroke: #619CFF; fill: #619CFF;' />
<circle cx='361.90' cy='26.36' r='1.95' style='stroke-width: 0.71; stroke: #619CFF; fill: #619CFF;' />
<circle cx='347.33' cy='32.86' r='1.95' style='stroke-width: 0.71; stroke: #619CFF; fill: #619CFF;' />
<circle cx='217.86' cy='44.68' r='1.95' style='stroke-width: 0.71; stroke: #619CFF; fill: #619CFF;' />
<circle cx='243.28' cy='158.15' r='1.95' style='stroke-width: 0.71; stroke: #619CFF; fill: #619CFF;' />
<circle cx='361.90' cy='26.36' r='1.95' style='stroke-width: 0.71; stroke: #619CFF; fill: #619CFF;' />
<circle cx='347.33' cy='32.86' r='1.95' style='stroke-width: 0.71; stroke: #619CFF; fill: #619CFF;' />
</g>
<g clip-path='url(#cpMC4wMHw1MDQuMDB8MC4wMHwzNjAuMDA=)'>
<text x='35.66' y='318.80' text-anchor='end' style='font-size: 8.80px;fill: #4D4D4D; font-family: "Arial";' textLength='17.13px' lengthAdjust='spacingAndGlyphs'>0.00</text>
<text x='35.66' y='244.93' text-anchor='end' style='font-size: 8.80px;fill: #4D4D4D; font-family: "Arial";' textLength='17.13px' lengthAdjust='spacingAndGlyphs'>0.25</text>
<text x='35.66' y='171.05' text-anchor='end' style='font-size: 8.80px;fill: #4D4D4D; font-family: "Arial";' textLength='17.13px' lengthAdjust='spacingAndGlyphs'>0.50</text>
<text x='35.66' y='97.18' text-anchor='end' style='font-size: 8.80px;fill: #4D4D4D; font-family: "Arial";' textLength='17.13px' lengthAdjust='spacingAndGlyphs'>0.75</text>
<text x='35.66' y='23.30' text-anchor='end' style='font-size: 8.80px;fill: #4D4D4D; font-family: "Arial";' textLength='17.13px' lengthAdjust='spacingAndGlyphs'>1.00</text>
<polyline points='37.85,315.65 40.59,315.65 ' style='stroke-width: 1.07; stroke: #333333; stroke-linecap: butt;' />
<polyline points='37.85,241.77 40.59,241.77 ' style='stroke-width: 1.07; stroke: #333333; stroke-linecap: butt;' />
<polyline points='37.85,167.90 40.59,167.90 ' style='stroke-width: 1.07; stroke: #333333; stroke-linecap: butt;' />
<polyline points='37.85,94.03 40.59,94.03 ' style='stroke-width: 1.07; stroke: #333333; stroke-linecap: butt;' />
<polyline points='37.85,20.15 40.59,20.15 ' style='stroke-width: 1.07; stroke: #333333; stroke-linecap: butt;' />
<polyline points='121.27,330.99 121.27,328.25 ' style='stroke-width: 1.07; stroke: #333333; stroke-linecap: butt;' />
<polyline points='206.00,330.99 206.00,328.25 ' style='stroke-width: 1.07; stroke: #333333; stroke-linecap: butt;' />
<polyline points='290.73,330.99 290.73,328.25 ' style='stroke-width: 1.07; stroke: #333333; stroke-linecap: butt;' />
<polyline points='375.46,330.99 375.46,328.25 ' style='stroke-width: 1.07; stroke: #333333; stroke-linecap: butt;' />
<text x='121.27' y='339.49' text-anchor='middle' style='font-size: 8.80px;fill: #4D4D4D; font-family: "Arial";' textLength='17.13px' lengthAdjust='spacingAndGlyphs'>0.25</text>
<text x='206.00' y='339.49' text-anchor='middle' style='font-size: 8.80px;fill: #4D4D4D; font-family: "Arial";' textLength='17.13px' lengthAdjust='spacingAndGlyphs'>0.50</text>
<text x='290.73' y='339.49' text-anchor='middle' style='font-size: 8.80px;fill: #4D4D4D; font-family: "Arial";' textLength='17.13px' lengthAdjust='spacingAndGlyphs'>0.75</text>
<text x='375.46' y='339.49' text-anchor='middle' style='font-size: 8.80px;fill: #4D4D4D; font-family: "Arial";' textLength='17.13px' lengthAdjust='spacingAndGlyphs'>1.00</text>
<text x='216.00' y='352.10' text-anchor='middle' style='font-size: 11.00px; font-family: "Arial";' textLength='44.03px' lengthAdjust='spacingAndGlyphs'>accuracy</text>
<text transform='translate(13.37,166.87) rotate(-90)' text-anchor='middle' style='font-size: 11.00px; font-family: "Arial";' textLength='67.88px' lengthAdjust='spacingAndGlyphs'>completeness</text>
<rect x='402.36' y='127.57' width='96.16' height='78.60' style='stroke-width: 1.07; stroke: none; fill: #FFFFFF;' />
<text x='407.84' y='142.15' style='font-size: 11.00px; font-family: "Arial";' textLength='41.57px' lengthAdjust='spacingAndGlyphs'>software</text>
<rect x='407.84' y='148.84' width='17.28' height='17.28' style='stroke-width: 1.07; stroke: none; fill: #F2F2F2;' />
<circle cx='416.48' cy='157.48' r='1.95' style='stroke-width: 0.71; stroke: #F8766D; fill: #F8766D;' />
<rect x='407.84' y='166.12' width='17.28' height='17.28' style='stroke-width: 1.07; stroke: none; fill: #F2F2F2;' />
<circle cx='416.48' cy='174.76' r='1.95' style='stroke-width: 0.71; stroke: #00BA38; fill: #00BA38;' />
<rect x='407.84' y='183.40' width='17.28' height='17.28' style='stroke-width: 1.07; stroke: none; fill: #F2F2F2;' />
<circle cx='416.48' cy='192.04' r='1.95' style='stroke-width: 0.71; stroke: #619CFF; fill: #619CFF;' />
<text x='430.60' y='160.64' style='font-size: 8.80px; font-family: "Arial";' textLength='25.93px' lengthAdjust='spacingAndGlyphs'>gplas2</text>
<text x='430.60' y='177.92' style='font-size: 8.80px; font-family: "Arial";' textLength='41.55px' lengthAdjust='spacingAndGlyphs'>MOB-suite</text>
<text x='430.60' y='195.20' style='font-size: 8.80px; font-family: "Arial";' textLength='62.11px' lengthAdjust='spacingAndGlyphs'>plasmidSPAdes</text>
</g>
</svg>
