GCF_016025415.1_ASM1602541v1,S22_LN_i_70214_dp_f_1.7146828236509704,70214,
GCF_016025415.1_ASM1602541v1,S33_LN_i_25144_dp_f_1.7442046457658946,25144,
GCF_006461325.2_ASM646132v2,S17_LN_i_36878_dp_f_14.755500430606057,36878,
GCF_001834965.2_ASM183496v2,S24_LN_i_26022_dp_f_5.133464349266923,26022,
GCF_001713515.2_ASM171351v2,S13_LN_i_58172_dp_f_0.39855220590057827,58172,
GCF_001713515.2_ASM171351v2,S19_LN_i_6230_dp_f_17.616524613116095,6230,
GCF_001713515.2_ASM171351v2,S24_LN_i_1866_dp_f_0.34247082018384384,1866,
GCF_016454205.1_ASM1645420v1,S24_LN_i_35897_dp_f_1.0338647548029092,35897,
GCF_016454205.1_ASM1645420v1,S30_LN_i_5416_dp_f_46.91919389018706,5416,
GCF_016454205.1_ASM1645420v1,S31_LN_i_5166_dp_f_60.855350429158634,5166,
GCF_016454205.1_ASM1645420v1,S33_LN_i_4584_dp_f_33.52715284063938,4584,
GCF_016454205.1_ASM1645420v1,S36_LN_i_3372_dp_f_159.75809792022284,3372,
GCF_016454205.1_ASM1645420v1,S38_LN_i_2148_dp_f_153.8332553925263,2148,
GCF_016454205.1_ASM1645420v1,S39_LN_i_2096_dp_f_576.460805952538,2096,
GCF_016454205.1_ASM1645420v1,S40_LN_i_1923_dp_f_1.3439464349425065,1923,
GCF_016454205.1_ASM1645420v1,S43_LN_i_1240_dp_f_360.89500771339954,1240,
GCF_020736345.1_ASM2073634v1,S44_LN_i_3674_dp_f_14.046647418586016,3674,
GCF_020736345.1_ASM2073634v1,S48_LN_i_2558_dp_f_5.106178176923759,2558,
GCF_020736345.1_ASM2073634v1,S55_LN_i_1541_dp_f_2.9523757170386253,1541,
GCF_002507745.2_ASM250774v2,S24_LN_i_60669_dp_f_1.1243357695103,60669,
GCF_002507745.2_ASM250774v2,S33_LN_i_3379_dp_f_1.9403556268513567,3379,
GCF_002507745.2_ASM250774v2,S34_LN_i_1897_dp_f_3.2869574821807306,1897,
GCF_002507865.2_ASM250786v2,S16_LN_i_83053_dp_f_1.0037168548912858,83053,
GCF_002507865.2_ASM250786v2,S23_LN_i_29655_dp_f_0.907146786813212,29655,
GCF_002507865.2_ASM250786v2,S26_LN_i_16856_dp_f_2.121055684269769,16856,
GCF_002507865.2_ASM250786v2,S27_LN_i_8813_dp_f_1.50534166876277,8813,
GCF_002507865.2_ASM250786v2,S29_LN_i_5907_dp_f_6.60128277318397,5907,
GCF_002507865.2_ASM250786v2,S31_LN_i_2639_dp_f_1.1695984783409878,2639,
GCF_002507865.2_ASM250786v2,S33_LN_i_1994_dp_f_1.0707321740302336,1994,
GCF_002507865.2_ASM250786v2,S34_LN_i_1968_dp_f_2.15068386390119,1968,
GCF_002507865.2_ASM250786v2,S36_LN_i_1313_dp_f_2.3301799275998287,1313,
GCF_002507865.2_ASM250786v2,S37_LN_i_1240_dp_f_20.662994307589887,1240,
GCF_002507865.2_ASM250786v2,S38_LN_i_1151_dp_f_1.990863196796918,1151,
GCF_002507865.2_ASM250786v2,S41_LN_i_1057_dp_f_2.79384601225633,1057,
GCF_001972545.2_ASM197254v2,S15_LN_i_44705_dp_f_1.7141403891569855,44705,
GCF_001972545.2_ASM197254v2,S23_LN_i_3701_dp_f_1.19512509688063,3701,
GCF_001972545.2_ASM197254v2,S25_LN_i_1787_dp_f_2.0027985695265254,1787,
GCF_016452065.1_ASM1645206v1,S29_LN_i_3605_dp_f_53.3114631249218,3605,
GCF_016028495.1_ASM1602849v1,S29_LN_i_5386_dp_f_4.739299846182822,5386,
GCF_002266325.2_ASM226632v2,S17_LN_i_29000_dp_f_6.044549422074266,29000,
GCF_002266325.2_ASM226632v2,S19_LN_i_5777_dp_f_5.713475840979463,5777,
GCF_002266325.2_ASM226632v2,S20_LN_i_4484_dp_f_6.34087624694302,4484,
GCF_002266325.2_ASM226632v2,S23_LN_i_2892_dp_f_3.6847567051889465,2892,
GCF_002266325.2_ASM226632v2,S24_LN_i_2330_dp_f_5.321206470219471,2330,
GCF_002266325.2_ASM226632v2,S25_LN_i_1849_dp_f_2.365140069452183,1849,
GCF_002266325.2_ASM226632v2,S26_LN_i_1813_dp_f_1.8882649332126902,1813,
GCF_002266325.2_ASM226632v2,S29_LN_i_1615_dp_f_3.5315722936878484,1615,
GCF_019428465.1_ASM1942846v1,S24_LN_i_5386_dp_f_3.3944684350264525,5386,
GCF_013348865.1_ASM1334886v1,S41_LN_i_34158_dp_f_2.7783236393485917,34158,
GCF_013348865.1_ASM1334886v1,S67_LN_i_5610_dp_f_34.52753945275729,5610,
GCF_016454465.1_ASM1645446v1,S37_LN_i_4593_dp_f_43.68115876280564,4593,
GCF_016454325.1_ASM1645432v1,S24_LN_i_6647_dp_f_13.196103663307348,6647,
GCF_016889645.1_ASM1688964v1,S24_LN_i_5386_dp_f_1.2768473851445619,5386,
GCF_016454425.1_ASM1645442v1,S34_LN_i_4951_dp_f_103.00911297649209,4951,
GCF_016454425.1_ASM1645442v1,S38_LN_i_3522_dp_f_209.26462807106336,3522,
GCF_016454425.1_ASM1645442v1,S40_LN_i_3323_dp_f_112.11082818767564,3323,
GCF_016454425.1_ASM1645442v1,S41_LN_i_3030_dp_f_64.0800580695673,3030,
GCF_016454425.1_ASM1645442v1,S42_LN_i_2786_dp_f_71.40506627359004,2786,
GCF_016454425.1_ASM1645442v1,S56_LN_i_1112_dp_f_69.43915618542911,1112,
GCF_016454445.1_ASM1645444v1,S51_LN_i_4633_dp_f_33.33654793814267,4633,
GCF_016454445.1_ASM1645444v1,S53_LN_i_3176_dp_f_150.3346612053503,3176,
GCF_016864955.1_ASM1686495v1,S1_LN_i_96064_dp_f_0.6002551521025596,96064,
GCF_016864955.1_ASM1686495v1,S2_LN_i_89183_dp_f_1.0,89183,
GCF_016864955.1_ASM1686495v1,S3_LN_i_44507_dp_f_2.134939506534386,44507,
GCF_016864955.1_ASM1686495v1,S4_LN_i_37021_dp_f_0.5668236392572568,37021,
GCF_016864955.1_ASM1686495v1,S5_LN_i_6644_dp_f_1.8279417044467936,6644,
GCF_016864955.1_ASM1686495v1,S7_LN_i_3203_dp_f_0.6081920222804699,3203,
GCF_001972625.2_ASM197262v2,S14_LN_i_39817_dp_f_4.893553904325949,39817,
GCF_001972625.2_ASM197262v2,S19_LN_i_5269_dp_f_7.994335430605532,5269,
GCF_001972625.2_ASM197262v2,S23_LN_i_2096_dp_f_20.879707119682017,2096,
GCF_016454665.1_ASM1645466v1,S34_LN_i_2470_dp_f_115.4097037912808,2470,
GCF_016454225.1_ASM1645422v1,S40_LN_i_1148_dp_f_1000.967169629446,1148,
GCF_016454525.1_ASM1645452v1,S40_LN_i_9548_dp_f_2.394141829297426,9548,
GCF_016454525.1_ASM1645452v1,S47_LN_i_5253_dp_f_1.0101065179608453,5253,
GCF_002266205.2_ASM226620v2,S18_LN_i_2031_dp_f_7.769394547378607,2031,
GCF_016026715.1_ASM1602671v1,S27_LN_i_5386_dp_f_5.171476963151104,5386,
GCF_002265865.2_ASM226586v2,S19_LN_i_2579_dp_f_9.202318210125412,2579,
GCF_016452005.1_ASM1645200v1,S38_LN_i_4067_dp_f_27.69934099924583,4067,
GCF_001831985.2_ASM183198v2,S14_LN_i_102801_dp_f_2.1102973560077496,102801,
GCF_001831985.2_ASM183198v2,S29_LN_i_22284_dp_f_2.218749960722108,22284,
GCF_001831985.2_ASM183198v2,S32_LN_i_7508_dp_f_2.2392116532824002,7508,
GCF_001831985.2_ASM183198v2,S54_LN_i_1147_dp_f_4.551809270583285,1147,
GCF_003581245.2_ASM358124v2,S20_LN_i_57628_dp_f_1.6043968126982957,57628,
GCF_003581245.2_ASM358124v2,S29_LN_i_2336_dp_f_1.965079867098312,2336,
GCF_016952595.1_ASM1695259v1,S38_LN_i_3188_dp_f_226.53842663041289,3188,
GCF_002507915.2_ASM250791v2,S28_LN_i_5463_dp_f_7.911834909464381,5463,
GCF_016127835.1_ASM1612783v1,S18_LN_i_5386_dp_f_0.8641478697249748,5386,
GCF_019670245.1_ASM1967024v1,S193_LN_i_2997_dp_f_1.1439043740352748,2997,
GCF_019670365.1_ASM1967036v1,S51_LN_i_1454_dp_f_37.31279233706101,1454,
GCF_016454265.1_ASM1645426v1,S35_LN_i_4418_dp_f_300.1748835182361,4418,
GCF_016454385.1_ASM1645438v1,S33_LN_i_4773_dp_f_58.96981053979833,4773,
GCF_016454385.1_ASM1645438v1,S35_LN_i_4099_dp_f_1.0586923593125217,4099,
GCF_016454545.1_ASM1645454v1,S26_LN_i_43659_dp_f_0.8752888887805413,43659,
GCF_016454545.1_ASM1645454v1,S32_LN_i_9548_dp_f_1.3044177869888034,9548,
GCF_014334195.1_ASM1433419v1,S39_LN_i_2112_dp_f_8.20281916563863,2112,
GCF_020736325.1_ASM2073632v1,S38_LN_i_5952_dp_f_0.7990757389161038,5952,
GCF_013161805.1_ASM1316180v1,S37_LN_i_4260_dp_f_25.288528484555194,4260,
GCF_013161805.1_ASM1316180v1,S39_LN_i_4064_dp_f_48.517094122732644,4064,
