GCF_022405955.1_ASM2240595v1,GCF_022405955.1_ASM2240595v1_raw_nodes,NZ_CP062411.1,2761023,2729718
GCF_018141385.1_ASM1814138v1,GCF_018141385.1_ASM1814138v1_raw_nodes,NZ_CP047646.1,2731894,2704873
GCF_022405255.1_ASM2240525v1,GCF_022405255.1_ASM2240525v1_raw_nodes,NZ_CP062356.1,2717242,2715011
GCF_022405255.1_ASM2240525v1,GCF_022405255.1_ASM2240525v1_raw_nodes,NZ_CP062357.1,29018,2715011
GCF_022405675.1_ASM2240567v1,GCF_022405675.1_ASM2240567v1_raw_nodes,NZ_CP062399.1,2772911,2746146
GCF_022406125.1_ASM2240612v1,GCF_022406125.1_ASM2240612v1_raw_nodes,NZ_CP062418.1,2735550,2706879
GCF_022405435.1_ASM2240543v1,GCF_022405435.1_ASM2240543v1_raw_nodes,NZ_CP062376.1,2724738,2718099
GCF_022405435.1_ASM2240543v1,GCF_022405435.1_ASM2240543v1_raw_nodes,NZ_CP062377.1,19781,2718099
GCF_018093205.1_ASM1809320v1,GCF_018093205.1_ASM1809320v1_raw_nodes,NZ_CP071102.1,2625372,2613376
GCF_022404615.1_ASM2240461v1,GCF_022404615.1_ASM2240461v1_raw_nodes,NZ_CP062324.1,2855366,2855726
GCF_022404615.1_ASM2240461v1,GCF_022404615.1_ASM2240461v1_raw_nodes,NZ_CP062325.1,26385,2855726
GCF_013008375.1_ASM1300837v1,GCF_013008375.1_ASM1300837v1_raw_nodes,NZ_CP053101.1,2797772,2755787
GCF_022404655.1_ASM2240465v1,GCF_022404655.1_ASM2240465v1_raw_nodes,NZ_CP062329.1,2713357,2687981
GCF_022404655.1_ASM2240465v1,GCF_022404655.1_ASM2240465v1_raw_nodes,NZ_CP062330.1,3332,2687981
GCF_018135565.1_ASM1813556v1,GCF_018135565.1_ASM1813556v1_raw_nodes,NZ_CP073065.1,2758151,2745525
GCF_018135565.1_ASM1813556v1,GCF_018135565.1_ASM1813556v1_raw_nodes,NZ_CP073064.1,4254,2745525
GCF_017088305.1_ASM1708830v1,GCF_017088305.1_ASM1708830v1_raw_nodes,NZ_CP070986.1,2765736,2769145
GCF_017088305.1_ASM1708830v1,GCF_017088305.1_ASM1708830v1_raw_nodes,NZ_CP070987.1,19826,2769145
GCF_017088305.1_ASM1708830v1,GCF_017088305.1_ASM1708830v1_raw_nodes,NZ_CP070988.1,2473,2769145
GCF_022405835.1_ASM2240583v1,GCF_022405835.1_ASM2240583v1_raw_nodes,NZ_CP062405.1,2768775,2737359
GCF_022405335.1_ASM2240533v1,GCF_022405335.1_ASM2240533v1_raw_nodes,NZ_CP062364.1,2694955,2683442
GCF_022405335.1_ASM2240533v1,GCF_022405335.1_ASM2240533v1_raw_nodes,NZ_CP062365.1,27117,2683442
GCF_022406315.1_ASM2240631v1,GCF_022406315.1_ASM2240631v1_raw_nodes,NZ_CP062419.1,2732014,2703247
GCF_022406015.1_ASM2240601v1,GCF_022406015.1_ASM2240601v1_raw_nodes,NZ_CP062414.1,2737332,2708626
GCF_022405855.1_ASM2240585v1,GCF_022405855.1_ASM2240585v1_raw_nodes,NZ_CP062406.1,2707479,2672905
GCF_013836525.1_ASM1383652v1,GCF_013836525.1_ASM1383652v1_raw_nodes,NZ_CP058615.1,2871187,2819743
GCF_018093225.1_ASM1809322v1,GCF_018093225.1_ASM1809322v1_raw_nodes,NZ_CP071104.1,2159981,2745308
GCF_018093225.1_ASM1809322v1,GCF_018093225.1_ASM1809322v1_raw_nodes,NZ_CP071105.1,4263,2745308
GCF_018093225.1_ASM1809322v1,GCF_018093225.1_ASM1809322v1_raw_nodes,NZ_CP071106.1,2751,2745308
GCF_022405795.1_ASM2240579v1,GCF_022405795.1_ASM2240579v1_raw_nodes,NZ_CP062403.1,2725504,2701803
GCF_022369695.1_ASM2236969v1,GCF_022369695.1_ASM2236969v1_raw_nodes,NZ_CP062318.1,2730425,2735889
GCF_022369695.1_ASM2236969v1,GCF_022369695.1_ASM2236969v1_raw_nodes,NZ_CP062319.1,24654,2735889
GCF_016591995.1_ASM1659199v1,GCF_016591995.1_ASM1659199v1_raw_nodes,NZ_AP024170.1,2765458,2756378
GCF_016591995.1_ASM1659199v1,GCF_016591995.1_ASM1659199v1_raw_nodes,NZ_AP024171.1,24391,2756378
GCF_022405295.1_ASM2240529v1,GCF_022405295.1_ASM2240529v1_raw_nodes,NZ_CP062360.1,2730314,2739502
GCF_022405295.1_ASM2240529v1,GCF_022405295.1_ASM2240529v1_raw_nodes,NZ_CP062361.1,31590,2739502
GCF_022405775.1_ASM2240577v1,GCF_022405775.1_ASM2240577v1_raw_nodes,NZ_CP062402.1,2696381,2669187
GCF_022404675.1_ASM2240467v1,GCF_022404675.1_ASM2240467v1_raw_nodes,NZ_CP062331.1,2811694,2801348
GCF_022404675.1_ASM2240467v1,GCF_022404675.1_ASM2240467v1_raw_nodes,NZ_CP062332.1,12859,2801348
GCF_022404675.1_ASM2240467v1,GCF_022404675.1_ASM2240467v1_raw_nodes,NZ_CP062333.1,2981,2801348
GCF_016889945.1_ASM1688994v1,GCF_016889945.1_ASM1688994v1_raw_nodes,NZ_CP069565.1,2840481,2847946
GCF_016889945.1_ASM1688994v1,GCF_016889945.1_ASM1688994v1_raw_nodes,NZ_CP069566.1,31928,2847946
GCF_022405395.1_ASM2240539v1,GCF_022405395.1_ASM2240539v1_raw_nodes,NZ_CP062370.1,2725883,2718222
GCF_022405395.1_ASM2240539v1,GCF_022405395.1_ASM2240539v1_raw_nodes,NZ_CP062371.1,27267,2718222
GCF_022405475.1_ASM2240547v1,GCF_022405475.1_ASM2240547v1_raw_nodes,NZ_CP062380.1,2781141,2764321
GCF_022405475.1_ASM2240547v1,GCF_022405475.1_ASM2240547v1_raw_nodes,NZ_CP062381.1,37438,2764321
GCF_022405735.1_ASM2240573v1,GCF_022405735.1_ASM2240573v1_raw_nodes,NZ_CP062400.1,2734167,2705277
GCF_022405355.1_ASM2240535v1,GCF_022405355.1_ASM2240535v1_raw_nodes,NZ_CP062366.1,2905897,2900596
GCF_022405355.1_ASM2240535v1,GCF_022405355.1_ASM2240535v1_raw_nodes,NZ_CP062367.1,25316,2900596
GCF_015475575.1_ASM1547557v1,GCF_015475575.1_ASM1547557v1_raw_nodes,NZ_CP055225.1,2851439,2828900
GCF_015475575.1_ASM1547557v1,GCF_015475575.1_ASM1547557v1_raw_nodes,NZ_CP055226.1,3125,2828900
GCF_018409145.1_ASM1840914v1,GCF_018409145.1_ASM1840914v1_raw_nodes,NZ_AP024511.1,2875177,2861985
GCF_018409145.1_ASM1840914v1,GCF_018409145.1_ASM1840914v1_raw_nodes,NZ_AP024512.1,20239,2861985
GCF_017088385.1_ASM1708838v1,GCF_017088385.1_ASM1708838v1_raw_nodes,NZ_CP070983.1,2720636,2728785
GCF_017088385.1_ASM1708838v1,GCF_017088385.1_ASM1708838v1_raw_nodes,NZ_CP070984.1,20565,2728785
GCF_017088385.1_ASM1708838v1,GCF_017088385.1_ASM1708838v1_raw_nodes,NZ_CP070985.1,2393,2728785
GCF_022405415.1_ASM2240541v1,GCF_022405415.1_ASM2240541v1_raw_nodes,NZ_CP062372.1,2686812,2690055
GCF_022405415.1_ASM2240541v1,GCF_022405415.1_ASM2240541v1_raw_nodes,NZ_CP062373.1,28364,2690055
GCF_022405415.1_ASM2240541v1,GCF_022405415.1_ASM2240541v1_raw_nodes,NZ_CP062374.1,3566,2690055
GCF_022405415.1_ASM2240541v1,GCF_022405415.1_ASM2240541v1_raw_nodes,NZ_CP062375.1,2366,2690055
GCF_022405575.1_ASM2240557v1,GCF_022405575.1_ASM2240557v1_raw_nodes,NZ_CP062390.1,2782908,2821107
GCF_022405575.1_ASM2240557v1,GCF_022405575.1_ASM2240557v1_raw_nodes,NZ_CP062391.1,37087,2821107
GCF_022405575.1_ASM2240557v1,GCF_022405575.1_ASM2240557v1_raw_nodes,NZ_CP062392.1,24655,2821107
GCF_022369535.1_ASM2236953v1,GCF_022369535.1_ASM2236953v1_raw_nodes,NZ_CP062312.1,2792791,2819279
GCF_022369535.1_ASM2236953v1,GCF_022369535.1_ASM2236953v1_raw_nodes,NZ_CP062313.1,6546,2819279
GCF_022404635.1_ASM2240463v1,GCF_022404635.1_ASM2240463v1_raw_nodes,NZ_CP062326.1,2717413,2740264
GCF_022404635.1_ASM2240463v1,GCF_022404635.1_ASM2240463v1_raw_nodes,NZ_CP062327.1,28841,2740264
GCF_022404635.1_ASM2240463v1,GCF_022404635.1_ASM2240463v1_raw_nodes,NZ_CP062328.1,20730,2740264
GCF_018093065.1_ASM1809306v1,GCF_018093065.1_ASM1809306v1_raw_nodes,NZ_CP070991.1,2691920,2695977
GCF_018093065.1_ASM1809306v1,GCF_018093065.1_ASM1809306v1_raw_nodes,NZ_CP070992.1,27816,2695977
GCF_022405535.1_ASM2240553v1,GCF_022405535.1_ASM2240553v1_raw_nodes,NZ_CP062386.1,2738862,2711309
GCF_022405535.1_ASM2240553v1,GCF_022405535.1_ASM2240553v1_raw_nodes,NZ_CP062387.1,2416,2711309
GCF_022405205.1_ASM2240520v1,GCF_022405205.1_ASM2240520v1_raw_nodes,NZ_CP062352.1,2717242,2714975
GCF_022405205.1_ASM2240520v1,GCF_022405205.1_ASM2240520v1_raw_nodes,NZ_CP062353.1,29018,2714975
GCF_022493095.1_ASM2249309v1,GCF_022493095.1_ASM2249309v1_raw_nodes,NZ_CP062439.1,2809272,2786208
GCF_022493095.1_ASM2249309v1,GCF_022493095.1_ASM2249309v1_raw_nodes,NZ_CP062440.1,3126,2786208
GCF_022405185.1_ASM2240518v1,GCF_022405185.1_ASM2240518v1_raw_nodes,NZ_CP062350.1,2721285,2713788
GCF_022405185.1_ASM2240518v1,GCF_022405185.1_ASM2240518v1_raw_nodes,NZ_CP062351.1,16691,2713788
GCF_018093105.1_ASM1809310v1,GCF_018093105.1_ASM1809310v1_raw_nodes,NZ_CP071100.1,2306247,2633534
GCF_015732455.1_ASM1573245v1,GCF_015732455.1_ASM1573245v1_raw_nodes,NZ_CP061349.1,2770617,2747130
GCF_022405895.1_ASM2240589v1,GCF_022405895.1_ASM2240589v1_raw_nodes,NZ_CP062408.1,2812402,2784140
GCF_022405875.1_ASM2240587v1,GCF_022405875.1_ASM2240587v1_raw_nodes,NZ_CP062407.1,2787074,2745961
GCF_022404715.1_ASM2240471v1,GCF_022404715.1_ASM2240471v1_raw_nodes,NZ_CP062336.1,2703792,2700785
GCF_022404715.1_ASM2240471v1,GCF_022404715.1_ASM2240471v1_raw_nodes,NZ_CP062337.1,20730,2700785
GCF_022406795.1_ASM2240679v1,GCF_022406795.1_ASM2240679v1_raw_nodes,NZ_CP063745.1,2705090,2678589
GCF_022405915.1_ASM2240591v1,GCF_022405915.1_ASM2240591v1_raw_nodes,NZ_CP062409.1,2728402,2697242
GCF_016727585.1_ASM1672758v1,GCF_016727585.1_ASM1672758v1_raw_nodes,NZ_CP068143.1,2747734,2744653
GCF_016727585.1_ASM1672758v1,GCF_016727585.1_ASM1672758v1_raw_nodes,NZ_CP068144.1,19758,2744653
GCF_022404695.1_ASM2240469v1,GCF_022404695.1_ASM2240469v1_raw_nodes,NZ_CP062334.1,2762927,2754378
GCF_022404695.1_ASM2240469v1,GCF_022404695.1_ASM2240469v1_raw_nodes,NZ_CP062335.1,20691,2754378
GCF_016889145.1_ASM1688914v1,GCF_016889145.1_ASM1688914v1_raw_nodes,NZ_CP069470.1,2841529,2848596
GCF_016889145.1_ASM1688914v1,GCF_016889145.1_ASM1688914v1_raw_nodes,NZ_CP069471.1,31618,2848596
GCF_016889145.1_ASM1688914v1,GCF_016889145.1_ASM1688914v1_raw_nodes,NZ_CP069472.1,3105,2848596
GCF_022406055.1_ASM2240605v1,GCF_022406055.1_ASM2240605v1_raw_nodes,NZ_CP062416.1,2737079,2709038
GCF_022405315.1_ASM2240531v1,GCF_022405315.1_ASM2240531v1_raw_nodes,NZ_CP062362.1,2726944,2730024
GCF_022405315.1_ASM2240531v1,GCF_022405315.1_ASM2240531v1_raw_nodes,NZ_CP062363.1,33094,2730024
GCF_022226995.1_ASM2222699v1,GCF_022226995.1_ASM2222699v1_raw_nodes,NZ_CP092052.1,2796450,2778582
GCF_022226995.1_ASM2222699v1,GCF_022226995.1_ASM2222699v1_raw_nodes,NZ_CP092053.1,13032,2778582
GCF_022226995.1_ASM2222699v1,GCF_022226995.1_ASM2222699v1_raw_nodes,NZ_CP092054.1,2995,2778582
GCF_013836745.1_ASM1383674v1,GCF_013836745.1_ASM1383674v1_raw_nodes,NZ_CP058613.1,2835404,2777739
GCF_013836745.1_ASM1383674v1,GCF_013836745.1_ASM1383674v1_raw_nodes,NZ_CP058614.1,2473,2777739
GCF_022404775.1_ASM2240477v1,GCF_022404775.1_ASM2240477v1_raw_nodes,NZ_CP062342.1,2764803,2753658
GCF_022404775.1_ASM2240477v1,GCF_022404775.1_ASM2240477v1_raw_nodes,NZ_CP062343.1,20691,2753658
GCF_022226975.1_ASM2222697v1,GCF_022226975.1_ASM2222697v1_raw_nodes,NZ_CP092055.1,2697159,2670660
GCF_022404575.1_ASM2240457v1,GCF_022404575.1_ASM2240457v1_raw_nodes,NZ_CP062320.1,2802394,2796390
GCF_022404575.1_ASM2240457v1,GCF_022404575.1_ASM2240457v1_raw_nodes,NZ_CP062321.1,27068,2796390
GCF_022405275.1_ASM2240527v1,GCF_022405275.1_ASM2240527v1_raw_nodes,NZ_CP062358.1,2726097,2718051
GCF_022405275.1_ASM2240527v1,GCF_022405275.1_ASM2240527v1_raw_nodes,NZ_CP062359.1,27268,2718051
GCF_022405235.1_ASM2240523v1,GCF_022405235.1_ASM2240523v1_raw_nodes,NZ_CP062354.1,2726030,2761214
GCF_022405235.1_ASM2240523v1,GCF_022405235.1_ASM2240523v1_raw_nodes,NZ_CP062355.1,20680,2761214
GCF_017161095.1_ASM1716109v1,GCF_017161095.1_ASM1716109v1_raw_nodes,NZ_CP046476.1,2719153,2706582
GCF_017161095.1_ASM1716109v1,GCF_017161095.1_ASM1716109v1_raw_nodes,NZ_CP046477.1,16100,2706582
GCF_022405375.1_ASM2240537v1,GCF_022405375.1_ASM2240537v1_raw_nodes,NZ_CP062368.1,2725311,2717633
GCF_022405375.1_ASM2240537v1,GCF_022405375.1_ASM2240537v1_raw_nodes,NZ_CP062369.1,27268,2717633
GCF_022405555.1_ASM2240555v1,GCF_022405555.1_ASM2240555v1_raw_nodes,NZ_CP062388.1,2730204,2720604
GCF_022405555.1_ASM2240555v1,GCF_022405555.1_ASM2240555v1_raw_nodes,NZ_CP062389.1,27269,2720604
GCF_903932595.1_P3.1,GCF_903932595.1_P3.1_raw_nodes,NZ_LR822060.1,2938984,2897216
GCF_022369595.1_ASM2236959v1,GCF_022369595.1_ASM2236959v1_raw_nodes,NZ_CP062314.1,2849368,2853432
GCF_022369595.1_ASM2236959v1,GCF_022369595.1_ASM2236959v1_raw_nodes,NZ_CP062315.1,26024,2853432
GCF_022369595.1_ASM2236959v1,GCF_022369595.1_ASM2236959v1_raw_nodes,NZ_CP062316.1,3111,2853432
GCF_022369595.1_ASM2236959v1,GCF_022369595.1_ASM2236959v1_raw_nodes,NZ_CP062317.1,2473,2853432
GCF_022404755.1_ASM2240475v1,GCF_022404755.1_ASM2240475v1_raw_nodes,NZ_CP062340.1,2762999,2752309
GCF_022404755.1_ASM2240475v1,GCF_022404755.1_ASM2240475v1_raw_nodes,NZ_CP062341.1,20721,2752309
GCF_022405495.1_ASM2240549v1,GCF_022405495.1_ASM2240549v1_raw_nodes,NZ_CP062382.1,2872782,2849967
GCF_022405495.1_ASM2240549v1,GCF_022405495.1_ASM2240549v1_raw_nodes,NZ_CP062383.1,39284,2849967
GCF_022405455.1_ASM2240545v1,GCF_022405455.1_ASM2240545v1_raw_nodes,NZ_CP062378.1,2768318,2761652
GCF_022405455.1_ASM2240545v1,GCF_022405455.1_ASM2240545v1_raw_nodes,NZ_CP062379.1,27265,2761652
GCF_022405655.1_ASM2240565v1,GCF_022405655.1_ASM2240565v1_raw_nodes,NZ_CP062398.1,2704629,2676959
GCF_903932605.1_HU-14,.,contig_length_below_1k,0,0
GCF_022405055.1_ASM2240505v1,GCF_022405055.1_ASM2240505v1_raw_nodes,NZ_CP062344.1,2788543,2780218
GCF_022405055.1_ASM2240505v1,GCF_022405055.1_ASM2240505v1_raw_nodes,NZ_CP062345.1,17329,2780218
GCF_019653615.1_ASM1965361v1,GCF_019653615.1_ASM1965361v1_raw_nodes,NZ_CP077098.1,2868447,2852589
GCF_022405145.1_ASM2240514v1,GCF_022405145.1_ASM2240514v1_raw_nodes,NZ_CP062348.1,2854964,2850003
GCF_022405145.1_ASM2240514v1,GCF_022405145.1_ASM2240514v1_raw_nodes,NZ_CP062349.1,20653,2850003
GCF_022404595.1_ASM2240459v1,GCF_022404595.1_ASM2240459v1_raw_nodes,NZ_CP062322.1,2766830,2762427
GCF_022404595.1_ASM2240459v1,GCF_022404595.1_ASM2240459v1_raw_nodes,NZ_CP062323.1,20691,2762427
GCF_022405515.1_ASM2240551v1,GCF_022405515.1_ASM2240551v1_raw_nodes,NZ_CP062384.1,2720724,2714560
GCF_022405515.1_ASM2240551v1,GCF_022405515.1_ASM2240551v1_raw_nodes,NZ_CP062385.1,20730,2714560
GCF_016894285.1_ASM1689428v1,GCF_016894285.1_ASM1689428v1_raw_nodes,NZ_CP069799.1,2775706,2755875
GCF_016894285.1_ASM1689428v1,GCF_016894285.1_ASM1689428v1_raw_nodes,NZ_CP069800.1,2539,2755875
GCF_022405615.1_ASM2240561v1,GCF_022405615.1_ASM2240561v1_raw_nodes,NZ_CP062395.1,2738973,2765676
GCF_022405615.1_ASM2240561v1,GCF_022405615.1_ASM2240561v1_raw_nodes,NZ_CP062396.1,43414,2765676
GCF_022405615.1_ASM2240561v1,GCF_022405615.1_ASM2240561v1_raw_nodes,NZ_CP062397.1,37438,2765676
GCF_022406555.1_ASM2240655v1,GCF_022406555.1_ASM2240655v1_raw_nodes,NZ_CP062421.1,2721853,2698163
GCF_021869805.1_ASM2186980v1,GCF_021869805.1_ASM2186980v1_raw_nodes,NZ_CP086215.1,2849218,2804736
GCF_022405755.1_ASM2240575v1,GCF_022405755.1_ASM2240575v1_raw_nodes,NZ_CP062401.1,2740292,2711091
GCF_022405815.1_ASM2240581v1,GCF_022405815.1_ASM2240581v1_raw_nodes,NZ_CP062404.1,2768767,2737351
GCF_022405935.1_ASM2240593v1,GCF_022405935.1_ASM2240593v1_raw_nodes,NZ_CP062410.1,2772740,2732392
GCF_022406035.1_ASM2240603v1,GCF_022406035.1_ASM2240603v1_raw_nodes,NZ_CP062415.1,2885401,2837704
GCF_022406435.1_ASM2240643v1,GCF_022406435.1_ASM2240643v1_raw_nodes,NZ_CP062420.1,2731076,2702165
GCF_022406075.1_ASM2240607v1,GCF_022406075.1_ASM2240607v1_raw_nodes,NZ_CP062417.1,2730400,2699346
GCF_022405995.1_ASM2240599v1,GCF_022405995.1_ASM2240599v1_raw_nodes,NZ_CP062413.1,2729810,2699210
GCF_022405075.1_ASM2240507v1,GCF_022405075.1_ASM2240507v1_raw_nodes,NZ_CP062346.1,2768722,2766533
GCF_022405075.1_ASM2240507v1,GCF_022405075.1_ASM2240507v1_raw_nodes,NZ_CP062347.1,39036,2766533
GCF_022405595.1_ASM2240559v1,GCF_022405595.1_ASM2240559v1_raw_nodes,NZ_CP062393.1,2779314,2780128
GCF_022405595.1_ASM2240559v1,GCF_022405595.1_ASM2240559v1_raw_nodes,NZ_CP062394.1,27025,2780128
GCF_022404735.1_ASM2240473v1,GCF_022404735.1_ASM2240473v1_raw_nodes,NZ_CP062338.1,2730277,2709278
GCF_022404735.1_ASM2240473v1,GCF_022404735.1_ASM2240473v1_raw_nodes,NZ_CP062339.1,2564,2709278
GCF_022405975.1_ASM2240597v1,GCF_022405975.1_ASM2240597v1_raw_nodes,NZ_CP062412.1,2737649,2709180
