GCF_018093225.1_ASM1809322v1,S11_LN_i_84125_dp_f_0.5370635686513915,84125,
GCF_018093225.1_ASM1809322v1,S25_LN_i_39887_dp_f_0.7853415736548472,39887,
GCF_018093225.1_ASM1809322v1,S31_LN_i_23364_dp_f_1.779065328511901,23364,
GCF_018093225.1_ASM1809322v1,S34_LN_i_18137_dp_f_2.0939458675562803,18137,
GCF_018093225.1_ASM1809322v1,S37_LN_i_14865_dp_f_0.2743748814337448,14865,
GCF_018093225.1_ASM1809322v1,S40_LN_i_12112_dp_f_1.917483708383207,12112,
GCF_018093225.1_ASM1809322v1,S41_LN_i_11391_dp_f_0.5274295121276129,11391,
GCF_018093225.1_ASM1809322v1,S44_LN_i_10121_dp_f_0.181376462735834,10121,
GCF_018093225.1_ASM1809322v1,S47_LN_i_7976_dp_f_0.9115629625746992,7976,
GCF_018093225.1_ASM1809322v1,S48_LN_i_7599_dp_f_0.4807950328675142,7599,
GCF_018093225.1_ASM1809322v1,S52_LN_i_4224_dp_f_1.391282512688268,4224,
GCF_018093225.1_ASM1809322v1,S54_LN_i_3008_dp_f_0.9645510892031168,3008,
GCF_018093225.1_ASM1809322v1,S57_LN_i_2238_dp_f_0.2680974032637978,2238,
GCF_018093225.1_ASM1809322v1,S58_LN_i_2048_dp_f_0.19729609977684898,2048,
GCF_018093225.1_ASM1809322v1,S59_LN_i_2029_dp_f_2.8763233093136846,2029,
GCF_018093225.1_ASM1809322v1,S60_LN_i_1975_dp_f_1.5338679846985417,1975,
GCF_018093225.1_ASM1809322v1,S61_LN_i_1873_dp_f_0.6722764538384841,1873,
GCF_018093225.1_ASM1809322v1,S62_LN_i_1661_dp_f_2.205044462660768,1661,
GCF_018093225.1_ASM1809322v1,S65_LN_i_1323_dp_f_3.892546540423737,1323,
GCF_018093225.1_ASM1809322v1,S66_LN_i_1307_dp_f_4.730377461904828,1307,
GCF_018093225.1_ASM1809322v1,S67_LN_i_1008_dp_f_2.5099243545122296,1008,
GCF_016591995.1_ASM1659199v1,S113_LN_i_1289_dp_f_65.47291042256701,1289,
GCF_016889945.1_ASM1688994v1,S20_LN_i_3111_dp_f_20.790731204570925,3111,
GCF_018093105.1_ASM1809310v1,S13_LN_i_47036_dp_f_1.658280916065107,47036,
GCF_018093105.1_ASM1809310v1,S23_LN_i_8093_dp_f_0.2716851275539375,8093,
GCF_018093105.1_ASM1809310v1,S25_LN_i_3423_dp_f_1.7956559057947896,3423,
GCF_016727585.1_ASM1672758v1,S19_LN_i_5386_dp_f_0.7622773514787567,5386,
GCF_016727585.1_ASM1672758v1,S21_LN_i_2064_dp_f_0.03404796024220366,2064,
GCF_022405235.1_ASM2240523v1,S11_LN_i_31809_dp_f_2.4632159813679944,31809,
GCF_022405235.1_ASM2240523v1,S14_LN_i_6383_dp_f_2.432343556869466,6383,
GCF_903932595.1_P3.1,S31_LN_i_19264_dp_f_4.420794170424951,19264,
GCF_903932595.1_P3.1,S43_LN_i_6341_dp_f_5.20102952008913,6341,
GCF_903932595.1_P3.1,S48_LN_i_2946_dp_f_5.018429428055759,2946,
GCF_019653615.1_ASM1965361v1,S42_LN_i_11132_dp_f_2.6781722204904606,11132,
GCF_019653615.1_ASM1965361v1,S45_LN_i_7713_dp_f_2.785223489650061,7713,
GCF_019653615.1_ASM1965361v1,S49_LN_i_4636_dp_f_2.7516268191251805,4636,
GCF_019653615.1_ASM1965361v1,S52_LN_i_3831_dp_f_0.9468511189790085,3831,
GCF_019653615.1_ASM1965361v1,S54_LN_i_2612_dp_f_13.065390286157516,2612,
GCF_019653615.1_ASM1965361v1,S55_LN_i_2491_dp_f_13.968512990682184,2491,
GCF_019653615.1_ASM1965361v1,S56_LN_i_2397_dp_f_17.80681841054111,2397,
