"software","variable","value","percentage","replicon_origin","species"
"gplas2","Detected",372,"81.05","Plasmidome","K. pneumoniae"
"MOB-suite","Detected",398,"86.71","Plasmidome","K. pneumoniae"
"plasmidSPAdes","Detected",274,"59.69","Plasmidome","K. pneumoniae"
"gplas2","Contamination",11,"not_applicable","Chromosome","K. pneumoniae"
"MOB-suite","Contamination",32,"not_applicable","Chromosome","K. pneumoniae"
"plasmidSPAdes","Contamination",8,"not_applicable","Chromosome","K. pneumoniae"
"gplas2","Not detected",87,"18.95","Plasmidome","K. pneumoniae"
"MOB-suite","Not detected",61,"13.29","Plasmidome","K. pneumoniae"
"plasmidSPAdes","Not detected",185,"40.31","Plasmidome","K. pneumoniae"
