"true_classification","variable","value","species"
"ambiguous","count",434,"K. pneumoniae"
"chromosome","count",7681,"K. pneumoniae"
"plasmid","count",3480,"K. pneumoniae"
"repeat chromosome","count",1120,"K. pneumoniae"
"repeat plasmid","count",358,"K. pneumoniae"
"unaligned","count",423,"K. pneumoniae"
"ambiguous","percentage",3.22,"K. pneumoniae"
"chromosome","percentage",56.91,"K. pneumoniae"
"plasmid","percentage",25.79,"K. pneumoniae"
"repeat chromosome","percentage",8.3,"K. pneumoniae"
"repeat plasmid","percentage",2.65,"K. pneumoniae"
"unaligned","percentage",3.13,"K. pneumoniae"
