"reference_id","nr_repeats_per_replicon"
"NZ_AP021909.1",36
"NZ_AP021911.1",2
"NZ_AP021929.1",24
"NZ_AP021930.1",4
"NZ_AP021931.1",4
"NZ_AP022078.1",21
"NZ_AP022079.1",7
"NZ_AP022080.1",7
"NZ_AP022081.1",4
"NZ_AP022139.1",32
"NZ_AP022527.1",30
"NZ_AP022528.1",4
"NZ_AP022529.1",1
"NZ_AP023453.1",45
"NZ_AP023454.1",2
"NZ_AP023455.1",8
"NZ_AP023456.1",2
"NZ_AP024173.1",26
"NZ_AP024174.1",9
"NZ_AP024175.1",6
"NZ_AP024177.1",1
"NZ_AP024568.1",27
"NZ_AP024569.1",5
"NZ_AP024570.1",27
"NZ_AP024571.1",5
"NZ_AP024572.1",27
"NZ_AP024573.1",7
"NZ_AP024575.1",3
"NZ_AP024576.1",29
"NZ_AP024577.1",7
"NZ_AP024578.1",3
"NZ_AP024579.1",33
"NZ_AP024580.1",8
"NZ_AP024581.1",4
"NZ_AP025246.1",34
"NZ_AP025247.1",3
"NZ_CP033394.2",7
"NZ_CP033395.2",7
"NZ_CP033396.2",43
"NZ_CP043353.1",43
"NZ_CP043354.1",2
"NZ_CP043355.1",4
"NZ_CP043357.1",38
"NZ_CP043358.1",7
"NZ_CP043359.1",9
"NZ_CP047271.1",30
"NZ_CP047272.1",8
"NZ_CP053016.1",36
"NZ_CP053017.1",6
"NZ_CP053018.1",5
"NZ_CP053862.1",24
"NZ_CP053863.1",2
"NZ_CP054285.1",33
"NZ_CP054286.1",4
"NZ_CP054287.1",4
"NZ_CP055293.1",48
"NZ_CP055451.1",41
"NZ_CP055452.1",7
"NZ_CP055509.1",83
"NZ_CP055510.1",22
"NZ_CP055511.1",4
"NZ_CP055512.1",3
"NZ_CP056191.1",37
"NZ_CP056192.1",17
"NZ_CP056193.1",2
"NZ_CP056194.1",4
"NZ_CP056216.1",35
"NZ_CP056222.1",28
"NZ_CP056223.1",10
"NZ_CP056225.1",3
"NZ_CP056226.1",2
"NZ_CP056275.1",20
"NZ_CP056276.1",1
"NZ_CP056277.1",1
"NZ_CP056297.1",22
"NZ_CP056298.1",4
"NZ_CP056301.1",31
"NZ_CP056302.1",7
"NZ_CP056307.1",83
"NZ_CP056308.1",13
"NZ_CP056309.1",3
"NZ_CP056310.1",3
"NZ_CP056311.1",1
"NZ_CP056329.1",29
"NZ_CP056372.1",40
"NZ_CP056373.1",9
"NZ_CP056374.1",9
"NZ_CP056385.1",36
"NZ_CP056386.1",8
"NZ_CP056425.1",49
"NZ_CP056426.1",17
"NZ_CP056427.1",9
"NZ_CP056432.1",37
"NZ_CP056433.1",9
"NZ_CP056434.1",16
"NZ_CP056435.1",10
"NZ_CP056437.1",1
"NZ_CP056530.1",55
"NZ_CP056531.1",12
"NZ_CP056532.1",7
"NZ_CP056533.1",4
"NZ_CP056534.1",1
"NZ_CP056536.1",1
"NZ_CP056830.1",27
"NZ_CP056831.1",2
"NZ_CP056854.1",43
"NZ_CP056855.1",10
"NZ_CP056856.1",4
"NZ_CP056858.1",3
"NZ_CP056878.1",29
"NZ_CP056879.1",7
"NZ_CP056880.1",3
"NZ_CP056883.1",27
"NZ_CP056884.1",4
"NZ_CP056885.1",2
"NZ_CP057034.1",35
"NZ_CP057035.1",5
"NZ_CP057066.1",14
"NZ_CP057068.1",2
"NZ_CP057069.1",27
"NZ_CP057099.1",40
"NZ_CP057313.1",24
"NZ_CP057315.1",4
"NZ_CP057317.1",4
"NZ_CP057459.1",30
"NZ_CP057460.1",6
"NZ_CP057722.1",22
"NZ_CP057723.1",2
"NZ_CP058358.1",42
"NZ_CP058359.1",3
"NZ_CP058360.1",3
"NZ_CP058361.1",39
"NZ_CP058362.1",3
"NZ_CP058363.1",5
"NZ_CP061380.1",38
"NZ_CP061381.1",3
"NZ_CP061382.1",2
"NZ_CP061385.1",46
"NZ_CP061386.1",6
"NZ_CP061387.1",1
"NZ_CP061389.1",22
"NZ_CP061390.1",1
"NZ_CP061391.1",1
"NZ_CP061392.1",3
"NZ_CP061393.1",2
"NZ_CP061394.1",1
"NZ_CP061399.1",47
"NZ_CP061400.1",1
"NZ_CP061401.1",2
"NZ_CP061404.1",63
"NZ_CP061405.1",6
"NZ_CP061406.1",2
"NZ_CP061832.1",31
"NZ_CP061833.1",4
"NZ_CP061834.1",4
"NZ_CP065167.1",33
"NZ_CP065168.1",5
"NZ_CP065172.1",18
"NZ_CP065173.1",12
"NZ_CP065174.1",4
"NZ_CP065175.1",4
"NZ_CP065176.1",9
"NZ_CP065825.1",20
"NZ_CP065826.1",7
"NZ_CP065831.1",37
"NZ_CP065832.1",1
"NZ_CP065833.1",23
"NZ_CP065834.1",10
"NZ_CP067255.1",37
"NZ_CP067256.1",3
"NZ_CP067257.1",4
"NZ_CP068139.1",20
"NZ_CP068140.1",2
"NZ_CP069821.1",32
"NZ_CP069822.1",7
"NZ_CP069828.1",37
"NZ_CP069829.1",1
"NZ_CP069833.1",1
"NZ_CP069844.1",10
"NZ_CP069845.1",17
"NZ_CP069846.1",9
"NZ_CP069847.1",36
"NZ_CP069848.1",3
"NZ_CP069849.1",12
"NZ_CP069853.1",41
"NZ_CP069854.1",5
"NZ_CP069855.1",4
"NZ_CP069856.1",1
"NZ_CP069861.1",24
"NZ_CP069862.1",5
"NZ_CP069863.1",1
"NZ_CP069873.1",24
"NZ_CP069903.1",8
"NZ_CP069904.1",12
"NZ_CP069906.1",3
"NZ_CP069907.1",33
"NZ_CP069939.1",37
"NZ_CP069940.1",22
"NZ_CP069946.1",26
"NZ_CP069947.1",4
"NZ_CP069948.1",4
"NZ_CP069961.1",14
"NZ_CP069962.1",29
"NZ_CP069963.1",1
"NZ_CP069964.1",1
"NZ_CP069966.1",1
"NZ_CP069967.1",1
"NZ_CP069968.1",17
"NZ_CP069969.1",2
"NZ_CP069992.1",26
"NZ_CP069994.1",25
"NZ_CP069995.1",2
"NZ_CP070015.1",24
"NZ_CP070016.1",8
"NZ_CP070037.1",27
"NZ_CP070038.1",6
"NZ_CP070039.1",1
"NZ_CP070046.1",32
"NZ_CP070047.1",3
"NZ_CP070082.1",2
"NZ_CP070083.1",7
"NZ_CP070084.1",3
"NZ_CP070087.1",48
"NZ_CP070088.1",33
"NZ_CP070089.1",2
"NZ_CP070092.1",37
"NZ_CP070093.1",5
"NZ_CP070105.1",35
"NZ_CP070106.1",1
"NZ_CP070108.1",5
"NZ_CP070110.1",1
"NZ_CP070158.1",22
"NZ_CP070159.1",4
"NZ_CP070169.1",32
"NZ_CP070172.1",52
"NZ_CP070173.1",16
"NZ_CP070174.1",3
"NZ_CP070177.1",27
"NZ_CP070890.1",31
"NZ_CP070891.1",12
"NZ_CP070893.1",4
"NZ_CP071027.1",32
"NZ_CP071028.1",10
"NZ_CP071030.1",5
"NZ_CP072949.1",36
"NZ_CP072950.1",4
"NZ_CP073054.1",12
"NZ_CP073055.1",1
"NZ_CP073056.1",4
"NZ_CP073057.1",2
"NZ_CP073285.1",27
"NZ_CP073286.1",1
"NZ_CP073627.1",36
"NZ_CP073628.1",5
"NZ_CP073783.1",28
"NZ_CP073788.1",39
"NZ_CP073791.1",26
"NZ_CP073793.1",3
"NZ_CP074087.1",30
"NZ_CP074088.1",8
"NZ_CP074090.1",3
"NZ_CP078033.1",42
"NZ_CP078034.1",15
"NZ_CP078035.1",3
"NZ_CP078036.1",2
"NZ_CP083445.1",24
"NZ_CP083446.1",17
"NZ_CP083447.1",4
"NZ_CP083768.1",38
"NZ_CP083769.1",4
"NZ_CP083775.1",60
"NZ_CP083776.1",7
"NZ_CP083777.1",1
"NZ_CP083784.1",31
"NZ_CP083796.1",26
"NZ_CP083797.1",13
"NZ_CP083798.1",7
"NZ_CP084395.1",16
"NZ_CP084397.1",37
"NZ_CP084823.1",42
"NZ_CP084824.1",4
"NZ_CP084825.1",24
"NZ_CP084829.1",28
"NZ_CP084830.1",31
"NZ_CP084831.1",11
"NZ_CP084832.1",7
"NZ_CP084833.1",1
"NZ_CP084834.1",4
"NZ_CP084838.1",1
"NZ_CP084839.1",1
"NZ_CP084840.1",1
"NZ_CP084843.1",72
"NZ_CP084844.1",11
"NZ_CP084846.1",8
"NZ_CP084847.1",4
"NZ_CP084848.1",3
"NZ_CP084849.1",1
"NZ_CP084852.1",19
"NZ_CP084853.1",3
"NZ_CP084856.1",32
"NZ_CP084859.1",24
"NZ_CP084860.1",30
"NZ_CP084861.1",8
"NZ_CP084862.1",2
"NZ_CP084866.1",33
"NZ_CP084867.1",5
"NZ_CP084868.1",32
"NZ_CP084869.1",3
"NZ_CP084870.1",15
"NZ_CP084871.1",20
"NZ_CP084872.1",1
"NZ_CP084873.1",29
"NZ_CP084984.1",37
"NZ_CP084985.1",13
"NZ_CP089024.1",34
"NZ_CP089027.1",2
"NZ_CP089028.1",17
"NZ_CP089029.1",16
"NZ_CP089030.1",1
"NZ_CP089383.1",33
"NZ_CP089384.1",5
"NZ_CP089427.1",25
"NZ_CP089428.1",3
"NZ_CP089429.1",1
"NZ_CP089431.1",1
"NZ_LR890185.1",22
"NZ_LR890186.1",2
"NZ_LR890189.1",18
"NZ_LR890191.1",8
"NZ_LR890192.1",6
"NZ_LR890193.1",3
"NZ_LR890202.1",25
"NZ_LR890203.1",7
"NZ_LR890204.1",18
"NZ_LR890205.1",15
"NZ_LR890209.1",47
"NZ_LR890210.1",5
"NZ_LR890211.1",1
"NZ_LR890217.1",33
"NZ_LR890218.1",1
"NZ_LR890235.1",22
"NZ_LR890236.1",3
"NZ_LR890240.1",20
"NZ_LR890241.1",5
"NZ_LR890245.1",32
"NZ_LR890246.1",6
"NZ_LR890254.1",30
"NZ_LR890255.1",3
"NZ_LR890256.1",4
"NZ_LR890259.1",2
"NZ_LR890277.1",33
"NZ_LR890278.1",4
"NZ_LR890279.1",3
"NZ_LR890286.1",28
"NZ_LR890287.1",2
"NZ_LR890291.1",10
"NZ_LR890307.1",28
"NZ_LR890308.1",4
"NZ_LR890317.1",27
"NZ_LR890318.1",10
"NZ_LR890319.1",4
"NZ_LR890323.1",21
"NZ_LR890324.1",1
"NZ_LR890325.1",1
"NZ_LR890343.1",21
"NZ_LR890344.1",13
"NZ_LR890345.1",3
"NZ_LR890353.1",20
"NZ_LR890354.1",1
"NZ_LR890355.1",12
"NZ_LR890356.1",17
"NZ_LR890357.1",2
"NZ_LR890360.1",29
"NZ_LR890361.1",9
"NZ_LR890362.1",4
"NZ_LR890363.1",2
"NZ_LR890369.1",37
"NZ_LR890370.1",5
"NZ_LR890371.1",3
"NZ_LR890374.1",32
"NZ_LR890375.1",7
"NZ_LR890376.1",3
"NZ_LR890381.1",26
"NZ_LR890384.1",17
"NZ_LR890385.1",6
"NZ_LR890391.1",17
"NZ_LR890392.1",6
"NZ_LR890395.1",37
"NZ_LR890396.1",2
"NZ_LR890415.1",36
"NZ_LR890416.1",7
"NZ_LR890417.1",3
"NZ_LR890422.1",32
"NZ_LR890424.1",29
"NZ_LR890425.1",2
"NZ_LR890426.1",36
"NZ_LR890427.1",3
"NZ_LR890428.1",3
"NZ_LR890431.1",2
"NZ_LR890434.1",28
"NZ_LR890435.1",12
"NZ_LR890446.1",35
"NZ_LR890456.1",20
"NZ_LR890457.1",33
"NZ_LR890458.1",12
"NZ_LR890459.1",9
"NZ_LR890464.1",28
"NZ_LR890465.1",5
"NZ_LR890471.1",36
"NZ_LR890472.1",1
"NZ_LR890473.1",1
"NZ_LR890474.1",31
"NZ_LR890475.1",7
"NZ_LR890484.1",22
"NZ_LR890485.1",6
"NZ_LR890486.1",5
"NZ_LR890490.1",35
"NZ_LR890491.1",2
"NZ_LR890493.1",23
"NZ_LR890500.1",34
"NZ_LR890501.1",3
"NZ_LR890502.1",3
"NZ_LR890505.1",2
"NZ_LR890515.1",34
"NZ_LR890516.1",3
"NZ_LR890517.1",3
"NZ_LR890520.1",2
"NZ_LR890527.1",35
"NZ_LR890528.1",4
"NZ_LR890529.1",3
"NZ_LR890542.1",34
"NZ_LR890543.1",3
"NZ_LR890545.1",3
"NZ_LR890546.1",1
"NZ_LR890547.1",46
"NZ_LR890548.1",7
"NZ_LR890549.1",3
"NZ_LR890550.1",7
"NZ_LR890551.1",2
"NZ_LR890554.1",25
"NZ_LR890556.1",23
"NZ_LR890557.1",6
"NZ_LR890558.1",6
"NZ_LR890562.1",38
"NZ_LR890563.1",6
"NZ_LR890564.1",16
"NZ_LR890569.1",26
"NZ_LR890571.1",19
"NZ_LR890572.1",6
"NZ_LR890583.1",25
"NZ_LR890595.1",27
"NZ_LR890596.1",4
"NZ_LR890597.1",2
"NZ_LR890600.1",37
"NZ_LR890601.1",2
"NZ_LR890616.1",22
"NZ_LR890617.1",6
"NZ_LR890618.1",2
"NZ_LR890620.1",35
"NZ_LR890621.1",9
"NZ_LR890624.1",20
"NZ_LR890625.1",6
"NZ_LR890632.1",27
"NZ_LR890633.1",3
"NZ_LR890634.1",4
"NZ_LR890637.1",2
"NZ_LR890640.1",37
"NZ_LR890641.1",3
"NZ_LR890642.1",2
"NZ_LR890643.1",22
"NZ_LR890648.1",19
"NZ_LR890649.1",3
"NZ_LR890650.1",5
"NZ_LR890665.1",37
"NZ_LR890666.1",7
"NZ_LR890669.1",47
"NZ_LR890670.1",1
"NZ_LR890671.1",8
"NZ_LR890679.1",34
"NZ_LR890680.1",8
"NZ_LR890681.1",3
"NZ_LR890686.1",27
"NZ_LR890687.1",8
"NZ_LR890691.1",22
"NZ_LR890692.1",5
"NZ_LR890702.1",29
"NZ_LR890703.1",3
"NZ_LR890704.1",4
"NZ_LR890707.1",2
"NZ_LR890710.1",24
"NZ_LR890711.1",2
"NZ_LR890712.1",5
"NZ_LR890713.1",1
"NZ_LR890719.1",25
"NZ_LR890720.1",1
"NZ_LR890722.1",6
"NZ_LR890723.1",4
"NZ_LR890726.1",61
"NZ_LR890727.1",3
"NZ_LR890728.1",3
"NZ_LR890732.1",1
"NZ_LR890733.1",1
"NZ_LR890735.1",30
"NZ_LR890736.1",6
"NZ_LR890737.1",2
"NZ_LR890751.1",19
"NZ_LR890752.1",2
"NZ_LR890753.1",1
"NZ_OV049808.1",33
"NZ_OV049813.1",8
"NZ_OV049814.1",4
"NZ_OV049815.1",6
