GCF_022405675.1_ASM2240567v1,.,NZ_CP062399.1,226
GCF_013008375.1_ASM1300837v1,.,NZ_CP053101.1,165
GCF_018135565.1_ASM1813556v1,.,NZ_CP073065.1,1187
GCF_017088305.1_ASM1708830v1,.,NZ_CP070986.1,111
GCF_018093225.1_ASM1809322v1,.,NZ_CP071104.1,969
GCF_022405355.1_ASM2240535v1,.,NZ_CP062366.1,395
GCF_018409145.1_ASM1840914v1,.,NZ_AP024511.1,318
GCF_022369535.1_ASM2236953v1,.,NZ_CP062312.1,6546
GCF_022369535.1_ASM2236953v1,.,NZ_CP062313.1,38895
GCF_018093065.1_ASM1809306v1,.,NZ_CP070991.1,24
GCF_022405205.1_ASM2240520v1,.,NZ_CP062352.1,20
GCF_018093105.1_ASM1809310v1,.,NZ_CP071100.1,2386
GCF_022406055.1_ASM2240605v1,.,NZ_CP062416.1,173
GCF_013836745.1_ASM1383674v1,.,NZ_CP058613.1,150
GCF_022404775.1_ASM2240477v1,.,NZ_CP062342.1,336
GCF_019653615.1_ASM1965361v1,.,NZ_CP077098.1,77
GCF_022406555.1_ASM2240655v1,.,NZ_CP062421.1,14
GCF_022404735.1_ASM2240473v1,.,NZ_CP062338.1,141
