GCF_019670425.1_ASM1967042v1,GCF_019670425.1_ASM1967042v1_raw_nodes,NZ_AP023315.1,4871627,5050144
GCF_019670425.1_ASM1967042v1,GCF_019670425.1_ASM1967042v1_raw_nodes,NZ_AP023316.1,223478,5050144
GCF_015241115.1_ASM1524111v1,GCF_015241115.1_ASM1524111v1_raw_nodes,NZ_CP063708.1,4671171,4702764
GCF_015241115.1_ASM1524111v1,GCF_015241115.1_ASM1524111v1_raw_nodes,NZ_CP063709.1,59072,4702764
GCF_015241115.1_ASM1524111v1,GCF_015241115.1_ASM1524111v1_raw_nodes,NZ_CP063710.1,3087,4702764
GCF_001833255.2_ASM183325v2,GCF_001833255.2_ASM183325v2_raw_nodes,NZ_CP075129.1,4841150,4941418
GCF_001833255.2_ASM183325v2,GCF_001833255.2_ASM183325v2_raw_nodes,NZ_CP075130.1,134863,4941418
GCF_001833255.2_ASM183325v2,GCF_001833255.2_ASM183325v2_raw_nodes,NZ_CP075131.1,25878,4941418
GCF_013161805.1_ASM1316180v1,GCF_013161805.1_ASM1316180v1_raw_nodes,NZ_CP053579.1,4704311,5017511
GCF_013161805.1_ASM1316180v1,GCF_013161805.1_ASM1316180v1_raw_nodes,NZ_CP053577.1,214251,5017511
GCF_013161805.1_ASM1316180v1,GCF_013161805.1_ASM1316180v1_raw_nodes,NZ_CP053576.1,61895,5017511
GCF_013161805.1_ASM1316180v1,GCF_013161805.1_ASM1316180v1_raw_nodes,NZ_CP053578.1,21243,5017511
GCF_021397625.1_ASM2139762v1,GCF_021397625.1_ASM2139762v1_raw_nodes,NZ_CP090137.1,4614233,4908863
GCF_021397625.1_ASM2139762v1,GCF_021397625.1_ASM2139762v1_raw_nodes,NZ_CP090138.1,280910,4908863
GCF_021397625.1_ASM2139762v1,GCF_021397625.1_ASM2139762v1_raw_nodes,NZ_CP090139.1,50749,4908863
GCF_021397625.1_ASM2139762v1,GCF_021397625.1_ASM2139762v1_raw_nodes,NZ_CP090140.1,6727,4908863
GCF_001972625.2_ASM197262v2,GCF_001972625.2_ASM197262v2_raw_nodes,NZ_CP075120.1,4660723,4726149
GCF_001972625.2_ASM197262v2,GCF_001972625.2_ASM197262v2_raw_nodes,NZ_CP075121.1,49599,4726149
GCF_019670305.1_ASM1967030v1,GCF_019670305.1_ASM1967030v1_raw_nodes,NZ_AP023303.1,4967874,4935361
GCF_014250355.1_ASM1425035v1,GCF_014250355.1_ASM1425035v1_raw_nodes,NZ_CP060169.1,4825536,4892034
GCF_014250355.1_ASM1425035v1,GCF_014250355.1_ASM1425035v1_raw_nodes,NZ_CP060170.1,92042,4892034
GCF_014250355.1_ASM1425035v1,GCF_014250355.1_ASM1425035v1_raw_nodes,NZ_CP060171.1,1975,4892034
GCF_019670245.1_ASM1967024v1,GCF_019670245.1_ASM1967024v1_raw_nodes,NZ_AP023294.1,4760720,4832820
GCF_019670245.1_ASM1967024v1,GCF_019670245.1_ASM1967024v1_raw_nodes,NZ_AP023295.1,59800,4832820
GCF_019670245.1_ASM1967024v1,GCF_019670245.1_ASM1967024v1_raw_nodes,NZ_AP023296.1,6835,4832820
GCF_019670245.1_ASM1967024v1,GCF_019670245.1_ASM1967024v1_raw_nodes,NZ_AP023297.1,4869,4832820
GCF_019670245.1_ASM1967024v1,GCF_019670245.1_ASM1967024v1_raw_nodes,NZ_AP023298.1,4060,4832820
GCF_015240995.1_ASM1524099v1,GCF_015240995.1_ASM1524099v1_raw_nodes,NZ_CP063705.1,4725429,4774158
GCF_015240995.1_ASM1524099v1,GCF_015240995.1_ASM1524099v1_raw_nodes,NZ_CP063706.1,88778,4774158
GCF_015240995.1_ASM1524099v1,GCF_015240995.1_ASM1524099v1_raw_nodes,NZ_CP063707.1,8686,4774158
GCF_020736345.1_ASM2073634v1,GCF_020736345.1_ASM2073634v1_raw_nodes,NZ_CP085987.1,4997536,5055018
GCF_020736345.1_ASM2073634v1,GCF_020736345.1_ASM2073634v1_raw_nodes,NZ_CP085986.1,78565,5055018
GCF_016454525.1_ASM1645452v1,GCF_016454525.1_ASM1645452v1_raw_nodes,NZ_CP051396.1,4792337,4966077
GCF_016454525.1_ASM1645452v1,GCF_016454525.1_ASM1645452v1_raw_nodes,NZ_CP051397.1,183792,4966077
GCF_016454765.1_ASM1645476v1,GCF_016454765.1_ASM1645476v1_raw_nodes,NZ_CP053048.1,4832264,5064084
GCF_016454765.1_ASM1645476v1,GCF_016454765.1_ASM1645476v1_raw_nodes,NZ_CP053049.1,221967,5064084
GCF_016454765.1_ASM1645476v1,GCF_016454765.1_ASM1645476v1_raw_nodes,NZ_CP053050.1,52075,5064084
GCF_016452065.1_ASM1645206v1,GCF_016452065.1_ASM1645206v1_raw_nodes,NZ_CP051317.1,4845023,5062961
GCF_016452065.1_ASM1645206v1,GCF_016452065.1_ASM1645206v1_raw_nodes,NZ_CP051319.1,165486,5062961
GCF_016452065.1_ASM1645206v1,GCF_016452065.1_ASM1645206v1_raw_nodes,NZ_CP051318.1,37611,5062961
GCF_019670385.1_ASM1967038v1,GCF_019670385.1_ASM1967038v1_raw_nodes,NZ_AP023311.1,4869368,5036133
GCF_019670385.1_ASM1967038v1,GCF_019670385.1_ASM1967038v1_raw_nodes,NZ_AP023312.1,219743,5036133
GCF_016028495.1_ASM1602849v1,GCF_016028495.1_ASM1602849v1_raw_nodes,NZ_CP065718.1,4845066,4888407
GCF_016028495.1_ASM1602849v1,GCF_016028495.1_ASM1602849v1_raw_nodes,NZ_CP065719.1,93617,4888407
GCF_014334175.1_ASM1433417v1,GCF_014334175.1_ASM1433417v1_raw_nodes,NZ_CP060508.1,4632805,4784346
GCF_014334175.1_ASM1433417v1,GCF_014334175.1_ASM1433417v1_raw_nodes,NZ_CP060509.1,196214,4784346
GCF_014334175.1_ASM1433417v1,GCF_014334175.1_ASM1433417v1_raw_nodes,NZ_CP060510.1,3372,4784346
GCF_014334175.1_ASM1433417v1,GCF_014334175.1_ASM1433417v1_raw_nodes,NZ_CP060511.1,2978,4784346
GCF_001973785.2_ASM197378v2,GCF_001973785.2_ASM197378v2_raw_nodes,NZ_CP075122.1,4662438,4714985
GCF_001973785.2_ASM197378v2,GCF_001973785.2_ASM197378v2_raw_nodes,NZ_CP075123.1,55316,4714985
GCF_001973785.2_ASM197378v2,GCF_001973785.2_ASM197378v2_raw_nodes,NZ_CP075124.1,32833,4714985
GCF_022162985.1_ASM2216298v1,GCF_022162985.1_ASM2216298v1_raw_nodes,NZ_CP091878.1,4785820,4766832
GCF_022162985.1_ASM2216298v1,GCF_022162985.1_ASM2216298v1_raw_nodes,NZ_CP091879.1,3967,4766832
GCF_013415925.1_ASM1341592v1,GCF_013415925.1_ASM1341592v1_raw_nodes,NZ_CP058807.1,4830681,5176116
GCF_013415925.1_ASM1341592v1,GCF_013415925.1_ASM1341592v1_raw_nodes,NZ_CP058809.1,93853,5176116
GCF_013415925.1_ASM1341592v1,GCF_013415925.1_ASM1341592v1_raw_nodes,NZ_CP058811.1,88119,5176116
GCF_013415925.1_ASM1341592v1,GCF_013415925.1_ASM1341592v1_raw_nodes,NZ_CP058810.1,194207,5176116
GCF_013415925.1_ASM1341592v1,GCF_013415925.1_ASM1341592v1_raw_nodes,NZ_CP058808.1,3752,5176116
GCF_022655645.1_ASM2265564v1,GCF_022655645.1_ASM2265564v1_raw_nodes,NZ_CP093386.1,4811666,4877446
GCF_022655645.1_ASM2265564v1,GCF_022655645.1_ASM2265564v1_raw_nodes,NZ_CP093387.1,93495,4877446
GCF_022655645.1_ASM2265564v1,GCF_022655645.1_ASM2265564v1_raw_nodes,NZ_CP093388.1,3910,4877446
GCF_022655645.1_ASM2265564v1,GCF_022655645.1_ASM2265564v1_raw_nodes,NZ_CP093389.1,3176,4877446
GCF_016454225.1_ASM1645422v1,GCF_016454225.1_ASM1645422v1_raw_nodes,NZ_CP051353.1,4944786,4976551
GCF_016454225.1_ASM1645422v1,GCF_016454225.1_ASM1645422v1_raw_nodes,NZ_CP051354.1,102702,4976551
GCF_016454225.1_ASM1645422v1,GCF_016454225.1_ASM1645422v1_raw_nodes,NZ_CP051355.1,10323,4976551
GCF_019670465.1_ASM1967046v1,GCF_019670465.1_ASM1967046v1_raw_nodes,NZ_AP023319.1,4910861,4877866
GCF_022533545.1_ASM2253354v1,GCF_022533545.1_ASM2253354v1_raw_nodes,NZ_CP092861.1,5000672,5109088
GCF_022533545.1_ASM2253354v1,GCF_022533545.1_ASM2253354v1_raw_nodes,NZ_CP092862.1,227180,5109088
GCF_016454425.1_ASM1645442v1,GCF_016454425.1_ASM1645442v1_raw_nodes,NZ_CP051384.1,4853729,4939796
GCF_016454425.1_ASM1645442v1,GCF_016454425.1_ASM1645442v1_raw_nodes,NZ_CP051385.1,111412,4939796
GCF_016127435.1_ASM1612743v1,GCF_016127435.1_ASM1612743v1_raw_nodes,NZ_CP066009.1,4845228,5001198
GCF_016127435.1_ASM1612743v1,GCF_016127435.1_ASM1612743v1_raw_nodes,NZ_CP066011.1,93469,5001198
GCF_016127435.1_ASM1612743v1,GCF_016127435.1_ASM1612743v1_raw_nodes,NZ_CP066010.1,85406,5001198
GCF_016127435.1_ASM1612743v1,GCF_016127435.1_ASM1612743v1_raw_nodes,NZ_CP066008.1,8688,5001198
GCF_022936425.1_ASM2293642v1,GCF_022936425.1_ASM2293642v1_raw_nodes,NZ_CP092009.1,4813633,4866070
GCF_022936425.1_ASM2293642v1,GCF_022936425.1_ASM2293642v1_raw_nodes,NZ_CP092010.1,60686,4866070
GCF_022936425.1_ASM2293642v1,GCF_022936425.1_ASM2293642v1_raw_nodes,NZ_CP092011.1,5725,4866070
GCF_001713515.2_ASM171351v2,GCF_001713515.2_ASM171351v2_raw_nodes,NZ_CP074661.1,4650927,4738976
GCF_001713515.2_ASM171351v2,GCF_001713515.2_ASM171351v2_raw_nodes,NZ_CP074662.1,52776,4738976
GCF_003067445.2_ASM306744v2,GCF_003067445.2_ASM306744v2_raw_nodes,NZ_CP077704.1,4803667,4822152
GCF_003067445.2_ASM306744v2,GCF_003067445.2_ASM306744v2_raw_nodes,NZ_CP077705.1,67728,4822152
GCF_014858565.1_ASM1485856v1,GCF_014858565.1_ASM1485856v1_raw_nodes,NZ_CP062225.1,4610822,4847709
GCF_014858565.1_ASM1485856v1,GCF_014858565.1_ASM1485856v1_raw_nodes,NZ_CP062226.1,252212,4847709
GCF_014858565.1_ASM1485856v1,GCF_014858565.1_ASM1485856v1_raw_nodes,NZ_CP062227.1,3172,4847709
GCF_002266205.2_ASM226620v2,GCF_002266205.2_ASM226620v2_raw_nodes,NZ_CP075115.1,4555752,4527621
GCF_022870605.1_ASM2287060v1,GCF_022870605.1_ASM2287060v1_raw_nodes,NZ_CP058671.1,4789056,4992135
GCF_022870605.1_ASM2287060v1,GCF_022870605.1_ASM2287060v1_raw_nodes,NZ_CP058672.1,234696,4992135
GCF_022870605.1_ASM2287060v1,GCF_022870605.1_ASM2287060v1_raw_nodes,NZ_CP058673.1,49068,4992135
GCF_022870605.1_ASM2287060v1,GCF_022870605.1_ASM2287060v1_raw_nodes,NZ_CP058674.1,3371,4992135
GCF_022936485.1_ASM2293648v1,GCF_022936485.1_ASM2293648v1_raw_nodes,NZ_CP092012.1,4823745,4816323
GCF_022936485.1_ASM2293648v1,GCF_022936485.1_ASM2293648v1_raw_nodes,NZ_CP092013.1,4593,4816323
GCF_015074885.1_ASM1507488v1,GCF_015074885.1_ASM1507488v1_raw_nodes,NZ_CP063289.1,4697612,4842449
GCF_015074885.1_ASM1507488v1,GCF_015074885.1_ASM1507488v1_raw_nodes,NZ_CP063290.1,111326,4842449
GCF_015074885.1_ASM1507488v1,GCF_015074885.1_ASM1507488v1_raw_nodes,NZ_CP063291.1,58193,4842449
GCF_015074885.1_ASM1507488v1,GCF_015074885.1_ASM1507488v1_raw_nodes,NZ_CP063292.1,5633,4842449
GCF_015074885.1_ASM1507488v1,GCF_015074885.1_ASM1507488v1_raw_nodes,NZ_CP063293.1,3610,4842449
GCF_003064405.2_ASM306440v2,GCF_003064405.2_ASM306440v2_raw_nodes,NZ_CP077693.1,5028624,5114051
GCF_003064405.2_ASM306440v2,GCF_003064405.2_ASM306440v2_raw_nodes,NZ_CP077694.1,132617,5114051
GCF_003064405.2_ASM306440v2,GCF_003064405.2_ASM306440v2_raw_nodes,NZ_CP077695.1,25879,5114051
GCF_002265865.2_ASM226586v2,GCF_002265865.2_ASM226586v2_raw_nodes,NZ_CP075112.1,4766629,4743815
GCF_016025375.1_ASM1602537v1,GCF_016025375.1_ASM1602537v1_raw_nodes,NZ_CP065564.1,4917331,4893070
GCF_016025375.1_ASM1602537v1,GCF_016025375.1_ASM1602537v1_raw_nodes,NZ_CP065565.1,1982,4893070
GCF_019670285.1_ASM1967028v1,GCF_019670285.1_ASM1967028v1_raw_nodes,NZ_AP023300.1,4869685,4958579
GCF_019670285.1_ASM1967028v1,GCF_019670285.1_ASM1967028v1_raw_nodes,NZ_AP023301.1,119546,4958579
GCF_019670285.1_ASM1967028v1,GCF_019670285.1_ASM1967028v1_raw_nodes,NZ_AP023302.1,7257,4958579
GCF_016454585.1_ASM1645458v1,GCF_016454585.1_ASM1645458v1_raw_nodes,NZ_CP051402.1,4836064,4900452
GCF_016454585.1_ASM1645458v1,GCF_016454585.1_ASM1645458v1_raw_nodes,NZ_CP051403.1,96476,4900452
GCF_016452165.1_ASM1645216v1,GCF_016452165.1_ASM1645216v1_raw_nodes,NZ_CP053051.1,4851208,5123191
GCF_016452165.1_ASM1645216v1,GCF_016452165.1_ASM1645216v1_raw_nodes,NZ_CP053054.1,93670,5123191
GCF_016452165.1_ASM1645216v1,GCF_016452165.1_ASM1645216v1_raw_nodes,NZ_CP053053.1,206592,5123191
GCF_016452165.1_ASM1645216v1,GCF_016452165.1_ASM1645216v1_raw_nodes,NZ_CP053052.1,17842,5123191
GCF_016452165.1_ASM1645216v1,GCF_016452165.1_ASM1645216v1_raw_nodes,NZ_CP054465.1,3829,5123191
GCF_016452165.1_ASM1645216v1,GCF_016452165.1_ASM1645216v1_raw_nodes,NZ_CP054466.1,3188,5123191
GCF_003068025.2_ASM306802v2,GCF_003068025.2_ASM306802v2_raw_nodes,NZ_CP077706.1,4715909,4933596
GCF_003068025.2_ASM306802v2,GCF_003068025.2_ASM306802v2_raw_nodes,NZ_CP077707.1,134495,4933596
GCF_003068025.2_ASM306802v2,GCF_003068025.2_ASM306802v2_raw_nodes,NZ_CP077708.1,96045,4933596
GCF_003068025.2_ASM306802v2,GCF_003068025.2_ASM306802v2_raw_nodes,NZ_CP077709.1,26031,4933596
GCF_016454545.1_ASM1645454v1,GCF_016454545.1_ASM1645454v1_raw_nodes,NZ_CP051398.1,4797629,5014665
GCF_016454545.1_ASM1645454v1,GCF_016454545.1_ASM1645454v1_raw_nodes,NZ_CP051400.1,176914,5014665
GCF_016454545.1_ASM1645454v1,GCF_016454545.1_ASM1645454v1_raw_nodes,NZ_CP051399.1,4054,5014665
GCF_016454545.1_ASM1645454v1,GCF_016454545.1_ASM1645454v1_raw_nodes,NZ_CP051401.1,3372,5014665
GCF_021397675.1_ASM2139767v1,GCF_021397675.1_ASM2139767v1_raw_nodes,NZ_CP090133.1,4614968,4909629
GCF_021397675.1_ASM2139767v1,GCF_021397675.1_ASM2139767v1_raw_nodes,NZ_CP090134.1,274256,4909629
GCF_021397675.1_ASM2139767v1,GCF_021397675.1_ASM2139767v1_raw_nodes,NZ_CP090135.1,50749,4909629
GCF_021397675.1_ASM2139767v1,GCF_021397675.1_ASM2139767v1_raw_nodes,NZ_CP090136.1,4593,4909629
GCF_014334255.1_ASM1433425v1,GCF_014334255.1_ASM1433425v1_raw_nodes,NZ_CP060522.1,4663082,4724827
GCF_014334255.1_ASM1433425v1,GCF_014334255.1_ASM1433425v1_raw_nodes,NZ_CP060523.1,59072,4724827
GCF_014334255.1_ASM1433425v1,GCF_014334255.1_ASM1433425v1_raw_nodes,NZ_CP060524.1,33310,4724827
GCF_014334255.1_ASM1433425v1,GCF_014334255.1_ASM1433425v1_raw_nodes,NZ_CP060525.1,2096,4724827
GCF_001834735.2_ASM183473v2,GCF_001834735.2_ASM183473v2_raw_nodes,NZ_CP075132.1,4914916,4978899
GCF_001834735.2_ASM183473v2,GCF_001834735.2_ASM183473v2_raw_nodes,NZ_CP075133.1,121991,4978899
GCF_014334235.1_ASM1433423v1,GCF_014334235.1_ASM1433423v1_raw_nodes,NZ_CP060517.1,4667558,4957152
GCF_014334235.1_ASM1433423v1,GCF_014334235.1_ASM1433423v1_raw_nodes,NZ_CP060518.1,231558,4957152
GCF_014334235.1_ASM1433423v1,GCF_014334235.1_ASM1433423v1_raw_nodes,NZ_CP060519.1,61124,4957152
GCF_014334235.1_ASM1433423v1,GCF_014334235.1_ASM1433423v1_raw_nodes,NZ_CP060520.1,4073,4957152
GCF_014334235.1_ASM1433423v1,GCF_014334235.1_ASM1433423v1_raw_nodes,NZ_CP060521.1,3830,4957152
GCF_016889645.1_ASM1688964v1,GCF_016889645.1_ASM1688964v1_raw_nodes,NZ_CP069518.1,4661596,4752842
GCF_016889645.1_ASM1688964v1,GCF_016889645.1_ASM1688964v1_raw_nodes,NZ_CP069519.1,128163,4752842
GCF_020736305.1_ASM2073630v1,GCF_020736305.1_ASM2073630v1_raw_nodes,NZ_CP085983.1,4650837,4945699
GCF_020736305.1_ASM2073630v1,GCF_020736305.1_ASM2073630v1_raw_nodes,NZ_CP085984.1,267068,4945699
GCF_020736305.1_ASM2073630v1,GCF_020736305.1_ASM2073630v1_raw_nodes,NZ_CP085985.1,52309,4945699
GCF_016026715.1_ASM1602671v1,GCF_016026715.1_ASM1602671v1_raw_nodes,NZ_CP065639.1,4827524,4888195
GCF_016026715.1_ASM1602671v1,GCF_016026715.1_ASM1602671v1_raw_nodes,NZ_CP065638.1,93617,4888195
GCF_022936365.1_ASM2293636v1,GCF_022936365.1_ASM2293636v1_raw_nodes,NZ_CP091999.1,4762929,4782934
GCF_022936365.1_ASM2293636v1,GCF_022936365.1_ASM2293636v1_raw_nodes,NZ_CP092000.1,18862,4782934
GCF_022936365.1_ASM2293636v1,GCF_022936365.1_ASM2293636v1_raw_nodes,NZ_CP092001.1,5649,4782934
GCF_022936365.1_ASM2293636v1,GCF_022936365.1_ASM2293636v1_raw_nodes,NZ_CP092002.1,4820,4782934
GCF_022936365.1_ASM2293636v1,GCF_022936365.1_ASM2293636v1_raw_nodes,NZ_CP092003.1,4018,4782934
GCF_016454665.1_ASM1645466v1,GCF_016454665.1_ASM1645466v1_raw_nodes,NZ_CP051413.1,4952568,4942004
GCF_016454665.1_ASM1645466v1,GCF_016454665.1_ASM1645466v1_raw_nodes,NZ_CP051414.1,3371,4942004
GCF_016454665.1_ASM1645466v1,GCF_016454665.1_ASM1645466v1_raw_nodes,NZ_CP051415.1,3319,4942004
GCF_015240635.1_ASM1524063v1,GCF_015240635.1_ASM1524063v1_raw_nodes,NZ_CP063700.1,4670529,4698850
GCF_015240635.1_ASM1524063v1,GCF_015240635.1_ASM1524063v1_raw_nodes,NZ_CP063701.1,59072,4698850
GCF_016454245.1_ASM1645424v1,GCF_016454245.1_ASM1645424v1_raw_nodes,NZ_CP051356.1,4899331,5022649
GCF_016454245.1_ASM1645424v1,GCF_016454245.1_ASM1645424v1_raw_nodes,NZ_CP051357.1,158736,5022649
GCF_016454725.1_ASM1645472v1,GCF_016454725.1_ASM1645472v1_raw_nodes,NZ_CP051425.1,4682435,5009291
GCF_016454725.1_ASM1645472v1,GCF_016454725.1_ASM1645472v1_raw_nodes,NZ_CP051426.1,184607,5009291
GCF_016454725.1_ASM1645472v1,GCF_016454725.1_ASM1645472v1_raw_nodes,NZ_CP051420.1,83774,5009291
GCF_016454725.1_ASM1645472v1,GCF_016454725.1_ASM1645472v1_raw_nodes,NZ_CP051424.1,57273,5009291
GCF_016454725.1_ASM1645472v1,GCF_016454725.1_ASM1645472v1_raw_nodes,NZ_CP051421.1,5430,5009291
GCF_016454725.1_ASM1645472v1,GCF_016454725.1_ASM1645472v1_raw_nodes,NZ_CP051419.1,3372,5009291
GCF_016454725.1_ASM1645472v1,GCF_016454725.1_ASM1645472v1_raw_nodes,NZ_CP051423.1,2444,5009291
GCF_016454725.1_ASM1645472v1,GCF_016454725.1_ASM1645472v1_raw_nodes,NZ_CP051422.1,2096,5009291
GCF_019670365.1_ASM1967036v1,GCF_019670365.1_ASM1967036v1_raw_nodes,NZ_AP023309.1,4848315,5039457
GCF_019670365.1_ASM1967036v1,GCF_019670365.1_ASM1967036v1_raw_nodes,NZ_AP023310.1,223478,5039457
GCF_016454465.1_ASM1645446v1,GCF_016454465.1_ASM1645446v1_raw_nodes,NZ_CP051389.1,4707782,4691362
GCF_016454465.1_ASM1645446v1,GCF_016454465.1_ASM1645446v1_raw_nodes,NZ_CP051390.1,10734,4691362
GCF_002507865.2_ASM250786v2,GCF_002507865.2_ASM250786v2_raw_nodes,NZ_CP075107.1,3740928,4584275
GCF_001831985.2_ASM183198v2,GCF_001831985.2_ASM183198v2_raw_nodes,NZ_CP075135.1,4835607,4948536
GCF_001831985.2_ASM183198v2,GCF_001831985.2_ASM183198v2_raw_nodes,NZ_CP075136.1,26031,4948536
GCF_015074905.1_ASM1507490v1,GCF_015074905.1_ASM1507490v1_raw_nodes,NZ_CP063294.1,4753619,5027973
GCF_015074905.1_ASM1507490v1,GCF_015074905.1_ASM1507490v1_raw_nodes,NZ_CP063295.1,155377,5027973
GCF_015074905.1_ASM1507490v1,GCF_015074905.1_ASM1507490v1_raw_nodes,NZ_CP063296.1,98876,5027973
GCF_015074905.1_ASM1507490v1,GCF_015074905.1_ASM1507490v1_raw_nodes,NZ_CP063297.1,33702,5027973
GCF_015074905.1_ASM1507490v1,GCF_015074905.1_ASM1507490v1_raw_nodes,NZ_CP063298.1,4234,5027973
GCF_015074905.1_ASM1507490v1,GCF_015074905.1_ASM1507490v1_raw_nodes,NZ_CP063299.1,3257,5027973
GCF_015074905.1_ASM1507490v1,GCF_015074905.1_ASM1507490v1_raw_nodes,NZ_CP063300.1,1718,5027973
GCF_019428465.1_ASM1942846v1,GCF_019428465.1_ASM1942846v1_raw_nodes,NZ_CP080091.1,4663469,4780509
GCF_019428465.1_ASM1942846v1,GCF_019428465.1_ASM1942846v1_raw_nodes,NZ_CP080092.1,59072,4780509
GCF_019428465.1_ASM1942846v1,GCF_019428465.1_ASM1942846v1_raw_nodes,NZ_CP080094.1,31572,4780509
GCF_019428465.1_ASM1942846v1,GCF_019428465.1_ASM1942846v1_raw_nodes,NZ_CP080093.1,54307,4780509
GCF_022936385.1_ASM2293638v1,GCF_022936385.1_ASM2293638v1_raw_nodes,NZ_CP092004.1,4825699,4816437
GCF_022936385.1_ASM2293638v1,GCF_022936385.1_ASM2293638v1_raw_nodes,NZ_CP092005.1,4593,4816437
GCF_006461325.2_ASM646132v2,GCF_006461325.2_ASM646132v2_raw_nodes,NZ_CP069166.1,4830644,5005053
GCF_006461325.2_ASM646132v2,GCF_006461325.2_ASM646132v2_raw_nodes,NZ_CP069167.1,206230,5005053
GCF_001972545.2_ASM197254v2,GCF_001972545.2_ASM197254v2_raw_nodes,NZ_CP075118.1,4659503,4730138
GCF_001972545.2_ASM197254v2,GCF_001972545.2_ASM197254v2_raw_nodes,NZ_CP075119.1,49594,4730138
GCF_016454445.1_ASM1645444v1,GCF_016454445.1_ASM1645444v1_raw_nodes,NZ_CP051386.1,4826822,5024554
GCF_016454445.1_ASM1645444v1,GCF_016454445.1_ASM1645444v1_raw_nodes,NZ_CP051388.1,116981,5024554
GCF_016454445.1_ASM1645444v1,GCF_016454445.1_ASM1645444v1_raw_nodes,NZ_CP051387.1,113950,5024554
GCF_016127835.1_ASM1612783v1,GCF_016127835.1_ASM1612783v1_raw_nodes,NZ_CP066047.1,4659241,4690041
GCF_016127835.1_ASM1612783v1,GCF_016127835.1_ASM1612783v1_raw_nodes,NZ_CP066048.1,56914,4690041
GCF_015240855.1_ASM1524085v1,GCF_015240855.1_ASM1524085v1_raw_nodes,NZ_CP063702.1,4734077,4793528
GCF_015240855.1_ASM1524085v1,GCF_015240855.1_ASM1524085v1_raw_nodes,NZ_CP063703.1,99953,4793528
GCF_015240855.1_ASM1524085v1,GCF_015240855.1_ASM1524085v1_raw_nodes,NZ_CP063704.1,4888,4793528
GCF_016454385.1_ASM1645438v1,GCF_016454385.1_ASM1645438v1_raw_nodes,NZ_CP051381.1,4755449,5087426
GCF_016454385.1_ASM1645438v1,GCF_016454385.1_ASM1645438v1_raw_nodes,NZ_CP051382.1,233289,5087426
GCF_016454385.1_ASM1645438v1,GCF_016454385.1_ASM1645438v1_raw_nodes,NZ_CP051383.1,109663,5087426
GCF_016952595.1_ASM1695259v1,GCF_016952595.1_ASM1695259v1_raw_nodes,NZ_CP051363.1,4853674,4924622
GCF_016952595.1_ASM1695259v1,GCF_016952595.1_ASM1695259v1_raw_nodes,NZ_CP051364.1,95409,4924622
GCF_016952595.1_ASM1695259v1,GCF_016952595.1_ASM1695259v1_raw_nodes,NZ_CP051362.1,3830,4924622
GCF_015159575.1_ASM1515957v1,GCF_015159575.1_ASM1515957v1_raw_nodes,NZ_CP063330.1,4836358,4813608
GCF_015159575.1_ASM1515957v1,GCF_015159575.1_ASM1515957v1_raw_nodes,NZ_CP063331.1,2097,4813608
GCF_022226915.1_ASM2222691v1,GCF_022226915.1_ASM2222691v1_raw_nodes,NZ_CP092075.1,4653862,4689128
GCF_022226915.1_ASM2222691v1,GCF_022226915.1_ASM2222691v1_raw_nodes,NZ_CP092076.1,60449,4689128
GCF_003067765.2_ASM306776v2,GCF_003067765.2_ASM306776v2_raw_nodes,NZ_CP077696.1,4770775,4838124
GCF_003067765.2_ASM306776v2,GCF_003067765.2_ASM306776v2_raw_nodes,NZ_CP077697.1,88124,4838124
GCF_003067765.2_ASM306776v2,GCF_003067765.2_ASM306776v2_raw_nodes,NZ_CP077698.1,26030,4838124
GCF_002507915.2_ASM250791v2,GCF_002507915.2_ASM250791v2_raw_nodes,NZ_CP075110.1,4778522,4823894
GCF_002507915.2_ASM250791v2,GCF_002507915.2_ASM250791v2_raw_nodes,NZ_CP075111.1,68754,4823894
GCF_021397645.1_ASM2139764v1,GCF_021397645.1_ASM2139764v1_raw_nodes,NZ_CP090141.1,4612870,4907451
GCF_021397645.1_ASM2139764v1,GCF_021397645.1_ASM2139764v1_raw_nodes,NZ_CP090142.1,274183,4907451
GCF_021397645.1_ASM2139764v1,GCF_021397645.1_ASM2139764v1_raw_nodes,NZ_CP090143.1,50749,4907451
GCF_021397645.1_ASM2139764v1,GCF_021397645.1_ASM2139764v1_raw_nodes,NZ_CP090144.1,4593,4907451
GCF_016025435.1_ASM1602543v1,GCF_016025435.1_ASM1602543v1_raw_nodes,NZ_CP065572.1,4850582,4905599
GCF_016025435.1_ASM1602543v1,GCF_016025435.1_ASM1602543v1_raw_nodes,NZ_CP065573.1,83532,4905599
GCF_019670345.1_ASM1967034v1,GCF_019670345.1_ASM1967034v1_raw_nodes,NZ_AP023306.1,4870901,4958699
GCF_019670345.1_ASM1967034v1,GCF_019670345.1_ASM1967034v1_raw_nodes,NZ_AP023307.1,119546,4958699
GCF_019670345.1_ASM1967034v1,GCF_019670345.1_ASM1967034v1_raw_nodes,NZ_AP023308.1,7257,4958699
GCF_020736325.1_ASM2073632v1,GCF_020736325.1_ASM2073632v1_raw_nodes,NZ_CP085981.1,4650431,4946053
GCF_020736325.1_ASM2073632v1,GCF_020736325.1_ASM2073632v1_raw_nodes,NZ_CP085982.1,262986,4946053
GCF_020736325.1_ASM2073632v1,GCF_020736325.1_ASM2073632v1_raw_nodes,NZ_CP085980.1,52310,4946053
GCF_016454345.1_ASM1645434v1,GCF_016454345.1_ASM1645434v1_raw_nodes,NZ_CP051372.1,4628355,4881323
GCF_016454345.1_ASM1645434v1,GCF_016454345.1_ASM1645434v1_raw_nodes,NZ_CP051374.1,184641,4881323
GCF_016454345.1_ASM1645434v1,GCF_016454345.1_ASM1645434v1_raw_nodes,NZ_CP051373.1,116691,4881323
GCF_016454345.1_ASM1645434v1,GCF_016454345.1_ASM1645434v1_raw_nodes,NZ_CP051375.1,3605,4881323
GCF_013348865.1_ASM1334886v1,GCF_013348865.1_ASM1334886v1_raw_nodes,NZ_CP054715.1,4677618,4916304
GCF_013348865.1_ASM1334886v1,GCF_013348865.1_ASM1334886v1_raw_nodes,NZ_CP054717.1,152831,4916304
GCF_013348865.1_ASM1334886v1,GCF_013348865.1_ASM1334886v1_raw_nodes,NZ_CP054716.1,50781,4916304
GCF_013348865.1_ASM1334886v1,GCF_013348865.1_ASM1334886v1_raw_nodes,NZ_CP054718.1,62615,4916304
GCF_014334195.1_ASM1433419v1,GCF_014334195.1_ASM1433419v1_raw_nodes,NZ_CP060512.1,4640266,4917193
GCF_014334195.1_ASM1433419v1,GCF_014334195.1_ASM1433419v1_raw_nodes,NZ_CP060513.1,250474,4917193
GCF_014334195.1_ASM1433419v1,GCF_014334195.1_ASM1433419v1_raw_nodes,NZ_CP060514.1,41605,4917193
GCF_001652385.2_ASM165238v2,GCF_001652385.2_ASM165238v2_raw_nodes,NZ_CP075141.1,4821247,4864194
GCF_001652385.2_ASM165238v2,GCF_001652385.2_ASM165238v2_raw_nodes,NZ_CP075142.1,74600,4864194
GCF_016454505.1_ASM1645450v1,GCF_016454505.1_ASM1645450v1_raw_nodes,NZ_CP051394.1,4674649,4808551
GCF_016454505.1_ASM1645450v1,GCF_016454505.1_ASM1645450v1_raw_nodes,NZ_CP051395.1,151399,4808551
GCF_018340585.1_ASM1834058v1,GCF_018340585.1_ASM1834058v1_raw_nodes,NZ_CP073715.1,4648065,4628423
GCF_018340585.1_ASM1834058v1,GCF_018340585.1_ASM1834058v1_raw_nodes,NZ_CP073716.1,4712,4628423
GCF_018340585.1_ASM1834058v1,GCF_018340585.1_ASM1834058v1_raw_nodes,NZ_CP073717.1,3904,4628423
GCF_016025415.1_ASM1602541v1,GCF_016025415.1_ASM1602541v1_raw_nodes,NZ_CP065567.1,4925609,5227643
GCF_016025415.1_ASM1602541v1,GCF_016025415.1_ASM1602541v1_raw_nodes,NZ_CP065568.1,234647,5227643
GCF_016025415.1_ASM1602541v1,GCF_016025415.1_ASM1602541v1_raw_nodes,NZ_CP065570.1,5570,5227643
GCF_016025415.1_ASM1602541v1,GCF_016025415.1_ASM1602541v1_raw_nodes,NZ_CP065571.1,3984,5227643
GCF_016025415.1_ASM1602541v1,GCF_016025415.1_ASM1602541v1_raw_nodes,NZ_CP065569.1,5788,5227643
GCF_016454205.1_ASM1645420v1,GCF_016454205.1_ASM1645420v1_raw_nodes,NZ_CP051350.1,4636926,4783797
GCF_016454205.1_ASM1645420v1,GCF_016454205.1_ASM1645420v1_raw_nodes,NZ_CP051351.1,106996,4783797
GCF_016454205.1_ASM1645420v1,GCF_016454205.1_ASM1645420v1_raw_nodes,NZ_CP051352.1,8314,4783797
GCF_003067925.2_ASM306792v2,GCF_003067925.2_ASM306792v2_raw_nodes,NZ_CP077699.1,4844413,4911547
GCF_003067925.2_ASM306792v2,GCF_003067925.2_ASM306792v2_raw_nodes,NZ_CP077700.1,130273,4911547
GCF_003067925.2_ASM306792v2,GCF_003067925.2_ASM306792v2_raw_nodes,NZ_CP077701.1,26022,4911547
GCF_016454325.1_ASM1645432v1,GCF_016454325.1_ASM1645432v1_raw_nodes,NZ_CP051370.1,4798849,4873017
GCF_016454325.1_ASM1645432v1,GCF_016454325.1_ASM1645432v1_raw_nodes,NZ_CP051371.1,99749,4873017
GCF_016452005.1_ASM1645200v1,GCF_016452005.1_ASM1645200v1_raw_nodes,NZ_CP051310.1,4821624,5127861
GCF_016452005.1_ASM1645200v1,GCF_016452005.1_ASM1645200v1_raw_nodes,NZ_CP051311.1,237573,5127861
GCF_016452005.1_ASM1645200v1,GCF_016452005.1_ASM1645200v1_raw_nodes,NZ_CP051312.1,100381,5127861
GCF_001834965.2_ASM183496v2,GCF_001834965.2_ASM183496v2_raw_nodes,NZ_CP075125.1,4840127,4912454
GCF_001834965.2_ASM183496v2,GCF_001834965.2_ASM183496v2_raw_nodes,NZ_CP075126.1,134199,4912454
GCF_016454365.1_ASM1645436v1,GCF_016454365.1_ASM1645436v1_raw_nodes,NZ_CP051380.1,4838571,5117781
GCF_016454365.1_ASM1645436v1,GCF_016454365.1_ASM1645436v1_raw_nodes,NZ_CP051377.1,93670,5117781
GCF_016454365.1_ASM1645436v1,GCF_016454365.1_ASM1645436v1_raw_nodes,NZ_CP051379.1,213230,5117781
GCF_016454365.1_ASM1645436v1,GCF_016454365.1_ASM1645436v1_raw_nodes,NZ_CP051376.1,3829,5117781
GCF_016454365.1_ASM1645436v1,GCF_016454365.1_ASM1645436v1_raw_nodes,NZ_CP051378.1,3188,5117781
GCF_019670405.1_ASM1967040v1,GCF_019670405.1_ASM1967040v1_raw_nodes,NZ_AP023313.1,4865437,4925952
GCF_019670405.1_ASM1967040v1,GCF_019670405.1_ASM1967040v1_raw_nodes,NZ_AP023314.1,93097,4925952
GCF_006461415.2_ASM646141v2,GCF_006461415.2_ASM646141v2_raw_nodes,NZ_CP050833.1,4718066,4838286
GCF_006461415.2_ASM646141v2,GCF_006461415.2_ASM646141v2_raw_nodes,NZ_CP050832.1,146982,4838286
GCF_016454265.1_ASM1645426v1,GCF_016454265.1_ASM1645426v1_raw_nodes,NZ_CP051358.1,4813276,5243436
GCF_016454265.1_ASM1645426v1,GCF_016454265.1_ASM1645426v1_raw_nodes,NZ_CP051361.1,95231,5243436
GCF_016454265.1_ASM1645426v1,GCF_016454265.1_ASM1645426v1_raw_nodes,NZ_CP051359.1,232770,5243436
GCF_016454265.1_ASM1645426v1,GCF_016454265.1_ASM1645426v1_raw_nodes,NZ_CP051360.1,159939,5243436
GCF_016454185.1_ASM1645418v1,GCF_016454185.1_ASM1645418v1_raw_nodes,NZ_CP051349.1,4756464,4698726
GCF_016451985.1_ASM1645198v1,GCF_016451985.1_ASM1645198v1_raw_nodes,NZ_CP051307.1,4856487,5000002
GCF_016451985.1_ASM1645198v1,GCF_016451985.1_ASM1645198v1_raw_nodes,NZ_CP051308.1,149138,5000002
GCF_016451985.1_ASM1645198v1,GCF_016451985.1_ASM1645198v1_raw_nodes,NZ_CP051309.1,48525,5000002
