GCF_023299725.1_ASM2329972v1,bin_component_0,1
GCF_023299805.1_ASM2329980v1,bin_component_1,0
GCF_023299805.1_ASM2329980v1,bin_component_0,5
GCF_023299745.1_ASM2329974v1,bin_component_0,4
GCF_021228615.1_ASM2122861v1,bin_component_1,1
GCF_021228615.1_ASM2122861v1,bin_component_0,8
GCF_016415365.1_ASM1641536v1,bin_component_1,0
GCF_016415365.1_ASM1641536v1,bin_component_0,12
GCF_017584065.1_ASM1758406v1,bin_component_1,0
GCF_017584065.1_ASM1758406v1,bin_component_0,4
GCF_017584065.1_ASM1758406v1,bin_component_2,0
GCF_016406385.1_ASM1640638v1,bin_component_1,1
GCF_016406385.1_ASM1640638v1,bin_component_0,8
GCF_016406385.1_ASM1640638v1,bin_component_2,0
GCF_019456595.1_ASM1945659v1,bin_component_1,2
GCF_019456595.1_ASM1945659v1,bin_component_0,2
GCF_015999405.1_ASM1599940v1,bin_component_1,0
GCF_015999405.1_ASM1599940v1,bin_component_0,9
GCF_015999405.1_ASM1599940v1,bin_component_2,0
GCF_016415385.1_ASM1641538v1,bin_component_1,0
GCF_016415385.1_ASM1641538v1,bin_component_0,16
GCF_016406585.1_ASM1640658v1,bin_component_1,0
GCF_016406585.1_ASM1640658v1,bin_component_0,12
GCF_016406585.1_ASM1640658v1,bin_component_2,0
GCF_016415565.1_ASM1641556v1,bin_component_1,0
GCF_016415565.1_ASM1641556v1,bin_component_0,9
GCF_022647945.1_ASM2264794v1,bin_component_1,0
GCF_022647945.1_ASM2264794v1,bin_component_0,8
GCF_016126675.1_ASM1612667v1,bin_component_1,0
GCF_016126675.1_ASM1612667v1,bin_component_0,7
GCF_019175525.1_ASM1917552v1,bin_component_1,0
GCF_019175525.1_ASM1917552v1,bin_component_0,4
GCF_907176135.1_USZ_VRE5_P5_hybrid_assembly,bin_component_1,0
GCF_907176135.1_USZ_VRE5_P5_hybrid_assembly,bin_component_3,0
GCF_907176135.1_USZ_VRE5_P5_hybrid_assembly,bin_component_0,3
GCF_907176135.1_USZ_VRE5_P5_hybrid_assembly,bin_component_2,1
GCF_907176815.1_USZ_VRE67_P60_hybrid_assembly,bin_component_1,0
GCF_907176815.1_USZ_VRE67_P60_hybrid_assembly,bin_component_3,0
GCF_907176815.1_USZ_VRE67_P60_hybrid_assembly,bin_component_0,4
GCF_907176815.1_USZ_VRE67_P60_hybrid_assembly,bin_component_2,0
GCF_019175465.1_ASM1917546v1,bin_component_0,1
GCF_022647825.1_ASM2264782v1,bin_component_1,0
GCF_022647825.1_ASM2264782v1,bin_component_0,8
GCF_022648125.1_ASM2264812v1,bin_component_1,0
GCF_022648125.1_ASM2264812v1,bin_component_0,13
GCF_019175445.1_ASM1917544v1,bin_component_0,4
GCF_907177285.1_USZ_VRE53_P46_hybrid_assembly,bin_component_1,0
GCF_907177285.1_USZ_VRE53_P46_hybrid_assembly,bin_component_3,0
GCF_907177285.1_USZ_VRE53_P46_hybrid_assembly,bin_component_0,5
GCF_907177285.1_USZ_VRE53_P46_hybrid_assembly,bin_component_2,1
GCF_907165365.1_USZ_VRE32_P32_hybrid_assembly,bin_component_1,0
GCF_907165365.1_USZ_VRE32_P32_hybrid_assembly,bin_component_0,7
GCF_907165365.1_USZ_VRE32_P32_hybrid_assembly,bin_component_2,1
GCF_016415405.1_ASM1641540v1,bin_component_1,0
GCF_016415405.1_ASM1641540v1,bin_component_3,0
GCF_016415405.1_ASM1641540v1,bin_component_0,15
GCF_016415405.1_ASM1641540v1,bin_component_2,0
GCF_016406365.1_ASM1640636v1,bin_component_1,0
GCF_016406365.1_ASM1640636v1,bin_component_0,13
GCF_016406365.1_ASM1640636v1,bin_component_2,0
GCF_016415425.1_ASM1641542v1,bin_component_1,0
GCF_016415425.1_ASM1641542v1,bin_component_3,0
GCF_016415425.1_ASM1641542v1,bin_component_0,11
GCF_016415425.1_ASM1641542v1,bin_component_2,0
GCF_016406425.1_ASM1640642v1,bin_component_1,0
GCF_016406425.1_ASM1640642v1,bin_component_0,8
GCF_016406425.1_ASM1640642v1,bin_component_2,0
GCF_019175425.1_ASM1917542v1,bin_component_0,5
GCF_016406485.1_ASM1640648v1,bin_component_1,0
GCF_016406485.1_ASM1640648v1,bin_component_0,18
GCF_016406525.1_ASM1640652v1,bin_component_1,0
GCF_016406525.1_ASM1640652v1,bin_component_0,13
GCF_015999425.1_ASM1599942v1,bin_component_1,0
GCF_015999425.1_ASM1599942v1,bin_component_3,0
GCF_015999425.1_ASM1599942v1,bin_component_4,0
GCF_015999425.1_ASM1599942v1,bin_component_0,2
GCF_015999425.1_ASM1599942v1,bin_component_2,0
GCF_015999605.1_ASM1599960v1,bin_component_1,0
GCF_015999605.1_ASM1599960v1,bin_component_0,11
GCF_016406405.1_ASM1640640v1,bin_component_1,0
GCF_016406405.1_ASM1640640v1,bin_component_0,15
GCF_019456555.1_ASM1945655v1,bin_component_1,2
GCF_019456555.1_ASM1945655v1,bin_component_0,3
GCF_023299325.1_ASM2329932v1,bin_component_0,6
GCF_019977575.1_ASM1997757v1,bin_component_1,0
GCF_019977575.1_ASM1997757v1,bin_component_3,0
GCF_019977575.1_ASM1997757v1,bin_component_4,0
GCF_019977575.1_ASM1997757v1,bin_component_0,3
GCF_019977575.1_ASM1997757v1,bin_component_2,0
GCF_016406465.1_ASM1640646v1,bin_component_1,0
GCF_016406465.1_ASM1640646v1,bin_component_3,0
GCF_016406465.1_ASM1640646v1,bin_component_4,0
GCF_016406465.1_ASM1640646v1,bin_component_0,8
GCF_016406465.1_ASM1640646v1,bin_component_2,0
GCF_015325925.1_ASM1532592v1,bin_component_1,1
GCF_015325925.1_ASM1532592v1,bin_component_0,2
GCF_015325925.1_ASM1532592v1,bin_component_2,0
GCF_019977495.1_ASM1997749v1,bin_component_1,0
GCF_019977495.1_ASM1997749v1,bin_component_3,0
GCF_019977495.1_ASM1997749v1,bin_component_4,0
GCF_019977495.1_ASM1997749v1,bin_component_0,5
GCF_019977495.1_ASM1997749v1,bin_component_2,0
GCF_016415465.1_ASM1641546v1,bin_component_1,0
GCF_016415465.1_ASM1641546v1,bin_component_0,12
GCF_016406505.1_ASM1640650v1,bin_component_1,1
GCF_016406505.1_ASM1640650v1,bin_component_0,10
GCF_016406505.1_ASM1640650v1,bin_component_2,0
GCF_021398505.1_ASM2139850v1,bin_component_1,0
GCF_021398505.1_ASM2139850v1,bin_component_0,4
GCF_016415545.1_ASM1641554v1,bin_component_1,0
GCF_016415545.1_ASM1641554v1,bin_component_0,9
GCF_016406545.1_ASM1640654v1,bin_component_1,0
GCF_016406545.1_ASM1640654v1,bin_component_0,9
GCF_016406545.1_ASM1640654v1,bin_component_2,0
GCF_016406345.1_ASM1640634v1,bin_component_1,0
GCF_016406345.1_ASM1640634v1,bin_component_0,9
GCF_016415505.1_ASM1641550v1,bin_component_1,0
GCF_016415505.1_ASM1641550v1,bin_component_0,10
GCF_016415325.1_ASM1641532v1,bin_component_1,0
GCF_016415325.1_ASM1641532v1,bin_component_0,9
GCF_016415325.1_ASM1641532v1,bin_component_2,0
GCF_016406445.1_ASM1640644v1,bin_component_1,0
GCF_016406445.1_ASM1640644v1,bin_component_3,0
GCF_016406445.1_ASM1640644v1,bin_component_0,13
GCF_016406445.1_ASM1640644v1,bin_component_2,0
GCF_020162175.1_ASM2016217v1,bin_component_1,0
GCF_020162175.1_ASM2016217v1,bin_component_0,10
GCF_016406565.1_ASM1640656v1,bin_component_1,0
GCF_016406565.1_ASM1640656v1,bin_component_0,11
GCF_016406565.1_ASM1640656v1,bin_component_2,0
GCF_015476295.1_ASM1547629v1,bin_component_1,3
GCF_015476295.1_ASM1547629v1,bin_component_3,0
GCF_015476295.1_ASM1547629v1,bin_component_0,6
GCF_015476295.1_ASM1547629v1,bin_component_2,0
GCF_019456575.1_ASM1945657v1,bin_component_1,2
GCF_019456575.1_ASM1945657v1,bin_component_0,3
GCF_020162155.1_ASM2016215v1,bin_component_1,0
GCF_020162155.1_ASM2016215v1,bin_component_0,15
GCF_020162155.1_ASM2016215v1,bin_component_2,0
GCF_016406605.1_ASM1640660v1,bin_component_1,0
GCF_016406605.1_ASM1640660v1,bin_component_3,0
GCF_016406605.1_ASM1640660v1,bin_component_0,7
GCF_016406605.1_ASM1640660v1,bin_component_2,0
GCF_016415485.1_ASM1641548v1,bin_component_1,0
GCF_016415485.1_ASM1641548v1,bin_component_0,10
GCF_016415485.1_ASM1641548v1,bin_component_2,0
GCF_016415445.1_ASM1641544v1,bin_component_1,0
GCF_016415445.1_ASM1641544v1,bin_component_3,0
GCF_016415445.1_ASM1641544v1,bin_component_4,0
GCF_016415445.1_ASM1641544v1,bin_component_0,11
GCF_016415445.1_ASM1641544v1,bin_component_2,0
