GCF_009938285.1,bin_component_1,NZ_AP022344.1,77
GCF_009938285.1,bin_component_0,NZ_AP022343.1,462
GCF_009938285.1,bin_component_0,NZ_AP022341.1,601
GCF_009938285.1,bin_component_0,NZ_AP022342.1,369
GCF_023375365.1,bin_component_0,NZ_CP091211.1,461
GCF_023375365.1,bin_component_0,NZ_CP091210.1,154
GCF_015999605.1,bin_component_1,NZ_CP065553.1,77
GCF_015999605.1,bin_component_0,NZ_CP065549.1,131
GCF_015999605.1,bin_component_0,NZ_CP065548.1,154
GCF_015999605.1,bin_component_0,NZ_CP065550.1,384
GCF_015999605.1,bin_component_0,NZ_CP065547.1,234
GCF_023375405.1,bin_component_1,NZ_CP091220.1,77
GCF_023375405.1,bin_component_0,NZ_CP091217.1,131
GCF_017584065.1,bin_component_1,NZ_CP071928.1,127
GCF_017584065.1,bin_component_0,NZ_CP071931.1,1145
GCF_017584065.1,bin_component_0,NZ_CP071930.1,776
GCF_017584065.1,bin_component_0,NZ_CP071927.1,254
GCF_017584065.1,bin_component_0,NZ_CP071926.1,129
GCF_017584065.1,bin_component_2,NZ_CP071924.1,127
GCF_016406385.1,bin_component_1,NZ_CP066425.1,308
GCF_016406385.1,bin_component_0,NZ_CP066423.1,154
GCF_016406385.1,bin_component_0,NZ_CP066424.1,231
GCF_016406385.1,bin_component_0,NZ_CP066421.1,539
GCF_016406385.1,bin_component_2,NZ_CP066426.1,77
GCF_019456575.1,bin_component_1,NZ_CP074107.1,462
GCF_019456575.1,bin_component_0,NZ_CP074108.1,842
GCF_019456575.1,bin_component_0,NZ_CP074107.1,228
GCF_907176815.1,bin_component_1,NZ_OU016032.1,127
GCF_907176815.1,bin_component_3,NZ_OU016034.1,127
GCF_907176815.1,bin_component_0,NZ_OU016027.1,1142
GCF_907176815.1,bin_component_0,NZ_OU016029.1,127
GCF_907176815.1,bin_component_2,NZ_OU016031.1,254
GCF_028335585.1,bin_component_0,NZ_CP116544.1,1305
GCF_028335585.1,bin_component_0,NZ_CP116543.1,462
GCF_028335585.1,bin_component_0,NZ_CP116545.1,377
GCF_019456595.1,bin_component_1,NZ_CP074109.1,538
GCF_019456595.1,bin_component_0,NZ_CP074110.1,842
GCF_019456595.1,bin_component_0,NZ_CP074109.1,151
GCF_019977575.1,bin_component_3,NZ_AP024842.1,127
GCF_019977575.1,bin_component_0,NZ_AP024839.1,133
GCF_019977575.1,bin_component_0,NZ_AP024837.1,596
GCF_019977575.1,bin_component_0,NZ_AP024838.1,252
GCF_019977575.1,bin_component_2,NZ_AP024840.1,127
GCF_019977575.1,bin_component_2,NZ_AP024841.1,108
GCF_023299745.1,bin_component_0,NZ_CP097027.1,692
GCF_023299745.1,bin_component_0,NZ_CP097029.1,154
GCF_023299745.1,bin_component_0,NZ_CP097028.1,154
GCF_019175445.1,bin_component_0,NZ_CP072883.1,77
GCF_019175445.1,bin_component_0,NZ_CP072882.1,154
GCF_019175445.1,bin_component_0,NZ_CP072881.1,154
GCF_019456555.1,bin_component_1,NZ_CP074105.1,538
GCF_019456555.1,bin_component_0,NZ_CP074106.1,767
GCF_019456555.1,bin_component_0,NZ_CP074105.1,153
GCF_019977495.1,bin_component_1,NZ_AP024834.1,216
GCF_019977495.1,bin_component_0,NZ_AP024833.1,381
GCF_019977495.1,bin_component_0,NZ_AP024832.1,413
GCF_019977495.1,bin_component_0,NZ_AP024831.1,760
GCF_019977495.1,bin_component_2,NZ_AP024836.1,127
GCF_016415565.1,bin_component_0,NZ_CP066667.1,870
GCF_016415565.1,bin_component_0,NZ_CP066669.1,154
GCF_016406565.1,bin_component_1,NZ_CP066431.1,77
GCF_016406565.1,bin_component_0,NZ_CP066430.1,154
GCF_016406565.1,bin_component_0,NZ_CP066428.1,285
GCF_016406565.1,bin_component_0,NZ_CP066429.1,461
GCF_016406565.1,bin_component_0,NZ_CP066427.1,207
GCF_016406505.1,bin_component_1,NZ_CP066464.1,60
GCF_016406505.1,bin_component_1,NZ_CP066462.1,77
GCF_016406505.1,bin_component_0,NZ_CP066457.1,1006
GCF_016406505.1,bin_component_0,NZ_CP066460.1,231
GCF_016406505.1,bin_component_0,NZ_CP066459.1,77
GCF_016406505.1,bin_component_0,NZ_CP066458.1,263
GCF_016406505.1,bin_component_0,NZ_CP066461.1,536
GCF_016406505.1,bin_component_2,NZ_CP066465.1,77
GCF_016406465.1,bin_component_1,NZ_CP066407.1,77
GCF_016406465.1,bin_component_3,NZ_CP066397.1,77
GCF_016406465.1,bin_component_4,NZ_CP066398.1,77
GCF_016406465.1,bin_component_0,NZ_CP066396.1,382
GCF_016406465.1,bin_component_0,NZ_CP066402.1,154
GCF_016406465.1,bin_component_0,NZ_CP066404.1,231
GCF_016406465.1,bin_component_0,NZ_CP066406.1,460
GCF_016406465.1,bin_component_0,NZ_CP066405.1,77
GCF_016406465.1,bin_component_2,NZ_CP066408.1,77
GCF_907176135.1,bin_component_1,NZ_OU015951.1,127
GCF_907176135.1,bin_component_3,NZ_OU015953.1,127
GCF_907176135.1,bin_component_0,NZ_OU015946.1,511
GCF_907176135.1,bin_component_0,NZ_OU015949.1,127
GCF_907176135.1,bin_component_0,NZ_OU015948.1,121
GCF_907176135.1,bin_component_2,NZ_OU015950.1,508
GCF_016406345.1,bin_component_1,NZ_CP066472.1,77
GCF_016406345.1,bin_component_0,NZ_CP066467.1,154
GCF_016406345.1,bin_component_0,NZ_CP066468.1,77
GCF_016406345.1,bin_component_0,NZ_CP066466.1,102
GCF_022648125.1,bin_component_1,NZ_CP076487.1,77
GCF_022648125.1,bin_component_0,NZ_CP076485.1,77
GCF_022648125.1,bin_component_0,NZ_CP076484.1,1846
GCF_022648125.1,bin_component_0,NZ_CP076486.1,308
GCF_022648125.1,bin_component_0,NZ_CP076483.1,290
GCF_015999405.1,bin_component_0,NZ_CP065525.1,644
GCF_015999405.1,bin_component_0,NZ_CP065523.1,759
GCF_015999405.1,bin_component_0,NZ_CP065526.1,127
GCF_015999405.1,bin_component_0,NZ_CP065524.1,1525
GCF_016406525.1,bin_component_1,NZ_CP066447.1,77
GCF_016406525.1,bin_component_0,NZ_CP066445.1,307
GCF_016406525.1,bin_component_0,NZ_CP066446.1,384
GCF_016406525.1,bin_component_0,NZ_CP066444.1,385
GCF_016406525.1,bin_component_0,NZ_CP066443.1,694
GCF_023299325.1,bin_component_0,NZ_CP097015.1,998
GCF_023299325.1,bin_component_0,NZ_CP097014.1,77
GCF_023299325.1,bin_component_0,NZ_CP097016.1,77
GCF_016415365.1,bin_component_1,NZ_CP066618.1,77
GCF_016415365.1,bin_component_0,NZ_CP066615.1,85
GCF_016415365.1,bin_component_0,NZ_CP066616.1,231
GCF_016415365.1,bin_component_0,NZ_CP066617.1,275
GCF_016415365.1,bin_component_0,NZ_CP066614.1,154
GCF_022647825.1,bin_component_0,NZ_CP076472.1,1989
GCF_022647825.1,bin_component_0,NZ_CP076475.1,384
GCF_022647825.1,bin_component_0,NZ_CP076471.1,213
GCF_022647825.1,bin_component_0,NZ_CP076474.1,77
GCF_016126675.1,bin_component_0,NZ_CP065931.1,308
GCF_016126675.1,bin_component_0,NZ_CP065932.1,225
GCF_016126675.1,bin_component_0,NZ_CP065928.1,320
GCF_016126675.1,bin_component_0,NZ_CP065929.1,154
GCF_016415485.1,bin_component_1,NZ_CP066677.1,77
GCF_016415485.1,bin_component_0,NZ_CP066674.1,231
GCF_016415485.1,bin_component_0,NZ_CP066675.1,154
GCF_016415485.1,bin_component_0,NZ_CP066673.1,442
GCF_016415485.1,bin_component_2,NZ_CP066679.1,77
GCF_028335265.1,bin_component_0,NZ_CP116522.1,77
GCF_028335265.1,bin_component_0,NZ_CP116520.1,77
GCF_028335265.1,bin_component_0,NZ_CP116521.1,154
GCF_021228615.1,bin_component_1,NZ_CP089321.1,127
GCF_021228615.1,bin_component_0,NZ_CP089321.1,254
GCF_021228615.1,bin_component_0,NZ_CP089320.1,148
GCF_021228615.1,bin_component_0,NZ_CP089323.1,506
GCF_021228615.1,bin_component_0,NZ_CP089322.1,381
GCF_021228615.1,bin_component_0,NZ_CP089319.1,1281
GCF_019175525.1,bin_component_0,NZ_CP072895.1,77
GCF_019175525.1,bin_component_0,NZ_CP072894.1,539
GCF_016415325.1,bin_component_0,NZ_CP066591.1,352
GCF_016415325.1,bin_component_0,NZ_CP066592.1,208
GCF_016415325.1,bin_component_0,NZ_CP066593.1,154
GCF_016415325.1,bin_component_0,NZ_CP066594.1,384
GCF_016415325.1,bin_component_2,NZ_CP066596.1,77
GCF_015476295.1,bin_component_1,NZ_CP064343.1,1646
GCF_015476295.1,bin_component_3,NZ_CP064349.1,127
GCF_015476295.1,bin_component_0,NZ_CP064343.1,1900
GCF_015476295.1,bin_component_0,NZ_CP064345.1,637
GCF_015476295.1,bin_component_0,NZ_CP064344.1,1259
GCF_015476295.1,bin_component_0,NZ_CP064346.1,508
GCF_015476295.1,bin_component_0,NZ_CP064347.1,253
GCF_015476295.1,bin_component_2,NZ_CP064348.1,127
GCF_016406605.1,bin_component_1,NZ_CP066477.1,77
GCF_016406605.1,bin_component_3,NZ_CP066479.1,77
GCF_016406605.1,bin_component_0,NZ_CP066476.1,308
GCF_016406605.1,bin_component_0,NZ_CP066475.1,177
GCF_016406605.1,bin_component_0,NZ_CP066473.1,254
GCF_016406605.1,bin_component_2,NZ_CP066478.1,77
GCF_016406585.1,bin_component_1,NZ_CP066484.1,77
GCF_016406585.1,bin_component_0,NZ_CP066482.1,154
GCF_016406585.1,bin_component_0,NZ_CP066481.1,231
GCF_016406585.1,bin_component_0,NZ_CP066483.1,616
GCF_016406585.1,bin_component_0,NZ_CP066480.1,179
GCF_016406585.1,bin_component_2,NZ_CP066485.1,77
GCF_023375205.1,bin_component_0,NZ_CP088194.1,77
GCF_016415445.1,bin_component_3,NZ_CP066633.1,77
GCF_016415445.1,bin_component_4,NZ_CP066636.1,77
GCF_016415445.1,bin_component_0,NZ_CP066629.1,639
GCF_016415445.1,bin_component_0,NZ_CP066630.1,521
GCF_016415445.1,bin_component_0,NZ_CP066631.1,538
GCF_016415445.1,bin_component_0,NZ_CP066632.1,231
GCF_016415445.1,bin_component_2,NZ_CP066634.1,77
GCF_016406545.1,bin_component_1,NZ_CP066413.1,77
GCF_016406545.1,bin_component_0,NZ_CP066410.1,208
GCF_016406545.1,bin_component_0,NZ_CP066411.1,231
GCF_016406545.1,bin_component_0,NZ_CP066409.1,177
GCF_016406545.1,bin_component_2,NZ_CP066414.1,77
GCF_028335205.1,bin_component_0,NZ_CP116516.1,77
GCF_028335205.1,bin_component_0,NZ_CP116515.1,77
GCF_028335605.1,bin_component_1,NZ_CP116547.1,2955
GCF_028335605.1,bin_component_1,NZ_CP116546.1,462
GCF_016406485.1,bin_component_1,NZ_CP066387.1,74
GCF_016406485.1,bin_component_1,NZ_CP066388.1,74
GCF_016406485.1,bin_component_0,NZ_CP066383.1,77
GCF_016406485.1,bin_component_0,NZ_CP066384.1,462
GCF_016406485.1,bin_component_0,NZ_CP066381.1,570
GCF_016406485.1,bin_component_0,NZ_CP066385.1,307
GCF_016406485.1,bin_component_0,NZ_CP066386.1,154
GCF_016406485.1,bin_component_0,NZ_CP066382.1,77
GCF_015999425.1,bin_component_1,NZ_CP065528.1,127
GCF_015999425.1,bin_component_0,NZ_CP065529.1,633
GCF_015999425.1,bin_component_0,NZ_CP065527.1,760
GCF_016415505.1,bin_component_1,NZ_CP066666.1,77
GCF_016415505.1,bin_component_0,NZ_CP066661.1,308
GCF_016415505.1,bin_component_0,NZ_CP066659.1,485
GCF_016415505.1,bin_component_0,NZ_CP066660.1,381
GCF_016415505.1,bin_component_0,NZ_CP066662.1,462
GCF_016415505.1,bin_component_0,NZ_CP066663.1,77
GCF_016415505.1,bin_component_0,NZ_CP066665.1,60
GCF_016406405.1,bin_component_1,NZ_CP066439.1,77
GCF_016406405.1,bin_component_0,NZ_CP066434.1,1001
GCF_016406405.1,bin_component_0,NZ_CP066436.1,308
GCF_016406405.1,bin_component_0,NZ_CP066437.1,382
GCF_016406405.1,bin_component_0,NZ_CP066438.1,383
GCF_016406405.1,bin_component_0,NZ_CP066435.1,100
GCF_016415465.1,bin_component_1,NZ_CP066626.1,77
GCF_016415465.1,bin_component_0,NZ_CP066624.1,154
GCF_016415465.1,bin_component_0,NZ_CP066623.1,209
GCF_016415465.1,bin_component_0,NZ_CP066625.1,384
GCF_016415465.1,bin_component_0,NZ_CP066622.1,230
GCF_023375445.1,bin_component_0,NZ_CP091226.1,231
GCF_023375445.1,bin_component_0,NZ_CP091224.1,230
GCF_028335485.1,bin_component_0,NZ_CP116531.1,77
GCF_028335245.1,bin_component_0,NZ_CP116518.1,507
GCF_028335245.1,bin_component_0,NZ_CP116519.1,231
GCF_028335245.1,bin_component_0,NZ_CP116517.1,559
GCF_026409165.1,bin_component_0,NZ_CP112864.1,308
GCF_026409165.1,bin_component_0,NZ_CP112862.1,162
GCF_016406365.1,bin_component_1,NZ_CP066419.1,77
GCF_016406365.1,bin_component_0,NZ_CP066417.1,1397
GCF_016406365.1,bin_component_0,NZ_CP066415.1,771
GCF_016406365.1,bin_component_0,NZ_CP066416.1,77
GCF_016406365.1,bin_component_0,NZ_CP066418.1,77
GCF_016406365.1,bin_component_2,NZ_CP066420.1,77
GCF_016406425.1,bin_component_0,NZ_CP066453.1,154
GCF_016406425.1,bin_component_0,NZ_CP066454.1,384
GCF_016406425.1,bin_component_0,NZ_CP066452.1,54
GCF_016406425.1,bin_component_0,NZ_CP066451.1,157
GCF_016406425.1,bin_component_2,NZ_CP066456.1,77
GCF_019175425.1,bin_component_0,NZ_CP072879.1,1482
GCF_019175425.1,bin_component_0,NZ_CP072878.1,77
GCF_019175425.1,bin_component_0,NZ_CP072880.1,77
GCF_023299805.1,bin_component_1,NZ_CP097065.1,77
GCF_023299805.1,bin_component_0,NZ_CP097062.1,77
GCF_023299805.1,bin_component_0,NZ_CP097061.1,692
GCF_016415405.1,bin_component_3,NZ_CP066642.1,77
GCF_016415405.1,bin_component_0,NZ_CP066639.1,308
GCF_016415405.1,bin_component_0,NZ_CP066637.1,1869
GCF_016415405.1,bin_component_0,NZ_CP066640.1,533
GCF_016415405.1,bin_component_0,NZ_CP066641.1,537
GCF_016406445.1,bin_component_1,NZ_CP066393.1,77
GCF_016406445.1,bin_component_3,NZ_CP066395.1,77
GCF_016406445.1,bin_component_0,NZ_CP066389.1,1351
GCF_016406445.1,bin_component_0,NZ_CP066391.1,231
GCF_016406445.1,bin_component_0,NZ_CP066390.1,154
GCF_016406445.1,bin_component_0,NZ_CP066392.1,154
GCF_016406445.1,bin_component_2,NZ_CP066394.1,77
GCF_023375385.1,bin_component_1,NZ_CP091215.1,77
GCF_023375385.1,bin_component_0,NZ_CP091214.1,77
GCF_023375385.1,bin_component_0,NZ_CP091213.1,692
GCF_016415545.1,bin_component_0,NZ_CP066653.1,638
GCF_016415545.1,bin_component_0,NZ_CP066655.1,77
GCF_016415545.1,bin_component_0,NZ_CP066656.1,154
GCF_016415545.1,bin_component_0,NZ_CP066654.1,77
GCF_028335525.1,bin_component_1,NZ_CP116536.1,385
GCF_028335525.1,bin_component_0,NZ_CP116539.1,77
GCF_028335565.1,bin_component_0,NZ_CP116541.1,2955
GCF_028335565.1,bin_component_0,NZ_CP116540.1,462
GCF_023375345.1,bin_component_0,NZ_CP091206.1,981
GCF_023375345.1,bin_component_0,NZ_CP091207.1,432
GCF_020162155.1,bin_component_0,NZ_CP083913.1,769
GCF_020162155.1,bin_component_0,NZ_CP083912.1,1071
GCF_020162155.1,bin_component_0,NZ_CP083914.1,154
GCF_020162155.1,bin_component_0,NZ_CP083915.1,148
GCF_020162155.1,bin_component_2,NZ_CP083919.1,77
GCF_907177285.1,bin_component_1,NZ_OU016042.1,127
GCF_907177285.1,bin_component_3,NZ_OU016044.1,127
GCF_907177285.1,bin_component_0,NZ_OU016038.1,5364
GCF_907177285.1,bin_component_0,NZ_OU016037.1,130
GCF_907177285.1,bin_component_0,NZ_OU016036.1,1011
GCF_907177285.1,bin_component_0,NZ_OU016040.1,3
GCF_907177285.1,bin_component_2,NZ_OU016041.1,381
GCF_016415385.1,bin_component_1,NZ_CP066611.1,77
GCF_016415385.1,bin_component_0,NZ_CP066606.1,1570
GCF_016415385.1,bin_component_0,NZ_CP066608.1,392
GCF_016415385.1,bin_component_0,NZ_CP066609.1,385
GCF_016415385.1,bin_component_0,NZ_CP066610.1,272
GCF_020162175.1,bin_component_1,NZ_CP083929.1,77
GCF_020162175.1,bin_component_0,NZ_CP083920.1,730
GCF_020162175.1,bin_component_0,NZ_CP083922.1,77
GCF_020162175.1,bin_component_0,NZ_CP083921.1,77
GCF_020162175.1,bin_component_0,NZ_CP083924.1,151
GCF_020162175.1,bin_component_0,NZ_CP083928.1,45
GCF_022647945.1,bin_component_1,NZ_CP076482.1,77
GCF_022647945.1,bin_component_0,NZ_CP076478.1,845
GCF_022647945.1,bin_component_0,NZ_CP076481.1,384
GCF_022647945.1,bin_component_0,NZ_CP076477.1,213
GCF_022647945.1,bin_component_0,NZ_CP076480.1,77
GCF_028335465.1,bin_component_0,NZ_CP116524.1,1155
GCF_028335465.1,bin_component_0,NZ_CP116527.1,77
GCF_028335465.1,bin_component_0,NZ_CP116525.1,77
GCF_021398505.1,bin_component_0,NZ_CP083180.1,539
GCF_021398505.1,bin_component_0,NZ_CP083179.1,385
GCF_016415425.1,bin_component_3,NZ_CP066646.1,77
GCF_016415425.1,bin_component_0,NZ_CP066645.1,1926
GCF_016415425.1,bin_component_0,NZ_CP066648.1,362
GCF_016415425.1,bin_component_0,NZ_CP066649.1,252
GCF_016415425.1,bin_component_2,NZ_CP066651.1,154
GCF_907165365.1,bin_component_0,NZ_OU015710.1,1791
GCF_907165365.1,bin_component_0,NZ_OU015711.1,508
GCF_907165365.1,bin_component_0,NZ_OU015709.1,148
GCF_907165365.1,bin_component_0,NZ_OU015708.1,1292
GCF_907165365.1,bin_component_2,NZ_OU015714.1,127
GCF_907165365.1,bin_component_2,NZ_OU015715.1,127
GCF_028335625.1,bin_component_0,NZ_CP116550.1,2955
GCF_028335625.1,bin_component_0,NZ_CP116549.1,385
GCF_015325925.1,bin_component_1,NZ_CP064051.1,254
GCF_015325925.1,bin_component_0,NZ_CP064049.1,127
GCF_015325925.1,bin_component_0,NZ_CP064050.1,127
GCF_015325925.1,bin_component_0,NZ_CP064052.1,254
GCF_015325925.1,bin_component_2,NZ_CP064053.1,127
