GCF_022220405.1_ASM2222040v1,GCF_022220405.1_ASM2222040v1_bin_1,NZ_CP092044.1,106
GCF_022537925.1_ASM2253792v1,GCF_022537925.1_ASM2253792v1_bin_2,NZ_CP092389.1,1330
GCF_020002335.2_ASM2000233v2,GCF_020002335.2_ASM2000233v2_bin_2,NZ_CP091079.1,1
GCF_020002335.2_ASM2000233v2,GCF_020002335.2_ASM2000233v2_bin_1,NZ_CP091079.1,1
GCF_024346605.1_ASM2434660v1,GCF_024346605.1_ASM2434660v1_bin_1,NZ_CP098804.1,3
