GCF_016903135.1_ASM1690313v1,GCF_016903135.1_ASM1690313v1_bin_2,0
GCF_016903135.1_ASM1690313v1,GCF_016903135.1_ASM1690313v1_bin_1,0
GCF_020810655.1_ASM2081065v1,GCF_020810655.1_ASM2081065v1_bin_2,0
GCF_020810655.1_ASM2081065v1,GCF_020810655.1_ASM2081065v1_bin_1,0
GCF_020810655.1_ASM2081065v1,GCF_020810655.1_ASM2081065v1_bin_3,0
GCF_019703285.1_ASM1970328v1,GCF_019703285.1_ASM1970328v1_bin_10,0
GCF_019703285.1_ASM1970328v1,GCF_019703285.1_ASM1970328v1_bin_4,0
GCF_019703285.1_ASM1970328v1,GCF_019703285.1_ASM1970328v1_bin_2,0
GCF_019703285.1_ASM1970328v1,GCF_019703285.1_ASM1970328v1_bin_5,0
GCF_019703285.1_ASM1970328v1,GCF_019703285.1_ASM1970328v1_bin_1,0
GCF_019703285.1_ASM1970328v1,GCF_019703285.1_ASM1970328v1_bin_3,0
GCF_019703285.1_ASM1970328v1,GCF_019703285.1_ASM1970328v1_bin_6,0
GCF_019703285.1_ASM1970328v1,GCF_019703285.1_ASM1970328v1_bin_8,0
GCF_019703285.1_ASM1970328v1,GCF_019703285.1_ASM1970328v1_bin_9,0
GCF_019703285.1_ASM1970328v1,GCF_019703285.1_ASM1970328v1_bin_7,0
GCF_016127515.1_ASM1612751v1,GCF_016127515.1_ASM1612751v1_bin_1,0
GCF_019458485.1_ASM1945848v1,GCF_019458485.1_ASM1945848v1_bin_1,0
GCF_019458485.1_ASM1945848v1,GCF_019458485.1_ASM1945848v1_bin_4,0
GCF_019458485.1_ASM1945848v1,GCF_019458485.1_ASM1945848v1_bin_3,0
GCF_019458485.1_ASM1945848v1,GCF_019458485.1_ASM1945848v1_bin_2,0
GCF_013787185.1_ASM1378718v1,GCF_013787185.1_ASM1378718v1_bin_2,0
GCF_013787185.1_ASM1378718v1,GCF_013787185.1_ASM1378718v1_bin_3,0
GCF_013787185.1_ASM1378718v1,GCF_013787185.1_ASM1378718v1_bin_1,0
GCF_013787185.1_ASM1378718v1,GCF_013787185.1_ASM1378718v1_bin_4,0
GCF_013787185.1_ASM1378718v1,GCF_013787185.1_ASM1378718v1_bin_5,0
GCF_014705805.1_ASM1470580v1,GCF_014705805.1_ASM1470580v1_bin_1,0
GCF_021484905.1_ASM2148490v1,GCF_021484905.1_ASM2148490v1_bin_4,0
GCF_021484905.1_ASM2148490v1,GCF_021484905.1_ASM2148490v1_bin_3,0
GCF_021484905.1_ASM2148490v1,GCF_021484905.1_ASM2148490v1_bin_2,0
GCF_021484905.1_ASM2148490v1,GCF_021484905.1_ASM2148490v1_bin_1,0
GCF_013372085.1_ASM1337208v1,GCF_013372085.1_ASM1337208v1_bin_2,0
GCF_013372085.1_ASM1337208v1,GCF_013372085.1_ASM1337208v1_bin_3,0
GCF_013372085.1_ASM1337208v1,GCF_013372085.1_ASM1337208v1_bin_1,0
GCF_018604365.1_ASM1860436v1,GCF_018604365.1_ASM1860436v1_bin_1,0
GCF_020985285.1_ASM2098528v1,GCF_020985285.1_ASM2098528v1_bin_1,0
GCF_020985285.1_ASM2098528v1,GCF_020985285.1_ASM2098528v1_bin_2,0
GCF_015732435.1_ASM1573243v1,GCF_015732435.1_ASM1573243v1_bin_1,0
GCF_018831485.1_ASM1883148v1,GCF_018831485.1_ASM1883148v1_bin_1,0
GCF_019903235.1_ASM1990323v1,GCF_019903235.1_ASM1990323v1_bin_7,0
GCF_019903235.1_ASM1990323v1,GCF_019903235.1_ASM1990323v1_bin_6,0
GCF_019903235.1_ASM1990323v1,GCF_019903235.1_ASM1990323v1_bin_4,0
GCF_019903235.1_ASM1990323v1,GCF_019903235.1_ASM1990323v1_bin_3,0
GCF_019903235.1_ASM1990323v1,GCF_019903235.1_ASM1990323v1_bin_1,0
GCF_019903235.1_ASM1990323v1,GCF_019903235.1_ASM1990323v1_bin_2,0
GCF_019903235.1_ASM1990323v1,GCF_019903235.1_ASM1990323v1_bin_5,0
GCF_018808925.1_ASM1880892v1,GCF_018808925.1_ASM1880892v1_bin_2,0
GCF_018808925.1_ASM1880892v1,GCF_018808925.1_ASM1880892v1_bin_1,0
GCF_015910475.1_ASM1591047v1,GCF_015910475.1_ASM1591047v1_bin_3,0
GCF_015910475.1_ASM1591047v1,GCF_015910475.1_ASM1591047v1_bin_1,0
GCF_015910475.1_ASM1591047v1,GCF_015910475.1_ASM1591047v1_bin_2,0
GCF_014322245.1_ASM1432224v1,GCF_014322245.1_ASM1432224v1_bin_1,0
GCF_014322245.1_ASM1432224v1,GCF_014322245.1_ASM1432224v1_bin_2,0
GCF_014322245.1_ASM1432224v1,GCF_014322245.1_ASM1432224v1_bin_4,0
GCF_014322245.1_ASM1432224v1,GCF_014322245.1_ASM1432224v1_bin_3,0
GCF_019903155.1_ASM1990315v1,GCF_019903155.1_ASM1990315v1_bin_1,0
GCF_019903155.1_ASM1990315v1,GCF_019903155.1_ASM1990315v1_bin_3,0
GCF_019903155.1_ASM1990315v1,GCF_019903155.1_ASM1990315v1_bin_2,0
GCF_016919505.2_ASM1691950v2,GCF_016919505.2_ASM1691950v2_bin_3,0
GCF_016919505.2_ASM1691950v2,GCF_016919505.2_ASM1691950v2_bin_1,0
GCF_016919505.2_ASM1691950v2,GCF_016919505.2_ASM1691950v2_bin_2,0
GCF_016919505.2_ASM1691950v2,GCF_016919505.2_ASM1691950v2_bin_Unbinned,0
GCF_019903215.1_ASM1990321v1,GCF_019903215.1_ASM1990321v1_bin_1,0
GCF_018135585.1_ASM1813558v1,GCF_018135585.1_ASM1813558v1_bin_1,0
GCF_018135585.1_ASM1813558v1,GCF_018135585.1_ASM1813558v1_bin_2,0
GCF_005519135.2_ASM551913v2,GCF_005519135.2_ASM551913v2_bin_1,0
GCF_020132105.1_ASM2013210v1,GCF_020132105.1_ASM2013210v1_bin_1,0
GCF_018831125.1_ASM1883112v1,GCF_018831125.1_ASM1883112v1_bin_2,0
GCF_018831125.1_ASM1883112v1,GCF_018831125.1_ASM1883112v1_bin_1,0
GCF_016919525.1_ASM1691952v2,GCF_016919525.1_ASM1691952v2_bin_Unbinned,0
GCF_016919525.1_ASM1691952v2,GCF_016919525.1_ASM1691952v2_bin_2,0
GCF_016919525.1_ASM1691952v2,GCF_016919525.1_ASM1691952v2_bin_1,1
GCF_017753625.1_ASM1775362v1,GCF_017753625.1_ASM1775362v1_bin_1,0
GCF_017753625.1_ASM1775362v1,GCF_017753625.1_ASM1775362v1_bin_2,0
GCF_014705865.1_ASM1470586v1,GCF_014705865.1_ASM1470586v1_bin_1,0
GCF_014169655.1_ASM1416965v1,GCF_014169655.1_ASM1416965v1_bin_1,0
GCF_014169655.1_ASM1416965v1,GCF_014169655.1_ASM1416965v1_bin_2,0
GCF_014705825.1_ASM1470582v1,GCF_014705825.1_ASM1470582v1_bin_1,0
GCF_014705825.1_ASM1470582v1,GCF_014705825.1_ASM1470582v1_bin_2,0
GCF_021609965.1_ASM2160996v1,GCF_021609965.1_ASM2160996v1_bin_2,0
GCF_021609965.1_ASM2160996v1,GCF_021609965.1_ASM2160996v1_bin_1,0
GCF_021609965.1_ASM2160996v1,GCF_021609965.1_ASM2160996v1_bin_3,0
