>NC_004669.1 Enterococcus faecalis V583 plasmid pTEF1, complete sequence	66320
>NC_004671.1 Enterococcus faecalis V583 plasmid pTEF2, complete sequence	57660
>NC_004670.1 Enterococcus faecalis V583 plasmid pTEF3, complete sequence	17963
>NC_017314.1 Enterococcus faecalis 62 plasmid EF62pA, complete sequence	5143
>NC_017313.1 Enterococcus faecalis 62 plasmid EF62pB, complete sequence	51104
>NC_017315.1 Enterococcus faecalis 62 plasmid EF62pC, complete sequence	55393
>NC_018222.1 Enterococcus faecalis D32 plasmid EFD32pA, complete sequence	12893
>NC_018223.1 Enterococcus faecalis D32 plasmid EFD32pB, complete sequence	62162
>NZ_CP041738.1 Enterococcus faecalis EnGen0107 strain B594 chromosome, complete genome	3152103
>NZ_CP041739.1 Enterococcus faecalis EnGen0107 strain B594 plasmid p1, complete sequence	70182
>NZ_CP041740.1 Enterococcus faecalis EnGen0107 strain B594 plasmid p2, complete sequence	45436
>NZ_CP004081.1 Enterococcus faecalis DENG1 chromosome, complete genome	2961043
>NZ_CP008816.1 Enterococcus faecalis ATCC 29212 chromosome, complete genome	2939973
>NZ_CP008815.1 Enterococcus faecalis ATCC 29212 plasmid 1, complete sequence	66548
>NZ_CP008814.1 Enterococcus faecalis ATCC 29212 plasmid 2, complete sequence	41610
>NZ_CP014949.1 Enterococcus faecalis strain LD33 chromosome, complete genome	2803429
>NZ_CP015410.2 Enterococcus faecalis strain KB1 chromosome, complete genome	3026009
>NZ_CP019512.1 Enterococcus faecalis strain CLB21560 chromosome, complete genome	3111017
>NZ_CP019513.1 Enterococcus faecalis strain CLB21560 plasmid pA, complete sequence	66602
>NZ_CP019514.1 Enterococcus faecalis strain CLB21560 plasmid pB, complete sequence	65920
>NZ_CP015883.1 Enterococcus faecalis strain sorialis chromosome, complete genome	2873100
>NZ_CP015884.1 Enterococcus faecalis strain sorialis plasmid Efsorialis-p1, complete sequence	125418
>NZ_CP015885.1 Enterococcus faecalis strain sorialis plasmid Efsorialis-p2, complete sequence	55548
>NZ_CP022059.1 Enterococcus faecalis strain FDAARGOS_338 chromosome, complete genome	2861022
>NZ_CP029612.1 Enterococcus faecalis strain H25 chromosome, complete genome	3132715
>NZ_AP017623.1 Enterococcus faecalis strain W11 chromosome, complete genome	2704865
>NZ_CP022488.1 Enterococcus faecalis ARO1/DG chromosome, complete genome	2717680
>NZ_CP022484.1 Enterococcus faecalis ARO1/DG plasmid pARO1.1, complete sequence	65180
>NZ_CP022485.1 Enterococcus faecalis ARO1/DG plasmid pARO1.2, complete sequence	59380
>NZ_CP022486.1 Enterococcus faecalis ARO1/DG plasmid pARO1.3, complete sequence	31392
>NZ_CP022487.1 Enterococcus faecalis ARO1/DG plasmid pARO1.4, complete sequence	5121
>NZ_CP028285.1 Enterococcus faecalis strain FDAARGOS_324 chromosome, complete genome	2928142
>NZ_CP028286.1 Enterococcus faecalis strain FDAARGOS_324 plasmid unnamed1, complete sequence	103690
>NZ_CP028284.1 Enterococcus faecalis strain FDAARGOS_324 plasmid unnamed2, complete sequence	78592
>NZ_CP028283.1 Enterococcus faecalis strain FDAARGOS_324 plasmid unnamed3, complete sequence	49440
>NZ_CP031027.1 Enterococcus faecalis strain TY1 isolate flatfish chromosome, complete genome	3065679
>NZ_CP031028.1 Enterococcus faecalis strain TY1 isolate flatfish plasmid pDEF-1, complete sequence	75758
>NZ_CP031029.1 Enterococcus faecalis strain TY1 isolate flatfish plasmid pDEF-2, complete sequence	58791
>NZ_CP033787.1 Enterococcus faecalis strain FDAARGOS_528 chromosome, complete genome	2963654
>NZ_AP018538.1 Enterococcus faecalis strain KUB3006 chromosome, complete genome	2893216
>NZ_AP018539.1 Enterococcus faecalis strain KUB3006 plasmid pKUB3006-1, complete sequence	106370
>NZ_AP018540.1 Enterococcus faecalis strain KUB3006 plasmid pKUB3006-2, complete sequence	79566
>NZ_AP018541.1 Enterococcus faecalis strain KUB3006 plasmid pKUB3006-3, complete sequence	59322
>NZ_AP018543.1 Enterococcus faecalis strain KUB3007 chromosome, complete genome	2890148
>NZ_AP018544.1 Enterococcus faecalis strain KUB3007 plasmid pKUB3007-1, complete sequence	106370
>NZ_AP018545.1 Enterococcus faecalis strain KUB3007 plasmid pKUB3007-2, complete sequence	79566
>NZ_AP018546.1 Enterococcus faecalis strain KUB3007 plasmid pKUB3007-3, complete sequence	59322
>NZ_AP018547.1 Enterococcus faecalis strain KUB3007 plasmid pKUB3007-4, complete sequence	36331
>NZ_CP028720.1 Enterococcus faecalis strain CVM N48037F chromosome, complete genome	2997828
>NZ_CP028721.1 Enterococcus faecalis strain CVM N48037F plasmid pN48037F-1, complete sequence	62234
>NZ_CP028722.1 Enterococcus faecalis strain CVM N48037F plasmid pN48037F-2, complete sequence	50811
>NZ_CP028723.1 Enterococcus faecalis strain CVM N48037F plasmid pN48037F-3, complete sequence	40269
>NZ_CP028724.1 Enterococcus faecalis strain CVM N60443F chromosome, complete genome	2758818
>NZ_CP028726.1 Enterococcus faecalis strain CVM N60443F plasmid pN60443F-1, complete sequence	53338
>NZ_CP028725.1 Enterococcus faecalis strain CVM N60443F plasmid pN60443F-2, complete sequence	41597
>NZ_CP028835.1 Enterococcus faecalis strain FC chromosome, complete genome	2934454
>NZ_CP028836.1 Enterococcus faecalis strain FC plasmid unnamed1, complete sequence	90170
>NZ_CP028837.1 Enterococcus faecalis strain FC plasmid unnamed2, complete sequence	77890
>NZ_CP028838.1 Enterococcus faecalis strain FC plasmid unnamed3, complete sequence	49583
>NZ_CP028839.1 Enterococcus faecalis strain FC plasmid unnamed4, complete sequence	19693
>NZ_CP028840.1 Enterococcus faecalis strain FC plasmid unnamed5, complete sequence	11940
>NZ_CP039434.1 Enterococcus faecalis strain SGAir0397 chromosome, complete genome	2696714
>NZ_CP030042.1 Enterococcus faecalis strain C25 chromosome, complete genome	2825273
>NZ_CP030043.1 Enterococcus faecalis strain C25 plasmid pC25-1, complete sequence	45581
>NZ_CP030044.1 Enterococcus faecalis strain C25 plasmid pC25-2, complete sequence	87767
>NZ_CP030045.1 Enterococcus faecalis strain C54 chromosome, complete genome	2813589
>NZ_CP030046.1 Enterococcus faecalis strain C54 plasmid pC54, complete sequence	64500
>NZ_CP040898.1 Enterococcus faecalis strain HA-1 chromosome, complete genome	2881081
>NZ_CP040897.1 Enterococcus faecalis strain HA-1 plasmid punnamed	74657
>NZ_CP041012.1 Enterococcus faecalis strain FDAARGOS_611 chromosome, complete genome	2845446
>NZ_CP039296.1 Enterococcus faecalis strain VE14089 chromosome, complete genome	3238854
>NZ_CP039548.1 Enterococcus faecalis strain VE18379 chromosome, complete genome	3218315
>NZ_CP039549.1 Enterococcus faecalis strain VE18395 chromosome, complete genome	3201501
>NZ_CP041344.1 Enterococcus faecalis strain DM01 chromosome, complete genome	2785968
>NZ_CP042216.2 Enterococcus faecalis strain L8 chromosome, complete genome	2804126
>NZ_CP072508.1 Enterococcus faecalis strain L8 plasmid pL8, complete sequence	91525
>NZ_CP042217.2 Enterococcus faecalis strain L8 plasmid pL8-A	85951
>NZ_CP036249.1 Enterococcus faecalis R712 chromosome, complete genome	2944359
>NZ_CP036247.1 Enterococcus faecalis R712 plasmid pR712_01, complete sequence	75109
>NZ_CP036248.1 Enterococcus faecalis R712 plasmid pR712_02, complete sequence	97950
>NZ_CP045045.1 Enterococcus faecalis strain JY32 chromosome, complete genome	2933718
>NZ_CP049775.1 Enterococcus faecalis strain ES-1 chromosome, complete genome	2833478
>NZ_CP049776.1 Enterococcus faecalis strain ES-1 plasmid unnamed1, complete sequence	85096
>NZ_CP049777.1 Enterococcus faecalis strain ES-1 plasmid unnamed2, complete sequence	53121
>NZ_CP051005.1 Enterococcus faecalis strain TH4125 chromosome, complete genome	2993403
>NZ_CP046108.1 Enterococcus faecalis strain 133170041-3 chromosome, complete genome	2910333
>NZ_CP046109.1 Enterococcus faecalis strain 133170041-3 plasmid pAD1, complete sequence	74657
>NZ_CP046110.1 Enterococcus faecalis strain 133170041-3 plasmid pTEF2, complete sequence	53448
>NZ_CP046111.1 Enterococcus faecalis strain 111540047-1 chromosome, complete genome	2934437
>NZ_CP046112.1 Enterococcus faecalis strain 111540027-2 chromosome, complete genome	2937521
>NZ_CP046113.1 Enterococcus faecalis strain 092160007-3 chromosome, complete genome	2675479
>NZ_CP060804.1 Enterococcus faecalis strain SF28073 chromosome, complete genome	3039501
>NZ_CP060801.1 Enterococcus faecalis strain SF28073 plasmid pSF1, complete sequence	96486
>NZ_CP060802.1 Enterococcus faecalis strain SF28073 plasmid pSF2, complete sequence	54644
>NZ_CP060803.1 Enterococcus faecalis strain SF28073 plasmid pSF3, complete sequence	46541
>NZ_CP050491.1 Enterococcus faecalis strain EGM183 chromosome, complete genome	2693441
>NZ_CP050492.1 Enterococcus faecalis strain EGM183 plasmid pEGM183, complete sequence	73653
>NZ_CP045598.1 Enterococcus faecalis strain TK-P4B chromosome, complete genome	2730170
>NZ_CP045599.1 Enterococcus faecalis strain TK-P4B plasmid p.P4B.1, complete sequence	7384
>NZ_CP045600.1 Enterococcus faecalis strain TK-P4B plasmid p.P4B.2, complete sequence	5073
>NZ_CP045601.1 Enterococcus faecalis strain TK-P4B plasmid p.P4B.3, complete sequence	3001
>NZ_CP068249.1 Enterococcus faecalis strain T90-1 chromosome, complete genome	3038914
>NZ_CP068250.1 Enterococcus faecalis strain T90-1 plasmid pT90-1, complete sequence	54259
>NZ_CP069185.1 Enterococcus faecalis strain L11 chromosome, complete genome	2809691
>NZ_CP069187.1 Enterococcus faecalis strain L11 plasmid pL11, complete sequence	3247
>NZ_CP069186.1 Enterococcus faecalis strain L11 plasmid pL11-A, complete sequence	3043
>NZ_CP071172.1 Enterococcus faecalis strain L13 chromosome, complete genome	2846366
>NZ_CP071176.1 Enterococcus faecalis strain L18 chromosome, complete genome	2809633
>NZ_CP071177.1 Enterococcus faecalis strain L18 plasmid pL18, complete sequence	2864
>NZ_CP046022.1 Enterococcus faecalis strain BFF1B1 chromosome, complete genome	2761629
>NZ_CP060796.1 Enterococcus faecalis strain EF-2001 chromosome, complete genome	2754417
>NZ_CP060797.1 Enterococcus faecalis strain EF-2001 plasmid pEFSP1, complete sequence	5144
>NZ_CP060798.1 Enterococcus faecalis strain EF-2001 plasmid pEFSP2, complete sequence	47067
>NZ_CP065784.1 Enterococcus faecalis strain 18-243 chromosome, complete genome	2991600
>NZ_CP065785.1 Enterococcus faecalis strain 18-243 plasmid p18-243_1, complete sequence	53948
>NZ_CP065786.1 Enterococcus faecalis strain 18-243 plasmid p18-243_2, complete sequence	51905
>NZ_CP075604.2 Enterococcus faecalis strain 1207/14 chromosome, complete genome	3264821
>NZ_CP075605.1 Enterococcus faecalis strain 1207/14 plasmid p1207_1, complete sequence	75084
>NZ_CP075606.1 Enterococcus faecalis strain 1207/14 plasmid p1207_2, complete sequence	70628
>NZ_CP075607.1 Enterococcus faecalis strain 1207/14 plasmid p1207_3, complete sequence	46461
>NZ_CP075608.1 Enterococcus faecalis strain 1207/14 plasmid p1207_4, complete sequence	21607
>NZ_CP075609.1 Enterococcus faecalis strain 1207/14 plasmid p1207_5, complete sequence	4375
>NZ_CP075610.1 Enterococcus faecalis strain 1207/14 plasmid p1207_6, complete sequence	2056
>NZ_CP078015.1 Enterococcus faecalis strain SY-1 chromosome, complete genome	2908856
>NZ_CP078016.1 Enterococcus faecalis strain SY-1 plasmid pSY-1-optrA, complete sequence	35987
>NZ_CP078162.1 Enterococcus faecalis strain NS2 chromosome, complete genome	2662149
>NZ_CP078163.1 Enterococcus faecalis strain NS2 plasmid pNS2A, complete sequence	77697
>NZ_CP081505.1 Enterococcus faecalis strain E006xJH2-2-TC1 chromosome, complete genome	2884138
>NZ_CP081506.1 Enterococcus faecalis strain E006xJH2-2-TC1 plasmid pE006-TC-121, complete sequence	121520
>NZ_CP082231.1 Enterococcus faecalis strain E006 chromosome, complete genome	2838811
>NZ_CP082232.1 Enterococcus faecalis strain E006 plasmid pE006-101, complete sequence	101692
>NZ_CP082233.1 Enterococcus faecalis strain E006 plasmid pE006-19, complete sequence	19832
>NZ_CP085289.1 Enterococcus faecalis strain EFS17 chromosome, complete genome	2838954
>NZ_CP085290.1 Enterococcus faecalis strain EFS17 plasmid pEFS17_1, complete sequence	75361
>NZ_CP085291.1 Enterococcus faecalis strain EFS36 chromosome, complete genome	3016592
>NZ_CP085292.1 Enterococcus faecalis strain EFS36 plasmid pEFS36_1, complete sequence	43405
>NZ_CP085293.1 Enterococcus faecalis strain EFS36 plasmid pEFS36_2, complete sequence	35757
>NZ_CP085294.1 Enterococcus faecalis strain EFS108 chromosome, complete genome	2816588
>NZ_CP085295.1 Enterococcus faecalis strain EFS108 plasmid pEFS108_1, complete sequence	97455
>NZ_CP085296.1 Enterococcus faecalis strain EFS108 plasmid pEFS108_2, complete sequence	77870
>NZ_CP085297.1 Enterococcus faecalis strain EFS108 plasmid pEFS108_3, complete sequence	69496
>NZ_CP085298.1 Enterococcus faecalis strain EFS108 plasmid pEFS108_4, complete sequence	27407
>NZ_CP085299.1 Enterococcus faecalis strain EFS108 plasmid pEFS108_5, complete sequence	5120
>NZ_CP063980.1 Enterococcus faecalis strain AR_0780 chromosome, complete genome	2748847
>NZ_CP063981.1 Enterococcus faecalis strain AR_0780 plasmid pAR_0780, complete sequence	65096
>NZ_CP086411.1 Enterococcus faecalis strain R5 chromosome, complete genome	2995874
>NZ_CP086558.1 Enterococcus faecalis strain E512 chromosome, complete genome	3077165
>NZ_CP086559.1 Enterococcus faecalis strain E512 plasmid pE512, complete sequence	48881
>NZ_CP086566.1 Enterococcus faecalis strain E512-TC2 chromosome, complete genome	2770376
>NZ_CP086567.1 Enterococcus faecalis strain E512-TC2 plasmid pE512-TC2, complete sequence	48589
>NZ_CP086560.1 Enterococcus faecalis strain E509 chromosome, complete genome	2911694
>NZ_CP086561.1 Enterococcus faecalis strain E509 plasmid pE509-1, complete sequence	19446
>NZ_CP086562.1 Enterococcus faecalis strain E509 plasmid pE509-2, complete sequence	33086
>NZ_CP086563.1 Enterococcus faecalis strain E509 plasmid pE509-3, complete sequence	52092
>NZ_CP086564.1 Enterococcus faecalis strain E512-TC1 chromosome, complete genome	2770745
>NZ_CP086565.1 Enterococcus faecalis strain E512-TC1 plasmid pE512-TC1, complete sequence	48549
>NZ_CP086592.1 Enterococcus faecalis strain Fac74 chromosome, complete genome	3049549
>NZ_CP086593.1 Enterococcus faecalis strain Fac74 plasmid pFac74-1, complete sequence	69345
>NZ_CP086726.1 Enterococcus faecalis strain E533 chromosome, complete genome	3109622
>NZ_CP090558.1 Enterococcus faecalis strain PCH555 chromosome, complete genome	2820154
>NZ_CP090559.1 Enterococcus faecalis strain PCH555 plasmid unnamed1, complete sequence	77536
>NZ_CP091198.1 Enterococcus faecalis strain UK045 chromosome, complete genome	3337661
>NZ_CP091197.1 Enterococcus faecalis strain UK045 plasmid pUK045_1, complete sequence	90994
>NZ_CP091199.1 Enterococcus faecalis strain UK045 plasmid pUK045_2, complete sequence	41202
>NZ_CP091200.1 Enterococcus faecalis strain UK045 plasmid pUK045_3, complete sequence	35753
>NZ_AP025270.1 Enterococcus faecalis strain K-4 chromosome, complete genome	2790927
>NZ_AP025271.1 Enterococcus faecalis strain K-4 plasmid pEK4L, complete sequence	64595
>NZ_AP025272.1 Enterococcus faecalis strain K-4 plasmid pEK4S, complete sequence	59411
>NZ_CP091884.1 Enterococcus faecalis strain 152 chromosome, complete genome	2953563
>NZ_CP091885.1 Enterococcus faecalis strain 152 plasmid p1, complete sequence	68770
>NZ_CP091886.1 Enterococcus faecalis strain 143-1 chromosome, complete genome	2932185
>NZ_CP091887.1 Enterococcus faecalis strain 143-1 plasmid p1, complete sequence	68770
>NZ_CP091888.1 Enterococcus faecalis strain 143-1 plasmid p2, complete sequence	29065
>NZ_CP091889.1 Enterococcus faecalis strain 142-1 chromosome, complete genome	3183027
>NZ_CP091890.1 Enterococcus faecalis strain 142-1 plasmid p1, complete sequence	77272
>NZ_CP091891.1 Enterococcus faecalis strain 142-1 plasmid p2, complete sequence	59470
>NZ_CP091892.1 Enterococcus faecalis strain 133-1 chromosome, complete genome	2956343
>NZ_CP091893.1 Enterococcus faecalis strain 133-1 plasmid p1, complete sequence	172742
>NZ_CP091894.1 Enterococcus faecalis strain 133-1 plasmid p2, complete sequence	43915
>NZ_CP091895.1 Enterococcus faecalis strain 119-2 chromosome, complete genome	2884087
>NZ_CP091896.1 Enterococcus faecalis strain 119-2 plasmid p1, complete sequence	29801
>NZ_CP091897.1 Enterococcus faecalis strain 119-1 chromosome, complete genome	2894791
>NZ_CP091898.1 Enterococcus faecalis strain 119-1 plasmid p1, complete sequence	31052
>NZ_CP091899.1 Enterococcus faecalis strain 101-1 chromosome, complete genome	3057040
>NZ_CP091900.1 Enterococcus faecalis strain 101-1 plasmid p1, complete sequence	65785
>NZ_CP091901.1 Enterococcus faecalis strain 59 chromosome, complete genome	3100133
>NZ_CP091902.1 Enterococcus faecalis strain 59 plasmid p1, complete sequence	88965
>NZ_CP091903.1 Enterococcus faecalis strain 59 plasmid p2, complete sequence	43739
>NZ_CP091904.1 Enterococcus faecalis strain 43-2 chromosome, complete genome	2993281
>NZ_CP091905.1 Enterococcus faecalis strain 43-2 plasmid p1, complete sequence	54858
>NZ_CP091906.1 Enterococcus faecalis strain 2-1 chromosome, complete genome	2758107
>NZ_CP091907.1 Enterococcus faecalis strain 2-1 plasmid p1, complete sequence	149744
>NZ_CP092907.1 Enterococcus faecalis strain LJX 0909 chromosome, complete genome	2812373
>NZ_CP092908.1 Enterococcus faecalis strain LJX 0909 plasmid unnamed1, complete sequence	109589
>NZ_CP092909.1 Enterococcus faecalis strain LJX 0909 plasmid unnamed2, complete sequence	5107
>NZ_CP092910.1 Enterococcus faecalis strain LJX 0909 plasmid unnamed3, complete sequence	3011
>NZ_CP076488.1 Enterococcus faecalis strain UAMS_EL56 chromosome, complete genome	3031832
>NZ_CP076489.1 Enterococcus faecalis strain UAMS_EL56 plasmid pUAMSEL1, complete sequence	119713
>NZ_CP076490.1 Enterococcus faecalis strain UAMS_EL56 plasmid pUAMSEL2, complete sequence	55288
>NZ_CP076491.1 Enterococcus faecalis strain UAMS_EL56 plasmid pUAMSEL3, complete sequence	53193
>NZ_CP076492.1 Enterococcus faecalis strain UAMS_EL56 plasmid pUAMSEL4, complete sequence	33659
>NZ_CP076493.1 Enterococcus faecalis strain UAMS_EL54 chromosome, complete genome	3030422
>NZ_CP076494.1 Enterococcus faecalis strain UAMS_EL54 plasmid pUAMSEL1, complete sequence	119714
>NZ_CP076495.1 Enterococcus faecalis strain UAMS_EL54 plasmid pUAMSEL2, complete sequence	55304
>NZ_CP076496.1 Enterococcus faecalis strain UAMS_EL54 plasmid pUAMSEL3, complete sequence	53047
>NZ_CP076497.1 Enterococcus faecalis strain UAMS_EL54 plasmid pUAMSEL4, complete sequence	33656
>NZ_CP076498.1 Enterococcus faecalis strain UAMS_EL53 chromosome, complete genome	3030005
>NZ_CP076499.1 Enterococcus faecalis strain UAMS_EL53 plasmid pUAMSEL1, complete sequence	119720
>NZ_CP076500.1 Enterococcus faecalis strain UAMS_EL53 plasmid pUAMSEL2, complete sequence	55301
>NZ_CP076501.1 Enterococcus faecalis strain UAMS_EL53 plasmid pUAMSEL3, complete sequence	53420
>NZ_CP076502.1 Enterococcus faecalis strain UAMS_EL53 plasmid pUAMSEL4, complete sequence	33652
>NZ_CP092574.1 Enterococcus faecalis strain VSE-WC032 chromosome, complete genome	3091662
>NZ_CP092575.1 Enterococcus faecalis strain VSE-WC032 plasmid unnamed, complete sequence	9331
>NZ_CP092576.1 Enterococcus faecalis strain VRE-WC031 chromosome, complete genome	3005854
>NZ_CP092577.1 Enterococcus faecalis strain VRE-WC031 plasmid unnamed1, complete sequence	90885
>NZ_CP092578.1 Enterococcus faecalis strain VRE-WC031 plasmid unnamed2, complete sequence	84898
>NZ_CP092579.1 Enterococcus faecalis strain VRE-WC031 plasmid unnamed3, complete sequence	54685
>NZ_CP092580.1 Enterococcus faecalis strain VRE-WC031 plasmid unnamed4, complete sequence	9329
>NZ_CP093957.1 Enterococcus faecalis strain NY13321 chromosome, complete genome	3072634
>NZ_CP093958.1 Enterococcus faecalis strain NY13321 plasmid pNY13321, complete sequence	90089
>NZ_CP046247.1 Enterococcus faecalis strain RF_1_1_25_1 chromosome, complete genome	2777589
>NZ_CP046248.1 Enterococcus faecalis strain RF_1_1_25_1 plasmid pRFP1, complete sequence	66565
>NZ_CP046249.1 Enterococcus faecalis strain RF_1_1_25_1 plasmid pRFP2, complete sequence	5350
>NZ_CP064374.1 Enterococcus faecalis strain PartL-Efaecalis-RM8376 chromosome, complete genome	2866948
>NZ_LR134312.1 Enterococcus faecalis strain NCTC8745 chromosome 1, complete sequence	2719199
>NZ_LR594051.1 Enterococcus faecalis strain NCTC8732 chromosome 1	2864420
>NZ_LR698844.1 Enterococcus faecalis isolate MGYG-HGUT-01694 chromosome 1	2810675
>NZ_OD940431.1 Enterococcus faecalis isolate TM6294 chromosome contig000001, complete sequence	2806453
>NZ_OD940432.1 Enterococcus faecalis isolate TM6294 plasmid contig000002, complete sequence	75362
>NZ_OD940433.1 Enterococcus faecalis isolate TM6294 plasmid contig000003, complete sequence	52776
>NZ_OD940420.1 Enterococcus faecalis isolate WE0438 chromosome contig000001, complete sequence	2969567
>NZ_OD940421.1 Enterococcus faecalis isolate WE0438 plasmid contig000002, complete sequence	61284
>NZ_OD940437.1 Enterococcus faecalis isolate BX8117 chromosome contig000001, complete sequence	2909278
>NZ_OD940438.1 Enterococcus faecalis isolate BX8117 plasmid contig000002, complete sequence	68773
>NZ_OD940439.1 Enterococcus faecalis isolate BX8117 plasmid contig000003, complete sequence	41839
>NZ_OD940422.1 Enterococcus faecalis isolate WE0851 chromosome contig000001	2761305
>NZ_OD940426.1 Enterococcus faecalis isolate WE0851 chromosome contig000005	2700
>NZ_OD940427.1 Enterococcus faecalis isolate WE0851 chromosome contig000006	1958
>NZ_OD940428.1 Enterococcus faecalis isolate WE0851 chromosome contig000007	1619
>NZ_OD940429.1 Enterococcus faecalis isolate WE0851 chromosome contig000008	894
>NZ_OD940430.1 Enterococcus faecalis isolate WE0851 chromosome contig000009	634
>NZ_OD940423.1 Enterococcus faecalis isolate WE0851 plasmid contig000002, complete sequence	59709
>NZ_OD940424.1 Enterococcus faecalis isolate WE0851 plasmid contig000003, complete sequence	26996
>NZ_OD940425.1 Enterococcus faecalis isolate WE0851 plasmid contig000004, complete sequence	10826
>NZ_OD940440.2 Enterococcus faecalis isolate WE0254 chromosome contig000001, complete sequence	2834518
>NZ_OU538996.1 Enterococcus faecalis isolate WE0254 plasmid contig000002, complete sequence	80496
>NZ_OU538997.1 Enterococcus faecalis isolate WE0254 plasmid contig000003	78228
>NZ_OU538998.1 Enterococcus faecalis isolate WE0254 plasmid contig000004	985
>NZ_OD940434.1 Enterococcus faecalis isolate BX5936 chromosome contig000001, complete sequence	2806921
>NZ_OD940435.1 Enterococcus faecalis isolate BX5936 plasmid contig000002, complete sequence	68656
>NZ_OD940436.1 Enterococcus faecalis isolate BX5936 plasmid contig000003, complete sequence	51669
