GCF_000007785.1_ASM778v1,NC_004669.1
GCF_000007785.1_ASM778v1,NC_004671.1
GCF_000007785.1_ASM778v1,NC_004670.1
GCF_000211255.2_ASM21125v2,NC_017314.1
GCF_000211255.2_ASM21125v2,NC_017313.1
GCF_000211255.2_ASM21125v2,NC_017315.1
GCF_000281195.1_ASM28119v1,NC_018222.1
GCF_000281195.1_ASM28119v1,NC_018223.1
GCF_000391485.2_ASM39148v2,NZ_CP041739.1
GCF_000391485.2_ASM39148v2,NZ_CP041740.1
GCF_000742975.1_ASM74297v1,NZ_CP008815.1
GCF_000742975.1_ASM74297v1,NZ_CP008814.1
GCF_001989555.1_ASM198955v1,NZ_CP019513.1
GCF_001989555.1_ASM198955v1,NZ_CP019514.1
GCF_002163735.1_ASM216373v1,NZ_CP015884.1
GCF_002163735.1_ASM216373v1,NZ_CP015885.1
GCF_002814115.1_ASM281411v1,NZ_CP022484.1
GCF_002814115.1_ASM281411v1,NZ_CP022485.1
GCF_002814115.1_ASM281411v1,NZ_CP022486.1
GCF_002814115.1_ASM281411v1,NZ_CP022487.1
GCF_003030425.1_ASM303042v1,NZ_CP028286.1
GCF_003030425.1_ASM303042v1,NZ_CP028284.1
GCF_003030425.1_ASM303042v1,NZ_CP028283.1
GCF_003345275.1_ASM334527v1,NZ_CP031028.1
GCF_003345275.1_ASM334527v1,NZ_CP031029.1
GCF_003966385.1_ASM396638v1,NZ_AP018539.1
GCF_003966385.1_ASM396638v1,NZ_AP018540.1
GCF_003966385.1_ASM396638v1,NZ_AP018541.1
GCF_003966405.1_ASM396640v1,NZ_AP018544.1
GCF_003966405.1_ASM396640v1,NZ_AP018545.1
GCF_003966405.1_ASM396640v1,NZ_AP018546.1
GCF_003966405.1_ASM396640v1,NZ_AP018547.1
GCF_004332015.1_ASM433201v1,NZ_CP028721.1
GCF_004332015.1_ASM433201v1,NZ_CP028722.1
GCF_004332015.1_ASM433201v1,NZ_CP028723.1
GCF_004332035.1_ASM433203v1,NZ_CP028726.1
GCF_004332035.1_ASM433203v1,NZ_CP028725.1
GCF_005158025.1_ASM515802v1,NZ_CP028836.1
GCF_005158025.1_ASM515802v1,NZ_CP028837.1
GCF_005158025.1_ASM515802v1,NZ_CP028838.1
GCF_005158025.1_ASM515802v1,NZ_CP028839.1
GCF_005158025.1_ASM515802v1,NZ_CP028840.1
GCF_005979285.1_ASM597928v1,NZ_CP030043.1
GCF_005979285.1_ASM597928v1,NZ_CP030044.1
GCF_005979305.1_ASM597930v1,NZ_CP030046.1
GCF_006349345.1_ASM634934v1,NZ_CP040897.1
GCF_009498175.3_ASM949817v3,NZ_CP072508.1
GCF_009498175.3_ASM949817v3,NZ_CP042217.2
GCF_009662495.1_ASM966249v1,NZ_CP036247.1
GCF_009662495.1_ASM966249v1,NZ_CP036248.1
GCF_011193375.1_ASM1119337v1,NZ_CP049776.1
GCF_011193375.1_ASM1119337v1,NZ_CP049777.1
GCF_013344605.1_ASM1334460v1,NZ_CP046109.1
GCF_013344605.1_ASM1334460v1,NZ_CP046110.1
GCF_014489455.1_ASM1448945v1,NZ_CP060801.1
GCF_014489455.1_ASM1448945v1,NZ_CP060802.1
GCF_014489455.1_ASM1448945v1,NZ_CP060803.1
GCF_014844235.1_ASM1484423v1,NZ_CP050492.1
GCF_015377745.1_ASM1537774v1,NZ_CP045599.1
GCF_015377745.1_ASM1537774v1,NZ_CP045600.1
GCF_015377745.1_ASM1537774v1,NZ_CP045601.1
GCF_016743895.1_ASM1674389v1,NZ_CP068250.1
GCF_016812095.1_ASM1681209v1,NZ_CP069187.1
GCF_016812095.1_ASM1681209v1,NZ_CP069186.1
GCF_017280235.1_ASM1728023v1,NZ_CP071177.1
GCF_017639585.1_ASM1763958v1,NZ_CP060797.1
GCF_017639585.1_ASM1763958v1,NZ_CP060798.1
GCF_018517125.1_ASM1851712v1,NZ_CP065785.1
GCF_018517125.1_ASM1851712v1,NZ_CP065786.1
GCF_018986755.2_ASM1898675v2,NZ_CP075605.1
GCF_018986755.2_ASM1898675v2,NZ_CP075606.1
GCF_018986755.2_ASM1898675v2,NZ_CP075607.1
GCF_018986755.2_ASM1898675v2,NZ_CP075608.1
GCF_018986755.2_ASM1898675v2,NZ_CP075609.1
GCF_018986755.2_ASM1898675v2,NZ_CP075610.1
GCF_019195415.1_ASM1919541v1,NZ_CP078016.1
GCF_019222705.1_ASM1922270v1,NZ_CP078163.1
GCF_019774535.1_ASM1977453v1,NZ_CP081506.1
GCF_019856595.1_ASM1985659v1,NZ_CP082232.1
GCF_019856595.1_ASM1985659v1,NZ_CP082233.1
GCF_020616775.1_ASM2061677v1,NZ_CP085290.1
GCF_020616875.1_ASM2061687v1,NZ_CP085292.1
GCF_020616875.1_ASM2061687v1,NZ_CP085293.1
GCF_020616935.1_ASM2061693v1,NZ_CP085295.1
GCF_020616935.1_ASM2061693v1,NZ_CP085296.1
GCF_020616935.1_ASM2061693v1,NZ_CP085297.1
GCF_020616935.1_ASM2061693v1,NZ_CP085298.1
GCF_020616935.1_ASM2061693v1,NZ_CP085299.1
GCF_020844125.1_ASM2084412v1,NZ_CP063981.1
GCF_020882035.1_ASM2088203v1,NZ_CP086559.1
GCF_020882055.1_ASM2088205v1,NZ_CP086567.1
GCF_020882075.1_ASM2088207v1,NZ_CP086561.1
GCF_020882075.1_ASM2088207v1,NZ_CP086562.1
GCF_020882075.1_ASM2088207v1,NZ_CP086563.1
GCF_020882095.1_ASM2088209v1,NZ_CP086565.1
GCF_020882115.1_ASM2088211v1,NZ_CP086593.1
GCF_021484825.1_ASM2148482v1,NZ_CP090559.1
GCF_021610105.1_ASM2161010v1,NZ_CP091197.1
GCF_021610105.1_ASM2161010v1,NZ_CP091199.1
GCF_021610105.1_ASM2161010v1,NZ_CP091200.1
GCF_021655635.1_ASM2165563v1,NZ_AP025271.1
GCF_021655635.1_ASM2165563v1,NZ_AP025272.1
GCF_022212845.1_ASM2221284v1,NZ_CP091885.1
GCF_022212865.1_ASM2221286v1,NZ_CP091887.1
GCF_022212865.1_ASM2221286v1,NZ_CP091888.1
GCF_022212885.1_ASM2221288v1,NZ_CP091890.1
GCF_022212885.1_ASM2221288v1,NZ_CP091891.1
GCF_022212905.1_ASM2221290v1,NZ_CP091893.1
GCF_022212905.1_ASM2221290v1,NZ_CP091894.1
GCF_022212925.1_ASM2221292v1,NZ_CP091896.1
GCF_022212945.1_ASM2221294v1,NZ_CP091898.1
GCF_022212965.1_ASM2221296v1,NZ_CP091900.1
GCF_022212985.1_ASM2221298v1,NZ_CP091902.1
GCF_022212985.1_ASM2221298v1,NZ_CP091903.1
GCF_022213005.1_ASM2221300v1,NZ_CP091905.1
GCF_022213025.1_ASM2221302v1,NZ_CP091907.1
GCF_022557275.1_ASM2255727v1,NZ_CP092908.1
GCF_022557275.1_ASM2255727v1,NZ_CP092909.1
GCF_022557275.1_ASM2255727v1,NZ_CP092910.1
GCF_022648285.1_ASM2264828v1,NZ_CP076489.1
GCF_022648285.1_ASM2264828v1,NZ_CP076490.1
GCF_022648285.1_ASM2264828v1,NZ_CP076491.1
GCF_022648285.1_ASM2264828v1,NZ_CP076492.1
GCF_022648425.1_ASM2264842v1,NZ_CP076494.1
GCF_022648425.1_ASM2264842v1,NZ_CP076495.1
GCF_022648425.1_ASM2264842v1,NZ_CP076496.1
GCF_022648425.1_ASM2264842v1,NZ_CP076497.1
GCF_022648595.1_ASM2264859v1,NZ_CP076499.1
GCF_022648595.1_ASM2264859v1,NZ_CP076500.1
GCF_022648595.1_ASM2264859v1,NZ_CP076501.1
GCF_022648595.1_ASM2264859v1,NZ_CP076502.1
GCF_022691465.1_ASM2269146v1,NZ_CP092575.1
GCF_022691485.1_ASM2269148v1,NZ_CP092577.1
GCF_022691485.1_ASM2269148v1,NZ_CP092578.1
GCF_022691485.1_ASM2269148v1,NZ_CP092579.1
GCF_022691485.1_ASM2269148v1,NZ_CP092580.1
GCF_022699585.1_ASM2269958v1,NZ_CP093958.1
GCF_022810805.1_ASM2281080v1,NZ_CP046248.1
GCF_022810805.1_ASM2281080v1,NZ_CP046249.1
GCF_906464835.1_TM6294,NZ_OD940432.1
GCF_906464835.1_TM6294,NZ_OD940433.1
GCF_906464865.1_WE0438,NZ_OD940421.1
GCF_906464875.1_BX8117,NZ_OD940438.1
GCF_906464875.1_BX8117,NZ_OD940439.1
GCF_906464895.1_WE0851,NZ_OD940423.1
GCF_906464895.1_WE0851,NZ_OD940424.1
GCF_906464895.1_WE0851,NZ_OD940425.1
GCF_906464915.2_WE0254,NZ_OU538996.1
GCF_906464915.2_WE0254,NZ_OU538997.1
GCF_906464915.2_WE0254,NZ_OU538998.1
GCF_906464925.1_BX5936,NZ_OD940435.1
GCF_906464925.1_BX5936,NZ_OD940436.1
