<?xml version='1.0' encoding='UTF-8' ?>
<svg xmlns='http://www.w3.org/2000/svg' xmlns:xlink='http://www.w3.org/1999/xlink' class='svglite' width='720.00pt' height='576.00pt' viewBox='0 0 720.00 576.00'>
<defs>
  <style type='text/css'><![CDATA[
    .svglite line, .svglite polyline, .svglite polygon, .svglite path, .svglite rect, .svglite circle {
      fill: none;
      stroke: #000000;
      stroke-linecap: round;
      stroke-linejoin: round;
      stroke-miterlimit: 10.00;
    }
    .svglite text {
      white-space: pre;
    }
  ]]></style>
</defs>
<rect width='100%' height='100%' style='stroke: none; fill: #FFFFFF;'/>
<defs>
  <clipPath id='cpMC4wMHw3MjAuMDB8MC4wMHw1NzYuMDA='>
    <rect x='0.00' y='0.00' width='720.00' height='576.00' />
  </clipPath>
</defs>
<g clip-path='url(#cpMC4wMHw3MjAuMDB8MC4wMHw1NzYuMDA=)'>
<rect x='0.000000000000064' y='0.00' width='720.00' height='576.00' style='stroke-width: 1.16; stroke: #FFFFFF; fill: #FFFFFF;' />
</g>
<defs>
  <clipPath id='cpNTYuNTh8MjcxLjc0fDkwLjI5fDUzOS4wNg=='>
    <rect x='56.58' y='90.29' width='215.16' height='448.77' />
  </clipPath>
</defs>
<g clip-path='url(#cpNTYuNTh8MjcxLjc0fDkwLjI5fDUzOS4wNg==)'>
<rect x='56.58' y='90.29' width='215.16' height='448.77' style='stroke-width: 1.16; stroke: none; fill: #FFFFFF;' />
<polyline points='56.58,467.67 271.74,467.67 ' style='stroke-width: 0.58; stroke: #FFFFFF; stroke-linecap: butt;' />
<polyline points='56.58,365.67 271.74,365.67 ' style='stroke-width: 0.58; stroke: #FFFFFF; stroke-linecap: butt;' />
<polyline points='56.58,263.68 271.74,263.68 ' style='stroke-width: 0.58; stroke: #FFFFFF; stroke-linecap: butt;' />
<polyline points='56.58,161.69 271.74,161.69 ' style='stroke-width: 0.58; stroke: #FFFFFF; stroke-linecap: butt;' />
<polyline points='56.58,518.66 271.74,518.66 ' style='stroke-width: 1.16; stroke: #BEBEBE; stroke-dasharray: 1.55,4.66; stroke-linecap: butt;' />
<polyline points='56.58,416.67 271.74,416.67 ' style='stroke-width: 1.16; stroke: #BEBEBE; stroke-dasharray: 1.55,4.66; stroke-linecap: butt;' />
<polyline points='56.58,314.68 271.74,314.68 ' style='stroke-width: 1.16; stroke: #BEBEBE; stroke-dasharray: 1.55,4.66; stroke-linecap: butt;' />
<polyline points='56.58,212.68 271.74,212.68 ' style='stroke-width: 1.16; stroke: #BEBEBE; stroke-dasharray: 1.55,4.66; stroke-linecap: butt;' />
<polyline points='56.58,110.69 271.74,110.69 ' style='stroke-width: 1.16; stroke: #BEBEBE; stroke-dasharray: 1.55,4.66; stroke-linecap: butt;' />
<polyline points='96.92,539.06 96.92,90.29 ' style='stroke-width: 1.16; stroke: #FFFFFF; stroke-linecap: butt;' />
<polyline points='164.16,539.06 164.16,90.29 ' style='stroke-width: 1.16; stroke: #FFFFFF; stroke-linecap: butt;' />
<polyline points='231.40,539.06 231.40,90.29 ' style='stroke-width: 1.16; stroke: #FFFFFF; stroke-linecap: butt;' />
<rect x='66.67' y='163.12' width='60.51' height='355.54' style='stroke-width: 1.07; stroke: none; stroke-linecap: butt; stroke-linejoin: miter; fill: #00FF93;' />
<rect x='133.91' y='145.06' width='60.51' height='373.60' style='stroke-width: 1.07; stroke: none; stroke-linecap: butt; stroke-linejoin: miter; fill: #FFC300;' />
<rect x='201.14' y='265.53' width='60.51' height='253.14' style='stroke-width: 1.07; stroke: none; stroke-linecap: butt; stroke-linejoin: miter; fill: #F11212;' />
</g>
<g clip-path='url(#cpMC4wMHw3MjAuMDB8MC4wMHw1NzYuMDA=)'>
</g>
<defs>
  <clipPath id='cpMjc3LjcyfDQ5Mi44OHw5MC4yOXw1MzkuMDY='>
    <rect x='277.72' y='90.29' width='215.16' height='448.77' />
  </clipPath>
</defs>
<g clip-path='url(#cpMjc3LjcyfDQ5Mi44OHw5MC4yOXw1MzkuMDY=)'>
<rect x='277.72' y='90.29' width='215.16' height='448.77' style='stroke-width: 1.16; stroke: none; fill: #FFFFFF;' />
<polyline points='277.72,467.67 492.88,467.67 ' style='stroke-width: 0.58; stroke: #FFFFFF; stroke-linecap: butt;' />
<polyline points='277.72,365.67 492.88,365.67 ' style='stroke-width: 0.58; stroke: #FFFFFF; stroke-linecap: butt;' />
<polyline points='277.72,263.68 492.88,263.68 ' style='stroke-width: 0.58; stroke: #FFFFFF; stroke-linecap: butt;' />
<polyline points='277.72,161.69 492.88,161.69 ' style='stroke-width: 0.58; stroke: #FFFFFF; stroke-linecap: butt;' />
<polyline points='277.72,518.66 492.88,518.66 ' style='stroke-width: 1.16; stroke: #BEBEBE; stroke-dasharray: 1.55,4.66; stroke-linecap: butt;' />
<polyline points='277.72,416.67 492.88,416.67 ' style='stroke-width: 1.16; stroke: #BEBEBE; stroke-dasharray: 1.55,4.66; stroke-linecap: butt;' />
<polyline points='277.72,314.68 492.88,314.68 ' style='stroke-width: 1.16; stroke: #BEBEBE; stroke-dasharray: 1.55,4.66; stroke-linecap: butt;' />
<polyline points='277.72,212.68 492.88,212.68 ' style='stroke-width: 1.16; stroke: #BEBEBE; stroke-dasharray: 1.55,4.66; stroke-linecap: butt;' />
<polyline points='277.72,110.69 492.88,110.69 ' style='stroke-width: 1.16; stroke: #BEBEBE; stroke-dasharray: 1.55,4.66; stroke-linecap: butt;' />
<polyline points='318.06,539.06 318.06,90.29 ' style='stroke-width: 1.16; stroke: #FFFFFF; stroke-linecap: butt;' />
<polyline points='385.30,539.06 385.30,90.29 ' style='stroke-width: 1.16; stroke: #FFFFFF; stroke-linecap: butt;' />
<polyline points='452.54,539.06 452.54,90.29 ' style='stroke-width: 1.16; stroke: #FFFFFF; stroke-linecap: butt;' />
<rect x='287.81' y='145.62' width='60.51' height='373.05' style='stroke-width: 1.07; stroke: none; stroke-linecap: butt; stroke-linejoin: miter; fill: #00FF93;' />
<rect x='355.04' y='122.94' width='60.51' height='395.72' style='stroke-width: 1.07; stroke: none; stroke-linecap: butt; stroke-linejoin: miter; fill: #FFC300;' />
<rect x='422.28' y='141.35' width='60.51' height='377.32' style='stroke-width: 1.07; stroke: none; stroke-linecap: butt; stroke-linejoin: miter; fill: #F11212;' />
</g>
<g clip-path='url(#cpMC4wMHw3MjAuMDB8MC4wMHw1NzYuMDA=)'>
</g>
<defs>
  <clipPath id='cpNDk4Ljg2fDcxNC4wMnw5MC4yOXw1MzkuMDY='>
    <rect x='498.86' y='90.29' width='215.16' height='448.77' />
  </clipPath>
</defs>
<g clip-path='url(#cpNDk4Ljg2fDcxNC4wMnw5MC4yOXw1MzkuMDY=)'>
<rect x='498.86' y='90.29' width='215.16' height='448.77' style='stroke-width: 1.16; stroke: none; fill: #FFFFFF;' />
<polyline points='498.86,467.67 714.02,467.67 ' style='stroke-width: 0.58; stroke: #FFFFFF; stroke-linecap: butt;' />
<polyline points='498.86,365.67 714.02,365.67 ' style='stroke-width: 0.58; stroke: #FFFFFF; stroke-linecap: butt;' />
<polyline points='498.86,263.68 714.02,263.68 ' style='stroke-width: 0.58; stroke: #FFFFFF; stroke-linecap: butt;' />
<polyline points='498.86,161.69 714.02,161.69 ' style='stroke-width: 0.58; stroke: #FFFFFF; stroke-linecap: butt;' />
<polyline points='498.86,518.66 714.02,518.66 ' style='stroke-width: 1.16; stroke: #BEBEBE; stroke-dasharray: 1.55,4.66; stroke-linecap: butt;' />
<polyline points='498.86,416.67 714.02,416.67 ' style='stroke-width: 1.16; stroke: #BEBEBE; stroke-dasharray: 1.55,4.66; stroke-linecap: butt;' />
<polyline points='498.86,314.68 714.02,314.68 ' style='stroke-width: 1.16; stroke: #BEBEBE; stroke-dasharray: 1.55,4.66; stroke-linecap: butt;' />
<polyline points='498.86,212.68 714.02,212.68 ' style='stroke-width: 1.16; stroke: #BEBEBE; stroke-dasharray: 1.55,4.66; stroke-linecap: butt;' />
<polyline points='498.86,110.69 714.02,110.69 ' style='stroke-width: 1.16; stroke: #BEBEBE; stroke-dasharray: 1.55,4.66; stroke-linecap: butt;' />
<polyline points='539.20,539.06 539.20,90.29 ' style='stroke-width: 1.16; stroke: #FFFFFF; stroke-linecap: butt;' />
<polyline points='606.44,539.06 606.44,90.29 ' style='stroke-width: 1.16; stroke: #FFFFFF; stroke-linecap: butt;' />
<polyline points='673.68,539.06 673.68,90.29 ' style='stroke-width: 1.16; stroke: #FFFFFF; stroke-linecap: butt;' />
<rect x='508.95' y='179.06' width='60.51' height='339.60' style='stroke-width: 1.07; stroke: none; stroke-linecap: butt; stroke-linejoin: miter; fill: #00FF93;' />
<rect x='576.18' y='164.84' width='60.51' height='353.82' style='stroke-width: 1.07; stroke: none; stroke-linecap: butt; stroke-linejoin: miter; fill: #FFC300;' />
<rect x='643.42' y='328.21' width='60.51' height='190.46' style='stroke-width: 1.07; stroke: none; stroke-linecap: butt; stroke-linejoin: miter; fill: #F11212;' />
</g>
<g clip-path='url(#cpMC4wMHw3MjAuMDB8MC4wMHw1NzYuMDA=)'>
</g>
<defs>
  <clipPath id='cpNTYuNTh8MjcxLjc0fDY2LjY1fDkwLjI5'>
    <rect x='56.58' y='66.65' width='215.16' height='23.64' />
  </clipPath>
</defs>
<g clip-path='url(#cpNTYuNTh8MjcxLjc0fDY2LjY1fDkwLjI5)'>
<rect x='56.58' y='66.65' width='215.16' height='23.64' style='stroke-width: 1.16; stroke: none; fill: #D9D9D9;' />
<text x='164.16' y='83.85' text-anchor='middle' style='font-size: 15.00px;fill: #1A1A1A; font-family: "Arial";' textLength='62.55px' lengthAdjust='spacingAndGlyphs'>F1_score</text>
</g>
<g clip-path='url(#cpMC4wMHw3MjAuMDB8MC4wMHw1NzYuMDA=)'>
</g>
<defs>
  <clipPath id='cpMjc3LjcyfDQ5Mi44OHw2Ni42NXw5MC4yOQ=='>
    <rect x='277.72' y='66.65' width='215.16' height='23.64' />
  </clipPath>
</defs>
<g clip-path='url(#cpMjc3LjcyfDQ5Mi44OHw2Ni42NXw5MC4yOQ==)'>
<rect x='277.72' y='66.65' width='215.16' height='23.64' style='stroke-width: 1.16; stroke: none; fill: #D9D9D9;' />
<text x='385.30' y='83.85' text-anchor='middle' style='font-size: 15.00px;fill: #1A1A1A; font-family: "Arial";' textLength='60.05px' lengthAdjust='spacingAndGlyphs'>precision</text>
</g>
<g clip-path='url(#cpMC4wMHw3MjAuMDB8MC4wMHw1NzYuMDA=)'>
</g>
<defs>
  <clipPath id='cpNDk4Ljg2fDcxNC4wMnw2Ni42NXw5MC4yOQ=='>
    <rect x='498.86' y='66.65' width='215.16' height='23.64' />
  </clipPath>
</defs>
<g clip-path='url(#cpNDk4Ljg2fDcxNC4wMnw2Ni42NXw5MC4yOQ==)'>
<rect x='498.86' y='66.65' width='215.16' height='23.64' style='stroke-width: 1.16; stroke: none; fill: #D9D9D9;' />
<text x='606.44' y='83.85' text-anchor='middle' style='font-size: 15.00px;fill: #1A1A1A; font-family: "Arial";' textLength='35.86px' lengthAdjust='spacingAndGlyphs'>recall</text>
</g>
<g clip-path='url(#cpMC4wMHw3MjAuMDB8MC4wMHw1NzYuMDA=)'>
<polyline points='96.92,542.05 96.92,539.06 ' style='stroke-width: 1.16; stroke: #333333; stroke-linecap: butt;' />
<polyline points='164.16,542.05 164.16,539.06 ' style='stroke-width: 1.16; stroke: #333333; stroke-linecap: butt;' />
<polyline points='231.40,542.05 231.40,539.06 ' style='stroke-width: 1.16; stroke: #333333; stroke-linecap: butt;' />
<text transform='translate(97.43,544.95) rotate(-45)' text-anchor='end' style='font-size: 0.00px;fill: #4D4D4D; font-family: "Arial";' textLength='2.94px' lengthAdjust='spacingAndGlyphs'>gplas2</text>
<text transform='translate(164.67,544.95) rotate(-45)' text-anchor='end' style='font-size: 0.00px;fill: #4D4D4D; font-family: "Arial";' textLength='4.72px' lengthAdjust='spacingAndGlyphs'>MOB-suite</text>
<text transform='translate(231.91,544.95) rotate(-45)' text-anchor='end' style='font-size: 0.00px;fill: #4D4D4D; font-family: "Arial";' textLength='7.06px' lengthAdjust='spacingAndGlyphs'>plasmidSPAdes</text>
<polyline points='318.06,542.05 318.06,539.06 ' style='stroke-width: 1.16; stroke: #333333; stroke-linecap: butt;' />
<polyline points='385.30,542.05 385.30,539.06 ' style='stroke-width: 1.16; stroke: #333333; stroke-linecap: butt;' />
<polyline points='452.54,542.05 452.54,539.06 ' style='stroke-width: 1.16; stroke: #333333; stroke-linecap: butt;' />
<text transform='translate(318.57,544.95) rotate(-45)' text-anchor='end' style='font-size: 0.00px;fill: #4D4D4D; font-family: "Arial";' textLength='2.94px' lengthAdjust='spacingAndGlyphs'>gplas2</text>
<text transform='translate(385.81,544.95) rotate(-45)' text-anchor='end' style='font-size: 0.00px;fill: #4D4D4D; font-family: "Arial";' textLength='4.72px' lengthAdjust='spacingAndGlyphs'>MOB-suite</text>
<text transform='translate(453.05,544.95) rotate(-45)' text-anchor='end' style='font-size: 0.00px;fill: #4D4D4D; font-family: "Arial";' textLength='7.06px' lengthAdjust='spacingAndGlyphs'>plasmidSPAdes</text>
<polyline points='539.20,542.05 539.20,539.06 ' style='stroke-width: 1.16; stroke: #333333; stroke-linecap: butt;' />
<polyline points='606.44,542.05 606.44,539.06 ' style='stroke-width: 1.16; stroke: #333333; stroke-linecap: butt;' />
<polyline points='673.68,542.05 673.68,539.06 ' style='stroke-width: 1.16; stroke: #333333; stroke-linecap: butt;' />
<text transform='translate(539.71,544.95) rotate(-45)' text-anchor='end' style='font-size: 0.00px;fill: #4D4D4D; font-family: "Arial";' textLength='2.94px' lengthAdjust='spacingAndGlyphs'>gplas2</text>
<text transform='translate(606.95,544.95) rotate(-45)' text-anchor='end' style='font-size: 0.00px;fill: #4D4D4D; font-family: "Arial";' textLength='4.72px' lengthAdjust='spacingAndGlyphs'>MOB-suite</text>
<text transform='translate(674.19,544.95) rotate(-45)' text-anchor='end' style='font-size: 0.00px;fill: #4D4D4D; font-family: "Arial";' textLength='7.06px' lengthAdjust='spacingAndGlyphs'>plasmidSPAdes</text>
<text x='51.20' y='523.33' text-anchor='end' style='font-size: 13.00px;fill: #4D4D4D; font-family: "Arial";' textLength='25.30px' lengthAdjust='spacingAndGlyphs'>0.00</text>
<text x='51.20' y='421.33' text-anchor='end' style='font-size: 13.00px;fill: #4D4D4D; font-family: "Arial";' textLength='25.30px' lengthAdjust='spacingAndGlyphs'>0.25</text>
<text x='51.20' y='319.34' text-anchor='end' style='font-size: 13.00px;fill: #4D4D4D; font-family: "Arial";' textLength='25.30px' lengthAdjust='spacingAndGlyphs'>0.50</text>
<text x='51.20' y='217.35' text-anchor='end' style='font-size: 13.00px;fill: #4D4D4D; font-family: "Arial";' textLength='25.30px' lengthAdjust='spacingAndGlyphs'>0.75</text>
<text x='51.20' y='115.35' text-anchor='end' style='font-size: 13.00px;fill: #4D4D4D; font-family: "Arial";' textLength='25.30px' lengthAdjust='spacingAndGlyphs'>1.00</text>
<polyline points='53.59,518.66 56.58,518.66 ' style='stroke-width: 1.16; stroke: #333333; stroke-linecap: butt;' />
<polyline points='53.59,416.67 56.58,416.67 ' style='stroke-width: 1.16; stroke: #333333; stroke-linecap: butt;' />
<polyline points='53.59,314.68 56.58,314.68 ' style='stroke-width: 1.16; stroke: #333333; stroke-linecap: butt;' />
<polyline points='53.59,212.68 56.58,212.68 ' style='stroke-width: 1.16; stroke: #333333; stroke-linecap: butt;' />
<polyline points='53.59,110.69 56.58,110.69 ' style='stroke-width: 1.16; stroke: #333333; stroke-linecap: butt;' />
<text x='385.30' y='566.04' text-anchor='middle' style='font-size: 18.00px; font-weight: bold; font-family: "Arial";' textLength='76.02px' lengthAdjust='spacingAndGlyphs'>Software</text>
<text transform='translate(18.93,314.68) rotate(-90)' text-anchor='middle' style='font-size: 18.00px; font-weight: bold; font-family: "Arial";' textLength='48.02px' lengthAdjust='spacingAndGlyphs'>Value</text>
<rect x='218.98' y='25.46' width='332.65' height='29.24' style='stroke-width: 1.16; stroke: none; fill: #FFFFFF;' />
<text x='224.95' y='40.44' style='font-size: 0.00px; font-family: "Arial";' textLength='3.77px' lengthAdjust='spacingAndGlyphs'>software</text>
<rect x='228.73' y='31.44' width='17.28' height='17.28' style='stroke-width: 1.16; stroke: none; fill: #F2F2F2;' />
<rect x='229.44' y='32.15' width='15.86' height='15.86' style='stroke-width: 1.07; stroke: none; stroke-linecap: butt; stroke-linejoin: miter; fill: #00FF93;' />
<rect x='299.04' y='31.44' width='17.28' height='17.28' style='stroke-width: 1.16; stroke: none; fill: #F2F2F2;' />
<rect x='299.74' y='32.15' width='15.86' height='15.86' style='stroke-width: 1.07; stroke: none; stroke-linecap: butt; stroke-linejoin: miter; fill: #FFC300;' />
<rect x='401.33' y='31.44' width='17.28' height='17.28' style='stroke-width: 1.16; stroke: none; fill: #F2F2F2;' />
<rect x='402.04' y='32.15' width='15.86' height='15.86' style='stroke-width: 1.07; stroke: none; stroke-linecap: butt; stroke-linejoin: miter; fill: #F11212;' />
<text x='246.01' y='46.53' style='font-size: 18.00px; font-family: "Arial";' textLength='53.03px' lengthAdjust='spacingAndGlyphs'>gplas2</text>
<text x='316.32' y='46.53' style='font-size: 18.00px; font-family: "Arial";' textLength='85.02px' lengthAdjust='spacingAndGlyphs'>MOB-suite</text>
<text x='418.61' y='46.53' style='font-size: 18.00px; font-family: "Arial";' textLength='127.04px' lengthAdjust='spacingAndGlyphs'>plasmidSPAdes</text>
<text x='56.58' y='16.30' style='font-size: 14.40px; font-family: "Arial";' textLength='131.15px' lengthAdjust='spacingAndGlyphs'>S. enterica    metrics</text>
</g>
</svg>
