GCF_000018445.1_ASM1844v1,NC_010605.1
GCF_000018445.1_ASM1844v1,NC_010606.1
GCF_000021245.2_ASM2124v2,NC_011585.2
GCF_000069245.1_ASM6924v1,NC_010401.1
GCF_000069245.1_ASM6924v1,NC_010402.1
GCF_000069245.1_ASM6924v1,NC_010404.1
GCF_000069245.1_ASM6924v1,NC_010403.1
GCF_000186665.3_ASM18666v4,NC_020525.1
GCF_000187205.2_ASM18720v4,NC_017848.1
GCF_000187205.2_ASM18720v4,NC_020524.1
GCF_000188215.1_ASM18821v1,NC_017163.1
GCF_000188215.1_ASM18821v1,NC_017164.1
GCF_000419385.1_ASM41938v1,NC_021727.1
GCF_000419385.1_ASM41938v1,NC_021728.1
GCF_000419405.1_ASM41940v1,NC_021734.1
GCF_000419425.1_ASM41942v1,NC_021730.1
GCF_000419425.1_ASM41942v1,NC_021731.1
GCF_000419425.1_ASM41942v1,NC_021732.1
GCF_000505685.1_ASM50568v2,NC_019985.2
GCF_000505685.1_ASM50568v2,NC_023031.1
GCF_000695855.3_ASM69585v3,NZ_CP008850.1
GCF_000695855.3_ASM69585v3,NZ_CP008851.1
GCF_000786735.1_ASM78673v1,NZ_CP007713.1
GCF_000786735.1_ASM78673v1,NZ_CP007714.1
GCF_000814345.1_ASM81434v1,NZ_CP010398.1
GCF_000814345.1_ASM81434v1,NZ_CP010399.1
GCF_000814345.1_ASM81434v1,NZ_CP010400.1
GCF_000828935.1_ASM82893v1,NZ_AP014650.1
GCF_000830055.1_ASM83005v1,NZ_CP010782.1
GCF_000939415.2_HGAP_assembly_of_Acinetobacter_baumannii_ORAB01,NZ_CP015484.1
GCF_000939415.2_HGAP_assembly_of_Acinetobacter_baumannii_ORAB01,NZ_CP015485.1
GCF_000939415.2_HGAP_assembly_of_Acinetobacter_baumannii_ORAB01,NZ_CP015486.1
GCF_000963815.1_ASM96381v1,NZ_CP008707.1
GCF_000963815.1_ASM96381v1,NZ_CP008708.1
GCF_000963815.1_ASM96381v1,NZ_CP008709.1
GCF_001026965.1_ASM102696v1,NZ_CP010780.1
GCF_001077655.1_ASM107765v1,NZ_CP012007.1
GCF_001077655.1_ASM107765v1,NZ_CP012008.1
GCF_001077675.1_ASM107767v1,NZ_CP012005.1
GCF_001077965.2_ASM107796v2,NZ_CP021348.1
GCF_001399655.1_ASM139965v1,NZ_CP012953.1
GCF_001399655.1_ASM139965v1,NZ_CP012955.1
GCF_001399655.1_ASM139965v1,NZ_CP012956.1
GCF_001399655.1_ASM139965v1,NZ_CP012954.1
GCF_001457535.1_CIP70.10,NZ_LN865144.1
GCF_001514375.1_ASM151437v1,NZ_CP013925.1
GCF_001517645.1_R2091,NZ_LN997847.1
GCF_001543995.1_ASM154399v1,NZ_CP014216.1
GCF_001543995.1_ASM154399v1,NZ_CP014217.1
GCF_001636235.1_ASM163623v1,NZ_CP015365.1
GCF_001636235.1_ASM163623v1,NZ_CP015366.1
GCF_001668465.2_ASM166846v2,NZ_CP035050.1
GCF_001669145.2_ASM166914v2,NZ_CP035048.1
GCF_001669145.2_ASM166914v2,NZ_CP035047.1
GCF_001669145.2_ASM166914v2,NZ_CP035046.1
GCF_001674475.2_ASM167447v2,NZ_CP035053.1
GCF_001674475.2_ASM167447v2,NZ_CP035052.1
GCF_001674505.2_ASM167450v2,NZ_CP035044.1
GCF_001806345.1_ASM180634v1,NZ_CP017643.1
GCF_001806365.1_ASM180636v1,NZ_CP017645.1
GCF_001806385.1_ASM180638v1,NZ_CP017647.1
GCF_001806405.1_ASM180640v1,NZ_CP017649.1
GCF_001806425.1_ASM180642v1,NZ_CP017651.1
GCF_001806445.1_ASM180644v1,NZ_CP017653.1
GCF_001806465.1_ASM180646v1,NZ_CP017655.1
GCF_001806485.1_ASM180648v1,NZ_CP017657.1
GCF_001887305.1_ASM188730v1,NZ_CP018144.1
GCF_001895125.2_ASM189512v2,NZ_AP023078.1
GCF_001895125.2_ASM189512v2,NZ_AP023079.1
GCF_001895125.2_ASM189512v2,NZ_AP023080.1
GCF_001895985.1_ASM189598v1,NZ_CP018257.1
GCF_001896005.1_ASM189600v1,NZ_CP018255.1
GCF_001902375.1_ASM190237v1,NZ_CP018422.1
GCF_001908295.1_ASM190829v1,NZ_CP018678.1
GCF_001908295.1_ASM190829v1,NZ_CP018679.1
GCF_001922205.1_ASM192220v1,NZ_CP016296.1
GCF_001922205.1_ASM192220v1,NZ_CP016297.1
GCF_001922225.1_ASM192222v1,NZ_CP016299.1
GCF_001922245.1_ASM192224v1,NZ_CP016301.1
GCF_001922245.1_ASM192224v1,NZ_CP016302.1
GCF_002082625.2_ASM208262v2,NZ_CP020582.1
GCF_002082645.1_ASM208264v1,NZ_CP020585.1
GCF_002082685.1_ASM208268v1,NZ_CP020589.1
GCF_002082705.1_ASM208270v1,NZ_CP020573.1
GCF_002082705.1_ASM208270v1,NZ_CP020575.1
GCF_002082725.1_ASM208272v1,NZ_CP020593.1
GCF_002082785.1_ASM208278v1,NZ_CP020596.1
GCF_002082825.1_ASM208282v1,NZ_CP020594.1
GCF_002082865.1_ASM208286v1,NZ_CP020577.1
GCF_002082865.1_ASM208286v1,NZ_CP020576.1
GCF_002082885.1_ASM208288v1,NZ_CP020580.1
GCF_002116925.1_ASM211692v1,NZ_CP015122.1
GCF_002210065.1_ASM221006v1,NZ_CP021783.1
GCF_002210065.1_ASM221006v1,NZ_CP021784.1
GCF_002210065.1_ASM221006v1,NZ_CP021785.1
GCF_002210065.1_ASM221006v1,NZ_CP021786.1
GCF_002210065.1_ASM221006v1,NZ_CP021787.1
GCF_002504145.1_ASM250414v1,NZ_CP018333.1
GCF_002504145.1_ASM250414v1,NZ_CP018334.1
GCF_002741415.1_ASM274141v1,NZ_CP024419.1
GCF_002753915.1_ASM275391v1,NZ_CP024577.1
GCF_002753915.1_ASM275391v1,NZ_CP024578.1
GCF_002761575.1_ASM276157v1,NZ_CP024125.1
GCF_002843665.1_ASM284366v1,NZ_CP025267.1
GCF_002902885.1_ASM290288v1,NZ_CP026128.1
GCF_002902885.1_ASM290288v1,NZ_CP026129.1
GCF_002902885.1_ASM290288v1,NZ_CP026127.1
GCF_002902885.1_ASM290288v1,NZ_CP026126.1
GCF_002947415.1_ASM294741v1,NZ_CP026705.1
GCF_002947415.1_ASM294741v1,NZ_CP026706.1
GCF_002947415.1_ASM294741v1,NZ_CP026708.1
GCF_002947845.1_ASM294784v1,NZ_CP026712.1
GCF_002950495.2_ASM295049v2,NZ_CP026748.1
GCF_002950495.2_ASM295049v2,NZ_CP026749.2
GCF_002996805.1_ASM299680v1,NZ_CP027529.1
GCF_002999195.2_ASM299919v2,NZ_CP027243.1
GCF_002999195.2_ASM299919v2,NZ_CP027244.1
GCF_002999195.2_ASM299919v2,NZ_CP027245.2
GCF_003006035.1_ASM300603v1,NZ_CP027531.1
GCF_003006035.1_ASM300603v1,NZ_CP027532.1
GCF_003010655.1_ASM301065v1,NZ_CP027608.1
GCF_003010655.1_ASM301065v1,NZ_CP027609.1
GCF_003010675.1_ASM301067v1,NZ_CP027610.1
GCF_003029495.1_ASM302949v1,NZ_CP027122.1
GCF_003029495.1_ASM302949v1,NZ_CP027121.1
GCF_003029495.1_ASM302949v1,NZ_CP027124.1
GCF_003181015.1_ASM318101v1,NZ_CP029570.1
GCF_003181015.1_ASM318101v1,NZ_CP029571.1
GCF_003181015.1_ASM318101v1,NZ_CP029573.1
GCF_003181015.1_ASM318101v1,NZ_CP029572.1
GCF_003264255.1_ASM326425v1,NZ_CP021322.1
GCF_003264275.1_ASM326427v1,NZ_CP021327.1
GCF_003264295.1_ASM326429v1,NZ_CP019218.1
GCF_003288775.1_ASM328877v1,NZ_CP030084.1
GCF_003296225.1_ASM329622v1,NZ_CP030108.1
GCF_003296225.1_ASM329622v1,NZ_CP030107.1
GCF_003296225.1_ASM329622v1,NZ_CP030109.1
GCF_003345235.1_ASM334523v1,NZ_CP026340.1
GCF_003345235.1_ASM334523v1,NZ_CP026339.1
GCF_003431385.1_ASM343138v1,NZ_CP022284.1
GCF_003431385.1_ASM343138v1,NZ_CP022285.1
GCF_003431865.1_ASM343186v1,NZ_CP027179.1
GCF_003431865.1_ASM343186v1,NZ_CP027180.1
GCF_003431865.1_ASM343186v1,NZ_CP027181.1
GCF_003431865.1_ASM343186v1,NZ_CP027182.1
GCF_003516005.1_ASM351600v1,NZ_CP023032.1
GCF_003516005.1_ASM351600v1,NZ_CP023033.1
GCF_003522665.1_ASM352266v1,NZ_CP023021.1
GCF_003522705.1_ASM352270v1,NZ_CP023023.1
GCF_003522705.1_ASM352270v1,NZ_CP023024.1
GCF_003522705.1_ASM352270v1,NZ_CP023025.1
GCF_003522785.1_ASM352278v1,NZ_CP023027.1
GCF_003522785.1_ASM352278v1,NZ_CP023028.1
GCF_003522845.1_ASM352284v1,NZ_CP023030.1
GCF_003522885.1_ASM352288v1,NZ_CP023035.1
GCF_003547115.1_ASM354711v1,NZ_CP027185.1
GCF_003547115.1_ASM354711v1,NZ_CP027184.1
GCF_003547115.1_ASM354711v1,NZ_CP027187.1
GCF_003547115.1_ASM354711v1,NZ_CP027186.1
GCF_003812065.1_ASM381206v1,NZ_CP033753.1
GCF_003812065.1_ASM381206v1,NZ_CP033752.1
GCF_003812065.1_ASM381206v1,NZ_CP033751.1
GCF_003812385.1_ASM381238v1,NZ_CP033769.1
GCF_003812385.1_ASM381238v1,NZ_CP033770.1
GCF_003812485.1_ASM381248v1,NZ_CP033872.1
GCF_003812485.1_ASM381248v1,NZ_CP033871.1
GCF_003812485.1_ASM381248v1,NZ_CP033870.1
GCF_003948085.2_ASM394808v2,NZ_CP039342.1
GCF_003948455.2_ASM394845v2,NZ_CP039519.1
GCF_003948535.2_ASM394853v2,NZ_CP039521.1
GCF_003949115.2_ASM394911v2,NZ_CP039344.1
GCF_003949595.2_ASM394959v2,NZ_CP039994.1
GCF_003949595.2_ASM394959v2,NZ_CP039995.1
GCF_003949725.2_ASM394972v2,NZ_CP039931.1
GCF_003949725.2_ASM394972v2,NZ_CP039932.1
GCF_003949725.2_ASM394972v2,NZ_CP039933.1
GCF_004028375.1_ASM402837v1,NZ_CP034093.1
GCF_004028375.1_ASM402837v1,NZ_CP034094.1
GCF_004028375.1_ASM402837v1,NZ_CP034095.1
GCF_004028375.1_ASM402837v1,NZ_CP034096.1
GCF_004028375.1_ASM402837v1,NZ_CP034097.1
GCF_004136355.1_ASM413635v1,NZ_CP031445.1
GCF_004136355.1_ASM413635v1,NZ_CP031446.1
GCF_004194555.1_ASM419455v1,NZ_CP028139.1
GCF_004564095.1_ASM456409v1,NZ_CP038265.1
GCF_004564095.1_ASM456409v1,NZ_CP038264.1
GCF_004564095.1_ASM456409v1,NZ_CP038263.1
GCF_004564115.1_ASM456411v1,NZ_CP038260.1
GCF_004564115.1_ASM456411v1,NZ_CP038261.1
GCF_004564115.1_ASM456411v1,NZ_CP038259.1
GCF_004758865.1_ASM475886v1,NZ_CP038501.1
GCF_004758865.1_ASM475886v1,NZ_CP038502.1
GCF_004758865.1_ASM475886v1,NZ_CP038503.1
GCF_004768705.1_ASM476870v1,NZ_CP038645.1
GCF_004768705.1_ASM476870v1,NZ_CP038646.1
GCF_004768705.1_ASM476870v1,NZ_CP038647.1
GCF_004768705.1_ASM476870v1,NZ_CP038648.1
GCF_004768705.1_ASM476870v1,NZ_CP038649.1
GCF_004768705.1_ASM476870v1,NZ_CP038650.1
GCF_004768705.1_ASM476870v1,NZ_CP038651.1
GCF_004768705.1_ASM476870v1,NZ_CP038652.1
GCF_004797155.2_ASM479715v2,NZ_CP039024.1
GCF_004797155.2_ASM479715v2,NZ_CP039026.1
GCF_005280375.1_ASM528037v1,NZ_CP040048.1
GCF_005280375.1_ASM528037v1,NZ_CP040049.1
GCF_005280435.1_ASM528043v1,NZ_CP040051.1
GCF_005280435.1_ASM528043v1,NZ_CP040052.1
GCF_005280675.1_ASM528067v1,NZ_CP040081.1
GCF_005280675.1_ASM528067v1,NZ_CP040082.1
GCF_005280675.1_ASM528067v1,NZ_CP040083.1
GCF_005280695.1_ASM528069v1,NZ_CP040085.1
GCF_005280695.1_ASM528069v1,NZ_CP040086.1
GCF_005280715.1_ASM528071v1,NZ_CP040088.1
GCF_005518095.1_ASM551809v1,NZ_CP040260.1
GCF_005518095.1_ASM551809v1,NZ_CP040261.1
GCF_005518095.1_ASM551809v1,NZ_CP040262.1
GCF_005519135.2_ASM551913v2,NZ_CP031381.2
GCF_005519135.2_ASM551913v2,NZ_CP031382.1
GCF_005671375.1_ASM567137v1,NZ_CP040426.1
GCF_005671375.1_ASM567137v1,NZ_CP040427.1
GCF_007107525.1_ASM710752v1,NZ_CP041588.1
GCF_007107525.1_ASM710752v1,NZ_CP041589.1
GCF_007107525.1_ASM710752v1,NZ_CP041590.1
GCF_007647215.1_ASM764721v1,NZ_CP019115.1
GCF_008033255.2_ASM803325v2,NZ_CP042842.1
GCF_008033255.2_ASM803325v2,NZ_CP067103.1
GCF_008632635.1_ASM863263v1,NZ_CP043954.1
GCF_008802935.1_ASM880293v1,NZ_CP044357.1
GCF_008802935.1_ASM880293v1,NZ_CP044358.1
GCF_008807055.1_ASM880705v1,NZ_CP032741.1
GCF_008807055.1_ASM880705v1,NZ_CP032742.1
GCF_008931365.1_ASM893136v1,NZ_CP042557.1
GCF_008931365.1_ASM893136v1,NZ_CP042558.1
GCF_008931365.1_ASM893136v1,NZ_CP042559.1
GCF_008931365.1_ASM893136v1,NZ_CP042560.1
GCF_008931365.1_ASM893136v1,NZ_CP042561.1
GCF_008931365.1_ASM893136v1,NZ_CP042562.1
GCF_008931365.1_ASM893136v1,NZ_CP042563.1
GCF_008931365.1_ASM893136v1,NZ_CP042564.1
GCF_008931365.1_ASM893136v1,NZ_CP042565.1
GCF_009035845.1_ASM903584v1,NZ_CP045108.1
GCF_009035845.1_ASM903584v1,NZ_CP045109.1
GCF_009497995.1_ASM949799v1,NZ_CP033244.1
GCF_009497995.1_ASM949799v1,NZ_CP033245.1
GCF_009740145.1_ASM974014v1,NZ_CP046537.1
GCF_009759685.1_ASM975968v1,NZ_CP046655.1
GCF_011067065.1_ASM1106706v1,NZ_CP049364.1
GCF_011067065.1_ASM1106706v1,NZ_CP049365.1
GCF_012272715.1_ASM1227271v1,NZ_CP050905.1
GCF_012272715.1_ASM1227271v1,NZ_CP050906.1
GCF_012272735.1_ASM1227273v1,NZ_CP050908.1
GCF_012272735.1_ASM1227273v1,NZ_CP050909.1
GCF_012272735.1_ASM1227273v1,NZ_CP050910.1
GCF_012272755.1_ASM1227275v1,NZ_CP050912.1
GCF_012272755.1_ASM1227275v1,NZ_CP050913.1
GCF_012272775.1_ASM1227277v1,NZ_CP050915.1
GCF_012272795.1_ASM1227279v1,NZ_CP050917.1
GCF_012272795.1_ASM1227279v1,NZ_CP050918.1
GCF_012931605.1_ASM1293160v1,NZ_CP051863.1
GCF_012931605.1_ASM1293160v1,NZ_CP051864.1
GCF_012931605.1_ASM1293160v1,NZ_CP051865.1
GCF_012931625.1_ASM1293162v1,NZ_CP051870.1
GCF_012931625.1_ASM1293162v1,NZ_CP051871.1
GCF_012931625.1_ASM1293162v1,NZ_CP051872.1
GCF_012931625.1_ASM1293162v1,NZ_CP051873.1
GCF_012931625.1_ASM1293162v1,NZ_CP051874.1
GCF_012931645.1_ASM1293164v1,NZ_CP051876.1
GCF_012931645.1_ASM1293164v1,NZ_CP051877.1
GCF_012931645.1_ASM1293164v1,NZ_CP051878.1
GCF_012931645.1_ASM1293164v1,NZ_CP051879.1
GCF_012931665.1_ASM1293166v1,NZ_CP051867.1
GCF_012931665.1_ASM1293166v1,NZ_CP051868.1
GCF_012934905.1_ASM1293490v1,NZ_CP050386.1
GCF_012934905.1_ASM1293490v1,NZ_CP050387.1
GCF_012934925.1_ASM1293492v1,NZ_CP050389.1
GCF_012934945.1_ASM1293494v1,NZ_CP050391.1
GCF_012934965.1_ASM1293496v1,NZ_CP050392.1
GCF_012934965.1_ASM1293496v1,NZ_CP050393.1
GCF_012934965.1_ASM1293496v1,NZ_CP050394.1
GCF_012934965.1_ASM1293496v1,NZ_CP050395.1
GCF_012934965.1_ASM1293496v1,NZ_CP050396.1
GCF_012934965.1_ASM1293496v1,NZ_CP050397.1
GCF_012934965.1_ASM1293496v1,NZ_CP050398.1
GCF_012934965.1_ASM1293496v1,NZ_CP050399.1
GCF_012934985.1_ASM1293498v1,NZ_CP050402.1
GCF_012935005.1_ASM1293500v1,NZ_CP050404.1
GCF_012935005.1_ASM1293500v1,NZ_CP050405.1
GCF_012935005.1_ASM1293500v1,NZ_CP050406.1
GCF_012935005.1_ASM1293500v1,NZ_CP050407.1
GCF_012935005.1_ASM1293500v1,NZ_CP050408.1
GCF_012935005.1_ASM1293500v1,NZ_CP050409.1
GCF_012935025.1_ASM1293502v1,NZ_CP050422.1
GCF_012935025.1_ASM1293502v1,NZ_CP050423.1
GCF_012935045.1_ASM1293504v1,NZ_CP050411.1
GCF_012935065.1_ASM1293506v1,NZ_CP050413.1
GCF_012935065.1_ASM1293506v1,NZ_CP050414.1
GCF_012935085.1_ASM1293508v1,NZ_CP050416.1
GCF_012935085.1_ASM1293508v1,NZ_CP050417.1
GCF_012935085.1_ASM1293508v1,NZ_CP050418.1
GCF_012935085.1_ASM1293508v1,NZ_CP050419.1
GCF_012935085.1_ASM1293508v1,NZ_CP050420.1
GCF_012935105.1_ASM1293510v1,NZ_CP050426.1
GCF_012935105.1_ASM1293510v1,NZ_CP050427.1
GCF_012935105.1_ASM1293510v1,NZ_CP050428.1
GCF_012935105.1_ASM1293510v1,NZ_CP050429.1
GCF_012935105.1_ASM1293510v1,NZ_CP050430.1
GCF_012935105.1_ASM1293510v1,NZ_CP050431.1
GCF_012935125.1_ASM1293512v1,NZ_CP050433.1
GCF_012935125.1_ASM1293512v1,NZ_CP050434.1
GCF_012935125.1_ASM1293512v1,NZ_CP050435.1
GCF_012935145.1_ASM1293514v1,NZ_CP050524.1
GCF_012935145.1_ASM1293514v1,NZ_CP050525.1
GCF_012935165.1_ASM1293516v1,NZ_CP050527.1
GCF_012935165.1_ASM1293516v1,NZ_CP050528.1
GCF_012935165.1_ASM1293516v1,NZ_CP050529.1
GCF_012935185.1_ASM1293518v1,NZ_CP051475.1
GCF_012935185.1_ASM1293518v1,NZ_CP051476.1
GCF_012935185.1_ASM1293518v1,NZ_CP051477.1
GCF_012974585.1_ASM1297458v1,NZ_CP048828.1
GCF_012974845.1_ASM1297484v1,NZ_CP041149.1
GCF_013372085.1_ASM1337208v1,NZ_CP053099.1
GCF_013372085.1_ASM1337208v1,NZ_CP053100.1
GCF_013376855.2_ASM1337685v2,NZ_CP056785.1
GCF_013377175.1_ASM1337717v1,NZ_CP046901.1
GCF_013377175.1_ASM1337717v1,NZ_CP046900.1
GCF_013377175.1_ASM1337717v1,NZ_CP046899.1
GCF_013394265.1_ASM1339426v1,NZ_CP044518.1
GCF_013394285.1_ASM1339428v1,NZ_CP044520.1
GCF_013394285.1_ASM1339428v1,NZ_CP044521.1
GCF_013416255.1_ASM1341625v1,NZ_CP053216.1
GCF_013416255.1_ASM1341625v1,NZ_CP053217.1
GCF_013416275.1_ASM1341627v1,NZ_CP053219.1
GCF_013416275.1_ASM1341627v1,NZ_CP053220.1
GCF_013416275.1_ASM1341627v1,NZ_CP053221.1
GCF_013787185.1_ASM1378718v1,NZ_CP059387.1
GCF_013787185.1_ASM1378718v1,NZ_CP059388.1
GCF_013787185.1_ASM1378718v1,NZ_CP059389.1
GCF_013787185.1_ASM1378718v1,NZ_CP059390.1
GCF_014169655.1_ASM1416965v1,NZ_AP022239.1
GCF_014169655.1_ASM1416965v1,NZ_AP022240.1
GCF_014171935.1_ASM1417193v1,NZ_CP059478.1
GCF_014322245.1_ASM1432224v1,NZ_CP047974.1
GCF_014322245.1_ASM1432224v1,NZ_CP047975.1
GCF_014322245.1_ASM1432224v1,NZ_CP047976.1
GCF_014672775.1_ASM1467277v1,NZ_CP059042.1
GCF_014705785.1_ASM1470578v1,NZ_CP061518.1
GCF_014705805.1_ASM1470580v1,NZ_CP061515.1
GCF_014705805.1_ASM1470580v1,NZ_CP061516.1
GCF_014705825.1_ASM1470582v1,NZ_CP061526.1
GCF_014705845.1_ASM1470584v1,NZ_CP061524.1
GCF_014705865.1_ASM1470586v1,NZ_CP061522.1
GCF_014705885.1_ASM1470588v1,NZ_CP061520.1
GCF_014874575.1_ASM1487457v1,NZ_CP059301.1
GCF_014874575.1_ASM1487457v1,NZ_CP059303.1
GCF_014874575.1_ASM1487457v1,NZ_CP059304.1
GCF_014874575.1_ASM1487457v1,NZ_CP059302.1
GCF_015571935.1_ASM1557193v1,NZ_CP062922.1
GCF_015571935.1_ASM1557193v1,NZ_CP062923.1
GCF_015571935.1_ASM1557193v1,NZ_CP062920.1
GCF_015571935.1_ASM1557193v1,NZ_CP062921.1
GCF_015870765.1_ASM1587076v1,NZ_CP060012.1
GCF_015870965.1_ASM1587096v1,NZ_CP060014.1
GCF_015910475.1_ASM1591047v1,NZ_CP065433.1
GCF_015910475.1_ASM1591047v1,NZ_CP065434.1
GCF_016127515.1_ASM1612751v1,NZ_CP066017.1
GCF_016350005.1_ASM1635000v1,NZ_CP066230.1
GCF_016350005.1_ASM1635000v1,NZ_CP066231.1
GCF_016350065.1_ASM1635006v1,NZ_CP066233.1
GCF_016350065.1_ASM1635006v1,NZ_CP066234.1
GCF_016350085.1_ASM1635008v1,NZ_CP066238.1
GCF_016350085.1_ASM1635008v1,NZ_CP066239.1
GCF_016350085.1_ASM1635008v1,NZ_CP066240.1
GCF_016350105.1_ASM1635010v1,NZ_CP066236.1
GCF_016864315.2_ASM1686431v2,NZ_CP092030.1
GCF_016864335.2_ASM1686433v2,NZ_CP092029.1
GCF_016864915.1_ASM1686491v1,NZ_CP059731.1
GCF_016864915.1_ASM1686491v1,NZ_CP059730.1
GCF_016903135.1_ASM1690313v1,NZ_CP069841.1
GCF_016903135.1_ASM1690313v1,NZ_CP069842.1
GCF_016903215.1_ASM1690321v1,NZ_CP069852.1
GCF_016919505.2_ASM1691950v2,NZ_CP070363.1
GCF_016919505.2_ASM1691950v2,NZ_CP070364.1
GCF_016919505.2_ASM1691950v2,NZ_CP070365.1
GCF_016919525.1_ASM1691952v2,NZ_CP070359.1
GCF_016919525.1_ASM1691952v2,NZ_CP070360.1
GCF_016919525.1_ASM1691952v2,NZ_CP070361.1
GCF_017096325.2_ASM1709632v2,NZ_CP082219.1
GCF_017096345.2_ASM1709634v2,NZ_CP082222.1
GCF_017096365.2_ASM1709636v2,NZ_CP082221.1
GCF_017096385.2_ASM1709638v2,NZ_CP082891.1
GCF_017096385.2_ASM1709638v2,NZ_CP082892.1
GCF_017096385.2_ASM1709638v2,NZ_CP082893.1
GCF_017096405.2_ASM1709640v2,NZ_CP082220.1
GCF_017096425.2_ASM1709642v2,NZ_CP082888.1
GCF_017096425.2_ASM1709642v2,NZ_CP082889.1
GCF_017096425.2_ASM1709642v2,NZ_CP082890.1
GCF_017098185.2_ASM1709818v2,NZ_CP082226.1
GCF_017098205.2_ASM1709820v2,NZ_CP082225.1
GCF_017098225.2_ASM1709822v2,NZ_CP082894.1
GCF_017098225.2_ASM1709822v2,NZ_CP082895.1
GCF_017098245.2_ASM1709824v2,NZ_CP082228.1
GCF_017639875.1_ASM1763987v1,NZ_CP072123.1
GCF_017639875.1_ASM1763987v1,NZ_CP072124.1
GCF_017639875.1_ASM1763987v1,NZ_CP072125.1
GCF_017639875.1_ASM1763987v1,NZ_CP072126.1
GCF_017723975.1_ASM1772397v1,NZ_CP072271.1
GCF_017723975.1_ASM1772397v1,NZ_CP072272.1
GCF_017723975.1_ASM1772397v1,NZ_CP072273.1
GCF_017723975.1_ASM1772397v1,NZ_CP072274.1
GCF_017724115.1_ASM1772411v1,NZ_CP072276.1
GCF_017724115.1_ASM1772411v1,NZ_CP072277.1
GCF_017724115.1_ASM1772411v1,NZ_CP072278.1
GCF_017724115.1_ASM1772411v1,NZ_CP072279.1
GCF_017724155.1_ASM1772415v1,NZ_CP072281.1
GCF_017724155.1_ASM1772415v1,NZ_CP072282.1
GCF_017724155.1_ASM1772415v1,NZ_CP072283.1
GCF_017724155.1_ASM1772415v1,NZ_CP072284.1
GCF_017724195.1_ASM1772419v1,NZ_CP072286.1
GCF_017724195.1_ASM1772419v1,NZ_CP072287.1
GCF_017724195.1_ASM1772419v1,NZ_CP072288.1
GCF_017724195.1_ASM1772419v1,NZ_CP072289.1
GCF_017724215.1_ASM1772421v1,NZ_CP072291.1
GCF_017724215.1_ASM1772421v1,NZ_CP072292.1
GCF_017724215.1_ASM1772421v1,NZ_CP072293.1
GCF_017724215.1_ASM1772421v1,NZ_CP072294.1
GCF_017726495.1_ASM1772649v1,NZ_CP072296.1
GCF_017726495.1_ASM1772649v1,NZ_CP072297.1
GCF_017726495.1_ASM1772649v1,NZ_CP072298.1
GCF_017726495.1_ASM1772649v1,NZ_CP072299.1
GCF_017726555.1_ASM1772655v1,NZ_CP072301.1
GCF_017726555.1_ASM1772655v1,NZ_CP072302.1
GCF_017726555.1_ASM1772655v1,NZ_CP072303.1
GCF_017726555.1_ASM1772655v1,NZ_CP072304.1
GCF_017726575.1_ASM1772657v1,NZ_CP072306.1
GCF_017726575.1_ASM1772657v1,NZ_CP072307.1
GCF_017742855.1_ASM1774285v1,NZ_CP072399.1
GCF_017742855.1_ASM1774285v1,NZ_CP072400.1
GCF_017742855.1_ASM1774285v1,NZ_CP072401.1
GCF_017742855.1_ASM1774285v1,NZ_CP072402.1
GCF_017753625.1_ASM1775362v1,NZ_CP072527.1
GCF_017753625.1_ASM1775362v1,NZ_CP072528.1
GCF_017753625.1_ASM1775362v1,NZ_CP072529.1
GCF_018135585.1_ASM1813558v1,NZ_CP073061.1
GCF_018454385.1_ASM1845438v1,NZ_CP075322.1
GCF_018604365.1_ASM1860436v1,NZ_CP071764.1
GCF_018604365.1_ASM1860436v1,NZ_CP071765.1
GCF_018808925.1_ASM1880892v1,NZ_CP048851.1
GCF_018808925.1_ASM1880892v1,NZ_CP048850.1
GCF_018831125.1_ASM1883112v1,NZ_CP048132.1
GCF_018831125.1_ASM1883112v1,NZ_CP048133.1
GCF_018831125.1_ASM1883112v1,NZ_CP048134.1
GCF_018831125.1_ASM1883112v1,NZ_CP048135.1
GCF_018831485.1_ASM1883148v1,NZ_CP049315.1
GCF_019076685.1_ASM1907668v1,NZ_CP060995.1
GCF_019076685.1_ASM1907668v1,NZ_CP060996.1
GCF_019331655.1_ASM1933165v1,NZ_CP058291.1
GCF_019331655.1_ASM1933165v1,NZ_CP058290.1
GCF_019356215.1_ASM1935621v1,NZ_CP079933.1
GCF_019356215.1_ASM1935621v1,NZ_CP079934.1
GCF_019356215.1_ASM1935621v1,NZ_CP079932.1
GCF_019457715.1_ASM1945771v1,NZ_CP077802.1
GCF_019458485.1_ASM1945848v1,NZ_CP080453.1
GCF_019458485.1_ASM1945848v1,NZ_CP080454.1
GCF_019458485.1_ASM1945848v1,NZ_CP080455.1
GCF_019458485.1_ASM1945848v1,NZ_CP080456.1
GCF_019703285.1_ASM1970328v1,NZ_AP024803.1
GCF_019703285.1_ASM1970328v1,NZ_AP024812.1
GCF_019703285.1_ASM1970328v1,NZ_AP024813.1
GCF_019703285.1_ASM1970328v1,NZ_AP024804.1
GCF_019703285.1_ASM1970328v1,NZ_AP024805.1
GCF_019703285.1_ASM1970328v1,NZ_AP024806.1
GCF_019703285.1_ASM1970328v1,NZ_AP024807.1
GCF_019703285.1_ASM1970328v1,NZ_AP024808.1
GCF_019703285.1_ASM1970328v1,NZ_AP024809.1
GCF_019703285.1_ASM1970328v1,NZ_AP024810.1
GCF_019703285.1_ASM1970328v1,NZ_AP024811.1
GCF_019903155.1_ASM1990315v1,NZ_CP059545.1
GCF_019903155.1_ASM1990315v1,NZ_CP059544.1
GCF_019903155.1_ASM1990315v1,NZ_CP059543.1
GCF_019903235.1_ASM1990323v1,NZ_CP061713.1
GCF_019903235.1_ASM1990323v1,NZ_CP061712.1
GCF_019903235.1_ASM1990323v1,NZ_CP061711.1
GCF_019903235.1_ASM1990323v1,NZ_CP061710.1
GCF_019903235.1_ASM1990323v1,NZ_CP061709.1
GCF_019903235.1_ASM1990323v1,NZ_CP061708.1
GCF_019903235.1_ASM1990323v1,NZ_CP061707.1
GCF_019903235.1_ASM1990323v1,NZ_CP061706.1
GCF_019997865.1_ASM1999786v1,NZ_CP083182.1
GCF_020132105.1_ASM2013210v1,NZ_CP082953.1
GCF_020271605.1_ASM2027160v1,NZ_CP084299.1
GCF_020271605.1_ASM2027160v1,NZ_CP084298.1
GCF_020520325.1_ASM2052032v1,NZ_CP084734.1
GCF_020520325.1_ASM2052032v1,NZ_CP084735.1
GCF_020520345.1_ASM2052034v1,NZ_CP084731.1
GCF_020520345.1_ASM2052034v1,NZ_CP084732.1
GCF_020520365.1_ASM2052036v1,NZ_CP084728.1
GCF_020520365.1_ASM2052036v1,NZ_CP084729.1
GCF_020520385.1_ASM2052038v1,NZ_CP084725.1
GCF_020520385.1_ASM2052038v1,NZ_CP084726.1
GCF_020520405.1_ASM2052040v1,NZ_CP084722.1
GCF_020520405.1_ASM2052040v1,NZ_CP084723.1
GCF_020810655.1_ASM2081065v1,NZ_CP085789.1
GCF_020810655.1_ASM2081065v1,NZ_CP085790.1
GCF_020911985.1_ASM2091198v1,NZ_CP074586.1
GCF_020912005.1_ASM2091200v1,NZ_CP074709.1
GCF_020912005.1_ASM2091200v1,NZ_CP074708.1
GCF_020912005.1_ASM2091200v1,NZ_CP074707.1
GCF_020912005.1_ASM2091200v1,NZ_CP074712.1
GCF_020912005.1_ASM2091200v1,NZ_CP074711.1
GCF_020985285.1_ASM2098528v1,NZ_CP087595.1
GCF_020985285.1_ASM2098528v1,NZ_CP087596.1
GCF_021398135.1_ASM2139813v1,NZ_CP090183.1
GCF_021559695.1_ASM2155969v1,NZ_CP054417.1
GCF_021725415.1_ASM2172541v1,NZ_CP091329.1
GCF_021729465.1_ASM2172946v1,NZ_CP054561.1
GCF_021764725.1_ASM2176472v1,NZ_CP091466.1
GCF_021899715.1_ASM2189971v1,NZ_CP091598.1
GCF_021899715.1_ASM2189971v1,NZ_CP091595.1
GCF_021899715.1_ASM2189971v1,NZ_CP091597.1
GCF_022369275.1_ASM2236927v1,NZ_CP058730.1
GCF_022369275.1_ASM2236927v1,NZ_CP058731.1
GCF_022369355.1_ASM2236935v1,NZ_CP059475.1
GCF_022369355.1_ASM2236935v1,NZ_CP059476.1
GCF_022429585.1_ASM2242958v1,NZ_CP092486.1
GCF_022759565.1_ASM2275956v1,NZ_CP094284.1
GCF_022759565.1_ASM2275956v1,NZ_CP094285.1
GCF_022759565.1_ASM2275956v1,NZ_CP094286.1
GCF_022759565.1_ASM2275956v1,NZ_CP094287.1
GCF_022811905.1_ASM2281190v1,NZ_CP065052.1
GCF_022921035.1_ASM2292103v1,NZ_CP095092.1
GCF_900088705.1_26872B01,NZ_LT594096.1
GCF_900093475.1_36734_D01_2,NZ_LT605060.1
