GCF_013735155.1_ASM1373515v1,S69_LN_i_1442_dp_f_78.52060673364876,1442,
GCF_016904415.1_ASM1690441v1,S56_LN_i_5590_dp_f_11.624017383784116,5590,
GCF_016904415.1_ASM1690441v1,S80_LN_i_1327_dp_f_12.402411390557461,1327,
GCF_020526065.1_ASM2052606v1,S17_LN_i_56540_dp_f_0.7493553354544155,56540,
GCF_020526065.1_ASM2052606v1,S19_LN_i_37917_dp_f_0.7572093840324032,37917,
GCF_020526065.1_ASM2052606v1,S21_LN_i_29236_dp_f_0.8481172926850785,29236,
GCF_020526065.1_ASM2052606v1,S23_LN_i_22755_dp_f_0.7609185874503693,22755,
GCF_020526065.1_ASM2052606v1,S26_LN_i_19271_dp_f_0.8114437043421844,19271,
GCF_020526065.1_ASM2052606v1,S27_LN_i_14819_dp_f_0.8847330026276606,14819,
GCF_020526065.1_ASM2052606v1,S28_LN_i_10053_dp_f_0.7561682139154041,10053,
GCF_020526065.1_ASM2052606v1,S30_LN_i_9553_dp_f_0.8774948061085216,9553,
GCF_020526065.1_ASM2052606v1,S35_LN_i_2213_dp_f_0.7000856549993482,2213,
GCF_020526065.1_ASM2052606v1,S36_LN_i_2141_dp_f_0.7758937502186181,2141,
GCF_020526065.1_ASM2052606v1,S38_LN_i_2101_dp_f_0.5787777561164008,2101,
GCF_020526065.1_ASM2052606v1,S39_LN_i_2027_dp_f_0.8150090036835455,2027,
GCF_020526065.1_ASM2052606v1,S40_LN_i_2027_dp_f_1.0148397339366233,2027,
GCF_020526065.1_ASM2052606v1,S41_LN_i_2026_dp_f_0.6425999299529472,2026,
GCF_020526065.1_ASM2052606v1,S44_LN_i_1539_dp_f_0.720612019327851,1539,
GCF_020526065.1_ASM2052606v1,S45_LN_i_1536_dp_f_0.9303006481314795,1536,
GCF_015694065.1_ASM1569406v1,S76_LN_i_1559_dp_f_0.7275032574438759,1559,
GCF_015694065.1_ASM1569406v1,S45_LN_i_5061_dp_f_19.54854479177066,5061,
GCF_021057265.1_ASM2105726v1,S16_LN_i_145794_dp_f_1.1910673482414806,145794,
GCF_016903235.1_ASM1690323v1,S125_LN_i_1141_dp_f_26.61839558322641,1141,
GCF_016903235.1_ASM1690323v1,S115_LN_i_1647_dp_f_0.19196021804841384,1647,
GCF_016903235.1_ASM1690323v1,S112_LN_i_1718_dp_f_0.4471559394080159,1718,
GCF_016903235.1_ASM1690323v1,S129_LN_i_1091_dp_f_0.34881035204239375,1091,
GCF_016903235.1_ASM1690323v1,S133_LN_i_1056_dp_f_0.2748629507343621,1056,
GCF_016903235.1_ASM1690323v1,S68_LN_i_19622_dp_f_0.2836725174541538,19622,
GCF_016903235.1_ASM1690323v1,S83_LN_i_7512_dp_f_0.32010796572431466,7512,
GCF_016903235.1_ASM1690323v1,S96_LN_i_3681_dp_f_2.0742355888404047,3681,
GCF_904864595.1_INF333,S38_LN_i_7210_dp_f_1.7504000195971379,7210,
GCF_016903515.1_ASM1690351v1,S145_LN_i_11156_dp_f_0.5401874520422022,11156,
GCF_016903515.1_ASM1690351v1,S146_LN_i_11073_dp_f_0.5688686237046288,11073,
GCF_016903515.1_ASM1690351v1,S159_LN_i_10079_dp_f_0.7558229457394072,10079,
GCF_016903515.1_ASM1690351v1,S168_LN_i_8741_dp_f_0.9909308918854274,8741,
GCF_016903515.1_ASM1690351v1,S233_LN_i_3718_dp_f_0.8759419918977236,3718,
GCF_016903515.1_ASM1690351v1,S234_LN_i_3628_dp_f_0.8174913346170976,3628,
GCF_016903515.1_ASM1690351v1,S260_LN_i_2472_dp_f_0.8350642538616696,2472,
GCF_016903515.1_ASM1690351v1,S332_LN_i_1120_dp_f_1.0922357871620976,1120,
GCF_016903515.1_ASM1690351v1,S79_LN_i_21466_dp_f_0.5004544423212388,21466,
GCF_016903515.1_ASM1690351v1,S88_LN_i_18106_dp_f_0.9973143787130226,18106,
GCF_016903515.1_ASM1690351v1,S262_LN_i_2297_dp_f_3.629311767556441,2297,
GCF_016903475.1_ASM1690347v1,S103_LN_i_1018_dp_f_1.8361557832268027,1018,
GCF_003261955.3_ASM326195v3,S47_LN_i_17202_dp_f_4.071246454953598,17202,
GCF_003261955.3_ASM326195v3,S49_LN_i_16117_dp_f_4.005126011752884,16117,
GCF_003261955.3_ASM326195v3,S55_LN_i_9314_dp_f_3.7534861572864298,9314,
GCF_003261955.3_ASM326195v3,S71_LN_i_2890_dp_f_4.002979205124974,2890,
GCF_003261955.3_ASM326195v3,S77_LN_i_2234_dp_f_4.125282960275309,2234,
GCF_013704985.1_ASM1370498v1,S89_LN_i_1936_dp_f_12.718926344612166,1936,
GCF_020080145.1_ASM2008014v1,S74_LN_i_1114_dp_f_1.0092118444929634,1114,
GCF_904863295.1_KSB2_2B,S19_LN_i_28142_dp_f_2.9926186985469014,28142,
GCF_904863295.1_KSB2_2B,S45_LN_i_1916_dp_f_15.911590819487179,1916,
GCF_904866395.1_INF321,S110_LN_i_1448_dp_f_0.7905890771404831,1448,
GCF_904866395.1_INF321,S47_LN_i_23366_dp_f_0.8299180246250663,23366,
GCF_904866395.1_INF321,S50_LN_i_22034_dp_f_0.6280854558136889,22034,
GCF_904866395.1_INF321,S56_LN_i_16487_dp_f_0.8924146513576674,16487,
GCF_904866395.1_INF321,S57_LN_i_15230_dp_f_0.5814170517121892,15230,
GCF_904866395.1_INF321,S61_LN_i_12026_dp_f_0.6153979619727071,12026,
GCF_904866395.1_INF321,S63_LN_i_11774_dp_f_0.6392011783308594,11774,
GCF_904866395.1_INF321,S64_LN_i_11506_dp_f_0.8449242034554412,11506,
GCF_904866395.1_INF321,S77_LN_i_5192_dp_f_0.649397845809249,5192,
GCF_904866395.1_INF321,S88_LN_i_3076_dp_f_0.7916726494357704,3076,
GCF_020525985.1_ASM2052598v1,S163_LN_i_1240_dp_f_9.483314391895853,1240,
GCF_020525985.1_ASM2052598v1,S123_LN_i_3761_dp_f_0.2574723784185592,3761,
GCF_020525985.1_ASM2052598v1,S142_LN_i_2160_dp_f_0.33154204831111944,2160,
GCF_020525985.1_ASM2052598v1,S126_LN_i_3384_dp_f_0.30565674456426173,3384,
GCF_020525985.1_ASM2052598v1,S141_LN_i_2190_dp_f_0.30082098437480753,2190,
GCF_020525985.1_ASM2052598v1,S140_LN_i_2226_dp_f_1.4111803701495391,2226,
GCF_020525985.1_ASM2052598v1,S145_LN_i_1866_dp_f_1.6470037869185357,1866,
GCF_013724605.1_ASM1372460v1,S84_LN_i_1443_dp_f_11.176388405362186,1443,
GCF_021496545.1_ASM2149654v1,S38_LN_i_22115_dp_f_1.7307908662811315,22115,
GCF_021496545.1_ASM2149654v1,S48_LN_i_6221_dp_f_1.6426802187229241,6221,
GCF_021496545.1_ASM2149654v1,S49_LN_i_5341_dp_f_1.9377415527148811,5341,
GCF_021496545.1_ASM2149654v1,S51_LN_i_4222_dp_f_1.818694719502537,4222,
GCF_021496545.1_ASM2149654v1,S53_LN_i_3970_dp_f_1.9655109588927164,3970,
GCF_021496545.1_ASM2149654v1,S56_LN_i_3530_dp_f_1.7445511601226937,3530,
GCF_021496545.1_ASM2149654v1,S60_LN_i_2892_dp_f_1.9084241819847907,2892,
GCF_021496545.1_ASM2149654v1,S62_LN_i_2505_dp_f_1.867400828507923,2505,
GCF_021496545.1_ASM2149654v1,S64_LN_i_2371_dp_f_1.7470847422009124,2371,
GCF_021496545.1_ASM2149654v1,S69_LN_i_1557_dp_f_1.8077853597902045,1557,
GCF_021496545.1_ASM2149654v1,S71_LN_i_1506_dp_f_2.000143273019938,1506,
GCF_021496545.1_ASM2149654v1,S26_LN_i_66330_dp_f_1.325248460155283,66330,
GCF_021496545.1_ASM2149654v1,S34_LN_i_25724_dp_f_1.3633329668594314,25724,
GCF_021496545.1_ASM2149654v1,S35_LN_i_23727_dp_f_1.362023838772554,23727,
GCF_021496545.1_ASM2149654v1,S41_LN_i_12748_dp_f_1.3878689243247966,12748,
GCF_021496545.1_ASM2149654v1,S44_LN_i_9519_dp_f_1.3357571325516817,9519,
GCF_021496545.1_ASM2149654v1,S46_LN_i_8347_dp_f_1.224253453779573,8347,
GCF_021496545.1_ASM2149654v1,S47_LN_i_6363_dp_f_1.3554742379686344,6363,
GCF_021496545.1_ASM2149654v1,S50_LN_i_4419_dp_f_1.1703216191634764,4419,
GCF_021496545.1_ASM2149654v1,S54_LN_i_3626_dp_f_1.116378117280668,3626,
GCF_021496545.1_ASM2149654v1,S57_LN_i_3405_dp_f_1.4093414753538804,3405,
GCF_021496545.1_ASM2149654v1,S58_LN_i_3289_dp_f_1.4281867000587958,3289,
GCF_021496545.1_ASM2149654v1,S63_LN_i_2399_dp_f_1.270966042322938,2399,
GCF_021496545.1_ASM2149654v1,S65_LN_i_2190_dp_f_1.2974734462020259,2190,
GCF_021496545.1_ASM2149654v1,S68_LN_i_1880_dp_f_1.3552169996966257,1880,
GCF_021496545.1_ASM2149654v1,S70_LN_i_1548_dp_f_1.0641785714173913,1548,
GCF_021496545.1_ASM2149654v1,S86_LN_i_1003_dp_f_1.0760818654962805,1003,
GCF_014189335.1_ASM1418933v1,S101_LN_i_1240_dp_f_1.0264988396669517,1240,
GCF_014189335.1_ASM1418933v1,S108_LN_i_1129_dp_f_1.3213293186380055,1129,
GCF_014189335.1_ASM1418933v1,S34_LN_i_30221_dp_f_1.1090716681071766,30221,
GCF_014189335.1_ASM1418933v1,S36_LN_i_28129_dp_f_1.1044015448556905,28129,
GCF_014189335.1_ASM1418933v1,S42_LN_i_23567_dp_f_0.7524304595824974,23567,
GCF_014189335.1_ASM1418933v1,S43_LN_i_22064_dp_f_1.1443332541263878,22064,
GCF_014189335.1_ASM1418933v1,S44_LN_i_18131_dp_f_1.1160437771667822,18131,
GCF_014189335.1_ASM1418933v1,S46_LN_i_16000_dp_f_1.1056683631410054,16000,
GCF_014189335.1_ASM1418933v1,S49_LN_i_12864_dp_f_1.1203319465182164,12864,
GCF_014189335.1_ASM1418933v1,S50_LN_i_12124_dp_f_0.7593466703477826,12124,
GCF_014189335.1_ASM1418933v1,S51_LN_i_11657_dp_f_1.152449831545333,11657,
GCF_014189335.1_ASM1418933v1,S52_LN_i_11531_dp_f_0.7638754031535915,11531,
GCF_014189335.1_ASM1418933v1,S53_LN_i_10988_dp_f_1.2046649150357376,10988,
GCF_014189335.1_ASM1418933v1,S54_LN_i_10936_dp_f_0.7344594254111955,10936,
GCF_014189335.1_ASM1418933v1,S57_LN_i_8760_dp_f_1.0900531285775672,8760,
GCF_014189335.1_ASM1418933v1,S59_LN_i_7986_dp_f_1.1484414812842585,7986,
GCF_014189335.1_ASM1418933v1,S60_LN_i_7404_dp_f_1.0934353830621932,7404,
GCF_014189335.1_ASM1418933v1,S62_LN_i_6658_dp_f_0.7917776725859756,6658,
GCF_014189335.1_ASM1418933v1,S65_LN_i_5115_dp_f_0.6795471896960987,5115,
GCF_014189335.1_ASM1418933v1,S67_LN_i_4268_dp_f_0.8053201443751403,4268,
GCF_014189335.1_ASM1418933v1,S70_LN_i_3987_dp_f_0.709011050605995,3987,
GCF_014189335.1_ASM1418933v1,S71_LN_i_3973_dp_f_1.286653918983046,3973,
GCF_014189335.1_ASM1418933v1,S72_LN_i_3900_dp_f_1.2026770843521362,3900,
GCF_014189335.1_ASM1418933v1,S73_LN_i_3685_dp_f_1.0487741636466996,3685,
GCF_014189335.1_ASM1418933v1,S77_LN_i_3137_dp_f_1.129435560476363,3137,
GCF_014189335.1_ASM1418933v1,S78_LN_i_2997_dp_f_0.8074145036449051,2997,
GCF_014189335.1_ASM1418933v1,S83_LN_i_2148_dp_f_1.3003115915099475,2148,
GCF_014189335.1_ASM1418933v1,S84_LN_i_2124_dp_f_1.189139608627638,2124,
GCF_014189335.1_ASM1418933v1,S85_LN_i_2032_dp_f_1.24638650369297,2032,
GCF_014189335.1_ASM1418933v1,S92_LN_i_1819_dp_f_1.2140592174525093,1819,
GCF_014189335.1_ASM1418933v1,S93_LN_i_1737_dp_f_0.7817546259020437,1737,
GCF_014189335.1_ASM1418933v1,S96_LN_i_1578_dp_f_0.778501829342087,1578,
GCF_014168575.1_ASM1416857v1,S57_LN_i_1557_dp_f_0.5451729727450917,1557,
GCF_904864515.1_KSB2_2C,S23_LN_i_24519_dp_f_3.605007728974086,24519,
GCF_016903295.1_ASM1690329v1,S49_LN_i_10081_dp_f_0.06678295202451992,10081,
GCF_016903295.1_ASM1690329v1,S100_LN_i_1363_dp_f_0.012762016885022692,1363,
GCF_016903295.1_ASM1690329v1,S105_LN_i_1204_dp_f_0.01139119353618426,1204,
GCF_016903295.1_ASM1690329v1,S108_LN_i_1149_dp_f_0.011862437051400786,1149,
GCF_016903295.1_ASM1690329v1,S113_LN_i_1097_dp_f_0.017248624685550336,1097,
GCF_016903295.1_ASM1690329v1,S114_LN_i_1090_dp_f_0.0124579882588142,1090,
GCF_016903295.1_ASM1690329v1,S116_LN_i_1046_dp_f_0.012966168232529636,1046,
GCF_016903295.1_ASM1690329v1,S117_LN_i_1042_dp_f_0.012227131116162837,1042,
GCF_016903295.1_ASM1690329v1,S121_LN_i_1027_dp_f_0.013172937124339654,1027,
GCF_016903295.1_ASM1690329v1,S122_LN_i_1012_dp_f_0.013131467010675291,1012,
GCF_016903295.1_ASM1690329v1,S34_LN_i_38810_dp_f_0.032394762511089054,38810,
GCF_016903295.1_ASM1690329v1,S42_LN_i_19798_dp_f_0.02995327800163053,19798,
GCF_016903295.1_ASM1690329v1,S48_LN_i_10160_dp_f_0.02909679355427947,10160,
GCF_016903295.1_ASM1690329v1,S51_LN_i_9445_dp_f_0.0525037130108549,9445,
GCF_016903295.1_ASM1690329v1,S56_LN_i_6178_dp_f_0.018454183472508507,6178,
GCF_016903295.1_ASM1690329v1,S60_LN_i_4382_dp_f_0.01159026376827936,4382,
GCF_016903295.1_ASM1690329v1,S64_LN_i_3857_dp_f_0.050042183697378735,3857,
GCF_016903295.1_ASM1690329v1,S68_LN_i_3247_dp_f_0.05400709017185153,3247,
GCF_016903295.1_ASM1690329v1,S75_LN_i_2513_dp_f_0.013008168698307692,2513,
GCF_016903295.1_ASM1690329v1,S77_LN_i_2341_dp_f_0.012560585730615016,2341,
GCF_016903295.1_ASM1690329v1,S78_LN_i_2328_dp_f_0.16592021395784343,2328,
GCF_016903295.1_ASM1690329v1,S81_LN_i_2089_dp_f_0.012568900283107129,2089,
GCF_016903295.1_ASM1690329v1,S82_LN_i_2024_dp_f_0.016059489705983983,2024,
GCF_016903295.1_ASM1690329v1,S85_LN_i_1820_dp_f_0.011107592020419355,1820,
GCF_016903295.1_ASM1690329v1,S86_LN_i_1689_dp_f_0.014655425255309806,1689,
GCF_016903295.1_ASM1690329v1,S87_LN_i_1553_dp_f_0.014892458433865803,1553,
GCF_016903295.1_ASM1690329v1,S89_LN_i_1551_dp_f_0.013189822851314375,1551,
GCF_016903295.1_ASM1690329v1,S90_LN_i_1547_dp_f_0.022209589681445867,1547,
GCF_016903295.1_ASM1690329v1,S91_LN_i_1539_dp_f_0.012013518971272893,1539,
GCF_016903295.1_ASM1690329v1,S92_LN_i_1522_dp_f_0.01132667876777324,1522,
GCF_016903295.1_ASM1690329v1,S98_LN_i_1372_dp_f_0.014125757466923397,1372,
GCF_016903295.1_ASM1690329v1,S99_LN_i_1368_dp_f_0.015218351253664662,1368,
GCF_016904295.1_ASM1690429v1,S29_LN_i_1916_dp_f_11.995953223677166,1916,
