GCF_020736345.1_ASM2073634v1,GCF_020736345.1_ASM2073634v1_bin_1,NZ_CP085986.1,S20_LN_i_78565_dp_f_0.9370109709936981,78565,1.0
GCF_020736345.1_ASM2073634v1,GCF_020736345.1_ASM2073634v1_bin_1,NZ_CP085987.1,S38_LN_i_6084_dp_f_2.8809308781530154,6084,1.0
GCF_020736345.1_ASM2073634v1,GCF_020736345.1_ASM2073634v1_bin_1,NZ_CP085987.1,S42_LN_i_4386_dp_f_1.6626022351269611,4386,1.0
GCF_020736345.1_ASM2073634v1,GCF_020736345.1_ASM2073634v1_bin_1,NZ_CP085987.1,S50_LN_i_1916_dp_f_0.7461667835216146,1916,1.0
GCF_016454305.1_ASM1645430v1,GCF_016454305.1_ASM1645430v1_bin_1,NZ_CP051369.1,S17_LN_i_95412_dp_f_1.086973239354029,95412,1.0
GCF_016454305.1_ASM1645430v1,GCF_016454305.1_ASM1645430v1_bin_1,NZ_CP051369.1,S23_LN_i_32953_dp_f_1.0261233408248964,32953,1.0
GCF_018340585.1_ASM1834058v1,GCF_018340585.1_ASM1834058v1_bin_2,NZ_CP073717.1,S20_LN_i_3904_dp_f_1.0456755240196507,3904,1.0
GCF_018340585.1_ASM1834058v1,GCF_018340585.1_ASM1834058v1_bin_1,NZ_CP073716.1,S17_LN_i_4712_dp_f_1.0075650286934654,4712,1.0
GCF_006461415.2_ASM646141v2,GCF_006461415.2_ASM646141v2_bin_1,NZ_CP050832.1,S13_LN_i_52696_dp_f_1.1763568706128957,52696,1.0
GCF_006461415.2_ASM646141v2,GCF_006461415.2_ASM646141v2_bin_1,NZ_CP050832.1,S14_LN_i_52081_dp_f_1.1648742422238278,52081,1.0
GCF_006461415.2_ASM646141v2,GCF_006461415.2_ASM646141v2_bin_1,NZ_CP050832.1,S18_LN_i_29985_dp_f_1.199251791163534,29985,1.0
GCF_006461415.2_ASM646141v2,GCF_006461415.2_ASM646141v2_bin_1,NZ_CP050832.1,S21_LN_i_4479_dp_f_1.171523886331314,4479,1.0
GCF_006461415.2_ASM646141v2,GCF_006461415.2_ASM646141v2_bin_1,NZ_CP050832.1,S24_LN_i_3977_dp_f_1.2232155580735244,3977,1.0
GCF_006461415.2_ASM646141v2,GCF_006461415.2_ASM646141v2_bin_1,NZ_CP050832.1,S26_LN_i_2134_dp_f_1.162200552318128,2134,1.0
GCF_006461415.2_ASM646141v2,GCF_006461415.2_ASM646141v2_bin_1,NZ_CP050832.1,S30_LN_i_1630_dp_f_1.1207778534716235,1630,1.0
GCF_019428465.1_ASM1942846v1,GCF_019428465.1_ASM1942846v1_bin_1,NZ_CP080092.1,S16_LN_i_56260_dp_f_0.9783585622231392,56260,1.0
GCF_019428465.1_ASM1942846v1,GCF_019428465.1_ASM1942846v1_bin_1,NZ_CP080092.1,S28_LN_i_1783_dp_f_0.90008600776618,1783,1.0
GCF_019428465.1_ASM1942846v1,GCF_019428465.1_ASM1942846v1_bin_2,NZ_CP080094.1,S19_LN_i_31572_dp_f_0.7892532920609148,31572,1.0
GCF_019428465.1_ASM1942846v1,GCF_019428465.1_ASM1942846v1_bin_2,NZ_CP080093.1,S20_LN_i_29501_dp_f_1.6395440390758984,29501,1.0
GCF_019428465.1_ASM1942846v1,GCF_019428465.1_ASM1942846v1_bin_2,NZ_CP080093.1,S22_LN_i_24806_dp_f_1.2012411907956895,24806,1.0
GCF_016454725.1_ASM1645472v1,GCF_016454725.1_ASM1645472v1_bin_8,NZ_CP051422.1,S35_LN_i_2096_dp_f_234.25898607559975,2096,1.0
GCF_016454725.1_ASM1645472v1,GCF_016454725.1_ASM1645472v1_bin_6,NZ_CP051419.1,S30_LN_i_3372_dp_f_27.19127931380458,3372,1.0
GCF_016454725.1_ASM1645472v1,GCF_016454725.1_ASM1645472v1_bin_7,NZ_CP051423.1,S33_LN_i_2444_dp_f_46.86649033208551,2444,1.0
GCF_016454725.1_ASM1645472v1,GCF_016454725.1_ASM1645472v1_bin_3,NZ_CP051426.1,S23_LN_i_9089_dp_f_0.6878680054303362,9089,1.0
GCF_016454725.1_ASM1645472v1,GCF_016454725.1_ASM1645472v1_bin_3,NZ_CP051426.1,S25_LN_i_5431_dp_f_0.6285288716885529,5431,1.0
GCF_016454725.1_ASM1645472v1,GCF_016454725.1_ASM1645472v1_bin_3,NZ_CP051426.1,S34_LN_i_2096_dp_f_0.7508051541289624,2096,1.0
GCF_016454725.1_ASM1645472v1,GCF_016454725.1_ASM1645472v1_bin_3,NZ_CP051426.1,S40_LN_i_1180_dp_f_0.6879386024942807,1180,1.0
GCF_016454725.1_ASM1645472v1,GCF_016454725.1_ASM1645472v1_bin_5,NZ_CP051420.1,S14_LN_i_83776_dp_f_0.7077617923983103,83776,1.0
GCF_016454725.1_ASM1645472v1,GCF_016454725.1_ASM1645472v1_bin_4,NZ_CP051421.1,S26_LN_i_5430_dp_f_14.267932124886293,5430,1.0
GCF_016454725.1_ASM1645472v1,GCF_016454725.1_ASM1645472v1_bin_2,NZ_CP051426.1,S29_LN_i_3977_dp_f_0.6151382571719732,3977,1.0
GCF_016454725.1_ASM1645472v1,GCF_016454725.1_ASM1645472v1_bin_2,NZ_CP051426.1,S32_LN_i_2722_dp_f_0.4993741925990359,2722,1.0
GCF_016454725.1_ASM1645472v1,GCF_016454725.1_ASM1645472v1_bin_2,NZ_CP051426.1,S37_LN_i_1464_dp_f_0.5843815410110319,1464,1.0
GCF_016454725.1_ASM1645472v1,GCF_016454725.1_ASM1645472v1_bin_1,NZ_CP051426.1,S10_LN_i_104490_dp_f_0.7502632052502889,104490,1.0
GCF_016454725.1_ASM1645472v1,GCF_016454725.1_ASM1645472v1_bin_1,NZ_CP051426.1,S20_LN_i_45936_dp_f_0.7896085439771077,45936,1.0
GCF_016454365.1_ASM1645436v1,GCF_016454365.1_ASM1645436v1_bin_2,NZ_CP051379.1,S24_LN_i_50007_dp_f_0.8479584413109,50007,1.0
GCF_016454365.1_ASM1645436v1,GCF_016454365.1_ASM1645436v1_bin_2,NZ_CP051379.1,S25_LN_i_45937_dp_f_0.7876073996614371,45937,1.0
GCF_016454365.1_ASM1645436v1,GCF_016454365.1_ASM1645436v1_bin_2,NZ_CP051379.1,S29_LN_i_27779_dp_f_0.7674488570116561,27779,1.0
GCF_016454365.1_ASM1645436v1,GCF_016454365.1_ASM1645436v1_bin_2,NZ_CP051379.1,S47_LN_i_1770_dp_f_0.7369069440268706,1770,1.0
GCF_016454365.1_ASM1645436v1,GCF_016454365.1_ASM1645436v1_bin_2,NZ_CP051379.1,S55_LN_i_1040_dp_f_0.7583673761855843,1040,1.0
GCF_016454365.1_ASM1645436v1,GCF_016454365.1_ASM1645436v1_bin_5,NZ_CP051378.1,S44_LN_i_3188_dp_f_391.25319004075925,3188,1.0
GCF_016454365.1_ASM1645436v1,GCF_016454365.1_ASM1645436v1_bin_4,NZ_CP051376.1,S42_LN_i_3830_dp_f_410.72261121276074,3830,1.0
GCF_016454365.1_ASM1645436v1,GCF_016454365.1_ASM1645436v1_bin_6,NZ_CP051378.1,S44_LN_i_3188_dp_f_391.25319004075925,3188,1.0
GCF_016454365.1_ASM1645436v1,GCF_016454365.1_ASM1645436v1_bin_3,NZ_CP051379.1,S35_LN_i_6166_dp_f_0.6416645091838803,6166,1.0
GCF_016454365.1_ASM1645436v1,GCF_016454365.1_ASM1645436v1_bin_3,NZ_CP051379.1,S37_LN_i_5674_dp_f_0.5625931874767867,5674,1.0
GCF_016454365.1_ASM1645436v1,GCF_016454365.1_ASM1645436v1_bin_3,NZ_CP051379.1,S40_LN_i_4386_dp_f_0.5569668843183436,4386,1.0
GCF_016454365.1_ASM1645436v1,GCF_016454365.1_ASM1645436v1_bin_3,NZ_CP051379.1,S43_LN_i_3232_dp_f_0.5918203633588015,3232,1.0
GCF_016454365.1_ASM1645436v1,GCF_016454365.1_ASM1645436v1_bin_3,NZ_CP051379.1,S45_LN_i_2973_dp_f_0.5186362256146932,2973,1.0
GCF_016454365.1_ASM1645436v1,GCF_016454365.1_ASM1645436v1_bin_1,NZ_CP051377.1,S14_LN_i_91960_dp_f_0.7828011030198017,91960,1.0
GCF_016454365.1_ASM1645436v1,GCF_016454365.1_ASM1645436v1_bin_1,NZ_CP051377.1,S48_LN_i_1740_dp_f_0.7859118315890236,1740,1.0
GCF_016454765.1_ASM1645476v1,GCF_016454765.1_ASM1645476v1_bin_1,NZ_CP053049.1,S14_LN_i_53514_dp_f_0.776041117571352,53514,1.0
GCF_016454765.1_ASM1645476v1,GCF_016454765.1_ASM1645476v1_bin_1,NZ_CP053049.1,S22_LN_i_9872_dp_f_0.660425827152377,9872,1.0
GCF_016454765.1_ASM1645476v1,GCF_016454765.1_ASM1645476v1_bin_1,NZ_CP053049.1,S24_LN_i_5702_dp_f_0.8072177660473085,5702,1.0
GCF_016454765.1_ASM1645476v1,GCF_016454765.1_ASM1645476v1_bin_1,NZ_CP053049.1,S34_LN_i_1771_dp_f_0.7881178638474323,1771,1.0
GCF_016454765.1_ASM1645476v1,GCF_016454765.1_ASM1645476v1_bin_1,NZ_CP053049.1,S8_LN_i_150040_dp_f_0.79661703427267,150040,1.0
GCF_016454765.1_ASM1645476v1,GCF_016454765.1_ASM1645476v1_bin_2,NZ_CP053050.1,S16_LN_i_40605_dp_f_0.37281630064817767,40605,1.0
GCF_016454765.1_ASM1645476v1,GCF_016454765.1_ASM1645476v1_bin_2,NZ_CP053050.1,S23_LN_i_5753_dp_f_0.41150441790006265,5753,0.97
GCF_016454765.1_ASM1645476v1,GCF_016454765.1_ASM1645476v1_bin_2,NZ_CP053050.1,S29_LN_i_3036_dp_f_0.374721229901702,3036,1.0
GCF_016454765.1_ASM1645476v1,GCF_016454765.1_ASM1645476v1_bin_2,NZ_CP053050.1,S36_LN_i_1522_dp_f_0.36368679771399737,1522,1.0
GCF_015241115.1_ASM1524111v1,GCF_015241115.1_ASM1524111v1_bin_2,NZ_CP063710.1,S17_LN_i_3272_dp_f_101.13230139761937,3272,0.94
GCF_015241115.1_ASM1524111v1,GCF_015241115.1_ASM1524111v1_bin_1,NZ_CP063709.1,S12_LN_i_56260_dp_f_0.9536995741860556,56260,1.0
GCF_015241115.1_ASM1524111v1,GCF_015241115.1_ASM1524111v1_bin_1,NZ_CP063709.1,S19_LN_i_1783_dp_f_0.8991922761308931,1783,1.0
GCF_003067925.2_ASM306792v2,GCF_003067925.2_ASM306792v2_bin_1,NZ_CP077700.1,S14_LN_i_83053_dp_f_0.36523064151583023,83053,1.0
GCF_003067925.2_ASM306792v2,GCF_003067925.2_ASM306792v2_bin_1,NZ_CP077700.1,S26_LN_i_20830_dp_f_0.3648331158364125,20830,1.0
GCF_003067925.2_ASM306792v2,GCF_003067925.2_ASM306792v2_bin_1,NZ_CP077700.1,S32_LN_i_7529_dp_f_0.3884855772946913,7529,1.0
GCF_003067925.2_ASM306792v2,GCF_003067925.2_ASM306792v2_bin_2,NZ_CP077701.1,S24_LN_i_26022_dp_f_1.755108334521127,26022,1.0
GCF_022936365.1_ASM2293636v1,GCF_022936365.1_ASM2293636v1_bin_4,NZ_CP092003.1,S21_LN_i_4018_dp_f_8.426032741743692,4018,1.0
GCF_022936365.1_ASM2293636v1,GCF_022936365.1_ASM2293636v1_bin_2,NZ_CP092001.1,S17_LN_i_5649_dp_f_6.344745338513099,5649,1.0
GCF_022936365.1_ASM2293636v1,GCF_022936365.1_ASM2293636v1_bin_3,NZ_CP092002.1,S19_LN_i_4820_dp_f_7.318621353720966,4820,1.0
GCF_022936365.1_ASM2293636v1,GCF_022936365.1_ASM2293636v1_bin_1,NZ_CP092000.1,S16_LN_i_18862_dp_f_0.652902609735612,18862,1.0
GCF_014250355.1_ASM1425035v1,GCF_014250355.1_ASM1425035v1_bin_1,NZ_CP060170.1,S42_LN_i_16917_dp_f_0.8642552280034478,16917,1.0
GCF_014250355.1_ASM1425035v1,GCF_014250355.1_ASM1425035v1_bin_1,NZ_CP060170.1,S53_LN_i_5795_dp_f_0.8304746321936308,5795,1.0
GCF_014250355.1_ASM1425035v1,GCF_014250355.1_ASM1425035v1_bin_1,NZ_CP060170.1,S63_LN_i_1740_dp_f_0.8028111813155584,1740,1.0
GCF_014250355.1_ASM1425035v1,GCF_014250355.1_ASM1425035v1_bin_2,NZ_CP060171.1,S61_LN_i_1975_dp_f_0.8525178070987319,1975,1.0
GCF_016454265.1_ASM1645426v1,GCF_016454265.1_ASM1645426v1_bin_1,NZ_CP051359.1,S13_LN_i_118646_dp_f_1.0474504421077915,118646,1.0
GCF_016454265.1_ASM1645426v1,GCF_016454265.1_ASM1645426v1_bin_1,NZ_CP051360.1,S18_LN_i_81076_dp_f_1.2965466596990627,81076,1.0
GCF_016454265.1_ASM1645426v1,GCF_016454265.1_ASM1645426v1_bin_1,NZ_CP051360.1,S20_LN_i_52704_dp_f_1.2822031164727474,52704,1.0
GCF_016454265.1_ASM1645426v1,GCF_016454265.1_ASM1645426v1_bin_1,NZ_CP051359.1,S23_LN_i_43411_dp_f_1.0468876940887877,43411,1.0
GCF_016454265.1_ASM1645426v1,GCF_016454265.1_ASM1645426v1_bin_1,NZ_CP051359.1,S24_LN_i_38559_dp_f_1.0758554960750186,38559,1.0
GCF_016454265.1_ASM1645426v1,GCF_016454265.1_ASM1645426v1_bin_1,NZ_CP051359.1,S27_LN_i_11087_dp_f_0.9232153216935841,11087,1.0
GCF_016454265.1_ASM1645426v1,GCF_016454265.1_ASM1645426v1_bin_1,NZ_CP051360.1,S30_LN_i_8103_dp_f_1.021113738768148,8103,1.0
GCF_016454265.1_ASM1645426v1,GCF_016454265.1_ASM1645426v1_bin_1,NZ_CP051359.1,S31_LN_i_7787_dp_f_1.2027789367178325,7787,1.0
GCF_016454265.1_ASM1645426v1,GCF_016454265.1_ASM1645426v1_bin_1,NZ_CP051360.1,S32_LN_i_6976_dp_f_0.9560132262071637,6976,1.0
GCF_016454265.1_ASM1645426v1,GCF_016454265.1_ASM1645426v1_bin_1,NZ_CP051360.1,S36_LN_i_4396_dp_f_0.8027431687725606,4396,1.0
GCF_016454265.1_ASM1645426v1,GCF_016454265.1_ASM1645426v1_bin_1,NZ_CP051360.1,S39_LN_i_2845_dp_f_1.2455134313402962,2845,1.0
GCF_016454265.1_ASM1645426v1,GCF_016454265.1_ASM1645426v1_bin_1,NZ_CP051359.1,S42_LN_i_1923_dp_f_1.3136371953830919,1923,1.0
GCF_016454265.1_ASM1645426v1,GCF_016454265.1_ASM1645426v1_bin_1,NZ_CP051360.1,S49_LN_i_1088_dp_f_1.2533978879531902,1088,1.0
GCF_016454265.1_ASM1645426v1,GCF_016454265.1_ASM1645426v1_bin_1,NZ_CP051360.1,S50_LN_i_1041_dp_f_1.053594072414536,1041,1.0
GCF_003067765.2_ASM306776v2,GCF_003067765.2_ASM306776v2_bin_1,NZ_CP077698.1,S20_LN_i_26030_dp_f_2.2423100144428902,26030,1.0
GCF_003067765.2_ASM306776v2,GCF_003067765.2_ASM306776v2_bin_Unbinned,NZ_CP077697.1,S14_LN_i_79678_dp_f_0.34500018427601664,79678,1.0
GCF_003067765.2_ASM306776v2,GCF_003067765.2_ASM306776v2_bin_Unbinned,NZ_CP077697.1,S26_LN_i_5327_dp_f_0.3913616799015594,5327,1.0
GCF_003067765.2_ASM306776v2,GCF_003067765.2_ASM306776v2_bin_Unbinned,NZ_CP077697.1,S29_LN_i_3119_dp_f_0.2607719941253682,3119,1.0
GCF_019670465.1_ASM1967046v1,GCF_019670465.1_ASM1967046v1_bin_1,NZ_AP023319.1,S38_LN_i_4386_dp_f_0.9175154487481217,4386,1.0
GCF_019670465.1_ASM1967046v1,GCF_019670465.1_ASM1967046v1_bin_1,NZ_AP023319.1,S48_LN_i_1916_dp_f_0.9742784731752292,1916,1.0
GCF_019670445.1_ASM1967044v1,GCF_019670445.1_ASM1967044v1_bin_1,NZ_AP023318.1,S13_LN_i_125412_dp_f_1.1456090674584676,125412,1.0
GCF_019670445.1_ASM1967044v1,GCF_019670445.1_ASM1967044v1_bin_1,NZ_AP023318.1,S35_LN_i_4809_dp_f_0.9471737825942474,4809,1.0
GCF_019670445.1_ASM1967044v1,GCF_019670445.1_ASM1967044v1_bin_1,NZ_AP023318.1,S39_LN_i_3612_dp_f_1.0521203384279216,3612,1.0
GCF_019670445.1_ASM1967044v1,GCF_019670445.1_ASM1967044v1_bin_1,NZ_AP023318.1,S49_LN_i_1835_dp_f_1.0873303258289166,1835,1.0
GCF_019670445.1_ASM1967044v1,GCF_019670445.1_ASM1967044v1_bin_1,NZ_AP023318.1,S58_LN_i_1040_dp_f_1.1862401652453938,1040,1.0
GCF_016451985.1_ASM1645198v1,GCF_016451985.1_ASM1645198v1_bin_2,NZ_CP051309.1,S24_LN_i_48530_dp_f_0.9089326548835754,48530,1.0
GCF_016451985.1_ASM1645198v1,GCF_016451985.1_ASM1645198v1_bin_1,NZ_CP051308.1,S15_LN_i_102246_dp_f_1.0967229629711521,102246,1.0
GCF_016451985.1_ASM1645198v1,GCF_016451985.1_ASM1645198v1_bin_1,NZ_CP051308.1,S26_LN_i_36118_dp_f_1.1389862091125331,36118,1.0
GCF_016451985.1_ASM1645198v1,GCF_016451985.1_ASM1645198v1_bin_1,NZ_CP051308.1,S33_LN_i_4125_dp_f_0.9874216495409635,4125,1.0
GCF_016451985.1_ASM1645198v1,GCF_016451985.1_ASM1645198v1_bin_1,NZ_CP051308.1,S34_LN_i_3977_dp_f_0.9442856745319747,3977,1.0
GCF_016451985.1_ASM1645198v1,GCF_016451985.1_ASM1645198v1_bin_1,NZ_CP051308.1,S37_LN_i_1630_dp_f_0.9584471782636889,1630,1.0
GCF_016451985.1_ASM1645198v1,GCF_016451985.1_ASM1645198v1_bin_1,NZ_CP051308.1,S41_LN_i_1042_dp_f_0.9536723724777186,1042,1.0
GCF_016452045.1_ASM1645204v1,GCF_016452045.1_ASM1645204v1_bin_2,NZ_CP051316.1,S18_LN_i_4125_dp_f_0.7384760369889256,4125,1.0
GCF_016452045.1_ASM1645204v1,GCF_016452045.1_ASM1645204v1_bin_2,NZ_CP051316.1,S19_LN_i_3977_dp_f_0.6868478506307726,3977,1.0
GCF_016452045.1_ASM1645204v1,GCF_016452045.1_ASM1645204v1_bin_2,NZ_CP051316.1,S21_LN_i_1630_dp_f_0.6299619654605361,1630,1.0
GCF_016452045.1_ASM1645204v1,GCF_016452045.1_ASM1645204v1_bin_1,NZ_CP051316.1,S11_LN_i_52675_dp_f_0.9258175737300341,52675,1.0
GCF_016452045.1_ASM1645204v1,GCF_016452045.1_ASM1645204v1_bin_1,NZ_CP051316.1,S22_LN_i_1042_dp_f_0.9801304365459838,1042,1.0
GCF_016452045.1_ASM1645204v1,GCF_016452045.1_ASM1645204v1_bin_1,NZ_CP051316.1,S8_LN_i_102246_dp_f_0.9073859812895844,102246,1.0
GCF_022655645.1_ASM2265564v1,GCF_022655645.1_ASM2265564v1_bin_1,NZ_CP093387.1,S13_LN_i_91755_dp_f_1.8839288741774878,91755,1.0
GCF_022655645.1_ASM2265564v1,GCF_022655645.1_ASM2265564v1_bin_1,NZ_CP093387.1,S40_LN_i_1740_dp_f_2.053291148063848,1740,1.0
GCF_022655645.1_ASM2265564v1,GCF_022655645.1_ASM2265564v1_bin_3,NZ_CP093389.1,S36_LN_i_3176_dp_f_18.241464561886893,3176,1.0
GCF_022655645.1_ASM2265564v1,GCF_022655645.1_ASM2265564v1_bin_2,NZ_CP093388.1,S34_LN_i_3910_dp_f_9.771440638062613,3910,1.0
GCF_019670285.1_ASM1967028v1,GCF_019670285.1_ASM1967028v1_bin_4,NZ_AP023300.1,S34_LN_i_6103_dp_f_0.9411558718496964,6103,1.0
GCF_019670285.1_ASM1967028v1,GCF_019670285.1_ASM1967028v1_bin_4,NZ_AP023300.1,S51_LN_i_1738_dp_f_1.0310685381487676,1738,1.0
GCF_019670285.1_ASM1967028v1,GCF_019670285.1_ASM1967028v1_bin_1,NZ_AP023301.1,S37_LN_i_5569_dp_f_2.5560801998468987,5569,1.0
GCF_019670285.1_ASM1967028v1,GCF_019670285.1_ASM1967028v1_bin_1,NZ_AP023301.1,S43_LN_i_2911_dp_f_2.699371905120215,2911,1.0
GCF_019670285.1_ASM1967028v1,GCF_019670285.1_ASM1967028v1_bin_3,NZ_AP023301.1,S20_LN_i_58670_dp_f_2.2297613819972533,58670,1.0
GCF_019670285.1_ASM1967028v1,GCF_019670285.1_ASM1967028v1_bin_3,NZ_AP023301.1,S29_LN_i_15410_dp_f_2.281654232116303,15410,1.0
GCF_019670285.1_ASM1967028v1,GCF_019670285.1_ASM1967028v1_bin_3,NZ_AP023301.1,S41_LN_i_3849_dp_f_2.2572751656453978,3849,1.0
GCF_019670285.1_ASM1967028v1,GCF_019670285.1_ASM1967028v1_bin_3,NZ_AP023301.1,S44_LN_i_2680_dp_f_2.156004160581012,2680,1.0
GCF_019670285.1_ASM1967028v1,GCF_019670285.1_ASM1967028v1_bin_2,NZ_AP023301.1,S30_LN_i_14127_dp_f_2.3678218572658523,14127,1.0
GCF_019670285.1_ASM1967028v1,GCF_019670285.1_ASM1967028v1_bin_2,NZ_AP023301.1,S39_LN_i_4670_dp_f_2.3347096450432723,4670,1.0
GCF_019670285.1_ASM1967028v1,GCF_019670285.1_ASM1967028v1_bin_2,NZ_AP023301.1,S49_LN_i_1984_dp_f_2.393203160371115,1984,1.0
GCF_019670285.1_ASM1967028v1,GCF_019670285.1_ASM1967028v1_bin_2,NZ_AP023301.1,S56_LN_i_1502_dp_f_2.4225605876675003,1502,1.0
GCF_019670285.1_ASM1967028v1,GCF_019670285.1_ASM1967028v1_bin_2,NZ_AP023301.1,S58_LN_i_1287_dp_f_2.425607782276463,1287,1.0
GCF_019670285.1_ASM1967028v1,GCF_019670285.1_ASM1967028v1_bin_2,NZ_AP023301.1,S61_LN_i_1191_dp_f_2.4715731566931254,1191,1.0
GCF_016454285.1_ASM1645428v1,GCF_016454285.1_ASM1645428v1_bin_1,NZ_CP051365.1,S33_LN_i_8688_dp_f_91.04887995569086,8688,1.0
GCF_020736325.1_ASM2073632v1,GCF_020736325.1_ASM2073632v1_bin_1,NZ_CP085982.1,S18_LN_i_89151_dp_f_1.0047986992054898,89151,1.0
GCF_020736325.1_ASM2073632v1,GCF_020736325.1_ASM2073632v1_bin_1,NZ_CP085982.1,S22_LN_i_67373_dp_f_0.8919167214444746,67373,1.0
GCF_020736325.1_ASM2073632v1,GCF_020736325.1_ASM2073632v1_bin_1,NZ_CP085982.1,S24_LN_i_58231_dp_f_1.242445597878225,58231,1.0
GCF_020736325.1_ASM2073632v1,GCF_020736325.1_ASM2073632v1_bin_1,NZ_CP085980.1,S31_LN_i_38422_dp_f_1.4690952580312806,38422,1.0
GCF_020736325.1_ASM2073632v1,GCF_020736325.1_ASM2073632v1_bin_1,NZ_CP085982.1,S34_LN_i_24307_dp_f_0.7870145588918595,24307,1.0
GCF_020736325.1_ASM2073632v1,GCF_020736325.1_ASM2073632v1_bin_1,NZ_CP085982.1,S35_LN_i_15211_dp_f_0.8617750573618899,15211,1.0
GCF_020736325.1_ASM2073632v1,GCF_020736325.1_ASM2073632v1_bin_1,NZ_CP085982.1,S38_LN_i_5952_dp_f_0.7990757389161038,5952,0.86
GCF_020736325.1_ASM2073632v1,GCF_020736325.1_ASM2073632v1_bin_1,NZ_CP085980.1,S40_LN_i_4687_dp_f_1.3017471231242226,4687,1.0
GCF_020736325.1_ASM2073632v1,GCF_020736325.1_ASM2073632v1_bin_1,NZ_CP085982.1,S49_LN_i_1225_dp_f_1.186359939724692,1225,1.0
GCF_019670225.1_ASM1967022v1,GCF_019670225.1_ASM1967022v1_bin_2,NZ_AP023293.1,S33_LN_i_5846_dp_f_0.6842613852440032,5846,1.0
GCF_019670225.1_ASM1967022v1,GCF_019670225.1_ASM1967022v1_bin_1,NZ_AP023292.1,S30_LN_i_12555_dp_f_0.912220533613169,12555,1.0
GCF_019670225.1_ASM1967022v1,GCF_019670225.1_ASM1967022v1_bin_1,NZ_AP023292.1,S35_LN_i_4737_dp_f_0.8606463862018878,4737,1.0
GCF_019670225.1_ASM1967022v1,GCF_019670225.1_ASM1967022v1_bin_1,NZ_AP023292.1,S40_LN_i_2639_dp_f_0.9562816495057602,2639,1.0
GCF_019670225.1_ASM1967022v1,GCF_019670225.1_ASM1967022v1_bin_1,NZ_AP023292.1,S46_LN_i_1916_dp_f_1.0143641934183325,1916,1.0
GCF_001834965.2_ASM183496v2,GCF_001834965.2_ASM183496v2_bin_1,NZ_CP075126.1,S14_LN_i_102094_dp_f_1.5515442724962076,102094,1.0
GCF_001834965.2_ASM183496v2,GCF_001834965.2_ASM183496v2_bin_1,NZ_CP075126.1,S25_LN_i_22282_dp_f_1.6933635671692608,22282,1.0
GCF_001834965.2_ASM183496v2,GCF_001834965.2_ASM183496v2_bin_1,NZ_CP075126.1,S32_LN_i_7529_dp_f_1.6740384952920508,7529,1.0
GCF_001834965.2_ASM183496v2,GCF_001834965.2_ASM183496v2_bin_2,NZ_CP075126.1,S24_LN_i_26022_dp_f_5.133464349266923,26022,0.01
GCF_022533545.1_ASM2253354v1,GCF_022533545.1_ASM2253354v1_bin_1,NZ_CP092862.1,S108_LN_i_1364_dp_f_1.579379205472018,1364,1.0
GCF_022533545.1_ASM2253354v1,GCF_022533545.1_ASM2253354v1_bin_1,NZ_CP092862.1,S33_LN_i_51030_dp_f_1.3387070977598794,51030,1.0
GCF_022533545.1_ASM2253354v1,GCF_022533545.1_ASM2253354v1_bin_1,NZ_CP092862.1,S40_LN_i_35695_dp_f_1.494545745580045,35695,1.0
GCF_022533545.1_ASM2253354v1,GCF_022533545.1_ASM2253354v1_bin_1,NZ_CP092862.1,S54_LN_i_19779_dp_f_1.604399488409253,19779,1.0
GCF_022533545.1_ASM2253354v1,GCF_022533545.1_ASM2253354v1_bin_1,NZ_CP092862.1,S57_LN_i_16240_dp_f_1.4671568943225597,16240,1.0
GCF_022533545.1_ASM2253354v1,GCF_022533545.1_ASM2253354v1_bin_1,NZ_CP092862.1,S58_LN_i_16036_dp_f_1.2000631166480245,16036,1.0
GCF_022533545.1_ASM2253354v1,GCF_022533545.1_ASM2253354v1_bin_1,NZ_CP092862.1,S60_LN_i_14290_dp_f_1.53763814900344,14290,1.0
GCF_022533545.1_ASM2253354v1,GCF_022533545.1_ASM2253354v1_bin_1,NZ_CP092862.1,S64_LN_i_11867_dp_f_1.581352999700033,11867,1.0
GCF_022533545.1_ASM2253354v1,GCF_022533545.1_ASM2253354v1_bin_1,NZ_CP092862.1,S66_LN_i_9029_dp_f_1.393959931990185,9029,1.0
GCF_022533545.1_ASM2253354v1,GCF_022533545.1_ASM2253354v1_bin_1,NZ_CP092862.1,S70_LN_i_8327_dp_f_1.1037356596698282,8327,1.0
GCF_022533545.1_ASM2253354v1,GCF_022533545.1_ASM2253354v1_bin_1,NZ_CP092862.1,S74_LN_i_6802_dp_f_1.5914178276551125,6802,1.0
GCF_022533545.1_ASM2253354v1,GCF_022533545.1_ASM2253354v1_bin_1,NZ_CP092862.1,S81_LN_i_4197_dp_f_1.6796547714559187,4197,1.0
GCF_019670265.1_ASM1967026v1,GCF_019670265.1_ASM1967026v1_bin_1,NZ_AP023299.1,S34_LN_i_4386_dp_f_0.9902786217725135,4386,1.0
GCF_019670265.1_ASM1967026v1,GCF_019670265.1_ASM1967026v1_bin_1,NZ_AP023299.1,S44_LN_i_1916_dp_f_0.9358803928791766,1916,1.0
GCF_016454545.1_ASM1645454v1,GCF_016454545.1_ASM1645454v1_bin_3,NZ_CP051401.1,S42_LN_i_3372_dp_f_73.60725736154241,3372,1.0
GCF_016454545.1_ASM1645454v1,GCF_016454545.1_ASM1645454v1_bin_1,NZ_CP051400.1,S22_LN_i_73563_dp_f_0.7129894501609821,73563,1.0
GCF_016454545.1_ASM1645454v1,GCF_016454545.1_ASM1645454v1_bin_1,NZ_CP051400.1,S25_LN_i_45936_dp_f_0.6755542345763879,45936,1.0
GCF_016454545.1_ASM1645454v1,GCF_016454545.1_ASM1645454v1_bin_1,NZ_CP051400.1,S30_LN_i_24479_dp_f_0.5595343450551367,24479,1.0
GCF_016454545.1_ASM1645454v1,GCF_016454545.1_ASM1645454v1_bin_1,NZ_CP051400.1,S33_LN_i_9089_dp_f_0.5756568779450894,9089,1.0
GCF_016454545.1_ASM1645454v1,GCF_016454545.1_ASM1645454v1_bin_1,NZ_CP051400.1,S36_LN_i_5012_dp_f_0.3978745852725327,5012,1.0
GCF_016454545.1_ASM1645454v1,GCF_016454545.1_ASM1645454v1_bin_1,NZ_CP051400.1,S41_LN_i_3977_dp_f_0.4389674473808683,3977,1.0
GCF_016454545.1_ASM1645454v1,GCF_016454545.1_ASM1645454v1_bin_1,NZ_CP051400.1,S45_LN_i_2096_dp_f_0.6163592176609535,2096,1.0
GCF_016454545.1_ASM1645454v1,GCF_016454545.1_ASM1645454v1_bin_1,NZ_CP051400.1,S46_LN_i_1896_dp_f_0.35163417983178036,1896,1.0
GCF_016454545.1_ASM1645454v1,GCF_016454545.1_ASM1645454v1_bin_1,NZ_CP051400.1,S48_LN_i_1464_dp_f_0.380226197705888,1464,1.0
GCF_016454545.1_ASM1645454v1,GCF_016454545.1_ASM1645454v1_bin_1,NZ_CP051400.1,S52_LN_i_1180_dp_f_0.6481583837154408,1180,1.0
GCF_016454545.1_ASM1645454v1,GCF_016454545.1_ASM1645454v1_bin_2,NZ_CP051399.1,S40_LN_i_4198_dp_f_66.31738583418458,4198,0.97
GCF_022936345.1_ASM2293634v1,GCF_022936345.1_ASM2293634v1_bin_1,NZ_CP091998.1,S22_LN_i_9749_dp_f_1.1204896552624537,9749,1.0
GCF_022936345.1_ASM2293634v1,GCF_022936345.1_ASM2293634v1_bin_1,NZ_CP091998.1,S23_LN_i_4789_dp_f_1.1253034440371437,4789,1.0
GCF_022936345.1_ASM2293634v1,GCF_022936345.1_ASM2293634v1_bin_2,NZ_CP091998.1,S26_LN_i_3071_dp_f_1.2062771620527086,3071,1.0
GCF_021397675.1_ASM2139767v1,GCF_021397675.1_ASM2139767v1_bin_4,NZ_CP090134.1,S23_LN_i_8951_dp_f_1.0688849497757906,8951,1.0
GCF_021397675.1_ASM2139767v1,GCF_021397675.1_ASM2139767v1_bin_4,NZ_CP090134.1,S33_LN_i_3445_dp_f_1.0011147943512795,3445,1.0
GCF_021397675.1_ASM2139767v1,GCF_021397675.1_ASM2139767v1_bin_4,NZ_CP090134.1,S36_LN_i_2437_dp_f_1.092795316319545,2437,1.0
GCF_021397675.1_ASM2139767v1,GCF_021397675.1_ASM2139767v1_bin_4,NZ_CP090134.1,S37_LN_i_2419_dp_f_0.9649396471553854,2419,1.0
GCF_021397675.1_ASM2139767v1,GCF_021397675.1_ASM2139767v1_bin_6,NZ_CP090136.1,S29_LN_i_4593_dp_f_10.427648351399169,4593,1.0
GCF_021397675.1_ASM2139767v1,GCF_021397675.1_ASM2139767v1_bin_5,NZ_CP090134.1,S20_LN_i_12454_dp_f_1.3138467518041077,12454,1.0
GCF_021397675.1_ASM2139767v1,GCF_021397675.1_ASM2139767v1_bin_5,NZ_CP090134.1,S22_LN_i_9338_dp_f_1.2591964625370065,9338,1.0
GCF_021397675.1_ASM2139767v1,GCF_021397675.1_ASM2139767v1_bin_5,NZ_CP090134.1,S34_LN_i_2978_dp_f_1.2727614948708863,2978,1.0
GCF_021397675.1_ASM2139767v1,GCF_021397675.1_ASM2139767v1_bin_5,NZ_CP090134.1,S46_LN_i_1180_dp_f_1.293767609582539,1180,1.0
GCF_021397675.1_ASM2139767v1,GCF_021397675.1_ASM2139767v1_bin_1,NZ_CP090135.1,S16_LN_i_27579_dp_f_2.16801512884364,27579,1.0
GCF_021397675.1_ASM2139767v1,GCF_021397675.1_ASM2139767v1_bin_1,NZ_CP090135.1,S19_LN_i_18539_dp_f_2.103302924336488,18539,1.0
GCF_021397675.1_ASM2139767v1,GCF_021397675.1_ASM2139767v1_bin_1,NZ_CP090135.1,S38_LN_i_2231_dp_f_1.973345324175315,2231,1.0
GCF_021397675.1_ASM2139767v1,GCF_021397675.1_ASM2139767v1_bin_2,NZ_CP090134.1,S12_LN_i_51282_dp_f_1.270376301193067,51282,1.0
GCF_021397675.1_ASM2139767v1,GCF_021397675.1_ASM2139767v1_bin_2,NZ_CP090134.1,S13_LN_i_50445_dp_f_1.2698408773459473,50445,1.0
GCF_021397675.1_ASM2139767v1,GCF_021397675.1_ASM2139767v1_bin_2,NZ_CP090134.1,S15_LN_i_30220_dp_f_1.2583588929431784,30220,1.0
GCF_021397675.1_ASM2139767v1,GCF_021397675.1_ASM2139767v1_bin_2,NZ_CP090134.1,S18_LN_i_22858_dp_f_1.2645766613488596,22858,1.0
GCF_021397675.1_ASM2139767v1,GCF_021397675.1_ASM2139767v1_bin_2,NZ_CP090134.1,S25_LN_i_7979_dp_f_1.2772853251378404,7979,1.0
GCF_021397675.1_ASM2139767v1,GCF_021397675.1_ASM2139767v1_bin_Unbinned,NZ_CP090134.1,S32_LN_i_3793_dp_f_2.360679254222759,3793,1.0
GCF_021397675.1_ASM2139767v1,GCF_021397675.1_ASM2139767v1_bin_Unbinned,NZ_CP090134.1,S32_LN_i_3793_dp_f_2.360679254222759,3793,1.0
GCF_021397675.1_ASM2139767v1,GCF_021397675.1_ASM2139767v1_bin_Unbinned,NZ_CP090134.1,S43_LN_i_1629_dp_f_2.1271174410584797,1629,1.0
GCF_021397675.1_ASM2139767v1,GCF_021397675.1_ASM2139767v1_bin_Unbinned,NZ_CP090134.1,S43_LN_i_1629_dp_f_2.1271174410584797,1629,1.0
GCF_021397675.1_ASM2139767v1,GCF_021397675.1_ASM2139767v1_bin_3,NZ_CP090134.1,S21_LN_i_10369_dp_f_1.3592137026620952,10369,1.0
GCF_021397675.1_ASM2139767v1,GCF_021397675.1_ASM2139767v1_bin_3,NZ_CP090134.1,S24_LN_i_8213_dp_f_1.1958877274441841,8213,1.0
GCF_021397675.1_ASM2139767v1,GCF_021397675.1_ASM2139767v1_bin_3,NZ_CP090134.1,S28_LN_i_4724_dp_f_1.2112456463696344,4724,1.0
GCF_021397675.1_ASM2139767v1,GCF_021397675.1_ASM2139767v1_bin_3,NZ_CP090134.1,S30_LN_i_4592_dp_f_1.1839479633718286,4592,1.0
GCF_021397675.1_ASM2139767v1,GCF_021397675.1_ASM2139767v1_bin_3,NZ_CP090134.1,S40_LN_i_2072_dp_f_1.1379759260146092,2072,1.0
GCF_021397675.1_ASM2139767v1,GCF_021397675.1_ASM2139767v1_bin_3,NZ_CP090134.1,S41_LN_i_1895_dp_f_1.2239638437886857,1895,1.0
GCF_021397675.1_ASM2139767v1,GCF_021397675.1_ASM2139767v1_bin_3,NZ_CP090134.1,S42_LN_i_1751_dp_f_1.1418989589711035,1751,1.0
GCF_014858565.1_ASM1485856v1,GCF_014858565.1_ASM1485856v1_bin_2,NZ_CP062227.1,S31_LN_i_3172_dp_f_6.507719488143763,3172,1.0
GCF_014858565.1_ASM1485856v1,GCF_014858565.1_ASM1485856v1_bin_1,NZ_CP062226.1,S16_LN_i_61643_dp_f_1.0339736988971873,61643,1.0
GCF_014858565.1_ASM1485856v1,GCF_014858565.1_ASM1485856v1_bin_1,NZ_CP062226.1,S17_LN_i_58419_dp_f_1.0941921132358523,58419,1.0
GCF_014858565.1_ASM1485856v1,GCF_014858565.1_ASM1485856v1_bin_1,NZ_CP062226.1,S18_LN_i_55468_dp_f_1.0330819410133718,55468,1.0
GCF_014858565.1_ASM1485856v1,GCF_014858565.1_ASM1485856v1_bin_1,NZ_CP062226.1,S21_LN_i_19468_dp_f_1.0286416937740557,19468,1.0
GCF_014858565.1_ASM1485856v1,GCF_014858565.1_ASM1485856v1_bin_1,NZ_CP062226.1,S22_LN_i_8951_dp_f_0.7249377869550734,8951,1.0
GCF_014858565.1_ASM1485856v1,GCF_014858565.1_ASM1485856v1_bin_1,NZ_CP062226.1,S23_LN_i_8210_dp_f_1.0262832266669022,8210,1.0
GCF_014858565.1_ASM1485856v1,GCF_014858565.1_ASM1485856v1_bin_1,NZ_CP062226.1,S24_LN_i_6484_dp_f_0.9803644287571738,6484,1.0
GCF_014858565.1_ASM1485856v1,GCF_014858565.1_ASM1485856v1_bin_1,NZ_CP062226.1,S26_LN_i_4724_dp_f_1.0856650115953543,4724,1.0
GCF_014858565.1_ASM1485856v1,GCF_014858565.1_ASM1485856v1_bin_1,NZ_CP062226.1,S27_LN_i_4593_dp_f_0.9693964681455172,4593,1.0
GCF_014858565.1_ASM1485856v1,GCF_014858565.1_ASM1485856v1_bin_1,NZ_CP062226.1,S29_LN_i_3798_dp_f_0.7769455652384826,3798,1.0
GCF_014858565.1_ASM1485856v1,GCF_014858565.1_ASM1485856v1_bin_1,NZ_CP062226.1,S30_LN_i_3446_dp_f_0.967222209430515,3446,1.0
GCF_014858565.1_ASM1485856v1,GCF_014858565.1_ASM1485856v1_bin_1,NZ_CP062226.1,S32_LN_i_2437_dp_f_0.6680793832286587,2437,1.0
GCF_014858565.1_ASM1485856v1,GCF_014858565.1_ASM1485856v1_bin_1,NZ_CP062226.1,S34_LN_i_2071_dp_f_1.0405020808177514,2071,1.0
GCF_014858565.1_ASM1485856v1,GCF_014858565.1_ASM1485856v1_bin_1,NZ_CP062226.1,S35_LN_i_1894_dp_f_1.0712531492883977,1894,1.0
GCF_014858565.1_ASM1485856v1,GCF_014858565.1_ASM1485856v1_bin_1,NZ_CP062226.1,S36_LN_i_1630_dp_f_1.2191826568019595,1630,1.0
GCF_014858565.1_ASM1485856v1,GCF_014858565.1_ASM1485856v1_bin_1,NZ_CP062226.1,S36_LN_i_1630_dp_f_1.2191826568019595,1630,1.0
GCF_016952595.1_ASM1695259v1,GCF_016952595.1_ASM1695259v1_bin_3,NZ_CP051362.1,S37_LN_i_3830_dp_f_394.2799483015289,3830,1.0
GCF_016952595.1_ASM1695259v1,GCF_016952595.1_ASM1695259v1_bin_2,NZ_CP051363.1,S32_LN_i_7001_dp_f_0.932647435782072,7001,1.0
GCF_016952595.1_ASM1695259v1,GCF_016952595.1_ASM1695259v1_bin_1,NZ_CP051364.1,S16_LN_i_91960_dp_f_1.5419371385521385,91960,1.0
GCF_016952595.1_ASM1695259v1,GCF_016952595.1_ASM1695259v1_bin_1,NZ_CP051364.1,S40_LN_i_1740_dp_f_1.28283717919784,1740,1.0
GCF_016952595.1_ASM1695259v1,GCF_016952595.1_ASM1695259v1_bin_1,NZ_CP051364.1,S40_LN_i_1740_dp_f_1.28283717919784,1740,1.0
GCF_016454205.1_ASM1645420v1,GCF_016454205.1_ASM1645420v1_bin_2,NZ_CP051351.1,S28_LN_i_23254_dp_f_1.7895674535557387,23254,1.0
GCF_022670675.1_ASM2267067v1,GCF_022670675.1_ASM2267067v1_bin_1,NZ_CP093400.1,S16_LN_i_80948_dp_f_1.017516646254667,80948,1.0
GCF_022670675.1_ASM2267067v1,GCF_022670675.1_ASM2267067v1_bin_1,NZ_CP093401.1,S19_LN_i_67392_dp_f_0.9497588362691617,67392,1.0
GCF_022670675.1_ASM2267067v1,GCF_022670675.1_ASM2267067v1_bin_1,NZ_CP093401.1,S21_LN_i_58231_dp_f_0.9364220250170261,58231,1.0
GCF_022670675.1_ASM2267067v1,GCF_022670675.1_ASM2267067v1_bin_1,NZ_CP093401.1,S30_LN_i_24306_dp_f_0.9617727449901481,24306,1.0
GCF_022670675.1_ASM2267067v1,GCF_022670675.1_ASM2267067v1_bin_1,NZ_CP093401.1,S33_LN_i_15224_dp_f_0.9221972303357505,15224,1.0
GCF_022670675.1_ASM2267067v1,GCF_022670675.1_ASM2267067v1_bin_1,NZ_CP093401.1,S35_LN_i_12186_dp_f_0.9498032014607805,12186,1.0
GCF_022670675.1_ASM2267067v1,GCF_022670675.1_ASM2267067v1_bin_1,NZ_CP093401.1,S40_LN_i_5096_dp_f_1.0512021594852632,5096,1.0
GCF_022670675.1_ASM2267067v1,GCF_022670675.1_ASM2267067v1_bin_1,NZ_CP093400.1,S43_LN_i_4476_dp_f_0.9273808421568583,4476,1.0
GCF_022670675.1_ASM2267067v1,GCF_022670675.1_ASM2267067v1_bin_1,NZ_CP093401.1,S45_LN_i_4289_dp_f_0.9789660116507862,4289,1.0
GCF_022670675.1_ASM2267067v1,GCF_022670675.1_ASM2267067v1_bin_1,NZ_CP093401.1,S51_LN_i_1225_dp_f_0.8993427883877394,1225,1.0
GCF_016452165.1_ASM1645216v1,GCF_016452165.1_ASM1645216v1_bin_2,NZ_CP053053.1,S27_LN_i_50007_dp_f_1.1967954337499511,50007,1.0
GCF_016452165.1_ASM1645216v1,GCF_016452165.1_ASM1645216v1_bin_2,NZ_CP053053.1,S28_LN_i_45925_dp_f_1.2079810096167258,45925,1.0
GCF_016452165.1_ASM1645216v1,GCF_016452165.1_ASM1645216v1_bin_2,NZ_CP053053.1,S31_LN_i_27779_dp_f_1.1307410260427686,27779,1.0
GCF_016452165.1_ASM1645216v1,GCF_016452165.1_ASM1645216v1_bin_2,NZ_CP053051.1,S36_LN_i_7001_dp_f_0.946883217390518,7001,1.0
GCF_016452165.1_ASM1645216v1,GCF_016452165.1_ASM1645216v1_bin_2,NZ_CP053053.1,S42_LN_i_4388_dp_f_1.047434655781987,4388,1.0
GCF_016452165.1_ASM1645216v1,GCF_016452165.1_ASM1645216v1_bin_2,NZ_CP053053.1,S47_LN_i_2974_dp_f_1.1826729619909502,2974,1.0
GCF_016452165.1_ASM1645216v1,GCF_016452165.1_ASM1645216v1_bin_2,NZ_CP053053.1,S49_LN_i_1770_dp_f_1.1676002142850774,1770,1.0
GCF_016452165.1_ASM1645216v1,GCF_016452165.1_ASM1645216v1_bin_2,NZ_CP053053.1,S59_LN_i_1041_dp_f_1.0910240193356817,1041,1.0
GCF_016452165.1_ASM1645216v1,GCF_016452165.1_ASM1645216v1_bin_3,NZ_CP053053.1,S39_LN_i_5674_dp_f_5.844517519626498,5674,1.0
GCF_016452165.1_ASM1645216v1,GCF_016452165.1_ASM1645216v1_bin_3,NZ_CP053052.1,S39_LN_i_5674_dp_f_5.844517519626498,5674,1.0
GCF_016452165.1_ASM1645216v1,GCF_016452165.1_ASM1645216v1_bin_3,NZ_CP053053.1,S39_LN_i_5674_dp_f_5.844517519626498,5674,1.0
GCF_016452165.1_ASM1645216v1,GCF_016452165.1_ASM1645216v1_bin_3,NZ_CP053052.1,S45_LN_i_3233_dp_f_5.311548870267035,3233,1.0
GCF_016452165.1_ASM1645216v1,GCF_016452165.1_ASM1645216v1_bin_3,NZ_CP053052.1,S50_LN_i_1745_dp_f_5.3504750706325614,1745,1.0
GCF_016452165.1_ASM1645216v1,GCF_016452165.1_ASM1645216v1_bin_1,NZ_CP053054.1,S16_LN_i_91960_dp_f_1.0587367954966014,91960,1.0
GCF_016452165.1_ASM1645216v1,GCF_016452165.1_ASM1645216v1_bin_1,NZ_CP053054.1,S51_LN_i_1740_dp_f_1.1209394975588292,1740,1.0
GCF_016452165.1_ASM1645216v1,GCF_016452165.1_ASM1645216v1_bin_5,NZ_CP054466.1,S46_LN_i_3188_dp_f_180.11360495392827,3188,1.0
GCF_016452165.1_ASM1645216v1,GCF_016452165.1_ASM1645216v1_bin_4,NZ_CP054465.1,S44_LN_i_3830_dp_f_177.43949643470623,3830,1.0
GCF_019670345.1_ASM1967034v1,GCF_019670345.1_ASM1967034v1_bin_2,NZ_AP023306.1,S34_LN_i_6103_dp_f_0.8957145985272397,6103,1.0
GCF_019670345.1_ASM1967034v1,GCF_019670345.1_ASM1967034v1_bin_2,NZ_AP023306.1,S51_LN_i_1738_dp_f_0.9987887241729287,1738,1.0
GCF_019670345.1_ASM1967034v1,GCF_019670345.1_ASM1967034v1_bin_1,NZ_AP023307.1,S20_LN_i_58670_dp_f_2.2330950976204527,58670,1.0
GCF_019670345.1_ASM1967034v1,GCF_019670345.1_ASM1967034v1_bin_1,NZ_AP023307.1,S29_LN_i_15410_dp_f_2.3286399488427683,15410,1.0
GCF_019670345.1_ASM1967034v1,GCF_019670345.1_ASM1967034v1_bin_1,NZ_AP023307.1,S30_LN_i_14127_dp_f_2.3824865753672393,14127,1.0
GCF_019670345.1_ASM1967034v1,GCF_019670345.1_ASM1967034v1_bin_1,NZ_AP023307.1,S37_LN_i_5569_dp_f_2.477900215246206,5569,1.0
GCF_019670345.1_ASM1967034v1,GCF_019670345.1_ASM1967034v1_bin_1,NZ_AP023307.1,S39_LN_i_4670_dp_f_2.4343015658068636,4670,1.0
GCF_019670345.1_ASM1967034v1,GCF_019670345.1_ASM1967034v1_bin_1,NZ_AP023307.1,S41_LN_i_3849_dp_f_2.2404628004928564,3849,1.0
GCF_019670345.1_ASM1967034v1,GCF_019670345.1_ASM1967034v1_bin_1,NZ_AP023307.1,S43_LN_i_2911_dp_f_2.682803504812655,2911,1.0
GCF_019670345.1_ASM1967034v1,GCF_019670345.1_ASM1967034v1_bin_1,NZ_AP023307.1,S44_LN_i_2680_dp_f_2.2092703850013775,2680,1.0
GCF_019670345.1_ASM1967034v1,GCF_019670345.1_ASM1967034v1_bin_1,NZ_AP023307.1,S49_LN_i_1984_dp_f_2.4116679235207306,1984,1.0
GCF_019670345.1_ASM1967034v1,GCF_019670345.1_ASM1967034v1_bin_1,NZ_AP023307.1,S56_LN_i_1502_dp_f_2.3006537625193,1502,1.0
GCF_019670345.1_ASM1967034v1,GCF_019670345.1_ASM1967034v1_bin_1,NZ_AP023307.1,S57_LN_i_1287_dp_f_2.521737383724075,1287,1.0
GCF_019670345.1_ASM1967034v1,GCF_019670345.1_ASM1967034v1_bin_1,NZ_AP023307.1,S61_LN_i_1191_dp_f_2.5042200122444664,1191,1.0
GCF_016025435.1_ASM1602543v1,GCF_016025435.1_ASM1602543v1_bin_1,NZ_CP065572.1,S22_LN_i_5632_dp_f_1.0617484623304,5632,1.0
GCF_016025435.1_ASM1602543v1,GCF_016025435.1_ASM1602543v1_bin_1,NZ_CP065572.1,S25_LN_i_2529_dp_f_1.1078817056973542,2529,1.0
GCF_016025435.1_ASM1602543v1,GCF_016025435.1_ASM1602543v1_bin_1,NZ_CP065572.1,S28_LN_i_1963_dp_f_1.2235906580112696,1963,1.0
GCF_016025435.1_ASM1602543v1,GCF_016025435.1_ASM1602543v1_bin_1,NZ_CP065572.1,S29_LN_i_1936_dp_f_0.8850654253773533,1936,1.0
GCF_016025435.1_ASM1602543v1,GCF_016025435.1_ASM1602543v1_bin_1,NZ_CP065572.1,S31_LN_i_1708_dp_f_0.8380399826658291,1708,1.0
GCF_016025435.1_ASM1602543v1,GCF_016025435.1_ASM1602543v1_bin_1,NZ_CP065572.1,S36_LN_i_1083_dp_f_1.2829901661435599,1083,1.0
GCF_016025435.1_ASM1602543v1,GCF_016025435.1_ASM1602543v1_bin_2,NZ_CP065572.1,S35_LN_i_1101_dp_f_2.3122457347490757,1101,1.0
GCF_016025435.1_ASM1602543v1,GCF_016025435.1_ASM1602543v1_bin_2,NZ_CP065572.1,S35_LN_i_1101_dp_f_2.3122457347490757,1101,1.0
GCF_015240635.1_ASM1524063v1,GCF_015240635.1_ASM1524063v1_bin_1,NZ_CP063701.1,S13_LN_i_56260_dp_f_1.4721695489080955,56260,1.0
GCF_015240635.1_ASM1524063v1,GCF_015240635.1_ASM1524063v1_bin_1,NZ_CP063701.1,S20_LN_i_1783_dp_f_1.4679904900010416,1783,1.0
GCF_003067445.2_ASM306744v2,GCF_003067445.2_ASM306744v2_bin_1,NZ_CP077705.1,S18_LN_i_67728_dp_f_1.6089044207365604,67728,1.0
GCF_002266085.2_ASM226608v2,GCF_002266085.2_ASM226608v2_bin_1,NZ_CP075114.1,S14_LN_i_74591_dp_f_0.7495671126164538,74591,1.0
GCF_016454185.1_ASM1645418v1,GCF_016454185.1_ASM1645418v1_bin_1,NZ_CP051349.1,S34_LN_i_35343_dp_f_1.2073676547796897,35343,1.0
GCF_016454185.1_ASM1645418v1,GCF_016454185.1_ASM1645418v1_bin_1,NZ_CP051349.1,S53_LN_i_4571_dp_f_1.0584532797320088,4571,1.0
GCF_019670385.1_ASM1967038v1,GCF_019670385.1_ASM1967038v1_bin_1,NZ_AP023312.1,S11_LN_i_150873_dp_f_1.4932478745682944,150873,1.0
GCF_019670385.1_ASM1967038v1,GCF_019670385.1_ASM1967038v1_bin_1,NZ_AP023312.1,S30_LN_i_16365_dp_f_1.4176758936435434,16365,1.0
GCF_019670385.1_ASM1967038v1,GCF_019670385.1_ASM1967038v1_bin_1,NZ_AP023312.1,S35_LN_i_6084_dp_f_2.155763559276845,6084,1.0
GCF_019670385.1_ASM1967038v1,GCF_019670385.1_ASM1967038v1_bin_1,NZ_AP023311.1,S35_LN_i_6084_dp_f_2.155763559276845,6084,1.0
GCF_019670385.1_ASM1967038v1,GCF_019670385.1_ASM1967038v1_bin_1,NZ_AP023312.1,S36_LN_i_5756_dp_f_1.459145678314225,5756,1.0
GCF_019670385.1_ASM1967038v1,GCF_019670385.1_ASM1967038v1_bin_1,NZ_AP023311.1,S37_LN_i_5705_dp_f_2.614730307156763,5705,1.0
GCF_019670385.1_ASM1967038v1,GCF_019670385.1_ASM1967038v1_bin_1,NZ_AP023312.1,S37_LN_i_5705_dp_f_2.614730307156763,5705,1.0
GCF_019670385.1_ASM1967038v1,GCF_019670385.1_ASM1967038v1_bin_1,NZ_AP023311.1,S40_LN_i_4388_dp_f_0.9742816990870963,4388,1.0
GCF_019670385.1_ASM1967038v1,GCF_019670385.1_ASM1967038v1_bin_1,NZ_AP023312.1,S41_LN_i_4196_dp_f_1.4809335297096413,4196,1.0
GCF_019670385.1_ASM1967038v1,GCF_019670385.1_ASM1967038v1_bin_1,NZ_AP023312.1,S44_LN_i_3260_dp_f_1.43043528619528,3260,1.0
GCF_019670385.1_ASM1967038v1,GCF_019670385.1_ASM1967038v1_bin_1,NZ_AP023312.1,S51_LN_i_1856_dp_f_1.4077370183855618,1856,1.0
GCF_019670385.1_ASM1967038v1,GCF_019670385.1_ASM1967038v1_bin_1,NZ_AP023312.1,S52_LN_i_1771_dp_f_1.4186339803205401,1771,1.0
GCF_019670385.1_ASM1967038v1,GCF_019670385.1_ASM1967038v1_bin_1,NZ_AP023311.1,S55_LN_i_1528_dp_f_1.0574251377168968,1528,1.0
GCF_019670385.1_ASM1967038v1,GCF_019670385.1_ASM1967038v1_bin_1,NZ_AP023312.1,S56_LN_i_1359_dp_f_1.436200472123511,1359,1.0
GCF_019670385.1_ASM1967038v1,GCF_019670385.1_ASM1967038v1_bin_1,NZ_AP023312.1,S64_LN_i_1082_dp_f_1.4635630424042931,1082,1.0
GCF_003064405.2_ASM306440v2,GCF_003064405.2_ASM306440v2_bin_1,NZ_CP077694.1,S22_LN_i_65341_dp_f_0.6769699235888739,65341,1.0
GCF_003064405.2_ASM306440v2,GCF_003064405.2_ASM306440v2_bin_1,NZ_CP077694.1,S24_LN_i_37012_dp_f_0.7087375709397414,37012,1.0
GCF_003064405.2_ASM306440v2,GCF_003064405.2_ASM306440v2_bin_1,NZ_CP077694.1,S33_LN_i_16776_dp_f_0.7844688482650183,16776,1.0
GCF_003064405.2_ASM306440v2,GCF_003064405.2_ASM306440v2_bin_1,NZ_CP077694.1,S40_LN_i_6122_dp_f_0.8368612234657691,6122,1.0
GCF_003064405.2_ASM306440v2,GCF_003064405.2_ASM306440v2_bin_1,NZ_CP077694.1,S41_LN_i_5072_dp_f_0.8074921184894588,5072,1.0
GCF_003064405.2_ASM306440v2,GCF_003064405.2_ASM306440v2_bin_2,NZ_CP077695.1,S29_LN_i_25879_dp_f_7.2564128356441495,25879,1.0
GCF_016454225.1_ASM1645422v1,GCF_016454225.1_ASM1645422v1_bin_1,NZ_CP051355.1,S26_LN_i_9267_dp_f_6.221288705883755,9267,1.0
GCF_016454445.1_ASM1645444v1,GCF_016454445.1_ASM1645444v1_bin_1,NZ_CP051388.1,S29_LN_i_41643_dp_f_0.9848653330937317,41643,1.0
GCF_016454445.1_ASM1645444v1,GCF_016454445.1_ASM1645444v1_bin_1,NZ_CP051387.1,S31_LN_i_40096_dp_f_1.1345282987114023,40096,1.0
GCF_016454445.1_ASM1645444v1,GCF_016454445.1_ASM1645444v1_bin_1,NZ_CP051388.1,S32_LN_i_28477_dp_f_1.106258341000576,28477,1.0
GCF_016454445.1_ASM1645444v1,GCF_016454445.1_ASM1645444v1_bin_1,NZ_CP051387.1,S34_LN_i_23979_dp_f_1.1512454396182719,23979,1.0
GCF_016454445.1_ASM1645444v1,GCF_016454445.1_ASM1645444v1_bin_1,NZ_CP051388.1,S40_LN_i_16548_dp_f_1.124345437691206,16548,1.0
GCF_016454445.1_ASM1645444v1,GCF_016454445.1_ASM1645444v1_bin_1,NZ_CP051387.1,S43_LN_i_12555_dp_f_1.1073048748134349,12555,1.0
GCF_016454445.1_ASM1645444v1,GCF_016454445.1_ASM1645444v1_bin_1,NZ_CP051387.1,S47_LN_i_8472_dp_f_0.9794084334747888,8472,1.0
GCF_016454445.1_ASM1645444v1,GCF_016454445.1_ASM1645444v1_bin_1,NZ_CP051388.1,S48_LN_i_7882_dp_f_1.1182995992634486,7882,1.0
GCF_016454445.1_ASM1645444v1,GCF_016454445.1_ASM1645444v1_bin_1,NZ_CP051388.1,S50_LN_i_5326_dp_f_0.6595512283083298,5326,1.0
GCF_016454445.1_ASM1645444v1,GCF_016454445.1_ASM1645444v1_bin_1,NZ_CP051387.1,S52_LN_i_3977_dp_f_0.9022441901573247,3977,1.0
GCF_016454445.1_ASM1645444v1,GCF_016454445.1_ASM1645444v1_bin_1,NZ_CP051387.1,S57_LN_i_2459_dp_f_0.6306657445555084,2459,1.0
GCF_016454445.1_ASM1645444v1,GCF_016454445.1_ASM1645444v1_bin_1,NZ_CP051387.1,S63_LN_i_1630_dp_f_0.7951626412798957,1630,1.0
GCF_020736305.1_ASM2073630v1,GCF_020736305.1_ASM2073630v1_bin_1,NZ_CP085984.1,S19_LN_i_67373_dp_f_0.826776419187634,67373,1.0
GCF_020736305.1_ASM2073630v1,GCF_020736305.1_ASM2073630v1_bin_1,NZ_CP085984.1,S21_LN_i_58231_dp_f_1.2500629794917342,58231,1.0
GCF_020736305.1_ASM2073630v1,GCF_020736305.1_ASM2073630v1_bin_1,NZ_CP085985.1,S27_LN_i_40955_dp_f_1.6583148480992689,40955,0.98
GCF_020736305.1_ASM2073630v1,GCF_020736305.1_ASM2073630v1_bin_1,NZ_CP085984.1,S28_LN_i_36966_dp_f_1.0538398794846442,36966,1.0
GCF_020736305.1_ASM2073630v1,GCF_020736305.1_ASM2073630v1_bin_1,NZ_CP085984.1,S30_LN_i_28776_dp_f_0.8028883498375536,28776,1.0
GCF_020736305.1_ASM2073630v1,GCF_020736305.1_ASM2073630v1_bin_1,NZ_CP085984.1,S33_LN_i_24306_dp_f_0.7344861885501409,24306,1.0
GCF_020736305.1_ASM2073630v1,GCF_020736305.1_ASM2073630v1_bin_1,NZ_CP085984.1,S34_LN_i_23422_dp_f_1.0879339461082884,23422,1.0
GCF_020736305.1_ASM2073630v1,GCF_020736305.1_ASM2073630v1_bin_1,NZ_CP085984.1,S35_LN_i_15245_dp_f_0.7840117299718752,15245,1.0
GCF_020736305.1_ASM2073630v1,GCF_020736305.1_ASM2073630v1_bin_1,NZ_CP085985.1,S38_LN_i_5135_dp_f_1.2099015186799502,5135,1.0
GCF_020736305.1_ASM2073630v1,GCF_020736305.1_ASM2073630v1_bin_1,NZ_CP085984.1,S39_LN_i_5096_dp_f_0.779230166416541,5096,1.0
GCF_020736305.1_ASM2073630v1,GCF_020736305.1_ASM2073630v1_bin_1,NZ_CP085985.1,S40_LN_i_4687_dp_f_1.3144687181720789,4687,1.0
GCF_020736305.1_ASM2073630v1,GCF_020736305.1_ASM2073630v1_bin_1,NZ_CP085984.1,S42_LN_i_4262_dp_f_0.41279213395239617,4262,1.0
GCF_020736305.1_ASM2073630v1,GCF_020736305.1_ASM2073630v1_bin_1,NZ_CP085984.1,S50_LN_i_1225_dp_f_1.0830861616011866,1225,1.0
GCF_014334235.1_ASM1433423v1,GCF_014334235.1_ASM1433423v1_bin_2,NZ_CP060520.1,S25_LN_i_4073_dp_f_8.68394448324104,4073,1.0
GCF_014334235.1_ASM1433423v1,GCF_014334235.1_ASM1433423v1_bin_1,NZ_CP060518.1,S13_LN_i_110584_dp_f_1.2351778314773845,110584,1.0
GCF_014334235.1_ASM1433423v1,GCF_014334235.1_ASM1433423v1_bin_1,NZ_CP060518.1,S14_LN_i_104020_dp_f_1.173245927382275,104020,1.0
GCF_014334235.1_ASM1433423v1,GCF_014334235.1_ASM1433423v1_bin_1,NZ_CP060518.1,S23_LN_i_16954_dp_f_0.8761029033156073,16954,1.0
GCF_014334235.1_ASM1433423v1,GCF_014334235.1_ASM1433423v1_bin_3,NZ_CP060521.1,S28_LN_i_3830_dp_f_13.858312823191632,3830,1.0
GCF_014394985.2_ASM1439498v2,GCF_014394985.2_ASM1439498v2_bin_1,NZ_CP060730.2,S18_LN_i_26986_dp_f_1.0926547632211818,26986,1.0
GCF_014394985.2_ASM1439498v2,GCF_014394985.2_ASM1439498v2_bin_1,NZ_CP060730.2,S20_LN_i_9111_dp_f_1.0139493838008493,9111,1.0
GCF_001713515.2_ASM171351v2,GCF_001713515.2_ASM171351v2_bin_2,NZ_CP074662.1,S18_LN_i_13490_dp_f_0.3174108100280989,13490,1.0
GCF_001713515.2_ASM171351v2,GCF_001713515.2_ASM171351v2_bin_2,NZ_CP074662.1,S25_LN_i_1783_dp_f_0.2880700089415109,1783,1.0
GCF_001713515.2_ASM171351v2,GCF_001713515.2_ASM171351v2_bin_2,NZ_CP074662.1,S25_LN_i_1783_dp_f_0.2880700089415109,1783,1.0
GCF_013348865.1_ASM1334886v1,GCF_013348865.1_ASM1334886v1_bin_1,NZ_CP054717.1,S26_LN_i_70698_dp_f_3.615781217075645,70698,1.0
GCF_013348865.1_ASM1334886v1,GCF_013348865.1_ASM1334886v1_bin_1,NZ_CP054717.1,S33_LN_i_46509_dp_f_3.039449646220677,46509,1.0
GCF_013348865.1_ASM1334886v1,GCF_013348865.1_ASM1334886v1_bin_1,NZ_CP054718.1,S39_LN_i_38097_dp_f_4.212709806178499,38097,1.0
GCF_013348865.1_ASM1334886v1,GCF_013348865.1_ASM1334886v1_bin_1,NZ_CP054716.1,S41_LN_i_34158_dp_f_2.7783236393485917,34158,0.01
GCF_013348865.1_ASM1334886v1,GCF_013348865.1_ASM1334886v1_bin_1,NZ_CP054717.1,S52_LN_i_18980_dp_f_3.1243419743215304,18980,1.0
GCF_013348865.1_ASM1334886v1,GCF_013348865.1_ASM1334886v1_bin_1,NZ_CP054718.1,S58_LN_i_12732_dp_f_3.4736067916280295,12732,1.0
GCF_013348865.1_ASM1334886v1,GCF_013348865.1_ASM1334886v1_bin_1,NZ_CP054717.1,S63_LN_i_8577_dp_f_2.744688384776446,8577,1.0
GCF_002507915.2_ASM250791v2,GCF_002507915.2_ASM250791v2_bin_Unbinned,NZ_CP075111.1,S21_LN_i_27531_dp_f_0.2663903359436495,27531,1.0
GCF_002507915.2_ASM250791v2,GCF_002507915.2_ASM250791v2_bin_Unbinned,NZ_CP075111.1,S23_LN_i_20880_dp_f_0.2905812300388911,20880,1.0
GCF_002507915.2_ASM250791v2,GCF_002507915.2_ASM250791v2_bin_Unbinned,NZ_CP075111.1,S24_LN_i_13906_dp_f_0.28559950482738183,13906,1.0
GCF_019670305.1_ASM1967030v1,GCF_019670305.1_ASM1967030v1_bin_1,NZ_AP023303.1,S20_LN_i_63236_dp_f_0.9876412941154837,63236,1.0
GCF_019670305.1_ASM1967030v1,GCF_019670305.1_ASM1967030v1_bin_1,NZ_AP023303.1,S32_LN_i_7353_dp_f_1.0012848955486133,7353,1.0
GCF_019670305.1_ASM1967030v1,GCF_019670305.1_ASM1967030v1_bin_1,NZ_AP023303.1,S35_LN_i_4386_dp_f_0.9416094997661443,4386,1.0
GCF_019670305.1_ASM1967030v1,GCF_019670305.1_ASM1967030v1_bin_1,NZ_AP023303.1,S42_LN_i_1916_dp_f_1.05226673972414,1916,1.0
GCF_021397645.1_ASM2139764v1,GCF_021397645.1_ASM2139764v1_bin_3,NZ_CP090142.1,S37_LN_i_3755_dp_f_2.340557274819536,3755,1.0
GCF_021397645.1_ASM2139764v1,GCF_021397645.1_ASM2139764v1_bin_3,NZ_CP090142.1,S37_LN_i_3755_dp_f_2.340557274819536,3755,1.0
GCF_021397645.1_ASM2139764v1,GCF_021397645.1_ASM2139764v1_bin_3,NZ_CP090142.1,S48_LN_i_1630_dp_f_2.49688280186092,1630,1.0
GCF_021397645.1_ASM2139764v1,GCF_021397645.1_ASM2139764v1_bin_3,NZ_CP090142.1,S48_LN_i_1630_dp_f_2.49688280186092,1630,1.0
GCF_021397645.1_ASM2139764v1,GCF_021397645.1_ASM2139764v1_bin_2,NZ_CP090142.1,S25_LN_i_12454_dp_f_1.1627891858942727,12454,1.0
GCF_021397645.1_ASM2139764v1,GCF_021397645.1_ASM2139764v1_bin_2,NZ_CP090142.1,S27_LN_i_9338_dp_f_1.1947380330548338,9338,1.0
GCF_021397645.1_ASM2139764v1,GCF_021397645.1_ASM2139764v1_bin_2,NZ_CP090142.1,S28_LN_i_8951_dp_f_1.2191759476253186,8951,1.0
GCF_021397645.1_ASM2139764v1,GCF_021397645.1_ASM2139764v1_bin_2,NZ_CP090142.1,S38_LN_i_3446_dp_f_1.3208502996908282,3446,1.0
GCF_021397645.1_ASM2139764v1,GCF_021397645.1_ASM2139764v1_bin_2,NZ_CP090142.1,S39_LN_i_2978_dp_f_1.1907577352311556,2978,1.0
GCF_021397645.1_ASM2139764v1,GCF_021397645.1_ASM2139764v1_bin_2,NZ_CP090142.1,S41_LN_i_2437_dp_f_1.2291606012708105,2437,1.0
GCF_021397645.1_ASM2139764v1,GCF_021397645.1_ASM2139764v1_bin_2,NZ_CP090142.1,S42_LN_i_2419_dp_f_1.298758618512902,2419,1.0
GCF_021397645.1_ASM2139764v1,GCF_021397645.1_ASM2139764v1_bin_2,NZ_CP090142.1,S45_LN_i_2072_dp_f_1.1944423402853666,2072,1.0
GCF_021397645.1_ASM2139764v1,GCF_021397645.1_ASM2139764v1_bin_2,NZ_CP090142.1,S53_LN_i_1180_dp_f_1.2037613539649388,1180,1.0
GCF_021397645.1_ASM2139764v1,GCF_021397645.1_ASM2139764v1_bin_1,NZ_CP090142.1,S16_LN_i_51282_dp_f_0.7573646495660865,51282,1.0
GCF_021397645.1_ASM2139764v1,GCF_021397645.1_ASM2139764v1_bin_1,NZ_CP090142.1,S17_LN_i_50445_dp_f_0.6163930606841601,50445,1.0
GCF_021397645.1_ASM2139764v1,GCF_021397645.1_ASM2139764v1_bin_1,NZ_CP090142.1,S20_LN_i_30220_dp_f_0.8157069471249148,30220,1.0
GCF_021397645.1_ASM2139764v1,GCF_021397645.1_ASM2139764v1_bin_1,NZ_CP090142.1,S23_LN_i_22858_dp_f_0.8662161179348673,22858,1.0
GCF_021397645.1_ASM2139764v1,GCF_021397645.1_ASM2139764v1_bin_1,NZ_CP090142.1,S26_LN_i_10369_dp_f_1.0639654799019962,10369,1.0
GCF_021397645.1_ASM2139764v1,GCF_021397645.1_ASM2139764v1_bin_1,NZ_CP090142.1,S29_LN_i_8213_dp_f_1.0425391679065035,8213,1.0
GCF_021397645.1_ASM2139764v1,GCF_021397645.1_ASM2139764v1_bin_1,NZ_CP090142.1,S30_LN_i_7979_dp_f_0.7636849527621394,7979,1.0
GCF_021397645.1_ASM2139764v1,GCF_021397645.1_ASM2139764v1_bin_1,NZ_CP090142.1,S33_LN_i_4724_dp_f_0.7983228452088618,4724,1.0
GCF_021397645.1_ASM2139764v1,GCF_021397645.1_ASM2139764v1_bin_1,NZ_CP090142.1,S35_LN_i_4592_dp_f_0.940784967868331,4592,1.0
GCF_021397645.1_ASM2139764v1,GCF_021397645.1_ASM2139764v1_bin_1,NZ_CP090142.1,S46_LN_i_1895_dp_f_0.7618113476640226,1895,1.0
GCF_021397645.1_ASM2139764v1,GCF_021397645.1_ASM2139764v1_bin_1,NZ_CP090142.1,S47_LN_i_1751_dp_f_0.9783531377341604,1751,1.0
GCF_021397645.1_ASM2139764v1,GCF_021397645.1_ASM2139764v1_bin_5,NZ_CP090144.1,S34_LN_i_4593_dp_f_4.3872820271873865,4593,1.0
GCF_021397645.1_ASM2139764v1,GCF_021397645.1_ASM2139764v1_bin_4,NZ_CP090143.1,S21_LN_i_27579_dp_f_2.8853600016831114,27579,1.0
GCF_021397645.1_ASM2139764v1,GCF_021397645.1_ASM2139764v1_bin_4,NZ_CP090143.1,S24_LN_i_18539_dp_f_2.9956574809468592,18539,1.0
GCF_021397645.1_ASM2139764v1,GCF_021397645.1_ASM2139764v1_bin_4,NZ_CP090143.1,S43_LN_i_2231_dp_f_2.890309409323285,2231,1.0
GCF_001834735.2_ASM183473v2,GCF_001834735.2_ASM183473v2_bin_1,NZ_CP075133.1,S13_LN_i_91394_dp_f_1.9549077127541017,91394,1.0
GCF_016025375.1_ASM1602537v1,GCF_016025375.1_ASM1602537v1_bin_1,NZ_CP065564.1,S19_LN_i_7001_dp_f_0.9470503041154555,7001,1.0
GCF_016025375.1_ASM1602537v1,GCF_016025375.1_ASM1602537v1_bin_1,NZ_CP065564.1,S27_LN_i_1083_dp_f_1.1280832231411537,1083,1.0
GCF_016025375.1_ASM1602537v1,GCF_016025375.1_ASM1602537v1_bin_2,NZ_CP065565.1,S24_LN_i_1982_dp_f_29.752691461014354,1982,1.0
GCF_016454585.1_ASM1645458v1,GCF_016454585.1_ASM1645458v1_bin_1,NZ_CP051403.1,S24_LN_i_52705_dp_f_0.4501334289678865,52705,1.0
GCF_016454585.1_ASM1645458v1,GCF_016454585.1_ASM1645458v1_bin_1,NZ_CP051403.1,S30_LN_i_31522_dp_f_0.39398715266897993,31522,1.0
GCF_016454585.1_ASM1645458v1,GCF_016454585.1_ASM1645458v1_bin_1,NZ_CP051403.1,S34_LN_i_12250_dp_f_0.3399286917771464,12250,1.0
GCF_016454645.1_ASM1645464v1,GCF_016454645.1_ASM1645464v1_bin_1,NZ_CP051412.1,S14_LN_i_101324_dp_f_0.7771666651548884,101324,1.0
GCF_016454645.1_ASM1645464v1,GCF_016454645.1_ASM1645464v1_bin_1,NZ_CP051412.1,S16_LN_i_95338_dp_f_0.7848893848903308,95338,1.0
GCF_016454645.1_ASM1645464v1,GCF_016454645.1_ASM1645464v1_bin_1,NZ_CP051412.1,S30_LN_i_11087_dp_f_0.6677855108244682,11087,1.0
GCF_016454645.1_ASM1645464v1,GCF_016454645.1_ASM1645464v1_bin_1,NZ_CP051412.1,S32_LN_i_9832_dp_f_0.8207713513545394,9832,1.0
GCF_016454645.1_ASM1645464v1,GCF_016454645.1_ASM1645464v1_bin_1,NZ_CP051412.1,S33_LN_i_6354_dp_f_1.0456094948373829,6354,1.0
GCF_016454645.1_ASM1645464v1,GCF_016454645.1_ASM1645464v1_bin_2,NZ_CP051411.1,S20_LN_i_80789_dp_f_1.0588818597902045,80789,1.0
GCF_016454645.1_ASM1645464v1,GCF_016454645.1_ASM1645464v1_bin_2,NZ_CP051411.1,S29_LN_i_19715_dp_f_1.1393619169178466,19715,1.0
GCF_016454645.1_ASM1645464v1,GCF_016454645.1_ASM1645464v1_bin_2,NZ_CP051411.1,S35_LN_i_4784_dp_f_0.8329783717589926,4784,1.0
GCF_016454645.1_ASM1645464v1,GCF_016454645.1_ASM1645464v1_bin_2,NZ_CP051411.1,S35_LN_i_4784_dp_f_0.8329783717589926,4784,1.0
GCF_016454645.1_ASM1645464v1,GCF_016454645.1_ASM1645464v1_bin_2,NZ_CP051411.1,S37_LN_i_4099_dp_f_0.7687678339672773,4099,1.0
GCF_016454645.1_ASM1645464v1,GCF_016454645.1_ASM1645464v1_bin_2,NZ_CP051411.1,S37_LN_i_4099_dp_f_0.7687678339672773,4099,1.0
GCF_016454645.1_ASM1645464v1,GCF_016454645.1_ASM1645464v1_bin_2,NZ_CP051411.1,S46_LN_i_1039_dp_f_0.9415061498143282,1039,1.0
GCF_014334175.1_ASM1433417v1,GCF_014334175.1_ASM1433417v1_bin_1,NZ_CP060509.1,S19_LN_i_77431_dp_f_1.252016504205506,77431,1.0
GCF_014334175.1_ASM1433417v1,GCF_014334175.1_ASM1433417v1_bin_1,NZ_CP060509.1,S21_LN_i_60023_dp_f_1.3599302398161324,60023,1.0
GCF_014334175.1_ASM1433417v1,GCF_014334175.1_ASM1433417v1_bin_1,NZ_CP060509.1,S24_LN_i_42287_dp_f_1.3793494338342562,42287,1.0
GCF_014334175.1_ASM1433417v1,GCF_014334175.1_ASM1433417v1_bin_1,NZ_CP060509.1,S30_LN_i_8718_dp_f_1.25977632684369,8718,1.0
GCF_014334175.1_ASM1433417v1,GCF_014334175.1_ASM1433417v1_bin_1,NZ_CP060509.1,S44_LN_i_1039_dp_f_1.32914855230469,1039,1.0
GCF_014334175.1_ASM1433417v1,GCF_014334175.1_ASM1433417v1_bin_3,NZ_CP060511.1,S34_LN_i_2978_dp_f_13.759619389229128,2978,1.0
GCF_014334175.1_ASM1433417v1,GCF_014334175.1_ASM1433417v1_bin_2,NZ_CP060510.1,S33_LN_i_3372_dp_f_14.18103125116232,3372,1.0
GCF_019670245.1_ASM1967024v1,GCF_019670245.1_ASM1967024v1_bin_2,NZ_AP023294.1,S172_LN_i_6084_dp_f_0.9874127612129636,6084,1.0
GCF_019670245.1_ASM1967024v1,GCF_019670245.1_ASM1967024v1_bin_2,NZ_AP023294.1,S184_LN_i_4386_dp_f_0.993534074833059,4386,1.0
GCF_019670245.1_ASM1967024v1,GCF_019670245.1_ASM1967024v1_bin_2,NZ_AP023294.1,S206_LN_i_1916_dp_f_0.9627946097921457,1916,1.0
GCF_019670245.1_ASM1967024v1,GCF_019670245.1_ASM1967024v1_bin_Unbinned,NZ_AP023294.1,S143_LN_i_9698_dp_f_1.0448397728900598,9698,1.0
GCF_019670245.1_ASM1967024v1,GCF_019670245.1_ASM1967024v1_bin_Unbinned,NZ_AP023294.1,S159_LN_i_7588_dp_f_0.9424734594454343,7588,1.0
GCF_019670245.1_ASM1967024v1,GCF_019670245.1_ASM1967024v1_bin_Unbinned,NZ_AP023294.1,S188_LN_i_3952_dp_f_0.9693364760679075,3952,1.0
GCF_019670245.1_ASM1967024v1,GCF_019670245.1_ASM1967024v1_bin_Unbinned,NZ_AP023294.1,S207_LN_i_1911_dp_f_0.8195926910134628,1911,1.0
GCF_019670245.1_ASM1967024v1,GCF_019670245.1_ASM1967024v1_bin_Unbinned,NZ_AP023294.1,S49_LN_i_31814_dp_f_0.9332149725950399,31814,1.0
GCF_019670245.1_ASM1967024v1,GCF_019670245.1_ASM1967024v1_bin_5,NZ_AP023298.1,S187_LN_i_4060_dp_f_5.297966446686753,4060,1.0
GCF_019670245.1_ASM1967024v1,GCF_019670245.1_ASM1967024v1_bin_4,NZ_AP023297.1,S181_LN_i_4869_dp_f_3.1853043598826134,4869,1.0
GCF_019670245.1_ASM1967024v1,GCF_019670245.1_ASM1967024v1_bin_1,NZ_AP023295.1,S16_LN_i_56707_dp_f_3.398290404553245,56707,1.0
GCF_019670245.1_ASM1967024v1,GCF_019670245.1_ASM1967024v1_bin_1,NZ_AP023295.1,S192_LN_i_3094_dp_f_3.2800431943821993,3094,1.0
GCF_019670245.1_ASM1967024v1,GCF_019670245.1_ASM1967024v1_bin_3,NZ_AP023296.1,S164_LN_i_6835_dp_f_36.70158653633178,6835,1.0
GCF_001652385.2_ASM165238v2,GCF_001652385.2_ASM165238v2_bin_1,NZ_CP075142.1,S22_LN_i_71120_dp_f_1.0318808949661433,71120,1.0
GCF_001652385.2_ASM165238v2,GCF_001652385.2_ASM165238v2_bin_1,NZ_CP075142.1,S42_LN_i_1740_dp_f_1.0538073993992543,1740,1.0
GCF_001652385.2_ASM165238v2,GCF_001652385.2_ASM165238v2_bin_1,NZ_CP075142.1,S42_LN_i_1740_dp_f_1.0538073993992543,1740,1.0
GCF_002507715.2_ASM250771v2,GCF_002507715.2_ASM250771v2_bin_1,NZ_CP075106.1,S20_LN_i_7000_dp_f_1.1731127277201008,7000,1.0
GCF_013161805.1_ASM1316180v1,GCF_013161805.1_ASM1316180v1_bin_1,NZ_CP053577.1,S32_LN_i_23339_dp_f_1.0151515009616299,23339,1.0
GCF_013161805.1_ASM1316180v1,GCF_013161805.1_ASM1316180v1_bin_1,NZ_CP053577.1,S9_LN_i_191788_dp_f_1.0,191788,1.0
GCF_013161805.1_ASM1316180v1,GCF_013161805.1_ASM1316180v1_bin_2,NZ_CP053576.1,S17_LN_i_83457_dp_f_0.951564693803933,83457,0.04,1,3118
GCF_013161805.1_ASM1316180v1,GCF_013161805.1_ASM1316180v1_bin_2,NZ_CP053578.1,S17_LN_i_83457_dp_f_0.951564693803933,83457,0.25,5656,26899
GCF_013161805.1_ASM1316180v1,GCF_013161805.1_ASM1316180v1_bin_2,NZ_CP053576.1,S17_LN_i_83457_dp_f_0.951564693803933,83457,0.14,29937,41864
GCF_013161805.1_ASM1316180v1,GCF_013161805.1_ASM1316180v1_bin_2,NZ_CP053576.1,S17_LN_i_83457_dp_f_0.951564693803933,83457,0.01,43346,43769
GCF_013161805.1_ASM1316180v1,GCF_013161805.1_ASM1316180v1_bin_2,NZ_CP053576.1,S17_LN_i_83457_dp_f_0.951564693803933,83457,0.48,43770,83457
GCF_013161805.1_ASM1316180v1,GCF_013161805.1_ASM1316180v1_bin_2,NZ_CP053576.1,S35_LN_i_6741_dp_f_0.9412743569748765,6741,1.0
GCF_019670365.1_ASM1967036v1,GCF_019670365.1_ASM1967036v1_bin_1,NZ_AP023310.1,S12_LN_i_130821_dp_f_1.204297346571069,130821,1.0
GCF_019670365.1_ASM1967036v1,GCF_019670365.1_ASM1967036v1_bin_1,NZ_AP023310.1,S23_LN_i_50656_dp_f_1.189675466380239,50656,1.0
GCF_019670365.1_ASM1967036v1,GCF_019670365.1_ASM1967036v1_bin_1,NZ_AP023310.1,S29_LN_i_25790_dp_f_1.099784559098374,25790,1.0
GCF_019670365.1_ASM1967036v1,GCF_019670365.1_ASM1967036v1_bin_1,NZ_AP023310.1,S34_LN_i_6084_dp_f_1.0356493698200469,6084,1.0
GCF_019670365.1_ASM1967036v1,GCF_019670365.1_ASM1967036v1_bin_1,NZ_AP023310.1,S36_LN_i_4386_dp_f_1.0941110302656603,4386,1.0
GCF_019670365.1_ASM1967036v1,GCF_019670365.1_ASM1967036v1_bin_1,NZ_AP023310.1,S40_LN_i_2785_dp_f_1.078198655485249,2785,1.0
GCF_019670365.1_ASM1967036v1,GCF_019670365.1_ASM1967036v1_bin_1,NZ_AP023310.1,S47_LN_i_1916_dp_f_1.1637250634552498,1916,1.0
GCF_019670365.1_ASM1967036v1,GCF_019670365.1_ASM1967036v1_bin_1,NZ_AP023310.1,S58_LN_i_1040_dp_f_1.0220592788270275,1040,1.0
GCF_015074905.1_ASM1507490v1,GCF_015074905.1_ASM1507490v1_bin_3,NZ_CP063296.1,S36_LN_i_3018_dp_f_2.005578213993958,3018,1.0
GCF_015074905.1_ASM1507490v1,GCF_015074905.1_ASM1507490v1_bin_3,NZ_CP063296.1,S39_LN_i_2583_dp_f_1.9666038637016607,2583,1.0
GCF_015074905.1_ASM1507490v1,GCF_015074905.1_ASM1507490v1_bin_1,NZ_CP063295.1,S12_LN_i_118965_dp_f_1.243190156032726,118965,1.0
GCF_015074905.1_ASM1507490v1,GCF_015074905.1_ASM1507490v1_bin_1,NZ_CP063295.1,S28_LN_i_14463_dp_f_1.1645730842045785,14463,1.0
GCF_015074905.1_ASM1507490v1,GCF_015074905.1_ASM1507490v1_bin_1,NZ_CP063295.1,S29_LN_i_7516_dp_f_1.1845917683568479,7516,1.0
GCF_015074905.1_ASM1507490v1,GCF_015074905.1_ASM1507490v1_bin_1,NZ_CP063295.1,S31_LN_i_5299_dp_f_1.225345563599711,5299,1.0
GCF_015074905.1_ASM1507490v1,GCF_015074905.1_ASM1507490v1_bin_1,NZ_CP063295.1,S35_LN_i_3125_dp_f_1.1671724822933764,3125,1.0
GCF_015074905.1_ASM1507490v1,GCF_015074905.1_ASM1507490v1_bin_1,NZ_CP063295.1,S45_LN_i_1033_dp_f_1.2356800558702723,1033,1.0
GCF_015074905.1_ASM1507490v1,GCF_015074905.1_ASM1507490v1_bin_6,NZ_CP063300.1,S40_LN_i_1718_dp_f_118.74968046186918,1718,1.0
GCF_015074905.1_ASM1507490v1,GCF_015074905.1_ASM1507490v1_bin_2,NZ_CP063297.1,S24_LN_i_29304_dp_f_0.7198519699290712,29304,1.0
GCF_015074905.1_ASM1507490v1,GCF_015074905.1_ASM1507490v1_bin_2,NZ_CP063297.1,S37_LN_i_3003_dp_f_0.6770085074993684,3003,1.0
GCF_015074905.1_ASM1507490v1,GCF_015074905.1_ASM1507490v1_bin_2,NZ_CP063297.1,S41_LN_i_1395_dp_f_0.7742632659282225,1395,1.0
GCF_015074905.1_ASM1507490v1,GCF_015074905.1_ASM1507490v1_bin_4,NZ_CP063298.1,S32_LN_i_4234_dp_f_3.0046769675159792,4234,1.0
GCF_015074905.1_ASM1507490v1,GCF_015074905.1_ASM1507490v1_bin_5,NZ_CP063299.1,S34_LN_i_3257_dp_f_14.525462895825394,3257,1.0
GCF_022936385.1_ASM2293638v1,GCF_022936385.1_ASM2293638v1_bin_1,NZ_CP092004.1,S22_LN_i_14399_dp_f_1.0482089868045874,14399,1.0
GCF_022936385.1_ASM2293638v1,GCF_022936385.1_ASM2293638v1_bin_2,NZ_CP092005.1,S24_LN_i_4593_dp_f_40.8323258599713,4593,1.0
GCF_014805785.2_ASM1480578v2,GCF_014805785.2_ASM1480578v2_bin_1,NZ_CP061929.2,S17_LN_i_26986_dp_f_1.076092305416454,26986,1.0
GCF_014805785.2_ASM1480578v2,GCF_014805785.2_ASM1480578v2_bin_1,NZ_CP061929.2,S19_LN_i_9111_dp_f_1.0241796504132503,9111,1.0
GCF_014805785.2_ASM1480578v2,GCF_014805785.2_ASM1480578v2_bin_1,NZ_CP061929.2,S31_LN_i_1083_dp_f_1.172620686419337,1083,1.0
GCF_016889645.1_ASM1688964v1,GCF_016889645.1_ASM1688964v1_bin_1,NZ_CP069519.1,S13_LN_i_128163_dp_f_1.362032697870114,128163,1.0
GCF_016127435.1_ASM1612743v1,GCF_016127435.1_ASM1612743v1_bin_2,NZ_CP066010.1,S32_LN_i_6741_dp_f_1.852225124787335,6741,1.0
GCF_016127435.1_ASM1612743v1,GCF_016127435.1_ASM1612743v1_bin_1,NZ_CP066011.1,S15_LN_i_91748_dp_f_1.8618462938852574,91748,1.0
GCF_016127435.1_ASM1612743v1,GCF_016127435.1_ASM1612743v1_bin_1,NZ_CP066011.1,S43_LN_i_1740_dp_f_1.796683705612305,1740,1.0
GCF_016127435.1_ASM1612743v1,GCF_016127435.1_ASM1612743v1_bin_3,NZ_CP066008.1,S29_LN_i_8688_dp_f_15.551935867395837,8688,1.0
GCF_015240995.1_ASM1524099v1,GCF_015240995.1_ASM1524099v1_bin_2,NZ_CP063707.1,S22_LN_i_6974_dp_f_8.682400336906127,6974,1.0
GCF_015240995.1_ASM1524099v1,GCF_015240995.1_ASM1524099v1_bin_4,NZ_CP063706.1,S25_LN_i_4899_dp_f_2.602687624347273,4899,1.0
GCF_015240995.1_ASM1524099v1,GCF_015240995.1_ASM1524099v1_bin_1,NZ_CP063706.1,S19_LN_i_29256_dp_f_3.3505320728758172,29256,1.0
GCF_015240995.1_ASM1524099v1,GCF_015240995.1_ASM1524099v1_bin_1,NZ_CP063706.1,S20_LN_i_26093_dp_f_3.175156703504367,26093,1.0
GCF_015240995.1_ASM1524099v1,GCF_015240995.1_ASM1524099v1_bin_1,NZ_CP063706.1,S30_LN_i_2939_dp_f_3.328299597999609,2939,1.0
GCF_015240995.1_ASM1524099v1,GCF_015240995.1_ASM1524099v1_bin_1,NZ_CP063706.1,S34_LN_i_1826_dp_f_3.4158547989857553,1826,1.0
GCF_015240995.1_ASM1524099v1,GCF_015240995.1_ASM1524099v1_bin_1,NZ_CP063706.1,S35_LN_i_1783_dp_f_3.238872043988743,1783,1.0
GCF_015240995.1_ASM1524099v1,GCF_015240995.1_ASM1524099v1_bin_1,NZ_CP063706.1,S41_LN_i_1243_dp_f_3.3103769264323906,1243,1.0
GCF_015240995.1_ASM1524099v1,GCF_015240995.1_ASM1524099v1_bin_3,NZ_CP063706.1,S23_LN_i_6749_dp_f_16.200170384337785,6749,1.0
GCF_015240995.1_ASM1524099v1,GCF_015240995.1_ASM1524099v1_bin_5,NZ_CP063706.1,S26_LN_i_4402_dp_f_2.9574528401536915,4402,1.0
GCF_015240995.1_ASM1524099v1,GCF_015240995.1_ASM1524099v1_bin_5,NZ_CP063706.1,S32_LN_i_2380_dp_f_2.894738476946988,2380,1.0
GCF_015074885.1_ASM1507488v1,GCF_015074885.1_ASM1507488v1_bin_1,NZ_CP063290.1,S20_LN_i_6701_dp_f_1.3405513652244294,6701,1.0
GCF_015074885.1_ASM1507488v1,GCF_015074885.1_ASM1507488v1_bin_1,NZ_CP063290.1,S26_LN_i_2583_dp_f_1.3636967964651632,2583,1.0
GCF_015074885.1_ASM1507488v1,GCF_015074885.1_ASM1507488v1_bin_4,NZ_CP063293.1,S25_LN_i_3610_dp_f_9.154943302443112,3610,1.0
GCF_015074885.1_ASM1507488v1,GCF_015074885.1_ASM1507488v1_bin_3,NZ_CP063292.1,S22_LN_i_5633_dp_f_2.3878169841898957,5633,1.0
GCF_015074885.1_ASM1507488v1,GCF_015074885.1_ASM1507488v1_bin_2,NZ_CP063290.1,S14_LN_i_58053_dp_f_1.5756659247298497,58053,1.0
GCF_015074885.1_ASM1507488v1,GCF_015074885.1_ASM1507488v1_bin_2,NZ_CP063290.1,S16_LN_i_42332_dp_f_1.5214998623525693,42332,1.0
GCF_016025415.1_ASM1602541v1,GCF_016025415.1_ASM1602541v1_bin_1,NZ_CP065568.1,S13_LN_i_115073_dp_f_2.0031940255020175,115073,1.0
GCF_016025415.1_ASM1602541v1,GCF_016025415.1_ASM1602541v1_bin_1,NZ_CP065568.1,S25_LN_i_59430_dp_f_1.9710744462961598,59430,1.0
GCF_016025415.1_ASM1602541v1,GCF_016025415.1_ASM1602541v1_bin_1,NZ_CP065568.1,S36_LN_i_14588_dp_f_1.9318831568405739,14588,1.0
GCF_016025415.1_ASM1602541v1,GCF_016025415.1_ASM1602541v1_bin_1,NZ_CP065568.1,S37_LN_i_14131_dp_f_1.9382066613039204,14131,1.0
GCF_016025415.1_ASM1602541v1,GCF_016025415.1_ASM1602541v1_bin_1,NZ_CP065568.1,S47_LN_i_3941_dp_f_2.0196764323748098,3941,1.0
GCF_016025415.1_ASM1602541v1,GCF_016025415.1_ASM1602541v1_bin_1,NZ_CP065568.1,S51_LN_i_3085_dp_f_1.9568292789241328,3085,1.0
GCF_016025415.1_ASM1602541v1,GCF_016025415.1_ASM1602541v1_bin_1,NZ_CP065568.1,S52_LN_i_2886_dp_f_1.950620148340064,2886,1.0
GCF_016025415.1_ASM1602541v1,GCF_016025415.1_ASM1602541v1_bin_1,NZ_CP065568.1,S59_LN_i_1976_dp_f_2.051812318745821,1976,1.0
GCF_016025415.1_ASM1602541v1,GCF_016025415.1_ASM1602541v1_bin_1,NZ_CP065568.1,S68_LN_i_1104_dp_f_1.9545356082174594,1104,1.0
GCF_016025415.1_ASM1602541v1,GCF_016025415.1_ASM1602541v1_bin_3,NZ_CP065569.1,S49_LN_i_3601_dp_f_1.3570501040909115,3601,1.0
GCF_016025415.1_ASM1602541v1,GCF_016025415.1_ASM1602541v1_bin_3,NZ_CP065569.1,S57_LN_i_2187_dp_f_1.3402985664335039,2187,1.0
GCF_016025415.1_ASM1602541v1,GCF_016025415.1_ASM1602541v1_bin_2,NZ_CP065568.1,S43_LN_i_4515_dp_f_1.7815092889062563,4515,1.0
GCF_016025415.1_ASM1602541v1,GCF_016025415.1_ASM1602541v1_bin_2,NZ_CP065568.1,S48_LN_i_3702_dp_f_1.7472352755394898,3702,1.0
GCF_016025415.1_ASM1602541v1,GCF_016025415.1_ASM1602541v1_bin_4,NZ_CP065570.1,S41_LN_i_5570_dp_f_3.4970601932749137,5570,1.0
GCF_016025415.1_ASM1602541v1,GCF_016025415.1_ASM1602541v1_bin_5,NZ_CP065571.1,S45_LN_i_4073_dp_f_3.614666329170971,4073,0.98
GCF_014334195.1_ASM1433419v1,GCF_014334195.1_ASM1433419v1_bin_1,NZ_CP060513.1,S18_LN_i_67374_dp_f_1.1287734787249795,67374,1.0
GCF_014334195.1_ASM1433419v1,GCF_014334195.1_ASM1433419v1_bin_1,NZ_CP060513.1,S20_LN_i_64475_dp_f_1.0945134597644042,64475,1.0
GCF_014334195.1_ASM1433419v1,GCF_014334195.1_ASM1433419v1_bin_1,NZ_CP060513.1,S21_LN_i_58240_dp_f_1.041804214588138,58240,1.0
GCF_014334195.1_ASM1433419v1,GCF_014334195.1_ASM1433419v1_bin_1,NZ_CP060513.1,S31_LN_i_24308_dp_f_1.2636383884697662,24308,1.0
GCF_014334195.1_ASM1433419v1,GCF_014334195.1_ASM1433419v1_bin_1,NZ_CP060513.1,S32_LN_i_15224_dp_f_1.2077252905420206,15224,1.0
GCF_014334195.1_ASM1433419v1,GCF_014334195.1_ASM1433419v1_bin_1,NZ_CP060513.1,S34_LN_i_8055_dp_f_0.8878508582749262,8055,1.0
GCF_014334195.1_ASM1433419v1,GCF_014334195.1_ASM1433419v1_bin_1,NZ_CP060513.1,S35_LN_i_5096_dp_f_0.9997817202471078,5096,1.0
GCF_014334195.1_ASM1433419v1,GCF_014334195.1_ASM1433419v1_bin_1,NZ_CP060513.1,S37_LN_i_4275_dp_f_1.0893693691087165,4275,1.0
GCF_014334195.1_ASM1433419v1,GCF_014334195.1_ASM1433419v1_bin_1,NZ_CP060513.1,S45_LN_i_1225_dp_f_1.6355167538041593,1225,1.0
GCF_014334195.1_ASM1433419v1,GCF_014334195.1_ASM1433419v1_bin_Unbinned,NZ_CP060514.1,S28_LN_i_41605_dp_f_3.2926572525647244,41605,1.0
GCF_019670205.1_ASM1967020v1,GCF_019670205.1_ASM1967020v1_bin_1,NZ_AP023291.1,S40_LN_i_5706_dp_f_0.8251612004078231,5706,1.0
GCF_019670205.1_ASM1967020v1,GCF_019670205.1_ASM1967020v1_bin_1,NZ_AP023291.1,S42_LN_i_4734_dp_f_0.8321314753069802,4734,1.0
GCF_019670205.1_ASM1967020v1,GCF_019670205.1_ASM1967020v1_bin_1,NZ_AP023291.1,S44_LN_i_4386_dp_f_0.7933757071727292,4386,1.0
GCF_019670205.1_ASM1967020v1,GCF_019670205.1_ASM1967020v1_bin_1,NZ_AP023291.1,S52_LN_i_1916_dp_f_0.9199012289808869,1916,1.0
GCF_015159575.1_ASM1515957v1,GCF_015159575.1_ASM1515957v1_bin_1,NZ_CP063331.1,S23_LN_i_2097_dp_f_20.9049100729644,2097,1.0
GCF_015159575.1_ASM1515957v1,GCF_015159575.1_ASM1515957v1_bin_Unbinned,NZ_CP063330.1,S19_LN_i_7001_dp_f_0.8949799763767877,7001,1.0
GCF_015159575.1_ASM1515957v1,GCF_015159575.1_ASM1515957v1_bin_Unbinned,NZ_CP063330.1,S27_LN_i_1083_dp_f_1.15336510783028,1083,1.0
GCF_016454425.1_ASM1645442v1,GCF_016454425.1_ASM1645442v1_bin_1,NZ_CP051385.1,S20_LN_i_87258_dp_f_0.655303943107906,87258,1.0
GCF_016454425.1_ASM1645442v1,GCF_016454425.1_ASM1645442v1_bin_1,NZ_CP051385.1,S32_LN_i_6136_dp_f_0.42692731117401816,6136,1.0
GCF_016454425.1_ASM1645442v1,GCF_016454425.1_ASM1645442v1_bin_1,NZ_CP051385.1,S32_LN_i_6136_dp_f_0.42692731117401816,6136,1.0
GCF_016454425.1_ASM1645442v1,GCF_016454425.1_ASM1645442v1_bin_1,NZ_CP051385.1,S48_LN_i_1968_dp_f_0.6435515088671,1968,1.0
GCF_016454425.1_ASM1645442v1,GCF_016454425.1_ASM1645442v1_bin_1,NZ_CP051385.1,S48_LN_i_1968_dp_f_0.6435515088671,1968,1.0
GCF_016454425.1_ASM1645442v1,GCF_016454425.1_ASM1645442v1_bin_Unbinned,NZ_CP051384.1,S15_LN_i_114502_dp_f_1.0727776109370473,114502,1.0
GCF_016025395.1_ASM1602539v1,GCF_016025395.1_ASM1602539v1_bin_3,NZ_CP065566.1,S34_LN_i_1040_dp_f_1.1773727272058807,1040,1.0
GCF_016025395.1_ASM1602539v1,GCF_016025395.1_ASM1602539v1_bin_1,NZ_CP065566.1,S20_LN_i_5616_dp_f_1.056818598434537,5616,1.0
GCF_016025395.1_ASM1602539v1,GCF_016025395.1_ASM1602539v1_bin_1,NZ_CP065566.1,S23_LN_i_2531_dp_f_1.0310604501525116,2531,1.0
GCF_016025395.1_ASM1602539v1,GCF_016025395.1_ASM1602539v1_bin_1,NZ_CP065566.1,S27_LN_i_1938_dp_f_1.0165461838019858,1938,1.0
GCF_016025395.1_ASM1602539v1,GCF_016025395.1_ASM1602539v1_bin_1,NZ_CP065566.1,S33_LN_i_1083_dp_f_1.2230784189484052,1083,1.0
GCF_016025395.1_ASM1602539v1,GCF_016025395.1_ASM1602539v1_bin_2,NZ_CP065566.1,S29_LN_i_1708_dp_f_0.8880297610339447,1708,1.0
GCF_016452065.1_ASM1645206v1,GCF_016452065.1_ASM1645206v1_bin_1,NZ_CP051319.1,S12_LN_i_52704_dp_f_1.950089107121931,52704,1.0
GCF_016452065.1_ASM1645206v1,GCF_016452065.1_ASM1645206v1_bin_1,NZ_CP051319.1,S14_LN_i_38873_dp_f_2.1209746624954415,38873,1.0
GCF_016452065.1_ASM1645206v1,GCF_016452065.1_ASM1645206v1_bin_1,NZ_CP051319.1,S15_LN_i_37806_dp_f_1.8607869825937748,37806,1.0
GCF_016452065.1_ASM1645206v1,GCF_016452065.1_ASM1645206v1_bin_1,NZ_CP051318.1,S20_LN_i_20169_dp_f_2.143689078828036,20169,1.0
GCF_016452065.1_ASM1645206v1,GCF_016452065.1_ASM1645206v1_bin_1,NZ_CP051318.1,S25_LN_i_7430_dp_f_1.5413523807480962,7430,1.0
GCF_016452065.1_ASM1645206v1,GCF_016452065.1_ASM1645206v1_bin_1,NZ_CP051319.1,S27_LN_i_5524_dp_f_1.8496802417719316,5524,1.0
GCF_016452065.1_ASM1645206v1,GCF_016452065.1_ASM1645206v1_bin_1,NZ_CP051318.1,S31_LN_i_2764_dp_f_2.0722204782723916,2764,1.0
GCF_016452065.1_ASM1645206v1,GCF_016452065.1_ASM1645206v1_bin_1,NZ_CP051319.1,S37_LN_i_1792_dp_f_1.3291524099382543,1792,1.0
GCF_016452065.1_ASM1645206v1,GCF_016452065.1_ASM1645206v1_bin_1,NZ_CP051318.1,S39_LN_i_1713_dp_f_1.9873480160348678,1713,1.0
GCF_016452005.1_ASM1645200v1,GCF_016452005.1_ASM1645200v1_bin_1,NZ_CP051311.1,S14_LN_i_84436_dp_f_0.883093558066495,84436,1.0
GCF_016452005.1_ASM1645200v1,GCF_016452005.1_ASM1645200v1_bin_1,NZ_CP051311.1,S18_LN_i_41757_dp_f_0.8825780229697651,41757,1.0
GCF_016452005.1_ASM1645200v1,GCF_016452005.1_ASM1645200v1_bin_1,NZ_CP051312.1,S19_LN_i_40267_dp_f_1.196440300380708,40267,1.0
GCF_016452005.1_ASM1645200v1,GCF_016452005.1_ASM1645200v1_bin_1,NZ_CP051312.1,S23_LN_i_27991_dp_f_1.0517526870617064,27991,1.0
GCF_016452005.1_ASM1645200v1,GCF_016452005.1_ASM1645200v1_bin_1,NZ_CP051311.1,S26_LN_i_22191_dp_f_0.9881085971862359,22191,1.0
GCF_016452005.1_ASM1645200v1,GCF_016452005.1_ASM1645200v1_bin_1,NZ_CP051311.1,S27_LN_i_14548_dp_f_1.0209034463205044,14548,1.0
GCF_016452005.1_ASM1645200v1,GCF_016452005.1_ASM1645200v1_bin_1,NZ_CP051311.1,S28_LN_i_14235_dp_f_0.8502860220263851,14235,1.0
GCF_016452005.1_ASM1645200v1,GCF_016452005.1_ASM1645200v1_bin_1,NZ_CP051311.1,S29_LN_i_11121_dp_f_0.7802552734193088,11121,1.0
GCF_016452005.1_ASM1645200v1,GCF_016452005.1_ASM1645200v1_bin_1,NZ_CP051311.1,S31_LN_i_9832_dp_f_0.9220481319943049,9832,1.0
GCF_016452005.1_ASM1645200v1,GCF_016452005.1_ASM1645200v1_bin_1,NZ_CP051311.1,S33_LN_i_7787_dp_f_1.0671173881893774,7787,1.0
GCF_016452005.1_ASM1645200v1,GCF_016452005.1_ASM1645200v1_bin_1,NZ_CP051311.1,S34_LN_i_7630_dp_f_1.012724052276639,7630,1.0
GCF_016452005.1_ASM1645200v1,GCF_016452005.1_ASM1645200v1_bin_1,NZ_CP051311.1,S35_LN_i_6998_dp_f_0.853757021835919,6998,1.0
GCF_022936425.1_ASM2293642v1,GCF_022936425.1_ASM2293642v1_bin_3,NZ_CP092011.1,S24_LN_i_5728_dp_f_4.7729317476818,5728,1.0
GCF_022936425.1_ASM2293642v1,GCF_022936425.1_ASM2293642v1_bin_2,NZ_CP092009.1,S21_LN_i_10550_dp_f_0.9953548727504211,10550,1.0
GCF_022936425.1_ASM2293642v1,GCF_022936425.1_ASM2293642v1_bin_2,NZ_CP092009.1,S26_LN_i_4258_dp_f_0.9599761659718626,4258,1.0
GCF_022936425.1_ASM2293642v1,GCF_022936425.1_ASM2293642v1_bin_2,NZ_CP092009.1,S31_LN_i_2194_dp_f_0.9311095877347668,2194,1.0
GCF_022936425.1_ASM2293642v1,GCF_022936425.1_ASM2293642v1_bin_1,NZ_CP092010.1,S15_LN_i_40587_dp_f_0.345885707970968,40587,1.0
GCF_022936425.1_ASM2293642v1,GCF_022936425.1_ASM2293642v1_bin_1,NZ_CP092010.1,S19_LN_i_16629_dp_f_0.3566727233484754,16629,1.0
GCF_022936425.1_ASM2293642v1,GCF_022936425.1_ASM2293642v1_bin_1,NZ_CP092010.1,S30_LN_i_2231_dp_f_0.3244352486410067,2231,1.0
GCF_016454345.1_ASM1645434v1,GCF_016454345.1_ASM1645434v1_bin_1,NZ_CP051373.1,S12_LN_i_52704_dp_f_0.48482403976696986,52704,1.0
GCF_016454345.1_ASM1645434v1,GCF_016454345.1_ASM1645434v1_bin_1,NZ_CP051373.1,S14_LN_i_37806_dp_f_0.43580141163649855,37806,1.0
GCF_016454345.1_ASM1645434v1,GCF_016454345.1_ASM1645434v1_bin_1,NZ_CP051373.1,S27_LN_i_2928_dp_f_0.41499151890319796,2928,1.0
GCF_016454345.1_ASM1645434v1,GCF_016454345.1_ASM1645434v1_bin_2,NZ_CP051375.1,S26_LN_i_3605_dp_f_23.27877972760778,3605,1.0
GCF_022162985.1_ASM2216298v1,GCF_022162985.1_ASM2216298v1_bin_1,NZ_CP091879.1,S28_LN_i_3967_dp_f_7.542989892016168,3967,1.0
GCF_019670405.1_ASM1967040v1,GCF_019670405.1_ASM1967040v1_bin_1,NZ_AP023314.1,S20_LN_i_60403_dp_f_1.9811498343376734,60403,1.0
GCF_019670405.1_ASM1967040v1,GCF_019670405.1_ASM1967040v1_bin_1,NZ_AP023314.1,S34_LN_i_5564_dp_f_2.0841009282355163,5564,1.0
GCF_019670405.1_ASM1967040v1,GCF_019670405.1_ASM1967040v1_bin_1,NZ_AP023314.1,S35_LN_i_4856_dp_f_1.9269160860401058,4856,1.0
GCF_019670405.1_ASM1967040v1,GCF_019670405.1_ASM1967040v1_bin_1,NZ_AP023314.1,S47_LN_i_1980_dp_f_1.8555911928160873,1980,1.0
GCF_019670405.1_ASM1967040v1,GCF_019670405.1_ASM1967040v1_bin_2,NZ_AP023314.1,S29_LN_i_14127_dp_f_2.082335630710189,14127,1.0
GCF_019670405.1_ASM1967040v1,GCF_019670405.1_ASM1967040v1_bin_2,NZ_AP023314.1,S37_LN_i_4670_dp_f_2.078851812484508,4670,1.0
GCF_019670405.1_ASM1967040v1,GCF_019670405.1_ASM1967040v1_bin_2,NZ_AP023314.1,S51_LN_i_1497_dp_f_2.1199213608176595,1497,1.0
GCF_016454245.1_ASM1645424v1,GCF_016454245.1_ASM1645424v1_bin_1,NZ_CP051357.1,S16_LN_i_80629_dp_f_1.371204265100652,80629,1.0
GCF_016454245.1_ASM1645424v1,GCF_016454245.1_ASM1645424v1_bin_1,NZ_CP051357.1,S22_LN_i_45752_dp_f_1.3935077420375994,45752,1.0
GCF_016454245.1_ASM1645424v1,GCF_016454245.1_ASM1645424v1_bin_1,NZ_CP051357.1,S32_LN_i_21539_dp_f_1.1751712091346074,21539,1.0
GCF_016454245.1_ASM1645424v1,GCF_016454245.1_ASM1645424v1_bin_1,NZ_CP051357.1,S34_LN_i_7961_dp_f_1.0381830079321257,7961,1.0
GCF_016454385.1_ASM1645438v1,GCF_016454385.1_ASM1645438v1_bin_2,NZ_CP051383.1,S34_LN_i_4690_dp_f_0.897375698945453,4690,1.0
GCF_016454385.1_ASM1645438v1,GCF_016454385.1_ASM1645438v1_bin_1,NZ_CP051382.1,S13_LN_i_98666_dp_f_1.150698485989847,98666,1.0
GCF_016454385.1_ASM1645438v1,GCF_016454385.1_ASM1645438v1_bin_1,NZ_CP051382.1,S20_LN_i_54056_dp_f_1.2532061937183083,54056,1.0
GCF_016454385.1_ASM1645438v1,GCF_016454385.1_ASM1645438v1_bin_1,NZ_CP051382.1,S22_LN_i_41290_dp_f_1.067858439001945,41290,1.0
GCF_016454385.1_ASM1645438v1,GCF_016454385.1_ASM1645438v1_bin_1,NZ_CP051382.1,S27_LN_i_11121_dp_f_1.0413918193088296,11121,1.0
GCF_016454385.1_ASM1645438v1,GCF_016454385.1_ASM1645438v1_bin_1,NZ_CP051382.1,S29_LN_i_9833_dp_f_1.0753995489224304,9833,1.0
GCF_016454385.1_ASM1645438v1,GCF_016454385.1_ASM1645438v1_bin_1,NZ_CP051382.1,S30_LN_i_7629_dp_f_1.3546410132918967,7629,1.0
GCF_016028495.1_ASM1602849v1,GCF_016028495.1_ASM1602849v1_bin_1,NZ_CP065719.1,S15_LN_i_91877_dp_f_2.328212644414837,91877,1.0
GCF_016028495.1_ASM1602849v1,GCF_016028495.1_ASM1602849v1_bin_1,NZ_CP065719.1,S38_LN_i_1740_dp_f_2.1996516762562077,1740,1.0
GCF_021397625.1_ASM2139762v1,GCF_021397625.1_ASM2139762v1_bin_6,NZ_CP090138.1,S31_LN_i_4597_dp_f_10.963826678902516,4597,1.0
GCF_021397625.1_ASM2139762v1,GCF_021397625.1_ASM2139762v1_bin_6,NZ_CP090140.1,S31_LN_i_4597_dp_f_10.963826678902516,4597,1.0
GCF_021397625.1_ASM2139762v1,GCF_021397625.1_ASM2139762v1_bin_1,NZ_CP090138.1,S25_LN_i_8951_dp_f_3.0973228234797276,8951,1.0
GCF_021397625.1_ASM2139762v1,GCF_021397625.1_ASM2139762v1_bin_1,NZ_CP090138.1,S35_LN_i_3446_dp_f_3.113454722276619,3446,1.0
GCF_021397625.1_ASM2139762v1,GCF_021397625.1_ASM2139762v1_bin_1,NZ_CP090138.1,S38_LN_i_2437_dp_f_3.270542536433416,2437,1.0
GCF_021397625.1_ASM2139762v1,GCF_021397625.1_ASM2139762v1_bin_1,NZ_CP090138.1,S39_LN_i_2419_dp_f_2.9696604342224817,2419,1.0
GCF_021397625.1_ASM2139762v1,GCF_021397625.1_ASM2139762v1_bin_2,NZ_CP090138.1,S22_LN_i_12454_dp_f_3.335282680706335,12454,1.0
GCF_021397625.1_ASM2139762v1,GCF_021397625.1_ASM2139762v1_bin_2,NZ_CP090138.1,S26_LN_i_8213_dp_f_3.350065163493817,8213,1.0
GCF_021397625.1_ASM2139762v1,GCF_021397625.1_ASM2139762v1_bin_2,NZ_CP090138.1,S32_LN_i_4592_dp_f_3.321124390968951,4592,1.0
GCF_021397625.1_ASM2139762v1,GCF_021397625.1_ASM2139762v1_bin_2,NZ_CP090138.1,S42_LN_i_2072_dp_f_3.2068793547481858,2072,1.0
GCF_021397625.1_ASM2139762v1,GCF_021397625.1_ASM2139762v1_bin_2,NZ_CP090138.1,S44_LN_i_1751_dp_f_3.3584842777942034,1751,1.0
GCF_021397625.1_ASM2139762v1,GCF_021397625.1_ASM2139762v1_bin_2,NZ_CP090138.1,S48_LN_i_1180_dp_f_3.3029454193487022,1180,1.0
GCF_021397625.1_ASM2139762v1,GCF_021397625.1_ASM2139762v1_bin_4,NZ_CP090139.1,S18_LN_i_27579_dp_f_3.141180285739549,27579,1.0
GCF_021397625.1_ASM2139762v1,GCF_021397625.1_ASM2139762v1_bin_4,NZ_CP090139.1,S21_LN_i_18539_dp_f_3.0152162400725637,18539,1.0
GCF_021397625.1_ASM2139762v1,GCF_021397625.1_ASM2139762v1_bin_4,NZ_CP090139.1,S40_LN_i_2231_dp_f_3.195448529699194,2231,1.0
GCF_021397625.1_ASM2139762v1,GCF_021397625.1_ASM2139762v1_bin_5,NZ_CP090138.1,S17_LN_i_30220_dp_f_3.789453212769274,30220,1.0
GCF_021397625.1_ASM2139762v1,GCF_021397625.1_ASM2139762v1_bin_5,NZ_CP090138.1,S23_LN_i_10369_dp_f_3.812219984657102,10369,1.0
GCF_021397625.1_ASM2139762v1,GCF_021397625.1_ASM2139762v1_bin_3,NZ_CP090138.1,S14_LN_i_51282_dp_f_3.6068274689989472,51282,1.0
GCF_021397625.1_ASM2139762v1,GCF_021397625.1_ASM2139762v1_bin_3,NZ_CP090138.1,S15_LN_i_50445_dp_f_3.550075142983064,50445,1.0
GCF_021397625.1_ASM2139762v1,GCF_021397625.1_ASM2139762v1_bin_3,NZ_CP090138.1,S20_LN_i_22858_dp_f_3.718956952228054,22858,1.0
GCF_021397625.1_ASM2139762v1,GCF_021397625.1_ASM2139762v1_bin_3,NZ_CP090138.1,S24_LN_i_9338_dp_f_3.4593993669996235,9338,1.0
GCF_021397625.1_ASM2139762v1,GCF_021397625.1_ASM2139762v1_bin_3,NZ_CP090138.1,S27_LN_i_7979_dp_f_3.561309305738608,7979,1.0
GCF_021397625.1_ASM2139762v1,GCF_021397625.1_ASM2139762v1_bin_3,NZ_CP090138.1,S30_LN_i_4724_dp_f_3.461186164303535,4724,1.0
GCF_021397625.1_ASM2139762v1,GCF_021397625.1_ASM2139762v1_bin_3,NZ_CP090138.1,S36_LN_i_2978_dp_f_3.4294422290882416,2978,1.0
GCF_021397625.1_ASM2139762v1,GCF_021397625.1_ASM2139762v1_bin_3,NZ_CP090138.1,S43_LN_i_1895_dp_f_3.5867287799285132,1895,1.0
GCF_021397625.1_ASM2139762v1,GCF_021397625.1_ASM2139762v1_bin_Unbinned,NZ_CP090138.1,S34_LN_i_3755_dp_f_6.660175020043836,3755,1.0
GCF_021397625.1_ASM2139762v1,GCF_021397625.1_ASM2139762v1_bin_Unbinned,NZ_CP090138.1,S34_LN_i_3755_dp_f_6.660175020043836,3755,1.0
GCF_021397625.1_ASM2139762v1,GCF_021397625.1_ASM2139762v1_bin_Unbinned,NZ_CP090138.1,S45_LN_i_1630_dp_f_6.159278207722498,1630,1.0
GCF_021397625.1_ASM2139762v1,GCF_021397625.1_ASM2139762v1_bin_Unbinned,NZ_CP090138.1,S45_LN_i_1630_dp_f_6.159278207722498,1630,1.0
GCF_022870605.1_ASM2287060v1,GCF_022870605.1_ASM2287060v1_bin_1,NZ_CP058672.1,S23_LN_i_70493_dp_f_0.6707051277804857,70493,1.0
GCF_022870605.1_ASM2287060v1,GCF_022870605.1_ASM2287060v1_bin_1,NZ_CP058672.1,S40_LN_i_24201_dp_f_0.6513800486344195,24201,1.0
GCF_022870605.1_ASM2287060v1,GCF_022870605.1_ASM2287060v1_bin_1,NZ_CP058672.1,S42_LN_i_18988_dp_f_0.6917905634727821,18988,1.0
GCF_022870605.1_ASM2287060v1,GCF_022870605.1_ASM2287060v1_bin_1,NZ_CP058672.1,S46_LN_i_18381_dp_f_0.6457370892803322,18381,1.0
GCF_022870605.1_ASM2287060v1,GCF_022870605.1_ASM2287060v1_bin_1,NZ_CP058672.1,S48_LN_i_16419_dp_f_0.6588509743864774,16419,1.0
GCF_022870605.1_ASM2287060v1,GCF_022870605.1_ASM2287060v1_bin_1,NZ_CP058672.1,S51_LN_i_12786_dp_f_0.6358047292114639,12786,1.0
GCF_022870605.1_ASM2287060v1,GCF_022870605.1_ASM2287060v1_bin_1,NZ_CP058672.1,S54_LN_i_9438_dp_f_0.6458181666382423,9438,1.0
GCF_022870605.1_ASM2287060v1,GCF_022870605.1_ASM2287060v1_bin_1,NZ_CP058672.1,S55_LN_i_7164_dp_f_0.6530939125766325,7164,1.0
GCF_022870605.1_ASM2287060v1,GCF_022870605.1_ASM2287060v1_bin_1,NZ_CP058672.1,S56_LN_i_6133_dp_f_0.6506758658993781,6133,1.0
GCF_022870605.1_ASM2287060v1,GCF_022870605.1_ASM2287060v1_bin_1,NZ_CP058672.1,S59_LN_i_5407_dp_f_0.6486090102143962,5407,1.0
GCF_022870605.1_ASM2287060v1,GCF_022870605.1_ASM2287060v1_bin_1,NZ_CP058672.1,S63_LN_i_4124_dp_f_0.676497541794024,4124,1.0
GCF_022870605.1_ASM2287060v1,GCF_022870605.1_ASM2287060v1_bin_1,NZ_CP058672.1,S75_LN_i_1598_dp_f_0.669313815562306,1598,1.0
GCF_022870605.1_ASM2287060v1,GCF_022870605.1_ASM2287060v1_bin_1,NZ_CP058672.1,S76_LN_i_1544_dp_f_0.637400678205364,1544,1.0
GCF_022870605.1_ASM2287060v1,GCF_022870605.1_ASM2287060v1_bin_1,NZ_CP058672.1,S81_LN_i_1425_dp_f_0.715288985118704,1425,1.0
GCF_022870605.1_ASM2287060v1,GCF_022870605.1_ASM2287060v1_bin_1,NZ_CP058672.1,S88_LN_i_1209_dp_f_0.682117898513677,1209,1.0
GCF_022870605.1_ASM2287060v1,GCF_022870605.1_ASM2287060v1_bin_1,NZ_CP058672.1,S92_LN_i_1041_dp_f_0.6500961546318034,1041,1.0
GCF_022870605.1_ASM2287060v1,GCF_022870605.1_ASM2287060v1_bin_3,NZ_CP058674.1,S67_LN_i_3371_dp_f_15.015169548444147,3371,1.0
GCF_022870605.1_ASM2287060v1,GCF_022870605.1_ASM2287060v1_bin_2,NZ_CP058673.1,S50_LN_i_12791_dp_f_2.4367607067126564,12791,1.0
GCF_022870605.1_ASM2287060v1,GCF_022870605.1_ASM2287060v1_bin_2,NZ_CP058673.1,S53_LN_i_10065_dp_f_2.4758616347257565,10065,1.0
GCF_022870605.1_ASM2287060v1,GCF_022870605.1_ASM2287060v1_bin_2,NZ_CP058673.1,S58_LN_i_5489_dp_f_2.562776978897354,5489,1.0
GCF_022870605.1_ASM2287060v1,GCF_022870605.1_ASM2287060v1_bin_2,NZ_CP058673.1,S61_LN_i_4705_dp_f_2.6596066153002833,4705,1.0
GCF_022870605.1_ASM2287060v1,GCF_022870605.1_ASM2287060v1_bin_2,NZ_CP058673.1,S64_LN_i_4104_dp_f_2.789009531730247,4104,1.0
GCF_022870605.1_ASM2287060v1,GCF_022870605.1_ASM2287060v1_bin_2,NZ_CP058673.1,S79_LN_i_1451_dp_f_2.518427045209484,1451,1.0
GCF_022870605.1_ASM2287060v1,GCF_022870605.1_ASM2287060v1_bin_2,NZ_CP058673.1,S90_LN_i_1190_dp_f_2.7716675803206243,1190,1.0
GCF_014334255.1_ASM1433425v1,GCF_014334255.1_ASM1433425v1_bin_3,NZ_CP060525.1,S25_LN_i_2096_dp_f_31.607871579901925,2096,1.0
GCF_014334255.1_ASM1433425v1,GCF_014334255.1_ASM1433425v1_bin_1,NZ_CP060523.1,S15_LN_i_56260_dp_f_1.154901128093866,56260,1.0
GCF_014334255.1_ASM1433425v1,GCF_014334255.1_ASM1433425v1_bin_1,NZ_CP060523.1,S26_LN_i_1783_dp_f_1.4777766978523397,1783,1.0
GCF_014334255.1_ASM1433425v1,GCF_014334255.1_ASM1433425v1_bin_2,NZ_CP060524.1,S17_LN_i_33310_dp_f_1.3294352398517089,33310,1.0
GCF_019670425.1_ASM1967042v1,GCF_019670425.1_ASM1967042v1_bin_1,NZ_AP023316.1,S13_LN_i_130821_dp_f_1.2332562196255192,130821,1.0
GCF_019670425.1_ASM1967042v1,GCF_019670425.1_ASM1967042v1_bin_1,NZ_AP023316.1,S22_LN_i_50656_dp_f_1.243318945577988,50656,1.0
GCF_019670425.1_ASM1967042v1,GCF_019670425.1_ASM1967042v1_bin_1,NZ_AP023316.1,S28_LN_i_25790_dp_f_1.1514479994870042,25790,1.0
GCF_019670425.1_ASM1967042v1,GCF_019670425.1_ASM1967042v1_bin_1,NZ_AP023316.1,S40_LN_i_2785_dp_f_1.1765290141682525,2785,1.0
GCF_019670425.1_ASM1967042v1,GCF_019670425.1_ASM1967042v1_bin_1,NZ_AP023316.1,S57_LN_i_1040_dp_f_1.2082947956265366,1040,1.0
GCF_019670425.1_ASM1967042v1,GCF_019670425.1_ASM1967042v1_bin_2,NZ_AP023316.1,S34_LN_i_6084_dp_f_1.978750103319113,6084,1.0
GCF_019670425.1_ASM1967042v1,GCF_019670425.1_ASM1967042v1_bin_2,NZ_AP023315.1,S34_LN_i_6084_dp_f_1.978750103319113,6084,1.0
GCF_019670425.1_ASM1967042v1,GCF_019670425.1_ASM1967042v1_bin_2,NZ_AP023316.1,S36_LN_i_4386_dp_f_2.0769045484807873,4386,1.0
GCF_019670425.1_ASM1967042v1,GCF_019670425.1_ASM1967042v1_bin_2,NZ_AP023315.1,S36_LN_i_4386_dp_f_2.0769045484807873,4386,1.0
GCF_001831985.2_ASM183198v2,GCF_001831985.2_ASM183198v2_bin_2,NZ_CP075136.1,S27_LN_i_26031_dp_f_7.409506441260077,26031,1.0
GCF_022226915.1_ASM2222691v1,GCF_022226915.1_ASM2222691v1_bin_1,NZ_CP092076.1,S40_LN_i_1921_dp_f_1.8433202280668015,1921,1.0
GCF_016454505.1_ASM1645450v1,GCF_016454505.1_ASM1645450v1_bin_1,NZ_CP051395.1,S11_LN_i_89455_dp_f_0.671538581976625,89455,1.0
GCF_016454505.1_ASM1645450v1,GCF_016454505.1_ASM1645450v1_bin_1,NZ_CP051395.1,S16_LN_i_39027_dp_f_0.6027994344194375,39027,1.0
GCF_016454505.1_ASM1645450v1,GCF_016454505.1_ASM1645450v1_bin_1,NZ_CP051395.1,S19_LN_i_21875_dp_f_0.7149741841399758,21875,1.0
GCF_016454505.1_ASM1645450v1,GCF_016454505.1_ASM1645450v1_bin_1,NZ_CP051395.1,S25_LN_i_1042_dp_f_0.5824288699593383,1042,1.0
GCF_006461325.2_ASM646132v2,GCF_006461325.2_ASM646132v2_bin_1,NZ_CP069167.1,S18_LN_i_35785_dp_f_1.103463967591767,35785,1.0
GCF_006461325.2_ASM646132v2,GCF_006461325.2_ASM646132v2_bin_1,NZ_CP069167.1,S19_LN_i_33408_dp_f_1.0945333153080339,33408,1.0
GCF_006461325.2_ASM646132v2,GCF_006461325.2_ASM646132v2_bin_1,NZ_CP069167.1,S21_LN_i_28189_dp_f_1.12410853583315,28189,1.0
GCF_006461325.2_ASM646132v2,GCF_006461325.2_ASM646132v2_bin_1,NZ_CP069167.1,S24_LN_i_20233_dp_f_1.084498850642664,20233,1.0
GCF_006461325.2_ASM646132v2,GCF_006461325.2_ASM646132v2_bin_1,NZ_CP069167.1,S25_LN_i_18859_dp_f_1.118707913381275,18859,1.0
GCF_006461325.2_ASM646132v2,GCF_006461325.2_ASM646132v2_bin_1,NZ_CP069167.1,S26_LN_i_18477_dp_f_1.1180722031366424,18477,1.0
GCF_006461325.2_ASM646132v2,GCF_006461325.2_ASM646132v2_bin_1,NZ_CP069167.1,S29_LN_i_11470_dp_f_1.082569965497267,11470,1.0
GCF_006461325.2_ASM646132v2,GCF_006461325.2_ASM646132v2_bin_1,NZ_CP069167.1,S30_LN_i_10760_dp_f_1.1191532237466646,10760,1.0
GCF_006461325.2_ASM646132v2,GCF_006461325.2_ASM646132v2_bin_1,NZ_CP069167.1,S32_LN_i_7952_dp_f_1.0358595913208875,7952,1.0
GCF_006461325.2_ASM646132v2,GCF_006461325.2_ASM646132v2_bin_1,NZ_CP069167.1,S36_LN_i_4392_dp_f_1.1295004470239,4392,1.0
GCF_006461325.2_ASM646132v2,GCF_006461325.2_ASM646132v2_bin_1,NZ_CP069167.1,S39_LN_i_3938_dp_f_1.0793710720069034,3938,1.0
GCF_006461325.2_ASM646132v2,GCF_006461325.2_ASM646132v2_bin_1,NZ_CP069167.1,S40_LN_i_3232_dp_f_1.0857193824074574,3232,1.0
GCF_016454525.1_ASM1645452v1,GCF_016454525.1_ASM1645452v1_bin_1,NZ_CP051397.1,S21_LN_i_73563_dp_f_0.8602782985959183,73563,1.0
GCF_016454525.1_ASM1645452v1,GCF_016454525.1_ASM1645452v1_bin_1,NZ_CP051397.1,S32_LN_i_31390_dp_f_0.8478701266133845,31390,1.0
GCF_016454525.1_ASM1645452v1,GCF_016454525.1_ASM1645452v1_bin_1,NZ_CP051397.1,S33_LN_i_30934_dp_f_0.7896462133856039,30934,1.0
GCF_016454525.1_ASM1645452v1,GCF_016454525.1_ASM1645452v1_bin_1,NZ_CP051397.1,S38_LN_i_14551_dp_f_0.8254425469644339,14551,1.0
GCF_016454525.1_ASM1645452v1,GCF_016454525.1_ASM1645452v1_bin_1,NZ_CP051397.1,S41_LN_i_9089_dp_f_0.7994198886269394,9089,1.0
GCF_016454525.1_ASM1645452v1,GCF_016454525.1_ASM1645452v1_bin_1,NZ_CP051397.1,S46_LN_i_5430_dp_f_0.6074747597080645,5430,1.0
GCF_016454525.1_ASM1645452v1,GCF_016454525.1_ASM1645452v1_bin_1,NZ_CP051397.1,S52_LN_i_3977_dp_f_0.6644242938697852,3977,1.0
GCF_016454525.1_ASM1645452v1,GCF_016454525.1_ASM1645452v1_bin_1,NZ_CP051397.1,S54_LN_i_2096_dp_f_0.7068407623618785,2096,1.0
GCF_016454525.1_ASM1645452v1,GCF_016454525.1_ASM1645452v1_bin_1,NZ_CP051397.1,S55_LN_i_1895_dp_f_0.5216755764568712,1895,1.0
GCF_016454525.1_ASM1645452v1,GCF_016454525.1_ASM1645452v1_bin_1,NZ_CP051397.1,S57_LN_i_1464_dp_f_0.6011723838420217,1464,1.0
GCF_016454525.1_ASM1645452v1,GCF_016454525.1_ASM1645452v1_bin_1,NZ_CP051397.1,S62_LN_i_1180_dp_f_0.8259148831285277,1180,1.0
GCF_016127835.1_ASM1612783v1,GCF_016127835.1_ASM1612783v1_bin_1,NZ_CP066048.1,S13_LN_i_55131_dp_f_1.9898471695023612,55131,1.0
GCF_016127835.1_ASM1612783v1,GCF_016127835.1_ASM1612783v1_bin_1,NZ_CP066048.1,S22_LN_i_1783_dp_f_1.8966727250064714,1783,1.0
GCF_001973785.2_ASM197378v2,GCF_001973785.2_ASM197378v2_bin_2,NZ_CP075124.1,S17_LN_i_32950_dp_f_1.3142615855472077,32950,1.0
GCF_001973785.2_ASM197378v2,GCF_001973785.2_ASM197378v2_bin_1,NZ_CP075123.1,S14_LN_i_49590_dp_f_0.5636510595429353,49590,1.0
GCF_001973785.2_ASM197378v2,GCF_001973785.2_ASM197378v2_bin_1,NZ_CP075123.1,S26_LN_i_1783_dp_f_0.5586407720126398,1783,1.0
GCF_001973785.2_ASM197378v2,GCF_001973785.2_ASM197378v2_bin_1,NZ_CP075123.1,S26_LN_i_1783_dp_f_0.5586407720126398,1783,1.0
GCF_016454165.1_ASM1645416v1,GCF_016454165.1_ASM1645416v1_bin_1,NZ_CP051347.1,S16_LN_i_52517_dp_f_0.7499756208276819,52517,1.0
GCF_016454165.1_ASM1645416v1,GCF_016454165.1_ASM1645416v1_bin_1,NZ_CP051347.1,S17_LN_i_49404_dp_f_0.8291672180146586,49404,1.0
GCF_016454165.1_ASM1645416v1,GCF_016454165.1_ASM1645416v1_bin_1,NZ_CP051348.1,S20_LN_i_32131_dp_f_0.9289856601519169,32131,1.0
GCF_016454165.1_ASM1645416v1,GCF_016454165.1_ASM1645416v1_bin_1,NZ_CP051347.1,S23_LN_i_15522_dp_f_0.7973309729026737,15522,1.0
GCF_016454165.1_ASM1645416v1,GCF_016454165.1_ASM1645416v1_bin_1,NZ_CP051348.1,S24_LN_i_12497_dp_f_1.0162057773032278,12497,1.0
GCF_016454165.1_ASM1645416v1,GCF_016454165.1_ASM1645416v1_bin_1,NZ_CP051347.1,S25_LN_i_10688_dp_f_0.8007221280998362,10688,1.0
GCF_016454165.1_ASM1645416v1,GCF_016454165.1_ASM1645416v1_bin_1,NZ_CP051347.1,S26_LN_i_6570_dp_f_0.8246473638324732,6570,1.0
GCF_016454165.1_ASM1645416v1,GCF_016454165.1_ASM1645416v1_bin_1,NZ_CP051347.1,S30_LN_i_2735_dp_f_0.8346839942730672,2735,1.0
GCF_016454165.1_ASM1645416v1,GCF_016454165.1_ASM1645416v1_bin_1,NZ_CP051347.1,S32_LN_i_2272_dp_f_0.8293719596567168,2272,1.0
GCF_001833255.2_ASM183325v2,GCF_001833255.2_ASM183325v2_bin_1,NZ_CP075130.1,S14_LN_i_102775_dp_f_3.5651719550178136,102775,1.0
GCF_001833255.2_ASM183325v2,GCF_001833255.2_ASM183325v2_bin_1,NZ_CP075130.1,S31_LN_i_22286_dp_f_3.747650209140524,22286,1.0
GCF_001833255.2_ASM183325v2,GCF_001833255.2_ASM183325v2_bin_1,NZ_CP075130.1,S34_LN_i_7508_dp_f_3.809437152000587,7508,1.0
GCF_001833255.2_ASM183325v2,GCF_001833255.2_ASM183325v2_bin_2,NZ_CP075131.1,S29_LN_i_26031_dp_f_9.52507195925617,26031,0.99
GCF_016454665.1_ASM1645466v1,GCF_016454665.1_ASM1645466v1_bin_2,NZ_CP051414.1,S30_LN_i_3372_dp_f_78.96039945804922,3372,1.0
GCF_016454665.1_ASM1645466v1,GCF_016454665.1_ASM1645466v1_bin_3,NZ_CP051415.1,S31_LN_i_3319_dp_f_69.28564683892048,3319,1.0
GCF_016454665.1_ASM1645466v1,GCF_016454665.1_ASM1645466v1_bin_1,NZ_CP051413.1,S24_LN_i_16353_dp_f_1.0446713943291195,16353,1.0
GCF_016454665.1_ASM1645466v1,GCF_016454665.1_ASM1645466v1_bin_1,NZ_CP051413.1,S25_LN_i_7506_dp_f_1.087624703522028,7506,1.0
GCF_016454665.1_ASM1645466v1,GCF_016454665.1_ASM1645466v1_bin_1,NZ_CP051413.1,S39_LN_i_1446_dp_f_1.1971811736437636,1446,1.0
GCF_016454665.1_ASM1645466v1,GCF_016454665.1_ASM1645466v1_bin_1,NZ_CP051413.1,S43_LN_i_1323_dp_f_1.3467724013826732,1323,1.0
GCF_016454665.1_ASM1645466v1,GCF_016454665.1_ASM1645466v1_bin_1,NZ_CP051413.1,S45_LN_i_1139_dp_f_1.0959562279669954,1139,1.0
GCF_003068025.2_ASM306802v2,GCF_003068025.2_ASM306802v2_bin_2,NZ_CP077708.1,S12_LN_i_96045_dp_f_0.7881348695840213,96045,1.0
GCF_003068025.2_ASM306802v2,GCF_003068025.2_ASM306802v2_bin_1,NZ_CP077707.1,S11_LN_i_102787_dp_f_0.898625848503068,102787,1.0
GCF_003068025.2_ASM306802v2,GCF_003068025.2_ASM306802v2_bin_1,NZ_CP077707.1,S22_LN_i_17320_dp_f_1.014950347069438,17320,1.0
GCF_003068025.2_ASM306802v2,GCF_003068025.2_ASM306802v2_bin_1,NZ_CP077707.1,S24_LN_i_7529_dp_f_1.0828992738736385,7529,1.0
GCF_003068025.2_ASM306802v2,GCF_003068025.2_ASM306802v2_bin_1,NZ_CP077707.1,S27_LN_i_3299_dp_f_0.914653230988649,3299,1.0
GCF_003068025.2_ASM306802v2,GCF_003068025.2_ASM306802v2_bin_1,NZ_CP077707.1,S31_LN_i_1266_dp_f_1.0137719848655027,1266,1.0
GCF_003068025.2_ASM306802v2,GCF_003068025.2_ASM306802v2_bin_3,NZ_CP077709.1,S20_LN_i_26031_dp_f_4.749206984514425,26031,1.0
GCF_013328855.1_ASM1332885v1,GCF_013328855.1_ASM1332885v1_bin_1,NZ_CP054423.1,S26_LN_i_40537_dp_f_0.8635166916028356,40537,1.0
GCF_013415925.1_ASM1341592v1,GCF_013415925.1_ASM1341592v1_bin_1,NZ_CP058811.1,S23_LN_i_63517_dp_f_3.0617424205926995,63517,1.0
GCF_013415925.1_ASM1341592v1,GCF_013415925.1_ASM1341592v1_bin_1,NZ_CP058811.1,S33_LN_i_23186_dp_f_3.0574052164578593,23186,1.0
GCF_013415925.1_ASM1341592v1,GCF_013415925.1_ASM1341592v1_bin_3,NZ_CP058808.1,S43_LN_i_3752_dp_f_38.6581716102099,3752,1.0
GCF_013415925.1_ASM1341592v1,GCF_013415925.1_ASM1341592v1_bin_2,NZ_CP058810.1,S26_LN_i_50418_dp_f_2.456011583869214,50418,1.0
GCF_013415925.1_ASM1341592v1,GCF_013415925.1_ASM1341592v1_bin_2,NZ_CP058810.1,S27_LN_i_50275_dp_f_2.4584410865862565,50275,1.0
GCF_013415925.1_ASM1341592v1,GCF_013415925.1_ASM1341592v1_bin_2,NZ_CP058810.1,S28_LN_i_46063_dp_f_2.4844647428910354,46063,1.0
GCF_013415925.1_ASM1341592v1,GCF_013415925.1_ASM1341592v1_bin_2,NZ_CP058810.1,S41_LN_i_4196_dp_f_2.4621763607610307,4196,1.0
GCF_013415925.1_ASM1341592v1,GCF_013415925.1_ASM1341592v1_bin_2,NZ_CP058810.1,S44_LN_i_3480_dp_f_2.3424997343951026,3480,1.0
GCF_013415925.1_ASM1341592v1,GCF_013415925.1_ASM1341592v1_bin_2,NZ_CP058810.1,S51_LN_i_1771_dp_f_2.5170719563649087,1771,1.0
GCF_016026715.1_ASM1602671v1,GCF_016026715.1_ASM1602671v1_bin_1,NZ_CP065638.1,S14_LN_i_91877_dp_f_2.0748949552079994,91877,1.0
GCF_016026715.1_ASM1602671v1,GCF_016026715.1_ASM1602671v1_bin_1,NZ_CP065638.1,S37_LN_i_1740_dp_f_1.9482000978244636,1740,1.0
GCF_015240855.1_ASM1524085v1,GCF_015240855.1_ASM1524085v1_bin_5,NZ_CP063704.1,S29_LN_i_4888_dp_f_15.002954918803617,4888,1.0
GCF_015240855.1_ASM1524085v1,GCF_015240855.1_ASM1524085v1_bin_1,NZ_CP063703.1,S20_LN_i_19875_dp_f_1.5341149708013782,19875,1.0
GCF_015240855.1_ASM1524085v1,GCF_015240855.1_ASM1524085v1_bin_1,NZ_CP063703.1,S23_LN_i_8907_dp_f_1.5653254856756542,8907,1.0
GCF_015240855.1_ASM1524085v1,GCF_015240855.1_ASM1524085v1_bin_1,NZ_CP063703.1,S24_LN_i_7905_dp_f_1.4570907808702984,7905,1.0
GCF_015240855.1_ASM1524085v1,GCF_015240855.1_ASM1524085v1_bin_1,NZ_CP063703.1,S26_LN_i_6265_dp_f_1.6099566347138465,6265,1.0
GCF_015240855.1_ASM1524085v1,GCF_015240855.1_ASM1524085v1_bin_1,NZ_CP063703.1,S31_LN_i_3935_dp_f_1.6039353372970149,3935,1.0
GCF_015240855.1_ASM1524085v1,GCF_015240855.1_ASM1524085v1_bin_1,NZ_CP063703.1,S43_LN_i_1541_dp_f_1.4986048472680633,1541,1.0
GCF_015240855.1_ASM1524085v1,GCF_015240855.1_ASM1524085v1_bin_2,NZ_CP063703.1,S21_LN_i_14383_dp_f_1.7345733413208475,14383,1.0
GCF_015240855.1_ASM1524085v1,GCF_015240855.1_ASM1524085v1_bin_2,NZ_CP063703.1,S22_LN_i_9269_dp_f_1.7861708786210764,9269,1.0
GCF_015240855.1_ASM1524085v1,GCF_015240855.1_ASM1524085v1_bin_2,NZ_CP063703.1,S25_LN_i_6431_dp_f_1.7140571849154647,6431,1.0
GCF_015240855.1_ASM1524085v1,GCF_015240855.1_ASM1524085v1_bin_2,NZ_CP063703.1,S32_LN_i_3624_dp_f_1.6637380264147235,3624,1.0
GCF_015240855.1_ASM1524085v1,GCF_015240855.1_ASM1524085v1_bin_2,NZ_CP063703.1,S41_LN_i_1826_dp_f_1.7691519574244294,1826,1.0
GCF_015240855.1_ASM1524085v1,GCF_015240855.1_ASM1524085v1_bin_2,NZ_CP063703.1,S46_LN_i_1230_dp_f_1.7076662428555,1230,1.0
GCF_015240855.1_ASM1524085v1,GCF_015240855.1_ASM1524085v1_bin_2,NZ_CP063703.1,S47_LN_i_1015_dp_f_1.699318410256098,1015,1.0
GCF_015240855.1_ASM1524085v1,GCF_015240855.1_ASM1524085v1_bin_4,NZ_CP063702.1,S33_LN_i_3594_dp_f_1.0978870245478787,3594,1.0
GCF_015240855.1_ASM1524085v1,GCF_015240855.1_ASM1524085v1_bin_4,NZ_CP063702.1,S34_LN_i_3227_dp_f_1.190780561338731,3227,1.0
GCF_015240855.1_ASM1524085v1,GCF_015240855.1_ASM1524085v1_bin_3,NZ_CP063703.1,S28_LN_i_4899_dp_f_1.3492895737446862,4899,1.0
GCF_022936485.1_ASM2293648v1,GCF_022936485.1_ASM2293648v1_bin_2,NZ_CP092013.1,S21_LN_i_4593_dp_f_87.9963188013616,4593,1.0
GCF_022936485.1_ASM2293648v1,GCF_022936485.1_ASM2293648v1_bin_1,NZ_CP092012.1,S19_LN_i_14399_dp_f_1.1135840380112296,14399,1.0
GCF_003581245.2_ASM358124v2,GCF_003581245.2_ASM358124v2_bin_1,NZ_CP074606.1,S20_LN_i_57628_dp_f_1.6043968126982957,57628,0.01
GCF_014840915.2_ASM1484091v2,GCF_014840915.2_ASM1484091v2_bin_1,NZ_CP062004.2,S17_LN_i_26986_dp_f_1.0826410503180568,26986,1.0
GCF_014840915.2_ASM1484091v2,GCF_014840915.2_ASM1484091v2_bin_1,NZ_CP062004.2,S19_LN_i_9111_dp_f_1.08910325544561,9111,1.0
GCF_014840915.2_ASM1484091v2,GCF_014840915.2_ASM1484091v2_bin_1,NZ_CP062004.2,S31_LN_i_1083_dp_f_1.1391914298480486,1083,1.0
GCF_014858545.1_ASM1485854v1,GCF_014858545.1_ASM1485854v1_bin_3,NZ_CP062224.1,S27_LN_i_3446_dp_f_0.9651002423385356,3446,1.0
GCF_014858545.1_ASM1485854v1,GCF_014858545.1_ASM1485854v1_bin_3,NZ_CP062224.1,S29_LN_i_2437_dp_f_0.9752332114176531,2437,1.0
GCF_014858545.1_ASM1485854v1,GCF_014858545.1_ASM1485854v1_bin_Unbinned,NZ_CP062224.1,S32_LN_i_1895_dp_f_1.2729005389029926,1895,1.0
GCF_014858545.1_ASM1485854v1,GCF_014858545.1_ASM1485854v1_bin_Unbinned,NZ_CP062224.1,S33_LN_i_1630_dp_f_1.960381005727376,1630,1.0
GCF_014858545.1_ASM1485854v1,GCF_014858545.1_ASM1485854v1_bin_Unbinned,NZ_CP062224.1,S33_LN_i_1630_dp_f_1.960381005727376,1630,1.0
GCF_014858545.1_ASM1485854v1,GCF_014858545.1_ASM1485854v1_bin_1,NZ_CP062224.1,S13_LN_i_61643_dp_f_1.1180230732292136,61643,1.0
GCF_014858545.1_ASM1485854v1,GCF_014858545.1_ASM1485854v1_bin_1,NZ_CP062224.1,S14_LN_i_58420_dp_f_1.0974759875710447,58420,1.0
GCF_014858545.1_ASM1485854v1,GCF_014858545.1_ASM1485854v1_bin_1,NZ_CP062224.1,S15_LN_i_54756_dp_f_1.120309991834536,54756,1.0
GCF_014858545.1_ASM1485854v1,GCF_014858545.1_ASM1485854v1_bin_1,NZ_CP062224.1,S18_LN_i_19468_dp_f_1.0817758752662967,19468,1.0
GCF_014858545.1_ASM1485854v1,GCF_014858545.1_ASM1485854v1_bin_1,NZ_CP062224.1,S20_LN_i_8210_dp_f_1.0437847582589828,8210,1.0
GCF_014858545.1_ASM1485854v1,GCF_014858545.1_ASM1485854v1_bin_1,NZ_CP062224.1,S21_LN_i_6484_dp_f_1.100907030251218,6484,1.0
GCF_014858545.1_ASM1485854v1,GCF_014858545.1_ASM1485854v1_bin_1,NZ_CP062224.1,S23_LN_i_4724_dp_f_1.0650677296857443,4724,1.0
GCF_014858545.1_ASM1485854v1,GCF_014858545.1_ASM1485854v1_bin_1,NZ_CP062224.1,S24_LN_i_4593_dp_f_1.0586590871405577,4593,1.0
GCF_014858545.1_ASM1485854v1,GCF_014858545.1_ASM1485854v1_bin_1,NZ_CP062224.1,S26_LN_i_3755_dp_f_1.0025231325325956,3755,1.0
GCF_014858545.1_ASM1485854v1,GCF_014858545.1_ASM1485854v1_bin_1,NZ_CP062224.1,S28_LN_i_3265_dp_f_1.106913127667361,3265,1.0
GCF_014858545.1_ASM1485854v1,GCF_014858545.1_ASM1485854v1_bin_1,NZ_CP062224.1,S31_LN_i_2072_dp_f_1.0065422088281888,2072,1.0
GCF_014858545.1_ASM1485854v1,GCF_014858545.1_ASM1485854v1_bin_2,NZ_CP062224.1,S19_LN_i_8951_dp_f_0.9515103896910491,8951,1.0
GCF_014858545.1_ASM1485854v1,GCF_014858545.1_ASM1485854v1_bin_2,NZ_CP062224.1,S35_LN_i_1180_dp_f_0.9575511575337027,1180,1.0
