"arg_plasmid","software","species","Recall median (IQR)","Precision median (IQR)","F1-Score median (IQR)"
"ARG-plasmid","gplas","A. baumannii","0.75 (0.17 - 0.89)","1 (0.83 - 1)","0.6 (0.29 - 0.94)"
"ARG-plasmid","gplas","E. faecalis","0.74 (0.52 - 0.87)","0.58 (0.48 - 1)","0.65 (0.46 - 0.85)"
"ARG-plasmid","gplas","E. faecium","0.68 (0.55 - 0.76)","0.93 (0.54 - 1)","0.73 (0.39 - 0.83)"
"ARG-plasmid","gplas","K. pneumoniae","0.82 (0.52 - 0.91)","0.98 (0.36 - 1)","0.69 (0.38 - 0.92)"
"ARG-plasmid","gplas","S. enterica","0.81 (0.19 - 0.94)","1 (0.98 - 1)","0.8 (0.26 - 0.95)"
"ARG-plasmid","gplas","S. aureus","1 (0.99 - 1)","1 (1 - 1)","1 (0.99 - 1)"
"ARG-plasmid","MOB-suite","A. baumannii","0.85 (0.54 - 0.91)","0.98 (0.88 - 0.99)","0.88 (0.66 - 0.94)"
"ARG-plasmid","MOB-suite","E. faecalis","0.16 (0.08 - 0.45)","0.88 (0.27 - 1)","0.27 (0.1 - 0.55)"
"ARG-plasmid","MOB-suite","E. faecium","0.36 (0.17 - 0.7)","0.8 (0.53 - 0.95)","0.43 (0.19 - 0.71)"
"ARG-plasmid","MOB-suite","K. pneumoniae","0.49 (0.16 - 0.86)","0.95 (0.7 - 1)","0.58 (0.21 - 0.89)"
"ARG-plasmid","MOB-suite","S. enterica","0.9 (0.48 - 0.96)","0.98 (0.91 - 1)","0.89 (0.49 - 0.96)"
"ARG-plasmid","MOB-suite","S. aureus","1 (0.99 - 1)","1 (0.95 - 1)","0.99 (0.97 - 1)"
"ARG-plasmid","plasmidSPAdes","A. baumannii","0.27 (0.26 - 0.95)","0.85 (0.59 - 1)","0.41 (0.33 - 0.74)"
"ARG-plasmid","plasmidSPAdes","E. faecalis","0.78 (0.49 - 0.83)","0.28 (0.1 - 0.38)","0.23 (0.18 - 0.52)"
"ARG-plasmid","plasmidSPAdes","E. faecium","0.74 (0.16 - 0.79)","0.13 (0.07 - 0.25)","0.2 (0.08 - 0.37)"
"ARG-plasmid","plasmidSPAdes","K. pneumoniae","0.83 (0.22 - 0.93)","0.37 (0.16 - 0.88)","0.43 (0.21 - 0.82)"
"ARG-plasmid","plasmidSPAdes","S. enterica","0.88 (0.38 - 0.95)","0.9 (0.63 - 0.98)","0.81 (0.34 - 0.93)"
"ARG-plasmid","plasmidSPAdes","S. aureus","0.99 (0.99 - 1)","0.99 (0.96 - 0.99)","0.99 (0.97 - 0.99)"
"non-ARG-plasmid","gplas","A. baumannii","0.89 (0.72 - 0.99)","1 (1 - 1)","0.94 (0.83 - 0.99)"
"non-ARG-plasmid","gplas","E. faecalis","0.88 (0.65 - 0.93)","0.35 (0.24 - 0.56)","0.51 (0.35 - 0.66)"
"non-ARG-plasmid","gplas","E. faecium","0.66 (0.44 - 0.82)","0.75 (0.24 - 0.95)","0.53 (0.26 - 0.76)"
"non-ARG-plasmid","gplas","K. pneumoniae","0.84 (0.57 - 0.97)","0.98 (0.43 - 1)","0.74 (0.39 - 0.96)"
"non-ARG-plasmid","gplas","S. enterica","0.98 (0.92 - 1)","1 (1 - 1)","0.99 (0.9 - 1)"
"non-ARG-plasmid","gplas","S. aureus","0.97 (0.94 - 1)","1 (1 - 1)","0.98 (0.97 - 1)"
"non-ARG-plasmid","MOB-suite","A. baumannii","0.99 (0.84 - 1)","0.97 (0.94 - 0.98)","0.96 (0.88 - 0.99)"
"non-ARG-plasmid","MOB-suite","E. faecalis","0.36 (0.21 - 0.63)","0.72 (0.54 - 0.78)","0.51 (0.3 - 0.66)"
"non-ARG-plasmid","MOB-suite","E. faecium","0.43 (0.19 - 0.71)","0.68 (0.23 - 0.87)","0.42 (0.2 - 0.66)"
"non-ARG-plasmid","MOB-suite","K. pneumoniae","0.46 (0.14 - 0.93)","0.97 (0.59 - 1)","0.6 (0.22 - 0.95)"
"non-ARG-plasmid","MOB-suite","S. enterica","0.98 (0.92 - 1)","1 (0.98 - 1)","0.98 (0.94 - 1)"
"non-ARG-plasmid","MOB-suite","S. aureus","0.95 (0.68 - 1)","1 (1 - 1)","0.98 (0.81 - 1)"
"non-ARG-plasmid","plasmidSPAdes","A. baumannii","0.9 (0.57 - 1)","0.99 (0.96 - 1)","0.94 (0.69 - 0.99)"
"non-ARG-plasmid","plasmidSPAdes","E. faecalis","0.86 (0.79 - 0.92)","0.2 (0.18 - 0.63)","0.33 (0.29 - 0.67)"
"non-ARG-plasmid","plasmidSPAdes","E. faecium","0.45 (0.18 - 0.85)","0.16 (0.07 - 0.31)","0.22 (0.09 - 0.38)"
"non-ARG-plasmid","plasmidSPAdes","K. pneumoniae","0.89 (0.59 - 0.98)","0.43 (0.19 - 0.96)","0.52 (0.26 - 0.92)"
"non-ARG-plasmid","plasmidSPAdes","S. enterica","0.99 (0.91 - 1)","0.99 (0.86 - 1)","0.97 (0.56 - 1)"
"non-ARG-plasmid","plasmidSPAdes","S. aureus","0.97 (0.92 - 1)","0.99 (0.98 - 0.99)","0.98 (0.95 - 0.99)"
