"species","software","F1-Score (contig)","Recall (contig)","Precision (contig)"
"E. faecalis","mlplasmids",0.8,0.69,0.96
"E. faecalis","RFplasmid",0.74,0.98,0.59
"E. faecalis","Platon",0.79,0.73,0.85
"E. faecalis","plasmidEC",0.88,0.89,0.88
"S. enterica","Centrifuge",0.89,0.84,0.94
"S. enterica","RFplasmid",0.76,0.97,0.62
"S. enterica","Platon",0.87,0.87,0.87
"S. enterica","plasmidEC",0.92,0.97,0.88
"E. faecium","mlplasmids",0.92,0.93,0.92
"E. faecium","RFplasmid",0.86,0.97,0.77
"E. faecium","Platon",0.92,0.89,0.96
"E. faecium","plasmidEC",0.94,0.97,0.92
"A. baumannii","Centrifuge",0.87,0.87,0.87
"A. baumannii","RFplasmid",0.53,0.6,0.47
"A. baumannii","Platon",0.73,0.79,0.67
"A. baumannii","plasmidEC",0.74,0.84,0.66
"K. pneumoniae","Centrifuge",0.95,0.94,0.97
"K. pneumoniae","RFplasmid",0.88,0.81,0.96
"K. pneumoniae","Platon",0.88,0.8,0.98
"K. pneumoniae","plasmidEC",0.94,0.9,0.98
"S. aureus","Centrifuge",0.91,0.85,0.97
"S. aureus","RFplasmid",0.45,0.99,0.29
"S. aureus","Platon",0.87,0.98,0.79
"S. aureus","plasmidEC",0.88,0.99,0.79
