GCF_013895695.1_ASM1389569v1,plasmid_AA454,NZ_CP057723.1,146742,144059
GCF_013895695.1_ASM1389569v1,plasmid_AA552,NZ_CP057724.1,45899,45899
GCF_002853115.2_ASM285311v2,plasmid_AA406,NZ_CP073286.1,217238,226478
GCF_002853115.2_ASM285311v2,plasmid_AA406,NZ_CP073285.1,17722,226478
GCF_904865825.1_INF018,plasmid_AD441,NZ_LR890493.1,3317,70265
GCF_904865825.1_INF018,plasmid_AG934,NZ_LR890497.1,3012,3012
GCF_904865825.1_INF018,plasmid_AB043,NZ_LR890499.1,1916,1916
GCF_904865825.1_INF018,plasmid_AE105,NZ_LR890493.1,3806,76394
GCF_904865825.1_INF018,plasmid_AA113,NZ_LR890495.1,3385,3385
GCF_904865825.1_INF018,plasmid_AA114,NZ_LR890498.1,2870,2873
GCF_904865825.1_INF018,plasmid_AA531,NZ_LR890496.1,3223,3223
GCF_904865825.1_INF018,plasmid_AA277,no_correct_alignments,0,0
GCF_904865755.1_INF341,plasmid_AA275,NZ_LR890491.1,193041,191845
GCF_904865755.1_INF341,plasmid_AA275,NZ_LR890490.1,2392,191845
GCF_904865755.1_INF341,plasmid_AA941,NZ_LR890492.1,9294,9294
GCF_904863125.1_INF357,plasmid_AB056,NZ_LR890223.1,3302,3302
GCF_904863125.1_INF357,plasmid_AA814,NZ_LR890218.1,115406,115432
GCF_904863125.1_INF357,plasmid_AA814,NZ_LR890217.1,1096,115432
GCF_904863125.1_INF357,plasmid_AC431,NZ_LR890220.1,3539,6708
GCF_904863125.1_INF357,plasmid_AC431,NZ_LR890221.1,3169,6708
GCF_904863195.1_INF133,plasmid_AB043,NZ_LR890190.1,1879,1916
GCF_904863195.1_INF133,plasmid_AD170,NZ_LR890196.1,3377,3377
GCF_904863195.1_INF133,plasmid_AF573,NZ_LR890193.1,7984,7984
GCF_904863195.1_INF133,plasmid_AF471,NZ_LR890194.1,4064,4064
GCF_904863195.1_INF133,plasmid_AA445,NZ_LR890193.1,100563,101784
GCF_904863195.1_INF133,plasmid_AA445,NZ_LR890192.1,4768,101784
GCF_904863195.1_INF133,plasmid_AA404,NZ_LR890192.1,210528,209331
GCF_904863195.1_INF133,plasmid_AA404,NZ_LR890191.1,1197,209331
GCF_904863195.1_INF133,plasmid_AA404,NZ_LR890189.1,1197,209331
GCF_904863195.1_INF133,plasmid_AA531,NZ_LR890197.1,3223,3223
GCF_904863195.1_INF133,plasmid_AA277,NZ_LR890191.1,225021,221791
GCF_904863195.1_INF133,plasmid_AA277,NZ_LR890189.1,1998,221791
GCF_904863195.1_INF133,plasmid_AA277,NZ_LR890193.1,4124,221791
GCF_013730675.1_ASM1373067v1,plasmid_AD443,NZ_CP056298.1,122890,120722
GCF_013730675.1_ASM1373067v1,plasmid_AD443,NZ_CP056297.1,2489,120722
GCF_904864535.1_INF313,plasmid_AB045,NZ_LR890419.1,3216,3514
GCF_904864535.1_INF313,plasmid_AA033,NZ_LR890417.1,56670,57833
GCF_904864535.1_INF313,plasmid_AA033,NZ_LR890415.1,4690,57833
GCF_904864535.1_INF313,plasmid_AE232,NZ_LR890421.1,2723,2723
GCF_904864535.1_INF313,plasmid_AA111,NZ_LR890418.1,5599,5783
GCF_904864535.1_INF313,plasmid_AA531,NZ_LR890420.1,3223,3223
GCF_904864535.1_INF313,plasmid_AA277,NZ_LR890416.1,228233,225856
GCF_904864535.1_INF313,plasmid_AA277,NZ_LR890417.1,10435,225856
GCF_904865795.1_KSB2_10B,plasmid_AB531,NZ_LR890486.1,47830,50443
GCF_904865795.1_KSB2_10B,plasmid_AB531,NZ_LR890484.1,13631,50443
GCF_904865795.1_KSB2_10B,plasmid_AB043,NZ_LR890489.1,1916,1916
GCF_904865795.1_KSB2_10B,plasmid_AF471,NZ_LR890487.1,4016,4064
GCF_904865795.1_KSB2_10B,plasmid_AA531,NZ_LR890488.1,3223,3223
GCF_904865795.1_KSB2_10B,plasmid_AA277,NZ_LR890485.1,231939,227196
GCF_904865795.1_KSB2_10B,plasmid_AA277,NZ_LR890484.1,2030,227196
GCF_904864515.1_KSB2_2C,plasmid_AB531,NZ_LR890391.1,13437,37956
GCF_904864515.1_KSB2_2C,plasmid_AB043,NZ_LR890394.1,1916,1916
GCF_904864515.1_KSB2_2C,plasmid_AA531,NZ_LR890393.1,3223,3223
GCF_904864515.1_KSB2_2C,plasmid_AA277,NZ_LR890392.1,228640,223897
GCF_904864515.1_KSB2_2C,plasmid_AA277,NZ_LR890391.1,2030,223897
GCF_016904275.1_ASM1690427v1,plasmid_AA275,NZ_CP070083.1,196819,202294
GCF_016904275.1_ASM1690427v1,plasmid_AA275,NZ_CP070084.1,7085,202294
GCF_016904275.1_ASM1690427v1,plasmid_AA275,NZ_CP070087.1,29706,202294
GCF_016904275.1_ASM1690427v1,plasmid_AA275,NZ_CP070082.1,3559,202294
GCF_016904275.1_ASM1690427v1,plasmid_AD094,NZ_CP070086.1,2756,2756
GCF_016904275.1_ASM1690427v1,plasmid_AA941,NZ_CP070082.1,10358,14589
GCF_016904275.1_ASM1690427v1,plasmid_AA941,NZ_CP070084.1,4231,14589
GCF_016904275.1_ASM1690427v1,plasmid_AA941,NZ_CP070087.1,1061,14589
GCF_016904275.1_ASM1690427v1,plasmid_AB189,NZ_CP070084.1,12391,12391
GCF_016904275.1_ASM1690427v1,plasmid_AB189,NZ_CP070087.1,1374,12391
GCF_016904275.1_ASM1690427v1,plasmid_AB189,NZ_CP070083.1,1374,12391
GCF_016904275.1_ASM1690427v1,plasmid_AG658,NZ_CP070084.1,3923,3923
GCF_016904275.1_ASM1690427v1,plasmid_AA038,NZ_CP070086.1,38630,43476
GCF_016904275.1_ASM1690427v1,plasmid_AA038,NZ_CP070084.1,4846,43476
GCF_016904275.1_ASM1690427v1,plasmid_AA541,NZ_CP070085.1,5585,5585
GCF_904866475.1_KSB2_9B,plasmid_AB181,NZ_LR890712.1,21511,21511
GCF_904866475.1_KSB2_9B,plasmid_AA276,NZ_LR890711.1,201598,204571
GCF_904866475.1_KSB2_9B,plasmid_AA276,NZ_LR890712.1,6235,204571
GCF_904866475.1_KSB2_9B,plasmid_AB193,NZ_LR890712.1,20438,20438
GCF_904866475.1_KSB2_9B,plasmid_AF218,NZ_LR890713.1,29298,29298
GCF_020149875.1_ASM2014987v1,plasmid_AB159,NZ_CP083776.1,16489,16489
GCF_020149875.1_ASM2014987v1,plasmid_AB536,NZ_CP083778.1,32381,32381
GCF_020149875.1_ASM2014987v1,plasmid_AB050,NZ_CP083780.1,4740,4740
GCF_020149875.1_ASM2014987v1,plasmid_AA122,NZ_CP083781.1,3594,3643
GCF_020149875.1_ASM2014987v1,plasmid_AA035,NZ_CP083776.1,187833,189327
GCF_020149875.1_ASM2014987v1,plasmid_AA035,NZ_CP083775.1,26124,189327
GCF_020149875.1_ASM2014987v1,plasmid_AA035,NZ_CP083777.1,2006,189327
GCF_020149875.1_ASM2014987v1,plasmid_AA434,NZ_CP083777.1,66885,66885
GCF_020149875.1_ASM2014987v1,plasmid_AG328,NZ_CP083775.1,8989,8989
GCF_020149875.1_ASM2014987v1,plasmid_AA113,NZ_CP083782.1,3549,3549
GCF_020149875.1_ASM2014987v1,plasmid_novel_d9dc3f3b1fa762a2d9de87554eccb27a,NZ_CP083776.1,14576,15820
GCF_020149875.1_ASM2014987v1,plasmid_novel_d9dc3f3b1fa762a2d9de87554eccb27a,NZ_CP083775.1,2488,15820
GCF_020149875.1_ASM2014987v1,plasmid_AA105,NZ_CP083779.1,5521,5521
GCF_020149895.1_ASM2014989v1,plasmid_AB045,NZ_CP083772.1,5214,5214
GCF_020149895.1_ASM2014989v1,plasmid_AB961,NZ_CP083769.1,4498,5943
GCF_020149895.1_ASM2014989v1,plasmid_AB961,NZ_CP083768.1,7225,5943
GCF_020149895.1_ASM2014989v1,plasmid_AB536,NZ_CP083770.1,32395,32395
GCF_020149895.1_ASM2014989v1,plasmid_AD996,NZ_CP083773.1,4176,4176
GCF_020149895.1_ASM2014989v1,plasmid_AA035,NZ_CP083769.1,212926,222388
GCF_020149895.1_ASM2014989v1,plasmid_AA035,NZ_CP083768.1,17756,222388
GCF_020149895.1_ASM2014989v1,plasmid_AD485,NZ_CP083771.1,6352,6352
GCF_904866465.1_INF161,plasmid_AA966,NZ_LR890720.1,69443,69443
GCF_904866465.1_INF161,plasmid_AA282,NZ_LR890721.1,85250,85250
GCF_904865735.1_INF361,plasmid_AB045,NZ_LR890530.1,3514,3514
GCF_904865735.1_INF361,plasmid_AD443,NZ_LR890529.1,118104,118104
GCF_904865735.1_INF361,plasmid_AD443,NZ_LR890528.1,2486,118104
GCF_904865735.1_INF361,plasmid_AA452,NZ_LR890528.1,174734,171140
GCF_904865735.1_INF361,plasmid_AA452,NZ_LR890529.1,2216,171140
GCF_904863405.1_INF215,plasmid_AA402,NZ_LR890318.1,194027,194663
GCF_904863405.1_INF215,plasmid_AA402,NZ_LR890319.1,11030,194663
GCF_904863405.1_INF215,plasmid_AA402,NZ_LR890317.1,6690,194663
GCF_904863405.1_INF215,plasmid_AA554,NZ_LR890319.1,34673,34673
GCF_016903955.1_ASM1690395v1,plasmid_AA275,NZ_CP070016.1,66515,63327
GCF_016903955.1_ASM1690395v1,plasmid_AA275,NZ_CP070015.1,5972,63327
GCF_016903955.1_ASM1690395v1,plasmid_AA276,NZ_CP070016.1,128743,128745
GCF_016903955.1_ASM1690395v1,plasmid_AA276,NZ_CP070015.1,4517,128745
GCF_016903955.1_ASM1690395v1,plasmid_novel_868e42c20e4dd87b8bcb5582c27b1520,NZ_CP070017.1,5627,5627
GCF_904866405.1_INF279,plasmid_AB045,NZ_LR890683.1,3400,3514
GCF_904866405.1_INF279,plasmid_AA033,NZ_LR890681.1,57205,58368
GCF_904866405.1_INF279,plasmid_AA033,NZ_LR890679.1,2236,58368
GCF_904866405.1_INF279,plasmid_AE232,NZ_LR890685.1,2723,2723
GCF_904866405.1_INF279,plasmid_AA111,NZ_LR890682.1,5341,6412
GCF_904866405.1_INF279,plasmid_AA531,NZ_LR890684.1,3128,3223
GCF_904866405.1_INF279,plasmid_AA277,NZ_LR890680.1,228840,224193
GCF_904866405.1_INF279,plasmid_AA277,NZ_LR890681.1,11187,224193
GCF_920103885.1_DJ,plasmid_AB685,NZ_OV049809.1,1549,1549
GCF_920103885.1_DJ,plasmid_AB531,NZ_OV049816.1,54975,55108
GCF_920103885.1_DJ,plasmid_AB443,NZ_OV049812.1,5590,5590
GCF_920103885.1_DJ,plasmid_AA964,NZ_OV049814.1,113925,120830
GCF_920103885.1_DJ,plasmid_AA964,NZ_OV049808.1,17025,120830
GCF_920103885.1_DJ,plasmid_AA964,NZ_OV049813.1,7447,120830
GCF_920103885.1_DJ,plasmid_AA964,NZ_OV049815.1,8343,120830
GCF_920103885.1_DJ,plasmid_AD312,NZ_OV049813.1,5183,6628
GCF_920103885.1_DJ,plasmid_AD312,NZ_OV049808.1,5775,6628
GCF_920103885.1_DJ,plasmid_AB237,NZ_OV049810.1,2056,2056
GCF_920103885.1_DJ,plasmid_AD485,NZ_OV049811.1,4715,4715
GCF_920103885.1_DJ,plasmid_AA338,NZ_OV049808.1,67181,101618
GCF_920103885.1_DJ,plasmid_AA338,NZ_OV049815.1,25737,101618
GCF_920103885.1_DJ,plasmid_AA338,NZ_OV049813.1,29456,101618
GCF_020149785.1_ASM2014978v1,plasmid_AB045,NZ_CP083801.1,3514,3514
GCF_020149785.1_ASM2014978v1,plasmid_AA450,NZ_CP083797.1,74284,76187
GCF_020149785.1_ASM2014978v1,plasmid_AA450,NZ_CP083798.1,1981,76187
GCF_020149785.1_ASM2014978v1,plasmid_AA450,NZ_CP083796.1,3806,76187
GCF_020149785.1_ASM2014978v1,plasmid_AA882,NZ_CP083799.1,31359,31359
GCF_020149785.1_ASM2014978v1,plasmid_AB962,NZ_CP083798.1,76085,76085
GCF_020149785.1_ASM2014978v1,plasmid_AA402,NZ_CP083797.1,114368,106027
GCF_020149785.1_ASM2014978v1,plasmid_AA402,NZ_CP083796.1,4204,106027
GCF_020149785.1_ASM2014978v1,plasmid_AA402,NZ_CP083798.1,3219,106027
GCF_020149785.1_ASM2014978v1,plasmid_AC434,NZ_CP083797.1,23209,23209
GCF_020149785.1_ASM2014978v1,plasmid_AC434,NZ_CP083798.1,5963,23209
GCF_020149785.1_ASM2014978v1,plasmid_AD997,NZ_CP083800.1,4048,4048
GCF_904863425.1_INF348,plasmid_AA887,NZ_LR890325.1,61792,61792
GCF_904863425.1_INF348,plasmid_AD548,NZ_LR890325.1,13403,13403
GCF_904863425.1_INF348,plasmid_AD548,NZ_LR890323.1,2494,13403
GCF_904863425.1_INF348,plasmid_AD548,NZ_LR890324.1,2494,13403
GCF_904863425.1_INF348,plasmid_AD443,NZ_LR890324.1,119563,121661
GCF_904863425.1_INF348,plasmid_AD443,NZ_LR890325.1,2098,121661
GCF_904863425.1_INF348,plasmid_AA051,NZ_LR890325.1,35810,36008
GCF_021655475.1_ASM2165547v1,plasmid_AC125,NZ_AP024574.1,110870,110870
GCF_021655475.1_ASM2165547v1,plasmid_AA276,NZ_AP024573.1,214071,211405
GCF_021655475.1_ASM2165547v1,plasmid_AA276,NZ_AP024575.1,35491,211405
GCF_021655475.1_ASM2165547v1,plasmid_AA276,NZ_AP024572.1,2860,211405
GCF_014168575.1_ASM1416857v1,plasmid_AB059,NZ_AP021912.1,4572,4572
GCF_014168575.1_ASM1416857v1,plasmid_AA276,NZ_AP021910.1,79689,79953
GCF_014168575.1_ASM1416857v1,plasmid_AA128,NZ_AP021913.1,4163,4163
GCF_014168575.1_ASM1416857v1,plasmid_AA590,NZ_AP021910.1,54832,54832
GCF_014168575.1_ASM1416857v1,plasmid_AA553,NZ_AP021911.1,72259,72701
GCF_904863275.1_INF188,plasmid_AA120,NZ_LR890309.1,4443,4443
GCF_904863275.1_INF188,plasmid_AA276,NZ_LR890308.1,249856,248370
GCF_904863275.1_INF188,plasmid_AA276,NZ_LR890307.1,9457,248370
GCF_904863275.1_INF188,plasmid_AD092,NZ_LR890308.1,1398,1398
GCF_020525485.1_ASM2052548v1,plasmid_AA406,NZ_CP084867.1,224267,224267
GCF_020525485.1_ASM2052548v1,plasmid_AA406,NZ_CP084866.1,50218,224267
GCF_022369815.1_ASM2236981v1,plasmid_AC125,NZ_CP070892.1,112696,112696
GCF_022369815.1_ASM2236981v1,plasmid_AA405,NZ_CP070891.1,331507,338243
GCF_022369815.1_ASM2236981v1,plasmid_AA405,NZ_CP070893.1,17525,338243
GCF_022369815.1_ASM2236981v1,plasmid_AA405,NZ_CP070890.1,9693,338243
GCF_022369815.1_ASM2236981v1,plasmid_AB189,NZ_CP070893.1,18747,18747
GCF_022369815.1_ASM2236981v1,plasmid_AA103,NZ_CP070894.1,4167,4167
GCF_013736155.1_ASM1373615v1,plasmid_AB045,NZ_CP056439.1,3514,3514
GCF_013736155.1_ASM1373615v1,plasmid_AC125,NZ_CP056436.1,107037,117089
GCF_013736155.1_ASM1373615v1,plasmid_AC125,NZ_CP056435.1,8138,117089
GCF_013736155.1_ASM1373615v1,plasmid_AC125,NZ_CP056432.1,5742,117089
GCF_013736155.1_ASM1373615v1,plasmid_AC125,NZ_CP056434.1,1914,117089
GCF_013736155.1_ASM1373615v1,plasmid_AA042,NZ_CP056435.1,24759,24759
GCF_013736155.1_ASM1373615v1,plasmid_AA042,NZ_CP056434.1,4888,24759
GCF_013736155.1_ASM1373615v1,plasmid_AA458,NZ_CP056433.1,58167,124714
GCF_013736155.1_ASM1373615v1,plasmid_AA458,NZ_CP056435.1,49230,124714
GCF_013736155.1_ASM1373615v1,plasmid_AA458,NZ_CP056434.1,38118,124714
GCF_013736155.1_ASM1373615v1,plasmid_AA458,NZ_CP056432.1,6249,124714
GCF_013736155.1_ASM1373615v1,plasmid_AB961,NZ_CP056433.1,6095,12985
GCF_013736155.1_ASM1373615v1,plasmid_AB961,NZ_CP056434.1,5667,12985
GCF_013736155.1_ASM1373615v1,plasmid_AB961,NZ_CP056432.1,1223,12985
GCF_013736155.1_ASM1373615v1,plasmid_AB043,NZ_CP056440.1,1763,1917
GCF_013736155.1_ASM1373615v1,plasmid_AE974,NZ_CP056437.1,45633,45633
GCF_013736155.1_ASM1373615v1,plasmid_AE974,NZ_CP056435.1,1195,45633
GCF_013736155.1_ASM1373615v1,plasmid_AD548,NZ_CP056434.1,11711,15421
GCF_013736155.1_ASM1373615v1,plasmid_AD548,NZ_CP056435.1,3710,15421
GCF_013736155.1_ASM1373615v1,plasmid_AD337,NZ_CP056438.1,5726,5907
GCF_013736155.1_ASM1373615v1,plasmid_novel_d5240af73bd9aeab5ab9ecc739b4c318,NZ_CP056434.1,8161,11238
GCF_013736155.1_ASM1373615v1,plasmid_novel_d5240af73bd9aeab5ab9ecc739b4c318,NZ_CP056433.1,3077,11238
GCF_013736155.1_ASM1373615v1,plasmid_novel_d39f240c30c30879f1a910a62e43480a,NZ_CP056435.1,6513,6513
GCF_013736155.1_ASM1373615v1,plasmid_AA814,NZ_CP056433.1,85377,78225
GCF_013736155.1_ASM1373615v1,plasmid_AA814,NZ_CP056432.1,6052,78225
GCF_013736155.1_ASM1373615v1,plasmid_novel_b4a7a4d68a81dc62f7b2c0c2638c2b0c,NZ_CP056434.1,14815,25199
GCF_013736155.1_ASM1373615v1,plasmid_novel_b4a7a4d68a81dc62f7b2c0c2638c2b0c,NZ_CP056435.1,10384,25199
GCF_904864645.1_INF079,plasmid_AA406,NZ_LR890465.1,225429,226724
GCF_904864645.1_INF079,plasmid_AA406,NZ_LR890464.1,19235,226724
GCF_013805705.1_ASM1380570v1,plasmid_AA450,NZ_CP057036.1,86316,86316
GCF_013805705.1_ASM1380570v1,plasmid_AF460,NZ_CP057035.1,29625,29625
GCF_013805705.1_ASM1380570v1,plasmid_AA402,NZ_CP057035.1,75669,75669
GCF_013805705.1_ASM1380570v1,plasmid_AB047,NZ_CP057037.1,4671,4671
GCF_904866235.1_INF122,plasmid_AA033,NZ_LR890601.1,70218,71381
GCF_904866235.1_INF122,plasmid_AA033,NZ_LR890600.1,5431,71381
GCF_904866235.1_INF122,plasmid_AB047,NZ_LR890602.1,6573,6573
GCF_904863095.1_INF174,plasmid_AA275,NZ_LR890246.1,206794,202922
GCF_904863095.1_INF174,plasmid_AA275,NZ_LR890245.1,2294,202922
GCF_904863095.1_INF174,plasmid_AA552,NZ_LR890246.1,13997,13997
GCF_016903775.1_ASM1690377v1,plasmid_AA275,NZ_CP069964.1,159499,159499
GCF_016903775.1_ASM1690377v1,plasmid_AA275,NZ_CP069962.1,1201,159499
GCF_016903775.1_ASM1690377v1,plasmid_AA457,NZ_CP069964.1,65445,65445
GCF_016903775.1_ASM1690377v1,plasmid_AA979,NZ_CP069965.1,5463,5463
GCF_016903775.1_ASM1690377v1,plasmid_AA372,NZ_CP069963.1,63881,63881
GCF_016903775.1_ASM1690377v1,plasmid_AA372,NZ_CP069966.1,5230,63881
GCF_904866435.1_INF119,plasmid_AA277,NZ_LR890692.1,220875,217117
GCF_904866435.1_INF119,plasmid_AA277,NZ_LR890691.1,2761,217117
GCF_904865745.1_INF247,plasmid_AA171,NZ_LR890563.1,153941,147509
GCF_904865745.1_INF247,plasmid_AA171,NZ_LR890562.1,1658,147509
GCF_904864595.1_INF333,plasmid_AB531,NZ_LR890384.1,22692,31141
GCF_904864595.1_INF333,plasmid_AB043,NZ_LR890387.1,1916,1916
GCF_904864595.1_INF333,plasmid_AA531,NZ_LR890386.1,3223,3223
GCF_904864595.1_INF333,plasmid_AA277,NZ_LR890385.1,230808,226065
GCF_904864595.1_INF333,plasmid_AA277,NZ_LR890384.1,2030,226065
GCF_013745295.1_ASM1374529v1,plasmid_AA576,NZ_CP056330.1,6757,6757
GCF_013745295.1_ASM1374529v1,plasmid_AA579,NZ_CP056332.1,4074,4074
GCF_013745295.1_ASM1374529v1,plasmid_AA977,NZ_CP056331.1,5167,5167
GCF_013745295.1_ASM1374529v1,plasmid_AA942,NZ_CP056329.1,11124,1854
GCF_021655455.1_ASM2165545v1,plasmid_AA276,NZ_AP024571.1,214071,211405
GCF_021655455.1_ASM2165545v1,plasmid_AA276,NZ_AP024570.1,2860,211405
GCF_904864605.1_INF044,plasmid_AB045,NZ_LR890397.1,4411,4411
GCF_904864605.1_INF044,plasmid_AA275,NZ_LR890396.1,184880,187624
GCF_904864605.1_INF044,plasmid_AA275,NZ_LR890395.1,19359,187624
GCF_904864605.1_INF044,plasmid_AA118,NZ_LR890398.1,3559,3559
GCF_904864605.1_INF044,plasmid_AA579,NZ_LR890396.1,5204,6649
GCF_904864605.1_INF044,plasmid_AA579,NZ_LR890395.1,10537,6649
GCF_904864605.1_INF044,plasmid_AA019,NZ_LR890396.1,16796,16796
GCF_013783245.1_ASM1378324v1,plasmid_AA819,NZ_CP056217.1,142109,142109
GCF_020525905.1_ASM2052590v1,plasmid_AC125,NZ_CP084826.1,109041,109041
GCF_020526005.1_ASM2052600v1,plasmid_AC125,NZ_CP084854.1,110871,110871
GCF_020526005.1_ASM2052600v1,plasmid_AA274,NZ_CP084853.1,96982,96982
GCF_020526005.1_ASM2052600v1,plasmid_AB192,NZ_CP084853.1,41599,40456
GCF_020526005.1_ASM2052600v1,plasmid_AB192,NZ_CP084852.1,1647,40456
GCF_021166235.1_ASM2116623v1,plasmid_AB045,NZ_CP089025.1,3511,3511
GCF_021166235.1_ASM2116623v1,plasmid_AA002,NZ_CP089027.1,61604,79515
GCF_021166235.1_ASM2116623v1,plasmid_AA002,NZ_CP089028.1,16771,79515
GCF_021166235.1_ASM2116623v1,plasmid_AA002,NZ_CP089029.1,5077,79515
GCF_021166235.1_ASM2116623v1,plasmid_AA406,NZ_CP089030.1,222196,279709
GCF_021166235.1_ASM2116623v1,plasmid_AA406,NZ_CP089029.1,39074,279709
GCF_021166235.1_ASM2116623v1,plasmid_AA406,NZ_CP089028.1,44246,279709
GCF_021166235.1_ASM2116623v1,plasmid_AA406,NZ_CP089024.1,14084,279709
GCF_021166235.1_ASM2116623v1,plasmid_AA554,NZ_CP089029.1,45569,45569
GCF_021166235.1_ASM2116623v1,plasmid_AA554,NZ_CP089028.1,5615,45569
GCF_021166235.1_ASM2116623v1,plasmid_AA449,NZ_CP089028.1,15364,15364
GCF_016903475.1_ASM1690347v1,plasmid_AA102,NZ_CP070175.1,3810,3810
GCF_016903475.1_ASM1690347v1,plasmid_AA050,NZ_CP070174.1,58083,67833
GCF_016903475.1_ASM1690347v1,plasmid_AA050,NZ_CP070173.1,24182,67833
GCF_016903475.1_ASM1690347v1,plasmid_AA050,NZ_CP070172.1,32068,67833
GCF_016903475.1_ASM1690347v1,plasmid_novel_6400e1a59adb20238059e21bcafcc665,NZ_CP070173.1,9657,10839
GCF_016903475.1_ASM1690347v1,plasmid_novel_6400e1a59adb20238059e21bcafcc665,NZ_CP070172.1,2364,10839
GCF_016903475.1_ASM1690347v1,plasmid_AA035,NZ_CP070173.1,114776,113675
GCF_016903475.1_ASM1690347v1,plasmid_AB595,no_correct_alignments,0,0
GCF_016903475.1_ASM1690347v1,plasmid_AA038,NZ_CP070173.1,39429,40912
GCF_016903475.1_ASM1690347v1,plasmid_AA038,NZ_CP070172.1,4421,40912
GCF_016903475.1_ASM1690347v1,plasmid_AA038,NZ_CP070174.1,1337,40912
GCF_016903115.1_ASM1690311v1,plasmid_AB695,NZ_CP069838.1,2297,2297
GCF_016903115.1_ASM1690311v1,plasmid_AA002,NZ_CP069833.1,64501,68631
GCF_016903115.1_ASM1690311v1,plasmid_AA002,NZ_CP069834.1,2472,68631
GCF_016903115.1_ASM1690311v1,plasmid_AA002,NZ_CP069828.1,4974,68631
GCF_016903115.1_ASM1690311v1,plasmid_AA151,NZ_CP069835.1,4823,4823
GCF_016903115.1_ASM1690311v1,plasmid_AB181,NZ_CP069834.1,23243,24451
GCF_016903115.1_ASM1690311v1,plasmid_AB181,NZ_CP069828.1,3588,24451
GCF_016903115.1_ASM1690311v1,plasmid_AB042,NZ_CP069836.1,2579,2579
GCF_016903115.1_ASM1690311v1,plasmid_AA579,NZ_CP069832.1,4062,4062
GCF_016903115.1_ASM1690311v1,plasmid_AB193,NZ_CP069829.1,33945,33945
GCF_016903115.1_ASM1690311v1,plasmid_AB193,NZ_CP069828.1,7164,33945
GCF_016903115.1_ASM1690311v1,plasmid_AB193,NZ_CP069833.1,1791,33945
GCF_016903115.1_ASM1690311v1,plasmid_AA977,NZ_CP069830.1,5167,5167
GCF_016903115.1_ASM1690311v1,plasmid_AA162,NZ_CP069831.1,4476,4476
GCF_016903115.1_ASM1690311v1,plasmid_AA352,NZ_CP069833.1,11156,11156
GCF_904864465.1_INF298,plasmid_AB531,NZ_LR890432.1,53938,53943
GCF_904864465.1_INF298,plasmid_AC125,NZ_LR890429.1,111123,111123
GCF_904864465.1_INF298,plasmid_AA941,NZ_LR890433.1,9294,9294
GCF_904864465.1_INF298,plasmid_AA860,NZ_LR890428.1,123833,148964
GCF_904864465.1_INF298,plasmid_AA860,NZ_LR890426.1,27895,148964
GCF_904864465.1_INF298,plasmid_AA860,NZ_LR890431.1,2252,148964
GCF_904864465.1_INF298,plasmid_AA002,NZ_LR890431.1,40526,40526
GCF_904864465.1_INF298,plasmid_AA001,NZ_LR890431.1,20771,20771
GCF_904864465.1_INF298,plasmid_AA336,NZ_LR890430.1,68790,68792
GCF_904864465.1_INF298,plasmid_AA447,NZ_LR890427.1,159768,159768
GCF_904864465.1_INF298,plasmid_AA447,NZ_LR890426.1,5099,159768
GCF_904864465.1_INF298,plasmid_AA447,NZ_LR890428.1,1331,159768
GCF_904866555.1_INF102,plasmid_AG471,NZ_LR890727.1,3133,3133
GCF_904866555.1_INF102,plasmid_AA887,NZ_LR890728.1,27851,27851
GCF_904866555.1_INF102,plasmid_AA587,NZ_LR890726.1,50589,34804
GCF_904866555.1_INF102,plasmid_AA587,NZ_LR890728.1,9310,34804
GCF_904866555.1_INF102,plasmid_AE958,NZ_LR890729.1,103830,103830
GCF_904866555.1_INF102,plasmid_AA050,NZ_LR890728.1,54736,54736
GCF_904866555.1_INF102,plasmid_AA044,NZ_LR890727.1,23187,28418
GCF_904866555.1_INF102,plasmid_AA044,NZ_LR890728.1,5327,28418
GCF_904866555.1_INF102,plasmid_AA044,NZ_LR890726.1,23282,28418
GCF_904866555.1_INF102,plasmid_AE233,NZ_LR890734.1,1919,1919
GCF_904866555.1_INF102,plasmid_AA113,NZ_LR890733.1,3329,3329
GCF_904866555.1_INF102,plasmid_AA113,NZ_LR890732.1,3329,3329
GCF_904866555.1_INF102,plasmid_AE809,NZ_LR890730.1,41891,41943
GCF_904866555.1_INF102,plasmid_novel_7f318eb369cd8f4f2fdd4b92b84e7b10,NZ_LR890727.1,15426,15426
GCF_904866555.1_INF102,plasmid_AA057,NZ_LR890727.1,38601,38601
GCF_016066295.1_ASM1606629v1,plasmid_AB181,NZ_CP065832.1,33173,33173
GCF_016066295.1_ASM1606629v1,plasmid_AA277,NZ_CP065832.1,166199,166199
GCF_016066295.1_ASM1606629v1,plasmid_AA277,NZ_CP065831.1,1231,166199
GCF_020525965.1_ASM2052596v1,plasmid_AC125,NZ_CP084833.1,109287,110340
GCF_020525965.1_ASM2052596v1,plasmid_AC125,NZ_CP084831.1,1053,110340
GCF_020525965.1_ASM2052596v1,plasmid_novel_32193be1627275c6976b53fe68478b03,NZ_CP084841.1,4134,4134
GCF_020525965.1_ASM2052596v1,plasmid_AA450,NZ_CP084832.1,21931,95403
GCF_020525965.1_ASM2052596v1,plasmid_AA450,NZ_CP084834.1,43376,95403
GCF_020525965.1_ASM2052596v1,plasmid_AA450,NZ_CP084831.1,38209,95403
GCF_020525965.1_ASM2052596v1,plasmid_AA130,NZ_CP084839.1,2096,2096
GCF_020525965.1_ASM2052596v1,plasmid_AB049,NZ_CP084835.1,3633,5911
GCF_020525965.1_ASM2052596v1,plasmid_AB049,NZ_CP084840.1,2111,5911
GCF_020525965.1_ASM2052596v1,plasmid_AA055,NZ_CP084832.1,24075,42629
GCF_020525965.1_ASM2052596v1,plasmid_AA055,NZ_CP084831.1,17227,42629
GCF_020525965.1_ASM2052596v1,plasmid_AA055,NZ_CP084830.1,10616,42629
GCF_020525965.1_ASM2052596v1,plasmid_AA104,NZ_CP084836.1,6365,6365
GCF_020525965.1_ASM2052596v1,plasmid_novel_cdacf2f111d02a6da836a9ed5440a402,NZ_CP084832.1,17849,17849
GCF_020525965.1_ASM2052596v1,plasmid_novel_c5d6f1548d9e594e052c079aea7c14f0,NZ_CP084834.1,10165,10165
GCF_020525965.1_ASM2052596v1,plasmid_AA024,NZ_CP084831.1,29808,38129
GCF_020525965.1_ASM2052596v1,plasmid_AA024,NZ_CP084832.1,14967,38129
GCF_020525965.1_ASM2052596v1,plasmid_AA024,NZ_CP084830.1,1468,38129
GCF_020525965.1_ASM2052596v1,plasmid_AA105,NZ_CP084831.1,2774,4032
GCF_020525965.1_ASM2052596v1,plasmid_AA105,NZ_CP084834.1,1387,4032
GCF_020525965.1_ASM2052596v1,plasmid_AB047,NZ_CP084835.1,4681,7418
GCF_020525965.1_ASM2052596v1,plasmid_AB047,NZ_CP084837.1,2737,7418
GCF_013731735.1_ASM1373173v1,plasmid_AD306,NZ_CP056311.1,35241,35241
GCF_013731735.1_ASM1373173v1,plasmid_AC125,NZ_CP056309.1,111331,113440
GCF_013731735.1_ASM1373173v1,plasmid_AC125,NZ_CP056308.1,5443,113440
GCF_013731735.1_ASM1373173v1,plasmid_AC125,NZ_CP056307.1,8777,113440
GCF_013731735.1_ASM1373173v1,plasmid_AC125,NZ_CP056310.1,1667,113440
GCF_013731735.1_ASM1373173v1,plasmid_AE105,NZ_CP056310.1,79031,103629
GCF_013731735.1_ASM1373173v1,plasmid_AE105,NZ_CP056308.1,28774,103629
GCF_013731735.1_ASM1373173v1,plasmid_AE105,NZ_CP056307.1,10167,103629
GCF_013731735.1_ASM1373173v1,plasmid_AD094,NZ_CP056307.1,16117,14783
GCF_013731735.1_ASM1373173v1,plasmid_AD094,NZ_CP056308.1,3454,14783
GCF_013731735.1_ASM1373173v1,plasmid_AD094,NZ_CP056311.1,1197,14783
GCF_013731735.1_ASM1373173v1,plasmid_AD094,NZ_CP056309.1,1197,14783
GCF_013731735.1_ASM1373173v1,plasmid_AA104,NZ_CP056312.1,4056,4056
GCF_013731735.1_ASM1373173v1,plasmid_AA457,NZ_CP056308.1,68930,68930
GCF_013731735.1_ASM1373173v1,plasmid_AA457,NZ_CP056307.1,5490,68930
GCF_013731735.1_ASM1373173v1,plasmid_AA111,NZ_CP056307.1,8806,1258
GCF_013731735.1_ASM1373173v1,plasmid_AA111,NZ_CP056308.1,1258,1258
GCF_013731735.1_ASM1373173v1,plasmid_AA448,NZ_CP056308.1,94120,92850
GCF_013731735.1_ASM1373173v1,plasmid_AA448,NZ_CP056307.1,3702,92850
GCF_013731735.1_ASM1373173v1,plasmid_AA114,NZ_CP056313.1,2799,2799
GCF_016904595.1_ASM1690459v1,plasmid_novel_5229cc559eb031d34033df668e11579e,no_correct_alignments,0,0
GCF_016904595.1_ASM1690459v1,plasmid_AA275,NZ_CP070159.1,78310,76703
GCF_016904595.1_ASM1690459v1,plasmid_AA275,NZ_CP070158.1,4636,76703
GCF_016904595.1_ASM1690459v1,plasmid_AA276,NZ_CP070159.1,105780,105780
GCF_016904595.1_ASM1690459v1,plasmid_AB236,NZ_CP070160.1,2058,2058
GCF_013735155.1_ASM1373515v1,plasmid_AB045,NZ_CP056390.1,3418,3418
GCF_013735155.1_ASM1373515v1,plasmid_AA275,NZ_CP056386.1,123272,123272
GCF_013735155.1_ASM1373515v1,plasmid_AA517,NZ_CP056389.1,4426,4426
GCF_013735155.1_ASM1373515v1,plasmid_AA113,no_correct_alignments,0,0
GCF_013735155.1_ASM1373515v1,plasmid_AA111,NZ_CP056387.1,3664,3664
GCF_013735155.1_ASM1373515v1,plasmid_AA028,NZ_CP056386.1,70414,68122
GCF_013735155.1_ASM1373515v1,plasmid_AA028,NZ_CP056385.1,5779,68122
GCF_904866255.1_INF223,plasmid_AA966,NZ_LR890597.1,51385,49223
GCF_904866255.1_INF223,plasmid_AA457,NZ_LR890596.1,205728,205728
GCF_904866255.1_INF223,plasmid_AA457,NZ_LR890595.1,7047,205728
GCF_904866255.1_INF223,plasmid_AC302,NZ_LR890596.1,15366,23756
GCF_904866255.1_INF223,plasmid_AC302,NZ_LR890597.1,6990,23756
GCF_904866255.1_INF223,plasmid_AC302,NZ_LR890595.1,7000,23756
GCF_021655435.1_ASM2165543v1,plasmid_AA276,NZ_AP024569.1,212053,210396
GCF_021655435.1_ASM2165543v1,plasmid_AA276,NZ_AP024568.1,2860,210396
GCF_013724605.1_ASM1372460v1,plasmid_AC125,NZ_CP056224.1,109848,110869
GCF_013724605.1_ASM1372460v1,plasmid_AC125,NZ_CP056223.1,4084,110869
GCF_013724605.1_ASM1372460v1,plasmid_AA814,NZ_CP056223.1,115270,114150
GCF_013724605.1_ASM1372460v1,plasmid_AA814,NZ_CP056222.1,3878,114150
GCF_013724605.1_ASM1372460v1,plasmid_AA814,NZ_CP056225.1,3878,114150
GCF_013724605.1_ASM1372460v1,plasmid_AC288,NZ_CP056222.1,9315,9315
GCF_013724605.1_ASM1372460v1,plasmid_AA554,NZ_CP056225.1,26086,26086
GCF_013724605.1_ASM1372460v1,plasmid_AC434,NZ_CP056226.1,11469,12216
GCF_013724605.1_ASM1372460v1,plasmid_AC434,NZ_CP056225.1,6732,12216
GCF_013724605.1_ASM1372460v1,plasmid_AC434,NZ_CP056223.1,2690,12216
GCF_013724605.1_ASM1372460v1,plasmid_AA531,NZ_CP056227.1,3223,3223
GCF_013724605.1_ASM1372460v1,plasmid_AA555,NZ_CP056226.1,20376,20376
GCF_020525885.1_ASM2052588v1,plasmid_AA406,NZ_CP084869.1,226070,225170
GCF_020525885.1_ASM2052588v1,plasmid_AA406,NZ_CP084868.1,4384,225170
GCF_013782105.1_ASM1378210v1,plasmid_novel_8431db3706e7ad07ea75f5a9758e4288,NZ_CP056194.1,7787,14410
GCF_013782105.1_ASM1378210v1,plasmid_novel_8431db3706e7ad07ea75f5a9758e4288,NZ_CP056192.1,6623,14410
GCF_013782105.1_ASM1378210v1,plasmid_AB043,NZ_CP056198.1,1917,1917
GCF_013782105.1_ASM1378210v1,plasmid_AA833,NZ_CP056192.1,34954,38031
GCF_013782105.1_ASM1378210v1,plasmid_AA833,NZ_CP056191.1,15326,38031
GCF_013782105.1_ASM1378210v1,plasmid_AA050,NZ_CP056193.1,57493,69507
GCF_013782105.1_ASM1378210v1,plasmid_AA050,NZ_CP056192.1,14863,69507
GCF_013782105.1_ASM1378210v1,plasmid_AA050,NZ_CP056191.1,12941,69507
GCF_013782105.1_ASM1378210v1,plasmid_AA035,NZ_CP056192.1,154157,169813
GCF_013782105.1_ASM1378210v1,plasmid_AA035,NZ_CP056194.1,25218,169813
GCF_013782105.1_ASM1378210v1,plasmid_AA111,NZ_CP056196.1,5783,5783
GCF_013782105.1_ASM1378210v1,plasmid_AF591,NZ_CP056195.1,14959,14959
GCF_013782105.1_ASM1378210v1,plasmid_AA435,NZ_CP056194.1,24932,24932
GCF_904865805.1_INF144,plasmid_AA277,NZ_LR890570.1,185388,185388
GCF_014170015.1_ASM1417001v1,plasmid_AB978,NZ_CP054287.1,6866,48370
GCF_014170015.1_ASM1417001v1,plasmid_AB978,NZ_CP054288.1,41501,48370
GCF_014170015.1_ASM1417001v1,plasmid_AA586,NZ_CP054287.1,81960,87984
GCF_014170015.1_ASM1417001v1,plasmid_AA586,NZ_CP054286.1,7137,87984
GCF_014170015.1_ASM1417001v1,plasmid_AC431,NZ_CP054287.1,8008,11882
GCF_014170015.1_ASM1417001v1,plasmid_AC431,NZ_CP054286.1,3874,11882
GCF_014170015.1_ASM1417001v1,plasmid_AA821,NZ_CP054286.1,132024,150679
GCF_014170015.1_ASM1417001v1,plasmid_AA821,NZ_CP054287.1,22043,150679
GCF_014170015.1_ASM1417001v1,plasmid_AA553,NZ_CP054287.1,11546,12991
GCF_014170015.1_ASM1417001v1,plasmid_AA553,NZ_CP054285.1,7222,12991
GCF_003261955.3_ASM326195v3,plasmid_AB158,no_correct_alignments,0,0
GCF_003261955.3_ASM326195v3,plasmid_AA541,NZ_CP033393.2,5423,5596
GCF_003261955.3_ASM326195v3,plasmid_AA031,NZ_CP033394.2,68698,121393
GCF_003261955.3_ASM326195v3,plasmid_AA031,NZ_CP033395.2,51329,121393
GCF_003261955.3_ASM326195v3,plasmid_AA031,NZ_CP033396.2,18878,121393
GCF_003261955.3_ASM326195v3,plasmid_AA942,NZ_CP033392.2,9222,9222
GCF_014189335.1_ASM1418933v1,plasmid_AA833,no_correct_alignments,0,0
GCF_014189335.1_ASM1418933v1,plasmid_AA627,NZ_CP047272.1,114282,113565
GCF_014189335.1_ASM1418933v1,plasmid_AA035,NZ_CP047271.1,4625,166278
GCF_014189335.1_ASM1418933v1,plasmid_AA113,no_correct_alignments,0,0
GCF_014189335.1_ASM1418933v1,plasmid_AD442,no_correct_alignments,0,0
GCF_014189335.1_ASM1418933v1,plasmid_AB041,no_correct_alignments,0,0
GCF_014189335.1_ASM1418933v1,plasmid_AA045,NZ_CP047272.1,132519,150372
GCF_014189335.1_ASM1418933v1,plasmid_AA045,NZ_CP047271.1,3920,150372
GCF_012029975.2_ASM1202997v2,plasmid_AA357,NZ_CP061400.1,96820,163258
GCF_012029975.2_ASM1202997v2,plasmid_AA357,NZ_CP061401.1,67045,163258
GCF_012029975.2_ASM1202997v2,plasmid_AA357,NZ_CP061399.1,17805,163258
GCF_012029975.2_ASM1202997v2,plasmid_AA941,NZ_CP061402.1,9294,9294
GCF_012029975.2_ASM1202997v2,plasmid_AA113,NZ_CP061403.1,3258,3549
GCF_013834745.1_ASM1383474v1,plasmid_AA405,NZ_CP057460.1,203344,202263
GCF_013834745.1_ASM1383474v1,plasmid_AB047,NZ_CP057461.1,4671,4671
GCF_013834745.1_ASM1383474v1,plasmid_AA109,NZ_CP057462.1,3959,3959
GCF_013791265.1_ASM1379126v1,plasmid_novel_7c55891fa4ec8d85db03fa094cba8efc,NZ_CP056833.1,3980,3980
GCF_013791265.1_ASM1379126v1,plasmid_AA274,NZ_CP056831.1,92536,93635
GCF_013791265.1_ASM1379126v1,plasmid_AA274,NZ_CP056830.1,3396,93635
GCF_013791265.1_ASM1379126v1,plasmid_AA038,NZ_CP056831.1,47251,47251
GCF_013791265.1_ASM1379126v1,plasmid_AA038,NZ_CP056830.1,1917,47251
GCF_013811445.1_ASM1381144v1,plasmid_AA405,NZ_CP057067.1,226619,226619
GCF_013811445.1_ASM1381144v1,plasmid_AA452,NZ_CP057068.1,122750,122750
GCF_019797985.1_ASM1979798v1,plasmid_AA110,NZ_CP073629.1,3991,3991
GCF_019797985.1_ASM1979798v1,plasmid_AA277,NZ_CP073628.1,232617,227874
GCF_904863145.1_INF072,plasmid_AB056,NZ_LR890188.1,3302,3302
GCF_904863145.1_INF072,plasmid_AA103,NZ_LR890187.1,4693,4693
GCF_904863145.1_INF072,plasmid_AE973,NZ_LR890185.1,4556,3667
GCF_904863145.1_INF072,plasmid_AE973,NZ_LR890186.1,5945,3667
GCF_904863145.1_INF072,plasmid_AA277,NZ_LR890186.1,209485,209485
GCF_013811845.1_ASM1381184v1,plasmid_AB045,NZ_CP057070.1,3770,3770
GCF_013811845.1_ASM1381184v1,plasmid_AA103,NZ_CP057071.1,2020,2020
GCF_013704985.1_ASM1370498v1,plasmid_AB961,NZ_CP055452.1,4635,6080
GCF_013704985.1_ASM1370498v1,plasmid_AB961,NZ_CP055451.1,10062,6080
GCF_013704985.1_ASM1370498v1,plasmid_novel_2c5b4ba42ca0f1ce1edfe7dff5cef6f8,NZ_CP055457.1,2988,2988
GCF_013704985.1_ASM1370498v1,plasmid_AC148,NZ_CP055454.1,38470,38470
GCF_013704985.1_ASM1370498v1,plasmid_AA127,NZ_CP055455.1,3155,3193
GCF_013704985.1_ASM1370498v1,plasmid_AB537,NZ_CP055453.1,41042,41042
GCF_013704985.1_ASM1370498v1,plasmid_AA035,NZ_CP055452.1,84331,91627
GCF_013704985.1_ASM1370498v1,plasmid_AA035,NZ_CP055451.1,13605,91627
GCF_013704985.1_ASM1370498v1,plasmid_AA440,NZ_CP055452.1,117291,116271
GCF_013704985.1_ASM1370498v1,plasmid_AA440,NZ_CP055451.1,7952,116271
GCF_904863365.1_INF049,plasmid_AA425,NZ_LR890361.1,43844,43844
GCF_904863365.1_INF049,plasmid_AF571,NZ_LR890361.1,94121,159821
GCF_904863365.1_INF049,plasmid_AF571,NZ_LR890363.1,67931,159821
GCF_904863365.1_INF049,plasmid_AF571,NZ_LR890360.1,2231,159821
GCF_904863365.1_INF049,plasmid_AF571,NZ_LR890362.1,2231,159821
GCF_904863365.1_INF049,plasmid_AA113,NZ_LR890366.1,3405,3405
GCF_904863365.1_INF049,plasmid_AB181,NZ_LR890362.1,45267,56101
GCF_904863365.1_INF049,plasmid_AB181,NZ_LR890361.1,15915,56101
GCF_904863365.1_INF049,plasmid_AB181,NZ_LR890360.1,10043,56101
GCF_904863365.1_INF049,plasmid_AB181,NZ_LR890363.1,1378,56101
GCF_904863365.1_INF049,plasmid_AB040,NZ_LR890368.1,2496,2496
GCF_904863365.1_INF049,plasmid_AA448,NZ_LR890361.1,64107,63011
GCF_904863365.1_INF049,plasmid_AA448,NZ_LR890360.1,4384,63011
GCF_904863365.1_INF049,plasmid_AA123,NZ_LR890364.1,1352,1352
GCF_015694085.1_ASM1569408v1,plasmid_AB045,NZ_CP065169.1,3514,3514
GCF_015694085.1_ASM1569408v1,plasmid_AE232,NZ_CP065171.1,2723,2723
GCF_015694085.1_ASM1569408v1,plasmid_AA531,NZ_CP065170.1,3058,3223
GCF_015694085.1_ASM1569408v1,plasmid_AA277,NZ_CP065168.1,221549,216806
GCF_016727425.1_ASM1672742v1,plasmid_AA102,NZ_CP068142.1,3407,3407
GCF_016727425.1_ASM1672742v1,plasmid_AA275,NZ_CP068140.1,189791,188595
GCF_016727425.1_ASM1672742v1,plasmid_AA275,NZ_CP068139.1,2392,188595
GCF_016727425.1_ASM1672742v1,plasmid_AA110,NZ_CP068141.1,3991,3991
GCF_021655515.1_ASM2165551v1,plasmid_AA276,NZ_AP024580.1,212094,209429
GCF_021655515.1_ASM2165551v1,plasmid_AA276,NZ_AP024581.1,33514,209429
GCF_021655515.1_ASM2165551v1,plasmid_AA276,NZ_AP024579.1,31040,209429
GCF_013737695.1_ASM1373769v1,plasmid_AB043,NZ_CP056536.1,1921,1921
GCF_013737695.1_ASM1373769v1,plasmid_AB059,NZ_CP056538.1,3398,3398
GCF_013737695.1_ASM1373769v1,plasmid_AA514,NZ_CP056537.1,4728,4772
GCF_013737695.1_ASM1373769v1,plasmid_AA035,NZ_CP056531.1,127304,171663
GCF_013737695.1_ASM1373769v1,plasmid_AA035,NZ_CP056530.1,62295,171663
GCF_013737695.1_ASM1373769v1,plasmid_AA035,NZ_CP056532.1,33504,171663
GCF_013737695.1_ASM1373769v1,plasmid_AA113,NZ_CP056534.1,1166,1166
GCF_013737695.1_ASM1373769v1,plasmid_AA111,NZ_CP056535.1,3664,3664
GCF_013737695.1_ASM1373769v1,plasmid_AA023,NZ_CP056532.1,20707,20707
GCF_013737695.1_ASM1373769v1,plasmid_AA435,NZ_CP056533.1,57981,62873
GCF_013737695.1_ASM1373769v1,plasmid_AA435,NZ_CP056536.1,3665,62873
GCF_013737695.1_ASM1373769v1,plasmid_AA435,NZ_CP056532.1,10411,62873
GCF_013737695.1_ASM1373769v1,plasmid_AA435,NZ_CP056534.1,3665,62873
GCF_013737695.1_ASM1373769v1,plasmid_AA435,NZ_CP056531.1,5324,62873
GCF_904864545.1_KSB1_9J,plasmid_AD158,NZ_LR890437.1,33332,33332
GCF_904864545.1_KSB1_9J,plasmid_AA002,NZ_LR890436.1,58367,60860
GCF_904864545.1_KSB1_9J,plasmid_AA002,NZ_LR890434.1,9972,60860
GCF_904864545.1_KSB1_9J,plasmid_AA002,NZ_LR890435.1,4986,60860
GCF_904864545.1_KSB1_9J,plasmid_AA277,NZ_LR890435.1,192881,186690
GCF_904864545.1_KSB1_9J,plasmid_AA277,NZ_LR890434.1,5035,186690
GCF_904866505.1_INF323,plasmid_AB045,NZ_LR890739.1,3514,3514
GCF_904866505.1_INF323,plasmid_AA042,NZ_LR890738.1,18763,18763
GCF_904866505.1_INF323,plasmid_AF571,NZ_LR890738.1,56894,56894
GCF_904866505.1_INF323,plasmid_AA026,NZ_LR890738.1,39758,39758
GCF_904866505.1_INF323,plasmid_AA404,NZ_LR890737.1,213507,212328
GCF_904866505.1_INF323,plasmid_AA404,NZ_LR890735.1,1197,212328
GCF_904866505.1_INF323,plasmid_AA277,NZ_LR890736.1,203301,199034
GCF_904866505.1_INF323,plasmid_AA277,NZ_LR890735.1,12006,199034
GCF_016903515.1_ASM1690351v1,plasmid_AB045,NZ_CP070183.1,5180,6410
GCF_016903515.1_ASM1690351v1,plasmid_AB695,no_correct_alignments,0,0
GCF_016903515.1_ASM1690351v1,plasmid_AA966,NZ_CP070178.1,61973,61973
GCF_016903515.1_ASM1690351v1,plasmid_AA002,NZ_CP070185.1,29379,67423
GCF_016903515.1_ASM1690351v1,plasmid_AA002,NZ_CP070178.1,1378,67423
GCF_016903515.1_ASM1690351v1,plasmid_AA151,NZ_CP070184.1,4823,4823
GCF_016903515.1_ASM1690351v1,plasmid_AB181,no_correct_alignments,0,0
GCF_016903515.1_ASM1690351v1,plasmid_AB042,NZ_CP070181.1,2579,2579
GCF_016903515.1_ASM1690351v1,plasmid_AB040,NZ_CP070188.1,2495,2495
GCF_016903515.1_ASM1690351v1,plasmid_AA579,NZ_CP070179.1,4062,4062
GCF_016903515.1_ASM1690351v1,plasmid_AB193,NZ_CP070187.1,12285,35291
GCF_016903515.1_ASM1690351v1,plasmid_AA977,NZ_CP070180.1,5167,5167
GCF_016903515.1_ASM1690351v1,plasmid_AA162,NZ_CP070186.1,4438,4476
GCF_016903515.1_ASM1690351v1,plasmid_AA352,NZ_CP070177.1,4945,16101
GCF_904864445.1_KSB1_6G,plasmid_AB045,NZ_LR890462.1,3514,3514
GCF_904864445.1_KSB1_6G,plasmid_AB961,NZ_LR890458.1,6063,7508
GCF_904864445.1_KSB1_6G,plasmid_AB961,NZ_LR890457.1,4335,7508
GCF_904864445.1_KSB1_6G,plasmid_AB050,NZ_LR890461.1,4665,4665
GCF_904864445.1_KSB1_6G,plasmid_AA405,NZ_LR890458.1,239779,344380
GCF_904864445.1_KSB1_6G,plasmid_AA405,NZ_LR890459.1,120757,344380
GCF_904864445.1_KSB1_6G,plasmid_AA405,NZ_LR890457.1,15972,344380
GCF_904864445.1_KSB1_6G,plasmid_AA113,NZ_LR890460.1,5840,5840
GCF_904864445.1_KSB1_6G,plasmid_novel_c614c0ce0ad26bc9cf449326e10c232a,NZ_LR890459.1,19990,27996
GCF_904864445.1_KSB1_6G,plasmid_novel_c614c0ce0ad26bc9cf449326e10c232a,NZ_LR890458.1,8006,27996
GCF_016903875.1_ASM1690387v1,plasmid_AA454,NZ_CP069993.1,177068,177068
GCF_013729075.1_ASM1372907v1,plasmid_AA405,NZ_CP056276.1,216959,217222
GCF_013729075.1_ASM1372907v1,plasmid_AA405,NZ_CP056277.1,2493,217222
GCF_013729075.1_ASM1372907v1,plasmid_AA405,NZ_CP056275.1,4986,217222
GCF_013729075.1_ASM1372907v1,plasmid_novel_ab2712ad14d053a5905660b7354718ea,NZ_CP056277.1,38518,38518
GCF_014788765.1_ASM1478876v1,plasmid_AB189,NZ_CP061834.1,17924,17924
GCF_014788765.1_ASM1478876v1,plasmid_AB189,NZ_CP061832.1,3786,17924
GCF_014788765.1_ASM1478876v1,plasmid_AC288,NZ_CP061834.1,10331,10331
GCF_014788765.1_ASM1478876v1,plasmid_AA276,NZ_CP061833.1,166514,166538
GCF_014788765.1_ASM1478876v1,plasmid_AA276,NZ_CP061834.1,9770,166538
GCF_014788765.1_ASM1478876v1,plasmid_AA276,NZ_CP061832.1,1097,166538
GCF_016903195.1_ASM1690319v1,plasmid_AA833,NZ_CP069846.1,42505,48873
GCF_016903195.1_ASM1690319v1,plasmid_AA833,NZ_CP069845.1,41272,48873
GCF_016903195.1_ASM1690319v1,plasmid_AA833,NZ_CP069844.1,14340,48873
GCF_016903195.1_ASM1690319v1,plasmid_AA833,NZ_CP069849.1,11801,48873
GCF_016903195.1_ASM1690319v1,plasmid_AA833,NZ_CP069847.1,2892,48873
GCF_016903195.1_ASM1690319v1,plasmid_AA402,NZ_CP069846.1,112154,113169
GCF_016903195.1_ASM1690319v1,plasmid_AA402,NZ_CP069847.1,1176,113169
GCF_016903195.1_ASM1690319v1,plasmid_AA402,NZ_CP069844.1,1014,113169
GCF_016903195.1_ASM1690319v1,plasmid_AA402,NZ_CP069849.1,3041,113169
GCF_016903195.1_ASM1690319v1,plasmid_AA402,NZ_CP069845.1,3041,113169
GCF_016903195.1_ASM1690319v1,plasmid_AB181,NZ_CP069848.1,37069,39919
GCF_016903195.1_ASM1690319v1,plasmid_AB181,NZ_CP069846.1,5526,39919
GCF_016903195.1_ASM1690319v1,plasmid_AB181,NZ_CP069847.1,1599,39919
GCF_016903195.1_ASM1690319v1,plasmid_AB181,NZ_CP069844.1,2589,39919
GCF_016903195.1_ASM1690319v1,plasmid_AB181,NZ_CP069849.1,2588,39919
GCF_016903195.1_ASM1690319v1,plasmid_AA553,NZ_CP069844.1,15281,21404
GCF_016903195.1_ASM1690319v1,plasmid_AA553,NZ_CP069849.1,10273,21404
GCF_016903195.1_ASM1690319v1,plasmid_AB047,NZ_CP069850.1,5698,5698
GCF_904863075.1_INF334,plasmid_AC125,NZ_LR890237.1,112069,113290
GCF_904863075.1_INF334,plasmid_AC125,NZ_LR890236.1,1221,113290
GCF_904863075.1_INF334,plasmid_AC125,NZ_LR890235.1,1221,113290
GCF_904863075.1_INF334,plasmid_AA408,NZ_LR890236.1,50118,50118
GCF_904863075.1_INF334,plasmid_AA833,NZ_LR890236.1,61717,61717
GCF_016629585.1_ASM1662958v1,plasmid_AA450,NZ_AP024174.1,73563,78414
GCF_016629585.1_ASM1662958v1,plasmid_AA450,NZ_AP024175.1,18701,78414
GCF_016629585.1_ASM1662958v1,plasmid_AA450,NZ_AP024173.1,6956,78414
GCF_016629585.1_ASM1662958v1,plasmid_AB186,NZ_AP024174.1,42021,70942
GCF_016629585.1_ASM1662958v1,plasmid_AB186,NZ_AP024175.1,28921,70942
GCF_016629585.1_ASM1662958v1,plasmid_AA832,NZ_AP024174.1,35753,45355
GCF_016629585.1_ASM1662958v1,plasmid_AA832,NZ_AP024173.1,8567,45355
GCF_016629585.1_ASM1662958v1,plasmid_AA832,NZ_AP024175.1,1035,45355
GCF_016629585.1_ASM1662958v1,plasmid_AA111,NZ_AP024180.1,2966,9004
GCF_016629585.1_ASM1662958v1,plasmid_AA111,NZ_AP024178.1,5783,9004
GCF_016629585.1_ASM1662958v1,plasmid_AA028,NZ_AP024174.1,43889,54715
GCF_016629585.1_ASM1662958v1,plasmid_AA028,NZ_AP024175.1,10823,54715
GCF_016629585.1_ASM1662958v1,plasmid_AA028,NZ_AP024173.1,1632,54715
GCF_016629585.1_ASM1662958v1,plasmid_AF031,NZ_AP024176.1,110494,110494
GCF_016629585.1_ASM1662958v1,plasmid_AA435,NZ_AP024177.1,66660,66662
GCF_016629585.1_ASM1662958v1,plasmid_AA435,NZ_AP024175.1,2458,66662
GCF_016629585.1_ASM1662958v1,plasmid_AA123,NZ_AP024179.1,3617,3617
GCF_904865765.1_KSB2_9A,plasmid_AG131,no_correct_alignments,0,0
GCF_904865765.1_KSB2_9A,plasmid_AB045,no_correct_alignments,0,0
GCF_904865765.1_KSB2_9A,plasmid_AB685,no_correct_alignments,0,0
GCF_904865765.1_KSB2_9A,plasmid_AB531,no_correct_alignments,0,0
GCF_904865765.1_KSB2_9A,plasmid_AD441,NZ_LR890564.1,22034,38020
GCF_904865765.1_KSB2_9A,plasmid_AC125,no_correct_alignments,0,0
GCF_904865765.1_KSB2_9A,plasmid_AA619,NZ_LR890564.1,1093,30266
GCF_904865765.1_KSB2_9A,plasmid_AB111,no_correct_alignments,0,0
GCF_904865765.1_KSB2_9A,plasmid_AG934,no_correct_alignments,0,0
GCF_904865765.1_KSB2_9A,plasmid_AB043,NZ_LR890568.1,1916,1916
GCF_904865765.1_KSB2_9A,plasmid_novel_e39743ea4196923a3de359bddc108200,NZ_LR890564.1,2375,21603
GCF_904865765.1_KSB2_9A,plasmid_AD170,no_correct_alignments,0,0
GCF_904865765.1_KSB2_9A,plasmid_AD158,no_correct_alignments,0,0
GCF_904865765.1_KSB2_9A,plasmid_AB695,no_correct_alignments,0,0
GCF_904865765.1_KSB2_9A,plasmid_AA050,no_correct_alignments,0,0
GCF_904865765.1_KSB2_9A,plasmid_AA474,no_correct_alignments,0,0
GCF_904865765.1_KSB2_9A,plasmid_AA882,no_correct_alignments,0,0
GCF_904865765.1_KSB2_9A,plasmid_AA941,no_correct_alignments,0,0
GCF_904865765.1_KSB2_9A,plasmid_AF471,NZ_LR890566.1,4064,4064
GCF_904865765.1_KSB2_9A,plasmid_AA104,no_correct_alignments,0,0
GCF_904865765.1_KSB2_9A,plasmid_AB055,no_correct_alignments,0,0
GCF_904865765.1_KSB2_9A,plasmid_AB056,no_correct_alignments,0,0
GCF_904865765.1_KSB2_9A,plasmid_novel_3416bb53d2e75df31ccc26ed01cf8fb9,NZ_LR890564.1,1244,140453
GCF_904865765.1_KSB2_9A,plasmid_AA002,no_correct_alignments,0,0
GCF_904865765.1_KSB2_9A,plasmid_AG294,no_correct_alignments,0,0
GCF_904865765.1_KSB2_9A,plasmid_AA403,no_correct_alignments,0,0
GCF_904865765.1_KSB2_9A,plasmid_novel_4057d5ca920d6fc4fafab700470505f0,NZ_LR890565.1,2614,141687
GCF_904865765.1_KSB2_9A,plasmid_AA027,no_correct_alignments,0,0
GCF_904865765.1_KSB2_9A,plasmid_novel_823ab07bc214fd7241ce04fcda7bed41,NZ_LR890564.1,10004,31481
GCF_904865765.1_KSB2_9A,plasmid_novel_823ab07bc214fd7241ce04fcda7bed41,NZ_LR890565.1,1042,31481
GCF_904865765.1_KSB2_9A,plasmid_AA111,no_correct_alignments,0,0
GCF_904865765.1_KSB2_9A,plasmid_AA172,no_correct_alignments,0,0
GCF_904865765.1_KSB2_9A,plasmid_AC431,no_correct_alignments,0,0
GCF_904865765.1_KSB2_9A,plasmid_AA119,no_correct_alignments,0,0
GCF_904865765.1_KSB2_9A,plasmid_AA579,no_correct_alignments,0,0
GCF_904865765.1_KSB2_9A,plasmid_AB039,NZ_LR890567.1,3223,7053
GCF_904865765.1_KSB2_9A,plasmid_AA977,no_correct_alignments,0,0
GCF_904865765.1_KSB2_9A,plasmid_AA404,no_correct_alignments,0,0
GCF_904865765.1_KSB2_9A,plasmid_AF190,no_correct_alignments,0,0
GCF_904865765.1_KSB2_9A,plasmid_AA024,no_correct_alignments,0,0
GCF_904865765.1_KSB2_9A,plasmid_AC434,no_correct_alignments,0,0
GCF_904865765.1_KSB2_9A,plasmid_AA114,no_correct_alignments,0,0
GCF_904865765.1_KSB2_9A,plasmid_AG401,no_correct_alignments,0,0
GCF_904865765.1_KSB2_9A,plasmid_AA147,no_correct_alignments,0,0
GCF_904865765.1_KSB2_9A,plasmid_AA435,no_correct_alignments,0,0
GCF_904865765.1_KSB2_9A,plasmid_AB233,no_correct_alignments,0,0
GCF_904865765.1_KSB2_9A,plasmid_AA338,no_correct_alignments,0,0
GCF_904865765.1_KSB2_9A,plasmid_AA277,NZ_LR890565.1,126276,209225
GCF_904865765.1_KSB2_9A,plasmid_AA277,NZ_LR890564.1,7303,209225
GCF_904865765.1_KSB2_9A,plasmid_AA123,no_correct_alignments,0,0
GCF_904866215.1_INF359,plasmid_AA050,NZ_LR890618.1,32722,32722
GCF_904866215.1_INF359,plasmid_AA276,NZ_LR890617.1,251181,255471
GCF_904866215.1_INF359,plasmid_AA276,NZ_LR890618.1,7656,255471
GCF_904866215.1_INF359,plasmid_AA276,NZ_LR890616.1,2991,255471
GCF_904866215.1_INF359,plasmid_AA031,NZ_LR890618.1,22776,24175
GCF_904866215.1_INF359,plasmid_AA031,NZ_LR890617.1,1399,24175
GCF_904864505.1_INF331,plasmid_AA406,NZ_LR890425.1,184566,184605
GCF_904864505.1_INF331,plasmid_AA406,NZ_LR890424.1,3288,184605
GCF_016903395.1_ASM1690339v1,plasmid_AB045,NZ_CP069905.1,3424,3424
GCF_016903395.1_ASM1690339v1,plasmid_AB043,no_correct_alignments,0,0
GCF_016903395.1_ASM1690339v1,plasmid_AF460,NZ_CP069904.1,82311,82734
GCF_016903395.1_ASM1690339v1,plasmid_AF460,NZ_CP069907.1,12880,82734
GCF_016903395.1_ASM1690339v1,plasmid_AF460,NZ_CP069903.1,2256,82734
GCF_016903395.1_ASM1690339v1,plasmid_AA050,NZ_CP069903.1,26975,26975
GCF_016903395.1_ASM1690339v1,plasmid_AA405,NZ_CP069904.1,216918,242839
GCF_016903395.1_ASM1690339v1,plasmid_AA405,NZ_CP069903.1,35541,242839
GCF_016903395.1_ASM1690339v1,plasmid_AA405,NZ_CP069906.1,21398,242839
GCF_016903395.1_ASM1690339v1,plasmid_AA405,NZ_CP069907.1,7993,242839
GCF_016903395.1_ASM1690339v1,plasmid_AA113,no_correct_alignments,0,0
GCF_016903395.1_ASM1690339v1,plasmid_AA531,NZ_CP069901.1,3223,3223
GCF_016903395.1_ASM1690339v1,plasmid_AA435,NZ_CP069902.1,54848,71451
GCF_016903395.1_ASM1690339v1,plasmid_AA435,NZ_CP069908.1,8911,71451
GCF_016903395.1_ASM1690339v1,plasmid_AA435,NZ_CP069907.1,3280,71451
GCF_016903395.1_ASM1690339v1,plasmid_AA435,NZ_CP069904.1,1640,71451
GCF_012029695.2_ASM1202969v2,plasmid_AA439,NZ_CP061393.1,16756,16756
GCF_012029695.2_ASM1202969v2,plasmid_AA439,NZ_CP061392.1,2464,16756
GCF_012029695.2_ASM1202969v2,plasmid_AC125,NZ_CP061391.1,110866,112245
GCF_012029695.2_ASM1202969v2,plasmid_AC125,NZ_CP061392.1,1378,112245
GCF_012029695.2_ASM1202969v2,plasmid_AC125,NZ_CP061394.1,1378,112245
GCF_012029695.2_ASM1202969v2,plasmid_AB978,NZ_CP061394.1,30411,39705
GCF_012029695.2_ASM1202969v2,plasmid_AB978,NZ_CP061395.1,9294,39705
GCF_012029695.2_ASM1202969v2,plasmid_AA274,NZ_CP061390.1,99729,186956
GCF_012029695.2_ASM1202969v2,plasmid_AA274,NZ_CP061392.1,39167,186956
GCF_012029695.2_ASM1202969v2,plasmid_AA274,NZ_CP061393.1,37341,186956
GCF_012029695.2_ASM1202969v2,plasmid_AA274,NZ_CP061394.1,10029,186956
GCF_012029695.2_ASM1202969v2,plasmid_AA277,NZ_CP061390.1,69720,69720
GCF_012029695.2_ASM1202969v2,plasmid_AA277,NZ_CP061389.1,2318,69720
GCF_012029695.2_ASM1202969v2,plasmid_AA277,NZ_CP061391.1,1159,69720
GCF_019798185.1_ASM1979818v1,plasmid_AA454,NZ_CP073792.1,150880,185582
GCF_019798185.1_ASM1979818v1,plasmid_AA454,NZ_CP073793.1,36087,185582
GCF_019798185.1_ASM1979818v1,plasmid_AA523,NZ_CP073796.1,4947,4947
GCF_019798185.1_ASM1979818v1,plasmid_AA590,NZ_CP073793.1,16254,16254
GCF_019798185.1_ASM1979818v1,plasmid_AC241,NZ_CP073793.1,3203,3203
GCF_019798185.1_ASM1979818v1,plasmid_AA979,NZ_CP073795.1,5463,5463
GCF_019798185.1_ASM1979818v1,plasmid_AA942,NZ_CP073794.1,8801,10623
GCF_019798185.1_ASM1979818v1,plasmid_AA942,NZ_CP073791.1,5466,10623
GCF_019798185.1_ASM1979818v1,plasmid_AA942,NZ_CP073793.1,1822,10623
GCF_904865695.1_INF319,plasmid_AC125,NZ_LR890544.1,110937,113475
GCF_904865695.1_INF319,plasmid_AC125,NZ_LR890543.1,4770,113475
GCF_904865695.1_INF319,plasmid_AC125,NZ_LR890542.1,1116,113475
GCF_904865695.1_INF319,plasmid_AC125,NZ_LR890546.1,1116,113475
GCF_904865695.1_INF319,plasmid_AB186,NZ_LR890546.1,23005,23005
GCF_904865695.1_INF319,plasmid_AF460,NZ_LR890543.1,94732,94732
GCF_904865695.1_INF319,plasmid_novel_395e5d56836c808f61d0eedcbfa19237,NZ_LR890546.1,9092,10170
GCF_904865695.1_INF319,plasmid_novel_395e5d56836c808f61d0eedcbfa19237,NZ_LR890545.1,1078,10170
GCF_904865695.1_INF319,plasmid_novel_395e5d56836c808f61d0eedcbfa19237,NZ_LR890542.1,1078,10170
GCF_904865695.1_INF319,plasmid_AA050,NZ_LR890545.1,16321,16321
GCF_904865695.1_INF319,plasmid_AA405,NZ_LR890543.1,136093,161176
GCF_904865695.1_INF319,plasmid_AA405,NZ_LR890545.1,10008,161176
GCF_904865695.1_INF319,plasmid_AA405,NZ_LR890542.1,1392,161176
GCF_904865695.1_INF319,plasmid_AB193,NZ_LR890545.1,27830,27830
GCF_904865695.1_INF319,plasmid_AA553,NZ_LR890546.1,15150,15232
GCF_021655495.1_ASM2165549v1,plasmid_AA276,NZ_AP024577.1,212094,209428
GCF_021655495.1_ASM2165549v1,plasmid_AA276,NZ_AP024578.1,33514,209428
GCF_021655495.1_ASM2165549v1,plasmid_AA276,NZ_AP024576.1,6174,209428
GCF_002852785.2_ASM285278v2,plasmid_AA275,NZ_CP043357.1,29347,68708
GCF_002852785.2_ASM285278v2,plasmid_AA275,NZ_CP043359.1,42466,68708
GCF_002852785.2_ASM285278v2,plasmid_AA274,NZ_CP043359.1,79642,79642
GCF_002852785.2_ASM285278v2,plasmid_AA541,NZ_CP043361.1,5596,5596
GCF_002852785.2_ASM285278v2,plasmid_AA942,NZ_CP043360.1,10060,10060
GCF_002852785.2_ASM285278v2,plasmid_AA032,NZ_CP043358.1,133535,134636
GCF_002852785.2_ASM285278v2,plasmid_AA032,NZ_CP043359.1,15520,134636
GCF_002852785.2_ASM285278v2,plasmid_AA032,NZ_CP043357.1,14575,134636
GCF_013734035.1_ASM1373403v1,plasmid_AB043,NZ_CP056380.1,1916,1916
GCF_013734035.1_ASM1373403v1,plasmid_AB186,NZ_CP056374.1,12323,12323
GCF_013734035.1_ASM1373403v1,plasmid_AA044,NZ_CP056373.1,22763,23963
GCF_013734035.1_ASM1373403v1,plasmid_AA044,NZ_CP056372.1,17270,23963
GCF_013734035.1_ASM1373403v1,plasmid_AA044,NZ_CP056374.1,2494,23963
GCF_013734035.1_ASM1373403v1,plasmid_AA537,NZ_CP056379.1,4018,4018
GCF_013734035.1_ASM1373403v1,plasmid_AA035,NZ_CP056374.1,101775,208221
GCF_013734035.1_ASM1373403v1,plasmid_AA035,NZ_CP056373.1,126624,208221
GCF_013734035.1_ASM1373403v1,plasmid_AA035,NZ_CP056372.1,14570,208221
GCF_013734035.1_ASM1373403v1,plasmid_AA111,NZ_CP056376.1,5783,5783
GCF_013734035.1_ASM1373403v1,plasmid_AF031,NZ_CP056375.1,107685,114013
GCF_013734035.1_ASM1373403v1,plasmid_AF031,NZ_CP056374.1,6328,114013
GCF_020149825.1_ASM2014982v1,plasmid_AC247,NZ_CP083786.1,28857,28968
GCF_020149825.1_ASM2014982v1,plasmid_AA532,NZ_CP083788.1,4408,4616
GCF_020149825.1_ASM2014982v1,plasmid_AA122,NZ_CP083789.1,4268,4268
GCF_020149825.1_ASM2014982v1,plasmid_AE809,NZ_CP083785.1,41212,41212
GCF_020149825.1_ASM2014982v1,plasmid_AA048,NZ_CP083786.1,9103,9103
GCF_013813035.1_ASM1381303v1,plasmid_AA454,NZ_CP057100.1,139155,139456
GCF_013813035.1_ASM1381303v1,plasmid_AF145,NZ_CP057099.1,17222,16117
GCF_904866285.1_INF344,plasmid_AD443,NZ_LR890642.1,115418,115419
GCF_904866285.1_INF344,plasmid_AA452,NZ_LR890641.1,171658,168064
GCF_904866285.1_INF344,plasmid_AA452,NZ_LR890642.1,2216,168064
GCF_001185665.2_ASM118566v3,plasmid_AB536,NZ_CP073058.1,31364,32090
GCF_001185665.2_ASM118566v3,plasmid_AA543,NZ_CP073055.1,322228,323337
GCF_001185665.2_ASM118566v3,plasmid_AA543,NZ_CP073057.1,3631,323337
GCF_001185665.2_ASM118566v3,plasmid_AA543,NZ_CP073056.1,3311,323337
GCF_001185665.2_ASM118566v3,plasmid_AA833,NZ_CP073056.1,40464,41816
GCF_001185665.2_ASM118566v3,plasmid_AA833,NZ_CP073054.1,8112,41816
GCF_001185665.2_ASM118566v3,plasmid_AC579,NZ_CP073057.1,85891,99293
GCF_001185665.2_ASM118566v3,plasmid_AC579,NZ_CP073056.1,13402,99293
GCF_001185665.2_ASM118566v3,plasmid_AD443,NZ_CP073056.1,71937,72023
GCF_001185665.2_ASM118566v3,plasmid_AD443,NZ_CP073054.1,4728,72023
GCF_904865675.1_INF358,plasmid_AF460,NZ_LR890475.1,54627,54627
GCF_904865675.1_INF358,plasmid_AE437,NZ_LR890475.1,211070,205452
GCF_012030545.2_ASM1203054v2,plasmid_AD094,NZ_CP061385.1,3320,3320
GCF_012030545.2_ASM1203054v2,plasmid_AD094,NZ_CP061386.1,3320,3320
GCF_012030545.2_ASM1203054v2,plasmid_AA274,NZ_CP061386.1,109615,163149
GCF_012030545.2_ASM1203054v2,plasmid_AA274,NZ_CP061387.1,45667,163149
GCF_012030545.2_ASM1203054v2,plasmid_AA274,NZ_CP061388.1,11102,163149
GCF_012030545.2_ASM1203054v2,plasmid_AA274,NZ_CP061385.1,21322,163149
GCF_012030545.2_ASM1203054v2,plasmid_AA038,NZ_CP061386.1,56724,56724
GCF_012030545.2_ASM1203054v2,plasmid_AA019,NZ_CP061387.1,44775,44775
GCF_017894285.1_ASM1789428v1,plasmid_AB961,NZ_CP058358.1,22864,17727
GCF_017894285.1_ASM1789428v1,plasmid_AB961,NZ_CP058359.1,1337,17727
GCF_017894285.1_ASM1789428v1,plasmid_AA002,NZ_CP058360.1,8924,14891
GCF_017894285.1_ASM1789428v1,plasmid_AA002,NZ_CP058358.1,5967,14891
GCF_017894285.1_ASM1789428v1,plasmid_AA282,NZ_CP058360.1,93261,91884
GCF_017894285.1_ASM1789428v1,plasmid_AA282,NZ_CP058358.1,4950,91884
GCF_017894285.1_ASM1789428v1,plasmid_AA282,NZ_CP058359.1,4950,91884
GCF_017894285.1_ASM1789428v1,plasmid_AA277,NZ_CP058359.1,153455,153455
GCF_021228815.1_ASM2122881v1,plasmid_AA277,NZ_CP089384.1,230032,225289
GCF_904863205.1_INF008,plasmid_AA277,NZ_LR890203.1,224700,213706
GCF_020525985.1_ASM2052598v1,plasmid_AA129,no_correct_alignments,0,0
GCF_020525985.1_ASM2052598v1,plasmid_AC125,NZ_CP084845.1,110699,115674
GCF_020525985.1_ASM2052598v1,plasmid_AC125,NZ_CP084844.1,2531,115674
GCF_020525985.1_ASM2052598v1,plasmid_AC125,NZ_CP084847.1,2442,115674
GCF_020525985.1_ASM2052598v1,plasmid_AC125,NZ_CP084846.1,1167,115674
GCF_020525985.1_ASM2052598v1,plasmid_novel_03d35f71f42266a8876b39122891b5d9,NZ_CP084844.1,15640,19559
GCF_020525985.1_ASM2052598v1,plasmid_novel_03d35f71f42266a8876b39122891b5d9,NZ_CP084843.1,5178,19559
GCF_020525985.1_ASM2052598v1,plasmid_AA450,NZ_CP084846.1,72035,91997
GCF_020525985.1_ASM2052598v1,plasmid_AA450,NZ_CP084844.1,22115,91997
GCF_020525985.1_ASM2052598v1,plasmid_AA450,NZ_CP084847.1,10357,91997
GCF_020525985.1_ASM2052598v1,plasmid_AA450,NZ_CP084849.1,3083,91997
GCF_020525985.1_ASM2052598v1,plasmid_AA450,NZ_CP084848.1,4381,91997
GCF_020525985.1_ASM2052598v1,plasmid_AA450,NZ_CP084843.1,15815,91997
GCF_020525985.1_ASM2052598v1,plasmid_AA053,NZ_CP084844.1,11670,16578
GCF_020525985.1_ASM2052598v1,plasmid_AA053,NZ_CP084846.1,2668,16578
GCF_020525985.1_ASM2052598v1,plasmid_AA053,NZ_CP084847.1,2240,16578
GCF_020525985.1_ASM2052598v1,plasmid_AA055,NZ_CP084844.1,9869,38973
GCF_020525985.1_ASM2052598v1,plasmid_AA055,NZ_CP084846.1,12771,38973
GCF_020525985.1_ASM2052598v1,plasmid_AA055,NZ_CP084847.1,10836,38973
GCF_020525985.1_ASM2052598v1,plasmid_AA055,NZ_CP084843.1,3951,38973
GCF_020525985.1_ASM2052598v1,plasmid_AA055,NZ_CP084848.1,1073,38973
GCF_020525985.1_ASM2052598v1,plasmid_AA537,NZ_CP084850.1,4018,4018
GCF_020525985.1_ASM2052598v1,plasmid_AB071,no_correct_alignments,0,0
GCF_020525985.1_ASM2052598v1,plasmid_novel_f0a0bf0cbcf79abacde4cb98429042fe,NZ_CP084844.1,14955,31972
GCF_020525985.1_ASM2052598v1,plasmid_novel_f0a0bf0cbcf79abacde4cb98429042fe,NZ_CP084847.1,14857,31972
GCF_020525985.1_ASM2052598v1,plasmid_AC431,NZ_CP084849.1,5389,5389
GCF_020525985.1_ASM2052598v1,plasmid_AA048,no_correct_alignments,0,0
GCF_020525985.1_ASM2052598v1,plasmid_AA105,NZ_CP084849.1,1340,2665
GCF_020525985.1_ASM2052598v1,plasmid_AA105,NZ_CP084848.1,1324,2665
GCF_018310495.1_ASM1831049v1,plasmid_AC125,NZ_CP074089.1,112745,112745
GCF_018310495.1_ASM1831049v1,plasmid_AA405,NZ_CP074088.1,324692,336533
GCF_018310495.1_ASM1831049v1,plasmid_AA405,NZ_CP074090.1,15358,336533
GCF_018310495.1_ASM1831049v1,plasmid_AA405,NZ_CP074087.1,11397,336533
GCF_018310495.1_ASM1831049v1,plasmid_AA103,NZ_CP074091.1,4167,4167
GCF_018310495.1_ASM1831049v1,plasmid_AA019,NZ_CP074090.1,32135,32135
GCF_014170935.1_ASM1417093v1,plasmid_AA450,NZ_AP022079.1,87315,87486
GCF_014170935.1_ASM1417093v1,plasmid_AA552,NZ_AP022081.1,33540,33540
GCF_014170935.1_ASM1417093v1,plasmid_AG640,NZ_AP022083.1,3768,3768
GCF_014170935.1_ASM1417093v1,plasmid_AA860,NZ_AP022080.1,168049,224219
GCF_014170935.1_ASM1417093v1,plasmid_AA860,NZ_AP022079.1,44154,224219
GCF_014170935.1_ASM1417093v1,plasmid_AA860,NZ_AP022078.1,27224,224219
GCF_014170935.1_ASM1417093v1,plasmid_AA860,NZ_AP022081.1,14109,224219
GCF_014170935.1_ASM1417093v1,plasmid_AA035,NZ_AP022079.1,74241,73089
GCF_014170935.1_ASM1417093v1,plasmid_AE809,NZ_AP022082.1,41084,41084
GCF_014170935.1_ASM1417093v1,plasmid_AC431,no_correct_alignments,0,0
GCF_015694065.1_ASM1569406v1,plasmid_AB045,no_correct_alignments,0,0
GCF_015694065.1_ASM1569406v1,plasmid_AG934,no_correct_alignments,0,0
GCF_015694065.1_ASM1569406v1,plasmid_AA450,NZ_CP065176.1,68191,68191
GCF_015694065.1_ASM1569406v1,plasmid_AA450,NZ_CP065174.1,1201,68191
GCF_015694065.1_ASM1569406v1,plasmid_AD170,no_correct_alignments,0,0
GCF_015694065.1_ASM1569406v1,plasmid_AE105,NZ_CP065175.1,105007,105007
GCF_015694065.1_ASM1569406v1,plasmid_AA404,NZ_CP065174.1,211701,210520
GCF_015694065.1_ASM1569406v1,plasmid_AA404,NZ_CP065175.1,2278,210520
GCF_015694065.1_ASM1569406v1,plasmid_AA404,NZ_CP065173.1,2278,210520
GCF_015694065.1_ASM1569406v1,plasmid_AA404,NZ_CP065172.1,1200,210520
GCF_015694065.1_ASM1569406v1,plasmid_AA103,no_correct_alignments,0,0
GCF_015694065.1_ASM1569406v1,plasmid_AA277,NZ_CP065173.1,201607,207432
GCF_015694065.1_ASM1569406v1,plasmid_AA277,NZ_CP065176.1,21330,207432
GCF_015694065.1_ASM1569406v1,plasmid_AA277,NZ_CP065175.1,13575,207432
GCF_015694065.1_ASM1569406v1,plasmid_AA277,NZ_CP065172.1,1249,207432
GCF_017894305.1_ASM1789430v1,plasmid_AA002,NZ_CP058363.1,41455,41455
GCF_017894305.1_ASM1789430v1,plasmid_AA282,NZ_CP058363.1,94539,91884
GCF_017894305.1_ASM1789430v1,plasmid_AA282,NZ_CP058362.1,4950,91884
GCF_017894305.1_ASM1789430v1,plasmid_AA282,NZ_CP058361.1,4950,91884
GCF_017894305.1_ASM1789430v1,plasmid_AA277,NZ_CP058362.1,186645,186645
GCF_904863245.1_INF355,plasmid_AB045,NZ_LR890280.1,3514,3514
GCF_904863245.1_INF355,plasmid_AD443,NZ_LR890279.1,118104,118104
GCF_904863245.1_INF355,plasmid_AD443,NZ_LR890278.1,2486,118104
GCF_904863245.1_INF355,plasmid_AA452,NZ_LR890278.1,169769,166175
GCF_904863245.1_INF355,plasmid_AA452,NZ_LR890279.1,2216,166175
GCF_014169335.1_ASM1416933v1,plasmid_AE235,no_correct_alignments,0,0
GCF_014169335.1_ASM1416933v1,plasmid_AB957,NZ_AP022139.1,10553,5717
GCF_014169335.1_ASM1416933v1,plasmid_AA448,NZ_AP022140.1,83914,84024
GCF_014905815.1_ASM1490581v1,plasmid_AA275,NZ_AP023455.1,182819,201376
GCF_014905815.1_ASM1490581v1,plasmid_AA275,NZ_AP023456.1,23373,201376
GCF_014905815.1_ASM1490581v1,plasmid_AA275,NZ_AP023453.1,30303,201376
GCF_014905815.1_ASM1490581v1,plasmid_AA275,NZ_AP023454.1,4487,201376
GCF_014905815.1_ASM1490581v1,plasmid_AA941,NZ_AP023457.1,9294,9294
GCF_014905815.1_ASM1490581v1,plasmid_AB187,NZ_AP023456.1,12570,12570
GCF_014905815.1_ASM1490581v1,plasmid_AA110,NZ_AP023458.1,3991,3991
GCF_014905815.1_ASM1490581v1,plasmid_AA338,NZ_AP023454.1,83335,90249
GCF_014905815.1_ASM1490581v1,plasmid_AA338,NZ_AP023456.1,6914,90249
GCF_904865845.1_INF302,plasmid_AB531,NZ_LR890558.1,47658,50271
GCF_904865845.1_INF302,plasmid_AB531,NZ_LR890556.1,16600,50271
GCF_904865845.1_INF302,plasmid_AB043,NZ_LR890561.1,1916,1916
GCF_904865845.1_INF302,plasmid_AF471,NZ_LR890559.1,4064,4064
GCF_904865845.1_INF302,plasmid_AA531,NZ_LR890560.1,3223,3223
GCF_904865845.1_INF302,plasmid_AA277,NZ_LR890557.1,230501,225758
GCF_904865845.1_INF302,plasmid_AA277,NZ_LR890556.1,2030,225758
GCF_013796245.1_ASM1379624v1,plasmid_AA275,NZ_CP056879.1,174198,173192
GCF_013796245.1_ASM1379624v1,plasmid_AA275,NZ_CP056880.1,4182,173192
GCF_013796245.1_ASM1379624v1,plasmid_AA275,NZ_CP056878.1,6801,173192
GCF_013796245.1_ASM1379624v1,plasmid_AA592,NZ_CP056880.1,27540,27540
GCF_013796245.1_ASM1379624v1,plasmid_AA117,NZ_CP056881.1,4512,4512
GCF_013796245.1_ASM1379624v1,plasmid_AC580,NZ_CP056880.1,52374,56972
GCF_013796245.1_ASM1379624v1,plasmid_AC580,NZ_CP056879.1,3526,56972
GCF_013796245.1_ASM1379624v1,plasmid_AC580,NZ_CP056878.1,2144,56972
GCF_013796245.1_ASM1379624v1,plasmid_novel_08e633a726894ab706bdf348e782d174,NZ_CP056882.1,3845,7472
GCF_013796245.1_ASM1379624v1,plasmid_novel_08e633a726894ab706bdf348e782d174,NZ_CP056880.1,3492,7472
GCF_013792545.1_ASM1379254v1,plasmid_AB531,NZ_CP056857.1,55736,55736
GCF_013792545.1_ASM1379254v1,plasmid_AB043,NZ_CP056860.1,1916,1916
GCF_013792545.1_ASM1379254v1,plasmid_AB158,NZ_CP056856.1,6104,6104
GCF_013792545.1_ASM1379254v1,plasmid_AB962,NZ_CP056856.1,95773,94664
GCF_013792545.1_ASM1379254v1,plasmid_AA035,NZ_CP056855.1,88676,95318
GCF_013792545.1_ASM1379254v1,plasmid_AA035,NZ_CP056858.1,9008,95318
GCF_013792545.1_ASM1379254v1,plasmid_AA035,NZ_CP056856.1,3667,95318
GCF_013792545.1_ASM1379254v1,plasmid_AA035,NZ_CP056854.1,10980,95318
GCF_013792545.1_ASM1379254v1,plasmid_AA448,NZ_CP056858.1,26460,88858
GCF_013792545.1_ASM1379254v1,plasmid_AA448,NZ_CP056855.1,60795,88858
GCF_013792545.1_ASM1379254v1,plasmid_AA448,NZ_CP056854.1,11564,88858
GCF_013792545.1_ASM1379254v1,plasmid_AA448,NZ_CP056856.1,1049,88858
GCF_020080145.1_ASM2008014v1,plasmid_AA552,NZ_CP083447.1,38490,41614
GCF_020080145.1_ASM2008014v1,plasmid_AA552,NZ_CP083445.1,3124,41614
GCF_020080145.1_ASM2008014v1,plasmid_AA552,NZ_CP083446.1,5189,41614
GCF_020080145.1_ASM2008014v1,plasmid_AC212,NZ_CP083446.1,316472,308207
GCF_020080145.1_ASM2008014v1,plasmid_AC212,NZ_CP083445.1,14594,308207
GCF_020080145.1_ASM2008014v1,plasmid_AC212,NZ_CP083447.1,2361,308207
GCF_020525845.1_ASM2052584v1,plasmid_AA035,NZ_CP084861.1,152194,153353
GCF_020525845.1_ASM2052584v1,plasmid_AA035,NZ_CP084860.1,2318,153353
GCF_020525845.1_ASM2052584v1,plasmid_AA113,NZ_CP084864.1,3202,3202
GCF_020525845.1_ASM2052584v1,plasmid_AB181,NZ_CP084862.1,49157,50353
GCF_020525845.1_ASM2052584v1,plasmid_AB181,NZ_CP084861.1,6960,50353
GCF_020525845.1_ASM2052584v1,plasmid_AB181,NZ_CP084860.1,8302,50353
GCF_020525845.1_ASM2052584v1,plasmid_AB041,NZ_CP084865.1,2160,2160
GCF_016903235.1_ASM1690323v1,plasmid_AC529,NZ_CP069858.1,2851,2851
GCF_016903235.1_ASM1690323v1,plasmid_AC125,NZ_CP069855.1,93571,93571
GCF_016903235.1_ASM1690323v1,plasmid_AA033,NZ_CP069854.1,23076,23076
GCF_016903235.1_ASM1690323v1,plasmid_AB158,no_correct_alignments,0,0
GCF_016903235.1_ASM1690323v1,plasmid_AA275,NZ_CP069854.1,67320,92380
GCF_016903235.1_ASM1690323v1,plasmid_AA275,NZ_CP069853.1,32309,92380
GCF_016903235.1_ASM1690323v1,plasmid_AA275,NZ_CP069855.1,6564,92380
GCF_016903235.1_ASM1690323v1,plasmid_AA275,NZ_CP069856.1,2438,92380
GCF_016903235.1_ASM1690323v1,plasmid_AF145,NZ_CP069853.1,20329,12788
GCF_016903235.1_ASM1690323v1,plasmid_AA123,no_correct_alignments,0,0
GCF_018075085.1_ASM1807508v1,plasmid_AG471,NZ_CP072951.1,8267,8267
GCF_018075085.1_ASM1807508v1,plasmid_AC579,NZ_CP072951.1,86997,86997
GCF_018075085.1_ASM1807508v1,plasmid_AA448,NZ_CP072950.1,39662,39662
GCF_018075085.1_ASM1807508v1,plasmid_AA356,NZ_CP072951.1,15152,15152
GCF_018075085.1_ASM1807508v1,plasmid_AA277,NZ_CP072950.1,150605,175135
GCF_018075085.1_ASM1807508v1,plasmid_AA277,NZ_CP072949.1,41584,175135
GCF_018075085.1_ASM1807508v1,plasmid_AA277,NZ_CP072951.1,7508,175135
GCF_904863265.1_INF156,plasmid_AA401,NZ_LR890287.1,149786,147504
GCF_904863325.1_INF354,plasmid_AA033,NZ_LR890371.1,57669,58832
GCF_904863325.1_INF354,plasmid_AA033,NZ_LR890369.1,4690,58832
GCF_904863325.1_INF354,plasmid_AE232,NZ_LR890373.1,2723,2723
GCF_904863325.1_INF354,plasmid_AA531,NZ_LR890372.1,2997,3223
GCF_904863325.1_INF354,plasmid_AA277,NZ_LR890370.1,220227,219907
GCF_904863325.1_INF354,plasmid_AA277,NZ_LR890371.1,11187,219907
GCF_016904035.1_ASM1690403v1,plasmid_AA816,NZ_CP070038.1,147489,165655
GCF_016904035.1_ASM1690403v1,plasmid_AA816,NZ_CP070039.1,29746,165655
GCF_016904035.1_ASM1690403v1,plasmid_AB043,NZ_CP070040.1,1917,1917
GCF_016904035.1_ASM1690403v1,plasmid_AB193,NZ_CP070039.1,14414,14636
GCF_904864625.1_INF171,plasmid_AA458,NZ_LR890447.1,156683,156683
GCF_904864625.1_INF171,plasmid_AA554,NZ_LR890446.1,31480,29392
GCF_904864625.1_INF171,plasmid_AD465,NZ_LR890450.1,2442,2442
GCF_904864625.1_INF171,plasmid_AF218,NZ_LR890448.1,29473,29473
GCF_016904415.1_ASM1690441v1,plasmid_AB186,NZ_CP070108.1,19669,19669
GCF_016904415.1_ASM1690441v1,plasmid_AA833,NZ_CP070108.1,42434,62244
GCF_016904415.1_ASM1690441v1,plasmid_AA833,NZ_CP070105.1,19599,62244
GCF_016904415.1_ASM1690441v1,plasmid_AA833,NZ_CP070109.1,4149,62244
GCF_016904415.1_ASM1690441v1,plasmid_AA833,NZ_CP070110.1,1640,62244
GCF_016904415.1_ASM1690441v1,plasmid_AA833,NZ_CP070106.1,1637,62244
GCF_016904415.1_ASM1690441v1,plasmid_novel_31be2592802536f0ba099c45ac233c77,no_correct_alignments,0,0
GCF_016904415.1_ASM1690441v1,plasmid_AA002,NZ_CP070110.1,75546,100147
GCF_016904415.1_ASM1690441v1,plasmid_AA002,NZ_CP070108.1,24941,100147
GCF_016904415.1_ASM1690441v1,plasmid_AA002,NZ_CP070105.1,12281,100147
GCF_016904415.1_ASM1690441v1,plasmid_novel_ca3454ced284b4da38da7594a77c3102,no_correct_alignments,0,0
GCF_016904415.1_ASM1690441v1,plasmid_novel_7ab18a81c47e9522c8c2a14734d72fa5,NZ_CP070108.1,69665,68487
GCF_016904415.1_ASM1690441v1,plasmid_novel_7ab18a81c47e9522c8c2a14734d72fa5,NZ_CP070105.1,3534,68487
GCF_904863285.1_INF231,plasmid_AB055,NZ_LR890359.1,2667,2667
GCF_904863285.1_INF231,plasmid_AA448,NZ_LR890357.1,78991,77551
GCF_904863285.1_INF231,plasmid_novel_61d264fe78a011782f01506d91b31249,NZ_LR890357.1,39116,39116
GCF_013735895.1_ASM1373589v1,plasmid_AD306,NZ_CP056428.1,25549,25549
GCF_013735895.1_ASM1373589v1,plasmid_AD548,NZ_CP056426.1,70092,96199
GCF_013735895.1_ASM1373589v1,plasmid_AD548,NZ_CP056427.1,29955,96199
GCF_013735895.1_ASM1373589v1,plasmid_AD548,NZ_CP056425.1,8638,96199
GCF_013735895.1_ASM1373589v1,plasmid_AA833,NZ_CP056426.1,43572,45321
GCF_013735895.1_ASM1373589v1,plasmid_AA833,NZ_CP056427.1,5008,45321
GCF_013735895.1_ASM1373589v1,plasmid_AA833,NZ_CP056425.1,2162,45321
GCF_013735895.1_ASM1373589v1,plasmid_novel_c1fdcb8c2e9693af590121121eb59be0,NZ_CP056431.1,2836,7641
GCF_013735895.1_ASM1373589v1,plasmid_novel_c1fdcb8c2e9693af590121121eb59be0,NZ_CP056427.1,3606,7641
GCF_013735895.1_ASM1373589v1,plasmid_novel_c1fdcb8c2e9693af590121121eb59be0,NZ_CP056426.1,6004,7641
GCF_013735895.1_ASM1373589v1,plasmid_novel_c1fdcb8c2e9693af590121121eb59be0,NZ_CP056425.1,4796,7641
GCF_013735895.1_ASM1373589v1,plasmid_AA044,NZ_CP056426.1,17553,27838
GCF_013735895.1_ASM1373589v1,plasmid_AA044,NZ_CP056427.1,10280,27838
GCF_013735895.1_ASM1373589v1,plasmid_AA044,NZ_CP056425.1,5160,27838
GCF_013735895.1_ASM1373589v1,plasmid_AA111,NZ_CP056429.1,5783,5783
GCF_013735895.1_ASM1373589v1,plasmid_AA449,NZ_CP056426.1,64324,74766
GCF_013735895.1_ASM1373589v1,plasmid_AA449,NZ_CP056425.1,19705,74766
GCF_013735895.1_ASM1373589v1,plasmid_AA449,NZ_CP056427.1,12898,74766
GCF_013735895.1_ASM1373589v1,plasmid_novel_2cedd9ad82a598288e96b2e47a1e336f,NZ_CP056427.1,8067,8067
GCF_016804025.1_ASM1680402v1,plasmid_AA276,NZ_CP053018.1,209421,213689
GCF_016804025.1_ASM1680402v1,plasmid_AA276,NZ_CP053017.1,11006,213689
GCF_016804025.1_ASM1680402v1,plasmid_AA276,NZ_CP053016.1,3774,213689
GCF_016804025.1_ASM1680402v1,plasmid_AA942,NZ_CP053019.1,10060,10060
GCF_016804025.1_ASM1680402v1,plasmid_AA032,NZ_CP053017.1,136325,143017
GCF_016804025.1_ASM1680402v1,plasmid_AA032,NZ_CP053020.1,5596,143017
GCF_016804025.1_ASM1680402v1,plasmid_AA032,NZ_CP053016.1,10786,143017
GCF_013796485.1_ASM1379648v1,plasmid_AC247,NZ_CP056885.1,1707,1707
GCF_013796485.1_ASM1379648v1,plasmid_AA275,NZ_CP056884.1,94606,121169
GCF_013796485.1_ASM1379648v1,plasmid_AA275,NZ_CP056885.1,23878,121169
GCF_013796485.1_ASM1379648v1,plasmid_AA275,NZ_CP056883.1,8945,121169
GCF_013796485.1_ASM1379648v1,plasmid_AA592,NZ_CP056885.1,74740,75071
GCF_013796485.1_ASM1379648v1,plasmid_novel_c5ef683bf0776a40e14caf6305895404,NZ_CP056887.1,3980,3980
GCF_013796485.1_ASM1379648v1,plasmid_AA274,NZ_CP056884.1,86807,85609
GCF_013796485.1_ASM1379648v1,plasmid_AA274,NZ_CP056883.1,1198,85609
GCF_013796485.1_ASM1379648v1,plasmid_AA117,NZ_CP056886.1,4512,4512
GCF_021497265.1_ASM2149726v1,plasmid_AC125,NZ_CP053864.1,110998,111002
GCF_021497265.1_ASM2149726v1,plasmid_AA406,NZ_CP053863.1,216801,220322
GCF_021497265.1_ASM2149726v1,plasmid_AA406,NZ_CP053862.1,9055,220322
GCF_904866295.1_KSB2_1C,plasmid_AA130,NZ_LR890622.1,3759,3759
GCF_904866295.1_KSB2_1C,plasmid_AA035,NZ_LR890621.1,182994,182982
GCF_904866295.1_KSB2_1C,plasmid_AA035,NZ_LR890620.1,17231,182982
GCF_904866295.1_KSB2_1C,plasmid_AA113,NZ_LR890623.1,3412,3412
GCF_904866295.1_KSB2_1C,plasmid_AA111,NZ_LR890621.1,5028,1257
GCF_904866295.1_KSB2_1C,plasmid_AA111,NZ_LR890620.1,2514,1257
GCF_019798005.1_ASM1979800v1,plasmid_AC125,NZ_CP073786.1,110542,110542
GCF_019798005.1_ASM1979800v1,plasmid_AD312,NZ_CP073785.1,12208,12208
GCF_019798005.1_ASM1979800v1,plasmid_AA406,NZ_CP073785.1,86943,301171
GCF_019798005.1_ASM1979800v1,plasmid_AA406,NZ_CP073784.1,214228,301171
GCF_019798005.1_ASM1979800v1,plasmid_AB953,NZ_CP073785.1,3882,5354
GCF_019798005.1_ASM1979800v1,plasmid_AB953,NZ_CP073783.1,2944,5354
GCF_019798005.1_ASM1979800v1,plasmid_AE971,NZ_CP073785.1,2497,2497
GCF_904866415.1_INF201,plasmid_AA408,NZ_LR890687.1,166977,162661
GCF_904866415.1_INF201,plasmid_AA408,NZ_LR890686.1,2414,162661
GCF_904866415.1_INF201,plasmid_AA122,NZ_LR890689.1,4268,4268
GCF_904866415.1_INF201,plasmid_AG640,NZ_LR890688.1,4387,4387
GCF_904866415.1_INF201,plasmid_AB055,NZ_LR890690.1,2665,2665
GCF_016903735.1_ASM1690373v1,plasmid_AA103,NZ_CP069949.1,4167,4167
GCF_016903735.1_ASM1690373v1,plasmid_AA352,NZ_CP069948.1,12054,13581
GCF_016903735.1_ASM1690373v1,plasmid_AA352,NZ_CP069947.1,13581,13581
GCF_016903735.1_ASM1690373v1,plasmid_AA553,NZ_CP069947.1,15972,17417
GCF_016903735.1_ASM1690373v1,plasmid_AA553,NZ_CP069946.1,5557,17417
GCF_016903735.1_ASM1690373v1,plasmid_AA338,NZ_CP069948.1,69389,74156
GCF_016903735.1_ASM1690373v1,plasmid_AA338,NZ_CP069947.1,6929,74156
GCF_016903735.1_ASM1690373v1,plasmid_AA338,NZ_CP069946.1,4722,74156
GCF_904866335.1_INF266,plasmid_AA816,NZ_LR890649.1,116133,118558
GCF_904866335.1_INF266,plasmid_AA816,NZ_LR890650.1,7004,118558
GCF_904866335.1_INF266,plasmid_AA816,NZ_LR890648.1,9453,118558
GCF_904866335.1_INF266,plasmid_AB181,NZ_LR890650.1,54937,54937
GCF_904866195.1_INF327,plasmid_AB043,no_correct_alignments,0,0
GCF_904866195.1_INF327,plasmid_AF471,NZ_LR890574.1,4064,4064
GCF_904866195.1_INF327,plasmid_AA404,NZ_LR890573.1,210184,210184
GCF_904866195.1_INF327,plasmid_AA531,NZ_LR890575.1,3223,3223
GCF_904866195.1_INF327,plasmid_AA277,NZ_LR890572.1,211153,206876
GCF_904866195.1_INF327,plasmid_AA277,NZ_LR890571.1,2030,206876
GCF_003937135.2_ASM393713v2,plasmid_AA405,NZ_CP078034.1,302919,293471
GCF_003937135.2_ASM393713v2,plasmid_AA405,NZ_CP078033.1,33790,293471
GCF_003937135.2_ASM393713v2,plasmid_AA405,NZ_CP078035.1,4034,293471
GCF_003937135.2_ASM393713v2,plasmid_AA405,NZ_CP078036.1,2961,293471
GCF_003937135.2_ASM393713v2,plasmid_AA457,NZ_CP078035.1,97918,98219
GCF_003937135.2_ASM393713v2,plasmid_AC129,NZ_CP078037.1,5997,5997
GCF_003937135.2_ASM393713v2,plasmid_AA338,NZ_CP078036.1,62999,63008
GCF_904866375.1_INF242,plasmid_AF460,NZ_LR890625.1,40181,41276
GCF_904866375.1_INF242,plasmid_AF460,NZ_LR890624.1,1095,41276
GCF_904866375.1_INF242,plasmid_AA397,NZ_LR890625.1,113786,111640
GCF_904866375.1_INF242,plasmid_AA521,NZ_LR890626.1,5074,5251
GCF_016903895.1_ASM1690389v1,plasmid_AA275,NZ_CP069995.1,66213,66213
GCF_016903895.1_ASM1690389v1,plasmid_AA275,NZ_CP069994.1,6443,66213
GCF_016903895.1_ASM1690389v1,plasmid_AA274,NZ_CP069995.1,90520,90520
GCF_904863135.1_INF310,plasmid_AB531,NZ_LR890260.1,53920,53945
GCF_904863135.1_INF310,plasmid_AC125,NZ_LR890257.1,111123,111123
GCF_904863135.1_INF310,plasmid_AA941,NZ_LR890261.1,9294,9294
GCF_904863135.1_INF310,plasmid_AA860,NZ_LR890256.1,124398,124398
GCF_904863135.1_INF310,plasmid_AA860,NZ_LR890254.1,4072,124398
GCF_904863135.1_INF310,plasmid_AA860,NZ_LR890259.1,2396,124398
GCF_904863135.1_INF310,plasmid_AA002,NZ_LR890259.1,40526,40526
GCF_904863135.1_INF310,plasmid_AA001,NZ_LR890259.1,20769,20769
GCF_904863135.1_INF310,plasmid_AA336,NZ_LR890258.1,69066,69066
GCF_904863135.1_INF310,plasmid_AA447,NZ_LR890255.1,159768,159768
GCF_904863135.1_INF310,plasmid_AA447,NZ_LR890254.1,5099,159768
GCF_904863135.1_INF310,plasmid_AA447,NZ_LR890256.1,1331,159768
GCF_018283505.2_ASM1828350v2,plasmid_AC125,NZ_CP084394.1,112696,112696
GCF_018283505.2_ASM1828350v2,plasmid_AA405,NZ_CP084395.1,359672,341094
GCF_018283505.2_ASM1828350v2,plasmid_AA405,NZ_CP084397.1,9700,341094
GCF_018283505.2_ASM1828350v2,plasmid_AA103,NZ_CP084396.1,4167,4167
GCF_015138775.1_ASM1513877v1,plasmid_AD443,NZ_AP022528.1,137794,134187
GCF_015138775.1_ASM1513877v1,plasmid_AD443,NZ_AP022527.1,4818,134187
GCF_015138775.1_ASM1513877v1,plasmid_AB160,NZ_AP022529.1,36136,36137
GCF_015138775.1_ASM1513877v1,plasmid_AB040,NZ_AP022532.1,2315,2315
GCF_015138775.1_ASM1513877v1,plasmid_AD338,NZ_AP022530.1,4906,4906
GCF_015138775.1_ASM1513877v1,plasmid_AE971,NZ_AP022529.1,3536,3536
GCF_015138775.1_ASM1513877v1,plasmid_AE971,NZ_AP022527.1,5412,3536
GCF_016904315.1_ASM1690431v1,plasmid_AA275,NZ_CP070093.1,161155,160098
GCF_016904315.1_ASM1690431v1,plasmid_AA275,NZ_CP070092.1,9207,160098
GCF_016904315.1_ASM1690431v1,plasmid_AB042,NZ_CP070093.1,1059,1059
GCF_016904315.1_ASM1690431v1,plasmid_AA551,NZ_CP070093.1,34646,35427
GCF_016904315.1_ASM1690431v1,plasmid_AG600,NZ_CP070093.1,4234,4234
GCF_904865785.1_INF142,plasmid_AA102,NZ_LR890553.1,3825,3825
GCF_904865785.1_INF142,plasmid_AA120,NZ_LR890552.1,4536,4536
GCF_904865785.1_INF142,plasmid_AA860,NZ_LR890548.1,38543,38934
GCF_904865785.1_INF142,plasmid_AA860,NZ_LR890551.1,4335,38934
GCF_904865785.1_INF142,plasmid_AA860,NZ_LR890547.1,11367,38934
GCF_904865785.1_INF142,plasmid_AA860,NZ_LR890550.1,7251,38934
GCF_904865785.1_INF142,plasmid_AA861,NZ_LR890549.1,139384,279393
GCF_904865785.1_INF142,plasmid_AA861,NZ_LR890548.1,130494,279393
GCF_904865785.1_INF142,plasmid_AA861,NZ_LR890550.1,12505,279393
GCF_904865785.1_INF142,plasmid_AA861,NZ_LR890547.1,21824,279393
GCF_904865785.1_INF142,plasmid_AA117,NZ_LR890551.1,4273,4273
GCF_904865785.1_INF142,plasmid_AB953,NZ_LR890549.1,3313,4628
GCF_904865785.1_INF142,plasmid_AB953,NZ_LR890550.1,4628,4628
GCF_904865785.1_INF142,plasmid_AB953,NZ_LR890547.1,1315,4628
GCF_904865785.1_INF142,plasmid_AA553,NZ_LR890550.1,49862,49862
GCF_904866425.1_INF065,plasmid_AF460,NZ_LR890666.1,34366,34366
GCF_904866425.1_INF065,plasmid_AF460,NZ_LR890665.1,1923,34366
GCF_904866425.1_INF065,plasmid_AA397,NZ_LR890666.1,115734,114662
GCF_904866425.1_INF065,plasmid_AA397,NZ_LR890665.1,1315,114662
GCF_904866425.1_INF065,plasmid_AB047,NZ_LR890667.1,5825,5825
GCF_016904295.1_ASM1690429v1,plasmid_AB045,NZ_CP070091.1,4832,4832
GCF_016904295.1_ASM1690429v1,plasmid_AB043,no_correct_alignments,0,0
GCF_016904295.1_ASM1690429v1,plasmid_AA277,NZ_CP070089.1,205900,206757
GCF_016904295.1_ASM1690429v1,plasmid_AA277,NZ_CP070088.1,9570,206757
GCF_904863215.1_INF277,plasmid_AB043,NZ_LR890208.1,1916,1916
GCF_904863215.1_INF277,plasmid_AA531,NZ_LR890207.1,3088,3223
GCF_904863215.1_INF277,plasmid_AA378,NZ_LR890206.1,94255,94255
GCF_904863215.1_INF277,plasmid_AA277,NZ_LR890205.1,241706,223723
GCF_904863215.1_INF277,plasmid_AA277,NZ_LR890204.1,3330,223723
GCF_904863225.1_KSB1_6J,plasmid_AB531,NZ_LR890230.1,19916,44440
GCF_904863225.1_KSB1_6J,plasmid_AB043,NZ_LR890234.1,1916,1916
GCF_904863225.1_KSB1_6J,plasmid_AF471,NZ_LR890232.1,4064,4064
GCF_904863225.1_KSB1_6J,plasmid_AA531,NZ_LR890233.1,3223,3223
GCF_904863225.1_KSB1_6J,plasmid_AA277,NZ_LR890231.1,192309,192309
GCF_904863115.1_INF329,plasmid_AB043,NZ_LR890244.1,1916,1916
GCF_904863115.1_INF329,plasmid_AF471,NZ_LR890242.1,4064,4064
GCF_904863115.1_INF329,plasmid_AA531,NZ_LR890243.1,3223,3223
GCF_904863115.1_INF329,plasmid_AA277,NZ_LR890241.1,209289,206607
GCF_904863115.1_INF329,plasmid_AA277,NZ_LR890240.1,3655,206607
GCF_017639065.1_ASM1763906v1,plasmid_AB158,NZ_CP067257.1,9591,9592
GCF_017639065.1_ASM1763906v1,plasmid_AD312,NZ_CP067257.1,6286,6286
GCF_017639065.1_ASM1763906v1,plasmid_AA669,NZ_CP067260.1,3005,3005
GCF_017639065.1_ASM1763906v1,plasmid_AB193,NZ_CP067257.1,34317,34353
GCF_017639065.1_ASM1763906v1,plasmid_AB193,NZ_CP067255.1,1906,34353
GCF_017639065.1_ASM1763906v1,plasmid_AA110,NZ_CP067258.1,3898,3898
GCF_017639065.1_ASM1763906v1,plasmid_AA277,NZ_CP067256.1,166666,166156
GCF_017639065.1_ASM1763906v1,plasmid_AA277,NZ_CP067257.1,4162,166156
GCF_016903255.1_ASM1690325v1,plasmid_AA586,NZ_CP069862.1,36570,36570
GCF_016903255.1_ASM1690325v1,plasmid_AA814,NZ_CP069863.1,144791,149823
GCF_016903255.1_ASM1690325v1,plasmid_AA814,NZ_CP069862.1,4964,149823
GCF_016903255.1_ASM1690325v1,plasmid_AA814,NZ_CP069861.1,6343,149823
GCF_016903255.1_ASM1690325v1,plasmid_AA445,NZ_CP069862.1,86981,99866
GCF_016903255.1_ASM1690325v1,plasmid_AA445,NZ_CP069863.1,12885,99866
GCF_904865815.1_INF281,plasmid_AB531,NZ_LR890521.1,53943,53943
GCF_904865815.1_INF281,plasmid_AC125,NZ_LR890518.1,111123,111123
GCF_904865815.1_INF281,plasmid_AA941,NZ_LR890522.1,9294,9294
GCF_904865815.1_INF281,plasmid_AA860,NZ_LR890517.1,124398,149660
GCF_904865815.1_INF281,plasmid_AA860,NZ_LR890515.1,28026,149660
GCF_904865815.1_INF281,plasmid_AA860,NZ_LR890520.1,2396,149660
GCF_904865815.1_INF281,plasmid_AA002,NZ_LR890520.1,40526,40526
GCF_904865815.1_INF281,plasmid_AA001,NZ_LR890520.1,20769,20769
GCF_904865815.1_INF281,plasmid_AA336,NZ_LR890519.1,68766,68766
GCF_904865815.1_INF281,plasmid_AA447,NZ_LR890516.1,159434,159434
GCF_904865815.1_INF281,plasmid_AA447,NZ_LR890515.1,5099,159434
GCF_904865815.1_INF281,plasmid_AA447,NZ_LR890517.1,1331,159434
GCF_020526045.1_ASM2052604v1,plasmid_AB054,NZ_CP084873.1,10310,2053
GCF_904866395.1_INF321,plasmid_AA887,NZ_LR890670.1,29821,29821
GCF_904866395.1_INF321,plasmid_AB043,NZ_LR890677.1,1870,1917
GCF_904866395.1_INF321,plasmid_AA102,NZ_LR890673.1,3620,3690
GCF_904866395.1_INF321,plasmid_novel_17b3c43ece18f2173cbda8c1d6ba8809,NZ_LR890670.1,15227,15227
GCF_904866395.1_INF321,plasmid_AA104,NZ_LR890672.1,4286,4390
GCF_904866395.1_INF321,plasmid_AA035,NZ_LR890671.1,57342,148264
GCF_904866395.1_INF321,plasmid_AA035,NZ_LR890670.1,22068,148264
GCF_904866395.1_INF321,plasmid_AA035,NZ_LR890669.1,42104,148264
GCF_904866395.1_INF321,plasmid_AA449,NZ_LR890669.1,7001,55641
GCF_904866395.1_INF321,plasmid_AA449,NZ_LR890671.1,11376,55641
GCF_904866395.1_INF321,plasmid_AA449,NZ_LR890670.1,1757,55641
GCF_904866395.1_INF321,plasmid_AA525,NZ_LR890674.1,3415,3415
GCF_904866395.1_INF321,plasmid_AA028,NZ_LR890671.1,39690,66296
GCF_904866395.1_INF321,plasmid_AA028,NZ_LR890675.1,3074,66296
GCF_904863435.1_KSB1_1B,plasmid_AC125,NZ_LR890293.1,113743,113743
GCF_904863435.1_KSB1_1B,plasmid_AA050,NZ_LR890294.1,57980,57980
GCF_904863435.1_KSB1_1B,plasmid_AD443,NZ_LR890292.1,103049,104385
GCF_904863435.1_KSB1_1B,plasmid_AD443,NZ_LR890291.1,2672,104385
GCF_904863435.1_KSB1_1B,plasmid_AD338,NZ_LR890296.1,6134,6134
GCF_904863435.1_KSB1_1B,plasmid_AA525,NZ_LR890298.1,5393,5393
GCF_904863435.1_KSB1_1B,plasmid_AA372,NZ_LR890295.1,55939,55939
GCF_904865685.1_INF182,plasmid_AC125,NZ_LR890555.1,111779,111779
GCF_020526065.1_ASM2052606v1,plasmid_AA398,no_correct_alignments,0,0
GCF_020526065.1_ASM2052606v1,plasmid_AA122,no_correct_alignments,0,0
GCF_020526065.1_ASM2052606v1,plasmid_AA456,no_correct_alignments,0,0
GCF_020526065.1_ASM2052606v1,plasmid_novel_1b99c943342810fcbbba773634879c03,NZ_CP084870.1,30339,70375
GCF_013731305.1_ASM1373130v1,plasmid_AC125,NZ_CP056303.1,108572,108572
GCF_013731305.1_ASM1373130v1,plasmid_AA276,NZ_CP056302.1,225690,207618
GCF_013731305.1_ASM1373130v1,plasmid_AA276,NZ_CP056301.1,3012,207618
GCF_904865715.1_KSB1_5H,plasmid_AB531,NZ_LR890506.1,53918,53918
GCF_904865715.1_KSB1_5H,plasmid_AC125,NZ_LR890503.1,111123,111123
GCF_904865715.1_KSB1_5H,plasmid_AA941,NZ_LR890507.1,9294,9294
GCF_904865715.1_KSB1_5H,plasmid_AA860,NZ_LR890502.1,124398,124398
GCF_904865715.1_KSB1_5H,plasmid_AA860,NZ_LR890500.1,2764,124398
GCF_904865715.1_KSB1_5H,plasmid_AA860,NZ_LR890505.1,2396,124398
GCF_904865715.1_KSB1_5H,plasmid_AA002,NZ_LR890505.1,40359,40359
GCF_904865715.1_KSB1_5H,plasmid_AA001,NZ_LR890505.1,20769,20769
GCF_904865715.1_KSB1_5H,plasmid_AA336,NZ_LR890504.1,68766,68766
GCF_904865715.1_KSB1_5H,plasmid_AA531,no_correct_alignments,0,0
GCF_904865715.1_KSB1_5H,plasmid_AA447,NZ_LR890501.1,159434,159434
GCF_904865715.1_KSB1_5H,plasmid_AA447,NZ_LR890500.1,5098,159434
GCF_904865715.1_KSB1_5H,plasmid_AA447,NZ_LR890502.1,1331,159434
GCF_904864475.1_INF168,plasmid_AA454,NZ_LR890472.1,175859,175859
GCF_904864475.1_INF168,plasmid_AA454,NZ_LR890471.1,2009,175859
GCF_012029935.2_ASM1202993v2,plasmid_AA627,NZ_CP061407.1,66874,66880
GCF_012029935.2_ASM1202993v2,plasmid_AA274,NZ_CP061405.1,155650,154520
GCF_012029935.2_ASM1202993v2,plasmid_AA274,NZ_CP061406.1,4777,154520
GCF_012029935.2_ASM1202993v2,plasmid_AA274,NZ_CP061404.1,33310,154520
GCF_012029935.2_ASM1202993v2,plasmid_AF572,NZ_CP061406.1,30055,30055
GCF_012029935.2_ASM1202993v2,plasmid_AA356,NZ_CP061406.1,21339,21343
GCF_012029935.2_ASM1202993v2,plasmid_novel_25927d0f0cf13d37fa2ce76b990638a0,NZ_CP061406.1,15795,16953
GCF_012029935.2_ASM1202993v2,plasmid_novel_25927d0f0cf13d37fa2ce76b990638a0,NZ_CP061404.1,2314,16953
GCF_013826045.1_ASM1382604v1,plasmid_AB531,NZ_CP057317.1,40464,45251
GCF_013826045.1_ASM1382604v1,plasmid_AB531,NZ_CP057313.1,10352,45251
GCF_013826045.1_ASM1382604v1,plasmid_AA454,NZ_CP057315.1,145962,143514
GCF_013826045.1_ASM1382604v1,plasmid_AA552,NZ_CP057318.1,43813,43813
GCF_013826045.1_ASM1382604v1,plasmid_AA405,NZ_CP057314.1,192170,302887
GCF_013826045.1_ASM1382604v1,plasmid_AA405,NZ_CP057316.1,109658,302887
GCF_016066475.1_ASM1606647v1,plasmid_AA397,NZ_CP065834.1,139739,130469
GCF_016066475.1_ASM1606647v1,plasmid_AA397,NZ_CP065833.1,6105,130469
GCF_016066475.1_ASM1606647v1,plasmid_AA104,NZ_CP065836.1,4165,4165
GCF_016066475.1_ASM1606647v1,plasmid_AB056,NZ_CP065837.1,3550,3550
GCF_016066475.1_ASM1606647v1,plasmid_AA832,NZ_CP065834.1,50671,50671
GCF_016066475.1_ASM1606647v1,plasmid_AE437,NZ_CP065834.1,72731,71659
GCF_014168655.1_ASM1416865v1,plasmid_AB073,NZ_AP021932.1,3981,3981
GCF_014168655.1_ASM1416865v1,plasmid_AA452,NZ_AP021930.1,103211,213088
GCF_014168655.1_ASM1416865v1,plasmid_AA452,NZ_AP021931.1,118629,213088
GCF_014168655.1_ASM1416865v1,plasmid_AA452,NZ_AP021929.1,2114,213088
GCF_016066025.1_ASM1606602v1,plasmid_AD094,NZ_CP065826.1,19982,22230
GCF_016066025.1_ASM1606602v1,plasmid_AD094,NZ_CP065825.1,12854,22230
GCF_016066025.1_ASM1606602v1,plasmid_AD094,NZ_CP065830.1,3303,22230
GCF_016066025.1_ASM1606602v1,plasmid_AA119,NZ_CP065829.1,3674,3674
GCF_016066025.1_ASM1606602v1,plasmid_AA274,NZ_CP065826.1,95764,95764
GCF_016066025.1_ASM1606602v1,plasmid_AA038,NZ_CP065826.1,80690,81993
GCF_016066025.1_ASM1606602v1,plasmid_AA038,NZ_CP065825.1,2606,81993
GCF_016066025.1_ASM1606602v1,plasmid_AD092,NZ_CP065826.1,1179,1179
GCF_016066025.1_ASM1606602v1,plasmid_AF031,NZ_CP065827.1,110785,115339
GCF_016066025.1_ASM1606602v1,plasmid_AF031,NZ_CP065826.1,5891,115339
GCF_016066025.1_ASM1606602v1,plasmid_AF031,NZ_CP065825.1,1337,115339
GCF_003038135.2_ASM303813v2,plasmid_AB158,NZ_CP043354.1,21571,24058
GCF_003038135.2_ASM303813v2,plasmid_AB158,NZ_CP043355.1,2487,24058
GCF_003038135.2_ASM303813v2,plasmid_AA541,NZ_CP043356.1,5596,5596
GCF_003038135.2_ASM303813v2,plasmid_AA031,NZ_CP043355.1,70287,127337
GCF_003038135.2_ASM303813v2,plasmid_AA031,NZ_CP043354.1,59480,127337
GCF_003038135.2_ASM303813v2,plasmid_AA031,NZ_CP043353.1,17782,127337
GCF_904866205.1_INF145,plasmid_AA521,NZ_LR890586.1,4439,4439
GCF_016903795.1_ASM1690379v1,plasmid_AA457,NZ_CP069969.1,196073,194790
GCF_016903795.1_ASM1690379v1,plasmid_AA457,NZ_CP069967.1,1286,194790
GCF_016903795.1_ASM1690379v1,plasmid_AA457,NZ_CP069968.1,1286,194790
GCF_016903795.1_ASM1690379v1,plasmid_AC288,NZ_CP069967.1,8990,8990
GCF_016903795.1_ASM1690379v1,plasmid_AB196,NZ_CP069967.1,16174,16174
GCF_016903795.1_ASM1690379v1,plasmid_AC434,NZ_CP069967.1,19091,19091
GCF_904866445.1_INF305,plasmid_AB531,NZ_LR890708.1,53747,53747
GCF_904866445.1_INF305,plasmid_AC125,NZ_LR890705.1,111123,111123
GCF_904866445.1_INF305,plasmid_AA941,NZ_LR890709.1,9294,9294
GCF_904866445.1_INF305,plasmid_AA860,NZ_LR890704.1,122596,122596
GCF_904866445.1_INF305,plasmid_AA860,NZ_LR890702.1,6578,122596
GCF_904866445.1_INF305,plasmid_AA860,NZ_LR890707.1,2396,122596
GCF_904866445.1_INF305,plasmid_AA002,NZ_LR890707.1,40526,40616
GCF_904866445.1_INF305,plasmid_AA001,NZ_LR890707.1,20769,20769
GCF_904866445.1_INF305,plasmid_AA336,NZ_LR890706.1,69066,69066
GCF_904866445.1_INF305,plasmid_AA447,NZ_LR890703.1,160593,160593
GCF_904866445.1_INF305,plasmid_AA447,NZ_LR890702.1,5099,160593
GCF_904866445.1_INF305,plasmid_AA447,NZ_LR890704.1,1331,160593
GCF_904866315.1_INF346,plasmid_AC247,NZ_LR890644.1,28953,28953
GCF_904866315.1_INF346,plasmid_AA532,NZ_LR890647.1,4616,4616
GCF_904866315.1_INF346,plasmid_AE809,NZ_LR890645.1,41212,41212
GCF_904866315.1_INF346,plasmid_AA048,NZ_LR890644.1,9103,9103
GCF_016903155.1_ASM1690315v1,plasmid_AA941,NZ_CP069823.1,9294,9294
GCF_016903155.1_ASM1690315v1,plasmid_AA276,NZ_CP069822.1,174347,170100
GCF_016903155.1_ASM1690315v1,plasmid_AA276,NZ_CP069821.1,3476,170100
GCF_016903155.1_ASM1690315v1,plasmid_AA103,NZ_CP069824.1,4167,4167
GCF_016903155.1_ASM1690315v1,plasmid_AA942,NZ_CP069821.1,7656,1914
GCF_904866485.1_KSB1_1H,plasmid_AB043,no_correct_alignments,0,0
GCF_904866485.1_KSB1_1H,plasmid_AA531,NZ_LR890725.1,3223,3223
GCF_904866485.1_KSB1_1H,plasmid_AA378,NZ_LR890724.1,94363,94363
GCF_904866485.1_KSB1_1H,plasmid_AA277,NZ_LR890723.1,209495,207128
GCF_904866485.1_KSB1_1H,plasmid_AA277,NZ_LR890722.1,3229,207128
GCF_016904095.1_ASM1690409v1,plasmid_AA275,NZ_CP070047.1,200912,200912
GCF_016904095.1_ASM1690409v1,plasmid_AA275,NZ_CP070046.1,13817,200912
GCF_904863295.1_KSB2_2B,plasmid_AB531,NZ_LR890343.1,21328,49476
GCF_904863295.1_KSB2_2B,plasmid_AB043,no_correct_alignments,0,0
GCF_904863295.1_KSB2_2B,plasmid_AF471,NZ_LR890346.1,4064,4064
GCF_904863295.1_KSB2_2B,plasmid_AA531,NZ_LR890347.1,3223,3223
GCF_904863295.1_KSB2_2B,plasmid_AA277,NZ_LR890344.1,242987,225643
GCF_904863295.1_KSB2_2B,plasmid_AA277,NZ_LR890343.1,14657,225643
GCF_904863295.1_KSB2_2B,plasmid_AA277,NZ_LR890345.1,5904,225643
GCF_020526025.1_ASM2052602v1,plasmid_AA276,NZ_CP084872.1,142299,142299
GCF_020526025.1_ASM2052602v1,plasmid_AA276,NZ_CP084871.1,2192,142299
GCF_904866535.1_KSB1_8C,plasmid_AB193,NZ_LR890753.1,35294,35294
GCF_904866535.1_KSB1_8C,plasmid_AB193,NZ_LR890751.1,2304,35294
GCF_904866535.1_KSB1_8C,plasmid_AA401,NZ_LR890752.1,141298,139102
GCF_020525865.1_ASM2052586v1,plasmid_AA122,no_correct_alignments,0,0
GCF_020525865.1_ASM2052586v1,plasmid_AA406,NZ_CP084824.1,187074,188173
GCF_020525865.1_ASM2052586v1,plasmid_AA406,NZ_CP084823.1,2194,188173
GCF_904866325.1_INF299,plasmid_AB531,NZ_LR890638.1,53863,53863
GCF_904866325.1_INF299,plasmid_AC125,NZ_LR890635.1,111123,111123
GCF_904866325.1_INF299,plasmid_AA941,NZ_LR890639.1,9294,9294
GCF_904866325.1_INF299,plasmid_AA860,NZ_LR890634.1,124398,124398
GCF_904866325.1_INF299,plasmid_AA860,NZ_LR890632.1,4072,124398
GCF_904866325.1_INF299,plasmid_AA860,NZ_LR890637.1,2396,124398
GCF_904866325.1_INF299,plasmid_AA002,NZ_LR890637.1,40526,40526
GCF_904866325.1_INF299,plasmid_AA001,NZ_LR890637.1,20769,20769
GCF_904866325.1_INF299,plasmid_AA336,NZ_LR890636.1,69066,69066
GCF_904866325.1_INF299,plasmid_AA447,NZ_LR890633.1,159768,159768
GCF_904866325.1_INF299,plasmid_AA447,NZ_LR890632.1,5099,159768
GCF_904866325.1_INF299,plasmid_AA447,NZ_LR890634.1,1331,159768
GCF_022369925.1_ASM2236992v1,plasmid_AC125,NZ_CP071029.1,112696,112696
GCF_022369925.1_ASM2236992v1,plasmid_AA405,NZ_CP071028.1,330481,340510
GCF_022369925.1_ASM2236992v1,plasmid_AA405,NZ_CP071030.1,19185,340510
GCF_022369925.1_ASM2236992v1,plasmid_AA405,NZ_CP071027.1,8377,340510
GCF_022369925.1_ASM2236992v1,plasmid_AA103,NZ_CP071031.1,4167,4167
GCF_022369925.1_ASM2236992v1,plasmid_AA019,NZ_CP071030.1,32135,32135
GCF_021057265.1_ASM2105726v1,plasmid_AC125,no_correct_alignments,0,0
GCF_021057265.1_ASM2105726v1,plasmid_AA941,no_correct_alignments,0,0
GCF_021057265.1_ASM2105726v1,plasmid_AA405,NZ_CP084985.1,346882,340869
GCF_021057265.1_ASM2105726v1,plasmid_AA405,NZ_CP084984.1,14755,340869
GCF_021057265.1_ASM2105726v1,plasmid_AB193,NZ_CP084985.1,19044,19044
GCF_021057265.1_ASM2105726v1,plasmid_AA103,no_correct_alignments,0,0
GCF_904863395.1_INF250,plasmid_AB045,NZ_LR890378.1,3514,3514
GCF_904863395.1_INF250,plasmid_AA033,NZ_LR890376.1,56727,57890
GCF_904863395.1_INF250,plasmid_AA033,NZ_LR890374.1,4690,57890
GCF_904863395.1_INF250,plasmid_AE232,NZ_LR890380.1,2723,2723
GCF_904863395.1_INF250,plasmid_AA127,NZ_LR890377.1,2402,2402
GCF_904863395.1_INF250,plasmid_AA531,NZ_LR890379.1,3223,3223
GCF_904863395.1_INF250,plasmid_AA277,NZ_LR890375.1,229327,227703
GCF_904863395.1_INF250,plasmid_AA277,NZ_LR890376.1,11857,227703
GCF_904863355.1_INF148,plasmid_AF471,NZ_LR890382.1,4064,4064
GCF_904863355.1_INF148,plasmid_AA531,NZ_LR890383.1,3223,3223
GCF_904863355.1_INF148,plasmid_AA277,NZ_LR890381.1,221128,215680
GCF_013611495.1_ASM1361149v1,plasmid_AD306,NZ_CP055513.1,35237,35237
GCF_013611495.1_ASM1361149v1,plasmid_AC125,NZ_CP055511.1,111021,112334
GCF_013611495.1_ASM1361149v1,plasmid_AC125,NZ_CP055509.1,8058,112334
GCF_013611495.1_ASM1361149v1,plasmid_AC125,NZ_CP055510.1,6673,112334
GCF_013611495.1_ASM1361149v1,plasmid_AA450,NZ_CP055512.1,64755,154113
GCF_013611495.1_ASM1361149v1,plasmid_AA450,NZ_CP055510.1,105470,154113
GCF_013611495.1_ASM1361149v1,plasmid_AA450,NZ_CP055509.1,9825,154113
GCF_013611495.1_ASM1361149v1,plasmid_AA820,NZ_CP055510.1,46385,61794
GCF_013611495.1_ASM1361149v1,plasmid_AA820,NZ_CP055509.1,15409,61794
GCF_013611495.1_ASM1361149v1,plasmid_AA050,NZ_CP055510.1,19022,30319
GCF_013611495.1_ASM1361149v1,plasmid_AA050,NZ_CP055512.1,11297,30319
GCF_013611495.1_ASM1361149v1,plasmid_AA050,NZ_CP055509.1,7894,30319
GCF_013611495.1_ASM1361149v1,plasmid_AA104,NZ_CP055514.1,3970,4056
GCF_013611495.1_ASM1361149v1,plasmid_AE233,NZ_CP055516.1,1919,1919
GCF_013611495.1_ASM1361149v1,plasmid_AA111,NZ_CP055509.1,10064,1258
GCF_013611495.1_ASM1361149v1,plasmid_AA111,NZ_CP055510.1,1258,1258
GCF_013611495.1_ASM1361149v1,plasmid_AA024,NZ_CP055510.1,19302,19302
GCF_013611495.1_ASM1361149v1,plasmid_AA114,NZ_CP055515.1,2775,2799
GCF_013611495.1_ASM1361149v1,plasmid_AA277,NZ_CP055510.1,73802,73803
GCF_012029895.2_ASM1202989v2,plasmid_AB235,NZ_CP061384.1,1934,1934
GCF_012029895.2_ASM1202989v2,plasmid_AA357,NZ_CP061382.1,35973,36997
GCF_012029895.2_ASM1202989v2,plasmid_AA357,NZ_CP061380.1,2048,36997
GCF_012029895.2_ASM1202989v2,plasmid_AD443,NZ_CP061381.1,121119,118951
GCF_012029895.2_ASM1202989v2,plasmid_AA586,NZ_CP061381.1,32354,32354
GCF_012029895.2_ASM1202989v2,plasmid_AA434,NZ_CP061382.1,62198,62198
GCF_012029895.2_ASM1202989v2,plasmid_AA356,NZ_CP061382.1,26816,20106
GCF_012029895.2_ASM1202989v2,plasmid_AA356,NZ_CP061381.1,1787,20106
GCF_012029895.2_ASM1202989v2,plasmid_AA356,NZ_CP061380.1,11560,20106
GCF_016903295.1_ASM1690329v1,plasmid_novel_31ec3584d0690e36de7a9bef4ec96066,no_correct_alignments,0,0
GCF_016903295.1_ASM1690329v1,plasmid_AB043,NZ_CP069877.1,1917,1917
GCF_016903295.1_ASM1690329v1,plasmid_AA163,NZ_CP069876.1,3373,3373
GCF_016903295.1_ASM1690329v1,plasmid_AA050,no_correct_alignments,0,0
GCF_016903295.1_ASM1690329v1,plasmid_AA113,NZ_CP069881.1,1442,1442
GCF_016903295.1_ASM1690329v1,plasmid_AA111,NZ_CP069878.1,3664,3664
GCF_016903295.1_ASM1690329v1,plasmid_AA435,no_correct_alignments,0,0
GCF_016903295.1_ASM1690329v1,plasmid_AA277,NZ_CP069875.1,134529,175753
GCF_019798025.1_ASM1979802v1,plasmid_AA551,NZ_CP073790.1,34681,34681
GCF_019798025.1_ASM1979802v1,plasmid_AA277,NZ_CP073789.1,225750,225762
GCF_021496545.1_ASM2149654v1,plasmid_AA816,NZ_CP055293.1,22547,74911
GCF_021496545.1_ASM2149654v1,plasmid_AA556,no_correct_alignments,0,0
GCF_021496545.1_ASM2149654v1,plasmid_AA401,no_correct_alignments,0,0
GCF_904864525.1_INF350,plasmid_AA458,NZ_LR890423.1,150352,150352
GCF_904863055.1_INF022,plasmid_AA357,NZ_LR890210.1,36751,36751
GCF_904863055.1_INF022,plasmid_AA050,NZ_LR890211.1,23578,40913
GCF_904863055.1_INF022,plasmid_AA050,NZ_LR890210.1,17335,40913
GCF_904863055.1_INF022,plasmid_AA044,NZ_LR890210.1,5399,12477
GCF_904863055.1_INF022,plasmid_AA044,NZ_LR890209.1,18985,12477
GCF_904863055.1_INF022,plasmid_AA035,NZ_LR890210.1,123073,126893
GCF_904863055.1_INF022,plasmid_AA035,NZ_LR890209.1,15955,126893
GCF_904863055.1_INF022,plasmid_AA035,NZ_LR890211.1,1791,126893
GCF_904863055.1_INF022,plasmid_AA113,NZ_LR890212.1,3130,3130
GCF_904863335.1_KSB1_5B,plasmid_AB193,NZ_LR890355.1,26853,26853
GCF_904863335.1_KSB1_5B,plasmid_AB193,NZ_LR890353.1,4309,26853
GCF_904863335.1_KSB1_5B,plasmid_AB161,NZ_LR890355.1,57742,48765
GCF_904863335.1_KSB1_5B,plasmid_AB161,NZ_LR890353.1,2383,48765
GCF_904863335.1_KSB1_5B,plasmid_AA401,NZ_LR890354.1,130252,130253
GCF_904863335.1_KSB1_5B,plasmid_AA401,NZ_LR890355.1,1336,130253
GCF_016903495.1_ASM1690349v1,plasmid_AA406,NZ_CP069941.1,220234,222151
GCF_016903495.1_ASM1690349v1,plasmid_AA406,NZ_CP069940.1,3834,222151
