GCF_013895695.1_ASM1389569v1,plasmid_AA454,1
GCF_013895695.1_ASM1389569v1,plasmid_AA552,0
GCF_002853115.2_ASM285311v2,plasmid_AA406,2
GCF_904865825.1_INF018,plasmid_AD441,0
GCF_904865825.1_INF018,plasmid_AG934,0
GCF_904865825.1_INF018,plasmid_AB043,0
GCF_904865825.1_INF018,plasmid_AE105,1
GCF_904865825.1_INF018,plasmid_AA113,0
GCF_904865825.1_INF018,plasmid_AA114,0
GCF_904865825.1_INF018,plasmid_AA531,0
GCF_904865825.1_INF018,plasmid_AA277,0
GCF_904865755.1_INF341,plasmid_AA275,1
GCF_904865755.1_INF341,plasmid_AA941,0
GCF_904863125.1_INF357,plasmid_AB056,0
GCF_904863125.1_INF357,plasmid_AA814,1
GCF_904863125.1_INF357,plasmid_AC431,0
GCF_904863195.1_INF133,plasmid_AB043,0
GCF_904863195.1_INF133,plasmid_AD170,0
GCF_904863195.1_INF133,plasmid_AF573,0
GCF_904863195.1_INF133,plasmid_AF471,0
GCF_904863195.1_INF133,plasmid_AA445,2
GCF_904863195.1_INF133,plasmid_AA404,1
GCF_904863195.1_INF133,plasmid_AA531,0
GCF_904863195.1_INF133,plasmid_AA277,4
GCF_013730675.1_ASM1373067v1,plasmid_AD443,2
GCF_904864535.1_INF313,plasmid_AB045,0
GCF_904864535.1_INF313,plasmid_AA033,2
GCF_904864535.1_INF313,plasmid_AE232,0
GCF_904864535.1_INF313,plasmid_AA111,0
GCF_904864535.1_INF313,plasmid_AA531,0
GCF_904864535.1_INF313,plasmid_AA277,4
GCF_904865795.1_KSB2_10B,plasmid_AB531,5
GCF_904865795.1_KSB2_10B,plasmid_AB043,0
GCF_904865795.1_KSB2_10B,plasmid_AF471,0
GCF_904865795.1_KSB2_10B,plasmid_AA531,0
GCF_904865795.1_KSB2_10B,plasmid_AA277,3
GCF_904864515.1_KSB2_2C,plasmid_AB531,0
GCF_904864515.1_KSB2_2C,plasmid_AB043,0
GCF_904864515.1_KSB2_2C,plasmid_AA531,0
GCF_904864515.1_KSB2_2C,plasmid_AA277,3
GCF_016904275.1_ASM1690427v1,plasmid_AA275,7
GCF_016904275.1_ASM1690427v1,plasmid_AD094,0
GCF_016904275.1_ASM1690427v1,plasmid_AA941,1
GCF_016904275.1_ASM1690427v1,plasmid_AB189,1
GCF_016904275.1_ASM1690427v1,plasmid_AG658,0
GCF_016904275.1_ASM1690427v1,plasmid_AA038,0
GCF_016904275.1_ASM1690427v1,plasmid_AA541,0
GCF_904866475.1_KSB2_9B,plasmid_AB181,0
GCF_904866475.1_KSB2_9B,plasmid_AA276,2
GCF_904866475.1_KSB2_9B,plasmid_AB193,0
GCF_904866475.1_KSB2_9B,plasmid_AF218,0
GCF_020149875.1_ASM2014987v1,plasmid_AB159,0
GCF_020149875.1_ASM2014987v1,plasmid_AB536,0
GCF_020149875.1_ASM2014987v1,plasmid_AB050,0
GCF_020149875.1_ASM2014987v1,plasmid_AA122,0
GCF_020149875.1_ASM2014987v1,plasmid_AA035,2
GCF_020149875.1_ASM2014987v1,plasmid_AA434,0
GCF_020149875.1_ASM2014987v1,plasmid_AG328,0
GCF_020149875.1_ASM2014987v1,plasmid_AA113,0
GCF_020149875.1_ASM2014987v1,plasmid_novel_d9dc3f3b1fa762a2d9de87554eccb27a,1
GCF_020149875.1_ASM2014987v1,plasmid_AA105,0
GCF_020149895.1_ASM2014989v1,plasmid_AB045,0
GCF_020149895.1_ASM2014989v1,plasmid_AB961,1
GCF_020149895.1_ASM2014989v1,plasmid_AB536,0
GCF_020149895.1_ASM2014989v1,plasmid_AD996,0
GCF_020149895.1_ASM2014989v1,plasmid_AA035,4
GCF_020149895.1_ASM2014989v1,plasmid_AD485,0
GCF_904866465.1_INF161,plasmid_AA966,0
GCF_904866465.1_INF161,plasmid_AA282,0
GCF_904865735.1_INF361,plasmid_AB045,0
GCF_904865735.1_INF361,plasmid_AD443,1
GCF_904865735.1_INF361,plasmid_AA452,2
GCF_904863405.1_INF215,plasmid_AA402,7
GCF_904863405.1_INF215,plasmid_AA554,0
GCF_016903955.1_ASM1690395v1,plasmid_AA275,3
GCF_016903955.1_ASM1690395v1,plasmid_AA276,1
GCF_016903955.1_ASM1690395v1,plasmid_novel_868e42c20e4dd87b8bcb5582c27b1520,0
GCF_904866405.1_INF279,plasmid_AB045,0
GCF_904866405.1_INF279,plasmid_AA033,1
GCF_904866405.1_INF279,plasmid_AE232,0
GCF_904866405.1_INF279,plasmid_AA111,0
GCF_904866405.1_INF279,plasmid_AA531,0
GCF_904866405.1_INF279,plasmid_AA277,5
GCF_920103885.1_DJ,plasmid_AB685,0
GCF_920103885.1_DJ,plasmid_AB531,0
GCF_920103885.1_DJ,plasmid_AB443,0
GCF_920103885.1_DJ,plasmid_AA964,4
GCF_920103885.1_DJ,plasmid_AD312,1
GCF_920103885.1_DJ,plasmid_AB237,0
GCF_920103885.1_DJ,plasmid_AD485,0
GCF_920103885.1_DJ,plasmid_AA338,5
GCF_020149785.1_ASM2014978v1,plasmid_AB045,0
GCF_020149785.1_ASM2014978v1,plasmid_AA450,2
GCF_020149785.1_ASM2014978v1,plasmid_AA882,0
GCF_020149785.1_ASM2014978v1,plasmid_AB962,0
GCF_020149785.1_ASM2014978v1,plasmid_AA402,5
GCF_020149785.1_ASM2014978v1,plasmid_AC434,1
GCF_020149785.1_ASM2014978v1,plasmid_AD997,0
GCF_904863425.1_INF348,plasmid_AA887,0
GCF_904863425.1_INF348,plasmid_AD548,1
GCF_904863425.1_INF348,plasmid_AD443,0
GCF_904863425.1_INF348,plasmid_AA051,0
GCF_021655475.1_ASM2165547v1,plasmid_AC125,0
GCF_021655475.1_ASM2165547v1,plasmid_AA276,5
GCF_014168575.1_ASM1416857v1,plasmid_AB059,0
GCF_014168575.1_ASM1416857v1,plasmid_AA276,0
GCF_014168575.1_ASM1416857v1,plasmid_AA128,0
GCF_014168575.1_ASM1416857v1,plasmid_AA590,0
GCF_014168575.1_ASM1416857v1,plasmid_AA553,1
GCF_904863275.1_INF188,plasmid_AA120,0
GCF_904863275.1_INF188,plasmid_AA276,3
GCF_904863275.1_INF188,plasmid_AD092,0
GCF_020525485.1_ASM2052548v1,plasmid_AA406,5
GCF_022369815.1_ASM2236981v1,plasmid_AC125,0
GCF_022369815.1_ASM2236981v1,plasmid_AA405,9
GCF_022369815.1_ASM2236981v1,plasmid_AB189,0
GCF_022369815.1_ASM2236981v1,plasmid_AA103,0
GCF_013736155.1_ASM1373615v1,plasmid_AB045,0
GCF_013736155.1_ASM1373615v1,plasmid_AC125,1
GCF_013736155.1_ASM1373615v1,plasmid_AA042,2
GCF_013736155.1_ASM1373615v1,plasmid_AA458,10
GCF_013736155.1_ASM1373615v1,plasmid_AB961,0
GCF_013736155.1_ASM1373615v1,plasmid_AB043,0
GCF_013736155.1_ASM1373615v1,plasmid_AE974,1
GCF_013736155.1_ASM1373615v1,plasmid_AD548,0
GCF_013736155.1_ASM1373615v1,plasmid_AD337,0
GCF_013736155.1_ASM1373615v1,plasmid_novel_d5240af73bd9aeab5ab9ecc739b4c318,0
GCF_013736155.1_ASM1373615v1,plasmid_novel_d39f240c30c30879f1a910a62e43480a,0
GCF_013736155.1_ASM1373615v1,plasmid_AA814,2
GCF_013736155.1_ASM1373615v1,plasmid_novel_b4a7a4d68a81dc62f7b2c0c2638c2b0c,0
GCF_904864645.1_INF079,plasmid_AA406,4
GCF_013805705.1_ASM1380570v1,plasmid_AA450,0
GCF_013805705.1_ASM1380570v1,plasmid_AF460,0
GCF_013805705.1_ASM1380570v1,plasmid_AA402,0
GCF_013805705.1_ASM1380570v1,plasmid_AB047,0
GCF_904866235.1_INF122,plasmid_AA033,2
GCF_904866235.1_INF122,plasmid_AB047,0
GCF_904863095.1_INF174,plasmid_AA275,3
GCF_904863095.1_INF174,plasmid_AA552,0
GCF_016903775.1_ASM1690377v1,plasmid_AA275,1
GCF_016903775.1_ASM1690377v1,plasmid_AA457,0
GCF_016903775.1_ASM1690377v1,plasmid_AA979,0
GCF_016903775.1_ASM1690377v1,plasmid_AA372,1
GCF_904866435.1_INF119,plasmid_AA277,3
GCF_904865745.1_INF247,plasmid_AA171,3
GCF_904864595.1_INF333,plasmid_AB531,0
GCF_904864595.1_INF333,plasmid_AB043,0
GCF_904864595.1_INF333,plasmid_AA531,0
GCF_904864595.1_INF333,plasmid_AA277,3
GCF_013745295.1_ASM1374529v1,plasmid_AA576,0
GCF_013745295.1_ASM1374529v1,plasmid_AA579,0
GCF_013745295.1_ASM1374529v1,plasmid_AA977,0
GCF_013745295.1_ASM1374529v1,plasmid_AA942,1
GCF_021655455.1_ASM2165545v1,plasmid_AA276,3
GCF_904864605.1_INF044,plasmid_AB045,0
GCF_904864605.1_INF044,plasmid_AA275,3
GCF_904864605.1_INF044,plasmid_AA118,0
GCF_904864605.1_INF044,plasmid_AA579,2
GCF_904864605.1_INF044,plasmid_AA019,0
GCF_013783245.1_ASM1378324v1,plasmid_AA819,0
GCF_020525905.1_ASM2052590v1,plasmid_AC125,0
GCF_020526005.1_ASM2052600v1,plasmid_AC125,0
GCF_020526005.1_ASM2052600v1,plasmid_AA274,0
GCF_020526005.1_ASM2052600v1,plasmid_AB192,2
GCF_021166235.1_ASM2116623v1,plasmid_AB045,0
GCF_021166235.1_ASM2116623v1,plasmid_AA002,2
GCF_021166235.1_ASM2116623v1,plasmid_AA406,13
GCF_021166235.1_ASM2116623v1,plasmid_AA554,2
GCF_021166235.1_ASM2116623v1,plasmid_AA449,0
GCF_016903475.1_ASM1690347v1,plasmid_AA102,0
GCF_016903475.1_ASM1690347v1,plasmid_AA050,5
GCF_016903475.1_ASM1690347v1,plasmid_novel_6400e1a59adb20238059e21bcafcc665,1
GCF_016903475.1_ASM1690347v1,plasmid_AA035,1
GCF_016903475.1_ASM1690347v1,plasmid_AB595,0
GCF_016903475.1_ASM1690347v1,plasmid_AA038,2
GCF_016903115.1_ASM1690311v1,plasmid_AB695,0
GCF_016903115.1_ASM1690311v1,plasmid_AA002,1
GCF_016903115.1_ASM1690311v1,plasmid_AA151,0
GCF_016903115.1_ASM1690311v1,plasmid_AB181,1
GCF_016903115.1_ASM1690311v1,plasmid_AB042,0
GCF_016903115.1_ASM1690311v1,plasmid_AA579,0
GCF_016903115.1_ASM1690311v1,plasmid_AB193,1
GCF_016903115.1_ASM1690311v1,plasmid_AA977,0
GCF_016903115.1_ASM1690311v1,plasmid_AA162,0
GCF_016903115.1_ASM1690311v1,plasmid_AA352,0
GCF_904864465.1_INF298,plasmid_AB531,0
GCF_904864465.1_INF298,plasmid_AC125,0
GCF_904864465.1_INF298,plasmid_AA941,0
GCF_904864465.1_INF298,plasmid_AA860,2
GCF_904864465.1_INF298,plasmid_AA002,0
GCF_904864465.1_INF298,plasmid_AA001,0
GCF_904864465.1_INF298,plasmid_AA336,0
GCF_904864465.1_INF298,plasmid_AA447,3
GCF_904866555.1_INF102,plasmid_AG471,0
GCF_904866555.1_INF102,plasmid_AA887,0
GCF_904866555.1_INF102,plasmid_AA587,2
GCF_904866555.1_INF102,plasmid_AE958,0
GCF_904866555.1_INF102,plasmid_AA050,0
GCF_904866555.1_INF102,plasmid_AA044,5
GCF_904866555.1_INF102,plasmid_AE233,0
GCF_904866555.1_INF102,plasmid_AA113,1
GCF_904866555.1_INF102,plasmid_AE809,0
GCF_904866555.1_INF102,plasmid_novel_7f318eb369cd8f4f2fdd4b92b84e7b10,0
GCF_904866555.1_INF102,plasmid_AA057,0
GCF_016066295.1_ASM1606629v1,plasmid_AB181,0
GCF_016066295.1_ASM1606629v1,plasmid_AA277,1
GCF_020525965.1_ASM2052596v1,plasmid_AC125,0
GCF_020525965.1_ASM2052596v1,plasmid_novel_32193be1627275c6976b53fe68478b03,0
GCF_020525965.1_ASM2052596v1,plasmid_AA450,4
GCF_020525965.1_ASM2052596v1,plasmid_AA130,0
GCF_020525965.1_ASM2052596v1,plasmid_AB049,0
GCF_020525965.1_ASM2052596v1,plasmid_AA055,1
GCF_020525965.1_ASM2052596v1,plasmid_AA104,0
GCF_020525965.1_ASM2052596v1,plasmid_novel_cdacf2f111d02a6da836a9ed5440a402,0
GCF_020525965.1_ASM2052596v1,plasmid_novel_c5d6f1548d9e594e052c079aea7c14f0,0
GCF_020525965.1_ASM2052596v1,plasmid_AA024,2
GCF_020525965.1_ASM2052596v1,plasmid_AA105,1
GCF_020525965.1_ASM2052596v1,plasmid_AB047,0
GCF_013731735.1_ASM1373173v1,plasmid_AD306,0
GCF_013731735.1_ASM1373173v1,plasmid_AC125,2
GCF_013731735.1_ASM1373173v1,plasmid_AE105,4
GCF_013731735.1_ASM1373173v1,plasmid_AD094,1
GCF_013731735.1_ASM1373173v1,plasmid_AA104,0
GCF_013731735.1_ASM1373173v1,plasmid_AA457,1
GCF_013731735.1_ASM1373173v1,plasmid_AA111,1
GCF_013731735.1_ASM1373173v1,plasmid_AA448,2
GCF_013731735.1_ASM1373173v1,plasmid_AA114,0
GCF_016904595.1_ASM1690459v1,plasmid_novel_5229cc559eb031d34033df668e11579e,0
GCF_016904595.1_ASM1690459v1,plasmid_AA275,3
GCF_016904595.1_ASM1690459v1,plasmid_AA276,0
GCF_016904595.1_ASM1690459v1,plasmid_AB236,0
GCF_013735155.1_ASM1373515v1,plasmid_AB045,0
GCF_013735155.1_ASM1373515v1,plasmid_AA275,0
GCF_013735155.1_ASM1373515v1,plasmid_AA517,0
GCF_013735155.1_ASM1373515v1,plasmid_AA113,0
GCF_013735155.1_ASM1373515v1,plasmid_AA111,0
GCF_013735155.1_ASM1373515v1,plasmid_AA028,3
GCF_904866255.1_INF223,plasmid_AA966,1
GCF_904866255.1_INF223,plasmid_AA457,2
GCF_904866255.1_INF223,plasmid_AC302,1
GCF_021655435.1_ASM2165543v1,plasmid_AA276,2
GCF_013724605.1_ASM1372460v1,plasmid_AC125,1
GCF_013724605.1_ASM1372460v1,plasmid_AA814,3
GCF_013724605.1_ASM1372460v1,plasmid_AC288,0
GCF_013724605.1_ASM1372460v1,plasmid_AA554,0
GCF_013724605.1_ASM1372460v1,plasmid_AC434,2
GCF_013724605.1_ASM1372460v1,plasmid_AA531,0
GCF_013724605.1_ASM1372460v1,plasmid_AA555,0
GCF_020525885.1_ASM2052588v1,plasmid_AA406,2
GCF_013782105.1_ASM1378210v1,plasmid_novel_8431db3706e7ad07ea75f5a9758e4288,0
GCF_013782105.1_ASM1378210v1,plasmid_AB043,0
GCF_013782105.1_ASM1378210v1,plasmid_AA833,4
GCF_013782105.1_ASM1378210v1,plasmid_AA050,6
GCF_013782105.1_ASM1378210v1,plasmid_AA035,6
GCF_013782105.1_ASM1378210v1,plasmid_AA111,0
GCF_013782105.1_ASM1378210v1,plasmid_AF591,0
GCF_013782105.1_ASM1378210v1,plasmid_AA435,0
GCF_904865805.1_INF144,plasmid_AA277,0
GCF_014170015.1_ASM1417001v1,plasmid_AB978,0
GCF_014170015.1_ASM1417001v1,plasmid_AA586,1
GCF_014170015.1_ASM1417001v1,plasmid_AC431,0
GCF_014170015.1_ASM1417001v1,plasmid_AA821,3
GCF_014170015.1_ASM1417001v1,plasmid_AA553,1
GCF_003261955.3_ASM326195v3,plasmid_AB158,0
GCF_003261955.3_ASM326195v3,plasmid_AA541,0
GCF_003261955.3_ASM326195v3,plasmid_AA031,7
GCF_003261955.3_ASM326195v3,plasmid_AA942,0
GCF_014189335.1_ASM1418933v1,plasmid_AA833,0
GCF_014189335.1_ASM1418933v1,plasmid_AA627,4
GCF_014189335.1_ASM1418933v1,plasmid_AA035,1
GCF_014189335.1_ASM1418933v1,plasmid_AA113,0
GCF_014189335.1_ASM1418933v1,plasmid_AD442,0
GCF_014189335.1_ASM1418933v1,plasmid_AB041,0
GCF_014189335.1_ASM1418933v1,plasmid_AA045,0
GCF_012029975.2_ASM1202997v2,plasmid_AA357,4
GCF_012029975.2_ASM1202997v2,plasmid_AA941,0
GCF_012029975.2_ASM1202997v2,plasmid_AA113,0
GCF_013834745.1_ASM1383474v1,plasmid_AA405,1
GCF_013834745.1_ASM1383474v1,plasmid_AB047,0
GCF_013834745.1_ASM1383474v1,plasmid_AA109,0
GCF_013791265.1_ASM1379126v1,plasmid_novel_7c55891fa4ec8d85db03fa094cba8efc,0
GCF_013791265.1_ASM1379126v1,plasmid_AA274,2
GCF_013791265.1_ASM1379126v1,plasmid_AA038,1
GCF_013811445.1_ASM1381144v1,plasmid_AA405,0
GCF_013811445.1_ASM1381144v1,plasmid_AA452,0
GCF_019797985.1_ASM1979798v1,plasmid_AA110,0
GCF_019797985.1_ASM1979798v1,plasmid_AA277,2
GCF_904863145.1_INF072,plasmid_AB056,0
GCF_904863145.1_INF072,plasmid_AA103,0
GCF_904863145.1_INF072,plasmid_AE973,1
GCF_904863145.1_INF072,plasmid_AA277,0
GCF_013811845.1_ASM1381184v1,plasmid_AB045,0
GCF_013811845.1_ASM1381184v1,plasmid_AA103,0
GCF_013704985.1_ASM1370498v1,plasmid_AB961,2
GCF_013704985.1_ASM1370498v1,plasmid_novel_2c5b4ba42ca0f1ce1edfe7dff5cef6f8,0
GCF_013704985.1_ASM1370498v1,plasmid_AC148,0
GCF_013704985.1_ASM1370498v1,plasmid_AA127,0
GCF_013704985.1_ASM1370498v1,plasmid_AB537,0
GCF_013704985.1_ASM1370498v1,plasmid_AA035,3
GCF_013704985.1_ASM1370498v1,plasmid_AA440,3
GCF_904863365.1_INF049,plasmid_AA425,0
GCF_904863365.1_INF049,plasmid_AF571,1
GCF_904863365.1_INF049,plasmid_AA113,0
GCF_904863365.1_INF049,plasmid_AB181,5
GCF_904863365.1_INF049,plasmid_AB040,0
GCF_904863365.1_INF049,plasmid_AA448,1
GCF_904863365.1_INF049,plasmid_AA123,0
GCF_015694085.1_ASM1569408v1,plasmid_AB045,0
GCF_015694085.1_ASM1569408v1,plasmid_AE232,0
GCF_015694085.1_ASM1569408v1,plasmid_AA531,0
GCF_015694085.1_ASM1569408v1,plasmid_AA277,2
GCF_016727425.1_ASM1672742v1,plasmid_AA102,0
GCF_016727425.1_ASM1672742v1,plasmid_AA275,1
GCF_016727425.1_ASM1672742v1,plasmid_AA110,0
GCF_021655515.1_ASM2165551v1,plasmid_AA276,6
GCF_013737695.1_ASM1373769v1,plasmid_AB043,0
GCF_013737695.1_ASM1373769v1,plasmid_AB059,0
GCF_013737695.1_ASM1373769v1,plasmid_AA514,0
GCF_013737695.1_ASM1373769v1,plasmid_AA035,9
GCF_013737695.1_ASM1373769v1,plasmid_AA113,0
GCF_013737695.1_ASM1373769v1,plasmid_AA111,0
GCF_013737695.1_ASM1373769v1,plasmid_AA023,0
GCF_013737695.1_ASM1373769v1,plasmid_AA435,4
GCF_904864545.1_KSB1_9J,plasmid_AD158,0
GCF_904864545.1_KSB1_9J,plasmid_AA002,1
GCF_904864545.1_KSB1_9J,plasmid_AA277,6
GCF_904866505.1_INF323,plasmid_AB045,0
GCF_904866505.1_INF323,plasmid_AA042,0
GCF_904866505.1_INF323,plasmid_AF571,0
GCF_904866505.1_INF323,plasmid_AA026,0
GCF_904866505.1_INF323,plasmid_AA404,1
GCF_904866505.1_INF323,plasmid_AA277,3
GCF_016903515.1_ASM1690351v1,plasmid_AB045,0
GCF_016903515.1_ASM1690351v1,plasmid_AB695,0
GCF_016903515.1_ASM1690351v1,plasmid_AA966,0
GCF_016903515.1_ASM1690351v1,plasmid_AA002,0
GCF_016903515.1_ASM1690351v1,plasmid_AA151,0
GCF_016903515.1_ASM1690351v1,plasmid_AB181,0
GCF_016903515.1_ASM1690351v1,plasmid_AB042,0
GCF_016903515.1_ASM1690351v1,plasmid_AB040,0
GCF_016903515.1_ASM1690351v1,plasmid_AA579,0
GCF_016903515.1_ASM1690351v1,plasmid_AB193,0
GCF_016903515.1_ASM1690351v1,plasmid_AA977,0
GCF_016903515.1_ASM1690351v1,plasmid_AA162,0
GCF_016903515.1_ASM1690351v1,plasmid_AA352,0
GCF_904864445.1_KSB1_6G,plasmid_AB045,0
GCF_904864445.1_KSB1_6G,plasmid_AB961,1
GCF_904864445.1_KSB1_6G,plasmid_AB050,0
GCF_904864445.1_KSB1_6G,plasmid_AA405,9
GCF_904864445.1_KSB1_6G,plasmid_AA113,0
GCF_904864445.1_KSB1_6G,plasmid_novel_c614c0ce0ad26bc9cf449326e10c232a,0
GCF_016903875.1_ASM1690387v1,plasmid_AA454,0
GCF_013729075.1_ASM1372907v1,plasmid_AA405,1
GCF_013729075.1_ASM1372907v1,plasmid_novel_ab2712ad14d053a5905660b7354718ea,0
GCF_014788765.1_ASM1478876v1,plasmid_AB189,1
GCF_014788765.1_ASM1478876v1,plasmid_AC288,0
GCF_014788765.1_ASM1478876v1,plasmid_AA276,4
GCF_016903195.1_ASM1690319v1,plasmid_AA833,6
GCF_016903195.1_ASM1690319v1,plasmid_AA402,2
GCF_016903195.1_ASM1690319v1,plasmid_AB181,4
GCF_016903195.1_ASM1690319v1,plasmid_AA553,1
GCF_016903195.1_ASM1690319v1,plasmid_AB047,0
GCF_904863075.1_INF334,plasmid_AC125,1
GCF_904863075.1_INF334,plasmid_AA408,0
GCF_904863075.1_INF334,plasmid_AA833,0
GCF_016629585.1_ASM1662958v1,plasmid_AA450,4
GCF_016629585.1_ASM1662958v1,plasmid_AB186,0
GCF_016629585.1_ASM1662958v1,plasmid_AA832,0
GCF_016629585.1_ASM1662958v1,plasmid_AA111,0
GCF_016629585.1_ASM1662958v1,plasmid_AA028,1
GCF_016629585.1_ASM1662958v1,plasmid_AF031,0
GCF_016629585.1_ASM1662958v1,plasmid_AA435,1
GCF_016629585.1_ASM1662958v1,plasmid_AA123,0
GCF_904865765.1_KSB2_9A,plasmid_AG131,0
GCF_904865765.1_KSB2_9A,plasmid_AB045,0
GCF_904865765.1_KSB2_9A,plasmid_AB685,0
GCF_904865765.1_KSB2_9A,plasmid_AB531,0
GCF_904865765.1_KSB2_9A,plasmid_AD441,1
GCF_904865765.1_KSB2_9A,plasmid_AC125,0
GCF_904865765.1_KSB2_9A,plasmid_AA619,0
GCF_904865765.1_KSB2_9A,plasmid_AB111,0
GCF_904865765.1_KSB2_9A,plasmid_AG934,0
GCF_904865765.1_KSB2_9A,plasmid_AB043,0
GCF_904865765.1_KSB2_9A,plasmid_novel_e39743ea4196923a3de359bddc108200,0
GCF_904865765.1_KSB2_9A,plasmid_AD170,0
GCF_904865765.1_KSB2_9A,plasmid_AD158,0
GCF_904865765.1_KSB2_9A,plasmid_AB695,0
GCF_904865765.1_KSB2_9A,plasmid_AA050,0
GCF_904865765.1_KSB2_9A,plasmid_AA474,0
GCF_904865765.1_KSB2_9A,plasmid_AA882,0
GCF_904865765.1_KSB2_9A,plasmid_AA941,0
GCF_904865765.1_KSB2_9A,plasmid_AF471,0
GCF_904865765.1_KSB2_9A,plasmid_AA104,0
GCF_904865765.1_KSB2_9A,plasmid_AB055,0
GCF_904865765.1_KSB2_9A,plasmid_AB056,0
GCF_904865765.1_KSB2_9A,plasmid_novel_3416bb53d2e75df31ccc26ed01cf8fb9,0
GCF_904865765.1_KSB2_9A,plasmid_AA002,0
GCF_904865765.1_KSB2_9A,plasmid_AG294,0
GCF_904865765.1_KSB2_9A,plasmid_AA403,0
GCF_904865765.1_KSB2_9A,plasmid_novel_4057d5ca920d6fc4fafab700470505f0,0
GCF_904865765.1_KSB2_9A,plasmid_AA027,0
GCF_904865765.1_KSB2_9A,plasmid_novel_823ab07bc214fd7241ce04fcda7bed41,0
GCF_904865765.1_KSB2_9A,plasmid_AA111,0
GCF_904865765.1_KSB2_9A,plasmid_AA172,0
GCF_904865765.1_KSB2_9A,plasmid_AC431,0
GCF_904865765.1_KSB2_9A,plasmid_AA119,0
GCF_904865765.1_KSB2_9A,plasmid_AA579,0
GCF_904865765.1_KSB2_9A,plasmid_AB039,0
GCF_904865765.1_KSB2_9A,plasmid_AA977,0
GCF_904865765.1_KSB2_9A,plasmid_AA404,0
GCF_904865765.1_KSB2_9A,plasmid_AF190,0
GCF_904865765.1_KSB2_9A,plasmid_AA024,0
GCF_904865765.1_KSB2_9A,plasmid_AC434,0
GCF_904865765.1_KSB2_9A,plasmid_AA114,0
GCF_904865765.1_KSB2_9A,plasmid_AG401,0
GCF_904865765.1_KSB2_9A,plasmid_AA147,0
GCF_904865765.1_KSB2_9A,plasmid_AA435,0
GCF_904865765.1_KSB2_9A,plasmid_AB233,0
GCF_904865765.1_KSB2_9A,plasmid_AA338,0
GCF_904865765.1_KSB2_9A,plasmid_AA277,0
GCF_904865765.1_KSB2_9A,plasmid_AA123,0
GCF_904866215.1_INF359,plasmid_AA050,0
GCF_904866215.1_INF359,plasmid_AA276,4
GCF_904866215.1_INF359,plasmid_AA031,0
GCF_904864505.1_INF331,plasmid_AA406,2
GCF_016903395.1_ASM1690339v1,plasmid_AB045,0
GCF_016903395.1_ASM1690339v1,plasmid_AB043,0
GCF_016903395.1_ASM1690339v1,plasmid_AF460,4
GCF_016903395.1_ASM1690339v1,plasmid_AA050,0
GCF_016903395.1_ASM1690339v1,plasmid_AA405,7
GCF_016903395.1_ASM1690339v1,plasmid_AA113,0
GCF_016903395.1_ASM1690339v1,plasmid_AA531,0
GCF_016903395.1_ASM1690339v1,plasmid_AA435,1
GCF_012029695.2_ASM1202969v2,plasmid_AA439,1
GCF_012029695.2_ASM1202969v2,plasmid_AC125,1
GCF_012029695.2_ASM1202969v2,plasmid_AB978,0
GCF_012029695.2_ASM1202969v2,plasmid_AA274,0
GCF_012029695.2_ASM1202969v2,plasmid_AA277,1
GCF_019798185.1_ASM1979818v1,plasmid_AA454,1
GCF_019798185.1_ASM1979818v1,plasmid_AA523,0
GCF_019798185.1_ASM1979818v1,plasmid_AA590,0
GCF_019798185.1_ASM1979818v1,plasmid_AC241,0
GCF_019798185.1_ASM1979818v1,plasmid_AA979,0
GCF_019798185.1_ASM1979818v1,plasmid_AA942,1
GCF_904865695.1_INF319,plasmid_AC125,1
GCF_904865695.1_INF319,plasmid_AB186,0
GCF_904865695.1_INF319,plasmid_AF460,0
GCF_904865695.1_INF319,plasmid_novel_395e5d56836c808f61d0eedcbfa19237,1
GCF_904865695.1_INF319,plasmid_AA050,0
GCF_904865695.1_INF319,plasmid_AA405,1
GCF_904865695.1_INF319,plasmid_AB193,0
GCF_904865695.1_INF319,plasmid_AA553,0
GCF_021655495.1_ASM2165549v1,plasmid_AA276,5
GCF_002852785.2_ASM285278v2,plasmid_AA275,2
GCF_002852785.2_ASM285278v2,plasmid_AA274,0
GCF_002852785.2_ASM285278v2,plasmid_AA541,0
GCF_002852785.2_ASM285278v2,plasmid_AA942,0
GCF_002852785.2_ASM285278v2,plasmid_AA032,7
GCF_013734035.1_ASM1373403v1,plasmid_AB043,0
GCF_013734035.1_ASM1373403v1,plasmid_AB186,0
GCF_013734035.1_ASM1373403v1,plasmid_AA044,2
GCF_013734035.1_ASM1373403v1,plasmid_AA537,0
GCF_013734035.1_ASM1373403v1,plasmid_AA035,10
GCF_013734035.1_ASM1373403v1,plasmid_AA111,0
GCF_013734035.1_ASM1373403v1,plasmid_AF031,0
GCF_020149825.1_ASM2014982v1,plasmid_AC247,0
GCF_020149825.1_ASM2014982v1,plasmid_AA532,0
GCF_020149825.1_ASM2014982v1,plasmid_AA122,0
GCF_020149825.1_ASM2014982v1,plasmid_AE809,0
GCF_020149825.1_ASM2014982v1,plasmid_AA048,0
GCF_013813035.1_ASM1381303v1,plasmid_AA454,0
GCF_013813035.1_ASM1381303v1,plasmid_AF145,1
GCF_904866285.1_INF344,plasmid_AD443,0
GCF_904866285.1_INF344,plasmid_AA452,2
GCF_001185665.2_ASM118566v3,plasmid_AB536,0
GCF_001185665.2_ASM118566v3,plasmid_AA543,2
GCF_001185665.2_ASM118566v3,plasmid_AA833,1
GCF_001185665.2_ASM118566v3,plasmid_AC579,0
GCF_001185665.2_ASM118566v3,plasmid_AD443,1
GCF_904865675.1_INF358,plasmid_AF460,0
GCF_904865675.1_INF358,plasmid_AE437,2
GCF_012030545.2_ASM1203054v2,plasmid_AD094,1
GCF_012030545.2_ASM1203054v2,plasmid_AA274,4
GCF_012030545.2_ASM1203054v2,plasmid_AA038,0
GCF_012030545.2_ASM1203054v2,plasmid_AA019,0
GCF_017894285.1_ASM1789428v1,plasmid_AB961,2
GCF_017894285.1_ASM1789428v1,plasmid_AA002,0
GCF_017894285.1_ASM1789428v1,plasmid_AA282,2
GCF_017894285.1_ASM1789428v1,plasmid_AA277,0
GCF_021228815.1_ASM2122881v1,plasmid_AA277,2
GCF_904863205.1_INF008,plasmid_AA277,3
GCF_020525985.1_ASM2052598v1,plasmid_AA129,0
GCF_020525985.1_ASM2052598v1,plasmid_AC125,1
GCF_020525985.1_ASM2052598v1,plasmid_novel_03d35f71f42266a8876b39122891b5d9,1
GCF_020525985.1_ASM2052598v1,plasmid_AA450,9
GCF_020525985.1_ASM2052598v1,plasmid_AA053,0
GCF_020525985.1_ASM2052598v1,plasmid_AA055,3
GCF_020525985.1_ASM2052598v1,plasmid_AA537,0
GCF_020525985.1_ASM2052598v1,plasmid_AB071,0
GCF_020525985.1_ASM2052598v1,plasmid_novel_f0a0bf0cbcf79abacde4cb98429042fe,0
GCF_020525985.1_ASM2052598v1,plasmid_AC431,0
GCF_020525985.1_ASM2052598v1,plasmid_AA048,0
GCF_020525985.1_ASM2052598v1,plasmid_AA105,0
GCF_018310495.1_ASM1831049v1,plasmid_AC125,0
GCF_018310495.1_ASM1831049v1,plasmid_AA405,8
GCF_018310495.1_ASM1831049v1,plasmid_AA103,0
GCF_018310495.1_ASM1831049v1,plasmid_AA019,0
GCF_014170935.1_ASM1417093v1,plasmid_AA450,0
GCF_014170935.1_ASM1417093v1,plasmid_AA552,0
GCF_014170935.1_ASM1417093v1,plasmid_AG640,0
GCF_014170935.1_ASM1417093v1,plasmid_AA860,10
GCF_014170935.1_ASM1417093v1,plasmid_AA035,1
GCF_014170935.1_ASM1417093v1,plasmid_AE809,0
GCF_014170935.1_ASM1417093v1,plasmid_AC431,0
GCF_015694065.1_ASM1569406v1,plasmid_AB045,0
GCF_015694065.1_ASM1569406v1,plasmid_AG934,0
GCF_015694065.1_ASM1569406v1,plasmid_AA450,1
GCF_015694065.1_ASM1569406v1,plasmid_AD170,0
GCF_015694065.1_ASM1569406v1,plasmid_AE105,0
GCF_015694065.1_ASM1569406v1,plasmid_AA404,2
GCF_015694065.1_ASM1569406v1,plasmid_AA103,0
GCF_015694065.1_ASM1569406v1,plasmid_AA277,11
GCF_017894305.1_ASM1789430v1,plasmid_AA002,0
GCF_017894305.1_ASM1789430v1,plasmid_AA282,3
GCF_017894305.1_ASM1789430v1,plasmid_AA277,0
GCF_904863245.1_INF355,plasmid_AB045,0
GCF_904863245.1_INF355,plasmid_AD443,1
GCF_904863245.1_INF355,plasmid_AA452,2
GCF_014169335.1_ASM1416933v1,plasmid_AE235,0
GCF_014169335.1_ASM1416933v1,plasmid_AB957,2
GCF_014169335.1_ASM1416933v1,plasmid_AA448,0
GCF_014905815.1_ASM1490581v1,plasmid_AA275,6
GCF_014905815.1_ASM1490581v1,plasmid_AA941,0
GCF_014905815.1_ASM1490581v1,plasmid_AB187,0
GCF_014905815.1_ASM1490581v1,plasmid_AA110,0
GCF_014905815.1_ASM1490581v1,plasmid_AA338,0
GCF_904865845.1_INF302,plasmid_AB531,6
GCF_904865845.1_INF302,plasmid_AB043,0
GCF_904865845.1_INF302,plasmid_AF471,0
GCF_904865845.1_INF302,plasmid_AA531,0
GCF_904865845.1_INF302,plasmid_AA277,3
GCF_013796245.1_ASM1379624v1,plasmid_AA275,4
GCF_013796245.1_ASM1379624v1,plasmid_AA592,0
GCF_013796245.1_ASM1379624v1,plasmid_AA117,0
GCF_013796245.1_ASM1379624v1,plasmid_AC580,1
GCF_013796245.1_ASM1379624v1,plasmid_novel_08e633a726894ab706bdf348e782d174,0
GCF_013792545.1_ASM1379254v1,plasmid_AB531,0
GCF_013792545.1_ASM1379254v1,plasmid_AB043,0
GCF_013792545.1_ASM1379254v1,plasmid_AB158,0
GCF_013792545.1_ASM1379254v1,plasmid_AB962,1
GCF_013792545.1_ASM1379254v1,plasmid_AA035,3
GCF_013792545.1_ASM1379254v1,plasmid_AA448,4
GCF_020080145.1_ASM2008014v1,plasmid_AA552,2
GCF_020080145.1_ASM2008014v1,plasmid_AC212,9
GCF_020525845.1_ASM2052584v1,plasmid_AA035,1
GCF_020525845.1_ASM2052584v1,plasmid_AA113,0
GCF_020525845.1_ASM2052584v1,plasmid_AB181,3
GCF_020525845.1_ASM2052584v1,plasmid_AB041,0
GCF_016903235.1_ASM1690323v1,plasmid_AC529,0
GCF_016903235.1_ASM1690323v1,plasmid_AC125,0
GCF_016903235.1_ASM1690323v1,plasmid_AA033,0
GCF_016903235.1_ASM1690323v1,plasmid_AB158,0
GCF_016903235.1_ASM1690323v1,plasmid_AA275,4
GCF_016903235.1_ASM1690323v1,plasmid_AF145,3
GCF_016903235.1_ASM1690323v1,plasmid_AA123,0
GCF_018075085.1_ASM1807508v1,plasmid_AG471,0
GCF_018075085.1_ASM1807508v1,plasmid_AC579,0
GCF_018075085.1_ASM1807508v1,plasmid_AA448,0
GCF_018075085.1_ASM1807508v1,plasmid_AA356,0
GCF_018075085.1_ASM1807508v1,plasmid_AA277,4
GCF_904863265.1_INF156,plasmid_AA401,1
GCF_904863325.1_INF354,plasmid_AA033,2
GCF_904863325.1_INF354,plasmid_AE232,0
GCF_904863325.1_INF354,plasmid_AA531,0
GCF_904863325.1_INF354,plasmid_AA277,3
GCF_016904035.1_ASM1690403v1,plasmid_AA816,3
GCF_016904035.1_ASM1690403v1,plasmid_AB043,0
GCF_016904035.1_ASM1690403v1,plasmid_AB193,0
GCF_904864625.1_INF171,plasmid_AA458,0
GCF_904864625.1_INF171,plasmid_AA554,1
GCF_904864625.1_INF171,plasmid_AD465,0
GCF_904864625.1_INF171,plasmid_AF218,0
GCF_016904415.1_ASM1690441v1,plasmid_AB186,0
GCF_016904415.1_ASM1690441v1,plasmid_AA833,2
GCF_016904415.1_ASM1690441v1,plasmid_novel_31be2592802536f0ba099c45ac233c77,0
GCF_016904415.1_ASM1690441v1,plasmid_AA002,2
GCF_016904415.1_ASM1690441v1,plasmid_novel_ca3454ced284b4da38da7594a77c3102,0
GCF_016904415.1_ASM1690441v1,plasmid_novel_7ab18a81c47e9522c8c2a14734d72fa5,1
GCF_904863285.1_INF231,plasmid_AB055,0
GCF_904863285.1_INF231,plasmid_AA448,1
GCF_904863285.1_INF231,plasmid_novel_61d264fe78a011782f01506d91b31249,0
GCF_013735895.1_ASM1373589v1,plasmid_AD306,0
GCF_013735895.1_ASM1373589v1,plasmid_AD548,5
GCF_013735895.1_ASM1373589v1,plasmid_AA833,2
GCF_013735895.1_ASM1373589v1,plasmid_novel_c1fdcb8c2e9693af590121121eb59be0,3
GCF_013735895.1_ASM1373589v1,plasmid_AA044,1
GCF_013735895.1_ASM1373589v1,plasmid_AA111,0
GCF_013735895.1_ASM1373589v1,plasmid_AA449,6
GCF_013735895.1_ASM1373589v1,plasmid_novel_2cedd9ad82a598288e96b2e47a1e336f,0
GCF_016804025.1_ASM1680402v1,plasmid_AA276,5
GCF_016804025.1_ASM1680402v1,plasmid_AA942,0
GCF_016804025.1_ASM1680402v1,plasmid_AA032,1
GCF_013796485.1_ASM1379648v1,plasmid_AC247,0
GCF_013796485.1_ASM1379648v1,plasmid_AA275,4
GCF_013796485.1_ASM1379648v1,plasmid_AA592,0
GCF_013796485.1_ASM1379648v1,plasmid_novel_c5ef683bf0776a40e14caf6305895404,0
GCF_013796485.1_ASM1379648v1,plasmid_AA274,1
GCF_013796485.1_ASM1379648v1,plasmid_AA117,0
GCF_021497265.1_ASM2149726v1,plasmid_AC125,0
GCF_021497265.1_ASM2149726v1,plasmid_AA406,2
GCF_904866295.1_KSB2_1C,plasmid_AA130,0
GCF_904866295.1_KSB2_1C,plasmid_AA035,4
GCF_904866295.1_KSB2_1C,plasmid_AA113,0
GCF_904866295.1_KSB2_1C,plasmid_AA111,1
GCF_019798005.1_ASM1979800v1,plasmid_AC125,0
GCF_019798005.1_ASM1979800v1,plasmid_AD312,0
GCF_019798005.1_ASM1979800v1,plasmid_AA406,0
GCF_019798005.1_ASM1979800v1,plasmid_AB953,1
GCF_019798005.1_ASM1979800v1,plasmid_AE971,0
GCF_904866415.1_INF201,plasmid_AA408,4
GCF_904866415.1_INF201,plasmid_AA122,0
GCF_904866415.1_INF201,plasmid_AG640,0
GCF_904866415.1_INF201,plasmid_AB055,0
GCF_016903735.1_ASM1690373v1,plasmid_AA103,0
GCF_016903735.1_ASM1690373v1,plasmid_AA352,2
GCF_016903735.1_ASM1690373v1,plasmid_AA553,2
GCF_016903735.1_ASM1690373v1,plasmid_AA338,2
GCF_904866335.1_INF266,plasmid_AA816,5
GCF_904866335.1_INF266,plasmid_AB181,0
GCF_904866195.1_INF327,plasmid_AB043,0
GCF_904866195.1_INF327,plasmid_AF471,0
GCF_904866195.1_INF327,plasmid_AA404,0
GCF_904866195.1_INF327,plasmid_AA531,0
GCF_904866195.1_INF327,plasmid_AA277,3
GCF_003937135.2_ASM393713v2,plasmid_AA405,10
GCF_003937135.2_ASM393713v2,plasmid_AA457,0
GCF_003937135.2_ASM393713v2,plasmid_AC129,0
GCF_003937135.2_ASM393713v2,plasmid_AA338,0
GCF_904866375.1_INF242,plasmid_AF460,0
GCF_904866375.1_INF242,plasmid_AA397,2
GCF_904866375.1_INF242,plasmid_AA521,0
GCF_016903895.1_ASM1690389v1,plasmid_AA275,2
GCF_016903895.1_ASM1690389v1,plasmid_AA274,0
GCF_904863135.1_INF310,plasmid_AB531,0
GCF_904863135.1_INF310,plasmid_AC125,0
GCF_904863135.1_INF310,plasmid_AA941,0
GCF_904863135.1_INF310,plasmid_AA860,3
GCF_904863135.1_INF310,plasmid_AA002,0
GCF_904863135.1_INF310,plasmid_AA001,0
GCF_904863135.1_INF310,plasmid_AA336,0
GCF_904863135.1_INF310,plasmid_AA447,3
GCF_018283505.2_ASM1828350v2,plasmid_AC125,0
GCF_018283505.2_ASM1828350v2,plasmid_AA405,10
GCF_018283505.2_ASM1828350v2,plasmid_AA103,0
GCF_015138775.1_ASM1513877v1,plasmid_AD443,2
GCF_015138775.1_ASM1513877v1,plasmid_AB160,0
GCF_015138775.1_ASM1513877v1,plasmid_AB040,0
GCF_015138775.1_ASM1513877v1,plasmid_AD338,0
GCF_015138775.1_ASM1513877v1,plasmid_AE971,1
GCF_016904315.1_ASM1690431v1,plasmid_AA275,4
GCF_016904315.1_ASM1690431v1,plasmid_AB042,0
GCF_016904315.1_ASM1690431v1,plasmid_AA551,0
GCF_016904315.1_ASM1690431v1,plasmid_AG600,0
GCF_904865785.1_INF142,plasmid_AA102,0
GCF_904865785.1_INF142,plasmid_AA120,0
GCF_904865785.1_INF142,plasmid_AA860,4
GCF_904865785.1_INF142,plasmid_AA861,4
GCF_904865785.1_INF142,plasmid_AA117,0
GCF_904865785.1_INF142,plasmid_AB953,2
GCF_904865785.1_INF142,plasmid_AA553,0
GCF_904866425.1_INF065,plasmid_AF460,1
GCF_904866425.1_INF065,plasmid_AA397,2
GCF_904866425.1_INF065,plasmid_AB047,0
GCF_016904295.1_ASM1690429v1,plasmid_AB045,0
GCF_016904295.1_ASM1690429v1,plasmid_AB043,0
GCF_016904295.1_ASM1690429v1,plasmid_AA277,2
GCF_904863215.1_INF277,plasmid_AB043,0
GCF_904863215.1_INF277,plasmid_AA531,0
GCF_904863215.1_INF277,plasmid_AA378,0
GCF_904863215.1_INF277,plasmid_AA277,5
GCF_904863225.1_KSB1_6J,plasmid_AB531,0
GCF_904863225.1_KSB1_6J,plasmid_AB043,0
GCF_904863225.1_KSB1_6J,plasmid_AF471,0
GCF_904863225.1_KSB1_6J,plasmid_AA531,0
GCF_904863225.1_KSB1_6J,plasmid_AA277,0
GCF_904863115.1_INF329,plasmid_AB043,0
GCF_904863115.1_INF329,plasmid_AF471,0
GCF_904863115.1_INF329,plasmid_AA531,0
GCF_904863115.1_INF329,plasmid_AA277,3
GCF_017639065.1_ASM1763906v1,plasmid_AB158,0
GCF_017639065.1_ASM1763906v1,plasmid_AD312,0
GCF_017639065.1_ASM1763906v1,plasmid_AA669,0
GCF_017639065.1_ASM1763906v1,plasmid_AB193,1
GCF_017639065.1_ASM1763906v1,plasmid_AA110,0
GCF_017639065.1_ASM1763906v1,plasmid_AA277,3
GCF_016903255.1_ASM1690325v1,plasmid_AA586,0
GCF_016903255.1_ASM1690325v1,plasmid_AA814,4
GCF_016903255.1_ASM1690325v1,plasmid_AA445,0
GCF_904865815.1_INF281,plasmid_AB531,0
GCF_904865815.1_INF281,plasmid_AC125,0
GCF_904865815.1_INF281,plasmid_AA941,0
GCF_904865815.1_INF281,plasmid_AA860,2
GCF_904865815.1_INF281,plasmid_AA002,0
GCF_904865815.1_INF281,plasmid_AA001,0
GCF_904865815.1_INF281,plasmid_AA336,0
GCF_904865815.1_INF281,plasmid_AA447,3
GCF_020526045.1_ASM2052604v1,plasmid_AB054,2
GCF_904866395.1_INF321,plasmid_AA887,0
GCF_904866395.1_INF321,plasmid_AB043,0
GCF_904866395.1_INF321,plasmid_AA102,0
GCF_904866395.1_INF321,plasmid_novel_17b3c43ece18f2173cbda8c1d6ba8809,0
GCF_904866395.1_INF321,plasmid_AA104,0
GCF_904866395.1_INF321,plasmid_AA035,7
GCF_904866395.1_INF321,plasmid_AA449,1
GCF_904866395.1_INF321,plasmid_AA525,0
GCF_904866395.1_INF321,plasmid_AA028,0
GCF_904863435.1_KSB1_1B,plasmid_AC125,0
GCF_904863435.1_KSB1_1B,plasmid_AA050,0
GCF_904863435.1_KSB1_1B,plasmid_AD443,1
GCF_904863435.1_KSB1_1B,plasmid_AD338,0
GCF_904863435.1_KSB1_1B,plasmid_AA525,0
GCF_904863435.1_KSB1_1B,plasmid_AA372,0
GCF_904865685.1_INF182,plasmid_AC125,0
GCF_020526065.1_ASM2052606v1,plasmid_AA398,0
GCF_020526065.1_ASM2052606v1,plasmid_AA122,0
GCF_020526065.1_ASM2052606v1,plasmid_AA456,0
GCF_020526065.1_ASM2052606v1,plasmid_novel_1b99c943342810fcbbba773634879c03,0
GCF_013731305.1_ASM1373130v1,plasmid_AC125,0
GCF_013731305.1_ASM1373130v1,plasmid_AA276,1
GCF_904865715.1_KSB1_5H,plasmid_AB531,0
GCF_904865715.1_KSB1_5H,plasmid_AC125,0
GCF_904865715.1_KSB1_5H,plasmid_AA941,0
GCF_904865715.1_KSB1_5H,plasmid_AA860,2
GCF_904865715.1_KSB1_5H,plasmid_AA002,0
GCF_904865715.1_KSB1_5H,plasmid_AA001,0
GCF_904865715.1_KSB1_5H,plasmid_AA336,0
GCF_904865715.1_KSB1_5H,plasmid_AA531,0
GCF_904865715.1_KSB1_5H,plasmid_AA447,3
GCF_904864475.1_INF168,plasmid_AA454,1
GCF_012029935.2_ASM1202993v2,plasmid_AA627,0
GCF_012029935.2_ASM1202993v2,plasmid_AA274,5
GCF_012029935.2_ASM1202993v2,plasmid_AF572,0
GCF_012029935.2_ASM1202993v2,plasmid_AA356,0
GCF_012029935.2_ASM1202993v2,plasmid_novel_25927d0f0cf13d37fa2ce76b990638a0,1
GCF_013826045.1_ASM1382604v1,plasmid_AB531,4
GCF_013826045.1_ASM1382604v1,plasmid_AA454,2
GCF_013826045.1_ASM1382604v1,plasmid_AA552,0
GCF_013826045.1_ASM1382604v1,plasmid_AA405,0
GCF_016066475.1_ASM1606647v1,plasmid_AA397,5
GCF_016066475.1_ASM1606647v1,plasmid_AA104,0
GCF_016066475.1_ASM1606647v1,plasmid_AB056,0
GCF_016066475.1_ASM1606647v1,plasmid_AA832,0
GCF_016066475.1_ASM1606647v1,plasmid_AE437,1
GCF_014168655.1_ASM1416865v1,plasmid_AB073,0
GCF_014168655.1_ASM1416865v1,plasmid_AA452,3
GCF_016066025.1_ASM1606602v1,plasmid_AD094,4
GCF_016066025.1_ASM1606602v1,plasmid_AA119,0
GCF_016066025.1_ASM1606602v1,plasmid_AA274,0
GCF_016066025.1_ASM1606602v1,plasmid_AA038,1
GCF_016066025.1_ASM1606602v1,plasmid_AD092,0
GCF_016066025.1_ASM1606602v1,plasmid_AF031,1
GCF_003038135.2_ASM303813v2,plasmid_AB158,0
GCF_003038135.2_ASM303813v2,plasmid_AA541,0
GCF_003038135.2_ASM303813v2,plasmid_AA031,4
GCF_904866205.1_INF145,plasmid_AA521,0
GCF_016903795.1_ASM1690379v1,plasmid_AA457,1
GCF_016903795.1_ASM1690379v1,plasmid_AC288,0
GCF_016903795.1_ASM1690379v1,plasmid_AB196,0
GCF_016903795.1_ASM1690379v1,plasmid_AC434,0
GCF_904866445.1_INF305,plasmid_AB531,0
GCF_904866445.1_INF305,plasmid_AC125,0
GCF_904866445.1_INF305,plasmid_AA941,0
GCF_904866445.1_INF305,plasmid_AA860,3
GCF_904866445.1_INF305,plasmid_AA002,0
GCF_904866445.1_INF305,plasmid_AA001,0
GCF_904866445.1_INF305,plasmid_AA336,0
GCF_904866445.1_INF305,plasmid_AA447,3
GCF_904866315.1_INF346,plasmid_AC247,0
GCF_904866315.1_INF346,plasmid_AA532,0
GCF_904866315.1_INF346,plasmid_AE809,0
GCF_904866315.1_INF346,plasmid_AA048,0
GCF_016903155.1_ASM1690315v1,plasmid_AA941,0
GCF_016903155.1_ASM1690315v1,plasmid_AA276,5
GCF_016903155.1_ASM1690315v1,plasmid_AA103,0
GCF_016903155.1_ASM1690315v1,plasmid_AA942,1
GCF_904866485.1_KSB1_1H,plasmid_AB043,0
GCF_904866485.1_KSB1_1H,plasmid_AA531,0
GCF_904866485.1_KSB1_1H,plasmid_AA378,0
GCF_904866485.1_KSB1_1H,plasmid_AA277,2
GCF_016904095.1_ASM1690409v1,plasmid_AA275,3
GCF_904863295.1_KSB2_2B,plasmid_AB531,0
GCF_904863295.1_KSB2_2B,plasmid_AB043,0
GCF_904863295.1_KSB2_2B,plasmid_AF471,0
GCF_904863295.1_KSB2_2B,plasmid_AA531,0
GCF_904863295.1_KSB2_2B,plasmid_AA277,6
GCF_020526025.1_ASM2052602v1,plasmid_AA276,1
GCF_904866535.1_KSB1_8C,plasmid_AB193,1
GCF_904866535.1_KSB1_8C,plasmid_AA401,1
GCF_020525865.1_ASM2052586v1,plasmid_AA122,0
GCF_020525865.1_ASM2052586v1,plasmid_AA406,1
GCF_904866325.1_INF299,plasmid_AB531,0
GCF_904866325.1_INF299,plasmid_AC125,0
GCF_904866325.1_INF299,plasmid_AA941,0
GCF_904866325.1_INF299,plasmid_AA860,3
GCF_904866325.1_INF299,plasmid_AA002,0
GCF_904866325.1_INF299,plasmid_AA001,0
GCF_904866325.1_INF299,plasmid_AA336,0
GCF_904866325.1_INF299,plasmid_AA447,3
GCF_022369925.1_ASM2236992v1,plasmid_AC125,0
GCF_022369925.1_ASM2236992v1,plasmid_AA405,9
GCF_022369925.1_ASM2236992v1,plasmid_AA103,0
GCF_022369925.1_ASM2236992v1,plasmid_AA019,0
GCF_021057265.1_ASM2105726v1,plasmid_AC125,0
GCF_021057265.1_ASM2105726v1,plasmid_AA941,0
GCF_021057265.1_ASM2105726v1,plasmid_AA405,9
GCF_021057265.1_ASM2105726v1,plasmid_AB193,0
GCF_021057265.1_ASM2105726v1,plasmid_AA103,0
GCF_904863395.1_INF250,plasmid_AB045,0
GCF_904863395.1_INF250,plasmid_AA033,2
GCF_904863395.1_INF250,plasmid_AE232,0
GCF_904863395.1_INF250,plasmid_AA127,0
GCF_904863395.1_INF250,plasmid_AA531,0
GCF_904863395.1_INF250,plasmid_AA277,4
GCF_904863355.1_INF148,plasmid_AF471,0
GCF_904863355.1_INF148,plasmid_AA531,0
GCF_904863355.1_INF148,plasmid_AA277,3
GCF_013611495.1_ASM1361149v1,plasmid_AD306,0
GCF_013611495.1_ASM1361149v1,plasmid_AC125,2
GCF_013611495.1_ASM1361149v1,plasmid_AA450,9
GCF_013611495.1_ASM1361149v1,plasmid_AA820,0
GCF_013611495.1_ASM1361149v1,plasmid_AA050,2
GCF_013611495.1_ASM1361149v1,plasmid_AA104,0
GCF_013611495.1_ASM1361149v1,plasmid_AE233,0
GCF_013611495.1_ASM1361149v1,plasmid_AA111,1
GCF_013611495.1_ASM1361149v1,plasmid_AA024,0
GCF_013611495.1_ASM1361149v1,plasmid_AA114,0
GCF_013611495.1_ASM1361149v1,plasmid_AA277,0
GCF_012029895.2_ASM1202989v2,plasmid_AB235,0
GCF_012029895.2_ASM1202989v2,plasmid_AA357,1
GCF_012029895.2_ASM1202989v2,plasmid_AD443,1
GCF_012029895.2_ASM1202989v2,plasmid_AA586,0
GCF_012029895.2_ASM1202989v2,plasmid_AA434,0
GCF_012029895.2_ASM1202989v2,plasmid_AA356,2
GCF_016903295.1_ASM1690329v1,plasmid_novel_31ec3584d0690e36de7a9bef4ec96066,0
GCF_016903295.1_ASM1690329v1,plasmid_AB043,0
GCF_016903295.1_ASM1690329v1,plasmid_AA163,0
GCF_016903295.1_ASM1690329v1,plasmid_AA050,0
GCF_016903295.1_ASM1690329v1,plasmid_AA113,0
GCF_016903295.1_ASM1690329v1,plasmid_AA111,0
GCF_016903295.1_ASM1690329v1,plasmid_AA435,0
GCF_016903295.1_ASM1690329v1,plasmid_AA277,0
GCF_019798025.1_ASM1979802v1,plasmid_AA551,0
GCF_019798025.1_ASM1979802v1,plasmid_AA277,0
GCF_021496545.1_ASM2149654v1,plasmid_AA816,1
GCF_021496545.1_ASM2149654v1,plasmid_AA556,0
GCF_021496545.1_ASM2149654v1,plasmid_AA401,0
GCF_904864525.1_INF350,plasmid_AA458,0
GCF_904863055.1_INF022,plasmid_AA357,0
GCF_904863055.1_INF022,plasmid_AA050,0
GCF_904863055.1_INF022,plasmid_AA044,3
GCF_904863055.1_INF022,plasmid_AA035,5
GCF_904863055.1_INF022,plasmid_AA113,0
GCF_904863335.1_KSB1_5B,plasmid_AB193,1
GCF_904863335.1_KSB1_5B,plasmid_AB161,5
GCF_904863335.1_KSB1_5B,plasmid_AA401,1
GCF_016903495.1_ASM1690349v1,plasmid_AA406,1
