GCF_013895695.1_ASM1389569v1,0
GCF_013895695.1_ASM1389569v1,0
GCF_002853115.2_ASM285311v2,0
GCF_904865825.1_INF018,0
GCF_904865825.1_INF018,0
GCF_904865825.1_INF018,0
GCF_904865825.1_INF018,0
GCF_904865825.1_INF018,0
GCF_904865825.1_INF018,0
GCF_904865825.1_INF018,0
GCF_904865825.1_INF018,0
GCF_904865755.1_INF341,0
GCF_904865755.1_INF341,0
GCF_904863125.1_INF357,0
GCF_904863125.1_INF357,0
GCF_904863125.1_INF357,0
GCF_904863195.1_INF133,0
GCF_904863195.1_INF133,0
GCF_904863195.1_INF133,0
GCF_904863195.1_INF133,0
GCF_904863195.1_INF133,0
GCF_904863195.1_INF133,0
GCF_904863195.1_INF133,0
GCF_904863195.1_INF133,0
GCF_013730675.1_ASM1373067v1,0
GCF_904864535.1_INF313,0
GCF_904864535.1_INF313,0
GCF_904864535.1_INF313,0
GCF_904864535.1_INF313,0
GCF_904864535.1_INF313,0
GCF_904864535.1_INF313,0
GCF_904865795.1_KSB2_10B,0
GCF_904865795.1_KSB2_10B,0
GCF_904865795.1_KSB2_10B,0
GCF_904865795.1_KSB2_10B,0
GCF_904865795.1_KSB2_10B,0
GCF_904864515.1_KSB2_2C,1
GCF_904864515.1_KSB2_2C,0
GCF_904864515.1_KSB2_2C,0
GCF_904864515.1_KSB2_2C,0
GCF_016904275.1_ASM1690427v1,0
GCF_016904275.1_ASM1690427v1,0
GCF_016904275.1_ASM1690427v1,0
GCF_016904275.1_ASM1690427v1,0
GCF_016904275.1_ASM1690427v1,0
GCF_016904275.1_ASM1690427v1,0
GCF_016904275.1_ASM1690427v1,0
GCF_904866475.1_KSB2_9B,0
GCF_904866475.1_KSB2_9B,0
GCF_904866475.1_KSB2_9B,0
GCF_904866475.1_KSB2_9B,0
GCF_020149875.1_ASM2014987v1,0
GCF_020149875.1_ASM2014987v1,0
GCF_020149875.1_ASM2014987v1,0
GCF_020149875.1_ASM2014987v1,0
GCF_020149875.1_ASM2014987v1,0
GCF_020149875.1_ASM2014987v1,0
GCF_020149875.1_ASM2014987v1,0
GCF_020149875.1_ASM2014987v1,0
GCF_020149875.1_ASM2014987v1,0
GCF_020149875.1_ASM2014987v1,0
GCF_020149895.1_ASM2014989v1,0
GCF_020149895.1_ASM2014989v1,0
GCF_020149895.1_ASM2014989v1,0
GCF_020149895.1_ASM2014989v1,0
GCF_020149895.1_ASM2014989v1,0
GCF_020149895.1_ASM2014989v1,0
GCF_904866465.1_INF161,0
GCF_904866465.1_INF161,0
GCF_904865735.1_INF361,0
GCF_904865735.1_INF361,0
GCF_904865735.1_INF361,0
GCF_904863405.1_INF215,0
GCF_904863405.1_INF215,0
GCF_016903955.1_ASM1690395v1,0
GCF_016903955.1_ASM1690395v1,0
GCF_016903955.1_ASM1690395v1,0
GCF_904866405.1_INF279,0
GCF_904866405.1_INF279,0
GCF_904866405.1_INF279,0
GCF_904866405.1_INF279,0
GCF_904866405.1_INF279,0
GCF_904866405.1_INF279,0
GCF_920103885.1_DJ,0
GCF_920103885.1_DJ,0
GCF_920103885.1_DJ,0
GCF_920103885.1_DJ,0
GCF_920103885.1_DJ,0
GCF_920103885.1_DJ,0
GCF_920103885.1_DJ,0
GCF_920103885.1_DJ,0
GCF_020149785.1_ASM2014978v1,0
GCF_020149785.1_ASM2014978v1,0
GCF_020149785.1_ASM2014978v1,0
GCF_020149785.1_ASM2014978v1,0
GCF_020149785.1_ASM2014978v1,0
GCF_020149785.1_ASM2014978v1,0
GCF_020149785.1_ASM2014978v1,0
GCF_904863425.1_INF348,0
GCF_904863425.1_INF348,0
GCF_904863425.1_INF348,0
GCF_904863425.1_INF348,0
GCF_021655475.1_ASM2165547v1,0
GCF_021655475.1_ASM2165547v1,0
GCF_014168575.1_ASM1416857v1,0
GCF_014168575.1_ASM1416857v1,0
GCF_014168575.1_ASM1416857v1,0
GCF_014168575.1_ASM1416857v1,0
GCF_014168575.1_ASM1416857v1,1
GCF_904863275.1_INF188,0
GCF_904863275.1_INF188,0
GCF_904863275.1_INF188,0
GCF_020525485.1_ASM2052548v1,0
GCF_022369815.1_ASM2236981v1,0
GCF_022369815.1_ASM2236981v1,0
GCF_022369815.1_ASM2236981v1,0
GCF_022369815.1_ASM2236981v1,0
GCF_013736155.1_ASM1373615v1,0
GCF_013736155.1_ASM1373615v1,0
GCF_013736155.1_ASM1373615v1,0
GCF_013736155.1_ASM1373615v1,0
GCF_013736155.1_ASM1373615v1,0
GCF_013736155.1_ASM1373615v1,0
GCF_013736155.1_ASM1373615v1,0
GCF_013736155.1_ASM1373615v1,0
GCF_013736155.1_ASM1373615v1,0
GCF_013736155.1_ASM1373615v1,0
GCF_013736155.1_ASM1373615v1,0
GCF_013736155.1_ASM1373615v1,0
GCF_013736155.1_ASM1373615v1,0
GCF_904864645.1_INF079,0
GCF_013805705.1_ASM1380570v1,0
GCF_013805705.1_ASM1380570v1,0
GCF_013805705.1_ASM1380570v1,0
GCF_013805705.1_ASM1380570v1,0
GCF_904866235.1_INF122,0
GCF_904866235.1_INF122,0
GCF_904863095.1_INF174,0
GCF_904863095.1_INF174,0
GCF_016903775.1_ASM1690377v1,0
GCF_016903775.1_ASM1690377v1,0
GCF_016903775.1_ASM1690377v1,0
GCF_016903775.1_ASM1690377v1,0
GCF_904866435.1_INF119,0
GCF_904865745.1_INF247,0
GCF_904864595.1_INF333,0
GCF_904864595.1_INF333,0
GCF_904864595.1_INF333,0
GCF_904864595.1_INF333,0
GCF_013745295.1_ASM1374529v1,0
GCF_013745295.1_ASM1374529v1,0
GCF_013745295.1_ASM1374529v1,0
GCF_013745295.1_ASM1374529v1,0
GCF_021655455.1_ASM2165545v1,0
GCF_904864605.1_INF044,0
GCF_904864605.1_INF044,0
GCF_904864605.1_INF044,0
GCF_904864605.1_INF044,0
GCF_904864605.1_INF044,0
GCF_013783245.1_ASM1378324v1,0
GCF_020525905.1_ASM2052590v1,0
GCF_020526005.1_ASM2052600v1,0
GCF_020526005.1_ASM2052600v1,0
GCF_020526005.1_ASM2052600v1,0
GCF_021166235.1_ASM2116623v1,0
GCF_021166235.1_ASM2116623v1,0
GCF_021166235.1_ASM2116623v1,0
GCF_021166235.1_ASM2116623v1,0
GCF_021166235.1_ASM2116623v1,0
GCF_016903475.1_ASM1690347v1,0
GCF_016903475.1_ASM1690347v1,1
GCF_016903475.1_ASM1690347v1,0
GCF_016903475.1_ASM1690347v1,0
GCF_016903475.1_ASM1690347v1,0
GCF_016903475.1_ASM1690347v1,0
GCF_016903115.1_ASM1690311v1,0
GCF_016903115.1_ASM1690311v1,0
GCF_016903115.1_ASM1690311v1,0
GCF_016903115.1_ASM1690311v1,0
GCF_016903115.1_ASM1690311v1,0
GCF_016903115.1_ASM1690311v1,0
GCF_016903115.1_ASM1690311v1,0
GCF_016903115.1_ASM1690311v1,0
GCF_016903115.1_ASM1690311v1,0
GCF_016903115.1_ASM1690311v1,0
GCF_904864465.1_INF298,0
GCF_904864465.1_INF298,0
GCF_904864465.1_INF298,0
GCF_904864465.1_INF298,0
GCF_904864465.1_INF298,0
GCF_904864465.1_INF298,0
GCF_904864465.1_INF298,0
GCF_904864465.1_INF298,0
GCF_904866555.1_INF102,0
GCF_904866555.1_INF102,0
GCF_904866555.1_INF102,0
GCF_904866555.1_INF102,0
GCF_904866555.1_INF102,0
GCF_904866555.1_INF102,0
GCF_904866555.1_INF102,0
GCF_904866555.1_INF102,0
GCF_904866555.1_INF102,0
GCF_904866555.1_INF102,0
GCF_904866555.1_INF102,0
GCF_016066295.1_ASM1606629v1,0
GCF_016066295.1_ASM1606629v1,0
GCF_020525965.1_ASM2052596v1,0
GCF_020525965.1_ASM2052596v1,0
GCF_020525965.1_ASM2052596v1,0
GCF_020525965.1_ASM2052596v1,0
GCF_020525965.1_ASM2052596v1,0
GCF_020525965.1_ASM2052596v1,0
GCF_020525965.1_ASM2052596v1,0
GCF_020525965.1_ASM2052596v1,0
GCF_020525965.1_ASM2052596v1,0
GCF_020525965.1_ASM2052596v1,0
GCF_020525965.1_ASM2052596v1,0
GCF_020525965.1_ASM2052596v1,0
GCF_013731735.1_ASM1373173v1,0
GCF_013731735.1_ASM1373173v1,0
GCF_013731735.1_ASM1373173v1,0
GCF_013731735.1_ASM1373173v1,0
GCF_013731735.1_ASM1373173v1,0
GCF_013731735.1_ASM1373173v1,0
GCF_013731735.1_ASM1373173v1,0
GCF_013731735.1_ASM1373173v1,0
GCF_013731735.1_ASM1373173v1,0
GCF_016904595.1_ASM1690459v1,0
GCF_016904595.1_ASM1690459v1,0
GCF_016904595.1_ASM1690459v1,0
GCF_016904595.1_ASM1690459v1,0
GCF_013735155.1_ASM1373515v1,0
GCF_013735155.1_ASM1373515v1,0
GCF_013735155.1_ASM1373515v1,0
GCF_013735155.1_ASM1373515v1,0
GCF_013735155.1_ASM1373515v1,0
GCF_013735155.1_ASM1373515v1,0
GCF_904866255.1_INF223,0
GCF_904866255.1_INF223,0
GCF_904866255.1_INF223,0
GCF_021655435.1_ASM2165543v1,0
GCF_013724605.1_ASM1372460v1,0
GCF_013724605.1_ASM1372460v1,0
GCF_013724605.1_ASM1372460v1,0
GCF_013724605.1_ASM1372460v1,0
GCF_013724605.1_ASM1372460v1,0
GCF_013724605.1_ASM1372460v1,0
GCF_013724605.1_ASM1372460v1,0
GCF_020525885.1_ASM2052588v1,0
GCF_013782105.1_ASM1378210v1,0
GCF_013782105.1_ASM1378210v1,0
GCF_013782105.1_ASM1378210v1,0
GCF_013782105.1_ASM1378210v1,0
GCF_013782105.1_ASM1378210v1,0
GCF_013782105.1_ASM1378210v1,0
GCF_013782105.1_ASM1378210v1,0
GCF_013782105.1_ASM1378210v1,0
GCF_904865805.1_INF144,0
GCF_014170015.1_ASM1417001v1,0
GCF_014170015.1_ASM1417001v1,0
GCF_014170015.1_ASM1417001v1,0
GCF_014170015.1_ASM1417001v1,0
GCF_014170015.1_ASM1417001v1,0
GCF_003261955.3_ASM326195v3,1
GCF_003261955.3_ASM326195v3,0
GCF_003261955.3_ASM326195v3,0
GCF_003261955.3_ASM326195v3,0
GCF_014189335.1_ASM1418933v1,1
GCF_014189335.1_ASM1418933v1,0
GCF_014189335.1_ASM1418933v1,3
GCF_014189335.1_ASM1418933v1,0
GCF_014189335.1_ASM1418933v1,0
GCF_014189335.1_ASM1418933v1,0
GCF_014189335.1_ASM1418933v1,0
GCF_012029975.2_ASM1202997v2,0
GCF_012029975.2_ASM1202997v2,0
GCF_012029975.2_ASM1202997v2,0
GCF_013834745.1_ASM1383474v1,0
GCF_013834745.1_ASM1383474v1,0
GCF_013834745.1_ASM1383474v1,0
GCF_013791265.1_ASM1379126v1,0
GCF_013791265.1_ASM1379126v1,0
GCF_013791265.1_ASM1379126v1,0
GCF_013811445.1_ASM1381144v1,0
GCF_013811445.1_ASM1381144v1,0
GCF_019797985.1_ASM1979798v1,0
GCF_019797985.1_ASM1979798v1,0
GCF_904863145.1_INF072,0
GCF_904863145.1_INF072,0
GCF_904863145.1_INF072,0
GCF_904863145.1_INF072,0
GCF_013811845.1_ASM1381184v1,0
GCF_013811845.1_ASM1381184v1,0
GCF_013704985.1_ASM1370498v1,0
GCF_013704985.1_ASM1370498v1,0
GCF_013704985.1_ASM1370498v1,0
GCF_013704985.1_ASM1370498v1,0
GCF_013704985.1_ASM1370498v1,0
GCF_013704985.1_ASM1370498v1,0
GCF_013704985.1_ASM1370498v1,0
GCF_904863365.1_INF049,0
GCF_904863365.1_INF049,0
GCF_904863365.1_INF049,0
GCF_904863365.1_INF049,0
GCF_904863365.1_INF049,0
GCF_904863365.1_INF049,0
GCF_904863365.1_INF049,0
GCF_015694085.1_ASM1569408v1,0
GCF_015694085.1_ASM1569408v1,0
GCF_015694085.1_ASM1569408v1,0
GCF_015694085.1_ASM1569408v1,0
GCF_016727425.1_ASM1672742v1,0
GCF_016727425.1_ASM1672742v1,0
GCF_016727425.1_ASM1672742v1,0
GCF_021655515.1_ASM2165551v1,0
GCF_013737695.1_ASM1373769v1,0
GCF_013737695.1_ASM1373769v1,0
GCF_013737695.1_ASM1373769v1,0
GCF_013737695.1_ASM1373769v1,0
GCF_013737695.1_ASM1373769v1,0
GCF_013737695.1_ASM1373769v1,0
GCF_013737695.1_ASM1373769v1,0
GCF_013737695.1_ASM1373769v1,0
GCF_904864545.1_KSB1_9J,0
GCF_904864545.1_KSB1_9J,0
GCF_904864545.1_KSB1_9J,0
GCF_904866505.1_INF323,0
GCF_904866505.1_INF323,0
GCF_904866505.1_INF323,0
GCF_904866505.1_INF323,0
GCF_904866505.1_INF323,0
GCF_904866505.1_INF323,0
GCF_016903515.1_ASM1690351v1,0
GCF_016903515.1_ASM1690351v1,1
GCF_016903515.1_ASM1690351v1,0
GCF_016903515.1_ASM1690351v1,1
GCF_016903515.1_ASM1690351v1,0
GCF_016903515.1_ASM1690351v1,0
GCF_016903515.1_ASM1690351v1,0
GCF_016903515.1_ASM1690351v1,0
GCF_016903515.1_ASM1690351v1,0
GCF_016903515.1_ASM1690351v1,1
GCF_016903515.1_ASM1690351v1,0
GCF_016903515.1_ASM1690351v1,0
GCF_016903515.1_ASM1690351v1,0
GCF_904864445.1_KSB1_6G,0
GCF_904864445.1_KSB1_6G,0
GCF_904864445.1_KSB1_6G,0
GCF_904864445.1_KSB1_6G,0
GCF_904864445.1_KSB1_6G,0
GCF_904864445.1_KSB1_6G,0
GCF_016903875.1_ASM1690387v1,0
GCF_013729075.1_ASM1372907v1,0
GCF_013729075.1_ASM1372907v1,0
GCF_014788765.1_ASM1478876v1,0
GCF_014788765.1_ASM1478876v1,0
GCF_014788765.1_ASM1478876v1,0
GCF_016903195.1_ASM1690319v1,0
GCF_016903195.1_ASM1690319v1,0
GCF_016903195.1_ASM1690319v1,0
GCF_016903195.1_ASM1690319v1,0
GCF_016903195.1_ASM1690319v1,0
GCF_904863075.1_INF334,0
GCF_904863075.1_INF334,0
GCF_904863075.1_INF334,0
GCF_016629585.1_ASM1662958v1,0
GCF_016629585.1_ASM1662958v1,0
GCF_016629585.1_ASM1662958v1,0
GCF_016629585.1_ASM1662958v1,0
GCF_016629585.1_ASM1662958v1,0
GCF_016629585.1_ASM1662958v1,0
GCF_016629585.1_ASM1662958v1,0
GCF_016629585.1_ASM1662958v1,0
GCF_904865765.1_KSB2_9A,0
GCF_904865765.1_KSB2_9A,0
GCF_904865765.1_KSB2_9A,0
GCF_904865765.1_KSB2_9A,0
GCF_904865765.1_KSB2_9A,0
GCF_904865765.1_KSB2_9A,0
GCF_904865765.1_KSB2_9A,0
GCF_904865765.1_KSB2_9A,0
GCF_904865765.1_KSB2_9A,0
GCF_904865765.1_KSB2_9A,0
GCF_904865765.1_KSB2_9A,1
GCF_904865765.1_KSB2_9A,0
GCF_904865765.1_KSB2_9A,0
GCF_904865765.1_KSB2_9A,0
GCF_904865765.1_KSB2_9A,0
GCF_904865765.1_KSB2_9A,0
GCF_904865765.1_KSB2_9A,0
GCF_904865765.1_KSB2_9A,0
GCF_904865765.1_KSB2_9A,0
GCF_904865765.1_KSB2_9A,0
GCF_904865765.1_KSB2_9A,0
GCF_904865765.1_KSB2_9A,0
GCF_904865765.1_KSB2_9A,2
GCF_904865765.1_KSB2_9A,1
GCF_904865765.1_KSB2_9A,0
GCF_904865765.1_KSB2_9A,1
GCF_904865765.1_KSB2_9A,1
GCF_904865765.1_KSB2_9A,0
GCF_904865765.1_KSB2_9A,1
GCF_904865765.1_KSB2_9A,0
GCF_904865765.1_KSB2_9A,0
GCF_904865765.1_KSB2_9A,0
GCF_904865765.1_KSB2_9A,0
GCF_904865765.1_KSB2_9A,0
GCF_904865765.1_KSB2_9A,0
GCF_904865765.1_KSB2_9A,0
GCF_904865765.1_KSB2_9A,0
GCF_904865765.1_KSB2_9A,0
GCF_904865765.1_KSB2_9A,0
GCF_904865765.1_KSB2_9A,0
GCF_904865765.1_KSB2_9A,0
GCF_904865765.1_KSB2_9A,0
GCF_904865765.1_KSB2_9A,0
GCF_904865765.1_KSB2_9A,0
GCF_904865765.1_KSB2_9A,0
GCF_904865765.1_KSB2_9A,1
GCF_904865765.1_KSB2_9A,3
GCF_904865765.1_KSB2_9A,0
GCF_904866215.1_INF359,0
GCF_904866215.1_INF359,1
GCF_904866215.1_INF359,0
GCF_904864505.1_INF331,0
GCF_016903395.1_ASM1690339v1,0
GCF_016903395.1_ASM1690339v1,0
GCF_016903395.1_ASM1690339v1,0
GCF_016903395.1_ASM1690339v1,0
GCF_016903395.1_ASM1690339v1,0
GCF_016903395.1_ASM1690339v1,0
GCF_016903395.1_ASM1690339v1,0
GCF_016903395.1_ASM1690339v1,0
GCF_012029695.2_ASM1202969v2,0
GCF_012029695.2_ASM1202969v2,0
GCF_012029695.2_ASM1202969v2,0
GCF_012029695.2_ASM1202969v2,0
GCF_012029695.2_ASM1202969v2,0
GCF_019798185.1_ASM1979818v1,0
GCF_019798185.1_ASM1979818v1,0
GCF_019798185.1_ASM1979818v1,0
GCF_019798185.1_ASM1979818v1,0
GCF_019798185.1_ASM1979818v1,0
GCF_019798185.1_ASM1979818v1,0
GCF_904865695.1_INF319,0
GCF_904865695.1_INF319,0
GCF_904865695.1_INF319,0
GCF_904865695.1_INF319,0
GCF_904865695.1_INF319,0
GCF_904865695.1_INF319,0
GCF_904865695.1_INF319,0
GCF_904865695.1_INF319,0
GCF_021655495.1_ASM2165549v1,0
GCF_002852785.2_ASM285278v2,0
GCF_002852785.2_ASM285278v2,0
GCF_002852785.2_ASM285278v2,0
GCF_002852785.2_ASM285278v2,0
GCF_002852785.2_ASM285278v2,0
GCF_013734035.1_ASM1373403v1,0
GCF_013734035.1_ASM1373403v1,0
GCF_013734035.1_ASM1373403v1,0
GCF_013734035.1_ASM1373403v1,0
GCF_013734035.1_ASM1373403v1,0
GCF_013734035.1_ASM1373403v1,0
GCF_013734035.1_ASM1373403v1,0
GCF_020149825.1_ASM2014982v1,0
GCF_020149825.1_ASM2014982v1,0
GCF_020149825.1_ASM2014982v1,0
GCF_020149825.1_ASM2014982v1,0
GCF_020149825.1_ASM2014982v1,0
GCF_013813035.1_ASM1381303v1,0
GCF_013813035.1_ASM1381303v1,0
GCF_904866285.1_INF344,0
GCF_904866285.1_INF344,0
GCF_001185665.2_ASM118566v3,0
GCF_001185665.2_ASM118566v3,0
GCF_001185665.2_ASM118566v3,0
GCF_001185665.2_ASM118566v3,0
GCF_001185665.2_ASM118566v3,0
GCF_904865675.1_INF358,0
GCF_904865675.1_INF358,0
GCF_012030545.2_ASM1203054v2,0
GCF_012030545.2_ASM1203054v2,0
GCF_012030545.2_ASM1203054v2,0
GCF_012030545.2_ASM1203054v2,0
GCF_017894285.1_ASM1789428v1,0
GCF_017894285.1_ASM1789428v1,0
GCF_017894285.1_ASM1789428v1,0
GCF_017894285.1_ASM1789428v1,0
GCF_021228815.1_ASM2122881v1,0
GCF_904863205.1_INF008,0
GCF_020525985.1_ASM2052598v1,0
GCF_020525985.1_ASM2052598v1,0
GCF_020525985.1_ASM2052598v1,0
GCF_020525985.1_ASM2052598v1,0
GCF_020525985.1_ASM2052598v1,0
GCF_020525985.1_ASM2052598v1,0
GCF_020525985.1_ASM2052598v1,0
GCF_020525985.1_ASM2052598v1,0
GCF_020525985.1_ASM2052598v1,0
GCF_020525985.1_ASM2052598v1,0
GCF_020525985.1_ASM2052598v1,0
GCF_020525985.1_ASM2052598v1,0
GCF_018310495.1_ASM1831049v1,0
GCF_018310495.1_ASM1831049v1,0
GCF_018310495.1_ASM1831049v1,0
GCF_018310495.1_ASM1831049v1,0
GCF_014170935.1_ASM1417093v1,0
GCF_014170935.1_ASM1417093v1,0
GCF_014170935.1_ASM1417093v1,0
GCF_014170935.1_ASM1417093v1,0
GCF_014170935.1_ASM1417093v1,0
GCF_014170935.1_ASM1417093v1,0
GCF_014170935.1_ASM1417093v1,0
GCF_015694065.1_ASM1569406v1,0
GCF_015694065.1_ASM1569406v1,0
GCF_015694065.1_ASM1569406v1,0
GCF_015694065.1_ASM1569406v1,0
GCF_015694065.1_ASM1569406v1,0
GCF_015694065.1_ASM1569406v1,0
GCF_015694065.1_ASM1569406v1,1
GCF_015694065.1_ASM1569406v1,1
GCF_017894305.1_ASM1789430v1,0
GCF_017894305.1_ASM1789430v1,0
GCF_017894305.1_ASM1789430v1,0
GCF_904863245.1_INF355,0
GCF_904863245.1_INF355,0
GCF_904863245.1_INF355,0
GCF_014169335.1_ASM1416933v1,0
GCF_014169335.1_ASM1416933v1,0
GCF_014169335.1_ASM1416933v1,0
GCF_014905815.1_ASM1490581v1,0
GCF_014905815.1_ASM1490581v1,0
GCF_014905815.1_ASM1490581v1,0
GCF_014905815.1_ASM1490581v1,0
GCF_014905815.1_ASM1490581v1,0
GCF_904865845.1_INF302,0
GCF_904865845.1_INF302,0
GCF_904865845.1_INF302,0
GCF_904865845.1_INF302,0
GCF_904865845.1_INF302,0
GCF_013796245.1_ASM1379624v1,0
GCF_013796245.1_ASM1379624v1,0
GCF_013796245.1_ASM1379624v1,0
GCF_013796245.1_ASM1379624v1,0
GCF_013796245.1_ASM1379624v1,0
GCF_013792545.1_ASM1379254v1,0
GCF_013792545.1_ASM1379254v1,0
GCF_013792545.1_ASM1379254v1,0
GCF_013792545.1_ASM1379254v1,0
GCF_013792545.1_ASM1379254v1,0
GCF_013792545.1_ASM1379254v1,0
GCF_020080145.1_ASM2008014v1,0
GCF_020080145.1_ASM2008014v1,0
GCF_020525845.1_ASM2052584v1,0
GCF_020525845.1_ASM2052584v1,0
GCF_020525845.1_ASM2052584v1,0
GCF_020525845.1_ASM2052584v1,0
GCF_016903235.1_ASM1690323v1,0
GCF_016903235.1_ASM1690323v1,0
GCF_016903235.1_ASM1690323v1,0
GCF_016903235.1_ASM1690323v1,0
GCF_016903235.1_ASM1690323v1,0
GCF_016903235.1_ASM1690323v1,0
GCF_016903235.1_ASM1690323v1,1
GCF_018075085.1_ASM1807508v1,0
GCF_018075085.1_ASM1807508v1,0
GCF_018075085.1_ASM1807508v1,0
GCF_018075085.1_ASM1807508v1,0
GCF_018075085.1_ASM1807508v1,0
GCF_904863265.1_INF156,0
GCF_904863325.1_INF354,0
GCF_904863325.1_INF354,0
GCF_904863325.1_INF354,0
GCF_904863325.1_INF354,0
GCF_016904035.1_ASM1690403v1,0
GCF_016904035.1_ASM1690403v1,0
GCF_016904035.1_ASM1690403v1,0
GCF_904864625.1_INF171,0
GCF_904864625.1_INF171,0
GCF_904864625.1_INF171,0
GCF_904864625.1_INF171,0
GCF_016904415.1_ASM1690441v1,0
GCF_016904415.1_ASM1690441v1,0
GCF_016904415.1_ASM1690441v1,0
GCF_016904415.1_ASM1690441v1,0
GCF_016904415.1_ASM1690441v1,0
GCF_016904415.1_ASM1690441v1,0
GCF_904863285.1_INF231,0
GCF_904863285.1_INF231,0
GCF_904863285.1_INF231,0
GCF_013735895.1_ASM1373589v1,0
GCF_013735895.1_ASM1373589v1,0
GCF_013735895.1_ASM1373589v1,0
GCF_013735895.1_ASM1373589v1,0
GCF_013735895.1_ASM1373589v1,0
GCF_013735895.1_ASM1373589v1,0
GCF_013735895.1_ASM1373589v1,0
GCF_013735895.1_ASM1373589v1,0
GCF_016804025.1_ASM1680402v1,0
GCF_016804025.1_ASM1680402v1,0
GCF_016804025.1_ASM1680402v1,0
GCF_013796485.1_ASM1379648v1,0
GCF_013796485.1_ASM1379648v1,0
GCF_013796485.1_ASM1379648v1,0
GCF_013796485.1_ASM1379648v1,0
GCF_013796485.1_ASM1379648v1,0
GCF_013796485.1_ASM1379648v1,0
GCF_021497265.1_ASM2149726v1,0
GCF_021497265.1_ASM2149726v1,0
GCF_904866295.1_KSB2_1C,0
GCF_904866295.1_KSB2_1C,0
GCF_904866295.1_KSB2_1C,0
GCF_904866295.1_KSB2_1C,0
GCF_019798005.1_ASM1979800v1,0
GCF_019798005.1_ASM1979800v1,0
GCF_019798005.1_ASM1979800v1,0
GCF_019798005.1_ASM1979800v1,0
GCF_019798005.1_ASM1979800v1,0
GCF_904866415.1_INF201,0
GCF_904866415.1_INF201,0
GCF_904866415.1_INF201,0
GCF_904866415.1_INF201,0
GCF_016903735.1_ASM1690373v1,0
GCF_016903735.1_ASM1690373v1,0
GCF_016903735.1_ASM1690373v1,0
GCF_016903735.1_ASM1690373v1,0
GCF_904866335.1_INF266,0
GCF_904866335.1_INF266,0
GCF_904866195.1_INF327,0
GCF_904866195.1_INF327,0
GCF_904866195.1_INF327,0
GCF_904866195.1_INF327,0
GCF_904866195.1_INF327,0
GCF_003937135.2_ASM393713v2,0
GCF_003937135.2_ASM393713v2,0
GCF_003937135.2_ASM393713v2,0
GCF_003937135.2_ASM393713v2,0
GCF_904866375.1_INF242,0
GCF_904866375.1_INF242,0
GCF_904866375.1_INF242,0
GCF_016903895.1_ASM1690389v1,0
GCF_016903895.1_ASM1690389v1,0
GCF_904863135.1_INF310,0
GCF_904863135.1_INF310,0
GCF_904863135.1_INF310,0
GCF_904863135.1_INF310,0
GCF_904863135.1_INF310,0
GCF_904863135.1_INF310,0
GCF_904863135.1_INF310,0
GCF_904863135.1_INF310,0
GCF_018283505.2_ASM1828350v2,0
GCF_018283505.2_ASM1828350v2,0
GCF_018283505.2_ASM1828350v2,0
GCF_015138775.1_ASM1513877v1,0
GCF_015138775.1_ASM1513877v1,0
GCF_015138775.1_ASM1513877v1,0
GCF_015138775.1_ASM1513877v1,0
GCF_015138775.1_ASM1513877v1,0
GCF_016904315.1_ASM1690431v1,0
GCF_016904315.1_ASM1690431v1,0
GCF_016904315.1_ASM1690431v1,0
GCF_016904315.1_ASM1690431v1,0
GCF_904865785.1_INF142,0
GCF_904865785.1_INF142,0
GCF_904865785.1_INF142,0
GCF_904865785.1_INF142,0
GCF_904865785.1_INF142,0
GCF_904865785.1_INF142,0
GCF_904865785.1_INF142,0
GCF_904866425.1_INF065,0
GCF_904866425.1_INF065,0
GCF_904866425.1_INF065,0
GCF_016904295.1_ASM1690429v1,0
GCF_016904295.1_ASM1690429v1,1
GCF_016904295.1_ASM1690429v1,0
GCF_904863215.1_INF277,0
GCF_904863215.1_INF277,0
GCF_904863215.1_INF277,0
GCF_904863215.1_INF277,0
GCF_904863225.1_KSB1_6J,1
GCF_904863225.1_KSB1_6J,0
GCF_904863225.1_KSB1_6J,0
GCF_904863225.1_KSB1_6J,0
GCF_904863225.1_KSB1_6J,0
GCF_904863115.1_INF329,0
GCF_904863115.1_INF329,0
GCF_904863115.1_INF329,0
GCF_904863115.1_INF329,0
GCF_017639065.1_ASM1763906v1,0
GCF_017639065.1_ASM1763906v1,0
GCF_017639065.1_ASM1763906v1,0
GCF_017639065.1_ASM1763906v1,0
GCF_017639065.1_ASM1763906v1,0
GCF_017639065.1_ASM1763906v1,0
GCF_016903255.1_ASM1690325v1,0
GCF_016903255.1_ASM1690325v1,0
GCF_016903255.1_ASM1690325v1,0
GCF_904865815.1_INF281,0
GCF_904865815.1_INF281,0
GCF_904865815.1_INF281,0
GCF_904865815.1_INF281,0
GCF_904865815.1_INF281,0
GCF_904865815.1_INF281,0
GCF_904865815.1_INF281,0
GCF_904865815.1_INF281,0
GCF_020526045.1_ASM2052604v1,0
GCF_904866395.1_INF321,0
GCF_904866395.1_INF321,0
GCF_904866395.1_INF321,0
GCF_904866395.1_INF321,0
GCF_904866395.1_INF321,0
GCF_904866395.1_INF321,0
GCF_904866395.1_INF321,0
GCF_904866395.1_INF321,0
GCF_904866395.1_INF321,0
GCF_904863435.1_KSB1_1B,0
GCF_904863435.1_KSB1_1B,0
GCF_904863435.1_KSB1_1B,0
GCF_904863435.1_KSB1_1B,0
GCF_904863435.1_KSB1_1B,0
GCF_904863435.1_KSB1_1B,0
GCF_904865685.1_INF182,0
GCF_020526065.1_ASM2052606v1,1
GCF_020526065.1_ASM2052606v1,0
GCF_020526065.1_ASM2052606v1,0
GCF_020526065.1_ASM2052606v1,0
GCF_013731305.1_ASM1373130v1,0
GCF_013731305.1_ASM1373130v1,0
GCF_904865715.1_KSB1_5H,0
GCF_904865715.1_KSB1_5H,0
GCF_904865715.1_KSB1_5H,0
GCF_904865715.1_KSB1_5H,0
GCF_904865715.1_KSB1_5H,0
GCF_904865715.1_KSB1_5H,0
GCF_904865715.1_KSB1_5H,0
GCF_904865715.1_KSB1_5H,0
GCF_904865715.1_KSB1_5H,0
GCF_904864475.1_INF168,0
GCF_012029935.2_ASM1202993v2,0
GCF_012029935.2_ASM1202993v2,0
GCF_012029935.2_ASM1202993v2,0
GCF_012029935.2_ASM1202993v2,0
GCF_012029935.2_ASM1202993v2,0
GCF_013826045.1_ASM1382604v1,0
GCF_013826045.1_ASM1382604v1,0
GCF_013826045.1_ASM1382604v1,0
GCF_013826045.1_ASM1382604v1,0
GCF_016066475.1_ASM1606647v1,0
GCF_016066475.1_ASM1606647v1,0
GCF_016066475.1_ASM1606647v1,0
GCF_016066475.1_ASM1606647v1,0
GCF_016066475.1_ASM1606647v1,0
GCF_014168655.1_ASM1416865v1,0
GCF_014168655.1_ASM1416865v1,0
GCF_016066025.1_ASM1606602v1,0
GCF_016066025.1_ASM1606602v1,0
GCF_016066025.1_ASM1606602v1,0
GCF_016066025.1_ASM1606602v1,0
GCF_016066025.1_ASM1606602v1,0
GCF_016066025.1_ASM1606602v1,0
GCF_003038135.2_ASM303813v2,0
GCF_003038135.2_ASM303813v2,0
GCF_003038135.2_ASM303813v2,0
GCF_904866205.1_INF145,0
GCF_016903795.1_ASM1690379v1,0
GCF_016903795.1_ASM1690379v1,0
GCF_016903795.1_ASM1690379v1,0
GCF_016903795.1_ASM1690379v1,0
GCF_904866445.1_INF305,0
GCF_904866445.1_INF305,0
GCF_904866445.1_INF305,0
GCF_904866445.1_INF305,0
GCF_904866445.1_INF305,0
GCF_904866445.1_INF305,0
GCF_904866445.1_INF305,0
GCF_904866445.1_INF305,0
GCF_904866315.1_INF346,0
GCF_904866315.1_INF346,0
GCF_904866315.1_INF346,0
GCF_904866315.1_INF346,0
GCF_016903155.1_ASM1690315v1,0
GCF_016903155.1_ASM1690315v1,0
GCF_016903155.1_ASM1690315v1,0
GCF_016903155.1_ASM1690315v1,0
GCF_904866485.1_KSB1_1H,0
GCF_904866485.1_KSB1_1H,0
GCF_904866485.1_KSB1_1H,0
GCF_904866485.1_KSB1_1H,0
GCF_016904095.1_ASM1690409v1,0
GCF_904863295.1_KSB2_2B,1
GCF_904863295.1_KSB2_2B,1
GCF_904863295.1_KSB2_2B,0
GCF_904863295.1_KSB2_2B,0
GCF_904863295.1_KSB2_2B,0
GCF_020526025.1_ASM2052602v1,0
GCF_904866535.1_KSB1_8C,0
GCF_904866535.1_KSB1_8C,0
GCF_020525865.1_ASM2052586v1,0
GCF_020525865.1_ASM2052586v1,0
GCF_904866325.1_INF299,0
GCF_904866325.1_INF299,0
GCF_904866325.1_INF299,0
GCF_904866325.1_INF299,0
GCF_904866325.1_INF299,0
GCF_904866325.1_INF299,0
GCF_904866325.1_INF299,0
GCF_904866325.1_INF299,0
GCF_022369925.1_ASM2236992v1,0
GCF_022369925.1_ASM2236992v1,0
GCF_022369925.1_ASM2236992v1,0
GCF_022369925.1_ASM2236992v1,0
GCF_021057265.1_ASM2105726v1,1
GCF_021057265.1_ASM2105726v1,0
GCF_021057265.1_ASM2105726v1,0
GCF_021057265.1_ASM2105726v1,0
GCF_021057265.1_ASM2105726v1,0
GCF_904863395.1_INF250,0
GCF_904863395.1_INF250,0
GCF_904863395.1_INF250,0
GCF_904863395.1_INF250,0
GCF_904863395.1_INF250,0
GCF_904863395.1_INF250,0
GCF_904863355.1_INF148,0
GCF_904863355.1_INF148,0
GCF_904863355.1_INF148,0
GCF_013611495.1_ASM1361149v1,0
GCF_013611495.1_ASM1361149v1,0
GCF_013611495.1_ASM1361149v1,0
GCF_013611495.1_ASM1361149v1,0
GCF_013611495.1_ASM1361149v1,0
GCF_013611495.1_ASM1361149v1,0
GCF_013611495.1_ASM1361149v1,0
GCF_013611495.1_ASM1361149v1,0
GCF_013611495.1_ASM1361149v1,0
GCF_013611495.1_ASM1361149v1,0
GCF_013611495.1_ASM1361149v1,0
GCF_012029895.2_ASM1202989v2,0
GCF_012029895.2_ASM1202989v2,0
GCF_012029895.2_ASM1202989v2,0
GCF_012029895.2_ASM1202989v2,0
GCF_012029895.2_ASM1202989v2,0
GCF_012029895.2_ASM1202989v2,0
GCF_016903295.1_ASM1690329v1,0
GCF_016903295.1_ASM1690329v1,0
GCF_016903295.1_ASM1690329v1,0
GCF_016903295.1_ASM1690329v1,0
GCF_016903295.1_ASM1690329v1,0
GCF_016903295.1_ASM1690329v1,0
GCF_016903295.1_ASM1690329v1,0
GCF_016903295.1_ASM1690329v1,0
GCF_019798025.1_ASM1979802v1,0
GCF_019798025.1_ASM1979802v1,0
GCF_021496545.1_ASM2149654v1,0
GCF_021496545.1_ASM2149654v1,0
GCF_021496545.1_ASM2149654v1,1
GCF_904864525.1_INF350,0
GCF_904863055.1_INF022,0
GCF_904863055.1_INF022,0
GCF_904863055.1_INF022,0
GCF_904863055.1_INF022,0
GCF_904863055.1_INF022,0
GCF_904863335.1_KSB1_5B,0
GCF_904863335.1_KSB1_5B,0
GCF_904863335.1_KSB1_5B,0
GCF_016903495.1_ASM1690349v1,0
