GCF_904866475.1_KSB2_9B,plasmid_AA276,NZ_LR890711.1,203
GCF_020149875.1_ASM2014987v1,plasmid_AA035,NZ_CP083776.1,195
GCF_904864595.1_INF333,plasmid_AB531,NZ_LR890384.1,1235
GCF_904864605.1_INF044,plasmid_AA275,NZ_LR890396.1,59
GCF_021166235.1_ASM2116623v1,plasmid_AA406,NZ_CP089030.1,82
GCF_020525965.1_ASM2052596v1,plasmid_AA450,NZ_CP084834.1,1282
GCF_904865765.1_KSB2_9A,plasmid_AA277,NZ_LR890565.1,1120
GCF_904865675.1_INF358,plasmid_AE437,NZ_LR890475.1,54
GCF_904863205.1_INF008,plasmid_AA277,NZ_LR890203.1,51
GCF_020525985.1_ASM2052598v1,plasmid_AA450,NZ_CP084844.1,139
GCF_018310495.1_ASM1831049v1,plasmid_AA405,NZ_CP074088.1,233
GCF_016804025.1_ASM1680402v1,plasmid_AA276,NZ_CP053018.1,165
GCF_003937135.2_ASM393713v2,plasmid_AA405,NZ_CP078034.1,148
GCF_003937135.2_ASM393713v2,plasmid_AA457,NZ_CP078035.1,301
GCF_013826045.1_ASM1382604v1,plasmid_AA405,NZ_CP057314.1,1058
GCF_904866485.1_KSB1_1H,plasmid_AA277,NZ_LR890723.1,9
