<?xml version='1.0' encoding='UTF-8' ?>
<svg xmlns='http://www.w3.org/2000/svg' xmlns:xlink='http://www.w3.org/1999/xlink' class='svglite' width='504.00pt' height='360.00pt' viewBox='0 0 504.00 360.00'>
<defs>
  <style type='text/css'><![CDATA[
    .svglite line, .svglite polyline, .svglite polygon, .svglite path, .svglite rect, .svglite circle {
      fill: none;
      stroke: #000000;
      stroke-linecap: round;
      stroke-linejoin: round;
      stroke-miterlimit: 10.00;
    }
    .svglite text {
      white-space: pre;
    }
  ]]></style>
</defs>
<rect width='100%' height='100%' style='stroke: none; fill: #FFFFFF;'/>
<defs>
  <clipPath id='cpMC4wMHw1MDQuMDB8MC4wMHwzNjAuMDA='>
    <rect x='0.00' y='0.00' width='504.00' height='360.00' />
  </clipPath>
</defs>
<g clip-path='url(#cpMC4wMHw1MDQuMDB8MC4wMHwzNjAuMDA=)'>
<rect x='0.00' y='0.000000000000057' width='504.00' height='360.00' style='stroke-width: 1.07; stroke: #FFFFFF; fill: #FFFFFF;' />
</g>
<defs>
  <clipPath id='cpNTUuMzZ8MjYyLjc4fDg1LjMxfDIxMi45OA=='>
    <rect x='55.36' y='85.31' width='207.42' height='127.67' />
  </clipPath>
</defs>
<g clip-path='url(#cpNTUuMzZ8MjYyLjc4fDg1LjMxfDIxMi45OA==)'>
<rect x='55.36' y='85.31' width='207.42' height='127.67' style='stroke-width: 1.07; stroke: none; fill: #FFFFFF;' />
<polyline points='55.36,194.22 262.78,194.22 ' style='stroke-width: 0.53; stroke: #EBEBEB; stroke-linecap: butt;' />
<polyline points='55.36,164.78 262.78,164.78 ' style='stroke-width: 0.53; stroke: #EBEBEB; stroke-linecap: butt;' />
<polyline points='55.36,135.33 262.78,135.33 ' style='stroke-width: 0.53; stroke: #EBEBEB; stroke-linecap: butt;' />
<polyline points='55.36,105.88 262.78,105.88 ' style='stroke-width: 0.53; stroke: #EBEBEB; stroke-linecap: butt;' />
<polyline points='55.36,208.95 262.78,208.95 ' style='stroke-width: 1.07; stroke: #EBEBEB; stroke-linecap: butt;' />
<polyline points='55.36,179.50 262.78,179.50 ' style='stroke-width: 1.07; stroke: #EBEBEB; stroke-linecap: butt;' />
<polyline points='55.36,150.05 262.78,150.05 ' style='stroke-width: 1.07; stroke: #EBEBEB; stroke-linecap: butt;' />
<polyline points='55.36,120.61 262.78,120.61 ' style='stroke-width: 1.07; stroke: #EBEBEB; stroke-linecap: butt;' />
<polyline points='55.36,91.16 262.78,91.16 ' style='stroke-width: 1.07; stroke: #EBEBEB; stroke-linecap: butt;' />
<polyline points='94.25,212.98 94.25,85.31 ' style='stroke-width: 1.07; stroke: #EBEBEB; stroke-linecap: butt;' />
<polyline points='159.07,212.98 159.07,85.31 ' style='stroke-width: 1.07; stroke: #EBEBEB; stroke-linecap: butt;' />
<polyline points='223.89,212.98 223.89,85.31 ' style='stroke-width: 1.07; stroke: #EBEBEB; stroke-linecap: butt;' />
<circle cx='94.25' cy='124.61' r='1.95' style='stroke-width: 0.71; stroke: #333333; fill: #333333;' />
<circle cx='94.25' cy='133.45' r='1.95' style='stroke-width: 0.71; stroke: #333333; fill: #333333;' />
<circle cx='94.25' cy='96.23' r='1.95' style='stroke-width: 0.71; stroke: #333333; fill: #333333;' />
<line x1='94.25' y1='91.16' x2='94.25' y2='91.16' style='stroke-width: 1.07; stroke: #333333; stroke-linecap: butt;' />
<line x1='94.25' y1='91.16' x2='94.25' y2='91.16' style='stroke-width: 1.07; stroke: #333333; stroke-linecap: butt;' />
<polygon points='69.95,91.16 69.95,91.16 118.56,91.16 118.56,91.16 69.95,91.16 ' style='stroke-width: 1.07; stroke: #333333; stroke-linecap: butt; stroke-linejoin: miter; fill: #FFFFFF;' />
<line x1='69.95' y1='91.16' x2='118.56' y2='91.16' style='stroke-width: 2.13; stroke: #333333; stroke-linecap: butt; stroke-linejoin: miter;' />
<circle cx='159.07' cy='109.30' r='1.95' style='stroke-width: 0.71; stroke: #333333; fill: #333333;' />
<circle cx='159.07' cy='124.02' r='1.95' style='stroke-width: 0.71; stroke: #333333; fill: #333333;' />
<circle cx='159.07' cy='106.24' r='1.95' style='stroke-width: 0.71; stroke: #333333; fill: #333333;' />
<line x1='159.07' y1='91.16' x2='159.07' y2='91.16' style='stroke-width: 1.07; stroke: #333333; stroke-linecap: butt;' />
<line x1='159.07' y1='94.81' x2='159.07' y2='94.81' style='stroke-width: 1.07; stroke: #333333; stroke-linecap: butt;' />
<polygon points='134.76,91.16 134.76,94.81 183.38,94.81 183.38,91.16 134.76,91.16 ' style='stroke-width: 1.07; stroke: #333333; stroke-linecap: butt; stroke-linejoin: miter; fill: #FFFFFF;' />
<line x1='134.76' y1='91.99' x2='183.38' y2='91.99' style='stroke-width: 2.13; stroke: #333333; stroke-linecap: butt; stroke-linejoin: miter;' />
<line x1='223.89' y1='91.16' x2='223.89' y2='91.16' style='stroke-width: 1.07; stroke: #333333; stroke-linecap: butt;' />
<line x1='223.89' y1='139.45' x2='223.89' y2='207.18' style='stroke-width: 1.07; stroke: #333333; stroke-linecap: butt;' />
<polygon points='199.58,91.16 199.58,139.45 248.20,139.45 248.20,91.16 199.58,91.16 ' style='stroke-width: 1.07; stroke: #333333; stroke-linecap: butt; stroke-linejoin: miter; fill: #FFFFFF;' />
<line x1='199.58' y1='107.65' x2='248.20' y2='107.65' style='stroke-width: 2.13; stroke: #333333; stroke-linecap: butt; stroke-linejoin: miter;' />
<circle cx='118.20' cy='91.12' r='1.95' style='stroke-width: 0.71; stroke: #00FF93; stroke-opacity: 0.30; fill: #00FF93; fill-opacity: 0.30;' />
<circle cx='106.45' cy='91.20' r='1.95' style='stroke-width: 0.71; stroke: #00FF93; stroke-opacity: 0.30; fill: #00FF93; fill-opacity: 0.30;' />
<circle cx='107.49' cy='91.15' r='1.95' style='stroke-width: 0.71; stroke: #00FF93; stroke-opacity: 0.30; fill: #00FF93; fill-opacity: 0.30;' />
<circle cx='89.18' cy='91.15' r='1.95' style='stroke-width: 0.71; stroke: #00FF93; stroke-opacity: 0.30; fill: #00FF93; fill-opacity: 0.30;' />
<circle cx='88.78' cy='91.13' r='1.95' style='stroke-width: 0.71; stroke: #00FF93; stroke-opacity: 0.30; fill: #00FF93; fill-opacity: 0.30;' />
<circle cx='97.44' cy='91.18' r='1.95' style='stroke-width: 0.71; stroke: #00FF93; stroke-opacity: 0.30; fill: #00FF93; fill-opacity: 0.30;' />
<circle cx='102.93' cy='91.15' r='1.95' style='stroke-width: 0.71; stroke: #00FF93; stroke-opacity: 0.30; fill: #00FF93; fill-opacity: 0.30;' />
<circle cx='88.72' cy='91.17' r='1.95' style='stroke-width: 0.71; stroke: #00FF93; stroke-opacity: 0.30; fill: #00FF93; fill-opacity: 0.30;' />
<circle cx='98.85' cy='91.16' r='1.95' style='stroke-width: 0.71; stroke: #00FF93; stroke-opacity: 0.30; fill: #00FF93; fill-opacity: 0.30;' />
<circle cx='91.42' cy='91.20' r='1.95' style='stroke-width: 0.71; stroke: #00FF93; stroke-opacity: 0.30; fill: #00FF93; fill-opacity: 0.30;' />
<circle cx='75.00' cy='91.13' r='1.95' style='stroke-width: 0.71; stroke: #00FF93; stroke-opacity: 0.30; fill: #00FF93; fill-opacity: 0.30;' />
<circle cx='117.93' cy='91.17' r='1.95' style='stroke-width: 0.71; stroke: #00FF93; stroke-opacity: 0.30; fill: #00FF93; fill-opacity: 0.30;' />
<circle cx='87.12' cy='91.19' r='1.95' style='stroke-width: 0.71; stroke: #00FF93; stroke-opacity: 0.30; fill: #00FF93; fill-opacity: 0.30;' />
<circle cx='104.15' cy='91.19' r='1.95' style='stroke-width: 0.71; stroke: #00FF93; stroke-opacity: 0.30; fill: #00FF93; fill-opacity: 0.30;' />
<circle cx='77.13' cy='91.15' r='1.95' style='stroke-width: 0.71; stroke: #00FF93; stroke-opacity: 0.30; fill: #00FF93; fill-opacity: 0.30;' />
<circle cx='81.06' cy='91.19' r='1.95' style='stroke-width: 0.71; stroke: #00FF93; stroke-opacity: 0.30; fill: #00FF93; fill-opacity: 0.30;' />
<circle cx='117.33' cy='91.18' r='1.95' style='stroke-width: 0.71; stroke: #00FF93; stroke-opacity: 0.30; fill: #00FF93; fill-opacity: 0.30;' />
<circle cx='84.29' cy='91.18' r='1.95' style='stroke-width: 0.71; stroke: #00FF93; stroke-opacity: 0.30; fill: #00FF93; fill-opacity: 0.30;' />
<circle cx='107.00' cy='91.16' r='1.95' style='stroke-width: 0.71; stroke: #00FF93; stroke-opacity: 0.30; fill: #00FF93; fill-opacity: 0.30;' />
<circle cx='102.83' cy='91.19' r='1.95' style='stroke-width: 0.71; stroke: #00FF93; stroke-opacity: 0.30; fill: #00FF93; fill-opacity: 0.30;' />
<circle cx='110.66' cy='124.59' r='1.95' style='stroke-width: 0.71; stroke: #00FF93; stroke-opacity: 0.30; fill: #00FF93; fill-opacity: 0.30;' />
<circle cx='92.49' cy='133.44' r='1.95' style='stroke-width: 0.71; stroke: #00FF93; stroke-opacity: 0.30; fill: #00FF93; fill-opacity: 0.30;' />
<circle cx='84.05' cy='96.27' r='1.95' style='stroke-width: 0.71; stroke: #00FF93; stroke-opacity: 0.30; fill: #00FF93; fill-opacity: 0.30;' />
<circle cx='76.85' cy='91.12' r='1.95' style='stroke-width: 0.71; stroke: #00FF93; stroke-opacity: 0.30; fill: #00FF93; fill-opacity: 0.30;' />
<circle cx='152.59' cy='91.17' r='1.95' style='stroke-width: 0.71; stroke: #FFC300; stroke-opacity: 0.30; fill: #FFC300; fill-opacity: 0.30;' />
<circle cx='183.88' cy='92.25' r='1.95' style='stroke-width: 0.71; stroke: #FFC300; stroke-opacity: 0.30; fill: #FFC300; fill-opacity: 0.30;' />
<circle cx='142.53' cy='92.68' r='1.95' style='stroke-width: 0.71; stroke: #FFC300; stroke-opacity: 0.30; fill: #FFC300; fill-opacity: 0.30;' />
<circle cx='184.53' cy='94.81' r='1.95' style='stroke-width: 0.71; stroke: #FFC300; stroke-opacity: 0.30; fill: #FFC300; fill-opacity: 0.30;' />
<circle cx='136.82' cy='109.30' r='1.95' style='stroke-width: 0.71; stroke: #FFC300; stroke-opacity: 0.30; fill: #FFC300; fill-opacity: 0.30;' />
<circle cx='138.08' cy='124.04' r='1.95' style='stroke-width: 0.71; stroke: #FFC300; stroke-opacity: 0.30; fill: #FFC300; fill-opacity: 0.30;' />
<circle cx='173.85' cy='91.16' r='1.95' style='stroke-width: 0.71; stroke: #FFC300; stroke-opacity: 0.30; fill: #FFC300; fill-opacity: 0.30;' />
<circle cx='135.56' cy='91.18' r='1.95' style='stroke-width: 0.71; stroke: #FFC300; stroke-opacity: 0.30; fill: #FFC300; fill-opacity: 0.30;' />
<circle cx='172.04' cy='91.17' r='1.95' style='stroke-width: 0.71; stroke: #FFC300; stroke-opacity: 0.30; fill: #FFC300; fill-opacity: 0.30;' />
<circle cx='141.28' cy='106.24' r='1.95' style='stroke-width: 0.71; stroke: #FFC300; stroke-opacity: 0.30; fill: #FFC300; fill-opacity: 0.30;' />
<circle cx='143.15' cy='91.96' r='1.95' style='stroke-width: 0.71; stroke: #FFC300; stroke-opacity: 0.30; fill: #FFC300; fill-opacity: 0.30;' />
<circle cx='158.47' cy='91.20' r='1.95' style='stroke-width: 0.71; stroke: #FFC300; stroke-opacity: 0.30; fill: #FFC300; fill-opacity: 0.30;' />
<circle cx='169.26' cy='91.21' r='1.95' style='stroke-width: 0.71; stroke: #FFC300; stroke-opacity: 0.30; fill: #FFC300; fill-opacity: 0.30;' />
<circle cx='232.81' cy='92.54' r='1.95' style='stroke-width: 0.71; stroke: #F11212; stroke-opacity: 0.30; fill: #F11212; fill-opacity: 0.30;' />
<circle cx='200.70' cy='139.48' r='1.95' style='stroke-width: 0.71; stroke: #F11212; stroke-opacity: 0.30; fill: #F11212; fill-opacity: 0.30;' />
<circle cx='232.33' cy='91.18' r='1.95' style='stroke-width: 0.71; stroke: #F11212; stroke-opacity: 0.30; fill: #F11212; fill-opacity: 0.30;' />
<circle cx='216.33' cy='107.66' r='1.95' style='stroke-width: 0.71; stroke: #F11212; stroke-opacity: 0.30; fill: #F11212; fill-opacity: 0.30;' />
<circle cx='202.57' cy='91.15' r='1.95' style='stroke-width: 0.71; stroke: #F11212; stroke-opacity: 0.30; fill: #F11212; fill-opacity: 0.30;' />
<circle cx='201.70' cy='137.32' r='1.95' style='stroke-width: 0.71; stroke: #F11212; stroke-opacity: 0.30; fill: #F11212; fill-opacity: 0.30;' />
<circle cx='242.22' cy='91.49' r='1.95' style='stroke-width: 0.71; stroke: #F11212; stroke-opacity: 0.30; fill: #F11212; fill-opacity: 0.30;' />
<circle cx='218.20' cy='91.15' r='1.95' style='stroke-width: 0.71; stroke: #F11212; stroke-opacity: 0.30; fill: #F11212; fill-opacity: 0.30;' />
<circle cx='210.45' cy='91.18' r='1.95' style='stroke-width: 0.71; stroke: #F11212; stroke-opacity: 0.30; fill: #F11212; fill-opacity: 0.30;' />
<circle cx='201.70' cy='119.00' r='1.95' style='stroke-width: 0.71; stroke: #F11212; stroke-opacity: 0.30; fill: #F11212; fill-opacity: 0.30;' />
<circle cx='222.50' cy='207.14' r='1.95' style='stroke-width: 0.71; stroke: #F11212; stroke-opacity: 0.30; fill: #F11212; fill-opacity: 0.30;' />
<circle cx='245.90' cy='144.40' r='1.95' style='stroke-width: 0.71; stroke: #F11212; stroke-opacity: 0.30; fill: #F11212; fill-opacity: 0.30;' />
<circle cx='201.93' cy='160.66' r='1.95' style='stroke-width: 0.71; stroke: #F11212; stroke-opacity: 0.30; fill: #F11212; fill-opacity: 0.30;' />
<rect x='55.36' y='85.31' width='207.42' height='127.67' style='stroke-width: 1.07; stroke: #333333;' />
</g>
<g clip-path='url(#cpMC4wMHw1MDQuMDB8MC4wMHwzNjAuMDA=)'>
</g>
<defs>
  <clipPath id='cpNTUuMzZ8MjYyLjc4fDIxOC40NnwzNDYuMTM='>
    <rect x='55.36' y='218.46' width='207.42' height='127.67' />
  </clipPath>
</defs>
<g clip-path='url(#cpNTUuMzZ8MjYyLjc4fDIxOC40NnwzNDYuMTM=)'>
<rect x='55.36' y='218.46' width='207.42' height='127.67' style='stroke-width: 1.07; stroke: none; fill: #FFFFFF;' />
<polyline points='55.36,327.37 262.78,327.37 ' style='stroke-width: 0.53; stroke: #EBEBEB; stroke-linecap: butt;' />
<polyline points='55.36,297.92 262.78,297.92 ' style='stroke-width: 0.53; stroke: #EBEBEB; stroke-linecap: butt;' />
<polyline points='55.36,268.48 262.78,268.48 ' style='stroke-width: 0.53; stroke: #EBEBEB; stroke-linecap: butt;' />
<polyline points='55.36,239.03 262.78,239.03 ' style='stroke-width: 0.53; stroke: #EBEBEB; stroke-linecap: butt;' />
<polyline points='55.36,342.09 262.78,342.09 ' style='stroke-width: 1.07; stroke: #EBEBEB; stroke-linecap: butt;' />
<polyline points='55.36,312.65 262.78,312.65 ' style='stroke-width: 1.07; stroke: #EBEBEB; stroke-linecap: butt;' />
<polyline points='55.36,283.20 262.78,283.20 ' style='stroke-width: 1.07; stroke: #EBEBEB; stroke-linecap: butt;' />
<polyline points='55.36,253.76 262.78,253.76 ' style='stroke-width: 1.07; stroke: #EBEBEB; stroke-linecap: butt;' />
<polyline points='55.36,224.31 262.78,224.31 ' style='stroke-width: 1.07; stroke: #EBEBEB; stroke-linecap: butt;' />
<polyline points='94.25,346.13 94.25,218.46 ' style='stroke-width: 1.07; stroke: #EBEBEB; stroke-linecap: butt;' />
<polyline points='159.07,346.13 159.07,218.46 ' style='stroke-width: 1.07; stroke: #EBEBEB; stroke-linecap: butt;' />
<polyline points='223.89,346.13 223.89,218.46 ' style='stroke-width: 1.07; stroke: #EBEBEB; stroke-linecap: butt;' />
<circle cx='94.25' cy='231.38' r='1.95' style='stroke-width: 0.71; stroke: #333333; fill: #333333;' />
<line x1='94.25' y1='224.31' x2='94.25' y2='224.31' style='stroke-width: 1.07; stroke: #333333; stroke-linecap: butt;' />
<line x1='94.25' y1='224.31' x2='94.25' y2='224.31' style='stroke-width: 1.07; stroke: #333333; stroke-linecap: butt;' />
<polygon points='69.95,224.31 69.95,224.31 118.56,224.31 118.56,224.31 69.95,224.31 ' style='stroke-width: 1.07; stroke: #333333; stroke-linecap: butt; stroke-linejoin: miter; fill: #FFFFFF;' />
<line x1='69.95' y1='224.31' x2='118.56' y2='224.31' style='stroke-width: 2.13; stroke: #333333; stroke-linecap: butt; stroke-linejoin: miter;' />
<line x1='159.07' y1='224.96' x2='159.07' y2='224.31' style='stroke-width: 1.07; stroke: #333333; stroke-linecap: butt;' />
<line x1='159.07' y1='230.96' x2='159.07' y2='235.38' style='stroke-width: 1.07; stroke: #333333; stroke-linecap: butt;' />
<polygon points='134.76,224.96 134.76,230.96 183.38,230.96 183.38,224.96 134.76,224.96 ' style='stroke-width: 1.07; stroke: #333333; stroke-linecap: butt; stroke-linejoin: miter; fill: #FFFFFF;' />
<line x1='134.76' y1='227.02' x2='183.38' y2='227.02' style='stroke-width: 2.13; stroke: #333333; stroke-linecap: butt; stroke-linejoin: miter;' />
<line x1='223.89' y1='224.52' x2='223.89' y2='224.31' style='stroke-width: 1.07; stroke: #333333; stroke-linecap: butt;' />
<line x1='223.89' y1='227.28' x2='223.89' y2='229.37' style='stroke-width: 1.07; stroke: #333333; stroke-linecap: butt;' />
<polygon points='199.58,224.52 199.58,227.28 248.20,227.28 248.20,224.52 199.58,224.52 ' style='stroke-width: 1.07; stroke: #333333; stroke-linecap: butt; stroke-linejoin: miter; fill: #FFFFFF;' />
<line x1='199.58' y1='225.02' x2='248.20' y2='225.02' style='stroke-width: 2.13; stroke: #333333; stroke-linecap: butt; stroke-linejoin: miter;' />
<circle cx='68.64' cy='231.41' r='1.95' style='stroke-width: 0.71; stroke: #00FF93; stroke-opacity: 0.30; fill: #00FF93; fill-opacity: 0.30;' />
<circle cx='110.45' cy='224.30' r='1.95' style='stroke-width: 0.71; stroke: #00FF93; stroke-opacity: 0.30; fill: #00FF93; fill-opacity: 0.30;' />
<circle cx='82.34' cy='224.29' r='1.95' style='stroke-width: 0.71; stroke: #00FF93; stroke-opacity: 0.30; fill: #00FF93; fill-opacity: 0.30;' />
<circle cx='70.07' cy='224.29' r='1.95' style='stroke-width: 0.71; stroke: #00FF93; stroke-opacity: 0.30; fill: #00FF93; fill-opacity: 0.30;' />
<circle cx='99.98' cy='224.29' r='1.95' style='stroke-width: 0.71; stroke: #00FF93; stroke-opacity: 0.30; fill: #00FF93; fill-opacity: 0.30;' />
<circle cx='107.28' cy='224.36' r='1.95' style='stroke-width: 0.71; stroke: #00FF93; stroke-opacity: 0.30; fill: #00FF93; fill-opacity: 0.30;' />
<circle cx='86.65' cy='224.33' r='1.95' style='stroke-width: 0.71; stroke: #00FF93; stroke-opacity: 0.30; fill: #00FF93; fill-opacity: 0.30;' />
<circle cx='116.67' cy='224.33' r='1.95' style='stroke-width: 0.71; stroke: #00FF93; stroke-opacity: 0.30; fill: #00FF93; fill-opacity: 0.30;' />
<circle cx='118.31' cy='224.35' r='1.95' style='stroke-width: 0.71; stroke: #00FF93; stroke-opacity: 0.30; fill: #00FF93; fill-opacity: 0.30;' />
<circle cx='133.66' cy='224.27' r='1.95' style='stroke-width: 0.71; stroke: #FFC300; stroke-opacity: 0.30; fill: #FFC300; fill-opacity: 0.30;' />
<circle cx='174.73' cy='230.56' r='1.95' style='stroke-width: 0.71; stroke: #FFC300; stroke-opacity: 0.30; fill: #FFC300; fill-opacity: 0.30;' />
<circle cx='157.69' cy='226.98' r='1.95' style='stroke-width: 0.71; stroke: #FFC300; stroke-opacity: 0.30; fill: #FFC300; fill-opacity: 0.30;' />
<circle cx='147.51' cy='235.41' r='1.95' style='stroke-width: 0.71; stroke: #FFC300; stroke-opacity: 0.30; fill: #FFC300; fill-opacity: 0.30;' />
<circle cx='168.96' cy='231.37' r='1.95' style='stroke-width: 0.71; stroke: #FFC300; stroke-opacity: 0.30; fill: #FFC300; fill-opacity: 0.30;' />
<circle cx='180.88' cy='226.91' r='1.95' style='stroke-width: 0.71; stroke: #FFC300; stroke-opacity: 0.30; fill: #FFC300; fill-opacity: 0.30;' />
<circle cx='153.66' cy='231.45' r='1.95' style='stroke-width: 0.71; stroke: #FFC300; stroke-opacity: 0.30; fill: #FFC300; fill-opacity: 0.30;' />
<circle cx='153.66' cy='227.01' r='1.95' style='stroke-width: 0.71; stroke: #FFC300; stroke-opacity: 0.30; fill: #FFC300; fill-opacity: 0.30;' />
<circle cx='143.95' cy='224.32' r='1.95' style='stroke-width: 0.71; stroke: #FFC300; stroke-opacity: 0.30; fill: #FFC300; fill-opacity: 0.30;' />
<circle cx='144.50' cy='224.35' r='1.95' style='stroke-width: 0.71; stroke: #FFC300; stroke-opacity: 0.30; fill: #FFC300; fill-opacity: 0.30;' />
<circle cx='175.18' cy='225.58' r='1.95' style='stroke-width: 0.71; stroke: #FFC300; stroke-opacity: 0.30; fill: #FFC300; fill-opacity: 0.30;' />
<circle cx='219.71' cy='227.92' r='1.95' style='stroke-width: 0.71; stroke: #F11212; stroke-opacity: 0.30; fill: #F11212; fill-opacity: 0.30;' />
<circle cx='210.45' cy='224.76' r='1.95' style='stroke-width: 0.71; stroke: #F11212; stroke-opacity: 0.30; fill: #F11212; fill-opacity: 0.30;' />
<circle cx='222.45' cy='224.35' r='1.95' style='stroke-width: 0.71; stroke: #F11212; stroke-opacity: 0.30; fill: #F11212; fill-opacity: 0.30;' />
<circle cx='216.62' cy='225.25' r='1.95' style='stroke-width: 0.71; stroke: #F11212; stroke-opacity: 0.30; fill: #F11212; fill-opacity: 0.30;' />
<circle cx='229.70' cy='229.41' r='1.95' style='stroke-width: 0.71; stroke: #F11212; stroke-opacity: 0.30; fill: #F11212; fill-opacity: 0.30;' />
<circle cx='249.05' cy='224.39' r='1.95' style='stroke-width: 0.71; stroke: #F11212; stroke-opacity: 0.30; fill: #F11212; fill-opacity: 0.30;' />
<rect x='55.36' y='218.46' width='207.42' height='127.67' style='stroke-width: 1.07; stroke: #333333;' />
</g>
<g clip-path='url(#cpMC4wMHw1MDQuMDB8MC4wMHwzNjAuMDA=)'>
</g>
<defs>
  <clipPath id='cpMjY4LjI2fDQ3NS42OHw4NS4zMXwyMTIuOTg='>
    <rect x='268.26' y='85.31' width='207.42' height='127.67' />
  </clipPath>
</defs>
<g clip-path='url(#cpMjY4LjI2fDQ3NS42OHw4NS4zMXwyMTIuOTg=)'>
<rect x='268.26' y='85.31' width='207.42' height='127.67' style='stroke-width: 1.07; stroke: none; fill: #FFFFFF;' />
<polyline points='268.26,194.22 475.68,194.22 ' style='stroke-width: 0.53; stroke: #EBEBEB; stroke-linecap: butt;' />
<polyline points='268.26,164.78 475.68,164.78 ' style='stroke-width: 0.53; stroke: #EBEBEB; stroke-linecap: butt;' />
<polyline points='268.26,135.33 475.68,135.33 ' style='stroke-width: 0.53; stroke: #EBEBEB; stroke-linecap: butt;' />
<polyline points='268.26,105.88 475.68,105.88 ' style='stroke-width: 0.53; stroke: #EBEBEB; stroke-linecap: butt;' />
<polyline points='268.26,208.95 475.68,208.95 ' style='stroke-width: 1.07; stroke: #EBEBEB; stroke-linecap: butt;' />
<polyline points='268.26,179.50 475.68,179.50 ' style='stroke-width: 1.07; stroke: #EBEBEB; stroke-linecap: butt;' />
<polyline points='268.26,150.05 475.68,150.05 ' style='stroke-width: 1.07; stroke: #EBEBEB; stroke-linecap: butt;' />
<polyline points='268.26,120.61 475.68,120.61 ' style='stroke-width: 1.07; stroke: #EBEBEB; stroke-linecap: butt;' />
<polyline points='268.26,91.16 475.68,91.16 ' style='stroke-width: 1.07; stroke: #EBEBEB; stroke-linecap: butt;' />
<polyline points='307.15,212.98 307.15,85.31 ' style='stroke-width: 1.07; stroke: #EBEBEB; stroke-linecap: butt;' />
<polyline points='371.97,212.98 371.97,85.31 ' style='stroke-width: 1.07; stroke: #EBEBEB; stroke-linecap: butt;' />
<polyline points='436.79,212.98 436.79,85.31 ' style='stroke-width: 1.07; stroke: #EBEBEB; stroke-linecap: butt;' />
<line x1='307.15' y1='101.91' x2='307.15' y2='92.22' style='stroke-width: 1.07; stroke: #333333; stroke-linecap: butt;' />
<line x1='307.15' y1='162.98' x2='307.15' y2='181.62' style='stroke-width: 1.07; stroke: #333333; stroke-linecap: butt;' />
<polygon points='282.85,101.91 282.85,162.98 331.46,162.98 331.46,101.91 282.85,101.91 ' style='stroke-width: 1.07; stroke: #333333; stroke-linecap: butt; stroke-linejoin: miter; fill: #FFFFFF;' />
<line x1='282.85' y1='109.54' x2='331.46' y2='109.54' style='stroke-width: 2.13; stroke: #333333; stroke-linecap: butt; stroke-linejoin: miter;' />
<line x1='371.97' y1='98.55' x2='371.97' y2='92.22' style='stroke-width: 1.07; stroke: #333333; stroke-linecap: butt;' />
<line x1='371.97' y1='120.76' x2='371.97' y2='152.06' style='stroke-width: 1.07; stroke: #333333; stroke-linecap: butt;' />
<polygon points='347.67,98.55 347.67,120.76 396.28,120.76 396.28,98.55 347.67,98.55 ' style='stroke-width: 1.07; stroke: #333333; stroke-linecap: butt; stroke-linejoin: miter; fill: #FFFFFF;' />
<line x1='347.67' y1='101.70' x2='396.28' y2='101.70' style='stroke-width: 2.13; stroke: #333333; stroke-linecap: butt; stroke-linejoin: miter;' />
<line x1='436.79' y1='95.76' x2='436.79' y2='91.87' style='stroke-width: 1.07; stroke: #333333; stroke-linecap: butt;' />
<line x1='436.79' y1='178.50' x2='436.79' y2='206.83' style='stroke-width: 1.07; stroke: #333333; stroke-linecap: butt;' />
<polygon points='412.48,95.76 412.48,178.50 461.10,178.50 461.10,95.76 412.48,95.76 ' style='stroke-width: 1.07; stroke: #333333; stroke-linecap: butt; stroke-linejoin: miter; fill: #FFFFFF;' />
<line x1='412.48' y1='105.41' x2='461.10' y2='105.41' style='stroke-width: 2.13; stroke: #333333; stroke-linecap: butt; stroke-linejoin: miter;' />
<circle cx='313.65' cy='102.48' r='1.95' style='stroke-width: 0.71; stroke: #00FF93; stroke-opacity: 0.30; fill: #00FF93; fill-opacity: 0.30;' />
<circle cx='290.38' cy='94.80' r='1.95' style='stroke-width: 0.71; stroke: #00FF93; stroke-opacity: 0.30; fill: #00FF93; fill-opacity: 0.30;' />
<circle cx='287.05' cy='116.28' r='1.95' style='stroke-width: 0.71; stroke: #00FF93; stroke-opacity: 0.30; fill: #00FF93; fill-opacity: 0.30;' />
<circle cx='313.82' cy='100.22' r='1.95' style='stroke-width: 0.71; stroke: #00FF93; stroke-opacity: 0.30; fill: #00FF93; fill-opacity: 0.30;' />
<circle cx='314.64' cy='178.78' r='1.95' style='stroke-width: 0.71; stroke: #00FF93; stroke-opacity: 0.30; fill: #00FF93; fill-opacity: 0.30;' />
<circle cx='299.95' cy='178.40' r='1.95' style='stroke-width: 0.71; stroke: #00FF93; stroke-opacity: 0.30; fill: #00FF93; fill-opacity: 0.30;' />
<circle cx='319.52' cy='92.21' r='1.95' style='stroke-width: 0.71; stroke: #00FF93; stroke-opacity: 0.30; fill: #00FF93; fill-opacity: 0.30;' />
<circle cx='321.58' cy='103.74' r='1.95' style='stroke-width: 0.71; stroke: #00FF93; stroke-opacity: 0.30; fill: #00FF93; fill-opacity: 0.30;' />
<circle cx='308.13' cy='181.58' r='1.95' style='stroke-width: 0.71; stroke: #00FF93; stroke-opacity: 0.30; fill: #00FF93; fill-opacity: 0.30;' />
<circle cx='291.10' cy='104.78' r='1.95' style='stroke-width: 0.71; stroke: #00FF93; stroke-opacity: 0.30; fill: #00FF93; fill-opacity: 0.30;' />
<circle cx='288.71' cy='114.22' r='1.95' style='stroke-width: 0.71; stroke: #00FF93; stroke-opacity: 0.30; fill: #00FF93; fill-opacity: 0.30;' />
<circle cx='287.05' cy='157.87' r='1.95' style='stroke-width: 0.71; stroke: #00FF93; stroke-opacity: 0.30; fill: #00FF93; fill-opacity: 0.30;' />
<circle cx='384.15' cy='102.51' r='1.95' style='stroke-width: 0.71; stroke: #FFC300; stroke-opacity: 0.30; fill: #FFC300; fill-opacity: 0.30;' />
<circle cx='373.04' cy='94.84' r='1.95' style='stroke-width: 0.71; stroke: #FFC300; stroke-opacity: 0.30; fill: #FFC300; fill-opacity: 0.30;' />
<circle cx='350.45' cy='112.99' r='1.95' style='stroke-width: 0.71; stroke: #FFC300; stroke-opacity: 0.30; fill: #FFC300; fill-opacity: 0.30;' />
<circle cx='384.56' cy='97.78' r='1.95' style='stroke-width: 0.71; stroke: #FFC300; stroke-opacity: 0.30; fill: #FFC300; fill-opacity: 0.30;' />
<circle cx='367.77' cy='138.13' r='1.95' style='stroke-width: 0.71; stroke: #FFC300; stroke-opacity: 0.30; fill: #FFC300; fill-opacity: 0.30;' />
<circle cx='369.03' cy='139.01' r='1.95' style='stroke-width: 0.71; stroke: #FFC300; stroke-opacity: 0.30; fill: #FFC300; fill-opacity: 0.30;' />
<circle cx='371.22' cy='92.25' r='1.95' style='stroke-width: 0.71; stroke: #FFC300; stroke-opacity: 0.30; fill: #FFC300; fill-opacity: 0.30;' />
<circle cx='378.78' cy='98.83' r='1.95' style='stroke-width: 0.71; stroke: #FFC300; stroke-opacity: 0.30; fill: #FFC300; fill-opacity: 0.30;' />
<circle cx='346.64' cy='100.14' r='1.95' style='stroke-width: 0.71; stroke: #FFC300; stroke-opacity: 0.30; fill: #FFC300; fill-opacity: 0.30;' />
<circle cx='386.17' cy='100.96' r='1.95' style='stroke-width: 0.71; stroke: #FFC300; stroke-opacity: 0.30; fill: #FFC300; fill-opacity: 0.30;' />
<circle cx='380.89' cy='115.00' r='1.95' style='stroke-width: 0.71; stroke: #FFC300; stroke-opacity: 0.30; fill: #FFC300; fill-opacity: 0.30;' />
<circle cx='389.80' cy='152.06' r='1.95' style='stroke-width: 0.71; stroke: #FFC300; stroke-opacity: 0.30; fill: #FFC300; fill-opacity: 0.30;' />
<circle cx='460.05' cy='91.83' r='1.95' style='stroke-width: 0.71; stroke: #F11212; stroke-opacity: 0.30; fill: #F11212; fill-opacity: 0.30;' />
<circle cx='434.24' cy='93.43' r='1.95' style='stroke-width: 0.71; stroke: #F11212; stroke-opacity: 0.30; fill: #F11212; fill-opacity: 0.30;' />
<circle cx='428.09' cy='178.88' r='1.95' style='stroke-width: 0.71; stroke: #F11212; stroke-opacity: 0.30; fill: #F11212; fill-opacity: 0.30;' />
<circle cx='430.97' cy='96.61' r='1.95' style='stroke-width: 0.71; stroke: #F11212; stroke-opacity: 0.30; fill: #F11212; fill-opacity: 0.30;' />
<circle cx='448.43' cy='178.67' r='1.95' style='stroke-width: 0.71; stroke: #F11212; stroke-opacity: 0.30; fill: #F11212; fill-opacity: 0.30;' />
<circle cx='451.99' cy='178.36' r='1.95' style='stroke-width: 0.71; stroke: #F11212; stroke-opacity: 0.30; fill: #F11212; fill-opacity: 0.30;' />
<circle cx='446.80' cy='96.21' r='1.95' style='stroke-width: 0.71; stroke: #F11212; stroke-opacity: 0.30; fill: #F11212; fill-opacity: 0.30;' />
<circle cx='445.65' cy='206.83' r='1.95' style='stroke-width: 0.71; stroke: #F11212; stroke-opacity: 0.30; fill: #F11212; fill-opacity: 0.30;' />
<circle cx='429.68' cy='95.32' r='1.95' style='stroke-width: 0.71; stroke: #F11212; stroke-opacity: 0.30; fill: #F11212; fill-opacity: 0.30;' />
<circle cx='417.51' cy='176.92' r='1.95' style='stroke-width: 0.71; stroke: #F11212; stroke-opacity: 0.30; fill: #F11212; fill-opacity: 0.30;' />
<circle cx='438.49' cy='105.44' r='1.95' style='stroke-width: 0.71; stroke: #F11212; stroke-opacity: 0.30; fill: #F11212; fill-opacity: 0.30;' />
<rect x='268.26' y='85.31' width='207.42' height='127.67' style='stroke-width: 1.07; stroke: #333333;' />
</g>
<g clip-path='url(#cpMC4wMHw1MDQuMDB8MC4wMHwzNjAuMDA=)'>
</g>
<defs>
  <clipPath id='cpMjY4LjI2fDQ3NS42OHwyMTguNDZ8MzQ2LjEz'>
    <rect x='268.26' y='218.46' width='207.42' height='127.67' />
  </clipPath>
</defs>
<g clip-path='url(#cpMjY4LjI2fDQ3NS42OHwyMTguNDZ8MzQ2LjEz)'>
<rect x='268.26' y='218.46' width='207.42' height='127.67' style='stroke-width: 1.07; stroke: none; fill: #FFFFFF;' />
<polyline points='268.26,327.37 475.68,327.37 ' style='stroke-width: 0.53; stroke: #EBEBEB; stroke-linecap: butt;' />
<polyline points='268.26,297.92 475.68,297.92 ' style='stroke-width: 0.53; stroke: #EBEBEB; stroke-linecap: butt;' />
<polyline points='268.26,268.48 475.68,268.48 ' style='stroke-width: 0.53; stroke: #EBEBEB; stroke-linecap: butt;' />
<polyline points='268.26,239.03 475.68,239.03 ' style='stroke-width: 0.53; stroke: #EBEBEB; stroke-linecap: butt;' />
<polyline points='268.26,342.09 475.68,342.09 ' style='stroke-width: 1.07; stroke: #EBEBEB; stroke-linecap: butt;' />
<polyline points='268.26,312.65 475.68,312.65 ' style='stroke-width: 1.07; stroke: #EBEBEB; stroke-linecap: butt;' />
<polyline points='268.26,283.20 475.68,283.20 ' style='stroke-width: 1.07; stroke: #EBEBEB; stroke-linecap: butt;' />
<polyline points='268.26,253.76 475.68,253.76 ' style='stroke-width: 1.07; stroke: #EBEBEB; stroke-linecap: butt;' />
<polyline points='268.26,224.31 475.68,224.31 ' style='stroke-width: 1.07; stroke: #EBEBEB; stroke-linecap: butt;' />
<polyline points='307.15,346.13 307.15,218.46 ' style='stroke-width: 1.07; stroke: #EBEBEB; stroke-linecap: butt;' />
<polyline points='371.97,346.13 371.97,218.46 ' style='stroke-width: 1.07; stroke: #EBEBEB; stroke-linecap: butt;' />
<polyline points='436.79,346.13 436.79,218.46 ' style='stroke-width: 1.07; stroke: #EBEBEB; stroke-linecap: butt;' />
<circle cx='307.15' cy='282.49' r='1.95' style='stroke-width: 0.71; stroke: #333333; fill: #333333;' />
<line x1='307.15' y1='224.52' x2='307.15' y2='224.31' style='stroke-width: 1.07; stroke: #333333; stroke-linecap: butt;' />
<line x1='307.15' y1='240.15' x2='307.15' y2='247.75' style='stroke-width: 1.07; stroke: #333333; stroke-linecap: butt;' />
<polygon points='282.85,224.52 282.85,240.15 331.46,240.15 331.46,224.52 282.85,224.52 ' style='stroke-width: 1.07; stroke: #333333; stroke-linecap: butt; stroke-linejoin: miter; fill: #FFFFFF;' />
<line x1='282.85' y1='229.84' x2='331.46' y2='229.84' style='stroke-width: 2.13; stroke: #333333; stroke-linecap: butt; stroke-linejoin: miter;' />
<circle cx='371.97' cy='270.60' r='1.95' style='stroke-width: 0.71; stroke: #333333; fill: #333333;' />
<line x1='371.97' y1='224.46' x2='371.97' y2='224.31' style='stroke-width: 1.07; stroke: #333333; stroke-linecap: butt;' />
<line x1='371.97' y1='236.79' x2='371.97' y2='247.75' style='stroke-width: 1.07; stroke: #333333; stroke-linecap: butt;' />
<polygon points='347.67,224.46 347.67,236.79 396.28,236.79 396.28,224.46 347.67,224.46 ' style='stroke-width: 1.07; stroke: #333333; stroke-linecap: butt; stroke-linejoin: miter; fill: #FFFFFF;' />
<line x1='347.67' y1='225.25' x2='396.28' y2='225.25' style='stroke-width: 2.13; stroke: #333333; stroke-linecap: butt; stroke-linejoin: miter;' />
<line x1='436.79' y1='224.49' x2='436.79' y2='224.43' style='stroke-width: 1.07; stroke: #333333; stroke-linecap: butt;' />
<line x1='436.79' y1='275.19' x2='436.79' y2='335.97' style='stroke-width: 1.07; stroke: #333333; stroke-linecap: butt;' />
<polygon points='412.48,224.49 412.48,275.19 461.10,275.19 461.10,224.49 412.48,224.49 ' style='stroke-width: 1.07; stroke: #333333; stroke-linecap: butt; stroke-linejoin: miter; fill: #FFFFFF;' />
<line x1='412.48' y1='236.44' x2='461.10' y2='236.44' style='stroke-width: 2.13; stroke: #333333; stroke-linecap: butt; stroke-linejoin: miter;' />
<circle cx='308.51' cy='224.52' r='1.95' style='stroke-width: 0.71; stroke: #00FF93; stroke-opacity: 0.30; fill: #00FF93; fill-opacity: 0.30;' />
<circle cx='319.82' cy='237.59' r='1.95' style='stroke-width: 0.71; stroke: #00FF93; stroke-opacity: 0.30; fill: #00FF93; fill-opacity: 0.30;' />
<circle cx='315.84' cy='224.40' r='1.95' style='stroke-width: 0.71; stroke: #00FF93; stroke-opacity: 0.30; fill: #00FF93; fill-opacity: 0.30;' />
<circle cx='324.20' cy='247.75' r='1.95' style='stroke-width: 0.71; stroke: #00FF93; stroke-opacity: 0.30; fill: #00FF93; fill-opacity: 0.30;' />
<circle cx='287.42' cy='225.33' r='1.95' style='stroke-width: 0.71; stroke: #00FF93; stroke-opacity: 0.30; fill: #00FF93; fill-opacity: 0.30;' />
<circle cx='302.23' cy='282.46' r='1.95' style='stroke-width: 0.71; stroke: #00FF93; stroke-opacity: 0.30; fill: #00FF93; fill-opacity: 0.30;' />
<circle cx='322.92' cy='234.35' r='1.95' style='stroke-width: 0.71; stroke: #00FF93; stroke-opacity: 0.30; fill: #00FF93; fill-opacity: 0.30;' />
<circle cx='328.80' cy='224.34' r='1.95' style='stroke-width: 0.71; stroke: #00FF93; stroke-opacity: 0.30; fill: #00FF93; fill-opacity: 0.30;' />
<circle cx='395.38' cy='224.51' r='1.95' style='stroke-width: 0.71; stroke: #FFC300; stroke-opacity: 0.30; fill: #FFC300; fill-opacity: 0.30;' />
<circle cx='372.72' cy='237.61' r='1.95' style='stroke-width: 0.71; stroke: #FFC300; stroke-opacity: 0.30; fill: #FFC300; fill-opacity: 0.30;' />
<circle cx='379.77' cy='224.43' r='1.95' style='stroke-width: 0.71; stroke: #FFC300; stroke-opacity: 0.30; fill: #FFC300; fill-opacity: 0.30;' />
<circle cx='374.05' cy='247.72' r='1.95' style='stroke-width: 0.71; stroke: #FFC300; stroke-opacity: 0.30; fill: #FFC300; fill-opacity: 0.30;' />
<circle cx='393.22' cy='224.44' r='1.95' style='stroke-width: 0.71; stroke: #FFC300; stroke-opacity: 0.30; fill: #FFC300; fill-opacity: 0.30;' />
<circle cx='360.64' cy='225.35' r='1.95' style='stroke-width: 0.71; stroke: #FFC300; stroke-opacity: 0.30; fill: #FFC300; fill-opacity: 0.30;' />
<circle cx='364.42' cy='225.13' r='1.95' style='stroke-width: 0.71; stroke: #FFC300; stroke-opacity: 0.30; fill: #FFC300; fill-opacity: 0.30;' />
<circle cx='382.26' cy='270.62' r='1.95' style='stroke-width: 0.71; stroke: #FFC300; stroke-opacity: 0.30; fill: #FFC300; fill-opacity: 0.30;' />
<circle cx='370.15' cy='234.32' r='1.95' style='stroke-width: 0.71; stroke: #FFC300; stroke-opacity: 0.30; fill: #FFC300; fill-opacity: 0.30;' />
<circle cx='394.45' cy='224.27' r='1.95' style='stroke-width: 0.71; stroke: #FFC300; stroke-opacity: 0.30; fill: #FFC300; fill-opacity: 0.30;' />
<circle cx='435.62' cy='224.47' r='1.95' style='stroke-width: 0.71; stroke: #F11212; stroke-opacity: 0.30; fill: #F11212; fill-opacity: 0.30;' />
<circle cx='452.12' cy='236.43' r='1.95' style='stroke-width: 0.71; stroke: #F11212; stroke-opacity: 0.30; fill: #F11212; fill-opacity: 0.30;' />
<circle cx='454.76' cy='247.01' r='1.95' style='stroke-width: 0.71; stroke: #F11212; stroke-opacity: 0.30; fill: #F11212; fill-opacity: 0.30;' />
<circle cx='440.65' cy='224.51' r='1.95' style='stroke-width: 0.71; stroke: #F11212; stroke-opacity: 0.30; fill: #F11212; fill-opacity: 0.30;' />
<circle cx='437.06' cy='303.37' r='1.95' style='stroke-width: 0.71; stroke: #F11212; stroke-opacity: 0.30; fill: #F11212; fill-opacity: 0.30;' />
<circle cx='456.06' cy='335.98' r='1.95' style='stroke-width: 0.71; stroke: #F11212; stroke-opacity: 0.30; fill: #F11212; fill-opacity: 0.30;' />
<circle cx='417.66' cy='224.45' r='1.95' style='stroke-width: 0.71; stroke: #F11212; stroke-opacity: 0.30; fill: #F11212; fill-opacity: 0.30;' />
<rect x='268.26' y='218.46' width='207.42' height='127.67' style='stroke-width: 1.07; stroke: #333333;' />
</g>
<g clip-path='url(#cpMC4wMHw1MDQuMDB8MC4wMHwzNjAuMDA=)'>
</g>
<defs>
  <clipPath id='cpNTUuMzZ8MjYyLjc4fDYyLjQ4fDg1LjMx'>
    <rect x='55.36' y='62.48' width='207.42' height='22.84' />
  </clipPath>
</defs>
<g clip-path='url(#cpNTUuMzZ8MjYyLjc4fDYyLjQ4fDg1LjMx)'>
<rect x='55.36' y='62.48' width='207.42' height='22.84' style='stroke-width: 1.07; stroke: #333333; fill: #D9D9D9;' />
<text x='159.07' y='79.28' text-anchor='middle' style='font-size: 15.00px;fill: #1A1A1A; font-family: "Arial";' textLength='60.04px' lengthAdjust='spacingAndGlyphs'>accuracy</text>
</g>
<g clip-path='url(#cpMC4wMHw1MDQuMDB8MC4wMHwzNjAuMDA=)'>
</g>
<defs>
  <clipPath id='cpMjY4LjI2fDQ3NS42OHw2Mi40OHw4NS4zMQ=='>
    <rect x='268.26' y='62.48' width='207.42' height='22.84' />
  </clipPath>
</defs>
<g clip-path='url(#cpMjY4LjI2fDQ3NS42OHw2Mi40OHw4NS4zMQ==)'>
<rect x='268.26' y='62.48' width='207.42' height='22.84' style='stroke-width: 1.07; stroke: #333333; fill: #D9D9D9;' />
<text x='371.97' y='79.28' text-anchor='middle' style='font-size: 15.00px;fill: #1A1A1A; font-family: "Arial";' textLength='92.57px' lengthAdjust='spacingAndGlyphs'>completeness</text>
</g>
<g clip-path='url(#cpMC4wMHw1MDQuMDB8MC4wMHwzNjAuMDA=)'>
</g>
<defs>
  <clipPath id='cpNDc1LjY4fDQ5OC41Mnw4NS4zMXwyMTIuOTg='>
    <rect x='475.68' y='85.31' width='22.84' height='127.67' />
  </clipPath>
</defs>
<g clip-path='url(#cpNDc1LjY4fDQ5OC41Mnw4NS4zMXwyMTIuOTg=)'>
<rect x='475.68' y='85.31' width='22.84' height='127.67' style='stroke-width: 1.07; stroke: #333333; fill: #D9D9D9;' />
<text transform='translate(481.72,149.15) rotate(90)' text-anchor='middle' style='font-size: 15.00px;fill: #1A1A1A; font-family: "Arial";' textLength='89.20px' lengthAdjust='spacingAndGlyphs'>ARG-plasmid</text>
</g>
<g clip-path='url(#cpMC4wMHw1MDQuMDB8MC4wMHwzNjAuMDA=)'>
</g>
<defs>
  <clipPath id='cpNDc1LjY4fDQ5OC41MnwyMTguNDZ8MzQ2LjEz'>
    <rect x='475.68' y='218.46' width='22.84' height='127.67' />
  </clipPath>
</defs>
<g clip-path='url(#cpNDc1LjY4fDQ5OC41MnwyMTguNDZ8MzQ2LjEz)'>
<rect x='475.68' y='218.46' width='22.84' height='127.67' style='stroke-width: 1.07; stroke: #333333; fill: #D9D9D9;' />
<text transform='translate(481.72,282.30) rotate(90)' text-anchor='middle' style='font-size: 15.00px;fill: #1A1A1A; font-family: "Arial";' textLength='119.23px' lengthAdjust='spacingAndGlyphs'>non-ARG-plasmid</text>
</g>
<g clip-path='url(#cpMC4wMHw1MDQuMDB8MC4wMHwzNjAuMDA=)'>
<polyline points='94.25,348.87 94.25,346.13 ' style='stroke-width: 1.07; stroke: #333333; stroke-linecap: butt;' />
<polyline points='159.07,348.87 159.07,346.13 ' style='stroke-width: 1.07; stroke: #333333; stroke-linecap: butt;' />
<polyline points='223.89,348.87 223.89,346.13 ' style='stroke-width: 1.07; stroke: #333333; stroke-linecap: butt;' />
<text transform='translate(94.76,351.57) rotate(-45)' text-anchor='end' style='font-size: 0.00px;fill: #4D4D4D; font-family: "Arial";' textLength='2.94px' lengthAdjust='spacingAndGlyphs'>gplas2</text>
<text transform='translate(159.58,351.57) rotate(-45)' text-anchor='end' style='font-size: 0.00px;fill: #4D4D4D; font-family: "Arial";' textLength='4.72px' lengthAdjust='spacingAndGlyphs'>MOB-suite</text>
<text transform='translate(224.40,351.57) rotate(-45)' text-anchor='end' style='font-size: 0.00px;fill: #4D4D4D; font-family: "Arial";' textLength='7.06px' lengthAdjust='spacingAndGlyphs'>plasmidSPAdes</text>
<polyline points='307.15,348.87 307.15,346.13 ' style='stroke-width: 1.07; stroke: #333333; stroke-linecap: butt;' />
<polyline points='371.97,348.87 371.97,346.13 ' style='stroke-width: 1.07; stroke: #333333; stroke-linecap: butt;' />
<polyline points='436.79,348.87 436.79,346.13 ' style='stroke-width: 1.07; stroke: #333333; stroke-linecap: butt;' />
<text transform='translate(307.66,351.57) rotate(-45)' text-anchor='end' style='font-size: 0.00px;fill: #4D4D4D; font-family: "Arial";' textLength='2.94px' lengthAdjust='spacingAndGlyphs'>gplas2</text>
<text transform='translate(372.48,351.57) rotate(-45)' text-anchor='end' style='font-size: 0.00px;fill: #4D4D4D; font-family: "Arial";' textLength='4.72px' lengthAdjust='spacingAndGlyphs'>MOB-suite</text>
<text transform='translate(437.30,351.57) rotate(-45)' text-anchor='end' style='font-size: 0.00px;fill: #4D4D4D; font-family: "Arial";' textLength='7.06px' lengthAdjust='spacingAndGlyphs'>plasmidSPAdes</text>
<text x='50.43' y='213.61' text-anchor='end' style='font-size: 13.00px;fill: #4D4D4D; font-family: "Arial";' textLength='25.30px' lengthAdjust='spacingAndGlyphs'>0.00</text>
<text x='50.43' y='184.16' text-anchor='end' style='font-size: 13.00px;fill: #4D4D4D; font-family: "Arial";' textLength='25.30px' lengthAdjust='spacingAndGlyphs'>0.25</text>
<text x='50.43' y='154.72' text-anchor='end' style='font-size: 13.00px;fill: #4D4D4D; font-family: "Arial";' textLength='25.30px' lengthAdjust='spacingAndGlyphs'>0.50</text>
<text x='50.43' y='125.27' text-anchor='end' style='font-size: 13.00px;fill: #4D4D4D; font-family: "Arial";' textLength='25.30px' lengthAdjust='spacingAndGlyphs'>0.75</text>
<text x='50.43' y='95.82' text-anchor='end' style='font-size: 13.00px;fill: #4D4D4D; font-family: "Arial";' textLength='25.30px' lengthAdjust='spacingAndGlyphs'>1.00</text>
<polyline points='52.62,208.95 55.36,208.95 ' style='stroke-width: 1.07; stroke: #333333; stroke-linecap: butt;' />
<polyline points='52.62,179.50 55.36,179.50 ' style='stroke-width: 1.07; stroke: #333333; stroke-linecap: butt;' />
<polyline points='52.62,150.05 55.36,150.05 ' style='stroke-width: 1.07; stroke: #333333; stroke-linecap: butt;' />
<polyline points='52.62,120.61 55.36,120.61 ' style='stroke-width: 1.07; stroke: #333333; stroke-linecap: butt;' />
<polyline points='52.62,91.16 55.36,91.16 ' style='stroke-width: 1.07; stroke: #333333; stroke-linecap: butt;' />
<text x='50.43' y='346.76' text-anchor='end' style='font-size: 13.00px;fill: #4D4D4D; font-family: "Arial";' textLength='25.30px' lengthAdjust='spacingAndGlyphs'>0.00</text>
<text x='50.43' y='317.31' text-anchor='end' style='font-size: 13.00px;fill: #4D4D4D; font-family: "Arial";' textLength='25.30px' lengthAdjust='spacingAndGlyphs'>0.25</text>
<text x='50.43' y='287.86' text-anchor='end' style='font-size: 13.00px;fill: #4D4D4D; font-family: "Arial";' textLength='25.30px' lengthAdjust='spacingAndGlyphs'>0.50</text>
<text x='50.43' y='258.42' text-anchor='end' style='font-size: 13.00px;fill: #4D4D4D; font-family: "Arial";' textLength='25.30px' lengthAdjust='spacingAndGlyphs'>0.75</text>
<text x='50.43' y='228.97' text-anchor='end' style='font-size: 13.00px;fill: #4D4D4D; font-family: "Arial";' textLength='25.30px' lengthAdjust='spacingAndGlyphs'>1.00</text>
<polyline points='52.62,342.09 55.36,342.09 ' style='stroke-width: 1.07; stroke: #333333; stroke-linecap: butt;' />
<polyline points='52.62,312.65 55.36,312.65 ' style='stroke-width: 1.07; stroke: #333333; stroke-linecap: butt;' />
<polyline points='52.62,283.20 55.36,283.20 ' style='stroke-width: 1.07; stroke: #333333; stroke-linecap: butt;' />
<polyline points='52.62,253.76 55.36,253.76 ' style='stroke-width: 1.07; stroke: #333333; stroke-linecap: butt;' />
<polyline points='52.62,224.31 55.36,224.31 ' style='stroke-width: 1.07; stroke: #333333; stroke-linecap: butt;' />
<text x='265.52' y='354.52' text-anchor='middle' style='font-size: 0.00px; font-weight: bold; font-family: "Arial";' textLength='4.22px' lengthAdjust='spacingAndGlyphs'>Software</text>
<text transform='translate(18.43,215.72) rotate(-90)' text-anchor='middle' style='font-size: 18.00px; font-weight: bold; font-family: "Arial";' textLength='48.02px' lengthAdjust='spacingAndGlyphs'>Value</text>
<rect x='100.40' y='23.28' width='330.24' height='28.24' style='stroke-width: 1.07; stroke: none; fill: #FFFFFF;' />
<text x='105.88' y='37.76' style='font-size: 0.00px; font-family: "Arial";' textLength='3.77px' lengthAdjust='spacingAndGlyphs'>software</text>
<rect x='105.88' y='28.76' width='17.28' height='17.28' style='stroke-width: 1.07; stroke: none; fill: #FFFFFF;' />
<circle cx='114.52' cy='37.40' r='1.95' style='stroke-width: 0.71; stroke: #00FF93; stroke-opacity: 0.30; fill: #00FF93; fill-opacity: 0.30;' />
<rect x='176.19' y='28.76' width='17.28' height='17.28' style='stroke-width: 1.07; stroke: none; fill: #FFFFFF;' />
<circle cx='184.83' cy='37.40' r='1.95' style='stroke-width: 0.71; stroke: #FFC300; stroke-opacity: 0.30; fill: #FFC300; fill-opacity: 0.30;' />
<rect x='283.00' y='28.76' width='17.28' height='17.28' style='stroke-width: 1.07; stroke: none; fill: #FFFFFF;' />
<circle cx='291.64' cy='37.40' r='1.95' style='stroke-width: 0.71; stroke: #F11212; stroke-opacity: 0.30; fill: #F11212; fill-opacity: 0.30;' />
<text x='123.16' y='43.85' style='font-size: 18.00px; font-family: "Arial";' textLength='53.03px' lengthAdjust='spacingAndGlyphs'>gplas2</text>
<text x='193.47' y='43.85' style='font-size: 18.00px; font-family: "Arial";' textLength='85.02px' lengthAdjust='spacingAndGlyphs'>MOB-suite</text>
<text x='300.28' y='43.85' style='font-size: 18.00px; font-family: "Arial";' textLength='127.04px' lengthAdjust='spacingAndGlyphs'>plasmidSPAdes</text>
<text x='55.36' y='14.94' style='font-size: 13.20px; font-family: "Arial";' textLength='123.16px' lengthAdjust='spacingAndGlyphs'>A. baumannii metrics</text>
</g>
</svg>
