<?xml version='1.0' encoding='UTF-8' ?>
<svg xmlns='http://www.w3.org/2000/svg' xmlns:xlink='http://www.w3.org/1999/xlink' class='svglite' width='504.00pt' height='360.00pt' viewBox='0 0 504.00 360.00'>
<defs>
  <style type='text/css'><![CDATA[
    .svglite line, .svglite polyline, .svglite polygon, .svglite path, .svglite rect, .svglite circle {
      fill: none;
      stroke: #000000;
      stroke-linecap: round;
      stroke-linejoin: round;
      stroke-miterlimit: 10.00;
    }
    .svglite text {
      white-space: pre;
    }
  ]]></style>
</defs>
<rect width='100%' height='100%' style='stroke: none; fill: #FFFFFF;'/>
<defs>
  <clipPath id='cpMC4wMHw1MDQuMDB8MC4wMHwzNjAuMDA='>
    <rect x='0.00' y='0.00' width='504.00' height='360.00' />
  </clipPath>
</defs>
<g clip-path='url(#cpMC4wMHw1MDQuMDB8MC4wMHwzNjAuMDA=)'>
</g>
<defs>
  <clipPath id='cpMC4wMHw1MDQuMDB8MC4wMHw5MC4wMA=='>
    <rect x='0.00' y='0.00' width='504.00' height='90.00' />
  </clipPath>
</defs>
<g clip-path='url(#cpMC4wMHw1MDQuMDB8MC4wMHw5MC4wMA==)'>
<rect x='0.00' y='0.00' width='504.00' height='90.00' style='stroke-width: 1.07; stroke: #FFFFFF; fill: #FFFFFF;' />
</g>
<g clip-path='url(#cpMC4wMHw1MDQuMDB8MC4wMHwzNjAuMDA=)'>
</g>
<defs>
  <clipPath id='cpMzkuNjV8NDk4LjUyfDUuNDh8NzAuNjM='>
    <rect x='39.65' y='5.48' width='458.87' height='65.15' />
  </clipPath>
</defs>
<g clip-path='url(#cpMzkuNjV8NDk4LjUyfDUuNDh8NzAuNjM=)'>
<rect x='39.65' y='5.48' width='458.87' height='65.15' style='stroke-width: 1.07; stroke: none; fill: #FFFFFF;' />
<polyline points='39.65,60.70 498.52,60.70 ' style='stroke-width: 0.53; stroke: #EBEBEB; stroke-linecap: butt;' />
<polyline points='39.65,46.77 498.52,46.77 ' style='stroke-width: 0.53; stroke: #EBEBEB; stroke-linecap: butt;' />
<polyline points='39.65,32.83 498.52,32.83 ' style='stroke-width: 0.53; stroke: #EBEBEB; stroke-linecap: butt;' />
<polyline points='39.65,18.89 498.52,18.89 ' style='stroke-width: 0.53; stroke: #EBEBEB; stroke-linecap: butt;' />
<polyline points='39.65,67.67 498.52,67.67 ' style='stroke-width: 1.07; stroke: #EBEBEB; stroke-linecap: butt;' />
<polyline points='39.65,53.73 498.52,53.73 ' style='stroke-width: 1.07; stroke: #EBEBEB; stroke-linecap: butt;' />
<polyline points='39.65,39.80 498.52,39.80 ' style='stroke-width: 1.07; stroke: #EBEBEB; stroke-linecap: butt;' />
<polyline points='39.65,25.86 498.52,25.86 ' style='stroke-width: 1.07; stroke: #EBEBEB; stroke-linecap: butt;' />
<polyline points='39.65,11.92 498.52,11.92 ' style='stroke-width: 1.07; stroke: #EBEBEB; stroke-linecap: butt;' />
<polyline points='125.69,70.63 125.69,5.48 ' style='stroke-width: 1.07; stroke: #EBEBEB; stroke-linecap: butt;' />
<polyline points='269.09,70.63 269.09,5.48 ' style='stroke-width: 1.07; stroke: #EBEBEB; stroke-linecap: butt;' />
<polyline points='412.48,70.63 412.48,5.48 ' style='stroke-width: 1.07; stroke: #EBEBEB; stroke-linecap: butt;' />
<rect x='61.16' y='52.34' width='129.06' height='15.33' style='stroke-width: 1.07; stroke: none; stroke-linecap: butt; stroke-linejoin: miter; fill: #00FF93;' />
<rect x='204.56' y='8.44' width='129.06' height='59.23' style='stroke-width: 1.07; stroke: none; stroke-linecap: butt; stroke-linejoin: miter; fill: #FFC300;' />
<rect x='347.95' y='39.10' width='129.06' height='28.57' style='stroke-width: 1.07; stroke: none; stroke-linecap: butt; stroke-linejoin: miter; fill: #F11212;' />
<rect x='39.65' y='5.48' width='458.87' height='65.15' style='stroke-width: 1.07; stroke: #333333;' />
</g>
<g clip-path='url(#cpMC4wMHw1MDQuMDB8MC4wMHwzNjAuMDA=)'>
<text x='34.72' y='71.98' text-anchor='end' style='font-size: 12.00px;fill: #4D4D4D; font-family: "Arial";' textLength='6.67px' lengthAdjust='spacingAndGlyphs'>0</text>
<text x='34.72' y='58.04' text-anchor='end' style='font-size: 12.00px;fill: #4D4D4D; font-family: "Arial";' textLength='13.35px' lengthAdjust='spacingAndGlyphs'>20</text>
<text x='34.72' y='44.10' text-anchor='end' style='font-size: 12.00px;fill: #4D4D4D; font-family: "Arial";' textLength='13.35px' lengthAdjust='spacingAndGlyphs'>40</text>
<text x='34.72' y='30.17' text-anchor='end' style='font-size: 12.00px;fill: #4D4D4D; font-family: "Arial";' textLength='13.35px' lengthAdjust='spacingAndGlyphs'>60</text>
<text x='34.72' y='16.23' text-anchor='end' style='font-size: 12.00px;fill: #4D4D4D; font-family: "Arial";' textLength='13.35px' lengthAdjust='spacingAndGlyphs'>80</text>
<polyline points='36.91,67.67 39.65,67.67 ' style='stroke-width: 1.07; stroke: #333333; stroke-linecap: butt;' />
<polyline points='36.91,53.73 39.65,53.73 ' style='stroke-width: 1.07; stroke: #333333; stroke-linecap: butt;' />
<polyline points='36.91,39.80 39.65,39.80 ' style='stroke-width: 1.07; stroke: #333333; stroke-linecap: butt;' />
<polyline points='36.91,25.86 39.65,25.86 ' style='stroke-width: 1.07; stroke: #333333; stroke-linecap: butt;' />
<polyline points='36.91,11.92 39.65,11.92 ' style='stroke-width: 1.07; stroke: #333333; stroke-linecap: butt;' />
<polyline points='125.69,73.37 125.69,70.63 ' style='stroke-width: 1.07; stroke: #333333; stroke-linecap: butt;' />
<polyline points='269.09,73.37 269.09,70.63 ' style='stroke-width: 1.07; stroke: #333333; stroke-linecap: butt;' />
<polyline points='412.48,73.37 412.48,70.63 ' style='stroke-width: 1.07; stroke: #333333; stroke-linecap: butt;' />
<text transform='translate(126.20,76.07) rotate(-45)' text-anchor='end' style='font-size: 0.00px;fill: #4D4D4D; font-family: "Arial";' textLength='2.94px' lengthAdjust='spacingAndGlyphs'>gplas2</text>
<text transform='translate(269.60,76.07) rotate(-45)' text-anchor='end' style='font-size: 0.00px;fill: #4D4D4D; font-family: "Arial";' textLength='4.72px' lengthAdjust='spacingAndGlyphs'>MOB-suite</text>
<text transform='translate(412.99,76.07) rotate(-45)' text-anchor='end' style='font-size: 0.00px;fill: #4D4D4D; font-family: "Arial";' textLength='7.06px' lengthAdjust='spacingAndGlyphs'>plasmidSPAdes</text>
<text x='269.09' y='84.52' text-anchor='middle' style='font-size: 0.00px; font-weight: bold; font-family: "Arial";' textLength='4.22px' lengthAdjust='spacingAndGlyphs'>Software</text>
<text transform='translate(15.55,38.06) rotate(-90)' text-anchor='middle' style='font-size: 14.00px; font-weight: bold; font-family: "Arial";' textLength='244.14px' lengthAdjust='spacingAndGlyphs'>Number of contaminated predictions</text>
</g>
<defs>
  <clipPath id='cpMC4wMHw1MDQuMDB8OTAuMDB8MzYwLjAw'>
    <rect x='0.00' y='90.00' width='504.00' height='270.00' />
  </clipPath>
</defs>
<g clip-path='url(#cpMC4wMHw1MDQuMDB8OTAuMDB8MzYwLjAw)'>
<rect x='0.00' y='90.00' width='504.00' height='270.00' style='stroke-width: 1.07; stroke: #FFFFFF; fill: #FFFFFF;' />
</g>
<g clip-path='url(#cpMC4wMHw1MDQuMDB8MC4wMHwzNjAuMDA=)'>
</g>
<defs>
  <clipPath id='cpNjAuMDF8NDk4LjUyfDEzNC42OHwzMjguMjA='>
    <rect x='60.01' y='134.68' width='438.51' height='193.52' />
  </clipPath>
</defs>
<g clip-path='url(#cpNjAuMDF8NDk4LjUyfDEzNC42OHwzMjguMjA=)'>
<rect x='60.01' y='134.68' width='438.51' height='193.52' style='stroke-width: 1.07; stroke: none; fill: #FFFFFF;' />
<polyline points='60.01,301.22 498.52,301.22 ' style='stroke-width: 0.53; stroke: #EBEBEB; stroke-linecap: butt;' />
<polyline points='60.01,264.59 498.52,264.59 ' style='stroke-width: 0.53; stroke: #EBEBEB; stroke-linecap: butt;' />
<polyline points='60.01,227.97 498.52,227.97 ' style='stroke-width: 0.53; stroke: #EBEBEB; stroke-linecap: butt;' />
<polyline points='60.01,191.35 498.52,191.35 ' style='stroke-width: 0.53; stroke: #EBEBEB; stroke-linecap: butt;' />
<polyline points='60.01,154.73 498.52,154.73 ' style='stroke-width: 0.53; stroke: #EBEBEB; stroke-linecap: butt;' />
<polyline points='60.01,319.53 498.52,319.53 ' style='stroke-width: 1.07; stroke: #EBEBEB; stroke-linecap: butt;' />
<polyline points='60.01,282.91 498.52,282.91 ' style='stroke-width: 1.07; stroke: #EBEBEB; stroke-linecap: butt;' />
<polyline points='60.01,246.28 498.52,246.28 ' style='stroke-width: 1.07; stroke: #EBEBEB; stroke-linecap: butt;' />
<polyline points='60.01,209.66 498.52,209.66 ' style='stroke-width: 1.07; stroke: #EBEBEB; stroke-linecap: butt;' />
<polyline points='60.01,173.04 498.52,173.04 ' style='stroke-width: 1.07; stroke: #EBEBEB; stroke-linecap: butt;' />
<polyline points='60.01,136.42 498.52,136.42 ' style='stroke-width: 1.07; stroke: #EBEBEB; stroke-linecap: butt;' />
<polyline points='142.23,328.20 142.23,134.68 ' style='stroke-width: 1.07; stroke: #EBEBEB; stroke-linecap: butt;' />
<polyline points='279.26,328.20 279.26,134.68 ' style='stroke-width: 1.07; stroke: #EBEBEB; stroke-linecap: butt;' />
<polyline points='416.30,328.20 416.30,134.68 ' style='stroke-width: 1.07; stroke: #EBEBEB; stroke-linecap: butt;' />
<circle cx='142.23' cy='228.51' r='1.95' style='stroke-width: 0.71; stroke: #333333; fill: #333333;' />
<circle cx='142.23' cy='228.50' r='1.95' style='stroke-width: 0.71; stroke: #333333; fill: #333333;' />
<circle cx='142.23' cy='228.50' r='1.95' style='stroke-width: 0.71; stroke: #333333; fill: #333333;' />
<circle cx='142.23' cy='297.75' r='1.95' style='stroke-width: 0.71; stroke: #333333; fill: #333333;' />
<line x1='142.23' y1='316.57' x2='142.23' y2='315.38' style='stroke-width: 1.07; stroke: #333333; stroke-linecap: butt;' />
<line x1='142.23' y1='319.13' x2='142.23' y2='319.40' style='stroke-width: 1.07; stroke: #333333; stroke-linecap: butt;' />
<polygon points='90.84,316.57 90.84,319.13 193.62,319.13 193.62,316.57 90.84,316.57 ' style='stroke-width: 1.07; stroke: #333333; stroke-linecap: butt; stroke-linejoin: miter; fill: #FFFFFF;' />
<line x1='90.84' y1='318.62' x2='193.62' y2='318.62' style='stroke-width: 2.13; stroke: #333333; stroke-linecap: butt; stroke-linejoin: miter;' />
<circle cx='279.26' cy='267.10' r='1.95' style='stroke-width: 0.71; stroke: #333333; fill: #333333;' />
<circle cx='279.26' cy='266.85' r='1.95' style='stroke-width: 0.71; stroke: #333333; fill: #333333;' />
<line x1='279.26' y1='298.73' x2='279.26' y2='280.99' style='stroke-width: 1.07; stroke: #333333; stroke-linecap: butt;' />
<line x1='279.26' y1='317.68' x2='279.26' y2='319.40' style='stroke-width: 1.07; stroke: #333333; stroke-linecap: butt;' />
<polygon points='227.88,298.73 227.88,317.68 330.65,317.68 330.65,298.73 227.88,298.73 ' style='stroke-width: 1.07; stroke: #333333; stroke-linecap: butt; stroke-linejoin: miter; fill: #FFFFFF;' />
<line x1='227.88' y1='311.89' x2='330.65' y2='311.89' style='stroke-width: 2.13; stroke: #333333; stroke-linecap: butt; stroke-linejoin: miter;' />
<circle cx='416.30' cy='224.49' r='1.95' style='stroke-width: 0.71; stroke: #333333; fill: #333333;' />
<circle cx='416.30' cy='143.47' r='1.95' style='stroke-width: 0.71; stroke: #333333; fill: #333333;' />
<circle cx='416.30' cy='230.78' r='1.95' style='stroke-width: 0.71; stroke: #333333; fill: #333333;' />
<circle cx='416.30' cy='259.72' r='1.95' style='stroke-width: 0.71; stroke: #333333; fill: #333333;' />
<circle cx='416.30' cy='278.73' r='1.95' style='stroke-width: 0.71; stroke: #333333; fill: #333333;' />
<line x1='416.30' y1='304.49' x2='416.30' y2='291.72' style='stroke-width: 1.07; stroke: #333333; stroke-linecap: butt;' />
<line x1='416.30' y1='315.80' x2='416.30' y2='319.29' style='stroke-width: 1.07; stroke: #333333; stroke-linecap: butt;' />
<polygon points='364.91,304.49 364.91,315.80 467.69,315.80 467.69,304.49 364.91,304.49 ' style='stroke-width: 1.07; stroke: #333333; stroke-linecap: butt; stroke-linejoin: miter; fill: #FFFFFF;' />
<line x1='364.91' y1='312.16' x2='467.69' y2='312.16' style='stroke-width: 2.13; stroke: #333333; stroke-linecap: butt; stroke-linejoin: miter;' />
<circle cx='105.63' cy='316.87' r='1.95' style='stroke-width: 0.71; stroke: #00FF93; stroke-opacity: 0.30; fill: #00FF93; fill-opacity: 0.30;' />
<circle cx='126.19' cy='316.67' r='1.95' style='stroke-width: 0.71; stroke: #00FF93; stroke-opacity: 0.30; fill: #00FF93; fill-opacity: 0.30;' />
<circle cx='89.71' cy='318.51' r='1.95' style='stroke-width: 0.71; stroke: #00FF93; stroke-opacity: 0.30; fill: #00FF93; fill-opacity: 0.30;' />
<circle cx='137.77' cy='318.66' r='1.95' style='stroke-width: 0.71; stroke: #00FF93; stroke-opacity: 0.30; fill: #00FF93; fill-opacity: 0.30;' />
<circle cx='96.90' cy='228.51' r='1.95' style='stroke-width: 0.71; stroke: #00FF93; stroke-opacity: 0.30; fill: #00FF93; fill-opacity: 0.30;' />
<circle cx='103.83' cy='319.13' r='1.95' style='stroke-width: 0.71; stroke: #00FF93; stroke-opacity: 0.30; fill: #00FF93; fill-opacity: 0.30;' />
<circle cx='92.95' cy='319.13' r='1.95' style='stroke-width: 0.71; stroke: #00FF93; stroke-opacity: 0.30; fill: #00FF93; fill-opacity: 0.30;' />
<circle cx='149.85' cy='228.50' r='1.95' style='stroke-width: 0.71; stroke: #00FF93; stroke-opacity: 0.30; fill: #00FF93; fill-opacity: 0.30;' />
<circle cx='187.33' cy='315.38' r='1.95' style='stroke-width: 0.71; stroke: #00FF93; stroke-opacity: 0.30; fill: #00FF93; fill-opacity: 0.30;' />
<circle cx='100.19' cy='318.65' r='1.95' style='stroke-width: 0.71; stroke: #00FF93; stroke-opacity: 0.30; fill: #00FF93; fill-opacity: 0.30;' />
<circle cx='196.11' cy='319.12' r='1.95' style='stroke-width: 0.71; stroke: #00FF93; stroke-opacity: 0.30; fill: #00FF93; fill-opacity: 0.30;' />
<circle cx='132.99' cy='319.13' r='1.95' style='stroke-width: 0.71; stroke: #00FF93; stroke-opacity: 0.30; fill: #00FF93; fill-opacity: 0.30;' />
<circle cx='143.37' cy='319.13' r='1.95' style='stroke-width: 0.71; stroke: #00FF93; stroke-opacity: 0.30; fill: #00FF93; fill-opacity: 0.30;' />
<circle cx='90.42' cy='228.50' r='1.95' style='stroke-width: 0.71; stroke: #00FF93; stroke-opacity: 0.30; fill: #00FF93; fill-opacity: 0.30;' />
<circle cx='145.08' cy='318.22' r='1.95' style='stroke-width: 0.71; stroke: #00FF93; stroke-opacity: 0.30; fill: #00FF93; fill-opacity: 0.30;' />
<circle cx='129.54' cy='318.67' r='1.95' style='stroke-width: 0.71; stroke: #00FF93; stroke-opacity: 0.30; fill: #00FF93; fill-opacity: 0.30;' />
<circle cx='155.88' cy='319.05' r='1.95' style='stroke-width: 0.71; stroke: #00FF93; stroke-opacity: 0.30; fill: #00FF93; fill-opacity: 0.30;' />
<circle cx='130.30' cy='319.13' r='1.95' style='stroke-width: 0.71; stroke: #00FF93; stroke-opacity: 0.30; fill: #00FF93; fill-opacity: 0.30;' />
<circle cx='112.79' cy='319.40' r='1.95' style='stroke-width: 0.71; stroke: #00FF93; stroke-opacity: 0.30; fill: #00FF93; fill-opacity: 0.30;' />
<circle cx='141.60' cy='297.75' r='1.95' style='stroke-width: 0.71; stroke: #00FF93; stroke-opacity: 0.30; fill: #00FF93; fill-opacity: 0.30;' />
<circle cx='150.77' cy='318.59' r='1.95' style='stroke-width: 0.71; stroke: #00FF93; stroke-opacity: 0.30; fill: #00FF93; fill-opacity: 0.30;' />
<circle cx='144.68' cy='316.54' r='1.95' style='stroke-width: 0.71; stroke: #00FF93; stroke-opacity: 0.30; fill: #00FF93; fill-opacity: 0.30;' />
<circle cx='257.92' cy='305.93' r='1.95' style='stroke-width: 0.71; stroke: #FFC300; stroke-opacity: 0.30; fill: #FFC300; fill-opacity: 0.30;' />
<circle cx='265.10' cy='295.45' r='1.95' style='stroke-width: 0.71; stroke: #FFC300; stroke-opacity: 0.30; fill: #FFC300; fill-opacity: 0.30;' />
<circle cx='232.34' cy='319.00' r='1.95' style='stroke-width: 0.71; stroke: #FFC300; stroke-opacity: 0.30; fill: #FFC300; fill-opacity: 0.30;' />
<circle cx='262.46' cy='318.59' r='1.95' style='stroke-width: 0.71; stroke: #FFC300; stroke-opacity: 0.30; fill: #FFC300; fill-opacity: 0.30;' />
<circle cx='323.63' cy='308.55' r='1.95' style='stroke-width: 0.71; stroke: #FFC300; stroke-opacity: 0.30; fill: #FFC300; fill-opacity: 0.30;' />
<circle cx='282.69' cy='288.43' r='1.95' style='stroke-width: 0.71; stroke: #FFC300; stroke-opacity: 0.30; fill: #FFC300; fill-opacity: 0.30;' />
<circle cx='326.72' cy='311.65' r='1.95' style='stroke-width: 0.71; stroke: #FFC300; stroke-opacity: 0.30; fill: #FFC300; fill-opacity: 0.30;' />
<circle cx='315.03' cy='313.12' r='1.95' style='stroke-width: 0.71; stroke: #FFC300; stroke-opacity: 0.30; fill: #FFC300; fill-opacity: 0.30;' />
<circle cx='299.46' cy='312.16' r='1.95' style='stroke-width: 0.71; stroke: #FFC300; stroke-opacity: 0.30; fill: #FFC300; fill-opacity: 0.30;' />
<circle cx='296.63' cy='318.26' r='1.95' style='stroke-width: 0.71; stroke: #FFC300; stroke-opacity: 0.30; fill: #FFC300; fill-opacity: 0.30;' />
<circle cx='290.17' cy='309.52' r='1.95' style='stroke-width: 0.71; stroke: #FFC300; stroke-opacity: 0.30; fill: #FFC300; fill-opacity: 0.30;' />
<circle cx='238.62' cy='304.64' r='1.95' style='stroke-width: 0.71; stroke: #FFC300; stroke-opacity: 0.30; fill: #FFC300; fill-opacity: 0.30;' />
<circle cx='294.57' cy='319.40' r='1.95' style='stroke-width: 0.71; stroke: #FFC300; stroke-opacity: 0.30; fill: #FFC300; fill-opacity: 0.30;' />
<circle cx='301.93' cy='311.24' r='1.95' style='stroke-width: 0.71; stroke: #FFC300; stroke-opacity: 0.30; fill: #FFC300; fill-opacity: 0.30;' />
<circle cx='258.24' cy='315.44' r='1.95' style='stroke-width: 0.71; stroke: #FFC300; stroke-opacity: 0.30; fill: #FFC300; fill-opacity: 0.30;' />
<circle cx='226.70' cy='318.66' r='1.95' style='stroke-width: 0.71; stroke: #FFC300; stroke-opacity: 0.30; fill: #FFC300; fill-opacity: 0.30;' />
<circle cx='295.57' cy='298.73' r='1.95' style='stroke-width: 0.71; stroke: #FFC300; stroke-opacity: 0.30; fill: #FFC300; fill-opacity: 0.30;' />
<circle cx='321.17' cy='319.15' r='1.95' style='stroke-width: 0.71; stroke: #FFC300; stroke-opacity: 0.30; fill: #FFC300; fill-opacity: 0.30;' />
<circle cx='299.32' cy='314.82' r='1.95' style='stroke-width: 0.71; stroke: #FFC300; stroke-opacity: 0.30; fill: #FFC300; fill-opacity: 0.30;' />
<circle cx='300.18' cy='318.63' r='1.95' style='stroke-width: 0.71; stroke: #FFC300; stroke-opacity: 0.30; fill: #FFC300; fill-opacity: 0.30;' />
<circle cx='333.72' cy='310.06' r='1.95' style='stroke-width: 0.71; stroke: #FFC300; stroke-opacity: 0.30; fill: #FFC300; fill-opacity: 0.30;' />
<circle cx='322.98' cy='283.49' r='1.95' style='stroke-width: 0.71; stroke: #FFC300; stroke-opacity: 0.30; fill: #FFC300; fill-opacity: 0.30;' />
<circle cx='238.52' cy='311.89' r='1.95' style='stroke-width: 0.71; stroke: #FFC300; stroke-opacity: 0.30; fill: #FFC300; fill-opacity: 0.30;' />
<circle cx='247.53' cy='318.15' r='1.95' style='stroke-width: 0.71; stroke: #FFC300; stroke-opacity: 0.30; fill: #FFC300; fill-opacity: 0.30;' />
<circle cx='315.16' cy='318.56' r='1.95' style='stroke-width: 0.71; stroke: #FFC300; stroke-opacity: 0.30; fill: #FFC300; fill-opacity: 0.30;' />
<circle cx='317.78' cy='283.49' r='1.95' style='stroke-width: 0.71; stroke: #FFC300; stroke-opacity: 0.30; fill: #FFC300; fill-opacity: 0.30;' />
<circle cx='234.76' cy='316.97' r='1.95' style='stroke-width: 0.71; stroke: #FFC300; stroke-opacity: 0.30; fill: #FFC300; fill-opacity: 0.30;' />
<circle cx='332.11' cy='307.97' r='1.95' style='stroke-width: 0.71; stroke: #FFC300; stroke-opacity: 0.30; fill: #FFC300; fill-opacity: 0.30;' />
<circle cx='293.61' cy='304.49' r='1.95' style='stroke-width: 0.71; stroke: #FFC300; stroke-opacity: 0.30; fill: #FFC300; fill-opacity: 0.30;' />
<circle cx='318.62' cy='304.09' r='1.95' style='stroke-width: 0.71; stroke: #FFC300; stroke-opacity: 0.30; fill: #FFC300; fill-opacity: 0.30;' />
<circle cx='237.90' cy='319.06' r='1.95' style='stroke-width: 0.71; stroke: #FFC300; stroke-opacity: 0.30; fill: #FFC300; fill-opacity: 0.30;' />
<circle cx='287.49' cy='313.12' r='1.95' style='stroke-width: 0.71; stroke: #FFC300; stroke-opacity: 0.30; fill: #FFC300; fill-opacity: 0.30;' />
<circle cx='297.84' cy='312.16' r='1.95' style='stroke-width: 0.71; stroke: #FFC300; stroke-opacity: 0.30; fill: #FFC300; fill-opacity: 0.30;' />
<circle cx='273.54' cy='318.26' r='1.95' style='stroke-width: 0.71; stroke: #FFC300; stroke-opacity: 0.30; fill: #FFC300; fill-opacity: 0.30;' />
<circle cx='256.97' cy='267.10' r='1.95' style='stroke-width: 0.71; stroke: #FFC300; stroke-opacity: 0.30; fill: #FFC300; fill-opacity: 0.30;' />
<circle cx='285.38' cy='312.76' r='1.95' style='stroke-width: 0.71; stroke: #FFC300; stroke-opacity: 0.30; fill: #FFC300; fill-opacity: 0.30;' />
<circle cx='283.91' cy='318.55' r='1.95' style='stroke-width: 0.71; stroke: #FFC300; stroke-opacity: 0.30; fill: #FFC300; fill-opacity: 0.30;' />
<circle cx='247.86' cy='284.18' r='1.95' style='stroke-width: 0.71; stroke: #FFC300; stroke-opacity: 0.30; fill: #FFC300; fill-opacity: 0.30;' />
<circle cx='303.76' cy='318.51' r='1.95' style='stroke-width: 0.71; stroke: #FFC300; stroke-opacity: 0.30; fill: #FFC300; fill-opacity: 0.30;' />
<circle cx='323.07' cy='283.05' r='1.95' style='stroke-width: 0.71; stroke: #FFC300; stroke-opacity: 0.30; fill: #FFC300; fill-opacity: 0.30;' />
<circle cx='244.36' cy='308.37' r='1.95' style='stroke-width: 0.71; stroke: #FFC300; stroke-opacity: 0.30; fill: #FFC300; fill-opacity: 0.30;' />
<circle cx='227.50' cy='284.51' r='1.95' style='stroke-width: 0.71; stroke: #FFC300; stroke-opacity: 0.30; fill: #FFC300; fill-opacity: 0.30;' />
<circle cx='297.96' cy='291.41' r='1.95' style='stroke-width: 0.71; stroke: #FFC300; stroke-opacity: 0.30; fill: #FFC300; fill-opacity: 0.30;' />
<circle cx='226.71' cy='312.18' r='1.95' style='stroke-width: 0.71; stroke: #FFC300; stroke-opacity: 0.30; fill: #FFC300; fill-opacity: 0.30;' />
<circle cx='308.87' cy='302.69' r='1.95' style='stroke-width: 0.71; stroke: #FFC300; stroke-opacity: 0.30; fill: #FFC300; fill-opacity: 0.30;' />
<circle cx='327.93' cy='316.66' r='1.95' style='stroke-width: 0.71; stroke: #FFC300; stroke-opacity: 0.30; fill: #FFC300; fill-opacity: 0.30;' />
<circle cx='243.33' cy='313.12' r='1.95' style='stroke-width: 0.71; stroke: #FFC300; stroke-opacity: 0.30; fill: #FFC300; fill-opacity: 0.30;' />
<circle cx='261.04' cy='312.16' r='1.95' style='stroke-width: 0.71; stroke: #FFC300; stroke-opacity: 0.30; fill: #FFC300; fill-opacity: 0.30;' />
<circle cx='270.43' cy='318.26' r='1.95' style='stroke-width: 0.71; stroke: #FFC300; stroke-opacity: 0.30; fill: #FFC300; fill-opacity: 0.30;' />
<circle cx='291.63' cy='306.17' r='1.95' style='stroke-width: 0.71; stroke: #FFC300; stroke-opacity: 0.30; fill: #FFC300; fill-opacity: 0.30;' />
<circle cx='238.60' cy='319.13' r='1.95' style='stroke-width: 0.71; stroke: #FFC300; stroke-opacity: 0.30; fill: #FFC300; fill-opacity: 0.30;' />
<circle cx='257.45' cy='280.99' r='1.95' style='stroke-width: 0.71; stroke: #FFC300; stroke-opacity: 0.30; fill: #FFC300; fill-opacity: 0.30;' />
<circle cx='252.91' cy='319.06' r='1.95' style='stroke-width: 0.71; stroke: #FFC300; stroke-opacity: 0.30; fill: #FFC300; fill-opacity: 0.30;' />
<circle cx='273.88' cy='288.76' r='1.95' style='stroke-width: 0.71; stroke: #FFC300; stroke-opacity: 0.30; fill: #FFC300; fill-opacity: 0.30;' />
<circle cx='300.23' cy='302.79' r='1.95' style='stroke-width: 0.71; stroke: #FFC300; stroke-opacity: 0.30; fill: #FFC300; fill-opacity: 0.30;' />
<circle cx='291.22' cy='319.12' r='1.95' style='stroke-width: 0.71; stroke: #FFC300; stroke-opacity: 0.30; fill: #FFC300; fill-opacity: 0.30;' />
<circle cx='256.35' cy='318.65' r='1.95' style='stroke-width: 0.71; stroke: #FFC300; stroke-opacity: 0.30; fill: #FFC300; fill-opacity: 0.30;' />
<circle cx='261.57' cy='266.85' r='1.95' style='stroke-width: 0.71; stroke: #FFC300; stroke-opacity: 0.30; fill: #FFC300; fill-opacity: 0.30;' />
<circle cx='275.41' cy='316.93' r='1.95' style='stroke-width: 0.71; stroke: #FFC300; stroke-opacity: 0.30; fill: #FFC300; fill-opacity: 0.30;' />
<circle cx='307.22' cy='283.49' r='1.95' style='stroke-width: 0.71; stroke: #FFC300; stroke-opacity: 0.30; fill: #FFC300; fill-opacity: 0.30;' />
<circle cx='314.01' cy='315.04' r='1.95' style='stroke-width: 0.71; stroke: #FFC300; stroke-opacity: 0.30; fill: #FFC300; fill-opacity: 0.30;' />
<circle cx='248.99' cy='318.26' r='1.95' style='stroke-width: 0.71; stroke: #FFC300; stroke-opacity: 0.30; fill: #FFC300; fill-opacity: 0.30;' />
<circle cx='297.41' cy='316.93' r='1.95' style='stroke-width: 0.71; stroke: #FFC300; stroke-opacity: 0.30; fill: #FFC300; fill-opacity: 0.30;' />
<circle cx='240.47' cy='283.55' r='1.95' style='stroke-width: 0.71; stroke: #FFC300; stroke-opacity: 0.30; fill: #FFC300; fill-opacity: 0.30;' />
<circle cx='263.50' cy='311.31' r='1.95' style='stroke-width: 0.71; stroke: #FFC300; stroke-opacity: 0.30; fill: #FFC300; fill-opacity: 0.30;' />
<circle cx='230.40' cy='310.89' r='1.95' style='stroke-width: 0.71; stroke: #FFC300; stroke-opacity: 0.30; fill: #FFC300; fill-opacity: 0.30;' />
<circle cx='225.83' cy='287.04' r='1.95' style='stroke-width: 0.71; stroke: #FFC300; stroke-opacity: 0.30; fill: #FFC300; fill-opacity: 0.30;' />
<circle cx='298.37' cy='297.30' r='1.95' style='stroke-width: 0.71; stroke: #FFC300; stroke-opacity: 0.30; fill: #FFC300; fill-opacity: 0.30;' />
<circle cx='237.65' cy='316.20' r='1.95' style='stroke-width: 0.71; stroke: #FFC300; stroke-opacity: 0.30; fill: #FFC300; fill-opacity: 0.30;' />
<circle cx='259.97' cy='306.41' r='1.95' style='stroke-width: 0.71; stroke: #FFC300; stroke-opacity: 0.30; fill: #FFC300; fill-opacity: 0.30;' />
<circle cx='241.29' cy='316.63' r='1.95' style='stroke-width: 0.71; stroke: #FFC300; stroke-opacity: 0.30; fill: #FFC300; fill-opacity: 0.30;' />
<circle cx='267.72' cy='288.16' r='1.95' style='stroke-width: 0.71; stroke: #FFC300; stroke-opacity: 0.30; fill: #FFC300; fill-opacity: 0.30;' />
<circle cx='283.95' cy='298.29' r='1.95' style='stroke-width: 0.71; stroke: #FFC300; stroke-opacity: 0.30; fill: #FFC300; fill-opacity: 0.30;' />
<circle cx='325.75' cy='307.39' r='1.95' style='stroke-width: 0.71; stroke: #FFC300; stroke-opacity: 0.30; fill: #FFC300; fill-opacity: 0.30;' />
<circle cx='296.95' cy='317.68' r='1.95' style='stroke-width: 0.71; stroke: #FFC300; stroke-opacity: 0.30; fill: #FFC300; fill-opacity: 0.30;' />
<circle cx='302.75' cy='315.80' r='1.95' style='stroke-width: 0.71; stroke: #FFC300; stroke-opacity: 0.30; fill: #FFC300; fill-opacity: 0.30;' />
<circle cx='229.99' cy='319.12' r='1.95' style='stroke-width: 0.71; stroke: #FFC300; stroke-opacity: 0.30; fill: #FFC300; fill-opacity: 0.30;' />
<circle cx='238.00' cy='295.41' r='1.95' style='stroke-width: 0.71; stroke: #FFC300; stroke-opacity: 0.30; fill: #FFC300; fill-opacity: 0.30;' />
<circle cx='317.82' cy='303.50' r='1.95' style='stroke-width: 0.71; stroke: #FFC300; stroke-opacity: 0.30; fill: #FFC300; fill-opacity: 0.30;' />
<circle cx='233.13' cy='302.41' r='1.95' style='stroke-width: 0.71; stroke: #FFC300; stroke-opacity: 0.30; fill: #FFC300; fill-opacity: 0.30;' />
<circle cx='236.68' cy='319.16' r='1.95' style='stroke-width: 0.71; stroke: #FFC300; stroke-opacity: 0.30; fill: #FFC300; fill-opacity: 0.30;' />
<circle cx='242.72' cy='281.47' r='1.95' style='stroke-width: 0.71; stroke: #FFC300; stroke-opacity: 0.30; fill: #FFC300; fill-opacity: 0.30;' />
<circle cx='258.51' cy='297.48' r='1.95' style='stroke-width: 0.71; stroke: #FFC300; stroke-opacity: 0.30; fill: #FFC300; fill-opacity: 0.30;' />
<circle cx='240.23' cy='316.93' r='1.95' style='stroke-width: 0.71; stroke: #FFC300; stroke-opacity: 0.30; fill: #FFC300; fill-opacity: 0.30;' />
<circle cx='283.25' cy='316.28' r='1.95' style='stroke-width: 0.71; stroke: #FFC300; stroke-opacity: 0.30; fill: #FFC300; fill-opacity: 0.30;' />
<circle cx='377.22' cy='307.91' r='1.95' style='stroke-width: 0.71; stroke: #F11212; stroke-opacity: 0.30; fill: #F11212; fill-opacity: 0.30;' />
<circle cx='422.91' cy='315.15' r='1.95' style='stroke-width: 0.71; stroke: #F11212; stroke-opacity: 0.30; fill: #F11212; fill-opacity: 0.30;' />
<circle cx='451.54' cy='298.59' r='1.95' style='stroke-width: 0.71; stroke: #F11212; stroke-opacity: 0.30; fill: #F11212; fill-opacity: 0.30;' />
<circle cx='370.95' cy='304.49' r='1.95' style='stroke-width: 0.71; stroke: #F11212; stroke-opacity: 0.30; fill: #F11212; fill-opacity: 0.30;' />
<circle cx='417.09' cy='314.85' r='1.95' style='stroke-width: 0.71; stroke: #F11212; stroke-opacity: 0.30; fill: #F11212; fill-opacity: 0.30;' />
<circle cx='409.90' cy='319.11' r='1.95' style='stroke-width: 0.71; stroke: #F11212; stroke-opacity: 0.30; fill: #F11212; fill-opacity: 0.30;' />
<circle cx='368.46' cy='312.16' r='1.95' style='stroke-width: 0.71; stroke: #F11212; stroke-opacity: 0.30; fill: #F11212; fill-opacity: 0.30;' />
<circle cx='420.43' cy='291.72' r='1.95' style='stroke-width: 0.71; stroke: #F11212; stroke-opacity: 0.30; fill: #F11212; fill-opacity: 0.30;' />
<circle cx='432.13' cy='314.55' r='1.95' style='stroke-width: 0.71; stroke: #F11212; stroke-opacity: 0.30; fill: #F11212; fill-opacity: 0.30;' />
<circle cx='395.58' cy='315.54' r='1.95' style='stroke-width: 0.71; stroke: #F11212; stroke-opacity: 0.30; fill: #F11212; fill-opacity: 0.30;' />
<circle cx='438.22' cy='314.96' r='1.95' style='stroke-width: 0.71; stroke: #F11212; stroke-opacity: 0.30; fill: #F11212; fill-opacity: 0.30;' />
<circle cx='403.70' cy='315.80' r='1.95' style='stroke-width: 0.71; stroke: #F11212; stroke-opacity: 0.30; fill: #F11212; fill-opacity: 0.30;' />
<circle cx='436.72' cy='313.64' r='1.95' style='stroke-width: 0.71; stroke: #F11212; stroke-opacity: 0.30; fill: #F11212; fill-opacity: 0.30;' />
<circle cx='453.08' cy='316.92' r='1.95' style='stroke-width: 0.71; stroke: #F11212; stroke-opacity: 0.30; fill: #F11212; fill-opacity: 0.30;' />
<circle cx='397.80' cy='306.94' r='1.95' style='stroke-width: 0.71; stroke: #F11212; stroke-opacity: 0.30; fill: #F11212; fill-opacity: 0.30;' />
<circle cx='443.03' cy='316.90' r='1.95' style='stroke-width: 0.71; stroke: #F11212; stroke-opacity: 0.30; fill: #F11212; fill-opacity: 0.30;' />
<circle cx='398.52' cy='312.05' r='1.95' style='stroke-width: 0.71; stroke: #F11212; stroke-opacity: 0.30; fill: #F11212; fill-opacity: 0.30;' />
<circle cx='366.09' cy='224.49' r='1.95' style='stroke-width: 0.71; stroke: #F11212; stroke-opacity: 0.30; fill: #F11212; fill-opacity: 0.30;' />
<circle cx='439.04' cy='315.96' r='1.95' style='stroke-width: 0.71; stroke: #F11212; stroke-opacity: 0.30; fill: #F11212; fill-opacity: 0.30;' />
<circle cx='444.13' cy='310.26' r='1.95' style='stroke-width: 0.71; stroke: #F11212; stroke-opacity: 0.30; fill: #F11212; fill-opacity: 0.30;' />
<circle cx='470.88' cy='310.06' r='1.95' style='stroke-width: 0.71; stroke: #F11212; stroke-opacity: 0.30; fill: #F11212; fill-opacity: 0.30;' />
<circle cx='461.36' cy='305.37' r='1.95' style='stroke-width: 0.71; stroke: #F11212; stroke-opacity: 0.30; fill: #F11212; fill-opacity: 0.30;' />
<circle cx='365.16' cy='319.29' r='1.95' style='stroke-width: 0.71; stroke: #F11212; stroke-opacity: 0.30; fill: #F11212; fill-opacity: 0.30;' />
<circle cx='390.69' cy='143.47' r='1.95' style='stroke-width: 0.71; stroke: #F11212; stroke-opacity: 0.30; fill: #F11212; fill-opacity: 0.30;' />
<circle cx='447.67' cy='311.74' r='1.95' style='stroke-width: 0.71; stroke: #F11212; stroke-opacity: 0.30; fill: #F11212; fill-opacity: 0.30;' />
<circle cx='465.53' cy='315.80' r='1.95' style='stroke-width: 0.71; stroke: #F11212; stroke-opacity: 0.30; fill: #F11212; fill-opacity: 0.30;' />
<circle cx='470.27' cy='315.72' r='1.95' style='stroke-width: 0.71; stroke: #F11212; stroke-opacity: 0.30; fill: #F11212; fill-opacity: 0.30;' />
<circle cx='458.97' cy='302.62' r='1.95' style='stroke-width: 0.71; stroke: #F11212; stroke-opacity: 0.30; fill: #F11212; fill-opacity: 0.30;' />
<circle cx='428.69' cy='316.36' r='1.95' style='stroke-width: 0.71; stroke: #F11212; stroke-opacity: 0.30; fill: #F11212; fill-opacity: 0.30;' />
<circle cx='368.99' cy='314.11' r='1.95' style='stroke-width: 0.71; stroke: #F11212; stroke-opacity: 0.30; fill: #F11212; fill-opacity: 0.30;' />
<circle cx='435.43' cy='318.69' r='1.95' style='stroke-width: 0.71; stroke: #F11212; stroke-opacity: 0.30; fill: #F11212; fill-opacity: 0.30;' />
<circle cx='447.17' cy='318.80' r='1.95' style='stroke-width: 0.71; stroke: #F11212; stroke-opacity: 0.30; fill: #F11212; fill-opacity: 0.30;' />
<circle cx='416.15' cy='318.06' r='1.95' style='stroke-width: 0.71; stroke: #F11212; stroke-opacity: 0.30; fill: #F11212; fill-opacity: 0.30;' />
<circle cx='376.90' cy='230.78' r='1.95' style='stroke-width: 0.71; stroke: #F11212; stroke-opacity: 0.30; fill: #F11212; fill-opacity: 0.30;' />
<circle cx='445.41' cy='312.16' r='1.95' style='stroke-width: 0.71; stroke: #F11212; stroke-opacity: 0.30; fill: #F11212; fill-opacity: 0.30;' />
<circle cx='454.29' cy='259.72' r='1.95' style='stroke-width: 0.71; stroke: #F11212; stroke-opacity: 0.30; fill: #F11212; fill-opacity: 0.30;' />
<circle cx='405.18' cy='312.16' r='1.95' style='stroke-width: 0.71; stroke: #F11212; stroke-opacity: 0.30; fill: #F11212; fill-opacity: 0.30;' />
<circle cx='373.01' cy='303.35' r='1.95' style='stroke-width: 0.71; stroke: #F11212; stroke-opacity: 0.30; fill: #F11212; fill-opacity: 0.30;' />
<circle cx='386.56' cy='278.73' r='1.95' style='stroke-width: 0.71; stroke: #F11212; stroke-opacity: 0.30; fill: #F11212; fill-opacity: 0.30;' />
<circle cx='440.44' cy='292.54' r='1.95' style='stroke-width: 0.71; stroke: #F11212; stroke-opacity: 0.30; fill: #F11212; fill-opacity: 0.30;' />
<circle cx='363.50' cy='318.27' r='1.95' style='stroke-width: 0.71; stroke: #F11212; stroke-opacity: 0.30; fill: #F11212; fill-opacity: 0.30;' />
<rect x='60.01' y='134.68' width='438.51' height='193.52' style='stroke-width: 1.07; stroke: #333333;' />
</g>
<g clip-path='url(#cpMC4wMHw1MDQuMDB8MC4wMHwzNjAuMDA=)'>
<text x='55.08' y='323.83' text-anchor='end' style='font-size: 12.00px;fill: #4D4D4D; font-family: "Arial";' textLength='33.70px' lengthAdjust='spacingAndGlyphs'>0e+00</text>
<text x='55.08' y='287.21' text-anchor='end' style='font-size: 12.00px;fill: #4D4D4D; font-family: "Arial";' textLength='33.70px' lengthAdjust='spacingAndGlyphs'>1e+05</text>
<text x='55.08' y='250.59' text-anchor='end' style='font-size: 12.00px;fill: #4D4D4D; font-family: "Arial";' textLength='33.70px' lengthAdjust='spacingAndGlyphs'>2e+05</text>
<text x='55.08' y='213.97' text-anchor='end' style='font-size: 12.00px;fill: #4D4D4D; font-family: "Arial";' textLength='33.70px' lengthAdjust='spacingAndGlyphs'>3e+05</text>
<text x='55.08' y='177.34' text-anchor='end' style='font-size: 12.00px;fill: #4D4D4D; font-family: "Arial";' textLength='33.70px' lengthAdjust='spacingAndGlyphs'>4e+05</text>
<text x='55.08' y='140.72' text-anchor='end' style='font-size: 12.00px;fill: #4D4D4D; font-family: "Arial";' textLength='33.70px' lengthAdjust='spacingAndGlyphs'>5e+05</text>
<polyline points='57.27,319.53 60.01,319.53 ' style='stroke-width: 1.07; stroke: #333333; stroke-linecap: butt;' />
<polyline points='57.27,282.91 60.01,282.91 ' style='stroke-width: 1.07; stroke: #333333; stroke-linecap: butt;' />
<polyline points='57.27,246.28 60.01,246.28 ' style='stroke-width: 1.07; stroke: #333333; stroke-linecap: butt;' />
<polyline points='57.27,209.66 60.01,209.66 ' style='stroke-width: 1.07; stroke: #333333; stroke-linecap: butt;' />
<polyline points='57.27,173.04 60.01,173.04 ' style='stroke-width: 1.07; stroke: #333333; stroke-linecap: butt;' />
<polyline points='57.27,136.42 60.01,136.42 ' style='stroke-width: 1.07; stroke: #333333; stroke-linecap: butt;' />
<polyline points='142.23,330.94 142.23,328.20 ' style='stroke-width: 1.07; stroke: #333333; stroke-linecap: butt;' />
<polyline points='279.26,330.94 279.26,328.20 ' style='stroke-width: 1.07; stroke: #333333; stroke-linecap: butt;' />
<polyline points='416.30,330.94 416.30,328.20 ' style='stroke-width: 1.07; stroke: #333333; stroke-linecap: butt;' />
<text transform='translate(142.74,333.64) rotate(-45)' text-anchor='end' style='font-size: 0.00px;fill: #4D4D4D; font-family: "Arial";' textLength='2.94px' lengthAdjust='spacingAndGlyphs'>gplas2</text>
<text transform='translate(279.77,333.64) rotate(-45)' text-anchor='end' style='font-size: 0.00px;fill: #4D4D4D; font-family: "Arial";' textLength='4.72px' lengthAdjust='spacingAndGlyphs'>MOB-suite</text>
<text transform='translate(416.81,333.64) rotate(-45)' text-anchor='end' style='font-size: 0.00px;fill: #4D4D4D; font-family: "Arial";' textLength='7.06px' lengthAdjust='spacingAndGlyphs'>plasmidSPAdes</text>
<text x='279.26' y='351.44' text-anchor='middle' style='font-size: 14.00px; font-weight: bold; font-family: "Arial";' textLength='59.10px' lengthAdjust='spacingAndGlyphs'>Software</text>
<text transform='translate(15.55,231.44) rotate(-90)' text-anchor='middle' style='font-size: 14.00px; font-weight: bold; font-family: "Arial";' textLength='189.72px' lengthAdjust='spacingAndGlyphs'>Chromosome contamination</text>
<rect x='143.86' y='95.48' width='270.81' height='28.24' style='stroke-width: 1.07; stroke: none; fill: #FFFFFF;' />
<text x='149.34' y='109.96' style='font-size: 0.00px; font-family: "Arial";' textLength='3.77px' lengthAdjust='spacingAndGlyphs'>software</text>
<rect x='149.34' y='100.96' width='17.28' height='17.28' style='stroke-width: 1.07; stroke: none; fill: #FFFFFF;' />
<circle cx='157.98' cy='109.60' r='1.95' style='stroke-width: 0.71; stroke: #00FF93; stroke-opacity: 0.30; fill: #00FF93; fill-opacity: 0.30;' />
<rect x='207.86' y='100.96' width='17.28' height='17.28' style='stroke-width: 1.07; stroke: none; fill: #FFFFFF;' />
<circle cx='216.50' cy='109.60' r='1.95' style='stroke-width: 0.71; stroke: #FFC300; stroke-opacity: 0.30; fill: #FFC300; fill-opacity: 0.30;' />
<rect x='294.78' y='100.96' width='17.28' height='17.28' style='stroke-width: 1.07; stroke: none; fill: #FFFFFF;' />
<circle cx='303.42' cy='109.60' r='1.95' style='stroke-width: 0.71; stroke: #F11212; stroke-opacity: 0.30; fill: #F11212; fill-opacity: 0.30;' />
<text x='166.62' y='114.62' style='font-size: 14.00px; font-family: "Arial";' textLength='41.24px' lengthAdjust='spacingAndGlyphs'>gplas2</text>
<text x='225.14' y='114.62' style='font-size: 14.00px; font-family: "Arial";' textLength='66.12px' lengthAdjust='spacingAndGlyphs'>MOB-suite</text>
<text x='312.06' y='114.62' style='font-size: 14.00px; font-family: "Arial";' textLength='98.81px' lengthAdjust='spacingAndGlyphs'>plasmidSPAdes</text>
</g>
</svg>
