<?xml version='1.0' encoding='UTF-8' ?>
<svg xmlns='http://www.w3.org/2000/svg' xmlns:xlink='http://www.w3.org/1999/xlink' class='svglite' width='504.00pt' height='360.00pt' viewBox='0 0 504.00 360.00'>
<defs>
  <style type='text/css'><![CDATA[
    .svglite line, .svglite polyline, .svglite polygon, .svglite path, .svglite rect, .svglite circle {
      fill: none;
      stroke: #000000;
      stroke-linecap: round;
      stroke-linejoin: round;
      stroke-miterlimit: 10.00;
    }
    .svglite text {
      white-space: pre;
    }
  ]]></style>
</defs>
<rect width='100%' height='100%' style='stroke: none; fill: #FFFFFF;'/>
<defs>
  <clipPath id='cpMC4wMHw1MDQuMDB8MC4wMHwzNjAuMDA='>
    <rect x='0.00' y='0.00' width='504.00' height='360.00' />
  </clipPath>
</defs>
<g clip-path='url(#cpMC4wMHw1MDQuMDB8MC4wMHwzNjAuMDA=)'>
</g>
<defs>
  <clipPath id='cpNjAuNzJ8NDk4LjUyfDExLjY4fDMxMS4xOQ=='>
    <rect x='60.72' y='11.68' width='437.80' height='299.51' />
  </clipPath>
</defs>
<g clip-path='url(#cpNjAuNzJ8NDk4LjUyfDExLjY4fDMxMS4xOQ==)'>
<polyline points='60.72,269.28 498.52,269.28 ' style='stroke-width: 0.53; stroke: #EBEBEB; stroke-linecap: butt;' />
<polyline points='60.72,212.70 498.52,212.70 ' style='stroke-width: 0.53; stroke: #EBEBEB; stroke-linecap: butt;' />
<polyline points='60.72,156.11 498.52,156.11 ' style='stroke-width: 0.53; stroke: #EBEBEB; stroke-linecap: butt;' />
<polyline points='60.72,99.53 498.52,99.53 ' style='stroke-width: 0.53; stroke: #EBEBEB; stroke-linecap: butt;' />
<polyline points='60.72,42.95 498.52,42.95 ' style='stroke-width: 0.53; stroke: #EBEBEB; stroke-linecap: butt;' />
<polyline points='77.61,311.19 77.61,11.68 ' style='stroke-width: 0.53; stroke: #EBEBEB; stroke-linecap: butt;' />
<polyline points='198.21,311.19 198.21,11.68 ' style='stroke-width: 0.53; stroke: #EBEBEB; stroke-linecap: butt;' />
<polyline points='318.82,311.19 318.82,11.68 ' style='stroke-width: 0.53; stroke: #EBEBEB; stroke-linecap: butt;' />
<polyline points='439.42,311.19 439.42,11.68 ' style='stroke-width: 0.53; stroke: #EBEBEB; stroke-linecap: butt;' />
<polyline points='60.72,297.57 498.52,297.57 ' style='stroke-width: 1.07; stroke: #EBEBEB; stroke-linecap: butt;' />
<polyline points='60.72,240.99 498.52,240.99 ' style='stroke-width: 1.07; stroke: #EBEBEB; stroke-linecap: butt;' />
<polyline points='60.72,184.41 498.52,184.41 ' style='stroke-width: 1.07; stroke: #EBEBEB; stroke-linecap: butt;' />
<polyline points='60.72,127.82 498.52,127.82 ' style='stroke-width: 1.07; stroke: #EBEBEB; stroke-linecap: butt;' />
<polyline points='60.72,71.24 498.52,71.24 ' style='stroke-width: 1.07; stroke: #EBEBEB; stroke-linecap: butt;' />
<polyline points='60.72,14.66 498.52,14.66 ' style='stroke-width: 1.07; stroke: #EBEBEB; stroke-linecap: butt;' />
<rect x='80.62' y='293.32' width='6.03' height='4.25' style='stroke-width: 1.07; stroke-linecap: butt; stroke-linejoin: miter; fill: #B5B5B5;' />
<rect x='86.65' y='297.57' width='6.03' height='0.00' style='stroke-width: 1.07; stroke-linecap: butt; stroke-linejoin: miter; fill: #B5B5B5;' />
<rect x='92.68' y='297.57' width='6.03' height='0.00' style='stroke-width: 1.07; stroke-linecap: butt; stroke-linejoin: miter; fill: #B5B5B5;' />
<rect x='98.71' y='297.57' width='6.03' height='0.00' style='stroke-width: 1.07; stroke-linecap: butt; stroke-linejoin: miter; fill: #B5B5B5;' />
<rect x='104.74' y='297.57' width='6.03' height='0.00' style='stroke-width: 1.07; stroke-linecap: butt; stroke-linejoin: miter; fill: #B5B5B5;' />
<rect x='110.77' y='293.32' width='6.03' height='4.25' style='stroke-width: 1.07; stroke-linecap: butt; stroke-linejoin: miter; fill: #B5B5B5;' />
<rect x='116.80' y='297.57' width='6.03' height='0.00' style='stroke-width: 1.07; stroke-linecap: butt; stroke-linejoin: miter; fill: #B5B5B5;' />
<rect x='122.84' y='297.57' width='6.03' height='0.00' style='stroke-width: 1.07; stroke-linecap: butt; stroke-linejoin: miter; fill: #B5B5B5;' />
<rect x='128.87' y='297.57' width='6.03' height='0.00' style='stroke-width: 1.07; stroke-linecap: butt; stroke-linejoin: miter; fill: #B5B5B5;' />
<rect x='134.90' y='293.32' width='6.03' height='4.25' style='stroke-width: 1.07; stroke-linecap: butt; stroke-linejoin: miter; fill: #B5B5B5;' />
<rect x='140.93' y='297.57' width='6.03' height='0.00' style='stroke-width: 1.07; stroke-linecap: butt; stroke-linejoin: miter; fill: #B5B5B5;' />
<rect x='146.96' y='297.57' width='6.03' height='0.00' style='stroke-width: 1.07; stroke-linecap: butt; stroke-linejoin: miter; fill: #B5B5B5;' />
<rect x='152.99' y='293.32' width='6.03' height='4.25' style='stroke-width: 1.07; stroke-linecap: butt; stroke-linejoin: miter; fill: #B5B5B5;' />
<rect x='159.02' y='297.57' width='6.03' height='0.00' style='stroke-width: 1.07; stroke-linecap: butt; stroke-linejoin: miter; fill: #B5B5B5;' />
<rect x='165.05' y='293.32' width='6.03' height='4.25' style='stroke-width: 1.07; stroke-linecap: butt; stroke-linejoin: miter; fill: #B5B5B5;' />
<rect x='171.08' y='284.81' width='6.03' height='12.76' style='stroke-width: 1.07; stroke-linecap: butt; stroke-linejoin: miter; fill: #B5B5B5;' />
<rect x='177.11' y='272.05' width='6.03' height='25.53' style='stroke-width: 1.07; stroke-linecap: butt; stroke-linejoin: miter; fill: #B5B5B5;' />
<rect x='183.14' y='276.30' width='6.03' height='21.27' style='stroke-width: 1.07; stroke-linecap: butt; stroke-linejoin: miter; fill: #B5B5B5;' />
<rect x='189.17' y='255.03' width='6.03' height='42.54' style='stroke-width: 1.07; stroke-linecap: butt; stroke-linejoin: miter; fill: #B5B5B5;' />
<rect x='195.20' y='293.32' width='6.03' height='4.25' style='stroke-width: 1.07; stroke-linecap: butt; stroke-linejoin: miter; fill: #B5B5B5;' />
<rect x='201.23' y='280.56' width='6.03' height='17.02' style='stroke-width: 1.07; stroke-linecap: butt; stroke-linejoin: miter; fill: #B5B5B5;' />
<rect x='207.26' y='289.06' width='6.03' height='8.51' style='stroke-width: 1.07; stroke-linecap: butt; stroke-linejoin: miter; fill: #B5B5B5;' />
<rect x='213.29' y='276.30' width='6.03' height='21.27' style='stroke-width: 1.07; stroke-linecap: butt; stroke-linejoin: miter; fill: #B5B5B5;' />
<rect x='219.32' y='263.54' width='6.03' height='34.04' style='stroke-width: 1.07; stroke-linecap: butt; stroke-linejoin: miter; fill: #B5B5B5;' />
<rect x='225.35' y='195.47' width='6.03' height='102.11' style='stroke-width: 1.07; stroke-linecap: butt; stroke-linejoin: miter; fill: #B5B5B5;' />
<rect x='231.38' y='238.01' width='6.03' height='59.56' style='stroke-width: 1.07; stroke-linecap: butt; stroke-linejoin: miter; fill: #B5B5B5;' />
<rect x='237.41' y='238.01' width='6.03' height='59.56' style='stroke-width: 1.07; stroke-linecap: butt; stroke-linejoin: miter; fill: #B5B5B5;' />
<rect x='243.44' y='174.20' width='6.03' height='123.38' style='stroke-width: 1.07; stroke-linecap: butt; stroke-linejoin: miter; fill: #B5B5B5;' />
<rect x='249.47' y='25.29' width='6.03' height='272.28' style='stroke-width: 1.07; stroke-linecap: butt; stroke-linejoin: miter; fill: #B5B5B5;' />
<rect x='255.50' y='233.76' width='6.03' height='63.82' style='stroke-width: 1.07; stroke-linecap: butt; stroke-linejoin: miter; fill: #B5B5B5;' />
<rect x='261.53' y='174.20' width='6.03' height='123.38' style='stroke-width: 1.07; stroke-linecap: butt; stroke-linejoin: miter; fill: #B5B5B5;' />
<rect x='267.56' y='255.03' width='6.03' height='42.54' style='stroke-width: 1.07; stroke-linecap: butt; stroke-linejoin: miter; fill: #B5B5B5;' />
<rect x='273.59' y='255.03' width='6.03' height='42.54' style='stroke-width: 1.07; stroke-linecap: butt; stroke-linejoin: miter; fill: #B5B5B5;' />
<rect x='279.62' y='250.77' width='6.03' height='46.80' style='stroke-width: 1.07; stroke-linecap: butt; stroke-linejoin: miter; fill: #B5B5B5;' />
<rect x='285.65' y='267.79' width='6.03' height='29.78' style='stroke-width: 1.07; stroke-linecap: butt; stroke-linejoin: miter; fill: #B5B5B5;' />
<rect x='291.68' y='267.79' width='6.03' height='29.78' style='stroke-width: 1.07; stroke-linecap: butt; stroke-linejoin: miter; fill: #B5B5B5;' />
<rect x='297.71' y='284.81' width='6.03' height='12.76' style='stroke-width: 1.07; stroke-linecap: butt; stroke-linejoin: miter; fill: #B5B5B5;' />
<rect x='303.74' y='276.30' width='6.03' height='21.27' style='stroke-width: 1.07; stroke-linecap: butt; stroke-linejoin: miter; fill: #B5B5B5;' />
<rect x='309.77' y='280.56' width='6.03' height='17.02' style='stroke-width: 1.07; stroke-linecap: butt; stroke-linejoin: miter; fill: #B5B5B5;' />
<rect x='315.80' y='284.81' width='6.03' height='12.76' style='stroke-width: 1.07; stroke-linecap: butt; stroke-linejoin: miter; fill: #B5B5B5;' />
<rect x='321.83' y='293.32' width='6.03' height='4.25' style='stroke-width: 1.07; stroke-linecap: butt; stroke-linejoin: miter; fill: #B5B5B5;' />
<rect x='327.86' y='272.05' width='6.03' height='25.53' style='stroke-width: 1.07; stroke-linecap: butt; stroke-linejoin: miter; fill: #B5B5B5;' />
<rect x='333.89' y='284.81' width='6.03' height='12.76' style='stroke-width: 1.07; stroke-linecap: butt; stroke-linejoin: miter; fill: #B5B5B5;' />
<rect x='339.92' y='259.28' width='6.03' height='38.29' style='stroke-width: 1.07; stroke-linecap: butt; stroke-linejoin: miter; fill: #B5B5B5;' />
<rect x='345.95' y='267.79' width='6.03' height='29.78' style='stroke-width: 1.07; stroke-linecap: butt; stroke-linejoin: miter; fill: #B5B5B5;' />
<rect x='351.99' y='267.79' width='6.03' height='29.78' style='stroke-width: 1.07; stroke-linecap: butt; stroke-linejoin: miter; fill: #B5B5B5;' />
<rect x='358.02' y='63.58' width='6.03' height='233.99' style='stroke-width: 1.07; stroke-linecap: butt; stroke-linejoin: miter; fill: #B5B5B5;' />
<rect x='364.05' y='186.96' width='6.03' height='110.61' style='stroke-width: 1.07; stroke-linecap: butt; stroke-linejoin: miter; fill: #B5B5B5;' />
<rect x='370.08' y='216.74' width='6.03' height='80.83' style='stroke-width: 1.07; stroke-linecap: butt; stroke-linejoin: miter; fill: #B5B5B5;' />
<rect x='376.11' y='242.27' width='6.03' height='55.31' style='stroke-width: 1.07; stroke-linecap: butt; stroke-linejoin: miter; fill: #B5B5B5;' />
<rect x='382.14' y='97.62' width='6.03' height='199.96' style='stroke-width: 1.07; stroke-linecap: butt; stroke-linejoin: miter; fill: #B5B5B5;' />
<rect x='388.17' y='272.05' width='6.03' height='25.53' style='stroke-width: 1.07; stroke-linecap: butt; stroke-linejoin: miter; fill: #B5B5B5;' />
<rect x='394.20' y='259.28' width='6.03' height='38.29' style='stroke-width: 1.07; stroke-linecap: butt; stroke-linejoin: miter; fill: #B5B5B5;' />
<rect x='400.23' y='284.81' width='6.03' height='12.76' style='stroke-width: 1.07; stroke-linecap: butt; stroke-linejoin: miter; fill: #B5B5B5;' />
<rect x='406.26' y='284.81' width='6.03' height='12.76' style='stroke-width: 1.07; stroke-linecap: butt; stroke-linejoin: miter; fill: #B5B5B5;' />
<rect x='412.29' y='272.05' width='6.03' height='25.53' style='stroke-width: 1.07; stroke-linecap: butt; stroke-linejoin: miter; fill: #B5B5B5;' />
<rect x='418.32' y='250.77' width='6.03' height='46.80' style='stroke-width: 1.07; stroke-linecap: butt; stroke-linejoin: miter; fill: #B5B5B5;' />
<rect x='424.35' y='293.32' width='6.03' height='4.25' style='stroke-width: 1.07; stroke-linecap: butt; stroke-linejoin: miter; fill: #B5B5B5;' />
<rect x='430.38' y='297.57' width='6.03' height='0.00' style='stroke-width: 1.07; stroke-linecap: butt; stroke-linejoin: miter; fill: #B5B5B5;' />
<rect x='436.41' y='293.32' width='6.03' height='4.25' style='stroke-width: 1.07; stroke-linecap: butt; stroke-linejoin: miter; fill: #B5B5B5;' />
<rect x='442.44' y='297.57' width='6.03' height='0.00' style='stroke-width: 1.07; stroke-linecap: butt; stroke-linejoin: miter; fill: #B5B5B5;' />
<rect x='448.47' y='297.57' width='6.03' height='0.00' style='stroke-width: 1.07; stroke-linecap: butt; stroke-linejoin: miter; fill: #B5B5B5;' />
<rect x='454.50' y='297.57' width='6.03' height='0.00' style='stroke-width: 1.07; stroke-linecap: butt; stroke-linejoin: miter; fill: #B5B5B5;' />
<rect x='460.53' y='297.57' width='6.03' height='0.00' style='stroke-width: 1.07; stroke-linecap: butt; stroke-linejoin: miter; fill: #B5B5B5;' />
<rect x='466.56' y='297.57' width='6.03' height='0.00' style='stroke-width: 1.07; stroke-linecap: butt; stroke-linejoin: miter; fill: #B5B5B5;' />
<rect x='472.59' y='293.32' width='6.03' height='4.25' style='stroke-width: 1.07; stroke-linecap: butt; stroke-linejoin: miter; fill: #B5B5B5;' />
<polygon points='84.25,296.82 85.02,296.81 85.79,296.80 86.56,296.78 87.33,296.77 88.10,296.76 88.87,296.75 89.64,296.75 90.41,296.74 91.18,296.73 91.95,296.72 92.72,296.71 93.49,296.71 94.26,296.70 95.03,296.70 95.80,296.69 96.57,296.68 97.34,296.68 98.11,296.67 98.89,296.67 99.66,296.67 100.43,296.66 101.20,296.66 101.97,296.65 102.74,296.65 103.51,296.65 104.28,296.64 105.05,296.64 105.82,296.63 106.59,296.63 107.36,296.63 108.13,296.62 108.90,296.62 109.67,296.61 110.44,296.61 111.21,296.60 111.98,296.60 112.75,296.59 113.52,296.59 114.29,296.58 115.06,296.57 115.83,296.57 116.60,296.56 117.37,296.55 118.14,296.54 118.91,296.53 119.68,296.51 120.45,296.50 121.22,296.49 121.99,296.47 122.76,296.46 123.53,296.44 124.30,296.42 125.07,296.40 125.84,296.37 126.61,296.35 127.38,296.32 128.15,296.29 128.92,296.26 129.69,296.23 130.46,296.19 131.23,296.15 132.00,296.11 132.77,296.06 133.54,296.01 134.31,295.96 135.08,295.90 135.85,295.84 136.62,295.78 137.39,295.71 138.16,295.63 138.93,295.55 139.70,295.47 140.47,295.37 141.24,295.28 142.01,295.17 142.78,295.06 143.55,294.95 144.32,294.82 145.09,294.69 145.86,294.55 146.63,294.41 147.40,294.25 148.17,294.09 148.94,293.92 149.71,293.73 150.48,293.54 151.25,293.35 152.02,293.14 152.79,292.92 153.56,292.69 154.33,292.46 155.10,292.21 155.87,291.95 156.64,291.69 157.41,291.41 158.18,291.13 158.95,290.84 159.72,290.54 160.49,290.23 161.26,289.92 162.03,289.59 162.80,289.26 163.57,288.93 164.34,288.59 165.11,288.24 165.88,287.89 166.65,287.53 167.42,287.18 168.20,286.82 168.97,286.46 169.74,286.09 170.51,285.73 171.28,285.37 172.05,285.01 172.82,284.65 173.59,284.30 174.36,283.94 175.13,283.60 175.90,283.25 176.67,282.91 177.44,282.58 178.21,282.25 178.98,281.93 179.75,281.62 180.52,281.31 181.29,281.01 182.06,280.71 182.83,280.42 183.60,280.13 184.37,279.85 185.14,279.58 185.91,279.30 186.68,279.03 187.45,278.76 188.22,278.49 188.99,278.22 189.76,277.95 190.53,277.68 191.30,277.39 192.07,277.11 192.84,276.81 193.61,276.50 194.38,276.18 195.15,275.84 195.92,275.49 196.69,275.12 197.46,274.73 198.23,274.32 199.00,273.88 199.77,273.42 200.54,272.92 201.31,272.40 202.08,271.84 202.85,271.26 203.62,270.63 204.39,269.96 205.16,269.26 205.93,268.52 206.70,267.73 207.47,266.90 208.24,266.03 209.01,265.12 209.78,264.15 210.55,263.14 211.32,262.09 212.09,260.99 212.86,259.84 213.63,258.65 214.40,257.42 215.17,256.13 215.94,254.81 216.71,253.44 217.48,252.04 218.25,250.59 219.02,249.10 219.79,247.59 220.56,246.04 221.33,244.45 222.10,242.84 222.87,241.20 223.64,239.54 224.41,237.86 225.18,236.16 225.95,234.46 226.72,232.74 227.49,231.02 228.26,229.29 229.03,227.57 229.80,225.86 230.57,224.16 231.34,222.47 232.11,220.80 232.88,219.16 233.65,217.55 234.42,215.96 235.19,214.42 235.96,212.92 236.73,211.47 237.51,210.06 238.28,208.72 239.05,207.43 239.82,206.21 240.59,205.04 241.36,203.97 242.13,202.96 242.90,202.02 243.67,201.17 244.44,200.41 245.21,199.74 245.98,199.13 246.75,198.63 247.52,198.24 248.29,197.92 249.06,197.69 249.83,197.57 250.60,197.55 251.37,197.61 252.14,197.76 252.91,198.03 253.68,198.38 254.45,198.81 255.22,199.33 255.99,199.96 256.76,200.66 257.53,201.44 258.30,202.30 259.07,203.24 259.84,204.25 260.61,205.32 261.38,206.47 262.15,207.67 262.92,208.93 263.69,210.23 264.46,211.60 265.23,213.00 266.00,214.43 266.77,215.90 267.54,217.41 268.31,218.94 269.08,220.48 269.85,222.05 270.62,223.63 271.39,225.21 272.16,226.80 272.93,228.40 273.70,229.98 274.47,231.57 275.24,233.14 276.01,234.70 276.78,236.24 277.55,237.77 278.32,239.29 279.09,240.77 279.86,242.23 280.63,243.67 281.40,245.08 282.17,246.46 282.94,247.81 283.71,249.14 284.48,250.43 285.25,251.68 286.02,252.91 286.79,254.11 287.56,255.26 288.33,256.38 289.10,257.48 289.87,258.54 290.64,259.56 291.41,260.55 292.18,261.51 292.95,262.44 293.72,263.33 294.49,264.19 295.26,265.02 296.03,265.82 296.80,266.58 297.57,267.32 298.34,268.03 299.11,268.70 299.88,269.34 300.65,269.95 301.42,270.54 302.19,271.09 302.96,271.62 303.73,272.11 304.50,272.58 305.27,273.01 306.04,273.42 306.82,273.80 307.59,274.15 308.36,274.47 309.13,274.76 309.90,275.02 310.67,275.24 311.44,275.43 312.21,275.60 312.98,275.73 313.75,275.82 314.52,275.89 315.29,275.92 316.06,275.91 316.83,275.87 317.60,275.79 318.37,275.68 319.14,275.52 319.91,275.33 320.68,275.10 321.45,274.83 322.22,274.51 322.99,274.15 323.76,273.75 324.53,273.31 325.30,272.82 326.07,272.28 326.84,271.70 327.61,271.08 328.38,270.40 329.15,269.67 329.92,268.91 330.69,268.09 331.46,267.21 332.23,266.30 333.00,265.35 333.77,264.32 334.54,263.26 335.31,262.16 336.08,261.01 336.85,259.81 337.62,258.57 338.39,257.29 339.16,255.97 339.93,254.60 340.70,253.20 341.47,251.77 342.24,250.30 343.01,248.81 343.78,247.29 344.55,245.75 345.32,244.18 346.09,242.60 346.86,241.00 347.63,239.40 348.40,237.79 349.17,236.19 349.94,234.58 350.71,232.98 351.48,231.40 352.25,229.83 353.02,228.28 353.79,226.76 354.56,225.27 355.33,223.81 356.10,222.39 356.87,221.02 357.64,219.69 358.41,218.41 359.18,217.18 359.95,216.03 360.72,214.93 361.49,213.89 362.26,212.92 363.03,212.04 363.80,211.22 364.57,210.47 365.34,209.81 366.11,209.24 366.88,208.74 367.65,208.31 368.42,207.99 369.19,207.75 369.96,207.58 370.73,207.50 371.50,207.53 372.27,207.63 373.04,207.80 373.81,208.07 374.58,208.43 375.35,208.85 376.13,209.35 376.90,209.94 377.67,210.61 378.44,211.33 379.21,212.12 379.98,213.00 380.75,213.94 381.52,214.92 382.29,215.97 383.06,217.08 383.83,218.23 384.60,219.43 385.37,220.67 386.14,221.96 386.91,223.28 387.68,224.63 388.45,226.02 389.22,227.43 389.99,228.85 390.76,230.30 391.53,231.77 392.30,233.24 393.07,234.72 393.84,236.21 394.61,237.70 395.38,239.18 396.15,240.67 396.92,242.14 397.69,243.61 398.46,245.06 399.23,246.50 400.00,247.92 400.77,249.33 401.54,250.71 402.31,252.08 403.08,253.41 403.85,254.73 404.62,256.02 405.39,257.29 406.16,258.52 406.93,259.73 407.70,260.91 408.47,262.07 409.24,263.19 410.01,264.29 410.78,265.36 411.55,266.40 412.32,267.41 413.09,268.40 413.86,269.37 414.63,270.30 415.40,271.21 416.17,272.10 416.94,272.96 417.71,273.80 418.48,274.61 419.25,275.41 420.02,276.18 420.79,276.93 421.56,277.67 422.33,278.39 423.10,279.08 423.87,279.76 424.64,280.42 425.41,281.07 426.18,281.70 426.95,282.31 427.72,282.91 428.49,283.49 429.26,284.06 430.03,284.61 430.80,285.15 431.57,285.68 432.34,286.19 433.11,286.68 433.88,287.17 434.65,287.64 435.42,288.09 436.19,288.54 436.96,288.97 437.73,289.38 438.50,289.78 439.27,290.17 440.04,290.55 440.81,290.91 441.58,291.25 442.35,291.59 443.12,291.91 443.89,292.22 444.66,292.51 445.44,292.80 446.21,293.07 446.98,293.32 447.75,293.57 448.52,293.80 449.29,294.02 450.06,294.23 450.83,294.43 451.60,294.61 452.37,294.79 453.14,294.95 453.91,295.11 454.68,295.25 455.45,295.39 456.22,295.52 456.99,295.63 457.76,295.74 458.53,295.84 459.30,295.94 460.07,296.03 460.84,296.11 461.61,296.18 462.38,296.25 463.15,296.31 463.92,296.37 464.69,296.42 465.46,296.47 466.23,296.51 467.00,296.55 467.77,296.59 468.54,296.62 469.31,296.65 470.08,296.68 470.85,296.70 471.62,296.73 472.39,296.75 473.16,296.77 473.93,296.79 474.70,296.81 475.47,296.82 476.24,296.84 477.01,296.85 477.78,296.87 477.78,297.57 477.01,297.57 476.24,297.57 475.47,297.57 474.70,297.57 473.93,297.57 473.16,297.57 472.39,297.57 471.62,297.57 470.85,297.57 470.08,297.57 469.31,297.57 468.54,297.57 467.77,297.57 467.00,297.57 466.23,297.57 465.46,297.57 464.69,297.57 463.92,297.57 463.15,297.57 462.38,297.57 461.61,297.57 460.84,297.57 460.07,297.57 459.30,297.57 458.53,297.57 457.76,297.57 456.99,297.57 456.22,297.57 455.45,297.57 454.68,297.57 453.91,297.57 453.14,297.57 452.37,297.57 451.60,297.57 450.83,297.57 450.06,297.57 449.29,297.57 448.52,297.57 447.75,297.57 446.98,297.57 446.21,297.57 445.44,297.57 444.66,297.57 443.89,297.57 443.12,297.57 442.35,297.57 441.58,297.57 440.81,297.57 440.04,297.57 439.27,297.57 438.50,297.57 437.73,297.57 436.96,297.57 436.19,297.57 435.42,297.57 434.65,297.57 433.88,297.57 433.11,297.57 432.34,297.57 431.57,297.57 430.80,297.57 430.03,297.57 429.26,297.57 428.49,297.57 427.72,297.57 426.95,297.57 426.18,297.57 425.41,297.57 424.64,297.57 423.87,297.57 423.10,297.57 422.33,297.57 421.56,297.57 420.79,297.57 420.02,297.57 419.25,297.57 418.48,297.57 417.71,297.57 416.94,297.57 416.17,297.57 415.40,297.57 414.63,297.57 413.86,297.57 413.09,297.57 412.32,297.57 411.55,297.57 410.78,297.57 410.01,297.57 409.24,297.57 408.47,297.57 407.70,297.57 406.93,297.57 406.16,297.57 405.39,297.57 404.62,297.57 403.85,297.57 403.08,297.57 402.31,297.57 401.54,297.57 400.77,297.57 400.00,297.57 399.23,297.57 398.46,297.57 397.69,297.57 396.92,297.57 396.15,297.57 395.38,297.57 394.61,297.57 393.84,297.57 393.07,297.57 392.30,297.57 391.53,297.57 390.76,297.57 389.99,297.57 389.22,297.57 388.45,297.57 387.68,297.57 386.91,297.57 386.14,297.57 385.37,297.57 384.60,297.57 383.83,297.57 383.06,297.57 382.29,297.57 381.52,297.57 380.75,297.57 379.98,297.57 379.21,297.57 378.44,297.57 377.67,297.57 376.90,297.57 376.13,297.57 375.35,297.57 374.58,297.57 373.81,297.57 373.04,297.57 372.27,297.57 371.50,297.57 370.73,297.57 369.96,297.57 369.19,297.57 368.42,297.57 367.65,297.57 366.88,297.57 366.11,297.57 365.34,297.57 364.57,297.57 363.80,297.57 363.03,297.57 362.26,297.57 361.49,297.57 360.72,297.57 359.95,297.57 359.18,297.57 358.41,297.57 357.64,297.57 356.87,297.57 356.10,297.57 355.33,297.57 354.56,297.57 353.79,297.57 353.02,297.57 352.25,297.57 351.48,297.57 350.71,297.57 349.94,297.57 349.17,297.57 348.40,297.57 347.63,297.57 346.86,297.57 346.09,297.57 345.32,297.57 344.55,297.57 343.78,297.57 343.01,297.57 342.24,297.57 341.47,297.57 340.70,297.57 339.93,297.57 339.16,297.57 338.39,297.57 337.62,297.57 336.85,297.57 336.08,297.57 335.31,297.57 334.54,297.57 333.77,297.57 333.00,297.57 332.23,297.57 331.46,297.57 330.69,297.57 329.92,297.57 329.15,297.57 328.38,297.57 327.61,297.57 326.84,297.57 326.07,297.57 325.30,297.57 324.53,297.57 323.76,297.57 322.99,297.57 322.22,297.57 321.45,297.57 320.68,297.57 319.91,297.57 319.14,297.57 318.37,297.57 317.60,297.57 316.83,297.57 316.06,297.57 315.29,297.57 314.52,297.57 313.75,297.57 312.98,297.57 312.21,297.57 311.44,297.57 310.67,297.57 309.90,297.57 309.13,297.57 308.36,297.57 307.59,297.57 306.82,297.57 306.04,297.57 305.27,297.57 304.50,297.57 303.73,297.57 302.96,297.57 302.19,297.57 301.42,297.57 300.65,297.57 299.88,297.57 299.11,297.57 298.34,297.57 297.57,297.57 296.80,297.57 296.03,297.57 295.26,297.57 294.49,297.57 293.72,297.57 292.95,297.57 292.18,297.57 291.41,297.57 290.64,297.57 289.87,297.57 289.10,297.57 288.33,297.57 287.56,297.57 286.79,297.57 286.02,297.57 285.25,297.57 284.48,297.57 283.71,297.57 282.94,297.57 282.17,297.57 281.40,297.57 280.63,297.57 279.86,297.57 279.09,297.57 278.32,297.57 277.55,297.57 276.78,297.57 276.01,297.57 275.24,297.57 274.47,297.57 273.70,297.57 272.93,297.57 272.16,297.57 271.39,297.57 270.62,297.57 269.85,297.57 269.08,297.57 268.31,297.57 267.54,297.57 266.77,297.57 266.00,297.57 265.23,297.57 264.46,297.57 263.69,297.57 262.92,297.57 262.15,297.57 261.38,297.57 260.61,297.57 259.84,297.57 259.07,297.57 258.30,297.57 257.53,297.57 256.76,297.57 255.99,297.57 255.22,297.57 254.45,297.57 253.68,297.57 252.91,297.57 252.14,297.57 251.37,297.57 250.60,297.57 249.83,297.57 249.06,297.57 248.29,297.57 247.52,297.57 246.75,297.57 245.98,297.57 245.21,297.57 244.44,297.57 243.67,297.57 242.90,297.57 242.13,297.57 241.36,297.57 240.59,297.57 239.82,297.57 239.05,297.57 238.28,297.57 237.51,297.57 236.73,297.57 235.96,297.57 235.19,297.57 234.42,297.57 233.65,297.57 232.88,297.57 232.11,297.57 231.34,297.57 230.57,297.57 229.80,297.57 229.03,297.57 228.26,297.57 227.49,297.57 226.72,297.57 225.95,297.57 225.18,297.57 224.41,297.57 223.64,297.57 222.87,297.57 222.10,297.57 221.33,297.57 220.56,297.57 219.79,297.57 219.02,297.57 218.25,297.57 217.48,297.57 216.71,297.57 215.94,297.57 215.17,297.57 214.40,297.57 213.63,297.57 212.86,297.57 212.09,297.57 211.32,297.57 210.55,297.57 209.78,297.57 209.01,297.57 208.24,297.57 207.47,297.57 206.70,297.57 205.93,297.57 205.16,297.57 204.39,297.57 203.62,297.57 202.85,297.57 202.08,297.57 201.31,297.57 200.54,297.57 199.77,297.57 199.00,297.57 198.23,297.57 197.46,297.57 196.69,297.57 195.92,297.57 195.15,297.57 194.38,297.57 193.61,297.57 192.84,297.57 192.07,297.57 191.30,297.57 190.53,297.57 189.76,297.57 188.99,297.57 188.22,297.57 187.45,297.57 186.68,297.57 185.91,297.57 185.14,297.57 184.37,297.57 183.60,297.57 182.83,297.57 182.06,297.57 181.29,297.57 180.52,297.57 179.75,297.57 178.98,297.57 178.21,297.57 177.44,297.57 176.67,297.57 175.90,297.57 175.13,297.57 174.36,297.57 173.59,297.57 172.82,297.57 172.05,297.57 171.28,297.57 170.51,297.57 169.74,297.57 168.97,297.57 168.20,297.57 167.42,297.57 166.65,297.57 165.88,297.57 165.11,297.57 164.34,297.57 163.57,297.57 162.80,297.57 162.03,297.57 161.26,297.57 160.49,297.57 159.72,297.57 158.95,297.57 158.18,297.57 157.41,297.57 156.64,297.57 155.87,297.57 155.10,297.57 154.33,297.57 153.56,297.57 152.79,297.57 152.02,297.57 151.25,297.57 150.48,297.57 149.71,297.57 148.94,297.57 148.17,297.57 147.40,297.57 146.63,297.57 145.86,297.57 145.09,297.57 144.32,297.57 143.55,297.57 142.78,297.57 142.01,297.57 141.24,297.57 140.47,297.57 139.70,297.57 138.93,297.57 138.16,297.57 137.39,297.57 136.62,297.57 135.85,297.57 135.08,297.57 134.31,297.57 133.54,297.57 132.77,297.57 132.00,297.57 131.23,297.57 130.46,297.57 129.69,297.57 128.92,297.57 128.15,297.57 127.38,297.57 126.61,297.57 125.84,297.57 125.07,297.57 124.30,297.57 123.53,297.57 122.76,297.57 121.99,297.57 121.22,297.57 120.45,297.57 119.68,297.57 118.91,297.57 118.14,297.57 117.37,297.57 116.60,297.57 115.83,297.57 115.06,297.57 114.29,297.57 113.52,297.57 112.75,297.57 111.98,297.57 111.21,297.57 110.44,297.57 109.67,297.57 108.90,297.57 108.13,297.57 107.36,297.57 106.59,297.57 105.82,297.57 105.05,297.57 104.28,297.57 103.51,297.57 102.74,297.57 101.97,297.57 101.20,297.57 100.43,297.57 99.66,297.57 98.89,297.57 98.11,297.57 97.34,297.57 96.57,297.57 95.80,297.57 95.03,297.57 94.26,297.57 93.49,297.57 92.72,297.57 91.95,297.57 91.18,297.57 90.41,297.57 89.64,297.57 88.87,297.57 88.10,297.57 87.33,297.57 86.56,297.57 85.79,297.57 85.02,297.57 84.25,297.57 ' style='stroke-width: 0.00; stroke: none; stroke-linecap: butt; fill: #FF9933; fill-opacity: 0.50;' />
<polyline points='84.25,296.82 85.02,296.81 85.79,296.80 86.56,296.78 87.33,296.77 88.10,296.76 88.87,296.75 89.64,296.75 90.41,296.74 91.18,296.73 91.95,296.72 92.72,296.71 93.49,296.71 94.26,296.70 95.03,296.70 95.80,296.69 96.57,296.68 97.34,296.68 98.11,296.67 98.89,296.67 99.66,296.67 100.43,296.66 101.20,296.66 101.97,296.65 102.74,296.65 103.51,296.65 104.28,296.64 105.05,296.64 105.82,296.63 106.59,296.63 107.36,296.63 108.13,296.62 108.90,296.62 109.67,296.61 110.44,296.61 111.21,296.60 111.98,296.60 112.75,296.59 113.52,296.59 114.29,296.58 115.06,296.57 115.83,296.57 116.60,296.56 117.37,296.55 118.14,296.54 118.91,296.53 119.68,296.51 120.45,296.50 121.22,296.49 121.99,296.47 122.76,296.46 123.53,296.44 124.30,296.42 125.07,296.40 125.84,296.37 126.61,296.35 127.38,296.32 128.15,296.29 128.92,296.26 129.69,296.23 130.46,296.19 131.23,296.15 132.00,296.11 132.77,296.06 133.54,296.01 134.31,295.96 135.08,295.90 135.85,295.84 136.62,295.78 137.39,295.71 138.16,295.63 138.93,295.55 139.70,295.47 140.47,295.37 141.24,295.28 142.01,295.17 142.78,295.06 143.55,294.95 144.32,294.82 145.09,294.69 145.86,294.55 146.63,294.41 147.40,294.25 148.17,294.09 148.94,293.92 149.71,293.73 150.48,293.54 151.25,293.35 152.02,293.14 152.79,292.92 153.56,292.69 154.33,292.46 155.10,292.21 155.87,291.95 156.64,291.69 157.41,291.41 158.18,291.13 158.95,290.84 159.72,290.54 160.49,290.23 161.26,289.92 162.03,289.59 162.80,289.26 163.57,288.93 164.34,288.59 165.11,288.24 165.88,287.89 166.65,287.53 167.42,287.18 168.20,286.82 168.97,286.46 169.74,286.09 170.51,285.73 171.28,285.37 172.05,285.01 172.82,284.65 173.59,284.30 174.36,283.94 175.13,283.60 175.90,283.25 176.67,282.91 177.44,282.58 178.21,282.25 178.98,281.93 179.75,281.62 180.52,281.31 181.29,281.01 182.06,280.71 182.83,280.42 183.60,280.13 184.37,279.85 185.14,279.58 185.91,279.30 186.68,279.03 187.45,278.76 188.22,278.49 188.99,278.22 189.76,277.95 190.53,277.68 191.30,277.39 192.07,277.11 192.84,276.81 193.61,276.50 194.38,276.18 195.15,275.84 195.92,275.49 196.69,275.12 197.46,274.73 198.23,274.32 199.00,273.88 199.77,273.42 200.54,272.92 201.31,272.40 202.08,271.84 202.85,271.26 203.62,270.63 204.39,269.96 205.16,269.26 205.93,268.52 206.70,267.73 207.47,266.90 208.24,266.03 209.01,265.12 209.78,264.15 210.55,263.14 211.32,262.09 212.09,260.99 212.86,259.84 213.63,258.65 214.40,257.42 215.17,256.13 215.94,254.81 216.71,253.44 217.48,252.04 218.25,250.59 219.02,249.10 219.79,247.59 220.56,246.04 221.33,244.45 222.10,242.84 222.87,241.20 223.64,239.54 224.41,237.86 225.18,236.16 225.95,234.46 226.72,232.74 227.49,231.02 228.26,229.29 229.03,227.57 229.80,225.86 230.57,224.16 231.34,222.47 232.11,220.80 232.88,219.16 233.65,217.55 234.42,215.96 235.19,214.42 235.96,212.92 236.73,211.47 237.51,210.06 238.28,208.72 239.05,207.43 239.82,206.21 240.59,205.04 241.36,203.97 242.13,202.96 242.90,202.02 243.67,201.17 244.44,200.41 245.21,199.74 245.98,199.13 246.75,198.63 247.52,198.24 248.29,197.92 249.06,197.69 249.83,197.57 250.60,197.55 251.37,197.61 252.14,197.76 252.91,198.03 253.68,198.38 254.45,198.81 255.22,199.33 255.99,199.96 256.76,200.66 257.53,201.44 258.30,202.30 259.07,203.24 259.84,204.25 260.61,205.32 261.38,206.47 262.15,207.67 262.92,208.93 263.69,210.23 264.46,211.60 265.23,213.00 266.00,214.43 266.77,215.90 267.54,217.41 268.31,218.94 269.08,220.48 269.85,222.05 270.62,223.63 271.39,225.21 272.16,226.80 272.93,228.40 273.70,229.98 274.47,231.57 275.24,233.14 276.01,234.70 276.78,236.24 277.55,237.77 278.32,239.29 279.09,240.77 279.86,242.23 280.63,243.67 281.40,245.08 282.17,246.46 282.94,247.81 283.71,249.14 284.48,250.43 285.25,251.68 286.02,252.91 286.79,254.11 287.56,255.26 288.33,256.38 289.10,257.48 289.87,258.54 290.64,259.56 291.41,260.55 292.18,261.51 292.95,262.44 293.72,263.33 294.49,264.19 295.26,265.02 296.03,265.82 296.80,266.58 297.57,267.32 298.34,268.03 299.11,268.70 299.88,269.34 300.65,269.95 301.42,270.54 302.19,271.09 302.96,271.62 303.73,272.11 304.50,272.58 305.27,273.01 306.04,273.42 306.82,273.80 307.59,274.15 308.36,274.47 309.13,274.76 309.90,275.02 310.67,275.24 311.44,275.43 312.21,275.60 312.98,275.73 313.75,275.82 314.52,275.89 315.29,275.92 316.06,275.91 316.83,275.87 317.60,275.79 318.37,275.68 319.14,275.52 319.91,275.33 320.68,275.10 321.45,274.83 322.22,274.51 322.99,274.15 323.76,273.75 324.53,273.31 325.30,272.82 326.07,272.28 326.84,271.70 327.61,271.08 328.38,270.40 329.15,269.67 329.92,268.91 330.69,268.09 331.46,267.21 332.23,266.30 333.00,265.35 333.77,264.32 334.54,263.26 335.31,262.16 336.08,261.01 336.85,259.81 337.62,258.57 338.39,257.29 339.16,255.97 339.93,254.60 340.70,253.20 341.47,251.77 342.24,250.30 343.01,248.81 343.78,247.29 344.55,245.75 345.32,244.18 346.09,242.60 346.86,241.00 347.63,239.40 348.40,237.79 349.17,236.19 349.94,234.58 350.71,232.98 351.48,231.40 352.25,229.83 353.02,228.28 353.79,226.76 354.56,225.27 355.33,223.81 356.10,222.39 356.87,221.02 357.64,219.69 358.41,218.41 359.18,217.18 359.95,216.03 360.72,214.93 361.49,213.89 362.26,212.92 363.03,212.04 363.80,211.22 364.57,210.47 365.34,209.81 366.11,209.24 366.88,208.74 367.65,208.31 368.42,207.99 369.19,207.75 369.96,207.58 370.73,207.50 371.50,207.53 372.27,207.63 373.04,207.80 373.81,208.07 374.58,208.43 375.35,208.85 376.13,209.35 376.90,209.94 377.67,210.61 378.44,211.33 379.21,212.12 379.98,213.00 380.75,213.94 381.52,214.92 382.29,215.97 383.06,217.08 383.83,218.23 384.60,219.43 385.37,220.67 386.14,221.96 386.91,223.28 387.68,224.63 388.45,226.02 389.22,227.43 389.99,228.85 390.76,230.30 391.53,231.77 392.30,233.24 393.07,234.72 393.84,236.21 394.61,237.70 395.38,239.18 396.15,240.67 396.92,242.14 397.69,243.61 398.46,245.06 399.23,246.50 400.00,247.92 400.77,249.33 401.54,250.71 402.31,252.08 403.08,253.41 403.85,254.73 404.62,256.02 405.39,257.29 406.16,258.52 406.93,259.73 407.70,260.91 408.47,262.07 409.24,263.19 410.01,264.29 410.78,265.36 411.55,266.40 412.32,267.41 413.09,268.40 413.86,269.37 414.63,270.30 415.40,271.21 416.17,272.10 416.94,272.96 417.71,273.80 418.48,274.61 419.25,275.41 420.02,276.18 420.79,276.93 421.56,277.67 422.33,278.39 423.10,279.08 423.87,279.76 424.64,280.42 425.41,281.07 426.18,281.70 426.95,282.31 427.72,282.91 428.49,283.49 429.26,284.06 430.03,284.61 430.80,285.15 431.57,285.68 432.34,286.19 433.11,286.68 433.88,287.17 434.65,287.64 435.42,288.09 436.19,288.54 436.96,288.97 437.73,289.38 438.50,289.78 439.27,290.17 440.04,290.55 440.81,290.91 441.58,291.25 442.35,291.59 443.12,291.91 443.89,292.22 444.66,292.51 445.44,292.80 446.21,293.07 446.98,293.32 447.75,293.57 448.52,293.80 449.29,294.02 450.06,294.23 450.83,294.43 451.60,294.61 452.37,294.79 453.14,294.95 453.91,295.11 454.68,295.25 455.45,295.39 456.22,295.52 456.99,295.63 457.76,295.74 458.53,295.84 459.30,295.94 460.07,296.03 460.84,296.11 461.61,296.18 462.38,296.25 463.15,296.31 463.92,296.37 464.69,296.42 465.46,296.47 466.23,296.51 467.00,296.55 467.77,296.59 468.54,296.62 469.31,296.65 470.08,296.68 470.85,296.70 471.62,296.73 472.39,296.75 473.16,296.77 473.93,296.79 474.70,296.81 475.47,296.82 476.24,296.84 477.01,296.85 477.78,296.87 ' style='stroke-width: 1.07; stroke-linecap: butt;' />
<line x1='318.82' y1='311.19' x2='318.82' y2='11.68' style='stroke-width: 1.07; stroke-dasharray: 5.69,5.69; stroke-linecap: butt;' />
</g>
<g clip-path='url(#cpMC4wMHw1MDQuMDB8MC4wMHwzNjAuMDA=)'>
<text x='55.79' y='304.03' text-anchor='end' style='font-size: 18.00px;fill: #4D4D4D; font-family: "Arial";' textLength='25.02px' lengthAdjust='spacingAndGlyphs'>0.0</text>
<text x='55.79' y='247.44' text-anchor='end' style='font-size: 18.00px;fill: #4D4D4D; font-family: "Arial";' textLength='25.02px' lengthAdjust='spacingAndGlyphs'>0.5</text>
<text x='55.79' y='190.86' text-anchor='end' style='font-size: 18.00px;fill: #4D4D4D; font-family: "Arial";' textLength='25.02px' lengthAdjust='spacingAndGlyphs'>1.0</text>
<text x='55.79' y='134.28' text-anchor='end' style='font-size: 18.00px;fill: #4D4D4D; font-family: "Arial";' textLength='25.02px' lengthAdjust='spacingAndGlyphs'>1.5</text>
<text x='55.79' y='77.69' text-anchor='end' style='font-size: 18.00px;fill: #4D4D4D; font-family: "Arial";' textLength='25.02px' lengthAdjust='spacingAndGlyphs'>2.0</text>
<text x='55.79' y='21.11' text-anchor='end' style='font-size: 18.00px;fill: #4D4D4D; font-family: "Arial";' textLength='25.02px' lengthAdjust='spacingAndGlyphs'>2.5</text>
<text x='137.91' y='329.03' text-anchor='middle' style='font-size: 18.00px;fill: #4D4D4D; font-family: "Arial";' textLength='10.01px' lengthAdjust='spacingAndGlyphs'>3</text>
<text x='258.52' y='329.03' text-anchor='middle' style='font-size: 18.00px;fill: #4D4D4D; font-family: "Arial";' textLength='10.01px' lengthAdjust='spacingAndGlyphs'>4</text>
<text x='379.12' y='329.03' text-anchor='middle' style='font-size: 18.00px;fill: #4D4D4D; font-family: "Arial";' textLength='10.01px' lengthAdjust='spacingAndGlyphs'>5</text>
<text x='279.62' y='350.12' text-anchor='middle' style='font-size: 20.00px; font-weight: bold; font-family: "Arial";' textLength='108.87px' lengthAdjust='spacingAndGlyphs'>log (length)</text>
<text transform='translate(22.75,161.43) rotate(-90)' text-anchor='middle' style='font-size: 24.00px; font-weight: bold; font-family: "Arial";' textLength='86.70px' lengthAdjust='spacingAndGlyphs'>Density</text>
<text x='279.62' y='6.20' text-anchor='middle' style='font-size: 0.00px; font-weight: bold; font-family: "Arial";' textLength='13.47px' lengthAdjust='spacingAndGlyphs'>Plasmids length distribution</text>
</g>
</svg>
