GCF_018093225.1_ASM1809322v1,S37_LN_i_14865_dp_f_0.2743748814337448,14865,
GCF_018093225.1_ASM1809322v1,S47_LN_i_7976_dp_f_0.9115629625746992,7976,
GCF_016889945.1_ASM1688994v1,S20_LN_i_3111_dp_f_20.790731204570925,3111,
GCF_019653615.1_ASM1965361v1,S42_LN_i_11132_dp_f_2.6781722204904606,11132,
