"strain","bin_name","reference_id","self_alignment_length","length_classification","true_nr_args","arg_plasmid","variable","value","software","species"
"GCF_017161095.1","bin_component_0","NZ_CP046477.1",16100,"large",0,"non-ARG-plasmid","accuracy",0.995,"plasmidSPAdes","S. aureus"
"GCF_022405515.1","bin_component_0","NZ_CP062385.1",20730,"large",1,"ARG-plasmid","accuracy",0.994,"plasmidSPAdes","S. aureus"
"GCF_017088385.1","bin_component_2","NZ_CP070984.1",20565,"large",1,"ARG-plasmid","accuracy",0.887,"plasmidSPAdes","S. aureus"
"GCF_022404695.1","bin_component_1","NZ_CP062335.1",20691,"large",1,"ARG-plasmid","accuracy",0.994,"plasmidSPAdes","S. aureus"
"GCF_022405495.1","bin_component_0","NZ_CP062383.1",39284,"large",0,"non-ARG-plasmid","accuracy",0.98,"plasmidSPAdes","S. aureus"
"GCF_022405595.1","bin_component_0","NZ_CP062394.1",27025,"large",1,"ARG-plasmid","accuracy",0.992,"plasmidSPAdes","S. aureus"
"GCF_022405075.1","bin_component_1","NZ_CP062347.1",39036,"large",0,"non-ARG-plasmid","accuracy",0.978,"plasmidSPAdes","S. aureus"
"GCF_022405435.1","bin_component_1","NZ_CP062377.1",19781,"large",1,"ARG-plasmid","accuracy",0.994,"plasmidSPAdes","S. aureus"
"GCF_022405335.1","bin_component_0","NZ_CP062365.1",27117,"large",1,"ARG-plasmid","accuracy",0.988,"plasmidSPAdes","S. aureus"
"GCF_022369595.1","bin_component_0","NZ_CP062315.1",26024,"large",4,"ARG-plasmid","accuracy",0.892,"plasmidSPAdes","S. aureus"
"GCF_022404715.1","bin_component_1","NZ_CP062337.1",20730,"large",1,"ARG-plasmid","accuracy",0.994,"plasmidSPAdes","S. aureus"
"GCF_022405455.1","bin_component_1","NZ_CP062379.1",27265,"large",1,"ARG-plasmid","accuracy",0.995,"plasmidSPAdes","S. aureus"
"GCF_022404595.1","bin_component_1","NZ_CP062323.1",20691,"large",1,"ARG-plasmid","accuracy",0.994,"plasmidSPAdes","S. aureus"
"GCF_022405615.1","bin_component_1","NZ_CP062397.1",37438,"large",0,"non-ARG-plasmid","accuracy",0.985,"plasmidSPAdes","S. aureus"
"GCF_022405615.1","bin_component_0","NZ_CP062396.1",43414,"large",0,"non-ARG-plasmid","accuracy",0.997,"plasmidSPAdes","S. aureus"
"GCF_022405145.1","bin_component_1","NZ_CP062349.1",20653,"large",1,"ARG-plasmid","accuracy",0.994,"plasmidSPAdes","S. aureus"
"GCF_022369535.1","bin_component_1","NZ_CP062313.1",NA,"large",1,"ARG-plasmid","accuracy",0.993,"plasmidSPAdes","S. aureus"
"GCF_022404675.1","bin_component_1","NZ_CP062332.1",12859,"large",1,"ARG-plasmid","accuracy",0.797,"plasmidSPAdes","S. aureus"
"GCF_022405355.1","bin_component_1","NZ_CP062367.1",25316,"large",4,"ARG-plasmid","accuracy",0.982,"plasmidSPAdes","S. aureus"
"GCF_017161095.1","bin_component_0","NZ_CP046477.1",16100,"large",0,"non-ARG-plasmid","completeness",1,"plasmidSPAdes","S. aureus"
"GCF_022405515.1","bin_component_0","NZ_CP062385.1",20730,"large",1,"ARG-plasmid","completeness",1,"plasmidSPAdes","S. aureus"
"GCF_017088385.1","bin_component_2","NZ_CP070984.1",20565,"large",1,"ARG-plasmid","completeness",1,"plasmidSPAdes","S. aureus"
"GCF_022404695.1","bin_component_1","NZ_CP062335.1",20691,"large",1,"ARG-plasmid","completeness",1,"plasmidSPAdes","S. aureus"
"GCF_022405495.1","bin_component_0","NZ_CP062383.1",39284,"large",0,"non-ARG-plasmid","completeness",0.947,"plasmidSPAdes","S. aureus"
"GCF_022405595.1","bin_component_0","NZ_CP062394.1",27025,"large",1,"ARG-plasmid","completeness",0.985,"plasmidSPAdes","S. aureus"
"GCF_022405075.1","bin_component_1","NZ_CP062347.1",39036,"large",0,"non-ARG-plasmid","completeness",0.898,"plasmidSPAdes","S. aureus"
"GCF_022405435.1","bin_component_1","NZ_CP062377.1",19781,"large",1,"ARG-plasmid","completeness",1,"plasmidSPAdes","S. aureus"
"GCF_022405335.1","bin_component_0","NZ_CP062365.1",27117,"large",1,"ARG-plasmid","completeness",0.992,"plasmidSPAdes","S. aureus"
"GCF_022369595.1","bin_component_0","NZ_CP062315.1",26024,"large",4,"ARG-plasmid","completeness",0.99,"plasmidSPAdes","S. aureus"
"GCF_022404715.1","bin_component_1","NZ_CP062337.1",20730,"large",1,"ARG-plasmid","completeness",1,"plasmidSPAdes","S. aureus"
"GCF_022405455.1","bin_component_1","NZ_CP062379.1",27265,"large",1,"ARG-plasmid","completeness",1,"plasmidSPAdes","S. aureus"
"GCF_022404595.1","bin_component_1","NZ_CP062323.1",20691,"large",1,"ARG-plasmid","completeness",1,"plasmidSPAdes","S. aureus"
"GCF_022405615.1","bin_component_1","NZ_CP062397.1",37438,"large",0,"non-ARG-plasmid","completeness",0.973,"plasmidSPAdes","S. aureus"
"GCF_022405615.1","bin_component_0","NZ_CP062396.1",43414,"large",0,"non-ARG-plasmid","completeness",1,"plasmidSPAdes","S. aureus"
"GCF_022405145.1","bin_component_1","NZ_CP062349.1",20653,"large",1,"ARG-plasmid","completeness",1,"plasmidSPAdes","S. aureus"
"GCF_022369535.1","bin_component_1","NZ_CP062313.1",NA,"large",1,"ARG-plasmid","completeness",1,"plasmidSPAdes","S. aureus"
"GCF_022404675.1","bin_component_1","NZ_CP062332.1",12859,"large",1,"ARG-plasmid","completeness",1,"plasmidSPAdes","S. aureus"
"GCF_022405355.1","bin_component_1","NZ_CP062367.1",25316,"large",4,"ARG-plasmid","completeness",1,"plasmidSPAdes","S. aureus"
"GCF_017161095.1","bin_component_0","NZ_CP046477.1",16100,"large",0,"non-ARG-plasmid","F1_score",0.997,"plasmidSPAdes","S. aureus"
"GCF_022405515.1","bin_component_0","NZ_CP062385.1",20730,"large",1,"ARG-plasmid","F1_score",0.997,"plasmidSPAdes","S. aureus"
"GCF_017088385.1","bin_component_2","NZ_CP070984.1",20565,"large",1,"ARG-plasmid","F1_score",0.94,"plasmidSPAdes","S. aureus"
"GCF_022404695.1","bin_component_1","NZ_CP062335.1",20691,"large",1,"ARG-plasmid","F1_score",0.997,"plasmidSPAdes","S. aureus"
"GCF_022405495.1","bin_component_0","NZ_CP062383.1",39284,"large",0,"non-ARG-plasmid","F1_score",0.963,"plasmidSPAdes","S. aureus"
"GCF_022405595.1","bin_component_0","NZ_CP062394.1",27025,"large",1,"ARG-plasmid","F1_score",0.988,"plasmidSPAdes","S. aureus"
"GCF_022405075.1","bin_component_1","NZ_CP062347.1",39036,"large",0,"non-ARG-plasmid","F1_score",0.936,"plasmidSPAdes","S. aureus"
"GCF_022405435.1","bin_component_1","NZ_CP062377.1",19781,"large",1,"ARG-plasmid","F1_score",0.997,"plasmidSPAdes","S. aureus"
"GCF_022405335.1","bin_component_0","NZ_CP062365.1",27117,"large",1,"ARG-plasmid","F1_score",0.99,"plasmidSPAdes","S. aureus"
"GCF_022369595.1","bin_component_0","NZ_CP062315.1",26024,"large",4,"ARG-plasmid","F1_score",0.938,"plasmidSPAdes","S. aureus"
"GCF_022404715.1","bin_component_1","NZ_CP062337.1",20730,"large",1,"ARG-plasmid","F1_score",0.997,"plasmidSPAdes","S. aureus"
"GCF_022405455.1","bin_component_1","NZ_CP062379.1",27265,"large",1,"ARG-plasmid","F1_score",0.997,"plasmidSPAdes","S. aureus"
"GCF_022404595.1","bin_component_1","NZ_CP062323.1",20691,"large",1,"ARG-plasmid","F1_score",0.997,"plasmidSPAdes","S. aureus"
"GCF_022405615.1","bin_component_1","NZ_CP062397.1",37438,"large",0,"non-ARG-plasmid","F1_score",0.979,"plasmidSPAdes","S. aureus"
"GCF_022405615.1","bin_component_0","NZ_CP062396.1",43414,"large",0,"non-ARG-plasmid","F1_score",0.998,"plasmidSPAdes","S. aureus"
"GCF_022405145.1","bin_component_1","NZ_CP062349.1",20653,"large",1,"ARG-plasmid","F1_score",0.997,"plasmidSPAdes","S. aureus"
"GCF_022369535.1","bin_component_1","NZ_CP062313.1",NA,"large",1,"ARG-plasmid","F1_score",0.996,"plasmidSPAdes","S. aureus"
"GCF_022404675.1","bin_component_1","NZ_CP062332.1",12859,"large",1,"ARG-plasmid","F1_score",0.887,"plasmidSPAdes","S. aureus"
"GCF_022405355.1","bin_component_1","NZ_CP062367.1",25316,"large",4,"ARG-plasmid","F1_score",0.991,"plasmidSPAdes","S. aureus"
"GCF_022369595.1","GCF_022369595.1_ASM2236959v1_bin_1","NZ_CP062315.1",26024,"large",4,"ARG-plasmid","accuracy",1,"gplas2","S. aureus"
"GCF_022405495.1","GCF_022405495.1_ASM2240549v1_bin_1","NZ_CP062383.1",39284,"large",0,"non-ARG-plasmid","accuracy",1,"gplas2","S. aureus"
"GCF_022404695.1","GCF_022404695.1_ASM2240469v1_bin_1","NZ_CP062335.1",20691,"large",1,"ARG-plasmid","accuracy",1,"gplas2","S. aureus"
"GCF_022405355.1","GCF_022405355.1_ASM2240535v1_bin_1","NZ_CP062367.1",25316,"large",4,"ARG-plasmid","accuracy",1,"gplas2","S. aureus"
"GCF_022404675.1","GCF_022404675.1_ASM2240467v1_bin_1","NZ_CP062332.1",12859,"large",1,"ARG-plasmid","accuracy",1,"gplas2","S. aureus"
"GCF_022405435.1","GCF_022405435.1_ASM2240543v1_bin_1","NZ_CP062377.1",19781,"large",1,"ARG-plasmid","accuracy",1,"gplas2","S. aureus"
"GCF_022405335.1","GCF_022405335.1_ASM2240533v1_bin_1","NZ_CP062365.1",27117,"large",1,"ARG-plasmid","accuracy",1,"gplas2","S. aureus"
"GCF_017088385.1","GCF_017088385.1_ASM1708838v1_bin_1","NZ_CP070984.1",20565,"large",1,"ARG-plasmid","accuracy",0.992,"gplas2","S. aureus"
"GCF_022404715.1","GCF_022404715.1_ASM2240471v1_bin_1","NZ_CP062337.1",20730,"large",1,"ARG-plasmid","accuracy",1,"gplas2","S. aureus"
"GCF_022405075.1","GCF_022405075.1_ASM2240507v1_bin_1","NZ_CP062347.1",39036,"large",0,"non-ARG-plasmid","accuracy",1,"gplas2","S. aureus"
"GCF_022405615.1","GCF_022405615.1_ASM2240561v1_bin_1","NZ_CP062397.1",37438,"large",0,"non-ARG-plasmid","accuracy",1,"gplas2","S. aureus"
"GCF_022405515.1","GCF_022405515.1_ASM2240551v1_bin_1","NZ_CP062385.1",20730,"large",1,"ARG-plasmid","accuracy",1,"gplas2","S. aureus"
"GCF_022405455.1","GCF_022405455.1_ASM2240545v1_bin_1","NZ_CP062379.1",27265,"large",1,"ARG-plasmid","accuracy",1,"gplas2","S. aureus"
"GCF_022405595.1","GCF_022405595.1_ASM2240559v1_bin_1","NZ_CP062394.1",27025,"large",1,"ARG-plasmid","accuracy",1,"gplas2","S. aureus"
"GCF_022404595.1","GCF_022404595.1_ASM2240459v1_bin_1","NZ_CP062323.1",20691,"large",1,"ARG-plasmid","accuracy",1,"gplas2","S. aureus"
"GCF_017161095.1","GCF_017161095.1_ASM1716109v1_bin_1","NZ_CP046477.1",16100,"large",0,"non-ARG-plasmid","accuracy",1,"gplas2","S. aureus"
"GCF_022405145.1","GCF_022405145.1_ASM2240514v1_bin_1","NZ_CP062349.1",20653,"large",1,"ARG-plasmid","accuracy",1,"gplas2","S. aureus"
"GCF_022369595.1","GCF_022369595.1_ASM2236959v1_bin_1","NZ_CP062315.1",26024,"large",4,"ARG-plasmid","completeness",0.963,"gplas2","S. aureus"
"GCF_022405495.1","GCF_022405495.1_ASM2240549v1_bin_1","NZ_CP062383.1",39284,"large",0,"non-ARG-plasmid","completeness",0.906,"gplas2","S. aureus"
"GCF_022404695.1","GCF_022404695.1_ASM2240469v1_bin_1","NZ_CP062335.1",20691,"large",1,"ARG-plasmid","completeness",1,"gplas2","S. aureus"
"GCF_022405355.1","GCF_022405355.1_ASM2240535v1_bin_1","NZ_CP062367.1",25316,"large",4,"ARG-plasmid","completeness",0.935,"gplas2","S. aureus"
"GCF_022404675.1","GCF_022404675.1_ASM2240467v1_bin_1","NZ_CP062332.1",12859,"large",1,"ARG-plasmid","completeness",0.977,"gplas2","S. aureus"
"GCF_022405435.1","GCF_022405435.1_ASM2240543v1_bin_1","NZ_CP062377.1",19781,"large",1,"ARG-plasmid","completeness",1,"gplas2","S. aureus"
"GCF_022405335.1","GCF_022405335.1_ASM2240533v1_bin_1","NZ_CP062365.1",27117,"large",1,"ARG-plasmid","completeness",0.987,"gplas2","S. aureus"
"GCF_017088385.1","GCF_017088385.1_ASM1708838v1_bin_1","NZ_CP070984.1",20565,"large",1,"ARG-plasmid","completeness",0.992,"gplas2","S. aureus"
"GCF_022404715.1","GCF_022404715.1_ASM2240471v1_bin_1","NZ_CP062337.1",20730,"large",1,"ARG-plasmid","completeness",1,"gplas2","S. aureus"
"GCF_022405075.1","GCF_022405075.1_ASM2240507v1_bin_1","NZ_CP062347.1",39036,"large",0,"non-ARG-plasmid","completeness",0.863,"gplas2","S. aureus"
"GCF_022405615.1","GCF_022405615.1_ASM2240561v1_bin_1","NZ_CP062397.1",37438,"large",0,"non-ARG-plasmid","completeness",0.951,"gplas2","S. aureus"
"GCF_022405515.1","GCF_022405515.1_ASM2240551v1_bin_1","NZ_CP062385.1",20730,"large",1,"ARG-plasmid","completeness",1,"gplas2","S. aureus"
"GCF_022405455.1","GCF_022405455.1_ASM2240545v1_bin_1","NZ_CP062379.1",27265,"large",1,"ARG-plasmid","completeness",1,"gplas2","S. aureus"
"GCF_022405595.1","GCF_022405595.1_ASM2240559v1_bin_1","NZ_CP062394.1",27025,"large",1,"ARG-plasmid","completeness",0.985,"gplas2","S. aureus"
"GCF_022404595.1","GCF_022404595.1_ASM2240459v1_bin_1","NZ_CP062323.1",20691,"large",1,"ARG-plasmid","completeness",1,"gplas2","S. aureus"
"GCF_017161095.1","GCF_017161095.1_ASM1716109v1_bin_1","NZ_CP046477.1",16100,"large",0,"non-ARG-plasmid","completeness",1,"gplas2","S. aureus"
"GCF_022405145.1","GCF_022405145.1_ASM2240514v1_bin_1","NZ_CP062349.1",20653,"large",1,"ARG-plasmid","completeness",1,"gplas2","S. aureus"
"GCF_022369595.1","GCF_022369595.1_ASM2236959v1_bin_1","NZ_CP062315.1",26024,"large",4,"ARG-plasmid","F1_score",0.981,"gplas2","S. aureus"
"GCF_022405495.1","GCF_022405495.1_ASM2240549v1_bin_1","NZ_CP062383.1",39284,"large",0,"non-ARG-plasmid","F1_score",0.951,"gplas2","S. aureus"
"GCF_022404695.1","GCF_022404695.1_ASM2240469v1_bin_1","NZ_CP062335.1",20691,"large",1,"ARG-plasmid","F1_score",1,"gplas2","S. aureus"
"GCF_022405355.1","GCF_022405355.1_ASM2240535v1_bin_1","NZ_CP062367.1",25316,"large",4,"ARG-plasmid","F1_score",0.966,"gplas2","S. aureus"
"GCF_022404675.1","GCF_022404675.1_ASM2240467v1_bin_1","NZ_CP062332.1",12859,"large",1,"ARG-plasmid","F1_score",0.988,"gplas2","S. aureus"
"GCF_022405435.1","GCF_022405435.1_ASM2240543v1_bin_1","NZ_CP062377.1",19781,"large",1,"ARG-plasmid","F1_score",1,"gplas2","S. aureus"
"GCF_022405335.1","GCF_022405335.1_ASM2240533v1_bin_1","NZ_CP062365.1",27117,"large",1,"ARG-plasmid","F1_score",0.993,"gplas2","S. aureus"
"GCF_017088385.1","GCF_017088385.1_ASM1708838v1_bin_1","NZ_CP070984.1",20565,"large",1,"ARG-plasmid","F1_score",0.992,"gplas2","S. aureus"
"GCF_022404715.1","GCF_022404715.1_ASM2240471v1_bin_1","NZ_CP062337.1",20730,"large",1,"ARG-plasmid","F1_score",1,"gplas2","S. aureus"
"GCF_022405075.1","GCF_022405075.1_ASM2240507v1_bin_1","NZ_CP062347.1",39036,"large",0,"non-ARG-plasmid","F1_score",0.926,"gplas2","S. aureus"
"GCF_022405615.1","GCF_022405615.1_ASM2240561v1_bin_1","NZ_CP062397.1",37438,"large",0,"non-ARG-plasmid","F1_score",0.975,"gplas2","S. aureus"
"GCF_022405515.1","GCF_022405515.1_ASM2240551v1_bin_1","NZ_CP062385.1",20730,"large",1,"ARG-plasmid","F1_score",1,"gplas2","S. aureus"
"GCF_022405455.1","GCF_022405455.1_ASM2240545v1_bin_1","NZ_CP062379.1",27265,"large",1,"ARG-plasmid","F1_score",1,"gplas2","S. aureus"
"GCF_022405595.1","GCF_022405595.1_ASM2240559v1_bin_1","NZ_CP062394.1",27025,"large",1,"ARG-plasmid","F1_score",0.992,"gplas2","S. aureus"
"GCF_022404595.1","GCF_022404595.1_ASM2240459v1_bin_1","NZ_CP062323.1",20691,"large",1,"ARG-plasmid","F1_score",1,"gplas2","S. aureus"
"GCF_017161095.1","GCF_017161095.1_ASM1716109v1_bin_1","NZ_CP046477.1",16100,"large",0,"non-ARG-plasmid","F1_score",1,"gplas2","S. aureus"
"GCF_022405145.1","GCF_022405145.1_ASM2240514v1_bin_1","NZ_CP062349.1",20653,"large",1,"ARG-plasmid","F1_score",1,"gplas2","S. aureus"
"GCF_022404675.1","plasmid_AA840","NZ_CP062332.1",12859,"large",1,"ARG-plasmid","accuracy",1,"MOB-suite","S. aureus"
"GCF_022404595.1","plasmid_AA411","NZ_CP062323.1",20691,"large",1,"ARG-plasmid","accuracy",1,"MOB-suite","S. aureus"
"GCF_022405145.1","plasmid_AA411","NZ_CP062349.1",20653,"large",1,"ARG-plasmid","accuracy",1,"MOB-suite","S. aureus"
"GCF_017161095.1","plasmid_AA851","NZ_CP046477.1",16100,"large",0,"non-ARG-plasmid","accuracy",1,"MOB-suite","S. aureus"
"GCF_022405615.1","plasmid_AA837","NZ_CP062397.1",37438,"large",0,"non-ARG-plasmid","accuracy",1,"MOB-suite","S. aureus"
"GCF_022405355.1","plasmid_AA840","NZ_CP062367.1",25316,"large",4,"ARG-plasmid","accuracy",1,"MOB-suite","S. aureus"
"GCF_022404715.1","plasmid_AA411","NZ_CP062337.1",20730,"large",1,"ARG-plasmid","accuracy",1,"MOB-suite","S. aureus"
"GCF_022405455.1","plasmid_AA848","NZ_CP062379.1",27265,"large",1,"ARG-plasmid","accuracy",0.95,"MOB-suite","S. aureus"
"GCF_022405515.1","plasmid_AA411","NZ_CP062385.1",20730,"large",1,"ARG-plasmid","accuracy",1,"MOB-suite","S. aureus"
"GCF_022404695.1","plasmid_AA411","NZ_CP062335.1",20691,"large",1,"ARG-plasmid","accuracy",1,"MOB-suite","S. aureus"
"GCF_022405595.1","plasmid_AA848","NZ_CP062394.1",27025,"large",1,"ARG-plasmid","accuracy",0.957,"MOB-suite","S. aureus"
"GCF_017088385.1","plasmid_AA411","NZ_CP070984.1",20565,"large",1,"ARG-plasmid","accuracy",0.992,"MOB-suite","S. aureus"
"GCF_022405075.1","plasmid_AA840","NZ_CP062347.1",39036,"large",0,"non-ARG-plasmid","accuracy",1,"MOB-suite","S. aureus"
"GCF_022405075.1","plasmid_AA837","NZ_CP062347.1",39036,"large",0,"non-ARG-plasmid","accuracy",1,"MOB-suite","S. aureus"
"GCF_022405435.1","plasmid_AA411","NZ_CP062377.1",19781,"large",1,"ARG-plasmid","accuracy",1,"MOB-suite","S. aureus"
"GCF_022369595.1","plasmid_AA840","NZ_CP062315.1",26024,"large",4,"ARG-plasmid","accuracy",0.893,"MOB-suite","S. aureus"
"GCF_022405495.1","plasmid_AA840","NZ_CP062383.1",39284,"large",0,"non-ARG-plasmid","accuracy",1,"MOB-suite","S. aureus"
"GCF_022405495.1","plasmid_AA837","NZ_CP062383.1",39284,"large",0,"non-ARG-plasmid","accuracy",1,"MOB-suite","S. aureus"
"GCF_022404675.1","plasmid_AA840","NZ_CP062332.1",12859,"large",1,"ARG-plasmid","completeness",0.977,"MOB-suite","S. aureus"
"GCF_022404595.1","plasmid_AA411","NZ_CP062323.1",20691,"large",1,"ARG-plasmid","completeness",1,"MOB-suite","S. aureus"
"GCF_022405145.1","plasmid_AA411","NZ_CP062349.1",20653,"large",1,"ARG-plasmid","completeness",1,"MOB-suite","S. aureus"
"GCF_017161095.1","plasmid_AA851","NZ_CP046477.1",16100,"large",0,"non-ARG-plasmid","completeness",1,"MOB-suite","S. aureus"
"GCF_022405615.1","plasmid_AA837","NZ_CP062397.1",37438,"large",0,"non-ARG-plasmid","completeness",0.951,"MOB-suite","S. aureus"
"GCF_022405355.1","plasmid_AA840","NZ_CP062367.1",25316,"large",4,"ARG-plasmid","completeness",0.935,"MOB-suite","S. aureus"
"GCF_022404715.1","plasmid_AA411","NZ_CP062337.1",20730,"large",1,"ARG-plasmid","completeness",1,"MOB-suite","S. aureus"
"GCF_022405455.1","plasmid_AA848","NZ_CP062379.1",27265,"large",1,"ARG-plasmid","completeness",1,"MOB-suite","S. aureus"
"GCF_022405515.1","plasmid_AA411","NZ_CP062385.1",20730,"large",1,"ARG-plasmid","completeness",1,"MOB-suite","S. aureus"
"GCF_022404695.1","plasmid_AA411","NZ_CP062335.1",20691,"large",1,"ARG-plasmid","completeness",1,"MOB-suite","S. aureus"
"GCF_022405595.1","plasmid_AA848","NZ_CP062394.1",27025,"large",1,"ARG-plasmid","completeness",0.985,"MOB-suite","S. aureus"
"GCF_017088385.1","plasmid_AA411","NZ_CP070984.1",20565,"large",1,"ARG-plasmid","completeness",0.992,"MOB-suite","S. aureus"
"GCF_022405075.1","plasmid_AA840","NZ_CP062347.1",39036,"large",0,"non-ARG-plasmid","completeness",0.182,"MOB-suite","S. aureus"
"GCF_022405075.1","plasmid_AA837","NZ_CP062347.1",39036,"large",0,"non-ARG-plasmid","completeness",0.681,"MOB-suite","S. aureus"
"GCF_022405435.1","plasmid_AA411","NZ_CP062377.1",19781,"large",1,"ARG-plasmid","completeness",1,"MOB-suite","S. aureus"
"GCF_022369595.1","plasmid_AA840","NZ_CP062315.1",26024,"large",4,"ARG-plasmid","completeness",0.963,"MOB-suite","S. aureus"
"GCF_022405495.1","plasmid_AA840","NZ_CP062383.1",39284,"large",0,"non-ARG-plasmid","completeness",0.191,"MOB-suite","S. aureus"
"GCF_022405495.1","plasmid_AA837","NZ_CP062383.1",39284,"large",0,"non-ARG-plasmid","completeness",0.716,"MOB-suite","S. aureus"
"GCF_022404675.1","plasmid_AA840","NZ_CP062332.1",12859,"large",1,"ARG-plasmid","F1_score",0.988,"MOB-suite","S. aureus"
"GCF_022404595.1","plasmid_AA411","NZ_CP062323.1",20691,"large",1,"ARG-plasmid","F1_score",1,"MOB-suite","S. aureus"
"GCF_022405145.1","plasmid_AA411","NZ_CP062349.1",20653,"large",1,"ARG-plasmid","F1_score",1,"MOB-suite","S. aureus"
"GCF_017161095.1","plasmid_AA851","NZ_CP046477.1",16100,"large",0,"non-ARG-plasmid","F1_score",1,"MOB-suite","S. aureus"
"GCF_022405615.1","plasmid_AA837","NZ_CP062397.1",37438,"large",0,"non-ARG-plasmid","F1_score",0.975,"MOB-suite","S. aureus"
"GCF_022405355.1","plasmid_AA840","NZ_CP062367.1",25316,"large",4,"ARG-plasmid","F1_score",0.966,"MOB-suite","S. aureus"
"GCF_022404715.1","plasmid_AA411","NZ_CP062337.1",20730,"large",1,"ARG-plasmid","F1_score",1,"MOB-suite","S. aureus"
"GCF_022405455.1","plasmid_AA848","NZ_CP062379.1",27265,"large",1,"ARG-plasmid","F1_score",0.974,"MOB-suite","S. aureus"
"GCF_022405515.1","plasmid_AA411","NZ_CP062385.1",20730,"large",1,"ARG-plasmid","F1_score",1,"MOB-suite","S. aureus"
"GCF_022404695.1","plasmid_AA411","NZ_CP062335.1",20691,"large",1,"ARG-plasmid","F1_score",1,"MOB-suite","S. aureus"
"GCF_022405595.1","plasmid_AA848","NZ_CP062394.1",27025,"large",1,"ARG-plasmid","F1_score",0.971,"MOB-suite","S. aureus"
"GCF_017088385.1","plasmid_AA411","NZ_CP070984.1",20565,"large",1,"ARG-plasmid","F1_score",0.992,"MOB-suite","S. aureus"
"GCF_022405075.1","plasmid_AA840","NZ_CP062347.1",39036,"large",0,"non-ARG-plasmid","F1_score",0.308,"MOB-suite","S. aureus"
"GCF_022405075.1","plasmid_AA837","NZ_CP062347.1",39036,"large",0,"non-ARG-plasmid","F1_score",0.81,"MOB-suite","S. aureus"
"GCF_022405435.1","plasmid_AA411","NZ_CP062377.1",19781,"large",1,"ARG-plasmid","F1_score",1,"MOB-suite","S. aureus"
"GCF_022369595.1","plasmid_AA840","NZ_CP062315.1",26024,"large",4,"ARG-plasmid","F1_score",0.927,"MOB-suite","S. aureus"
"GCF_022405495.1","plasmid_AA840","NZ_CP062383.1",39284,"large",0,"non-ARG-plasmid","F1_score",0.321,"MOB-suite","S. aureus"
"GCF_022405495.1","plasmid_AA837","NZ_CP062383.1",39284,"large",0,"non-ARG-plasmid","F1_score",0.834,"MOB-suite","S. aureus"
"GCF_022405515.1","GCF_022405515.1_ASM2240551v1_bin_1","NZ_CP062385.1",20730,"large",1,"ARG-plasmid","accuracy",1,"gplas2_plasmidCC","S. aureus"
"GCF_022404675.1","GCF_022404675.1_ASM2240467v1_bin_1","NZ_CP062332.1",12859,"large",1,"ARG-plasmid","accuracy",1,"gplas2_plasmidCC","S. aureus"
"GCF_022369595.1","GCF_022369595.1_ASM2236959v1_bin_1","NZ_CP062315.1",26024,"large",4,"ARG-plasmid","accuracy",1,"gplas2_plasmidCC","S. aureus"
"GCF_017161095.1","GCF_017161095.1_ASM1716109v1_bin_1","NZ_CP046477.1",16100,"large",0,"non-ARG-plasmid","accuracy",1,"gplas2_plasmidCC","S. aureus"
"GCF_017088385.1","GCF_017088385.1_ASM1708838v1_bin_1","NZ_CP070984.1",20565,"large",1,"ARG-plasmid","accuracy",0.992,"gplas2_plasmidCC","S. aureus"
"GCF_022405615.1","GCF_022405615.1_ASM2240561v1_bin_1","NZ_CP062397.1",37438,"large",0,"non-ARG-plasmid","accuracy",1,"gplas2_plasmidCC","S. aureus"
"GCF_022405145.1","GCF_022405145.1_ASM2240514v1_bin_1","NZ_CP062349.1",20653,"large",1,"ARG-plasmid","accuracy",1,"gplas2_plasmidCC","S. aureus"
"GCF_022405455.1","GCF_022405455.1_ASM2240545v1_bin_1","NZ_CP062379.1",27265,"large",1,"ARG-plasmid","accuracy",1,"gplas2_plasmidCC","S. aureus"
"GCF_022405495.1","GCF_022405495.1_ASM2240549v1_bin_1","NZ_CP062383.1",39284,"large",0,"non-ARG-plasmid","accuracy",1,"gplas2_plasmidCC","S. aureus"
"GCF_022404695.1","GCF_022404695.1_ASM2240469v1_bin_1","NZ_CP062335.1",20691,"large",1,"ARG-plasmid","accuracy",1,"gplas2_plasmidCC","S. aureus"
"GCF_022405075.1","GCF_022405075.1_ASM2240507v1_bin_1","NZ_CP062347.1",39036,"large",0,"non-ARG-plasmid","accuracy",1,"gplas2_plasmidCC","S. aureus"
"GCF_022404595.1","GCF_022404595.1_ASM2240459v1_bin_1","NZ_CP062323.1",20691,"large",1,"ARG-plasmid","accuracy",1,"gplas2_plasmidCC","S. aureus"
"GCF_022405435.1","GCF_022405435.1_ASM2240543v1_bin_1","NZ_CP062377.1",19781,"large",1,"ARG-plasmid","accuracy",1,"gplas2_plasmidCC","S. aureus"
"GCF_022405595.1","GCF_022405595.1_ASM2240559v1_bin_1","NZ_CP062394.1",27025,"large",1,"ARG-plasmid","accuracy",1,"gplas2_plasmidCC","S. aureus"
"GCF_022405515.1","GCF_022405515.1_ASM2240551v1_bin_1","NZ_CP062385.1",20730,"large",1,"ARG-plasmid","completeness",1,"gplas2_plasmidCC","S. aureus"
"GCF_022404675.1","GCF_022404675.1_ASM2240467v1_bin_1","NZ_CP062332.1",12859,"large",1,"ARG-plasmid","completeness",0.977,"gplas2_plasmidCC","S. aureus"
"GCF_022369595.1","GCF_022369595.1_ASM2236959v1_bin_1","NZ_CP062315.1",26024,"large",4,"ARG-plasmid","completeness",0.963,"gplas2_plasmidCC","S. aureus"
"GCF_017161095.1","GCF_017161095.1_ASM1716109v1_bin_1","NZ_CP046477.1",16100,"large",0,"non-ARG-plasmid","completeness",1,"gplas2_plasmidCC","S. aureus"
"GCF_017088385.1","GCF_017088385.1_ASM1708838v1_bin_1","NZ_CP070984.1",20565,"large",1,"ARG-plasmid","completeness",0.992,"gplas2_plasmidCC","S. aureus"
"GCF_022405615.1","GCF_022405615.1_ASM2240561v1_bin_1","NZ_CP062397.1",37438,"large",0,"non-ARG-plasmid","completeness",0.606,"gplas2_plasmidCC","S. aureus"
"GCF_022405145.1","GCF_022405145.1_ASM2240514v1_bin_1","NZ_CP062349.1",20653,"large",1,"ARG-plasmid","completeness",1,"gplas2_plasmidCC","S. aureus"
"GCF_022405455.1","GCF_022405455.1_ASM2240545v1_bin_1","NZ_CP062379.1",27265,"large",1,"ARG-plasmid","completeness",1,"gplas2_plasmidCC","S. aureus"
"GCF_022405495.1","GCF_022405495.1_ASM2240549v1_bin_1","NZ_CP062383.1",39284,"large",0,"non-ARG-plasmid","completeness",0.906,"gplas2_plasmidCC","S. aureus"
"GCF_022404695.1","GCF_022404695.1_ASM2240469v1_bin_1","NZ_CP062335.1",20691,"large",1,"ARG-plasmid","completeness",1,"gplas2_plasmidCC","S. aureus"
"GCF_022405075.1","GCF_022405075.1_ASM2240507v1_bin_1","NZ_CP062347.1",39036,"large",0,"non-ARG-plasmid","completeness",0.565,"gplas2_plasmidCC","S. aureus"
"GCF_022404595.1","GCF_022404595.1_ASM2240459v1_bin_1","NZ_CP062323.1",20691,"large",1,"ARG-plasmid","completeness",1,"gplas2_plasmidCC","S. aureus"
"GCF_022405435.1","GCF_022405435.1_ASM2240543v1_bin_1","NZ_CP062377.1",19781,"large",1,"ARG-plasmid","completeness",1,"gplas2_plasmidCC","S. aureus"
"GCF_022405595.1","GCF_022405595.1_ASM2240559v1_bin_1","NZ_CP062394.1",27025,"large",1,"ARG-plasmid","completeness",0.985,"gplas2_plasmidCC","S. aureus"
"GCF_022405515.1","GCF_022405515.1_ASM2240551v1_bin_1","NZ_CP062385.1",20730,"large",1,"ARG-plasmid","F1_score",1,"gplas2_plasmidCC","S. aureus"
"GCF_022404675.1","GCF_022404675.1_ASM2240467v1_bin_1","NZ_CP062332.1",12859,"large",1,"ARG-plasmid","F1_score",0.988,"gplas2_plasmidCC","S. aureus"
"GCF_022369595.1","GCF_022369595.1_ASM2236959v1_bin_1","NZ_CP062315.1",26024,"large",4,"ARG-plasmid","F1_score",0.981,"gplas2_plasmidCC","S. aureus"
"GCF_017161095.1","GCF_017161095.1_ASM1716109v1_bin_1","NZ_CP046477.1",16100,"large",0,"non-ARG-plasmid","F1_score",1,"gplas2_plasmidCC","S. aureus"
"GCF_017088385.1","GCF_017088385.1_ASM1708838v1_bin_1","NZ_CP070984.1",20565,"large",1,"ARG-plasmid","F1_score",0.992,"gplas2_plasmidCC","S. aureus"
"GCF_022405615.1","GCF_022405615.1_ASM2240561v1_bin_1","NZ_CP062397.1",37438,"large",0,"non-ARG-plasmid","F1_score",0.755,"gplas2_plasmidCC","S. aureus"
"GCF_022405145.1","GCF_022405145.1_ASM2240514v1_bin_1","NZ_CP062349.1",20653,"large",1,"ARG-plasmid","F1_score",1,"gplas2_plasmidCC","S. aureus"
"GCF_022405455.1","GCF_022405455.1_ASM2240545v1_bin_1","NZ_CP062379.1",27265,"large",1,"ARG-plasmid","F1_score",1,"gplas2_plasmidCC","S. aureus"
"GCF_022405495.1","GCF_022405495.1_ASM2240549v1_bin_1","NZ_CP062383.1",39284,"large",0,"non-ARG-plasmid","F1_score",0.951,"gplas2_plasmidCC","S. aureus"
"GCF_022404695.1","GCF_022404695.1_ASM2240469v1_bin_1","NZ_CP062335.1",20691,"large",1,"ARG-plasmid","F1_score",1,"gplas2_plasmidCC","S. aureus"
"GCF_022405075.1","GCF_022405075.1_ASM2240507v1_bin_1","NZ_CP062347.1",39036,"large",0,"non-ARG-plasmid","F1_score",0.722,"gplas2_plasmidCC","S. aureus"
"GCF_022404595.1","GCF_022404595.1_ASM2240459v1_bin_1","NZ_CP062323.1",20691,"large",1,"ARG-plasmid","F1_score",1,"gplas2_plasmidCC","S. aureus"
"GCF_022405435.1","GCF_022405435.1_ASM2240543v1_bin_1","NZ_CP062377.1",19781,"large",1,"ARG-plasmid","F1_score",1,"gplas2_plasmidCC","S. aureus"
"GCF_022405595.1","GCF_022405595.1_ASM2240559v1_bin_1","NZ_CP062394.1",27025,"large",1,"ARG-plasmid","F1_score",0.992,"gplas2_plasmidCC","S. aureus"
