"arg_plasmid","length_classification","count","species"
"ARG-plasmid","large",295,"S. aureus"
"ARG-plasmid","small",66,"S. aureus"
"non-ARG-plasmid","large",126,"S. aureus"
"non-ARG-plasmid","small",159,"S. aureus"
