GCF_016454545.1_ASM1645454v1,GCF_016454545.1_ASM1645454v1_bin_4,NZ_CP051401.1,3372,3372
GCF_016454545.1_ASM1645454v1,GCF_016454545.1_ASM1645454v1_bin_3,NZ_CP051399.1,4054,4198
GCF_016454545.1_ASM1645454v1,GCF_016454545.1_ASM1645454v1_bin_1,NZ_CP051400.1,171367,170030
GCF_016454545.1_ASM1645454v1,GCF_016454545.1_ASM1645454v1_bin_2,no_correct_alignments,0,0
GCF_016454385.1_ASM1645438v1,GCF_016454385.1_ASM1645438v1_bin_3,no_correct_alignments,0,0
GCF_016454385.1_ASM1645438v1,GCF_016454385.1_ASM1645438v1_bin_2,NZ_CP051383.1,109663,113766
GCF_016454385.1_ASM1645438v1,GCF_016454385.1_ASM1645438v1_bin_1,NZ_CP051382.1,233289,229317
GCF_014334195.1_ASM1433419v1,GCF_014334195.1_ASM1433419v1_bin_1,NZ_CP060513.1,250474,249373
GCF_014334195.1_ASM1433419v1,GCF_014334195.1_ASM1433419v1_bin_1,NZ_CP060512.1,1101,249373
GCF_014334195.1_ASM1433419v1,GCF_014334195.1_ASM1433419v1_bin_Unbinned,no_correct_alignments,0,0
GCF_002507915.2_ASM250791v2,GCF_002507915.2_ASM250791v2_bin_Isolated_1,NZ_CP075111.1,27531,27531
GCF_002507915.2_ASM250791v2,GCF_002507915.2_ASM250791v2_bin_Isolated_4,NZ_CP075111.1,6437,6439
GCF_002507915.2_ASM250791v2,GCF_002507915.2_ASM250791v2_bin_Isolated_2,NZ_CP075111.1,20880,20880
GCF_002507915.2_ASM250791v2,GCF_002507915.2_ASM250791v2_bin_1,no_correct_alignments,0,0
GCF_002507915.2_ASM250791v2,GCF_002507915.2_ASM250791v2_bin_Isolated_3,NZ_CP075111.1,13906,13906
GCF_002265865.2_ASM226586v2,GCF_002265865.2_ASM226586v2_bin_1,no_correct_alignments,0,0
GCF_015241115.1_ASM1524111v1,GCF_015241115.1_ASM1524111v1_bin_2,NZ_CP063710.1,3087,3272
GCF_015241115.1_ASM1524111v1,GCF_015241115.1_ASM1524111v1_bin_1,NZ_CP063709.1,58043,58043
GCF_014334255.1_ASM1433425v1,GCF_014334255.1_ASM1433425v1_bin_3,NZ_CP060525.1,2096,2096
GCF_014334255.1_ASM1433425v1,GCF_014334255.1_ASM1433425v1_bin_1,NZ_CP060523.1,59072,59072
GCF_014334255.1_ASM1433425v1,GCF_014334255.1_ASM1433425v1_bin_1,NZ_CP060522.1,1029,59072
GCF_014334255.1_ASM1433425v1,GCF_014334255.1_ASM1433425v1_bin_2,NZ_CP060524.1,33310,33310
GCF_016026715.1_ASM1602671v1,GCF_016026715.1_ASM1602671v1_bin_1,NZ_CP065638.1,93617,93617
GCF_016026715.1_ASM1602671v1,GCF_016026715.1_ASM1602671v1_bin_2,no_correct_alignments,0,0
GCF_014394985.2_ASM1439498v2,GCF_014394985.2_ASM1439498v2_bin_1,NZ_CP060730.2,46188,41684
GCF_020736345.1_ASM2073634v1,GCF_020736345.1_ASM2073634v1_bin_3,no_correct_alignments,0,0
GCF_020736345.1_ASM2073634v1,GCF_020736345.1_ASM2073634v1_bin_1,NZ_CP085986.1,78565,78565
GCF_020736345.1_ASM2073634v1,GCF_020736345.1_ASM2073634v1_bin_4,no_correct_alignments,0,0
GCF_020736345.1_ASM2073634v1,GCF_020736345.1_ASM2073634v1_bin_2,no_correct_alignments,0,0
GCF_016454645.1_ASM1645464v1,GCF_016454645.1_ASM1645464v1_bin_1,NZ_CP051412.1,230809,339702
GCF_016454645.1_ASM1645464v1,GCF_016454645.1_ASM1645464v1_bin_1,NZ_CP051411.1,119308,339702
GCF_016454645.1_ASM1645464v1,GCF_016454645.1_ASM1645464v1_bin_1,NZ_CP051410.1,1056,339702
GCF_016127435.1_ASM1612743v1,GCF_016127435.1_ASM1612743v1_bin_2,NZ_CP066010.1,48609,48609
GCF_016127435.1_ASM1612743v1,GCF_016127435.1_ASM1612743v1_bin_Unbinned,NZ_CP066010.1,36797,36797
GCF_016127435.1_ASM1612743v1,GCF_016127435.1_ASM1612743v1_bin_1,NZ_CP066011.1,93469,93488
GCF_016127435.1_ASM1612743v1,GCF_016127435.1_ASM1612743v1_bin_3,NZ_CP066008.1,8688,8688
GCF_016952595.1_ASM1695259v1,GCF_016952595.1_ASM1695259v1_bin_3,no_correct_alignments,0,0
GCF_016952595.1_ASM1695259v1,GCF_016952595.1_ASM1695259v1_bin_2,NZ_CP051362.1,3830,3830
GCF_016952595.1_ASM1695259v1,GCF_016952595.1_ASM1695259v1_bin_1,NZ_CP051364.1,95409,93700
GCF_019670425.1_ASM1967042v1,GCF_019670425.1_ASM1967042v1_bin_1,NZ_AP023316.1,211092,211092
GCF_019670365.1_ASM1967036v1,GCF_019670365.1_ASM1967036v1_bin_1,NZ_AP023310.1,217176,217176
GCF_019670365.1_ASM1967036v1,GCF_019670365.1_ASM1967036v1_bin_2,no_correct_alignments,0,0
GCF_022936485.1_ASM2293648v1,GCF_022936485.1_ASM2293648v1_bin_1,NZ_CP092013.1,4593,4593
GCF_014840915.2_ASM1484091v2,GCF_014840915.2_ASM1484091v2_bin_1,NZ_CP062004.2,46188,41684
GCF_014334235.1_ASM1433423v1,GCF_014334235.1_ASM1433423v1_bin_Unbinned,NZ_CP060519.1,2403,2403
GCF_014334235.1_ASM1433423v1,GCF_014334235.1_ASM1433423v1_bin_2,NZ_CP060521.1,3830,3830
GCF_014334235.1_ASM1433423v1,GCF_014334235.1_ASM1433423v1_bin_1,NZ_CP060520.1,4073,4073
GCF_022226915.1_ASM2222691v1,GCF_022226915.1_ASM2222691v1_bin_1,NZ_CP092076.1,60449,60449
GCF_016452045.1_ASM1645204v1,GCF_016452045.1_ASM1645204v1_bin_2,NZ_CP051316.1,9731,9732
GCF_016452045.1_ASM1645204v1,GCF_016452045.1_ASM1645204v1_bin_1,NZ_CP051316.1,155961,155963
GCF_022162985.1_ASM2216298v1,GCF_022162985.1_ASM2216298v1_bin_1,NZ_CP091879.1,3967,3967
GCF_003067765.2_ASM306776v2,GCF_003067765.2_ASM306776v2_bin_1,NZ_CP077698.1,26030,26030
GCF_003067765.2_ASM306776v2,GCF_003067765.2_ASM306776v2_bin_Isolated_2,NZ_CP077697.1,5327,5327
GCF_003067765.2_ASM306776v2,GCF_003067765.2_ASM306776v2_bin_Isolated_1,NZ_CP077697.1,79678,79678
GCF_003067765.2_ASM306776v2,GCF_003067765.2_ASM306776v2_bin_Isolated_3,NZ_CP077697.1,3119,3119
GCF_016454465.1_ASM1645446v1,GCF_016454465.1_ASM1645446v1_bin_1,no_correct_alignments,0,0
GCF_016454465.1_ASM1645446v1,GCF_016454465.1_ASM1645446v1_bin_Isolated_1,NZ_CP051390.1,10734,10734
GCF_001652385.2_ASM165238v2,GCF_001652385.2_ASM165238v2_bin_1,NZ_CP075142.1,74600,72860
GCF_001972545.2_ASM197254v2,GCF_001972545.2_ASM197254v2_bin_1,no_correct_alignments,0,0
GCF_001972545.2_ASM197254v2,GCF_001972545.2_ASM197254v2_bin_Unbinned,NZ_CP075119.1,49594,49594
GCF_001972545.2_ASM197254v2,GCF_001972545.2_ASM197254v2_bin_2,no_correct_alignments,0,0
GCF_014858545.1_ASM1485854v1,GCF_014858545.1_ASM1485854v1_bin_3,NZ_CP062224.1,1895,1895
GCF_014858545.1_ASM1485854v1,GCF_014858545.1_ASM1485854v1_bin_Unbinned,NZ_CP062224.1,3260,1630
GCF_014858545.1_ASM1485854v1,GCF_014858545.1_ASM1485854v1_bin_1,NZ_CP062224.1,24921,23381
GCF_014858545.1_ASM1485854v1,GCF_014858545.1_ASM1485854v1_bin_2,NZ_CP062224.1,171073,168940
GCF_001972625.2_ASM197262v2,GCF_001972625.2_ASM197262v2_bin_1,no_correct_alignments,0,0
GCF_001972625.2_ASM197262v2,GCF_001972625.2_ASM197262v2_bin_Unbinned,NZ_CP075121.1,49599,49599
GCF_016127835.1_ASM1612783v1,GCF_016127835.1_ASM1612783v1_bin_1,NZ_CP066048.1,56914,56914
GCF_016127835.1_ASM1612783v1,GCF_016127835.1_ASM1612783v1_bin_2,no_correct_alignments,0,0
GCF_016454725.1_ASM1645472v1,GCF_016454725.1_ASM1645472v1_bin_6,NZ_CP051422.1,2096,2096
GCF_016454725.1_ASM1645472v1,GCF_016454725.1_ASM1645472v1_bin_3,NZ_CP051420.1,83774,83776
GCF_016454725.1_ASM1645472v1,GCF_016454725.1_ASM1645472v1_bin_5,NZ_CP051423.1,2444,2444
GCF_016454725.1_ASM1645472v1,GCF_016454725.1_ASM1645472v1_bin_Isolated_1,NZ_CP051424.1,57273,58411
GCF_016454725.1_ASM1645472v1,GCF_016454725.1_ASM1645472v1_bin_4,NZ_CP051419.1,3372,3372
GCF_016454725.1_ASM1645472v1,GCF_016454725.1_ASM1645472v1_bin_2,NZ_CP051421.1,5430,5430
GCF_016454725.1_ASM1645472v1,GCF_016454725.1_ASM1645472v1_bin_1,NZ_CP051426.1,181722,179054
GCF_002266085.2_ASM226608v2,GCF_002266085.2_ASM226608v2_bin_1,NZ_CP075114.1,74591,74591
GCF_016454245.1_ASM1645424v1,GCF_016454245.1_ASM1645424v1_bin_1,NZ_CP051357.1,158736,157309
GCF_016452065.1_ASM1645206v1,GCF_016452065.1_ASM1645206v1_bin_1,NZ_CP051319.1,165486,249427
GCF_016452065.1_ASM1645206v1,GCF_016452065.1_ASM1645206v1_bin_1,NZ_CP051318.1,37611,249427
GCF_016452065.1_ASM1645206v1,GCF_016452065.1_ASM1645206v1_bin_2,no_correct_alignments,0,0
GCF_016025415.1_ASM1602541v1,GCF_016025415.1_ASM1602541v1_bin_1,NZ_CP065568.1,234647,263334
GCF_016025415.1_ASM1602541v1,GCF_016025415.1_ASM1602541v1_bin_1,NZ_CP065569.1,5788,263334
GCF_016025415.1_ASM1602541v1,GCF_016025415.1_ASM1602541v1_bin_1,NZ_CP065567.1,4622,263334
GCF_016025415.1_ASM1602541v1,GCF_016025415.1_ASM1602541v1_bin_3,NZ_CP065571.1,3984,4073
GCF_016025415.1_ASM1602541v1,GCF_016025415.1_ASM1602541v1_bin_2,NZ_CP065570.1,5570,5570
GCF_013348865.1_ASM1334886v1,GCF_013348865.1_ASM1334886v1_bin_Unbinned,NZ_CP054718.1,12720,16628
GCF_013348865.1_ASM1334886v1,GCF_013348865.1_ASM1334886v1_bin_Unbinned,NZ_CP054715.1,3896,16628
GCF_013348865.1_ASM1334886v1,GCF_013348865.1_ASM1334886v1_bin_1,NZ_CP054717.1,152831,275976
GCF_013348865.1_ASM1334886v1,GCF_013348865.1_ASM1334886v1_bin_1,NZ_CP054716.1,50781,275976
GCF_013348865.1_ASM1334886v1,GCF_013348865.1_ASM1334886v1_bin_1,NZ_CP054718.1,43036,275976
GCF_013348865.1_ASM1334886v1,GCF_013348865.1_ASM1334886v1_bin_2,no_correct_alignments,0,0
GCF_016454225.1_ASM1645422v1,GCF_016454225.1_ASM1645422v1_bin_1,NZ_CP051355.1,9265,9267
GCF_019670345.1_ASM1967034v1,GCF_019670345.1_ASM1967034v1_bin_Unbinned,NZ_AP023308.1,5658,5658
GCF_019670345.1_ASM1967034v1,GCF_019670345.1_ASM1967034v1_bin_1,NZ_AP023307.1,118355,117871
GCF_019670345.1_ASM1967034v1,GCF_019670345.1_ASM1967034v1_bin_1,NZ_AP023306.1,3129,117871
GCF_019670345.1_ASM1967034v1,GCF_019670345.1_ASM1967034v1_bin_1,NZ_AP023308.1,1599,117871
GCF_001833255.2_ASM183325v2,GCF_001833255.2_ASM183325v2_bin_1,NZ_CP075130.1,134863,133716
GCF_001833255.2_ASM183325v2,GCF_001833255.2_ASM183325v2_bin_2,NZ_CP075131.1,25878,26031
GCF_016454425.1_ASM1645442v1,GCF_016454425.1_ASM1645442v1_bin_1,NZ_CP051385.1,111412,96689
GCF_016454425.1_ASM1645442v1,GCF_016454425.1_ASM1645442v1_bin_2,no_correct_alignments,0,0
GCF_016454425.1_ASM1645442v1,GCF_016454425.1_ASM1645442v1_bin_Unbinned,no_correct_alignments,0,0
GCF_003581245.2_ASM358124v2,GCF_003581245.2_ASM358124v2_bin_1,NZ_CP074606.1,6675,66639
GCF_020736325.1_ASM2073632v1,GCF_020736325.1_ASM2073632v1_bin_1,NZ_CP085982.1,262986,319114
GCF_020736325.1_ASM2073632v1,GCF_020736325.1_ASM2073632v1_bin_1,NZ_CP085980.1,52310,319114
GCF_020736325.1_ASM2073632v1,GCF_020736325.1_ASM2073632v1_bin_1,NZ_CP085981.1,3168,319114
GCF_016454525.1_ASM1645452v1,GCF_016454525.1_ASM1645452v1_bin_1,NZ_CP051397.1,180907,178238
GCF_016454525.1_ASM1645452v1,GCF_016454525.1_ASM1645452v1_bin_Unbinned,NZ_CP051396.1,43732,43732
GCF_018340585.1_ASM1834058v1,GCF_018340585.1_ASM1834058v1_bin_2,NZ_CP073717.1,3904,3904
GCF_018340585.1_ASM1834058v1,GCF_018340585.1_ASM1834058v1_bin_1,NZ_CP073716.1,4712,4712
GCF_013161805.1_ASM1316180v1,GCF_013161805.1_ASM1316180v1_bin_3,no_correct_alignments,0,0
GCF_013161805.1_ASM1316180v1,GCF_013161805.1_ASM1316180v1_bin_4,no_correct_alignments,0,0
GCF_013161805.1_ASM1316180v1,GCF_013161805.1_ASM1316180v1_bin_1,NZ_CP053577.1,214251,215127
GCF_013161805.1_ASM1316180v1,GCF_013161805.1_ASM1316180v1_bin_2,NZ_CP053576.1,61895,90198
GCF_013161805.1_ASM1316180v1,GCF_013161805.1_ASM1316180v1_bin_2,NZ_CP053578.1,21243,90198
GCF_014805785.2_ASM1480578v2,GCF_014805785.2_ASM1480578v2_bin_1,NZ_CP061929.2,46188,41684
GCF_019670405.1_ASM1967040v1,GCF_019670405.1_ASM1967040v1_bin_1,NZ_AP023314.1,88241,88241
GCF_016454305.1_ASM1645430v1,GCF_016454305.1_ASM1645430v1_bin_1,NZ_CP051369.1,135511,135511
GCF_016454305.1_ASM1645430v1,GCF_016454305.1_ASM1645430v1_bin_1,NZ_CP051368.1,1981,135511
GCF_016454305.1_ASM1645430v1,GCF_016454305.1_ASM1645430v1_bin_Unbinned,NZ_CP051368.1,2668,2668
GCF_006461325.2_ASM646132v2,GCF_006461325.2_ASM646132v2_bin_1,NZ_CP069167.1,206230,202584
GCF_006461325.2_ASM646132v2,GCF_006461325.2_ASM646132v2_bin_1,NZ_CP069166.1,1954,202584
GCF_002507865.2_ASM250786v2,GCF_002507865.2_ASM250786v2_bin_2,no_correct_alignments,0,0
GCF_002507865.2_ASM250786v2,GCF_002507865.2_ASM250786v2_bin_1,no_correct_alignments,0,0
GCF_019670285.1_ASM1967028v1,GCF_019670285.1_ASM1967028v1_bin_Unbinned,NZ_AP023302.1,5658,5658
GCF_019670285.1_ASM1967028v1,GCF_019670285.1_ASM1967028v1_bin_1,NZ_AP023301.1,118355,117871
GCF_019670285.1_ASM1967028v1,GCF_019670285.1_ASM1967028v1_bin_1,NZ_AP023302.1,1599,117871
GCF_019670285.1_ASM1967028v1,GCF_019670285.1_ASM1967028v1_bin_1,NZ_AP023300.1,3129,117871
GCF_002266205.2_ASM226620v2,GCF_002266205.2_ASM226620v2_bin_1,no_correct_alignments,0,0
GCF_001973785.2_ASM197378v2,GCF_001973785.2_ASM197378v2_bin_2,NZ_CP075124.1,32833,32950
GCF_001973785.2_ASM197378v2,GCF_001973785.2_ASM197378v2_bin_1,NZ_CP075123.1,55316,53533
GCF_001973785.2_ASM197378v2,GCF_001973785.2_ASM197378v2_bin_1,NZ_CP075122.1,2160,53533
GCF_019670385.1_ASM1967038v1,GCF_019670385.1_ASM1967038v1_bin_1,NZ_AP023312.1,187242,188771
GCF_019670385.1_ASM1967038v1,GCF_019670385.1_ASM1967038v1_bin_1,NZ_AP023311.1,6262,188771
GCF_001834965.2_ASM183496v2,GCF_001834965.2_ASM183496v2_bin_1,NZ_CP075126.1,134199,133052
GCF_001834965.2_ASM183496v2,GCF_001834965.2_ASM183496v2_bin_2,no_correct_alignments,0,0
GCF_019670225.1_ASM1967022v1,GCF_019670225.1_ASM1967022v1_bin_2,NZ_AP023293.1,5824,5846
GCF_019670225.1_ASM1967022v1,GCF_019670225.1_ASM1967022v1_bin_1,NZ_AP023293.1,7574,7596
GCF_019670225.1_ASM1967022v1,GCF_019670225.1_ASM1967022v1_bin_1,NZ_AP023292.1,1749,7596
GCF_016451985.1_ASM1645198v1,GCF_016451985.1_ASM1645198v1_bin_2,NZ_CP051309.1,48525,48530
GCF_016451985.1_ASM1645198v1,GCF_016451985.1_ASM1645198v1_bin_1,NZ_CP051308.1,149138,149138
GCF_006461415.2_ASM646141v2,GCF_006461415.2_ASM646141v2_bin_1,NZ_CP050832.1,146982,146982
GCF_016454165.1_ASM1645416v1,GCF_016454165.1_ASM1645416v1_bin_1,NZ_CP051347.1,143209,187837
GCF_016454165.1_ASM1645416v1,GCF_016454165.1_ASM1645416v1_bin_1,NZ_CP051348.1,47083,187837
GCF_016454165.1_ASM1645416v1,GCF_016454165.1_ASM1645416v1_bin_1,NZ_CP051346.1,1045,187837
GCF_003067925.2_ASM306792v2,GCF_003067925.2_ASM306792v2_bin_Isolated_1,NZ_CP077700.1,18861,18861
GCF_003067925.2_ASM306792v2,GCF_003067925.2_ASM306792v2_bin_1,NZ_CP077700.1,111412,111412
GCF_003067925.2_ASM306792v2,GCF_003067925.2_ASM306792v2_bin_2,NZ_CP077701.1,26022,26022
GCF_016454585.1_ASM1645458v1,GCF_016454585.1_ASM1645458v1_bin_1,NZ_CP051403.1,96476,96477
GCF_016028495.1_ASM1602849v1,GCF_016028495.1_ASM1602849v1_bin_1,NZ_CP065719.1,93617,93617
GCF_016028495.1_ASM1602849v1,GCF_016028495.1_ASM1602849v1_bin_2,no_correct_alignments,0,0
GCF_001713515.2_ASM171351v2,GCF_001713515.2_ASM171351v2_bin_3,no_correct_alignments,0,0
GCF_001713515.2_ASM171351v2,GCF_001713515.2_ASM171351v2_bin_2,no_correct_alignments,0,0
GCF_001713515.2_ASM171351v2,GCF_001713515.2_ASM171351v2_bin_1,NZ_CP074662.1,17025,188151
GCF_001713515.2_ASM171351v2,GCF_001713515.2_ASM171351v2_bin_1,NZ_CP074661.1,172878,188151
GCF_001713515.2_ASM171351v2,GCF_001713515.2_ASM171351v2_bin_Isolated_1,NZ_CP074662.1,35751,35753
GCF_016454365.1_ASM1645436v1,GCF_016454365.1_ASM1645436v1_bin_2,NZ_CP051379.1,137569,136504
GCF_016454365.1_ASM1645436v1,GCF_016454365.1_ASM1645436v1_bin_Isolated_1,NZ_CP051379.1,50186,50186
GCF_016454365.1_ASM1645436v1,GCF_016454365.1_ASM1645436v1_bin_4,NZ_CP051378.1,3188,3188
GCF_016454365.1_ASM1645436v1,GCF_016454365.1_ASM1645436v1_bin_3,NZ_CP051376.1,3829,3830
GCF_016454365.1_ASM1645436v1,GCF_016454365.1_ASM1645436v1_bin_1,NZ_CP051377.1,93670,93700
GCF_016454265.1_ASM1645426v1,GCF_016454265.1_ASM1645426v1_bin_2,no_correct_alignments,0,0
GCF_016454265.1_ASM1645426v1,GCF_016454265.1_ASM1645426v1_bin_1,NZ_CP051359.1,232770,387591
GCF_016454265.1_ASM1645426v1,GCF_016454265.1_ASM1645426v1_bin_1,NZ_CP051360.1,159939,387591
GCF_016454265.1_ASM1645426v1,GCF_016454265.1_ASM1645426v1_bin_1,NZ_CP051358.1,1954,387591
GCF_019670245.1_ASM1967024v1,GCF_019670245.1_ASM1967024v1_bin_2,NZ_AP023296.1,6835,6835
GCF_019670245.1_ASM1967024v1,GCF_019670245.1_ASM1967024v1_bin_4,NZ_AP023298.1,4060,4060
GCF_019670245.1_ASM1967024v1,GCF_019670245.1_ASM1967024v1_bin_1,NZ_AP023295.1,59800,59801
GCF_019670245.1_ASM1967024v1,GCF_019670245.1_ASM1967024v1_bin_3,NZ_AP023297.1,4869,4869
GCF_016454205.1_ASM1645420v1,GCF_016454205.1_ASM1645420v1_bin_4,no_correct_alignments,0,0
GCF_016454205.1_ASM1645420v1,GCF_016454205.1_ASM1645420v1_bin_9,no_correct_alignments,0,0
GCF_016454205.1_ASM1645420v1,GCF_016454205.1_ASM1645420v1_bin_6,no_correct_alignments,0,0
GCF_016454205.1_ASM1645420v1,GCF_016454205.1_ASM1645420v1_bin_2,NZ_CP051351.1,23253,31569
GCF_016454205.1_ASM1645420v1,GCF_016454205.1_ASM1645420v1_bin_2,NZ_CP051352.1,8314,31569
GCF_016454205.1_ASM1645420v1,GCF_016454205.1_ASM1645420v1_bin_8,no_correct_alignments,0,0
GCF_016454205.1_ASM1645420v1,GCF_016454205.1_ASM1645420v1_bin_1,NZ_CP051352.1,8314,46135
GCF_016454205.1_ASM1645420v1,GCF_016454205.1_ASM1645420v1_bin_3,no_correct_alignments,0,0
GCF_016454205.1_ASM1645420v1,GCF_016454205.1_ASM1645420v1_bin_5,no_correct_alignments,0,0
GCF_016454205.1_ASM1645420v1,GCF_016454205.1_ASM1645420v1_bin_7,no_correct_alignments,0,0
GCF_001834735.2_ASM183473v2,GCF_001834735.2_ASM183473v2_bin_1,NZ_CP075133.1,121991,121992
GCF_015240635.1_ASM1524063v1,GCF_015240635.1_ASM1524063v1_bin_1,NZ_CP063701.1,58043,58043
GCF_020736305.1_ASM2073630v1,GCF_020736305.1_ASM2073630v1_bin_1,NZ_CP085984.1,267068,319170
GCF_020736305.1_ASM2073630v1,GCF_020736305.1_ASM2073630v1_bin_1,NZ_CP085985.1,52309,319170
GCF_020736305.1_ASM2073630v1,GCF_020736305.1_ASM2073630v1_bin_1,NZ_CP085983.1,4226,319170
GCF_021397675.1_ASM2139767v1,GCF_021397675.1_ASM2139767v1_bin_4,NZ_CP090136.1,4593,4593
GCF_021397675.1_ASM2139767v1,GCF_021397675.1_ASM2139767v1_bin_1,NZ_CP090135.1,50749,49549
GCF_021397675.1_ASM2139767v1,GCF_021397675.1_ASM2139767v1_bin_2,NZ_CP090134.1,243080,231650
GCF_021397675.1_ASM2139767v1,GCF_021397675.1_ASM2139767v1_bin_2,NZ_CP090133.1,2130,231650
GCF_021397675.1_ASM2139767v1,GCF_021397675.1_ASM2139767v1_bin_Unbinned,NZ_CP090134.1,10844,5422
GCF_021397675.1_ASM2139767v1,GCF_021397675.1_ASM2139767v1_bin_3,NZ_CP090134.1,20332,18792
GCF_021397625.1_ASM2139762v1,GCF_021397625.1_ASM2139762v1_bin_6,NZ_CP090138.1,13117,6727
GCF_021397625.1_ASM2139762v1,GCF_021397625.1_ASM2139762v1_bin_6,NZ_CP090140.1,6727,6727
GCF_021397625.1_ASM2139762v1,GCF_021397625.1_ASM2139762v1_bin_6,NZ_CP090137.1,2130,6727
GCF_021397625.1_ASM2139762v1,GCF_021397625.1_ASM2139762v1_bin_1,NZ_CP090139.1,50749,90651
GCF_021397625.1_ASM2139762v1,GCF_021397625.1_ASM2139762v1_bin_1,NZ_CP090138.1,53765,90651
GCF_021397625.1_ASM2139762v1,GCF_021397625.1_ASM2139762v1_bin_1,NZ_CP090137.1,2130,90651
GCF_021397625.1_ASM2139762v1,GCF_021397625.1_ASM2139762v1_bin_1,NZ_CP090140.1,2130,90651
GCF_021397625.1_ASM2139762v1,GCF_021397625.1_ASM2139762v1_bin_2,NZ_CP090138.1,169485,158362
GCF_021397625.1_ASM2139762v1,GCF_021397625.1_ASM2139762v1_bin_2,NZ_CP090137.1,2130,158362
GCF_021397625.1_ASM2139762v1,GCF_021397625.1_ASM2139762v1_bin_2,NZ_CP090140.1,2130,158362
GCF_021397625.1_ASM2139762v1,GCF_021397625.1_ASM2139762v1_bin_4,NZ_CP090138.1,17896,16356
GCF_021397625.1_ASM2139762v1,GCF_021397625.1_ASM2139762v1_bin_5,NZ_CP090138.1,7510,3755
GCF_021397625.1_ASM2139762v1,GCF_021397625.1_ASM2139762v1_bin_3,NZ_CP090138.1,45463,43026
GCF_021397625.1_ASM2139762v1,GCF_021397625.1_ASM2139762v1_bin_Unbinned,NZ_CP090138.1,3260,1630
GCF_022936365.1_ASM2293636v1,GCF_022936365.1_ASM2293636v1_bin_2,NZ_CP092002.1,4820,4820
GCF_022936365.1_ASM2293636v1,GCF_022936365.1_ASM2293636v1_bin_3,NZ_CP092003.1,4018,4018
GCF_022936365.1_ASM2293636v1,GCF_022936365.1_ASM2293636v1_bin_1,NZ_CP092001.1,5649,5649
GCF_015074905.1_ASM1507490v1,GCF_015074905.1_ASM1507490v1_bin_3,NZ_CP063296.1,28060,28060
GCF_015074905.1_ASM1507490v1,GCF_015074905.1_ASM1507490v1_bin_1,NZ_CP063295.1,154344,222672
GCF_015074905.1_ASM1507490v1,GCF_015074905.1_ASM1507490v1_bin_1,NZ_CP063296.1,70816,222672
GCF_015074905.1_ASM1507490v1,GCF_015074905.1_ASM1507490v1_bin_6,NZ_CP063300.1,1718,1718
GCF_015074905.1_ASM1507490v1,GCF_015074905.1_ASM1507490v1_bin_2,NZ_CP063297.1,33702,33702
GCF_015074905.1_ASM1507490v1,GCF_015074905.1_ASM1507490v1_bin_4,NZ_CP063298.1,4234,4234
GCF_015074905.1_ASM1507490v1,GCF_015074905.1_ASM1507490v1_bin_5,NZ_CP063299.1,3257,3257
GCF_016452165.1_ASM1645216v1,GCF_016452165.1_ASM1645216v1_bin_Isolated_1,NZ_CP053053.1,50227,50230
GCF_016452165.1_ASM1645216v1,GCF_016452165.1_ASM1645216v1_bin_2,NZ_CP053053.1,136414,131468
GCF_016452165.1_ASM1645216v1,GCF_016452165.1_ASM1645216v1_bin_2,NZ_CP053052.1,4946,131468
GCF_016452165.1_ASM1645216v1,GCF_016452165.1_ASM1645216v1_bin_3,NZ_CP053053.1,13478,12720
GCF_016452165.1_ASM1645216v1,GCF_016452165.1_ASM1645216v1_bin_3,NZ_CP053052.1,12720,12720
GCF_016452165.1_ASM1645216v1,GCF_016452165.1_ASM1645216v1_bin_3,NZ_CP053051.1,1003,12720
GCF_016452165.1_ASM1645216v1,GCF_016452165.1_ASM1645216v1_bin_1,NZ_CP053054.1,93670,93700
GCF_016452165.1_ASM1645216v1,GCF_016452165.1_ASM1645216v1_bin_5,NZ_CP054466.1,3188,3188
GCF_016452165.1_ASM1645216v1,GCF_016452165.1_ASM1645216v1_bin_4,NZ_CP054465.1,3829,3830
GCF_016889645.1_ASM1688964v1,GCF_016889645.1_ASM1688964v1_bin_2,no_correct_alignments,0,0
GCF_016889645.1_ASM1688964v1,GCF_016889645.1_ASM1688964v1_bin_1,NZ_CP069519.1,128163,128163
GCF_013415925.1_ASM1341592v1,GCF_013415925.1_ASM1341592v1_bin_1,NZ_CP058809.1,93853,335683
GCF_013415925.1_ASM1341592v1,GCF_013415925.1_ASM1341592v1_bin_1,NZ_CP058811.1,88119,335683
GCF_013415925.1_ASM1341592v1,GCF_013415925.1_ASM1341592v1_bin_1,NZ_CP058810.1,156046,335683
GCF_013415925.1_ASM1341592v1,GCF_013415925.1_ASM1341592v1_bin_2,NZ_CP058808.1,3752,3752
GCF_016454345.1_ASM1645434v1,GCF_016454345.1_ASM1645434v1_bin_1,NZ_CP051373.1,116691,105065
GCF_016454345.1_ASM1645434v1,GCF_016454345.1_ASM1645434v1_bin_2,NZ_CP051375.1,3605,3605
GCF_019428465.1_ASM1942846v1,GCF_019428465.1_ASM1942846v1_bin_3,no_correct_alignments,0,0
GCF_019428465.1_ASM1942846v1,GCF_019428465.1_ASM1942846v1_bin_1,NZ_CP080094.1,31572,85879
GCF_019428465.1_ASM1942846v1,GCF_019428465.1_ASM1942846v1_bin_1,NZ_CP080093.1,54307,85879
GCF_019428465.1_ASM1942846v1,GCF_019428465.1_ASM1942846v1_bin_2,NZ_CP080092.1,59072,59072
GCF_019428465.1_ASM1942846v1,GCF_019428465.1_ASM1942846v1_bin_2,NZ_CP080091.1,1029,59072
GCF_016454285.1_ASM1645428v1,GCF_016454285.1_ASM1645428v1_bin_1,NZ_CP051365.1,8688,8688
GCF_016454285.1_ASM1645428v1,GCF_016454285.1_ASM1645428v1_bin_Isolated_1,NZ_CP051367.1,49438,49438
GCF_022533545.1_ASM2253354v1,GCF_022533545.1_ASM2253354v1_bin_1,NZ_CP092861.1,54406,206933
GCF_022533545.1_ASM2253354v1,GCF_022533545.1_ASM2253354v1_bin_1,NZ_CP092862.1,214616,206933
GCF_015240995.1_ASM1524099v1,GCF_015240995.1_ASM1524099v1_bin_2,NZ_CP063707.1,6972,6974
GCF_015240995.1_ASM1524099v1,GCF_015240995.1_ASM1524099v1_bin_4,NZ_CP063706.1,4899,4899
GCF_015240995.1_ASM1524099v1,GCF_015240995.1_ASM1524099v1_bin_1,NZ_CP063706.1,63140,63140
GCF_015240995.1_ASM1524099v1,GCF_015240995.1_ASM1524099v1_bin_3,NZ_CP063706.1,9799,8274
GCF_015240995.1_ASM1524099v1,GCF_015240995.1_ASM1524099v1_bin_5,NZ_CP063706.1,13990,12465
GCF_015240995.1_ASM1524099v1,GCF_015240995.1_ASM1524099v1_bin_5,NZ_CP063705.1,4888,12465
GCF_015240995.1_ASM1524099v1,GCF_015240995.1_ASM1524099v1_bin_5,NZ_CP063707.1,1714,12465
GCF_014250355.1_ASM1425035v1,GCF_014250355.1_ASM1425035v1_bin_Isolated_1,NZ_CP060170.1,67590,67590
GCF_014250355.1_ASM1425035v1,GCF_014250355.1_ASM1425035v1_bin_1,NZ_CP060170.1,18657,18657
GCF_014250355.1_ASM1425035v1,GCF_014250355.1_ASM1425035v1_bin_2,NZ_CP060171.1,1975,1975
GCF_016454325.1_ASM1645432v1,GCF_016454325.1_ASM1645432v1_bin_1,no_correct_alignments,0,0
GCF_015159575.1_ASM1515957v1,GCF_015159575.1_ASM1515957v1_bin_1,NZ_CP063331.1,2097,2097
GCF_015159575.1_ASM1515957v1,GCF_015159575.1_ASM1515957v1_bin_Unbinned,NZ_CP063330.1,1083,1083
GCF_022936385.1_ASM2293638v1,GCF_022936385.1_ASM2293638v1_bin_1,NZ_CP092005.1,4593,4593
GCF_003068025.2_ASM306802v2,GCF_003068025.2_ASM306802v2_bin_2,NZ_CP077708.1,96045,96045
GCF_003068025.2_ASM306802v2,GCF_003068025.2_ASM306802v2_bin_1,NZ_CP077707.1,133229,132082
GCF_003068025.2_ASM306802v2,GCF_003068025.2_ASM306802v2_bin_3,NZ_CP077709.1,26031,26031
GCF_016025375.1_ASM1602537v1,GCF_016025375.1_ASM1602537v1_bin_1,NZ_CP065565.1,1982,1982
GCF_016025375.1_ASM1602537v1,GCF_016025375.1_ASM1602537v1_bin_Unbinned,NZ_CP065564.1,1083,1083
GCF_016454445.1_ASM1645444v1,GCF_016454445.1_ASM1645444v1_bin_Unbinned,NZ_CP051386.1,90450,90450
GCF_016454445.1_ASM1645444v1,GCF_016454445.1_ASM1645444v1_bin_2,no_correct_alignments,0,0
GCF_016454445.1_ASM1645444v1,GCF_016454445.1_ASM1645444v1_bin_1,NZ_CP051388.1,116981,224362
GCF_016454445.1_ASM1645444v1,GCF_016454445.1_ASM1645444v1_bin_1,NZ_CP051387.1,113950,224362
GCF_016454445.1_ASM1645444v1,GCF_016454445.1_ASM1645444v1_bin_1,NZ_CP051386.1,1713,224362
GCF_022655645.1_ASM2265564v1,GCF_022655645.1_ASM2265564v1_bin_1,NZ_CP093387.1,93495,93495
GCF_022655645.1_ASM2265564v1,GCF_022655645.1_ASM2265564v1_bin_3,NZ_CP093389.1,3176,3176
GCF_022655645.1_ASM2265564v1,GCF_022655645.1_ASM2265564v1_bin_Unbinned,NZ_CP093386.1,520448,520448
GCF_022655645.1_ASM2265564v1,GCF_022655645.1_ASM2265564v1_bin_2,NZ_CP093388.1,3910,3910
GCF_016454665.1_ASM1645466v1,GCF_016454665.1_ASM1645466v1_bin_2,NZ_CP051415.1,3319,3319
GCF_016454665.1_ASM1645466v1,GCF_016454665.1_ASM1645466v1_bin_Unbinned,NZ_CP051413.1,4924,4924
GCF_016454665.1_ASM1645466v1,GCF_016454665.1_ASM1645466v1_bin_3,no_correct_alignments,0,0
GCF_016454665.1_ASM1645466v1,GCF_016454665.1_ASM1645466v1_bin_1,NZ_CP051414.1,3371,3372
GCF_022936425.1_ASM2293642v1,GCF_022936425.1_ASM2293642v1_bin_3,NZ_CP092011.1,5725,5728
GCF_022936425.1_ASM2293642v1,GCF_022936425.1_ASM2293642v1_bin_2,NZ_CP092010.1,60686,60776
GCF_022936425.1_ASM2293642v1,GCF_022936425.1_ASM2293642v1_bin_1,NZ_CP092009.1,18412,17400
GCF_014334175.1_ASM1433417v1,GCF_014334175.1_ASM1433417v1_bin_1,NZ_CP060509.1,196214,194260
GCF_014334175.1_ASM1433417v1,GCF_014334175.1_ASM1433417v1_bin_1,NZ_CP060508.1,3908,194260
GCF_014334175.1_ASM1433417v1,GCF_014334175.1_ASM1433417v1_bin_3,NZ_CP060511.1,2978,2978
GCF_014334175.1_ASM1433417v1,GCF_014334175.1_ASM1433417v1_bin_2,NZ_CP060510.1,3372,3372
GCF_022870605.1_ASM2287060v1,GCF_022870605.1_ASM2287060v1_bin_1,NZ_CP058672.1,157142,143520
GCF_022870605.1_ASM2287060v1,GCF_022870605.1_ASM2287060v1_bin_1,NZ_CP058673.1,8121,143520
GCF_022870605.1_ASM2287060v1,GCF_022870605.1_ASM2287060v1_bin_1,NZ_CP058671.1,29423,143520
GCF_022870605.1_ASM2287060v1,GCF_022870605.1_ASM2287060v1_bin_3,NZ_CP058674.1,3371,3371
GCF_022870605.1_ASM2287060v1,GCF_022870605.1_ASM2287060v1_bin_2,NZ_CP058673.1,49068,49071
GCF_022870605.1_ASM2287060v1,GCF_022870605.1_ASM2287060v1_bin_2,NZ_CP058672.1,17178,49071
GCF_022870605.1_ASM2287060v1,GCF_022870605.1_ASM2287060v1_bin_2,NZ_CP058671.1,35510,49071
GCF_014858565.1_ASM1485856v1,GCF_014858565.1_ASM1485856v1_bin_2,NZ_CP062227.1,3172,3172
GCF_014858565.1_ASM1485856v1,GCF_014858565.1_ASM1485856v1_bin_1,NZ_CP062226.1,252212,246909
GCF_015074885.1_ASM1507488v1,GCF_015074885.1_ASM1507488v1_bin_1,NZ_CP063290.1,9284,9284
GCF_015074885.1_ASM1507488v1,GCF_015074885.1_ASM1507488v1_bin_4,NZ_CP063293.1,3610,3610
GCF_015074885.1_ASM1507488v1,GCF_015074885.1_ASM1507488v1_bin_3,NZ_CP063292.1,5633,5633
GCF_015074885.1_ASM1507488v1,GCF_015074885.1_ASM1507488v1_bin_2,NZ_CP063290.1,102042,102042
GCF_015074885.1_ASM1507488v1,GCF_015074885.1_ASM1507488v1_bin_2,NZ_CP063289.1,1657,102042
GCF_015074885.1_ASM1507488v1,GCF_015074885.1_ASM1507488v1_bin_Unbinned,NZ_CP063291.1,1783,1783
GCF_016454765.1_ASM1645476v1,GCF_016454765.1_ASM1645476v1_bin_1,NZ_CP053049.1,206393,254538
GCF_016454765.1_ASM1645476v1,GCF_016454765.1_ASM1645476v1_bin_1,NZ_CP053050.1,49039,254538
GCF_016454765.1_ASM1645476v1,GCF_016454765.1_ASM1645476v1_bin_2,NZ_CP053050.1,50742,50916
GCF_016454505.1_ASM1645450v1,GCF_016454505.1_ASM1645450v1_bin_1,NZ_CP051395.1,129524,129524
GCF_003064405.2_ASM306440v2,GCF_003064405.2_ASM306440v2_bin_Unbinned,NZ_CP077693.1,1927,1927
GCF_003064405.2_ASM306440v2,GCF_003064405.2_ASM306440v2_bin_1,NZ_CP077694.1,132617,131470
GCF_003064405.2_ASM306440v2,GCF_003064405.2_ASM306440v2_bin_2,NZ_CP077695.1,25879,25879
GCF_016452005.1_ASM1645200v1,GCF_016452005.1_ASM1645200v1_bin_2,no_correct_alignments,0,0
GCF_016452005.1_ASM1645200v1,GCF_016452005.1_ASM1645200v1_bin_1,NZ_CP051311.1,237573,327640
GCF_016452005.1_ASM1645200v1,GCF_016452005.1_ASM1645200v1_bin_1,NZ_CP051312.1,100381,327640
GCF_016452005.1_ASM1645200v1,GCF_016452005.1_ASM1645200v1_bin_1,NZ_CP051310.1,2437,327640
GCF_016025435.1_ASM1602543v1,GCF_016025435.1_ASM1602543v1_bin_1,NZ_CP065572.1,11207,11207
GCF_016025435.1_ASM1602543v1,GCF_016025435.1_ASM1602543v1_bin_2,NZ_CP065572.1,6560,5102
GCF_016025435.1_ASM1602543v1,GCF_016025435.1_ASM1602543v1_bin_3,NZ_CP065572.1,2202,1101
GCF_015240855.1_ASM1524085v1,GCF_015240855.1_ASM1524085v1_bin_1,NZ_CP063703.1,88113,91883
GCF_015240855.1_ASM1524085v1,GCF_015240855.1_ASM1524085v1_bin_1,NZ_CP063702.1,9567,91883
GCF_015240855.1_ASM1524085v1,GCF_015240855.1_ASM1524085v1_bin_2,NZ_CP063704.1,4888,4888
GCF_019670445.1_ASM1967044v1,GCF_019670445.1_ASM1967044v1_bin_1,NZ_AP023318.1,136708,136708
GCF_021397645.1_ASM2139764v1,GCF_021397645.1_ASM2139764v1_bin_3,NZ_CP090142.1,10770,5385
GCF_021397645.1_ASM2139764v1,GCF_021397645.1_ASM2139764v1_bin_2,NZ_CP090142.1,57821,51548
GCF_021397645.1_ASM2139764v1,GCF_021397645.1_ASM2139764v1_bin_1,NZ_CP090142.1,215058,203628
GCF_021397645.1_ASM2139764v1,GCF_021397645.1_ASM2139764v1_bin_1,NZ_CP090141.1,2130,203628
GCF_021397645.1_ASM2139764v1,GCF_021397645.1_ASM2139764v1_bin_5,NZ_CP090144.1,4593,4593
GCF_021397645.1_ASM2139764v1,GCF_021397645.1_ASM2139764v1_bin_4,NZ_CP090143.1,50749,49549
GCF_001831985.2_ASM183198v2,GCF_001831985.2_ASM183198v2_bin_2,NZ_CP075136.1,26031,26031
GCF_001831985.2_ASM183198v2,GCF_001831985.2_ASM183198v2_bin_1,no_correct_alignments,0,0
GCF_016454185.1_ASM1645418v1,GCF_016454185.1_ASM1645418v1_bin_1,NZ_CP051349.1,121800,80730
GCF_013328855.1_ASM1332885v1,GCF_013328855.1_ASM1332885v1_bin_1,NZ_CP054423.1,42668,42668
GCF_013328855.1_ASM1332885v1,GCF_013328855.1_ASM1332885v1_bin_1,NZ_CP054422.1,40489,42668
GCF_003067445.2_ASM306744v2,GCF_003067445.2_ASM306744v2_bin_1,NZ_CP077705.1,67728,67728
GCF_022670675.1_ASM2267067v1,GCF_022670675.1_ASM2267067v1_bin_1,NZ_CP093400.1,121159,310210
GCF_022670675.1_ASM2267067v1,GCF_022670675.1_ASM2267067v1_bin_1,NZ_CP093401.1,190149,310210
