GCF_016591995.1_ASM1659199v1,bin_component_9,NZ_AP024170.1,14584,14584
GCF_016591995.1_ASM1659199v1,bin_component_7,NZ_AP024170.1,14688,14688
GCF_016591995.1_ASM1659199v1,bin_component_1,NZ_AP024170.1,76302,78496
GCF_016591995.1_ASM1659199v1,bin_component_3,NZ_AP024170.1,49735,33630
GCF_016591995.1_ASM1659199v1,bin_component_4,NZ_AP024170.1,26004,26005
GCF_016591995.1_ASM1659199v1,bin_component_0,NZ_AP024170.1,89410,74163
GCF_016591995.1_ASM1659199v1,bin_component_2,NZ_AP024170.1,37000,37000
GCF_016591995.1_ASM1659199v1,bin_component_6,NZ_AP024170.1,20806,20933
GCF_016591995.1_ASM1659199v1,bin_component_5,NZ_AP024171.1,24653,25030
GCF_016591995.1_ASM1659199v1,bin_component_8,NZ_AP024170.1,14614,14615
GCF_022405185.1_ASM2240518v1,bin_component_0,NZ_CP062351.1,16691,16818
GCF_022405235.1_ASM2240523v1,bin_component_1,NZ_CP062355.1,20680,20807
GCF_022405235.1_ASM2240523v1,bin_component_0,no_correct_alignments,0,0
GCF_017161095.1_ASM1716109v1,bin_component_1,NZ_CP046476.1,28653,13515
GCF_017161095.1_ASM1716109v1,bin_component_0,NZ_CP046477.1,16100,16177
GCF_022405815.1_ASM2240581v1,bin_component_0,NZ_CP062404.1,40937,41046
GCF_022405515.1_ASM2240551v1,bin_component_0,NZ_CP062385.1,20730,20857
GCF_016889945.1_ASM1688994v1,bin_component_1,NZ_CP069565.1,32956,13803
GCF_016889945.1_ASM1688994v1,bin_component_0,NZ_CP069566.1,32065,36309
GCF_022405375.1_ASM2240537v1,bin_component_0,NZ_CP062369.1,27268,27395
GCF_022405205.1_ASM2240520v1,bin_component_0,NZ_CP062353.1,29018,29145
GCF_022405475.1_ASM2240547v1,bin_component_1,NZ_CP062381.1,38287,38867
GCF_022405475.1_ASM2240547v1,bin_component_0,NZ_CP062380.1,43428,43541
GCF_022369695.1_ASM2236969v1,bin_component_1,NZ_CP062319.1,24654,24781
GCF_022369695.1_ASM2236969v1,bin_component_0,NZ_CP062318.1,43015,43128
GCF_022405915.1_ASM2240591v1,bin_component_0,NZ_CP062409.1,43160,43273
GCF_018093105.1_ASM1809310v1,bin_component_1,no_correct_alignments,0,0
GCF_018093105.1_ASM1809310v1,bin_component_0,NZ_CP071100.1,552082,764906
GCF_022405975.1_ASM2240597v1,bin_component_0,NZ_CP062412.1,42867,42980
GCF_022404615.1_ASM2240461v1,bin_component_0,NZ_CP062325.1,26803,26803
GCF_017088305.1_ASM1708830v1,bin_component_1,NZ_CP070986.1,94301,95016
GCF_017088305.1_ASM1708830v1,bin_component_3,NZ_CP070986.1,73980,61377
GCF_017088305.1_ASM1708830v1,bin_component_4,NZ_CP070987.1,19676,20882
GCF_017088305.1_ASM1708830v1,bin_component_0,NZ_CP070986.1,276424,280886
GCF_017088305.1_ASM1708830v1,bin_component_2,NZ_CP070986.1,64003,64024
GCF_018093225.1_ASM1809322v1,bin_component_1,NZ_CP071104.1,46377,52270
GCF_018093225.1_ASM1809322v1,bin_component_3,no_correct_alignments,0,0
GCF_018093225.1_ASM1809322v1,bin_component_4,NZ_CP071105.1,4263,4391
GCF_018093225.1_ASM1809322v1,bin_component_0,NZ_CP071104.1,890001,1214626
GCF_018093225.1_ASM1809322v1,bin_component_2,NZ_CP071104.1,21389,22781
GCF_018093225.1_ASM1809322v1,bin_component_5,NZ_CP071106.1,2751,2878
GCF_903932595.1_P3.1,bin_component_1,NZ_LR822060.1,24746,18160
GCF_903932595.1_P3.1,bin_component_0,NZ_LR822060.1,5226,36056
GCF_021869805.1_ASM2186980v1,bin_component_0,NZ_CP086215.1,32691,15268
GCF_022405255.1_ASM2240525v1,bin_component_0,NZ_CP062357.1,29018,29145
GCF_022405535.1_ASM2240553v1,bin_component_1,NZ_CP062387.1,2416,2543
GCF_022405535.1_ASM2240553v1,bin_component_0,NZ_CP062386.1,43160,43273
GCF_022405555.1_ASM2240555v1,bin_component_0,NZ_CP062389.1,27269,27396
GCF_022404575.1_ASM2240457v1,bin_component_1,NZ_CP062321.1,27068,27195
GCF_022404575.1_ASM2240457v1,bin_component_0,NZ_CP062320.1,38439,38566
GCF_022405295.1_ASM2240529v1,bin_component_0,NZ_CP062361.1,31290,32698
GCF_903932605.1_HU-14,bin_component_1,NZ_LR822061.1,24746,18185
GCF_903932605.1_HU-14,bin_component_0,NZ_LR822061.1,5226,36056
GCF_022405315.1_ASM2240531v1,bin_component_0,NZ_CP062363.1,33244,33561
GCF_017088385.1_ASM1708838v1,bin_component_1,NZ_CP070983.1,47351,89226
GCF_017088385.1_ASM1708838v1,bin_component_3,NZ_CP070983.1,15231,29302
GCF_017088385.1_ASM1708838v1,bin_component_4,NZ_CP070983.1,16599,16605
GCF_017088385.1_ASM1708838v1,bin_component_0,NZ_CP070983.1,130990,130990
GCF_017088385.1_ASM1708838v1,bin_component_2,NZ_CP070984.1,20730,23375
GCF_017088385.1_ASM1708838v1,bin_component_6,NZ_CP070985.1,2393,2474
GCF_017088385.1_ASM1708838v1,bin_component_5,NZ_CP070983.1,11418,11418
GCF_022405935.1_ASM2240593v1,bin_component_0,NZ_CP062410.1,42029,42153
GCF_022404695.1_ASM2240469v1,bin_component_1,NZ_CP062335.1,20691,20818
GCF_022404695.1_ASM2240469v1,bin_component_0,NZ_CP062334.1,43314,44394
GCF_022405495.1_ASM2240549v1,bin_component_1,NZ_CP062382.1,17111,16879
GCF_022405495.1_ASM2240549v1,bin_component_0,NZ_CP062383.1,41030,41866
GCF_022405495.1_ASM2240549v1,bin_component_2,NZ_CP062382.1,26362,13634
GCF_022404775.1_ASM2240477v1,bin_component_1,NZ_CP062343.1,20691,20818
GCF_022404775.1_ASM2240477v1,bin_component_0,NZ_CP062342.1,77672,74563
GCF_022405595.1_ASM2240559v1,bin_component_0,NZ_CP062394.1,27025,27232
GCF_022406035.1_ASM2240603v1,bin_component_0,NZ_CP062415.1,89909,90463
GCF_022405855.1_ASM2240585v1,bin_component_0,NZ_CP062406.1,1438,1438
GCF_022405275.1_ASM2240527v1,bin_component_1,NZ_CP062359.1,27268,27395
GCF_022405275.1_ASM2240527v1,bin_component_0,NZ_CP062358.1,44268,44381
GCF_022405075.1_ASM2240507v1,bin_component_1,NZ_CP062347.1,40619,41523
GCF_022405075.1_ASM2240507v1,bin_component_0,NZ_CP062346.1,41061,42985
GCF_022404635.1_ASM2240463v1,bin_component_1,NZ_CP062328.1,20730,20857
GCF_022404635.1_ASM2240463v1,bin_component_0,NZ_CP062327.1,28841,28968
GCF_015732455.1_ASM1573245v1,bin_component_0,NZ_CP061349.1,45851,45949
GCF_022404755.1_ASM2240475v1,bin_component_1,NZ_CP062341.1,20721,20848
GCF_022404755.1_ASM2240475v1,bin_component_0,NZ_CP062340.1,44105,44232
GCF_022404655.1_ASM2240465v1,bin_component_0,NZ_CP062330.1,3332,3459
GCF_022405435.1_ASM2240543v1,bin_component_1,NZ_CP062377.1,19781,19908
GCF_022405435.1_ASM2240543v1,bin_component_0,NZ_CP062376.1,43635,43748
GCF_022405335.1_ASM2240533v1,bin_component_1,NZ_CP062364.1,25210,12468
GCF_022405335.1_ASM2240533v1,bin_component_0,NZ_CP062365.1,27264,27607
GCF_022369595.1_ASM2236959v1,bin_component_1,NZ_CP062317.1,2473,2600
GCF_022369595.1_ASM2236959v1,bin_component_0,NZ_CP062315.1,26770,30007
GCF_022369595.1_ASM2236959v1,bin_component_0,NZ_CP062316.1,3108,30007
GCF_022405675.1_ASM2240567v1,bin_component_1,no_correct_alignments,0,0
GCF_022405675.1_ASM2240567v1,bin_component_0,NZ_CP062399.1,141529,141529
GCF_022405415.1_ASM2240541v1,bin_component_1,NZ_CP062374.1,3566,3693
GCF_022405415.1_ASM2240541v1,bin_component_0,NZ_CP062373.1,28565,28766
GCF_022405415.1_ASM2240541v1,bin_component_2,NZ_CP062375.1,2366,2493
GCF_018093065.1_ASM1809306v1,bin_component_7,NZ_CP070991.1,11280,11280
GCF_018093065.1_ASM1809306v1,bin_component_1,NZ_CP070991.1,92117,92117
GCF_018093065.1_ASM1809306v1,bin_component_3,NZ_CP070991.1,54828,54828
GCF_018093065.1_ASM1809306v1,bin_component_4,NZ_CP070991.1,36530,36530
GCF_018093065.1_ASM1809306v1,bin_component_0,NZ_CP070991.1,194630,194630
GCF_018093065.1_ASM1809306v1,bin_component_2,NZ_CP070991.1,57912,59246
GCF_018093065.1_ASM1809306v1,bin_component_6,NZ_CP070992.1,17325,17325
GCF_018093065.1_ASM1809306v1,bin_component_5,NZ_CP070991.1,22729,22739
GCF_018093065.1_ASM1809306v1,bin_component_8,NZ_CP070992.1,11258,11258
GCF_022404715.1_ASM2240471v1,bin_component_1,NZ_CP062337.1,20730,20857
GCF_022404715.1_ASM2240471v1,bin_component_0,NZ_CP062336.1,39329,39438
GCF_022405455.1_ASM2240545v1,bin_component_1,NZ_CP062379.1,27265,27392
GCF_022405455.1_ASM2240545v1,bin_component_0,NZ_CP062378.1,39748,39857
GCF_018093205.1_ASM1809320v1,bin_component_9,NZ_CP071102.1,12605,12605
GCF_018093205.1_ASM1809320v1,bin_component_7,NZ_CP071102.1,31168,31171
GCF_018093205.1_ASM1809320v1,bin_component_1,NZ_CP071102.1,210646,211441
GCF_018093205.1_ASM1809320v1,bin_component_3,NZ_CP071102.1,73053,73053
GCF_018093205.1_ASM1809320v1,bin_component_4,NZ_CP071102.1,50474,50475
GCF_018093205.1_ASM1809320v1,bin_component_0,NZ_CP071102.1,311953,312542
GCF_018093205.1_ASM1809320v1,bin_component_2,NZ_CP071102.1,90725,90725
GCF_018093205.1_ASM1809320v1,bin_component_6,NZ_CP071102.1,38615,38615
GCF_018093205.1_ASM1809320v1,bin_component_5,NZ_CP071102.1,39932,39932
GCF_018093205.1_ASM1809320v1,bin_component_8,NZ_CP071102.1,23899,23901
GCF_022226995.1_ASM2222699v1,bin_component_1,NZ_CP092052.1,17499,15546
GCF_022226995.1_ASM2222699v1,bin_component_0,NZ_CP092053.1,13036,16129
GCF_022226995.1_ASM2222699v1,bin_component_0,NZ_CP092054.1,3091,16129
GCF_022226995.1_ASM2222699v1,bin_component_2,NZ_CP092052.1,32693,13314
GCF_016894285.1_ASM1689428v1,bin_component_1,NZ_CP069799.1,136565,136928
GCF_016894285.1_ASM1689428v1,bin_component_0,NZ_CP069799.1,440783,432169
GCF_016894285.1_ASM1689428v1,bin_component_2,NZ_CP069800.1,2539,2616
GCF_013836525.1_ASM1383652v1,bin_component_0,NZ_CP058615.1,915822,885738
GCF_019653615.1_ASM1965361v1,bin_component_1,no_correct_alignments,0,0
GCF_019653615.1_ASM1965361v1,bin_component_0,NZ_CP077098.1,20396,40715
GCF_019653615.1_ASM1965361v1,bin_component_2,no_correct_alignments,0,0
GCF_022405755.1_ASM2240575v1,bin_component_0,NZ_CP062401.1,43160,43273
GCF_022404595.1_ASM2240459v1,bin_component_1,NZ_CP062323.1,20691,20818
GCF_022404595.1_ASM2240459v1,bin_component_0,NZ_CP062322.1,41728,42850
GCF_022405055.1_ASM2240505v1,bin_component_1,NZ_CP062345.1,17329,17456
GCF_022405055.1_ASM2240505v1,bin_component_0,NZ_CP062344.1,44280,45794
GCF_022405615.1_ASM2240561v1,bin_component_1,NZ_CP062397.1,38287,38867
GCF_022405615.1_ASM2240561v1,bin_component_0,NZ_CP062396.1,43414,43541
GCF_022405145.1_ASM2240514v1,bin_component_1,NZ_CP062349.1,20653,20780
GCF_022405145.1_ASM2240514v1,bin_component_0,NZ_CP062348.1,44823,49273
GCF_022405655.1_ASM2240565v1,bin_component_0,NZ_CP062398.1,43359,43396
GCF_022369535.1_ASM2236953v1,bin_component_1,NZ_CP062313.1,17329,17456
GCF_022369535.1_ASM2236953v1,bin_component_0,NZ_CP062312.1,86123,86250
GCF_016889145.1_ASM1688914v1,bin_component_1,NZ_CP069470.1,32956,13807
GCF_016889145.1_ASM1688914v1,bin_component_0,NZ_CP069471.1,31196,36262
GCF_016889145.1_ASM1688914v1,bin_component_0,NZ_CP069472.1,3052,36262
GCF_018135565.1_ASM1813556v1,bin_component_1,NZ_CP073065.1,57632,57632
GCF_018135565.1_ASM1813556v1,bin_component_3,NZ_CP073065.1,27926,20042
GCF_018135565.1_ASM1813556v1,bin_component_4,NZ_CP073064.1,4397,4474
GCF_018135565.1_ASM1813556v1,bin_component_0,NZ_CP073065.1,171578,171578
GCF_018135565.1_ASM1813556v1,bin_component_2,NZ_CP073065.1,21261,21290
GCF_016727585.1_ASM1672758v1,bin_component_7,no_correct_alignments,0,0
GCF_016727585.1_ASM1672758v1,bin_component_1,NZ_CP068143.1,104940,111400
GCF_016727585.1_ASM1672758v1,bin_component_3,NZ_CP068143.1,82668,85646
GCF_016727585.1_ASM1672758v1,bin_component_4,NZ_CP068143.1,78459,79925
GCF_016727585.1_ASM1672758v1,bin_component_0,NZ_CP068143.1,19266,2066054
GCF_016727585.1_ASM1672758v1,bin_component_2,NZ_CP068143.1,84813,85209
GCF_016727585.1_ASM1672758v1,bin_component_6,NZ_CP068144.1,19747,21919
GCF_016727585.1_ASM1672758v1,bin_component_5,NZ_CP068143.1,19837,28849
GCF_022405835.1_ASM2240583v1,bin_component_0,NZ_CP062405.1,41046,41046
GCF_022405875.1_ASM2240587v1,bin_component_0,NZ_CP062407.1,47302,47415
GCF_022404735.1_ASM2240473v1,bin_component_1,NZ_CP062339.1,2564,2691
GCF_022404735.1_ASM2240473v1,bin_component_0,NZ_CP062338.1,42504,42617
GCF_022405575.1_ASM2240557v1,bin_component_1,NZ_CP062392.1,24655,24782
GCF_022405575.1_ASM2240557v1,bin_component_0,NZ_CP062391.1,37087,37214
GCF_022406075.1_ASM2240607v1,bin_component_0,NZ_CP062417.1,43160,43273
GCF_022226975.1_ASM2222697v1,bin_component_1,NZ_CP092055.1,33438,16362
GCF_022226975.1_ASM2222697v1,bin_component_0,NZ_CP092055.1,46238,47521
GCF_022493095.1_ASM2249309v1,bin_component_0,NZ_CP062440.1,3126,3253
GCF_022404675.1_ASM2240467v1,bin_component_1,NZ_CP062332.1,13160,16510
GCF_022404675.1_ASM2240467v1,bin_component_1,NZ_CP062333.1,3108,16510
GCF_022404675.1_ASM2240467v1,bin_component_0,NZ_CP062331.1,43048,43175
GCF_022404675.1_ASM2240467v1,bin_component_2,NZ_CP062331.1,13972,14082
GCF_018409145.1_ASM1840914v1,bin_component_1,NZ_AP024512.1,20499,22019
GCF_018409145.1_ASM1840914v1,bin_component_0,NZ_AP024511.1,648135,661682
GCF_013836745.1_ASM1383674v1,bin_component_1,NZ_CP058613.1,173466,174757
GCF_013836745.1_ASM1383674v1,bin_component_0,NZ_CP058613.1,636789,594503
GCF_013008375.1_ASM1300837v1,bin_component_1,NZ_CP053101.1,35939,19321
GCF_013008375.1_ASM1300837v1,bin_component_0,NZ_CP053101.1,17053,18301
GCF_015475575.1_ASM1547557v1,bin_component_1,NZ_CP055226.1,3056,3180
GCF_015475575.1_ASM1547557v1,bin_component_0,NZ_CP055225.1,16696,12181
GCF_022405895.1_ASM2240589v1,bin_component_0,NZ_CP062408.1,43023,43150
GCF_022405355.1_ASM2240535v1,bin_component_1,NZ_CP062367.1,27068,27551
GCF_022405355.1_ASM2240535v1,bin_component_0,NZ_CP062366.1,42854,42971
GCF_022405355.1_ASM2240535v1,bin_component_2,NZ_CP062366.1,13973,14083
GCF_022405395.1_ASM2240539v1,bin_component_0,NZ_CP062371.1,27267,27394
GCF_022405995.1_ASM2240599v1,bin_component_0,NZ_CP062413.1,43160,43273
