GCF_016591995.1_ASM1659199v1,bin_component_9,NZ_AP024170.1,NODE_8_length_14584_cov_13.569205_component_9,14584,1.0
GCF_016591995.1_ASM1659199v1,bin_component_7,NZ_AP024170.1,NODE_6_length_14688_cov_11.772612_component_7,14688,1.0
GCF_016591995.1_ASM1659199v1,bin_component_1,NZ_AP024170.1,NODE_1_length_51105_cov_30.470419_component_1,51105,1.0
GCF_016591995.1_ASM1659199v1,bin_component_1,NZ_AP024170.1,NODE_10_length_12904_cov_5.567582_component_10,12904,1.0
GCF_016591995.1_ASM1659199v1,bin_component_1,NZ_AP024170.1,NODE_12_length_9284_cov_14.097412_component_11,9284,1.0
GCF_016591995.1_ASM1659199v1,bin_component_1,NZ_AP024170.1,NODE_19_length_3009_cov_7.729355_component_11,3009,1.0
GCF_016591995.1_ASM1659199v1,bin_component_3,NZ_AP024170.1,NODE_14_length_7120_cov_26.259688_component_3,7120,1.0
GCF_016591995.1_ASM1659199v1,bin_component_3,NZ_AP024170.1,NODE_15_length_7101_cov_10.254517_component_3,7101,1.0
GCF_016591995.1_ASM1659199v1,bin_component_3,NZ_AP024170.1,NODE_16_length_5983_cov_6.287056_component_3,5983,1.0
GCF_016591995.1_ASM1659199v1,bin_component_3,NZ_AP024170.1,NODE_17_length_5982_cov_10.259095_component_3,5982,1.0
GCF_016591995.1_ASM1659199v1,bin_component_3,NZ_AP024170.1,NODE_24_length_1592_cov_2.878498_component_3,1592,1.0
GCF_016591995.1_ASM1659199v1,bin_component_3,NZ_AP024170.1,NODE_25_length_1548_cov_10.170303_component_3,1548,1.0
GCF_016591995.1_ASM1659199v1,bin_component_3,NZ_AP024170.1,NODE_27_length_1501_cov_105.722707_component_3,1501,1.0
GCF_016591995.1_ASM1659199v1,bin_component_3,NZ_AP024170.1,NODE_27_length_1501_cov_105.722707_component_3,1501,1.0
GCF_016591995.1_ASM1659199v1,bin_component_3,NZ_AP024170.1,NODE_27_length_1501_cov_105.722707_component_3,1501,1.0
GCF_016591995.1_ASM1659199v1,bin_component_3,NZ_AP024170.1,NODE_27_length_1501_cov_105.722707_component_3,1501,1.0
GCF_016591995.1_ASM1659199v1,bin_component_3,NZ_AP024170.1,NODE_27_length_1501_cov_105.722707_component_3,1501,1.0
GCF_016591995.1_ASM1659199v1,bin_component_3,NZ_AP024170.1,NODE_27_length_1501_cov_105.722707_component_3,1501,1.0
GCF_016591995.1_ASM1659199v1,bin_component_3,NZ_AP024170.1,NODE_27_length_1501_cov_105.722707_component_3,1501,1.0
GCF_016591995.1_ASM1659199v1,bin_component_3,NZ_AP024170.1,NODE_27_length_1501_cov_105.722707_component_3,1501,1.0
GCF_016591995.1_ASM1659199v1,bin_component_3,NZ_AP024170.1,NODE_28_length_1479_cov_12.421598_component_3,1479,1.0
GCF_016591995.1_ASM1659199v1,bin_component_3,NZ_AP024170.1,NODE_30_length_1324_cov_154.700084_component_3,1324,1.0
GCF_016591995.1_ASM1659199v1,bin_component_3,NZ_AP024170.1,NODE_30_length_1324_cov_154.700084_component_3,1324,1.0
GCF_016591995.1_ASM1659199v1,bin_component_3,NZ_AP024170.1,NODE_30_length_1324_cov_154.700084_component_3,1324,1.0
GCF_016591995.1_ASM1659199v1,bin_component_3,NZ_AP024170.1,NODE_30_length_1324_cov_154.700084_component_3,1324,1.0
GCF_016591995.1_ASM1659199v1,bin_component_3,NZ_AP024170.1,NODE_30_length_1324_cov_154.700084_component_3,1324,1.0
GCF_016591995.1_ASM1659199v1,bin_component_3,NZ_AP024170.1,NODE_30_length_1324_cov_154.700084_component_3,1324,1.0
GCF_016591995.1_ASM1659199v1,bin_component_4,NZ_AP024170.1,NODE_4_length_26005_cov_25.752763_component_4,26005,1.0
GCF_016591995.1_ASM1659199v1,bin_component_0,NZ_AP024170.1,NODE_2_length_45243_cov_25.270037_component_0,45243,1.0
GCF_016591995.1_ASM1659199v1,bin_component_0,NZ_AP024170.1,NODE_11_length_11553_cov_29.252494_component_0,11553,1.0
GCF_016591995.1_ASM1659199v1,bin_component_0,NZ_AP024170.1,NODE_13_length_7607_cov_25.430481_component_0,7607,1.0
GCF_016591995.1_ASM1659199v1,bin_component_0,NZ_AP024170.1,NODE_20_length_2992_cov_260.116928_component_0,2992,1.0
GCF_016591995.1_ASM1659199v1,bin_component_0,NZ_AP024170.1,NODE_20_length_2992_cov_260.116928_component_0,2992,1.0
GCF_016591995.1_ASM1659199v1,bin_component_0,NZ_AP024170.1,NODE_20_length_2992_cov_260.116928_component_0,2992,1.0
GCF_016591995.1_ASM1659199v1,bin_component_0,NZ_AP024170.1,NODE_20_length_2992_cov_260.116928_component_0,2992,1.0
GCF_016591995.1_ASM1659199v1,bin_component_0,NZ_AP024170.1,NODE_20_length_2992_cov_260.116928_component_0,2992,1.0
GCF_016591995.1_ASM1659199v1,bin_component_0,NZ_AP024170.1,NODE_22_length_2025_cov_33.206533_component_0,2025,1.0
GCF_016591995.1_ASM1659199v1,bin_component_0,NZ_AP024170.1,NODE_23_length_1685_cov_213.049422_component_0,1685,1.0
GCF_016591995.1_ASM1659199v1,bin_component_0,NZ_AP024170.1,NODE_23_length_1685_cov_213.049422_component_0,1685,1.0
GCF_016591995.1_ASM1659199v1,bin_component_0,NZ_AP024170.1,NODE_23_length_1685_cov_213.049422_component_0,1685,1.0
GCF_016591995.1_ASM1659199v1,bin_component_0,NZ_AP024170.1,NODE_23_length_1685_cov_213.049422_component_0,1685,1.0
GCF_016591995.1_ASM1659199v1,bin_component_0,NZ_AP024170.1,NODE_23_length_1685_cov_213.049422_component_0,1685,1.0
GCF_016591995.1_ASM1659199v1,bin_component_2,NZ_AP024170.1,NODE_3_length_37000_cov_27.093510_component_2,37000,1.0
GCF_016591995.1_ASM1659199v1,bin_component_6,NZ_AP024170.1,NODE_9_length_14397_cov_29.818781_component_6,14397,1.0
GCF_016591995.1_ASM1659199v1,bin_component_6,NZ_AP024170.1,NODE_18_length_5013_cov_12.240688_component_6,5013,1.0
GCF_016591995.1_ASM1659199v1,bin_component_6,NZ_AP024170.1,NODE_26_length_1523_cov_11.222779_component_6,1523,1.0
GCF_016591995.1_ASM1659199v1,bin_component_5,NZ_AP024171.1,NODE_5_length_22728_cov_31.666785_component_5,22728,1.0
GCF_016591995.1_ASM1659199v1,bin_component_5,NZ_AP024171.1,NODE_21_length_2171_cov_31.607632_component_5,2171,1.0
GCF_016591995.1_ASM1659199v1,bin_component_8,NZ_AP024170.1,NODE_7_length_14615_cov_27.037341_component_8,14615,1.0
GCF_022405185.1_ASM2240518v1,bin_component_0,NZ_CP062351.1,NODE_1_length_16818_cov_41.337128_component_0,16818,1.0
GCF_022405235.1_ASM2240523v1,bin_component_1,NZ_CP062355.1,NODE_2_length_20807_cov_61.602805_component_1,20807,1.0
GCF_017161095.1_ASM1716109v1,bin_component_1,NZ_CP046476.1,NODE_2_length_2991_cov_2925.981812_component_1,2991,1.0
GCF_017161095.1_ASM1716109v1,bin_component_1,NZ_CP046476.1,NODE_2_length_2991_cov_2925.981812_component_1,2991,1.0
GCF_017161095.1_ASM1716109v1,bin_component_1,NZ_CP046476.1,NODE_2_length_2991_cov_2925.981812_component_1,2991,1.0
GCF_017161095.1_ASM1716109v1,bin_component_1,NZ_CP046476.1,NODE_2_length_2991_cov_2925.981812_component_1,2991,1.0
GCF_017161095.1_ASM1716109v1,bin_component_1,NZ_CP046476.1,NODE_2_length_2991_cov_2925.981812_component_1,2991,1.0
GCF_017161095.1_ASM1716109v1,bin_component_1,NZ_CP046476.1,NODE_2_length_2991_cov_2925.981812_component_1,2991,1.0
GCF_017161095.1_ASM1716109v1,bin_component_1,NZ_CP046476.1,NODE_3_length_2195_cov_589.261568_component_1,2195,0.96
GCF_017161095.1_ASM1716109v1,bin_component_1,NZ_CP046476.1,NODE_4_length_2000_cov_2083.822153_component_1,2000,0.93
GCF_017161095.1_ASM1716109v1,bin_component_1,NZ_CP046476.1,NODE_5_length_1137_cov_2918.497170_component_1,1137,1.0
GCF_017161095.1_ASM1716109v1,bin_component_1,NZ_CP046476.1,NODE_5_length_1137_cov_2918.497170_component_1,1137,1.0
GCF_017161095.1_ASM1716109v1,bin_component_1,NZ_CP046476.1,NODE_5_length_1137_cov_2918.497170_component_1,1137,1.0
GCF_017161095.1_ASM1716109v1,bin_component_1,NZ_CP046476.1,NODE_5_length_1137_cov_2918.497170_component_1,1137,1.0
GCF_017161095.1_ASM1716109v1,bin_component_1,NZ_CP046476.1,NODE_5_length_1137_cov_2918.497170_component_1,1137,1.0
GCF_017161095.1_ASM1716109v1,bin_component_1,NZ_CP046476.1,NODE_5_length_1137_cov_2918.497170_component_1,1137,1.0
GCF_017161095.1_ASM1716109v1,bin_component_0,NZ_CP046477.1,NODE_1_length_16177_cov_453.773975_component_0,16177,1.0
GCF_022405815.1_ASM2240581v1,bin_component_0,NZ_CP062404.1,NODE_1_length_41046_cov_201.325203_component_0,41046,1.0
GCF_022405515.1_ASM2240551v1,bin_component_0,NZ_CP062385.1,NODE_1_length_20857_cov_80.311770_component_0,20857,1.0
GCF_016889945.1_ASM1688994v1,bin_component_1,NZ_CP069565.1,NODE_3_length_4094_cov_478.426687_component_1,4094,1.0
GCF_016889945.1_ASM1688994v1,bin_component_1,NZ_CP069565.1,NODE_5_length_3121_cov_1972.226018_component_1,3121,1.0
GCF_016889945.1_ASM1688994v1,bin_component_1,NZ_CP069565.1,NODE_5_length_3121_cov_1972.226018_component_1,3121,1.0
GCF_016889945.1_ASM1688994v1,bin_component_1,NZ_CP069565.1,NODE_5_length_3121_cov_1972.226018_component_1,3121,1.0
GCF_016889945.1_ASM1688994v1,bin_component_1,NZ_CP069565.1,NODE_5_length_3121_cov_1972.226018_component_1,3121,1.0
GCF_016889945.1_ASM1688994v1,bin_component_1,NZ_CP069565.1,NODE_5_length_3121_cov_1972.226018_component_1,3121,1.0
GCF_016889945.1_ASM1688994v1,bin_component_1,NZ_CP069565.1,NODE_5_length_3121_cov_1972.226018_component_1,3121,1.0
GCF_016889945.1_ASM1688994v1,bin_component_1,NZ_CP069565.1,NODE_6_length_1703_cov_1944.200492_component_1,1703,1.0
GCF_016889945.1_ASM1688994v1,bin_component_1,NZ_CP069565.1,NODE_6_length_1703_cov_1944.200492_component_1,1703,1.0
GCF_016889945.1_ASM1688994v1,bin_component_1,NZ_CP069565.1,NODE_6_length_1703_cov_1944.200492_component_1,1703,1.0
GCF_016889945.1_ASM1688994v1,bin_component_1,NZ_CP069565.1,NODE_6_length_1703_cov_1944.200492_component_1,1703,1.0
GCF_016889945.1_ASM1688994v1,bin_component_1,NZ_CP069565.1,NODE_6_length_1703_cov_1944.200492_component_1,1703,1.0
GCF_016889945.1_ASM1688994v1,bin_component_1,NZ_CP069565.1,NODE_6_length_1703_cov_1944.200492_component_1,1703,1.0
GCF_016889945.1_ASM1688994v1,bin_component_0,NZ_CP069566.1,NODE_1_length_24139_cov_1288.539731_component_0,24139,1.0
GCF_016889945.1_ASM1688994v1,bin_component_0,NZ_CP069566.1,NODE_2_length_8022_cov_1373.623663_component_0,8022,1.0
GCF_016889945.1_ASM1688994v1,bin_component_0,NZ_CP069566.1,NODE_4_length_3193_cov_8252.866816_component_0,3193,0.22
GCF_022405375.1_ASM2240537v1,bin_component_0,NZ_CP062369.1,NODE_1_length_27395_cov_64.212483_component_0,27395,1.0
GCF_022405205.1_ASM2240520v1,bin_component_0,NZ_CP062353.1,NODE_1_length_29145_cov_36.517610_component_0,29145,1.0
GCF_022405475.1_ASM2240547v1,bin_component_1,NZ_CP062381.1,NODE_2_length_21477_cov_37.103888_component_1,21477,1.0
GCF_022405475.1_ASM2240547v1,bin_component_1,NZ_CP062381.1,NODE_3_length_13941_cov_36.280513_component_1,13941,1.0
GCF_022405475.1_ASM2240547v1,bin_component_1,NZ_CP062381.1,NODE_4_length_2869_cov_40.792487_component_1,2869,1.0
GCF_022405475.1_ASM2240547v1,bin_component_0,NZ_CP062380.1,NODE_1_length_43541_cov_41.224375_component_0,43541,1.0
GCF_022369695.1_ASM2236969v1,bin_component_1,NZ_CP062319.1,NODE_2_length_24781_cov_92.344325_component_1,24781,1.0
GCF_022369695.1_ASM2236969v1,bin_component_0,NZ_CP062318.1,NODE_1_length_43128_cov_74.386131_component_0,43128,1.0
GCF_022405915.1_ASM2240591v1,bin_component_0,NZ_CP062409.1,NODE_1_length_43273_cov_45.995944_component_0,43273,1.0
GCF_018093105.1_ASM1809310v1,bin_component_1,NZ_CP071100.1,NODE_9_length_4654_cov_32.770341_component_1,4654,0.68
GCF_018093105.1_ASM1809310v1,bin_component_1,NZ_CP071100.1,NODE_12_length_2764_cov_27.973834_component_1,2764,0.29
GCF_018093105.1_ASM1809310v1,bin_component_0,NZ_CP071100.1,NODE_1_length_259167_cov_212.726791_component_0,259167,0.96
GCF_018093105.1_ASM1809310v1,bin_component_0,NZ_CP071100.1,NODE_2_length_198245_cov_237.196812_component_0,198245,0.97
GCF_018093105.1_ASM1809310v1,bin_component_0,NZ_CP071100.1,NODE_3_length_116974_cov_180.219886_component_0,116974,0.89
GCF_018093105.1_ASM1809310v1,bin_component_0,NZ_CP071100.1,NODE_4_length_61733_cov_104.859218_component_0,61733,0.93
GCF_018093105.1_ASM1809310v1,bin_component_0,NZ_CP071100.1,NODE_5_length_47335_cov_200.949691_component_0,47335,0.87
GCF_018093105.1_ASM1809310v1,bin_component_0,NZ_CP071100.1,NODE_6_length_39999_cov_91.652964_component_0,39999,0.63
GCF_018093105.1_ASM1809310v1,bin_component_0,NZ_CP071100.1,NODE_7_length_22928_cov_188.358405_component_0,22928,0.99
GCF_018093105.1_ASM1809310v1,bin_component_0,NZ_CP071100.1,NODE_10_length_3614_cov_44.229710_component_0,3614,0.97
GCF_018093105.1_ASM1809310v1,bin_component_0,NZ_CP071100.1,NODE_11_length_3009_cov_2897.518043_component_0,3009,1.0
GCF_018093105.1_ASM1809310v1,bin_component_0,NZ_CP071100.1,NODE_11_length_3009_cov_2897.518043_component_0,3009,1.0
GCF_018093105.1_ASM1809310v1,bin_component_0,NZ_CP071100.1,NODE_11_length_3009_cov_2897.518043_component_0,3009,1.0
GCF_018093105.1_ASM1809310v1,bin_component_0,NZ_CP071100.1,NODE_11_length_3009_cov_2897.518043_component_0,3009,1.0
GCF_018093105.1_ASM1809310v1,bin_component_0,NZ_CP071100.1,NODE_11_length_3009_cov_2897.518043_component_0,3009,0.99
GCF_018093105.1_ASM1809310v1,bin_component_0,NZ_CP071100.1,NODE_11_length_3009_cov_2897.518043_component_0,3009,0.99
GCF_018093105.1_ASM1809310v1,bin_component_0,NZ_CP071100.1,NODE_13_length_1856_cov_30.994216_component_0,1856,0.17
GCF_018093105.1_ASM1809310v1,bin_component_0,NZ_CP071100.1,NODE_14_length_1690_cov_2259.643634_component_0,1690,1.0
GCF_018093105.1_ASM1809310v1,bin_component_0,NZ_CP071100.1,NODE_14_length_1690_cov_2259.643634_component_0,1690,1.0
GCF_018093105.1_ASM1809310v1,bin_component_0,NZ_CP071100.1,NODE_14_length_1690_cov_2259.643634_component_0,1690,1.0
GCF_018093105.1_ASM1809310v1,bin_component_0,NZ_CP071100.1,NODE_14_length_1690_cov_2259.643634_component_0,1690,1.0
GCF_018093105.1_ASM1809310v1,bin_component_0,NZ_CP071100.1,NODE_14_length_1690_cov_2259.643634_component_0,1690,1.0
GCF_022405975.1_ASM2240597v1,bin_component_0,NZ_CP062412.1,NODE_1_length_42980_cov_33.835507_component_0,42980,1.0
GCF_022404615.1_ASM2240461v1,bin_component_0,NZ_CP062325.1,NODE_1_length_23598_cov_78.006476_component_0,23598,1.0
GCF_022404615.1_ASM2240461v1,bin_component_0,NZ_CP062325.1,NODE_2_length_3205_cov_81.070228_component_0,3205,1.0
GCF_017088305.1_ASM1708830v1,bin_component_1,NZ_CP070986.1,NODE_2_length_83559_cov_63.173451_component_1,83559,1.0
GCF_017088305.1_ASM1708830v1,bin_component_1,NZ_CP070986.1,NODE_13_length_10775_cov_30.865395_component_1,10775,1.0
GCF_017088305.1_ASM1708830v1,bin_component_3,NZ_CP070986.1,NODE_7_length_22468_cov_33.767094_component_3,22468,0.98
GCF_017088305.1_ASM1708830v1,bin_component_3,NZ_CP070986.1,NODE_8_length_20986_cov_69.733321_component_3,20986,1.0
GCF_017088305.1_ASM1708830v1,bin_component_3,NZ_CP070986.1,NODE_16_length_5576_cov_30.646845_component_3,5576,1.0
GCF_017088305.1_ASM1708830v1,bin_component_3,NZ_CP070986.1,NODE_18_length_1748_cov_511.533214_component_3,1748,1.0
GCF_017088305.1_ASM1708830v1,bin_component_3,NZ_CP070986.1,NODE_18_length_1748_cov_511.533214_component_3,1748,1.0
GCF_017088305.1_ASM1708830v1,bin_component_3,NZ_CP070986.1,NODE_18_length_1748_cov_511.533214_component_3,1748,1.0
GCF_017088305.1_ASM1708830v1,bin_component_3,NZ_CP070986.1,NODE_18_length_1748_cov_511.533214_component_3,1748,1.0
GCF_017088305.1_ASM1708830v1,bin_component_3,NZ_CP070986.1,NODE_18_length_1748_cov_511.533214_component_3,1748,1.0
GCF_017088305.1_ASM1708830v1,bin_component_3,NZ_CP070986.1,NODE_19_length_1593_cov_600.094987_component_3,1593,1.0
GCF_017088305.1_ASM1708830v1,bin_component_3,NZ_CP070986.1,NODE_19_length_1593_cov_600.094987_component_3,1593,1.0
GCF_017088305.1_ASM1708830v1,bin_component_3,NZ_CP070986.1,NODE_19_length_1593_cov_600.094987_component_3,1593,1.0
GCF_017088305.1_ASM1708830v1,bin_component_3,NZ_CP070986.1,NODE_19_length_1593_cov_600.094987_component_3,1593,1.0
GCF_017088305.1_ASM1708830v1,bin_component_3,NZ_CP070986.1,NODE_19_length_1593_cov_600.094987_component_3,1593,1.0
GCF_017088305.1_ASM1708830v1,bin_component_3,NZ_CP070986.1,NODE_19_length_1593_cov_600.094987_component_3,1593,1.0
GCF_017088305.1_ASM1708830v1,bin_component_3,NZ_CP070986.1,NODE_20_length_1453_cov_594.263808_component_3,1453,1.0
GCF_017088305.1_ASM1708830v1,bin_component_3,NZ_CP070986.1,NODE_20_length_1453_cov_594.263808_component_3,1453,1.0
GCF_017088305.1_ASM1708830v1,bin_component_3,NZ_CP070986.1,NODE_20_length_1453_cov_594.263808_component_3,1453,1.0
GCF_017088305.1_ASM1708830v1,bin_component_3,NZ_CP070986.1,NODE_20_length_1453_cov_594.263808_component_3,1453,1.0
GCF_017088305.1_ASM1708830v1,bin_component_3,NZ_CP070986.1,NODE_20_length_1453_cov_594.263808_component_3,1453,1.0
GCF_017088305.1_ASM1708830v1,bin_component_4,NZ_CP070987.1,NODE_9_length_20706_cov_76.994134_component_4,20706,0.95
GCF_017088305.1_ASM1708830v1,bin_component_0,NZ_CP070986.1,NODE_1_length_108332_cov_55.078869_component_0,108332,1.0
GCF_017088305.1_ASM1708830v1,bin_component_0,NZ_CP070986.1,NODE_4_length_42679_cov_114.549434_component_0,42679,1.0
GCF_017088305.1_ASM1708830v1,bin_component_0,NZ_CP070986.1,NODE_5_length_33024_cov_63.801590_component_0,33024,1.0
GCF_017088305.1_ASM1708830v1,bin_component_0,NZ_CP070986.1,NODE_6_length_30751_cov_64.853003_component_0,30751,1.0
GCF_017088305.1_ASM1708830v1,bin_component_0,NZ_CP070986.1,NODE_10_length_16473_cov_32.161076_component_0,16473,1.0
GCF_017088305.1_ASM1708830v1,bin_component_0,NZ_CP070986.1,NODE_11_length_14737_cov_68.216985_component_0,14737,1.0
GCF_017088305.1_ASM1708830v1,bin_component_0,NZ_CP070986.1,NODE_12_length_11447_cov_32.243448_component_0,11447,1.0
GCF_017088305.1_ASM1708830v1,bin_component_0,NZ_CP070986.1,NODE_14_length_10506_cov_33.426599_component_0,10506,1.0
GCF_017088305.1_ASM1708830v1,bin_component_0,NZ_CP070986.1,NODE_15_length_6930_cov_63.784620_component_0,6930,1.0
GCF_017088305.1_ASM1708830v1,bin_component_0,NZ_CP070986.1,NODE_17_length_1839_cov_19.143019_component_0,1839,1.0
GCF_017088305.1_ASM1708830v1,bin_component_2,NZ_CP070986.1,NODE_3_length_64024_cov_65.042285_component_2,64024,1.0
GCF_018093225.1_ASM1809322v1,bin_component_1,NZ_CP071104.1,NODE_11_length_46984_cov_52.242333_component_1,46984,0.99
GCF_018093225.1_ASM1809322v1,bin_component_1,NZ_CP071104.1,NODE_29_length_3289_cov_10.555345_component_1,3289,0.59
GCF_018093225.1_ASM1809322v1,bin_component_1,NZ_CP071104.1,NODE_37_length_1997_cov_8.561497_component_1,1997,0.23
GCF_018093225.1_ASM1809322v1,bin_component_3,NZ_CP071104.1,NODE_21_length_10247_cov_21.974506_component_3,10247,0.69
GCF_018093225.1_ASM1809322v1,bin_component_4,NZ_CP071105.1,NODE_28_length_4391_cov_1370.765478_component_4,4391,1.0
GCF_018093225.1_ASM1809322v1,bin_component_0,NZ_CP071104.1,NODE_1_length_212318_cov_143.942835_component_0,212318,0.94
GCF_018093225.1_ASM1809322v1,bin_component_0,NZ_CP071104.1,NODE_2_length_198949_cov_152.240788_component_0,198949,0.94
GCF_018093225.1_ASM1809322v1,bin_component_0,NZ_CP071104.1,NODE_3_length_124253_cov_123.021470_component_0,124253,0.9
GCF_018093225.1_ASM1809322v1,bin_component_0,NZ_CP071104.1,NODE_4_length_120310_cov_121.182755_component_0,120310,0.89
GCF_018093225.1_ASM1809322v1,bin_component_0,NZ_CP071104.1,NODE_5_length_73236_cov_122.752274_component_0,73236,0.97
GCF_018093225.1_ASM1809322v1,bin_component_0,NZ_CP071104.1,NODE_6_length_60351_cov_62.091990_component_0,60351,0.99
GCF_018093225.1_ASM1809322v1,bin_component_0,NZ_CP071104.1,NODE_7_length_59084_cov_57.727581_component_0,59084,0.96
GCF_018093225.1_ASM1809322v1,bin_component_0,NZ_CP071104.1,NODE_8_length_59007_cov_154.305944_component_0,59007,0.88
GCF_018093225.1_ASM1809322v1,bin_component_0,NZ_CP071104.1,NODE_9_length_55822_cov_123.414795_component_0,55822,0.99
GCF_018093225.1_ASM1809322v1,bin_component_0,NZ_CP071104.1,NODE_10_length_47449_cov_133.738874_component_0,47449,1.0
GCF_018093225.1_ASM1809322v1,bin_component_0,NZ_CP071104.1,NODE_12_length_25040_cov_132.984586_component_0,25040,0.92
GCF_018093225.1_ASM1809322v1,bin_component_0,NZ_CP071104.1,NODE_16_length_21410_cov_61.097872_component_0,21410,0.9
GCF_018093225.1_ASM1809322v1,bin_component_0,NZ_CP071104.1,NODE_19_length_11105_cov_62.330115_component_0,11105,0.98
GCF_018093225.1_ASM1809322v1,bin_component_0,NZ_CP071104.1,NODE_20_length_10975_cov_47.830568_component_0,10975,0.99
GCF_018093225.1_ASM1809322v1,bin_component_0,NZ_CP071104.1,NODE_22_length_7372_cov_39.976398_component_0,7372,0.98
GCF_018093225.1_ASM1809322v1,bin_component_0,NZ_CP071104.1,NODE_24_length_7302_cov_39.133798_component_0,7302,0.76
GCF_018093225.1_ASM1809322v1,bin_component_0,NZ_CP071104.1,NODE_25_length_5232_cov_30.238786_component_0,5232,0.95
GCF_018093225.1_ASM1809322v1,bin_component_0,NZ_CP071104.1,NODE_27_length_4796_cov_10.011780_component_0,4796,0.07
GCF_018093225.1_ASM1809322v1,bin_component_0,NZ_CP071104.1,NODE_30_length_3121_cov_1840.077488_component_0,3121,1.0
GCF_018093225.1_ASM1809322v1,bin_component_0,NZ_CP071104.1,NODE_30_length_3121_cov_1840.077488_component_0,3121,1.0
GCF_018093225.1_ASM1809322v1,bin_component_0,NZ_CP071104.1,NODE_30_length_3121_cov_1840.077488_component_0,3121,1.0
GCF_018093225.1_ASM1809322v1,bin_component_0,NZ_CP071104.1,NODE_30_length_3121_cov_1840.077488_component_0,3121,1.0
GCF_018093225.1_ASM1809322v1,bin_component_0,NZ_CP071104.1,NODE_30_length_3121_cov_1840.077488_component_0,3121,1.0
GCF_018093225.1_ASM1809322v1,bin_component_0,NZ_CP071104.1,NODE_30_length_3121_cov_1840.077488_component_0,3121,1.0
GCF_018093225.1_ASM1809322v1,bin_component_0,NZ_CP071104.1,NODE_31_length_3026_cov_223.722663_component_0,3026,1.0
GCF_018093225.1_ASM1809322v1,bin_component_0,NZ_CP071104.1,NODE_38_length_1606_cov_247.237999_component_0,1606,1.0
GCF_018093225.1_ASM1809322v1,bin_component_0,NZ_CP071104.1,NODE_38_length_1606_cov_247.237999_component_0,1606,1.0
GCF_018093225.1_ASM1809322v1,bin_component_0,NZ_CP071104.1,NODE_38_length_1606_cov_247.237999_component_0,1606,1.0
GCF_018093225.1_ASM1809322v1,bin_component_2,NZ_CP071104.1,NODE_14_length_22781_cov_53.310144_component_2,22781,0.94
GCF_018093225.1_ASM1809322v1,bin_component_5,NZ_CP071106.1,NODE_32_length_2878_cov_147.874228_component_5,2878,1.0
GCF_903932595.1_P3.1,bin_component_1,NZ_LR822060.1,NODE_2_length_6482_cov_235.058080_component_1,6482,0.89
GCF_903932595.1_P3.1,bin_component_1,NZ_LR822060.1,NODE_5_length_2270_cov_479.457364_component_1,2270,1.0
GCF_903932595.1_P3.1,bin_component_1,NZ_LR822060.1,NODE_5_length_2270_cov_479.457364_component_1,2270,1.0
GCF_903932595.1_P3.1,bin_component_1,NZ_LR822060.1,NODE_5_length_2270_cov_479.457364_component_1,2270,1.0
GCF_903932595.1_P3.1,bin_component_1,NZ_LR822060.1,NODE_5_length_2270_cov_479.457364_component_1,2270,1.0
GCF_903932595.1_P3.1,bin_component_1,NZ_LR822060.1,NODE_5_length_2270_cov_479.457364_component_1,2270,1.0
GCF_903932595.1_P3.1,bin_component_1,NZ_LR822060.1,NODE_5_length_2270_cov_479.457364_component_1,2270,1.0
GCF_903932595.1_P3.1,bin_component_1,NZ_LR822060.1,NODE_6_length_1659_cov_456.892541_component_1,1659,1.0
GCF_903932595.1_P3.1,bin_component_1,NZ_LR822060.1,NODE_6_length_1659_cov_456.892541_component_1,1659,1.0
GCF_903932595.1_P3.1,bin_component_1,NZ_LR822060.1,NODE_6_length_1659_cov_456.892541_component_1,1659,1.0
GCF_903932595.1_P3.1,bin_component_1,NZ_LR822060.1,NODE_6_length_1659_cov_456.892541_component_1,1659,1.0
GCF_903932595.1_P3.1,bin_component_1,NZ_LR822060.1,NODE_6_length_1659_cov_456.892541_component_1,1659,1.0
GCF_903932595.1_P3.1,bin_component_1,NZ_LR822060.1,NODE_6_length_1659_cov_456.892541_component_1,1659,1.0
GCF_903932595.1_P3.1,bin_component_1,NZ_LR822060.1,NODE_7_length_1172_cov_57.493151_component_1,1172,1.0
GCF_903932595.1_P3.1,bin_component_0,NZ_LR822060.1,NODE_3_length_2708_cov_253.870391_component_0,2708,1.0
GCF_903932595.1_P3.1,bin_component_0,NZ_LR822060.1,NODE_4_length_2557_cov_355.326879_component_0,2557,0.99
GCF_021869805.1_ASM2186980v1,bin_component_0,NZ_CP086215.1,NODE_1_length_3121_cov_496.706636_component_0,3121,1.0
GCF_021869805.1_ASM2186980v1,bin_component_0,NZ_CP086215.1,NODE_1_length_3121_cov_496.706636_component_0,3121,1.0
GCF_021869805.1_ASM2186980v1,bin_component_0,NZ_CP086215.1,NODE_1_length_3121_cov_496.706636_component_0,3121,1.0
GCF_021869805.1_ASM2186980v1,bin_component_0,NZ_CP086215.1,NODE_1_length_3121_cov_496.706636_component_0,3121,1.0
GCF_021869805.1_ASM2186980v1,bin_component_0,NZ_CP086215.1,NODE_1_length_3121_cov_496.706636_component_0,3121,1.0
GCF_021869805.1_ASM2186980v1,bin_component_0,NZ_CP086215.1,NODE_1_length_3121_cov_496.706636_component_0,3121,1.0
GCF_021869805.1_ASM2186980v1,bin_component_0,NZ_CP086215.1,NODE_2_length_2668_cov_383.815901_component_0,2668,1.0
GCF_021869805.1_ASM2186980v1,bin_component_0,NZ_CP086215.1,NODE_3_length_1703_cov_437.819803_component_0,1703,1.0
GCF_021869805.1_ASM2186980v1,bin_component_0,NZ_CP086215.1,NODE_3_length_1703_cov_437.819803_component_0,1703,1.0
GCF_021869805.1_ASM2186980v1,bin_component_0,NZ_CP086215.1,NODE_3_length_1703_cov_437.819803_component_0,1703,1.0
GCF_021869805.1_ASM2186980v1,bin_component_0,NZ_CP086215.1,NODE_3_length_1703_cov_437.819803_component_0,1703,1.0
GCF_021869805.1_ASM2186980v1,bin_component_0,NZ_CP086215.1,NODE_3_length_1703_cov_437.819803_component_0,1703,1.0
GCF_021869805.1_ASM2186980v1,bin_component_0,NZ_CP086215.1,NODE_3_length_1703_cov_437.819803_component_0,1703,1.0
GCF_021869805.1_ASM2186980v1,bin_component_0,NZ_CP086215.1,NODE_4_length_1160_cov_54.969529_component_0,1160,1.0
GCF_022405255.1_ASM2240525v1,bin_component_0,NZ_CP062357.1,NODE_1_length_29145_cov_101.241471_component_0,29145,1.0
GCF_022405535.1_ASM2240553v1,bin_component_1,NZ_CP062387.1,NODE_2_length_2543_cov_304.716474_component_1,2543,1.0
GCF_022405535.1_ASM2240553v1,bin_component_0,NZ_CP062386.1,NODE_1_length_43273_cov_51.926760_component_0,43273,1.0
GCF_022405555.1_ASM2240555v1,bin_component_0,NZ_CP062389.1,NODE_1_length_27396_cov_64.226264_component_0,27396,1.0
GCF_022404575.1_ASM2240457v1,bin_component_1,NZ_CP062321.1,NODE_2_length_27195_cov_132.495714_component_1,27195,1.0
GCF_022404575.1_ASM2240457v1,bin_component_0,NZ_CP062320.1,NODE_1_length_38566_cov_73.584198_component_0,38566,1.0
GCF_022405295.1_ASM2240529v1,bin_component_0,NZ_CP062361.1,NODE_1_length_32183_cov_40.204548_component_0,32183,0.97
GCF_903932605.1_HU-14,bin_component_1,NZ_LR822061.1,NODE_2_length_6482_cov_659.802030_component_1,6482,0.89
GCF_903932605.1_HU-14,bin_component_1,NZ_LR822061.1,NODE_5_length_2270_cov_1244.365253_component_1,2270,1.0
GCF_903932605.1_HU-14,bin_component_1,NZ_LR822061.1,NODE_5_length_2270_cov_1244.365253_component_1,2270,1.0
GCF_903932605.1_HU-14,bin_component_1,NZ_LR822061.1,NODE_5_length_2270_cov_1244.365253_component_1,2270,1.0
GCF_903932605.1_HU-14,bin_component_1,NZ_LR822061.1,NODE_5_length_2270_cov_1244.365253_component_1,2270,1.0
GCF_903932605.1_HU-14,bin_component_1,NZ_LR822061.1,NODE_5_length_2270_cov_1244.365253_component_1,2270,1.0
GCF_903932605.1_HU-14,bin_component_1,NZ_LR822061.1,NODE_5_length_2270_cov_1244.365253_component_1,2270,1.0
GCF_903932605.1_HU-14,bin_component_1,NZ_LR822061.1,NODE_6_length_1659_cov_1178.976612_component_1,1659,1.0
GCF_903932605.1_HU-14,bin_component_1,NZ_LR822061.1,NODE_6_length_1659_cov_1178.976612_component_1,1659,1.0
GCF_903932605.1_HU-14,bin_component_1,NZ_LR822061.1,NODE_6_length_1659_cov_1178.976612_component_1,1659,1.0
GCF_903932605.1_HU-14,bin_component_1,NZ_LR822061.1,NODE_6_length_1659_cov_1178.976612_component_1,1659,1.0
GCF_903932605.1_HU-14,bin_component_1,NZ_LR822061.1,NODE_6_length_1659_cov_1178.976612_component_1,1659,1.0
GCF_903932605.1_HU-14,bin_component_1,NZ_LR822061.1,NODE_6_length_1659_cov_1178.976612_component_1,1659,1.0
GCF_903932605.1_HU-14,bin_component_1,NZ_LR822061.1,NODE_7_length_1172_cov_161.985388_component_1,1172,1.0
GCF_903932605.1_HU-14,bin_component_0,NZ_LR822061.1,NODE_3_length_2708_cov_711.419232_component_0,2708,1.0
GCF_903932605.1_HU-14,bin_component_0,NZ_LR822061.1,NODE_4_length_2557_cov_911.705391_component_0,2557,0.99
GCF_022405315.1_ASM2240531v1,bin_component_0,NZ_CP062363.1,NODE_1_length_33244_cov_39.151070_component_0,33244,1.0
GCF_017088385.1_ASM1708838v1,bin_component_1,NZ_CP070983.1,NODE_3_length_14994_cov_28.281357_component_1,14994,0.98
GCF_017088385.1_ASM1708838v1,bin_component_1,NZ_CP070983.1,NODE_8_length_9151_cov_62.620013_component_1,9151,1.0
GCF_017088385.1_ASM1708838v1,bin_component_1,NZ_CP070983.1,NODE_9_length_7559_cov_24.937450_component_1,7559,1.0
GCF_017088385.1_ASM1708838v1,bin_component_1,NZ_CP070983.1,NODE_12_length_3327_cov_35.629231_component_1,3327,1.0
GCF_017088385.1_ASM1708838v1,bin_component_1,NZ_CP070983.1,NODE_14_length_1648_cov_182.781668_component_1,1648,1.0
GCF_017088385.1_ASM1708838v1,bin_component_1,NZ_CP070983.1,NODE_15_length_1445_cov_586.597222_component_1,1445,1.0
GCF_017088385.1_ASM1708838v1,bin_component_1,NZ_CP070983.1,NODE_15_length_1445_cov_586.597222_component_1,1445,1.0
GCF_017088385.1_ASM1708838v1,bin_component_1,NZ_CP070983.1,NODE_15_length_1445_cov_586.597222_component_1,1445,1.0
GCF_017088385.1_ASM1708838v1,bin_component_1,NZ_CP070983.1,NODE_15_length_1445_cov_586.597222_component_1,1445,1.0
GCF_017088385.1_ASM1708838v1,bin_component_1,NZ_CP070983.1,NODE_15_length_1445_cov_586.597222_component_1,1445,1.0
GCF_017088385.1_ASM1708838v1,bin_component_1,NZ_CP070983.1,NODE_15_length_1445_cov_586.597222_component_1,1445,1.0
GCF_017088385.1_ASM1708838v1,bin_component_1,NZ_CP070983.1,NODE_16_length_1162_cov_373.705991_component_1,1162,1.0
GCF_017088385.1_ASM1708838v1,bin_component_1,NZ_CP070983.1,NODE_16_length_1162_cov_373.705991_component_1,1162,1.0
GCF_017088385.1_ASM1708838v1,bin_component_3,NZ_CP070983.1,NODE_7_length_10965_cov_32.164126_component_3,10965,1.0
GCF_017088385.1_ASM1708838v1,bin_component_3,NZ_CP070983.1,NODE_11_length_4343_cov_25.863338_component_3,4343,1.0
GCF_017088385.1_ASM1708838v1,bin_component_4,NZ_CP070983.1,NODE_2_length_16605_cov_22.051428_component_4,16605,1.0
GCF_017088385.1_ASM1708838v1,bin_component_0,NZ_CP070983.1,NODE_1_length_116310_cov_62.743412_component_0,116310,1.0
GCF_017088385.1_ASM1708838v1,bin_component_0,NZ_CP070983.1,NODE_4_length_14680_cov_29.081764_component_0,14680,1.0
GCF_017088385.1_ASM1708838v1,bin_component_2,NZ_CP070984.1,NODE_5_length_13844_cov_140.767487_component_2,13844,1.0
GCF_017088385.1_ASM1708838v1,bin_component_2,NZ_CP070984.1,NODE_10_length_7038_cov_129.631375_component_2,7038,1.0
GCF_017088385.1_ASM1708838v1,bin_component_6,NZ_CP070985.1,NODE_13_length_2474_cov_297.081352_component_6,2474,1.0
GCF_017088385.1_ASM1708838v1,bin_component_5,NZ_CP070983.1,NODE_6_length_11418_cov_25.650207_component_5,11418,1.0
GCF_022405935.1_ASM2240593v1,bin_component_0,NZ_CP062410.1,NODE_1_length_42153_cov_115.022415_component_0,42153,1.0
GCF_022404695.1_ASM2240469v1,bin_component_1,NZ_CP062335.1,NODE_2_length_20818_cov_207.817699_component_1,20818,1.0
GCF_022404695.1_ASM2240469v1,bin_component_0,NZ_CP062334.1,NODE_1_length_43314_cov_91.841063_component_0,43314,1.0
GCF_022405495.1_ASM2240549v1,bin_component_1,NZ_CP062382.1,NODE_4_length_5082_cov_62.145510_component_1,5082,1.0
GCF_022405495.1_ASM2240549v1,bin_component_1,NZ_CP062382.1,NODE_4_length_5082_cov_62.145510_component_1,5082,1.0
GCF_022405495.1_ASM2240549v1,bin_component_1,NZ_CP062382.1,NODE_8_length_1770_cov_59.683506_component_1,1770,1.0
GCF_022405495.1_ASM2240549v1,bin_component_1,NZ_CP062382.1,NODE_8_length_1770_cov_59.683506_component_1,1770,1.0
GCF_022405495.1_ASM2240549v1,bin_component_1,NZ_CP062382.1,NODE_10_length_1547_cov_43.095775_component_1,1547,1.0
GCF_022405495.1_ASM2240549v1,bin_component_1,NZ_CP062382.1,NODE_12_length_1057_cov_65.197849_component_1,1057,1.0
GCF_022405495.1_ASM2240549v1,bin_component_1,NZ_CP062382.1,NODE_12_length_1057_cov_65.197849_component_1,1057,1.0
GCF_022405495.1_ASM2240549v1,bin_component_0,NZ_CP062383.1,NODE_1_length_17575_cov_50.607634_component_0,17575,1.0
GCF_022405495.1_ASM2240549v1,bin_component_0,NZ_CP062383.1,NODE_2_length_13686_cov_48.689785_component_0,13686,1.0
GCF_022405495.1_ASM2240549v1,bin_component_0,NZ_CP062383.1,NODE_3_length_8522_cov_49.899464_component_0,8522,1.0
GCF_022405495.1_ASM2240549v1,bin_component_0,NZ_CP062383.1,NODE_11_length_1247_cov_82.937500_component_0,1247,1.0
GCF_022405495.1_ASM2240549v1,bin_component_2,NZ_CP062382.1,NODE_5_length_4099_cov_177.129658_component_2,4099,1.0
GCF_022405495.1_ASM2240549v1,bin_component_2,NZ_CP062382.1,NODE_6_length_3126_cov_174.107036_component_2,3126,1.0
GCF_022405495.1_ASM2240549v1,bin_component_2,NZ_CP062382.1,NODE_6_length_3126_cov_174.107036_component_2,3126,1.0
GCF_022405495.1_ASM2240549v1,bin_component_2,NZ_CP062382.1,NODE_6_length_3126_cov_174.107036_component_2,3126,1.0
GCF_022405495.1_ASM2240549v1,bin_component_2,NZ_CP062382.1,NODE_6_length_3126_cov_174.107036_component_2,3126,1.0
GCF_022405495.1_ASM2240549v1,bin_component_2,NZ_CP062382.1,NODE_6_length_3126_cov_174.107036_component_2,3126,1.0
GCF_022405495.1_ASM2240549v1,bin_component_2,NZ_CP062382.1,NODE_6_length_3126_cov_174.107036_component_2,3126,1.0
GCF_022405495.1_ASM2240549v1,bin_component_2,NZ_CP062382.1,NODE_7_length_2367_cov_142.298214_component_2,2367,0.93
GCF_022405495.1_ASM2240549v1,bin_component_2,NZ_CP062382.1,NODE_9_length_1584_cov_293.456417_component_2,1584,1.0
GCF_022404775.1_ASM2240477v1,bin_component_1,NZ_CP062343.1,NODE_3_length_20818_cov_137.636170_component_1,20818,1.0
GCF_022404775.1_ASM2240477v1,bin_component_0,NZ_CP062342.1,NODE_1_length_26171_cov_61.585087_component_0,26171,1.0
GCF_022404775.1_ASM2240477v1,bin_component_0,NZ_CP062342.1,NODE_2_length_22833_cov_65.245001_component_0,22833,1.0
GCF_022404775.1_ASM2240477v1,bin_component_0,NZ_CP062342.1,NODE_4_length_10028_cov_77.197152_component_0,10028,1.0
GCF_022404775.1_ASM2240477v1,bin_component_0,NZ_CP062342.1,NODE_5_length_6519_cov_122.274718_component_0,6519,1.0
GCF_022404775.1_ASM2240477v1,bin_component_0,NZ_CP062342.1,NODE_5_length_6519_cov_122.274718_component_0,6519,1.0
GCF_022404775.1_ASM2240477v1,bin_component_0,NZ_CP062342.1,NODE_6_length_2474_cov_70.407755_component_0,2474,1.0
GCF_022404775.1_ASM2240477v1,bin_component_0,NZ_CP062342.1,NODE_7_length_2366_cov_57.962930_component_0,2366,1.0
GCF_022404775.1_ASM2240477v1,bin_component_0,NZ_CP062342.1,NODE_8_length_1397_cov_65.848819_component_0,1397,1.0
GCF_022405595.1_ASM2240559v1,bin_component_0,NZ_CP062394.1,NODE_1_length_18246_cov_94.689925_component_0,18246,1.0
GCF_022405595.1_ASM2240559v1,bin_component_0,NZ_CP062394.1,NODE_2_length_8779_cov_92.043117_component_0,8779,1.0
GCF_022406035.1_ASM2240603v1,bin_component_0,NZ_CP062415.1,NODE_1_length_45187_cov_100.285419_component_0,45187,1.0
GCF_022406035.1_ASM2240603v1,bin_component_0,NZ_CP062415.1,NODE_2_length_43229_cov_56.643590_component_0,43229,1.0
GCF_022406035.1_ASM2240603v1,bin_component_0,NZ_CP062415.1,NODE_3_length_1620_cov_42.234427_component_0,1620,1.0
GCF_022405855.1_ASM2240585v1,bin_component_0,NZ_CP062406.1,NODE_1_length_1438_cov_379.113654_component_0,1438,1.0
GCF_022405275.1_ASM2240527v1,bin_component_1,NZ_CP062359.1,NODE_2_length_27395_cov_59.324373_component_1,27395,1.0
GCF_022405275.1_ASM2240527v1,bin_component_0,NZ_CP062358.1,NODE_1_length_44381_cov_39.602725_component_0,44381,1.0
GCF_022405075.1_ASM2240507v1,bin_component_1,NZ_CP062347.1,NODE_2_length_18717_cov_100.838515_component_1,18717,1.0
GCF_022405075.1_ASM2240507v1,bin_component_1,NZ_CP062347.1,NODE_3_length_13473_cov_85.076765_component_1,13473,1.0
GCF_022405075.1_ASM2240507v1,bin_component_1,NZ_CP062347.1,NODE_4_length_8483_cov_87.380445_component_1,8483,1.0
GCF_022405075.1_ASM2240507v1,bin_component_0,NZ_CP062346.1,NODE_1_length_34153_cov_113.232058_component_0,34153,1.0
GCF_022405075.1_ASM2240507v1,bin_component_0,NZ_CP062346.1,NODE_5_length_5876_cov_116.555227_component_0,5876,1.0
GCF_022405075.1_ASM2240507v1,bin_component_0,NZ_CP062346.1,NODE_6_length_1032_cov_47.406630_component_0,1032,1.0
GCF_022404635.1_ASM2240463v1,bin_component_1,NZ_CP062328.1,NODE_2_length_20857_cov_98.289339_component_1,20857,1.0
GCF_022404635.1_ASM2240463v1,bin_component_0,NZ_CP062327.1,NODE_1_length_28968_cov_45.123678_component_0,28968,1.0
GCF_015732455.1_ASM1573245v1,bin_component_0,NZ_CP061349.1,NODE_1_length_45949_cov_183.507551_component_0,45949,1.0
GCF_022404755.1_ASM2240475v1,bin_component_1,NZ_CP062341.1,NODE_2_length_20848_cov_141.816129_component_1,20848,1.0
GCF_022404755.1_ASM2240475v1,bin_component_0,NZ_CP062340.1,NODE_1_length_44232_cov_65.497721_component_0,44232,1.0
GCF_022404655.1_ASM2240465v1,bin_component_0,NZ_CP062330.1,NODE_1_length_3459_cov_673.984694_component_0,3459,1.0
GCF_022405435.1_ASM2240543v1,bin_component_1,NZ_CP062377.1,NODE_2_length_19908_cov_101.342096_component_1,19908,1.0
GCF_022405435.1_ASM2240543v1,bin_component_0,NZ_CP062376.1,NODE_1_length_43748_cov_53.654066_component_0,43748,1.0
GCF_022405335.1_ASM2240533v1,bin_component_1,NZ_CP062364.1,NODE_2_length_4540_cov_113.066848_component_1,4540,1.0
GCF_022405335.1_ASM2240533v1,bin_component_1,NZ_CP062364.1,NODE_3_length_3121_cov_146.506012_component_1,3121,1.0
GCF_022405335.1_ASM2240533v1,bin_component_1,NZ_CP062364.1,NODE_3_length_3121_cov_146.506012_component_1,3121,1.0
GCF_022405335.1_ASM2240533v1,bin_component_1,NZ_CP062364.1,NODE_3_length_3121_cov_146.506012_component_1,3121,1.0
GCF_022405335.1_ASM2240533v1,bin_component_1,NZ_CP062364.1,NODE_3_length_3121_cov_146.506012_component_1,3121,1.0
GCF_022405335.1_ASM2240533v1,bin_component_1,NZ_CP062364.1,NODE_3_length_3121_cov_146.506012_component_1,3121,1.0
GCF_022405335.1_ASM2240533v1,bin_component_1,NZ_CP062364.1,NODE_3_length_3121_cov_146.506012_component_1,3121,1.0
GCF_022405335.1_ASM2240533v1,bin_component_1,NZ_CP062364.1,NODE_4_length_2432_cov_104.547505_component_1,2432,0.91
GCF_022405335.1_ASM2240533v1,bin_component_0,NZ_CP062365.1,NODE_1_length_27264_cov_60.570992_component_0,27264,1.0
GCF_022369595.1_ASM2236959v1,bin_component_1,NZ_CP062317.1,NODE_4_length_2600_cov_330.103922_component_1,2600,1.0
GCF_022369595.1_ASM2236959v1,bin_component_0,NZ_CP062315.1,NODE_1_length_23567_cov_58.432679_component_0,23567,1.0
GCF_022369595.1_ASM2236959v1,bin_component_0,NZ_CP062316.1,NODE_2_length_3235_cov_319.888353_component_0,3235,0.96
GCF_022369595.1_ASM2236959v1,bin_component_0,NZ_CP062315.1,NODE_3_length_3205_cov_60.805222_component_0,3205,1.0
GCF_022405675.1_ASM2240567v1,bin_component_0,NZ_CP062399.1,NODE_1_length_141529_cov_35.683456_component_0,141529,1.0
GCF_022405415.1_ASM2240541v1,bin_component_1,NZ_CP062374.1,NODE_2_length_3693_cov_357.974481_component_1,3693,1.0
GCF_022405415.1_ASM2240541v1,bin_component_0,NZ_CP062373.1,NODE_1_length_28565_cov_20.131198_component_0,28565,1.0
GCF_022405415.1_ASM2240541v1,bin_component_2,NZ_CP062375.1,NODE_3_length_2493_cov_515.687658_component_2,2493,1.0
GCF_018093065.1_ASM1809306v1,bin_component_7,NZ_CP070991.1,NODE_8_length_11280_cov_35.024747_component_7,11280,1.0
GCF_018093065.1_ASM1809306v1,bin_component_1,NZ_CP070991.1,NODE_2_length_92117_cov_50.722089_component_1,92117,1.0
GCF_018093065.1_ASM1809306v1,bin_component_3,NZ_CP070991.1,NODE_4_length_54828_cov_48.650390_component_3,54828,1.0
GCF_018093065.1_ASM1809306v1,bin_component_4,NZ_CP070991.1,NODE_5_length_36530_cov_48.902618_component_4,36530,1.0
GCF_018093065.1_ASM1809306v1,bin_component_0,NZ_CP070991.1,NODE_1_length_194630_cov_107.600484_component_0,194630,1.0
GCF_018093065.1_ASM1809306v1,bin_component_2,NZ_CP070991.1,NODE_3_length_57922_cov_232.454641_component_2,57922,1.0
GCF_018093065.1_ASM1809306v1,bin_component_6,NZ_CP070992.1,NODE_7_length_17325_cov_114.715316_component_6,17325,1.0
GCF_018093065.1_ASM1809306v1,bin_component_5,NZ_CP070991.1,NODE_6_length_22739_cov_18.017292_component_5,22739,1.0
GCF_018093065.1_ASM1809306v1,bin_component_8,NZ_CP070992.1,NODE_9_length_11258_cov_43.626718_component_8,11258,1.0
GCF_022404715.1_ASM2240471v1,bin_component_1,NZ_CP062337.1,NODE_2_length_20857_cov_416.411915_component_1,20857,1.0
GCF_022404715.1_ASM2240471v1,bin_component_0,NZ_CP062336.1,NODE_1_length_39438_cov_241.610389_component_0,39438,1.0
GCF_022405455.1_ASM2240545v1,bin_component_1,NZ_CP062379.1,NODE_2_length_27392_cov_50.484797_component_1,27392,1.0
GCF_022405455.1_ASM2240545v1,bin_component_0,NZ_CP062378.1,NODE_1_length_39857_cov_51.626328_component_0,39857,1.0
GCF_018093205.1_ASM1809320v1,bin_component_9,NZ_CP071102.1,NODE_16_length_12605_cov_16.546322_component_9,12605,1.0
GCF_018093205.1_ASM1809320v1,bin_component_7,NZ_CP071102.1,NODE_12_length_31171_cov_27.604561_component_7,31171,1.0
GCF_018093205.1_ASM1809320v1,bin_component_1,NZ_CP071102.1,NODE_3_length_73591_cov_54.950289_component_1,73591,1.0
GCF_018093205.1_ASM1809320v1,bin_component_1,NZ_CP071102.1,NODE_6_length_47687_cov_58.734420_component_1,47687,1.0
GCF_018093205.1_ASM1809320v1,bin_component_1,NZ_CP071102.1,NODE_11_length_32189_cov_55.493793_component_1,32189,1.0
GCF_018093205.1_ASM1809320v1,bin_component_1,NZ_CP071102.1,NODE_15_length_16804_cov_27.009114_component_1,16804,1.0
GCF_018093205.1_ASM1809320v1,bin_component_1,NZ_CP071102.1,NODE_17_length_8862_cov_25.163022_component_1,8862,1.0
GCF_018093205.1_ASM1809320v1,bin_component_1,NZ_CP071102.1,NODE_18_length_8330_cov_22.585396_component_1,8330,1.0
GCF_018093205.1_ASM1809320v1,bin_component_1,NZ_CP071102.1,NODE_19_length_1442_cov_886.296578_component_1,1442,1.0
GCF_018093205.1_ASM1809320v1,bin_component_1,NZ_CP071102.1,NODE_19_length_1442_cov_886.296578_component_1,1442,1.0
GCF_018093205.1_ASM1809320v1,bin_component_1,NZ_CP071102.1,NODE_19_length_1442_cov_886.296578_component_1,1442,1.0
GCF_018093205.1_ASM1809320v1,bin_component_1,NZ_CP071102.1,NODE_19_length_1442_cov_886.296578_component_1,1442,1.0
GCF_018093205.1_ASM1809320v1,bin_component_1,NZ_CP071102.1,NODE_19_length_1442_cov_886.296578_component_1,1442,1.0
GCF_018093205.1_ASM1809320v1,bin_component_1,NZ_CP071102.1,NODE_19_length_1442_cov_886.296578_component_1,1442,1.0
GCF_018093205.1_ASM1809320v1,bin_component_1,NZ_CP071102.1,NODE_20_length_1427_cov_16.129231_component_1,1427,1.0
GCF_018093205.1_ASM1809320v1,bin_component_1,NZ_CP071102.1,NODE_21_length_1347_cov_822.044262_component_1,1347,1.0
GCF_018093205.1_ASM1809320v1,bin_component_1,NZ_CP071102.1,NODE_21_length_1347_cov_822.044262_component_1,1347,1.0
GCF_018093205.1_ASM1809320v1,bin_component_1,NZ_CP071102.1,NODE_21_length_1347_cov_822.044262_component_1,1347,1.0
GCF_018093205.1_ASM1809320v1,bin_component_1,NZ_CP071102.1,NODE_21_length_1347_cov_822.044262_component_1,1347,1.0
GCF_018093205.1_ASM1809320v1,bin_component_1,NZ_CP071102.1,NODE_21_length_1347_cov_822.044262_component_1,1347,1.0
GCF_018093205.1_ASM1809320v1,bin_component_1,NZ_CP071102.1,NODE_21_length_1347_cov_822.044262_component_1,1347,1.0
GCF_018093205.1_ASM1809320v1,bin_component_1,NZ_CP071102.1,NODE_23_length_1009_cov_750.024943_component_1,1009,1.0
GCF_018093205.1_ASM1809320v1,bin_component_1,NZ_CP071102.1,NODE_23_length_1009_cov_750.024943_component_1,1009,1.0
GCF_018093205.1_ASM1809320v1,bin_component_1,NZ_CP071102.1,NODE_23_length_1009_cov_750.024943_component_1,1009,1.0
GCF_018093205.1_ASM1809320v1,bin_component_1,NZ_CP071102.1,NODE_23_length_1009_cov_750.024943_component_1,1009,1.0
GCF_018093205.1_ASM1809320v1,bin_component_1,NZ_CP071102.1,NODE_23_length_1009_cov_750.024943_component_1,1009,1.0
GCF_018093205.1_ASM1809320v1,bin_component_1,NZ_CP071102.1,NODE_23_length_1009_cov_750.024943_component_1,1009,1.0
GCF_018093205.1_ASM1809320v1,bin_component_3,NZ_CP071102.1,NODE_4_length_73053_cov_56.907838_component_3,73053,1.0
GCF_018093205.1_ASM1809320v1,bin_component_4,NZ_CP071102.1,NODE_5_length_50475_cov_25.741022_component_4,50475,1.0
GCF_018093205.1_ASM1809320v1,bin_component_0,NZ_CP071102.1,NODE_1_length_210583_cov_68.420340_component_0,210583,1.0
GCF_018093205.1_ASM1809320v1,bin_component_0,NZ_CP071102.1,NODE_8_length_38933_cov_61.269005_component_0,38933,1.0
GCF_018093205.1_ASM1809320v1,bin_component_0,NZ_CP071102.1,NODE_10_length_35282_cov_60.022102_component_0,35282,1.0
GCF_018093205.1_ASM1809320v1,bin_component_0,NZ_CP071102.1,NODE_13_length_25979_cov_35.583669_component_0,25979,1.0
GCF_018093205.1_ASM1809320v1,bin_component_0,NZ_CP071102.1,NODE_22_length_1183_cov_10.263258_component_0,1183,0.99
GCF_018093205.1_ASM1809320v1,bin_component_2,NZ_CP071102.1,NODE_2_length_90725_cov_62.098093_component_2,90725,1.0
GCF_018093205.1_ASM1809320v1,bin_component_6,NZ_CP071102.1,NODE_9_length_38615_cov_73.461183_component_6,38615,1.0
GCF_018093205.1_ASM1809320v1,bin_component_5,NZ_CP071102.1,NODE_7_length_39932_cov_63.352619_component_5,39932,1.0
GCF_018093205.1_ASM1809320v1,bin_component_8,NZ_CP071102.1,NODE_14_length_23901_cov_58.173803_component_8,23901,1.0
GCF_022226995.1_ASM2222699v1,bin_component_1,NZ_CP092052.1,NODE_2_length_6112_cov_280.253591_component_1,6112,1.0
GCF_022226995.1_ASM2222699v1,bin_component_1,NZ_CP092052.1,NODE_2_length_6112_cov_280.253591_component_1,6112,1.0
GCF_022226995.1_ASM2222699v1,bin_component_1,NZ_CP092052.1,NODE_4_length_3656_cov_308.931686_component_1,3656,1.0
GCF_022226995.1_ASM2222699v1,bin_component_1,NZ_CP092052.1,NODE_7_length_1674_cov_479.717727_component_1,1674,1.0
GCF_022226995.1_ASM2222699v1,bin_component_0,NZ_CP092053.1,NODE_1_length_13038_cov_549.270354_component_0,13038,1.0
GCF_022226995.1_ASM2222699v1,bin_component_0,NZ_CP092054.1,NODE_6_length_3091_cov_2283.527997_component_0,3091,1.0
GCF_022226995.1_ASM2222699v1,bin_component_2,NZ_CP092052.1,NODE_3_length_4070_cov_233.969863_component_2,4070,1.0
GCF_022226995.1_ASM2222699v1,bin_component_2,NZ_CP092052.1,NODE_5_length_3121_cov_962.627202_component_2,3121,1.0
GCF_022226995.1_ASM2222699v1,bin_component_2,NZ_CP092052.1,NODE_5_length_3121_cov_962.627202_component_2,3121,1.0
GCF_022226995.1_ASM2222699v1,bin_component_2,NZ_CP092052.1,NODE_5_length_3121_cov_962.627202_component_2,3121,1.0
GCF_022226995.1_ASM2222699v1,bin_component_2,NZ_CP092052.1,NODE_5_length_3121_cov_962.627202_component_2,3121,1.0
GCF_022226995.1_ASM2222699v1,bin_component_2,NZ_CP092052.1,NODE_5_length_3121_cov_962.627202_component_2,3121,1.0
GCF_022226995.1_ASM2222699v1,bin_component_2,NZ_CP092052.1,NODE_5_length_3121_cov_962.627202_component_2,3121,1.0
GCF_022226995.1_ASM2222699v1,bin_component_2,NZ_CP092052.1,NODE_8_length_1659_cov_840.860973_component_2,1659,1.0
GCF_022226995.1_ASM2222699v1,bin_component_2,NZ_CP092052.1,NODE_8_length_1659_cov_840.860973_component_2,1659,1.0
GCF_022226995.1_ASM2222699v1,bin_component_2,NZ_CP092052.1,NODE_8_length_1659_cov_840.860973_component_2,1659,1.0
GCF_022226995.1_ASM2222699v1,bin_component_2,NZ_CP092052.1,NODE_8_length_1659_cov_840.860973_component_2,1659,1.0
GCF_022226995.1_ASM2222699v1,bin_component_2,NZ_CP092052.1,NODE_8_length_1659_cov_840.860973_component_2,1659,1.0
GCF_022226995.1_ASM2222699v1,bin_component_2,NZ_CP092052.1,NODE_8_length_1659_cov_840.860973_component_2,1659,1.0
GCF_016894285.1_ASM1689428v1,bin_component_1,NZ_CP069799.1,NODE_1_length_95926_cov_57.817087_component_1,95926,1.0
GCF_016894285.1_ASM1689428v1,bin_component_1,NZ_CP069799.1,NODE_9_length_28695_cov_44.598994_component_1,28695,1.0
GCF_016894285.1_ASM1689428v1,bin_component_1,NZ_CP069799.1,NODE_11_length_12069_cov_13.988993_component_1,12069,1.0
GCF_016894285.1_ASM1689428v1,bin_component_0,NZ_CP069799.1,NODE_2_length_91818_cov_113.119881_component_0,91818,1.0
GCF_016894285.1_ASM1689428v1,bin_component_0,NZ_CP069799.1,NODE_3_length_73870_cov_111.246121_component_0,73870,1.0
GCF_016894285.1_ASM1689428v1,bin_component_0,NZ_CP069799.1,NODE_4_length_56627_cov_117.939434_component_0,56627,1.0
GCF_016894285.1_ASM1689428v1,bin_component_0,NZ_CP069799.1,NODE_5_length_47317_cov_135.183023_component_0,47317,1.0
GCF_016894285.1_ASM1689428v1,bin_component_0,NZ_CP069799.1,NODE_6_length_45326_cov_123.366748_component_0,45326,1.0
GCF_016894285.1_ASM1689428v1,bin_component_0,NZ_CP069799.1,NODE_7_length_38020_cov_127.612946_component_0,38020,1.0
GCF_016894285.1_ASM1689428v1,bin_component_0,NZ_CP069799.1,NODE_8_length_30325_cov_138.370206_component_0,30325,1.0
GCF_016894285.1_ASM1689428v1,bin_component_0,NZ_CP069799.1,NODE_10_length_25926_cov_28.012999_component_0,25926,0.99
GCF_016894285.1_ASM1689428v1,bin_component_0,NZ_CP069799.1,NODE_12_length_3539_cov_20.684287_component_0,3539,1.0
GCF_016894285.1_ASM1689428v1,bin_component_0,NZ_CP069799.1,NODE_14_length_2514_cov_44.516208_component_0,2514,1.0
GCF_016894285.1_ASM1689428v1,bin_component_0,NZ_CP069799.1,NODE_15_length_1613_cov_1990.464844_component_0,1613,1.0
GCF_016894285.1_ASM1689428v1,bin_component_0,NZ_CP069799.1,NODE_15_length_1613_cov_1990.464844_component_0,1613,1.0
GCF_016894285.1_ASM1689428v1,bin_component_0,NZ_CP069799.1,NODE_15_length_1613_cov_1990.464844_component_0,1613,1.0
GCF_016894285.1_ASM1689428v1,bin_component_0,NZ_CP069799.1,NODE_15_length_1613_cov_1990.464844_component_0,1613,1.0
GCF_016894285.1_ASM1689428v1,bin_component_0,NZ_CP069799.1,NODE_15_length_1613_cov_1990.464844_component_0,1613,1.0
GCF_016894285.1_ASM1689428v1,bin_component_0,NZ_CP069799.1,NODE_15_length_1613_cov_1990.464844_component_0,1613,1.0
GCF_016894285.1_ASM1689428v1,bin_component_0,NZ_CP069799.1,NODE_16_length_1412_cov_1791.279401_component_0,1412,1.0
GCF_016894285.1_ASM1689428v1,bin_component_0,NZ_CP069799.1,NODE_16_length_1412_cov_1791.279401_component_0,1412,1.0
GCF_016894285.1_ASM1689428v1,bin_component_0,NZ_CP069799.1,NODE_16_length_1412_cov_1791.279401_component_0,1412,1.0
GCF_016894285.1_ASM1689428v1,bin_component_0,NZ_CP069799.1,NODE_16_length_1412_cov_1791.279401_component_0,1412,1.0
GCF_016894285.1_ASM1689428v1,bin_component_0,NZ_CP069799.1,NODE_16_length_1412_cov_1791.279401_component_0,1412,1.0
GCF_016894285.1_ASM1689428v1,bin_component_0,NZ_CP069799.1,NODE_16_length_1412_cov_1791.279401_component_0,1412,1.0
GCF_016894285.1_ASM1689428v1,bin_component_0,NZ_CP069799.1,NODE_17_length_1137_cov_1573.914151_component_0,1137,1.0
GCF_016894285.1_ASM1689428v1,bin_component_0,NZ_CP069799.1,NODE_17_length_1137_cov_1573.914151_component_0,1137,1.0
GCF_016894285.1_ASM1689428v1,bin_component_0,NZ_CP069799.1,NODE_17_length_1137_cov_1573.914151_component_0,1137,1.0
GCF_016894285.1_ASM1689428v1,bin_component_0,NZ_CP069799.1,NODE_17_length_1137_cov_1573.914151_component_0,1137,1.0
GCF_016894285.1_ASM1689428v1,bin_component_0,NZ_CP069799.1,NODE_17_length_1137_cov_1573.914151_component_0,1137,1.0
GCF_016894285.1_ASM1689428v1,bin_component_0,NZ_CP069799.1,NODE_17_length_1137_cov_1573.914151_component_0,1137,1.0
GCF_016894285.1_ASM1689428v1,bin_component_0,NZ_CP069799.1,NODE_18_length_1068_cov_185.072654_component_0,1068,1.0
GCF_016894285.1_ASM1689428v1,bin_component_2,NZ_CP069800.1,NODE_13_length_2616_cov_3246.011816_component_2,2616,1.0
GCF_013836525.1_ASM1383652v1,bin_component_0,NZ_CP058615.1,NODE_1_length_137935_cov_97.892650_component_0,137935,1.0
GCF_013836525.1_ASM1383652v1,bin_component_0,NZ_CP058615.1,NODE_2_length_79877_cov_97.189486_component_0,79877,1.0
GCF_013836525.1_ASM1383652v1,bin_component_0,NZ_CP058615.1,NODE_3_length_75508_cov_91.259840_component_0,75508,1.0
GCF_013836525.1_ASM1383652v1,bin_component_0,NZ_CP058615.1,NODE_4_length_75029_cov_86.957760_component_0,75029,1.0
GCF_013836525.1_ASM1383652v1,bin_component_0,NZ_CP058615.1,NODE_5_length_60663_cov_86.762057_component_0,60663,1.0
GCF_013836525.1_ASM1383652v1,bin_component_0,NZ_CP058615.1,NODE_6_length_48986_cov_89.392136_component_0,48986,1.0
GCF_013836525.1_ASM1383652v1,bin_component_0,NZ_CP058615.1,NODE_7_length_47333_cov_85.241112_component_0,47333,1.0
GCF_013836525.1_ASM1383652v1,bin_component_0,NZ_CP058615.1,NODE_8_length_47076_cov_42.631567_component_0,47076,0.99
GCF_013836525.1_ASM1383652v1,bin_component_0,NZ_CP058615.1,NODE_9_length_39500_cov_44.442534_component_0,39500,1.0
GCF_013836525.1_ASM1383652v1,bin_component_0,NZ_CP058615.1,NODE_10_length_36147_cov_39.191212_component_0,36147,1.0
GCF_013836525.1_ASM1383652v1,bin_component_0,NZ_CP058615.1,NODE_11_length_24146_cov_43.223690_component_0,24146,1.0
GCF_013836525.1_ASM1383652v1,bin_component_0,NZ_CP058615.1,NODE_12_length_22455_cov_82.879971_component_0,22455,1.0
GCF_013836525.1_ASM1383652v1,bin_component_0,NZ_CP058615.1,NODE_13_length_18214_cov_36.519711_component_0,18214,1.0
GCF_013836525.1_ASM1383652v1,bin_component_0,NZ_CP058615.1,NODE_14_length_17346_cov_40.620476_component_0,17346,1.0
GCF_013836525.1_ASM1383652v1,bin_component_0,NZ_CP058615.1,NODE_15_length_17265_cov_97.482721_component_0,17265,1.0
GCF_013836525.1_ASM1383652v1,bin_component_0,NZ_CP058615.1,NODE_16_length_15949_cov_42.683090_component_0,15949,1.0
GCF_013836525.1_ASM1383652v1,bin_component_0,NZ_CP058615.1,NODE_17_length_15786_cov_43.041059_component_0,15786,1.0
GCF_013836525.1_ASM1383652v1,bin_component_0,NZ_CP058615.1,NODE_18_length_14654_cov_25.030116_component_0,14654,1.0
GCF_013836525.1_ASM1383652v1,bin_component_0,NZ_CP058615.1,NODE_19_length_9663_cov_39.544648_component_0,9663,1.0
GCF_013836525.1_ASM1383652v1,bin_component_0,NZ_CP058615.1,NODE_20_length_7237_cov_58.011732_component_0,7237,1.0
GCF_013836525.1_ASM1383652v1,bin_component_0,NZ_CP058615.1,NODE_21_length_5209_cov_125.111847_component_0,5209,1.0
GCF_013836525.1_ASM1383652v1,bin_component_0,NZ_CP058615.1,NODE_22_length_4692_cov_88.848104_component_0,4692,1.0
GCF_013836525.1_ASM1383652v1,bin_component_0,NZ_CP058615.1,NODE_23_length_3956_cov_22.965197_component_0,3956,1.0
GCF_013836525.1_ASM1383652v1,bin_component_0,NZ_CP058615.1,NODE_24_length_3849_cov_39.015642_component_0,3849,1.0
GCF_013836525.1_ASM1383652v1,bin_component_0,NZ_CP058615.1,NODE_25_length_3699_cov_109.871894_component_0,3699,0.97
GCF_013836525.1_ASM1383652v1,bin_component_0,NZ_CP058615.1,NODE_26_length_3687_cov_12.709695_component_0,3687,1.0
GCF_013836525.1_ASM1383652v1,bin_component_0,NZ_CP058615.1,NODE_27_length_3545_cov_16.131488_component_0,3545,1.0
GCF_013836525.1_ASM1383652v1,bin_component_0,NZ_CP058615.1,NODE_28_length_2840_cov_31.992761_component_0,2840,1.0
GCF_013836525.1_ASM1383652v1,bin_component_0,NZ_CP058615.1,NODE_29_length_2606_cov_15.332147_component_0,2606,1.0
GCF_013836525.1_ASM1383652v1,bin_component_0,NZ_CP058615.1,NODE_30_length_2594_cov_58.614621_component_0,2594,1.0
GCF_013836525.1_ASM1383652v1,bin_component_0,NZ_CP058615.1,NODE_31_length_1868_cov_33.748744_component_0,1868,1.0
GCF_013836525.1_ASM1383652v1,bin_component_0,NZ_CP058615.1,NODE_32_length_1789_cov_638.450350_component_0,1789,1.0
GCF_013836525.1_ASM1383652v1,bin_component_0,NZ_CP058615.1,NODE_32_length_1789_cov_638.450350_component_0,1789,1.0
GCF_013836525.1_ASM1383652v1,bin_component_0,NZ_CP058615.1,NODE_32_length_1789_cov_638.450350_component_0,1789,1.0
GCF_013836525.1_ASM1383652v1,bin_component_0,NZ_CP058615.1,NODE_32_length_1789_cov_638.450350_component_0,1789,1.0
GCF_013836525.1_ASM1383652v1,bin_component_0,NZ_CP058615.1,NODE_32_length_1789_cov_638.450350_component_0,1789,1.0
GCF_013836525.1_ASM1383652v1,bin_component_0,NZ_CP058615.1,NODE_32_length_1789_cov_638.450350_component_0,1789,1.0
GCF_013836525.1_ASM1383652v1,bin_component_0,NZ_CP058615.1,NODE_32_length_1789_cov_638.450350_component_0,1789,1.0
GCF_013836525.1_ASM1383652v1,bin_component_0,NZ_CP058615.1,NODE_32_length_1789_cov_638.450350_component_0,1789,1.0
GCF_013836525.1_ASM1383652v1,bin_component_0,NZ_CP058615.1,NODE_32_length_1789_cov_638.450350_component_0,1789,1.0
GCF_013836525.1_ASM1383652v1,bin_component_0,NZ_CP058615.1,NODE_32_length_1789_cov_638.450350_component_0,1789,1.0
GCF_013836525.1_ASM1383652v1,bin_component_0,NZ_CP058615.1,NODE_32_length_1789_cov_638.450350_component_0,1789,1.0
GCF_013836525.1_ASM1383652v1,bin_component_0,NZ_CP058615.1,NODE_32_length_1789_cov_638.450350_component_0,1789,1.0
GCF_013836525.1_ASM1383652v1,bin_component_0,NZ_CP058615.1,NODE_32_length_1789_cov_638.450350_component_0,1789,1.0
GCF_013836525.1_ASM1383652v1,bin_component_0,NZ_CP058615.1,NODE_32_length_1789_cov_638.450350_component_0,1789,1.0
GCF_013836525.1_ASM1383652v1,bin_component_0,NZ_CP058615.1,NODE_32_length_1789_cov_638.450350_component_0,1789,1.0
GCF_013836525.1_ASM1383652v1,bin_component_0,NZ_CP058615.1,NODE_32_length_1789_cov_638.450350_component_0,1789,1.0
GCF_013836525.1_ASM1383652v1,bin_component_0,NZ_CP058615.1,NODE_32_length_1789_cov_638.450350_component_0,1789,1.0
GCF_013836525.1_ASM1383652v1,bin_component_0,NZ_CP058615.1,NODE_33_length_1734_cov_1311.512372_component_0,1734,1.0
GCF_013836525.1_ASM1383652v1,bin_component_0,NZ_CP058615.1,NODE_33_length_1734_cov_1311.512372_component_0,1734,1.0
GCF_013836525.1_ASM1383652v1,bin_component_0,NZ_CP058615.1,NODE_33_length_1734_cov_1311.512372_component_0,1734,1.0
GCF_013836525.1_ASM1383652v1,bin_component_0,NZ_CP058615.1,NODE_33_length_1734_cov_1311.512372_component_0,1734,1.0
GCF_013836525.1_ASM1383652v1,bin_component_0,NZ_CP058615.1,NODE_33_length_1734_cov_1311.512372_component_0,1734,1.0
GCF_013836525.1_ASM1383652v1,bin_component_0,NZ_CP058615.1,NODE_33_length_1734_cov_1311.512372_component_0,1734,1.0
GCF_013836525.1_ASM1383652v1,bin_component_0,NZ_CP058615.1,NODE_34_length_1593_cov_1438.207784_component_0,1593,1.0
GCF_013836525.1_ASM1383652v1,bin_component_0,NZ_CP058615.1,NODE_34_length_1593_cov_1438.207784_component_0,1593,1.0
GCF_013836525.1_ASM1383652v1,bin_component_0,NZ_CP058615.1,NODE_34_length_1593_cov_1438.207784_component_0,1593,1.0
GCF_013836525.1_ASM1383652v1,bin_component_0,NZ_CP058615.1,NODE_34_length_1593_cov_1438.207784_component_0,1593,1.0
GCF_013836525.1_ASM1383652v1,bin_component_0,NZ_CP058615.1,NODE_34_length_1593_cov_1438.207784_component_0,1593,1.0
GCF_013836525.1_ASM1383652v1,bin_component_0,NZ_CP058615.1,NODE_34_length_1593_cov_1438.207784_component_0,1593,1.0
GCF_013836525.1_ASM1383652v1,bin_component_0,NZ_CP058615.1,NODE_35_length_1528_cov_23.750517_component_0,1528,0.95
GCF_013836525.1_ASM1383652v1,bin_component_0,NZ_CP058615.1,NODE_36_length_1453_cov_1326.882994_component_0,1453,1.0
GCF_013836525.1_ASM1383652v1,bin_component_0,NZ_CP058615.1,NODE_36_length_1453_cov_1326.882994_component_0,1453,1.0
GCF_013836525.1_ASM1383652v1,bin_component_0,NZ_CP058615.1,NODE_36_length_1453_cov_1326.882994_component_0,1453,1.0
GCF_013836525.1_ASM1383652v1,bin_component_0,NZ_CP058615.1,NODE_36_length_1453_cov_1326.882994_component_0,1453,1.0
GCF_013836525.1_ASM1383652v1,bin_component_0,NZ_CP058615.1,NODE_36_length_1453_cov_1326.882994_component_0,1453,1.0
GCF_013836525.1_ASM1383652v1,bin_component_0,NZ_CP058615.1,NODE_36_length_1453_cov_1326.882994_component_0,1453,1.0
GCF_013836525.1_ASM1383652v1,bin_component_0,NZ_CP058615.1,NODE_37_length_1424_cov_55.761693_component_0,1424,1.0
GCF_013836525.1_ASM1383652v1,bin_component_0,NZ_CP058615.1,NODE_38_length_1413_cov_21.428144_component_0,1413,1.0
GCF_013836525.1_ASM1383652v1,bin_component_0,NZ_CP058615.1,NODE_39_length_1396_cov_27.935557_component_0,1396,1.0
GCF_013836525.1_ASM1383652v1,bin_component_0,NZ_CP058615.1,NODE_40_length_1144_cov_37.955014_component_0,1144,1.0
GCF_013836525.1_ASM1383652v1,bin_component_0,NZ_CP058615.1,NODE_41_length_1087_cov_92.176238_component_0,1087,1.0
GCF_013836525.1_ASM1383652v1,bin_component_0,NZ_CP058615.1,NODE_42_length_1080_cov_20.492522_component_0,1080,1.0
GCF_019653615.1_ASM1965361v1,bin_component_0,NZ_CP077098.1,NODE_3_length_3368_cov_132.451231_component_0,3368,0.95
GCF_019653615.1_ASM1965361v1,bin_component_0,NZ_CP077098.1,NODE_7_length_1324_cov_603.184443_component_0,1324,1.0
GCF_019653615.1_ASM1965361v1,bin_component_0,NZ_CP077098.1,NODE_7_length_1324_cov_603.184443_component_0,1324,1.0
GCF_019653615.1_ASM1965361v1,bin_component_0,NZ_CP077098.1,NODE_7_length_1324_cov_603.184443_component_0,1324,1.0
GCF_019653615.1_ASM1965361v1,bin_component_0,NZ_CP077098.1,NODE_7_length_1324_cov_603.184443_component_0,1324,1.0
GCF_019653615.1_ASM1965361v1,bin_component_0,NZ_CP077098.1,NODE_7_length_1324_cov_603.184443_component_0,1324,1.0
GCF_019653615.1_ASM1965361v1,bin_component_0,NZ_CP077098.1,NODE_7_length_1324_cov_603.184443_component_0,1324,1.0
GCF_019653615.1_ASM1965361v1,bin_component_0,NZ_CP077098.1,NODE_7_length_1324_cov_603.184443_component_0,1324,1.0
GCF_019653615.1_ASM1965361v1,bin_component_0,NZ_CP077098.1,NODE_7_length_1324_cov_603.184443_component_0,1324,1.0
GCF_019653615.1_ASM1965361v1,bin_component_0,NZ_CP077098.1,NODE_7_length_1324_cov_603.184443_component_0,1324,1.0
GCF_019653615.1_ASM1965361v1,bin_component_0,NZ_CP077098.1,NODE_7_length_1324_cov_603.184443_component_0,1324,1.0
GCF_019653615.1_ASM1965361v1,bin_component_0,NZ_CP077098.1,NODE_7_length_1324_cov_603.184443_component_0,1324,1.0
GCF_019653615.1_ASM1965361v1,bin_component_0,NZ_CP077098.1,NODE_7_length_1324_cov_603.184443_component_0,1324,1.0
GCF_019653615.1_ASM1965361v1,bin_component_0,NZ_CP077098.1,NODE_7_length_1324_cov_603.184443_component_0,1324,1.0
GCF_022405755.1_ASM2240575v1,bin_component_0,NZ_CP062401.1,NODE_1_length_43273_cov_58.656585_component_0,43273,1.0
GCF_022404595.1_ASM2240459v1,bin_component_1,NZ_CP062323.1,NODE_2_length_20818_cov_110.537770_component_1,20818,1.0
GCF_022404595.1_ASM2240459v1,bin_component_0,NZ_CP062322.1,NODE_1_length_41728_cov_54.056970_component_0,41728,1.0
GCF_022405055.1_ASM2240505v1,bin_component_1,NZ_CP062345.1,NODE_2_length_17456_cov_57.656472_component_1,17456,1.0
GCF_022405055.1_ASM2240505v1,bin_component_0,NZ_CP062344.1,NODE_1_length_44280_cov_54.189727_component_0,44280,1.0
GCF_022405615.1_ASM2240561v1,bin_component_1,NZ_CP062397.1,NODE_2_length_21477_cov_62.348009_component_1,21477,1.0
GCF_022405615.1_ASM2240561v1,bin_component_1,NZ_CP062397.1,NODE_3_length_13941_cov_62.228102_component_1,13941,1.0
GCF_022405615.1_ASM2240561v1,bin_component_1,NZ_CP062397.1,NODE_4_length_2869_cov_60.259300_component_1,2869,1.0
GCF_022405615.1_ASM2240561v1,bin_component_0,NZ_CP062396.1,NODE_1_length_43541_cov_74.479408_component_0,43541,1.0
GCF_022405145.1_ASM2240514v1,bin_component_1,NZ_CP062349.1,NODE_1_length_20780_cov_129.486031_component_1,20780,1.0
GCF_022405145.1_ASM2240514v1,bin_component_0,NZ_CP062348.1,NODE_2_length_18339_cov_231.083791_component_0,18339,1.0
GCF_022405145.1_ASM2240514v1,bin_component_0,NZ_CP062348.1,NODE_3_length_8065_cov_183.193248_component_0,8065,1.0
GCF_022405145.1_ASM2240514v1,bin_component_0,NZ_CP062348.1,NODE_4_length_4723_cov_174.568320_component_0,4723,1.0
GCF_022405145.1_ASM2240514v1,bin_component_0,NZ_CP062348.1,NODE_5_length_3360_cov_174.633158_component_0,3360,1.0
GCF_022405145.1_ASM2240514v1,bin_component_0,NZ_CP062348.1,NODE_6_length_3269_cov_182.298218_component_0,3269,1.0
GCF_022405145.1_ASM2240514v1,bin_component_0,NZ_CP062348.1,NODE_7_length_2493_cov_60.377008_component_0,2493,1.0
GCF_022405145.1_ASM2240514v1,bin_component_0,NZ_CP062348.1,NODE_8_length_1970_cov_55.062398_component_0,1970,1.0
GCF_022405145.1_ASM2240514v1,bin_component_0,NZ_CP062348.1,NODE_9_length_1429_cov_220.916283_component_0,1429,1.0
GCF_022405145.1_ASM2240514v1,bin_component_0,NZ_CP062348.1,NODE_9_length_1429_cov_220.916283_component_0,1429,1.0
GCF_022405655.1_ASM2240565v1,bin_component_0,NZ_CP062398.1,NODE_1_length_43396_cov_81.453743_component_0,43396,1.0
GCF_022369535.1_ASM2236953v1,bin_component_1,NZ_CP062313.1,NODE_3_length_17456_cov_94.039818_component_1,17456,1.0
GCF_022369535.1_ASM2236953v1,bin_component_0,NZ_CP062312.1,NODE_1_length_44910_cov_107.336713_component_0,44910,1.0
GCF_022369535.1_ASM2236953v1,bin_component_0,NZ_CP062312.1,NODE_2_length_41340_cov_66.456361_component_0,41340,1.0
GCF_016889145.1_ASM1688914v1,bin_component_1,NZ_CP069470.1,NODE_2_length_4094_cov_628.568335_component_1,4094,1.0
GCF_016889145.1_ASM1688914v1,bin_component_1,NZ_CP069470.1,NODE_6_length_3121_cov_2610.502628_component_1,3121,1.0
GCF_016889145.1_ASM1688914v1,bin_component_1,NZ_CP069470.1,NODE_6_length_3121_cov_2610.502628_component_1,3121,1.0
GCF_016889145.1_ASM1688914v1,bin_component_1,NZ_CP069470.1,NODE_6_length_3121_cov_2610.502628_component_1,3121,1.0
GCF_016889145.1_ASM1688914v1,bin_component_1,NZ_CP069470.1,NODE_6_length_3121_cov_2610.502628_component_1,3121,1.0
GCF_016889145.1_ASM1688914v1,bin_component_1,NZ_CP069470.1,NODE_6_length_3121_cov_2610.502628_component_1,3121,1.0
GCF_016889145.1_ASM1688914v1,bin_component_1,NZ_CP069470.1,NODE_6_length_3121_cov_2610.502628_component_1,3121,1.0
GCF_016889145.1_ASM1688914v1,bin_component_1,NZ_CP069470.1,NODE_7_length_1703_cov_2545.232472_component_1,1703,1.0
GCF_016889145.1_ASM1688914v1,bin_component_1,NZ_CP069470.1,NODE_7_length_1703_cov_2545.232472_component_1,1703,1.0
GCF_016889145.1_ASM1688914v1,bin_component_1,NZ_CP069470.1,NODE_7_length_1703_cov_2545.232472_component_1,1703,1.0
GCF_016889145.1_ASM1688914v1,bin_component_1,NZ_CP069470.1,NODE_7_length_1703_cov_2545.232472_component_1,1703,1.0
GCF_016889145.1_ASM1688914v1,bin_component_1,NZ_CP069470.1,NODE_7_length_1703_cov_2545.232472_component_1,1703,1.0
GCF_016889145.1_ASM1688914v1,bin_component_1,NZ_CP069470.1,NODE_7_length_1703_cov_2545.232472_component_1,1703,1.0
GCF_016889145.1_ASM1688914v1,bin_component_0,NZ_CP069471.1,NODE_1_length_24139_cov_1663.449381_component_0,24139,1.0
GCF_016889145.1_ASM1688914v1,bin_component_0,NZ_CP069471.1,NODE_3_length_3757_cov_1632.711141_component_0,3757,1.0
GCF_016889145.1_ASM1688914v1,bin_component_0,NZ_CP069471.1,NODE_4_length_3300_cov_1441.311511_component_0,3300,1.0
GCF_016889145.1_ASM1688914v1,bin_component_0,NZ_CP069472.1,NODE_5_length_3135_cov_13069.724003_component_0,3135,0.97
GCF_018135565.1_ASM1813556v1,bin_component_1,NZ_CP073065.1,NODE_2_length_57632_cov_181.929789_component_1,57632,1.0
GCF_018135565.1_ASM1813556v1,bin_component_3,NZ_CP073065.1,NODE_4_length_8699_cov_41.573301_component_3,8699,0.99
GCF_018135565.1_ASM1813556v1,bin_component_3,NZ_CP073065.1,NODE_7_length_3085_cov_1067.114029_component_3,3085,1.0
GCF_018135565.1_ASM1813556v1,bin_component_3,NZ_CP073065.1,NODE_7_length_3085_cov_1067.114029_component_3,3085,1.0
GCF_018135565.1_ASM1813556v1,bin_component_3,NZ_CP073065.1,NODE_7_length_3085_cov_1067.114029_component_3,3085,1.0
GCF_018135565.1_ASM1813556v1,bin_component_3,NZ_CP073065.1,NODE_7_length_3085_cov_1067.114029_component_3,3085,1.0
GCF_018135565.1_ASM1813556v1,bin_component_3,NZ_CP073065.1,NODE_7_length_3085_cov_1067.114029_component_3,3085,1.0
GCF_018135565.1_ASM1813556v1,bin_component_3,NZ_CP073065.1,NODE_8_length_2381_cov_756.080729_component_3,2381,0.96
GCF_018135565.1_ASM1813556v1,bin_component_3,NZ_CP073065.1,NODE_9_length_1721_cov_133.233577_component_3,1721,0.95
GCF_018135565.1_ASM1813556v1,bin_component_4,NZ_CP073064.1,NODE_5_length_4474_cov_1083.680464_component_4,4474,1.0
GCF_018135565.1_ASM1813556v1,bin_component_0,NZ_CP073065.1,NODE_1_length_171578_cov_173.356272_component_0,171578,1.0
GCF_018135565.1_ASM1813556v1,bin_component_2,NZ_CP073065.1,NODE_3_length_16823_cov_87.644393_component_2,16823,1.0
GCF_018135565.1_ASM1813556v1,bin_component_2,NZ_CP073065.1,NODE_6_length_4467_cov_83.832526_component_2,4467,1.0
GCF_016727585.1_ASM1672758v1,bin_component_1,NZ_CP068143.1,NODE_12_length_73746_cov_692.609347_component_1,73746,1.0
GCF_016727585.1_ASM1672758v1,bin_component_1,NZ_CP068143.1,NODE_30_length_26494_cov_670.148957_component_1,26494,1.0
GCF_016727585.1_ASM1672758v1,bin_component_1,NZ_CP068143.1,NODE_58_length_4898_cov_644.616884_component_1,4898,0.96
GCF_016727585.1_ASM1672758v1,bin_component_3,NZ_CP068143.1,NODE_23_length_40825_cov_639.838250_component_3,40825,1.0
GCF_016727585.1_ASM1672758v1,bin_component_3,NZ_CP068143.1,NODE_26_length_32140_cov_650.953124_component_3,32140,1.0
GCF_016727585.1_ASM1672758v1,bin_component_3,NZ_CP068143.1,NODE_53_length_6458_cov_665.548660_component_3,6458,1.0
GCF_016727585.1_ASM1672758v1,bin_component_3,NZ_CP068143.1,NODE_73_length_1662_cov_1004.461199_component_3,1662,1.0
GCF_016727585.1_ASM1672758v1,bin_component_3,NZ_CP068143.1,NODE_73_length_1662_cov_1004.461199_component_3,1662,1.0
GCF_016727585.1_ASM1672758v1,bin_component_4,NZ_CP068143.1,NODE_9_length_78727_cov_634.471748_component_4,78727,1.0
GCF_016727585.1_ASM1672758v1,bin_component_0,NZ_CP068143.1,NODE_70_length_1810_cov_409.370456_component_0,1810,0.94
GCF_016727585.1_ASM1672758v1,bin_component_0,NZ_CP068143.1,NODE_72_length_1663_cov_2832.715637_component_0,1663,1.0
GCF_016727585.1_ASM1672758v1,bin_component_0,NZ_CP068143.1,NODE_72_length_1663_cov_2832.715637_component_0,1663,1.0
GCF_016727585.1_ASM1672758v1,bin_component_0,NZ_CP068143.1,NODE_72_length_1663_cov_2832.715637_component_0,1663,1.0
GCF_016727585.1_ASM1672758v1,bin_component_0,NZ_CP068143.1,NODE_72_length_1663_cov_2832.715637_component_0,1663,1.0
GCF_016727585.1_ASM1672758v1,bin_component_0,NZ_CP068143.1,NODE_72_length_1663_cov_2832.715637_component_0,1663,0.99
GCF_016727585.1_ASM1672758v1,bin_component_0,NZ_CP068143.1,NODE_76_length_1453_cov_2854.808140_component_0,1453,1.0
GCF_016727585.1_ASM1672758v1,bin_component_0,NZ_CP068143.1,NODE_76_length_1453_cov_2854.808140_component_0,1453,1.0
GCF_016727585.1_ASM1672758v1,bin_component_0,NZ_CP068143.1,NODE_76_length_1453_cov_2854.808140_component_0,1453,1.0
GCF_016727585.1_ASM1672758v1,bin_component_0,NZ_CP068143.1,NODE_76_length_1453_cov_2854.808140_component_0,1453,1.0
GCF_016727585.1_ASM1672758v1,bin_component_0,NZ_CP068143.1,NODE_76_length_1453_cov_2854.808140_component_0,1453,1.0
GCF_016727585.1_ASM1672758v1,bin_component_0,NZ_CP068143.1,NODE_77_length_1449_cov_2591.643586_component_0,1449,0.82
GCF_016727585.1_ASM1672758v1,bin_component_0,NZ_CP068143.1,NODE_81_length_1149_cov_2403.660448_component_0,1149,1.0
GCF_016727585.1_ASM1672758v1,bin_component_0,NZ_CP068143.1,NODE_81_length_1149_cov_2403.660448_component_0,1149,1.0
GCF_016727585.1_ASM1672758v1,bin_component_2,NZ_CP068143.1,NODE_7_length_84813_cov_632.144708_component_2,84813,1.0
GCF_016727585.1_ASM1672758v1,bin_component_6,NZ_CP068144.1,NODE_49_length_10250_cov_834.738032_component_6,10250,1.0
GCF_016727585.1_ASM1672758v1,bin_component_6,NZ_CP068144.1,NODE_60_length_4717_cov_852.113578_component_6,4717,1.0
GCF_016727585.1_ASM1672758v1,bin_component_6,NZ_CP068144.1,NODE_66_length_2772_cov_832.526902_component_6,2772,1.0
GCF_016727585.1_ASM1672758v1,bin_component_6,NZ_CP068144.1,NODE_68_length_2008_cov_835.137235_component_6,2008,1.0
GCF_016727585.1_ASM1672758v1,bin_component_5,NZ_CP068143.1,NODE_50_length_9833_cov_634.735547_component_5,9833,1.0
GCF_016727585.1_ASM1672758v1,bin_component_5,NZ_CP068143.1,NODE_56_length_5561_cov_643.170131_component_5,5561,1.0
GCF_016727585.1_ASM1672758v1,bin_component_5,NZ_CP068143.1,NODE_59_length_4740_cov_627.149260_component_5,4740,0.95
GCF_022405835.1_ASM2240583v1,bin_component_0,NZ_CP062405.1,NODE_1_length_41046_cov_67.396735_component_0,41046,1.0
GCF_022405875.1_ASM2240587v1,bin_component_0,NZ_CP062407.1,NODE_1_length_47415_cov_68.575072_component_0,47415,1.0
GCF_022404735.1_ASM2240473v1,bin_component_1,NZ_CP062339.1,NODE_2_length_2691_cov_406.050702_component_1,2691,1.0
GCF_022404735.1_ASM2240473v1,bin_component_0,NZ_CP062338.1,NODE_1_length_42617_cov_61.104707_component_0,42617,1.0
GCF_022405575.1_ASM2240557v1,bin_component_1,NZ_CP062392.1,NODE_2_length_24782_cov_51.983776_component_1,24782,1.0
GCF_022405575.1_ASM2240557v1,bin_component_0,NZ_CP062391.1,NODE_1_length_37214_cov_33.861299_component_0,37214,1.0
GCF_022406075.1_ASM2240607v1,bin_component_0,NZ_CP062417.1,NODE_1_length_43273_cov_79.063691_component_0,43273,1.0
GCF_022226975.1_ASM2222697v1,bin_component_1,NZ_CP092055.1,NODE_2_length_4481_cov_342.314279_component_1,4481,0.95
GCF_022226975.1_ASM2222697v1,bin_component_1,NZ_CP092055.1,NODE_3_length_3122_cov_1034.210955_component_1,3122,1.0
GCF_022226975.1_ASM2222697v1,bin_component_1,NZ_CP092055.1,NODE_3_length_3122_cov_1034.210955_component_1,3122,1.0
GCF_022226975.1_ASM2222697v1,bin_component_1,NZ_CP092055.1,NODE_3_length_3122_cov_1034.210955_component_1,3122,1.0
GCF_022226975.1_ASM2222697v1,bin_component_1,NZ_CP092055.1,NODE_3_length_3122_cov_1034.210955_component_1,3122,1.0
GCF_022226975.1_ASM2222697v1,bin_component_1,NZ_CP092055.1,NODE_3_length_3122_cov_1034.210955_component_1,3122,1.0
GCF_022226975.1_ASM2222697v1,bin_component_1,NZ_CP092055.1,NODE_3_length_3122_cov_1034.210955_component_1,3122,1.0
GCF_022226975.1_ASM2222697v1,bin_component_1,NZ_CP092055.1,NODE_4_length_1748_cov_924.025399_component_1,1748,1.0
GCF_022226975.1_ASM2222697v1,bin_component_1,NZ_CP092055.1,NODE_4_length_1748_cov_924.025399_component_1,1748,1.0
GCF_022226975.1_ASM2222697v1,bin_component_1,NZ_CP092055.1,NODE_4_length_1748_cov_924.025399_component_1,1748,1.0
GCF_022226975.1_ASM2222697v1,bin_component_1,NZ_CP092055.1,NODE_4_length_1748_cov_924.025399_component_1,1748,1.0
GCF_022226975.1_ASM2222697v1,bin_component_1,NZ_CP092055.1,NODE_4_length_1748_cov_924.025399_component_1,1748,1.0
GCF_022226975.1_ASM2222697v1,bin_component_1,NZ_CP092055.1,NODE_4_length_1748_cov_924.025399_component_1,1748,1.0
GCF_022226975.1_ASM2222697v1,bin_component_0,NZ_CP092055.1,NODE_1_length_46280_cov_263.317080_component_0,46280,1.0
GCF_022493095.1_ASM2249309v1,bin_component_0,NZ_CP062440.1,NODE_1_length_3253_cov_642.406590_component_0,3253,1.0
GCF_022404675.1_ASM2240467v1,bin_component_1,NZ_CP062332.1,NODE_3_length_13275_cov_133.900137_component_1,13275,1.0
GCF_022404675.1_ASM2240467v1,bin_component_1,NZ_CP062333.1,NODE_4_length_3235_cov_1564.027671_component_1,3235,0.96
GCF_022404675.1_ASM2240467v1,bin_component_0,NZ_CP062331.1,NODE_1_length_43175_cov_74.667859_component_0,43175,1.0
GCF_022404675.1_ASM2240467v1,bin_component_2,NZ_CP062331.1,NODE_2_length_14082_cov_52.750985_component_2,14082,0.99
GCF_018409145.1_ASM1840914v1,bin_component_1,NZ_AP024512.1,NODE_8_length_18528_cov_1185.394000_component_1,18528,1.0
GCF_018409145.1_ASM1840914v1,bin_component_1,NZ_AP024512.1,NODE_11_length_1971_cov_1069.652386_component_1,1971,1.0
GCF_018409145.1_ASM1840914v1,bin_component_0,NZ_AP024511.1,NODE_1_length_285923_cov_85.326142_component_0,285923,0.99
GCF_018409145.1_ASM1840914v1,bin_component_0,NZ_AP024511.1,NODE_2_length_132746_cov_73.813850_component_0,132746,1.0
GCF_018409145.1_ASM1840914v1,bin_component_0,NZ_AP024511.1,NODE_3_length_57986_cov_72.701118_component_0,57986,1.0
GCF_018409145.1_ASM1840914v1,bin_component_0,NZ_AP024511.1,NODE_4_length_55551_cov_135.097828_component_0,55551,1.0
GCF_018409145.1_ASM1840914v1,bin_component_0,NZ_AP024511.1,NODE_5_length_37848_cov_30.661833_component_0,37848,1.0
GCF_018409145.1_ASM1840914v1,bin_component_0,NZ_AP024511.1,NODE_6_length_35126_cov_63.342581_component_0,35126,1.0
GCF_018409145.1_ASM1840914v1,bin_component_0,NZ_AP024511.1,NODE_7_length_19807_cov_28.862449_component_0,19807,1.0
GCF_018409145.1_ASM1840914v1,bin_component_0,NZ_AP024511.1,NODE_9_length_3612_cov_69.135151_component_0,3612,1.0
GCF_018409145.1_ASM1840914v1,bin_component_0,NZ_AP024511.1,NODE_10_length_3308_cov_76.280415_component_0,3308,1.0
GCF_018409145.1_ASM1840914v1,bin_component_0,NZ_AP024511.1,NODE_12_length_1918_cov_18.459658_component_0,1918,1.0
GCF_018409145.1_ASM1840914v1,bin_component_0,NZ_AP024511.1,NODE_13_length_1780_cov_2032.504537_component_0,1780,1.0
GCF_018409145.1_ASM1840914v1,bin_component_0,NZ_AP024511.1,NODE_13_length_1780_cov_2032.504537_component_0,1780,1.0
GCF_018409145.1_ASM1840914v1,bin_component_0,NZ_AP024511.1,NODE_13_length_1780_cov_2032.504537_component_0,1780,1.0
GCF_018409145.1_ASM1840914v1,bin_component_0,NZ_AP024511.1,NODE_13_length_1780_cov_2032.504537_component_0,1780,1.0
GCF_018409145.1_ASM1840914v1,bin_component_0,NZ_AP024511.1,NODE_13_length_1780_cov_2032.504537_component_0,1780,1.0
GCF_018409145.1_ASM1840914v1,bin_component_0,NZ_AP024511.1,NODE_14_length_1419_cov_110.321981_component_0,1419,1.0
GCF_018409145.1_ASM1840914v1,bin_component_0,NZ_AP024511.1,NODE_15_length_1327_cov_706.772500_component_0,1327,1.0
GCF_018409145.1_ASM1840914v1,bin_component_0,NZ_AP024511.1,NODE_15_length_1327_cov_706.772500_component_0,1327,1.0
GCF_018409145.1_ASM1840914v1,bin_component_0,NZ_AP024511.1,NODE_15_length_1327_cov_706.772500_component_0,1327,1.0
GCF_018409145.1_ASM1840914v1,bin_component_0,NZ_AP024511.1,NODE_15_length_1327_cov_706.772500_component_0,1327,1.0
GCF_018409145.1_ASM1840914v1,bin_component_0,NZ_AP024511.1,NODE_15_length_1327_cov_706.772500_component_0,1327,1.0
GCF_018409145.1_ASM1840914v1,bin_component_0,NZ_AP024511.1,NODE_16_length_1020_cov_50.919373_component_0,1020,1.0
GCF_013836745.1_ASM1383674v1,bin_component_1,NZ_CP058613.1,NODE_1_length_89606_cov_76.206280_component_1,89606,1.0
GCF_013836745.1_ASM1383674v1,bin_component_1,NZ_CP058613.1,NODE_9_length_43540_cov_68.932517_component_1,43540,1.0
GCF_013836745.1_ASM1383674v1,bin_component_1,NZ_CP058613.1,NODE_10_length_40325_cov_81.094663_component_1,40325,1.0
GCF_013836745.1_ASM1383674v1,bin_component_0,NZ_CP058613.1,NODE_2_length_74666_cov_74.191892_component_0,74666,1.0
GCF_013836745.1_ASM1383674v1,bin_component_0,NZ_CP058613.1,NODE_3_length_65908_cov_85.290365_component_0,65908,1.0
GCF_013836745.1_ASM1383674v1,bin_component_0,NZ_CP058613.1,NODE_4_length_61364_cov_82.070978_component_0,61364,1.0
GCF_013836745.1_ASM1383674v1,bin_component_0,NZ_CP058613.1,NODE_5_length_60663_cov_69.406265_component_0,60663,1.0
GCF_013836745.1_ASM1383674v1,bin_component_0,NZ_CP058613.1,NODE_6_length_52322_cov_72.824825_component_0,52322,1.0
GCF_013836745.1_ASM1383674v1,bin_component_0,NZ_CP058613.1,NODE_7_length_49045_cov_72.879677_component_0,49045,1.0
GCF_013836745.1_ASM1383674v1,bin_component_0,NZ_CP058613.1,NODE_8_length_47260_cov_70.993112_component_0,47260,1.0
GCF_013836745.1_ASM1383674v1,bin_component_0,NZ_CP058613.1,NODE_11_length_39708_cov_31.922712_component_0,39708,1.0
GCF_013836745.1_ASM1383674v1,bin_component_0,NZ_CP058613.1,NODE_12_length_19426_cov_30.409892_component_0,19426,0.99
GCF_013836745.1_ASM1383674v1,bin_component_0,NZ_CP058613.1,NODE_13_length_17347_cov_32.598668_component_0,17347,1.0
GCF_013836745.1_ASM1383674v1,bin_component_0,NZ_CP058613.1,NODE_14_length_16792_cov_33.429195_component_0,16792,1.0
GCF_013836745.1_ASM1383674v1,bin_component_0,NZ_CP058613.1,NODE_15_length_14793_cov_23.093708_component_0,14793,1.0
GCF_013836745.1_ASM1383674v1,bin_component_0,NZ_CP058613.1,NODE_16_length_9663_cov_35.821511_component_0,9663,1.0
GCF_013836745.1_ASM1383674v1,bin_component_0,NZ_CP058613.1,NODE_17_length_4400_cov_20.448762_component_0,4400,1.0
GCF_013836745.1_ASM1383674v1,bin_component_0,NZ_CP058613.1,NODE_18_length_4311_cov_22.289325_component_0,4311,1.0
GCF_013836745.1_ASM1383674v1,bin_component_0,NZ_CP058613.1,NODE_19_length_4097_cov_23.045522_component_0,4097,1.0
GCF_013836745.1_ASM1383674v1,bin_component_0,NZ_CP058613.1,NODE_20_length_3849_cov_30.652174_component_0,3849,1.0
GCF_013836745.1_ASM1383674v1,bin_component_0,NZ_CP058613.1,NODE_21_length_3700_cov_94.109854_component_0,3700,0.97
GCF_013836745.1_ASM1383674v1,bin_component_0,NZ_CP058613.1,NODE_22_length_3696_cov_19.977894_component_0,3696,1.0
GCF_013836745.1_ASM1383674v1,bin_component_0,NZ_CP058613.1,NODE_23_length_3548_cov_14.733794_component_0,3548,1.0
GCF_013836745.1_ASM1383674v1,bin_component_0,NZ_CP058613.1,NODE_24_length_3486_cov_13.147844_component_0,3486,1.0
GCF_013836745.1_ASM1383674v1,bin_component_0,NZ_CP058613.1,NODE_25_length_3110_cov_1183.898780_component_0,3110,1.0
GCF_013836745.1_ASM1383674v1,bin_component_0,NZ_CP058613.1,NODE_25_length_3110_cov_1183.898780_component_0,3110,1.0
GCF_013836745.1_ASM1383674v1,bin_component_0,NZ_CP058613.1,NODE_25_length_3110_cov_1183.898780_component_0,3110,1.0
GCF_013836745.1_ASM1383674v1,bin_component_0,NZ_CP058613.1,NODE_25_length_3110_cov_1183.898780_component_0,3110,1.0
GCF_013836745.1_ASM1383674v1,bin_component_0,NZ_CP058613.1,NODE_25_length_3110_cov_1183.898780_component_0,3110,1.0
GCF_013836745.1_ASM1383674v1,bin_component_0,NZ_CP058613.1,NODE_25_length_3110_cov_1183.898780_component_0,3110,1.0
GCF_013836745.1_ASM1383674v1,bin_component_0,NZ_CP058613.1,NODE_26_length_2845_cov_98.047327_component_0,2845,1.0
GCF_013836745.1_ASM1383674v1,bin_component_0,NZ_CP058613.1,NODE_27_length_2840_cov_23.328990_component_0,2840,1.0
GCF_013836745.1_ASM1383674v1,bin_component_0,NZ_CP058613.1,NODE_28_length_1942_cov_36.750670_component_0,1942,1.0
GCF_013836745.1_ASM1383674v1,bin_component_0,NZ_CP058613.1,NODE_29_length_1818_cov_644.408386_component_0,1818,1.0
GCF_013836745.1_ASM1383674v1,bin_component_0,NZ_CP058613.1,NODE_29_length_1818_cov_644.408386_component_0,1818,1.0
GCF_013836745.1_ASM1383674v1,bin_component_0,NZ_CP058613.1,NODE_29_length_1818_cov_644.408386_component_0,1818,1.0
GCF_013836745.1_ASM1383674v1,bin_component_0,NZ_CP058613.1,NODE_29_length_1818_cov_644.408386_component_0,1818,1.0
GCF_013836745.1_ASM1383674v1,bin_component_0,NZ_CP058613.1,NODE_29_length_1818_cov_644.408386_component_0,1818,1.0
GCF_013836745.1_ASM1383674v1,bin_component_0,NZ_CP058613.1,NODE_29_length_1818_cov_644.408386_component_0,1818,1.0
GCF_013836745.1_ASM1383674v1,bin_component_0,NZ_CP058613.1,NODE_29_length_1818_cov_644.408386_component_0,1818,1.0
GCF_013836745.1_ASM1383674v1,bin_component_0,NZ_CP058613.1,NODE_29_length_1818_cov_644.408386_component_0,1818,1.0
GCF_013836745.1_ASM1383674v1,bin_component_0,NZ_CP058613.1,NODE_29_length_1818_cov_644.408386_component_0,1818,1.0
GCF_013836745.1_ASM1383674v1,bin_component_0,NZ_CP058613.1,NODE_29_length_1818_cov_644.408386_component_0,1818,1.0
GCF_013836745.1_ASM1383674v1,bin_component_0,NZ_CP058613.1,NODE_29_length_1818_cov_644.408386_component_0,1818,1.0
GCF_013836745.1_ASM1383674v1,bin_component_0,NZ_CP058613.1,NODE_29_length_1818_cov_644.408386_component_0,1818,1.0
GCF_013836745.1_ASM1383674v1,bin_component_0,NZ_CP058613.1,NODE_29_length_1818_cov_644.408386_component_0,1818,1.0
GCF_013836745.1_ASM1383674v1,bin_component_0,NZ_CP058613.1,NODE_29_length_1818_cov_644.408386_component_0,1818,1.0
GCF_013836745.1_ASM1383674v1,bin_component_0,NZ_CP058613.1,NODE_29_length_1818_cov_644.408386_component_0,1818,1.0
GCF_013836745.1_ASM1383674v1,bin_component_0,NZ_CP058613.1,NODE_29_length_1818_cov_644.408386_component_0,1818,1.0
GCF_013836745.1_ASM1383674v1,bin_component_0,NZ_CP058613.1,NODE_29_length_1818_cov_644.408386_component_0,1818,1.0
GCF_013836745.1_ASM1383674v1,bin_component_0,NZ_CP058613.1,NODE_29_length_1818_cov_644.408386_component_0,1818,1.0
GCF_013836745.1_ASM1383674v1,bin_component_0,NZ_CP058613.1,NODE_29_length_1818_cov_644.408386_component_0,1818,1.0
GCF_013836745.1_ASM1383674v1,bin_component_0,NZ_CP058613.1,NODE_30_length_1734_cov_1120.305975_component_0,1734,1.0
GCF_013836745.1_ASM1383674v1,bin_component_0,NZ_CP058613.1,NODE_30_length_1734_cov_1120.305975_component_0,1734,1.0
GCF_013836745.1_ASM1383674v1,bin_component_0,NZ_CP058613.1,NODE_30_length_1734_cov_1120.305975_component_0,1734,1.0
GCF_013836745.1_ASM1383674v1,bin_component_0,NZ_CP058613.1,NODE_30_length_1734_cov_1120.305975_component_0,1734,1.0
GCF_013836745.1_ASM1383674v1,bin_component_0,NZ_CP058613.1,NODE_30_length_1734_cov_1120.305975_component_0,1734,1.0
GCF_013836745.1_ASM1383674v1,bin_component_0,NZ_CP058613.1,NODE_30_length_1734_cov_1120.305975_component_0,1734,1.0
GCF_013836745.1_ASM1383674v1,bin_component_0,NZ_CP058613.1,NODE_31_length_1647_cov_33.818471_component_0,1647,1.0
GCF_013836745.1_ASM1383674v1,bin_component_0,NZ_CP058613.1,NODE_32_length_1424_cov_44.135857_component_0,1424,1.0
GCF_013836745.1_ASM1383674v1,bin_component_0,NZ_CP058613.1,NODE_33_length_1413_cov_18.977545_component_0,1413,1.0
GCF_013836745.1_ASM1383674v1,bin_component_0,NZ_CP058613.1,NODE_34_length_1396_cov_26.112206_component_0,1396,1.0
GCF_013836745.1_ASM1383674v1,bin_component_0,NZ_CP058613.1,NODE_35_length_1370_cov_17.101315_component_0,1370,1.0
GCF_013008375.1_ASM1300837v1,bin_component_1,NZ_CP053101.1,NODE_1_length_4858_cov_136.664793_component_1,4858,0.97
GCF_013008375.1_ASM1300837v1,bin_component_1,NZ_CP053101.1,NODE_3_length_3142_cov_331.804665_component_1,3142,1.0
GCF_013008375.1_ASM1300837v1,bin_component_1,NZ_CP053101.1,NODE_3_length_3142_cov_331.804665_component_1,3142,1.0
GCF_013008375.1_ASM1300837v1,bin_component_1,NZ_CP053101.1,NODE_3_length_3142_cov_331.804665_component_1,3142,1.0
GCF_013008375.1_ASM1300837v1,bin_component_1,NZ_CP053101.1,NODE_3_length_3142_cov_331.804665_component_1,3142,1.0
GCF_013008375.1_ASM1300837v1,bin_component_1,NZ_CP053101.1,NODE_3_length_3142_cov_331.804665_component_1,3142,1.0
GCF_013008375.1_ASM1300837v1,bin_component_1,NZ_CP053101.1,NODE_3_length_3142_cov_331.804665_component_1,3142,1.0
GCF_013008375.1_ASM1300837v1,bin_component_1,NZ_CP053101.1,NODE_6_length_2545_cov_121.307229_component_1,2545,0.96
GCF_013008375.1_ASM1300837v1,bin_component_1,NZ_CP053101.1,NODE_8_length_1704_cov_309.941176_component_1,1704,1.0
GCF_013008375.1_ASM1300837v1,bin_component_1,NZ_CP053101.1,NODE_8_length_1704_cov_309.941176_component_1,1704,1.0
GCF_013008375.1_ASM1300837v1,bin_component_1,NZ_CP053101.1,NODE_8_length_1704_cov_309.941176_component_1,1704,1.0
GCF_013008375.1_ASM1300837v1,bin_component_1,NZ_CP053101.1,NODE_8_length_1704_cov_309.941176_component_1,1704,1.0
GCF_013008375.1_ASM1300837v1,bin_component_1,NZ_CP053101.1,NODE_8_length_1704_cov_309.941176_component_1,1704,1.0
GCF_013008375.1_ASM1300837v1,bin_component_1,NZ_CP053101.1,NODE_8_length_1704_cov_309.941176_component_1,1704,0.99
GCF_013008375.1_ASM1300837v1,bin_component_0,NZ_CP053101.1,NODE_2_length_4089_cov_292.710709_component_0,4089,1.0
GCF_013008375.1_ASM1300837v1,bin_component_0,NZ_CP053101.1,NODE_4_length_2786_cov_258.842549_component_0,2786,1.0
GCF_013008375.1_ASM1300837v1,bin_component_0,NZ_CP053101.1,NODE_5_length_2743_cov_594.429688_component_0,2743,1.0
GCF_013008375.1_ASM1300837v1,bin_component_0,NZ_CP053101.1,NODE_7_length_2197_cov_252.555089_component_0,2197,1.0
GCF_013008375.1_ASM1300837v1,bin_component_0,NZ_CP053101.1,NODE_7_length_2197_cov_252.555089_component_0,2197,1.0
GCF_013008375.1_ASM1300837v1,bin_component_0,NZ_CP053101.1,NODE_9_length_1548_cov_260.727395_component_0,1548,1.0
GCF_013008375.1_ASM1300837v1,bin_component_0,NZ_CP053101.1,NODE_9_length_1548_cov_260.727395_component_0,1548,1.0
GCF_015475575.1_ASM1547557v1,bin_component_1,NZ_CP055226.1,NODE_2_length_3180_cov_12071.289920_component_1,3180,0.96
GCF_015475575.1_ASM1547557v1,bin_component_0,NZ_CP055225.1,NODE_1_length_5030_cov_1459.164221_component_0,5030,1.0
GCF_015475575.1_ASM1547557v1,bin_component_0,NZ_CP055225.1,NODE_1_length_5030_cov_1459.164221_component_0,5030,1.0
GCF_015475575.1_ASM1547557v1,bin_component_0,NZ_CP055225.1,NODE_1_length_5030_cov_1459.164221_component_0,5030,1.0
GCF_015475575.1_ASM1547557v1,bin_component_0,NZ_CP055225.1,NODE_3_length_1607_cov_795.483247_component_0,1607,1.0
GCF_022405895.1_ASM2240589v1,bin_component_0,NZ_CP062408.1,NODE_1_length_43150_cov_82.656602_component_0,43150,1.0
GCF_022405355.1_ASM2240535v1,bin_component_1,NZ_CP062367.1,NODE_2_length_27195_cov_77.389796_component_1,27195,1.0
GCF_022405355.1_ASM2240535v1,bin_component_0,NZ_CP062366.1,NODE_1_length_42971_cov_88.011250_component_0,42971,1.0
GCF_022405355.1_ASM2240535v1,bin_component_2,NZ_CP062366.1,NODE_3_length_14083_cov_59.207223_component_2,14083,0.99
GCF_022405395.1_ASM2240539v1,bin_component_0,NZ_CP062371.1,NODE_1_length_27394_cov_71.265779_component_0,27394,1.0
GCF_022405995.1_ASM2240599v1,bin_component_0,NZ_CP062413.1,NODE_1_length_43273_cov_97.729152_component_0,43273,1.0
