<?xml version='1.0' encoding='UTF-8' ?>
<svg xmlns='http://www.w3.org/2000/svg' xmlns:xlink='http://www.w3.org/1999/xlink' class='svglite' width='504.00pt' height='360.00pt' viewBox='0 0 504.00 360.00'>
<defs>
  <style type='text/css'><![CDATA[
    .svglite line, .svglite polyline, .svglite polygon, .svglite path, .svglite rect, .svglite circle {
      fill: none;
      stroke: #000000;
      stroke-linecap: round;
      stroke-linejoin: round;
      stroke-miterlimit: 10.00;
    }
    .svglite text {
      white-space: pre;
    }
  ]]></style>
</defs>
<rect width='100%' height='100%' style='stroke: none; fill: #FFFFFF;'/>
<defs>
  <clipPath id='cpMC4wMHw1MDQuMDB8MC4wMHwzNjAuMDA='>
    <rect x='0.00' y='0.00' width='504.00' height='360.00' />
  </clipPath>
</defs>
<g clip-path='url(#cpMC4wMHw1MDQuMDB8MC4wMHwzNjAuMDA=)'>
</g>
<defs>
  <clipPath id='cpNDUuNzF8NDk4LjUyfDExLjY4fDMxMS4xOQ=='>
    <rect x='45.71' y='11.68' width='452.81' height='299.51' />
  </clipPath>
</defs>
<g clip-path='url(#cpNDUuNzF8NDk4LjUyfDExLjY4fDMxMS4xOQ==)'>
<polyline points='45.71,265.35 498.52,265.35 ' style='stroke-width: 0.53; stroke: #EBEBEB; stroke-linecap: butt;' />
<polyline points='45.71,200.91 498.52,200.91 ' style='stroke-width: 0.53; stroke: #EBEBEB; stroke-linecap: butt;' />
<polyline points='45.71,136.47 498.52,136.47 ' style='stroke-width: 0.53; stroke: #EBEBEB; stroke-linecap: butt;' />
<polyline points='45.71,72.03 498.52,72.03 ' style='stroke-width: 0.53; stroke: #EBEBEB; stroke-linecap: butt;' />
<polyline points='128.04,311.19 128.04,11.68 ' style='stroke-width: 0.53; stroke: #EBEBEB; stroke-linecap: butt;' />
<polyline points='237.81,311.19 237.81,11.68 ' style='stroke-width: 0.53; stroke: #EBEBEB; stroke-linecap: butt;' />
<polyline points='347.58,311.19 347.58,11.68 ' style='stroke-width: 0.53; stroke: #EBEBEB; stroke-linecap: butt;' />
<polyline points='457.36,311.19 457.36,11.68 ' style='stroke-width: 0.53; stroke: #EBEBEB; stroke-linecap: butt;' />
<polyline points='45.71,297.57 498.52,297.57 ' style='stroke-width: 1.07; stroke: #EBEBEB; stroke-linecap: butt;' />
<polyline points='45.71,233.13 498.52,233.13 ' style='stroke-width: 1.07; stroke: #EBEBEB; stroke-linecap: butt;' />
<polyline points='45.71,168.69 498.52,168.69 ' style='stroke-width: 1.07; stroke: #EBEBEB; stroke-linecap: butt;' />
<polyline points='45.71,104.25 498.52,104.25 ' style='stroke-width: 1.07; stroke: #EBEBEB; stroke-linecap: butt;' />
<polyline points='45.71,39.81 498.52,39.81 ' style='stroke-width: 1.07; stroke: #EBEBEB; stroke-linecap: butt;' />
<rect x='66.29' y='279.42' width='13.72' height='18.15' style='stroke-width: 1.07; stroke-linecap: butt; stroke-linejoin: miter; fill: #B5B5B5;' />
<rect x='80.02' y='297.57' width='13.72' height='0.00' style='stroke-width: 1.07; stroke-linecap: butt; stroke-linejoin: miter; fill: #B5B5B5;' />
<rect x='93.74' y='297.57' width='13.72' height='0.00' style='stroke-width: 1.07; stroke-linecap: butt; stroke-linejoin: miter; fill: #B5B5B5;' />
<rect x='107.46' y='279.42' width='13.72' height='18.15' style='stroke-width: 1.07; stroke-linecap: butt; stroke-linejoin: miter; fill: #B5B5B5;' />
<rect x='121.18' y='152.36' width='13.72' height='145.22' style='stroke-width: 1.07; stroke-linecap: butt; stroke-linejoin: miter; fill: #B5B5B5;' />
<rect x='134.90' y='261.27' width='13.72' height='36.30' style='stroke-width: 1.07; stroke-linecap: butt; stroke-linejoin: miter; fill: #B5B5B5;' />
<rect x='148.62' y='170.51' width='13.72' height='127.06' style='stroke-width: 1.07; stroke-linecap: butt; stroke-linejoin: miter; fill: #B5B5B5;' />
<rect x='162.34' y='279.42' width='13.72' height='18.15' style='stroke-width: 1.07; stroke-linecap: butt; stroke-linejoin: miter; fill: #B5B5B5;' />
<rect x='176.07' y='297.57' width='13.72' height='0.00' style='stroke-width: 1.07; stroke-linecap: butt; stroke-linejoin: miter; fill: #B5B5B5;' />
<rect x='189.79' y='261.27' width='13.72' height='36.30' style='stroke-width: 1.07; stroke-linecap: butt; stroke-linejoin: miter; fill: #B5B5B5;' />
<rect x='203.51' y='297.57' width='13.72' height='0.00' style='stroke-width: 1.07; stroke-linecap: butt; stroke-linejoin: miter; fill: #B5B5B5;' />
<rect x='217.23' y='297.57' width='13.72' height='0.00' style='stroke-width: 1.07; stroke-linecap: butt; stroke-linejoin: miter; fill: #B5B5B5;' />
<rect x='230.95' y='297.57' width='13.72' height='0.00' style='stroke-width: 1.07; stroke-linecap: butt; stroke-linejoin: miter; fill: #B5B5B5;' />
<rect x='244.67' y='297.57' width='13.72' height='0.00' style='stroke-width: 1.07; stroke-linecap: butt; stroke-linejoin: miter; fill: #B5B5B5;' />
<rect x='258.39' y='297.57' width='13.72' height='0.00' style='stroke-width: 1.07; stroke-linecap: butt; stroke-linejoin: miter; fill: #B5B5B5;' />
<rect x='272.12' y='297.57' width='13.72' height='0.00' style='stroke-width: 1.07; stroke-linecap: butt; stroke-linejoin: miter; fill: #B5B5B5;' />
<rect x='285.84' y='297.57' width='13.72' height='0.00' style='stroke-width: 1.07; stroke-linecap: butt; stroke-linejoin: miter; fill: #B5B5B5;' />
<rect x='299.56' y='297.57' width='13.72' height='0.00' style='stroke-width: 1.07; stroke-linecap: butt; stroke-linejoin: miter; fill: #B5B5B5;' />
<rect x='313.28' y='261.27' width='13.72' height='36.30' style='stroke-width: 1.07; stroke-linecap: butt; stroke-linejoin: miter; fill: #B5B5B5;' />
<rect x='327.00' y='297.57' width='13.72' height='0.00' style='stroke-width: 1.07; stroke-linecap: butt; stroke-linejoin: miter; fill: #B5B5B5;' />
<rect x='340.72' y='261.27' width='13.72' height='36.30' style='stroke-width: 1.07; stroke-linecap: butt; stroke-linejoin: miter; fill: #B5B5B5;' />
<rect x='354.44' y='261.27' width='13.72' height='36.30' style='stroke-width: 1.07; stroke-linecap: butt; stroke-linejoin: miter; fill: #B5B5B5;' />
<rect x='368.17' y='43.44' width='13.72' height='254.13' style='stroke-width: 1.07; stroke-linecap: butt; stroke-linejoin: miter; fill: #B5B5B5;' />
<rect x='381.89' y='297.57' width='13.72' height='0.00' style='stroke-width: 1.07; stroke-linecap: butt; stroke-linejoin: miter; fill: #B5B5B5;' />
<rect x='395.61' y='243.12' width='13.72' height='54.46' style='stroke-width: 1.07; stroke-linecap: butt; stroke-linejoin: miter; fill: #B5B5B5;' />
<rect x='409.33' y='25.29' width='13.72' height='272.28' style='stroke-width: 1.07; stroke-linecap: butt; stroke-linejoin: miter; fill: #B5B5B5;' />
<rect x='423.05' y='261.27' width='13.72' height='36.30' style='stroke-width: 1.07; stroke-linecap: butt; stroke-linejoin: miter; fill: #B5B5B5;' />
<rect x='436.77' y='243.12' width='13.72' height='54.46' style='stroke-width: 1.07; stroke-linecap: butt; stroke-linejoin: miter; fill: #B5B5B5;' />
<rect x='450.50' y='261.27' width='13.72' height='36.30' style='stroke-width: 1.07; stroke-linecap: butt; stroke-linejoin: miter; fill: #B5B5B5;' />
<rect x='464.22' y='224.96' width='13.72' height='72.61' style='stroke-width: 1.07; stroke-linecap: butt; stroke-linejoin: miter; fill: #B5B5B5;' />
<polygon points='69.19,281.45 69.98,281.14 70.77,280.82 71.55,280.51 72.34,280.19 73.13,279.86 73.92,279.54 74.71,279.21 75.50,278.88 76.29,278.55 77.08,278.21 77.87,277.88 78.66,277.54 79.45,277.20 80.24,276.86 81.03,276.51 81.82,276.17 82.61,275.82 83.40,275.48 84.19,275.13 84.97,274.78 85.76,274.43 86.55,274.08 87.34,273.73 88.13,273.38 88.92,273.02 89.71,272.67 90.50,272.32 91.29,271.97 92.08,271.62 92.87,271.27 93.66,270.92 94.45,270.57 95.24,270.22 96.03,269.87 96.82,269.53 97.60,269.18 98.39,268.84 99.18,268.50 99.97,268.16 100.76,267.83 101.55,267.49 102.34,267.16 103.13,266.83 103.92,266.51 104.71,266.19 105.50,265.87 106.29,265.55 107.08,265.24 107.87,264.93 108.66,264.63 109.45,264.33 110.24,264.03 111.02,263.74 111.81,263.46 112.60,263.17 113.39,262.90 114.18,262.63 114.97,262.36 115.76,262.10 116.55,261.85 117.34,261.60 118.13,261.35 118.92,261.12 119.71,260.89 120.50,260.66 121.29,260.45 122.08,260.23 122.87,260.03 123.65,259.83 124.44,259.64 125.23,259.46 126.02,259.28 126.81,259.12 127.60,258.95 128.39,258.80 129.18,258.65 129.97,258.52 130.76,258.39 131.55,258.27 132.34,258.15 133.13,258.05 133.92,257.95 134.71,257.86 135.50,257.78 136.29,257.71 137.07,257.64 137.86,257.59 138.65,257.54 139.44,257.50 140.23,257.47 141.02,257.45 141.81,257.43 142.60,257.43 143.39,257.43 144.18,257.45 144.97,257.47 145.76,257.50 146.55,257.54 147.34,257.59 148.13,257.64 148.92,257.70 149.70,257.78 150.49,257.86 151.28,257.94 152.07,258.04 152.86,258.15 153.65,258.26 154.44,258.38 155.23,258.51 156.02,258.65 156.81,258.79 157.60,258.95 158.39,259.10 159.18,259.27 159.97,259.45 160.76,259.63 161.55,259.82 162.34,260.01 163.12,260.22 163.91,260.43 164.70,260.64 165.49,260.87 166.28,261.09 167.07,261.33 167.86,261.57 168.65,261.82 169.44,262.07 170.23,262.33 171.02,262.59 171.81,262.86 172.60,263.13 173.39,263.41 174.18,263.69 174.97,263.98 175.75,264.27 176.54,264.57 177.33,264.87 178.12,265.18 178.91,265.48 179.70,265.80 180.49,266.11 181.28,266.43 182.07,266.75 182.86,267.08 183.65,267.40 184.44,267.73 185.23,268.06 186.02,268.40 186.81,268.73 187.60,269.07 188.39,269.41 189.17,269.75 189.96,270.09 190.75,270.43 191.54,270.77 192.33,271.12 193.12,271.46 193.91,271.80 194.70,272.15 195.49,272.49 196.28,272.84 197.07,273.18 197.86,273.52 198.65,273.87 199.44,274.21 200.23,274.55 201.02,274.89 201.80,275.23 202.59,275.56 203.38,275.90 204.17,276.23 204.96,276.56 205.75,276.89 206.54,277.22 207.33,277.54 208.12,277.87 208.91,278.18 209.70,278.50 210.49,278.82 211.28,279.13 212.07,279.43 212.86,279.74 213.65,280.04 214.44,280.34 215.22,280.63 216.01,280.93 216.80,281.21 217.59,281.50 218.38,281.77 219.17,282.05 219.96,282.32 220.75,282.59 221.54,282.85 222.33,283.11 223.12,283.36 223.91,283.61 224.70,283.85 225.49,284.09 226.28,284.33 227.07,284.56 227.85,284.78 228.64,285.00 229.43,285.21 230.22,285.42 231.01,285.62 231.80,285.82 232.59,286.02 233.38,286.20 234.17,286.39 234.96,286.56 235.75,286.73 236.54,286.90 237.33,287.06 238.12,287.21 238.91,287.36 239.70,287.50 240.49,287.63 241.27,287.76 242.06,287.89 242.85,288.00 243.64,288.12 244.43,288.22 245.22,288.32 246.01,288.41 246.80,288.50 247.59,288.58 248.38,288.66 249.17,288.72 249.96,288.78 250.75,288.84 251.54,288.89 252.33,288.93 253.12,288.96 253.90,288.99 254.69,289.01 255.48,289.03 256.27,289.04 257.06,289.04 257.85,289.03 258.64,289.02 259.43,289.00 260.22,288.98 261.01,288.95 261.80,288.91 262.59,288.86 263.38,288.81 264.17,288.75 264.96,288.68 265.75,288.61 266.54,288.52 267.32,288.44 268.11,288.34 268.90,288.24 269.69,288.13 270.48,288.01 271.27,287.89 272.06,287.76 272.85,287.62 273.64,287.47 274.43,287.32 275.22,287.16 276.01,286.99 276.80,286.82 277.59,286.64 278.38,286.45 279.17,286.25 279.95,286.04 280.74,285.83 281.53,285.61 282.32,285.39 283.11,285.15 283.90,284.91 284.69,284.66 285.48,284.41 286.27,284.14 287.06,283.87 287.85,283.59 288.64,283.30 289.43,283.01 290.22,282.71 291.01,282.39 291.80,282.08 292.59,281.75 293.37,281.42 294.16,281.08 294.95,280.74 295.74,280.38 296.53,280.02 297.32,279.65 298.11,279.27 298.90,278.89 299.69,278.50 300.48,278.10 301.27,277.69 302.06,277.28 302.85,276.86 303.64,276.43 304.43,276.00 305.22,275.56 306.00,275.11 306.79,274.65 307.58,274.19 308.37,273.72 309.16,273.25 309.95,272.76 310.74,272.27 311.53,271.78 312.32,271.28 313.11,270.77 313.90,270.26 314.69,269.74 315.48,269.21 316.27,268.68 317.06,268.14 317.85,267.59 318.64,267.04 319.42,266.49 320.21,265.93 321.00,265.36 321.79,264.79 322.58,264.22 323.37,263.63 324.16,263.05 324.95,262.46 325.74,261.87 326.53,261.27 327.32,260.67 328.11,260.06 328.90,259.45 329.69,258.84 330.48,258.22 331.27,257.60 332.05,256.98 332.84,256.35 333.63,255.72 334.42,255.09 335.21,254.46 336.00,253.82 336.79,253.18 337.58,252.55 338.37,251.91 339.16,251.26 339.95,250.62 340.74,249.98 341.53,249.34 342.32,248.69 343.11,248.05 343.90,247.41 344.69,246.76 345.47,246.12 346.26,245.48 347.05,244.84 347.84,244.20 348.63,243.56 349.42,242.93 350.21,242.29 351.00,241.66 351.79,241.03 352.58,240.41 353.37,239.79 354.16,239.17 354.95,238.55 355.74,237.94 356.53,237.34 357.32,236.73 358.10,236.14 358.89,235.54 359.68,234.95 360.47,234.37 361.26,233.80 362.05,233.23 362.84,232.66 363.63,232.11 364.42,231.55 365.21,231.01 366.00,230.47 366.79,229.95 367.58,229.42 368.37,228.91 369.16,228.40 369.95,227.91 370.74,227.41 371.52,226.94 372.31,226.46 373.10,226.01 373.89,225.55 374.68,225.11 375.47,224.68 376.26,224.26 377.05,223.84 377.84,223.44 378.63,223.05 379.42,222.67 380.21,222.30 381.00,221.95 381.79,221.60 382.58,221.27 383.37,220.94 384.15,220.63 384.94,220.33 385.73,220.05 386.52,219.77 387.31,219.51 388.10,219.26 388.89,219.02 389.68,218.80 390.47,218.59 391.26,218.39 392.05,218.20 392.84,218.03 393.63,217.87 394.42,217.73 395.21,217.59 396.00,217.48 396.79,217.37 397.57,217.28 398.36,217.20 399.15,217.14 399.94,217.08 400.73,217.05 401.52,217.02 402.31,217.01 403.10,217.01 403.89,217.03 404.68,217.05 405.47,217.10 406.26,217.15 407.05,217.23 407.84,217.31 408.63,217.41 409.42,217.52 410.20,217.65 410.99,217.78 411.78,217.93 412.57,218.09 413.36,218.27 414.15,218.46 414.94,218.66 415.73,218.87 416.52,219.10 417.31,219.34 418.10,219.59 418.89,219.85 419.68,220.13 420.47,220.41 421.26,220.71 422.05,221.02 422.84,221.34 423.62,221.67 424.41,222.02 425.20,222.37 425.99,222.74 426.78,223.11 427.57,223.50 428.36,223.90 429.15,224.30 429.94,224.72 430.73,225.14 431.52,225.58 432.31,226.02 433.10,226.47 433.89,226.93 434.68,227.41 435.47,227.88 436.25,228.37 437.04,228.86 437.83,229.37 438.62,229.87 439.41,230.39 440.20,230.91 440.99,231.45 441.78,231.98 442.57,232.53 443.36,233.07 444.15,233.63 444.94,234.19 445.73,234.76 446.52,235.33 447.31,235.90 448.10,236.48 448.88,237.07 449.67,237.66 450.46,238.25 451.25,238.85 452.04,239.45 452.83,240.06 453.62,240.66 454.41,241.27 455.20,241.89 455.99,242.50 456.78,243.12 457.57,243.74 458.36,244.36 459.15,244.98 459.94,245.61 460.73,246.23 461.52,246.86 462.30,247.48 463.09,248.11 463.88,248.74 464.67,249.36 465.46,249.99 466.25,250.62 467.04,251.25 467.83,251.87 468.62,252.50 469.41,253.12 470.20,253.74 470.99,254.36 471.78,254.98 472.57,255.60 472.57,297.57 471.78,297.57 470.99,297.57 470.20,297.57 469.41,297.57 468.62,297.57 467.83,297.57 467.04,297.57 466.25,297.57 465.46,297.57 464.67,297.57 463.88,297.57 463.09,297.57 462.30,297.57 461.52,297.57 460.73,297.57 459.94,297.57 459.15,297.57 458.36,297.57 457.57,297.57 456.78,297.57 455.99,297.57 455.20,297.57 454.41,297.57 453.62,297.57 452.83,297.57 452.04,297.57 451.25,297.57 450.46,297.57 449.67,297.57 448.88,297.57 448.10,297.57 447.31,297.57 446.52,297.57 445.73,297.57 444.94,297.57 444.15,297.57 443.36,297.57 442.57,297.57 441.78,297.57 440.99,297.57 440.20,297.57 439.41,297.57 438.62,297.57 437.83,297.57 437.04,297.57 436.25,297.57 435.47,297.57 434.68,297.57 433.89,297.57 433.10,297.57 432.31,297.57 431.52,297.57 430.73,297.57 429.94,297.57 429.15,297.57 428.36,297.57 427.57,297.57 426.78,297.57 425.99,297.57 425.20,297.57 424.41,297.57 423.62,297.57 422.84,297.57 422.05,297.57 421.26,297.57 420.47,297.57 419.68,297.57 418.89,297.57 418.10,297.57 417.31,297.57 416.52,297.57 415.73,297.57 414.94,297.57 414.15,297.57 413.36,297.57 412.57,297.57 411.78,297.57 410.99,297.57 410.20,297.57 409.42,297.57 408.63,297.57 407.84,297.57 407.05,297.57 406.26,297.57 405.47,297.57 404.68,297.57 403.89,297.57 403.10,297.57 402.31,297.57 401.52,297.57 400.73,297.57 399.94,297.57 399.15,297.57 398.36,297.57 397.57,297.57 396.79,297.57 396.00,297.57 395.21,297.57 394.42,297.57 393.63,297.57 392.84,297.57 392.05,297.57 391.26,297.57 390.47,297.57 389.68,297.57 388.89,297.57 388.10,297.57 387.31,297.57 386.52,297.57 385.73,297.57 384.94,297.57 384.15,297.57 383.37,297.57 382.58,297.57 381.79,297.57 381.00,297.57 380.21,297.57 379.42,297.57 378.63,297.57 377.84,297.57 377.05,297.57 376.26,297.57 375.47,297.57 374.68,297.57 373.89,297.57 373.10,297.57 372.31,297.57 371.52,297.57 370.74,297.57 369.95,297.57 369.16,297.57 368.37,297.57 367.58,297.57 366.79,297.57 366.00,297.57 365.21,297.57 364.42,297.57 363.63,297.57 362.84,297.57 362.05,297.57 361.26,297.57 360.47,297.57 359.68,297.57 358.89,297.57 358.10,297.57 357.32,297.57 356.53,297.57 355.74,297.57 354.95,297.57 354.16,297.57 353.37,297.57 352.58,297.57 351.79,297.57 351.00,297.57 350.21,297.57 349.42,297.57 348.63,297.57 347.84,297.57 347.05,297.57 346.26,297.57 345.47,297.57 344.69,297.57 343.90,297.57 343.11,297.57 342.32,297.57 341.53,297.57 340.74,297.57 339.95,297.57 339.16,297.57 338.37,297.57 337.58,297.57 336.79,297.57 336.00,297.57 335.21,297.57 334.42,297.57 333.63,297.57 332.84,297.57 332.05,297.57 331.27,297.57 330.48,297.57 329.69,297.57 328.90,297.57 328.11,297.57 327.32,297.57 326.53,297.57 325.74,297.57 324.95,297.57 324.16,297.57 323.37,297.57 322.58,297.57 321.79,297.57 321.00,297.57 320.21,297.57 319.42,297.57 318.64,297.57 317.85,297.57 317.06,297.57 316.27,297.57 315.48,297.57 314.69,297.57 313.90,297.57 313.11,297.57 312.32,297.57 311.53,297.57 310.74,297.57 309.95,297.57 309.16,297.57 308.37,297.57 307.58,297.57 306.79,297.57 306.00,297.57 305.22,297.57 304.43,297.57 303.64,297.57 302.85,297.57 302.06,297.57 301.27,297.57 300.48,297.57 299.69,297.57 298.90,297.57 298.11,297.57 297.32,297.57 296.53,297.57 295.74,297.57 294.95,297.57 294.16,297.57 293.37,297.57 292.59,297.57 291.80,297.57 291.01,297.57 290.22,297.57 289.43,297.57 288.64,297.57 287.85,297.57 287.06,297.57 286.27,297.57 285.48,297.57 284.69,297.57 283.90,297.57 283.11,297.57 282.32,297.57 281.53,297.57 280.74,297.57 279.95,297.57 279.17,297.57 278.38,297.57 277.59,297.57 276.80,297.57 276.01,297.57 275.22,297.57 274.43,297.57 273.64,297.57 272.85,297.57 272.06,297.57 271.27,297.57 270.48,297.57 269.69,297.57 268.90,297.57 268.11,297.57 267.32,297.57 266.54,297.57 265.75,297.57 264.96,297.57 264.17,297.57 263.38,297.57 262.59,297.57 261.80,297.57 261.01,297.57 260.22,297.57 259.43,297.57 258.64,297.57 257.85,297.57 257.06,297.57 256.27,297.57 255.48,297.57 254.69,297.57 253.90,297.57 253.12,297.57 252.33,297.57 251.54,297.57 250.75,297.57 249.96,297.57 249.17,297.57 248.38,297.57 247.59,297.57 246.80,297.57 246.01,297.57 245.22,297.57 244.43,297.57 243.64,297.57 242.85,297.57 242.06,297.57 241.27,297.57 240.49,297.57 239.70,297.57 238.91,297.57 238.12,297.57 237.33,297.57 236.54,297.57 235.75,297.57 234.96,297.57 234.17,297.57 233.38,297.57 232.59,297.57 231.80,297.57 231.01,297.57 230.22,297.57 229.43,297.57 228.64,297.57 227.85,297.57 227.07,297.57 226.28,297.57 225.49,297.57 224.70,297.57 223.91,297.57 223.12,297.57 222.33,297.57 221.54,297.57 220.75,297.57 219.96,297.57 219.17,297.57 218.38,297.57 217.59,297.57 216.80,297.57 216.01,297.57 215.22,297.57 214.44,297.57 213.65,297.57 212.86,297.57 212.07,297.57 211.28,297.57 210.49,297.57 209.70,297.57 208.91,297.57 208.12,297.57 207.33,297.57 206.54,297.57 205.75,297.57 204.96,297.57 204.17,297.57 203.38,297.57 202.59,297.57 201.80,297.57 201.02,297.57 200.23,297.57 199.44,297.57 198.65,297.57 197.86,297.57 197.07,297.57 196.28,297.57 195.49,297.57 194.70,297.57 193.91,297.57 193.12,297.57 192.33,297.57 191.54,297.57 190.75,297.57 189.96,297.57 189.17,297.57 188.39,297.57 187.60,297.57 186.81,297.57 186.02,297.57 185.23,297.57 184.44,297.57 183.65,297.57 182.86,297.57 182.07,297.57 181.28,297.57 180.49,297.57 179.70,297.57 178.91,297.57 178.12,297.57 177.33,297.57 176.54,297.57 175.75,297.57 174.97,297.57 174.18,297.57 173.39,297.57 172.60,297.57 171.81,297.57 171.02,297.57 170.23,297.57 169.44,297.57 168.65,297.57 167.86,297.57 167.07,297.57 166.28,297.57 165.49,297.57 164.70,297.57 163.91,297.57 163.12,297.57 162.34,297.57 161.55,297.57 160.76,297.57 159.97,297.57 159.18,297.57 158.39,297.57 157.60,297.57 156.81,297.57 156.02,297.57 155.23,297.57 154.44,297.57 153.65,297.57 152.86,297.57 152.07,297.57 151.28,297.57 150.49,297.57 149.70,297.57 148.92,297.57 148.13,297.57 147.34,297.57 146.55,297.57 145.76,297.57 144.97,297.57 144.18,297.57 143.39,297.57 142.60,297.57 141.81,297.57 141.02,297.57 140.23,297.57 139.44,297.57 138.65,297.57 137.86,297.57 137.07,297.57 136.29,297.57 135.50,297.57 134.71,297.57 133.92,297.57 133.13,297.57 132.34,297.57 131.55,297.57 130.76,297.57 129.97,297.57 129.18,297.57 128.39,297.57 127.60,297.57 126.81,297.57 126.02,297.57 125.23,297.57 124.44,297.57 123.65,297.57 122.87,297.57 122.08,297.57 121.29,297.57 120.50,297.57 119.71,297.57 118.92,297.57 118.13,297.57 117.34,297.57 116.55,297.57 115.76,297.57 114.97,297.57 114.18,297.57 113.39,297.57 112.60,297.57 111.81,297.57 111.02,297.57 110.24,297.57 109.45,297.57 108.66,297.57 107.87,297.57 107.08,297.57 106.29,297.57 105.50,297.57 104.71,297.57 103.92,297.57 103.13,297.57 102.34,297.57 101.55,297.57 100.76,297.57 99.97,297.57 99.18,297.57 98.39,297.57 97.60,297.57 96.82,297.57 96.03,297.57 95.24,297.57 94.45,297.57 93.66,297.57 92.87,297.57 92.08,297.57 91.29,297.57 90.50,297.57 89.71,297.57 88.92,297.57 88.13,297.57 87.34,297.57 86.55,297.57 85.76,297.57 84.97,297.57 84.19,297.57 83.40,297.57 82.61,297.57 81.82,297.57 81.03,297.57 80.24,297.57 79.45,297.57 78.66,297.57 77.87,297.57 77.08,297.57 76.29,297.57 75.50,297.57 74.71,297.57 73.92,297.57 73.13,297.57 72.34,297.57 71.55,297.57 70.77,297.57 69.98,297.57 69.19,297.57 ' style='stroke-width: 0.00; stroke: none; stroke-linecap: butt; fill: #FF9933; fill-opacity: 0.50;' />
<polyline points='69.19,281.45 69.98,281.14 70.77,280.82 71.55,280.51 72.34,280.19 73.13,279.86 73.92,279.54 74.71,279.21 75.50,278.88 76.29,278.55 77.08,278.21 77.87,277.88 78.66,277.54 79.45,277.20 80.24,276.86 81.03,276.51 81.82,276.17 82.61,275.82 83.40,275.48 84.19,275.13 84.97,274.78 85.76,274.43 86.55,274.08 87.34,273.73 88.13,273.38 88.92,273.02 89.71,272.67 90.50,272.32 91.29,271.97 92.08,271.62 92.87,271.27 93.66,270.92 94.45,270.57 95.24,270.22 96.03,269.87 96.82,269.53 97.60,269.18 98.39,268.84 99.18,268.50 99.97,268.16 100.76,267.83 101.55,267.49 102.34,267.16 103.13,266.83 103.92,266.51 104.71,266.19 105.50,265.87 106.29,265.55 107.08,265.24 107.87,264.93 108.66,264.63 109.45,264.33 110.24,264.03 111.02,263.74 111.81,263.46 112.60,263.17 113.39,262.90 114.18,262.63 114.97,262.36 115.76,262.10 116.55,261.85 117.34,261.60 118.13,261.35 118.92,261.12 119.71,260.89 120.50,260.66 121.29,260.45 122.08,260.23 122.87,260.03 123.65,259.83 124.44,259.64 125.23,259.46 126.02,259.28 126.81,259.12 127.60,258.95 128.39,258.80 129.18,258.65 129.97,258.52 130.76,258.39 131.55,258.27 132.34,258.15 133.13,258.05 133.92,257.95 134.71,257.86 135.50,257.78 136.29,257.71 137.07,257.64 137.86,257.59 138.65,257.54 139.44,257.50 140.23,257.47 141.02,257.45 141.81,257.43 142.60,257.43 143.39,257.43 144.18,257.45 144.97,257.47 145.76,257.50 146.55,257.54 147.34,257.59 148.13,257.64 148.92,257.70 149.70,257.78 150.49,257.86 151.28,257.94 152.07,258.04 152.86,258.15 153.65,258.26 154.44,258.38 155.23,258.51 156.02,258.65 156.81,258.79 157.60,258.95 158.39,259.10 159.18,259.27 159.97,259.45 160.76,259.63 161.55,259.82 162.34,260.01 163.12,260.22 163.91,260.43 164.70,260.64 165.49,260.87 166.28,261.09 167.07,261.33 167.86,261.57 168.65,261.82 169.44,262.07 170.23,262.33 171.02,262.59 171.81,262.86 172.60,263.13 173.39,263.41 174.18,263.69 174.97,263.98 175.75,264.27 176.54,264.57 177.33,264.87 178.12,265.18 178.91,265.48 179.70,265.80 180.49,266.11 181.28,266.43 182.07,266.75 182.86,267.08 183.65,267.40 184.44,267.73 185.23,268.06 186.02,268.40 186.81,268.73 187.60,269.07 188.39,269.41 189.17,269.75 189.96,270.09 190.75,270.43 191.54,270.77 192.33,271.12 193.12,271.46 193.91,271.80 194.70,272.15 195.49,272.49 196.28,272.84 197.07,273.18 197.86,273.52 198.65,273.87 199.44,274.21 200.23,274.55 201.02,274.89 201.80,275.23 202.59,275.56 203.38,275.90 204.17,276.23 204.96,276.56 205.75,276.89 206.54,277.22 207.33,277.54 208.12,277.87 208.91,278.18 209.70,278.50 210.49,278.82 211.28,279.13 212.07,279.43 212.86,279.74 213.65,280.04 214.44,280.34 215.22,280.63 216.01,280.93 216.80,281.21 217.59,281.50 218.38,281.77 219.17,282.05 219.96,282.32 220.75,282.59 221.54,282.85 222.33,283.11 223.12,283.36 223.91,283.61 224.70,283.85 225.49,284.09 226.28,284.33 227.07,284.56 227.85,284.78 228.64,285.00 229.43,285.21 230.22,285.42 231.01,285.62 231.80,285.82 232.59,286.02 233.38,286.20 234.17,286.39 234.96,286.56 235.75,286.73 236.54,286.90 237.33,287.06 238.12,287.21 238.91,287.36 239.70,287.50 240.49,287.63 241.27,287.76 242.06,287.89 242.85,288.00 243.64,288.12 244.43,288.22 245.22,288.32 246.01,288.41 246.80,288.50 247.59,288.58 248.38,288.66 249.17,288.72 249.96,288.78 250.75,288.84 251.54,288.89 252.33,288.93 253.12,288.96 253.90,288.99 254.69,289.01 255.48,289.03 256.27,289.04 257.06,289.04 257.85,289.03 258.64,289.02 259.43,289.00 260.22,288.98 261.01,288.95 261.80,288.91 262.59,288.86 263.38,288.81 264.17,288.75 264.96,288.68 265.75,288.61 266.54,288.52 267.32,288.44 268.11,288.34 268.90,288.24 269.69,288.13 270.48,288.01 271.27,287.89 272.06,287.76 272.85,287.62 273.64,287.47 274.43,287.32 275.22,287.16 276.01,286.99 276.80,286.82 277.59,286.64 278.38,286.45 279.17,286.25 279.95,286.04 280.74,285.83 281.53,285.61 282.32,285.39 283.11,285.15 283.90,284.91 284.69,284.66 285.48,284.41 286.27,284.14 287.06,283.87 287.85,283.59 288.64,283.30 289.43,283.01 290.22,282.71 291.01,282.39 291.80,282.08 292.59,281.75 293.37,281.42 294.16,281.08 294.95,280.74 295.74,280.38 296.53,280.02 297.32,279.65 298.11,279.27 298.90,278.89 299.69,278.50 300.48,278.10 301.27,277.69 302.06,277.28 302.85,276.86 303.64,276.43 304.43,276.00 305.22,275.56 306.00,275.11 306.79,274.65 307.58,274.19 308.37,273.72 309.16,273.25 309.95,272.76 310.74,272.27 311.53,271.78 312.32,271.28 313.11,270.77 313.90,270.26 314.69,269.74 315.48,269.21 316.27,268.68 317.06,268.14 317.85,267.59 318.64,267.04 319.42,266.49 320.21,265.93 321.00,265.36 321.79,264.79 322.58,264.22 323.37,263.63 324.16,263.05 324.95,262.46 325.74,261.87 326.53,261.27 327.32,260.67 328.11,260.06 328.90,259.45 329.69,258.84 330.48,258.22 331.27,257.60 332.05,256.98 332.84,256.35 333.63,255.72 334.42,255.09 335.21,254.46 336.00,253.82 336.79,253.18 337.58,252.55 338.37,251.91 339.16,251.26 339.95,250.62 340.74,249.98 341.53,249.34 342.32,248.69 343.11,248.05 343.90,247.41 344.69,246.76 345.47,246.12 346.26,245.48 347.05,244.84 347.84,244.20 348.63,243.56 349.42,242.93 350.21,242.29 351.00,241.66 351.79,241.03 352.58,240.41 353.37,239.79 354.16,239.17 354.95,238.55 355.74,237.94 356.53,237.34 357.32,236.73 358.10,236.14 358.89,235.54 359.68,234.95 360.47,234.37 361.26,233.80 362.05,233.23 362.84,232.66 363.63,232.11 364.42,231.55 365.21,231.01 366.00,230.47 366.79,229.95 367.58,229.42 368.37,228.91 369.16,228.40 369.95,227.91 370.74,227.41 371.52,226.94 372.31,226.46 373.10,226.01 373.89,225.55 374.68,225.11 375.47,224.68 376.26,224.26 377.05,223.84 377.84,223.44 378.63,223.05 379.42,222.67 380.21,222.30 381.00,221.95 381.79,221.60 382.58,221.27 383.37,220.94 384.15,220.63 384.94,220.33 385.73,220.05 386.52,219.77 387.31,219.51 388.10,219.26 388.89,219.02 389.68,218.80 390.47,218.59 391.26,218.39 392.05,218.20 392.84,218.03 393.63,217.87 394.42,217.73 395.21,217.59 396.00,217.48 396.79,217.37 397.57,217.28 398.36,217.20 399.15,217.14 399.94,217.08 400.73,217.05 401.52,217.02 402.31,217.01 403.10,217.01 403.89,217.03 404.68,217.05 405.47,217.10 406.26,217.15 407.05,217.23 407.84,217.31 408.63,217.41 409.42,217.52 410.20,217.65 410.99,217.78 411.78,217.93 412.57,218.09 413.36,218.27 414.15,218.46 414.94,218.66 415.73,218.87 416.52,219.10 417.31,219.34 418.10,219.59 418.89,219.85 419.68,220.13 420.47,220.41 421.26,220.71 422.05,221.02 422.84,221.34 423.62,221.67 424.41,222.02 425.20,222.37 425.99,222.74 426.78,223.11 427.57,223.50 428.36,223.90 429.15,224.30 429.94,224.72 430.73,225.14 431.52,225.58 432.31,226.02 433.10,226.47 433.89,226.93 434.68,227.41 435.47,227.88 436.25,228.37 437.04,228.86 437.83,229.37 438.62,229.87 439.41,230.39 440.20,230.91 440.99,231.45 441.78,231.98 442.57,232.53 443.36,233.07 444.15,233.63 444.94,234.19 445.73,234.76 446.52,235.33 447.31,235.90 448.10,236.48 448.88,237.07 449.67,237.66 450.46,238.25 451.25,238.85 452.04,239.45 452.83,240.06 453.62,240.66 454.41,241.27 455.20,241.89 455.99,242.50 456.78,243.12 457.57,243.74 458.36,244.36 459.15,244.98 459.94,245.61 460.73,246.23 461.52,246.86 462.30,247.48 463.09,248.11 463.88,248.74 464.67,249.36 465.46,249.99 466.25,250.62 467.04,251.25 467.83,251.87 468.62,252.50 469.41,253.12 470.20,253.74 470.99,254.36 471.78,254.98 472.57,255.60 ' style='stroke-width: 1.07; stroke-linecap: butt;' />
<line x1='265.26' y1='311.19' x2='265.26' y2='11.68' style='stroke-width: 1.07; stroke-dasharray: 5.69,5.69; stroke-linecap: butt;' />
</g>
<g clip-path='url(#cpMC4wMHw1MDQuMDB8MC4wMHwzNjAuMDA=)'>
<text x='40.78' y='304.03' text-anchor='end' style='font-size: 18.00px;fill: #4D4D4D; font-family: "Arial";' textLength='10.01px' lengthAdjust='spacingAndGlyphs'>0</text>
<text x='40.78' y='239.59' text-anchor='end' style='font-size: 18.00px;fill: #4D4D4D; font-family: "Arial";' textLength='10.01px' lengthAdjust='spacingAndGlyphs'>1</text>
<text x='40.78' y='175.15' text-anchor='end' style='font-size: 18.00px;fill: #4D4D4D; font-family: "Arial";' textLength='10.01px' lengthAdjust='spacingAndGlyphs'>2</text>
<text x='40.78' y='110.71' text-anchor='end' style='font-size: 18.00px;fill: #4D4D4D; font-family: "Arial";' textLength='10.01px' lengthAdjust='spacingAndGlyphs'>3</text>
<text x='40.78' y='46.27' text-anchor='end' style='font-size: 18.00px;fill: #4D4D4D; font-family: "Arial";' textLength='10.01px' lengthAdjust='spacingAndGlyphs'>4</text>
<text x='73.15' y='329.03' text-anchor='middle' style='font-size: 18.00px;fill: #4D4D4D; font-family: "Arial";' textLength='25.02px' lengthAdjust='spacingAndGlyphs'>3.2</text>
<text x='182.93' y='329.03' text-anchor='middle' style='font-size: 18.00px;fill: #4D4D4D; font-family: "Arial";' textLength='25.02px' lengthAdjust='spacingAndGlyphs'>3.6</text>
<text x='292.70' y='329.03' text-anchor='middle' style='font-size: 18.00px;fill: #4D4D4D; font-family: "Arial";' textLength='25.02px' lengthAdjust='spacingAndGlyphs'>4.0</text>
<text x='402.47' y='329.03' text-anchor='middle' style='font-size: 18.00px;fill: #4D4D4D; font-family: "Arial";' textLength='25.02px' lengthAdjust='spacingAndGlyphs'>4.4</text>
<text x='272.12' y='350.12' text-anchor='middle' style='font-size: 20.00px; font-weight: bold; font-family: "Arial";' textLength='108.87px' lengthAdjust='spacingAndGlyphs'>log (length)</text>
<text transform='translate(22.75,161.43) rotate(-90)' text-anchor='middle' style='font-size: 24.00px; font-weight: bold; font-family: "Arial";' textLength='86.70px' lengthAdjust='spacingAndGlyphs'>Density</text>
<text x='272.12' y='6.20' text-anchor='middle' style='font-size: 0.00px; font-weight: bold; font-family: "Arial";' textLength='13.47px' lengthAdjust='spacingAndGlyphs'>Plasmids length distribution</text>
</g>
</svg>
