/hpc/dla_mm/jkerkvliet/data/gplas/newmodels/results/S_aureus/22_new_gplas_predict/GCF_022406435.1_ASM2240643v1_results/GCF_022406435.1_ASM2240643v1_bin_1.fasta
/hpc/dla_mm/jkerkvliet/data/gplas/newmodels/results/S_aureus/22_new_gplas_predict/GCF_022404655.1_ASM2240465v1_results/GCF_022404655.1_ASM2240465v1_bin_2.fasta
/hpc/dla_mm/jkerkvliet/data/gplas/newmodels/results/S_aureus/22_new_gplas_predict/GCF_022404655.1_ASM2240465v1_results/GCF_022404655.1_ASM2240465v1_bin_1.fasta
/hpc/dla_mm/jkerkvliet/data/gplas/newmodels/results/S_aureus/22_new_gplas_predict/GCF_018409145.1_ASM1840914v1_results/GCF_018409145.1_ASM1840914v1_bin_Unbinned.fasta
/hpc/dla_mm/jkerkvliet/data/gplas/newmodels/results/S_aureus/22_new_gplas_predict/GCF_018409145.1_ASM1840914v1_results/GCF_018409145.1_ASM1840914v1_bin_2.fasta
/hpc/dla_mm/jkerkvliet/data/gplas/newmodels/results/S_aureus/22_new_gplas_predict/GCF_018409145.1_ASM1840914v1_results/GCF_018409145.1_ASM1840914v1_bin_3.fasta
/hpc/dla_mm/jkerkvliet/data/gplas/newmodels/results/S_aureus/22_new_gplas_predict/GCF_018409145.1_ASM1840914v1_results/GCF_018409145.1_ASM1840914v1_bin_1.fasta
/hpc/dla_mm/jkerkvliet/data/gplas/newmodels/results/S_aureus/22_new_gplas_predict/GCF_903932595.1_P3.1_results/GCF_903932595.1_P3.1_bin_2.fasta
/hpc/dla_mm/jkerkvliet/data/gplas/newmodels/results/S_aureus/22_new_gplas_predict/GCF_903932595.1_P3.1_results/GCF_903932595.1_P3.1_bin_1.fasta
/hpc/dla_mm/jkerkvliet/data/gplas/newmodels/results/S_aureus/22_new_gplas_predict/GCF_903932595.1_P3.1_results/GCF_903932595.1_P3.1_bin_Unbinned.fasta
/hpc/dla_mm/jkerkvliet/data/gplas/newmodels/results/S_aureus/22_new_gplas_predict/GCF_022405815.1_ASM2240581v1_results/GCF_022405815.1_ASM2240581v1_bin_1.fasta
/hpc/dla_mm/jkerkvliet/data/gplas/newmodels/results/S_aureus/22_new_gplas_predict/GCF_022405755.1_ASM2240575v1_results/GCF_022405755.1_ASM2240575v1_bin_1.fasta
/hpc/dla_mm/jkerkvliet/data/gplas/newmodels/results/S_aureus/22_new_gplas_predict/GCF_017161095.1_ASM1716109v1_results/GCF_017161095.1_ASM1716109v1_bin_1.fasta
/hpc/dla_mm/jkerkvliet/data/gplas/newmodels/results/S_aureus/22_new_gplas_predict/GCF_017161095.1_ASM1716109v1_results/GCF_017161095.1_ASM1716109v1_bin_2.fasta
/hpc/dla_mm/jkerkvliet/data/gplas/newmodels/results/S_aureus/22_new_gplas_predict/GCF_022405415.1_ASM2240541v1_results/GCF_022405415.1_ASM2240541v1_bin_2.fasta
/hpc/dla_mm/jkerkvliet/data/gplas/newmodels/results/S_aureus/22_new_gplas_predict/GCF_022405415.1_ASM2240541v1_results/GCF_022405415.1_ASM2240541v1_bin_1.fasta
/hpc/dla_mm/jkerkvliet/data/gplas/newmodels/results/S_aureus/22_new_gplas_predict/GCF_022405415.1_ASM2240541v1_results/GCF_022405415.1_ASM2240541v1_bin_3.fasta
/hpc/dla_mm/jkerkvliet/data/gplas/newmodels/results/S_aureus/22_new_gplas_predict/GCF_022405475.1_ASM2240547v1_results/GCF_022405475.1_ASM2240547v1_bin_2.fasta
/hpc/dla_mm/jkerkvliet/data/gplas/newmodels/results/S_aureus/22_new_gplas_predict/GCF_022405475.1_ASM2240547v1_results/GCF_022405475.1_ASM2240547v1_bin_1.fasta
/hpc/dla_mm/jkerkvliet/data/gplas/newmodels/results/S_aureus/22_new_gplas_predict/GCF_022405515.1_ASM2240551v1_results/GCF_022405515.1_ASM2240551v1_bin_1.fasta
/hpc/dla_mm/jkerkvliet/data/gplas/newmodels/results/S_aureus/22_new_gplas_predict/GCF_016591995.1_ASM1659199v1_results/GCF_016591995.1_ASM1659199v1_bin_1.fasta
/hpc/dla_mm/jkerkvliet/data/gplas/newmodels/results/S_aureus/22_new_gplas_predict/GCF_016591995.1_ASM1659199v1_results/GCF_016591995.1_ASM1659199v1_bin_Unbinned.fasta
/hpc/dla_mm/jkerkvliet/data/gplas/newmodels/results/S_aureus/22_new_gplas_predict/GCF_016591995.1_ASM1659199v1_results/GCF_016591995.1_ASM1659199v1_bin_2.fasta
/hpc/dla_mm/jkerkvliet/data/gplas/newmodels/results/S_aureus/22_new_gplas_predict/GCF_022493095.1_ASM2249309v1_results/GCF_022493095.1_ASM2249309v1_bin_2.fasta
/hpc/dla_mm/jkerkvliet/data/gplas/newmodels/results/S_aureus/22_new_gplas_predict/GCF_022493095.1_ASM2249309v1_results/GCF_022493095.1_ASM2249309v1_bin_1.fasta
/hpc/dla_mm/jkerkvliet/data/gplas/newmodels/results/S_aureus/22_new_gplas_predict/GCF_017088385.1_ASM1708838v1_results/GCF_017088385.1_ASM1708838v1_bin_2.fasta
/hpc/dla_mm/jkerkvliet/data/gplas/newmodels/results/S_aureus/22_new_gplas_predict/GCF_017088385.1_ASM1708838v1_results/GCF_017088385.1_ASM1708838v1_bin_1.fasta
/hpc/dla_mm/jkerkvliet/data/gplas/newmodels/results/S_aureus/22_new_gplas_predict/GCF_022405075.1_ASM2240507v1_results/GCF_022405075.1_ASM2240507v1_bin_1.fasta
/hpc/dla_mm/jkerkvliet/data/gplas/newmodels/results/S_aureus/22_new_gplas_predict/GCF_016889145.1_ASM1688914v1_results/GCF_016889145.1_ASM1688914v1_bin_2.fasta
/hpc/dla_mm/jkerkvliet/data/gplas/newmodels/results/S_aureus/22_new_gplas_predict/GCF_016889145.1_ASM1688914v1_results/GCF_016889145.1_ASM1688914v1_bin_3.fasta
/hpc/dla_mm/jkerkvliet/data/gplas/newmodels/results/S_aureus/22_new_gplas_predict/GCF_016889145.1_ASM1688914v1_results/GCF_016889145.1_ASM1688914v1_bin_1.fasta
/hpc/dla_mm/jkerkvliet/data/gplas/newmodels/results/S_aureus/22_new_gplas_predict/GCF_022405455.1_ASM2240545v1_results/GCF_022405455.1_ASM2240545v1_bin_2.fasta
/hpc/dla_mm/jkerkvliet/data/gplas/newmodels/results/S_aureus/22_new_gplas_predict/GCF_022405455.1_ASM2240545v1_results/GCF_022405455.1_ASM2240545v1_bin_1.fasta
/hpc/dla_mm/jkerkvliet/data/gplas/newmodels/results/S_aureus/22_new_gplas_predict/GCF_022405375.1_ASM2240537v1_results/GCF_022405375.1_ASM2240537v1_bin_1.fasta
/hpc/dla_mm/jkerkvliet/data/gplas/newmodels/results/S_aureus/22_new_gplas_predict/GCF_022405375.1_ASM2240537v1_results/GCF_022405375.1_ASM2240537v1_bin_2.fasta
/hpc/dla_mm/jkerkvliet/data/gplas/newmodels/results/S_aureus/22_new_gplas_predict/GCF_013836525.1_ASM1383652v1_results/GCF_013836525.1_ASM1383652v1_bin_1.fasta
/hpc/dla_mm/jkerkvliet/data/gplas/newmodels/results/S_aureus/22_new_gplas_predict/GCF_022405295.1_ASM2240529v1_results/GCF_022405295.1_ASM2240529v1_bin_1.fasta
/hpc/dla_mm/jkerkvliet/data/gplas/newmodels/results/S_aureus/22_new_gplas_predict/GCF_022405895.1_ASM2240589v1_results/GCF_022405895.1_ASM2240589v1_bin_1.fasta
/hpc/dla_mm/jkerkvliet/data/gplas/newmodels/results/S_aureus/22_new_gplas_predict/GCF_019653615.1_ASM1965361v1_results/GCF_019653615.1_ASM1965361v1_bin_2.fasta
/hpc/dla_mm/jkerkvliet/data/gplas/newmodels/results/S_aureus/22_new_gplas_predict/GCF_019653615.1_ASM1965361v1_results/GCF_019653615.1_ASM1965361v1_bin_3.fasta
/hpc/dla_mm/jkerkvliet/data/gplas/newmodels/results/S_aureus/22_new_gplas_predict/GCF_019653615.1_ASM1965361v1_results/GCF_019653615.1_ASM1965361v1_bin_4.fasta
/hpc/dla_mm/jkerkvliet/data/gplas/newmodels/results/S_aureus/22_new_gplas_predict/GCF_019653615.1_ASM1965361v1_results/GCF_019653615.1_ASM1965361v1_bin_1.fasta
/hpc/dla_mm/jkerkvliet/data/gplas/newmodels/results/S_aureus/22_new_gplas_predict/GCF_019653615.1_ASM1965361v1_results/GCF_019653615.1_ASM1965361v1_bin_Unbinned.fasta
/hpc/dla_mm/jkerkvliet/data/gplas/newmodels/results/S_aureus/22_new_gplas_predict/GCF_022369695.1_ASM2236969v1_results/GCF_022369695.1_ASM2236969v1_bin_1.fasta
/hpc/dla_mm/jkerkvliet/data/gplas/newmodels/results/S_aureus/22_new_gplas_predict/GCF_022404775.1_ASM2240477v1_results/GCF_022404775.1_ASM2240477v1_bin_1.fasta
/hpc/dla_mm/jkerkvliet/data/gplas/newmodels/results/S_aureus/22_new_gplas_predict/GCF_022404775.1_ASM2240477v1_results/GCF_022404775.1_ASM2240477v1_bin_2.fasta
/hpc/dla_mm/jkerkvliet/data/gplas/newmodels/results/S_aureus/22_new_gplas_predict/GCF_022405535.1_ASM2240553v1_results/GCF_022405535.1_ASM2240553v1_bin_1.fasta
/hpc/dla_mm/jkerkvliet/data/gplas/newmodels/results/S_aureus/22_new_gplas_predict/GCF_022405535.1_ASM2240553v1_results/GCF_022405535.1_ASM2240553v1_bin_Unbinned.fasta
/hpc/dla_mm/jkerkvliet/data/gplas/newmodels/results/S_aureus/22_new_gplas_predict/GCF_022405315.1_ASM2240531v1_results/GCF_022405315.1_ASM2240531v1_bin_1.fasta
/hpc/dla_mm/jkerkvliet/data/gplas/newmodels/results/S_aureus/22_new_gplas_predict/GCF_016727585.1_ASM1672758v1_results/GCF_016727585.1_ASM1672758v1_bin_1.fasta
/hpc/dla_mm/jkerkvliet/data/gplas/newmodels/results/S_aureus/22_new_gplas_predict/GCF_022405595.1_ASM2240559v1_results/GCF_022405595.1_ASM2240559v1_bin_1.fasta
/hpc/dla_mm/jkerkvliet/data/gplas/newmodels/results/S_aureus/22_new_gplas_predict/GCF_022405595.1_ASM2240559v1_results/GCF_022405595.1_ASM2240559v1_bin_2.fasta
/hpc/dla_mm/jkerkvliet/data/gplas/newmodels/results/S_aureus/22_new_gplas_predict/GCF_022405655.1_ASM2240565v1_results/GCF_022405655.1_ASM2240565v1_bin_1.fasta
/hpc/dla_mm/jkerkvliet/data/gplas/newmodels/results/S_aureus/22_new_gplas_predict/GCF_016894285.1_ASM1689428v1_results/GCF_016894285.1_ASM1689428v1_bin_1.fasta
/hpc/dla_mm/jkerkvliet/data/gplas/newmodels/results/S_aureus/22_new_gplas_predict/GCF_022405915.1_ASM2240591v1_results/GCF_022405915.1_ASM2240591v1_bin_1.fasta
/hpc/dla_mm/jkerkvliet/data/gplas/newmodels/results/S_aureus/22_new_gplas_predict/GCF_018135565.1_ASM1813556v1_results/GCF_018135565.1_ASM1813556v1_bin_1.fasta
/hpc/dla_mm/jkerkvliet/data/gplas/newmodels/results/S_aureus/22_new_gplas_predict/GCF_018135565.1_ASM1813556v1_results/GCF_018135565.1_ASM1813556v1_bin_2.fasta
/hpc/dla_mm/jkerkvliet/data/gplas/newmodels/results/S_aureus/22_new_gplas_predict/GCF_022405255.1_ASM2240525v1_results/GCF_022405255.1_ASM2240525v1_bin_1.fasta
/hpc/dla_mm/jkerkvliet/data/gplas/newmodels/results/S_aureus/22_new_gplas_predict/GCF_013008375.1_ASM1300837v1_results/GCF_013008375.1_ASM1300837v1_bin_1.fasta
/hpc/dla_mm/jkerkvliet/data/gplas/newmodels/results/S_aureus/22_new_gplas_predict/GCF_013008375.1_ASM1300837v1_results/GCF_013008375.1_ASM1300837v1_bin_Unbinned.fasta
/hpc/dla_mm/jkerkvliet/data/gplas/newmodels/results/S_aureus/22_new_gplas_predict/GCF_022405435.1_ASM2240543v1_results/GCF_022405435.1_ASM2240543v1_bin_1.fasta
/hpc/dla_mm/jkerkvliet/data/gplas/newmodels/results/S_aureus/22_new_gplas_predict/GCF_016889945.1_ASM1688994v1_results/GCF_016889945.1_ASM1688994v1_bin_3.fasta
/hpc/dla_mm/jkerkvliet/data/gplas/newmodels/results/S_aureus/22_new_gplas_predict/GCF_016889945.1_ASM1688994v1_results/GCF_016889945.1_ASM1688994v1_bin_2.fasta
/hpc/dla_mm/jkerkvliet/data/gplas/newmodels/results/S_aureus/22_new_gplas_predict/GCF_016889945.1_ASM1688994v1_results/GCF_016889945.1_ASM1688994v1_bin_1.fasta
/hpc/dla_mm/jkerkvliet/data/gplas/newmodels/results/S_aureus/22_new_gplas_predict/GCF_022405055.1_ASM2240505v1_results/GCF_022405055.1_ASM2240505v1_bin_1.fasta
/hpc/dla_mm/jkerkvliet/data/gplas/newmodels/results/S_aureus/22_new_gplas_predict/GCF_017088305.1_ASM1708830v1_results/GCF_017088305.1_ASM1708830v1_bin_1.fasta
/hpc/dla_mm/jkerkvliet/data/gplas/newmodels/results/S_aureus/22_new_gplas_predict/GCF_017088305.1_ASM1708830v1_results/GCF_017088305.1_ASM1708830v1_bin_2.fasta
/hpc/dla_mm/jkerkvliet/data/gplas/newmodels/results/S_aureus/22_new_gplas_predict/GCF_022404735.1_ASM2240473v1_results/GCF_022404735.1_ASM2240473v1_bin_1.fasta
/hpc/dla_mm/jkerkvliet/data/gplas/newmodels/results/S_aureus/22_new_gplas_predict/GCF_022404635.1_ASM2240463v1_results/GCF_022404635.1_ASM2240463v1_bin_1.fasta
/hpc/dla_mm/jkerkvliet/data/gplas/newmodels/results/S_aureus/22_new_gplas_predict/GCF_022404635.1_ASM2240463v1_results/GCF_022404635.1_ASM2240463v1_bin_2.fasta
/hpc/dla_mm/jkerkvliet/data/gplas/newmodels/results/S_aureus/22_new_gplas_predict/GCF_022405355.1_ASM2240535v1_results/GCF_022405355.1_ASM2240535v1_bin_1.fasta
/hpc/dla_mm/jkerkvliet/data/gplas/newmodels/results/S_aureus/22_new_gplas_predict/GCF_022405355.1_ASM2240535v1_results/GCF_022405355.1_ASM2240535v1_bin_2.fasta
/hpc/dla_mm/jkerkvliet/data/gplas/newmodels/results/S_aureus/22_new_gplas_predict/GCF_022405575.1_ASM2240557v1_results/GCF_022405575.1_ASM2240557v1_bin_1.fasta
/hpc/dla_mm/jkerkvliet/data/gplas/newmodels/results/S_aureus/22_new_gplas_predict/GCF_022405575.1_ASM2240557v1_results/GCF_022405575.1_ASM2240557v1_bin_2.fasta
/hpc/dla_mm/jkerkvliet/data/gplas/newmodels/results/S_aureus/22_new_gplas_predict/GCF_018141385.1_ASM1814138v1_results/GCF_018141385.1_ASM1814138v1_bin_1.fasta
/hpc/dla_mm/jkerkvliet/data/gplas/newmodels/results/S_aureus/22_new_gplas_predict/GCF_018093225.1_ASM1809322v1_results/GCF_018093225.1_ASM1809322v1_bin_Unbinned.fasta
/hpc/dla_mm/jkerkvliet/data/gplas/newmodels/results/S_aureus/22_new_gplas_predict/GCF_018093225.1_ASM1809322v1_results/GCF_018093225.1_ASM1809322v1_bin_2.fasta
/hpc/dla_mm/jkerkvliet/data/gplas/newmodels/results/S_aureus/22_new_gplas_predict/GCF_018093225.1_ASM1809322v1_results/GCF_018093225.1_ASM1809322v1_bin_3.fasta
/hpc/dla_mm/jkerkvliet/data/gplas/newmodels/results/S_aureus/22_new_gplas_predict/GCF_018093225.1_ASM1809322v1_results/GCF_018093225.1_ASM1809322v1_bin_1.fasta
/hpc/dla_mm/jkerkvliet/data/gplas/newmodels/results/S_aureus/22_new_gplas_predict/GCF_022404715.1_ASM2240471v1_results/GCF_022404715.1_ASM2240471v1_bin_1.fasta
/hpc/dla_mm/jkerkvliet/data/gplas/newmodels/results/S_aureus/22_new_gplas_predict/GCF_022404595.1_ASM2240459v1_results/GCF_022404595.1_ASM2240459v1_bin_1.fasta
/hpc/dla_mm/jkerkvliet/data/gplas/newmodels/results/S_aureus/22_new_gplas_predict/GCF_021869805.1_ASM2186980v1_results/GCF_021869805.1_ASM2186980v1_bin_1.fasta
/hpc/dla_mm/jkerkvliet/data/gplas/newmodels/results/S_aureus/22_new_gplas_predict/GCF_022405495.1_ASM2240549v1_results/GCF_022405495.1_ASM2240549v1_bin_1.fasta
/hpc/dla_mm/jkerkvliet/data/gplas/newmodels/results/S_aureus/22_new_gplas_predict/GCF_022404675.1_ASM2240467v1_results/GCF_022404675.1_ASM2240467v1_bin_1.fasta
/hpc/dla_mm/jkerkvliet/data/gplas/newmodels/results/S_aureus/22_new_gplas_predict/GCF_022404675.1_ASM2240467v1_results/GCF_022404675.1_ASM2240467v1_bin_2.fasta
/hpc/dla_mm/jkerkvliet/data/gplas/newmodels/results/S_aureus/22_new_gplas_predict/GCF_022404675.1_ASM2240467v1_results/GCF_022404675.1_ASM2240467v1_bin_3.fasta
/hpc/dla_mm/jkerkvliet/data/gplas/newmodels/results/S_aureus/22_new_gplas_predict/GCF_022404615.1_ASM2240461v1_results/GCF_022404615.1_ASM2240461v1_bin_2.fasta
/hpc/dla_mm/jkerkvliet/data/gplas/newmodels/results/S_aureus/22_new_gplas_predict/GCF_022404615.1_ASM2240461v1_results/GCF_022404615.1_ASM2240461v1_bin_1.fasta
/hpc/dla_mm/jkerkvliet/data/gplas/newmodels/results/S_aureus/22_new_gplas_predict/GCF_022405335.1_ASM2240533v1_results/GCF_022405335.1_ASM2240533v1_bin_Unbinned.fasta
/hpc/dla_mm/jkerkvliet/data/gplas/newmodels/results/S_aureus/22_new_gplas_predict/GCF_022405335.1_ASM2240533v1_results/GCF_022405335.1_ASM2240533v1_bin_1.fasta
/hpc/dla_mm/jkerkvliet/data/gplas/newmodels/results/S_aureus/22_new_gplas_predict/GCF_022369595.1_ASM2236959v1_results/GCF_022369595.1_ASM2236959v1_bin_1.fasta
/hpc/dla_mm/jkerkvliet/data/gplas/newmodels/results/S_aureus/22_new_gplas_predict/GCF_022369595.1_ASM2236959v1_results/GCF_022369595.1_ASM2236959v1_bin_2.fasta
/hpc/dla_mm/jkerkvliet/data/gplas/newmodels/results/S_aureus/22_new_gplas_predict/GCF_022369595.1_ASM2236959v1_results/GCF_022369595.1_ASM2236959v1_bin_3.fasta
/hpc/dla_mm/jkerkvliet/data/gplas/newmodels/results/S_aureus/22_new_gplas_predict/GCF_022405935.1_ASM2240593v1_results/GCF_022405935.1_ASM2240593v1_bin_1.fasta
/hpc/dla_mm/jkerkvliet/data/gplas/newmodels/results/S_aureus/22_new_gplas_predict/GCF_022405555.1_ASM2240555v1_results/GCF_022405555.1_ASM2240555v1_bin_2.fasta
/hpc/dla_mm/jkerkvliet/data/gplas/newmodels/results/S_aureus/22_new_gplas_predict/GCF_022405555.1_ASM2240555v1_results/GCF_022405555.1_ASM2240555v1_bin_1.fasta
/hpc/dla_mm/jkerkvliet/data/gplas/newmodels/results/S_aureus/22_new_gplas_predict/GCF_022404575.1_ASM2240457v1_results/GCF_022404575.1_ASM2240457v1_bin_2.fasta
/hpc/dla_mm/jkerkvliet/data/gplas/newmodels/results/S_aureus/22_new_gplas_predict/GCF_022404575.1_ASM2240457v1_results/GCF_022404575.1_ASM2240457v1_bin_1.fasta
/hpc/dla_mm/jkerkvliet/data/gplas/newmodels/results/S_aureus/22_new_gplas_predict/GCF_022405855.1_ASM2240585v1_results/GCF_022405855.1_ASM2240585v1_bin_1.fasta
/hpc/dla_mm/jkerkvliet/data/gplas/newmodels/results/S_aureus/22_new_gplas_predict/GCF_022405395.1_ASM2240539v1_results/GCF_022405395.1_ASM2240539v1_bin_2.fasta
/hpc/dla_mm/jkerkvliet/data/gplas/newmodels/results/S_aureus/22_new_gplas_predict/GCF_022405395.1_ASM2240539v1_results/GCF_022405395.1_ASM2240539v1_bin_1.fasta
/hpc/dla_mm/jkerkvliet/data/gplas/newmodels/results/S_aureus/22_new_gplas_predict/GCF_022404695.1_ASM2240469v1_results/GCF_022404695.1_ASM2240469v1_bin_1.fasta
/hpc/dla_mm/jkerkvliet/data/gplas/newmodels/results/S_aureus/22_new_gplas_predict/GCF_013836745.1_ASM1383674v1_results/GCF_013836745.1_ASM1383674v1_bin_1.fasta
/hpc/dla_mm/jkerkvliet/data/gplas/newmodels/results/S_aureus/22_new_gplas_predict/GCF_013836745.1_ASM1383674v1_results/GCF_013836745.1_ASM1383674v1_bin_2.fasta
/hpc/dla_mm/jkerkvliet/data/gplas/newmodels/results/S_aureus/22_new_gplas_predict/GCF_022404755.1_ASM2240475v1_results/GCF_022404755.1_ASM2240475v1_bin_1.fasta
/hpc/dla_mm/jkerkvliet/data/gplas/newmodels/results/S_aureus/22_new_gplas_predict/GCF_022405145.1_ASM2240514v1_results/GCF_022405145.1_ASM2240514v1_bin_1.fasta
/hpc/dla_mm/jkerkvliet/data/gplas/newmodels/results/S_aureus/22_new_gplas_predict/GCF_022405835.1_ASM2240583v1_results/GCF_022405835.1_ASM2240583v1_bin_1.fasta
/hpc/dla_mm/jkerkvliet/data/gplas/newmodels/results/S_aureus/22_new_gplas_predict/GCF_022405205.1_ASM2240520v1_results/GCF_022405205.1_ASM2240520v1_bin_1.fasta
/hpc/dla_mm/jkerkvliet/data/gplas/newmodels/results/S_aureus/22_new_gplas_predict/GCF_022406035.1_ASM2240603v1_results/GCF_022406035.1_ASM2240603v1_bin_1.fasta
/hpc/dla_mm/jkerkvliet/data/gplas/newmodels/results/S_aureus/22_new_gplas_predict/GCF_903932605.1_HU-14_results/GCF_903932605.1_HU-14_bin_1.fasta
/hpc/dla_mm/jkerkvliet/data/gplas/newmodels/results/S_aureus/22_new_gplas_predict/GCF_903932605.1_HU-14_results/GCF_903932605.1_HU-14_bin_Unbinned.fasta
/hpc/dla_mm/jkerkvliet/data/gplas/newmodels/results/S_aureus/22_new_gplas_predict/GCF_903932605.1_HU-14_results/GCF_903932605.1_HU-14_bin_2.fasta
/hpc/dla_mm/jkerkvliet/data/gplas/newmodels/results/S_aureus/22_new_gplas_predict/GCF_022405235.1_ASM2240523v1_results/GCF_022405235.1_ASM2240523v1_bin_1.fasta
/hpc/dla_mm/jkerkvliet/data/gplas/newmodels/results/S_aureus/22_new_gplas_predict/GCF_015475575.1_ASM1547557v1_results/GCF_015475575.1_ASM1547557v1_bin_1.fasta
/hpc/dla_mm/jkerkvliet/data/gplas/newmodels/results/S_aureus/22_new_gplas_predict/GCF_015475575.1_ASM1547557v1_results/GCF_015475575.1_ASM1547557v1_bin_Unbinned.fasta
/hpc/dla_mm/jkerkvliet/data/gplas/newmodels/results/S_aureus/22_new_gplas_predict/GCF_022405615.1_ASM2240561v1_results/GCF_022405615.1_ASM2240561v1_bin_1.fasta
/hpc/dla_mm/jkerkvliet/data/gplas/newmodels/results/S_aureus/22_new_gplas_predict/GCF_022405615.1_ASM2240561v1_results/GCF_022405615.1_ASM2240561v1_bin_2.fasta
/hpc/dla_mm/jkerkvliet/data/gplas/newmodels/results/S_aureus/22_new_gplas_predict/GCF_022405275.1_ASM2240527v1_results/GCF_022405275.1_ASM2240527v1_bin_1.fasta
/hpc/dla_mm/jkerkvliet/data/gplas/newmodels/results/S_aureus/22_new_gplas_predict/GCF_022405275.1_ASM2240527v1_results/GCF_022405275.1_ASM2240527v1_bin_2.fasta
/hpc/dla_mm/jkerkvliet/data/gplas/newmodels/results/S_aureus/22_new_gplas_predict/GCF_022405185.1_ASM2240518v1_results/GCF_022405185.1_ASM2240518v1_bin_1.fasta
/hpc/dla_mm/jkerkvliet/data/gplas/newmodels/results/S_aureus/22_new_gplas_predict/GCF_022405185.1_ASM2240518v1_results/GCF_022405185.1_ASM2240518v1_bin_2.fasta
/hpc/dla_mm/jkerkvliet/data/gplas/newmodels/results/S_aureus/22_new_gplas_predict/GCF_022405185.1_ASM2240518v1_results/GCF_022405185.1_ASM2240518v1_bin_3.fasta
/hpc/dla_mm/jkerkvliet/data/gplas/newmodels/results/S_aureus/22_new_gplas_predict/GCF_022226995.1_ASM2222699v1_results/GCF_022226995.1_ASM2222699v1_bin_2.fasta
/hpc/dla_mm/jkerkvliet/data/gplas/newmodels/results/S_aureus/22_new_gplas_predict/GCF_022226995.1_ASM2222699v1_results/GCF_022226995.1_ASM2222699v1_bin_Unbinned.fasta
/hpc/dla_mm/jkerkvliet/data/gplas/newmodels/results/S_aureus/22_new_gplas_predict/GCF_022226995.1_ASM2222699v1_results/GCF_022226995.1_ASM2222699v1_bin_1.fasta
