<?xml version='1.0' encoding='UTF-8' ?>
<svg xmlns='http://www.w3.org/2000/svg' xmlns:xlink='http://www.w3.org/1999/xlink' class='svglite' width='504.00pt' height='360.00pt' viewBox='0 0 504.00 360.00'>
<defs>
  <style type='text/css'><![CDATA[
    .svglite line, .svglite polyline, .svglite polygon, .svglite path, .svglite rect, .svglite circle {
      fill: none;
      stroke: #000000;
      stroke-linecap: round;
      stroke-linejoin: round;
      stroke-miterlimit: 10.00;
    }
    .svglite text {
      white-space: pre;
    }
  ]]></style>
</defs>
<rect width='100%' height='100%' style='stroke: none; fill: #FFFFFF;'/>
<defs>
  <clipPath id='cpMC4wMHw1MDQuMDB8MC4wMHwzNjAuMDA='>
    <rect x='0.00' y='0.00' width='504.00' height='360.00' />
  </clipPath>
</defs>
<g clip-path='url(#cpMC4wMHw1MDQuMDB8MC4wMHwzNjAuMDA=)'>
</g>
<defs>
  <clipPath id='cpODUuNTh8MzkxLjQwfDUuNDh8MzI4LjI1'>
    <rect x='85.58' y='5.48' width='305.83' height='322.77' />
  </clipPath>
</defs>
<g clip-path='url(#cpODUuNTh8MzkxLjQwfDUuNDh8MzI4LjI1)'>
<polyline points='134.23,328.25 134.23,5.48 ' style='stroke-width: 0.53; stroke: #EBEBEB; stroke-linecap: butt;' />
<polyline points='203.74,328.25 203.74,5.48 ' style='stroke-width: 0.53; stroke: #EBEBEB; stroke-linecap: butt;' />
<polyline points='273.24,328.25 273.24,5.48 ' style='stroke-width: 0.53; stroke: #EBEBEB; stroke-linecap: butt;' />
<polyline points='342.75,328.25 342.75,5.48 ' style='stroke-width: 0.53; stroke: #EBEBEB; stroke-linecap: butt;' />
<polyline points='85.58,238.59 391.40,238.59 ' style='stroke-width: 1.07; stroke: #EBEBEB; stroke-linecap: butt;' />
<polyline points='85.58,148.93 391.40,148.93 ' style='stroke-width: 1.07; stroke: #EBEBEB; stroke-linecap: butt;' />
<polyline points='85.58,59.27 391.40,59.27 ' style='stroke-width: 1.07; stroke: #EBEBEB; stroke-linecap: butt;' />
<polyline points='99.48,328.25 99.48,5.48 ' style='stroke-width: 1.07; stroke: #EBEBEB; stroke-linecap: butt;' />
<polyline points='168.98,328.25 168.98,5.48 ' style='stroke-width: 1.07; stroke: #EBEBEB; stroke-linecap: butt;' />
<polyline points='238.49,328.25 238.49,5.48 ' style='stroke-width: 1.07; stroke: #EBEBEB; stroke-linecap: butt;' />
<polyline points='307.99,328.25 307.99,5.48 ' style='stroke-width: 1.07; stroke: #EBEBEB; stroke-linecap: butt;' />
<polyline points='377.50,328.25 377.50,5.48 ' style='stroke-width: 1.07; stroke: #EBEBEB; stroke-linecap: butt;' />
<line x1='238.49' y1='328.25' x2='238.49' y2='5.48' style='stroke-width: 1.07; stroke-linecap: butt;' />
<circle cx='307.99' cy='238.59' r='1.95' style='stroke-width: 0.71; stroke: #00FF93; fill: #00FF93;' />
<circle cx='321.90' cy='238.59' r='1.95' style='stroke-width: 0.71; stroke: #00FF93; fill: #00FF93;' />
<circle cx='252.39' cy='238.59' r='1.95' style='stroke-width: 0.71; stroke: #00FF93; fill: #00FF93;' />
<circle cx='224.59' cy='238.59' r='1.95' style='stroke-width: 0.71; stroke: #00FF93; fill: #00FF93;' />
<circle cx='224.59' cy='238.59' r='1.95' style='stroke-width: 0.71; stroke: #00FF93; fill: #00FF93;' />
<line x1='238.49' y1='238.59' x2='238.49' y2='238.59' style='stroke-width: 1.07; stroke: #00FF93; stroke-linecap: butt;' />
<line x1='238.49' y1='238.59' x2='238.49' y2='238.59' style='stroke-width: 1.07; stroke: #00FF93; stroke-linecap: butt;' />
<polygon points='238.49,272.21 238.49,272.21 238.49,204.97 238.49,204.97 238.49,272.21 ' style='stroke-width: 1.07; stroke: #00FF93; stroke-linecap: butt; stroke-linejoin: miter; fill: #FFFFFF;' />
<line x1='238.49' y1='272.21' x2='238.49' y2='204.97' style='stroke-width: 2.13; stroke: #00FF93; stroke-linecap: butt; stroke-linejoin: miter;' />
<circle cx='252.39' cy='148.93' r='1.95' style='stroke-width: 0.71; stroke: #FFC300; fill: #FFC300;' />
<circle cx='224.59' cy='148.93' r='1.95' style='stroke-width: 0.71; stroke: #FFC300; fill: #FFC300;' />
<circle cx='224.59' cy='148.93' r='1.95' style='stroke-width: 0.71; stroke: #FFC300; fill: #FFC300;' />
<circle cx='252.39' cy='148.93' r='1.95' style='stroke-width: 0.71; stroke: #FFC300; fill: #FFC300;' />
<circle cx='252.39' cy='148.93' r='1.95' style='stroke-width: 0.71; stroke: #FFC300; fill: #FFC300;' />
<line x1='238.49' y1='148.93' x2='238.49' y2='148.93' style='stroke-width: 1.07; stroke: #FFC300; stroke-linecap: butt;' />
<line x1='238.49' y1='148.93' x2='238.49' y2='148.93' style='stroke-width: 1.07; stroke: #FFC300; stroke-linecap: butt;' />
<polygon points='238.49,182.56 238.49,182.56 238.49,115.31 238.49,115.31 238.49,182.56 ' style='stroke-width: 1.07; stroke: #FFC300; stroke-linecap: butt; stroke-linejoin: miter; fill: #FFFFFF;' />
<line x1='238.49' y1='182.56' x2='238.49' y2='115.31' style='stroke-width: 2.13; stroke: #FFC300; stroke-linecap: butt; stroke-linejoin: miter;' />
<circle cx='224.59' cy='59.27' r='1.95' style='stroke-width: 0.71; stroke: #F11212; fill: #F11212;' />
<circle cx='266.29' cy='59.27' r='1.95' style='stroke-width: 0.71; stroke: #F11212; fill: #F11212;' />
<circle cx='252.39' cy='59.27' r='1.95' style='stroke-width: 0.71; stroke: #F11212; fill: #F11212;' />
<circle cx='224.59' cy='59.27' r='1.95' style='stroke-width: 0.71; stroke: #F11212; fill: #F11212;' />
<circle cx='224.59' cy='59.27' r='1.95' style='stroke-width: 0.71; stroke: #F11212; fill: #F11212;' />
<circle cx='182.88' cy='59.27' r='1.95' style='stroke-width: 0.71; stroke: #F11212; fill: #F11212;' />
<circle cx='155.08' cy='59.27' r='1.95' style='stroke-width: 0.71; stroke: #F11212; fill: #F11212;' />
<circle cx='224.59' cy='59.27' r='1.95' style='stroke-width: 0.71; stroke: #F11212; fill: #F11212;' />
<line x1='238.49' y1='59.27' x2='238.49' y2='59.27' style='stroke-width: 1.07; stroke: #F11212; stroke-linecap: butt;' />
<line x1='238.49' y1='59.27' x2='238.49' y2='59.27' style='stroke-width: 1.07; stroke: #F11212; stroke-linecap: butt;' />
<polygon points='238.49,92.90 238.49,92.90 238.49,25.65 238.49,25.65 238.49,92.90 ' style='stroke-width: 1.07; stroke: #F11212; stroke-linecap: butt; stroke-linejoin: miter; fill: #FFFFFF;' />
<line x1='238.49' y1='92.90' x2='238.49' y2='25.65' style='stroke-width: 2.13; stroke: #F11212; stroke-linecap: butt; stroke-linejoin: miter;' />
<circle cx='242.74' cy='215.50' r='1.95' style='stroke-width: 0.71; stroke: #00FF93; fill: #00FF93;' />
<circle cx='234.75' cy='222.50' r='1.95' style='stroke-width: 0.71; stroke: #00FF93; fill: #00FF93;' />
<circle cx='240.54' cy='273.31' r='1.95' style='stroke-width: 0.71; stroke: #00FF93; fill: #00FF93;' />
<circle cx='233.98' cy='209.80' r='1.95' style='stroke-width: 0.71; stroke: #00FF93; fill: #00FF93;' />
<circle cx='239.72' cy='221.00' r='1.95' style='stroke-width: 0.71; stroke: #00FF93; fill: #00FF93;' />
<circle cx='237.90' cy='243.66' r='1.95' style='stroke-width: 0.71; stroke: #00FF93; fill: #00FF93;' />
<circle cx='239.96' cy='267.20' r='1.95' style='stroke-width: 0.71; stroke: #00FF93; fill: #00FF93;' />
<circle cx='236.90' cy='208.55' r='1.95' style='stroke-width: 0.71; stroke: #00FF93; fill: #00FF93;' />
<circle cx='242.04' cy='225.37' r='1.95' style='stroke-width: 0.71; stroke: #00FF93; fill: #00FF93;' />
<circle cx='237.75' cy='266.86' r='1.95' style='stroke-width: 0.71; stroke: #00FF93; fill: #00FF93;' />
<circle cx='306.48' cy='257.08' r='1.95' style='stroke-width: 0.71; stroke: #00FF93; fill: #00FF93;' />
<circle cx='322.55' cy='252.31' r='1.95' style='stroke-width: 0.71; stroke: #00FF93; fill: #00FF93;' />
<circle cx='240.23' cy='224.58' r='1.95' style='stroke-width: 0.71; stroke: #00FF93; fill: #00FF93;' />
<circle cx='255.86' cy='236.87' r='1.95' style='stroke-width: 0.71; stroke: #00FF93; fill: #00FF93;' />
<circle cx='238.37' cy='237.09' r='1.95' style='stroke-width: 0.71; stroke: #00FF93; fill: #00FF93;' />
<circle cx='243.15' cy='267.01' r='1.95' style='stroke-width: 0.71; stroke: #00FF93; fill: #00FF93;' />
<circle cx='221.57' cy='233.78' r='1.95' style='stroke-width: 0.71; stroke: #00FF93; fill: #00FF93;' />
<circle cx='239.28' cy='262.16' r='1.95' style='stroke-width: 0.71; stroke: #00FF93; fill: #00FF93;' />
<circle cx='243.82' cy='235.85' r='1.95' style='stroke-width: 0.71; stroke: #00FF93; fill: #00FF93;' />
<circle cx='221.70' cy='234.82' r='1.95' style='stroke-width: 0.71; stroke: #00FF93; fill: #00FF93;' />
<circle cx='240.83' cy='243.36' r='1.95' style='stroke-width: 0.71; stroke: #00FF93; fill: #00FF93;' />
<circle cx='242.92' cy='226.45' r='1.95' style='stroke-width: 0.71; stroke: #00FF93; fill: #00FF93;' />
<circle cx='243.90' cy='248.18' r='1.95' style='stroke-width: 0.71; stroke: #00FF93; fill: #00FF93;' />
<circle cx='243.76' cy='255.48' r='1.95' style='stroke-width: 0.71; stroke: #00FF93; fill: #00FF93;' />
<circle cx='235.63' cy='226.31' r='1.95' style='stroke-width: 0.71; stroke: #00FF93; fill: #00FF93;' />
<circle cx='233.94' cy='116.51' r='1.95' style='stroke-width: 0.71; stroke: #FFC300; fill: #FFC300;' />
<circle cx='237.03' cy='120.74' r='1.95' style='stroke-width: 0.71; stroke: #FFC300; fill: #FFC300;' />
<circle cx='233.97' cy='162.05' r='1.95' style='stroke-width: 0.71; stroke: #FFC300; fill: #FFC300;' />
<circle cx='237.36' cy='180.12' r='1.95' style='stroke-width: 0.71; stroke: #FFC300; fill: #FFC300;' />
<circle cx='233.30' cy='146.77' r='1.95' style='stroke-width: 0.71; stroke: #FFC300; fill: #FFC300;' />
<circle cx='242.50' cy='175.30' r='1.95' style='stroke-width: 0.71; stroke: #FFC300; fill: #FFC300;' />
<circle cx='236.98' cy='184.09' r='1.95' style='stroke-width: 0.71; stroke: #FFC300; fill: #FFC300;' />
<circle cx='243.84' cy='144.18' r='1.95' style='stroke-width: 0.71; stroke: #FFC300; fill: #FFC300;' />
<circle cx='240.08' cy='181.27' r='1.95' style='stroke-width: 0.71; stroke: #FFC300; fill: #FFC300;' />
<circle cx='239.15' cy='160.16' r='1.95' style='stroke-width: 0.71; stroke: #FFC300; fill: #FFC300;' />
<circle cx='243.56' cy='146.97' r='1.95' style='stroke-width: 0.71; stroke: #FFC300; fill: #FFC300;' />
<circle cx='241.36' cy='119.98' r='1.95' style='stroke-width: 0.71; stroke: #FFC300; fill: #FFC300;' />
<circle cx='244.03' cy='159.60' r='1.95' style='stroke-width: 0.71; stroke: #FFC300; fill: #FFC300;' />
<circle cx='240.31' cy='137.82' r='1.95' style='stroke-width: 0.71; stroke: #FFC300; fill: #FFC300;' />
<circle cx='237.68' cy='125.10' r='1.95' style='stroke-width: 0.71; stroke: #FFC300; fill: #FFC300;' />
<circle cx='233.21' cy='180.44' r='1.95' style='stroke-width: 0.71; stroke: #FFC300; fill: #FFC300;' />
<circle cx='233.62' cy='134.80' r='1.95' style='stroke-width: 0.71; stroke: #FFC300; fill: #FFC300;' />
<circle cx='254.38' cy='148.79' r='1.95' style='stroke-width: 0.71; stroke: #FFC300; fill: #FFC300;' />
<circle cx='242.79' cy='148.75' r='1.95' style='stroke-width: 0.71; stroke: #FFC300; fill: #FFC300;' />
<circle cx='243.08' cy='148.17' r='1.95' style='stroke-width: 0.71; stroke: #FFC300; fill: #FFC300;' />
<circle cx='221.63' cy='145.29' r='1.95' style='stroke-width: 0.71; stroke: #FFC300; fill: #FFC300;' />
<circle cx='241.69' cy='151.39' r='1.95' style='stroke-width: 0.71; stroke: #FFC300; fill: #FFC300;' />
<circle cx='233.56' cy='183.81' r='1.95' style='stroke-width: 0.71; stroke: #FFC300; fill: #FFC300;' />
<circle cx='221.41' cy='178.87' r='1.95' style='stroke-width: 0.71; stroke: #FFC300; fill: #FFC300;' />
<circle cx='241.82' cy='151.88' r='1.95' style='stroke-width: 0.71; stroke: #FFC300; fill: #FFC300;' />
<circle cx='251.12' cy='164.51' r='1.95' style='stroke-width: 0.71; stroke: #FFC300; fill: #FFC300;' />
<circle cx='233.99' cy='118.41' r='1.95' style='stroke-width: 0.71; stroke: #FFC300; fill: #FFC300;' />
<circle cx='249.63' cy='178.64' r='1.95' style='stroke-width: 0.71; stroke: #FFC300; fill: #FFC300;' />
<circle cx='241.34' cy='132.79' r='1.95' style='stroke-width: 0.71; stroke: #FFC300; fill: #FFC300;' />
<circle cx='241.30' cy='70.07' r='1.95' style='stroke-width: 0.71; stroke: #F11212; fill: #F11212;' />
<circle cx='233.72' cy='39.39' r='1.95' style='stroke-width: 0.71; stroke: #F11212; fill: #F11212;' />
<circle cx='233.06' cy='23.98' r='1.95' style='stroke-width: 0.71; stroke: #F11212; fill: #F11212;' />
<circle cx='234.74' cy='73.54' r='1.95' style='stroke-width: 0.71; stroke: #F11212; fill: #F11212;' />
<circle cx='243.33' cy='33.10' r='1.95' style='stroke-width: 0.71; stroke: #F11212; fill: #F11212;' />
<circle cx='233.56' cy='24.24' r='1.95' style='stroke-width: 0.71; stroke: #F11212; fill: #F11212;' />
<circle cx='243.08' cy='85.55' r='1.95' style='stroke-width: 0.71; stroke: #F11212; fill: #F11212;' />
<circle cx='242.48' cy='54.55' r='1.95' style='stroke-width: 0.71; stroke: #F11212; fill: #F11212;' />
<circle cx='226.46' cy='88.70' r='1.95' style='stroke-width: 0.71; stroke: #F11212; fill: #F11212;' />
<circle cx='242.85' cy='89.97' r='1.95' style='stroke-width: 0.71; stroke: #F11212; fill: #F11212;' />
<circle cx='236.40' cy='33.93' r='1.95' style='stroke-width: 0.71; stroke: #F11212; fill: #F11212;' />
<circle cx='237.91' cy='87.84' r='1.95' style='stroke-width: 0.71; stroke: #F11212; fill: #F11212;' />
<circle cx='260.90' cy='68.98' r='1.95' style='stroke-width: 0.71; stroke: #F11212; fill: #F11212;' />
<circle cx='256.60' cy='52.46' r='1.95' style='stroke-width: 0.71; stroke: #F11212; fill: #F11212;' />
<circle cx='223.86' cy='51.04' r='1.95' style='stroke-width: 0.71; stroke: #F11212; fill: #F11212;' />
<circle cx='234.04' cy='49.03' r='1.95' style='stroke-width: 0.71; stroke: #F11212; fill: #F11212;' />
<circle cx='236.19' cy='75.29' r='1.95' style='stroke-width: 0.71; stroke: #F11212; fill: #F11212;' />
<circle cx='222.49' cy='66.91' r='1.95' style='stroke-width: 0.71; stroke: #F11212; fill: #F11212;' />
<circle cx='236.84' cy='73.86' r='1.95' style='stroke-width: 0.71; stroke: #F11212; fill: #F11212;' />
<circle cx='234.66' cy='66.77' r='1.95' style='stroke-width: 0.71; stroke: #F11212; fill: #F11212;' />
<circle cx='181.45' cy='45.45' r='1.95' style='stroke-width: 0.71; stroke: #F11212; fill: #F11212;' />
<circle cx='240.18' cy='59.28' r='1.95' style='stroke-width: 0.71; stroke: #F11212; fill: #F11212;' />
<circle cx='151.22' cy='41.69' r='1.95' style='stroke-width: 0.71; stroke: #F11212; fill: #F11212;' />
<circle cx='241.78' cy='85.66' r='1.95' style='stroke-width: 0.71; stroke: #F11212; fill: #F11212;' />
<circle cx='222.90' cy='51.29' r='1.95' style='stroke-width: 0.71; stroke: #F11212; fill: #F11212;' />
<circle cx='242.30' cy='66.03' r='1.95' style='stroke-width: 0.71; stroke: #F11212; fill: #F11212;' />
<polygon points='99.48,238.59 100.02,238.59 100.57,238.59 101.11,238.59 101.65,238.59 102.20,238.59 102.74,238.59 103.29,238.59 103.83,238.59 104.37,238.59 104.92,238.59 105.46,238.59 106.01,238.59 106.55,238.59 107.09,238.59 107.64,238.59 108.18,238.59 108.73,238.59 109.27,238.59 109.81,238.59 110.36,238.59 110.90,238.59 111.45,238.59 111.99,238.59 112.54,238.59 113.08,238.59 113.62,238.59 114.17,238.59 114.71,238.59 115.26,238.59 115.80,238.59 116.34,238.59 116.89,238.59 117.43,238.59 117.98,238.59 118.52,238.59 119.06,238.59 119.61,238.59 120.15,238.59 120.70,238.59 121.24,238.59 121.78,238.59 122.33,238.59 122.87,238.59 123.42,238.59 123.96,238.59 124.50,238.59 125.05,238.59 125.59,238.59 126.14,238.59 126.68,238.59 127.23,238.59 127.77,238.59 128.31,238.59 128.86,238.59 129.40,238.59 129.95,238.59 130.49,238.59 131.03,238.59 131.58,238.59 132.12,238.59 132.67,238.59 133.21,238.59 133.75,238.59 134.30,238.59 134.84,238.59 135.39,238.59 135.93,238.59 136.47,238.59 137.02,238.59 137.56,238.59 138.11,238.59 138.65,238.59 139.19,238.59 139.74,238.59 140.28,238.59 140.83,238.59 141.37,238.59 141.92,238.59 142.46,238.59 143.00,238.59 143.55,238.59 144.09,238.59 144.64,238.59 145.18,238.59 145.72,238.59 146.27,238.59 146.81,238.59 147.36,238.59 147.90,238.59 148.44,238.59 148.99,238.59 149.53,238.59 150.08,238.59 150.62,238.59 151.16,238.59 151.71,238.59 152.25,238.59 152.80,238.59 153.34,238.59 153.89,238.59 154.43,238.59 154.97,238.59 155.52,238.59 156.06,238.59 156.61,238.59 157.15,238.59 157.69,238.59 158.24,238.59 158.78,238.59 159.33,238.59 159.87,238.59 160.41,238.59 160.96,238.59 161.50,238.59 162.05,238.59 162.59,238.59 163.13,238.59 163.68,238.59 164.22,238.59 164.77,238.59 165.31,238.59 165.85,238.59 166.40,238.59 166.94,238.59 167.49,238.59 168.03,238.59 168.58,238.59 169.12,238.59 169.66,238.59 170.21,238.59 170.75,238.59 171.30,238.59 171.84,238.59 172.38,238.59 172.93,238.59 173.47,238.59 174.02,238.59 174.56,238.59 175.10,238.59 175.65,238.59 176.19,238.59 176.74,238.59 177.28,238.59 177.82,238.59 178.37,238.59 178.91,238.59 179.46,238.59 180.00,238.59 180.54,238.59 181.09,238.59 181.63,238.59 182.18,238.59 182.72,238.59 183.27,238.59 183.81,238.59 184.35,238.59 184.90,238.59 185.44,238.59 185.99,238.59 186.53,238.59 187.07,238.59 187.62,238.59 188.16,238.59 188.71,238.59 189.25,238.59 189.79,238.59 190.34,238.59 190.88,238.59 191.43,238.59 191.97,238.59 192.51,238.59 193.06,238.59 193.60,238.59 194.15,238.59 194.69,238.59 195.23,238.59 195.78,238.59 196.32,238.59 196.87,238.59 197.41,238.59 197.96,238.59 198.50,238.59 199.04,238.59 199.59,238.59 200.13,238.59 200.68,238.59 201.22,238.59 201.76,238.59 202.31,238.59 202.85,238.59 203.40,238.59 203.94,238.59 204.48,238.59 205.03,238.59 205.57,238.59 206.12,238.59 206.66,238.59 207.20,238.59 207.75,238.59 208.29,238.59 208.84,238.59 209.38,238.59 209.92,238.59 210.47,238.59 211.01,238.59 211.56,238.59 212.10,238.59 212.65,238.59 213.19,238.59 213.73,238.59 214.28,238.59 214.82,238.59 215.37,238.59 215.91,238.59 216.45,238.59 217.00,238.59 217.54,238.59 218.09,238.59 218.63,238.59 219.17,238.59 219.72,238.59 220.26,238.59 220.81,238.59 221.35,238.59 221.89,238.59 222.44,238.59 222.98,238.59 223.53,238.59 224.07,238.59 224.61,238.59 225.16,238.59 225.70,238.59 226.25,238.59 226.79,238.59 227.34,238.59 227.88,238.59 228.42,238.59 228.97,238.59 229.51,238.59 230.06,238.59 230.60,238.59 231.14,238.59 231.69,238.59 232.23,238.59 232.78,238.59 233.32,238.59 233.86,238.59 234.41,238.59 234.95,238.59 235.50,238.59 236.04,238.59 236.58,238.59 237.13,238.59 237.67,238.59 238.22,238.59 238.76,238.59 239.30,238.59 239.85,238.59 240.39,238.59 240.94,238.59 241.48,238.59 242.03,238.59 242.57,238.59 243.11,238.59 243.66,238.59 244.20,238.59 244.75,238.59 245.29,238.59 245.83,238.59 246.38,238.59 246.92,238.59 247.47,238.59 248.01,238.59 248.55,238.59 249.10,238.59 249.64,238.59 250.19,238.59 250.73,238.59 251.27,238.59 251.82,238.59 252.36,238.59 252.91,238.59 253.45,238.59 253.99,238.59 254.54,238.59 255.08,238.59 255.63,238.59 256.17,238.59 256.72,238.59 257.26,238.59 257.80,238.59 258.35,238.59 258.89,238.59 259.44,238.59 259.98,238.59 260.52,238.59 261.07,238.59 261.61,238.59 262.16,238.59 262.70,238.59 263.24,238.59 263.79,238.59 264.33,238.59 264.88,238.59 265.42,238.59 265.96,238.59 266.51,238.59 267.05,238.59 267.60,238.59 268.14,238.59 268.68,238.59 269.23,238.59 269.77,238.59 270.32,238.59 270.86,238.59 271.41,238.59 271.95,238.59 272.49,238.59 273.04,238.59 273.58,238.59 274.13,238.59 274.67,238.59 275.21,238.59 275.76,238.59 276.30,238.59 276.85,238.59 277.39,238.59 277.93,238.59 278.48,238.59 279.02,238.59 279.57,238.59 280.11,238.59 280.65,238.59 281.20,238.59 281.74,238.59 282.29,238.59 282.83,238.59 283.38,238.59 283.92,238.59 284.46,238.59 285.01,238.59 285.55,238.59 286.10,238.59 286.64,238.59 287.18,238.59 287.73,238.59 288.27,238.59 288.82,238.59 289.36,238.59 289.90,238.59 290.45,238.59 290.99,238.59 291.54,238.59 292.08,238.59 292.62,238.59 293.17,238.59 293.71,238.59 294.26,238.59 294.80,238.59 295.34,238.59 295.89,238.59 296.43,238.59 296.98,238.59 297.52,238.59 298.07,238.59 298.61,238.59 299.15,238.59 299.70,238.59 300.24,238.59 300.79,238.59 301.33,238.59 301.87,238.59 302.42,238.59 302.96,238.59 303.51,238.59 304.05,238.59 304.59,238.59 305.14,238.59 305.68,238.59 306.23,238.59 306.77,238.59 307.31,238.59 307.86,238.59 308.40,238.59 308.95,238.59 309.49,238.59 310.03,238.59 310.58,238.59 311.12,238.59 311.67,238.59 312.21,238.59 312.76,238.59 313.30,238.59 313.84,238.59 314.39,238.59 314.93,238.59 315.48,238.59 316.02,238.59 316.56,238.59 317.11,238.59 317.65,238.59 318.20,238.59 318.74,238.59 319.28,238.59 319.83,238.59 320.37,238.59 320.92,238.59 321.46,238.59 322.00,238.59 322.55,238.59 323.09,238.59 323.64,238.59 324.18,238.59 324.72,238.59 325.27,238.59 325.81,238.59 326.36,238.59 326.90,238.59 327.45,238.59 327.99,238.59 328.53,238.59 329.08,238.59 329.62,238.59 330.17,238.59 330.71,238.59 331.25,238.59 331.80,238.59 332.34,238.59 332.89,238.59 333.43,238.59 333.97,238.59 334.52,238.59 335.06,238.59 335.61,238.59 336.15,238.59 336.69,238.59 337.24,238.59 337.78,238.59 338.33,238.59 338.87,238.59 339.41,238.59 339.96,238.59 340.50,238.59 341.05,238.59 341.59,238.59 342.14,238.59 342.68,238.59 343.22,238.59 343.77,238.59 344.31,238.59 344.86,238.59 345.40,238.59 345.94,238.59 346.49,238.59 347.03,238.59 347.58,238.59 348.12,238.59 348.66,238.59 349.21,238.59 349.75,238.59 350.30,238.59 350.84,238.59 351.38,238.59 351.93,238.59 352.47,238.59 353.02,238.59 353.56,238.59 354.10,238.59 354.65,238.59 355.19,238.59 355.74,238.59 356.28,238.59 356.83,238.59 357.37,238.59 357.91,238.59 358.46,238.59 359.00,238.59 359.55,238.59 360.09,238.59 360.63,238.59 361.18,238.59 361.72,238.59 362.27,238.59 362.81,238.59 363.35,238.59 363.90,238.59 364.44,238.59 364.99,238.59 365.53,238.59 366.07,238.59 366.62,238.59 367.16,238.59 367.71,238.59 368.25,238.59 368.79,238.59 369.34,238.59 369.88,238.59 370.43,238.59 370.97,238.59 371.52,238.59 372.06,238.59 372.60,238.59 373.15,238.59 373.69,238.59 374.24,238.59 374.78,238.59 375.32,238.59 375.87,238.59 376.41,238.59 376.96,238.59 377.50,238.59 377.50,328.25 376.96,328.25 376.41,328.25 375.87,328.25 375.32,328.25 374.78,328.25 374.24,328.25 373.69,328.25 373.15,328.25 372.60,328.25 372.06,328.25 371.52,328.25 370.97,328.25 370.43,328.25 369.88,328.25 369.34,328.25 368.79,328.25 368.25,328.25 367.71,328.25 367.16,328.25 366.62,328.25 366.07,328.25 365.53,328.25 364.99,328.25 364.44,328.25 363.90,328.25 363.35,328.25 362.81,328.25 362.27,328.25 361.72,328.25 361.18,328.25 360.63,328.25 360.09,328.25 359.55,328.25 359.00,328.25 358.46,328.25 357.91,328.25 357.37,328.25 356.83,328.25 356.28,328.25 355.74,328.25 355.19,328.25 354.65,328.25 354.10,328.25 353.56,328.25 353.02,328.25 352.47,328.25 351.93,328.25 351.38,328.25 350.84,328.25 350.30,328.25 349.75,328.25 349.21,328.25 348.66,328.25 348.12,328.25 347.58,328.25 347.03,328.25 346.49,328.25 345.94,328.25 345.40,328.25 344.86,328.25 344.31,328.25 343.77,328.25 343.22,328.25 342.68,328.25 342.14,328.25 341.59,328.25 341.05,328.25 340.50,328.25 339.96,328.25 339.41,328.25 338.87,328.25 338.33,328.25 337.78,328.25 337.24,328.25 336.69,328.25 336.15,328.25 335.61,328.25 335.06,328.25 334.52,328.25 333.97,328.25 333.43,328.25 332.89,328.25 332.34,328.25 331.80,328.25 331.25,328.25 330.71,328.25 330.17,328.25 329.62,328.25 329.08,328.25 328.53,328.25 327.99,328.25 327.45,328.25 326.90,328.25 326.36,328.25 325.81,328.25 325.27,328.25 324.72,328.25 324.18,328.25 323.64,328.25 323.09,328.25 322.55,328.25 322.00,328.25 321.46,328.25 320.92,328.25 320.37,328.25 319.83,328.25 319.28,328.25 318.74,328.25 318.20,328.25 317.65,328.25 317.11,328.25 316.56,328.25 316.02,328.25 315.48,328.25 314.93,328.25 314.39,328.25 313.84,328.25 313.30,328.25 312.76,328.25 312.21,328.25 311.67,328.25 311.12,328.25 310.58,328.25 310.03,328.25 309.49,328.25 308.95,328.25 308.40,328.25 307.86,328.25 307.31,328.25 306.77,328.25 306.23,328.25 305.68,328.25 305.14,328.25 304.59,328.25 304.05,328.25 303.51,328.25 302.96,328.25 302.42,328.25 301.87,328.25 301.33,328.25 300.79,328.25 300.24,328.25 299.70,328.25 299.15,328.25 298.61,328.25 298.07,328.25 297.52,328.25 296.98,328.25 296.43,328.25 295.89,328.25 295.34,328.25 294.80,328.25 294.26,328.25 293.71,328.25 293.17,328.25 292.62,328.25 292.08,328.25 291.54,328.25 290.99,328.25 290.45,328.25 289.90,328.25 289.36,328.25 288.82,328.25 288.27,328.25 287.73,328.25 287.18,328.25 286.64,328.25 286.10,328.25 285.55,328.25 285.01,328.25 284.46,328.25 283.92,328.25 283.38,328.25 282.83,328.25 282.29,328.25 281.74,328.25 281.20,328.25 280.65,328.25 280.11,328.25 279.57,328.25 279.02,328.25 278.48,328.25 277.93,328.25 277.39,328.25 276.85,328.25 276.30,328.25 275.76,328.25 275.21,328.25 274.67,328.25 274.13,328.25 273.58,328.25 273.04,328.25 272.49,328.25 271.95,328.25 271.41,328.25 270.86,328.25 270.32,328.25 269.77,328.25 269.23,328.25 268.68,328.25 268.14,328.25 267.60,328.25 267.05,328.25 266.51,328.25 265.96,328.25 265.42,328.25 264.88,328.25 264.33,328.25 263.79,328.25 263.24,328.25 262.70,328.25 262.16,328.25 261.61,328.25 261.07,328.25 260.52,328.25 259.98,328.25 259.44,328.25 258.89,328.25 258.35,328.25 257.80,328.25 257.26,328.25 256.72,328.25 256.17,328.25 255.63,328.25 255.08,328.25 254.54,328.25 253.99,328.25 253.45,328.25 252.91,328.25 252.36,328.25 251.82,328.25 251.27,328.25 250.73,328.25 250.19,328.25 249.64,328.25 249.10,328.25 248.55,328.25 248.01,328.25 247.47,328.25 246.92,328.25 246.38,328.25 245.83,328.25 245.29,328.25 244.75,328.25 244.20,328.25 243.66,328.25 243.11,328.25 242.57,328.25 242.03,328.25 241.48,328.25 240.94,328.25 240.39,328.25 239.85,328.25 239.30,328.25 238.76,328.25 238.22,328.25 237.67,328.25 237.13,328.25 236.58,328.25 236.04,328.25 235.50,328.25 234.95,328.25 234.41,328.25 233.86,328.25 233.32,328.25 232.78,328.25 232.23,328.25 231.69,328.25 231.14,328.25 230.60,328.25 230.06,328.25 229.51,328.25 228.97,328.25 228.42,328.25 227.88,328.25 227.34,328.25 226.79,328.25 226.25,328.25 225.70,328.25 225.16,328.25 224.61,328.25 224.07,328.25 223.53,328.25 222.98,328.25 222.44,328.25 221.89,328.25 221.35,328.25 220.81,328.25 220.26,328.25 219.72,328.25 219.17,328.25 218.63,328.25 218.09,328.25 217.54,328.25 217.00,328.25 216.45,328.25 215.91,328.25 215.37,328.25 214.82,328.25 214.28,328.25 213.73,328.25 213.19,328.25 212.65,328.25 212.10,328.25 211.56,328.25 211.01,328.25 210.47,328.25 209.92,328.25 209.38,328.25 208.84,328.25 208.29,328.25 207.75,328.25 207.20,328.25 206.66,328.25 206.12,328.25 205.57,328.25 205.03,328.25 204.48,328.25 203.94,328.25 203.40,328.25 202.85,328.25 202.31,328.25 201.76,328.25 201.22,328.25 200.68,328.25 200.13,328.25 199.59,328.25 199.04,328.25 198.50,328.25 197.96,328.25 197.41,328.25 196.87,328.25 196.32,328.25 195.78,328.25 195.23,328.25 194.69,328.25 194.15,328.25 193.60,328.25 193.06,328.25 192.51,328.25 191.97,328.25 191.43,328.25 190.88,328.25 190.34,328.25 189.79,328.25 189.25,328.25 188.71,328.25 188.16,328.25 187.62,328.25 187.07,328.25 186.53,328.25 185.99,328.25 185.44,328.25 184.90,328.25 184.35,328.25 183.81,328.25 183.27,328.25 182.72,328.25 182.18,328.25 181.63,328.25 181.09,328.25 180.54,328.25 180.00,328.25 179.46,328.25 178.91,328.25 178.37,328.25 177.82,328.25 177.28,328.25 176.74,328.25 176.19,328.25 175.65,328.25 175.10,328.25 174.56,328.25 174.02,328.25 173.47,328.25 172.93,328.25 172.38,328.25 171.84,328.25 171.30,328.25 170.75,328.25 170.21,328.25 169.66,328.25 169.12,328.25 168.58,328.25 168.03,328.25 167.49,328.25 166.94,328.25 166.40,328.25 165.85,328.25 165.31,328.25 164.77,328.25 164.22,328.25 163.68,328.25 163.13,328.25 162.59,328.25 162.05,328.25 161.50,328.25 160.96,328.25 160.41,328.25 159.87,328.25 159.33,328.25 158.78,328.25 158.24,328.25 157.69,328.25 157.15,328.25 156.61,328.25 156.06,328.25 155.52,328.25 154.97,328.25 154.43,328.25 153.89,328.25 153.34,328.25 152.80,328.25 152.25,328.25 151.71,328.25 151.16,328.25 150.62,328.25 150.08,328.25 149.53,328.25 148.99,328.25 148.44,328.25 147.90,328.25 147.36,328.25 146.81,328.25 146.27,328.25 145.72,328.25 145.18,328.25 144.64,328.25 144.09,328.25 143.55,328.25 143.00,328.25 142.46,328.25 141.92,328.25 141.37,328.25 140.83,328.25 140.28,328.25 139.74,328.25 139.19,328.25 138.65,328.25 138.11,328.25 137.56,328.25 137.02,328.25 136.47,328.25 135.93,328.25 135.39,328.25 134.84,328.25 134.30,328.25 133.75,328.25 133.21,328.25 132.67,328.25 132.12,328.25 131.58,328.25 131.03,328.25 130.49,328.25 129.95,328.25 129.40,328.25 128.86,328.25 128.31,328.25 127.77,328.25 127.23,328.25 126.68,328.25 126.14,328.25 125.59,328.25 125.05,328.25 124.50,328.25 123.96,328.25 123.42,328.25 122.87,328.25 122.33,328.25 121.78,328.25 121.24,328.25 120.70,328.25 120.15,328.25 119.61,328.25 119.06,328.25 118.52,328.25 117.98,328.25 117.43,328.25 116.89,328.25 116.34,328.25 115.80,328.25 115.26,328.25 114.71,328.25 114.17,328.25 113.62,328.25 113.08,328.25 112.54,328.25 111.99,328.25 111.45,328.25 110.90,328.25 110.36,328.25 109.81,328.25 109.27,328.25 108.73,328.25 108.18,328.25 107.64,328.25 107.09,328.25 106.55,328.25 106.01,328.25 105.46,328.25 104.92,328.25 104.37,328.25 103.83,328.25 103.29,328.25 102.74,328.25 102.20,328.25 101.65,328.25 101.11,328.25 100.57,328.25 100.02,328.25 99.48,328.25 ' style='stroke-width: 0.00; stroke: none; stroke-linecap: butt;' />
<polyline points='99.48,238.59 100.02,238.59 100.57,238.59 101.11,238.59 101.65,238.59 102.20,238.59 102.74,238.59 103.29,238.59 103.83,238.59 104.37,238.59 104.92,238.59 105.46,238.59 106.01,238.59 106.55,238.59 107.09,238.59 107.64,238.59 108.18,238.59 108.73,238.59 109.27,238.59 109.81,238.59 110.36,238.59 110.90,238.59 111.45,238.59 111.99,238.59 112.54,238.59 113.08,238.59 113.62,238.59 114.17,238.59 114.71,238.59 115.26,238.59 115.80,238.59 116.34,238.59 116.89,238.59 117.43,238.59 117.98,238.59 118.52,238.59 119.06,238.59 119.61,238.59 120.15,238.59 120.70,238.59 121.24,238.59 121.78,238.59 122.33,238.59 122.87,238.59 123.42,238.59 123.96,238.59 124.50,238.59 125.05,238.59 125.59,238.59 126.14,238.59 126.68,238.59 127.23,238.59 127.77,238.59 128.31,238.59 128.86,238.59 129.40,238.59 129.95,238.59 130.49,238.59 131.03,238.59 131.58,238.59 132.12,238.59 132.67,238.59 133.21,238.59 133.75,238.59 134.30,238.59 134.84,238.59 135.39,238.59 135.93,238.59 136.47,238.59 137.02,238.59 137.56,238.59 138.11,238.59 138.65,238.59 139.19,238.59 139.74,238.59 140.28,238.59 140.83,238.59 141.37,238.59 141.92,238.59 142.46,238.59 143.00,238.59 143.55,238.59 144.09,238.59 144.64,238.59 145.18,238.59 145.72,238.59 146.27,238.59 146.81,238.59 147.36,238.59 147.90,238.59 148.44,238.59 148.99,238.59 149.53,238.59 150.08,238.59 150.62,238.59 151.16,238.59 151.71,238.59 152.25,238.59 152.80,238.59 153.34,238.59 153.89,238.59 154.43,238.59 154.97,238.59 155.52,238.59 156.06,238.59 156.61,238.59 157.15,238.59 157.69,238.59 158.24,238.59 158.78,238.59 159.33,238.59 159.87,238.59 160.41,238.59 160.96,238.59 161.50,238.59 162.05,238.59 162.59,238.59 163.13,238.59 163.68,238.59 164.22,238.59 164.77,238.59 165.31,238.59 165.85,238.59 166.40,238.59 166.94,238.59 167.49,238.59 168.03,238.59 168.58,238.59 169.12,238.59 169.66,238.59 170.21,238.59 170.75,238.59 171.30,238.59 171.84,238.59 172.38,238.59 172.93,238.59 173.47,238.59 174.02,238.59 174.56,238.59 175.10,238.59 175.65,238.59 176.19,238.59 176.74,238.59 177.28,238.59 177.82,238.59 178.37,238.59 178.91,238.59 179.46,238.59 180.00,238.59 180.54,238.59 181.09,238.59 181.63,238.59 182.18,238.59 182.72,238.59 183.27,238.59 183.81,238.59 184.35,238.59 184.90,238.59 185.44,238.59 185.99,238.59 186.53,238.59 187.07,238.59 187.62,238.59 188.16,238.59 188.71,238.59 189.25,238.59 189.79,238.59 190.34,238.59 190.88,238.59 191.43,238.59 191.97,238.59 192.51,238.59 193.06,238.59 193.60,238.59 194.15,238.59 194.69,238.59 195.23,238.59 195.78,238.59 196.32,238.59 196.87,238.59 197.41,238.59 197.96,238.59 198.50,238.59 199.04,238.59 199.59,238.59 200.13,238.59 200.68,238.59 201.22,238.59 201.76,238.59 202.31,238.59 202.85,238.59 203.40,238.59 203.94,238.59 204.48,238.59 205.03,238.59 205.57,238.59 206.12,238.59 206.66,238.59 207.20,238.59 207.75,238.59 208.29,238.59 208.84,238.59 209.38,238.59 209.92,238.59 210.47,238.59 211.01,238.59 211.56,238.59 212.10,238.59 212.65,238.59 213.19,238.59 213.73,238.59 214.28,238.59 214.82,238.59 215.37,238.59 215.91,238.59 216.45,238.59 217.00,238.59 217.54,238.59 218.09,238.59 218.63,238.59 219.17,238.59 219.72,238.59 220.26,238.59 220.81,238.59 221.35,238.59 221.89,238.59 222.44,238.59 222.98,238.59 223.53,238.59 224.07,238.59 224.61,238.59 225.16,238.59 225.70,238.59 226.25,238.59 226.79,238.59 227.34,238.59 227.88,238.59 228.42,238.59 228.97,238.59 229.51,238.59 230.06,238.59 230.60,238.59 231.14,238.59 231.69,238.59 232.23,238.59 232.78,238.59 233.32,238.59 233.86,238.59 234.41,238.59 234.95,238.59 235.50,238.59 236.04,238.59 236.58,238.59 237.13,238.59 237.67,238.59 238.22,238.59 238.76,238.59 239.30,238.59 239.85,238.59 240.39,238.59 240.94,238.59 241.48,238.59 242.03,238.59 242.57,238.59 243.11,238.59 243.66,238.59 244.20,238.59 244.75,238.59 245.29,238.59 245.83,238.59 246.38,238.59 246.92,238.59 247.47,238.59 248.01,238.59 248.55,238.59 249.10,238.59 249.64,238.59 250.19,238.59 250.73,238.59 251.27,238.59 251.82,238.59 252.36,238.59 252.91,238.59 253.45,238.59 253.99,238.59 254.54,238.59 255.08,238.59 255.63,238.59 256.17,238.59 256.72,238.59 257.26,238.59 257.80,238.59 258.35,238.59 258.89,238.59 259.44,238.59 259.98,238.59 260.52,238.59 261.07,238.59 261.61,238.59 262.16,238.59 262.70,238.59 263.24,238.59 263.79,238.59 264.33,238.59 264.88,238.59 265.42,238.59 265.96,238.59 266.51,238.59 267.05,238.59 267.60,238.59 268.14,238.59 268.68,238.59 269.23,238.59 269.77,238.59 270.32,238.59 270.86,238.59 271.41,238.59 271.95,238.59 272.49,238.59 273.04,238.59 273.58,238.59 274.13,238.59 274.67,238.59 275.21,238.59 275.76,238.59 276.30,238.59 276.85,238.59 277.39,238.59 277.93,238.59 278.48,238.59 279.02,238.59 279.57,238.59 280.11,238.59 280.65,238.59 281.20,238.59 281.74,238.59 282.29,238.59 282.83,238.59 283.38,238.59 283.92,238.59 284.46,238.59 285.01,238.59 285.55,238.59 286.10,238.59 286.64,238.59 287.18,238.59 287.73,238.59 288.27,238.59 288.82,238.59 289.36,238.59 289.90,238.59 290.45,238.59 290.99,238.59 291.54,238.59 292.08,238.59 292.62,238.59 293.17,238.59 293.71,238.59 294.26,238.59 294.80,238.59 295.34,238.59 295.89,238.59 296.43,238.59 296.98,238.59 297.52,238.59 298.07,238.59 298.61,238.59 299.15,238.59 299.70,238.59 300.24,238.59 300.79,238.59 301.33,238.59 301.87,238.59 302.42,238.59 302.96,238.59 303.51,238.59 304.05,238.59 304.59,238.59 305.14,238.59 305.68,238.59 306.23,238.59 306.77,238.59 307.31,238.59 307.86,238.59 308.40,238.59 308.95,238.59 309.49,238.59 310.03,238.59 310.58,238.59 311.12,238.59 311.67,238.59 312.21,238.59 312.76,238.59 313.30,238.59 313.84,238.59 314.39,238.59 314.93,238.59 315.48,238.59 316.02,238.59 316.56,238.59 317.11,238.59 317.65,238.59 318.20,238.59 318.74,238.59 319.28,238.59 319.83,238.59 320.37,238.59 320.92,238.59 321.46,238.59 322.00,238.59 322.55,238.59 323.09,238.59 323.64,238.59 324.18,238.59 324.72,238.59 325.27,238.59 325.81,238.59 326.36,238.59 326.90,238.59 327.45,238.59 327.99,238.59 328.53,238.59 329.08,238.59 329.62,238.59 330.17,238.59 330.71,238.59 331.25,238.59 331.80,238.59 332.34,238.59 332.89,238.59 333.43,238.59 333.97,238.59 334.52,238.59 335.06,238.59 335.61,238.59 336.15,238.59 336.69,238.59 337.24,238.59 337.78,238.59 338.33,238.59 338.87,238.59 339.41,238.59 339.96,238.59 340.50,238.59 341.05,238.59 341.59,238.59 342.14,238.59 342.68,238.59 343.22,238.59 343.77,238.59 344.31,238.59 344.86,238.59 345.40,238.59 345.94,238.59 346.49,238.59 347.03,238.59 347.58,238.59 348.12,238.59 348.66,238.59 349.21,238.59 349.75,238.59 350.30,238.59 350.84,238.59 351.38,238.59 351.93,238.59 352.47,238.59 353.02,238.59 353.56,238.59 354.10,238.59 354.65,238.59 355.19,238.59 355.74,238.59 356.28,238.59 356.83,238.59 357.37,238.59 357.91,238.59 358.46,238.59 359.00,238.59 359.55,238.59 360.09,238.59 360.63,238.59 361.18,238.59 361.72,238.59 362.27,238.59 362.81,238.59 363.35,238.59 363.90,238.59 364.44,238.59 364.99,238.59 365.53,238.59 366.07,238.59 366.62,238.59 367.16,238.59 367.71,238.59 368.25,238.59 368.79,238.59 369.34,238.59 369.88,238.59 370.43,238.59 370.97,238.59 371.52,238.59 372.06,238.59 372.60,238.59 373.15,238.59 373.69,238.59 374.24,238.59 374.78,238.59 375.32,238.59 375.87,238.59 376.41,238.59 376.96,238.59 377.50,238.59 ' style='stroke-width: 1.07; stroke: #00FF93; stroke-linecap: butt;' />
<polygon points='99.48,148.93 100.02,148.93 100.57,148.93 101.11,148.93 101.65,148.93 102.20,148.93 102.74,148.93 103.29,148.93 103.83,148.93 104.37,148.93 104.92,148.93 105.46,148.93 106.01,148.93 106.55,148.93 107.09,148.93 107.64,148.93 108.18,148.93 108.73,148.93 109.27,148.93 109.81,148.93 110.36,148.93 110.90,148.93 111.45,148.93 111.99,148.93 112.54,148.93 113.08,148.93 113.62,148.93 114.17,148.93 114.71,148.93 115.26,148.93 115.80,148.93 116.34,148.93 116.89,148.93 117.43,148.93 117.98,148.93 118.52,148.93 119.06,148.93 119.61,148.93 120.15,148.93 120.70,148.93 121.24,148.93 121.78,148.93 122.33,148.93 122.87,148.93 123.42,148.93 123.96,148.93 124.50,148.93 125.05,148.93 125.59,148.93 126.14,148.93 126.68,148.93 127.23,148.93 127.77,148.93 128.31,148.93 128.86,148.93 129.40,148.93 129.95,148.93 130.49,148.93 131.03,148.93 131.58,148.93 132.12,148.93 132.67,148.93 133.21,148.93 133.75,148.93 134.30,148.93 134.84,148.93 135.39,148.93 135.93,148.93 136.47,148.93 137.02,148.93 137.56,148.93 138.11,148.93 138.65,148.93 139.19,148.93 139.74,148.93 140.28,148.93 140.83,148.93 141.37,148.93 141.92,148.93 142.46,148.93 143.00,148.93 143.55,148.93 144.09,148.93 144.64,148.93 145.18,148.93 145.72,148.93 146.27,148.93 146.81,148.93 147.36,148.93 147.90,148.93 148.44,148.93 148.99,148.93 149.53,148.93 150.08,148.93 150.62,148.93 151.16,148.93 151.71,148.93 152.25,148.93 152.80,148.93 153.34,148.93 153.89,148.93 154.43,148.93 154.97,148.93 155.52,148.93 156.06,148.93 156.61,148.93 157.15,148.93 157.69,148.93 158.24,148.93 158.78,148.93 159.33,148.93 159.87,148.93 160.41,148.93 160.96,148.93 161.50,148.93 162.05,148.93 162.59,148.93 163.13,148.93 163.68,148.93 164.22,148.93 164.77,148.93 165.31,148.93 165.85,148.93 166.40,148.93 166.94,148.93 167.49,148.93 168.03,148.93 168.58,148.93 169.12,148.93 169.66,148.93 170.21,148.93 170.75,148.93 171.30,148.93 171.84,148.93 172.38,148.93 172.93,148.93 173.47,148.93 174.02,148.93 174.56,148.93 175.10,148.93 175.65,148.93 176.19,148.93 176.74,148.93 177.28,148.93 177.82,148.93 178.37,148.93 178.91,148.93 179.46,148.93 180.00,148.93 180.54,148.93 181.09,148.93 181.63,148.93 182.18,148.93 182.72,148.93 183.27,148.93 183.81,148.93 184.35,148.93 184.90,148.93 185.44,148.93 185.99,148.93 186.53,148.93 187.07,148.93 187.62,148.93 188.16,148.93 188.71,148.93 189.25,148.93 189.79,148.93 190.34,148.93 190.88,148.93 191.43,148.93 191.97,148.93 192.51,148.93 193.06,148.93 193.60,148.93 194.15,148.93 194.69,148.93 195.23,148.93 195.78,148.93 196.32,148.93 196.87,148.93 197.41,148.93 197.96,148.93 198.50,148.93 199.04,148.93 199.59,148.93 200.13,148.93 200.68,148.93 201.22,148.93 201.76,148.93 202.31,148.93 202.85,148.93 203.40,148.93 203.94,148.93 204.48,148.93 205.03,148.93 205.57,148.93 206.12,148.93 206.66,148.93 207.20,148.93 207.75,148.93 208.29,148.93 208.84,148.93 209.38,148.93 209.92,148.93 210.47,148.93 211.01,148.93 211.56,148.93 212.10,148.93 212.65,148.93 213.19,148.93 213.73,148.93 214.28,148.93 214.82,148.93 215.37,148.93 215.91,148.93 216.45,148.93 217.00,148.93 217.54,148.93 218.09,148.93 218.63,148.93 219.17,148.93 219.72,148.93 220.26,148.93 220.81,148.93 221.35,148.93 221.89,148.93 222.44,148.93 222.98,148.93 223.53,148.93 224.07,148.93 224.61,148.93 225.16,148.93 225.70,148.93 226.25,148.93 226.79,148.93 227.34,148.93 227.88,148.93 228.42,148.93 228.97,148.93 229.51,148.93 230.06,148.93 230.60,148.93 231.14,148.93 231.69,148.93 232.23,148.93 232.78,148.93 233.32,148.93 233.86,148.93 234.41,148.93 234.95,148.93 235.50,148.93 236.04,148.93 236.58,148.93 237.13,148.93 237.67,148.93 238.22,148.93 238.76,148.93 239.30,148.93 239.85,148.93 240.39,148.93 240.94,148.93 241.48,148.93 242.03,148.93 242.57,148.93 243.11,148.93 243.66,148.93 244.20,148.93 244.75,148.93 245.29,148.93 245.83,148.93 246.38,148.93 246.92,148.93 247.47,148.93 248.01,148.93 248.55,148.93 249.10,148.93 249.64,148.93 250.19,148.93 250.73,148.93 251.27,148.93 251.82,148.93 252.36,148.93 252.91,148.93 253.45,148.93 253.99,148.93 254.54,148.93 255.08,148.93 255.63,148.93 256.17,148.93 256.72,148.93 257.26,148.93 257.80,148.93 258.35,148.93 258.89,148.93 259.44,148.93 259.98,148.93 260.52,148.93 261.07,148.93 261.61,148.93 262.16,148.93 262.70,148.93 263.24,148.93 263.79,148.93 264.33,148.93 264.88,148.93 265.42,148.93 265.96,148.93 266.51,148.93 267.05,148.93 267.60,148.93 268.14,148.93 268.68,148.93 269.23,148.93 269.77,148.93 270.32,148.93 270.86,148.93 271.41,148.93 271.95,148.93 272.49,148.93 273.04,148.93 273.58,148.93 274.13,148.93 274.67,148.93 275.21,148.93 275.76,148.93 276.30,148.93 276.85,148.93 277.39,148.93 277.93,148.93 278.48,148.93 279.02,148.93 279.57,148.93 280.11,148.93 280.65,148.93 281.20,148.93 281.74,148.93 282.29,148.93 282.83,148.93 283.38,148.93 283.92,148.93 284.46,148.93 285.01,148.93 285.55,148.93 286.10,148.93 286.64,148.93 287.18,148.93 287.73,148.93 288.27,148.93 288.82,148.93 289.36,148.93 289.90,148.93 290.45,148.93 290.99,148.93 291.54,148.93 292.08,148.93 292.62,148.93 293.17,148.93 293.71,148.93 294.26,148.93 294.80,148.93 295.34,148.93 295.89,148.93 296.43,148.93 296.98,148.93 297.52,148.93 298.07,148.93 298.61,148.93 299.15,148.93 299.70,148.93 300.24,148.93 300.79,148.93 301.33,148.93 301.87,148.93 302.42,148.93 302.96,148.93 303.51,148.93 304.05,148.93 304.59,148.93 305.14,148.93 305.68,148.93 306.23,148.93 306.77,148.93 307.31,148.93 307.86,148.93 308.40,148.93 308.95,148.93 309.49,148.93 310.03,148.93 310.58,148.93 311.12,148.93 311.67,148.93 312.21,148.93 312.76,148.93 313.30,148.93 313.84,148.93 314.39,148.93 314.93,148.93 315.48,148.93 316.02,148.93 316.56,148.93 317.11,148.93 317.65,148.93 318.20,148.93 318.74,148.93 319.28,148.93 319.83,148.93 320.37,148.93 320.92,148.93 321.46,148.93 322.00,148.93 322.55,148.93 323.09,148.93 323.64,148.93 324.18,148.93 324.72,148.93 325.27,148.93 325.81,148.93 326.36,148.93 326.90,148.93 327.45,148.93 327.99,148.93 328.53,148.93 329.08,148.93 329.62,148.93 330.17,148.93 330.71,148.93 331.25,148.93 331.80,148.93 332.34,148.93 332.89,148.93 333.43,148.93 333.97,148.93 334.52,148.93 335.06,148.93 335.61,148.93 336.15,148.93 336.69,148.93 337.24,148.93 337.78,148.93 338.33,148.93 338.87,148.93 339.41,148.93 339.96,148.93 340.50,148.93 341.05,148.93 341.59,148.93 342.14,148.93 342.68,148.93 343.22,148.93 343.77,148.93 344.31,148.93 344.86,148.93 345.40,148.93 345.94,148.93 346.49,148.93 347.03,148.93 347.58,148.93 348.12,148.93 348.66,148.93 349.21,148.93 349.75,148.93 350.30,148.93 350.84,148.93 351.38,148.93 351.93,148.93 352.47,148.93 353.02,148.93 353.56,148.93 354.10,148.93 354.65,148.93 355.19,148.93 355.74,148.93 356.28,148.93 356.83,148.93 357.37,148.93 357.91,148.93 358.46,148.93 359.00,148.93 359.55,148.93 360.09,148.93 360.63,148.93 361.18,148.93 361.72,148.93 362.27,148.93 362.81,148.93 363.35,148.93 363.90,148.93 364.44,148.93 364.99,148.93 365.53,148.93 366.07,148.93 366.62,148.93 367.16,148.93 367.71,148.93 368.25,148.93 368.79,148.93 369.34,148.93 369.88,148.93 370.43,148.93 370.97,148.93 371.52,148.93 372.06,148.93 372.60,148.93 373.15,148.93 373.69,148.93 374.24,148.93 374.78,148.93 375.32,148.93 375.87,148.93 376.41,148.93 376.96,148.93 377.50,148.93 377.50,328.25 376.96,328.25 376.41,328.25 375.87,328.25 375.32,328.25 374.78,328.25 374.24,328.25 373.69,328.25 373.15,328.25 372.60,328.25 372.06,328.25 371.52,328.25 370.97,328.25 370.43,328.25 369.88,328.25 369.34,328.25 368.79,328.25 368.25,328.25 367.71,328.25 367.16,328.25 366.62,328.25 366.07,328.25 365.53,328.25 364.99,328.25 364.44,328.25 363.90,328.25 363.35,328.25 362.81,328.25 362.27,328.25 361.72,328.25 361.18,328.25 360.63,328.25 360.09,328.25 359.55,328.25 359.00,328.25 358.46,328.25 357.91,328.25 357.37,328.25 356.83,328.25 356.28,328.25 355.74,328.25 355.19,328.25 354.65,328.25 354.10,328.25 353.56,328.25 353.02,328.25 352.47,328.25 351.93,328.25 351.38,328.25 350.84,328.25 350.30,328.25 349.75,328.25 349.21,328.25 348.66,328.25 348.12,328.25 347.58,328.25 347.03,328.25 346.49,328.25 345.94,328.25 345.40,328.25 344.86,328.25 344.31,328.25 343.77,328.25 343.22,328.25 342.68,328.25 342.14,328.25 341.59,328.25 341.05,328.25 340.50,328.25 339.96,328.25 339.41,328.25 338.87,328.25 338.33,328.25 337.78,328.25 337.24,328.25 336.69,328.25 336.15,328.25 335.61,328.25 335.06,328.25 334.52,328.25 333.97,328.25 333.43,328.25 332.89,328.25 332.34,328.25 331.80,328.25 331.25,328.25 330.71,328.25 330.17,328.25 329.62,328.25 329.08,328.25 328.53,328.25 327.99,328.25 327.45,328.25 326.90,328.25 326.36,328.25 325.81,328.25 325.27,328.25 324.72,328.25 324.18,328.25 323.64,328.25 323.09,328.25 322.55,328.25 322.00,328.25 321.46,328.25 320.92,328.25 320.37,328.25 319.83,328.25 319.28,328.25 318.74,328.25 318.20,328.25 317.65,328.25 317.11,328.25 316.56,328.25 316.02,328.25 315.48,328.25 314.93,328.25 314.39,328.25 313.84,328.25 313.30,328.25 312.76,328.25 312.21,328.25 311.67,328.25 311.12,328.25 310.58,328.25 310.03,328.25 309.49,328.25 308.95,328.25 308.40,328.25 307.86,328.25 307.31,328.25 306.77,328.25 306.23,328.25 305.68,328.25 305.14,328.25 304.59,328.25 304.05,328.25 303.51,328.25 302.96,328.25 302.42,328.25 301.87,328.25 301.33,328.25 300.79,328.25 300.24,328.25 299.70,328.25 299.15,328.25 298.61,328.25 298.07,328.25 297.52,328.25 296.98,328.25 296.43,328.25 295.89,328.25 295.34,328.25 294.80,328.25 294.26,328.25 293.71,328.25 293.17,328.25 292.62,328.25 292.08,328.25 291.54,328.25 290.99,328.25 290.45,328.25 289.90,328.25 289.36,328.25 288.82,328.25 288.27,328.25 287.73,328.25 287.18,328.25 286.64,328.25 286.10,328.25 285.55,328.25 285.01,328.25 284.46,328.25 283.92,328.25 283.38,328.25 282.83,328.25 282.29,328.25 281.74,328.25 281.20,328.25 280.65,328.25 280.11,328.25 279.57,328.25 279.02,328.25 278.48,328.25 277.93,328.25 277.39,328.25 276.85,328.25 276.30,328.25 275.76,328.25 275.21,328.25 274.67,328.25 274.13,328.25 273.58,328.25 273.04,328.25 272.49,328.25 271.95,328.25 271.41,328.25 270.86,328.25 270.32,328.25 269.77,328.25 269.23,328.25 268.68,328.25 268.14,328.25 267.60,328.25 267.05,328.25 266.51,328.25 265.96,328.25 265.42,328.25 264.88,328.25 264.33,328.25 263.79,328.25 263.24,328.25 262.70,328.25 262.16,328.25 261.61,328.25 261.07,328.25 260.52,328.25 259.98,328.25 259.44,328.25 258.89,328.25 258.35,328.25 257.80,328.25 257.26,328.25 256.72,328.25 256.17,328.25 255.63,328.25 255.08,328.25 254.54,328.25 253.99,328.25 253.45,328.25 252.91,328.25 252.36,328.25 251.82,328.25 251.27,328.25 250.73,328.25 250.19,328.25 249.64,328.25 249.10,328.25 248.55,328.25 248.01,328.25 247.47,328.25 246.92,328.25 246.38,328.25 245.83,328.25 245.29,328.25 244.75,328.25 244.20,328.25 243.66,328.25 243.11,328.25 242.57,328.25 242.03,328.25 241.48,328.25 240.94,328.25 240.39,328.25 239.85,328.25 239.30,328.25 238.76,328.25 238.22,328.25 237.67,328.25 237.13,328.25 236.58,328.25 236.04,328.25 235.50,328.25 234.95,328.25 234.41,328.25 233.86,328.25 233.32,328.25 232.78,328.25 232.23,328.25 231.69,328.25 231.14,328.25 230.60,328.25 230.06,328.25 229.51,328.25 228.97,328.25 228.42,328.25 227.88,328.25 227.34,328.25 226.79,328.25 226.25,328.25 225.70,328.25 225.16,328.25 224.61,328.25 224.07,328.25 223.53,328.25 222.98,328.25 222.44,328.25 221.89,328.25 221.35,328.25 220.81,328.25 220.26,328.25 219.72,328.25 219.17,328.25 218.63,328.25 218.09,328.25 217.54,328.25 217.00,328.25 216.45,328.25 215.91,328.25 215.37,328.25 214.82,328.25 214.28,328.25 213.73,328.25 213.19,328.25 212.65,328.25 212.10,328.25 211.56,328.25 211.01,328.25 210.47,328.25 209.92,328.25 209.38,328.25 208.84,328.25 208.29,328.25 207.75,328.25 207.20,328.25 206.66,328.25 206.12,328.25 205.57,328.25 205.03,328.25 204.48,328.25 203.94,328.25 203.40,328.25 202.85,328.25 202.31,328.25 201.76,328.25 201.22,328.25 200.68,328.25 200.13,328.25 199.59,328.25 199.04,328.25 198.50,328.25 197.96,328.25 197.41,328.25 196.87,328.25 196.32,328.25 195.78,328.25 195.23,328.25 194.69,328.25 194.15,328.25 193.60,328.25 193.06,328.25 192.51,328.25 191.97,328.25 191.43,328.25 190.88,328.25 190.34,328.25 189.79,328.25 189.25,328.25 188.71,328.25 188.16,328.25 187.62,328.25 187.07,328.25 186.53,328.25 185.99,328.25 185.44,328.25 184.90,328.25 184.35,328.25 183.81,328.25 183.27,328.25 182.72,328.25 182.18,328.25 181.63,328.25 181.09,328.25 180.54,328.25 180.00,328.25 179.46,328.25 178.91,328.25 178.37,328.25 177.82,328.25 177.28,328.25 176.74,328.25 176.19,328.25 175.65,328.25 175.10,328.25 174.56,328.25 174.02,328.25 173.47,328.25 172.93,328.25 172.38,328.25 171.84,328.25 171.30,328.25 170.75,328.25 170.21,328.25 169.66,328.25 169.12,328.25 168.58,328.25 168.03,328.25 167.49,328.25 166.94,328.25 166.40,328.25 165.85,328.25 165.31,328.25 164.77,328.25 164.22,328.25 163.68,328.25 163.13,328.25 162.59,328.25 162.05,328.25 161.50,328.25 160.96,328.25 160.41,328.25 159.87,328.25 159.33,328.25 158.78,328.25 158.24,328.25 157.69,328.25 157.15,328.25 156.61,328.25 156.06,328.25 155.52,328.25 154.97,328.25 154.43,328.25 153.89,328.25 153.34,328.25 152.80,328.25 152.25,328.25 151.71,328.25 151.16,328.25 150.62,328.25 150.08,328.25 149.53,328.25 148.99,328.25 148.44,328.25 147.90,328.25 147.36,328.25 146.81,328.25 146.27,328.25 145.72,328.25 145.18,328.25 144.64,328.25 144.09,328.25 143.55,328.25 143.00,328.25 142.46,328.25 141.92,328.25 141.37,328.25 140.83,328.25 140.28,328.25 139.74,328.25 139.19,328.25 138.65,328.25 138.11,328.25 137.56,328.25 137.02,328.25 136.47,328.25 135.93,328.25 135.39,328.25 134.84,328.25 134.30,328.25 133.75,328.25 133.21,328.25 132.67,328.25 132.12,328.25 131.58,328.25 131.03,328.25 130.49,328.25 129.95,328.25 129.40,328.25 128.86,328.25 128.31,328.25 127.77,328.25 127.23,328.25 126.68,328.25 126.14,328.25 125.59,328.25 125.05,328.25 124.50,328.25 123.96,328.25 123.42,328.25 122.87,328.25 122.33,328.25 121.78,328.25 121.24,328.25 120.70,328.25 120.15,328.25 119.61,328.25 119.06,328.25 118.52,328.25 117.98,328.25 117.43,328.25 116.89,328.25 116.34,328.25 115.80,328.25 115.26,328.25 114.71,328.25 114.17,328.25 113.62,328.25 113.08,328.25 112.54,328.25 111.99,328.25 111.45,328.25 110.90,328.25 110.36,328.25 109.81,328.25 109.27,328.25 108.73,328.25 108.18,328.25 107.64,328.25 107.09,328.25 106.55,328.25 106.01,328.25 105.46,328.25 104.92,328.25 104.37,328.25 103.83,328.25 103.29,328.25 102.74,328.25 102.20,328.25 101.65,328.25 101.11,328.25 100.57,328.25 100.02,328.25 99.48,328.25 ' style='stroke-width: 0.00; stroke: none; stroke-linecap: butt;' />
<polyline points='99.48,148.93 100.02,148.93 100.57,148.93 101.11,148.93 101.65,148.93 102.20,148.93 102.74,148.93 103.29,148.93 103.83,148.93 104.37,148.93 104.92,148.93 105.46,148.93 106.01,148.93 106.55,148.93 107.09,148.93 107.64,148.93 108.18,148.93 108.73,148.93 109.27,148.93 109.81,148.93 110.36,148.93 110.90,148.93 111.45,148.93 111.99,148.93 112.54,148.93 113.08,148.93 113.62,148.93 114.17,148.93 114.71,148.93 115.26,148.93 115.80,148.93 116.34,148.93 116.89,148.93 117.43,148.93 117.98,148.93 118.52,148.93 119.06,148.93 119.61,148.93 120.15,148.93 120.70,148.93 121.24,148.93 121.78,148.93 122.33,148.93 122.87,148.93 123.42,148.93 123.96,148.93 124.50,148.93 125.05,148.93 125.59,148.93 126.14,148.93 126.68,148.93 127.23,148.93 127.77,148.93 128.31,148.93 128.86,148.93 129.40,148.93 129.95,148.93 130.49,148.93 131.03,148.93 131.58,148.93 132.12,148.93 132.67,148.93 133.21,148.93 133.75,148.93 134.30,148.93 134.84,148.93 135.39,148.93 135.93,148.93 136.47,148.93 137.02,148.93 137.56,148.93 138.11,148.93 138.65,148.93 139.19,148.93 139.74,148.93 140.28,148.93 140.83,148.93 141.37,148.93 141.92,148.93 142.46,148.93 143.00,148.93 143.55,148.93 144.09,148.93 144.64,148.93 145.18,148.93 145.72,148.93 146.27,148.93 146.81,148.93 147.36,148.93 147.90,148.93 148.44,148.93 148.99,148.93 149.53,148.93 150.08,148.93 150.62,148.93 151.16,148.93 151.71,148.93 152.25,148.93 152.80,148.93 153.34,148.93 153.89,148.93 154.43,148.93 154.97,148.93 155.52,148.93 156.06,148.93 156.61,148.93 157.15,148.93 157.69,148.93 158.24,148.93 158.78,148.93 159.33,148.93 159.87,148.93 160.41,148.93 160.96,148.93 161.50,148.93 162.05,148.93 162.59,148.93 163.13,148.93 163.68,148.93 164.22,148.93 164.77,148.93 165.31,148.93 165.85,148.93 166.40,148.93 166.94,148.93 167.49,148.93 168.03,148.93 168.58,148.93 169.12,148.93 169.66,148.93 170.21,148.93 170.75,148.93 171.30,148.93 171.84,148.93 172.38,148.93 172.93,148.93 173.47,148.93 174.02,148.93 174.56,148.93 175.10,148.93 175.65,148.93 176.19,148.93 176.74,148.93 177.28,148.93 177.82,148.93 178.37,148.93 178.91,148.93 179.46,148.93 180.00,148.93 180.54,148.93 181.09,148.93 181.63,148.93 182.18,148.93 182.72,148.93 183.27,148.93 183.81,148.93 184.35,148.93 184.90,148.93 185.44,148.93 185.99,148.93 186.53,148.93 187.07,148.93 187.62,148.93 188.16,148.93 188.71,148.93 189.25,148.93 189.79,148.93 190.34,148.93 190.88,148.93 191.43,148.93 191.97,148.93 192.51,148.93 193.06,148.93 193.60,148.93 194.15,148.93 194.69,148.93 195.23,148.93 195.78,148.93 196.32,148.93 196.87,148.93 197.41,148.93 197.96,148.93 198.50,148.93 199.04,148.93 199.59,148.93 200.13,148.93 200.68,148.93 201.22,148.93 201.76,148.93 202.31,148.93 202.85,148.93 203.40,148.93 203.94,148.93 204.48,148.93 205.03,148.93 205.57,148.93 206.12,148.93 206.66,148.93 207.20,148.93 207.75,148.93 208.29,148.93 208.84,148.93 209.38,148.93 209.92,148.93 210.47,148.93 211.01,148.93 211.56,148.93 212.10,148.93 212.65,148.93 213.19,148.93 213.73,148.93 214.28,148.93 214.82,148.93 215.37,148.93 215.91,148.93 216.45,148.93 217.00,148.93 217.54,148.93 218.09,148.93 218.63,148.93 219.17,148.93 219.72,148.93 220.26,148.93 220.81,148.93 221.35,148.93 221.89,148.93 222.44,148.93 222.98,148.93 223.53,148.93 224.07,148.93 224.61,148.93 225.16,148.93 225.70,148.93 226.25,148.93 226.79,148.93 227.34,148.93 227.88,148.93 228.42,148.93 228.97,148.93 229.51,148.93 230.06,148.93 230.60,148.93 231.14,148.93 231.69,148.93 232.23,148.93 232.78,148.93 233.32,148.93 233.86,148.93 234.41,148.93 234.95,148.93 235.50,148.93 236.04,148.93 236.58,148.93 237.13,148.93 237.67,148.93 238.22,148.93 238.76,148.93 239.30,148.93 239.85,148.93 240.39,148.93 240.94,148.93 241.48,148.93 242.03,148.93 242.57,148.93 243.11,148.93 243.66,148.93 244.20,148.93 244.75,148.93 245.29,148.93 245.83,148.93 246.38,148.93 246.92,148.93 247.47,148.93 248.01,148.93 248.55,148.93 249.10,148.93 249.64,148.93 250.19,148.93 250.73,148.93 251.27,148.93 251.82,148.93 252.36,148.93 252.91,148.93 253.45,148.93 253.99,148.93 254.54,148.93 255.08,148.93 255.63,148.93 256.17,148.93 256.72,148.93 257.26,148.93 257.80,148.93 258.35,148.93 258.89,148.93 259.44,148.93 259.98,148.93 260.52,148.93 261.07,148.93 261.61,148.93 262.16,148.93 262.70,148.93 263.24,148.93 263.79,148.93 264.33,148.93 264.88,148.93 265.42,148.93 265.96,148.93 266.51,148.93 267.05,148.93 267.60,148.93 268.14,148.93 268.68,148.93 269.23,148.93 269.77,148.93 270.32,148.93 270.86,148.93 271.41,148.93 271.95,148.93 272.49,148.93 273.04,148.93 273.58,148.93 274.13,148.93 274.67,148.93 275.21,148.93 275.76,148.93 276.30,148.93 276.85,148.93 277.39,148.93 277.93,148.93 278.48,148.93 279.02,148.93 279.57,148.93 280.11,148.93 280.65,148.93 281.20,148.93 281.74,148.93 282.29,148.93 282.83,148.93 283.38,148.93 283.92,148.93 284.46,148.93 285.01,148.93 285.55,148.93 286.10,148.93 286.64,148.93 287.18,148.93 287.73,148.93 288.27,148.93 288.82,148.93 289.36,148.93 289.90,148.93 290.45,148.93 290.99,148.93 291.54,148.93 292.08,148.93 292.62,148.93 293.17,148.93 293.71,148.93 294.26,148.93 294.80,148.93 295.34,148.93 295.89,148.93 296.43,148.93 296.98,148.93 297.52,148.93 298.07,148.93 298.61,148.93 299.15,148.93 299.70,148.93 300.24,148.93 300.79,148.93 301.33,148.93 301.87,148.93 302.42,148.93 302.96,148.93 303.51,148.93 304.05,148.93 304.59,148.93 305.14,148.93 305.68,148.93 306.23,148.93 306.77,148.93 307.31,148.93 307.86,148.93 308.40,148.93 308.95,148.93 309.49,148.93 310.03,148.93 310.58,148.93 311.12,148.93 311.67,148.93 312.21,148.93 312.76,148.93 313.30,148.93 313.84,148.93 314.39,148.93 314.93,148.93 315.48,148.93 316.02,148.93 316.56,148.93 317.11,148.93 317.65,148.93 318.20,148.93 318.74,148.93 319.28,148.93 319.83,148.93 320.37,148.93 320.92,148.93 321.46,148.93 322.00,148.93 322.55,148.93 323.09,148.93 323.64,148.93 324.18,148.93 324.72,148.93 325.27,148.93 325.81,148.93 326.36,148.93 326.90,148.93 327.45,148.93 327.99,148.93 328.53,148.93 329.08,148.93 329.62,148.93 330.17,148.93 330.71,148.93 331.25,148.93 331.80,148.93 332.34,148.93 332.89,148.93 333.43,148.93 333.97,148.93 334.52,148.93 335.06,148.93 335.61,148.93 336.15,148.93 336.69,148.93 337.24,148.93 337.78,148.93 338.33,148.93 338.87,148.93 339.41,148.93 339.96,148.93 340.50,148.93 341.05,148.93 341.59,148.93 342.14,148.93 342.68,148.93 343.22,148.93 343.77,148.93 344.31,148.93 344.86,148.93 345.40,148.93 345.94,148.93 346.49,148.93 347.03,148.93 347.58,148.93 348.12,148.93 348.66,148.93 349.21,148.93 349.75,148.93 350.30,148.93 350.84,148.93 351.38,148.93 351.93,148.93 352.47,148.93 353.02,148.93 353.56,148.93 354.10,148.93 354.65,148.93 355.19,148.93 355.74,148.93 356.28,148.93 356.83,148.93 357.37,148.93 357.91,148.93 358.46,148.93 359.00,148.93 359.55,148.93 360.09,148.93 360.63,148.93 361.18,148.93 361.72,148.93 362.27,148.93 362.81,148.93 363.35,148.93 363.90,148.93 364.44,148.93 364.99,148.93 365.53,148.93 366.07,148.93 366.62,148.93 367.16,148.93 367.71,148.93 368.25,148.93 368.79,148.93 369.34,148.93 369.88,148.93 370.43,148.93 370.97,148.93 371.52,148.93 372.06,148.93 372.60,148.93 373.15,148.93 373.69,148.93 374.24,148.93 374.78,148.93 375.32,148.93 375.87,148.93 376.41,148.93 376.96,148.93 377.50,148.93 ' style='stroke-width: 1.07; stroke: #FFC300; stroke-linecap: butt;' />
<polygon points='99.48,59.27 100.02,59.27 100.57,59.27 101.11,59.27 101.65,59.27 102.20,59.27 102.74,59.27 103.29,59.27 103.83,59.27 104.37,59.27 104.92,59.27 105.46,59.27 106.01,59.27 106.55,59.27 107.09,59.27 107.64,59.27 108.18,59.27 108.73,59.27 109.27,59.27 109.81,59.27 110.36,59.27 110.90,59.27 111.45,59.27 111.99,59.27 112.54,59.27 113.08,59.27 113.62,59.27 114.17,59.27 114.71,59.27 115.26,59.27 115.80,59.27 116.34,59.27 116.89,59.27 117.43,59.27 117.98,59.27 118.52,59.27 119.06,59.27 119.61,59.27 120.15,59.27 120.70,59.27 121.24,59.27 121.78,59.27 122.33,59.27 122.87,59.27 123.42,59.27 123.96,59.27 124.50,59.27 125.05,59.27 125.59,59.27 126.14,59.27 126.68,59.27 127.23,59.27 127.77,59.27 128.31,59.27 128.86,59.27 129.40,59.27 129.95,59.27 130.49,59.27 131.03,59.27 131.58,59.27 132.12,59.27 132.67,59.27 133.21,59.27 133.75,59.27 134.30,59.27 134.84,59.27 135.39,59.27 135.93,59.27 136.47,59.27 137.02,59.27 137.56,59.27 138.11,59.27 138.65,59.27 139.19,59.27 139.74,59.27 140.28,59.27 140.83,59.27 141.37,59.27 141.92,59.27 142.46,59.27 143.00,59.27 143.55,59.27 144.09,59.27 144.64,59.27 145.18,59.27 145.72,59.27 146.27,59.27 146.81,59.27 147.36,59.27 147.90,59.27 148.44,59.27 148.99,59.27 149.53,59.27 150.08,59.27 150.62,59.27 151.16,59.27 151.71,59.27 152.25,59.27 152.80,59.27 153.34,59.27 153.89,59.27 154.43,59.27 154.97,59.27 155.52,59.27 156.06,59.27 156.61,59.27 157.15,59.27 157.69,59.27 158.24,59.27 158.78,59.27 159.33,59.27 159.87,59.27 160.41,59.27 160.96,59.27 161.50,59.27 162.05,59.27 162.59,59.27 163.13,59.27 163.68,59.27 164.22,59.27 164.77,59.27 165.31,59.27 165.85,59.27 166.40,59.27 166.94,59.27 167.49,59.27 168.03,59.27 168.58,59.27 169.12,59.27 169.66,59.27 170.21,59.27 170.75,59.27 171.30,59.27 171.84,59.27 172.38,59.27 172.93,59.27 173.47,59.27 174.02,59.27 174.56,59.27 175.10,59.27 175.65,59.27 176.19,59.27 176.74,59.27 177.28,59.27 177.82,59.27 178.37,59.27 178.91,59.27 179.46,59.27 180.00,59.27 180.54,59.27 181.09,59.27 181.63,59.27 182.18,59.27 182.72,59.27 183.27,59.27 183.81,59.27 184.35,59.27 184.90,59.27 185.44,59.27 185.99,59.27 186.53,59.27 187.07,59.27 187.62,59.27 188.16,59.27 188.71,59.27 189.25,59.27 189.79,59.27 190.34,59.27 190.88,59.27 191.43,59.27 191.97,59.27 192.51,59.27 193.06,59.27 193.60,59.27 194.15,59.27 194.69,59.27 195.23,59.27 195.78,59.27 196.32,59.27 196.87,59.27 197.41,59.27 197.96,59.27 198.50,59.27 199.04,59.27 199.59,59.27 200.13,59.27 200.68,59.27 201.22,59.27 201.76,59.27 202.31,59.27 202.85,59.27 203.40,59.27 203.94,59.27 204.48,59.27 205.03,59.27 205.57,59.27 206.12,59.27 206.66,59.27 207.20,59.27 207.75,59.27 208.29,59.27 208.84,59.27 209.38,59.27 209.92,59.27 210.47,59.27 211.01,59.27 211.56,59.27 212.10,59.27 212.65,59.27 213.19,59.27 213.73,59.27 214.28,59.27 214.82,59.27 215.37,59.27 215.91,59.27 216.45,59.27 217.00,59.27 217.54,59.27 218.09,59.27 218.63,59.27 219.17,59.27 219.72,59.27 220.26,59.27 220.81,59.27 221.35,59.27 221.89,59.27 222.44,59.27 222.98,59.27 223.53,59.27 224.07,59.27 224.61,59.27 225.16,59.27 225.70,59.27 226.25,59.27 226.79,59.27 227.34,59.27 227.88,59.27 228.42,59.27 228.97,59.27 229.51,59.27 230.06,59.27 230.60,59.27 231.14,59.27 231.69,59.27 232.23,59.27 232.78,59.27 233.32,59.27 233.86,59.27 234.41,59.27 234.95,59.27 235.50,59.27 236.04,59.27 236.58,59.27 237.13,59.27 237.67,59.27 238.22,59.27 238.76,59.27 239.30,59.27 239.85,59.27 240.39,59.27 240.94,59.27 241.48,59.27 242.03,59.27 242.57,59.27 243.11,59.27 243.66,59.27 244.20,59.27 244.75,59.27 245.29,59.27 245.83,59.27 246.38,59.27 246.92,59.27 247.47,59.27 248.01,59.27 248.55,59.27 249.10,59.27 249.64,59.27 250.19,59.27 250.73,59.27 251.27,59.27 251.82,59.27 252.36,59.27 252.91,59.27 253.45,59.27 253.99,59.27 254.54,59.27 255.08,59.27 255.63,59.27 256.17,59.27 256.72,59.27 257.26,59.27 257.80,59.27 258.35,59.27 258.89,59.27 259.44,59.27 259.98,59.27 260.52,59.27 261.07,59.27 261.61,59.27 262.16,59.27 262.70,59.27 263.24,59.27 263.79,59.27 264.33,59.27 264.88,59.27 265.42,59.27 265.96,59.27 266.51,59.27 267.05,59.27 267.60,59.27 268.14,59.27 268.68,59.27 269.23,59.27 269.77,59.27 270.32,59.27 270.86,59.27 271.41,59.27 271.95,59.27 272.49,59.27 273.04,59.27 273.58,59.27 274.13,59.27 274.67,59.27 275.21,59.27 275.76,59.27 276.30,59.27 276.85,59.27 277.39,59.27 277.93,59.27 278.48,59.27 279.02,59.27 279.57,59.27 280.11,59.27 280.65,59.27 281.20,59.27 281.74,59.27 282.29,59.27 282.83,59.27 283.38,59.27 283.92,59.27 284.46,59.27 285.01,59.27 285.55,59.27 286.10,59.27 286.64,59.27 287.18,59.27 287.73,59.27 288.27,59.27 288.82,59.27 289.36,59.27 289.90,59.27 290.45,59.27 290.99,59.27 291.54,59.27 292.08,59.27 292.62,59.27 293.17,59.27 293.71,59.27 294.26,59.27 294.80,59.27 295.34,59.27 295.89,59.27 296.43,59.27 296.98,59.27 297.52,59.27 298.07,59.27 298.61,59.27 299.15,59.27 299.70,59.27 300.24,59.27 300.79,59.27 301.33,59.27 301.87,59.27 302.42,59.27 302.96,59.27 303.51,59.27 304.05,59.27 304.59,59.27 305.14,59.27 305.68,59.27 306.23,59.27 306.77,59.27 307.31,59.27 307.86,59.27 308.40,59.27 308.95,59.27 309.49,59.27 310.03,59.27 310.58,59.27 311.12,59.27 311.67,59.27 312.21,59.27 312.76,59.27 313.30,59.27 313.84,59.27 314.39,59.27 314.93,59.27 315.48,59.27 316.02,59.27 316.56,59.27 317.11,59.27 317.65,59.27 318.20,59.27 318.74,59.27 319.28,59.27 319.83,59.27 320.37,59.27 320.92,59.27 321.46,59.27 322.00,59.27 322.55,59.27 323.09,59.27 323.64,59.27 324.18,59.27 324.72,59.27 325.27,59.27 325.81,59.27 326.36,59.27 326.90,59.27 327.45,59.27 327.99,59.27 328.53,59.27 329.08,59.27 329.62,59.27 330.17,59.27 330.71,59.27 331.25,59.27 331.80,59.27 332.34,59.27 332.89,59.27 333.43,59.27 333.97,59.27 334.52,59.27 335.06,59.27 335.61,59.27 336.15,59.27 336.69,59.27 337.24,59.27 337.78,59.27 338.33,59.27 338.87,59.27 339.41,59.27 339.96,59.27 340.50,59.27 341.05,59.27 341.59,59.27 342.14,59.27 342.68,59.27 343.22,59.27 343.77,59.27 344.31,59.27 344.86,59.27 345.40,59.27 345.94,59.27 346.49,59.27 347.03,59.27 347.58,59.27 348.12,59.27 348.66,59.27 349.21,59.27 349.75,59.27 350.30,59.27 350.84,59.27 351.38,59.27 351.93,59.27 352.47,59.27 353.02,59.27 353.56,59.27 354.10,59.27 354.65,59.27 355.19,59.27 355.74,59.27 356.28,59.27 356.83,59.27 357.37,59.27 357.91,59.27 358.46,59.27 359.00,59.27 359.55,59.27 360.09,59.27 360.63,59.27 361.18,59.27 361.72,59.27 362.27,59.27 362.81,59.27 363.35,59.27 363.90,59.27 364.44,59.27 364.99,59.27 365.53,59.27 366.07,59.27 366.62,59.27 367.16,59.27 367.71,59.27 368.25,59.27 368.79,59.27 369.34,59.27 369.88,59.27 370.43,59.27 370.97,59.27 371.52,59.27 372.06,59.27 372.60,59.27 373.15,59.27 373.69,59.27 374.24,59.27 374.78,59.27 375.32,59.27 375.87,59.27 376.41,59.27 376.96,59.27 377.50,59.27 377.50,328.25 376.96,328.25 376.41,328.25 375.87,328.25 375.32,328.25 374.78,328.25 374.24,328.25 373.69,328.25 373.15,328.25 372.60,328.25 372.06,328.25 371.52,328.25 370.97,328.25 370.43,328.25 369.88,328.25 369.34,328.25 368.79,328.25 368.25,328.25 367.71,328.25 367.16,328.25 366.62,328.25 366.07,328.25 365.53,328.25 364.99,328.25 364.44,328.25 363.90,328.25 363.35,328.25 362.81,328.25 362.27,328.25 361.72,328.25 361.18,328.25 360.63,328.25 360.09,328.25 359.55,328.25 359.00,328.25 358.46,328.25 357.91,328.25 357.37,328.25 356.83,328.25 356.28,328.25 355.74,328.25 355.19,328.25 354.65,328.25 354.10,328.25 353.56,328.25 353.02,328.25 352.47,328.25 351.93,328.25 351.38,328.25 350.84,328.25 350.30,328.25 349.75,328.25 349.21,328.25 348.66,328.25 348.12,328.25 347.58,328.25 347.03,328.25 346.49,328.25 345.94,328.25 345.40,328.25 344.86,328.25 344.31,328.25 343.77,328.25 343.22,328.25 342.68,328.25 342.14,328.25 341.59,328.25 341.05,328.25 340.50,328.25 339.96,328.25 339.41,328.25 338.87,328.25 338.33,328.25 337.78,328.25 337.24,328.25 336.69,328.25 336.15,328.25 335.61,328.25 335.06,328.25 334.52,328.25 333.97,328.25 333.43,328.25 332.89,328.25 332.34,328.25 331.80,328.25 331.25,328.25 330.71,328.25 330.17,328.25 329.62,328.25 329.08,328.25 328.53,328.25 327.99,328.25 327.45,328.25 326.90,328.25 326.36,328.25 325.81,328.25 325.27,328.25 324.72,328.25 324.18,328.25 323.64,328.25 323.09,328.25 322.55,328.25 322.00,328.25 321.46,328.25 320.92,328.25 320.37,328.25 319.83,328.25 319.28,328.25 318.74,328.25 318.20,328.25 317.65,328.25 317.11,328.25 316.56,328.25 316.02,328.25 315.48,328.25 314.93,328.25 314.39,328.25 313.84,328.25 313.30,328.25 312.76,328.25 312.21,328.25 311.67,328.25 311.12,328.25 310.58,328.25 310.03,328.25 309.49,328.25 308.95,328.25 308.40,328.25 307.86,328.25 307.31,328.25 306.77,328.25 306.23,328.25 305.68,328.25 305.14,328.25 304.59,328.25 304.05,328.25 303.51,328.25 302.96,328.25 302.42,328.25 301.87,328.25 301.33,328.25 300.79,328.25 300.24,328.25 299.70,328.25 299.15,328.25 298.61,328.25 298.07,328.25 297.52,328.25 296.98,328.25 296.43,328.25 295.89,328.25 295.34,328.25 294.80,328.25 294.26,328.25 293.71,328.25 293.17,328.25 292.62,328.25 292.08,328.25 291.54,328.25 290.99,328.25 290.45,328.25 289.90,328.25 289.36,328.25 288.82,328.25 288.27,328.25 287.73,328.25 287.18,328.25 286.64,328.25 286.10,328.25 285.55,328.25 285.01,328.25 284.46,328.25 283.92,328.25 283.38,328.25 282.83,328.25 282.29,328.25 281.74,328.25 281.20,328.25 280.65,328.25 280.11,328.25 279.57,328.25 279.02,328.25 278.48,328.25 277.93,328.25 277.39,328.25 276.85,328.25 276.30,328.25 275.76,328.25 275.21,328.25 274.67,328.25 274.13,328.25 273.58,328.25 273.04,328.25 272.49,328.25 271.95,328.25 271.41,328.25 270.86,328.25 270.32,328.25 269.77,328.25 269.23,328.25 268.68,328.25 268.14,328.25 267.60,328.25 267.05,328.25 266.51,328.25 265.96,328.25 265.42,328.25 264.88,328.25 264.33,328.25 263.79,328.25 263.24,328.25 262.70,328.25 262.16,328.25 261.61,328.25 261.07,328.25 260.52,328.25 259.98,328.25 259.44,328.25 258.89,328.25 258.35,328.25 257.80,328.25 257.26,328.25 256.72,328.25 256.17,328.25 255.63,328.25 255.08,328.25 254.54,328.25 253.99,328.25 253.45,328.25 252.91,328.25 252.36,328.25 251.82,328.25 251.27,328.25 250.73,328.25 250.19,328.25 249.64,328.25 249.10,328.25 248.55,328.25 248.01,328.25 247.47,328.25 246.92,328.25 246.38,328.25 245.83,328.25 245.29,328.25 244.75,328.25 244.20,328.25 243.66,328.25 243.11,328.25 242.57,328.25 242.03,328.25 241.48,328.25 240.94,328.25 240.39,328.25 239.85,328.25 239.30,328.25 238.76,328.25 238.22,328.25 237.67,328.25 237.13,328.25 236.58,328.25 236.04,328.25 235.50,328.25 234.95,328.25 234.41,328.25 233.86,328.25 233.32,328.25 232.78,328.25 232.23,328.25 231.69,328.25 231.14,328.25 230.60,328.25 230.06,328.25 229.51,328.25 228.97,328.25 228.42,328.25 227.88,328.25 227.34,328.25 226.79,328.25 226.25,328.25 225.70,328.25 225.16,328.25 224.61,328.25 224.07,328.25 223.53,328.25 222.98,328.25 222.44,328.25 221.89,328.25 221.35,328.25 220.81,328.25 220.26,328.25 219.72,328.25 219.17,328.25 218.63,328.25 218.09,328.25 217.54,328.25 217.00,328.25 216.45,328.25 215.91,328.25 215.37,328.25 214.82,328.25 214.28,328.25 213.73,328.25 213.19,328.25 212.65,328.25 212.10,328.25 211.56,328.25 211.01,328.25 210.47,328.25 209.92,328.25 209.38,328.25 208.84,328.25 208.29,328.25 207.75,328.25 207.20,328.25 206.66,328.25 206.12,328.25 205.57,328.25 205.03,328.25 204.48,328.25 203.94,328.25 203.40,328.25 202.85,328.25 202.31,328.25 201.76,328.25 201.22,328.25 200.68,328.25 200.13,328.25 199.59,328.25 199.04,328.25 198.50,328.25 197.96,328.25 197.41,328.25 196.87,328.25 196.32,328.25 195.78,328.25 195.23,328.25 194.69,328.25 194.15,328.25 193.60,328.25 193.06,328.25 192.51,328.25 191.97,328.25 191.43,328.25 190.88,328.25 190.34,328.25 189.79,328.25 189.25,328.25 188.71,328.25 188.16,328.25 187.62,328.25 187.07,328.25 186.53,328.25 185.99,328.25 185.44,328.25 184.90,328.25 184.35,328.25 183.81,328.25 183.27,328.25 182.72,328.25 182.18,328.25 181.63,328.25 181.09,328.25 180.54,328.25 180.00,328.25 179.46,328.25 178.91,328.25 178.37,328.25 177.82,328.25 177.28,328.25 176.74,328.25 176.19,328.25 175.65,328.25 175.10,328.25 174.56,328.25 174.02,328.25 173.47,328.25 172.93,328.25 172.38,328.25 171.84,328.25 171.30,328.25 170.75,328.25 170.21,328.25 169.66,328.25 169.12,328.25 168.58,328.25 168.03,328.25 167.49,328.25 166.94,328.25 166.40,328.25 165.85,328.25 165.31,328.25 164.77,328.25 164.22,328.25 163.68,328.25 163.13,328.25 162.59,328.25 162.05,328.25 161.50,328.25 160.96,328.25 160.41,328.25 159.87,328.25 159.33,328.25 158.78,328.25 158.24,328.25 157.69,328.25 157.15,328.25 156.61,328.25 156.06,328.25 155.52,328.25 154.97,328.25 154.43,328.25 153.89,328.25 153.34,328.25 152.80,328.25 152.25,328.25 151.71,328.25 151.16,328.25 150.62,328.25 150.08,328.25 149.53,328.25 148.99,328.25 148.44,328.25 147.90,328.25 147.36,328.25 146.81,328.25 146.27,328.25 145.72,328.25 145.18,328.25 144.64,328.25 144.09,328.25 143.55,328.25 143.00,328.25 142.46,328.25 141.92,328.25 141.37,328.25 140.83,328.25 140.28,328.25 139.74,328.25 139.19,328.25 138.65,328.25 138.11,328.25 137.56,328.25 137.02,328.25 136.47,328.25 135.93,328.25 135.39,328.25 134.84,328.25 134.30,328.25 133.75,328.25 133.21,328.25 132.67,328.25 132.12,328.25 131.58,328.25 131.03,328.25 130.49,328.25 129.95,328.25 129.40,328.25 128.86,328.25 128.31,328.25 127.77,328.25 127.23,328.25 126.68,328.25 126.14,328.25 125.59,328.25 125.05,328.25 124.50,328.25 123.96,328.25 123.42,328.25 122.87,328.25 122.33,328.25 121.78,328.25 121.24,328.25 120.70,328.25 120.15,328.25 119.61,328.25 119.06,328.25 118.52,328.25 117.98,328.25 117.43,328.25 116.89,328.25 116.34,328.25 115.80,328.25 115.26,328.25 114.71,328.25 114.17,328.25 113.62,328.25 113.08,328.25 112.54,328.25 111.99,328.25 111.45,328.25 110.90,328.25 110.36,328.25 109.81,328.25 109.27,328.25 108.73,328.25 108.18,328.25 107.64,328.25 107.09,328.25 106.55,328.25 106.01,328.25 105.46,328.25 104.92,328.25 104.37,328.25 103.83,328.25 103.29,328.25 102.74,328.25 102.20,328.25 101.65,328.25 101.11,328.25 100.57,328.25 100.02,328.25 99.48,328.25 ' style='stroke-width: 0.00; stroke: none; stroke-linecap: butt;' />
<polyline points='99.48,59.27 100.02,59.27 100.57,59.27 101.11,59.27 101.65,59.27 102.20,59.27 102.74,59.27 103.29,59.27 103.83,59.27 104.37,59.27 104.92,59.27 105.46,59.27 106.01,59.27 106.55,59.27 107.09,59.27 107.64,59.27 108.18,59.27 108.73,59.27 109.27,59.27 109.81,59.27 110.36,59.27 110.90,59.27 111.45,59.27 111.99,59.27 112.54,59.27 113.08,59.27 113.62,59.27 114.17,59.27 114.71,59.27 115.26,59.27 115.80,59.27 116.34,59.27 116.89,59.27 117.43,59.27 117.98,59.27 118.52,59.27 119.06,59.27 119.61,59.27 120.15,59.27 120.70,59.27 121.24,59.27 121.78,59.27 122.33,59.27 122.87,59.27 123.42,59.27 123.96,59.27 124.50,59.27 125.05,59.27 125.59,59.27 126.14,59.27 126.68,59.27 127.23,59.27 127.77,59.27 128.31,59.27 128.86,59.27 129.40,59.27 129.95,59.27 130.49,59.27 131.03,59.27 131.58,59.27 132.12,59.27 132.67,59.27 133.21,59.27 133.75,59.27 134.30,59.27 134.84,59.27 135.39,59.27 135.93,59.27 136.47,59.27 137.02,59.27 137.56,59.27 138.11,59.27 138.65,59.27 139.19,59.27 139.74,59.27 140.28,59.27 140.83,59.27 141.37,59.27 141.92,59.27 142.46,59.27 143.00,59.27 143.55,59.27 144.09,59.27 144.64,59.27 145.18,59.27 145.72,59.27 146.27,59.27 146.81,59.27 147.36,59.27 147.90,59.27 148.44,59.27 148.99,59.27 149.53,59.27 150.08,59.27 150.62,59.27 151.16,59.27 151.71,59.27 152.25,59.27 152.80,59.27 153.34,59.27 153.89,59.27 154.43,59.27 154.97,59.27 155.52,59.27 156.06,59.27 156.61,59.27 157.15,59.27 157.69,59.27 158.24,59.27 158.78,59.27 159.33,59.27 159.87,59.27 160.41,59.27 160.96,59.27 161.50,59.27 162.05,59.27 162.59,59.27 163.13,59.27 163.68,59.27 164.22,59.27 164.77,59.27 165.31,59.27 165.85,59.27 166.40,59.27 166.94,59.27 167.49,59.27 168.03,59.27 168.58,59.27 169.12,59.27 169.66,59.27 170.21,59.27 170.75,59.27 171.30,59.27 171.84,59.27 172.38,59.27 172.93,59.27 173.47,59.27 174.02,59.27 174.56,59.27 175.10,59.27 175.65,59.27 176.19,59.27 176.74,59.27 177.28,59.27 177.82,59.27 178.37,59.27 178.91,59.27 179.46,59.27 180.00,59.27 180.54,59.27 181.09,59.27 181.63,59.27 182.18,59.27 182.72,59.27 183.27,59.27 183.81,59.27 184.35,59.27 184.90,59.27 185.44,59.27 185.99,59.27 186.53,59.27 187.07,59.27 187.62,59.27 188.16,59.27 188.71,59.27 189.25,59.27 189.79,59.27 190.34,59.27 190.88,59.27 191.43,59.27 191.97,59.27 192.51,59.27 193.06,59.27 193.60,59.27 194.15,59.27 194.69,59.27 195.23,59.27 195.78,59.27 196.32,59.27 196.87,59.27 197.41,59.27 197.96,59.27 198.50,59.27 199.04,59.27 199.59,59.27 200.13,59.27 200.68,59.27 201.22,59.27 201.76,59.27 202.31,59.27 202.85,59.27 203.40,59.27 203.94,59.27 204.48,59.27 205.03,59.27 205.57,59.27 206.12,59.27 206.66,59.27 207.20,59.27 207.75,59.27 208.29,59.27 208.84,59.27 209.38,59.27 209.92,59.27 210.47,59.27 211.01,59.27 211.56,59.27 212.10,59.27 212.65,59.27 213.19,59.27 213.73,59.27 214.28,59.27 214.82,59.27 215.37,59.27 215.91,59.27 216.45,59.27 217.00,59.27 217.54,59.27 218.09,59.27 218.63,59.27 219.17,59.27 219.72,59.27 220.26,59.27 220.81,59.27 221.35,59.27 221.89,59.27 222.44,59.27 222.98,59.27 223.53,59.27 224.07,59.27 224.61,59.27 225.16,59.27 225.70,59.27 226.25,59.27 226.79,59.27 227.34,59.27 227.88,59.27 228.42,59.27 228.97,59.27 229.51,59.27 230.06,59.27 230.60,59.27 231.14,59.27 231.69,59.27 232.23,59.27 232.78,59.27 233.32,59.27 233.86,59.27 234.41,59.27 234.95,59.27 235.50,59.27 236.04,59.27 236.58,59.27 237.13,59.27 237.67,59.27 238.22,59.27 238.76,59.27 239.30,59.27 239.85,59.27 240.39,59.27 240.94,59.27 241.48,59.27 242.03,59.27 242.57,59.27 243.11,59.27 243.66,59.27 244.20,59.27 244.75,59.27 245.29,59.27 245.83,59.27 246.38,59.27 246.92,59.27 247.47,59.27 248.01,59.27 248.55,59.27 249.10,59.27 249.64,59.27 250.19,59.27 250.73,59.27 251.27,59.27 251.82,59.27 252.36,59.27 252.91,59.27 253.45,59.27 253.99,59.27 254.54,59.27 255.08,59.27 255.63,59.27 256.17,59.27 256.72,59.27 257.26,59.27 257.80,59.27 258.35,59.27 258.89,59.27 259.44,59.27 259.98,59.27 260.52,59.27 261.07,59.27 261.61,59.27 262.16,59.27 262.70,59.27 263.24,59.27 263.79,59.27 264.33,59.27 264.88,59.27 265.42,59.27 265.96,59.27 266.51,59.27 267.05,59.27 267.60,59.27 268.14,59.27 268.68,59.27 269.23,59.27 269.77,59.27 270.32,59.27 270.86,59.27 271.41,59.27 271.95,59.27 272.49,59.27 273.04,59.27 273.58,59.27 274.13,59.27 274.67,59.27 275.21,59.27 275.76,59.27 276.30,59.27 276.85,59.27 277.39,59.27 277.93,59.27 278.48,59.27 279.02,59.27 279.57,59.27 280.11,59.27 280.65,59.27 281.20,59.27 281.74,59.27 282.29,59.27 282.83,59.27 283.38,59.27 283.92,59.27 284.46,59.27 285.01,59.27 285.55,59.27 286.10,59.27 286.64,59.27 287.18,59.27 287.73,59.27 288.27,59.27 288.82,59.27 289.36,59.27 289.90,59.27 290.45,59.27 290.99,59.27 291.54,59.27 292.08,59.27 292.62,59.27 293.17,59.27 293.71,59.27 294.26,59.27 294.80,59.27 295.34,59.27 295.89,59.27 296.43,59.27 296.98,59.27 297.52,59.27 298.07,59.27 298.61,59.27 299.15,59.27 299.70,59.27 300.24,59.27 300.79,59.27 301.33,59.27 301.87,59.27 302.42,59.27 302.96,59.27 303.51,59.27 304.05,59.27 304.59,59.27 305.14,59.27 305.68,59.27 306.23,59.27 306.77,59.27 307.31,59.27 307.86,59.27 308.40,59.27 308.95,59.27 309.49,59.27 310.03,59.27 310.58,59.27 311.12,59.27 311.67,59.27 312.21,59.27 312.76,59.27 313.30,59.27 313.84,59.27 314.39,59.27 314.93,59.27 315.48,59.27 316.02,59.27 316.56,59.27 317.11,59.27 317.65,59.27 318.20,59.27 318.74,59.27 319.28,59.27 319.83,59.27 320.37,59.27 320.92,59.27 321.46,59.27 322.00,59.27 322.55,59.27 323.09,59.27 323.64,59.27 324.18,59.27 324.72,59.27 325.27,59.27 325.81,59.27 326.36,59.27 326.90,59.27 327.45,59.27 327.99,59.27 328.53,59.27 329.08,59.27 329.62,59.27 330.17,59.27 330.71,59.27 331.25,59.27 331.80,59.27 332.34,59.27 332.89,59.27 333.43,59.27 333.97,59.27 334.52,59.27 335.06,59.27 335.61,59.27 336.15,59.27 336.69,59.27 337.24,59.27 337.78,59.27 338.33,59.27 338.87,59.27 339.41,59.27 339.96,59.27 340.50,59.27 341.05,59.27 341.59,59.27 342.14,59.27 342.68,59.27 343.22,59.27 343.77,59.27 344.31,59.27 344.86,59.27 345.40,59.27 345.94,59.27 346.49,59.27 347.03,59.27 347.58,59.27 348.12,59.27 348.66,59.27 349.21,59.27 349.75,59.27 350.30,59.27 350.84,59.27 351.38,59.27 351.93,59.27 352.47,59.27 353.02,59.27 353.56,59.27 354.10,59.27 354.65,59.27 355.19,59.27 355.74,59.27 356.28,59.27 356.83,59.27 357.37,59.27 357.91,59.27 358.46,59.27 359.00,59.27 359.55,59.27 360.09,59.27 360.63,59.27 361.18,59.27 361.72,59.27 362.27,59.27 362.81,59.27 363.35,59.27 363.90,59.27 364.44,59.27 364.99,59.27 365.53,59.27 366.07,59.27 366.62,59.27 367.16,59.27 367.71,59.27 368.25,59.27 368.79,59.27 369.34,59.27 369.88,59.27 370.43,59.27 370.97,59.27 371.52,59.27 372.06,59.27 372.60,59.27 373.15,59.27 373.69,59.27 374.24,59.27 374.78,59.27 375.32,59.27 375.87,59.27 376.41,59.27 376.96,59.27 377.50,59.27 ' style='stroke-width: 1.07; stroke: #F11212; stroke-linecap: butt;' />
</g>
<g clip-path='url(#cpMC4wMHw1MDQuMDB8MC4wMHwzNjAuMDA=)'>
<text x='80.64' y='241.75' text-anchor='end' style='font-size: 8.80px;fill: #4D4D4D; font-family: "Arial";' textLength='25.93px' lengthAdjust='spacingAndGlyphs'>gplas2</text>
<text x='80.64' y='152.09' text-anchor='end' style='font-size: 8.80px;fill: #4D4D4D; font-family: "Arial";' textLength='41.55px' lengthAdjust='spacingAndGlyphs'>MOB-suite</text>
<text x='80.64' y='62.43' text-anchor='end' style='font-size: 8.80px;fill: #4D4D4D; font-family: "Arial";' textLength='62.11px' lengthAdjust='spacingAndGlyphs'>plasmidSPAdes</text>
<text x='99.48' y='339.49' text-anchor='middle' style='font-size: 8.80px;fill: #4D4D4D; font-family: "Arial";' textLength='12.72px' lengthAdjust='spacingAndGlyphs'>-10</text>
<text x='168.98' y='339.49' text-anchor='middle' style='font-size: 8.80px;fill: #4D4D4D; font-family: "Arial";' textLength='7.83px' lengthAdjust='spacingAndGlyphs'>-5</text>
<text x='238.49' y='339.49' text-anchor='middle' style='font-size: 8.80px;fill: #4D4D4D; font-family: "Arial";' textLength='4.90px' lengthAdjust='spacingAndGlyphs'>0</text>
<text x='307.99' y='339.49' text-anchor='middle' style='font-size: 8.80px;fill: #4D4D4D; font-family: "Arial";' textLength='4.90px' lengthAdjust='spacingAndGlyphs'>5</text>
<text x='377.50' y='339.49' text-anchor='middle' style='font-size: 8.80px;fill: #4D4D4D; font-family: "Arial";' textLength='9.79px' lengthAdjust='spacingAndGlyphs'>10</text>
<text x='238.49' y='352.10' text-anchor='middle' style='font-size: 11.00px; font-family: "Arial";' textLength='56.87px' lengthAdjust='spacingAndGlyphs'>nbin - nplas</text>
<text transform='translate(13.37,166.87) rotate(-90)' text-anchor='middle' style='font-size: 11.00px; font-family: "Arial";' textLength='41.57px' lengthAdjust='spacingAndGlyphs'>software</text>
<text x='407.84' y='142.15' style='font-size: 11.00px; font-family: "Arial";' textLength='41.57px' lengthAdjust='spacingAndGlyphs'>software</text>
<polyline points='409.57,157.48 412.16,157.48 ' style='stroke-width: 1.07; stroke: #00FF93; stroke-linecap: butt; stroke-linejoin: miter;' />
<polyline points='420.80,157.48 423.39,157.48 ' style='stroke-width: 1.07; stroke: #00FF93; stroke-linecap: butt; stroke-linejoin: miter;' />
<polygon points='412.16,151.00 420.80,151.00 420.80,163.96 412.16,163.96 412.16,151.00 ' style='stroke-width: 1.07; stroke: none; stroke-linecap: butt; stroke-linejoin: miter; fill: #FFFFFF;' />
<polygon points='412.16,151.00 420.80,151.00 420.80,163.96 412.16,163.96 412.16,151.00 ' style='stroke-width: 1.07; stroke: #00FF93; stroke-linecap: butt; stroke-linejoin: miter;' />
<polyline points='416.48,151.00 416.48,163.96 ' style='stroke-width: 1.07; stroke: #00FF93; stroke-linecap: butt; stroke-linejoin: miter;' />
<circle cx='416.48' cy='157.48' r='1.95' style='stroke-width: 0.71; stroke: #00FF93; fill: #00FF93;' />
<rect x='408.55' y='149.55' width='15.86' height='15.86' style='stroke-width: 1.07; stroke: #00FF93; stroke-linecap: butt; stroke-linejoin: miter;' />
<polyline points='409.57,174.76 412.16,174.76 ' style='stroke-width: 1.07; stroke: #FFC300; stroke-linecap: butt; stroke-linejoin: miter;' />
<polyline points='420.80,174.76 423.39,174.76 ' style='stroke-width: 1.07; stroke: #FFC300; stroke-linecap: butt; stroke-linejoin: miter;' />
<polygon points='412.16,168.28 420.80,168.28 420.80,181.24 412.16,181.24 412.16,168.28 ' style='stroke-width: 1.07; stroke: none; stroke-linecap: butt; stroke-linejoin: miter; fill: #FFFFFF;' />
<polygon points='412.16,168.28 420.80,168.28 420.80,181.24 412.16,181.24 412.16,168.28 ' style='stroke-width: 1.07; stroke: #FFC300; stroke-linecap: butt; stroke-linejoin: miter;' />
<polyline points='416.48,168.28 416.48,181.24 ' style='stroke-width: 1.07; stroke: #FFC300; stroke-linecap: butt; stroke-linejoin: miter;' />
<circle cx='416.48' cy='174.76' r='1.95' style='stroke-width: 0.71; stroke: #FFC300; fill: #FFC300;' />
<rect x='408.55' y='166.83' width='15.86' height='15.86' style='stroke-width: 1.07; stroke: #FFC300; stroke-linecap: butt; stroke-linejoin: miter;' />
<polyline points='409.57,192.04 412.16,192.04 ' style='stroke-width: 1.07; stroke: #F11212; stroke-linecap: butt; stroke-linejoin: miter;' />
<polyline points='420.80,192.04 423.39,192.04 ' style='stroke-width: 1.07; stroke: #F11212; stroke-linecap: butt; stroke-linejoin: miter;' />
<polygon points='412.16,185.56 420.80,185.56 420.80,198.52 412.16,198.52 412.16,185.56 ' style='stroke-width: 1.07; stroke: none; stroke-linecap: butt; stroke-linejoin: miter; fill: #FFFFFF;' />
<polygon points='412.16,185.56 420.80,185.56 420.80,198.52 412.16,198.52 412.16,185.56 ' style='stroke-width: 1.07; stroke: #F11212; stroke-linecap: butt; stroke-linejoin: miter;' />
<polyline points='416.48,185.56 416.48,198.52 ' style='stroke-width: 1.07; stroke: #F11212; stroke-linecap: butt; stroke-linejoin: miter;' />
<circle cx='416.48' cy='192.04' r='1.95' style='stroke-width: 0.71; stroke: #F11212; fill: #F11212;' />
<rect x='408.55' y='184.11' width='15.86' height='15.86' style='stroke-width: 1.07; stroke: #F11212; stroke-linecap: butt; stroke-linejoin: miter;' />
<text x='430.60' y='160.64' style='font-size: 8.80px; font-family: "Arial";' textLength='25.93px' lengthAdjust='spacingAndGlyphs'>gplas2</text>
<text x='430.60' y='177.92' style='font-size: 8.80px; font-family: "Arial";' textLength='41.55px' lengthAdjust='spacingAndGlyphs'>MOB-suite</text>
<text x='430.60' y='195.20' style='font-size: 8.80px; font-family: "Arial";' textLength='62.11px' lengthAdjust='spacingAndGlyphs'>plasmidSPAdes</text>
</g>
</svg>
