<?xml version='1.0' encoding='UTF-8' ?>
<svg xmlns='http://www.w3.org/2000/svg' xmlns:xlink='http://www.w3.org/1999/xlink' class='svglite' width='504.00pt' height='360.00pt' viewBox='0 0 504.00 360.00'>
<defs>
  <style type='text/css'><![CDATA[
    .svglite line, .svglite polyline, .svglite polygon, .svglite path, .svglite rect, .svglite circle {
      fill: none;
      stroke: #000000;
      stroke-linecap: round;
      stroke-linejoin: round;
      stroke-miterlimit: 10.00;
    }
    .svglite text {
      white-space: pre;
    }
  ]]></style>
</defs>
<rect width='100%' height='100%' style='stroke: none; fill: #FFFFFF;'/>
<defs>
  <clipPath id='cpMC4wMHw1MDQuMDB8MC4wMHwzNjAuMDA='>
    <rect x='0.00' y='0.00' width='504.00' height='360.00' />
  </clipPath>
</defs>
<g clip-path='url(#cpMC4wMHw1MDQuMDB8MC4wMHwzNjAuMDA=)'>
<rect x='0.00' y='0.00' width='504.00' height='360.00' style='stroke-width: 1.07; stroke: #FFFFFF; fill: #FFFFFF;' />
</g>
<defs>
  <clipPath id='cpNDMuNzV8MjY4LjQwfDY1LjY0fDMyNC4zMg=='>
    <rect x='43.75' y='65.64' width='224.64' height='258.68' />
  </clipPath>
</defs>
<g clip-path='url(#cpNDMuNzV8MjY4LjQwfDY1LjY0fDMyNC4zMg==)'>
<rect x='43.75' y='65.64' width='224.64' height='258.68' style='stroke-width: 1.07; stroke: none; fill: #FFFFFF;' />
<polyline points='43.75,274.63 268.40,274.63 ' style='stroke-width: 0.53; stroke: #EBEBEB; stroke-linecap: butt;' />
<polyline points='43.75,198.77 268.40,198.77 ' style='stroke-width: 0.53; stroke: #EBEBEB; stroke-linecap: butt;' />
<polyline points='43.75,122.91 268.40,122.91 ' style='stroke-width: 0.53; stroke: #EBEBEB; stroke-linecap: butt;' />
<polyline points='43.75,312.56 268.40,312.56 ' style='stroke-width: 1.07; stroke: #EBEBEB; stroke-linecap: butt;' />
<polyline points='43.75,236.70 268.40,236.70 ' style='stroke-width: 1.07; stroke: #EBEBEB; stroke-linecap: butt;' />
<polyline points='43.75,160.84 268.40,160.84 ' style='stroke-width: 1.07; stroke: #EBEBEB; stroke-linecap: butt;' />
<polyline points='43.75,84.98 268.40,84.98 ' style='stroke-width: 1.07; stroke: #EBEBEB; stroke-linecap: butt;' />
<polyline points='105.02,324.32 105.02,65.64 ' style='stroke-width: 1.07; stroke: #EBEBEB; stroke-linecap: butt;' />
<polyline points='207.13,324.32 207.13,65.64 ' style='stroke-width: 1.07; stroke: #EBEBEB; stroke-linecap: butt;' />
<rect x='161.18' y='191.18' width='91.90' height='121.37' style='stroke-width: 1.07; stroke: none; stroke-linecap: butt; stroke-linejoin: miter; fill: #FF9933;' />
<rect x='59.07' y='274.63' width='91.90' height='37.93' style='stroke-width: 1.07; stroke: none; stroke-linecap: butt; stroke-linejoin: miter; fill: #434343;' />
<rect x='161.18' y='100.15' width='91.90' height='91.03' style='stroke-width: 1.07; stroke: none; stroke-linecap: butt; stroke-linejoin: miter; fill: #A6A6A6;' />
<rect x='43.75' y='65.64' width='224.64' height='258.68' style='stroke-width: 1.07; stroke: #333333;' />
</g>
<g clip-path='url(#cpMC4wMHw1MDQuMDB8MC4wMHwzNjAuMDA=)'>
</g>
<defs>
  <clipPath id='cpMjczLjg4fDQ5OC41Mnw2NS42NHwzMjQuMzI='>
    <rect x='273.88' y='65.64' width='224.64' height='258.68' />
  </clipPath>
</defs>
<g clip-path='url(#cpMjczLjg4fDQ5OC41Mnw2NS42NHwzMjQuMzI=)'>
<rect x='273.88' y='65.64' width='224.64' height='258.68' style='stroke-width: 1.07; stroke: none; fill: #FFFFFF;' />
<polyline points='273.88,274.63 498.52,274.63 ' style='stroke-width: 0.53; stroke: #EBEBEB; stroke-linecap: butt;' />
<polyline points='273.88,198.77 498.52,198.77 ' style='stroke-width: 0.53; stroke: #EBEBEB; stroke-linecap: butt;' />
<polyline points='273.88,122.91 498.52,122.91 ' style='stroke-width: 0.53; stroke: #EBEBEB; stroke-linecap: butt;' />
<polyline points='273.88,312.56 498.52,312.56 ' style='stroke-width: 1.07; stroke: #EBEBEB; stroke-linecap: butt;' />
<polyline points='273.88,236.70 498.52,236.70 ' style='stroke-width: 1.07; stroke: #EBEBEB; stroke-linecap: butt;' />
<polyline points='273.88,160.84 498.52,160.84 ' style='stroke-width: 1.07; stroke: #EBEBEB; stroke-linecap: butt;' />
<polyline points='273.88,84.98 498.52,84.98 ' style='stroke-width: 1.07; stroke: #EBEBEB; stroke-linecap: butt;' />
<polyline points='335.14,324.32 335.14,65.64 ' style='stroke-width: 1.07; stroke: #EBEBEB; stroke-linecap: butt;' />
<polyline points='437.25,324.32 437.25,65.64 ' style='stroke-width: 1.07; stroke: #EBEBEB; stroke-linecap: butt;' />
<rect x='391.30' y='164.63' width='91.90' height='147.92' style='stroke-width: 1.07; stroke: none; stroke-linecap: butt; stroke-linejoin: miter; fill: #FF9933;' />
<rect x='289.19' y='77.40' width='91.90' height='235.16' style='stroke-width: 1.07; stroke: none; stroke-linecap: butt; stroke-linejoin: miter; fill: #434343;' />
<rect x='391.30' y='100.15' width='91.90' height='64.48' style='stroke-width: 1.07; stroke: none; stroke-linecap: butt; stroke-linejoin: miter; fill: #A6A6A6;' />
<rect x='273.88' y='65.64' width='224.64' height='258.68' style='stroke-width: 1.07; stroke: #333333;' />
</g>
<g clip-path='url(#cpMC4wMHw1MDQuMDB8MC4wMHwzNjAuMDA=)'>
</g>
<defs>
  <clipPath id='cpNDMuNzV8MjY4LjQwfDQ0LjY4fDY1LjY0'>
    <rect x='43.75' y='44.68' width='224.64' height='20.96' />
  </clipPath>
</defs>
<g clip-path='url(#cpNDMuNzV8MjY4LjQwfDQ0LjY4fDY1LjY0)'>
<rect x='43.75' y='44.68' width='224.64' height='20.96' style='stroke-width: 1.07; stroke: #333333; fill: #D9D9D9;' />
<text x='156.07' y='59.82' text-anchor='middle' style='font-size: 13.00px;fill: #1A1A1A; font-family: "Arial";' textLength='38.30px' lengthAdjust='spacingAndGlyphs'>gplas2</text>
</g>
<g clip-path='url(#cpMC4wMHw1MDQuMDB8MC4wMHwzNjAuMDA=)'>
</g>
<defs>
  <clipPath id='cpMjczLjg4fDQ5OC41Mnw0NC42OHw2NS42NA=='>
    <rect x='273.88' y='44.68' width='224.64' height='20.96' />
  </clipPath>
</defs>
<g clip-path='url(#cpMjczLjg4fDQ5OC41Mnw0NC42OHw2NS42NA==)'>
<rect x='273.88' y='44.68' width='224.64' height='20.96' style='stroke-width: 1.07; stroke: #333333; fill: #D9D9D9;' />
<text x='386.20' y='59.82' text-anchor='middle' style='font-size: 13.00px;fill: #1A1A1A; font-family: "Arial";' textLength='91.76px' lengthAdjust='spacingAndGlyphs'>plasmidSPAdes</text>
</g>
<g clip-path='url(#cpMC4wMHw1MDQuMDB8MC4wMHwzNjAuMDA=)'>
<polyline points='105.02,327.06 105.02,324.32 ' style='stroke-width: 1.07; stroke: #333333; stroke-linecap: butt;' />
<polyline points='207.13,327.06 207.13,324.32 ' style='stroke-width: 1.07; stroke: #333333; stroke-linecap: butt;' />
<text x='105.02' y='336.43' text-anchor='middle' style='font-size: 10.00px;fill: #4D4D4D; font-family: "Arial";' textLength='60.00px' lengthAdjust='spacingAndGlyphs'>Chromosome</text>
<text x='207.13' y='336.43' text-anchor='middle' style='font-size: 10.00px;fill: #4D4D4D; font-family: "Arial";' textLength='55.01px' lengthAdjust='spacingAndGlyphs'>Plasmidome</text>
<polyline points='335.14,327.06 335.14,324.32 ' style='stroke-width: 1.07; stroke: #333333; stroke-linecap: butt;' />
<polyline points='437.25,327.06 437.25,324.32 ' style='stroke-width: 1.07; stroke: #333333; stroke-linecap: butt;' />
<text x='335.14' y='336.43' text-anchor='middle' style='font-size: 10.00px;fill: #4D4D4D; font-family: "Arial";' textLength='60.00px' lengthAdjust='spacingAndGlyphs'>Chromosome</text>
<text x='437.25' y='336.43' text-anchor='middle' style='font-size: 10.00px;fill: #4D4D4D; font-family: "Arial";' textLength='55.01px' lengthAdjust='spacingAndGlyphs'>Plasmidome</text>
<text x='38.82' y='317.58' text-anchor='end' style='font-size: 14.00px;fill: #4D4D4D; font-family: "Arial";' textLength='7.78px' lengthAdjust='spacingAndGlyphs'>0</text>
<text x='38.82' y='241.72' text-anchor='end' style='font-size: 14.00px;fill: #4D4D4D; font-family: "Arial";' textLength='15.57px' lengthAdjust='spacingAndGlyphs'>20</text>
<text x='38.82' y='165.86' text-anchor='end' style='font-size: 14.00px;fill: #4D4D4D; font-family: "Arial";' textLength='15.57px' lengthAdjust='spacingAndGlyphs'>40</text>
<text x='38.82' y='90.00' text-anchor='end' style='font-size: 14.00px;fill: #4D4D4D; font-family: "Arial";' textLength='15.57px' lengthAdjust='spacingAndGlyphs'>60</text>
<polyline points='41.01,312.56 43.75,312.56 ' style='stroke-width: 1.07; stroke: #333333; stroke-linecap: butt;' />
<polyline points='41.01,236.70 43.75,236.70 ' style='stroke-width: 1.07; stroke: #333333; stroke-linecap: butt;' />
<polyline points='41.01,160.84 43.75,160.84 ' style='stroke-width: 1.07; stroke: #333333; stroke-linecap: butt;' />
<polyline points='41.01,84.98 43.75,84.98 ' style='stroke-width: 1.07; stroke: #333333; stroke-linecap: butt;' />
<text x='271.14' y='351.44' text-anchor='middle' style='font-size: 14.00px; font-weight: bold; font-family: "Arial";' textLength='104.18px' lengthAdjust='spacingAndGlyphs'>ARG true origin</text>
<text transform='translate(16.99,194.98) rotate(-90)' text-anchor='middle' style='font-size: 16.00px; font-weight: bold; font-family: "Arial";' textLength='71.12px' lengthAdjust='spacingAndGlyphs'>Nr. ARGs</text>
<rect x='94.45' y='5.48' width='353.38' height='28.24' style='stroke-width: 1.07; stroke: none; fill: #FFFFFF;' />
<text x='99.93' y='23.92' style='font-size: 12.00px; font-weight: bold; font-family: "Arial";' textLength='106.04px' lengthAdjust='spacingAndGlyphs'>ARG classification</text>
<rect x='211.70' y='10.96' width='17.28' height='17.28' style='stroke-width: 1.07; stroke: none; fill: #FFFFFF;' />
<rect x='212.41' y='11.67' width='15.86' height='15.86' style='stroke-width: 1.07; stroke: none; stroke-linecap: butt; stroke-linejoin: miter; fill: #434343;' />
<rect x='298.72' y='10.96' width='17.28' height='17.28' style='stroke-width: 1.07; stroke: none; fill: #FFFFFF;' />
<rect x='299.43' y='11.67' width='15.86' height='15.86' style='stroke-width: 1.07; stroke: none; stroke-linecap: butt; stroke-linejoin: miter; fill: #A6A6A6;' />
<rect x='384.64' y='10.96' width='17.28' height='17.28' style='stroke-width: 1.07; stroke: none; fill: #FFFFFF;' />
<rect x='385.35' y='11.67' width='15.86' height='15.86' style='stroke-width: 1.07; stroke: none; stroke-linecap: butt; stroke-linejoin: miter; fill: #FF9933;' />
<text x='234.95' y='23.19' style='font-size: 10.00px; font-family: "Arial";' textLength='57.78px' lengthAdjust='spacingAndGlyphs'>chromosome</text>
<text x='321.98' y='23.19' style='font-size: 10.00px; font-family: "Arial";' textLength='56.67px' lengthAdjust='spacingAndGlyphs'>missed_args</text>
<text x='407.89' y='23.19' style='font-size: 10.00px; font-family: "Arial";' textLength='34.45px' lengthAdjust='spacingAndGlyphs'>plasmid</text>
</g>
</svg>
