<?xml version='1.0' encoding='UTF-8' ?>
<svg xmlns='http://www.w3.org/2000/svg' xmlns:xlink='http://www.w3.org/1999/xlink' class='svglite' width='504.00pt' height='360.00pt' viewBox='0 0 504.00 360.00'>
<defs>
  <style type='text/css'><![CDATA[
    .svglite line, .svglite polyline, .svglite polygon, .svglite path, .svglite rect, .svglite circle {
      fill: none;
      stroke: #000000;
      stroke-linecap: round;
      stroke-linejoin: round;
      stroke-miterlimit: 10.00;
    }
    .svglite text {
      white-space: pre;
    }
  ]]></style>
</defs>
<rect width='100%' height='100%' style='stroke: none; fill: #FFFFFF;'/>
<defs>
  <clipPath id='cpMC4wMHw1MDQuMDB8MC4wMHwzNjAuMDA='>
    <rect x='0.00' y='0.00' width='504.00' height='360.00' />
  </clipPath>
</defs>
<g clip-path='url(#cpMC4wMHw1MDQuMDB8MC4wMHwzNjAuMDA=)'>
<rect x='0.000000000000064' y='0.00' width='504.00' height='360.00' style='stroke-width: 1.07; stroke: #FFFFFF; fill: #FFFFFF;' />
</g>
<defs>
  <clipPath id='cpMTY4LjU5fDQ4MS4zMXw1LjQ4fDI2My4xMQ=='>
    <rect x='168.59' y='5.48' width='312.72' height='257.63' />
  </clipPath>
</defs>
<g clip-path='url(#cpMTY4LjU5fDQ4MS4zMXw1LjQ4fDI2My4xMQ==)'>
<rect x='168.59' y='5.48' width='312.72' height='257.63' style='stroke-width: 1.07; stroke: none; fill: #FFFFFF;' />
<polyline points='168.59,222.13 481.31,222.13 ' style='stroke-width: 0.53; stroke: #EBEBEB; stroke-linecap: butt;' />
<polyline points='168.59,163.57 481.31,163.57 ' style='stroke-width: 0.53; stroke: #EBEBEB; stroke-linecap: butt;' />
<polyline points='168.59,105.02 481.31,105.02 ' style='stroke-width: 0.53; stroke: #EBEBEB; stroke-linecap: butt;' />
<polyline points='168.59,46.47 481.31,46.47 ' style='stroke-width: 0.53; stroke: #EBEBEB; stroke-linecap: butt;' />
<polyline points='168.59,251.40 481.31,251.40 ' style='stroke-width: 1.07; stroke: #EBEBEB; stroke-linecap: butt;' />
<polyline points='168.59,192.85 481.31,192.85 ' style='stroke-width: 1.07; stroke: #EBEBEB; stroke-linecap: butt;' />
<polyline points='168.59,134.30 481.31,134.30 ' style='stroke-width: 1.07; stroke: #EBEBEB; stroke-linecap: butt;' />
<polyline points='168.59,75.74 481.31,75.74 ' style='stroke-width: 1.07; stroke: #EBEBEB; stroke-linecap: butt;' />
<polyline points='168.59,17.19 481.31,17.19 ' style='stroke-width: 1.07; stroke: #EBEBEB; stroke-linecap: butt;' />
<polyline points='324.95,263.11 324.95,5.48 ' style='stroke-width: 1.07; stroke: #EBEBEB; stroke-linecap: butt;' />
<circle cx='324.95' cy='153.03' r='3.56' style='stroke-width: 0.71; stroke: #21908C; fill: #21908C;' />
<circle cx='324.95' cy='112.75' r='3.56' style='stroke-width: 0.71; stroke: #FDE725; fill: #FDE725;' />
<circle cx='324.95' cy='17.19' r='3.56' style='stroke-width: 0.71; stroke: #440154; fill: #440154;' />
<rect x='168.59' y='5.48' width='312.72' height='257.63' style='stroke-width: 1.07; stroke: #333333;' />
</g>
<g clip-path='url(#cpMC4wMHw1MDQuMDB8MC4wMHwzNjAuMDA=)'>
</g>
<defs>
  <clipPath id='cpNDgxLjMxfDQ5OC41Mnw1LjQ4fDI2My4xMQ=='>
    <rect x='481.31' y='5.48' width='17.21' height='257.63' />
  </clipPath>
</defs>
<g clip-path='url(#cpNDgxLjMxfDQ5OC41Mnw1LjQ4fDI2My4xMQ==)'>
<rect x='481.31' y='5.48' width='17.21' height='257.63' style='stroke-width: 1.07; stroke: #333333; fill: #D9D9D9;' />
<text transform='translate(486.76,134.30) rotate(90)' text-anchor='middle' style='font-size: 8.80px;fill: #1A1A1A; font-family: "Arial";' textLength='52.31px' lengthAdjust='spacingAndGlyphs'>ARG-plasmid</text>
</g>
<g clip-path='url(#cpMC4wMHw1MDQuMDB8MC4wMHwzNjAuMDA=)'>
<polyline points='324.95,265.85 324.95,263.11 ' style='stroke-width: 1.07; stroke: #333333; stroke-linecap: butt;' />
<text transform='translate(332.07,275.17) rotate(-45)' text-anchor='end' style='font-size: 14.00px; font-weight: bold;fill: #4D4D4D; font-family: "Arial";' textLength='104.26px' lengthAdjust='spacingAndGlyphs'>NZ_CP031381.2</text>
<text x='163.66' y='256.06' text-anchor='end' style='font-size: 13.00px;fill: #4D4D4D; font-family: "Arial";' textLength='25.30px' lengthAdjust='spacingAndGlyphs'>0.00</text>
<text x='163.66' y='197.51' text-anchor='end' style='font-size: 13.00px;fill: #4D4D4D; font-family: "Arial";' textLength='25.30px' lengthAdjust='spacingAndGlyphs'>0.25</text>
<text x='163.66' y='138.96' text-anchor='end' style='font-size: 13.00px;fill: #4D4D4D; font-family: "Arial";' textLength='25.30px' lengthAdjust='spacingAndGlyphs'>0.50</text>
<text x='163.66' y='80.40' text-anchor='end' style='font-size: 13.00px;fill: #4D4D4D; font-family: "Arial";' textLength='25.30px' lengthAdjust='spacingAndGlyphs'>0.75</text>
<text x='163.66' y='21.85' text-anchor='end' style='font-size: 13.00px;fill: #4D4D4D; font-family: "Arial";' textLength='25.30px' lengthAdjust='spacingAndGlyphs'>1.00</text>
<polyline points='165.85,251.40 168.59,251.40 ' style='stroke-width: 1.07; stroke: #333333; stroke-linecap: butt;' />
<polyline points='165.85,192.85 168.59,192.85 ' style='stroke-width: 1.07; stroke: #333333; stroke-linecap: butt;' />
<polyline points='165.85,134.30 168.59,134.30 ' style='stroke-width: 1.07; stroke: #333333; stroke-linecap: butt;' />
<polyline points='165.85,75.74 168.59,75.74 ' style='stroke-width: 1.07; stroke: #333333; stroke-linecap: butt;' />
<polyline points='165.85,17.19 168.59,17.19 ' style='stroke-width: 1.07; stroke: #333333; stroke-linecap: butt;' />
<text x='324.95' y='354.52' text-anchor='middle' style='font-size: 0.00px; font-weight: bold; font-family: "Arial";' textLength='4.22px' lengthAdjust='spacingAndGlyphs'>Software</text>
<text transform='translate(131.66,134.30) rotate(-90)' text-anchor='middle' style='font-size: 18.00px; font-weight: bold; font-family: "Arial";' textLength='48.02px' lengthAdjust='spacingAndGlyphs'>Value</text>
<rect x='5.48' y='102.90' width='102.27' height='62.80' style='stroke-width: 1.07; stroke: none; fill: #FFFFFF;' />
<text x='10.96' y='108.74' style='font-size: 0.00px; font-family: "Arial";' textLength='2.72px' lengthAdjust='spacingAndGlyphs'>metric</text>
<rect x='10.96' y='108.38' width='17.28' height='17.28' style='stroke-width: 1.07; stroke: none; fill: #FFFFFF;' />
<circle cx='19.60' cy='117.02' r='3.56' style='stroke-width: 0.71; stroke: #440154; fill: #440154;' />
<rect x='10.96' y='125.66' width='17.28' height='17.28' style='stroke-width: 1.07; stroke: none; fill: #FFFFFF;' />
<circle cx='19.60' cy='134.30' r='3.56' style='stroke-width: 0.71; stroke: #21908C; fill: #21908C;' />
<rect x='10.96' y='142.94' width='17.28' height='17.28' style='stroke-width: 1.07; stroke: none; fill: #FFFFFF;' />
<circle cx='19.60' cy='151.58' r='3.56' style='stroke-width: 0.71; stroke: #FDE725; fill: #FDE725;' />
<text x='28.24' y='121.32' style='font-size: 12.00px; font-family: "Arial";' textLength='48.01px' lengthAdjust='spacingAndGlyphs'>accuracy</text>
<text x='28.24' y='138.60' style='font-size: 12.00px; font-family: "Arial";' textLength='74.03px' lengthAdjust='spacingAndGlyphs'>completeness</text>
<text x='28.24' y='155.88' style='font-size: 12.00px; font-family: "Arial";' textLength='50.02px' lengthAdjust='spacingAndGlyphs'>F1_score</text>
</g>
</svg>
