#FILE	SEQUENCE	START	END	STRAND	GENE	COVERAGE	COVERAGE_MAP	GAPS	%COVERAGE	%IDENTITY	DATABASE	ACCESSION	PRODUCT	RESISTANCE
/home/dla_mm/jkerkvliet/data/gplas/reconstructing_amr_plasmids/validation_pipeline/results/E_faecalis_c/07_gplas_cc/GCF_028335505.1_results/GCF_028335505.1_bin_1.fasta	S15_LN:i:7677_dp:f:1.4760853087721746	1013	2980	-	optrA_15	1-1968/1968	===============	0/0	100.00	100.00	resfinder	KX620942	optrA	Chloramphenicol;Florfenicol;Linezolid
/home/dla_mm/jkerkvliet/data/gplas/reconstructing_amr_plasmids/validation_pipeline/results/E_faecalis_c/07_gplas_cc/GCF_028335505.1_results/GCF_028335505.1_bin_1.fasta	S15_LN:i:7677_dp:f:1.4760853087721746	3668	5095	-	fexA_1	1-1428/1428	===============	0/0	100.00	99.65	resfinder	AJ549214	fexA	Chloramphenicol;Florfenicol
/home/dla_mm/jkerkvliet/data/gplas/reconstructing_amr_plasmids/validation_pipeline/results/E_faecalis_c/07_gplas_cc/GCF_028335505.1_results/GCF_028335505.1_bin_1.fasta	S9_LN:i:45596_dp:f:1.4451960562218285	11991	12753	-	erm(B)_18	1-762/762	========/======	1/1	100.00	99.08	resfinder	X66468	erm(B)	Clindamycin;Erythromycin;Lincomycin;Pristinamycin_IA;Quinupristin;Virginiamycin_S
/home/dla_mm/jkerkvliet/data/gplas/reconstructing_amr_plasmids/validation_pipeline/results/E_faecalis_c/07_gplas_cc/GCF_028335505.1_results/GCF_028335505.1_bin_1.fasta	S9_LN:i:45596_dp:f:1.4451960562218285	20857	21504	-	cat_5	1-648/648	===============	0/0	100.00	98.92	resfinder	U35036	cat	Chloramphenicol
/home/dla_mm/jkerkvliet/data/gplas/reconstructing_amr_plasmids/validation_pipeline/results/E_faecalis_c/07_gplas_cc/GCF_028335505.1_results/GCF_028335505.1_bin_1.fasta	S9_LN:i:45596_dp:f:1.4451960562218285	22546	23922	-	tet(L)_2	1-1377/1377	===============	0/0	100.00	100.00	resfinder	M29725	tet(L)	Doxycycline;Minocycline;Tetracycline;Tigecycline
/home/dla_mm/jkerkvliet/data/gplas/reconstructing_amr_plasmids/validation_pipeline/results/E_faecalis_c/07_gplas_cc/GCF_028335505.1_results/GCF_028335505.1_bin_1.fasta	S9_LN:i:45596_dp:f:1.4451960562218285	24116	26035	-	tet(M)_10	1-1920/1920	===============	0/0	100.00	96.46	resfinder	EU182585	tet(M)	Doxycycline;Minocycline;Tetracycline
/home/dla_mm/jkerkvliet/data/gplas/reconstructing_amr_plasmids/validation_pipeline/results/E_faecalis_c/07_gplas_cc/GCF_023299585.1_results/GCF_023299585.1_bin_1.fasta	S9_LN:i:70294_dp:f:2.111786245190551	2291	2938	-	cat_5	1-648/648	===============	0/0	100.00	98.92	resfinder	U35036	cat	Chloramphenicol
/home/dla_mm/jkerkvliet/data/gplas/reconstructing_amr_plasmids/validation_pipeline/results/E_faecalis_c/07_gplas_cc/GCF_023299585.1_results/GCF_023299585.1_bin_1.fasta	S9_LN:i:70294_dp:f:2.111786245190551	3980	5356	-	tet(L)_2	1-1377/1377	===============	0/0	100.00	100.00	resfinder	M29725	tet(L)	Doxycycline;Minocycline;Tetracycline;Tigecycline
/home/dla_mm/jkerkvliet/data/gplas/reconstructing_amr_plasmids/validation_pipeline/results/E_faecalis_c/07_gplas_cc/GCF_023299585.1_results/GCF_023299585.1_bin_1.fasta	S9_LN:i:70294_dp:f:2.111786245190551	5550	7469	-	tet(M)_10	1-1920/1920	===============	0/0	100.00	96.46	resfinder	EU182585	tet(M)	Doxycycline;Minocycline;Tetracycline
/home/dla_mm/jkerkvliet/data/gplas/reconstructing_amr_plasmids/validation_pipeline/results/E_faecalis_c/07_gplas_cc/GCF_023299585.1_results/GCF_023299585.1_bin_2.fasta	S14_LN:i:9136_dp:f:0.7989201197659745	3858	4661	-	lnu(B)_2	1-804/804	===============	0/0	100.00	100.00	resfinder	JQ861959	lnu(B)	Clindamycin;Lincomycin
/home/dla_mm/jkerkvliet/data/gplas/reconstructing_amr_plasmids/validation_pipeline/results/E_faecalis_c/07_gplas_cc/GCF_023299585.1_results/GCF_023299585.1_bin_2.fasta	S14_LN:i:9136_dp:f:0.7989201197659745	4715	6199	-	lsa(E)_1	1-1485/1485	===============	0/0	100.00	100.00	resfinder	JX560992	lsa(E)	Clindamycin;Dalfopristin;Lincomycin;Pristinamycin_IIA;Tiamulin;Virginiamycin_M
/home/dla_mm/jkerkvliet/data/gplas/reconstructing_amr_plasmids/validation_pipeline/results/E_faecalis_c/07_gplas_cc/GCF_023299585.1_results/GCF_023299585.1_bin_2.fasta	S19_LN:i:2306_dp:f:0.8260588725989033	1032	1826	+	aph(3')-III_1	1-795/795	===============	0/0	100.00	100.00	resfinder	M26832	aph(3')-III	Amikacin;Butirosin;Isepamicin;Kanamycin;Lividomycin;Neomycin;Paromomycin;Ribostamycin
/home/dla_mm/jkerkvliet/data/gplas/reconstructing_amr_plasmids/validation_pipeline/results/E_faecalis_c/07_gplas_cc/GCF_023299645.1_results/GCF_023299645.1_bin_1.fasta	S10_LN:i:15397_dp:f:2.4244365211107453	2715	4634	+	tet(M)_10	1-1920/1920	===============	0/0	100.00	96.46	resfinder	EU182585	tet(M)	Doxycycline;Minocycline;Tetracycline
/home/dla_mm/jkerkvliet/data/gplas/reconstructing_amr_plasmids/validation_pipeline/results/E_faecalis_c/07_gplas_cc/GCF_023299645.1_results/GCF_023299645.1_bin_1.fasta	S10_LN:i:15397_dp:f:2.4244365211107453	4828	6204	+	tet(L)_2	1-1377/1377	===============	0/0	100.00	100.00	resfinder	M29725	tet(L)	Doxycycline;Minocycline;Tetracycline;Tigecycline
/home/dla_mm/jkerkvliet/data/gplas/reconstructing_amr_plasmids/validation_pipeline/results/E_faecalis_c/07_gplas_cc/GCF_023299645.1_results/GCF_023299645.1_bin_1.fasta	S10_LN:i:15397_dp:f:2.4244365211107453	7246	7893	+	cat_5	1-648/648	===============	0/0	100.00	98.92	resfinder	U35036	cat	Chloramphenicol
/home/dla_mm/jkerkvliet/data/gplas/reconstructing_amr_plasmids/validation_pipeline/results/E_faecalis_c/07_gplas_cc/GCF_023299645.1_results/GCF_023299645.1_bin_1.fasta	S11_LN:i:8509_dp:f:2.5608982537165397	1370	2797	+	fexA_1	1-1428/1428	===============	0/0	100.00	99.65	resfinder	AJ549214	fexA	Chloramphenicol;Florfenicol
/home/dla_mm/jkerkvliet/data/gplas/reconstructing_amr_plasmids/validation_pipeline/results/E_faecalis_c/07_gplas_cc/GCF_023299645.1_results/GCF_023299645.1_bin_1.fasta	S11_LN:i:8509_dp:f:2.5608982537165397	3485	5452	+	optrA_4	1-1968/1968	===============	0/0	100.00	100.00	resfinder	KT862777	optrA	Chloramphenicol;Florfenicol;Linezolid
/home/dla_mm/jkerkvliet/data/gplas/reconstructing_amr_plasmids/validation_pipeline/results/E_faecalis_c/07_gplas_cc/GCF_023299645.1_results/GCF_023299645.1_bin_1.fasta	S11_LN:i:8509_dp:f:2.5608982537165397	6869	7600	-	erm(A)_3	1-732/732	===============	0/0	100.00	100.00	resfinder	EU348758	erm(A)	Clindamycin;Erythromycin;Lincomycin;Pristinamycin_IA;Quinupristin;Virginiamycin_S
/home/dla_mm/jkerkvliet/data/gplas/reconstructing_amr_plasmids/validation_pipeline/results/E_faecalis_c/07_gplas_cc/GCF_023299645.1_results/GCF_023299645.1_bin_1.fasta	S12_LN:i:4257_dp:f:2.450969436922932	3775	4257	+	dfrG_1	1-483/498	===============	0/0	96.99	100.00	resfinder	AB205645	dfrG	Trimethoprim
/home/dla_mm/jkerkvliet/data/gplas/reconstructing_amr_plasmids/validation_pipeline/results/E_faecalis_c/07_gplas_cc/GCF_023299645.1_results/GCF_023299645.1_bin_1.fasta	S16_LN:i:1354_dp:f:2.3179414110499352	126	920	-	aph(3')-III_1	1-795/795	===============	0/0	100.00	100.00	resfinder	M26832	aph(3')-III	Amikacin;Butirosin;Isepamicin;Kanamycin;Lividomycin;Neomycin;Paromomycin;Ribostamycin
/home/dla_mm/jkerkvliet/data/gplas/reconstructing_amr_plasmids/validation_pipeline/results/E_faecalis_c/07_gplas_cc/GCF_023299645.1_results/GCF_023299645.1_bin_1.fasta	S17_LN:i:1345_dp:f:5.106117073638738	600	1345	+	erm(B)_18	1-745/762	========/======	1/1	97.77	99.06	resfinder	X66468	erm(B)	Clindamycin;Erythromycin;Lincomycin;Pristinamycin_IA;Quinupristin;Virginiamycin_S
/home/dla_mm/jkerkvliet/data/gplas/reconstructing_amr_plasmids/validation_pipeline/results/E_faecalis_c/07_gplas_cc/GCF_023299645.1_results/GCF_023299645.1_bin_1.fasta	S8_LN:i:33189_dp:f:2.4000375737743074	22254	23102	+	str_2	1-849/849	===============	0/0	100.00	99.88	resfinder	FN435330	str	Streptomycin
/home/dla_mm/jkerkvliet/data/gplas/reconstructing_amr_plasmids/validation_pipeline/results/E_faecalis_c/07_gplas_cc/GCF_906464865.1_results/GCF_906464865.1_bin_1.fasta	S12_LN:i:40888_dp:f:0.8849466921433575	9678	10440	-	erm(B)_18	1-762/762	========/======	1/1	100.00	99.61	resfinder	X66468	erm(B)	Clindamycin;Erythromycin;Lincomycin;Pristinamycin_IA;Quinupristin;Virginiamycin_S
/home/dla_mm/jkerkvliet/data/gplas/reconstructing_amr_plasmids/validation_pipeline/results/E_faecalis_c/07_gplas_cc/GCF_906464865.1_results/GCF_906464865.1_bin_1.fasta	S12_LN:i:40888_dp:f:0.8849466921433575	14865	16292	+	fexA_1	1-1428/1428	===============	0/0	100.00	99.65	resfinder	AJ549214	fexA	Chloramphenicol;Florfenicol
/home/dla_mm/jkerkvliet/data/gplas/reconstructing_amr_plasmids/validation_pipeline/results/E_faecalis_c/07_gplas_cc/GCF_906464865.1_results/GCF_906464865.1_bin_1.fasta	S12_LN:i:40888_dp:f:0.8849466921433575	16979	18946	+	optrA_2	1-1968/1968	===============	0/0	100.00	100.00	resfinder	KT862781	optrA	Chloramphenicol;Florfenicol;Linezolid
/home/dla_mm/jkerkvliet/data/gplas/reconstructing_amr_plasmids/validation_pipeline/results/E_faecalis_c/07_gplas_cc/GCF_906464865.1_results/GCF_906464865.1_bin_1.fasta	S12_LN:i:40888_dp:f:0.8849466921433575	31510	32358	-	str_2	1-849/849	===============	0/0	100.00	99.88	resfinder	FN435330	str	Streptomycin
/home/dla_mm/jkerkvliet/data/gplas/reconstructing_amr_plasmids/validation_pipeline/results/E_faecalis_c/07_gplas_cc/GCF_906464865.1_results/GCF_906464865.1_bin_1.fasta	S22_LN:i:6391_dp:f:1.1217239656664046	1888	3264	-	tet(L)_2	1-1377/1377	===============	0/0	100.00	100.00	resfinder	M29725	tet(L)	Doxycycline;Minocycline;Tetracycline;Tigecycline
/home/dla_mm/jkerkvliet/data/gplas/reconstructing_amr_plasmids/validation_pipeline/results/E_faecalis_c/07_gplas_cc/GCF_906464865.1_results/GCF_906464865.1_bin_1.fasta	S22_LN:i:6391_dp:f:1.1217239656664046	3458	5377	-	tet(M)_10	1-1920/1920	===============	0/0	100.00	96.46	resfinder	EU182585	tet(M)	Doxycycline;Minocycline;Tetracycline
/home/dla_mm/jkerkvliet/data/gplas/reconstructing_amr_plasmids/validation_pipeline/results/E_faecalis_c/07_gplas_cc/GCF_028335705.1_results/GCF_028335705.1_bin_2.fasta	S27_LN:i:6575_dp:f:1.0527936422418727	1934	2842	+	ant(6)-Ia_1	1-909/909	===============	0/0	100.00	100.00	resfinder	AF330699	ant(6)-Ia	Streptomycin
/home/dla_mm/jkerkvliet/data/gplas/reconstructing_amr_plasmids/validation_pipeline/results/E_faecalis_c/07_gplas_cc/GCF_028335705.1_results/GCF_028335705.1_bin_2.fasta	S27_LN:i:6575_dp:f:1.0527936422418727	3474	4268	+	aph(3')-III_1	1-795/795	===============	0/0	100.00	100.00	resfinder	M26832	aph(3')-III	Amikacin;Butirosin;Isepamicin;Kanamycin;Lividomycin;Neomycin;Paromomycin;Ribostamycin
/home/dla_mm/jkerkvliet/data/gplas/reconstructing_amr_plasmids/validation_pipeline/results/E_faecalis_c/07_gplas_cc/GCF_028335705.1_results/GCF_028335705.1_bin_1.fasta	S18_LN:i:34805_dp:f:2.3831045731226608	26383	28350	-	optrA_1	1-1968/1968	===============	0/0	100.00	100.00	resfinder	KP399637	optrA	Chloramphenicol;Florfenicol;Linezolid
/home/dla_mm/jkerkvliet/data/gplas/reconstructing_amr_plasmids/validation_pipeline/results/E_faecalis_c/07_gplas_cc/GCF_028335705.1_results/GCF_028335705.1_bin_1.fasta	S18_LN:i:34805_dp:f:2.3831045731226608	29038	30465	-	fexA_1	1-1428/1428	===============	0/0	100.00	99.65	resfinder	AJ549214	fexA	Chloramphenicol;Florfenicol
/home/dla_mm/jkerkvliet/data/gplas/reconstructing_amr_plasmids/validation_pipeline/results/E_faecalis_c/07_gplas_cc/GCF_018986755.2_results/GCF_018986755.2_bin_2.fasta	S56_LN:i:7447_dp:f:2.1386121379538654	2583	3230	-	cat(pC221)_1	1-648/648	===============	0/0	100.00	97.69	resfinder	X02529	cat(pC221)	Chloramphenicol
/home/dla_mm/jkerkvliet/data/gplas/reconstructing_amr_plasmids/validation_pipeline/results/E_faecalis_c/07_gplas_cc/GCF_018986755.2_results/GCF_018986755.2_bin_2.fasta	S56_LN:i:7447_dp:f:2.1386121379538654	6613	7375	+	erm(B)_18	1-762/762	========/======	1/1	100.00	99.21	resfinder	X66468	erm(B)	Clindamycin;Erythromycin;Lincomycin;Pristinamycin_IA;Quinupristin;Virginiamycin_S
/home/dla_mm/jkerkvliet/data/gplas/reconstructing_amr_plasmids/validation_pipeline/results/E_faecalis_c/07_gplas_cc/GCF_018986755.2_results/GCF_018986755.2_bin_2.fasta	S57_LN:i:7192_dp:f:2.132082183811055	2989	3783	-	aph(3')-III_1	1-795/795	===============	0/0	100.00	100.00	resfinder	M26832	aph(3')-III	Amikacin;Butirosin;Isepamicin;Kanamycin;Lividomycin;Neomycin;Paromomycin;Ribostamycin
/home/dla_mm/jkerkvliet/data/gplas/reconstructing_amr_plasmids/validation_pipeline/results/E_faecalis_c/07_gplas_cc/GCF_018986755.2_results/GCF_018986755.2_bin_2.fasta	S57_LN:i:7192_dp:f:2.132082183811055	4415	5323	-	ant(6)-Ia_1	1-909/909	===============	0/0	100.00	100.00	resfinder	AF330699	ant(6)-Ia	Streptomycin
/home/dla_mm/jkerkvliet/data/gplas/reconstructing_amr_plasmids/validation_pipeline/results/E_faecalis_c/07_gplas_cc/GCF_018986755.2_results/GCF_018986755.2_bin_1.fasta	S49_LN:i:10990_dp:f:1.7621443893249717	6268	8874	-	VanHAX_2	1-2607/2607	===============	0/0	100.00	100.00	resfinder	M97297	VanHAX	Teicoplanin;Vancomycin
/home/dla_mm/jkerkvliet/data/gplas/reconstructing_amr_plasmids/validation_pipeline/results/E_faecalis_c/07_gplas_cc/GCF_030020575.1_results/GCF_030020575.1_bin_1.fasta	S25_LN:i:6368_dp:f:1.2948485865713726	2308	3102	-	aph(3')-III_1	1-795/795	===============	0/0	100.00	100.00	resfinder	M26832	aph(3')-III	Amikacin;Butirosin;Isepamicin;Kanamycin;Lividomycin;Neomycin;Paromomycin;Ribostamycin
/home/dla_mm/jkerkvliet/data/gplas/reconstructing_amr_plasmids/validation_pipeline/results/E_faecalis_c/07_gplas_cc/GCF_030020575.1_results/GCF_030020575.1_bin_1.fasta	S25_LN:i:6368_dp:f:1.2948485865713726	3734	4642	-	ant(6)-Ia_1	1-909/909	===============	0/0	100.00	100.00	resfinder	AF330699	ant(6)-Ia	Streptomycin
/home/dla_mm/jkerkvliet/data/gplas/reconstructing_amr_plasmids/validation_pipeline/results/E_faecalis_c/07_gplas_cc/GCF_030020575.1_results/GCF_030020575.1_bin_1.fasta	S29_LN:i:4373_dp:f:1.2128165876186119	156	1532	+	tet(L)_2	1-1377/1377	===============	0/0	100.00	100.00	resfinder	M29725	tet(L)	Doxycycline;Minocycline;Tetracycline;Tigecycline
/home/dla_mm/jkerkvliet/data/gplas/reconstructing_amr_plasmids/validation_pipeline/results/E_faecalis_c/07_gplas_cc/GCF_030020575.1_results/GCF_030020575.1_bin_1.fasta	S32_LN:i:1634_dp:f:1.169893217600485	73	835	-	erm(B)_18	1-762/762	========/======	1/1	100.00	99.21	resfinder	X66468	erm(B)	Clindamycin;Erythromycin;Lincomycin;Pristinamycin_IA;Quinupristin;Virginiamycin_S
/home/dla_mm/jkerkvliet/data/gplas/reconstructing_amr_plasmids/validation_pipeline/results/E_faecalis_c/07_gplas_cc/GCF_023299525.1_results/GCF_023299525.1_bin_1.fasta	S10_LN:i:29261_dp:f:2.378497876891182	21794	22588	+	ant(6)-Ia_1	115-909/909	.==============	0/0	87.46	100.00	resfinder	AF330699	ant(6)-Ia	Streptomycin
/home/dla_mm/jkerkvliet/data/gplas/reconstructing_amr_plasmids/validation_pipeline/results/E_faecalis_c/07_gplas_cc/GCF_023299525.1_results/GCF_023299525.1_bin_1.fasta	S10_LN:i:29261_dp:f:2.378497876891182	23220	24014	+	aph(3')-III_1	1-795/795	===============	0/0	100.00	100.00	resfinder	M26832	aph(3')-III	Amikacin;Butirosin;Isepamicin;Kanamycin;Lividomycin;Neomycin;Paromomycin;Ribostamycin
/home/dla_mm/jkerkvliet/data/gplas/reconstructing_amr_plasmids/validation_pipeline/results/E_faecalis_c/07_gplas_cc/GCF_023299525.1_results/GCF_023299525.1_bin_1.fasta	S10_LN:i:29261_dp:f:2.378497876891182	24739	25501	+	erm(B)_18	1-762/762	========/======	1/1	100.00	99.08	resfinder	X66468	erm(B)	Clindamycin;Erythromycin;Lincomycin;Pristinamycin_IA;Quinupristin;Virginiamycin_S
/home/dla_mm/jkerkvliet/data/gplas/reconstructing_amr_plasmids/validation_pipeline/results/E_faecalis_c/07_gplas_cc/GCF_023299525.1_results/GCF_023299525.1_bin_1.fasta	S9_LN:i:42596_dp:f:2.400948776493546	18751	20670	+	tet(M)_10	1-1920/1920	===============	0/0	100.00	96.46	resfinder	EU182585	tet(M)	Doxycycline;Minocycline;Tetracycline
/home/dla_mm/jkerkvliet/data/gplas/reconstructing_amr_plasmids/validation_pipeline/results/E_faecalis_c/07_gplas_cc/GCF_023299525.1_results/GCF_023299525.1_bin_1.fasta	S9_LN:i:42596_dp:f:2.400948776493546	20864	22240	+	tet(L)_2	1-1377/1377	===============	0/0	100.00	100.00	resfinder	M29725	tet(L)	Doxycycline;Minocycline;Tetracycline;Tigecycline
/home/dla_mm/jkerkvliet/data/gplas/reconstructing_amr_plasmids/validation_pipeline/results/E_faecalis_c/07_gplas_cc/GCF_023299525.1_results/GCF_023299525.1_bin_1.fasta	S9_LN:i:42596_dp:f:2.400948776493546	23282	23929	+	cat_5	1-648/648	===============	0/0	100.00	98.92	resfinder	U35036	cat	Chloramphenicol
/home/dla_mm/jkerkvliet/data/gplas/reconstructing_amr_plasmids/validation_pipeline/results/E_faecalis_c/07_gplas_cc/GCF_023299485.1_results/GCF_023299485.1_bin_1.fasta	S15_LN:i:4140_dp:f:0.9213149864511728	2069	3478	+	fexB_1	1-1410/1410	===============	0/0	100.00	100.00	resfinder	JN201336	fexB	Chloramphenicol;Florfenicol
/home/dla_mm/jkerkvliet/data/gplas/reconstructing_amr_plasmids/validation_pipeline/results/E_faecalis_c/07_gplas_cc/GCF_023299485.1_results/GCF_023299485.1_bin_1.fasta	S20_LN:i:2511_dp:f:0.8994910858740233	1	1608	-	poxtA_1	1-1608/1629	===============	0/0	98.71	100.00	resfinder	MF095097	poxtA	Chloramphenicol;Doxycycline;Florfenicol;Linezolid;Tetracycline
/home/dla_mm/jkerkvliet/data/gplas/reconstructing_amr_plasmids/validation_pipeline/results/E_faecalis_c/07_gplas_cc/GCF_023299485.1_results/GCF_023299485.1_bin_1.fasta	S22_LN:i:2245_dp:f:0.8983405278502989	121	2088	+	optrA_9	1-1968/1968	===============	0/0	100.00	99.69	resfinder	KT892063	optrA	Chloramphenicol;Florfenicol;Linezolid
/home/dla_mm/jkerkvliet/data/gplas/reconstructing_amr_plasmids/validation_pipeline/results/E_faecalis_c/07_gplas_cc/GCF_023299485.1_results/GCF_023299485.1_bin_1.fasta	S25_LN:i:1717_dp:f:0.9424721145557247	374	1423	+	cfr_1	1-1050/1050	===============	0/0	100.00	99.81	resfinder	AM408573	cfr	Chloramphenicol;Clindamycin;Dalfopristin;Florfenicol;Lincomycin;Linezolid;Pristinamycin_IIA;Tiamulin;Virginiamycin_M
/home/dla_mm/jkerkvliet/data/gplas/reconstructing_amr_plasmids/validation_pipeline/results/E_faecalis_c/07_gplas_cc/GCF_023299625.1_results/GCF_023299625.1_bin_2.fasta	S15_LN:i:4554_dp:f:6.434716096361199	1178	2251	-	Cfr(D)_1	1-1074/1074	===============	0/0	100.00	100.00	resfinder	NG_067192	Cfr(D)	Chloramphenicol;Clindamycin;Dalfopristin;Florfenicol;Lincomycin;Linezolid;Pristinamycin_IIA;Tiamulin;Virginiamycin_M
/home/dla_mm/jkerkvliet/data/gplas/reconstructing_amr_plasmids/validation_pipeline/results/E_faecalis_c/07_gplas_cc/GCF_023299625.1_results/GCF_023299625.1_bin_2.fasta	S16_LN:i:4395_dp:f:7.149902896040948	1650	3059	-	fexB_1	1-1410/1410	===============	0/0	100.00	100.00	resfinder	JN201336	fexB	Chloramphenicol;Florfenicol
/home/dla_mm/jkerkvliet/data/gplas/reconstructing_amr_plasmids/validation_pipeline/results/E_faecalis_c/07_gplas_cc/GCF_023299625.1_results/GCF_023299625.1_bin_2.fasta	S22_LN:i:2512_dp:f:7.562688848861578	1	1608	-	poxtA_1	1-1608/1629	===============	0/0	98.71	100.00	resfinder	MF095097	poxtA	Chloramphenicol;Doxycycline;Florfenicol;Linezolid;Tetracycline
/home/dla_mm/jkerkvliet/data/gplas/reconstructing_amr_plasmids/validation_pipeline/results/E_faecalis_c/07_gplas_cc/GCF_023299625.1_results/GCF_023299625.1_bin_1.fasta	S23_LN:i:2478_dp:f:1.8217614163208113	19	927	+	ant(6)-Ia_1	1-909/909	===============	0/0	100.00	99.34	resfinder	AF330699	ant(6)-Ia	Streptomycin
/home/dla_mm/jkerkvliet/data/gplas/reconstructing_amr_plasmids/validation_pipeline/results/E_faecalis_c/07_gplas_cc/GCF_023299625.1_results/GCF_023299625.1_bin_1.fasta	S23_LN:i:2478_dp:f:1.8217614163208113	1559	2353	+	aph(3')-III_1	1-795/795	===============	0/0	100.00	100.00	resfinder	M26832	aph(3')-III	Amikacin;Butirosin;Isepamicin;Kanamycin;Lividomycin;Neomycin;Paromomycin;Ribostamycin
/home/dla_mm/jkerkvliet/data/gplas/reconstructing_amr_plasmids/validation_pipeline/results/E_faecalis_c/07_gplas_cc/GCF_023299625.1_results/GCF_023299625.1_bin_1.fasta	S25_LN:i:1759_dp:f:1.900452405351763	1190	1675	+	dfrG_1	1-486/498	===============	0/0	97.59	100.00	resfinder	AB205645	dfrG	Trimethoprim
/home/dla_mm/jkerkvliet/data/gplas/reconstructing_amr_plasmids/validation_pipeline/results/E_faecalis_c/07_gplas_cc/GCF_023299505.1_results/GCF_023299505.1_bin_5.fasta	S24_LN:i:4935_dp:f:5.03091649560783	741	1814	+	Cfr(D)_1	1-1074/1074	===============	0/0	100.00	100.00	resfinder	NG_067192	Cfr(D)	Chloramphenicol;Clindamycin;Dalfopristin;Florfenicol;Lincomycin;Linezolid;Pristinamycin_IIA;Tiamulin;Virginiamycin_M
/home/dla_mm/jkerkvliet/data/gplas/reconstructing_amr_plasmids/validation_pipeline/results/E_faecalis_c/07_gplas_cc/GCF_023299505.1_results/GCF_023299505.1_bin_2.fasta	S24_LN:i:4935_dp:f:5.03091649560783	741	1814	+	Cfr(D)_1	1-1074/1074	===============	0/0	100.00	100.00	resfinder	NG_067192	Cfr(D)	Chloramphenicol;Clindamycin;Dalfopristin;Florfenicol;Lincomycin;Linezolid;Pristinamycin_IIA;Tiamulin;Virginiamycin_M
/home/dla_mm/jkerkvliet/data/gplas/reconstructing_amr_plasmids/validation_pipeline/results/E_faecalis_c/07_gplas_cc/GCF_023299505.1_results/GCF_023299505.1_bin_3.fasta	S19_LN:i:9136_dp:f:0.8955900493188388	2938	4422	+	lsa(E)_1	1-1485/1485	===============	0/0	100.00	100.00	resfinder	JX560992	lsa(E)	Clindamycin;Dalfopristin;Lincomycin;Pristinamycin_IIA;Tiamulin;Virginiamycin_M
/home/dla_mm/jkerkvliet/data/gplas/reconstructing_amr_plasmids/validation_pipeline/results/E_faecalis_c/07_gplas_cc/GCF_023299505.1_results/GCF_023299505.1_bin_3.fasta	S19_LN:i:9136_dp:f:0.8955900493188388	4476	5279	+	lnu(B)_2	1-804/804	===============	0/0	100.00	100.00	resfinder	JQ861959	lnu(B)	Clindamycin;Lincomycin
/home/dla_mm/jkerkvliet/data/gplas/reconstructing_amr_plasmids/validation_pipeline/results/E_faecalis_c/07_gplas_cc/GCF_023299505.1_results/GCF_023299505.1_bin_3.fasta	S28_LN:i:2306_dp:f:0.8754342663656771	1032	1826	+	aph(3')-III_1	1-795/795	===============	0/0	100.00	100.00	resfinder	M26832	aph(3')-III	Amikacin;Butirosin;Isepamicin;Kanamycin;Lividomycin;Neomycin;Paromomycin;Ribostamycin
/home/dla_mm/jkerkvliet/data/gplas/reconstructing_amr_plasmids/validation_pipeline/results/E_faecalis_c/07_gplas_cc/GCF_023299465.1_results/GCF_023299465.1_bin_1.fasta	S10_LN:i:45596_dp:f:1.6083801802762814	19562	21481	+	tet(M)_10	1-1920/1920	===============	0/0	100.00	96.46	resfinder	EU182585	tet(M)	Doxycycline;Minocycline;Tetracycline
/home/dla_mm/jkerkvliet/data/gplas/reconstructing_amr_plasmids/validation_pipeline/results/E_faecalis_c/07_gplas_cc/GCF_023299465.1_results/GCF_023299465.1_bin_1.fasta	S10_LN:i:45596_dp:f:1.6083801802762814	21675	23051	+	tet(L)_2	1-1377/1377	===============	0/0	100.00	100.00	resfinder	M29725	tet(L)	Doxycycline;Minocycline;Tetracycline;Tigecycline
/home/dla_mm/jkerkvliet/data/gplas/reconstructing_amr_plasmids/validation_pipeline/results/E_faecalis_c/07_gplas_cc/GCF_023299465.1_results/GCF_023299465.1_bin_1.fasta	S10_LN:i:45596_dp:f:1.6083801802762814	24093	24740	+	cat_5	1-648/648	===============	0/0	100.00	98.92	resfinder	U35036	cat	Chloramphenicol
/home/dla_mm/jkerkvliet/data/gplas/reconstructing_amr_plasmids/validation_pipeline/results/E_faecalis_c/07_gplas_cc/GCF_023299465.1_results/GCF_023299465.1_bin_1.fasta	S10_LN:i:45596_dp:f:1.6083801802762814	32844	33606	+	erm(B)_18	1-762/762	========/======	1/1	100.00	99.08	resfinder	X66468	erm(B)	Clindamycin;Erythromycin;Lincomycin;Pristinamycin_IA;Quinupristin;Virginiamycin_S
/home/dla_mm/jkerkvliet/data/gplas/reconstructing_amr_plasmids/validation_pipeline/results/E_faecalis_c/07_gplas_cc/GCF_023299465.1_results/GCF_023299465.1_bin_1.fasta	S16_LN:i:7666_dp:f:1.6274073995057514	1013	2980	-	optrA_15	1-1968/1968	===============	0/0	100.00	100.00	resfinder	KX620942	optrA	Chloramphenicol;Florfenicol;Linezolid
/home/dla_mm/jkerkvliet/data/gplas/reconstructing_amr_plasmids/validation_pipeline/results/E_faecalis_c/07_gplas_cc/GCF_023299465.1_results/GCF_023299465.1_bin_1.fasta	S16_LN:i:7666_dp:f:1.6274073995057514	3668	5095	-	fexA_1	1-1428/1428	===============	0/0	100.00	99.65	resfinder	AJ549214	fexA	Chloramphenicol;Florfenicol
/home/dla_mm/jkerkvliet/data/gplas/reconstructing_amr_plasmids/validation_pipeline/results/E_faecalis_c/07_gplas_cc/GCF_023299605.1_results/GCF_023299605.1_bin_1.fasta	S12_LN:i:4953_dp:f:2.0280778655687146	3659	4144	+	dfrG_1	1-486/498	===============	0/0	97.59	100.00	resfinder	AB205645	dfrG	Trimethoprim
/home/dla_mm/jkerkvliet/data/gplas/reconstructing_amr_plasmids/validation_pipeline/results/E_faecalis_c/07_gplas_cc/GCF_023299605.1_results/GCF_023299605.1_bin_1.fasta	S16_LN:i:2478_dp:f:1.9965990240574771	19	927	+	ant(6)-Ia_1	1-909/909	===============	0/0	100.00	99.34	resfinder	AF330699	ant(6)-Ia	Streptomycin
/home/dla_mm/jkerkvliet/data/gplas/reconstructing_amr_plasmids/validation_pipeline/results/E_faecalis_c/07_gplas_cc/GCF_023299605.1_results/GCF_023299605.1_bin_1.fasta	S16_LN:i:2478_dp:f:1.9965990240574771	1559	2353	+	aph(3')-III_1	1-795/795	===============	0/0	100.00	100.00	resfinder	M26832	aph(3')-III	Amikacin;Butirosin;Isepamicin;Kanamycin;Lividomycin;Neomycin;Paromomycin;Ribostamycin
/home/dla_mm/jkerkvliet/data/gplas/reconstructing_amr_plasmids/validation_pipeline/results/E_faecalis_c/07_gplas_cc/GCF_023299605.1_results/GCF_023299605.1_bin_1.fasta	S18_LN:i:1496_dp:f:5.902264287445134	171	933	-	erm(B)_18	1-762/762	========/======	1/1	100.00	99.08	resfinder	X66468	erm(B)	Clindamycin;Erythromycin;Lincomycin;Pristinamycin_IA;Quinupristin;Virginiamycin_S
/home/dla_mm/jkerkvliet/data/gplas/reconstructing_amr_plasmids/validation_pipeline/results/E_faecalis_c/07_gplas_cc/GCF_023299605.1_results/GCF_023299605.1_bin_Unbinned.fasta	S9_LN:i:78262_dp:f:1.163709052441534	36260	37687	-	fexA_1	1-1428/1428	===============	0/0	100.00	99.72	resfinder	AJ549214	fexA	Chloramphenicol;Florfenicol
/home/dla_mm/jkerkvliet/data/gplas/reconstructing_amr_plasmids/validation_pipeline/results/E_faecalis_c/07_gplas_cc/GCF_023299605.1_results/GCF_023299605.1_bin_Unbinned.fasta	S9_LN:i:78262_dp:f:1.163709052441534	45707	47674	+	optrA_13	1-1968/1968	===============	0/0	100.00	100.00	resfinder	KX620939	optrA	Chloramphenicol;Florfenicol;Linezolid
/home/dla_mm/jkerkvliet/data/gplas/reconstructing_amr_plasmids/validation_pipeline/results/E_faecalis_c/07_gplas_cc/GCF_023375245.1_results/GCF_023375245.1_bin_1.fasta	S15_LN:i:7677_dp:f:1.5834651108721798	1013	2980	-	optrA_15	1-1968/1968	===============	0/0	100.00	100.00	resfinder	KX620942	optrA	Chloramphenicol;Florfenicol;Linezolid
/home/dla_mm/jkerkvliet/data/gplas/reconstructing_amr_plasmids/validation_pipeline/results/E_faecalis_c/07_gplas_cc/GCF_023375245.1_results/GCF_023375245.1_bin_1.fasta	S15_LN:i:7677_dp:f:1.5834651108721798	3668	5095	-	fexA_1	1-1428/1428	===============	0/0	100.00	99.65	resfinder	AJ549214	fexA	Chloramphenicol;Florfenicol
/home/dla_mm/jkerkvliet/data/gplas/reconstructing_amr_plasmids/validation_pipeline/results/E_faecalis_c/07_gplas_cc/GCF_023375245.1_results/GCF_023375245.1_bin_1.fasta	S9_LN:i:45596_dp:f:1.5431940543652176	19562	21481	+	tet(M)_10	1-1920/1920	===============	0/0	100.00	96.46	resfinder	EU182585	tet(M)	Doxycycline;Minocycline;Tetracycline
/home/dla_mm/jkerkvliet/data/gplas/reconstructing_amr_plasmids/validation_pipeline/results/E_faecalis_c/07_gplas_cc/GCF_023375245.1_results/GCF_023375245.1_bin_1.fasta	S9_LN:i:45596_dp:f:1.5431940543652176	21675	23051	+	tet(L)_2	1-1377/1377	===============	0/0	100.00	100.00	resfinder	M29725	tet(L)	Doxycycline;Minocycline;Tetracycline;Tigecycline
/home/dla_mm/jkerkvliet/data/gplas/reconstructing_amr_plasmids/validation_pipeline/results/E_faecalis_c/07_gplas_cc/GCF_023375245.1_results/GCF_023375245.1_bin_1.fasta	S9_LN:i:45596_dp:f:1.5431940543652176	24093	24740	+	cat_5	1-648/648	===============	0/0	100.00	98.92	resfinder	U35036	cat	Chloramphenicol
/home/dla_mm/jkerkvliet/data/gplas/reconstructing_amr_plasmids/validation_pipeline/results/E_faecalis_c/07_gplas_cc/GCF_023375245.1_results/GCF_023375245.1_bin_1.fasta	S9_LN:i:45596_dp:f:1.5431940543652176	32844	33606	+	erm(B)_18	1-762/762	========/======	1/1	100.00	99.08	resfinder	X66468	erm(B)	Clindamycin;Erythromycin;Lincomycin;Pristinamycin_IA;Quinupristin;Virginiamycin_S
/home/dla_mm/jkerkvliet/data/gplas/reconstructing_amr_plasmids/validation_pipeline/results/E_faecalis_c/07_gplas_cc/GCF_906464925.1_results/GCF_906464925.1_bin_1.fasta	S27_LN:i:11753_dp:f:0.9908899391070597	442	1869	+	fexA_1	1-1428/1428	===============	0/0	100.00	99.65	resfinder	AJ549214	fexA	Chloramphenicol;Florfenicol
/home/dla_mm/jkerkvliet/data/gplas/reconstructing_amr_plasmids/validation_pipeline/results/E_faecalis_c/07_gplas_cc/GCF_906464925.1_results/GCF_906464925.1_bin_1.fasta	S27_LN:i:11753_dp:f:0.9908899391070597	2557	4524	+	optrA_1	1-1968/1968	===============	0/0	100.00	99.95	resfinder	KP399637	optrA	Chloramphenicol;Florfenicol;Linezolid
/home/dla_mm/jkerkvliet/data/gplas/reconstructing_amr_plasmids/validation_pipeline/results/E_faecalis_c/07_gplas_cc/GCF_020844125.1_results/GCF_020844125.1_bin_1.fasta	S13_LN:i:5643_dp:f:1.605790075601862	1331	2758	+	fexA_1	1-1428/1428	===============	0/0	100.00	99.65	resfinder	AJ549214	fexA	Chloramphenicol;Florfenicol
/home/dla_mm/jkerkvliet/data/gplas/reconstructing_amr_plasmids/validation_pipeline/results/E_faecalis_c/07_gplas_cc/GCF_020844125.1_results/GCF_020844125.1_bin_1.fasta	S13_LN:i:5643_dp:f:1.605790075601862	3446	5413	+	optrA_5	1-1968/1968	===============	0/0	100.00	100.00	resfinder	KT862783	optrA	Chloramphenicol;Florfenicol;Linezolid
/home/dla_mm/jkerkvliet/data/gplas/reconstructing_amr_plasmids/validation_pipeline/results/E_faecalis_c/07_gplas_cc/GCF_020844125.1_results/GCF_020844125.1_bin_1.fasta	S18_LN:i:1734_dp:f:1.413616965149895	835	1566	+	erm(A)_3	1-732/732	===============	0/0	100.00	100.00	resfinder	EU348758	erm(A)	Clindamycin;Erythromycin;Lincomycin;Pristinamycin_IA;Quinupristin;Virginiamycin_S
/home/dla_mm/jkerkvliet/data/gplas/reconstructing_amr_plasmids/validation_pipeline/results/E_faecalis_c/07_gplas_cc/GCF_028335685.1_results/GCF_028335685.1_bin_1.fasta	S19_LN:i:18273_dp:f:1.7713584855530518	5630	7549	+	tet(M)_10	1-1920/1920	===============	0/0	100.00	96.41	resfinder	EU182585	tet(M)	Doxycycline;Minocycline;Tetracycline
/home/dla_mm/jkerkvliet/data/gplas/reconstructing_amr_plasmids/validation_pipeline/results/E_faecalis_c/07_gplas_cc/GCF_028335685.1_results/GCF_028335685.1_bin_1.fasta	S19_LN:i:18273_dp:f:1.7713584855530518	7743	9119	+	tet(L)_2	1-1377/1377	===============	0/0	100.00	100.00	resfinder	M29725	tet(L)	Doxycycline;Minocycline;Tetracycline;Tigecycline
/home/dla_mm/jkerkvliet/data/gplas/reconstructing_amr_plasmids/validation_pipeline/results/E_faecalis_c/07_gplas_cc/GCF_028335685.1_results/GCF_028335685.1_bin_1.fasta	S22_LN:i:10459_dp:f:1.818015146024625	3318	4745	+	fexA_1	1-1428/1428	===============	0/0	100.00	99.65	resfinder	AJ549214	fexA	Chloramphenicol;Florfenicol
/home/dla_mm/jkerkvliet/data/gplas/reconstructing_amr_plasmids/validation_pipeline/results/E_faecalis_c/07_gplas_cc/GCF_028335685.1_results/GCF_028335685.1_bin_1.fasta	S22_LN:i:10459_dp:f:1.818015146024625	5432	7399	+	optrA_12	1-1968/1968	===============	0/0	100.00	99.90	resfinder	KX620936	optrA	Chloramphenicol;Florfenicol;Linezolid
/home/dla_mm/jkerkvliet/data/gplas/reconstructing_amr_plasmids/validation_pipeline/results/E_faecalis_c/07_gplas_cc/GCF_028335685.1_results/GCF_028335685.1_bin_1.fasta	S22_LN:i:10459_dp:f:1.818015146024625	8816	9547	-	erm(A)_3	1-732/732	===============	0/0	100.00	100.00	resfinder	EU348758	erm(A)	Clindamycin;Erythromycin;Lincomycin;Pristinamycin_IA;Quinupristin;Virginiamycin_S
/home/dla_mm/jkerkvliet/data/gplas/reconstructing_amr_plasmids/validation_pipeline/results/E_faecalis_c/07_gplas_cc/GCF_028335685.1_results/GCF_028335685.1_bin_1.fasta	S25_LN:i:8780_dp:f:1.791625297947594	2046	2543	+	dfrG_1	1-498/498	===============	0/0	100.00	100.00	resfinder	AB205645	dfrG	Trimethoprim
/home/dla_mm/jkerkvliet/data/gplas/reconstructing_amr_plasmids/validation_pipeline/results/E_faecalis_c/07_gplas_cc/GCF_028335685.1_results/GCF_028335685.1_bin_1.fasta	S33_LN:i:1337_dp:f:1.7841117902091677	477	1271	-	aph(3')-III_1	1-795/795	===============	0/0	100.00	100.00	resfinder	M26832	aph(3')-III	Amikacin;Butirosin;Isepamicin;Kanamycin;Lividomycin;Neomycin;Paromomycin;Ribostamycin
/home/dla_mm/jkerkvliet/data/gplas/reconstructing_amr_plasmids/validation_pipeline/results/E_faecalis_c/07_gplas_cc/GCF_023375525.1_results/GCF_023375525.1_bin_1.fasta	S14_LN:i:8432_dp:f:2.6155989709603267	536	2143	+	poxtA_1	1-1608/1629	===============	0/0	98.71	100.00	resfinder	MF095097	poxtA	Chloramphenicol;Doxycycline;Florfenicol;Linezolid;Tetracycline
/home/dla_mm/jkerkvliet/data/gplas/reconstructing_amr_plasmids/validation_pipeline/results/E_faecalis_c/07_gplas_cc/GCF_023375525.1_results/GCF_023375525.1_bin_1.fasta	S14_LN:i:8432_dp:f:2.6155989709603267	2297	3370	+	Cfr(D)_1	1-1074/1074	===============	0/0	100.00	99.91	resfinder	NG_067192	Cfr(D)	Chloramphenicol;Clindamycin;Dalfopristin;Florfenicol;Lincomycin;Linezolid;Pristinamycin_IIA;Tiamulin;Virginiamycin_M
/home/dla_mm/jkerkvliet/data/gplas/reconstructing_amr_plasmids/validation_pipeline/results/E_faecalis_c/07_gplas_cc/GCF_023375525.1_results/GCF_023375525.1_bin_1.fasta	S17_LN:i:2580_dp:f:2.702831206732301	896	2323	+	fexA_1	1-1428/1428	===============	0/0	100.00	99.72	resfinder	AJ549214	fexA	Chloramphenicol;Florfenicol
/home/dla_mm/jkerkvliet/data/gplas/reconstructing_amr_plasmids/validation_pipeline/results/E_faecalis_c/07_gplas_cc/GCF_023375545.1_results/GCF_023375545.1_bin_1.fasta	S13_LN:i:19411_dp:f:2.347536048404249	853	2772	+	tet(M)_10	1-1920/1920	===============	0/0	100.00	96.46	resfinder	EU182585	tet(M)	Doxycycline;Minocycline;Tetracycline
/home/dla_mm/jkerkvliet/data/gplas/reconstructing_amr_plasmids/validation_pipeline/results/E_faecalis_c/07_gplas_cc/GCF_023375545.1_results/GCF_023375545.1_bin_1.fasta	S13_LN:i:19411_dp:f:2.347536048404249	2966	4342	+	tet(L)_2	1-1377/1377	===============	0/0	100.00	100.00	resfinder	M29725	tet(L)	Doxycycline;Minocycline;Tetracycline;Tigecycline
/home/dla_mm/jkerkvliet/data/gplas/reconstructing_amr_plasmids/validation_pipeline/results/E_faecalis_c/07_gplas_cc/GCF_023375545.1_results/GCF_023375545.1_bin_1.fasta	S13_LN:i:19411_dp:f:2.347536048404249	5384	6031	+	cat_5	1-648/648	===============	0/0	100.00	98.92	resfinder	U35036	cat	Chloramphenicol
/home/dla_mm/jkerkvliet/data/gplas/reconstructing_amr_plasmids/validation_pipeline/results/E_faecalis_c/07_gplas_cc/GCF_023375545.1_results/GCF_023375545.1_bin_1.fasta	S13_LN:i:19411_dp:f:2.347536048404249	14135	14897	+	erm(B)_18	1-762/762	========/======	1/1	100.00	99.08	resfinder	X66468	erm(B)	Clindamycin;Erythromycin;Lincomycin;Pristinamycin_IA;Quinupristin;Virginiamycin_S
/home/dla_mm/jkerkvliet/data/gplas/reconstructing_amr_plasmids/validation_pipeline/results/E_faecalis_c/07_gplas_cc/GCF_023375545.1_results/GCF_023375545.1_bin_1.fasta	S13_LN:i:19411_dp:f:2.347536048404249	18842	19327	+	dfrG_1	1-486/498	===============	0/0	97.59	100.00	resfinder	AB205645	dfrG	Trimethoprim
/home/dla_mm/jkerkvliet/data/gplas/reconstructing_amr_plasmids/validation_pipeline/results/E_faecalis_c/07_gplas_cc/GCF_023375545.1_results/GCF_023375545.1_bin_2.fasta	S17_LN:i:4140_dp:f:0.9992092849113264	663	2072	-	fexB_1	1-1410/1410	===============	0/0	100.00	100.00	resfinder	JN201336	fexB	Chloramphenicol;Florfenicol
/home/dla_mm/jkerkvliet/data/gplas/reconstructing_amr_plasmids/validation_pipeline/results/E_faecalis_c/07_gplas_cc/GCF_023375545.1_results/GCF_023375545.1_bin_2.fasta	S22_LN:i:2512_dp:f:1.0119773658197322	905	2512	+	poxtA_1	1-1608/1629	===============	0/0	98.71	100.00	resfinder	MF095097	poxtA	Chloramphenicol;Doxycycline;Florfenicol;Linezolid;Tetracycline
/home/dla_mm/jkerkvliet/data/gplas/reconstructing_amr_plasmids/validation_pipeline/results/E_faecalis_c/07_gplas_cc/GCF_023375545.1_results/GCF_023375545.1_bin_2.fasta	S23_LN:i:2245_dp:f:0.965503423724555	121	2088	+	optrA_9	1-1968/1968	===============	0/0	100.00	99.69	resfinder	KT892063	optrA	Chloramphenicol;Florfenicol;Linezolid
/home/dla_mm/jkerkvliet/data/gplas/reconstructing_amr_plasmids/validation_pipeline/results/E_faecalis_c/07_gplas_cc/GCF_030020745.1_results/GCF_030020745.1_bin_1.fasta	S10_LN:i:52618_dp:f:1.5342310026576629	48882	49644	-	erm(B)_18	1-762/762	========/======	1/1	100.00	99.61	resfinder	X66468	erm(B)	Clindamycin;Erythromycin;Lincomycin;Pristinamycin_IA;Quinupristin;Virginiamycin_S
/home/dla_mm/jkerkvliet/data/gplas/reconstructing_amr_plasmids/validation_pipeline/results/E_faecalis_c/07_gplas_cc/GCF_030020615.1_results/GCF_030020615.1_bin_1.fasta	S23_LN:i:7151_dp:f:2.4321412682819403	2884	3678	-	aph(3')-III_1	1-795/795	===============	0/0	100.00	99.87	resfinder	M26832	aph(3')-III	Amikacin;Butirosin;Isepamicin;Kanamycin;Lividomycin;Neomycin;Paromomycin;Ribostamycin
/home/dla_mm/jkerkvliet/data/gplas/reconstructing_amr_plasmids/validation_pipeline/results/E_faecalis_c/07_gplas_cc/GCF_030020615.1_results/GCF_030020615.1_bin_1.fasta	S23_LN:i:7151_dp:f:2.4321412682819403	4310	5218	-	ant(6)-Ia_1	1-909/909	===============	0/0	100.00	100.00	resfinder	AF330699	ant(6)-Ia	Streptomycin
/home/dla_mm/jkerkvliet/data/gplas/reconstructing_amr_plasmids/validation_pipeline/results/E_faecalis_c/07_gplas_cc/GCF_030020615.1_results/GCF_030020615.1_bin_1.fasta	S31_LN:i:1806_dp:f:2.5653952921252148	972	1734	+	erm(B)_18	1-762/762	========/======	1/1	100.00	99.21	resfinder	X66468	erm(B)	Clindamycin;Erythromycin;Lincomycin;Pristinamycin_IA;Quinupristin;Virginiamycin_S
/home/dla_mm/jkerkvliet/data/gplas/reconstructing_amr_plasmids/validation_pipeline/results/E_faecalis_c/07_gplas_cc/GCF_028335545.1_results/GCF_028335545.1_bin_1.fasta	S23_LN:i:11683_dp:f:1.7700514514854084	5630	7549	+	tet(M)_10	1-1920/1920	===============	0/0	100.00	96.41	resfinder	EU182585	tet(M)	Doxycycline;Minocycline;Tetracycline
/home/dla_mm/jkerkvliet/data/gplas/reconstructing_amr_plasmids/validation_pipeline/results/E_faecalis_c/07_gplas_cc/GCF_028335545.1_results/GCF_028335545.1_bin_1.fasta	S23_LN:i:11683_dp:f:1.7700514514854084	7743	9119	+	tet(L)_2	1-1377/1377	===============	0/0	100.00	100.00	resfinder	M29725	tet(L)	Doxycycline;Minocycline;Tetracycline;Tigecycline
/home/dla_mm/jkerkvliet/data/gplas/reconstructing_amr_plasmids/validation_pipeline/results/E_faecalis_c/07_gplas_cc/GCF_028335545.1_results/GCF_028335545.1_bin_1.fasta	S24_LN:i:10459_dp:f:1.8314509831730283	913	1644	+	erm(A)_3	1-732/732	===============	0/0	100.00	100.00	resfinder	EU348758	erm(A)	Clindamycin;Erythromycin;Lincomycin;Pristinamycin_IA;Quinupristin;Virginiamycin_S
/home/dla_mm/jkerkvliet/data/gplas/reconstructing_amr_plasmids/validation_pipeline/results/E_faecalis_c/07_gplas_cc/GCF_028335545.1_results/GCF_028335545.1_bin_1.fasta	S24_LN:i:10459_dp:f:1.8314509831730283	3061	5028	-	optrA_12	1-1968/1968	===============	0/0	100.00	99.90	resfinder	KX620936	optrA	Chloramphenicol;Florfenicol;Linezolid
/home/dla_mm/jkerkvliet/data/gplas/reconstructing_amr_plasmids/validation_pipeline/results/E_faecalis_c/07_gplas_cc/GCF_028335545.1_results/GCF_028335545.1_bin_1.fasta	S24_LN:i:10459_dp:f:1.8314509831730283	5715	7142	-	fexA_1	1-1428/1428	===============	0/0	100.00	99.65	resfinder	AJ549214	fexA	Chloramphenicol;Florfenicol
/home/dla_mm/jkerkvliet/data/gplas/reconstructing_amr_plasmids/validation_pipeline/results/E_faecalis_c/07_gplas_cc/GCF_028335545.1_results/GCF_028335545.1_bin_1.fasta	S27_LN:i:8780_dp:f:1.7652199727564797	6238	6735	-	dfrG_1	1-498/498	===============	0/0	100.00	100.00	resfinder	AB205645	dfrG	Trimethoprim
/home/dla_mm/jkerkvliet/data/gplas/reconstructing_amr_plasmids/validation_pipeline/results/E_faecalis_c/07_gplas_cc/GCF_028335545.1_results/GCF_028335545.1_bin_1.fasta	S40_LN:i:1337_dp:f:1.7665751972130657	477	1271	-	aph(3')-III_1	1-795/795	===============	0/0	100.00	100.00	resfinder	M26832	aph(3')-III	Amikacin;Butirosin;Isepamicin;Kanamycin;Lividomycin;Neomycin;Paromomycin;Ribostamycin
/home/dla_mm/jkerkvliet/data/gplas/reconstructing_amr_plasmids/validation_pipeline/results/E_faecalis_c/07_gplas_cc/GCF_028335345.1_results/GCF_028335345.1_bin_1.fasta	S18_LN:i:30616_dp:f:2.527386038075374	10051	11490	-	aac(6')-aph(2'')_1	1-1440/1440	===============	0/0	100.00	100.00	resfinder	M13771	aac(6')-aph(2'')	Amikacin;Dibekacin;Fortimicin;Gentamicin;Isepamicin;Kanamycin;Netilmicin;Streptomycin;Tobramycin
/home/dla_mm/jkerkvliet/data/gplas/reconstructing_amr_plasmids/validation_pipeline/results/E_faecalis_c/07_gplas_cc/GCF_028335345.1_results/GCF_028335345.1_bin_1.fasta	S42_LN:i:1428_dp:f:2.6863671591353455	171	933	-	erm(B)_18	1-762/762	========/======	1/1	100.00	98.95	resfinder	X66468	erm(B)	Clindamycin;Erythromycin;Lincomycin;Pristinamycin_IA;Quinupristin;Virginiamycin_S
/home/dla_mm/jkerkvliet/data/gplas/reconstructing_amr_plasmids/validation_pipeline/results/E_faecalis_c/07_gplas_cc/GCF_023299225.1_results/GCF_023299225.1_bin_1.fasta	S12_LN:i:3984_dp:f:2.608935945936854	608	1681	-	Cfr(D)_1	1-1074/1074	===============	0/0	100.00	100.00	resfinder	NG_067192	Cfr(D)	Chloramphenicol;Clindamycin;Dalfopristin;Florfenicol;Lincomycin;Linezolid;Pristinamycin_IIA;Tiamulin;Virginiamycin_M
/home/dla_mm/jkerkvliet/data/gplas/reconstructing_amr_plasmids/validation_pipeline/results/E_faecalis_c/07_gplas_cc/GCF_023299225.1_results/GCF_023299225.1_bin_1.fasta	S13_LN:i:3567_dp:f:2.8417672634954982	1174	2022	+	str_2	1-849/849	===============	0/0	100.00	99.88	resfinder	FN435330	str	Streptomycin
/home/dla_mm/jkerkvliet/data/gplas/reconstructing_amr_plasmids/validation_pipeline/results/E_faecalis_c/07_gplas_cc/GCF_023299225.1_results/GCF_023299225.1_bin_Unbinned.fasta	S8_LN:i:78262_dp:f:1.0302010496665748	30589	32556	-	optrA_13	1-1968/1968	===============	0/0	100.00	100.00	resfinder	KX620939	optrA	Chloramphenicol;Florfenicol;Linezolid
/home/dla_mm/jkerkvliet/data/gplas/reconstructing_amr_plasmids/validation_pipeline/results/E_faecalis_c/07_gplas_cc/GCF_023299225.1_results/GCF_023299225.1_bin_Unbinned.fasta	S8_LN:i:78262_dp:f:1.0302010496665748	40576	42003	+	fexA_1	1-1428/1428	===============	0/0	100.00	99.72	resfinder	AJ549214	fexA	Chloramphenicol;Florfenicol
/home/dla_mm/jkerkvliet/data/gplas/reconstructing_amr_plasmids/validation_pipeline/results/E_faecalis_c/07_gplas_cc/GCF_023299545.1_results/GCF_023299545.1_bin_2.fasta	S12_LN:i:42530_dp:f:2.179651842317817	2291	2938	-	cat_5	1-648/648	===============	0/0	100.00	98.92	resfinder	U35036	cat	Chloramphenicol
/home/dla_mm/jkerkvliet/data/gplas/reconstructing_amr_plasmids/validation_pipeline/results/E_faecalis_c/07_gplas_cc/GCF_023299545.1_results/GCF_023299545.1_bin_2.fasta	S12_LN:i:42530_dp:f:2.179651842317817	3980	5356	-	tet(L)_2	1-1377/1377	===============	0/0	100.00	100.00	resfinder	M29725	tet(L)	Doxycycline;Minocycline;Tetracycline;Tigecycline
/home/dla_mm/jkerkvliet/data/gplas/reconstructing_amr_plasmids/validation_pipeline/results/E_faecalis_c/07_gplas_cc/GCF_023299545.1_results/GCF_023299545.1_bin_2.fasta	S12_LN:i:42530_dp:f:2.179651842317817	5550	7469	-	tet(M)_10	1-1920/1920	===============	0/0	100.00	96.46	resfinder	EU182585	tet(M)	Doxycycline;Minocycline;Tetracycline
/home/dla_mm/jkerkvliet/data/gplas/reconstructing_amr_plasmids/validation_pipeline/results/E_faecalis_c/07_gplas_cc/GCF_023299545.1_results/GCF_023299545.1_bin_2.fasta	S12_LN:i:42530_dp:f:2.179651842317817	33988	34836	+	str_2	1-849/849	===============	0/0	100.00	99.88	resfinder	FN435330	str	Streptomycin
/home/dla_mm/jkerkvliet/data/gplas/reconstructing_amr_plasmids/validation_pipeline/results/E_faecalis_c/07_gplas_cc/GCF_023299545.1_results/GCF_023299545.1_bin_2.fasta	S17_LN:i:4953_dp:f:2.032081627047832	810	1295	-	dfrG_1	1-486/498	===============	0/0	97.59	100.00	resfinder	AB205645	dfrG	Trimethoprim
/home/dla_mm/jkerkvliet/data/gplas/reconstructing_amr_plasmids/validation_pipeline/results/E_faecalis_c/07_gplas_cc/GCF_023299545.1_results/GCF_023299545.1_bin_2.fasta	S21_LN:i:2478_dp:f:2.160927564768092	19	927	+	ant(6)-Ia_1	1-909/909	===============	0/0	100.00	99.34	resfinder	AF330699	ant(6)-Ia	Streptomycin
/home/dla_mm/jkerkvliet/data/gplas/reconstructing_amr_plasmids/validation_pipeline/results/E_faecalis_c/07_gplas_cc/GCF_023299545.1_results/GCF_023299545.1_bin_2.fasta	S21_LN:i:2478_dp:f:2.160927564768092	1559	2353	+	aph(3')-III_1	1-795/795	===============	0/0	100.00	100.00	resfinder	M26832	aph(3')-III	Amikacin;Butirosin;Isepamicin;Kanamycin;Lividomycin;Neomycin;Paromomycin;Ribostamycin
/home/dla_mm/jkerkvliet/data/gplas/reconstructing_amr_plasmids/validation_pipeline/results/E_faecalis_c/07_gplas_cc/GCF_023299545.1_results/GCF_023299545.1_bin_2.fasta	S25_LN:i:1496_dp:f:6.110940755562751	171	933	-	erm(B)_18	1-762/762	========/======	1/1	100.00	99.08	resfinder	X66468	erm(B)	Clindamycin;Erythromycin;Lincomycin;Pristinamycin_IA;Quinupristin;Virginiamycin_S
/home/dla_mm/jkerkvliet/data/gplas/reconstructing_amr_plasmids/validation_pipeline/results/E_faecalis_c/07_gplas_cc/GCF_023299545.1_results/GCF_023299545.1_bin_Unbinned.fasta	S10_LN:i:78262_dp:f:1.0544131882551062	36260	37687	-	fexA_1	1-1428/1428	===============	0/0	100.00	99.72	resfinder	AJ549214	fexA	Chloramphenicol;Florfenicol
/home/dla_mm/jkerkvliet/data/gplas/reconstructing_amr_plasmids/validation_pipeline/results/E_faecalis_c/07_gplas_cc/GCF_023299545.1_results/GCF_023299545.1_bin_Unbinned.fasta	S10_LN:i:78262_dp:f:1.0544131882551062	45707	47674	+	optrA_13	1-1968/1968	===============	0/0	100.00	100.00	resfinder	KX620939	optrA	Chloramphenicol;Florfenicol;Linezolid
/home/dla_mm/jkerkvliet/data/gplas/reconstructing_amr_plasmids/validation_pipeline/results/E_faecalis_c/07_gplas_cc/GCF_906464895.1_results/GCF_906464895.1_bin_2.fasta	S19_LN:i:43709_dp:f:0.7156513809190045	30596	32023	+	fexA_1	1-1428/1428	===============	0/0	100.00	99.65	resfinder	AJ549214	fexA	Chloramphenicol;Florfenicol
/home/dla_mm/jkerkvliet/data/gplas/reconstructing_amr_plasmids/validation_pipeline/results/E_faecalis_c/07_gplas_cc/GCF_906464895.1_results/GCF_906464895.1_bin_2.fasta	S19_LN:i:43709_dp:f:0.7156513809190045	32711	34678	+	optrA_14	1-1968/1968	===============	0/0	100.00	99.95	resfinder	KX620941	optrA	Chloramphenicol;Florfenicol;Linezolid
/home/dla_mm/jkerkvliet/data/gplas/reconstructing_amr_plasmids/validation_pipeline/results/E_faecalis_c/07_gplas_cc/GCF_906464895.1_results/GCF_906464895.1_bin_2.fasta	S19_LN:i:43709_dp:f:0.7156513809190045	36095	36826	-	erm(A)_3	1-732/732	===============	0/0	100.00	100.00	resfinder	EU348758	erm(A)	Clindamycin;Erythromycin;Lincomycin;Pristinamycin_IA;Quinupristin;Virginiamycin_S
/home/dla_mm/jkerkvliet/data/gplas/reconstructing_amr_plasmids/validation_pipeline/results/E_faecalis_c/07_gplas_cc/GCF_906464895.1_results/GCF_906464895.1_bin_2.fasta	S43_LN:i:1236_dp:f:2.091595907512582	1	1236	+	aac(6')-aph(2'')_1	130-1365/1440	.==============	0/0	85.83	99.92	resfinder	M13771	aac(6')-aph(2'')	Amikacin;Dibekacin;Fortimicin;Gentamicin;Isepamicin;Kanamycin;Netilmicin;Streptomycin;Tobramycin
/home/dla_mm/jkerkvliet/data/gplas/reconstructing_amr_plasmids/validation_pipeline/results/E_faecalis_c/07_gplas_cc/GCF_030020155.1_results/GCF_030020155.1_bin_1.fasta	S11_LN:i:59032_dp:f:1.2946366357421362	51749	52597	-	str_2	1-849/849	===============	0/0	100.00	99.88	resfinder	FN435330	str	Streptomycin
/home/dla_mm/jkerkvliet/data/gplas/reconstructing_amr_plasmids/validation_pipeline/results/E_faecalis_c/07_gplas_cc/GCF_030020155.1_results/GCF_030020155.1_bin_1.fasta	S18_LN:i:11043_dp:f:0.9056590029746964	650	2026	+	tet(L)_8	1-1377/1377	===============	0/0	100.00	100.00	resfinder	AY081910	tet(L)	Doxycycline;Minocycline;Tetracycline;Tigecycline
/home/dla_mm/jkerkvliet/data/gplas/reconstructing_amr_plasmids/validation_pipeline/results/E_faecalis_c/07_gplas_cc/GCF_030020155.1_results/GCF_030020155.1_bin_1.fasta	S18_LN:i:11043_dp:f:0.9056590029746964	7909	8663	-	ant(6)-Ia_2	110-864/864	.==============	0/0	87.38	100.00	resfinder	KF421157	ant(6)-Ia	Streptomycin
/home/dla_mm/jkerkvliet/data/gplas/reconstructing_amr_plasmids/validation_pipeline/results/E_faecalis_c/07_gplas_cc/GCF_030020155.1_results/GCF_030020155.1_bin_1.fasta	S18_LN:i:11043_dp:f:0.9056590029746964	8831	10270	-	aac(6')-aph(2'')_1	1-1440/1440	===============	0/0	100.00	100.00	resfinder	M13771	aac(6')-aph(2'')	Amikacin;Dibekacin;Fortimicin;Gentamicin;Isepamicin;Kanamycin;Netilmicin;Streptomycin;Tobramycin
/home/dla_mm/jkerkvliet/data/gplas/reconstructing_amr_plasmids/validation_pipeline/results/E_faecalis_c/07_gplas_cc/GCF_030020155.1_results/GCF_030020155.1_bin_1.fasta	S20_LN:i:8848_dp:f:1.4601464152900328	1577	2074	-	dfrG_1	1-498/498	===============	0/0	100.00	100.00	resfinder	AB205645	dfrG	Trimethoprim
/home/dla_mm/jkerkvliet/data/gplas/reconstructing_amr_plasmids/validation_pipeline/results/E_faecalis_c/07_gplas_cc/GCF_030020155.1_results/GCF_030020155.1_bin_1.fasta	S31_LN:i:1130_dp:f:1.6326549845129334	54	816	-	erm(B)_18	1-762/762	========/======	1/1	100.00	99.08	resfinder	X66468	erm(B)	Clindamycin;Erythromycin;Lincomycin;Pristinamycin_IA;Quinupristin;Virginiamycin_S
/home/dla_mm/jkerkvliet/data/gplas/reconstructing_amr_plasmids/validation_pipeline/results/E_faecalis_c/07_gplas_cc/GCF_030020155.1_results/GCF_030020155.1_bin_2.fasta	S18_LN:i:11043_dp:f:0.9056590029746964	650	2026	+	tet(L)_8	1-1377/1377	===============	0/0	100.00	100.00	resfinder	AY081910	tet(L)	Doxycycline;Minocycline;Tetracycline;Tigecycline
/home/dla_mm/jkerkvliet/data/gplas/reconstructing_amr_plasmids/validation_pipeline/results/E_faecalis_c/07_gplas_cc/GCF_030020155.1_results/GCF_030020155.1_bin_2.fasta	S18_LN:i:11043_dp:f:0.9056590029746964	7909	8663	-	ant(6)-Ia_2	110-864/864	.==============	0/0	87.38	100.00	resfinder	KF421157	ant(6)-Ia	Streptomycin
/home/dla_mm/jkerkvliet/data/gplas/reconstructing_amr_plasmids/validation_pipeline/results/E_faecalis_c/07_gplas_cc/GCF_030020155.1_results/GCF_030020155.1_bin_2.fasta	S18_LN:i:11043_dp:f:0.9056590029746964	8831	10270	-	aac(6')-aph(2'')_1	1-1440/1440	===============	0/0	100.00	100.00	resfinder	M13771	aac(6')-aph(2'')	Amikacin;Dibekacin;Fortimicin;Gentamicin;Isepamicin;Kanamycin;Netilmicin;Streptomycin;Tobramycin
/home/dla_mm/jkerkvliet/data/gplas/reconstructing_amr_plasmids/validation_pipeline/results/E_faecalis_c/07_gplas_cc/GCF_023300165.1_results/GCF_023300165.1_bin_2.fasta	S21_LN:i:8940_dp:f:1.0891237173617456	2823	4790	-	optrA_18	1-1968/1968	===============	0/0	100.00	99.95	resfinder	ALMH01000001	optrA	Chloramphenicol;Florfenicol;Linezolid
/home/dla_mm/jkerkvliet/data/gplas/reconstructing_amr_plasmids/validation_pipeline/results/E_faecalis_c/07_gplas_cc/GCF_023300165.1_results/GCF_023300165.1_bin_1.fasta	S24_LN:i:4906_dp:f:1.4530140117198196	1617	2411	-	aph(3')-III_1	1-795/795	===============	0/0	100.00	100.00	resfinder	M26832	aph(3')-III	Amikacin;Butirosin;Isepamicin;Kanamycin;Lividomycin;Neomycin;Paromomycin;Ribostamycin
/home/dla_mm/jkerkvliet/data/gplas/reconstructing_amr_plasmids/validation_pipeline/results/E_faecalis_c/07_gplas_cc/GCF_023300165.1_results/GCF_023300165.1_bin_1.fasta	S24_LN:i:4906_dp:f:1.4530140117198196	3043	3951	-	ant(6)-Ia_1	1-909/909	===============	0/0	100.00	100.00	resfinder	AF330699	ant(6)-Ia	Streptomycin
/home/dla_mm/jkerkvliet/data/gplas/reconstructing_amr_plasmids/validation_pipeline/results/E_faecalis_c/07_gplas_cc/GCF_023300165.1_results/GCF_023300165.1_bin_1.fasta	S32_LN:i:2829_dp:f:2.7464487543206118	287	2206	-	tet(M)_10	1-1920/1920	===============	0/0	100.00	96.46	resfinder	EU182585	tet(M)	Doxycycline;Minocycline;Tetracycline
/home/dla_mm/jkerkvliet/data/gplas/reconstructing_amr_plasmids/validation_pipeline/results/E_faecalis_c/07_gplas_cc/GCF_906464835.1_results/GCF_906464835.1_bin_1.fasta	S12_LN:i:50157_dp:f:1.373712125045581	10088	10936	-	str_2	1-849/849	===============	0/0	100.00	99.76	resfinder	FN435330	str	Streptomycin
/home/dla_mm/jkerkvliet/data/gplas/reconstructing_amr_plasmids/validation_pipeline/results/E_faecalis_c/07_gplas_cc/GCF_906464835.1_results/GCF_906464835.1_bin_1.fasta	S12_LN:i:50157_dp:f:1.373712125045581	37475	39394	+	tet(M)_10	1-1920/1920	===============	0/0	100.00	96.46	resfinder	EU182585	tet(M)	Doxycycline;Minocycline;Tetracycline
/home/dla_mm/jkerkvliet/data/gplas/reconstructing_amr_plasmids/validation_pipeline/results/E_faecalis_c/07_gplas_cc/GCF_906464835.1_results/GCF_906464835.1_bin_1.fasta	S12_LN:i:50157_dp:f:1.373712125045581	39588	40964	+	tet(L)_2	1-1377/1377	===============	0/0	100.00	100.00	resfinder	M29725	tet(L)	Doxycycline;Minocycline;Tetracycline;Tigecycline
/home/dla_mm/jkerkvliet/data/gplas/reconstructing_amr_plasmids/validation_pipeline/results/E_faecalis_c/07_gplas_cc/GCF_906464835.1_results/GCF_906464835.1_bin_1.fasta	S12_LN:i:50157_dp:f:1.373712125045581	42006	42653	+	cat_5	1-648/648	===============	0/0	100.00	98.92	resfinder	U35036	cat	Chloramphenicol
/home/dla_mm/jkerkvliet/data/gplas/reconstructing_amr_plasmids/validation_pipeline/results/E_faecalis_c/07_gplas_cc/GCF_906464835.1_results/GCF_906464835.1_bin_1.fasta	S15_LN:i:15475_dp:f:1.1598793224648476	11246	12673	+	fexA_1	1-1428/1428	===============	0/0	100.00	99.65	resfinder	AJ549214	fexA	Chloramphenicol;Florfenicol
/home/dla_mm/jkerkvliet/data/gplas/reconstructing_amr_plasmids/validation_pipeline/results/E_faecalis_c/07_gplas_cc/GCF_906464835.1_results/GCF_906464835.1_bin_1.fasta	S15_LN:i:15475_dp:f:1.1598793224648476	13361	15328	+	optrA_3	1-1968/1968	===============	0/0	100.00	100.00	resfinder	KT862780	optrA	Chloramphenicol;Florfenicol;Linezolid
/home/dla_mm/jkerkvliet/data/gplas/reconstructing_amr_plasmids/validation_pipeline/results/E_faecalis_c/07_gplas_cc/GCF_906464835.1_results/GCF_906464835.1_bin_1.fasta	S16_LN:i:14853_dp:f:1.3742197548690516	126	920	-	aph(3')-III_1	1-795/795	===============	0/0	100.00	100.00	resfinder	M26832	aph(3')-III	Amikacin;Butirosin;Isepamicin;Kanamycin;Lividomycin;Neomycin;Paromomycin;Ribostamycin
/home/dla_mm/jkerkvliet/data/gplas/reconstructing_amr_plasmids/validation_pipeline/results/E_faecalis_c/07_gplas_cc/GCF_906464835.1_results/GCF_906464835.1_bin_1.fasta	S16_LN:i:14853_dp:f:1.3742197548690516	1552	2460	-	ant(6)-Ia_1	1-909/909	===============	0/0	100.00	100.00	resfinder	AF330699	ant(6)-Ia	Streptomycin
/home/dla_mm/jkerkvliet/data/gplas/reconstructing_amr_plasmids/validation_pipeline/results/E_faecalis_c/07_gplas_cc/GCF_906464835.1_results/GCF_906464835.1_bin_1.fasta	S16_LN:i:14853_dp:f:1.3742197548690516	5968	6771	-	lnu(B)_2	1-804/804	===============	0/0	100.00	100.00	resfinder	JQ861959	lnu(B)	Clindamycin;Lincomycin
/home/dla_mm/jkerkvliet/data/gplas/reconstructing_amr_plasmids/validation_pipeline/results/E_faecalis_c/07_gplas_cc/GCF_906464835.1_results/GCF_906464835.1_bin_1.fasta	S16_LN:i:14853_dp:f:1.3742197548690516	6825	8309	-	lsa(E)_1	1-1485/1485	===============	0/0	100.00	99.93	resfinder	JX560992	lsa(E)	Clindamycin;Dalfopristin;Lincomycin;Pristinamycin_IIA;Tiamulin;Virginiamycin_M
/home/dla_mm/jkerkvliet/data/gplas/reconstructing_amr_plasmids/validation_pipeline/results/E_faecalis_c/07_gplas_cc/GCF_906464835.1_results/GCF_906464835.1_bin_1.fasta	S16_LN:i:14853_dp:f:1.3742197548690516	11888	12642	-	ant(6)-Ia_2	110-864/864	.==============	0/0	87.38	100.00	resfinder	KF421157	ant(6)-Ia	Streptomycin
/home/dla_mm/jkerkvliet/data/gplas/reconstructing_amr_plasmids/validation_pipeline/results/E_faecalis_c/07_gplas_cc/GCF_906464835.1_results/GCF_906464835.1_bin_1.fasta	S16_LN:i:14853_dp:f:1.3742197548690516	12810	14249	-	aac(6')-aph(2'')_1	1-1440/1440	===============	0/0	100.00	100.00	resfinder	M13771	aac(6')-aph(2'')	Amikacin;Dibekacin;Fortimicin;Gentamicin;Isepamicin;Kanamycin;Netilmicin;Streptomycin;Tobramycin
/home/dla_mm/jkerkvliet/data/gplas/reconstructing_amr_plasmids/validation_pipeline/results/E_faecalis_c/07_gplas_cc/GCF_906464835.1_results/GCF_906464835.1_bin_1.fasta	S18_LN:i:4347_dp:f:1.401568041878913	332	817	-	dfrG_1	1-486/498	===============	0/0	97.59	100.00	resfinder	AB205645	dfrG	Trimethoprim
/home/dla_mm/jkerkvliet/data/gplas/reconstructing_amr_plasmids/validation_pipeline/results/E_faecalis_c/07_gplas_cc/GCF_906464835.1_results/GCF_906464835.1_bin_1.fasta	S30_LN:i:1181_dp:f:2.9519484000901004	171	933	-	erm(B)_18	1-762/762	========/======	1/1	100.00	99.08	resfinder	X66468	erm(B)	Clindamycin;Erythromycin;Lincomycin;Pristinamycin_IA;Quinupristin;Virginiamycin_S
/home/dla_mm/jkerkvliet/data/gplas/reconstructing_amr_plasmids/validation_pipeline/results/E_faecalis_c/07_gplas_cc/GCF_023299685.1_results/GCF_023299685.1_bin_Unbinned.fasta	S27_LN:i:9142_dp:f:0.9479453437283551	2823	4790	-	optrA_18	1-1968/1968	===============	0/0	100.00	99.95	resfinder	ALMH01000001	optrA	Chloramphenicol;Florfenicol;Linezolid
/home/dla_mm/jkerkvliet/data/gplas/reconstructing_amr_plasmids/validation_pipeline/results/E_faecalis_c/07_gplas_cc/GCF_028335665.1_results/GCF_028335665.1_bin_1.fasta	S10_LN:i:45596_dp:f:1.4414595358253752	19562	21481	+	tet(M)_10	1-1920/1920	===============	0/0	100.00	96.46	resfinder	EU182585	tet(M)	Doxycycline;Minocycline;Tetracycline
/home/dla_mm/jkerkvliet/data/gplas/reconstructing_amr_plasmids/validation_pipeline/results/E_faecalis_c/07_gplas_cc/GCF_028335665.1_results/GCF_028335665.1_bin_1.fasta	S10_LN:i:45596_dp:f:1.4414595358253752	21675	23051	+	tet(L)_2	1-1377/1377	===============	0/0	100.00	100.00	resfinder	M29725	tet(L)	Doxycycline;Minocycline;Tetracycline;Tigecycline
/home/dla_mm/jkerkvliet/data/gplas/reconstructing_amr_plasmids/validation_pipeline/results/E_faecalis_c/07_gplas_cc/GCF_028335665.1_results/GCF_028335665.1_bin_1.fasta	S10_LN:i:45596_dp:f:1.4414595358253752	24093	24740	+	cat_5	1-648/648	===============	0/0	100.00	98.92	resfinder	U35036	cat	Chloramphenicol
/home/dla_mm/jkerkvliet/data/gplas/reconstructing_amr_plasmids/validation_pipeline/results/E_faecalis_c/07_gplas_cc/GCF_028335665.1_results/GCF_028335665.1_bin_1.fasta	S10_LN:i:45596_dp:f:1.4414595358253752	32844	33606	+	erm(B)_18	1-762/762	========/======	1/1	100.00	99.08	resfinder	X66468	erm(B)	Clindamycin;Erythromycin;Lincomycin;Pristinamycin_IA;Quinupristin;Virginiamycin_S
/home/dla_mm/jkerkvliet/data/gplas/reconstructing_amr_plasmids/validation_pipeline/results/E_faecalis_c/07_gplas_cc/GCF_028335665.1_results/GCF_028335665.1_bin_1.fasta	S18_LN:i:7666_dp:f:1.4781192747491432	2572	3999	+	fexA_1	1-1428/1428	===============	0/0	100.00	99.65	resfinder	AJ549214	fexA	Chloramphenicol;Florfenicol
/home/dla_mm/jkerkvliet/data/gplas/reconstructing_amr_plasmids/validation_pipeline/results/E_faecalis_c/07_gplas_cc/GCF_028335665.1_results/GCF_028335665.1_bin_1.fasta	S18_LN:i:7666_dp:f:1.4781192747491432	4687	6654	+	optrA_15	1-1968/1968	===============	0/0	100.00	100.00	resfinder	KX620942	optrA	Chloramphenicol;Florfenicol;Linezolid
/home/dla_mm/jkerkvliet/data/gplas/reconstructing_amr_plasmids/validation_pipeline/results/E_faecalis_c/07_gplas_cc/GCF_023375265.1_results/GCF_023375265.1_bin_2.fasta	S31_LN:i:4888_dp:f:1.2175990260622285	1934	2842	+	ant(6)-Ia_1	1-909/909	===============	0/0	100.00	100.00	resfinder	AF330699	ant(6)-Ia	Streptomycin
/home/dla_mm/jkerkvliet/data/gplas/reconstructing_amr_plasmids/validation_pipeline/results/E_faecalis_c/07_gplas_cc/GCF_023375265.1_results/GCF_023375265.1_bin_2.fasta	S31_LN:i:4888_dp:f:1.2175990260622285	3474	4268	+	aph(3')-III_1	1-795/795	===============	0/0	100.00	100.00	resfinder	M26832	aph(3')-III	Amikacin;Butirosin;Isepamicin;Kanamycin;Lividomycin;Neomycin;Paromomycin;Ribostamycin
/home/dla_mm/jkerkvliet/data/gplas/reconstructing_amr_plasmids/validation_pipeline/results/E_faecalis_c/07_gplas_cc/GCF_023375265.1_results/GCF_023375265.1_bin_2.fasta	S37_LN:i:2371_dp:f:1.147112942072151	167	814	-	cat(pC221)_1	1-648/648	===============	0/0	100.00	97.69	resfinder	X02529	cat(pC221)	Chloramphenicol
/home/dla_mm/jkerkvliet/data/gplas/reconstructing_amr_plasmids/validation_pipeline/results/E_faecalis_c/07_gplas_cc/GCF_023375265.1_results/GCF_023375265.1_bin_2.fasta	S39_LN:i:1972_dp:f:1.184457213620093	156	1532	+	tet(L)_2	1-1377/1377	===============	0/0	100.00	100.00	resfinder	M29725	tet(L)	Doxycycline;Minocycline;Tetracycline;Tigecycline
/home/dla_mm/jkerkvliet/data/gplas/reconstructing_amr_plasmids/validation_pipeline/results/E_faecalis_c/07_gplas_cc/GCF_023375265.1_results/GCF_023375265.1_bin_2.fasta	S45_LN:i:1141_dp:f:1.2367201396477547	307	1069	+	erm(B)_18	1-762/762	========/======	1/1	100.00	99.21	resfinder	X66468	erm(B)	Clindamycin;Erythromycin;Lincomycin;Pristinamycin_IA;Quinupristin;Virginiamycin_S
/home/dla_mm/jkerkvliet/data/gplas/reconstructing_amr_plasmids/validation_pipeline/results/E_faecalis_c/07_gplas_cc/GCF_023375265.1_results/GCF_023375265.1_bin_1.fasta	S25_LN:i:8412_dp:f:2.1529597834592487	536	2143	+	poxtA_1	1-1608/1629	===============	0/0	98.71	100.00	resfinder	MF095097	poxtA	Chloramphenicol;Doxycycline;Florfenicol;Linezolid;Tetracycline
/home/dla_mm/jkerkvliet/data/gplas/reconstructing_amr_plasmids/validation_pipeline/results/E_faecalis_c/07_gplas_cc/GCF_023375265.1_results/GCF_023375265.1_bin_1.fasta	S25_LN:i:8412_dp:f:2.1529597834592487	2297	3370	+	Cfr(D)_1	1-1074/1074	===============	0/0	100.00	99.91	resfinder	NG_067192	Cfr(D)	Chloramphenicol;Clindamycin;Dalfopristin;Florfenicol;Lincomycin;Linezolid;Pristinamycin_IIA;Tiamulin;Virginiamycin_M
/home/dla_mm/jkerkvliet/data/gplas/reconstructing_amr_plasmids/validation_pipeline/results/E_faecalis_c/07_gplas_cc/GCF_023375265.1_results/GCF_023375265.1_bin_1.fasta	S36_LN:i:2580_dp:f:2.16276806080849	896	2323	+	fexA_1	1-1428/1428	===============	0/0	100.00	99.72	resfinder	AJ549214	fexA	Chloramphenicol;Florfenicol
/home/dla_mm/jkerkvliet/data/gplas/reconstructing_amr_plasmids/validation_pipeline/results/E_faecalis_c/07_gplas_cc/GCF_022648425.1_results/GCF_022648425.1_bin_2.fasta	S41_LN:i:10342_dp:f:1.6846684114293748	998	1760	+	erm(B)_18	1-762/762	========/======	1/1	100.00	99.34	resfinder	X66468	erm(B)	Clindamycin;Erythromycin;Lincomycin;Pristinamycin_IA;Quinupristin;Virginiamycin_S
/home/dla_mm/jkerkvliet/data/gplas/reconstructing_amr_plasmids/validation_pipeline/results/E_faecalis_c/07_gplas_cc/GCF_022648425.1_results/GCF_022648425.1_bin_2.fasta	S41_LN:i:10342_dp:f:1.6846684114293748	5019	5927	+	ant(6)-Ia_1	1-909/909	===============	0/0	100.00	100.00	resfinder	AF330699	ant(6)-Ia	Streptomycin
/home/dla_mm/jkerkvliet/data/gplas/reconstructing_amr_plasmids/validation_pipeline/results/E_faecalis_c/07_gplas_cc/GCF_022648425.1_results/GCF_022648425.1_bin_2.fasta	S41_LN:i:10342_dp:f:1.6846684114293748	6559	7353	+	aph(3')-III_1	1-795/795	===============	0/0	100.00	100.00	resfinder	M26832	aph(3')-III	Amikacin;Butirosin;Isepamicin;Kanamycin;Lividomycin;Neomycin;Paromomycin;Ribostamycin
/home/dla_mm/jkerkvliet/data/gplas/reconstructing_amr_plasmids/validation_pipeline/results/E_faecalis_c/07_gplas_cc/GCF_022648425.1_results/GCF_022648425.1_bin_2.fasta	S51_LN:i:4414_dp:f:1.7192617568014967	2505	3275	-	aadD_1	1-771/771	===============	0/0	100.00	99.61	resfinder	AF181950	aadD	Amikacin;Tobramycin
/home/dla_mm/jkerkvliet/data/gplas/reconstructing_amr_plasmids/validation_pipeline/results/E_faecalis_c/07_gplas_cc/GCF_022648425.1_results/GCF_022648425.1_bin_2.fasta	S54_LN:i:4147_dp:f:1.6718203985884428	1442	4048	+	VanHAX_2	1-2607/2607	===============	0/0	100.00	99.96	resfinder	M97297	VanHAX	Teicoplanin;Vancomycin
/home/dla_mm/jkerkvliet/data/gplas/reconstructing_amr_plasmids/validation_pipeline/results/E_faecalis_c/07_gplas_cc/GCF_023299425.1_results/GCF_023299425.1_bin_1.fasta	S12_LN:i:25111_dp:f:2.1366884940135105	7505	8152	-	cat_5	1-648/648	===============	0/0	100.00	98.92	resfinder	U35036	cat	Chloramphenicol
/home/dla_mm/jkerkvliet/data/gplas/reconstructing_amr_plasmids/validation_pipeline/results/E_faecalis_c/07_gplas_cc/GCF_023299425.1_results/GCF_023299425.1_bin_1.fasta	S12_LN:i:25111_dp:f:2.1366884940135105	9194	10570	-	tet(L)_2	1-1377/1377	===============	0/0	100.00	100.00	resfinder	M29725	tet(L)	Doxycycline;Minocycline;Tetracycline;Tigecycline
/home/dla_mm/jkerkvliet/data/gplas/reconstructing_amr_plasmids/validation_pipeline/results/E_faecalis_c/07_gplas_cc/GCF_023299425.1_results/GCF_023299425.1_bin_1.fasta	S12_LN:i:25111_dp:f:2.1366884940135105	10764	12683	-	tet(M)_10	1-1920/1920	===============	0/0	100.00	96.46	resfinder	EU182585	tet(M)	Doxycycline;Minocycline;Tetracycline
/home/dla_mm/jkerkvliet/data/gplas/reconstructing_amr_plasmids/validation_pipeline/results/E_faecalis_c/07_gplas_cc/GCF_023299425.1_results/GCF_023299425.1_bin_1.fasta	S16_LN:i:9757_dp:f:2.134183347150262	3934	5419	+	lsa(E)_1	1-1485/1485	========/======	1/1	100.00	99.93	resfinder	JX560992	lsa(E)	Clindamycin;Dalfopristin;Lincomycin;Pristinamycin_IIA;Tiamulin;Virginiamycin_M
/home/dla_mm/jkerkvliet/data/gplas/reconstructing_amr_plasmids/validation_pipeline/results/E_faecalis_c/07_gplas_cc/GCF_023299425.1_results/GCF_023299425.1_bin_1.fasta	S16_LN:i:9757_dp:f:2.134183347150262	5473	6276	+	lnu(B)_2	1-804/804	===============	0/0	100.00	100.00	resfinder	JQ861959	lnu(B)	Clindamycin;Lincomycin
/home/dla_mm/jkerkvliet/data/gplas/reconstructing_amr_plasmids/validation_pipeline/results/E_faecalis_c/07_gplas_cc/GCF_023299425.1_results/GCF_023299425.1_bin_1.fasta	S17_LN:i:4347_dp:f:2.1444281181567595	332	817	-	dfrG_1	1-486/498	===============	0/0	97.59	100.00	resfinder	AB205645	dfrG	Trimethoprim
/home/dla_mm/jkerkvliet/data/gplas/reconstructing_amr_plasmids/validation_pipeline/results/E_faecalis_c/07_gplas_cc/GCF_023299425.1_results/GCF_023299425.1_bin_1.fasta	S22_LN:i:1951_dp:f:2.0786212914421056	126	920	-	aph(3')-III_1	1-795/795	===============	0/0	100.00	100.00	resfinder	M26832	aph(3')-III	Amikacin;Butirosin;Isepamicin;Kanamycin;Lividomycin;Neomycin;Paromomycin;Ribostamycin
/home/dla_mm/jkerkvliet/data/gplas/reconstructing_amr_plasmids/validation_pipeline/results/E_faecalis_c/07_gplas_cc/GCF_023299425.1_results/GCF_023299425.1_bin_1.fasta	S28_LN:i:1181_dp:f:6.569188260769425	249	1011	+	erm(B)_18	1-762/762	========/======	1/1	100.00	99.08	resfinder	X66468	erm(B)	Clindamycin;Erythromycin;Lincomycin;Pristinamycin_IA;Quinupristin;Virginiamycin_S
/home/dla_mm/jkerkvliet/data/gplas/reconstructing_amr_plasmids/validation_pipeline/results/E_faecalis_c/07_gplas_cc/GCF_023300025.1_results/GCF_023300025.1_bin_1.fasta	S18_LN:i:9111_dp:f:1.7098090360207077	2377	2874	+	dfrG_1	1-498/498	===============	0/0	100.00	100.00	resfinder	AB205645	dfrG	Trimethoprim
/home/dla_mm/jkerkvliet/data/gplas/reconstructing_amr_plasmids/validation_pipeline/results/E_faecalis_c/07_gplas_cc/GCF_023300025.1_results/GCF_023300025.1_bin_1.fasta	S25_LN:i:1337_dp:f:1.8369941328489325	477	1271	-	aph(3')-III_1	1-795/795	===============	0/0	100.00	100.00	resfinder	M26832	aph(3')-III	Amikacin;Butirosin;Isepamicin;Kanamycin;Lividomycin;Neomycin;Paromomycin;Ribostamycin
/home/dla_mm/jkerkvliet/data/gplas/reconstructing_amr_plasmids/validation_pipeline/results/E_faecalis_c/07_gplas_cc/GCF_023299705.1_results/GCF_023299705.1_bin_1.fasta	S12_LN:i:34848_dp:f:1.1134174377656756	11991	12753	-	erm(B)_18	1-762/762	========/======	1/1	100.00	99.08	resfinder	X66468	erm(B)	Clindamycin;Erythromycin;Lincomycin;Pristinamycin_IA;Quinupristin;Virginiamycin_S
/home/dla_mm/jkerkvliet/data/gplas/reconstructing_amr_plasmids/validation_pipeline/results/E_faecalis_c/07_gplas_cc/GCF_023299705.1_results/GCF_023299705.1_bin_1.fasta	S12_LN:i:34848_dp:f:1.1134174377656756	20857	21504	-	cat_5	1-648/648	===============	0/0	100.00	98.92	resfinder	U35036	cat	Chloramphenicol
/home/dla_mm/jkerkvliet/data/gplas/reconstructing_amr_plasmids/validation_pipeline/results/E_faecalis_c/07_gplas_cc/GCF_023299705.1_results/GCF_023299705.1_bin_1.fasta	S12_LN:i:34848_dp:f:1.1134174377656756	22546	23922	-	tet(L)_2	1-1377/1377	===============	0/0	100.00	100.00	resfinder	M29725	tet(L)	Doxycycline;Minocycline;Tetracycline;Tigecycline
/home/dla_mm/jkerkvliet/data/gplas/reconstructing_amr_plasmids/validation_pipeline/results/E_faecalis_c/07_gplas_cc/GCF_023299705.1_results/GCF_023299705.1_bin_1.fasta	S12_LN:i:34848_dp:f:1.1134174377656756	24116	26035	-	tet(M)_10	1-1920/1920	===============	0/0	100.00	96.46	resfinder	EU182585	tet(M)	Doxycycline;Minocycline;Tetracycline
/home/dla_mm/jkerkvliet/data/gplas/reconstructing_amr_plasmids/validation_pipeline/results/E_faecalis_c/07_gplas_cc/GCF_023299705.1_results/GCF_023299705.1_bin_1.fasta	S12_LN:i:34848_dp:f:1.1134174377656756	29754	31181	+	fexA_1	1-1428/1428	===============	0/0	100.00	99.65	resfinder	AJ549214	fexA	Chloramphenicol;Florfenicol
/home/dla_mm/jkerkvliet/data/gplas/reconstructing_amr_plasmids/validation_pipeline/results/E_faecalis_c/07_gplas_cc/GCF_023299705.1_results/GCF_023299705.1_bin_1.fasta	S12_LN:i:34848_dp:f:1.1134174377656756	31869	33836	+	optrA_15	1-1968/1968	===============	0/0	100.00	100.00	resfinder	KX620942	optrA	Chloramphenicol;Florfenicol;Linezolid
/home/dla_mm/jkerkvliet/data/gplas/reconstructing_amr_plasmids/validation_pipeline/results/E_faecalis_c/07_gplas_cc/GCF_028335445.1_results/GCF_028335445.1_bin_1.fasta	S10_LN:i:45861_dp:f:1.2458841631023088	11991	12753	-	erm(B)_18	1-762/762	========/======	1/1	100.00	99.08	resfinder	X66468	erm(B)	Clindamycin;Erythromycin;Lincomycin;Pristinamycin_IA;Quinupristin;Virginiamycin_S
/home/dla_mm/jkerkvliet/data/gplas/reconstructing_amr_plasmids/validation_pipeline/results/E_faecalis_c/07_gplas_cc/GCF_028335445.1_results/GCF_028335445.1_bin_1.fasta	S10_LN:i:45861_dp:f:1.2458841631023088	20857	21504	-	cat_5	1-648/648	===============	0/0	100.00	98.92	resfinder	U35036	cat	Chloramphenicol
/home/dla_mm/jkerkvliet/data/gplas/reconstructing_amr_plasmids/validation_pipeline/results/E_faecalis_c/07_gplas_cc/GCF_028335445.1_results/GCF_028335445.1_bin_1.fasta	S10_LN:i:45861_dp:f:1.2458841631023088	22546	23922	-	tet(L)_2	1-1377/1377	===============	0/0	100.00	100.00	resfinder	M29725	tet(L)	Doxycycline;Minocycline;Tetracycline;Tigecycline
/home/dla_mm/jkerkvliet/data/gplas/reconstructing_amr_plasmids/validation_pipeline/results/E_faecalis_c/07_gplas_cc/GCF_028335445.1_results/GCF_028335445.1_bin_1.fasta	S10_LN:i:45861_dp:f:1.2458841631023088	24116	26035	-	tet(M)_10	1-1920/1920	===============	0/0	100.00	96.46	resfinder	EU182585	tet(M)	Doxycycline;Minocycline;Tetracycline
/home/dla_mm/jkerkvliet/data/gplas/reconstructing_amr_plasmids/validation_pipeline/results/E_faecalis_c/07_gplas_cc/GCF_028335445.1_results/GCF_028335445.1_bin_1.fasta	S10_LN:i:45861_dp:f:1.2458841631023088	40767	42194	+	fexA_1	1-1428/1428	===============	0/0	100.00	99.65	resfinder	AJ549214	fexA	Chloramphenicol;Florfenicol
/home/dla_mm/jkerkvliet/data/gplas/reconstructing_amr_plasmids/validation_pipeline/results/E_faecalis_c/07_gplas_cc/GCF_028335445.1_results/GCF_028335445.1_bin_1.fasta	S10_LN:i:45861_dp:f:1.2458841631023088	42882	44849	+	optrA_15	1-1968/1968	===============	0/0	100.00	100.00	resfinder	KX620942	optrA	Chloramphenicol;Florfenicol;Linezolid
/home/dla_mm/jkerkvliet/data/gplas/reconstructing_amr_plasmids/validation_pipeline/results/E_faecalis_c/07_gplas_cc/GCF_022648285.1_results/GCF_022648285.1_bin_2.fasta	S40_LN:i:10342_dp:f:1.7406902792841459	998	1760	+	erm(B)_18	1-762/762	========/======	1/1	100.00	99.34	resfinder	X66468	erm(B)	Clindamycin;Erythromycin;Lincomycin;Pristinamycin_IA;Quinupristin;Virginiamycin_S
/home/dla_mm/jkerkvliet/data/gplas/reconstructing_amr_plasmids/validation_pipeline/results/E_faecalis_c/07_gplas_cc/GCF_022648285.1_results/GCF_022648285.1_bin_2.fasta	S40_LN:i:10342_dp:f:1.7406902792841459	5019	5927	+	ant(6)-Ia_1	1-909/909	===============	0/0	100.00	100.00	resfinder	AF330699	ant(6)-Ia	Streptomycin
/home/dla_mm/jkerkvliet/data/gplas/reconstructing_amr_plasmids/validation_pipeline/results/E_faecalis_c/07_gplas_cc/GCF_022648285.1_results/GCF_022648285.1_bin_2.fasta	S40_LN:i:10342_dp:f:1.7406902792841459	6559	7353	+	aph(3')-III_1	1-795/795	===============	0/0	100.00	100.00	resfinder	M26832	aph(3')-III	Amikacin;Butirosin;Isepamicin;Kanamycin;Lividomycin;Neomycin;Paromomycin;Ribostamycin
/home/dla_mm/jkerkvliet/data/gplas/reconstructing_amr_plasmids/validation_pipeline/results/E_faecalis_c/07_gplas_cc/GCF_022648285.1_results/GCF_022648285.1_bin_2.fasta	S52_LN:i:4414_dp:f:1.874529662304775	2505	3275	-	aadD_1	1-771/771	===============	0/0	100.00	99.61	resfinder	AF181950	aadD	Amikacin;Tobramycin
/home/dla_mm/jkerkvliet/data/gplas/reconstructing_amr_plasmids/validation_pipeline/results/E_faecalis_c/07_gplas_cc/GCF_022648285.1_results/GCF_022648285.1_bin_2.fasta	S55_LN:i:4147_dp:f:1.871575760088877	100	2706	-	VanHAX_2	1-2607/2607	===============	0/0	100.00	99.96	resfinder	M97297	VanHAX	Teicoplanin;Vancomycin
/home/dla_mm/jkerkvliet/data/gplas/reconstructing_amr_plasmids/validation_pipeline/results/E_faecalis_c/07_gplas_cc/GCF_028335725.1_results/GCF_028335725.1_bin_3.fasta	S23_LN:i:11683_dp:f:1.5740921763060343	2565	3941	-	tet(L)_2	1-1377/1377	===============	0/0	100.00	100.00	resfinder	M29725	tet(L)	Doxycycline;Minocycline;Tetracycline;Tigecycline
/home/dla_mm/jkerkvliet/data/gplas/reconstructing_amr_plasmids/validation_pipeline/results/E_faecalis_c/07_gplas_cc/GCF_028335725.1_results/GCF_028335725.1_bin_3.fasta	S23_LN:i:11683_dp:f:1.5740921763060343	4135	6054	-	tet(M)_10	1-1920/1920	===============	0/0	100.00	96.41	resfinder	EU182585	tet(M)	Doxycycline;Minocycline;Tetracycline
/home/dla_mm/jkerkvliet/data/gplas/reconstructing_amr_plasmids/validation_pipeline/results/E_faecalis_c/07_gplas_cc/GCF_028335725.1_results/GCF_028335725.1_bin_3.fasta	S24_LN:i:10459_dp:f:1.5443926933412486	913	1644	+	erm(A)_3	1-732/732	===============	0/0	100.00	100.00	resfinder	EU348758	erm(A)	Clindamycin;Erythromycin;Lincomycin;Pristinamycin_IA;Quinupristin;Virginiamycin_S
/home/dla_mm/jkerkvliet/data/gplas/reconstructing_amr_plasmids/validation_pipeline/results/E_faecalis_c/07_gplas_cc/GCF_028335725.1_results/GCF_028335725.1_bin_3.fasta	S24_LN:i:10459_dp:f:1.5443926933412486	3061	5028	-	optrA_12	1-1968/1968	===============	0/0	100.00	99.90	resfinder	KX620936	optrA	Chloramphenicol;Florfenicol;Linezolid
/home/dla_mm/jkerkvliet/data/gplas/reconstructing_amr_plasmids/validation_pipeline/results/E_faecalis_c/07_gplas_cc/GCF_028335725.1_results/GCF_028335725.1_bin_3.fasta	S24_LN:i:10459_dp:f:1.5443926933412486	5715	7142	-	fexA_1	1-1428/1428	===============	0/0	100.00	99.65	resfinder	AJ549214	fexA	Chloramphenicol;Florfenicol
/home/dla_mm/jkerkvliet/data/gplas/reconstructing_amr_plasmids/validation_pipeline/results/E_faecalis_c/07_gplas_cc/GCF_028335725.1_results/GCF_028335725.1_bin_3.fasta	S27_LN:i:8780_dp:f:1.4658377197149697	6238	6735	-	dfrG_1	1-498/498	===============	0/0	100.00	100.00	resfinder	AB205645	dfrG	Trimethoprim
/home/dla_mm/jkerkvliet/data/gplas/reconstructing_amr_plasmids/validation_pipeline/results/E_faecalis_c/07_gplas_cc/GCF_028335725.1_results/GCF_028335725.1_bin_3.fasta	S40_LN:i:1337_dp:f:1.6256354084681088	67	861	+	aph(3')-III_1	1-795/795	===============	0/0	100.00	100.00	resfinder	M26832	aph(3')-III	Amikacin;Butirosin;Isepamicin;Kanamycin;Lividomycin;Neomycin;Paromomycin;Ribostamycin
/home/dla_mm/jkerkvliet/data/gplas/reconstructing_amr_plasmids/validation_pipeline/results/E_faecalis_c/07_gplas_cc/GCF_028335425.1_results/GCF_028335425.1_bin_1.fasta	S15_LN:i:7552_dp:f:2.1151901340375057	2458	3885	+	fexA_1	1-1428/1428	===============	0/0	100.00	99.65	resfinder	AJ549214	fexA	Chloramphenicol;Florfenicol
/home/dla_mm/jkerkvliet/data/gplas/reconstructing_amr_plasmids/validation_pipeline/results/E_faecalis_c/07_gplas_cc/GCF_028335425.1_results/GCF_028335425.1_bin_1.fasta	S15_LN:i:7552_dp:f:2.1151901340375057	4573	6540	+	optrA_15	1-1968/1968	===============	0/0	100.00	100.00	resfinder	KX620942	optrA	Chloramphenicol;Florfenicol;Linezolid
/home/dla_mm/jkerkvliet/data/gplas/reconstructing_amr_plasmids/validation_pipeline/results/E_faecalis_c/07_gplas_cc/GCF_028335425.1_results/GCF_028335425.1_bin_1.fasta	S9_LN:i:45596_dp:f:2.041800684987567	19562	21481	+	tet(M)_10	1-1920/1920	===============	0/0	100.00	96.46	resfinder	EU182585	tet(M)	Doxycycline;Minocycline;Tetracycline
/home/dla_mm/jkerkvliet/data/gplas/reconstructing_amr_plasmids/validation_pipeline/results/E_faecalis_c/07_gplas_cc/GCF_028335425.1_results/GCF_028335425.1_bin_1.fasta	S9_LN:i:45596_dp:f:2.041800684987567	21675	23051	+	tet(L)_2	1-1377/1377	===============	0/0	100.00	100.00	resfinder	M29725	tet(L)	Doxycycline;Minocycline;Tetracycline;Tigecycline
/home/dla_mm/jkerkvliet/data/gplas/reconstructing_amr_plasmids/validation_pipeline/results/E_faecalis_c/07_gplas_cc/GCF_028335425.1_results/GCF_028335425.1_bin_1.fasta	S9_LN:i:45596_dp:f:2.041800684987567	24093	24740	+	cat_5	1-648/648	===============	0/0	100.00	98.92	resfinder	U35036	cat	Chloramphenicol
/home/dla_mm/jkerkvliet/data/gplas/reconstructing_amr_plasmids/validation_pipeline/results/E_faecalis_c/07_gplas_cc/GCF_028335425.1_results/GCF_028335425.1_bin_1.fasta	S9_LN:i:45596_dp:f:2.041800684987567	32844	33606	+	erm(B)_18	1-762/762	========/======	1/1	100.00	99.08	resfinder	X66468	erm(B)	Clindamycin;Erythromycin;Lincomycin;Pristinamycin_IA;Quinupristin;Virginiamycin_S
/home/dla_mm/jkerkvliet/data/gplas/reconstructing_amr_plasmids/validation_pipeline/results/E_faecalis_c/07_gplas_cc/GCF_023375485.1_results/GCF_023375485.1_bin_1.fasta	S24_LN:i:27574_dp:f:2.30304981936969	4341	5768	+	fexA_1	1-1428/1428	===============	0/0	100.00	99.65	resfinder	AJ549214	fexA	Chloramphenicol;Florfenicol
/home/dla_mm/jkerkvliet/data/gplas/reconstructing_amr_plasmids/validation_pipeline/results/E_faecalis_c/07_gplas_cc/GCF_023375485.1_results/GCF_023375485.1_bin_1.fasta	S24_LN:i:27574_dp:f:2.30304981936969	6456	8423	+	optrA_1	1-1968/1968	===============	0/0	100.00	100.00	resfinder	KP399637	optrA	Chloramphenicol;Florfenicol;Linezolid
/home/dla_mm/jkerkvliet/data/gplas/reconstructing_amr_plasmids/validation_pipeline/results/E_faecalis_c/07_gplas_cc/GCF_023375485.1_results/GCF_023375485.1_bin_1.fasta	S36_LN:i:5313_dp:f:0.9665174493548453	1046	1840	-	aph(3')-III_1	1-795/795	===============	0/0	100.00	100.00	resfinder	M26832	aph(3')-III	Amikacin;Butirosin;Isepamicin;Kanamycin;Lividomycin;Neomycin;Paromomycin;Ribostamycin
/home/dla_mm/jkerkvliet/data/gplas/reconstructing_amr_plasmids/validation_pipeline/results/E_faecalis_c/07_gplas_cc/GCF_023375485.1_results/GCF_023375485.1_bin_1.fasta	S36_LN:i:5313_dp:f:0.9665174493548453	2472	3380	-	ant(6)-Ia_1	1-909/909	===============	0/0	100.00	100.00	resfinder	AF330699	ant(6)-Ia	Streptomycin
/home/dla_mm/jkerkvliet/data/gplas/reconstructing_amr_plasmids/validation_pipeline/results/E_faecalis_c/07_gplas_cc/GCF_023375485.1_results/GCF_023375485.1_bin_1.fasta	S40_LN:i:3381_dp:f:0.9736550054469217	2517	3164	+	cat(pC221)_1	1-648/648	===============	0/0	100.00	97.69	resfinder	X02529	cat(pC221)	Chloramphenicol
/home/dla_mm/jkerkvliet/data/gplas/reconstructing_amr_plasmids/validation_pipeline/results/E_faecalis_c/07_gplas_cc/GCF_023375485.1_results/GCF_023375485.1_bin_1.fasta	S47_LN:i:2008_dp:f:0.9291763760339775	156	1532	+	tet(L)_2	1-1377/1377	===============	0/0	100.00	100.00	resfinder	M29725	tet(L)	Doxycycline;Minocycline;Tetracycline;Tigecycline
/home/dla_mm/jkerkvliet/data/gplas/reconstructing_amr_plasmids/validation_pipeline/results/E_faecalis_c/07_gplas_cc/GCF_023375485.1_results/GCF_023375485.1_bin_1.fasta	S51_LN:i:1457_dp:f:0.9238822509233336	73	835	-	erm(B)_18	1-762/762	========/======	1/1	100.00	99.21	resfinder	X66468	erm(B)	Clindamycin;Erythromycin;Lincomycin;Pristinamycin_IA;Quinupristin;Virginiamycin_S
/home/dla_mm/jkerkvliet/data/gplas/reconstructing_amr_plasmids/validation_pipeline/results/E_faecalis_c/07_gplas_cc/GCF_022648595.1_results/GCF_022648595.1_bin_1.fasta	S41_LN:i:10342_dp:f:1.6741145377647262	998	1760	+	erm(B)_18	1-762/762	========/======	1/1	100.00	99.34	resfinder	X66468	erm(B)	Clindamycin;Erythromycin;Lincomycin;Pristinamycin_IA;Quinupristin;Virginiamycin_S
/home/dla_mm/jkerkvliet/data/gplas/reconstructing_amr_plasmids/validation_pipeline/results/E_faecalis_c/07_gplas_cc/GCF_022648595.1_results/GCF_022648595.1_bin_1.fasta	S41_LN:i:10342_dp:f:1.6741145377647262	5019	5927	+	ant(6)-Ia_1	1-909/909	===============	0/0	100.00	100.00	resfinder	AF330699	ant(6)-Ia	Streptomycin
/home/dla_mm/jkerkvliet/data/gplas/reconstructing_amr_plasmids/validation_pipeline/results/E_faecalis_c/07_gplas_cc/GCF_022648595.1_results/GCF_022648595.1_bin_1.fasta	S41_LN:i:10342_dp:f:1.6741145377647262	6559	7353	+	aph(3')-III_1	1-795/795	===============	0/0	100.00	100.00	resfinder	M26832	aph(3')-III	Amikacin;Butirosin;Isepamicin;Kanamycin;Lividomycin;Neomycin;Paromomycin;Ribostamycin
/home/dla_mm/jkerkvliet/data/gplas/reconstructing_amr_plasmids/validation_pipeline/results/E_faecalis_c/07_gplas_cc/GCF_022648595.1_results/GCF_022648595.1_bin_1.fasta	S51_LN:i:4414_dp:f:1.7571966036893871	1140	1910	+	aadD_1	1-771/771	===============	0/0	100.00	99.61	resfinder	AF181950	aadD	Amikacin;Tobramycin
/home/dla_mm/jkerkvliet/data/gplas/reconstructing_amr_plasmids/validation_pipeline/results/E_faecalis_c/07_gplas_cc/GCF_022648595.1_results/GCF_022648595.1_bin_1.fasta	S54_LN:i:4147_dp:f:1.7433689516264754	1442	4048	+	VanHAX_2	1-2607/2607	===============	0/0	100.00	99.96	resfinder	M97297	VanHAX	Teicoplanin;Vancomycin
/home/dla_mm/jkerkvliet/data/gplas/reconstructing_amr_plasmids/validation_pipeline/results/E_faecalis_c/07_gplas_cc/GCF_023375465.1_results/GCF_023375465.1_bin_1.fasta	S14_LN:i:12855_dp:f:1.1164667487392304	1037	1768	+	erm(A)_3	1-732/732	===============	0/0	100.00	100.00	resfinder	EU348758	erm(A)	Clindamycin;Erythromycin;Lincomycin;Pristinamycin_IA;Quinupristin;Virginiamycin_S
/home/dla_mm/jkerkvliet/data/gplas/reconstructing_amr_plasmids/validation_pipeline/results/E_faecalis_c/07_gplas_cc/GCF_023375465.1_results/GCF_023375465.1_bin_1.fasta	S14_LN:i:12855_dp:f:1.1164667487392304	3185	5152	-	optrA_7	1-1968/1968	===============	0/0	100.00	100.00	resfinder	KT862775	optrA	Chloramphenicol;Florfenicol;Linezolid
/home/dla_mm/jkerkvliet/data/gplas/reconstructing_amr_plasmids/validation_pipeline/results/E_faecalis_c/07_gplas_cc/GCF_023375465.1_results/GCF_023375465.1_bin_1.fasta	S14_LN:i:12855_dp:f:1.1164667487392304	5840	7267	-	fexA_1	1-1428/1428	===============	0/0	100.00	99.65	resfinder	AJ549214	fexA	Chloramphenicol;Florfenicol
/home/dla_mm/jkerkvliet/data/gplas/reconstructing_amr_plasmids/validation_pipeline/results/E_faecalis_c/07_gplas_cc/GCF_023375465.1_results/GCF_023375465.1_bin_1.fasta	S17_LN:i:4015_dp:f:1.7905307878337724	3531	4015	+	dfrG_1	1-485/498	===============	0/0	97.39	100.00	resfinder	AB205645	dfrG	Trimethoprim
/home/dla_mm/jkerkvliet/data/gplas/reconstructing_amr_plasmids/validation_pipeline/results/E_faecalis_c/07_gplas_cc/GCF_023375465.1_results/GCF_023375465.1_bin_1.fasta	S21_LN:i:1951_dp:f:1.8073424975707404	1032	1826	+	aph(3')-III_1	1-795/795	===============	0/0	100.00	100.00	resfinder	M26832	aph(3')-III	Amikacin;Butirosin;Isepamicin;Kanamycin;Lividomycin;Neomycin;Paromomycin;Ribostamycin
/home/dla_mm/jkerkvliet/data/gplas/reconstructing_amr_plasmids/validation_pipeline/results/E_faecalis_c/07_gplas_cc/GCF_023375465.1_results/GCF_023375465.1_bin_1.fasta	S23_LN:i:1181_dp:f:5.588634205814567	171	933	-	erm(B)_18	1-762/762	========/======	1/1	100.00	99.08	resfinder	X66468	erm(B)	Clindamycin;Erythromycin;Lincomycin;Pristinamycin_IA;Quinupristin;Virginiamycin_S
/home/dla_mm/jkerkvliet/data/gplas/reconstructing_amr_plasmids/validation_pipeline/results/E_faecalis_c/07_gplas_cc/GCF_023375465.1_results/GCF_023375465.1_bin_1.fasta	S7_LN:i:31422_dp:f:1.78322342657504	7494	8141	-	cat_5	1-648/648	===============	0/0	100.00	98.92	resfinder	U35036	cat	Chloramphenicol
/home/dla_mm/jkerkvliet/data/gplas/reconstructing_amr_plasmids/validation_pipeline/results/E_faecalis_c/07_gplas_cc/GCF_023375465.1_results/GCF_023375465.1_bin_1.fasta	S7_LN:i:31422_dp:f:1.78322342657504	9183	10559	-	tet(L)_2	1-1377/1377	===============	0/0	100.00	100.00	resfinder	M29725	tet(L)	Doxycycline;Minocycline;Tetracycline;Tigecycline
/home/dla_mm/jkerkvliet/data/gplas/reconstructing_amr_plasmids/validation_pipeline/results/E_faecalis_c/07_gplas_cc/GCF_023375465.1_results/GCF_023375465.1_bin_1.fasta	S7_LN:i:31422_dp:f:1.78322342657504	10753	12672	-	tet(M)_10	1-1920/1920	===============	0/0	100.00	96.46	resfinder	EU182585	tet(M)	Doxycycline;Minocycline;Tetracycline
/home/dla_mm/jkerkvliet/data/gplas/reconstructing_amr_plasmids/validation_pipeline/results/E_faecalis_c/07_gplas_cc/GCF_906464915.2_results/GCF_906464915.2_bin_1.fasta	S21_LN:i:13572_dp:f:1.0981817306800883	5785	6693	+	ant(6)-Ia_1	1-909/909	===============	0/0	100.00	100.00	resfinder	AF330699	ant(6)-Ia	Streptomycin
/home/dla_mm/jkerkvliet/data/gplas/reconstructing_amr_plasmids/validation_pipeline/results/E_faecalis_c/07_gplas_cc/GCF_906464915.2_results/GCF_906464915.2_bin_1.fasta	S21_LN:i:13572_dp:f:1.0981817306800883	7263	8057	+	aph(3')-III_1	1-795/795	===============	0/0	100.00	100.00	resfinder	M26832	aph(3')-III	Amikacin;Butirosin;Isepamicin;Kanamycin;Lividomycin;Neomycin;Paromomycin;Ribostamycin
/home/dla_mm/jkerkvliet/data/gplas/reconstructing_amr_plasmids/validation_pipeline/results/E_faecalis_c/07_gplas_cc/GCF_906464915.2_results/GCF_906464915.2_bin_1.fasta	S21_LN:i:13572_dp:f:1.0981817306800883	8782	9544	+	erm(B)_18	1-762/762	========/======	1/1	100.00	99.61	resfinder	X66468	erm(B)	Clindamycin;Erythromycin;Lincomycin;Pristinamycin_IA;Quinupristin;Virginiamycin_S
