GCA_014170975.1_ASM1417097v1,CP059947.1,S9_LN_i_146014_dp_f_1.2030590946238744
GCA_014170975.1_ASM1417097v1,CP059949.1,S9_LN_i_146014_dp_f_1.2030590946238744
GCA_014170595.1_ASM1417059v1,CP059905.1,S57_LN_i_7251_dp_f_0.3932154904244094
GCA_014170595.1_ASM1417059v1,CP059906.1,S57_LN_i_7251_dp_f_0.3932154904244094
GCA_013805505.1_ASM1380550v1,CP057031.1,S73_LN_i_5406_dp_f_0.9894581567804008
GCA_013805505.1_ASM1380550v1,CP057032.1,S73_LN_i_5406_dp_f_0.9894581567804008
GCA_014170695.1_ASM1417069v1,CP059923.1,S24_LN_i_72860_dp_f_0.48001329060460207
GCA_014170695.1_ASM1417069v1,CP059924.1,S24_LN_i_72860_dp_f_0.48001329060460207
GCA_014170695.1_ASM1417069v1,CP059923.1,S24_LN_i_72860_dp_f_0.48001329060460207
GCA_014109105.1_ASM1410910v1,CP058076.1,S27_LN_i_61939_dp_f_1.5448745129410322
GCA_014109105.1_ASM1410910v1,CP058077.1,S27_LN_i_61939_dp_f_1.5448745129410322
