GCF_014334195.1_ASM1433419v1,S39_LN_i_2112_dp_f_8.20281916563863,2112,
GCF_020736325.1_ASM2073632v1,S38_LN_i_5952_dp_f_0.7990757389161038,5952,
GCF_016454385.1_ASM1645438v1,S35_LN_i_4099_dp_f_1.0586923593125217,4099,
GCF_013348865.1_ASM1334886v1,S41_LN_i_34158_dp_f_2.7783236393485917,34158,
GCF_001834965.2_ASM183496v2,S24_LN_i_26022_dp_f_5.133464349266923,26022,
GCF_016025415.1_ASM1602541v1,S22_LN_i_70214_dp_f_1.7146828236509704,70214,
GCF_016025415.1_ASM1602541v1,S33_LN_i_25144_dp_f_1.7442046457658946,25144,
GCF_001831985.2_ASM183198v2,S14_LN_i_102801_dp_f_2.1102973560077496,102801,
GCF_001831985.2_ASM183198v2,S29_LN_i_22284_dp_f_2.218749960722108,22284,
GCF_001831985.2_ASM183198v2,S54_LN_i_1147_dp_f_4.551809270583285,1147,
