GCF_022648595.1_ASM2264859v1,bin_component_0,NZ_CP076499.1,308
GCF_022648595.1_ASM2264859v1,bin_component_0,NZ_CP076500.1,786
GCF_022648595.1_ASM2264859v1,bin_component_0,NZ_CP076501.1,154
GCF_022648595.1_ASM2264859v1,bin_component_0,NZ_CP076502.1,229
GCF_022648425.1_ASM2264842v1,bin_component_0,NZ_CP076494.1,462
GCF_022648425.1_ASM2264842v1,bin_component_0,NZ_CP076495.1,231
GCF_022648425.1_ASM2264842v1,bin_component_0,NZ_CP076496.1,154
GCF_022648425.1_ASM2264842v1,bin_component_0,NZ_CP076497.1,229
GCF_013344605.1_ASM1334460v1,bin_component_0,NZ_CP046109.1,254
GCF_013344605.1_ASM1334460v1,bin_component_0,NZ_CP046108.1,108
GCF_013344605.1_ASM1334460v1,bin_component_0,NZ_CP046110.1,381
GCF_906464895.1_WE0851,bin_component_1,NZ_OD940422.1,270
GCF_906464895.1_WE0851,bin_component_0,NZ_OD940422.1,845
GCF_906464925.1_BX5936,bin_component_0,NZ_OD940434.1,231
GCF_020844125.1_ASM2084412v1,bin_component_0,NZ_CP063981.1,127
GCF_906464875.1_BX8117,bin_component_0,NZ_OD940437.1,155
GCF_906464835.1_TM6294,bin_component_1,NZ_OD940431.1,77
GCF_906464835.1_TM6294,bin_component_1,NZ_OD940432.1,77
GCF_906464835.1_TM6294,bin_component_1,NZ_OD940433.1,77
GCF_906464835.1_TM6294,bin_component_0,NZ_OD940431.1,116
GCF_021655635.1_ASM2165563v1,bin_component_0,NZ_AP025272.1,127
GCF_022648285.1_ASM2264828v1,bin_component_0,NZ_CP076489.1,462
GCF_022648285.1_ASM2264828v1,bin_component_0,NZ_CP076490.1,231
GCF_022648285.1_ASM2264828v1,bin_component_0,NZ_CP076491.1,77
GCF_022648285.1_ASM2264828v1,bin_component_0,NZ_CP076492.1,229
GCF_022648285.1_ASM2264828v1,bin_component_0,NZ_CP076488.1,77
GCF_013344665.1_ASM1334466v1,bin_component_0,NZ_CP046113.1,381
GCF_906464915.2_WE0254,bin_component_1,NZ_OU538997.1,77
GCF_906464915.2_WE0254,bin_component_0,NZ_OD940440.2,231
GCF_906464915.2_WE0254,bin_component_2,NZ_OD940440.2,243
