GCF_016025395.1_ASM1602539v1,plasmid_AD312,1
GCF_016454765.1_ASM1645476v1,plasmid_AA998,1
GCF_016454765.1_ASM1645476v1,plasmid_AD672,1
GCF_013415925.1_ASM1341592v1,plasmid_AA998,2
GCF_013415925.1_ASM1341592v1,plasmid_AA474,0
GCF_013415925.1_ASM1341592v1,plasmid_AA974,0
GCF_016454165.1_ASM1645416v1,plasmid_AA176,2
GCF_016454165.1_ASM1645416v1,plasmid_AC024,0
GCF_002507915.2_ASM250791v2,plasmid_AC207,0
GCF_002507915.2_ASM250791v2,plasmid_AA979,0
GCF_013161805.1_ASM1316180v1,plasmid_AA474,0
GCF_013161805.1_ASM1316180v1,plasmid_AA579,0
GCF_013161805.1_ASM1316180v1,plasmid_AB074,0
GCF_001713515.2_ASM171351v2,plasmid_AB461,1
GCF_001713515.2_ASM171351v2,plasmid_AA979,0
GCF_001713515.2_ASM171351v2,plasmid_AA372,0
GCF_015240995.1_ASM1524099v1,plasmid_AA667,0
GCF_015240995.1_ASM1524099v1,plasmid_AC120,0
GCF_015240995.1_ASM1524099v1,plasmid_AB461,2
GCF_015240995.1_ASM1524099v1,plasmid_AC411,0
GCF_002265865.2_ASM226586v2,plasmid_AB042,0
GCF_006461415.2_ASM646141v2,plasmid_AA627,0
GCF_019670145.1_ASM1967014v1,plasmid_AC082,0
GCF_019670445.1_ASM1967044v1,plasmid_AA738,0
GCF_003581245.2_ASM358124v2,plasmid_AC357,0
GCF_022936385.1_ASM2293638v1,plasmid_AA162,0
GCF_003068025.2_ASM306802v2,plasmid_AD306,0
GCF_003068025.2_ASM306802v2,plasmid_AB544,1
GCF_003068025.2_ASM306802v2,plasmid_AA378,0
GCF_014334255.1_ASM1433425v1,plasmid_AA619,0
GCF_014334255.1_ASM1433425v1,plasmid_AB461,1
GCF_014334255.1_ASM1433425v1,plasmid_AB241,0
GCF_021397625.1_ASM2139762v1,plasmid_AA738,6
GCF_021397625.1_ASM2139762v1,plasmid_AA001,1
GCF_021397625.1_ASM2139762v1,plasmid_AA162,1
GCF_013348865.1_ASM1334886v1,plasmid_AB161,0
GCF_016454645.1_ASM1645464v1,plasmid_AA474,1
GCF_016454645.1_ASM1645464v1,plasmid_AA738,3
GCF_016454425.1_ASM1645442v1,plasmid_AB961,1
GCF_016454425.1_ASM1645442v1,plasmid_AA667,0
GCF_016454425.1_ASM1645442v1,plasmid_AA423,3
GCF_016454425.1_ASM1645442v1,plasmid_AB039,0
GCF_003067445.2_ASM306744v2,plasmid_AC357,0
GCF_016889645.1_ASM1688964v1,plasmid_AA622,0
GCF_016454205.1_ASM1645420v1,plasmid_AA163,0
GCF_016454205.1_ASM1645420v1,plasmid_AB038,0
GCF_016454205.1_ASM1645420v1,plasmid_AA474,0
GCF_016454205.1_ASM1645420v1,plasmid_AC120,0
GCF_016454205.1_ASM1645420v1,plasmid_AA974,0
GCF_016454205.1_ASM1645420v1,plasmid_AA521,0
GCF_016454205.1_ASM1645420v1,plasmid_AB241,0
GCF_016454205.1_ASM1645420v1,plasmid_AB233,0
GCF_015240635.1_ASM1524063v1,plasmid_AB461,1
GCF_016454665.1_ASM1645466v1,plasmid_AC247,0
GCF_016454665.1_ASM1645466v1,plasmid_AA163,0
GCF_016454665.1_ASM1645466v1,plasmid_AC527,0
GCF_016454665.1_ASM1645466v1,plasmid_AA667,0
GCF_016454665.1_ASM1645466v1,plasmid_AC293,2
GCF_016454605.1_ASM1645460v1,plasmid_AA474,0
GCF_016454605.1_ASM1645460v1,plasmid_AB460,0
GCF_001831715.2_ASM183171v2,plasmid_AB544,0
GCF_019670425.1_ASM1967042v1,plasmid_AA738,3
GCF_019670225.1_ASM1967022v1,plasmid_AC120,1
GCF_019670225.1_ASM1967022v1,plasmid_AC082,1
GCF_022655705.1_ASM2265570v1,plasmid_AA372,0
GCF_016454365.1_ASM1645436v1,plasmid_AA998,3
GCF_016454365.1_ASM1645436v1,plasmid_AB037,0
GCF_016454365.1_ASM1645436v1,plasmid_AD486,0
GCF_016026715.1_ASM1602671v1,plasmid_AB460,0
GCF_022655645.1_ASM2265564v1,plasmid_AA669,0
GCF_022655645.1_ASM2265564v1,plasmid_AA974,0
GCF_022655645.1_ASM2265564v1,plasmid_AB460,0
GCF_001972545.2_ASM197254v2,plasmid_AB711,0
GCF_001972545.2_ASM197254v2,plasmid_AB461,0
GCF_016454505.1_ASM1645450v1,plasmid_AA860,0
GCF_014858545.1_ASM1485854v1,plasmid_AA738,3
GCF_021397675.1_ASM2139767v1,plasmid_AA738,6
GCF_021397675.1_ASM2139767v1,plasmid_AA001,1
GCF_021397675.1_ASM2139767v1,plasmid_AA162,0
GCF_016025415.1_ASM1602541v1,plasmid_AA998,4
GCF_016025415.1_ASM1602541v1,plasmid_AA473,0
GCF_016025415.1_ASM1602541v1,plasmid_AB443,0
GCF_016025415.1_ASM1602541v1,plasmid_AA579,0
GCF_015241115.1_ASM1524111v1,plasmid_AD482,0
GCF_015241115.1_ASM1524111v1,plasmid_AB461,1
GCF_022936365.1_ASM2293636v1,plasmid_AC247,0
GCF_022936365.1_ASM2293636v1,plasmid_AA537,0
GCF_022936365.1_ASM2293636v1,plasmid_AA979,0
GCF_016454285.1_ASM1645428v1,plasmid_AC120,0
GCF_016454285.1_ASM1645428v1,plasmid_AB461,0
GCF_022936485.1_ASM2293648v1,plasmid_AA162,0
GCF_019670325.1_ASM1967032v1,plasmid_AA738,1
GCF_022533545.1_ASM2253354v1,plasmid_novel_55554ec6b5757b7cb919dd142f8309bb,1
GCF_019428465.1_ASM1942846v1,plasmid_AA619,0
GCF_019428465.1_ASM1942846v1,plasmid_AB461,1
GCF_019428465.1_ASM1942846v1,plasmid_AB233,0
GCF_002266205.2_ASM226620v2,plasmid_novel_54ca33bc88ed474de1677e5f0d068020,0
GCF_014840915.2_ASM1484091v2,plasmid_AD312,2
GCF_016454225.1_ASM1645422v1,plasmid_AC774,0
GCF_016454225.1_ASM1645422v1,plasmid_AA474,1
GCF_014334235.1_ASM1433423v1,plasmid_AB037,0
GCF_014334235.1_ASM1433423v1,plasmid_AD481,0
GCF_014334235.1_ASM1433423v1,plasmid_AA738,0
GCF_014334235.1_ASM1433423v1,plasmid_AA372,0
GCF_001833255.2_ASM183325v2,plasmid_AD306,0
GCF_001833255.2_ASM183325v2,plasmid_AB544,1
GCF_016452065.1_ASM1645206v1,plasmid_AA474,0
GCF_016452065.1_ASM1645206v1,plasmid_AA860,4
GCF_016452065.1_ASM1645206v1,plasmid_AB056,0
GCF_016864955.1_ASM1686495v1,plasmid_AA474,0
GCF_016864955.1_ASM1686495v1,plasmid_AE227,0
GCF_016864955.1_ASM1686495v1,plasmid_AB547,0
GCF_020736325.1_ASM2073632v1,plasmid_AG658,0
GCF_020736325.1_ASM2073632v1,plasmid_AC358,2
GCF_020736325.1_ASM2073632v1,plasmid_AB233,0
GCF_016452045.1_ASM1645204v1,plasmid_AA860,0
GCF_016127835.1_ASM1612783v1,plasmid_AB461,0
GCF_015159575.1_ASM1515957v1,plasmid_AB241,0
GCF_022162985.1_ASM2216298v1,plasmid_AB039,0
GCF_014250355.1_ASM1425035v1,plasmid_AF757,0
GCF_014250355.1_ASM1425035v1,plasmid_AB460,0
GCF_016454345.1_ASM1645434v1,plasmid_AA627,2
GCF_016454345.1_ASM1645434v1,plasmid_AB056,0
GCF_016454245.1_ASM1645424v1,plasmid_AA860,0
GCF_001652385.2_ASM165238v2,plasmid_AB460,1
GCF_015074905.1_ASM1507490v1,plasmid_AA473,1
GCF_015074905.1_ASM1507490v1,plasmid_AD158,0
GCF_015074905.1_ASM1507490v1,plasmid_AD486,0
GCF_015074905.1_ASM1507490v1,plasmid_AE235,0
GCF_015074905.1_ASM1507490v1,plasmid_AA860,1
GCF_015074905.1_ASM1507490v1,plasmid_AA575,0
GCF_015074905.1_ASM1507490v1,plasmid_AC082,0
GCF_001831985.2_ASM183198v2,plasmid_AD306,0
GCF_001831985.2_ASM183198v2,plasmid_AB544,0
GCF_019670405.1_ASM1967040v1,plasmid_AA737,0
GCF_019670405.1_ASM1967040v1,plasmid_AG658,0
GCF_019670405.1_ASM1967040v1,plasmid_AA316,0
GCF_016025375.1_ASM1602537v1,plasmid_AB238,0
GCF_018340585.1_ASM1834058v1,plasmid_AA974,0
GCF_001834965.2_ASM183496v2,plasmid_AD306,0
GCF_001834965.2_ASM183496v2,plasmid_AB544,1
GCF_001834735.2_ASM183473v2,plasmid_AB544,0
GCF_016454445.1_ASM1645444v1,plasmid_AA303,1
GCF_016454445.1_ASM1645444v1,plasmid_AA669,0
GCF_016454445.1_ASM1645444v1,plasmid_AA627,2
GCF_016454445.1_ASM1645444v1,plasmid_AA162,0
GCF_019670285.1_ASM1967028v1,plasmid_AA594,3
GCF_019670285.1_ASM1967028v1,plasmid_AC120,1
GCF_019670285.1_ASM1967028v1,plasmid_AC082,0
GCF_019670165.1_ASM1967016v1,plasmid_AC082,0
GCF_016454725.1_ASM1645472v1,plasmid_AA163,0
GCF_016454725.1_ASM1645472v1,plasmid_AB038,0
GCF_016454725.1_ASM1645472v1,plasmid_AB444,0
GCF_016454725.1_ASM1645472v1,plasmid_AA474,0
GCF_016454725.1_ASM1645472v1,plasmid_AA860,2
GCF_016454725.1_ASM1645472v1,plasmid_AD097,0
GCF_016454725.1_ASM1645472v1,plasmid_AA372,0
GCF_016454725.1_ASM1645472v1,plasmid_AB241,0
GCF_001973785.2_ASM197378v2,plasmid_AB461,2
GCF_001973785.2_ASM197378v2,plasmid_AB233,0
GCF_014334195.1_ASM1433419v1,plasmid_AB957,0
GCF_014334195.1_ASM1433419v1,plasmid_AB537,0
GCF_014334195.1_ASM1433419v1,plasmid_AC358,1
GCF_016025435.1_ASM1602543v1,plasmid_AA474,0
GCF_001972625.2_ASM197262v2,plasmid_AB445,0
GCF_001972625.2_ASM197262v2,plasmid_AB461,0
GCF_001972625.2_ASM197262v2,plasmid_AE809,0
GCF_001972625.2_ASM197262v2,plasmid_AB241,0
GCF_016127435.1_ASM1612743v1,plasmid_AA474,0
GCF_016127435.1_ASM1612743v1,plasmid_AC120,0
GCF_016127435.1_ASM1612743v1,plasmid_AB460,0
GCF_003067765.2_ASM306776v2,plasmid_AD306,0
GCF_003067765.2_ASM306776v2,plasmid_AC207,0
GCF_016454545.1_ASM1645454v1,plasmid_AB443,0
GCF_016454545.1_ASM1645454v1,plasmid_AA163,0
GCF_016454545.1_ASM1645454v1,plasmid_AA860,2
GCF_019670365.1_ASM1967036v1,plasmid_AA738,0
GCF_022936345.1_ASM2293634v1,plasmid_AA941,0
GCF_002507715.2_ASM250771v2,plasmid_AA832,0
GCF_020736345.1_ASM2073634v1,plasmid_AB037,0
GCF_020736345.1_ASM2073634v1,plasmid_AC082,0
GCF_020736345.1_ASM2073634v1,plasmid_AB042,0
GCF_020736345.1_ASM2073634v1,plasmid_AA378,0
GCF_016452165.1_ASM1645216v1,plasmid_AA998,5
GCF_016452165.1_ASM1645216v1,plasmid_AB037,0
GCF_016452165.1_ASM1645216v1,plasmid_AD486,0
GCF_016454525.1_ASM1645452v1,plasmid_AA860,2
GCF_016454525.1_ASM1645452v1,plasmid_AD097,1
GCF_003064405.2_ASM306440v2,plasmid_AD306,0
GCF_003064405.2_ASM306440v2,plasmid_AB544,1
GCF_002266085.2_ASM226608v2,plasmid_AB232,0
GCF_019670385.1_ASM1967038v1,plasmid_AA998,4
GCF_019670385.1_ASM1967038v1,plasmid_AG658,0
GCF_014858565.1_ASM1485856v1,plasmid_AG590,0
GCF_014858565.1_ASM1485856v1,plasmid_AA738,3
GCF_016452005.1_ASM1645200v1,plasmid_AA474,1
GCF_016452005.1_ASM1645200v1,plasmid_AA738,3
GCF_016452005.1_ASM1645200v1,plasmid_AA579,0
GCF_016028495.1_ASM1602849v1,plasmid_AB460,0
GCF_016451985.1_ASM1645198v1,plasmid_AA860,3
GCF_016451985.1_ASM1645198v1,plasmid_AC357,0
GCF_019670345.1_ASM1967034v1,plasmid_AA737,0
GCF_019670345.1_ASM1967034v1,plasmid_AC120,1
GCF_019670345.1_ASM1967034v1,plasmid_AG658,0
GCF_019670345.1_ASM1967034v1,plasmid_AA316,3
GCF_003067925.2_ASM306792v2,plasmid_AD306,0
GCF_003067925.2_ASM306792v2,plasmid_AB544,0
GCF_002507865.2_ASM250786v2,plasmid_AD337,0
GCF_019670305.1_ASM1967030v1,plasmid_AA323,0
GCF_019670305.1_ASM1967030v1,plasmid_AC082,0
GCF_014805785.2_ASM1480578v2,plasmid_AD312,2
GCF_021397645.1_ASM2139764v1,plasmid_AA738,6
GCF_021397645.1_ASM2139764v1,plasmid_AA001,1
GCF_021397645.1_ASM2139764v1,plasmid_AA162,0
GCF_016454585.1_ASM1645458v1,plasmid_AA627,0
GCF_016454585.1_ASM1645458v1,plasmid_AD530,1
GCF_016454465.1_ASM1645446v1,plasmid_AC120,0
GCF_016454465.1_ASM1645446v1,plasmid_AA162,0
GCF_019670205.1_ASM1967020v1,plasmid_AC082,1
GCF_015240855.1_ASM1524085v1,plasmid_novel_683662154dc0ef3a97a9400e6742d457,0
GCF_015240855.1_ASM1524085v1,plasmid_AB461,2
GCF_015240855.1_ASM1524085v1,plasmid_AA662,0
GCF_020736305.1_ASM2073630v1,plasmid_AC358,2
GCF_020736305.1_ASM2073630v1,plasmid_AB233,0
GCF_006461325.2_ASM646132v2,plasmid_AF576,0
GCF_006461325.2_ASM646132v2,plasmid_AA738,0
GCF_006461325.2_ASM646132v2,plasmid_AC288,0
GCF_019670465.1_ASM1967046v1,plasmid_AD672,0
GCF_019670465.1_ASM1967046v1,plasmid_AC082,0
GCF_014334175.1_ASM1433417v1,plasmid_AA859,0
GCF_014334175.1_ASM1433417v1,plasmid_AA163,0
GCF_014334175.1_ASM1433417v1,plasmid_AA474,1
GCF_014334175.1_ASM1433417v1,plasmid_AB042,0
GCF_022870605.1_ASM2287060v1,plasmid_AA163,0
GCF_022870605.1_ASM2287060v1,plasmid_AA738,6
GCF_022870605.1_ASM2287060v1,plasmid_AC024,2
GCF_022870605.1_ASM2287060v1,plasmid_AC031,0
GCF_022226915.1_ASM2222691v1,plasmid_AA372,0
GCF_022936425.1_ASM2293642v1,plasmid_AA971,0
GCF_022936425.1_ASM2293642v1,plasmid_AC237,0
GCF_022936425.1_ASM2293642v1,plasmid_AA002,1
GCF_016952595.1_ASM1695259v1,plasmid_AB037,0
GCF_016952595.1_ASM1695259v1,plasmid_AD486,0
GCF_016952595.1_ASM1695259v1,plasmid_AB460,1
GCF_016454265.1_ASM1645426v1,plasmid_AA860,0
GCF_016454265.1_ASM1645426v1,plasmid_AA524,0
GCF_016454265.1_ASM1645426v1,plasmid_AA738,3
GCF_019426245.1_ASM1942624v1,plasmid_AB233,0
GCF_016454325.1_ASM1645432v1,plasmid_AA474,1
GCF_016454325.1_ASM1645432v1,plasmid_AC509,0
GCF_016454185.1_ASM1645418v1,plasmid_AA473,1
GCF_001756025.2_ASM175602v2,plasmid_AB460,0
GCF_015074885.1_ASM1507488v1,plasmid_AA473,1
GCF_015074885.1_ASM1507488v1,plasmid_AB461,0
GCF_015074885.1_ASM1507488v1,plasmid_AD338,0
GCF_015074885.1_ASM1507488v1,plasmid_AA668,0
GCF_022670675.1_ASM2267067v1,plasmid_AG835,0
GCF_022670675.1_ASM2267067v1,plasmid_AC358,1
GCF_019670265.1_ASM1967026v1,plasmid_AC082,0
GCF_003064165.2_ASM306416v2,plasmid_AB544,0
GCF_013328855.1_ASM1332885v1,plasmid_AB233,1
GCF_014394985.2_ASM1439498v2,plasmid_AD312,2
GCF_019670245.1_ASM1967024v1,plasmid_AC082,0
GCF_019670245.1_ASM1967024v1,plasmid_AB447,0
GCF_019670245.1_ASM1967024v1,plasmid_AA579,0
GCF_019670245.1_ASM1967024v1,plasmid_AA316,0
GCF_016454385.1_ASM1645438v1,plasmid_AA474,0
GCF_016454385.1_ASM1645438v1,plasmid_AA524,0
GCF_016454385.1_ASM1645438v1,plasmid_AA738,2
