GCF_019903155.1_ASM1990315v1,bin_component_1,NZ_CP059544.1,11020,11174
GCF_019903155.1_ASM1990315v1,bin_component_0,NZ_CP059543.1,117806,117883
GCF_019903155.1_ASM1990315v1,bin_component_2,NZ_CP059545.1,7369,7446
GCF_015910475.1_ASM1591047v1,bin_component_1,NZ_CP065434.1,6667,14271
GCF_015910475.1_ASM1591047v1,bin_component_1,NZ_CP065433.1,9070,14271
GCF_015910475.1_ASM1591047v1,bin_component_0,NZ_CP065432.1,76231,38649
GCF_015910475.1_ASM1591047v1,bin_component_2,no_correct_alignments,0,0
GCF_013372085.1_ASM1337208v1,bin_component_1,NZ_CP053099.1,13409,13486
GCF_013372085.1_ASM1337208v1,bin_component_0,NZ_CP053098.1,51236,42027
GCF_013372085.1_ASM1337208v1,bin_component_2,NZ_CP053100.1,11302,11379
GCF_020985285.1_ASM2098528v1,bin_component_1,NZ_CP087596.1,5870,5947
GCF_020985285.1_ASM2098528v1,bin_component_0,NZ_CP087595.1,8571,8648
GCF_019458485.1_ASM1945848v1,bin_component_1,NZ_CP080456.1,8731,8858
GCF_019458485.1_ASM1945848v1,bin_component_3,NZ_CP080454.1,2610,2852
GCF_019458485.1_ASM1945848v1,bin_component_4,NZ_CP080453.1,2114,2305
GCF_019458485.1_ASM1945848v1,bin_component_0,NZ_CP080452.1,68337,48754
GCF_019458485.1_ASM1945848v1,bin_component_2,NZ_CP080455.1,6772,6899
GCF_014705825.1_ASM1470582v1,bin_component_1,NZ_CP061526.1,14639,14766
GCF_014705825.1_ASM1470582v1,bin_component_0,NZ_CP061525.1,269315,248695
GCF_005519135.2_ASM551913v2,bin_component_1,NZ_CP031381.2,19905,48990
GCF_005519135.2_ASM551913v2,bin_component_0,NZ_CP031382.1,70101,70525
GCF_014705865.1_ASM1470586v1,bin_component_1,NZ_CP061521.1,656,111682
GCF_014705865.1_ASM1470586v1,bin_component_1,NZ_CP061522.1,110879,111682
GCF_014705865.1_ASM1470586v1,bin_component_0,NZ_CP061521.1,506020,483147
GCF_014705865.1_ASM1470586v1,bin_component_2,NZ_CP061521.1,24037,26368
GCF_016919525.1_ASM1691952v2,bin_component_1,NZ_CP070361.1,15498,15502
GCF_016919525.1_ASM1691952v2,bin_component_3,NZ_CP070358.1,12556,10937
GCF_016919525.1_ASM1691952v2,bin_component_4,NZ_CP070360.1,8731,8858
GCF_016919525.1_ASM1691952v2,bin_component_0,NZ_CP070361.1,22851,22852
GCF_016919525.1_ASM1691952v2,bin_component_2,NZ_CP070358.1,10406,13156
GCF_016919525.1_ASM1691952v2,bin_component_5,NZ_CP070359.1,1967,2094
GCF_018135585.1_ASM1813558v1,bin_component_0,NZ_CP073061.1,29924,31266
GCF_018604365.1_ASM1860436v1,bin_component_1,NZ_CP071763.1,8731,8808
GCF_018604365.1_ASM1860436v1,bin_component_0,NZ_CP071763.1,52021,16247
GCF_018604365.1_ASM1860436v1,bin_component_2,NZ_CP071763.1,2277,2354
GCF_019703285.1_ASM1970328v1,bin_component_1,NZ_AP024811.1,3431,3551
GCF_019703285.1_ASM1970328v1,bin_component_0,NZ_AP024804.1,12817,72485
GCF_019703285.1_ASM1970328v1,bin_component_0,NZ_AP024806.1,8948,72485
GCF_019703285.1_ASM1970328v1,bin_component_0,NZ_AP024805.1,10831,72485
GCF_019703285.1_ASM1970328v1,bin_component_0,NZ_AP024807.1,7016,72485
GCF_019703285.1_ASM1970328v1,bin_component_0,NZ_AP024803.1,6931,72485
GCF_019703285.1_ASM1970328v1,bin_component_0,NZ_AP024802.1,27287,72485
GCF_019703285.1_ASM1970328v1,bin_component_2,NZ_AP024812.1,2411,2499
GCF_014322245.1_ASM1432224v1,bin_component_7,no_correct_alignments,0,0
GCF_014322245.1_ASM1432224v1,bin_component_1,NZ_CP047975.1,25483,25483
GCF_014322245.1_ASM1432224v1,bin_component_3,no_correct_alignments,0,0
GCF_014322245.1_ASM1432224v1,bin_component_4,no_correct_alignments,0,0
GCF_014322245.1_ASM1432224v1,bin_component_0,NZ_CP047974.1,93017,93436
GCF_014322245.1_ASM1432224v1,bin_component_2,NZ_CP047976.1,9132,13702
GCF_014322245.1_ASM1432224v1,bin_component_6,no_correct_alignments,0,0
GCF_014322245.1_ASM1432224v1,bin_component_5,no_correct_alignments,0,0
GCF_014322245.1_ASM1432224v1,bin_component_8,no_correct_alignments,0,0
GCF_016903135.1_ASM1690313v1,bin_component_1,NZ_CP069842.1,14879,14956
GCF_016903135.1_ASM1690313v1,bin_component_0,NZ_CP069841.1,74625,85364
GCF_016903135.1_ASM1690313v1,bin_component_0,NZ_CP069840.1,9731,85364
GCF_018831125.1_ASM1883112v1,bin_component_1,NZ_CP048132.1,5950,6133
GCF_018831125.1_ASM1883112v1,bin_component_0,NZ_CP048134.1,73453,131922
GCF_018831125.1_ASM1883112v1,bin_component_0,NZ_CP048135.1,56704,131922
GCF_018831125.1_ASM1883112v1,bin_component_0,NZ_CP048131.1,3411,131922
GCF_017753625.1_ASM1775362v1,bin_component_1,no_correct_alignments,0,0
GCF_017753625.1_ASM1775362v1,bin_component_3,no_correct_alignments,0,0
GCF_017753625.1_ASM1775362v1,bin_component_0,NZ_CP072528.1,92883,121504
GCF_017753625.1_ASM1775362v1,bin_component_0,NZ_CP072529.1,7145,121504
GCF_017753625.1_ASM1775362v1,bin_component_2,no_correct_alignments,0,0
GCF_014159355.1_ASM1415935v1,bin_component_1,NZ_AP022077.1,3978,1989
GCF_014159355.1_ASM1415935v1,bin_component_0,NZ_AP022077.1,4006,13295
GCF_019903235.1_ASM1990323v1,bin_component_1,NZ_CP061713.1,4483,4560
GCF_019903235.1_ASM1990323v1,bin_component_0,NZ_CP061706.1,105503,256858
GCF_019903235.1_ASM1990323v1,bin_component_0,NZ_CP061707.1,19178,256858
GCF_019903235.1_ASM1990323v1,bin_component_0,NZ_CP061708.1,18323,256858
GCF_019903235.1_ASM1990323v1,bin_component_0,NZ_CP061712.1,2762,256858
GCF_019903235.1_ASM1990323v1,bin_component_0,NZ_CP061711.1,6763,256858
GCF_019903235.1_ASM1990323v1,bin_component_0,NZ_CP061710.1,7989,256858
GCF_019903235.1_ASM1990323v1,bin_component_0,NZ_CP061709.1,10465,256858
GCF_019903235.1_ASM1990323v1,bin_component_0,NZ_CP061705.1,53852,256858
GCF_019903215.1_ASM1990321v1,bin_component_0,no_correct_alignments,0,0
GCF_016919505.2_ASM1691950v2,bin_component_7,NZ_CP070365.1,2112,2112
GCF_016919505.2_ASM1691950v2,bin_component_1,NZ_CP070365.1,11834,19471
GCF_016919505.2_ASM1691950v2,bin_component_3,NZ_CP070362.2,12480,12480
GCF_016919505.2_ASM1691950v2,bin_component_4,NZ_CP070362.2,10181,10937
GCF_016919505.2_ASM1691950v2,bin_component_0,NZ_CP070365.1,21416,21483
GCF_016919505.2_ASM1691950v2,bin_component_2,NZ_CP070362.2,16065,16065
GCF_016919505.2_ASM1691950v2,bin_component_6,NZ_CP070362.2,22650,7637
GCF_016919505.2_ASM1691950v2,bin_component_5,NZ_CP070364.1,8731,8858
GCF_016919505.2_ASM1691950v2,bin_component_8,NZ_CP070363.1,1967,2094
GCF_020810655.1_ASM2081065v1,bin_component_0,NZ_CP085789.1,11017,17838
GCF_020810655.1_ASM2081065v1,bin_component_0,NZ_CP085790.1,6087,17838
GCF_021609965.1_ASM2160996v1,bin_component_1,NZ_CP091172.1,25320,25323
GCF_021609965.1_ASM2160996v1,bin_component_3,no_correct_alignments,0,0
GCF_021609965.1_ASM2160996v1,bin_component_4,no_correct_alignments,0,0
GCF_021609965.1_ASM2160996v1,bin_component_0,NZ_CP091172.1,48021,28501
GCF_021609965.1_ASM2160996v1,bin_component_2,no_correct_alignments,0,0
GCF_014705885.1_ASM1470588v1,bin_component_1,NZ_CP061519.1,20111,20111
GCF_014705885.1_ASM1470588v1,bin_component_0,NZ_CP061519.1,75924,76025
GCF_014705885.1_ASM1470588v1,bin_component_2,NZ_CP061519.1,13592,18864
GCF_018831485.1_ASM1883148v1,bin_component_0,NZ_CP049315.1,11844,11921
GCF_016903215.1_ASM1690321v1,bin_component_0,NZ_CP069852.1,8731,8808
GCF_018808925.1_ASM1880892v1,bin_component_1,NZ_CP048849.1,44187,44224
GCF_018808925.1_ASM1880892v1,bin_component_0,NZ_CP048849.1,174846,152248
GCF_018808925.1_ASM1880892v1,bin_component_0,NZ_CP048851.1,9384,152248
GCF_020132105.1_ASM2013210v1,bin_component_0,NZ_CP082953.1,9205,9282
GCF_013787185.1_ASM1378718v1,bin_component_7,no_correct_alignments,0,0
GCF_013787185.1_ASM1378718v1,bin_component_1,no_correct_alignments,0,0
GCF_013787185.1_ASM1378718v1,bin_component_3,NZ_CP059388.1,9458,9585
GCF_013787185.1_ASM1378718v1,bin_component_4,NZ_CP059390.1,4586,4848
GCF_013787185.1_ASM1378718v1,bin_component_0,NZ_CP059387.1,111203,188497
GCF_013787185.1_ASM1378718v1,bin_component_0,NZ_CP059386.1,57162,188497
GCF_013787185.1_ASM1378718v1,bin_component_2,no_correct_alignments,0,0
GCF_013787185.1_ASM1378718v1,bin_component_6,no_correct_alignments,0,0
GCF_013787185.1_ASM1378718v1,bin_component_5,no_correct_alignments,0,0
GCF_021484905.1_ASM2148490v1,bin_component_1,no_correct_alignments,0,0
GCF_021484905.1_ASM2148490v1,bin_component_3,no_correct_alignments,0,0
GCF_021484905.1_ASM2148490v1,bin_component_4,no_correct_alignments,0,0
GCF_021484905.1_ASM2148490v1,bin_component_0,NZ_CP090607.1,164337,11045
GCF_021484905.1_ASM2148490v1,bin_component_2,no_correct_alignments,0,0
GCF_014169655.1_ASM1416965v1,bin_component_1,NZ_AP022238.1,73680,73680
GCF_014169655.1_ASM1416965v1,bin_component_0,NZ_AP022239.1,114365,117890
GCF_014169655.1_ASM1416965v1,bin_component_0,NZ_AP022238.1,3448,117890
GCF_014169655.1_ASM1416965v1,bin_component_2,NZ_AP022240.1,10735,10812
GCF_014705805.1_ASM1470580v1,bin_component_1,NZ_CP061514.1,20111,20111
GCF_014705805.1_ASM1470580v1,bin_component_0,NZ_CP061516.1,67447,67449
GCF_015732435.1_ASM1573243v1,bin_component_1,no_correct_alignments,0,0
GCF_015732435.1_ASM1573243v1,bin_component_0,NZ_CP060732.1,64033,42058
GCF_015732435.1_ASM1573243v1,bin_component_2,NZ_CP060732.1,14565,7321
GCF_014705785.1_ASM1470578v1,bin_component_1,NZ_CP061517.1,20109,20111
GCF_014705785.1_ASM1470578v1,bin_component_0,NZ_CP061517.1,169034,170658
GCF_014705845.1_ASM1470584v1,bin_component_1,NZ_CP061523.1,20427,20427
GCF_014705845.1_ASM1470584v1,bin_component_0,NZ_CP061523.1,267157,268661
GCF_016127515.1_ASM1612751v1,bin_component_1,NZ_CP066017.1,8629,8808
GCF_016127515.1_ASM1612751v1,bin_component_0,NZ_CP066016.1,18224,13851
GCF_016127515.1_ASM1612751v1,bin_component_2,no_correct_alignments,0,0
