GCF_015910475.1_ASM1591047v1,bin_component_1,NZ_CP065433.1,NODE_7_length_1047_cov_1675.790217_component_1,1047,1690,2736
GCF_015910475.1_ASM1591047v1,bin_component_1,NZ_CP065433.1,NODE_7_length_1047_cov_1675.790217_component_1,1047,5453,6499
GCF_015910475.1_ASM1591047v1,bin_component_1,NZ_CP065434.1,NODE_7_length_1047_cov_1675.790217_component_1,1047,1683,2729
GCF_015910475.1_ASM1591047v1,bin_component_0,NZ_CP065432.1,NODE_1_length_37582_cov_256.042718_component_0,37582,1194263,1231844
GCF_015910475.1_ASM1591047v1,bin_component_0,NZ_CP065432.1,NODE_1_length_37582_cov_256.042718_component_0,37582,2684616,2722197
GCF_013372085.1_ASM1337208v1,bin_component_0,NZ_CP053098.1,NODE_4_length_10177_cov_172.967129_component_0,10177,237816,247992
GCF_013372085.1_ASM1337208v1,bin_component_0,NZ_CP053098.1,NODE_4_length_10177_cov_172.967129_component_0,10177,3748541,3758717
GCF_019458485.1_ASM1945848v1,bin_component_0,NZ_CP080452.1,NODE_7_length_2445_cov_278.397356_component_0,2445,958239,960683
GCF_019458485.1_ASM1945848v1,bin_component_0,NZ_CP080452.1,NODE_7_length_2445_cov_278.397356_component_0,2445,3897469,3899913
GCF_019458485.1_ASM1945848v1,bin_component_0,NZ_CP080452.1,NODE_9_length_1025_cov_2677.003341_component_0,1025,2193983,2195007
GCF_019458485.1_ASM1945848v1,bin_component_0,NZ_CP080452.1,NODE_9_length_1025_cov_2677.003341_component_0,1025,957102,958126
GCF_019458485.1_ASM1945848v1,bin_component_0,NZ_CP080452.1,NODE_9_length_1025_cov_2677.003341_component_0,1025,1503692,1504716
GCF_019458485.1_ASM1945848v1,bin_component_0,NZ_CP080452.1,NODE_9_length_1025_cov_2677.003341_component_0,1025,2048161,2049185
GCF_019458485.1_ASM1945848v1,bin_component_0,NZ_CP080452.1,NODE_9_length_1025_cov_2677.003341_component_0,1025,629895,630919
GCF_019458485.1_ASM1945848v1,bin_component_0,NZ_CP080452.1,NODE_9_length_1025_cov_2677.003341_component_0,1025,960796,961820
GCF_019458485.1_ASM1945848v1,bin_component_0,NZ_CP080452.1,NODE_9_length_1025_cov_2677.003341_component_0,1025,3900026,3901050
GCF_019458485.1_ASM1945848v1,bin_component_0,NZ_CP080452.1,NODE_9_length_1025_cov_2677.003341_component_0,1025,2734599,2735623
GCF_019458485.1_ASM1945848v1,bin_component_0,NZ_CP080452.1,NODE_9_length_1025_cov_2677.003341_component_0,1025,2707176,2708200
GCF_019458485.1_ASM1945848v1,bin_component_0,NZ_CP080452.1,NODE_9_length_1025_cov_2677.003341_component_0,1025,1318149,1319173
GCF_019458485.1_ASM1945848v1,bin_component_0,NZ_CP080452.1,NODE_9_length_1025_cov_2677.003341_component_0,1025,2011219,2012243
GCF_019458485.1_ASM1945848v1,bin_component_0,NZ_CP080452.1,NODE_9_length_1025_cov_2677.003341_component_0,1025,2403055,2404079
GCF_019458485.1_ASM1945848v1,bin_component_0,NZ_CP080452.1,NODE_9_length_1025_cov_2677.003341_component_0,1025,3069192,3070216
GCF_019458485.1_ASM1945848v1,bin_component_0,NZ_CP080452.1,NODE_9_length_1025_cov_2677.003341_component_0,1025,3896332,3897356
GCF_019458485.1_ASM1945848v1,bin_component_0,NZ_CP080452.1,NODE_9_length_1025_cov_2677.003341_component_0,1025,2527583,2528607
GCF_019458485.1_ASM1945848v1,bin_component_0,NZ_CP080452.1,NODE_9_length_1025_cov_2677.003341_component_0,1025,2822932,2823956
GCF_019458485.1_ASM1945848v1,bin_component_0,NZ_CP080452.1,NODE_9_length_1025_cov_2677.003341_component_0,1025,1229660,1230684
GCF_019458485.1_ASM1945848v1,bin_component_0,NZ_CP080452.1,NODE_9_length_1025_cov_2677.003341_component_0,1025,596490,597514
GCF_019458485.1_ASM1945848v1,bin_component_0,NZ_CP080452.1,NODE_9_length_1025_cov_2677.003341_component_0,1025,3933118,3934142
GCF_019458485.1_ASM1945848v1,bin_component_0,NZ_CP080452.1,NODE_9_length_1025_cov_2677.003341_component_0,1025,4024339,4025363
GCF_014705825.1_ASM1470582v1,bin_component_0,NZ_CP061525.1,NODE_15_length_1657_cov_105.752941_component_0,1657,3789973,3791629
GCF_014705825.1_ASM1470582v1,bin_component_0,NZ_CP061525.1,NODE_15_length_1657_cov_105.752941_component_0,1657,3784151,3785807
GCF_014705825.1_ASM1470582v1,bin_component_0,NZ_CP061525.1,NODE_20_length_1314_cov_146.355518_component_0,1314,2815201,2816514
GCF_014705825.1_ASM1470582v1,bin_component_0,NZ_CP061525.1,NODE_20_length_1314_cov_146.355518_component_0,1314,437131,438444
GCF_014705825.1_ASM1470582v1,bin_component_0,NZ_CP061525.1,NODE_20_length_1314_cov_146.355518_component_0,1314,429503,430816
GCF_014705825.1_ASM1470582v1,bin_component_0,NZ_CP061525.1,NODE_22_length_1181_cov_565.154649_component_0,1181,1281331,1282511
GCF_014705825.1_ASM1470582v1,bin_component_0,NZ_CP061525.1,NODE_22_length_1181_cov_565.154649_component_0,1181,690789,691969
GCF_014705825.1_ASM1470582v1,bin_component_0,NZ_CP061525.1,NODE_22_length_1181_cov_565.154649_component_0,1181,832464,833644
GCF_014705825.1_ASM1470582v1,bin_component_0,NZ_CP061525.1,NODE_22_length_1181_cov_565.154649_component_0,1181,3692294,3693474
GCF_014705825.1_ASM1470582v1,bin_component_0,NZ_CP061525.1,NODE_22_length_1181_cov_565.154649_component_0,1181,2779096,2780276
GCF_014705825.1_ASM1470582v1,bin_component_0,NZ_CP061525.1,NODE_22_length_1181_cov_565.154649_component_0,1181,3394603,3395783
GCF_014705825.1_ASM1470582v1,bin_component_0,NZ_CP061525.1,NODE_22_length_1181_cov_565.154649_component_0,1181,2151564,2152744
GCF_014705825.1_ASM1470582v1,bin_component_0,NZ_CP061525.1,NODE_22_length_1181_cov_565.154649_component_0,1181,2059176,2060356
GCF_014705825.1_ASM1470582v1,bin_component_0,NZ_CP061525.1,NODE_22_length_1181_cov_565.154649_component_0,1181,1999800,2000980
GCF_014705825.1_ASM1470582v1,bin_component_0,NZ_CP061525.1,NODE_22_length_1181_cov_565.154649_component_0,1181,1814774,1815954
GCF_014705825.1_ASM1470582v1,bin_component_0,NZ_CP061525.1,NODE_22_length_1181_cov_565.154649_component_0,1181,2102965,2104145
GCF_014705825.1_ASM1470582v1,bin_component_0,NZ_CP061525.1,NODE_22_length_1181_cov_565.154649_component_0,1181,3787269,3788449
GCF_014705825.1_ASM1470582v1,bin_component_0,NZ_CP061525.1,NODE_22_length_1181_cov_565.154649_component_0,1180,506459,507638
GCF_014705825.1_ASM1470582v1,bin_component_0,NZ_CP061525.1,NODE_22_length_1181_cov_565.154649_component_0,1180,2574521,2575700
GCF_014705825.1_ASM1470582v1,bin_component_0,NZ_CP061525.1,NODE_22_length_1181_cov_565.154649_component_0,1180,1275878,1277057
GCF_014705825.1_ASM1470582v1,bin_component_0,NZ_CP061525.1,NODE_22_length_1181_cov_565.154649_component_0,1180,722297,723476
GCF_014705825.1_ASM1470582v1,bin_component_0,NZ_CP061525.1,NODE_22_length_1181_cov_565.154649_component_0,1180,1292208,1293387
GCF_014705825.1_ASM1470582v1,bin_component_0,NZ_CP061525.1,NODE_22_length_1181_cov_565.154649_component_0,1180,1426258,1427437
GCF_014705825.1_ASM1470582v1,bin_component_0,NZ_CP061525.1,NODE_22_length_1181_cov_565.154649_component_0,1180,2934512,2935691
GCF_014705865.1_ASM1470586v1,bin_component_0,NZ_CP061521.1,NODE_11_length_2703_cov_39.014363_component_0,2703,556567,559269
GCF_014705865.1_ASM1470586v1,bin_component_0,NZ_CP061521.1,NODE_11_length_2703_cov_39.014363_component_0,2703,1653578,1656280
GCF_014705865.1_ASM1470586v1,bin_component_0,NZ_CP061521.1,NODE_17_length_1276_cov_74.505657_component_0,1276,2183237,2184512
GCF_014705865.1_ASM1470586v1,bin_component_0,NZ_CP061521.1,NODE_17_length_1276_cov_74.505657_component_0,1276,559143,560418
GCF_014705865.1_ASM1470586v1,bin_component_0,NZ_CP061521.1,NODE_17_length_1276_cov_74.505657_component_0,1276,1656154,1657429
GCF_014705865.1_ASM1470586v1,bin_component_0,NZ_CP061521.1,NODE_18_length_1181_cov_459.091082_component_0,1181,673847,675027
GCF_014705865.1_ASM1470586v1,bin_component_0,NZ_CP061521.1,NODE_18_length_1181_cov_459.091082_component_0,1181,3604991,3606171
GCF_014705865.1_ASM1470586v1,bin_component_0,NZ_CP061521.1,NODE_18_length_1181_cov_459.091082_component_0,1181,2093084,2094264
GCF_014705865.1_ASM1470586v1,bin_component_0,NZ_CP061521.1,NODE_18_length_1181_cov_459.091082_component_0,1181,1261017,1262197
GCF_014705865.1_ASM1470586v1,bin_component_0,NZ_CP061521.1,NODE_18_length_1181_cov_459.091082_component_0,1181,2044485,2045665
GCF_014705865.1_ASM1470586v1,bin_component_0,NZ_CP061521.1,NODE_18_length_1181_cov_459.091082_component_0,1181,2678077,2679257
GCF_014705865.1_ASM1470586v1,bin_component_0,NZ_CP061521.1,NODE_18_length_1181_cov_459.091082_component_0,1181,814330,815510
GCF_014705865.1_ASM1470586v1,bin_component_0,NZ_CP061521.1,NODE_18_length_1181_cov_459.091082_component_0,1181,2000696,2001876
GCF_014705865.1_ASM1470586v1,bin_component_0,NZ_CP061521.1,NODE_18_length_1181_cov_459.091082_component_0,1181,1756294,1757474
GCF_014705865.1_ASM1470586v1,bin_component_0,NZ_CP061521.1,NODE_18_length_1181_cov_459.091082_component_0,1181,1941320,1942500
GCF_014705865.1_ASM1470586v1,bin_component_0,NZ_CP061521.1,NODE_18_length_1181_cov_459.091082_component_0,1181,3307297,3308477
GCF_014705865.1_ASM1470586v1,bin_component_0,NZ_CP061521.1,NODE_18_length_1181_cov_459.091082_component_0,1180,1255564,1256743
GCF_014705865.1_ASM1470586v1,bin_component_0,NZ_CP061521.1,NODE_18_length_1181_cov_459.091082_component_0,1180,1405944,1407123
GCF_014705865.1_ASM1470586v1,bin_component_0,NZ_CP061521.1,NODE_18_length_1181_cov_459.091082_component_0,1180,1271894,1273073
GCF_014705865.1_ASM1470586v1,bin_component_0,NZ_CP061521.1,NODE_18_length_1181_cov_459.091082_component_0,1180,2847274,2848453
GCF_014705865.1_ASM1470586v1,bin_component_0,NZ_CP061521.1,NODE_18_length_1181_cov_459.091082_component_0,1180,480974,482153
GCF_014705865.1_ASM1470586v1,bin_component_0,NZ_CP061521.1,NODE_18_length_1181_cov_459.091082_component_0,1180,2514951,2516130
GCF_014705865.1_ASM1470586v1,bin_component_2,NZ_CP061521.1,NODE_15_length_2521_cov_70.612782_component_2,2521,2710936,2713456
GCF_014705865.1_ASM1470586v1,bin_component_2,NZ_CP061521.1,NODE_15_length_2521_cov_70.612782_component_2,2521,2727355,2729875
GCF_016919525.1_ASM1691952v2,bin_component_3,NZ_CP070358.1,NODE_7_length_2376_cov_133.121832_component_3,2376,1581341,1583716
GCF_016919525.1_ASM1691952v2,bin_component_3,NZ_CP070358.1,NODE_7_length_2376_cov_133.121832_component_3,2376,1574846,1577221
GCF_018604365.1_ASM1860436v1,bin_component_0,NZ_CP071763.1,NODE_1_length_10020_cov_344.780951_component_0,10020,1056353,1066372
GCF_018604365.1_ASM1860436v1,bin_component_0,NZ_CP071763.1,NODE_1_length_10020_cov_344.780951_component_0,9944,2195188,2205131
GCF_018604365.1_ASM1860436v1,bin_component_0,NZ_CP071763.1,NODE_1_length_10020_cov_344.780951_component_0,9944,3712958,3722901
GCF_018604365.1_ASM1860436v1,bin_component_0,NZ_CP071763.1,NODE_1_length_10020_cov_344.780951_component_0,9944,1239645,1249588
GCF_018604365.1_ASM1860436v1,bin_component_0,NZ_CP071763.1,NODE_3_length_2445_cov_323.157415_component_0,2445,3709506,3711950
GCF_018604365.1_ASM1860436v1,bin_component_0,NZ_CP071763.1,NODE_3_length_2445_cov_323.157415_component_0,2445,1052901,1055345
GCF_018604365.1_ASM1860436v1,bin_component_0,NZ_CP071763.1,NODE_3_length_2445_cov_323.157415_component_0,2445,2191736,2194180
GCF_018604365.1_ASM1860436v1,bin_component_0,NZ_CP071763.1,NODE_3_length_2445_cov_323.157415_component_0,2445,1236193,1238637
GCF_019703285.1_ASM1970328v1,bin_component_0,NZ_AP024803.1,NODE_15_length_1113_cov_10231.163516_component_0,1113,47886,48998
GCF_019703285.1_ASM1970328v1,bin_component_0,NZ_AP024802.1,NODE_15_length_1113_cov_10231.163516_component_0,1113,1206009,1207121
GCF_019703285.1_ASM1970328v1,bin_component_0,NZ_AP024802.1,NODE_15_length_1113_cov_10231.163516_component_0,1113,613943,615055
GCF_019703285.1_ASM1970328v1,bin_component_0,NZ_AP024802.1,NODE_15_length_1113_cov_10231.163516_component_0,1113,2304693,2305805
GCF_019703285.1_ASM1970328v1,bin_component_0,NZ_AP024802.1,NODE_15_length_1113_cov_10231.163516_component_0,1113,1055771,1056883
GCF_019703285.1_ASM1970328v1,bin_component_0,NZ_AP024802.1,NODE_15_length_1113_cov_10231.163516_component_0,1113,2860675,2861787
GCF_019703285.1_ASM1970328v1,bin_component_0,NZ_AP024802.1,NODE_15_length_1113_cov_10231.163516_component_0,1113,647475,648587
GCF_019703285.1_ASM1970328v1,bin_component_0,NZ_AP024802.1,NODE_15_length_1113_cov_10231.163516_component_0,1113,2555047,2556159
GCF_019703285.1_ASM1970328v1,bin_component_0,NZ_AP024802.1,NODE_15_length_1113_cov_10231.163516_component_0,1113,2313030,2314142
GCF_019703285.1_ASM1970328v1,bin_component_0,NZ_AP024802.1,NODE_15_length_1113_cov_10231.163516_component_0,1113,2779456,2780568
GCF_019703285.1_ASM1970328v1,bin_component_0,NZ_AP024802.1,NODE_15_length_1113_cov_10231.163516_component_0,1113,2168690,2169802
GCF_019703285.1_ASM1970328v1,bin_component_0,NZ_AP024803.1,NODE_15_length_1113_cov_10231.163516_component_0,1113,27209,28321
GCF_019703285.1_ASM1970328v1,bin_component_0,NZ_AP024802.1,NODE_15_length_1113_cov_10231.163516_component_0,1113,641652,642764
GCF_019703285.1_ASM1970328v1,bin_component_0,NZ_AP024802.1,NODE_15_length_1113_cov_10231.163516_component_0,1113,2218092,2219204
GCF_019703285.1_ASM1970328v1,bin_component_0,NZ_AP024803.1,NODE_15_length_1113_cov_10231.163516_component_0,1113,61063,62175
GCF_019703285.1_ASM1970328v1,bin_component_0,NZ_AP024802.1,NODE_15_length_1113_cov_10231.163516_component_0,1113,3652762,3653874
GCF_019703285.1_ASM1970328v1,bin_component_0,NZ_AP024802.1,NODE_15_length_1113_cov_10231.163516_component_0,1113,122248,123360
GCF_016903135.1_ASM1690313v1,bin_component_0,NZ_CP069841.1,NODE_8_length_1087_cov_1445.198020_component_0,1087,55950,57036
GCF_016903135.1_ASM1690313v1,bin_component_0,NZ_CP069840.1,NODE_8_length_1087_cov_1445.198020_component_0,1087,3764587,3765673
GCF_016903135.1_ASM1690313v1,bin_component_0,NZ_CP069841.1,NODE_8_length_1087_cov_1445.198020_component_0,1087,53965,55051
GCF_018831125.1_ASM1883112v1,bin_component_0,NZ_CP048134.1,NODE_11_length_1137_cov_361.048059_component_0,1137,28888,30024
GCF_018831125.1_ASM1883112v1,bin_component_0,NZ_CP048134.1,NODE_11_length_1137_cov_361.048059_component_0,1137,32470,33606
GCF_018831125.1_ASM1883112v1,bin_component_0,NZ_CP048131.1,NODE_11_length_1137_cov_361.048059_component_0,1137,517442,518578
GCF_018831125.1_ASM1883112v1,bin_component_0,NZ_CP048131.1,NODE_11_length_1137_cov_361.048059_component_0,1137,1461522,1462658
GCF_018831125.1_ASM1883112v1,bin_component_0,NZ_CP048135.1,NODE_11_length_1137_cov_361.048059_component_0,1137,69603,70739
GCF_018831125.1_ASM1883112v1,bin_component_0,NZ_CP048131.1,NODE_11_length_1137_cov_361.048059_component_0,1137,2911165,2912301
GCF_014159355.1_ASM1415935v1,bin_component_1,NZ_AP022077.1,NODE_4_length_1989_cov_285.342050_component_1,1989,2041141,2043129
GCF_014159355.1_ASM1415935v1,bin_component_1,NZ_AP022077.1,NODE_4_length_1989_cov_285.342050_component_1,1989,2452244,2454232
GCF_019903235.1_ASM1990323v1,bin_component_0,NZ_CP061705.1,NODE_25_length_1835_cov_371.215017_component_0,1835,2719668,2721502
GCF_019903235.1_ASM1990323v1,bin_component_0,NZ_CP061705.1,NODE_25_length_1835_cov_371.215017_component_0,1835,1886479,1888313
GCF_019903235.1_ASM1990323v1,bin_component_0,NZ_CP061705.1,NODE_25_length_1835_cov_371.215017_component_0,1835,2105417,2107251
GCF_019903235.1_ASM1990323v1,bin_component_0,NZ_CP061705.1,NODE_25_length_1835_cov_371.215017_component_0,1835,2040821,2042655
GCF_019903235.1_ASM1990323v1,bin_component_0,NZ_CP061705.1,NODE_25_length_1835_cov_371.215017_component_0,1835,2320681,2322515
GCF_019903235.1_ASM1990323v1,bin_component_0,NZ_CP061705.1,NODE_25_length_1835_cov_371.215017_component_0,1835,2518519,2520353
GCF_019903235.1_ASM1990323v1,bin_component_0,NZ_CP061706.1,NODE_25_length_1835_cov_371.215017_component_0,1835,32765,34599
GCF_019903235.1_ASM1990323v1,bin_component_0,NZ_CP061705.1,NODE_25_length_1835_cov_371.215017_component_0,1835,1777757,1779591
GCF_019903235.1_ASM1990323v1,bin_component_0,NZ_CP061707.1,NODE_25_length_1835_cov_371.215017_component_0,1835,11431,13265
GCF_019903235.1_ASM1990323v1,bin_component_0,NZ_CP061705.1,NODE_27_length_1726_cov_110.084900_component_0,1726,732237,733962
GCF_019903235.1_ASM1990323v1,bin_component_0,NZ_CP061705.1,NODE_27_length_1726_cov_110.084900_component_0,1726,2035667,2037392
GCF_019903235.1_ASM1990323v1,bin_component_0,NZ_CP061706.1,NODE_37_length_1067_cov_200.258586_component_0,1067,55536,56602
GCF_019903235.1_ASM1990323v1,bin_component_0,NZ_CP061712.1,NODE_37_length_1067_cov_200.258586_component_0,1067,3257,4323
GCF_019903235.1_ASM1990323v1,bin_component_0,NZ_CP061708.1,NODE_37_length_1067_cov_200.258586_component_0,1067,1674,2740
GCF_019903235.1_ASM1990323v1,bin_component_0,NZ_CP061705.1,NODE_39_length_1026_cov_360.272919_component_0,1026,1528674,1529699
GCF_019903235.1_ASM1990323v1,bin_component_0,NZ_CP061705.1,NODE_39_length_1026_cov_360.272919_component_0,1026,3359572,3360597
GCF_019903235.1_ASM1990323v1,bin_component_0,NZ_CP061705.1,NODE_39_length_1026_cov_360.272919_component_0,1026,2449472,2450497
GCF_019903235.1_ASM1990323v1,bin_component_0,NZ_CP061705.1,NODE_39_length_1026_cov_360.272919_component_0,1026,2240772,2241797
GCF_019903235.1_ASM1990323v1,bin_component_0,NZ_CP061705.1,NODE_39_length_1026_cov_360.272919_component_0,1026,2207660,2208685
GCF_019903235.1_ASM1990323v1,bin_component_0,NZ_CP061705.1,NODE_39_length_1026_cov_360.272919_component_0,1026,3356923,3357948
GCF_019903235.1_ASM1990323v1,bin_component_0,NZ_CP061705.1,NODE_39_length_1026_cov_360.272919_component_0,1026,2236092,2237117
GCF_019903235.1_ASM1990323v1,bin_component_0,NZ_CP061705.1,NODE_39_length_1026_cov_360.272919_component_0,1026,127915,128940
GCF_019903235.1_ASM1990323v1,bin_component_0,NZ_CP061705.1,NODE_39_length_1026_cov_360.272919_component_0,1026,2131651,2132676
GCF_019903235.1_ASM1990323v1,bin_component_0,NZ_CP061705.1,NODE_39_length_1026_cov_360.272919_component_0,1026,2335394,2336419
GCF_016919505.2_ASM1691950v2,bin_component_6,NZ_CP070362.2,NODE_7_length_7637_cov_70.258589_component_6,7634,1503302,1510941
GCF_016919505.2_ASM1691950v2,bin_component_6,NZ_CP070362.2,NODE_7_length_7637_cov_70.258589_component_6,7636,1510815,1518452
GCF_016919505.2_ASM1691950v2,bin_component_6,NZ_CP070362.2,NODE_7_length_7637_cov_70.258589_component_6,7634,1518326,1525965
GCF_021609965.1_ASM2160996v1,bin_component_0,NZ_CP091172.1,NODE_6_length_2445_cov_250.229005_component_0,2445,1050484,1052928
GCF_021609965.1_ASM2160996v1,bin_component_0,NZ_CP091172.1,NODE_6_length_2445_cov_250.229005_component_0,2445,3989714,3992158
GCF_021609965.1_ASM2160996v1,bin_component_0,NZ_CP091172.1,NODE_8_length_1025_cov_2513.017817_component_0,1025,3161437,3162461
GCF_021609965.1_ASM2160996v1,bin_component_0,NZ_CP091172.1,NODE_8_length_1025_cov_2513.017817_component_0,1025,2140406,2141430
GCF_021609965.1_ASM2160996v1,bin_component_0,NZ_CP091172.1,NODE_8_length_1025_cov_2513.017817_component_0,1025,1053041,1054065
GCF_021609965.1_ASM2160996v1,bin_component_0,NZ_CP091172.1,NODE_8_length_1025_cov_2513.017817_component_0,1025,2799421,2800445
GCF_021609965.1_ASM2160996v1,bin_component_0,NZ_CP091172.1,NODE_8_length_1025_cov_2513.017817_component_0,1025,4116584,4117608
GCF_021609965.1_ASM2160996v1,bin_component_0,NZ_CP091172.1,NODE_8_length_1025_cov_2513.017817_component_0,1025,2915177,2916201
GCF_021609965.1_ASM2160996v1,bin_component_0,NZ_CP091172.1,NODE_8_length_1025_cov_2513.017817_component_0,1025,1410394,1411418
GCF_021609965.1_ASM2160996v1,bin_component_0,NZ_CP091172.1,NODE_8_length_1025_cov_2513.017817_component_0,1025,688735,689759
GCF_021609965.1_ASM2160996v1,bin_component_0,NZ_CP091172.1,NODE_8_length_1025_cov_2513.017817_component_0,1025,1049347,1050371
GCF_021609965.1_ASM2160996v1,bin_component_0,NZ_CP091172.1,NODE_8_length_1025_cov_2513.017817_component_0,1025,2826844,2827868
GCF_021609965.1_ASM2160996v1,bin_component_0,NZ_CP091172.1,NODE_8_length_1025_cov_2513.017817_component_0,1025,4025363,4026387
GCF_021609965.1_ASM2160996v1,bin_component_0,NZ_CP091172.1,NODE_8_length_1025_cov_2513.017817_component_0,1025,2286228,2287252
GCF_021609965.1_ASM2160996v1,bin_component_0,NZ_CP091172.1,NODE_8_length_1025_cov_2513.017817_component_0,1025,3992271,3993295
GCF_021609965.1_ASM2160996v1,bin_component_0,NZ_CP091172.1,NODE_8_length_1025_cov_2513.017817_component_0,1025,2495300,2496324
GCF_021609965.1_ASM2160996v1,bin_component_0,NZ_CP091172.1,NODE_8_length_1025_cov_2513.017817_component_0,1025,2619828,2620852
GCF_021609965.1_ASM2160996v1,bin_component_0,NZ_CP091172.1,NODE_8_length_1025_cov_2513.017817_component_0,1025,1321905,1322929
GCF_021609965.1_ASM2160996v1,bin_component_0,NZ_CP091172.1,NODE_8_length_1025_cov_2513.017817_component_0,1025,3988577,3989601
GCF_021609965.1_ASM2160996v1,bin_component_0,NZ_CP091172.1,NODE_8_length_1025_cov_2513.017817_component_0,1025,1595937,1596961
GCF_021609965.1_ASM2160996v1,bin_component_0,NZ_CP091172.1,NODE_8_length_1025_cov_2513.017817_component_0,1025,722140,723164
GCF_021609965.1_ASM2160996v1,bin_component_0,NZ_CP091172.1,NODE_8_length_1025_cov_2513.017817_component_0,1025,2103464,2104488
GCF_018808925.1_ASM1880892v1,bin_component_0,NZ_CP048849.1,NODE_8_length_2346_cov_3357.353557_component_0,2346,2591821,2594166
GCF_018808925.1_ASM1880892v1,bin_component_0,NZ_CP048849.1,NODE_8_length_2346_cov_3357.353557_component_0,2346,2749292,2751637
GCF_018808925.1_ASM1880892v1,bin_component_0,NZ_CP048849.1,NODE_8_length_2346_cov_3357.353557_component_0,2346,695688,698033
GCF_018808925.1_ASM1880892v1,bin_component_0,NZ_CP048851.1,NODE_8_length_2346_cov_3357.353557_component_0,2346,49527,51872
GCF_018808925.1_ASM1880892v1,bin_component_0,NZ_CP048849.1,NODE_8_length_2346_cov_3357.353557_component_0,2346,1242229,1244574
GCF_018808925.1_ASM1880892v1,bin_component_0,NZ_CP048849.1,NODE_8_length_2346_cov_3357.353557_component_0,2346,2385306,2387651
GCF_018808925.1_ASM1880892v1,bin_component_0,NZ_CP048849.1,NODE_8_length_2346_cov_3357.353557_component_0,2346,1537933,1540278
GCF_018808925.1_ASM1880892v1,bin_component_0,NZ_CP048851.1,NODE_8_length_2346_cov_3357.353557_component_0,2346,57906,60251
GCF_018808925.1_ASM1880892v1,bin_component_0,NZ_CP048849.1,NODE_8_length_2346_cov_3357.353557_component_0,2346,652286,654631
GCF_018808925.1_ASM1880892v1,bin_component_0,NZ_CP048849.1,NODE_8_length_2346_cov_3357.353557_component_0,2346,2956776,2959121
GCF_018808925.1_ASM1880892v1,bin_component_0,NZ_CP048849.1,NODE_8_length_2346_cov_3357.353557_component_0,2346,708474,710819
GCF_018808925.1_ASM1880892v1,bin_component_0,NZ_CP048849.1,NODE_8_length_2346_cov_3357.353557_component_0,2346,2337207,2339552
GCF_018808925.1_ASM1880892v1,bin_component_0,NZ_CP048849.1,NODE_8_length_2346_cov_3357.353557_component_0,2346,1008188,1010533
GCF_018808925.1_ASM1880892v1,bin_component_0,NZ_CP048849.1,NODE_8_length_2346_cov_3357.353557_component_0,2346,4056939,4059284
GCF_018808925.1_ASM1880892v1,bin_component_0,NZ_CP048849.1,NODE_8_length_2346_cov_3357.353557_component_0,2346,1786821,1789166
GCF_018808925.1_ASM1880892v1,bin_component_0,NZ_CP048851.1,NODE_8_length_2346_cov_3357.353557_component_0,2346,21091,23436
GCF_018808925.1_ASM1880892v1,bin_component_0,NZ_CP048849.1,NODE_8_length_2346_cov_3357.353557_component_0,2346,2712843,2715188
GCF_018808925.1_ASM1880892v1,bin_component_0,NZ_CP048849.1,NODE_8_length_2346_cov_3357.353557_component_0,2346,728868,731213
GCF_018808925.1_ASM1880892v1,bin_component_0,NZ_CP048849.1,NODE_8_length_2346_cov_3357.353557_component_0,2346,180596,182941
GCF_018808925.1_ASM1880892v1,bin_component_0,NZ_CP048849.1,NODE_8_length_2346_cov_3357.353557_component_0,2346,3417249,3419594
GCF_018808925.1_ASM1880892v1,bin_component_0,NZ_CP048849.1,NODE_8_length_2346_cov_3357.353557_component_0,2346,2233701,2236046
GCF_018808925.1_ASM1880892v1,bin_component_0,NZ_CP048849.1,NODE_8_length_2346_cov_3357.353557_component_0,2346,2237690,2240035
GCF_018808925.1_ASM1880892v1,bin_component_0,NZ_CP048849.1,NODE_8_length_2346_cov_3357.353557_component_0,2346,1906978,1909323
GCF_018808925.1_ASM1880892v1,bin_component_0,NZ_CP048849.1,NODE_8_length_2346_cov_3357.353557_component_0,2346,2160850,2163195
GCF_018808925.1_ASM1880892v1,bin_component_0,NZ_CP048849.1,NODE_8_length_2346_cov_3357.353557_component_0,2346,866678,869023
GCF_018808925.1_ASM1880892v1,bin_component_0,NZ_CP048849.1,NODE_8_length_2346_cov_3357.353557_component_0,2346,2600341,2602686
GCF_018808925.1_ASM1880892v1,bin_component_0,NZ_CP048849.1,NODE_8_length_2346_cov_3357.353557_component_0,2346,2603116,2605461
GCF_018808925.1_ASM1880892v1,bin_component_0,NZ_CP048849.1,NODE_8_length_2346_cov_3357.353557_component_0,2346,241259,243604
GCF_018808925.1_ASM1880892v1,bin_component_0,NZ_CP048849.1,NODE_8_length_2346_cov_3357.353557_component_0,2346,3226866,3229211
GCF_018808925.1_ASM1880892v1,bin_component_0,NZ_CP048851.1,NODE_8_length_2346_cov_3357.353557_component_0,2346,89166,91511
GCF_018808925.1_ASM1880892v1,bin_component_0,NZ_CP048849.1,NODE_8_length_2346_cov_3357.353557_component_0,2346,3338453,3340798
GCF_018808925.1_ASM1880892v1,bin_component_0,NZ_CP048849.1,NODE_8_length_2346_cov_3357.353557_component_0,2346,1233515,1235860
GCF_021484905.1_ASM2148490v1,bin_component_0,NZ_CP090607.1,NODE_4_length_3020_cov_3123.765206_component_0,3020,1123873,1126892
GCF_021484905.1_ASM2148490v1,bin_component_0,NZ_CP090607.1,NODE_4_length_3020_cov_3123.765206_component_0,3020,1120796,1123815
GCF_021484905.1_ASM2148490v1,bin_component_0,NZ_CP090607.1,NODE_4_length_3020_cov_3123.765206_component_0,3020,957715,960734
GCF_021484905.1_ASM2148490v1,bin_component_0,NZ_CP090607.1,NODE_4_length_3020_cov_3123.765206_component_0,3020,1099257,1102276
GCF_021484905.1_ASM2148490v1,bin_component_0,NZ_CP090607.1,NODE_4_length_3020_cov_3123.765206_component_0,3020,1059256,1062275
GCF_021484905.1_ASM2148490v1,bin_component_0,NZ_CP090607.1,NODE_4_length_3020_cov_3123.765206_component_0,3020,1142335,1145354
GCF_021484905.1_ASM2148490v1,bin_component_0,NZ_CP090607.1,NODE_4_length_3020_cov_3123.765206_component_0,3020,1176182,1179201
GCF_021484905.1_ASM2148490v1,bin_component_0,NZ_CP090607.1,NODE_4_length_3020_cov_3123.765206_component_0,3020,1163874,1166893
GCF_021484905.1_ASM2148490v1,bin_component_0,NZ_CP090607.1,NODE_4_length_3020_cov_3123.765206_component_0,3020,1056179,1059198
GCF_021484905.1_ASM2148490v1,bin_component_0,NZ_CP090607.1,NODE_4_length_3020_cov_3123.765206_component_0,3020,1166951,1169970
GCF_021484905.1_ASM2148490v1,bin_component_0,NZ_CP090607.1,NODE_4_length_3020_cov_3123.765206_component_0,3020,1114642,1117661
GCF_021484905.1_ASM2148490v1,bin_component_0,NZ_CP090607.1,NODE_4_length_3020_cov_3123.765206_component_0,3020,970023,973042
GCF_021484905.1_ASM2148490v1,bin_component_0,NZ_CP090607.1,NODE_4_length_3020_cov_3123.765206_component_0,3020,1010024,1013043
GCF_021484905.1_ASM2148490v1,bin_component_0,NZ_CP090607.1,NODE_4_length_3020_cov_3123.765206_component_0,3020,988485,991504
GCF_021484905.1_ASM2148490v1,bin_component_0,NZ_CP090607.1,NODE_4_length_3020_cov_3123.765206_component_0,3020,1053102,1056121
GCF_021484905.1_ASM2148490v1,bin_component_0,NZ_CP090607.1,NODE_4_length_3020_cov_3123.765206_component_0,3020,1074641,1077660
GCF_021484905.1_ASM2148490v1,bin_component_0,NZ_CP090607.1,NODE_4_length_3020_cov_3123.765206_component_0,3020,1160797,1163816
GCF_021484905.1_ASM2148490v1,bin_component_0,NZ_CP090607.1,NODE_4_length_3020_cov_3123.765206_component_0,3020,1130027,1133046
GCF_021484905.1_ASM2148490v1,bin_component_0,NZ_CP090607.1,NODE_4_length_3020_cov_3123.765206_component_0,3020,1013101,1016120
GCF_021484905.1_ASM2148490v1,bin_component_0,NZ_CP090607.1,NODE_4_length_3020_cov_3123.765206_component_0,3020,1154643,1157662
GCF_021484905.1_ASM2148490v1,bin_component_0,NZ_CP090607.1,NODE_4_length_3020_cov_3123.765206_component_0,3020,1126950,1129969
GCF_021484905.1_ASM2148490v1,bin_component_0,NZ_CP090607.1,NODE_4_length_3020_cov_3123.765206_component_0,3020,1083872,1086891
GCF_021484905.1_ASM2148490v1,bin_component_0,NZ_CP090607.1,NODE_4_length_3020_cov_3123.765206_component_0,3020,1102334,1105353
GCF_021484905.1_ASM2148490v1,bin_component_0,NZ_CP090607.1,NODE_4_length_3020_cov_3123.765206_component_0,3020,954638,957657
GCF_021484905.1_ASM2148490v1,bin_component_0,NZ_CP090607.1,NODE_4_length_3020_cov_3123.765206_component_0,3020,1000793,1003812
GCF_021484905.1_ASM2148490v1,bin_component_0,NZ_CP090607.1,NODE_4_length_3020_cov_3123.765206_component_0,3020,1170028,1173047
GCF_021484905.1_ASM2148490v1,bin_component_0,NZ_CP090607.1,NODE_4_length_3020_cov_3123.765206_component_0,3020,1080795,1083814
GCF_021484905.1_ASM2148490v1,bin_component_0,NZ_CP090607.1,NODE_4_length_3020_cov_3123.765206_component_0,3020,979254,982273
GCF_021484905.1_ASM2148490v1,bin_component_0,NZ_CP090607.1,NODE_4_length_3020_cov_3123.765206_component_0,3020,1065410,1068429
GCF_021484905.1_ASM2148490v1,bin_component_0,NZ_CP090607.1,NODE_4_length_3020_cov_3123.765206_component_0,3020,1133104,1136123
GCF_021484905.1_ASM2148490v1,bin_component_0,NZ_CP090607.1,NODE_4_length_3020_cov_3123.765206_component_0,3020,1077718,1080737
GCF_021484905.1_ASM2148490v1,bin_component_0,NZ_CP090607.1,NODE_4_length_3020_cov_3123.765206_component_0,3020,1136181,1139200
GCF_021484905.1_ASM2148490v1,bin_component_0,NZ_CP090607.1,NODE_4_length_3020_cov_3123.765206_component_0,3020,1043871,1046890
GCF_021484905.1_ASM2148490v1,bin_component_0,NZ_CP090607.1,NODE_4_length_3020_cov_3123.765206_component_0,3020,1062333,1065352
GCF_021484905.1_ASM2148490v1,bin_component_0,NZ_CP090607.1,NODE_4_length_3020_cov_3123.765206_component_0,3020,1034640,1037659
GCF_021484905.1_ASM2148490v1,bin_component_0,NZ_CP090607.1,NODE_4_length_3020_cov_3123.765206_component_0,3020,1046948,1049967
GCF_021484905.1_ASM2148490v1,bin_component_0,NZ_CP090607.1,NODE_4_length_3020_cov_3123.765206_component_0,3020,1117719,1120738
GCF_021484905.1_ASM2148490v1,bin_component_0,NZ_CP090607.1,NODE_4_length_3020_cov_3123.765206_component_0,3020,1173105,1176124
GCF_021484905.1_ASM2148490v1,bin_component_0,NZ_CP090607.1,NODE_4_length_3020_cov_3123.765206_component_0,3020,1086949,1089968
GCF_021484905.1_ASM2148490v1,bin_component_0,NZ_CP090607.1,NODE_4_length_3020_cov_3123.765206_component_0,3020,1108488,1111507
GCF_021484905.1_ASM2148490v1,bin_component_0,NZ_CP090607.1,NODE_4_length_3020_cov_3123.765206_component_0,3020,1068487,1071506
GCF_021484905.1_ASM2148490v1,bin_component_0,NZ_CP090607.1,NODE_4_length_3020_cov_3123.765206_component_0,3020,1037717,1040736
GCF_021484905.1_ASM2148490v1,bin_component_0,NZ_CP090607.1,NODE_4_length_3020_cov_3123.765206_component_0,3020,1145412,1148431
GCF_021484905.1_ASM2148490v1,bin_component_0,NZ_CP090607.1,NODE_4_length_3020_cov_3123.765206_component_0,3020,1006947,1009966
GCF_021484905.1_ASM2148490v1,bin_component_0,NZ_CP090607.1,NODE_4_length_3020_cov_3123.765206_component_0,3020,966946,969965
GCF_021484905.1_ASM2148490v1,bin_component_0,NZ_CP090607.1,NODE_4_length_3020_cov_3123.765206_component_0,3020,1040794,1043813
GCF_021484905.1_ASM2148490v1,bin_component_0,NZ_CP090607.1,NODE_4_length_3020_cov_3123.765206_component_0,3020,985408,988427
GCF_021484905.1_ASM2148490v1,bin_component_0,NZ_CP090607.1,NODE_4_length_3020_cov_3123.765206_component_0,3020,1003870,1006889
GCF_021484905.1_ASM2148490v1,bin_component_0,NZ_CP090607.1,NODE_4_length_3020_cov_3123.765206_component_0,3020,963869,966888
GCF_021484905.1_ASM2148490v1,bin_component_0,NZ_CP090607.1,NODE_4_length_3020_cov_3123.765206_component_0,3020,1050025,1053044
GCF_021484905.1_ASM2148490v1,bin_component_0,NZ_CP090607.1,NODE_4_length_3020_cov_3123.765206_component_0,3020,960792,963811
GCF_021484905.1_ASM2148490v1,bin_component_0,NZ_CP090607.1,NODE_6_length_2445_cov_65.923870_component_0,2445,1189936,1192380
GCF_021484905.1_ASM2148490v1,bin_component_0,NZ_CP090607.1,NODE_6_length_2445_cov_65.923870_component_0,2445,4129178,4131622
GCF_015732435.1_ASM1573243v1,bin_component_0,NZ_CP060732.1,NODE_2_length_6705_cov_233.798733_component_0,6705,1577978,1584682
GCF_015732435.1_ASM1573243v1,bin_component_0,NZ_CP060732.1,NODE_2_length_6705_cov_233.798733_component_0,6705,2730102,2736806
GCF_015732435.1_ASM1573243v1,bin_component_0,NZ_CP060732.1,NODE_4_length_5788_cov_188.671161_component_0,5788,2745275,2751062
GCF_015732435.1_ASM1573243v1,bin_component_0,NZ_CP060732.1,NODE_4_length_5788_cov_188.671161_component_0,5787,1563718,1569504
GCF_015732435.1_ASM1573243v1,bin_component_0,NZ_CP060732.1,NODE_6_length_3621_cov_177.786400_component_0,3621,2740438,2744058
GCF_015732435.1_ASM1573243v1,bin_component_0,NZ_CP060732.1,NODE_6_length_3621_cov_177.786400_component_0,3616,1570721,1574346
GCF_015732435.1_ASM1573243v1,bin_component_0,NZ_CP060732.1,NODE_8_length_3232_cov_296.404437_component_0,3232,1585394,1588625
GCF_015732435.1_ASM1573243v1,bin_component_0,NZ_CP060732.1,NODE_8_length_3232_cov_296.404437_component_0,3232,2726159,2729390
GCF_015732435.1_ASM1573243v1,bin_component_0,NZ_CP060732.1,NODE_8_length_3232_cov_296.404437_component_0,3232,1245901,1249132
GCF_015732435.1_ASM1573243v1,bin_component_0,NZ_CP060732.1,NODE_10_length_2684_cov_207.812428_component_0,2684,1574270,1576953
GCF_015732435.1_ASM1573243v1,bin_component_0,NZ_CP060732.1,NODE_10_length_2684_cov_207.812428_component_0,2684,2737831,2740514
GCF_015732435.1_ASM1573243v1,bin_component_0,NZ_CP060732.1,NODE_13_length_1427_cov_186.022222_component_0,1427,2915349,2916775
GCF_015732435.1_ASM1573243v1,bin_component_0,NZ_CP060732.1,NODE_13_length_1427_cov_186.022222_component_0,1426,1558263,1559688
GCF_015732435.1_ASM1573243v1,bin_component_0,NZ_CP060732.1,NODE_14_length_1178_cov_194.200727_component_0,1178,1576877,1578054
GCF_015732435.1_ASM1573243v1,bin_component_0,NZ_CP060732.1,NODE_14_length_1178_cov_194.200727_component_0,1178,2736730,2737907
GCF_015732435.1_ASM1573243v1,bin_component_0,NZ_CP060732.1,NODE_15_length_1014_cov_219.659552_component_0,1014,1569428,1570441
GCF_015732435.1_ASM1573243v1,bin_component_0,NZ_CP060732.1,NODE_15_length_1014_cov_219.659552_component_0,1014,2744338,2745351
GCF_015732435.1_ASM1573243v1,bin_component_2,NZ_CP060732.1,NODE_1_length_7321_cov_674.602706_component_2,7321,1027439,1034759
GCF_015732435.1_ASM1573243v1,bin_component_2,NZ_CP060732.1,NODE_1_length_7321_cov_674.602706_component_2,7321,1020195,1027515
GCF_014705785.1_ASM1470578v1,bin_component_0,NZ_CP061517.1,NODE_8_length_2703_cov_36.168866_component_0,2703,1206956,1209658
GCF_014705785.1_ASM1470578v1,bin_component_0,NZ_CP061517.1,NODE_8_length_2703_cov_36.168866_component_0,2703,1708090,1710792
GCF_014705785.1_ASM1470578v1,bin_component_0,NZ_CP061517.1,NODE_11_length_2521_cov_102.054302_component_0,2521,2824143,2826663
GCF_014705785.1_ASM1470578v1,bin_component_0,NZ_CP061517.1,NODE_11_length_2521_cov_102.054302_component_0,2521,2804183,2806703
GCF_014705845.1_ASM1470584v1,bin_component_0,NZ_CP061523.1,NODE_8_length_2703_cov_33.973991_component_0,2703,556540,559242
GCF_014705845.1_ASM1470584v1,bin_component_0,NZ_CP061523.1,NODE_8_length_2703_cov_33.973991_component_0,2703,1652158,1654860
GCF_014705845.1_ASM1470584v1,bin_component_0,NZ_CP061523.1,NODE_11_length_2521_cov_79.961571_component_0,2521,2768211,2770731
GCF_014705845.1_ASM1470584v1,bin_component_0,NZ_CP061523.1,NODE_11_length_2521_cov_79.961571_component_0,2521,2748251,2750771
GCF_014705845.1_ASM1470584v1,bin_component_0,NZ_CP061523.1,NODE_16_length_1657_cov_98.367320_component_0,1657,3743528,3745184
GCF_014705845.1_ASM1470584v1,bin_component_0,NZ_CP061523.1,NODE_16_length_1657_cov_98.367320_component_0,1657,3737706,3739362
GCF_016127515.1_ASM1612751v1,bin_component_0,NZ_CP066016.1,NODE_4_length_1550_cov_1434.856076_component_0,1550,904203,905752
GCF_016127515.1_ASM1612751v1,bin_component_0,NZ_CP066016.1,NODE_4_length_1550_cov_1434.856076_component_0,1550,908640,910189
GCF_016127515.1_ASM1612751v1,bin_component_0,NZ_CP066016.1,NODE_4_length_1550_cov_1434.856076_component_0,1550,906415,907964
GCF_016127515.1_ASM1612751v1,bin_component_0,NZ_CP066016.1,NODE_4_length_1550_cov_1434.856076_component_0,1550,889329,890878
GCF_016127515.1_ASM1612751v1,bin_component_0,NZ_CP066016.1,NODE_4_length_1550_cov_1434.856076_component_0,1550,915340,916889
