GCF_019903155.1_ASM1990315v1,bin_component_1,NZ_CP059544.1,NODE_2_length_11075_cov_279.029005_component_1,11075,1.0
GCF_019903155.1_ASM1990315v1,bin_component_0,NZ_CP059543.1,NODE_1_length_117883_cov_41.148634_component_0,117883,1.0
GCF_019903155.1_ASM1990315v1,bin_component_2,NZ_CP059545.1,NODE_3_length_7446_cov_121.227168_component_2,7446,1.0
GCF_015910475.1_ASM1591047v1,bin_component_1,NZ_CP065434.1,NODE_2_length_5867_cov_535.158711_component_1,5867,1.0
GCF_015910475.1_ASM1591047v1,bin_component_1,NZ_CP065433.1,NODE_4_length_4839_cov_606.106749_component_1,4839,1.0
GCF_015910475.1_ASM1591047v1,bin_component_1,NZ_CP065433.1,NODE_5_length_2518_cov_608.309912_component_1,2518,1.0
GCF_015910475.1_ASM1591047v1,bin_component_1,NZ_CP065433.1,NODE_7_length_1047_cov_1675.790217_component_1,1047,1.0
GCF_015910475.1_ASM1591047v1,bin_component_1,NZ_CP065433.1,NODE_7_length_1047_cov_1675.790217_component_1,1047,1.0
GCF_015910475.1_ASM1591047v1,bin_component_1,NZ_CP065434.1,NODE_7_length_1047_cov_1675.790217_component_1,1047,1.0
GCF_015910475.1_ASM1591047v1,bin_component_0,NZ_CP065432.1,NODE_1_length_37582_cov_256.042718_component_0,37582,1.0
GCF_015910475.1_ASM1591047v1,bin_component_0,NZ_CP065432.1,NODE_1_length_37582_cov_256.042718_component_0,37582,1.0
GCF_015910475.1_ASM1591047v1,bin_component_0,NZ_CP065432.1,NODE_6_length_1067_cov_133.915957_component_0,1067,1.0
GCF_013372085.1_ASM1337208v1,bin_component_1,NZ_CP053099.1,NODE_2_length_13486_cov_115.857931_component_1,13486,1.0
GCF_013372085.1_ASM1337208v1,bin_component_0,NZ_CP053098.1,NODE_1_length_30882_cov_108.303717_component_0,30882,1.0
GCF_013372085.1_ASM1337208v1,bin_component_0,NZ_CP053098.1,NODE_4_length_10177_cov_172.967129_component_0,10177,1.0
GCF_013372085.1_ASM1337208v1,bin_component_0,NZ_CP053098.1,NODE_4_length_10177_cov_172.967129_component_0,10177,1.0
GCF_013372085.1_ASM1337208v1,bin_component_2,NZ_CP053100.1,NODE_3_length_11379_cov_186.194125_component_2,11379,1.0
GCF_020985285.1_ASM2098528v1,bin_component_1,NZ_CP087596.1,NODE_2_length_5947_cov_5569.350767_component_1,5947,1.0
GCF_020985285.1_ASM2098528v1,bin_component_0,NZ_CP087595.1,NODE_1_length_8648_cov_948.871077_component_0,8648,1.0
GCF_019458485.1_ASM1945848v1,bin_component_1,NZ_CP080456.1,NODE_4_length_8858_cov_379.290116_component_1,8858,1.0
GCF_019458485.1_ASM1945848v1,bin_component_3,NZ_CP080454.1,NODE_6_length_2852_cov_385.819450_component_3,2852,0.92
GCF_019458485.1_ASM1945848v1,bin_component_4,NZ_CP080453.1,NODE_8_length_2305_cov_534.692837_component_4,2305,0.92
GCF_019458485.1_ASM1945848v1,bin_component_0,NZ_CP080452.1,NODE_1_length_18478_cov_184.601057_component_0,18478,1.0
GCF_019458485.1_ASM1945848v1,bin_component_0,NZ_CP080452.1,NODE_2_length_15062_cov_214.044794_component_0,15062,1.0
GCF_019458485.1_ASM1945848v1,bin_component_0,NZ_CP080452.1,NODE_3_length_9661_cov_83.643382_component_0,9661,1.0
GCF_019458485.1_ASM1945848v1,bin_component_0,NZ_CP080452.1,NODE_7_length_2445_cov_278.397356_component_0,2445,1.0
GCF_019458485.1_ASM1945848v1,bin_component_0,NZ_CP080452.1,NODE_7_length_2445_cov_278.397356_component_0,2445,1.0
GCF_019458485.1_ASM1945848v1,bin_component_0,NZ_CP080452.1,NODE_9_length_1025_cov_2677.003341_component_0,1025,1.0
GCF_019458485.1_ASM1945848v1,bin_component_0,NZ_CP080452.1,NODE_9_length_1025_cov_2677.003341_component_0,1025,1.0
GCF_019458485.1_ASM1945848v1,bin_component_0,NZ_CP080452.1,NODE_9_length_1025_cov_2677.003341_component_0,1025,1.0
GCF_019458485.1_ASM1945848v1,bin_component_0,NZ_CP080452.1,NODE_9_length_1025_cov_2677.003341_component_0,1025,1.0
GCF_019458485.1_ASM1945848v1,bin_component_0,NZ_CP080452.1,NODE_9_length_1025_cov_2677.003341_component_0,1025,1.0
GCF_019458485.1_ASM1945848v1,bin_component_0,NZ_CP080452.1,NODE_9_length_1025_cov_2677.003341_component_0,1025,1.0
GCF_019458485.1_ASM1945848v1,bin_component_0,NZ_CP080452.1,NODE_9_length_1025_cov_2677.003341_component_0,1025,1.0
GCF_019458485.1_ASM1945848v1,bin_component_0,NZ_CP080452.1,NODE_9_length_1025_cov_2677.003341_component_0,1025,1.0
GCF_019458485.1_ASM1945848v1,bin_component_0,NZ_CP080452.1,NODE_9_length_1025_cov_2677.003341_component_0,1025,1.0
GCF_019458485.1_ASM1945848v1,bin_component_0,NZ_CP080452.1,NODE_9_length_1025_cov_2677.003341_component_0,1025,1.0
GCF_019458485.1_ASM1945848v1,bin_component_0,NZ_CP080452.1,NODE_9_length_1025_cov_2677.003341_component_0,1025,1.0
GCF_019458485.1_ASM1945848v1,bin_component_0,NZ_CP080452.1,NODE_9_length_1025_cov_2677.003341_component_0,1025,1.0
GCF_019458485.1_ASM1945848v1,bin_component_0,NZ_CP080452.1,NODE_9_length_1025_cov_2677.003341_component_0,1025,1.0
GCF_019458485.1_ASM1945848v1,bin_component_0,NZ_CP080452.1,NODE_9_length_1025_cov_2677.003341_component_0,1025,1.0
GCF_019458485.1_ASM1945848v1,bin_component_0,NZ_CP080452.1,NODE_9_length_1025_cov_2677.003341_component_0,1025,1.0
GCF_019458485.1_ASM1945848v1,bin_component_0,NZ_CP080452.1,NODE_9_length_1025_cov_2677.003341_component_0,1025,1.0
GCF_019458485.1_ASM1945848v1,bin_component_0,NZ_CP080452.1,NODE_9_length_1025_cov_2677.003341_component_0,1025,1.0
GCF_019458485.1_ASM1945848v1,bin_component_0,NZ_CP080452.1,NODE_9_length_1025_cov_2677.003341_component_0,1025,1.0
GCF_019458485.1_ASM1945848v1,bin_component_0,NZ_CP080452.1,NODE_9_length_1025_cov_2677.003341_component_0,1025,1.0
GCF_019458485.1_ASM1945848v1,bin_component_0,NZ_CP080452.1,NODE_9_length_1025_cov_2677.003341_component_0,1025,1.0
GCF_019458485.1_ASM1945848v1,bin_component_2,NZ_CP080455.1,NODE_5_length_6899_cov_486.419226_component_2,6899,0.98
GCF_014705825.1_ASM1470582v1,bin_component_1,NZ_CP061526.1,NODE_6_length_14766_cov_277.676754_component_1,14766,1.0
GCF_014705825.1_ASM1470582v1,bin_component_0,NZ_CP061525.1,NODE_1_length_77032_cov_38.805058_component_0,77032,1.0
GCF_014705825.1_ASM1470582v1,bin_component_0,NZ_CP061525.1,NODE_2_length_42602_cov_17.643919_component_0,42602,1.0
GCF_014705825.1_ASM1470582v1,bin_component_0,NZ_CP061525.1,NODE_3_length_37580_cov_60.505540_component_0,37580,1.0
GCF_014705825.1_ASM1470582v1,bin_component_0,NZ_CP061525.1,NODE_4_length_25311_cov_37.566193_component_0,25311,1.0
GCF_014705825.1_ASM1470582v1,bin_component_0,NZ_CP061525.1,NODE_5_length_16815_cov_16.175875_component_0,16815,1.0
GCF_014705825.1_ASM1470582v1,bin_component_0,NZ_CP061525.1,NODE_7_length_9319_cov_58.921018_component_0,9319,1.0
GCF_014705825.1_ASM1470582v1,bin_component_0,NZ_CP061525.1,NODE_8_length_6565_cov_47.789686_component_0,6565,1.0
GCF_014705825.1_ASM1470582v1,bin_component_0,NZ_CP061525.1,NODE_9_length_5391_cov_46.146277_component_0,5391,1.0
GCF_014705825.1_ASM1470582v1,bin_component_0,NZ_CP061525.1,NODE_10_length_3911_cov_73.812368_component_0,3911,1.0
GCF_014705825.1_ASM1470582v1,bin_component_0,NZ_CP061525.1,NODE_11_length_3086_cov_57.902670_component_0,3086,1.0
GCF_014705825.1_ASM1470582v1,bin_component_0,NZ_CP061525.1,NODE_12_length_2543_cov_55.879139_component_0,2543,1.0
GCF_014705825.1_ASM1470582v1,bin_component_0,NZ_CP061525.1,NODE_13_length_2039_cov_38.656381_component_0,2039,1.0
GCF_014705825.1_ASM1470582v1,bin_component_0,NZ_CP061525.1,NODE_14_length_1777_cov_57.641212_component_0,1777,1.0
GCF_014705825.1_ASM1470582v1,bin_component_0,NZ_CP061525.1,NODE_15_length_1657_cov_105.752941_component_0,1657,1.0
GCF_014705825.1_ASM1470582v1,bin_component_0,NZ_CP061525.1,NODE_15_length_1657_cov_105.752941_component_0,1657,1.0
GCF_014705825.1_ASM1470582v1,bin_component_0,NZ_CP061525.1,NODE_16_length_1589_cov_14.709302_component_0,1589,1.0
GCF_014705825.1_ASM1470582v1,bin_component_0,NZ_CP061525.1,NODE_17_length_1557_cov_99.804895_component_0,1557,1.0
GCF_014705825.1_ASM1470582v1,bin_component_0,NZ_CP061525.1,NODE_18_length_1417_cov_44.973643_component_0,1417,1.0
GCF_014705825.1_ASM1470582v1,bin_component_0,NZ_CP061525.1,NODE_19_length_1331_cov_62.823920_component_0,1331,1.0
GCF_014705825.1_ASM1470582v1,bin_component_0,NZ_CP061525.1,NODE_20_length_1314_cov_146.355518_component_0,1314,1.0
GCF_014705825.1_ASM1470582v1,bin_component_0,NZ_CP061525.1,NODE_20_length_1314_cov_146.355518_component_0,1314,1.0
GCF_014705825.1_ASM1470582v1,bin_component_0,NZ_CP061525.1,NODE_20_length_1314_cov_146.355518_component_0,1314,1.0
GCF_014705825.1_ASM1470582v1,bin_component_0,NZ_CP061525.1,NODE_21_length_1192_cov_48.960563_component_0,1192,1.0
GCF_014705825.1_ASM1470582v1,bin_component_0,NZ_CP061525.1,NODE_22_length_1181_cov_565.154649_component_0,1181,1.0
GCF_014705825.1_ASM1470582v1,bin_component_0,NZ_CP061525.1,NODE_22_length_1181_cov_565.154649_component_0,1181,1.0
GCF_014705825.1_ASM1470582v1,bin_component_0,NZ_CP061525.1,NODE_22_length_1181_cov_565.154649_component_0,1181,1.0
GCF_014705825.1_ASM1470582v1,bin_component_0,NZ_CP061525.1,NODE_22_length_1181_cov_565.154649_component_0,1181,1.0
GCF_014705825.1_ASM1470582v1,bin_component_0,NZ_CP061525.1,NODE_22_length_1181_cov_565.154649_component_0,1181,1.0
GCF_014705825.1_ASM1470582v1,bin_component_0,NZ_CP061525.1,NODE_22_length_1181_cov_565.154649_component_0,1181,1.0
GCF_014705825.1_ASM1470582v1,bin_component_0,NZ_CP061525.1,NODE_22_length_1181_cov_565.154649_component_0,1181,1.0
GCF_014705825.1_ASM1470582v1,bin_component_0,NZ_CP061525.1,NODE_22_length_1181_cov_565.154649_component_0,1181,1.0
GCF_014705825.1_ASM1470582v1,bin_component_0,NZ_CP061525.1,NODE_22_length_1181_cov_565.154649_component_0,1181,1.0
GCF_014705825.1_ASM1470582v1,bin_component_0,NZ_CP061525.1,NODE_22_length_1181_cov_565.154649_component_0,1181,1.0
GCF_014705825.1_ASM1470582v1,bin_component_0,NZ_CP061525.1,NODE_22_length_1181_cov_565.154649_component_0,1181,1.0
GCF_014705825.1_ASM1470582v1,bin_component_0,NZ_CP061525.1,NODE_22_length_1181_cov_565.154649_component_0,1181,1.0
GCF_014705825.1_ASM1470582v1,bin_component_0,NZ_CP061525.1,NODE_22_length_1181_cov_565.154649_component_0,1181,1.0
GCF_014705825.1_ASM1470582v1,bin_component_0,NZ_CP061525.1,NODE_22_length_1181_cov_565.154649_component_0,1181,1.0
GCF_014705825.1_ASM1470582v1,bin_component_0,NZ_CP061525.1,NODE_22_length_1181_cov_565.154649_component_0,1181,1.0
GCF_014705825.1_ASM1470582v1,bin_component_0,NZ_CP061525.1,NODE_22_length_1181_cov_565.154649_component_0,1181,1.0
GCF_014705825.1_ASM1470582v1,bin_component_0,NZ_CP061525.1,NODE_22_length_1181_cov_565.154649_component_0,1181,1.0
GCF_014705825.1_ASM1470582v1,bin_component_0,NZ_CP061525.1,NODE_22_length_1181_cov_565.154649_component_0,1181,1.0
GCF_014705825.1_ASM1470582v1,bin_component_0,NZ_CP061525.1,NODE_22_length_1181_cov_565.154649_component_0,1181,1.0
GCF_005519135.2_ASM551913v2,bin_component_1,NZ_CP031381.2,NODE_2_length_10824_cov_475.856315_component_1,10824,1.0
GCF_005519135.2_ASM551913v2,bin_component_1,NZ_CP031381.2,NODE_3_length_7510_cov_507.498036_component_1,7510,1.0
GCF_005519135.2_ASM551913v2,bin_component_1,NZ_CP031381.2,NODE_4_length_1698_cov_549.021642_component_1,1698,1.0
GCF_005519135.2_ASM551913v2,bin_component_0,NZ_CP031382.1,NODE_1_length_70525_cov_42.017785_component_0,70525,1.0
GCF_014705865.1_ASM1470586v1,bin_component_1,NZ_CP061521.1,NODE_5_length_77739_cov_10.940744_component_1,77739,0.01,1,656
GCF_014705865.1_ASM1470586v1,bin_component_1,NZ_CP061522.1,NODE_5_length_77739_cov_10.940744_component_1,77739,0.73,657,57370
GCF_014705865.1_ASM1470586v1,bin_component_1,NZ_CP061522.1,NODE_5_length_77739_cov_10.940744_component_1,77739,0.26,57378,77739
GCF_014705865.1_ASM1470586v1,bin_component_1,NZ_CP061522.1,NODE_7_length_33943_cov_12.716761_component_1,33943,1.0
GCF_014705865.1_ASM1470586v1,bin_component_0,NZ_CP061521.1,NODE_1_length_149293_cov_17.914498_component_0,149293,1.0
GCF_014705865.1_ASM1470586v1,bin_component_0,NZ_CP061521.1,NODE_2_length_99118_cov_17.827217_component_0,99118,1.0
GCF_014705865.1_ASM1470586v1,bin_component_0,NZ_CP061521.1,NODE_3_length_89225_cov_16.847887_component_0,89225,1.0
GCF_014705865.1_ASM1470586v1,bin_component_0,NZ_CP061521.1,NODE_4_length_80797_cov_36.817900_component_0,80797,1.0
GCF_014705865.1_ASM1470586v1,bin_component_0,NZ_CP061521.1,NODE_6_length_42602_cov_16.214468_component_0,42602,1.0
GCF_014705865.1_ASM1470586v1,bin_component_0,NZ_CP061521.1,NODE_8_length_16822_cov_17.102845_component_0,16822,1.0
GCF_014705865.1_ASM1470586v1,bin_component_0,NZ_CP061521.1,NODE_11_length_2703_cov_39.014363_component_0,2703,1.0
GCF_014705865.1_ASM1470586v1,bin_component_0,NZ_CP061521.1,NODE_11_length_2703_cov_39.014363_component_0,2703,1.0
GCF_014705865.1_ASM1470586v1,bin_component_0,NZ_CP061521.1,NODE_17_length_1276_cov_74.505657_component_0,1276,1.0
GCF_014705865.1_ASM1470586v1,bin_component_0,NZ_CP061521.1,NODE_17_length_1276_cov_74.505657_component_0,1276,1.0
GCF_014705865.1_ASM1470586v1,bin_component_0,NZ_CP061521.1,NODE_17_length_1276_cov_74.505657_component_0,1276,1.0
GCF_014705865.1_ASM1470586v1,bin_component_0,NZ_CP061521.1,NODE_18_length_1181_cov_459.091082_component_0,1181,1.0
GCF_014705865.1_ASM1470586v1,bin_component_0,NZ_CP061521.1,NODE_18_length_1181_cov_459.091082_component_0,1181,1.0
GCF_014705865.1_ASM1470586v1,bin_component_0,NZ_CP061521.1,NODE_18_length_1181_cov_459.091082_component_0,1181,1.0
GCF_014705865.1_ASM1470586v1,bin_component_0,NZ_CP061521.1,NODE_18_length_1181_cov_459.091082_component_0,1181,1.0
GCF_014705865.1_ASM1470586v1,bin_component_0,NZ_CP061521.1,NODE_18_length_1181_cov_459.091082_component_0,1181,1.0
GCF_014705865.1_ASM1470586v1,bin_component_0,NZ_CP061521.1,NODE_18_length_1181_cov_459.091082_component_0,1181,1.0
GCF_014705865.1_ASM1470586v1,bin_component_0,NZ_CP061521.1,NODE_18_length_1181_cov_459.091082_component_0,1181,1.0
GCF_014705865.1_ASM1470586v1,bin_component_0,NZ_CP061521.1,NODE_18_length_1181_cov_459.091082_component_0,1181,1.0
GCF_014705865.1_ASM1470586v1,bin_component_0,NZ_CP061521.1,NODE_18_length_1181_cov_459.091082_component_0,1181,1.0
GCF_014705865.1_ASM1470586v1,bin_component_0,NZ_CP061521.1,NODE_18_length_1181_cov_459.091082_component_0,1181,1.0
GCF_014705865.1_ASM1470586v1,bin_component_0,NZ_CP061521.1,NODE_18_length_1181_cov_459.091082_component_0,1181,1.0
GCF_014705865.1_ASM1470586v1,bin_component_0,NZ_CP061521.1,NODE_18_length_1181_cov_459.091082_component_0,1181,1.0
GCF_014705865.1_ASM1470586v1,bin_component_0,NZ_CP061521.1,NODE_18_length_1181_cov_459.091082_component_0,1181,1.0
GCF_014705865.1_ASM1470586v1,bin_component_0,NZ_CP061521.1,NODE_18_length_1181_cov_459.091082_component_0,1181,1.0
GCF_014705865.1_ASM1470586v1,bin_component_0,NZ_CP061521.1,NODE_18_length_1181_cov_459.091082_component_0,1181,1.0
GCF_014705865.1_ASM1470586v1,bin_component_0,NZ_CP061521.1,NODE_18_length_1181_cov_459.091082_component_0,1181,1.0
GCF_014705865.1_ASM1470586v1,bin_component_0,NZ_CP061521.1,NODE_18_length_1181_cov_459.091082_component_0,1181,1.0
GCF_014705865.1_ASM1470586v1,bin_component_2,NZ_CP061521.1,NODE_9_length_5853_cov_44.954942_component_2,5853,1.0
GCF_014705865.1_ASM1470586v1,bin_component_2,NZ_CP061521.1,NODE_10_length_3822_cov_53.344249_component_2,3822,1.0
GCF_014705865.1_ASM1470586v1,bin_component_2,NZ_CP061521.1,NODE_12_length_2690_cov_39.815841_component_2,2690,1.0
GCF_014705865.1_ASM1470586v1,bin_component_2,NZ_CP061521.1,NODE_13_length_2664_cov_80.014978_component_2,2664,1.0
GCF_014705865.1_ASM1470586v1,bin_component_2,NZ_CP061521.1,NODE_14_length_2541_cov_53.929992_component_2,2541,1.0
GCF_014705865.1_ASM1470586v1,bin_component_2,NZ_CP061521.1,NODE_15_length_2521_cov_70.612782_component_2,2521,1.0
GCF_014705865.1_ASM1470586v1,bin_component_2,NZ_CP061521.1,NODE_15_length_2521_cov_70.612782_component_2,2521,1.0
GCF_014705865.1_ASM1470586v1,bin_component_2,NZ_CP061521.1,NODE_16_length_1679_cov_46.475515_component_2,1679,1.0
GCF_016919525.1_ASM1691952v2,bin_component_1,NZ_CP070361.1,NODE_2_length_15502_cov_16.422439_component_1,15502,1.0
GCF_016919525.1_ASM1691952v2,bin_component_3,NZ_CP070358.1,NODE_4_length_8561_cov_117.596870_component_3,8561,0.91
GCF_016919525.1_ASM1691952v2,bin_component_3,NZ_CP070358.1,NODE_7_length_2376_cov_133.121832_component_3,2376,1.0
GCF_016919525.1_ASM1691952v2,bin_component_3,NZ_CP070358.1,NODE_7_length_2376_cov_133.121832_component_3,2376,1.0
GCF_016919525.1_ASM1691952v2,bin_component_4,NZ_CP070360.1,NODE_3_length_8858_cov_120.574390_component_4,8858,1.0
GCF_016919525.1_ASM1691952v2,bin_component_0,NZ_CP070361.1,NODE_1_length_22852_cov_12.508163_component_0,22852,1.0
GCF_016919525.1_ASM1691952v2,bin_component_2,NZ_CP070358.1,NODE_5_length_5958_cov_32.700223_component_2,5958,1.0
GCF_016919525.1_ASM1691952v2,bin_component_2,NZ_CP070358.1,NODE_6_length_4448_cov_42.919232_component_2,4448,1.0
GCF_016919525.1_ASM1691952v2,bin_component_5,NZ_CP070359.1,NODE_8_length_2094_cov_669.023386_component_5,2094,1.0
GCF_018135585.1_ASM1813558v1,bin_component_0,NZ_CP073061.1,NODE_1_length_29924_cov_197.403927_component_0,29924,1.0
GCF_018604365.1_ASM1860436v1,bin_component_1,NZ_CP071763.1,NODE_2_length_8808_cov_164.365479_component_1,8808,1.0
GCF_018604365.1_ASM1860436v1,bin_component_0,NZ_CP071763.1,NODE_1_length_10020_cov_344.780951_component_0,10020,1.0
GCF_018604365.1_ASM1860436v1,bin_component_0,NZ_CP071763.1,NODE_1_length_10020_cov_344.780951_component_0,10020,0.99
GCF_018604365.1_ASM1860436v1,bin_component_0,NZ_CP071763.1,NODE_1_length_10020_cov_344.780951_component_0,10020,0.99
GCF_018604365.1_ASM1860436v1,bin_component_0,NZ_CP071763.1,NODE_1_length_10020_cov_344.780951_component_0,10020,0.99
GCF_018604365.1_ASM1860436v1,bin_component_0,NZ_CP071763.1,NODE_3_length_2445_cov_323.157415_component_0,2445,1.0
GCF_018604365.1_ASM1860436v1,bin_component_0,NZ_CP071763.1,NODE_3_length_2445_cov_323.157415_component_0,2445,1.0
GCF_018604365.1_ASM1860436v1,bin_component_0,NZ_CP071763.1,NODE_3_length_2445_cov_323.157415_component_0,2445,1.0
GCF_018604365.1_ASM1860436v1,bin_component_0,NZ_CP071763.1,NODE_3_length_2445_cov_323.157415_component_0,2445,1.0
GCF_018604365.1_ASM1860436v1,bin_component_0,NZ_CP071763.1,NODE_4_length_2389_cov_319.985294_component_0,2389,1.0
GCF_018604365.1_ASM1860436v1,bin_component_2,NZ_CP071763.1,NODE_5_length_2354_cov_559.009662_component_2,2354,0.97
GCF_019703285.1_ASM1970328v1,bin_component_1,NZ_AP024811.1,NODE_7_length_3551_cov_9564.453947_component_1,3551,0.97
GCF_019703285.1_ASM1970328v1,bin_component_0,NZ_AP024804.1,NODE_1_length_12823_cov_4090.987782_component_0,12823,1.0
GCF_019703285.1_ASM1970328v1,bin_component_0,NZ_AP024806.1,NODE_2_length_9003_cov_4754.228543_component_0,9003,1.0
GCF_019703285.1_ASM1970328v1,bin_component_0,NZ_AP024805.1,NODE_3_length_7301_cov_5854.438311_component_0,7301,1.0
GCF_019703285.1_ASM1970328v1,bin_component_0,NZ_AP024807.1,NODE_4_length_7159_cov_6333.988035_component_0,7159,0.98
GCF_019703285.1_ASM1970328v1,bin_component_0,NZ_AP024803.1,NODE_5_length_3592_cov_1079.822731_component_0,3592,1.0
GCF_019703285.1_ASM1970328v1,bin_component_0,NZ_AP024805.1,NODE_6_length_3590_cov_5871.448939_component_0,3590,1.0
GCF_019703285.1_ASM1970328v1,bin_component_0,NZ_AP024802.1,NODE_8_length_3240_cov_3314.607849_component_0,3240,0.97
GCF_019703285.1_ASM1970328v1,bin_component_0,NZ_AP024802.1,NODE_10_length_2204_cov_1033.142392_component_0,2204,1.0
GCF_019703285.1_ASM1970328v1,bin_component_0,NZ_AP024802.1,NODE_11_length_2020_cov_936.520611_component_0,2020,0.97
GCF_019703285.1_ASM1970328v1,bin_component_0,NZ_AP024802.1,NODE_12_length_1904_cov_1004.827474_component_0,1904,0.93
GCF_019703285.1_ASM1970328v1,bin_component_0,NZ_AP024802.1,NODE_13_length_1513_cov_2140.026063_component_0,1513,1.0
GCF_019703285.1_ASM1970328v1,bin_component_0,NZ_AP024802.1,NODE_14_length_1159_cov_2526.095109_component_0,1159,1.0
GCF_019703285.1_ASM1970328v1,bin_component_0,NZ_AP024803.1,NODE_15_length_1113_cov_10231.163516_component_0,1113,1.0
GCF_019703285.1_ASM1970328v1,bin_component_0,NZ_AP024802.1,NODE_15_length_1113_cov_10231.163516_component_0,1113,1.0
GCF_019703285.1_ASM1970328v1,bin_component_0,NZ_AP024802.1,NODE_15_length_1113_cov_10231.163516_component_0,1113,1.0
GCF_019703285.1_ASM1970328v1,bin_component_0,NZ_AP024802.1,NODE_15_length_1113_cov_10231.163516_component_0,1113,1.0
GCF_019703285.1_ASM1970328v1,bin_component_0,NZ_AP024802.1,NODE_15_length_1113_cov_10231.163516_component_0,1113,1.0
GCF_019703285.1_ASM1970328v1,bin_component_0,NZ_AP024802.1,NODE_15_length_1113_cov_10231.163516_component_0,1113,1.0
GCF_019703285.1_ASM1970328v1,bin_component_0,NZ_AP024802.1,NODE_15_length_1113_cov_10231.163516_component_0,1113,1.0
GCF_019703285.1_ASM1970328v1,bin_component_0,NZ_AP024802.1,NODE_15_length_1113_cov_10231.163516_component_0,1113,1.0
GCF_019703285.1_ASM1970328v1,bin_component_0,NZ_AP024802.1,NODE_15_length_1113_cov_10231.163516_component_0,1113,1.0
GCF_019703285.1_ASM1970328v1,bin_component_0,NZ_AP024802.1,NODE_15_length_1113_cov_10231.163516_component_0,1113,1.0
GCF_019703285.1_ASM1970328v1,bin_component_0,NZ_AP024802.1,NODE_15_length_1113_cov_10231.163516_component_0,1113,1.0
GCF_019703285.1_ASM1970328v1,bin_component_0,NZ_AP024803.1,NODE_15_length_1113_cov_10231.163516_component_0,1113,1.0
GCF_019703285.1_ASM1970328v1,bin_component_0,NZ_AP024802.1,NODE_15_length_1113_cov_10231.163516_component_0,1113,1.0
GCF_019703285.1_ASM1970328v1,bin_component_0,NZ_AP024802.1,NODE_15_length_1113_cov_10231.163516_component_0,1113,1.0
GCF_019703285.1_ASM1970328v1,bin_component_0,NZ_AP024803.1,NODE_15_length_1113_cov_10231.163516_component_0,1113,1.0
GCF_019703285.1_ASM1970328v1,bin_component_0,NZ_AP024802.1,NODE_15_length_1113_cov_10231.163516_component_0,1113,1.0
GCF_019703285.1_ASM1970328v1,bin_component_0,NZ_AP024802.1,NODE_15_length_1113_cov_10231.163516_component_0,1113,1.0
GCF_019703285.1_ASM1970328v1,bin_component_2,NZ_AP024812.1,NODE_9_length_2499_cov_14091.700900_component_2,2499,0.96
GCF_014322245.1_ASM1432224v1,bin_component_1,NZ_CP047975.1,NODE_2_length_25483_cov_224.891443_component_1,25483,1.0
GCF_014322245.1_ASM1432224v1,bin_component_3,NZ_CP047973.1,NODE_4_length_6581_cov_870.555966_component_3,6581,0.83
GCF_014322245.1_ASM1432224v1,bin_component_0,NZ_CP047974.1,NODE_1_length_87290_cov_108.968709_component_0,87290,1.0
GCF_014322245.1_ASM1432224v1,bin_component_0,NZ_CP047974.1,NODE_7_length_3736_cov_520.167259_component_0,3736,1.0
GCF_014322245.1_ASM1432224v1,bin_component_0,NZ_CP047974.1,NODE_10_length_1991_cov_128.549634_component_0,1991,1.0
GCF_014322245.1_ASM1432224v1,bin_component_2,NZ_CP047976.1,NODE_3_length_9209_cov_901.133706_component_2,9209,1.0
GCF_016903135.1_ASM1690313v1,bin_component_1,NZ_CP069842.1,NODE_2_length_14956_cov_2766.526447_component_1,14956,1.0
GCF_016903135.1_ASM1690313v1,bin_component_0,NZ_CP069841.1,NODE_1_length_53913_cov_584.811000_component_0,53913,1.0
GCF_016903135.1_ASM1690313v1,bin_component_0,NZ_CP069841.1,NODE_3_length_12042_cov_576.925198_component_0,12042,1.0
GCF_016903135.1_ASM1690313v1,bin_component_0,NZ_CP069840.1,NODE_4_length_6632_cov_1517.501754_component_0,6632,1.0
GCF_016903135.1_ASM1690313v1,bin_component_0,NZ_CP069841.1,NODE_5_length_4470_cov_575.600501_component_0,4470,1.0
GCF_016903135.1_ASM1690313v1,bin_component_0,NZ_CP069840.1,NODE_6_length_2224_cov_501.557988_component_0,2224,0.91
GCF_016903135.1_ASM1690313v1,bin_component_0,NZ_CP069841.1,NODE_7_length_2180_cov_805.705183_component_0,2180,1.0
GCF_016903135.1_ASM1690313v1,bin_component_0,NZ_CP069841.1,NODE_8_length_1087_cov_1445.198020_component_0,1087,1.0
GCF_016903135.1_ASM1690313v1,bin_component_0,NZ_CP069840.1,NODE_8_length_1087_cov_1445.198020_component_0,1087,1.0
GCF_016903135.1_ASM1690313v1,bin_component_0,NZ_CP069841.1,NODE_8_length_1087_cov_1445.198020_component_0,1087,1.0
GCF_018831125.1_ASM1883112v1,bin_component_1,NZ_CP048132.1,NODE_5_length_6133_cov_440.840408_component_1,6133,0.97
GCF_018831125.1_ASM1883112v1,bin_component_0,NZ_CP048134.1,NODE_1_length_65048_cov_94.284292_component_0,65048,1.0
GCF_018831125.1_ASM1883112v1,bin_component_0,NZ_CP048135.1,NODE_2_length_25479_cov_84.077643_component_0,25479,1.0
GCF_018831125.1_ASM1883112v1,bin_component_0,NZ_CP048135.1,NODE_3_length_9738_cov_61.009708_component_0,9738,1.0
GCF_018831125.1_ASM1883112v1,bin_component_0,NZ_CP048135.1,NODE_4_length_9213_cov_62.197751_component_0,9213,1.0
GCF_018831125.1_ASM1883112v1,bin_component_0,NZ_CP048135.1,NODE_6_length_4642_cov_60.587966_component_0,4642,1.0
GCF_018831125.1_ASM1883112v1,bin_component_0,NZ_CP048135.1,NODE_7_length_3749_cov_82.017055_component_0,3749,1.0
GCF_018831125.1_ASM1883112v1,bin_component_0,NZ_CP048134.1,NODE_8_length_3741_cov_80.184211_component_0,3741,1.0
GCF_018831125.1_ASM1883112v1,bin_component_0,NZ_CP048135.1,NODE_9_length_3004_cov_80.244829_component_0,3004,0.95
GCF_018831125.1_ASM1883112v1,bin_component_0,NZ_CP048134.1,NODE_10_length_2445_cov_82.332000_component_0,2445,1.0
GCF_018831125.1_ASM1883112v1,bin_component_0,NZ_CP048134.1,NODE_11_length_1137_cov_361.048059_component_0,1137,1.0
GCF_018831125.1_ASM1883112v1,bin_component_0,NZ_CP048134.1,NODE_11_length_1137_cov_361.048059_component_0,1137,1.0
GCF_018831125.1_ASM1883112v1,bin_component_0,NZ_CP048131.1,NODE_11_length_1137_cov_361.048059_component_0,1137,1.0
GCF_018831125.1_ASM1883112v1,bin_component_0,NZ_CP048131.1,NODE_11_length_1137_cov_361.048059_component_0,1137,1.0
GCF_018831125.1_ASM1883112v1,bin_component_0,NZ_CP048135.1,NODE_11_length_1137_cov_361.048059_component_0,1137,1.0
GCF_018831125.1_ASM1883112v1,bin_component_0,NZ_CP048131.1,NODE_11_length_1137_cov_361.048059_component_0,1137,1.0
GCF_017753625.1_ASM1775362v1,bin_component_0,NZ_CP072528.1,NODE_1_length_54721_cov_279.654967_component_0,54721,1.0
GCF_017753625.1_ASM1775362v1,bin_component_0,NZ_CP072528.1,NODE_3_length_16466_cov_286.954116_component_0,16466,1.0
GCF_017753625.1_ASM1775362v1,bin_component_0,NZ_CP072528.1,NODE_4_length_14644_cov_284.128456_component_0,14644,1.0
GCF_017753625.1_ASM1775362v1,bin_component_0,NZ_CP072527.1,NODE_6_length_6680_cov_24.942905_component_0,6680,0.13
GCF_017753625.1_ASM1775362v1,bin_component_0,NZ_CP072529.1,NODE_7_length_6138_cov_566.509817_component_0,6138,1.0
GCF_017753625.1_ASM1775362v1,bin_component_0,NZ_CP072528.1,NODE_10_length_4228_cov_247.654541_component_0,4228,1.0
GCF_017753625.1_ASM1775362v1,bin_component_0,NZ_CP072528.1,NODE_14_length_2824_cov_355.717874_component_0,2824,1.0
GCF_017753625.1_ASM1775362v1,bin_component_0,NZ_CP072529.1,NODE_19_length_1161_cov_624.149446_component_0,1161,1.0
GCF_014159355.1_ASM1415935v1,bin_component_1,NZ_AP022077.1,NODE_4_length_1989_cov_285.342050_component_1,1989,1.0
GCF_014159355.1_ASM1415935v1,bin_component_1,NZ_AP022077.1,NODE_4_length_1989_cov_285.342050_component_1,1989,1.0
GCF_014159355.1_ASM1415935v1,bin_component_0,NZ_AP022077.1,NODE_3_length_2295_cov_750.837241_component_0,2295,1.0
GCF_014159355.1_ASM1415935v1,bin_component_0,NZ_AP022077.1,NODE_5_length_1711_cov_178.932069_component_0,1711,1.0
GCF_019903235.1_ASM1990323v1,bin_component_1,NZ_CP061713.1,NODE_16_length_4560_cov_102.194290_component_1,4560,0.98
GCF_019903235.1_ASM1990323v1,bin_component_0,NZ_CP061706.1,NODE_1_length_20495_cov_85.391762_component_0,20495,1.0
GCF_019903235.1_ASM1990323v1,bin_component_0,NZ_CP061706.1,NODE_2_length_20018_cov_66.973020_component_0,20018,1.0
GCF_019903235.1_ASM1990323v1,bin_component_0,NZ_CP061706.1,NODE_3_length_15317_cov_83.952887_component_0,15317,1.0
GCF_019903235.1_ASM1990323v1,bin_component_0,NZ_CP061707.1,NODE_4_length_15218_cov_48.758008_component_0,15218,1.0
GCF_019903235.1_ASM1990323v1,bin_component_0,NZ_CP061708.1,NODE_5_length_9731_cov_101.059250_component_0,9731,1.0
GCF_019903235.1_ASM1990323v1,bin_component_0,NZ_CP061706.1,NODE_6_length_9477_cov_67.952128_component_0,9477,1.0
GCF_019903235.1_ASM1990323v1,bin_component_0,NZ_CP061708.1,NODE_7_length_9266_cov_75.782131_component_0,9266,0.82,1,7618
GCF_019903235.1_ASM1990323v1,bin_component_0,NZ_CP061706.1,NODE_7_length_9266_cov_75.782131_component_0,9266,0.18,7619,9266
GCF_019903235.1_ASM1990323v1,bin_component_0,NZ_CP061712.1,NODE_8_length_9156_cov_52.069501_component_0,9156,0.19,1,1772
GCF_019903235.1_ASM1990323v1,bin_component_0,NZ_CP061711.1,NODE_8_length_9156_cov_52.069501_component_0,9156,0.74,1774,8535
GCF_019903235.1_ASM1990323v1,bin_component_0,NZ_CP061711.1,NODE_8_length_9156_cov_52.069501_component_0,9156,0.07,8536,9156
GCF_019903235.1_ASM1990323v1,bin_component_0,NZ_CP061706.1,NODE_9_length_8731_cov_68.851167_component_0,8731,1.0
GCF_019903235.1_ASM1990323v1,bin_component_0,NZ_CP061710.1,NODE_10_length_8065_cov_69.620180_component_0,8065,1.0
GCF_019903235.1_ASM1990323v1,bin_component_0,NZ_CP061709.1,NODE_11_length_7630_cov_70.559910_component_0,7630,0.99
GCF_019903235.1_ASM1990323v1,bin_component_0,NZ_CP061705.1,NODE_12_length_6329_cov_203.682662_component_0,6329,1.0
GCF_019903235.1_ASM1990323v1,bin_component_0,NZ_CP061706.1,NODE_13_length_6074_cov_65.714691_component_0,6074,1.0
GCF_019903235.1_ASM1990323v1,bin_component_0,NZ_CP061706.1,NODE_14_length_5315_cov_60.115120_component_0,5315,1.0
GCF_019903235.1_ASM1990323v1,bin_component_0,NZ_CP061706.1,NODE_15_length_4748_cov_67.509099_component_0,4748,1.0
GCF_019903235.1_ASM1990323v1,bin_component_0,NZ_CP061706.1,NODE_17_length_4329_cov_69.902399_component_0,4329,1.0
GCF_019903235.1_ASM1990323v1,bin_component_0,NZ_CP061705.1,NODE_18_length_3418_cov_54.194553_component_0,3418,1.0
GCF_019903235.1_ASM1990323v1,bin_component_0,NZ_CP061705.1,NODE_19_length_3285_cov_56.910224_component_0,3285,1.0
GCF_019903235.1_ASM1990323v1,bin_component_0,NZ_CP061709.1,NODE_20_length_2911_cov_311.019760_component_0,2911,1.0
GCF_019903235.1_ASM1990323v1,bin_component_0,NZ_CP061705.1,NODE_21_length_2336_cov_93.130146_component_0,2336,1.0
GCF_019903235.1_ASM1990323v1,bin_component_0,NZ_CP061707.1,NODE_22_length_2279_cov_47.274750_component_0,2279,1.0
GCF_019903235.1_ASM1990323v1,bin_component_0,NZ_CP061705.1,NODE_23_length_2092_cov_176.883375_component_0,2092,1.0
GCF_019903235.1_ASM1990323v1,bin_component_0,NZ_CP061706.1,NODE_24_length_1914_cov_75.053892_component_0,1914,1.0
GCF_019903235.1_ASM1990323v1,bin_component_0,NZ_CP061705.1,NODE_25_length_1835_cov_371.215017_component_0,1835,1.0
GCF_019903235.1_ASM1990323v1,bin_component_0,NZ_CP061705.1,NODE_25_length_1835_cov_371.215017_component_0,1835,1.0
GCF_019903235.1_ASM1990323v1,bin_component_0,NZ_CP061705.1,NODE_25_length_1835_cov_371.215017_component_0,1835,1.0
GCF_019903235.1_ASM1990323v1,bin_component_0,NZ_CP061705.1,NODE_25_length_1835_cov_371.215017_component_0,1835,1.0
GCF_019903235.1_ASM1990323v1,bin_component_0,NZ_CP061705.1,NODE_25_length_1835_cov_371.215017_component_0,1835,1.0
GCF_019903235.1_ASM1990323v1,bin_component_0,NZ_CP061705.1,NODE_25_length_1835_cov_371.215017_component_0,1835,1.0
GCF_019903235.1_ASM1990323v1,bin_component_0,NZ_CP061706.1,NODE_25_length_1835_cov_371.215017_component_0,1835,1.0
GCF_019903235.1_ASM1990323v1,bin_component_0,NZ_CP061705.1,NODE_25_length_1835_cov_371.215017_component_0,1835,1.0
GCF_019903235.1_ASM1990323v1,bin_component_0,NZ_CP061707.1,NODE_25_length_1835_cov_371.215017_component_0,1835,1.0
GCF_019903235.1_ASM1990323v1,bin_component_0,NZ_CP061706.1,NODE_26_length_1762_cov_65.542686_component_0,1762,1.0
GCF_019903235.1_ASM1990323v1,bin_component_0,NZ_CP061705.1,NODE_27_length_1726_cov_110.084900_component_0,1726,1.0
GCF_019903235.1_ASM1990323v1,bin_component_0,NZ_CP061705.1,NODE_27_length_1726_cov_110.084900_component_0,1726,1.0
GCF_019903235.1_ASM1990323v1,bin_component_0,NZ_CP061706.1,NODE_28_length_1722_cov_124.722796_component_0,1722,1.0
GCF_019903235.1_ASM1990323v1,bin_component_0,NZ_CP061705.1,NODE_29_length_1614_cov_181.052700_component_0,1614,0.86
GCF_019903235.1_ASM1990323v1,bin_component_0,NZ_CP061705.1,NODE_30_length_1541_cov_60.360656_component_0,1541,1.0
GCF_019903235.1_ASM1990323v1,bin_component_0,NZ_CP061705.1,NODE_31_length_1518_cov_77.417071_component_0,1518,1.0
GCF_019903235.1_ASM1990323v1,bin_component_0,NZ_CP061705.1,NODE_32_length_1368_cov_109.891557_component_0,1368,0.94
GCF_019903235.1_ASM1990323v1,bin_component_0,NZ_CP061706.1,NODE_33_length_1343_cov_93.140600_component_0,1343,1.0
GCF_019903235.1_ASM1990323v1,bin_component_0,NZ_CP061705.1,NODE_34_length_1266_cov_280.766190_component_0,1266,1.0
GCF_019903235.1_ASM1990323v1,bin_component_0,NZ_CP061705.1,NODE_35_length_1172_cov_33.893151_component_0,1172,1.0
GCF_019903235.1_ASM1990323v1,bin_component_0,NZ_CP061705.1,NODE_36_length_1131_cov_73.321632_component_0,1131,1.0
GCF_019903235.1_ASM1990323v1,bin_component_0,NZ_CP061706.1,NODE_37_length_1067_cov_200.258586_component_0,1067,1.0
GCF_019903235.1_ASM1990323v1,bin_component_0,NZ_CP061712.1,NODE_37_length_1067_cov_200.258586_component_0,1067,1.0
GCF_019903235.1_ASM1990323v1,bin_component_0,NZ_CP061708.1,NODE_37_length_1067_cov_200.258586_component_0,1067,1.0
GCF_019903235.1_ASM1990323v1,bin_component_0,NZ_CP061705.1,NODE_38_length_1051_cov_28.618070_component_0,1051,1.0
GCF_019903235.1_ASM1990323v1,bin_component_0,NZ_CP061705.1,NODE_39_length_1026_cov_360.272919_component_0,1026,1.0
GCF_019903235.1_ASM1990323v1,bin_component_0,NZ_CP061705.1,NODE_39_length_1026_cov_360.272919_component_0,1026,1.0
GCF_019903235.1_ASM1990323v1,bin_component_0,NZ_CP061705.1,NODE_39_length_1026_cov_360.272919_component_0,1026,1.0
GCF_019903235.1_ASM1990323v1,bin_component_0,NZ_CP061705.1,NODE_39_length_1026_cov_360.272919_component_0,1026,1.0
GCF_019903235.1_ASM1990323v1,bin_component_0,NZ_CP061705.1,NODE_39_length_1026_cov_360.272919_component_0,1026,1.0
GCF_019903235.1_ASM1990323v1,bin_component_0,NZ_CP061705.1,NODE_39_length_1026_cov_360.272919_component_0,1026,1.0
GCF_019903235.1_ASM1990323v1,bin_component_0,NZ_CP061705.1,NODE_39_length_1026_cov_360.272919_component_0,1026,1.0
GCF_019903235.1_ASM1990323v1,bin_component_0,NZ_CP061705.1,NODE_39_length_1026_cov_360.272919_component_0,1026,1.0
GCF_019903235.1_ASM1990323v1,bin_component_0,NZ_CP061705.1,NODE_39_length_1026_cov_360.272919_component_0,1026,1.0
GCF_019903235.1_ASM1990323v1,bin_component_0,NZ_CP061705.1,NODE_39_length_1026_cov_360.272919_component_0,1026,1.0
GCF_019903235.1_ASM1990323v1,bin_component_0,NZ_CP061705.1,NODE_40_length_1026_cov_31.518440_component_0,1026,1.0
GCF_016919505.2_ASM1691950v2,bin_component_7,NZ_CP070365.1,NODE_11_length_2112_cov_13.424181_component_7,2112,1.0
GCF_016919505.2_ASM1691950v2,bin_component_1,NZ_CP070365.1,NODE_4_length_11834_cov_10.175536_component_1,11834,1.0
GCF_016919505.2_ASM1691950v2,bin_component_1,NZ_CP070365.1,NODE_8_length_3888_cov_5.994416_component_1,3888,0.82
GCF_016919505.2_ASM1691950v2,bin_component_1,NZ_CP070365.1,NODE_10_length_2318_cov_1.910543_component_1,2318,0.76
GCF_016919505.2_ASM1691950v2,bin_component_1,NZ_CP070365.1,NODE_13_length_1431_cov_3.555215_component_1,1431,0.83
GCF_016919505.2_ASM1691950v2,bin_component_3,NZ_CP070362.2,NODE_3_length_12480_cov_15.743868_component_3,12480,1.0
GCF_016919505.2_ASM1691950v2,bin_component_4,NZ_CP070362.2,NODE_6_length_8561_cov_104.276026_component_4,8561,0.91
GCF_016919505.2_ASM1691950v2,bin_component_4,NZ_CP070362.2,NODE_9_length_2376_cov_89.684749_component_4,2376,1.0
GCF_016919505.2_ASM1691950v2,bin_component_0,NZ_CP070365.1,NODE_1_length_21483_cov_12.032965_component_0,21483,1.0
GCF_016919505.2_ASM1691950v2,bin_component_2,NZ_CP070362.2,NODE_2_length_16065_cov_14.603150_component_2,16065,1.0
GCF_016919505.2_ASM1691950v2,bin_component_6,NZ_CP070362.2,NODE_7_length_7637_cov_70.258589_component_6,7637,1.0
GCF_016919505.2_ASM1691950v2,bin_component_6,NZ_CP070362.2,NODE_7_length_7637_cov_70.258589_component_6,7637,1.0
GCF_016919505.2_ASM1691950v2,bin_component_6,NZ_CP070362.2,NODE_7_length_7637_cov_70.258589_component_6,7637,1.0
GCF_016919505.2_ASM1691950v2,bin_component_5,NZ_CP070364.1,NODE_5_length_8858_cov_166.017066_component_5,8858,1.0
GCF_016919505.2_ASM1691950v2,bin_component_8,NZ_CP070363.1,NODE_12_length_2094_cov_715.824606_component_8,2094,1.0
GCF_020810655.1_ASM2081065v1,bin_component_0,NZ_CP085789.1,NODE_1_length_11157_cov_392.474059_component_0,11157,0.99
GCF_020810655.1_ASM2081065v1,bin_component_0,NZ_CP085790.1,NODE_2_length_3391_cov_298.265288_component_0,3391,1.0
GCF_020810655.1_ASM2081065v1,bin_component_0,NZ_CP085790.1,NODE_3_length_2696_cov_294.245729_component_0,2696,1.0
GCF_021609965.1_ASM2160996v1,bin_component_1,NZ_CP091172.1,NODE_1_length_25323_cov_544.607874_component_1,25323,1.0
GCF_021609965.1_ASM2160996v1,bin_component_3,NZ_CP091172.1,NODE_5_length_6899_cov_414.919965_component_3,6899,0.16
GCF_021609965.1_ASM2160996v1,bin_component_0,NZ_CP091172.1,NODE_2_length_15062_cov_197.189354_component_0,15062,1.0
GCF_021609965.1_ASM2160996v1,bin_component_0,NZ_CP091172.1,NODE_4_length_7886_cov_465.835030_component_0,7886,0.99
GCF_021609965.1_ASM2160996v1,bin_component_0,NZ_CP091172.1,NODE_6_length_2445_cov_250.229005_component_0,2445,1.0
GCF_021609965.1_ASM2160996v1,bin_component_0,NZ_CP091172.1,NODE_6_length_2445_cov_250.229005_component_0,2445,1.0
GCF_021609965.1_ASM2160996v1,bin_component_0,NZ_CP091172.1,NODE_8_length_1025_cov_2513.017817_component_0,1025,1.0
GCF_021609965.1_ASM2160996v1,bin_component_0,NZ_CP091172.1,NODE_8_length_1025_cov_2513.017817_component_0,1025,1.0
GCF_021609965.1_ASM2160996v1,bin_component_0,NZ_CP091172.1,NODE_8_length_1025_cov_2513.017817_component_0,1025,1.0
GCF_021609965.1_ASM2160996v1,bin_component_0,NZ_CP091172.1,NODE_8_length_1025_cov_2513.017817_component_0,1025,1.0
GCF_021609965.1_ASM2160996v1,bin_component_0,NZ_CP091172.1,NODE_8_length_1025_cov_2513.017817_component_0,1025,1.0
GCF_021609965.1_ASM2160996v1,bin_component_0,NZ_CP091172.1,NODE_8_length_1025_cov_2513.017817_component_0,1025,1.0
GCF_021609965.1_ASM2160996v1,bin_component_0,NZ_CP091172.1,NODE_8_length_1025_cov_2513.017817_component_0,1025,1.0
GCF_021609965.1_ASM2160996v1,bin_component_0,NZ_CP091172.1,NODE_8_length_1025_cov_2513.017817_component_0,1025,1.0
GCF_021609965.1_ASM2160996v1,bin_component_0,NZ_CP091172.1,NODE_8_length_1025_cov_2513.017817_component_0,1025,1.0
GCF_021609965.1_ASM2160996v1,bin_component_0,NZ_CP091172.1,NODE_8_length_1025_cov_2513.017817_component_0,1025,1.0
GCF_021609965.1_ASM2160996v1,bin_component_0,NZ_CP091172.1,NODE_8_length_1025_cov_2513.017817_component_0,1025,1.0
GCF_021609965.1_ASM2160996v1,bin_component_0,NZ_CP091172.1,NODE_8_length_1025_cov_2513.017817_component_0,1025,1.0
GCF_021609965.1_ASM2160996v1,bin_component_0,NZ_CP091172.1,NODE_8_length_1025_cov_2513.017817_component_0,1025,1.0
GCF_021609965.1_ASM2160996v1,bin_component_0,NZ_CP091172.1,NODE_8_length_1025_cov_2513.017817_component_0,1025,1.0
GCF_021609965.1_ASM2160996v1,bin_component_0,NZ_CP091172.1,NODE_8_length_1025_cov_2513.017817_component_0,1025,1.0
GCF_021609965.1_ASM2160996v1,bin_component_0,NZ_CP091172.1,NODE_8_length_1025_cov_2513.017817_component_0,1025,1.0
GCF_021609965.1_ASM2160996v1,bin_component_0,NZ_CP091172.1,NODE_8_length_1025_cov_2513.017817_component_0,1025,1.0
GCF_021609965.1_ASM2160996v1,bin_component_0,NZ_CP091172.1,NODE_8_length_1025_cov_2513.017817_component_0,1025,1.0
GCF_021609965.1_ASM2160996v1,bin_component_0,NZ_CP091172.1,NODE_8_length_1025_cov_2513.017817_component_0,1025,1.0
GCF_021609965.1_ASM2160996v1,bin_component_0,NZ_CP091172.1,NODE_8_length_1025_cov_2513.017817_component_0,1025,1.0
GCF_014705885.1_ASM1470588v1,bin_component_1,NZ_CP061519.1,NODE_3_length_18072_cov_64.130677_component_1,18072,1.0
GCF_014705885.1_ASM1470588v1,bin_component_1,NZ_CP061519.1,NODE_8_length_2039_cov_25.763075_component_1,2039,1.0
GCF_014705885.1_ASM1470588v1,bin_component_0,NZ_CP061519.1,NODE_1_length_40821_cov_70.762913_component_0,40821,1.0
GCF_014705885.1_ASM1470588v1,bin_component_0,NZ_CP061519.1,NODE_2_length_35204_cov_21.951421_component_0,35204,1.0
GCF_014705885.1_ASM1470588v1,bin_component_2,NZ_CP061519.1,NODE_4_length_3822_cov_50.677673_component_2,3822,1.0
GCF_014705885.1_ASM1470588v1,bin_component_2,NZ_CP061519.1,NODE_5_length_3246_cov_66.222187_component_2,3246,1.0
GCF_014705885.1_ASM1470588v1,bin_component_2,NZ_CP061519.1,NODE_6_length_2541_cov_58.522370_component_2,2541,1.0
GCF_014705885.1_ASM1470588v1,bin_component_2,NZ_CP061519.1,NODE_7_length_2303_cov_80.262868_component_2,2303,1.0
GCF_014705885.1_ASM1470588v1,bin_component_2,NZ_CP061519.1,NODE_9_length_1680_cov_54.597553_component_2,1680,1.0
GCF_018831485.1_ASM1883148v1,bin_component_0,NZ_CP049315.1,NODE_1_length_11921_cov_189.687521_component_0,11921,1.0
GCF_016903215.1_ASM1690321v1,bin_component_0,NZ_CP069852.1,NODE_1_length_8808_cov_2661.018440_component_0,8808,1.0
GCF_018808925.1_ASM1880892v1,bin_component_1,NZ_CP048849.1,NODE_2_length_44224_cov_252.867101_component_1,44224,1.0
GCF_018808925.1_ASM1880892v1,bin_component_0,NZ_CP048849.1,NODE_1_length_98347_cov_152.987598_component_0,98347,1.0
GCF_018808925.1_ASM1880892v1,bin_component_0,NZ_CP048849.1,NODE_6_length_7757_cov_478.734485_component_0,7757,0.95
GCF_018808925.1_ASM1880892v1,bin_component_0,NZ_CP048849.1,NODE_7_length_3514_cov_174.192830_component_0,3514,1.0
GCF_018808925.1_ASM1880892v1,bin_component_0,NZ_CP048849.1,NODE_8_length_2346_cov_3357.353557_component_0,2346,1.0
GCF_018808925.1_ASM1880892v1,bin_component_0,NZ_CP048849.1,NODE_8_length_2346_cov_3357.353557_component_0,2346,1.0
GCF_018808925.1_ASM1880892v1,bin_component_0,NZ_CP048849.1,NODE_8_length_2346_cov_3357.353557_component_0,2346,1.0
GCF_018808925.1_ASM1880892v1,bin_component_0,NZ_CP048851.1,NODE_8_length_2346_cov_3357.353557_component_0,2346,1.0
GCF_018808925.1_ASM1880892v1,bin_component_0,NZ_CP048849.1,NODE_8_length_2346_cov_3357.353557_component_0,2346,1.0
GCF_018808925.1_ASM1880892v1,bin_component_0,NZ_CP048849.1,NODE_8_length_2346_cov_3357.353557_component_0,2346,1.0
GCF_018808925.1_ASM1880892v1,bin_component_0,NZ_CP048849.1,NODE_8_length_2346_cov_3357.353557_component_0,2346,1.0
GCF_018808925.1_ASM1880892v1,bin_component_0,NZ_CP048851.1,NODE_8_length_2346_cov_3357.353557_component_0,2346,1.0
GCF_018808925.1_ASM1880892v1,bin_component_0,NZ_CP048849.1,NODE_8_length_2346_cov_3357.353557_component_0,2346,1.0
GCF_018808925.1_ASM1880892v1,bin_component_0,NZ_CP048849.1,NODE_8_length_2346_cov_3357.353557_component_0,2346,1.0
GCF_018808925.1_ASM1880892v1,bin_component_0,NZ_CP048849.1,NODE_8_length_2346_cov_3357.353557_component_0,2346,1.0
GCF_018808925.1_ASM1880892v1,bin_component_0,NZ_CP048849.1,NODE_8_length_2346_cov_3357.353557_component_0,2346,1.0
GCF_018808925.1_ASM1880892v1,bin_component_0,NZ_CP048849.1,NODE_8_length_2346_cov_3357.353557_component_0,2346,1.0
GCF_018808925.1_ASM1880892v1,bin_component_0,NZ_CP048849.1,NODE_8_length_2346_cov_3357.353557_component_0,2346,1.0
GCF_018808925.1_ASM1880892v1,bin_component_0,NZ_CP048849.1,NODE_8_length_2346_cov_3357.353557_component_0,2346,1.0
GCF_018808925.1_ASM1880892v1,bin_component_0,NZ_CP048851.1,NODE_8_length_2346_cov_3357.353557_component_0,2346,1.0
GCF_018808925.1_ASM1880892v1,bin_component_0,NZ_CP048849.1,NODE_8_length_2346_cov_3357.353557_component_0,2346,1.0
GCF_018808925.1_ASM1880892v1,bin_component_0,NZ_CP048849.1,NODE_8_length_2346_cov_3357.353557_component_0,2346,1.0
GCF_018808925.1_ASM1880892v1,bin_component_0,NZ_CP048849.1,NODE_8_length_2346_cov_3357.353557_component_0,2346,1.0
GCF_018808925.1_ASM1880892v1,bin_component_0,NZ_CP048849.1,NODE_8_length_2346_cov_3357.353557_component_0,2346,1.0
GCF_018808925.1_ASM1880892v1,bin_component_0,NZ_CP048849.1,NODE_8_length_2346_cov_3357.353557_component_0,2346,1.0
GCF_018808925.1_ASM1880892v1,bin_component_0,NZ_CP048849.1,NODE_8_length_2346_cov_3357.353557_component_0,2346,1.0
GCF_018808925.1_ASM1880892v1,bin_component_0,NZ_CP048849.1,NODE_8_length_2346_cov_3357.353557_component_0,2346,1.0
GCF_018808925.1_ASM1880892v1,bin_component_0,NZ_CP048849.1,NODE_8_length_2346_cov_3357.353557_component_0,2346,1.0
GCF_018808925.1_ASM1880892v1,bin_component_0,NZ_CP048849.1,NODE_8_length_2346_cov_3357.353557_component_0,2346,1.0
GCF_018808925.1_ASM1880892v1,bin_component_0,NZ_CP048849.1,NODE_8_length_2346_cov_3357.353557_component_0,2346,1.0
GCF_018808925.1_ASM1880892v1,bin_component_0,NZ_CP048849.1,NODE_8_length_2346_cov_3357.353557_component_0,2346,1.0
GCF_018808925.1_ASM1880892v1,bin_component_0,NZ_CP048849.1,NODE_8_length_2346_cov_3357.353557_component_0,2346,1.0
GCF_018808925.1_ASM1880892v1,bin_component_0,NZ_CP048849.1,NODE_8_length_2346_cov_3357.353557_component_0,2346,1.0
GCF_018808925.1_ASM1880892v1,bin_component_0,NZ_CP048851.1,NODE_8_length_2346_cov_3357.353557_component_0,2346,1.0
GCF_018808925.1_ASM1880892v1,bin_component_0,NZ_CP048849.1,NODE_8_length_2346_cov_3357.353557_component_0,2346,1.0
GCF_018808925.1_ASM1880892v1,bin_component_0,NZ_CP048849.1,NODE_8_length_2346_cov_3357.353557_component_0,2346,1.0
GCF_020132105.1_ASM2013210v1,bin_component_0,NZ_CP082953.1,NODE_1_length_9282_cov_160.899728_component_0,9282,1.0
GCF_013787185.1_ASM1378718v1,bin_component_3,NZ_CP059388.1,NODE_4_length_9585_cov_630.197822_component_3,9585,1.0
GCF_013787185.1_ASM1378718v1,bin_component_4,NZ_CP059390.1,NODE_7_length_4848_cov_1497.503495_component_4,4848,0.95
GCF_013787185.1_ASM1378718v1,bin_component_0,NZ_CP059387.1,NODE_1_length_97002_cov_100.180532_component_0,97002,1.0
GCF_013787185.1_ASM1378718v1,bin_component_0,NZ_CP059387.1,NODE_2_length_50277_cov_246.595015_component_0,50277,0.23,1,11318
GCF_013787185.1_ASM1378718v1,bin_component_0,NZ_CP059386.1,NODE_2_length_50277_cov_246.595015_component_0,50277,0.77,11319,50277
GCF_013787185.1_ASM1378718v1,bin_component_0,NZ_CP059386.1,NODE_6_length_5989_cov_887.906175_component_0,5989,1.0
GCF_013787185.1_ASM1378718v1,bin_component_0,NZ_CP059387.1,NODE_8_length_4537_cov_485.811338_component_0,4537,0.64,1,2898
GCF_013787185.1_ASM1378718v1,bin_component_0,NZ_CP059386.1,NODE_8_length_4537_cov_485.811338_component_0,4537,0.35,2899,4503
GCF_013787185.1_ASM1378718v1,bin_component_0,NZ_CP059386.1,NODE_13_length_2466_cov_303.522018_component_0,2466,1.0
GCF_013787185.1_ASM1378718v1,bin_component_0,NZ_CP059386.1,NODE_14_length_2322_cov_442.648747_component_0,2322,0.95
GCF_013787185.1_ASM1378718v1,bin_component_0,NZ_CP059386.1,NODE_16_length_1796_cov_599.136010_component_0,1796,0.93
GCF_013787185.1_ASM1378718v1,bin_component_0,NZ_CP059386.1,NODE_17_length_1721_cov_1118.203262_component_0,1721,1.0
GCF_013787185.1_ASM1378718v1,bin_component_0,NZ_CP059386.1,NODE_18_length_1551_cov_1143.238062_component_0,1551,0.99
GCF_013787185.1_ASM1378718v1,bin_component_0,NZ_CP059386.1,NODE_19_length_1195_cov_862.700375_component_0,1195,0.89
GCF_013787185.1_ASM1378718v1,bin_component_0,NZ_CP059386.1,NODE_20_length_1029_cov_226.925721_component_0,1029,1.0
GCF_021484905.1_ASM2148490v1,bin_component_0,NZ_CP090607.1,NODE_3_length_5427_cov_162.851402_component_0,5427,1.0
GCF_021484905.1_ASM2148490v1,bin_component_0,NZ_CP090607.1,NODE_4_length_3020_cov_3123.765206_component_0,3020,1.0
GCF_021484905.1_ASM2148490v1,bin_component_0,NZ_CP090607.1,NODE_4_length_3020_cov_3123.765206_component_0,3020,1.0
GCF_021484905.1_ASM2148490v1,bin_component_0,NZ_CP090607.1,NODE_4_length_3020_cov_3123.765206_component_0,3020,1.0
GCF_021484905.1_ASM2148490v1,bin_component_0,NZ_CP090607.1,NODE_4_length_3020_cov_3123.765206_component_0,3020,1.0
GCF_021484905.1_ASM2148490v1,bin_component_0,NZ_CP090607.1,NODE_4_length_3020_cov_3123.765206_component_0,3020,1.0
GCF_021484905.1_ASM2148490v1,bin_component_0,NZ_CP090607.1,NODE_4_length_3020_cov_3123.765206_component_0,3020,1.0
GCF_021484905.1_ASM2148490v1,bin_component_0,NZ_CP090607.1,NODE_4_length_3020_cov_3123.765206_component_0,3020,1.0
GCF_021484905.1_ASM2148490v1,bin_component_0,NZ_CP090607.1,NODE_4_length_3020_cov_3123.765206_component_0,3020,1.0
GCF_021484905.1_ASM2148490v1,bin_component_0,NZ_CP090607.1,NODE_4_length_3020_cov_3123.765206_component_0,3020,1.0
GCF_021484905.1_ASM2148490v1,bin_component_0,NZ_CP090607.1,NODE_4_length_3020_cov_3123.765206_component_0,3020,1.0
GCF_021484905.1_ASM2148490v1,bin_component_0,NZ_CP090607.1,NODE_4_length_3020_cov_3123.765206_component_0,3020,1.0
GCF_021484905.1_ASM2148490v1,bin_component_0,NZ_CP090607.1,NODE_4_length_3020_cov_3123.765206_component_0,3020,1.0
GCF_021484905.1_ASM2148490v1,bin_component_0,NZ_CP090607.1,NODE_4_length_3020_cov_3123.765206_component_0,3020,1.0
GCF_021484905.1_ASM2148490v1,bin_component_0,NZ_CP090607.1,NODE_4_length_3020_cov_3123.765206_component_0,3020,1.0
GCF_021484905.1_ASM2148490v1,bin_component_0,NZ_CP090607.1,NODE_4_length_3020_cov_3123.765206_component_0,3020,1.0
GCF_021484905.1_ASM2148490v1,bin_component_0,NZ_CP090607.1,NODE_4_length_3020_cov_3123.765206_component_0,3020,1.0
GCF_021484905.1_ASM2148490v1,bin_component_0,NZ_CP090607.1,NODE_4_length_3020_cov_3123.765206_component_0,3020,1.0
GCF_021484905.1_ASM2148490v1,bin_component_0,NZ_CP090607.1,NODE_4_length_3020_cov_3123.765206_component_0,3020,1.0
GCF_021484905.1_ASM2148490v1,bin_component_0,NZ_CP090607.1,NODE_4_length_3020_cov_3123.765206_component_0,3020,1.0
GCF_021484905.1_ASM2148490v1,bin_component_0,NZ_CP090607.1,NODE_4_length_3020_cov_3123.765206_component_0,3020,1.0
GCF_021484905.1_ASM2148490v1,bin_component_0,NZ_CP090607.1,NODE_4_length_3020_cov_3123.765206_component_0,3020,1.0
GCF_021484905.1_ASM2148490v1,bin_component_0,NZ_CP090607.1,NODE_4_length_3020_cov_3123.765206_component_0,3020,1.0
GCF_021484905.1_ASM2148490v1,bin_component_0,NZ_CP090607.1,NODE_4_length_3020_cov_3123.765206_component_0,3020,1.0
GCF_021484905.1_ASM2148490v1,bin_component_0,NZ_CP090607.1,NODE_4_length_3020_cov_3123.765206_component_0,3020,1.0
GCF_021484905.1_ASM2148490v1,bin_component_0,NZ_CP090607.1,NODE_4_length_3020_cov_3123.765206_component_0,3020,1.0
GCF_021484905.1_ASM2148490v1,bin_component_0,NZ_CP090607.1,NODE_4_length_3020_cov_3123.765206_component_0,3020,1.0
GCF_021484905.1_ASM2148490v1,bin_component_0,NZ_CP090607.1,NODE_4_length_3020_cov_3123.765206_component_0,3020,1.0
GCF_021484905.1_ASM2148490v1,bin_component_0,NZ_CP090607.1,NODE_4_length_3020_cov_3123.765206_component_0,3020,1.0
GCF_021484905.1_ASM2148490v1,bin_component_0,NZ_CP090607.1,NODE_4_length_3020_cov_3123.765206_component_0,3020,1.0
GCF_021484905.1_ASM2148490v1,bin_component_0,NZ_CP090607.1,NODE_4_length_3020_cov_3123.765206_component_0,3020,1.0
GCF_021484905.1_ASM2148490v1,bin_component_0,NZ_CP090607.1,NODE_4_length_3020_cov_3123.765206_component_0,3020,1.0
GCF_021484905.1_ASM2148490v1,bin_component_0,NZ_CP090607.1,NODE_4_length_3020_cov_3123.765206_component_0,3020,1.0
GCF_021484905.1_ASM2148490v1,bin_component_0,NZ_CP090607.1,NODE_4_length_3020_cov_3123.765206_component_0,3020,1.0
GCF_021484905.1_ASM2148490v1,bin_component_0,NZ_CP090607.1,NODE_4_length_3020_cov_3123.765206_component_0,3020,1.0
GCF_021484905.1_ASM2148490v1,bin_component_0,NZ_CP090607.1,NODE_4_length_3020_cov_3123.765206_component_0,3020,1.0
GCF_021484905.1_ASM2148490v1,bin_component_0,NZ_CP090607.1,NODE_4_length_3020_cov_3123.765206_component_0,3020,1.0
GCF_021484905.1_ASM2148490v1,bin_component_0,NZ_CP090607.1,NODE_4_length_3020_cov_3123.765206_component_0,3020,1.0
GCF_021484905.1_ASM2148490v1,bin_component_0,NZ_CP090607.1,NODE_4_length_3020_cov_3123.765206_component_0,3020,1.0
GCF_021484905.1_ASM2148490v1,bin_component_0,NZ_CP090607.1,NODE_4_length_3020_cov_3123.765206_component_0,3020,1.0
GCF_021484905.1_ASM2148490v1,bin_component_0,NZ_CP090607.1,NODE_4_length_3020_cov_3123.765206_component_0,3020,1.0
GCF_021484905.1_ASM2148490v1,bin_component_0,NZ_CP090607.1,NODE_4_length_3020_cov_3123.765206_component_0,3020,1.0
GCF_021484905.1_ASM2148490v1,bin_component_0,NZ_CP090607.1,NODE_4_length_3020_cov_3123.765206_component_0,3020,1.0
GCF_021484905.1_ASM2148490v1,bin_component_0,NZ_CP090607.1,NODE_4_length_3020_cov_3123.765206_component_0,3020,1.0
GCF_021484905.1_ASM2148490v1,bin_component_0,NZ_CP090607.1,NODE_4_length_3020_cov_3123.765206_component_0,3020,1.0
GCF_021484905.1_ASM2148490v1,bin_component_0,NZ_CP090607.1,NODE_4_length_3020_cov_3123.765206_component_0,3020,1.0
GCF_021484905.1_ASM2148490v1,bin_component_0,NZ_CP090607.1,NODE_4_length_3020_cov_3123.765206_component_0,3020,1.0
GCF_021484905.1_ASM2148490v1,bin_component_0,NZ_CP090607.1,NODE_4_length_3020_cov_3123.765206_component_0,3020,1.0
GCF_021484905.1_ASM2148490v1,bin_component_0,NZ_CP090607.1,NODE_4_length_3020_cov_3123.765206_component_0,3020,1.0
GCF_021484905.1_ASM2148490v1,bin_component_0,NZ_CP090607.1,NODE_4_length_3020_cov_3123.765206_component_0,3020,1.0
GCF_021484905.1_ASM2148490v1,bin_component_0,NZ_CP090607.1,NODE_4_length_3020_cov_3123.765206_component_0,3020,1.0
GCF_021484905.1_ASM2148490v1,bin_component_0,NZ_CP090607.1,NODE_4_length_3020_cov_3123.765206_component_0,3020,1.0
GCF_021484905.1_ASM2148490v1,bin_component_0,NZ_CP090607.1,NODE_6_length_2445_cov_65.923870_component_0,2445,1.0
GCF_021484905.1_ASM2148490v1,bin_component_0,NZ_CP090607.1,NODE_6_length_2445_cov_65.923870_component_0,2445,1.0
GCF_021484905.1_ASM2148490v1,bin_component_2,NZ_CP090607.1,NODE_2_length_6849_cov_93.161695_component_2,6849,0.16
GCF_014169655.1_ASM1416965v1,bin_component_1,NZ_AP022238.1,NODE_2_length_73680_cov_154.641985_component_1,73680,1.0
GCF_014169655.1_ASM1416965v1,bin_component_0,NZ_AP022239.1,NODE_1_length_117890_cov_58.083565_component_0,117890,0.77,1,91137
GCF_014169655.1_ASM1416965v1,bin_component_0,NZ_AP022239.1,NODE_1_length_117890_cov_58.083565_component_0,117890,0.2,91138,114442
GCF_014169655.1_ASM1416965v1,bin_component_0,NZ_AP022238.1,NODE_1_length_117890_cov_58.083565_component_0,117890,0.03,114443,117890
GCF_014169655.1_ASM1416965v1,bin_component_2,NZ_AP022240.1,NODE_3_length_10812_cov_89.672194_component_2,10812,1.0
GCF_014705805.1_ASM1470580v1,bin_component_1,NZ_CP061514.1,NODE_2_length_18072_cov_61.902647_component_1,18072,1.0
GCF_014705805.1_ASM1470580v1,bin_component_1,NZ_CP061514.1,NODE_3_length_2039_cov_32.808054_component_1,2039,1.0
GCF_014705805.1_ASM1470580v1,bin_component_0,NZ_CP061516.1,NODE_1_length_67449_cov_18.115193_component_0,67449,1.0
GCF_015732435.1_ASM1573243v1,bin_component_0,NZ_CP060732.1,NODE_2_length_6705_cov_233.798733_component_0,6705,1.0
GCF_015732435.1_ASM1573243v1,bin_component_0,NZ_CP060732.1,NODE_2_length_6705_cov_233.798733_component_0,6705,1.0
GCF_015732435.1_ASM1573243v1,bin_component_0,NZ_CP060732.1,NODE_4_length_5788_cov_188.671161_component_0,5788,1.0
GCF_015732435.1_ASM1573243v1,bin_component_0,NZ_CP060732.1,NODE_4_length_5788_cov_188.671161_component_0,5788,1.0
GCF_015732435.1_ASM1573243v1,bin_component_0,NZ_CP060732.1,NODE_6_length_3621_cov_177.786400_component_0,3621,1.0
GCF_015732435.1_ASM1573243v1,bin_component_0,NZ_CP060732.1,NODE_6_length_3621_cov_177.786400_component_0,3621,1.0
GCF_015732435.1_ASM1573243v1,bin_component_0,NZ_CP060732.1,NODE_7_length_3606_cov_201.555115_component_0,3606,1.0
GCF_015732435.1_ASM1573243v1,bin_component_0,NZ_CP060732.1,NODE_8_length_3232_cov_296.404437_component_0,3232,1.0
GCF_015732435.1_ASM1573243v1,bin_component_0,NZ_CP060732.1,NODE_8_length_3232_cov_296.404437_component_0,3232,1.0
GCF_015732435.1_ASM1573243v1,bin_component_0,NZ_CP060732.1,NODE_8_length_3232_cov_296.404437_component_0,3232,1.0
GCF_015732435.1_ASM1573243v1,bin_component_0,NZ_CP060732.1,NODE_9_length_3076_cov_168.874958_component_0,3076,1.0
GCF_015732435.1_ASM1573243v1,bin_component_0,NZ_CP060732.1,NODE_10_length_2684_cov_207.812428_component_0,2684,1.0
GCF_015732435.1_ASM1573243v1,bin_component_0,NZ_CP060732.1,NODE_10_length_2684_cov_207.812428_component_0,2684,1.0
GCF_015732435.1_ASM1573243v1,bin_component_0,NZ_CP060732.1,NODE_11_length_1906_cov_103.060142_component_0,1906,1.0
GCF_015732435.1_ASM1573243v1,bin_component_0,NZ_CP060732.1,NODE_12_length_1692_cov_100.769040_component_0,1692,1.0
GCF_015732435.1_ASM1573243v1,bin_component_0,NZ_CP060732.1,NODE_13_length_1427_cov_186.022222_component_0,1427,1.0
GCF_015732435.1_ASM1573243v1,bin_component_0,NZ_CP060732.1,NODE_13_length_1427_cov_186.022222_component_0,1427,1.0
GCF_015732435.1_ASM1573243v1,bin_component_0,NZ_CP060732.1,NODE_14_length_1178_cov_194.200727_component_0,1178,1.0
GCF_015732435.1_ASM1573243v1,bin_component_0,NZ_CP060732.1,NODE_14_length_1178_cov_194.200727_component_0,1178,1.0
GCF_015732435.1_ASM1573243v1,bin_component_0,NZ_CP060732.1,NODE_15_length_1014_cov_219.659552_component_0,1014,1.0
GCF_015732435.1_ASM1573243v1,bin_component_0,NZ_CP060732.1,NODE_15_length_1014_cov_219.659552_component_0,1014,1.0
GCF_015732435.1_ASM1573243v1,bin_component_2,NZ_CP060732.1,NODE_1_length_7321_cov_674.602706_component_2,7321,1.0
GCF_015732435.1_ASM1573243v1,bin_component_2,NZ_CP060732.1,NODE_1_length_7321_cov_674.602706_component_2,7321,1.0
GCF_014705785.1_ASM1470578v1,bin_component_1,NZ_CP061517.1,NODE_4_length_18072_cov_50.059181_component_1,18072,1.0
GCF_014705785.1_ASM1470578v1,bin_component_1,NZ_CP061517.1,NODE_13_length_2039_cov_26.509414_component_1,2039,1.0
GCF_014705785.1_ASM1470578v1,bin_component_0,NZ_CP061517.1,NODE_1_length_90826_cov_19.905875_component_0,90826,1.0
GCF_014705785.1_ASM1470578v1,bin_component_0,NZ_CP061517.1,NODE_2_length_25311_cov_40.198181_component_0,25311,1.0
GCF_014705785.1_ASM1470578v1,bin_component_0,NZ_CP061517.1,NODE_3_length_18735_cov_58.370271_component_0,18735,1.0
GCF_014705785.1_ASM1470578v1,bin_component_0,NZ_CP061517.1,NODE_5_length_5853_cov_49.856444_component_0,5853,1.0
GCF_014705785.1_ASM1470578v1,bin_component_0,NZ_CP061517.1,NODE_6_length_4299_cov_210.277325_component_0,4299,1.0
GCF_014705785.1_ASM1470578v1,bin_component_0,NZ_CP061517.1,NODE_7_length_3821_cov_60.723606_component_0,3821,1.0
GCF_014705785.1_ASM1470578v1,bin_component_0,NZ_CP061517.1,NODE_8_length_2703_cov_36.168866_component_0,2703,1.0
GCF_014705785.1_ASM1470578v1,bin_component_0,NZ_CP061517.1,NODE_8_length_2703_cov_36.168866_component_0,2703,1.0
GCF_014705785.1_ASM1470578v1,bin_component_0,NZ_CP061517.1,NODE_9_length_2664_cov_96.256602_component_0,2664,1.0
GCF_014705785.1_ASM1470578v1,bin_component_0,NZ_CP061517.1,NODE_10_length_2541_cov_68.024027_component_0,2541,1.0
GCF_014705785.1_ASM1470578v1,bin_component_0,NZ_CP061517.1,NODE_11_length_2521_cov_102.054302_component_0,2521,1.0
GCF_014705785.1_ASM1470578v1,bin_component_0,NZ_CP061517.1,NODE_11_length_2521_cov_102.054302_component_0,2521,1.0
GCF_014705785.1_ASM1470578v1,bin_component_0,NZ_CP061517.1,NODE_12_length_2039_cov_44.158473_component_0,2039,1.0
GCF_014705785.1_ASM1470578v1,bin_component_0,NZ_CP061517.1,NODE_14_length_1776_cov_69.244997_component_0,1776,1.0
GCF_014705785.1_ASM1470578v1,bin_component_0,NZ_CP061517.1,NODE_15_length_1679_cov_65.113402_component_0,1679,1.0
GCF_014705845.1_ASM1470584v1,bin_component_1,NZ_CP061523.1,NODE_5_length_18388_cov_42.018564_component_1,18388,1.0
GCF_014705845.1_ASM1470584v1,bin_component_1,NZ_CP061523.1,NODE_13_length_2039_cov_21.004184_component_1,2039,1.0
GCF_014705845.1_ASM1470584v1,bin_component_0,NZ_CP061523.1,NODE_1_length_93170_cov_21.061789_component_0,93170,1.0
GCF_014705845.1_ASM1470584v1,bin_component_0,NZ_CP061523.1,NODE_2_length_77032_cov_34.585684_component_0,77032,1.0
GCF_014705845.1_ASM1470584v1,bin_component_0,NZ_CP061523.1,NODE_3_length_37948_cov_52.012295_component_0,37948,0.99
GCF_014705845.1_ASM1470584v1,bin_component_0,NZ_CP061523.1,NODE_4_length_25311_cov_30.239914_component_0,25311,1.0
GCF_014705845.1_ASM1470584v1,bin_component_0,NZ_CP061523.1,NODE_6_length_5853_cov_42.589067_component_0,5853,1.0
GCF_014705845.1_ASM1470584v1,bin_component_0,NZ_CP061523.1,NODE_7_length_3821_cov_52.668381_component_0,3821,1.0
GCF_014705845.1_ASM1470584v1,bin_component_0,NZ_CP061523.1,NODE_8_length_2703_cov_33.973991_component_0,2703,1.0
GCF_014705845.1_ASM1470584v1,bin_component_0,NZ_CP061523.1,NODE_8_length_2703_cov_33.973991_component_0,2703,1.0
GCF_014705845.1_ASM1470584v1,bin_component_0,NZ_CP061523.1,NODE_9_length_2664_cov_84.325581_component_0,2664,1.0
GCF_014705845.1_ASM1470584v1,bin_component_0,NZ_CP061523.1,NODE_10_length_2541_cov_56.048053_component_0,2541,1.0
GCF_014705845.1_ASM1470584v1,bin_component_0,NZ_CP061523.1,NODE_11_length_2521_cov_79.961571_component_0,2521,1.0
GCF_014705845.1_ASM1470584v1,bin_component_0,NZ_CP061523.1,NODE_11_length_2521_cov_79.961571_component_0,2521,1.0
GCF_014705845.1_ASM1470584v1,bin_component_0,NZ_CP061523.1,NODE_12_length_2042_cov_33.910705_component_0,2042,1.0
GCF_014705845.1_ASM1470584v1,bin_component_0,NZ_CP061523.1,NODE_14_length_1776_cov_56.788357_component_0,1776,1.0
GCF_014705845.1_ASM1470584v1,bin_component_0,NZ_CP061523.1,NODE_15_length_1679_cov_54.324098_component_0,1679,1.0
GCF_014705845.1_ASM1470584v1,bin_component_0,NZ_CP061523.1,NODE_16_length_1657_cov_98.367320_component_0,1657,1.0
GCF_014705845.1_ASM1470584v1,bin_component_0,NZ_CP061523.1,NODE_16_length_1657_cov_98.367320_component_0,1657,1.0
GCF_014705845.1_ASM1470584v1,bin_component_0,NZ_CP061523.1,NODE_17_length_1088_cov_238.632674_component_0,1088,1.0
GCF_016127515.1_ASM1612751v1,bin_component_1,NZ_CP066017.1,NODE_2_length_8808_cov_2215.125988_component_1,8808,0.98
GCF_016127515.1_ASM1612751v1,bin_component_0,NZ_CP066016.1,NODE_1_length_10551_cov_634.486156_component_0,10551,1.0
GCF_016127515.1_ASM1612751v1,bin_component_0,NZ_CP066016.1,NODE_4_length_1550_cov_1434.856076_component_0,1550,1.0
GCF_016127515.1_ASM1612751v1,bin_component_0,NZ_CP066016.1,NODE_4_length_1550_cov_1434.856076_component_0,1550,1.0
GCF_016127515.1_ASM1612751v1,bin_component_0,NZ_CP066016.1,NODE_4_length_1550_cov_1434.856076_component_0,1550,1.0
GCF_016127515.1_ASM1612751v1,bin_component_0,NZ_CP066016.1,NODE_4_length_1550_cov_1434.856076_component_0,1550,1.0
GCF_016127515.1_ASM1612751v1,bin_component_0,NZ_CP066016.1,NODE_4_length_1550_cov_1434.856076_component_0,1550,1.0
