"S1_LN:i:459780_dp:f:1.1046637162013049","GCF_013344605.1_ASM1334460v1_raw_nodes","chromosome","chromosome","chromosome",0,"chromosome"
"S10_LN:i:142696_dp:f:1.0","GCF_013344605.1_ASM1334460v1_raw_nodes","chromosome","chromosome","chromosome",0,"chromosome"
"S11_LN:i:119918_dp:f:0.9124263500445828","GCF_013344605.1_ASM1334460v1_raw_nodes","chromosome","chromosome","chromosome",0,"chromosome"
"S12_LN:i:88789_dp:f:0.9437150359436159","GCF_013344605.1_ASM1334460v1_raw_nodes","chromosome","chromosome","chromosome",0,"chromosome"
"S13_LN:i:77181_dp:f:1.0215148531483211","GCF_013344605.1_ASM1334460v1_raw_nodes","chromosome","chromosome","plasmid",1,"chromosome"
"S14_LN:i:64052_dp:f:3.805030358063741","GCF_013344605.1_ASM1334460v1_raw_nodes","plasmid","plasmid","plasmid",3,"plasmid"
"S15_LN:i:57342_dp:f:1.3846471988091986","GCF_013344605.1_ASM1334460v1_raw_nodes","chromosome","chromosome","chromosome",0,"chromosome"
"S16_LN:i:38181_dp:f:1.2449010340729705","GCF_013344605.1_ASM1334460v1_raw_nodes","chromosome","chromosome","chromosome",0,"chromosome"
"S17_LN:i:29107_dp:f:1.296492165650743","GCF_013344605.1_ASM1334460v1_raw_nodes","chromosome","chromosome","chromosome",0,"chromosome"
"S18_LN:i:25751_dp:f:1.2976929412586387","GCF_013344605.1_ASM1334460v1_raw_nodes","chromosome","chromosome","chromosome",0,"chromosome"
"S19_LN:i:24973_dp:f:3.3800278860293367","GCF_013344605.1_ASM1334460v1_raw_nodes","plasmid","plasmid","plasmid",3,"plasmid"
"S2_LN:i:432837_dp:f:0.8424293708192345","GCF_013344605.1_ASM1334460v1_raw_nodes","chromosome","chromosome","chromosome",0,"chromosome"
"S20_LN:i:21508_dp:f:1.4119356293464684","GCF_013344605.1_ASM1334460v1_raw_nodes","chromosome","plasmid","chromosome",1,"chromosome"
"S21_LN:i:15883_dp:f:2.975720199847982","GCF_013344605.1_ASM1334460v1_raw_nodes","plasmid","plasmid","plasmid",3,"plasmid"
"S22_LN:i:15356_dp:f:1.1951294396046759","GCF_013344605.1_ASM1334460v1_raw_nodes","chromosome","plasmid","chromosome",1,"chromosome"
"S23_LN:i:11339_dp:f:0.8631979743099677","GCF_013344605.1_ASM1334460v1_raw_nodes","chromosome","plasmid","chromosome",1,"chromosome"
"S24_LN:i:5992_dp:f:1.0250989802513883","GCF_013344605.1_ASM1334460v1_raw_nodes","chromosome","plasmid","chromosome",1,"chromosome"
"S25_LN:i:5882_dp:f:6.062133387442284","GCF_013344605.1_ASM1334460v1_raw_nodes","plasmid","plasmid","plasmid",3,"plasmid"
"S26_LN:i:4798_dp:f:0.9454095229742133","GCF_013344605.1_ASM1334460v1_raw_nodes","chromosome","plasmid","chromosome",1,"chromosome"
"S27_LN:i:3283_dp:f:5.501922236975118","GCF_013344605.1_ASM1334460v1_raw_nodes","chromosome","chromosome","chromosome",0,"chromosome"
"S28_LN:i:2251_dp:f:7.244211154449122","GCF_013344605.1_ASM1334460v1_raw_nodes","plasmid","plasmid","plasmid",3,"plasmid"
"S29_LN:i:2248_dp:f:0.5219093331160216","GCF_013344605.1_ASM1334460v1_raw_nodes","chromosome","plasmid","chromosome",1,"chromosome"
"S3_LN:i:248913_dp:f:0.9629544107052488","GCF_013344605.1_ASM1334460v1_raw_nodes","chromosome","chromosome","chromosome",0,"chromosome"
"S30_LN:i:1834_dp:f:5.084601767978865","GCF_013344605.1_ASM1334460v1_raw_nodes","chromosome","chromosome","chromosome",0,"chromosome"
"S31_LN:i:1756_dp:f:0.8877765858328932","GCF_013344605.1_ASM1334460v1_raw_nodes","chromosome","chromosome","chromosome",0,"chromosome"
"S32_LN:i:1536_dp:f:0.7217253791798834","GCF_013344605.1_ASM1334460v1_raw_nodes","chromosome","plasmid","chromosome",1,"chromosome"
"S33_LN:i:1514_dp:f:3.193917706978237","GCF_013344605.1_ASM1334460v1_raw_nodes","chromosome","chromosome","chromosome",0,"chromosome"
"S34_LN:i:1244_dp:f:4.715931545958041","GCF_013344605.1_ASM1334460v1_raw_nodes","plasmid","plasmid","chromosome",2,"plasmid"
"S4_LN:i:208837_dp:f:0.8957793660348831","GCF_013344605.1_ASM1334460v1_raw_nodes","chromosome","chromosome","chromosome",0,"chromosome"
"S5_LN:i:199268_dp:f:0.9613751462244396","GCF_013344605.1_ASM1334460v1_raw_nodes","chromosome","chromosome","chromosome",0,"chromosome"
"S6_LN:i:178291_dp:f:1.1429864240869752","GCF_013344605.1_ASM1334460v1_raw_nodes","chromosome","chromosome","chromosome",0,"chromosome"
"S7_LN:i:167132_dp:f:1.207648048205913","GCF_013344605.1_ASM1334460v1_raw_nodes","chromosome","chromosome","chromosome",0,"chromosome"
"S8_LN:i:161551_dp:f:1.3692699355876707","GCF_013344605.1_ASM1334460v1_raw_nodes","chromosome","chromosome","chromosome",0,"chromosome"
"S9_LN:i:157654_dp:f:1.2896946709642498","GCF_013344605.1_ASM1334460v1_raw_nodes","chromosome","chromosome","chromosome",0,"chromosome"
"S1_LN:i:632184_dp:f:1.0","GCF_013344625.1_ASM1334462v1_raw_nodes","chromosome","chromosome",0,"chromosome"
"S10_LN:i:80209_dp:f:1.2181355719705884","GCF_013344625.1_ASM1334462v1_raw_nodes","chromosome","chromosome",0,"chromosome"
"S11_LN:i:73027_dp:f:1.168720613419751","GCF_013344625.1_ASM1334462v1_raw_nodes","chromosome","chromosome",0,"chromosome"
"S12_LN:i:66561_dp:f:1.1070297308195125","GCF_013344625.1_ASM1334462v1_raw_nodes","chromosome","chromosome",0,"chromosome"
"S13_LN:i:57665_dp:f:1.1203468305152946","GCF_013344625.1_ASM1334462v1_raw_nodes","chromosome","chromosome",0,"chromosome"
"S14_LN:i:46599_dp:f:1.1227908719307655","GCF_013344625.1_ASM1334462v1_raw_nodes","chromosome","chromosome",0,"chromosome"
"S15_LN:i:35844_dp:f:2.209813950321071","GCF_013344625.1_ASM1334462v1_raw_nodes","chromosome","chromosome",0,"chromosome"
"S16_LN:i:34102_dp:f:1.1779160858926427","GCF_013344625.1_ASM1334462v1_raw_nodes","chromosome","chromosome",0,"chromosome"
"S17_LN:i:27158_dp:f:0.90424953143725","GCF_013344625.1_ASM1334462v1_raw_nodes","plasmid","chromosome",1,"chromosome"
"S18_LN:i:25795_dp:f:1.1521103257154908","GCF_013344625.1_ASM1334462v1_raw_nodes","chromosome","chromosome",0,"chromosome"
"S19_LN:i:25715_dp:f:0.9981750644389673","GCF_013344625.1_ASM1334462v1_raw_nodes","chromosome","chromosome",0,"chromosome"
"S2_LN:i:374127_dp:f:0.8684805385333388","GCF_013344625.1_ASM1334462v1_raw_nodes","chromosome","chromosome",0,"chromosome"
"S20_LN:i:19423_dp:f:0.9689010206000778","GCF_013344625.1_ASM1334462v1_raw_nodes","chromosome","chromosome",0,"chromosome"
"S21_LN:i:15351_dp:f:1.0627222797322728","GCF_013344625.1_ASM1334462v1_raw_nodes","plasmid","chromosome",1,"chromosome"
"S22_LN:i:7864_dp:f:0.9876260154036655","GCF_013344625.1_ASM1334462v1_raw_nodes","chromosome","chromosome",0,"chromosome"
"S23_LN:i:5993_dp:f:0.9087874672910896","GCF_013344625.1_ASM1334462v1_raw_nodes","plasmid","chromosome",1,"chromosome"
"S24_LN:i:3250_dp:f:5.428763712488065","GCF_013344625.1_ASM1334462v1_raw_nodes","chromosome","chromosome",0,"chromosome"
"S25_LN:i:1798_dp:f:4.926315301241393","GCF_013344625.1_ASM1334462v1_raw_nodes","chromosome","chromosome",0,"chromosome"
"S26_LN:i:1467_dp:f:2.1445347566232513","GCF_013344625.1_ASM1334462v1_raw_nodes","chromosome","chromosome",0,"chromosome"
"S27_LN:i:1226_dp:f:1.9548859166824186","GCF_013344625.1_ASM1334462v1_raw_nodes","chromosome","chromosome",0,"chromosome"
"S28_LN:i:1035_dp:f:2.584620317812504","GCF_013344625.1_ASM1334462v1_raw_nodes","chromosome","chromosome",0,"chromosome"
"S29_LN:i:1005_dp:f:10.183537355058236","GCF_013344625.1_ASM1334462v1_raw_nodes","chromosome","chromosome",0,"chromosome"
"S3_LN:i:320683_dp:f:1.1753966341702857","GCF_013344625.1_ASM1334462v1_raw_nodes","chromosome","chromosome",0,"chromosome"
"S4_LN:i:233141_dp:f:0.8660503676351271","GCF_013344625.1_ASM1334462v1_raw_nodes","chromosome","chromosome",0,"chromosome"
"S5_LN:i:224003_dp:f:1.0383866513378095","GCF_013344625.1_ASM1334462v1_raw_nodes","chromosome","chromosome",0,"chromosome"
"S6_LN:i:178656_dp:f:0.8195606584773563","GCF_013344625.1_ASM1334462v1_raw_nodes","chromosome","chromosome",0,"chromosome"
"S7_LN:i:172639_dp:f:1.1999390451993162","GCF_013344625.1_ASM1334462v1_raw_nodes","chromosome","chromosome",0,"chromosome"
"S8_LN:i:151748_dp:f:1.0192707640634409","GCF_013344625.1_ASM1334462v1_raw_nodes","chromosome","chromosome",0,"chromosome"
"S9_LN:i:81824_dp:f:1.2067238119778045","GCF_013344625.1_ASM1334462v1_raw_nodes","chromosome","chromosome",0,"chromosome"
"S1_LN:i:632184_dp:f:1.0","GCF_013344645.1_ASM1334464v1_raw_nodes","chromosome","chromosome",0,"chromosome"
"S10_LN:i:80209_dp:f:1.2117935427845163","GCF_013344645.1_ASM1334464v1_raw_nodes","chromosome","chromosome",0,"chromosome"
"S11_LN:i:73027_dp:f:1.164992210452788","GCF_013344645.1_ASM1334464v1_raw_nodes","chromosome","chromosome",0,"chromosome"
"S12_LN:i:66561_dp:f:1.1177440474933091","GCF_013344645.1_ASM1334464v1_raw_nodes","chromosome","chromosome",0,"chromosome"
"S13_LN:i:57665_dp:f:1.131233413254343","GCF_013344645.1_ASM1334464v1_raw_nodes","chromosome","chromosome",0,"chromosome"
"S14_LN:i:46599_dp:f:1.1026391372492692","GCF_013344645.1_ASM1334464v1_raw_nodes","chromosome","chromosome",0,"chromosome"
"S15_LN:i:35724_dp:f:2.1541512758608348","GCF_013344645.1_ASM1334464v1_raw_nodes","chromosome","chromosome",0,"chromosome"
"S16_LN:i:34102_dp:f:1.199464357199132","GCF_013344645.1_ASM1334464v1_raw_nodes","chromosome","chromosome",0,"chromosome"
"S17_LN:i:27158_dp:f:0.9746118920781989","GCF_013344645.1_ASM1334464v1_raw_nodes","plasmid","chromosome",1,"chromosome"
"S18_LN:i:25795_dp:f:1.1555151289867742","GCF_013344645.1_ASM1334464v1_raw_nodes","chromosome","chromosome",0,"chromosome"
"S19_LN:i:25715_dp:f:0.9950674348983367","GCF_013344645.1_ASM1334464v1_raw_nodes","chromosome","chromosome",0,"chromosome"
"S2_LN:i:374127_dp:f:0.8678665680116151","GCF_013344645.1_ASM1334464v1_raw_nodes","chromosome","chromosome",0,"chromosome"
"S20_LN:i:19529_dp:f:0.9666511478937445","GCF_013344645.1_ASM1334464v1_raw_nodes","chromosome","chromosome",0,"chromosome"
"S21_LN:i:15351_dp:f:1.1267022122543924","GCF_013344645.1_ASM1334464v1_raw_nodes","plasmid","chromosome",1,"chromosome"
"S22_LN:i:7864_dp:f:0.9914738779886858","GCF_013344645.1_ASM1334464v1_raw_nodes","chromosome","chromosome",0,"chromosome"
"S23_LN:i:5993_dp:f:0.9752358423339312","GCF_013344645.1_ASM1334464v1_raw_nodes","plasmid","chromosome",1,"chromosome"
"S24_LN:i:3143_dp:f:5.69716428632502","GCF_013344645.1_ASM1334464v1_raw_nodes","chromosome","chromosome",0,"chromosome"
"S25_LN:i:1798_dp:f:5.599170903237108","GCF_013344645.1_ASM1334464v1_raw_nodes","chromosome","chromosome",0,"chromosome"
"S26_LN:i:1467_dp:f:2.2434406371576285","GCF_013344645.1_ASM1334464v1_raw_nodes","chromosome","chromosome",0,"chromosome"
"S27_LN:i:1226_dp:f:1.9310142923770066","GCF_013344645.1_ASM1334464v1_raw_nodes","chromosome","chromosome",0,"chromosome"
"S28_LN:i:1035_dp:f:2.583887727508099","GCF_013344645.1_ASM1334464v1_raw_nodes","chromosome","chromosome",0,"chromosome"
"S3_LN:i:320683_dp:f:1.1848625156664878","GCF_013344645.1_ASM1334464v1_raw_nodes","chromosome","chromosome",0,"chromosome"
"S4_LN:i:233141_dp:f:0.8737958172714418","GCF_013344645.1_ASM1334464v1_raw_nodes","chromosome","chromosome",0,"chromosome"
"S5_LN:i:227087_dp:f:1.021424444407216","GCF_013344645.1_ASM1334464v1_raw_nodes","chromosome","chromosome",0,"chromosome"
"S6_LN:i:178656_dp:f:0.8000635300616876","GCF_013344645.1_ASM1334464v1_raw_nodes","chromosome","chromosome",0,"chromosome"
"S7_LN:i:172639_dp:f:1.218715517957777","GCF_013344645.1_ASM1334464v1_raw_nodes","chromosome","chromosome",0,"chromosome"
"S8_LN:i:151748_dp:f:1.019443499698707","GCF_013344645.1_ASM1334464v1_raw_nodes","chromosome","chromosome",0,"chromosome"
"S9_LN:i:81824_dp:f:1.2361134351059375","GCF_013344645.1_ASM1334464v1_raw_nodes","chromosome","chromosome",0,"chromosome"
"S1_LN:i:1116402_dp:f:0.85502873384023","GCF_013344665.1_ASM1334466v1_raw_nodes","chromosome","chromosome",0,"chromosome"
"S10_LN:i:3283_dp:f:6.394459059374593","GCF_013344665.1_ASM1334466v1_raw_nodes","chromosome","chromosome",0,"chromosome"
"S11_LN:i:1830_dp:f:2.400313229833641","GCF_013344665.1_ASM1334466v1_raw_nodes","chromosome","chromosome",0,"chromosome"
"S12_LN:i:1812_dp:f:5.84198587981697","GCF_013344665.1_ASM1334466v1_raw_nodes","chromosome","chromosome",0,"chromosome"
"S2_LN:i:367296_dp:f:1.096407368470583","GCF_013344665.1_ASM1334466v1_raw_nodes","chromosome","chromosome",0,"chromosome"
"S3_LN:i:293421_dp:f:1.2476158888969995","GCF_013344665.1_ASM1334466v1_raw_nodes","chromosome","chromosome",0,"chromosome"
"S4_LN:i:261156_dp:f:1.3242192169687952","GCF_013344665.1_ASM1334466v1_raw_nodes","chromosome","chromosome",0,"chromosome"
"S5_LN:i:218480_dp:f:1.0","GCF_013344665.1_ASM1334466v1_raw_nodes","chromosome","chromosome",0,"chromosome"
"S6_LN:i:158753_dp:f:1.0291373529547168","GCF_013344665.1_ASM1334466v1_raw_nodes","chromosome","chromosome",0,"chromosome"
"S7_LN:i:158505_dp:f:1.0154593339194964","GCF_013344665.1_ASM1334466v1_raw_nodes","chromosome","chromosome",0,"chromosome"
"S8_LN:i:61896_dp:f:1.1103040656902996","GCF_013344665.1_ASM1334466v1_raw_nodes","chromosome","chromosome",0,"chromosome"
"S9_LN:i:11838_dp:f:1.101898942090028","GCF_013344665.1_ASM1334466v1_raw_nodes","chromosome","chromosome",0,"chromosome"
"S1_LN:i:295185_dp:f:0.9439997194753977","GCF_018986755.2_ASM1898675v2_raw_nodes","chromosome","chromosome","chromosome",0,"chromosome"
"S10_LN:i:102250_dp:f:1.018590378148773","GCF_018986755.2_ASM1898675v2_raw_nodes","chromosome","chromosome","chromosome",0,"chromosome"
"S11_LN:i:99298_dp:f:0.9803356412079669","GCF_018986755.2_ASM1898675v2_raw_nodes","chromosome","chromosome","chromosome",0,"chromosome"
"S12_LN:i:97031_dp:f:1.0145852948213905","GCF_018986755.2_ASM1898675v2_raw_nodes","chromosome","chromosome","chromosome",0,"chromosome"
"S13_LN:i:82712_dp:f:1.0090598112873932","GCF_018986755.2_ASM1898675v2_raw_nodes","chromosome","chromosome","chromosome",0,"chromosome"
"S14_LN:i:76497_dp:f:0.9997243699115814","GCF_018986755.2_ASM1898675v2_raw_nodes","chromosome","chromosome","plasmid",1,"chromosome"
"S15_LN:i:66141_dp:f:0.9749291485862656","GCF_018986755.2_ASM1898675v2_raw_nodes","chromosome","chromosome","chromosome",0,"chromosome"
"S16_LN:i:63336_dp:f:1.0471804948791352","GCF_018986755.2_ASM1898675v2_raw_nodes","chromosome","chromosome","chromosome",0,"chromosome"
"S17_LN:i:61833_dp:f:0.9412076358026745","GCF_018986755.2_ASM1898675v2_raw_nodes","chromosome","plasmid","chromosome",1,"chromosome"
"S18_LN:i:58923_dp:f:0.9583072518443372","GCF_018986755.2_ASM1898675v2_raw_nodes","chromosome","plasmid","plasmid",2,"plasmid"
"S19_LN:i:55903_dp:f:1.020306549746494","GCF_018986755.2_ASM1898675v2_raw_nodes","chromosome","chromosome","chromosome",0,"chromosome"
"S2_LN:i:212092_dp:f:0.9994219607428936","GCF_018986755.2_ASM1898675v2_raw_nodes","chromosome","chromosome","chromosome",0,"chromosome"
"S20_LN:i:54391_dp:f:1.0437390834040448","GCF_018986755.2_ASM1898675v2_raw_nodes","chromosome","chromosome","chromosome",0,"chromosome"
"S21_LN:i:54083_dp:f:0.9851962834755565","GCF_018986755.2_ASM1898675v2_raw_nodes","chromosome","chromosome","chromosome",0,"chromosome"
"S22_LN:i:51009_dp:f:0.9897821005476963","GCF_018986755.2_ASM1898675v2_raw_nodes","chromosome","chromosome","chromosome",0,"chromosome"
"S23_LN:i:50328_dp:f:1.0350242360273825","GCF_018986755.2_ASM1898675v2_raw_nodes","chromosome","chromosome","chromosome",0,"chromosome"
"S24_LN:i:37935_dp:f:1.6412953465492437","GCF_018986755.2_ASM1898675v2_raw_nodes","plasmid","plasmid","plasmid",3,"plasmid"
"S25_LN:i:37106_dp:f:0.9923144611890745","GCF_018986755.2_ASM1898675v2_raw_nodes","chromosome","chromosome","chromosome",0,"chromosome"
"S26_LN:i:36801_dp:f:1.0345776105114664","GCF_018986755.2_ASM1898675v2_raw_nodes","chromosome","plasmid","plasmid",2,"plasmid"
"S27_LN:i:35106_dp:f:1.0188875088567335","GCF_018986755.2_ASM1898675v2_raw_nodes","chromosome","chromosome","chromosome",0,"chromosome"
"S28_LN:i:34792_dp:f:0.963533188278396","GCF_018986755.2_ASM1898675v2_raw_nodes","chromosome","chromosome","chromosome",0,"chromosome"
"S29_LN:i:34200_dp:f:0.9826887614494481","GCF_018986755.2_ASM1898675v2_raw_nodes","chromosome","chromosome","chromosome",0,"chromosome"
"S3_LN:i:189786_dp:f:1.0074435408970552","GCF_018986755.2_ASM1898675v2_raw_nodes","chromosome","chromosome","chromosome",0,"chromosome"
"S30_LN:i:32010_dp:f:2.2301899648410215","GCF_018986755.2_ASM1898675v2_raw_nodes","plasmid","plasmid","plasmid",3,"plasmid"
"S31_LN:i:31718_dp:f:1.0414130403515578","GCF_018986755.2_ASM1898675v2_raw_nodes","chromosome","chromosome","chromosome",0,"chromosome"
"S32_LN:i:31538_dp:f:0.9584440639783823","GCF_018986755.2_ASM1898675v2_raw_nodes","chromosome","chromosome","chromosome",0,"chromosome"
"S33_LN:i:29038_dp:f:0.9896625708477321","GCF_018986755.2_ASM1898675v2_raw_nodes","chromosome","chromosome","chromosome",0,"chromosome"
"S34_LN:i:26194_dp:f:1.036622083806666","GCF_018986755.2_ASM1898675v2_raw_nodes","chromosome","chromosome","chromosome",0,"chromosome"
"S35_LN:i:25735_dp:f:0.9999015291260253","GCF_018986755.2_ASM1898675v2_raw_nodes","chromosome","chromosome","chromosome",0,"chromosome"
"S36_LN:i:25526_dp:f:0.9918763492497806","GCF_018986755.2_ASM1898675v2_raw_nodes","chromosome","chromosome","chromosome",0,"chromosome"
"S37_LN:i:23296_dp:f:1.0823165454728778","GCF_018986755.2_ASM1898675v2_raw_nodes","chromosome","chromosome","chromosome",0,"chromosome"
"S38_LN:i:23189_dp:f:1.1370707202501376","GCF_018986755.2_ASM1898675v2_raw_nodes","plasmid","plasmid","plasmid",3,"plasmid"
"S39_LN:i:22444_dp:f:0.9451632098284731","GCF_018986755.2_ASM1898675v2_raw_nodes","chromosome","chromosome","chromosome",0,"chromosome"
"S4_LN:i:185405_dp:f:1.0044087283783028","GCF_018986755.2_ASM1898675v2_raw_nodes","chromosome","chromosome","plasmid",1,"chromosome"
"S40_LN:i:21628_dp:f:1.5956036210210387","GCF_018986755.2_ASM1898675v2_raw_nodes","plasmid","plasmid","plasmid",3,"plasmid"
"S41_LN:i:19146_dp:f:1.0963976350103914","GCF_018986755.2_ASM1898675v2_raw_nodes","plasmid","plasmid","plasmid",3,"plasmid"
"S42_LN:i:17706_dp:f:0.9459280526437269","GCF_018986755.2_ASM1898675v2_raw_nodes","chromosome","chromosome","chromosome",0,"chromosome"
"S43_LN:i:16682_dp:f:0.9257754924942712","GCF_018986755.2_ASM1898675v2_raw_nodes","chromosome","chromosome","chromosome",0,"chromosome"
"S44_LN:i:15961_dp:f:1.0628224049807609","GCF_018986755.2_ASM1898675v2_raw_nodes","chromosome","plasmid","chromosome",1,"chromosome"
"S45_LN:i:15355_dp:f:0.9906488013208252","GCF_018986755.2_ASM1898675v2_raw_nodes","chromosome","plasmid","chromosome",1,"chromosome"
"S46_LN:i:13588_dp:f:0.9417141275662193","GCF_018986755.2_ASM1898675v2_raw_nodes","chromosome","chromosome","chromosome",0,"chromosome"
"S47_LN:i:13331_dp:f:0.9550302270239619","GCF_018986755.2_ASM1898675v2_raw_nodes","chromosome","chromosome","chromosome",0,"chromosome"
"S48_LN:i:11652_dp:f:1.0273664597992902","GCF_018986755.2_ASM1898675v2_raw_nodes","chromosome","chromosome","chromosome",0,"chromosome"
"S49_LN:i:10990_dp:f:1.7621443893249717","GCF_018986755.2_ASM1898675v2_raw_nodes","plasmid","plasmid","plasmid",3,"plasmid"
"S5_LN:i:174016_dp:f:0.9842101204084222","GCF_018986755.2_ASM1898675v2_raw_nodes","chromosome","chromosome","chromosome",0,"chromosome"
"S50_LN:i:10501_dp:f:2.1091833367645965","GCF_018986755.2_ASM1898675v2_raw_nodes","chromosome","chromosome","chromosome",0,"chromosome"
"S51_LN:i:9671_dp:f:0.984786642676295","GCF_018986755.2_ASM1898675v2_raw_nodes","chromosome","plasmid","chromosome",1,"chromosome"
"S52_LN:i:9637_dp:f:0.9979735911522691","GCF_018986755.2_ASM1898675v2_raw_nodes","chromosome","chromosome","chromosome",0,"chromosome"
"S53_LN:i:9457_dp:f:1.0370452729415292","GCF_018986755.2_ASM1898675v2_raw_nodes","chromosome","chromosome","chromosome",0,"chromosome"
"S54_LN:i:9395_dp:f:0.9579931400260736","GCF_018986755.2_ASM1898675v2_raw_nodes","chromosome","plasmid","chromosome",1,"chromosome"
"S55_LN:i:8994_dp:f:1.542195702173418","GCF_018986755.2_ASM1898675v2_raw_nodes","chromosome","plasmid","plasmid",2,"plasmid"
"S56_LN:i:7447_dp:f:2.1386121379538654","GCF_018986755.2_ASM1898675v2_raw_nodes","plasmid","plasmid","plasmid",3,"plasmid"
"S57_LN:i:7192_dp:f:2.132082183811055","GCF_018986755.2_ASM1898675v2_raw_nodes","plasmid","plasmid","plasmid",3,"plasmid"
"S58_LN:i:7010_dp:f:0.9356555180554643","GCF_018986755.2_ASM1898675v2_raw_nodes","chromosome","plasmid","chromosome",1,"chromosome"
"S59_LN:i:6446_dp:f:2.247174852953925","GCF_018986755.2_ASM1898675v2_raw_nodes","plasmid","plasmid","plasmid",3,"plasmid"
"S6_LN:i:161964_dp:f:0.9751083134827943","GCF_018986755.2_ASM1898675v2_raw_nodes","chromosome","chromosome","chromosome",0,"chromosome"
"S60_LN:i:5616_dp:f:1.0200799096542001","GCF_018986755.2_ASM1898675v2_raw_nodes","chromosome","chromosome","chromosome",0,"chromosome"
"S61_LN:i:5074_dp:f:2.052252297890986","GCF_018986755.2_ASM1898675v2_raw_nodes","plasmid","plasmid","plasmid",3,"plasmid"
"S62_LN:i:4577_dp:f:1.8261655765656206","GCF_018986755.2_ASM1898675v2_raw_nodes","plasmid","plasmid","plasmid",3,"plasmid"
"S63_LN:i:4375_dp:f:1.8065905878534458","GCF_018986755.2_ASM1898675v2_raw_nodes","chromosome","plasmid","plasmid",2,"plasmid"
"S64_LN:i:4045_dp:f:2.074595466825084","GCF_018986755.2_ASM1898675v2_raw_nodes","chromosome","chromosome","chromosome",0,"chromosome"
"S65_LN:i:3781_dp:f:0.9404756329748032","GCF_018986755.2_ASM1898675v2_raw_nodes","chromosome","plasmid","chromosome",1,"chromosome"
"S66_LN:i:3707_dp:f:1.0114855033299943","GCF_018986755.2_ASM1898675v2_raw_nodes","chromosome","chromosome","chromosome",0,"chromosome"
"S67_LN:i:3283_dp:f:3.855334652234351","GCF_018986755.2_ASM1898675v2_raw_nodes","chromosome","chromosome","chromosome",0,"chromosome"
"S68_LN:i:3163_dp:f:0.9253769947101604","GCF_018986755.2_ASM1898675v2_raw_nodes","chromosome","plasmid","chromosome",1,"chromosome"
"S69_LN:i:2819_dp:f:2.1610297245574284","GCF_018986755.2_ASM1898675v2_raw_nodes","plasmid","plasmid","plasmid",3,"plasmid"
"S7_LN:i:131034_dp:f:1.0088328275778924","GCF_018986755.2_ASM1898675v2_raw_nodes","chromosome","chromosome","chromosome",0,"chromosome"
"S70_LN:i:2288_dp:f:0.8863718273945972","GCF_018986755.2_ASM1898675v2_raw_nodes","chromosome","plasmid","chromosome",1,"chromosome"
"S71_LN:i:2056_dp:f:0.5688832234592769","GCF_018986755.2_ASM1898675v2_raw_nodes","chromosome","plasmid","plasmid",2,"plasmid"
"S72_LN:i:1980_dp:f:2.154588521830443","GCF_018986755.2_ASM1898675v2_raw_nodes","plasmid","plasmid","plasmid",3,"plasmid"
"S73_LN:i:1916_dp:f:0.918948849437052","GCF_018986755.2_ASM1898675v2_raw_nodes","plasmid","plasmid","chromosome",2,"plasmid"
"S74_LN:i:1799_dp:f:3.6487309283859526","GCF_018986755.2_ASM1898675v2_raw_nodes","chromosome","chromosome","chromosome",0,"chromosome"
"S75_LN:i:1449_dp:f:5.336275334773973","GCF_018986755.2_ASM1898675v2_raw_nodes","chromosome","chromosome","chromosome",0,"chromosome"
"S76_LN:i:1448_dp:f:1.16262607192615","GCF_018986755.2_ASM1898675v2_raw_nodes","chromosome","plasmid","chromosome",1,"chromosome"
"S77_LN:i:1440_dp:f:18.208103612958215","GCF_018986755.2_ASM1898675v2_raw_nodes","chromosome","chromosome","chromosome",0,"chromosome"
"S78_LN:i:1413_dp:f:2.408699239025333","GCF_018986755.2_ASM1898675v2_raw_nodes","plasmid","plasmid","plasmid",3,"plasmid"
"S79_LN:i:1304_dp:f:1.8254852144951874","GCF_018986755.2_ASM1898675v2_raw_nodes","chromosome","plasmid","chromosome",1,"chromosome"
"S8_LN:i:119730_dp:f:1.0","GCF_018986755.2_ASM1898675v2_raw_nodes","chromosome","chromosome","chromosome",0,"chromosome"
"S80_LN:i:1291_dp:f:3.5477591102002966","GCF_018986755.2_ASM1898675v2_raw_nodes","chromosome","plasmid","chromosome",1,"chromosome"
"S81_LN:i:1201_dp:f:21.80548291324166","GCF_018986755.2_ASM1898675v2_raw_nodes","chromosome","plasmid","chromosome",1,"chromosome"
"S82_LN:i:1155_dp:f:1.9011785382975612","GCF_018986755.2_ASM1898675v2_raw_nodes","chromosome","plasmid","chromosome",1,"chromosome"
"S83_LN:i:1102_dp:f:1.0634439103324025","GCF_018986755.2_ASM1898675v2_raw_nodes","chromosome","chromosome","chromosome",0,"chromosome"
"S84_LN:i:1065_dp:f:3.4023650976025044","GCF_018986755.2_ASM1898675v2_raw_nodes","chromosome","chromosome","chromosome",0,"chromosome"
"S85_LN:i:1009_dp:f:1.1286390412176692","GCF_018986755.2_ASM1898675v2_raw_nodes","chromosome","plasmid","chromosome",1,"chromosome"
"S9_LN:i:118604_dp:f:1.0066783967763602","GCF_018986755.2_ASM1898675v2_raw_nodes","chromosome","chromosome","chromosome",0,"chromosome"
"S1_LN:i:1085803_dp:f:0.911622457611687","GCF_020844125.1_ASM2084412v1_raw_nodes","chromosome","chromosome","chromosome",0,"chromosome"
"S10_LN:i:32267_dp:f:1.2120566294529904","GCF_020844125.1_ASM2084412v1_raw_nodes","chromosome","chromosome","chromosome",0,"chromosome"
"S11_LN:i:30019_dp:f:1.0760041256667237","GCF_020844125.1_ASM2084412v1_raw_nodes","chromosome","chromosome","chromosome",0,"chromosome"
"S12_LN:i:18789_dp:f:0.9797308048690424","GCF_020844125.1_ASM2084412v1_raw_nodes","chromosome","chromosome","chromosome",0,"chromosome"
"S13_LN:i:5643_dp:f:1.605790075601862","GCF_020844125.1_ASM2084412v1_raw_nodes","chromosome","plasmid","chromosome",1,"chromosome"
"S14_LN:i:5386_dp:f:3.8010730893982854","GCF_020844125.1_ASM2084412v1_raw_nodes","chromosome","chromosome","chromosome",0,"chromosome"
"S15_LN:i:4084_dp:f:1.1544420156784208","GCF_020844125.1_ASM2084412v1_raw_nodes","chromosome","chromosome","chromosome",0,"chromosome"
"S16_LN:i:3283_dp:f:5.060849728360367","GCF_020844125.1_ASM2084412v1_raw_nodes","chromosome","chromosome","chromosome",0,"chromosome"
"S17_LN:i:1811_dp:f:5.286240992619944","GCF_020844125.1_ASM2084412v1_raw_nodes","chromosome","chromosome","chromosome",0,"chromosome"
"S18_LN:i:1734_dp:f:1.413616965149895","GCF_020844125.1_ASM2084412v1_raw_nodes","chromosome","plasmid","chromosome",1,"chromosome"
"S19_LN:i:1292_dp:f:2.2948619945771904","GCF_020844125.1_ASM2084412v1_raw_nodes","chromosome","chromosome","chromosome",0,"chromosome"
"S2_LN:i:396505_dp:f:1.0729774580150275","GCF_020844125.1_ASM2084412v1_raw_nodes","chromosome","chromosome","chromosome",0,"chromosome"
"S20_LN:i:1018_dp:f:0.5020666244086284","GCF_020844125.1_ASM2084412v1_raw_nodes","plasmid","plasmid","chromosome",2,"plasmid"
"S3_LN:i:291393_dp:f:1.136480815651137","GCF_020844125.1_ASM2084412v1_raw_nodes","chromosome","chromosome","chromosome",0,"chromosome"
"S4_LN:i:270264_dp:f:1.0320381745959621","GCF_020844125.1_ASM2084412v1_raw_nodes","chromosome","chromosome","chromosome",0,"chromosome"
"S5_LN:i:260820_dp:f:1.2128623062357102","GCF_020844125.1_ASM2084412v1_raw_nodes","chromosome","chromosome","chromosome",0,"chromosome"
"S6_LN:i:240459_dp:f:1.0","GCF_020844125.1_ASM2084412v1_raw_nodes","chromosome","chromosome","chromosome",0,"chromosome"
"S7_LN:i:56701_dp:f:0.5446848012487913","GCF_020844125.1_ASM2084412v1_raw_nodes","plasmid","plasmid","plasmid",3,"plasmid"
"S8_LN:i:45839_dp:f:1.0823505296659899","GCF_020844125.1_ASM2084412v1_raw_nodes","chromosome","chromosome","chromosome",0,"chromosome"
"S9_LN:i:36343_dp:f:1.083345120612824","GCF_020844125.1_ASM2084412v1_raw_nodes","chromosome","chromosome","chromosome",0,"chromosome"
"S1_LN:i:912634_dp:f:0.962714733757452","GCF_021655635.1_ASM2165563v1_raw_nodes","chromosome","chromosome",0,"chromosome"
"S10_LN:i:37717_dp:f:0.9748610275573345","GCF_021655635.1_ASM2165563v1_raw_nodes","plasmid","plasmid",2,"plasmid"
"S11_LN:i:28224_dp:f:1.5355886988755907","GCF_021655635.1_ASM2165563v1_raw_nodes","plasmid","plasmid",2,"plasmid"
"S12_LN:i:27486_dp:f:1.5081027380741523","GCF_021655635.1_ASM2165563v1_raw_nodes","plasmid","plasmid",2,"plasmid"
"S13_LN:i:25752_dp:f:1.0351403065011866","GCF_021655635.1_ASM2165563v1_raw_nodes","chromosome","chromosome",0,"chromosome"
"S14_LN:i:19755_dp:f:0.9929492514379142","GCF_021655635.1_ASM2165563v1_raw_nodes","chromosome","chromosome",0,"chromosome"
"S15_LN:i:13459_dp:f:0.9907185040826917","GCF_021655635.1_ASM2165563v1_raw_nodes","plasmid","chromosome",1,"chromosome"
"S16_LN:i:5100_dp:f:1.0262435652906077","GCF_021655635.1_ASM2165563v1_raw_nodes","plasmid","chromosome",1,"chromosome"
"S17_LN:i:3143_dp:f:3.3981495901366667","GCF_021655635.1_ASM2165563v1_raw_nodes","chromosome","chromosome",0,"chromosome"
"S18_LN:i:2772_dp:f:0.9088083093338201","GCF_021655635.1_ASM2165563v1_raw_nodes","plasmid","chromosome",1,"chromosome"
"S19_LN:i:1815_dp:f:3.3778884555425304","GCF_021655635.1_ASM2165563v1_raw_nodes","chromosome","chromosome",0,"chromosome"
"S2_LN:i:411787_dp:f:1.0","GCF_021655635.1_ASM2165563v1_raw_nodes","chromosome","chromosome",0,"chromosome"
"S20_LN:i:1474_dp:f:1.647685583188601","GCF_021655635.1_ASM2165563v1_raw_nodes","plasmid","chromosome",1,"chromosome"
"S21_LN:i:1468_dp:f:1.6366036260339507","GCF_021655635.1_ASM2165563v1_raw_nodes","chromosome","chromosome",0,"chromosome"
"S3_LN:i:403700_dp:f:1.016329968543853","GCF_021655635.1_ASM2165563v1_raw_nodes","chromosome","chromosome",0,"chromosome"
"S4_LN:i:307934_dp:f:0.9937494739591785","GCF_021655635.1_ASM2165563v1_raw_nodes","chromosome","chromosome",0,"chromosome"
"S5_LN:i:270251_dp:f:1.0108918370029847","GCF_021655635.1_ASM2165563v1_raw_nodes","chromosome","chromosome",0,"chromosome"
"S6_LN:i:217964_dp:f:1.001815465230607","GCF_021655635.1_ASM2165563v1_raw_nodes","chromosome","chromosome",0,"chromosome"
"S7_LN:i:82658_dp:f:1.0165003594147524","GCF_021655635.1_ASM2165563v1_raw_nodes","chromosome","chromosome",0,"chromosome"
"S8_LN:i:62198_dp:f:1.0104903936580172","GCF_021655635.1_ASM2165563v1_raw_nodes","chromosome","chromosome",0,"chromosome"
"S9_LN:i:49395_dp:f:0.9701573407511266","GCF_021655635.1_ASM2165563v1_raw_nodes","chromosome","chromosome",0,"chromosome"
"S1_LN:i:316105_dp:f:0.9025929378505629","GCF_022648285.1_ASM2264828v1_raw_nodes","chromosome","chromosome","chromosome",0,"chromosome"
"S10_LN:i:105184_dp:f:0.9956973956564078","GCF_022648285.1_ASM2264828v1_raw_nodes","chromosome","chromosome","chromosome",0,"chromosome"
"S11_LN:i:99800_dp:f:0.9748210990541236","GCF_022648285.1_ASM2264828v1_raw_nodes","chromosome","chromosome","chromosome",0,"chromosome"
"S12_LN:i:97941_dp:f:1.0406013059238313","GCF_022648285.1_ASM2264828v1_raw_nodes","chromosome","chromosome","chromosome",0,"chromosome"
"S13_LN:i:97116_dp:f:1.0045614857189487","GCF_022648285.1_ASM2264828v1_raw_nodes","chromosome","chromosome","chromosome",0,"chromosome"
"S14_LN:i:96741_dp:f:0.9251509564942079","GCF_022648285.1_ASM2264828v1_raw_nodes","chromosome","chromosome","chromosome",0,"chromosome"
"S15_LN:i:73841_dp:f:0.9922550295918642","GCF_022648285.1_ASM2264828v1_raw_nodes","chromosome","chromosome","chromosome",0,"chromosome"
"S16_LN:i:73030_dp:f:1.0193895266573405","GCF_022648285.1_ASM2264828v1_raw_nodes","chromosome","chromosome","chromosome",0,"chromosome"
"S17_LN:i:68051_dp:f:1.0503198694471014","GCF_022648285.1_ASM2264828v1_raw_nodes","chromosome","chromosome","chromosome",0,"chromosome"
"S18_LN:i:60165_dp:f:1.0127485838183903","GCF_022648285.1_ASM2264828v1_raw_nodes","chromosome","chromosome","chromosome",0,"chromosome"
"S19_LN:i:56975_dp:f:0.9794890113528679","GCF_022648285.1_ASM2264828v1_raw_nodes","chromosome","chromosome","chromosome",0,"chromosome"
"S2_LN:i:200587_dp:f:1.0526854442360463","GCF_022648285.1_ASM2264828v1_raw_nodes","chromosome","chromosome","chromosome",0,"chromosome"
"S20_LN:i:51906_dp:f:1.0258896777763584","GCF_022648285.1_ASM2264828v1_raw_nodes","chromosome","chromosome","chromosome",0,"chromosome"
"S21_LN:i:48769_dp:f:1.027495792305708","GCF_022648285.1_ASM2264828v1_raw_nodes","chromosome","chromosome","chromosome",0,"chromosome"
"S22_LN:i:37917_dp:f:0.9137199100670842","GCF_022648285.1_ASM2264828v1_raw_nodes","chromosome","chromosome","chromosome",0,"chromosome"
"S23_LN:i:37750_dp:f:1.5582357408421974","GCF_022648285.1_ASM2264828v1_raw_nodes","chromosome","plasmid","plasmid",2,"plasmid"
"S24_LN:i:32753_dp:f:1.4335403067851604","GCF_022648285.1_ASM2264828v1_raw_nodes","plasmid","plasmid","plasmid",3,"plasmid"
"S25_LN:i:30032_dp:f:1.010917746678732","GCF_022648285.1_ASM2264828v1_raw_nodes","chromosome","chromosome","chromosome",0,"chromosome"
"S26_LN:i:28234_dp:f:0.9526971869254152","GCF_022648285.1_ASM2264828v1_raw_nodes","chromosome","chromosome","chromosome",0,"chromosome"
"S27_LN:i:27144_dp:f:1.4711968635308361","GCF_022648285.1_ASM2264828v1_raw_nodes","plasmid","plasmid","plasmid",3,"plasmid"
"S28_LN:i:20171_dp:f:1.0248101610942646","GCF_022648285.1_ASM2264828v1_raw_nodes","chromosome","chromosome","chromosome",0,"chromosome"
"S29_LN:i:19448_dp:f:1.7233700190716406","GCF_022648285.1_ASM2264828v1_raw_nodes","plasmid","plasmid","plasmid",3,"plasmid"
"S3_LN:i:191018_dp:f:1.0309975936577633","GCF_022648285.1_ASM2264828v1_raw_nodes","chromosome","chromosome","chromosome",0,"chromosome"
"S30_LN:i:19263_dp:f:0.9945686444333173","GCF_022648285.1_ASM2264828v1_raw_nodes","chromosome","chromosome","chromosome",0,"chromosome"
"S31_LN:i:18999_dp:f:0.9475605874407708","GCF_022648285.1_ASM2264828v1_raw_nodes","chromosome","chromosome","chromosome",0,"chromosome"
"S32_LN:i:18034_dp:f:2.1944590124347902","GCF_022648285.1_ASM2264828v1_raw_nodes","chromosome","plasmid","chromosome",1,"chromosome"
"S33_LN:i:17022_dp:f:1.02641726367729","GCF_022648285.1_ASM2264828v1_raw_nodes","chromosome","chromosome","chromosome",0,"chromosome"
"S34_LN:i:16965_dp:f:1.005438888821957","GCF_022648285.1_ASM2264828v1_raw_nodes","chromosome","chromosome","chromosome",0,"chromosome"
"S35_LN:i:14390_dp:f:1.5337221428893808","GCF_022648285.1_ASM2264828v1_raw_nodes","plasmid","plasmid","chromosome",2,"plasmid"
"S36_LN:i:13120_dp:f:0.9897382797078196","GCF_022648285.1_ASM2264828v1_raw_nodes","chromosome","chromosome","chromosome",0,"chromosome"
"S37_LN:i:12935_dp:f:1.4868911446880284","GCF_022648285.1_ASM2264828v1_raw_nodes","plasmid","plasmid","plasmid",3,"plasmid"
"S38_LN:i:12441_dp:f:0.8889287524310902","GCF_022648285.1_ASM2264828v1_raw_nodes","chromosome","plasmid","chromosome",1,"chromosome"
"S39_LN:i:10931_dp:f:1.4438956636211546","GCF_022648285.1_ASM2264828v1_raw_nodes","plasmid","plasmid","plasmid",3,"plasmid"
"S4_LN:i:190156_dp:f:1.0","GCF_022648285.1_ASM2264828v1_raw_nodes","chromosome","chromosome","chromosome",0,"chromosome"
"S40_LN:i:10342_dp:f:1.7406902792841459","GCF_022648285.1_ASM2264828v1_raw_nodes","plasmid","plasmid","chromosome",2,"plasmid"
"S41_LN:i:9961_dp:f:0.9060778308457463","GCF_022648285.1_ASM2264828v1_raw_nodes","chromosome","chromosome","chromosome",0,"chromosome"
"S42_LN:i:8687_dp:f:0.9998667032495022","GCF_022648285.1_ASM2264828v1_raw_nodes","chromosome","plasmid","chromosome",1,"chromosome"
"S43_LN:i:6853_dp:f:1.8765964234655723","GCF_022648285.1_ASM2264828v1_raw_nodes","chromosome","plasmid","plasmid",2,"plasmid"
"S44_LN:i:5680_dp:f:0.9673413303839145","GCF_022648285.1_ASM2264828v1_raw_nodes","chromosome","plasmid","chromosome",1,"chromosome"
"S45_LN:i:5433_dp:f:1.8728668218630964","GCF_022648285.1_ASM2264828v1_raw_nodes","plasmid","plasmid","plasmid",3,"plasmid"
"S46_LN:i:5032_dp:f:1.5338656452090864","GCF_022648285.1_ASM2264828v1_raw_nodes","plasmid","plasmid","plasmid",3,"plasmid"
"S47_LN:i:4877_dp:f:1.0261260204323195","GCF_022648285.1_ASM2264828v1_raw_nodes","chromosome","chromosome","chromosome",0,"chromosome"
"S48_LN:i:4873_dp:f:1.7444204077197776","GCF_022648285.1_ASM2264828v1_raw_nodes","plasmid","plasmid","plasmid",3,"plasmid"
"S49_LN:i:4821_dp:f:1.0329861682386183","GCF_022648285.1_ASM2264828v1_raw_nodes","chromosome","chromosome","chromosome",0,"chromosome"
"S5_LN:i:188829_dp:f:1.0175562727637513","GCF_022648285.1_ASM2264828v1_raw_nodes","chromosome","chromosome","chromosome",0,"chromosome"
"S50_LN:i:4666_dp:f:2.1191410603202283","GCF_022648285.1_ASM2264828v1_raw_nodes","chromosome","chromosome","chromosome",0,"chromosome"
"S51_LN:i:4534_dp:f:0.9890294861808949","GCF_022648285.1_ASM2264828v1_raw_nodes","chromosome","plasmid","chromosome",1,"chromosome"
"S52_LN:i:4414_dp:f:1.874529662304775","GCF_022648285.1_ASM2264828v1_raw_nodes","chromosome","plasmid","plasmid",2,"plasmid"
"S53_LN:i:4395_dp:f:1.650409741540051","GCF_022648285.1_ASM2264828v1_raw_nodes","chromosome","plasmid","plasmid",2,"plasmid"
"S54_LN:i:4193_dp:f:0.9484635611802164","GCF_022648285.1_ASM2264828v1_raw_nodes","chromosome","chromosome","chromosome",0,"chromosome"
"S55_LN:i:4147_dp:f:1.871575760088877","GCF_022648285.1_ASM2264828v1_raw_nodes","plasmid","plasmid","plasmid",3,"plasmid"
"S56_LN:i:3945_dp:f:3.616804826417698","GCF_022648285.1_ASM2264828v1_raw_nodes","plasmid","plasmid","plasmid",3,"plasmid"
"S57_LN:i:3445_dp:f:0.9480756093405768","GCF_022648285.1_ASM2264828v1_raw_nodes","chromosome","chromosome","chromosome",0,"chromosome"
"S58_LN:i:3283_dp:f:4.461145845585305","GCF_022648285.1_ASM2264828v1_raw_nodes","chromosome","chromosome","chromosome",0,"chromosome"
"S59_LN:i:2929_dp:f:1.965594223440034","GCF_022648285.1_ASM2264828v1_raw_nodes","chromosome","plasmid","chromosome",1,"chromosome"
"S6_LN:i:181955_dp:f:0.9523545452119484","GCF_022648285.1_ASM2264828v1_raw_nodes","chromosome","chromosome","chromosome",0,"chromosome"
"S60_LN:i:2865_dp:f:1.8596291315062294","GCF_022648285.1_ASM2264828v1_raw_nodes","plasmid","plasmid","plasmid",3,"plasmid"
"S61_LN:i:2824_dp:f:2.053564124688247","GCF_022648285.1_ASM2264828v1_raw_nodes","chromosome","chromosome","plasmid",1,"chromosome"
"S62_LN:i:2324_dp:f:2.628063971774861","GCF_022648285.1_ASM2264828v1_raw_nodes","plasmid","plasmid","chromosome",2,"plasmid"
"S63_LN:i:2316_dp:f:2.3011160437476676","GCF_022648285.1_ASM2264828v1_raw_nodes","plasmid","plasmid","plasmid",3,"plasmid"
"S64_LN:i:2045_dp:f:1.3900431542104472","GCF_022648285.1_ASM2264828v1_raw_nodes","plasmid","plasmid","plasmid",3,"plasmid"
"S65_LN:i:2034_dp:f:3.3698654109253545","GCF_022648285.1_ASM2264828v1_raw_nodes","plasmid","plasmid","chromosome",2,"plasmid"
"S66_LN:i:1868_dp:f:0.9785739900245399","GCF_022648285.1_ASM2264828v1_raw_nodes","chromosome","plasmid","plasmid",2,"plasmid"
"S67_LN:i:1830_dp:f:2.113843648430931","GCF_022648285.1_ASM2264828v1_raw_nodes","chromosome","chromosome","chromosome",0,"chromosome"
"S68_LN:i:1715_dp:f:2.411738804976862","GCF_022648285.1_ASM2264828v1_raw_nodes","plasmid","plasmid","chromosome",2,"plasmid"
"S69_LN:i:1396_dp:f:2.203994646655064","GCF_022648285.1_ASM2264828v1_raw_nodes","chromosome","chromosome","chromosome",0,"chromosome"
"S7_LN:i:159891_dp:f:1.0222143698267372","GCF_022648285.1_ASM2264828v1_raw_nodes","chromosome","chromosome","chromosome",0,"chromosome"
"S70_LN:i:1349_dp:f:2.6033109147276465","GCF_022648285.1_ASM2264828v1_raw_nodes","plasmid","plasmid","chromosome",2,"plasmid"
"S71_LN:i:1318_dp:f:4.451756961622083","GCF_022648285.1_ASM2264828v1_raw_nodes","chromosome","chromosome","chromosome",0,"chromosome"
"S72_LN:i:1301_dp:f:2.6670000155563263","GCF_022648285.1_ASM2264828v1_raw_nodes","chromosome","chromosome","plasmid",1,"chromosome"
"S73_LN:i:1271_dp:f:1.5347525612256117","GCF_022648285.1_ASM2264828v1_raw_nodes","chromosome","plasmid","chromosome",1,"chromosome"
"S74_LN:i:1271_dp:f:0.9864892085874251","GCF_022648285.1_ASM2264828v1_raw_nodes","chromosome","plasmid","chromosome",1,"chromosome"
"S75_LN:i:1229_dp:f:1.9163488889787286","GCF_022648285.1_ASM2264828v1_raw_nodes","chromosome","plasmid","plasmid",2,"plasmid"
"S76_LN:i:1201_dp:f:8.701867799907793","GCF_022648285.1_ASM2264828v1_raw_nodes","chromosome","plasmid","chromosome",1,"chromosome"
"S77_LN:i:1112_dp:f:1.5163388088439784","GCF_022648285.1_ASM2264828v1_raw_nodes","chromosome","plasmid","chromosome",1,"chromosome"
"S78_LN:i:1110_dp:f:1.0595585109395254","GCF_022648285.1_ASM2264828v1_raw_nodes","chromosome","plasmid","chromosome",1,"chromosome"
"S79_LN:i:1063_dp:f:2.6475839350848815","GCF_022648285.1_ASM2264828v1_raw_nodes","plasmid","plasmid","chromosome",2,"plasmid"
"S8_LN:i:143356_dp:f:0.9587235821765443","GCF_022648285.1_ASM2264828v1_raw_nodes","chromosome","chromosome","chromosome",0,"chromosome"
"S80_LN:i:1040_dp:f:4.008731486998882","GCF_022648285.1_ASM2264828v1_raw_nodes","plasmid","plasmid","chromosome",2,"plasmid"
"S81_LN:i:1024_dp:f:8.528442125539081","GCF_022648285.1_ASM2264828v1_raw_nodes","chromosome","plasmid","chromosome",1,"chromosome"
"S9_LN:i:131875_dp:f:0.9453666540734562","GCF_022648285.1_ASM2264828v1_raw_nodes","chromosome","chromosome","chromosome",0,"chromosome"
"S1_LN:i:316105_dp:f:0.9092387317128994","GCF_022648425.1_ASM2264842v1_raw_nodes","chromosome","chromosome","chromosome",0,"chromosome"
"S10_LN:i:105182_dp:f:0.990510960839975","GCF_022648425.1_ASM2264842v1_raw_nodes","chromosome","chromosome","chromosome",0,"chromosome"
"S11_LN:i:99800_dp:f:0.9664447017452512","GCF_022648425.1_ASM2264842v1_raw_nodes","chromosome","chromosome","chromosome",0,"chromosome"
"S12_LN:i:97941_dp:f:1.030409330458492","GCF_022648425.1_ASM2264842v1_raw_nodes","chromosome","chromosome","chromosome",0,"chromosome"
"S13_LN:i:97116_dp:f:1.005411402944696","GCF_022648425.1_ASM2264842v1_raw_nodes","chromosome","chromosome","chromosome",0,"chromosome"
"S14_LN:i:96741_dp:f:0.934548279347085","GCF_022648425.1_ASM2264842v1_raw_nodes","chromosome","chromosome","chromosome",0,"chromosome"
"S15_LN:i:73841_dp:f:0.9935553891385192","GCF_022648425.1_ASM2264842v1_raw_nodes","chromosome","chromosome","chromosome",0,"chromosome"
"S16_LN:i:73030_dp:f:1.0266857521289545","GCF_022648425.1_ASM2264842v1_raw_nodes","chromosome","chromosome","chromosome",0,"chromosome"
"S17_LN:i:68051_dp:f:1.0511630960537954","GCF_022648425.1_ASM2264842v1_raw_nodes","chromosome","chromosome","chromosome",0,"chromosome"
"S18_LN:i:60165_dp:f:1.000818341712346","GCF_022648425.1_ASM2264842v1_raw_nodes","chromosome","chromosome","chromosome",0,"chromosome"
"S19_LN:i:56975_dp:f:0.9749205508887571","GCF_022648425.1_ASM2264842v1_raw_nodes","chromosome","chromosome","chromosome",0,"chromosome"
"S2_LN:i:200587_dp:f:1.0513454881571374","GCF_022648425.1_ASM2264842v1_raw_nodes","chromosome","chromosome","chromosome",0,"chromosome"
"S20_LN:i:51875_dp:f:1.0247191854766093","GCF_022648425.1_ASM2264842v1_raw_nodes","chromosome","chromosome","chromosome",0,"chromosome"
"S21_LN:i:48769_dp:f:1.0262875424332785","GCF_022648425.1_ASM2264842v1_raw_nodes","chromosome","chromosome","chromosome",0,"chromosome"
"S22_LN:i:37917_dp:f:0.9095742053939488","GCF_022648425.1_ASM2264842v1_raw_nodes","chromosome","chromosome","chromosome",0,"chromosome"
"S23_LN:i:37750_dp:f:1.4852839999088272","GCF_022648425.1_ASM2264842v1_raw_nodes","chromosome","plasmid","plasmid",2,"plasmid"
"S24_LN:i:32753_dp:f:1.364648755005677","GCF_022648425.1_ASM2264842v1_raw_nodes","plasmid","plasmid","plasmid",3,"plasmid"
"S25_LN:i:30032_dp:f:0.9857364194275186","GCF_022648425.1_ASM2264842v1_raw_nodes","chromosome","chromosome","chromosome",0,"chromosome"
"S26_LN:i:28234_dp:f:0.9597823393018364","GCF_022648425.1_ASM2264842v1_raw_nodes","chromosome","chromosome","chromosome",0,"chromosome"
"S27_LN:i:27144_dp:f:1.4130699012645018","GCF_022648425.1_ASM2264842v1_raw_nodes","plasmid","plasmid","plasmid",3,"plasmid"
"S28_LN:i:20171_dp:f:1.0146323171068954","GCF_022648425.1_ASM2264842v1_raw_nodes","chromosome","chromosome","chromosome",0,"chromosome"
"S29_LN:i:19448_dp:f:1.6323593965235386","GCF_022648425.1_ASM2264842v1_raw_nodes","plasmid","plasmid","plasmid",3,"plasmid"
"S3_LN:i:191050_dp:f:1.0335780836587671","GCF_022648425.1_ASM2264842v1_raw_nodes","chromosome","chromosome","chromosome",0,"chromosome"
"S30_LN:i:19263_dp:f:1.0079448204478494","GCF_022648425.1_ASM2264842v1_raw_nodes","chromosome","chromosome","chromosome",0,"chromosome"
"S31_LN:i:18999_dp:f:0.9650503408935963","GCF_022648425.1_ASM2264842v1_raw_nodes","chromosome","chromosome","chromosome",0,"chromosome"
"S32_LN:i:18034_dp:f:2.148153714774959","GCF_022648425.1_ASM2264842v1_raw_nodes","chromosome","plasmid","chromosome",1,"chromosome"
"S33_LN:i:17022_dp:f:0.9978698382096656","GCF_022648425.1_ASM2264842v1_raw_nodes","chromosome","chromosome","chromosome",0,"chromosome"
"S34_LN:i:16964_dp:f:1.0124172560172495","GCF_022648425.1_ASM2264842v1_raw_nodes","chromosome","chromosome","chromosome",0,"chromosome"
"S35_LN:i:14390_dp:f:1.4787642097431093","GCF_022648425.1_ASM2264842v1_raw_nodes","plasmid","plasmid","chromosome",2,"plasmid"
"S36_LN:i:13215_dp:f:0.9654688627280188","GCF_022648425.1_ASM2264842v1_raw_nodes","chromosome","plasmid","chromosome",1,"chromosome"
"S37_LN:i:13120_dp:f:0.9534214636321273","GCF_022648425.1_ASM2264842v1_raw_nodes","chromosome","chromosome","chromosome",0,"chromosome"
"S38_LN:i:12935_dp:f:1.417018153058751","GCF_022648425.1_ASM2264842v1_raw_nodes","plasmid","plasmid","plasmid",3,"plasmid"
"S39_LN:i:12441_dp:f:0.8654335392370891","GCF_022648425.1_ASM2264842v1_raw_nodes","chromosome","plasmid","chromosome",1,"chromosome"
"S4_LN:i:190156_dp:f:1.0","GCF_022648425.1_ASM2264842v1_raw_nodes","chromosome","chromosome","chromosome",0,"chromosome"
"S40_LN:i:10931_dp:f:1.3992909961486595","GCF_022648425.1_ASM2264842v1_raw_nodes","plasmid","plasmid","plasmid",3,"plasmid"
"S41_LN:i:10342_dp:f:1.6846684114293748","GCF_022648425.1_ASM2264842v1_raw_nodes","plasmid","plasmid","chromosome",2,"plasmid"
"S42_LN:i:9961_dp:f:0.9028007819090499","GCF_022648425.1_ASM2264842v1_raw_nodes","chromosome","chromosome","chromosome",0,"chromosome"
"S43_LN:i:6853_dp:f:1.7949329250262298","GCF_022648425.1_ASM2264842v1_raw_nodes","chromosome","plasmid","plasmid",2,"plasmid"
"S44_LN:i:5681_dp:f:0.9571311438547457","GCF_022648425.1_ASM2264842v1_raw_nodes","chromosome","plasmid","chromosome",1,"chromosome"
"S45_LN:i:5433_dp:f:1.7636461815151256","GCF_022648425.1_ASM2264842v1_raw_nodes","plasmid","plasmid","plasmid",3,"plasmid"
"S46_LN:i:5032_dp:f:1.4760228855495727","GCF_022648425.1_ASM2264842v1_raw_nodes","chromosome","plasmid","plasmid",2,"plasmid"
"S47_LN:i:4877_dp:f:1.0541710176918075","GCF_022648425.1_ASM2264842v1_raw_nodes","chromosome","chromosome","chromosome",0,"chromosome"
"S48_LN:i:4873_dp:f:1.6918615306729883","GCF_022648425.1_ASM2264842v1_raw_nodes","plasmid","plasmid","plasmid",3,"plasmid"
"S49_LN:i:4821_dp:f:1.052961518895148","GCF_022648425.1_ASM2264842v1_raw_nodes","chromosome","chromosome","chromosome",0,"chromosome"
"S5_LN:i:188829_dp:f:1.0154615627515087","GCF_022648425.1_ASM2264842v1_raw_nodes","chromosome","chromosome","chromosome",0,"chromosome"
"S50_LN:i:4666_dp:f:2.061764165536041","GCF_022648425.1_ASM2264842v1_raw_nodes","chromosome","chromosome","chromosome",0,"chromosome"
"S51_LN:i:4414_dp:f:1.7192617568014967","GCF_022648425.1_ASM2264842v1_raw_nodes","chromosome","plasmid","plasmid",2,"plasmid"
"S52_LN:i:4395_dp:f:1.5560928432934709","GCF_022648425.1_ASM2264842v1_raw_nodes","chromosome","plasmid","plasmid",2,"plasmid"
"S53_LN:i:4193_dp:f:0.9458577052608806","GCF_022648425.1_ASM2264842v1_raw_nodes","chromosome","chromosome","chromosome",0,"chromosome"
"S54_LN:i:4147_dp:f:1.6718203985884428","GCF_022648425.1_ASM2264842v1_raw_nodes","plasmid","plasmid","plasmid",3,"plasmid"
"S55_LN:i:3945_dp:f:3.3934258900440923","GCF_022648425.1_ASM2264842v1_raw_nodes","chromosome","plasmid","plasmid",2,"plasmid"
"S56_LN:i:3445_dp:f:0.9116974584989119","GCF_022648425.1_ASM2264842v1_raw_nodes","chromosome","chromosome","chromosome",0,"chromosome"
"S57_LN:i:3283_dp:f:4.361565232229471","GCF_022648425.1_ASM2264842v1_raw_nodes","chromosome","chromosome","chromosome",0,"chromosome"
"S58_LN:i:2929_dp:f:1.9173143305610472","GCF_022648425.1_ASM2264842v1_raw_nodes","chromosome","plasmid","chromosome",1,"chromosome"
"S59_LN:i:2864_dp:f:1.74464236203432","GCF_022648425.1_ASM2264842v1_raw_nodes","plasmid","plasmid","plasmid",3,"plasmid"
"S6_LN:i:181955_dp:f:0.9521163465624944","GCF_022648425.1_ASM2264842v1_raw_nodes","chromosome","chromosome","chromosome",0,"chromosome"
"S60_LN:i:2824_dp:f:2.137868744213077","GCF_022648425.1_ASM2264842v1_raw_nodes","chromosome","chromosome","plasmid",1,"chromosome"
"S61_LN:i:2324_dp:f:2.524926626522801","GCF_022648425.1_ASM2264842v1_raw_nodes","plasmid","plasmid","chromosome",2,"plasmid"
"S62_LN:i:2316_dp:f:2.2580193952502126","GCF_022648425.1_ASM2264842v1_raw_nodes","plasmid","plasmid","plasmid",3,"plasmid"
"S63_LN:i:2045_dp:f:1.3321107045545193","GCF_022648425.1_ASM2264842v1_raw_nodes","plasmid","plasmid","plasmid",3,"plasmid"
"S64_LN:i:2034_dp:f:3.2080095741466526","GCF_022648425.1_ASM2264842v1_raw_nodes","plasmid","plasmid","chromosome",2,"plasmid"
"S65_LN:i:1868_dp:f:0.9625985476843096","GCF_022648425.1_ASM2264842v1_raw_nodes","chromosome","plasmid","plasmid",2,"plasmid"
"S66_LN:i:1830_dp:f:2.130954482450934","GCF_022648425.1_ASM2264842v1_raw_nodes","chromosome","chromosome","chromosome",0,"chromosome"
"S67_LN:i:1738_dp:f:4.470979580194723","GCF_022648425.1_ASM2264842v1_raw_nodes","chromosome","chromosome","chromosome",0,"chromosome"
"S68_LN:i:1715_dp:f:2.355192420645522","GCF_022648425.1_ASM2264842v1_raw_nodes","plasmid","plasmid","chromosome",2,"plasmid"
"S69_LN:i:1396_dp:f:2.2269909893790825","GCF_022648425.1_ASM2264842v1_raw_nodes","chromosome","chromosome","chromosome",0,"chromosome"
"S7_LN:i:159891_dp:f:1.0218001877737055","GCF_022648425.1_ASM2264842v1_raw_nodes","chromosome","chromosome","chromosome",0,"chromosome"
"S70_LN:i:1349_dp:f:2.6177463871986864","GCF_022648425.1_ASM2264842v1_raw_nodes","chromosome","plasmid","chromosome",1,"chromosome"
"S71_LN:i:1301_dp:f:2.6169654002595317","GCF_022648425.1_ASM2264842v1_raw_nodes","chromosome","chromosome","plasmid",1,"chromosome"
"S72_LN:i:1271_dp:f:1.045797661118362","GCF_022648425.1_ASM2264842v1_raw_nodes","chromosome","plasmid","chromosome",1,"chromosome"
"S73_LN:i:1271_dp:f:1.417837075751687","GCF_022648425.1_ASM2264842v1_raw_nodes","chromosome","plasmid","chromosome",1,"chromosome"
"S74_LN:i:1229_dp:f:1.7594854783171823","GCF_022648425.1_ASM2264842v1_raw_nodes","chromosome","plasmid","plasmid",2,"plasmid"
"S75_LN:i:1204_dp:f:7.938025785519129","GCF_022648425.1_ASM2264842v1_raw_nodes","chromosome","plasmid","chromosome",1,"chromosome"
"S76_LN:i:1112_dp:f:1.3773918202689162","GCF_022648425.1_ASM2264842v1_raw_nodes","chromosome","plasmid","chromosome",1,"chromosome"
"S77_LN:i:1110_dp:f:1.0631277337496208","GCF_022648425.1_ASM2264842v1_raw_nodes","chromosome","plasmid","chromosome",1,"chromosome"
"S78_LN:i:1063_dp:f:2.559084551774705","GCF_022648425.1_ASM2264842v1_raw_nodes","plasmid","plasmid","chromosome",2,"plasmid"
"S79_LN:i:1040_dp:f:4.024967878401844","GCF_022648425.1_ASM2264842v1_raw_nodes","plasmid","plasmid","chromosome",2,"plasmid"
"S8_LN:i:143356_dp:f:0.9667303499149049","GCF_022648425.1_ASM2264842v1_raw_nodes","chromosome","chromosome","chromosome",0,"chromosome"
"S80_LN:i:1024_dp:f:8.340976013800454","GCF_022648425.1_ASM2264842v1_raw_nodes","chromosome","plasmid","chromosome",1,"chromosome"
"S9_LN:i:131875_dp:f:0.9540778628644889","GCF_022648425.1_ASM2264842v1_raw_nodes","chromosome","chromosome","chromosome",0,"chromosome"
"S1_LN:i:316105_dp:f:0.9127411935872176","GCF_022648595.1_ASM2264859v1_raw_nodes","chromosome","chromosome","chromosome",0,"chromosome"
"S10_LN:i:105182_dp:f:0.9985338949455457","GCF_022648595.1_ASM2264859v1_raw_nodes","chromosome","chromosome","chromosome",0,"chromosome"
"S11_LN:i:99800_dp:f:0.9854291580952181","GCF_022648595.1_ASM2264859v1_raw_nodes","chromosome","chromosome","chromosome",0,"chromosome"
"S12_LN:i:97941_dp:f:1.0415941008211531","GCF_022648595.1_ASM2264859v1_raw_nodes","chromosome","chromosome","chromosome",0,"chromosome"
"S13_LN:i:97116_dp:f:1.0097014361156142","GCF_022648595.1_ASM2264859v1_raw_nodes","chromosome","chromosome","chromosome",0,"chromosome"
"S14_LN:i:96741_dp:f:0.93934213936517","GCF_022648595.1_ASM2264859v1_raw_nodes","chromosome","chromosome","chromosome",0,"chromosome"
"S15_LN:i:73841_dp:f:1.0053130599430455","GCF_022648595.1_ASM2264859v1_raw_nodes","chromosome","chromosome","chromosome",0,"chromosome"
"S16_LN:i:73030_dp:f:1.0249650475893046","GCF_022648595.1_ASM2264859v1_raw_nodes","chromosome","chromosome","chromosome",0,"chromosome"
"S17_LN:i:68051_dp:f:1.071301194728738","GCF_022648595.1_ASM2264859v1_raw_nodes","chromosome","chromosome","chromosome",0,"chromosome"
"S18_LN:i:60165_dp:f:0.9938555440661001","GCF_022648595.1_ASM2264859v1_raw_nodes","chromosome","chromosome","chromosome",0,"chromosome"
"S19_LN:i:56975_dp:f:0.9757574080250832","GCF_022648595.1_ASM2264859v1_raw_nodes","chromosome","chromosome","chromosome",0,"chromosome"
"S2_LN:i:200587_dp:f:1.0610307136288222","GCF_022648595.1_ASM2264859v1_raw_nodes","chromosome","chromosome","chromosome",0,"chromosome"
"S20_LN:i:51875_dp:f:1.0274040623295615","GCF_022648595.1_ASM2264859v1_raw_nodes","chromosome","chromosome","chromosome",0,"chromosome"
"S21_LN:i:48769_dp:f:1.0417513459702432","GCF_022648595.1_ASM2264859v1_raw_nodes","chromosome","chromosome","chromosome",0,"chromosome"
"S22_LN:i:37917_dp:f:0.9021551316560111","GCF_022648595.1_ASM2264859v1_raw_nodes","chromosome","chromosome","chromosome",0,"chromosome"
"S23_LN:i:37750_dp:f:1.5270371980897557","GCF_022648595.1_ASM2264859v1_raw_nodes","chromosome","plasmid","plasmid",2,"plasmid"
"S24_LN:i:32753_dp:f:1.3968566163910725","GCF_022648595.1_ASM2264859v1_raw_nodes","plasmid","plasmid","plasmid",3,"plasmid"
"S25_LN:i:30032_dp:f:0.9952079458864281","GCF_022648595.1_ASM2264859v1_raw_nodes","chromosome","chromosome","chromosome",0,"chromosome"
"S26_LN:i:28234_dp:f:0.954120631610278","GCF_022648595.1_ASM2264859v1_raw_nodes","chromosome","chromosome","chromosome",0,"chromosome"
"S27_LN:i:27144_dp:f:1.442388355099325","GCF_022648595.1_ASM2264859v1_raw_nodes","plasmid","plasmid","plasmid",3,"plasmid"
"S28_LN:i:20171_dp:f:1.040772220493811","GCF_022648595.1_ASM2264859v1_raw_nodes","chromosome","chromosome","chromosome",0,"chromosome"
"S29_LN:i:19448_dp:f:1.693646144596407","GCF_022648595.1_ASM2264859v1_raw_nodes","plasmid","plasmid","plasmid",3,"plasmid"
"S3_LN:i:191050_dp:f:1.0424229529604851","GCF_022648595.1_ASM2264859v1_raw_nodes","chromosome","chromosome","chromosome",0,"chromosome"
"S30_LN:i:19263_dp:f:1.0110618877299657","GCF_022648595.1_ASM2264859v1_raw_nodes","chromosome","chromosome","chromosome",0,"chromosome"
"S31_LN:i:18999_dp:f:0.9527136296033392","GCF_022648595.1_ASM2264859v1_raw_nodes","chromosome","chromosome","chromosome",0,"chromosome"
"S32_LN:i:18034_dp:f:2.159639681614865","GCF_022648595.1_ASM2264859v1_raw_nodes","chromosome","plasmid","chromosome",1,"chromosome"
"S33_LN:i:17022_dp:f:1.0153146922583949","GCF_022648595.1_ASM2264859v1_raw_nodes","chromosome","chromosome","chromosome",0,"chromosome"
"S34_LN:i:16929_dp:f:1.0209593826647145","GCF_022648595.1_ASM2264859v1_raw_nodes","chromosome","chromosome","chromosome",0,"chromosome"
"S35_LN:i:14390_dp:f:1.5296394533033564","GCF_022648595.1_ASM2264859v1_raw_nodes","plasmid","plasmid","chromosome",2,"plasmid"
"S36_LN:i:13215_dp:f:0.9528441382548578","GCF_022648595.1_ASM2264859v1_raw_nodes","chromosome","plasmid","chromosome",1,"chromosome"
"S37_LN:i:13120_dp:f:0.9625122686965523","GCF_022648595.1_ASM2264859v1_raw_nodes","chromosome","chromosome","chromosome",0,"chromosome"
"S38_LN:i:12935_dp:f:1.4768982696705568","GCF_022648595.1_ASM2264859v1_raw_nodes","plasmid","plasmid","plasmid",3,"plasmid"
"S39_LN:i:12441_dp:f:0.8814724061306912","GCF_022648595.1_ASM2264859v1_raw_nodes","chromosome","plasmid","chromosome",1,"chromosome"
"S4_LN:i:190156_dp:f:1.0","GCF_022648595.1_ASM2264859v1_raw_nodes","chromosome","chromosome","chromosome",0,"chromosome"
"S40_LN:i:10931_dp:f:1.4496703226158214","GCF_022648595.1_ASM2264859v1_raw_nodes","plasmid","plasmid","plasmid",3,"plasmid"
"S41_LN:i:10342_dp:f:1.6741145377647262","GCF_022648595.1_ASM2264859v1_raw_nodes","plasmid","plasmid","chromosome",2,"plasmid"
"S42_LN:i:9961_dp:f:0.9159302961479384","GCF_022648595.1_ASM2264859v1_raw_nodes","chromosome","chromosome","chromosome",0,"chromosome"
"S43_LN:i:6853_dp:f:1.7458451192622242","GCF_022648595.1_ASM2264859v1_raw_nodes","chromosome","plasmid","plasmid",2,"plasmid"
"S44_LN:i:5716_dp:f:0.9634347168125751","GCF_022648595.1_ASM2264859v1_raw_nodes","chromosome","plasmid","chromosome",1,"chromosome"
"S45_LN:i:5433_dp:f:1.7593905914414314","GCF_022648595.1_ASM2264859v1_raw_nodes","plasmid","plasmid","plasmid",3,"plasmid"
"S46_LN:i:5032_dp:f:1.490427811521517","GCF_022648595.1_ASM2264859v1_raw_nodes","plasmid","plasmid","plasmid",3,"plasmid"
"S47_LN:i:4877_dp:f:1.0865825617065417","GCF_022648595.1_ASM2264859v1_raw_nodes","chromosome","chromosome","chromosome",0,"chromosome"
"S48_LN:i:4873_dp:f:1.7232843877185817","GCF_022648595.1_ASM2264859v1_raw_nodes","plasmid","plasmid","plasmid",3,"plasmid"
"S49_LN:i:4821_dp:f:1.0442610733055924","GCF_022648595.1_ASM2264859v1_raw_nodes","chromosome","chromosome","chromosome",0,"chromosome"
"S5_LN:i:188829_dp:f:1.0272139084273244","GCF_022648595.1_ASM2264859v1_raw_nodes","chromosome","chromosome","chromosome",0,"chromosome"
"S50_LN:i:4666_dp:f:2.0741689720174703","GCF_022648595.1_ASM2264859v1_raw_nodes","chromosome","chromosome","chromosome",0,"chromosome"
"S51_LN:i:4414_dp:f:1.7571966036893871","GCF_022648595.1_ASM2264859v1_raw_nodes","chromosome","plasmid","plasmid",2,"plasmid"
"S52_LN:i:4395_dp:f:1.565951491352115","GCF_022648595.1_ASM2264859v1_raw_nodes","plasmid","plasmid","plasmid",3,"plasmid"
"S53_LN:i:4193_dp:f:0.9320011089128106","GCF_022648595.1_ASM2264859v1_raw_nodes","chromosome","chromosome","chromosome",0,"chromosome"
"S54_LN:i:4147_dp:f:1.7433689516264754","GCF_022648595.1_ASM2264859v1_raw_nodes","plasmid","plasmid","plasmid",3,"plasmid"
"S55_LN:i:3945_dp:f:3.511444505906534","GCF_022648595.1_ASM2264859v1_raw_nodes","plasmid","plasmid","plasmid",3,"plasmid"
"S56_LN:i:3445_dp:f:0.9016672267196193","GCF_022648595.1_ASM2264859v1_raw_nodes","chromosome","chromosome","chromosome",0,"chromosome"
"S57_LN:i:3283_dp:f:4.49933762946104","GCF_022648595.1_ASM2264859v1_raw_nodes","chromosome","chromosome","chromosome",0,"chromosome"
"S58_LN:i:2929_dp:f:1.974106681261908","GCF_022648595.1_ASM2264859v1_raw_nodes","chromosome","plasmid","chromosome",1,"chromosome"
"S59_LN:i:2864_dp:f:1.6946609956943315","GCF_022648595.1_ASM2264859v1_raw_nodes","plasmid","plasmid","plasmid",3,"plasmid"
"S6_LN:i:181955_dp:f:0.9519790972404776","GCF_022648595.1_ASM2264859v1_raw_nodes","chromosome","chromosome","chromosome",0,"chromosome"
"S60_LN:i:2824_dp:f:2.0866612324582845","GCF_022648595.1_ASM2264859v1_raw_nodes","chromosome","chromosome","plasmid",1,"chromosome"
"S61_LN:i:2324_dp:f:2.600092575639878","GCF_022648595.1_ASM2264859v1_raw_nodes","plasmid","plasmid","chromosome",2,"plasmid"
"S62_LN:i:2316_dp:f:2.2375967644650463","GCF_022648595.1_ASM2264859v1_raw_nodes","plasmid","plasmid","plasmid",3,"plasmid"
"S63_LN:i:2045_dp:f:1.3370205944430515","GCF_022648595.1_ASM2264859v1_raw_nodes","plasmid","plasmid","plasmid",3,"plasmid"
"S64_LN:i:2034_dp:f:3.39545382181882","GCF_022648595.1_ASM2264859v1_raw_nodes","plasmid","plasmid","chromosome",2,"plasmid"
"S65_LN:i:1868_dp:f:0.8806490688270554","GCF_022648595.1_ASM2264859v1_raw_nodes","chromosome","plasmid","plasmid",2,"plasmid"
"S66_LN:i:1830_dp:f:2.1540876913252394","GCF_022648595.1_ASM2264859v1_raw_nodes","chromosome","chromosome","chromosome",0,"chromosome"
"S67_LN:i:1738_dp:f:4.450153679373707","GCF_022648595.1_ASM2264859v1_raw_nodes","chromosome","chromosome","chromosome",0,"chromosome"
"S68_LN:i:1715_dp:f:2.435801961831103","GCF_022648595.1_ASM2264859v1_raw_nodes","plasmid","plasmid","chromosome",2,"plasmid"
"S69_LN:i:1396_dp:f:2.2021697302415597","GCF_022648595.1_ASM2264859v1_raw_nodes","chromosome","chromosome","chromosome",0,"chromosome"
"S7_LN:i:159891_dp:f:1.0316104121025773","GCF_022648595.1_ASM2264859v1_raw_nodes","chromosome","chromosome","chromosome",0,"chromosome"
"S70_LN:i:1349_dp:f:2.4910181215945046","GCF_022648595.1_ASM2264859v1_raw_nodes","plasmid","plasmid","chromosome",2,"plasmid"
"S71_LN:i:1301_dp:f:2.627707630795585","GCF_022648595.1_ASM2264859v1_raw_nodes","plasmid","chromosome","plasmid",2,"plasmid"
"S72_LN:i:1271_dp:f:1.0914295014338598","GCF_022648595.1_ASM2264859v1_raw_nodes","chromosome","plasmid","chromosome",1,"chromosome"
"S73_LN:i:1271_dp:f:1.434308729486372","GCF_022648595.1_ASM2264859v1_raw_nodes","chromosome","plasmid","chromosome",1,"chromosome"
"S74_LN:i:1229_dp:f:1.7934185641787803","GCF_022648595.1_ASM2264859v1_raw_nodes","chromosome","plasmid","plasmid",2,"plasmid"
"S75_LN:i:1204_dp:f:7.802491456700458","GCF_022648595.1_ASM2264859v1_raw_nodes","chromosome","plasmid","chromosome",1,"chromosome"
"S76_LN:i:1112_dp:f:1.3442340840737383","GCF_022648595.1_ASM2264859v1_raw_nodes","chromosome","plasmid","chromosome",1,"chromosome"
"S77_LN:i:1110_dp:f:1.0735335708901306","GCF_022648595.1_ASM2264859v1_raw_nodes","chromosome","plasmid","chromosome",1,"chromosome"
"S78_LN:i:1063_dp:f:2.658864995990042","GCF_022648595.1_ASM2264859v1_raw_nodes","plasmid","plasmid","chromosome",2,"plasmid"
"S79_LN:i:1040_dp:f:4.128245767425912","GCF_022648595.1_ASM2264859v1_raw_nodes","chromosome","plasmid","chromosome",1,"chromosome"
"S8_LN:i:143356_dp:f:0.975576183922969","GCF_022648595.1_ASM2264859v1_raw_nodes","chromosome","chromosome","chromosome",0,"chromosome"
"S80_LN:i:1024_dp:f:8.432595458148493","GCF_022648595.1_ASM2264859v1_raw_nodes","chromosome","plasmid","chromosome",1,"chromosome"
"S9_LN:i:131875_dp:f:0.9567594706492315","GCF_022648595.1_ASM2264859v1_raw_nodes","chromosome","chromosome","chromosome",0,"chromosome"
"S1_LN:i:905823_dp:f:1.0","GCF_906464835.1_TM6294_raw_nodes","chromosome","chromosome","chromosome",0,"chromosome"
"S10_LN:i:53007_dp:f:1.3211745836194693","GCF_906464835.1_TM6294_raw_nodes","chromosome","chromosome","chromosome",0,"chromosome"
"S11_LN:i:50825_dp:f:1.1666795337694442","GCF_906464835.1_TM6294_raw_nodes","chromosome","chromosome","chromosome",0,"chromosome"
"S12_LN:i:50157_dp:f:1.373712125045581","GCF_906464835.1_TM6294_raw_nodes","plasmid","plasmid","chromosome",2,"plasmid"
"S13_LN:i:16137_dp:f:0.760764419982169","GCF_906464835.1_TM6294_raw_nodes","chromosome","plasmid","chromosome",1,"chromosome"
"S14_LN:i:16090_dp:f:0.9460638296782145","GCF_906464835.1_TM6294_raw_nodes","plasmid","plasmid","plasmid",3,"plasmid"
"S15_LN:i:15475_dp:f:1.1598793224648476","GCF_906464835.1_TM6294_raw_nodes","chromosome","plasmid","chromosome",1,"chromosome"
"S16_LN:i:14853_dp:f:1.3742197548690516","GCF_906464835.1_TM6294_raw_nodes","chromosome","plasmid","plasmid",2,"plasmid"
"S17_LN:i:9002_dp:f:2.910551248060695","GCF_906464835.1_TM6294_raw_nodes","plasmid","plasmid","plasmid",3,"plasmid"
"S18_LN:i:4347_dp:f:1.401568041878913","GCF_906464835.1_TM6294_raw_nodes","plasmid","plasmid","chromosome",2,"plasmid"
"S19_LN:i:4270_dp:f:1.370774964979723","GCF_906464835.1_TM6294_raw_nodes","chromosome","plasmid","chromosome",1,"chromosome"
"S2_LN:i:488503_dp:f:0.8760840593979646","GCF_906464835.1_TM6294_raw_nodes","chromosome","chromosome","chromosome",0,"chromosome"
"S20_LN:i:3983_dp:f:1.499955317666544","GCF_906464835.1_TM6294_raw_nodes","chromosome","plasmid","chromosome",1,"chromosome"
"S21_LN:i:3283_dp:f:6.850689682447743","GCF_906464835.1_TM6294_raw_nodes","chromosome","chromosome","chromosome",0,"chromosome"
"S22_LN:i:3091_dp:f:1.6624438844321772","GCF_906464835.1_TM6294_raw_nodes","chromosome","plasmid","plasmid",2,"plasmid"
"S23_LN:i:3091_dp:f:1.220733938332731","GCF_906464835.1_TM6294_raw_nodes","chromosome","plasmid","plasmid",2,"plasmid"
"S24_LN:i:2926_dp:f:2.5970279726326457","GCF_906464835.1_TM6294_raw_nodes","plasmid","plasmid","plasmid",3,"plasmid"
"S25_LN:i:2361_dp:f:2.18766747722859","GCF_906464835.1_TM6294_raw_nodes","plasmid","plasmid","plasmid",3,"plasmid"
"S26_LN:i:2009_dp:f:0.9821214485519142","GCF_906464835.1_TM6294_raw_nodes","chromosome","plasmid","chromosome",1,"chromosome"
"S27_LN:i:1831_dp:f:6.63002169968656","GCF_906464835.1_TM6294_raw_nodes","chromosome","chromosome","chromosome",0,"chromosome"
"S28_LN:i:1730_dp:f:0.8144555241457104","GCF_906464835.1_TM6294_raw_nodes","chromosome","plasmid","chromosome",1,"chromosome"
"S29_LN:i:1350_dp:f:3.861523828627728","GCF_906464835.1_TM6294_raw_nodes","chromosome","plasmid","chromosome",1,"chromosome"
"S3_LN:i:265150_dp:f:1.5789532263305641","GCF_906464835.1_TM6294_raw_nodes","chromosome","chromosome","chromosome",0,"chromosome"
"S30_LN:i:1181_dp:f:2.9519484000901004","GCF_906464835.1_TM6294_raw_nodes","plasmid","plasmid","plasmid",3,"plasmid"
"S4_LN:i:230280_dp:f:1.139824688995258","GCF_906464835.1_TM6294_raw_nodes","chromosome","chromosome","chromosome",0,"chromosome"
"S5_LN:i:185906_dp:f:1.2310803492445237","GCF_906464835.1_TM6294_raw_nodes","chromosome","chromosome","chromosome",0,"chromosome"
"S6_LN:i:164744_dp:f:1.4609146884483073","GCF_906464835.1_TM6294_raw_nodes","chromosome","chromosome","chromosome",0,"chromosome"
"S7_LN:i:160628_dp:f:1.2984835587090489","GCF_906464835.1_TM6294_raw_nodes","chromosome","chromosome","chromosome",0,"chromosome"
"S8_LN:i:155897_dp:f:1.408009605572136","GCF_906464835.1_TM6294_raw_nodes","chromosome","chromosome","chromosome",0,"chromosome"
"S9_LN:i:61574_dp:f:1.3560494312109312","GCF_906464835.1_TM6294_raw_nodes","chromosome","chromosome","chromosome",0,"chromosome"
"S1_LN:i:685398_dp:f:0.7370140289762144","GCF_906464865.1_WE0438_raw_nodes","chromosome","chromosome","chromosome",0,"chromosome"
"S10_LN:i:87190_dp:f:0.8240624079935851","GCF_906464865.1_WE0438_raw_nodes","chromosome","chromosome","chromosome",0,"chromosome"
"S11_LN:i:56673_dp:f:1.089738210428618","GCF_906464865.1_WE0438_raw_nodes","chromosome","chromosome","chromosome",0,"chromosome"
"S12_LN:i:40888_dp:f:0.8849466921433575","GCF_906464865.1_WE0438_raw_nodes","plasmid","plasmid","plasmid",3,"plasmid"
"S13_LN:i:40720_dp:f:1.1859284516866944","GCF_906464865.1_WE0438_raw_nodes","chromosome","chromosome","chromosome",0,"chromosome"
"S14_LN:i:33947_dp:f:0.7790158193936024","GCF_906464865.1_WE0438_raw_nodes","chromosome","plasmid","chromosome",1,"chromosome"
"S15_LN:i:25888_dp:f:1.1440812015220017","GCF_906464865.1_WE0438_raw_nodes","chromosome","chromosome","chromosome",0,"chromosome"
"S16_LN:i:20449_dp:f:0.8872669633084682","GCF_906464865.1_WE0438_raw_nodes","chromosome","plasmid","chromosome",1,"chromosome"
"S17_LN:i:19553_dp:f:1.0206426379637283","GCF_906464865.1_WE0438_raw_nodes","chromosome","plasmid","plasmid",2,"plasmid"
"S18_LN:i:18307_dp:f:0.935683794423697","GCF_906464865.1_WE0438_raw_nodes","chromosome","plasmid","chromosome",1,"chromosome"
"S19_LN:i:17863_dp:f:0.876864312885119","GCF_906464865.1_WE0438_raw_nodes","chromosome","plasmid","plasmid",2,"plasmid"
"S2_LN:i:514542_dp:f:1.0","GCF_906464865.1_WE0438_raw_nodes","chromosome","chromosome","chromosome",0,"chromosome"
"S20_LN:i:15494_dp:f:1.1488191590046226","GCF_906464865.1_WE0438_raw_nodes","chromosome","plasmid","chromosome",1,"chromosome"
"S21_LN:i:10018_dp:f:0.9881534447266632","GCF_906464865.1_WE0438_raw_nodes","plasmid","plasmid","chromosome",2,"plasmid"
"S22_LN:i:6391_dp:f:1.1217239656664046","GCF_906464865.1_WE0438_raw_nodes","plasmid","plasmid","chromosome",2,"plasmid"
"S23_LN:i:5884_dp:f:0.6346699859821028","GCF_906464865.1_WE0438_raw_nodes","chromosome","plasmid","chromosome",1,"chromosome"
"S24_LN:i:4380_dp:f:1.0430819299638125","GCF_906464865.1_WE0438_raw_nodes","plasmid","plasmid","chromosome",2,"plasmid"
"S25_LN:i:3653_dp:f:1.9761030502634074","GCF_906464865.1_WE0438_raw_nodes","chromosome","plasmid","chromosome",1,"chromosome"
"S26_LN:i:3283_dp:f:5.037073104431827","GCF_906464865.1_WE0438_raw_nodes","chromosome","chromosome","chromosome",0,"chromosome"
"S27_LN:i:3080_dp:f:1.7947348086891957","GCF_906464865.1_WE0438_raw_nodes","plasmid","plasmid","plasmid",3,"plasmid"
"S28_LN:i:2453_dp:f:0.6373900763486142","GCF_906464865.1_WE0438_raw_nodes","chromosome","plasmid","chromosome",1,"chromosome"
"S29_LN:i:1835_dp:f:5.194820244584958","GCF_906464865.1_WE0438_raw_nodes","chromosome","chromosome","chromosome",0,"chromosome"
"S3_LN:i:261412_dp:f:1.2236424602803453","GCF_906464865.1_WE0438_raw_nodes","chromosome","chromosome","chromosome",0,"chromosome"
"S30_LN:i:1589_dp:f:2.1226583384236855","GCF_906464865.1_WE0438_raw_nodes","chromosome","plasmid","chromosome",1,"chromosome"
"S31_LN:i:1587_dp:f:1.5291977980821625","GCF_906464865.1_WE0438_raw_nodes","chromosome","plasmid","chromosome",1,"chromosome"
"S32_LN:i:1513_dp:f:2.0357494838096986","GCF_906464865.1_WE0438_raw_nodes","chromosome","chromosome","chromosome",0,"chromosome"
"S33_LN:i:1049_dp:f:0.7895486857700464","GCF_906464865.1_WE0438_raw_nodes","chromosome","plasmid","chromosome",1,"chromosome"
"S34_LN:i:1049_dp:f:0.7186806215257183","GCF_906464865.1_WE0438_raw_nodes","plasmid","plasmid","chromosome",2,"plasmid"
"S4_LN:i:225429_dp:f:1.2024323823288015","GCF_906464865.1_WE0438_raw_nodes","chromosome","chromosome","chromosome",0,"chromosome"
"S5_LN:i:219867_dp:f:0.7785251954610468","GCF_906464865.1_WE0438_raw_nodes","chromosome","chromosome","chromosome",0,"chromosome"
"S6_LN:i:216849_dp:f:1.0668440841929412","GCF_906464865.1_WE0438_raw_nodes","chromosome","chromosome","chromosome",0,"chromosome"
"S7_LN:i:149071_dp:f:1.1621813072982223","GCF_906464865.1_WE0438_raw_nodes","chromosome","chromosome","chromosome",0,"chromosome"
"S8_LN:i:143992_dp:f:1.0274753747851697","GCF_906464865.1_WE0438_raw_nodes","chromosome","chromosome","chromosome",0,"chromosome"
"S9_LN:i:135434_dp:f:0.8252003959881073","GCF_906464865.1_WE0438_raw_nodes","chromosome","chromosome","chromosome",0,"chromosome"
"S1_LN:i:544484_dp:f:0.8561540429043163","GCF_906464875.1_BX8117_raw_nodes","chromosome","chromosome","chromosome",0,"chromosome"
"S10_LN:i:103545_dp:f:1.070191432637454","GCF_906464875.1_BX8117_raw_nodes","chromosome","chromosome","chromosome",0,"chromosome"
"S11_LN:i:65239_dp:f:0.9761713599249598","GCF_906464875.1_BX8117_raw_nodes","chromosome","plasmid","chromosome",1,"chromosome"
"S12_LN:i:15910_dp:f:1.094205476980342","GCF_906464875.1_BX8117_raw_nodes","plasmid","plasmid","plasmid",3,"plasmid"
"S13_LN:i:14670_dp:f:1.2171657990375155","GCF_906464875.1_BX8117_raw_nodes","chromosome","plasmid","plasmid",2,"plasmid"
"S14_LN:i:8313_dp:f:0.7819568412103693","GCF_906464875.1_BX8117_raw_nodes","chromosome","plasmid","chromosome",1,"chromosome"
"S15_LN:i:7823_dp:f:0.8835048904071773","GCF_906464875.1_BX8117_raw_nodes","chromosome","plasmid","chromosome",1,"chromosome"
"S16_LN:i:7646_dp:f:0.7200141198187981","GCF_906464875.1_BX8117_raw_nodes","chromosome","plasmid","chromosome",1,"chromosome"
"S17_LN:i:5153_dp:f:1.2572585991195961","GCF_906464875.1_BX8117_raw_nodes","plasmid","plasmid","plasmid",3,"plasmid"
"S18_LN:i:4368_dp:f:1.1696145587221727","GCF_906464875.1_BX8117_raw_nodes","chromosome","plasmid","chromosome",1,"chromosome"
"S19_LN:i:3279_dp:f:6.108034890529427","GCF_906464875.1_BX8117_raw_nodes","chromosome","chromosome","chromosome",0,"chromosome"
"S2_LN:i:424568_dp:f:1.1801698410804498","GCF_906464875.1_BX8117_raw_nodes","chromosome","chromosome","chromosome",0,"chromosome"
"S20_LN:i:1784_dp:f:0.8799376294824938","GCF_906464875.1_BX8117_raw_nodes","chromosome","plasmid","chromosome",1,"chromosome"
"S21_LN:i:1763_dp:f:6.019433440746977","GCF_906464875.1_BX8117_raw_nodes","chromosome","chromosome","chromosome",0,"chromosome"
"S22_LN:i:1709_dp:f:0.47453169287534286","GCF_906464875.1_BX8117_raw_nodes","chromosome","plasmid","plasmid",2,"plasmid"
"S23_LN:i:1681_dp:f:5.30910159124342","GCF_906464875.1_BX8117_raw_nodes","chromosome","plasmid","chromosome",1,"chromosome"
"S24_LN:i:1291_dp:f:1.054021583724877","GCF_906464875.1_BX8117_raw_nodes","chromosome","plasmid","plasmid",2,"plasmid"
"S3_LN:i:406349_dp:f:0.9814070289799107","GCF_906464875.1_BX8117_raw_nodes","chromosome","chromosome","chromosome",0,"chromosome"
"S4_LN:i:377356_dp:f:0.8941915457002181","GCF_906464875.1_BX8117_raw_nodes","chromosome","chromosome","chromosome",0,"chromosome"
"S5_LN:i:374279_dp:f:1.0","GCF_906464875.1_BX8117_raw_nodes","chromosome","chromosome","chromosome",0,"chromosome"
"S6_LN:i:251834_dp:f:1.1807306083254958","GCF_906464875.1_BX8117_raw_nodes","chromosome","chromosome","plasmid",1,"chromosome"
"S7_LN:i:149243_dp:f:1.2098417276894355","GCF_906464875.1_BX8117_raw_nodes","chromosome","chromosome","chromosome",0,"chromosome"
"S8_LN:i:105428_dp:f:1.0209324963082038","GCF_906464875.1_BX8117_raw_nodes","chromosome","chromosome","chromosome",0,"chromosome"
"S9_LN:i:104867_dp:f:1.1653034308922643","GCF_906464875.1_BX8117_raw_nodes","chromosome","chromosome","chromosome",0,"chromosome"
"S1_LN:i:369565_dp:f:1.1933942441614347","GCF_906464895.1_WE0851_raw_nodes","chromosome","chromosome","chromosome",0,"chromosome"
"S10_LN:i:94978_dp:f:0.9126248497328381","GCF_906464895.1_WE0851_raw_nodes","chromosome","chromosome","chromosome",0,"chromosome"
"S11_LN:i:88438_dp:f:1.0241794420380381","GCF_906464895.1_WE0851_raw_nodes","chromosome","chromosome","chromosome",0,"chromosome"
"S12_LN:i:84053_dp:f:1.335501228915866","GCF_906464895.1_WE0851_raw_nodes","chromosome","chromosome","chromosome",0,"chromosome"
"S13_LN:i:82219_dp:f:0.8016391997929","GCF_906464895.1_WE0851_raw_nodes","chromosome","chromosome","chromosome",0,"chromosome"
"S14_LN:i:66638_dp:f:1.1276363674053913","GCF_906464895.1_WE0851_raw_nodes","chromosome","chromosome","chromosome",0,"chromosome"
"S15_LN:i:65581_dp:f:1.146477551237627","GCF_906464895.1_WE0851_raw_nodes","chromosome","chromosome","chromosome",0,"chromosome"
"S16_LN:i:65332_dp:f:0.8746828950001236","GCF_906464895.1_WE0851_raw_nodes","chromosome","chromosome","chromosome",0,"chromosome"
"S17_LN:i:61670_dp:f:0.8549183115199221","GCF_906464895.1_WE0851_raw_nodes","chromosome","chromosome","chromosome",0,"chromosome"
"S18_LN:i:55053_dp:f:1.0799862074834705","GCF_906464895.1_WE0851_raw_nodes","chromosome","chromosome","chromosome",0,"chromosome"
"S19_LN:i:43709_dp:f:0.7156513809190045","GCF_906464895.1_WE0851_raw_nodes","plasmid","plasmid","plasmid",3,"plasmid"
"S2_LN:i:336068_dp:f:0.9855294678681653","GCF_906464895.1_WE0851_raw_nodes","chromosome","chromosome","chromosome",0,"chromosome"
"S20_LN:i:36586_dp:f:1.0328513973439224","GCF_906464895.1_WE0851_raw_nodes","chromosome","chromosome","chromosome",0,"chromosome"
"S21_LN:i:33867_dp:f:1.1668660576604863","GCF_906464895.1_WE0851_raw_nodes","chromosome","chromosome","chromosome",0,"chromosome"
"S22_LN:i:23753_dp:f:1.2080003307669906","GCF_906464895.1_WE0851_raw_nodes","chromosome","plasmid","chromosome",1,"chromosome"
"S23_LN:i:17155_dp:f:1.0254506796628706","GCF_906464895.1_WE0851_raw_nodes","chromosome","chromosome","chromosome",0,"chromosome"
"S24_LN:i:15354_dp:f:0.9384497631298689","GCF_906464895.1_WE0851_raw_nodes","chromosome","plasmid","chromosome",1,"chromosome"
"S25_LN:i:10952_dp:f:1.0201769335205946","GCF_906464895.1_WE0851_raw_nodes","chromosome","chromosome","chromosome",0,"chromosome"
"S26_LN:i:10176_dp:f:2.853513607978123","GCF_906464895.1_WE0851_raw_nodes","plasmid","plasmid","plasmid",3,"plasmid"
"S27_LN:i:6874_dp:f:0.39717907405922603","GCF_906464895.1_WE0851_raw_nodes","chromosome","plasmid","chromosome",1,"chromosome"
"S28_LN:i:6487_dp:f:0.9670414373205565","GCF_906464895.1_WE0851_raw_nodes","chromosome","plasmid","plasmid",2,"plasmid"
"S29_LN:i:6304_dp:f:2.376399255991613","GCF_906464895.1_WE0851_raw_nodes","plasmid","plasmid","plasmid",3,"plasmid"
"S3_LN:i:233232_dp:f:0.7998198517205275","GCF_906464895.1_WE0851_raw_nodes","chromosome","chromosome","chromosome",0,"chromosome"
"S30_LN:i:6146_dp:f:0.8452094725824826","GCF_906464895.1_WE0851_raw_nodes","plasmid","plasmid","plasmid",3,"plasmid"
"S31_LN:i:6023_dp:f:0.9826789302577732","GCF_906464895.1_WE0851_raw_nodes","chromosome","plasmid","chromosome",1,"chromosome"
"S32_LN:i:3402_dp:f:3.640733032009154","GCF_906464895.1_WE0851_raw_nodes","plasmid","chromosome","plasmid",2,"plasmid"
"S33_LN:i:3283_dp:f:6.715816470583321","GCF_906464895.1_WE0851_raw_nodes","chromosome","chromosome","chromosome",0,"chromosome"
"S34_LN:i:2374_dp:f:0.6756995447742036","GCF_906464895.1_WE0851_raw_nodes","chromosome","plasmid","plasmid",2,"plasmid"
"S35_LN:i:1958_dp:f:0.5142097826279285","GCF_906464895.1_WE0851_raw_nodes","chromosome","plasmid","plasmid",2,"plasmid"
"S36_LN:i:1919_dp:f:1.12629049059351","GCF_906464895.1_WE0851_raw_nodes","chromosome","plasmid","chromosome",1,"chromosome"
"S37_LN:i:1791_dp:f:6.720269512763921","GCF_906464895.1_WE0851_raw_nodes","chromosome","chromosome","chromosome",0,"chromosome"
"S38_LN:i:1340_dp:f:0.9980810356132505","GCF_906464895.1_WE0851_raw_nodes","chromosome","plasmid","plasmid",2,"plasmid"
"S39_LN:i:1338_dp:f:6.645569628989075","GCF_906464895.1_WE0851_raw_nodes","chromosome","plasmid","chromosome",1,"chromosome"
"S4_LN:i:225310_dp:f:0.8508097217256785","GCF_906464895.1_WE0851_raw_nodes","chromosome","chromosome","chromosome",0,"chromosome"
"S40_LN:i:1324_dp:f:17.89497193595983","GCF_906464895.1_WE0851_raw_nodes","chromosome","plasmid","chromosome",1,"chromosome"
"S41_LN:i:1282_dp:f:0.32039761354800267","GCF_906464895.1_WE0851_raw_nodes","chromosome","plasmid","chromosome",1,"chromosome"
"S42_LN:i:1279_dp:f:1.8397545201517094","GCF_906464895.1_WE0851_raw_nodes","chromosome","plasmid","chromosome",1,"chromosome"
"S43_LN:i:1236_dp:f:2.091595907512582","GCF_906464895.1_WE0851_raw_nodes","plasmid","plasmid","chromosome",2,"plasmid"
"S44_LN:i:1016_dp:f:7.093477591442423","GCF_906464895.1_WE0851_raw_nodes","chromosome","chromosome","chromosome",0,"chromosome"
"S5_LN:i:194880_dp:f:1.3436653372007161","GCF_906464895.1_WE0851_raw_nodes","chromosome","chromosome","chromosome",0,"chromosome"
"S6_LN:i:160701_dp:f:1.1874091906231268","GCF_906464895.1_WE0851_raw_nodes","chromosome","chromosome","chromosome",0,"chromosome"
"S7_LN:i:142007_dp:f:1.0153248773044652","GCF_906464895.1_WE0851_raw_nodes","chromosome","chromosome","chromosome",0,"chromosome"
"S8_LN:i:122495_dp:f:1.0","GCF_906464895.1_WE0851_raw_nodes","chromosome","chromosome","chromosome",0,"chromosome"
"S9_LN:i:111328_dp:f:1.0164295188886607","GCF_906464895.1_WE0851_raw_nodes","chromosome","chromosome","chromosome",0,"chromosome"
"S1_LN:i:744717_dp:f:1.0","GCF_906464915.2_WE0254_raw_nodes","chromosome","chromosome","chromosome",0,"chromosome"
"S10_LN:i:90467_dp:f:1.1563665769372178","GCF_906464915.2_WE0254_raw_nodes","chromosome","chromosome","chromosome",0,"chromosome"
"S11_LN:i:89681_dp:f:1.053833815823321","GCF_906464915.2_WE0254_raw_nodes","chromosome","chromosome","chromosome",0,"chromosome"
"S12_LN:i:86196_dp:f:0.8294913577488341","GCF_906464915.2_WE0254_raw_nodes","chromosome","chromosome","chromosome",0,"chromosome"
"S13_LN:i:72693_dp:f:1.3183830180082863","GCF_906464915.2_WE0254_raw_nodes","chromosome","chromosome","chromosome",0,"chromosome"
"S14_LN:i:41395_dp:f:0.8302707840552145","GCF_906464915.2_WE0254_raw_nodes","plasmid","plasmid","plasmid",3,"plasmid"
"S15_LN:i:27593_dp:f:1.1537143979410658","GCF_906464915.2_WE0254_raw_nodes","chromosome","plasmid","chromosome",1,"chromosome"
"S16_LN:i:27141_dp:f:0.2496881396381818","GCF_906464915.2_WE0254_raw_nodes","chromosome","plasmid","chromosome",1,"chromosome"
"S17_LN:i:25741_dp:f:0.3342222510960683","GCF_906464915.2_WE0254_raw_nodes","chromosome","chromosome","chromosome",0,"chromosome"
"S18_LN:i:15355_dp:f:0.29704041445094037","GCF_906464915.2_WE0254_raw_nodes","chromosome","plasmid","chromosome",1,"chromosome"
"S19_LN:i:15240_dp:f:1.1002324400564003","GCF_906464915.2_WE0254_raw_nodes","chromosome","chromosome","chromosome",0,"chromosome"
"S2_LN:i:287764_dp:f:1.2735476606374245","GCF_906464915.2_WE0254_raw_nodes","chromosome","chromosome","chromosome",0,"chromosome"
"S20_LN:i:14303_dp:f:0.8154592773753466","GCF_906464915.2_WE0254_raw_nodes","chromosome","plasmid","plasmid",2,"plasmid"
"S21_LN:i:13572_dp:f:1.0981817306800883","GCF_906464915.2_WE0254_raw_nodes","plasmid","plasmid","chromosome",2,"plasmid"
"S22_LN:i:13543_dp:f:0.6531429503793275","GCF_906464915.2_WE0254_raw_nodes","plasmid","plasmid","plasmid",3,"plasmid"
"S23_LN:i:6668_dp:f:0.8108588354669691","GCF_906464915.2_WE0254_raw_nodes","chromosome","plasmid","chromosome",1,"chromosome"
"S24_LN:i:6549_dp:f:0.2633433155163981","GCF_906464915.2_WE0254_raw_nodes","chromosome","plasmid","chromosome",1,"chromosome"
"S25_LN:i:5542_dp:f:1.094966978484227","GCF_906464915.2_WE0254_raw_nodes","chromosome","chromosome","chromosome",0,"chromosome"
"S26_LN:i:3249_dp:f:5.921950125710581","GCF_906464915.2_WE0254_raw_nodes","chromosome","chromosome","chromosome",0,"chromosome"
"S27_LN:i:1782_dp:f:6.1484717919445515","GCF_906464915.2_WE0254_raw_nodes","chromosome","chromosome","chromosome",0,"chromosome"
"S28_LN:i:1517_dp:f:5.560511072863734","GCF_906464915.2_WE0254_raw_nodes","chromosome","chromosome","chromosome",0,"chromosome"
"S29_LN:i:1455_dp:f:1.2594127349091018","GCF_906464915.2_WE0254_raw_nodes","chromosome","chromosome","chromosome",0,"chromosome"
"S3_LN:i:272720_dp:f:0.8819030165766072","GCF_906464915.2_WE0254_raw_nodes","chromosome","chromosome","chromosome",0,"chromosome"
"S30_LN:i:1278_dp:f:2.5065097058183836","GCF_906464915.2_WE0254_raw_nodes","plasmid","plasmid","chromosome",2,"plasmid"
"S4_LN:i:219296_dp:f:1.0137670592542565","GCF_906464915.2_WE0254_raw_nodes","chromosome","chromosome","chromosome",0,"chromosome"
"S5_LN:i:216882_dp:f:0.7766975330711828","GCF_906464915.2_WE0254_raw_nodes","chromosome","chromosome","chromosome",0,"chromosome"
"S6_LN:i:194327_dp:f:1.2406108840828143","GCF_906464915.2_WE0254_raw_nodes","chromosome","chromosome","chromosome",0,"chromosome"
"S7_LN:i:186469_dp:f:1.210042453305032","GCF_906464915.2_WE0254_raw_nodes","chromosome","chromosome","chromosome",0,"chromosome"
"S8_LN:i:152646_dp:f:0.7769649519539473","GCF_906464915.2_WE0254_raw_nodes","chromosome","chromosome","chromosome",0,"chromosome"
"S9_LN:i:119494_dp:f:1.1269540120847819","GCF_906464915.2_WE0254_raw_nodes","chromosome","chromosome","chromosome",0,"chromosome"
"S1_LN:i:507454_dp:f:0.7248434521645332","GCF_906464925.1_BX5936_raw_nodes","chromosome","chromosome","chromosome",0,"chromosome"
"S10_LN:i:118330_dp:f:0.8634009606226701","GCF_906464925.1_BX5936_raw_nodes","chromosome","chromosome","chromosome",0,"chromosome"
"S11_LN:i:107510_dp:f:1.0809827689303386","GCF_906464925.1_BX5936_raw_nodes","chromosome","chromosome","chromosome",0,"chromosome"
"S12_LN:i:73599_dp:f:0.7632278483154861","GCF_906464925.1_BX5936_raw_nodes","chromosome","chromosome","chromosome",0,"chromosome"
"S13_LN:i:72041_dp:f:0.8253463000097675","GCF_906464925.1_BX5936_raw_nodes","chromosome","chromosome","chromosome",0,"chromosome"
"S14_LN:i:66696_dp:f:1.1304039067824043","GCF_906464925.1_BX5936_raw_nodes","chromosome","chromosome","chromosome",0,"chromosome"
"S15_LN:i:64687_dp:f:1.0581088960629979","GCF_906464925.1_BX5936_raw_nodes","chromosome","chromosome","chromosome",0,"chromosome"
"S16_LN:i:61653_dp:f:1.1849254682791566","GCF_906464925.1_BX5936_raw_nodes","chromosome","chromosome","chromosome",0,"chromosome"
"S17_LN:i:54234_dp:f:0.7907928134273694","GCF_906464925.1_BX5936_raw_nodes","chromosome","chromosome","chromosome",0,"chromosome"
"S18_LN:i:51571_dp:f:0.7172364831191445","GCF_906464925.1_BX5936_raw_nodes","chromosome","chromosome","chromosome",0,"chromosome"
"S19_LN:i:50393_dp:f:1.2333378116744025","GCF_906464925.1_BX5936_raw_nodes","plasmid","plasmid","chromosome",2,"plasmid"
"S2_LN:i:272655_dp:f:1.3478539966724208","GCF_906464925.1_BX5936_raw_nodes","chromosome","chromosome","chromosome",0,"chromosome"
"S20_LN:i:41703_dp:f:1.1490382330826103","GCF_906464925.1_BX5936_raw_nodes","plasmid","plasmid","plasmid",3,"plasmid"
"S21_LN:i:32611_dp:f:0.8328558143738056","GCF_906464925.1_BX5936_raw_nodes","chromosome","chromosome","chromosome",0,"chromosome"
"S22_LN:i:25926_dp:f:1.1523640848859094","GCF_906464925.1_BX5936_raw_nodes","chromosome","chromosome","chromosome",0,"chromosome"
"S23_LN:i:21664_dp:f:0.8338617882117946","GCF_906464925.1_BX5936_raw_nodes","chromosome","chromosome","chromosome",0,"chromosome"
"S24_LN:i:20391_dp:f:1.2740659731191095","GCF_906464925.1_BX5936_raw_nodes","chromosome","plasmid","chromosome",1,"chromosome"
"S25_LN:i:17172_dp:f:0.9495512833910407","GCF_906464925.1_BX5936_raw_nodes","chromosome","chromosome","chromosome",0,"chromosome"
"S26_LN:i:15353_dp:f:0.8319697945210779","GCF_906464925.1_BX5936_raw_nodes","chromosome","plasmid","chromosome",1,"chromosome"
"S27_LN:i:11753_dp:f:0.9908899391070597","GCF_906464925.1_BX5936_raw_nodes","plasmid","plasmid","chromosome",2,"plasmid"
"S28_LN:i:9978_dp:f:0.7170813398305814","GCF_906464925.1_BX5936_raw_nodes","plasmid","plasmid","plasmid",3,"plasmid"
"S29_LN:i:8425_dp:f:1.2077451830738055","GCF_906464925.1_BX5936_raw_nodes","chromosome","chromosome","chromosome",0,"chromosome"
"S3_LN:i:211119_dp:f:0.9663099677161839","GCF_906464925.1_BX5936_raw_nodes","chromosome","chromosome","chromosome",0,"chromosome"
"S30_LN:i:7544_dp:f:0.9953908318247862","GCF_906464925.1_BX5936_raw_nodes","chromosome","chromosome","chromosome",0,"chromosome"
"S31_LN:i:6924_dp:f:0.3072467813111421","GCF_906464925.1_BX5936_raw_nodes","chromosome","plasmid","chromosome",1,"chromosome"
"S32_LN:i:6428_dp:f:0.6639334188975315","GCF_906464925.1_BX5936_raw_nodes","chromosome","plasmid","chromosome",1,"chromosome"
"S33_LN:i:6390_dp:f:0.7676734998193416","GCF_906464925.1_BX5936_raw_nodes","chromosome","plasmid","chromosome",1,"chromosome"
"S34_LN:i:3283_dp:f:7.358491953214545","GCF_906464925.1_BX5936_raw_nodes","chromosome","chromosome","chromosome",0,"chromosome"
"S35_LN:i:2114_dp:f:0.5277937436646944","GCF_906464925.1_BX5936_raw_nodes","chromosome","plasmid","chromosome",1,"chromosome"
"S36_LN:i:1679_dp:f:7.514934684594672","GCF_906464925.1_BX5936_raw_nodes","chromosome","chromosome","chromosome",0,"chromosome"
"S37_LN:i:1276_dp:f:8.50220448568089","GCF_906464925.1_BX5936_raw_nodes","chromosome","plasmid","chromosome",1,"chromosome"
"S38_LN:i:1201_dp:f:14.481055148971473","GCF_906464925.1_BX5936_raw_nodes","chromosome","plasmid","chromosome",1,"chromosome"
"S4_LN:i:193734_dp:f:1.02347693290508","GCF_906464925.1_BX5936_raw_nodes","chromosome","chromosome","chromosome",0,"chromosome"
"S5_LN:i:165576_dp:f:1.3151715215501167","GCF_906464925.1_BX5936_raw_nodes","chromosome","chromosome","chromosome",0,"chromosome"
"S6_LN:i:162261_dp:f:1.2224270987531312","GCF_906464925.1_BX5936_raw_nodes","chromosome","chromosome","chromosome",0,"chromosome"
"S7_LN:i:137135_dp:f:1.4086493694891964","GCF_906464925.1_BX5936_raw_nodes","chromosome","chromosome","chromosome",0,"chromosome"
"S8_LN:i:133874_dp:f:1.0","GCF_906464925.1_BX5936_raw_nodes","chromosome","chromosome","chromosome",0,"chromosome"
"S9_LN:i:125607_dp:f:0.882840685816104","GCF_906464925.1_BX5936_raw_nodes","chromosome","chromosome","chromosome",0,"chromosome"
