#FILE	SEQUENCE	START	END	STRAND	GENE	COVERAGE	COVERAGE_MAP	GAPS	%COVERAGE	%IDENTITY	DATABASE	ACCESSION	PRODUCT	RESISTANCE
/hpc/dla_mm/jkerkvliet/data/gplas/newmodels/results/S_aureus/09_plasmidspades/GCF_022405395.1_ASM2240539v1/bin_component_0.fasta	NODE_1_length_27394_cov_71.265779_component_0	1	797	-	blaZ_29	1-797/900	==============.	0/0	88.56	100.00	resfinder	JDXN01000019	blaZ	Amoxicillin;Ampicillin;Penicillin;Piperacillin
/hpc/dla_mm/jkerkvliet/data/gplas/newmodels/results/S_aureus/09_plasmidspades/GCF_022405395.1_ASM2240539v1/bin_component_0.fasta	NODE_1_length_27394_cov_71.265779_component_0	1	797	-	blaZ_29	1-797/900	==============.	0/0	88.56	100.00	resfinder	JDXN01000019	blaZ	Amoxicillin;Ampicillin;Penicillin;Piperacillin
/hpc/dla_mm/jkerkvliet/data/gplas/newmodels/results/S_aureus/09_plasmidspades/GCF_022405455.1_ASM2240545v1/bin_component_1.fasta	NODE_2_length_27392_cov_50.484797_component_1	9772	10671	+	blaZ_29	1-900/900	===============	0/0	100.00	100.00	resfinder	JDXN01000019	blaZ	Amoxicillin;Ampicillin;Penicillin;Piperacillin
/hpc/dla_mm/jkerkvliet/data/gplas/newmodels/results/S_aureus/09_plasmidspades/GCF_022405455.1_ASM2240545v1/bin_component_1.fasta	NODE_2_length_27392_cov_50.484797_component_1	9772	10671	+	blaZ_29	1-900/900	===============	0/0	100.00	100.00	resfinder	JDXN01000019	blaZ	Amoxicillin;Ampicillin;Penicillin;Piperacillin
/hpc/dla_mm/jkerkvliet/data/gplas/newmodels/results/S_aureus/09_plasmidspades/GCF_022405145.1_ASM2240514v1/bin_component_1.fasta	NODE_1_length_20780_cov_129.486031_component_1	19237	20124	-	blaZ_79	1-888/888	===============	0/0	100.00	99.21	resfinder	KU607584	blaZ	Amoxicillin;Ampicillin;Penicillin;Piperacillin
/hpc/dla_mm/jkerkvliet/data/gplas/newmodels/results/S_aureus/09_plasmidspades/GCF_022405145.1_ASM2240514v1/bin_component_1.fasta	NODE_1_length_20780_cov_129.486031_component_1	19237	20124	-	blaZ_79	1-888/888	===============	0/0	100.00	99.21	resfinder	KU607584	blaZ	Amoxicillin;Ampicillin;Penicillin;Piperacillin
/hpc/dla_mm/jkerkvliet/data/gplas/newmodels/results/S_aureus/09_plasmidspades/GCF_022404635.1_ASM2240463v1/bin_component_1.fasta	NODE_2_length_20857_cov_98.289339_component_1	10623	11510	+	blaZ_79	1-888/888	===============	0/0	100.00	99.21	resfinder	KU607584	blaZ	Amoxicillin;Ampicillin;Penicillin;Piperacillin
/hpc/dla_mm/jkerkvliet/data/gplas/newmodels/results/S_aureus/09_plasmidspades/GCF_022404635.1_ASM2240463v1/bin_component_1.fasta	NODE_2_length_20857_cov_98.289339_component_1	10623	11510	+	blaZ_79	1-888/888	===============	0/0	100.00	99.21	resfinder	KU607584	blaZ	Amoxicillin;Ampicillin;Penicillin;Piperacillin
/hpc/dla_mm/jkerkvliet/data/gplas/newmodels/results/S_aureus/09_plasmidspades/GCF_022405235.1_ASM2240523v1/bin_component_1.fasta	NODE_2_length_20807_cov_61.602805_component_1	2774	3661	-	blaZ_79	1-888/888	===============	0/0	100.00	99.21	resfinder	KU607584	blaZ	Amoxicillin;Ampicillin;Penicillin;Piperacillin
/hpc/dla_mm/jkerkvliet/data/gplas/newmodels/results/S_aureus/09_plasmidspades/GCF_022405235.1_ASM2240523v1/bin_component_1.fasta	NODE_2_length_20807_cov_61.602805_component_1	2774	3661	-	blaZ_79	1-888/888	===============	0/0	100.00	99.21	resfinder	KU607584	blaZ	Amoxicillin;Ampicillin;Penicillin;Piperacillin
/hpc/dla_mm/jkerkvliet/data/gplas/newmodels/results/S_aureus/09_plasmidspades/GCF_903932605.1_HU-14/bin_component_0.fasta	NODE_1_length_30171_cov_747.708646_component_0	2370	3257	+	blaZ_78	1-888/888	===============	0/0	100.00	99.66	resfinder	KU607301	blaZ	Amoxicillin;Ampicillin;Penicillin;Piperacillin
/hpc/dla_mm/jkerkvliet/data/gplas/newmodels/results/S_aureus/09_plasmidspades/GCF_903932605.1_HU-14/bin_component_0.fasta	NODE_1_length_30171_cov_747.708646_component_0	2370	3257	+	blaZ_78	1-888/888	===============	0/0	100.00	99.66	resfinder	KU607301	blaZ	Amoxicillin;Ampicillin;Penicillin;Piperacillin
/hpc/dla_mm/jkerkvliet/data/gplas/newmodels/results/S_aureus/09_plasmidspades/GCF_013836525.1_ASM1383652v1/bin_component_0.fasta	NODE_27_length_3545_cov_16.131488_component_0	1413	2054	+	fusB_1	1-642/642	===============	0/0	100.00	100.00	resfinder	AY373761	fusB	Fusidic_acid
/hpc/dla_mm/jkerkvliet/data/gplas/newmodels/results/S_aureus/09_plasmidspades/GCF_013836525.1_ASM1383652v1/bin_component_0.fasta	NODE_27_length_3545_cov_16.131488_component_0	1413	2054	+	fusB_1	1-642/642	===============	0/0	100.00	100.00	resfinder	AY373761	fusB	Fusidic_acid
/hpc/dla_mm/jkerkvliet/data/gplas/newmodels/results/S_aureus/09_plasmidspades/GCF_022405435.1_ASM2240543v1/bin_component_1.fasta	NODE_2_length_19908_cov_101.342096_component_1	5839	6726	+	blaZ_79	1-888/888	===============	0/0	100.00	99.21	resfinder	KU607584	blaZ	Amoxicillin;Ampicillin;Penicillin;Piperacillin
/hpc/dla_mm/jkerkvliet/data/gplas/newmodels/results/S_aureus/09_plasmidspades/GCF_022405435.1_ASM2240543v1/bin_component_1.fasta	NODE_2_length_19908_cov_101.342096_component_1	5839	6726	+	blaZ_79	1-888/888	===============	0/0	100.00	99.21	resfinder	KU607584	blaZ	Amoxicillin;Ampicillin;Penicillin;Piperacillin
/hpc/dla_mm/jkerkvliet/data/gplas/newmodels/results/S_aureus/09_plasmidspades/GCF_022405335.1_ASM2240533v1/bin_component_0.fasta	NODE_1_length_27264_cov_60.570992_component_0	9205	10092	-	blaZ_79	1-888/888	===============	0/0	100.00	98.99	resfinder	KU607584	blaZ	Amoxicillin;Ampicillin;Penicillin;Piperacillin
/hpc/dla_mm/jkerkvliet/data/gplas/newmodels/results/S_aureus/09_plasmidspades/GCF_022405335.1_ASM2240533v1/bin_component_0.fasta	NODE_1_length_27264_cov_60.570992_component_0	9205	10092	-	blaZ_79	1-888/888	===============	0/0	100.00	98.99	resfinder	KU607584	blaZ	Amoxicillin;Ampicillin;Penicillin;Piperacillin
/hpc/dla_mm/jkerkvliet/data/gplas/newmodels/results/S_aureus/09_plasmidspades/GCF_022404755.1_ASM2240475v1/bin_component_1.fasta	NODE_2_length_20848_cov_141.816129_component_1	14375	15262	-	blaZ_79	1-888/888	===============	0/0	100.00	99.21	resfinder	KU607584	blaZ	Amoxicillin;Ampicillin;Penicillin;Piperacillin
/hpc/dla_mm/jkerkvliet/data/gplas/newmodels/results/S_aureus/09_plasmidspades/GCF_022404755.1_ASM2240475v1/bin_component_1.fasta	NODE_2_length_20848_cov_141.816129_component_1	14375	15262	-	blaZ_79	1-888/888	===============	0/0	100.00	99.21	resfinder	KU607584	blaZ	Amoxicillin;Ampicillin;Penicillin;Piperacillin
/hpc/dla_mm/jkerkvliet/data/gplas/newmodels/results/S_aureus/09_plasmidspades/GCF_022404575.1_ASM2240457v1/bin_component_1.fasta	NODE_2_length_27195_cov_132.495714_component_1	3652	4539	-	blaZ_79	1-888/888	===============	0/0	100.00	99.89	resfinder	KU607584	blaZ	Amoxicillin;Ampicillin;Penicillin;Piperacillin
/hpc/dla_mm/jkerkvliet/data/gplas/newmodels/results/S_aureus/09_plasmidspades/GCF_022404575.1_ASM2240457v1/bin_component_1.fasta	NODE_2_length_27195_cov_132.495714_component_1	9933	10727	-	aph(3')-III_1	1-795/795	===============	0/0	100.00	100.00	resfinder	M26832	aph(3')-III	Amikacin
/hpc/dla_mm/jkerkvliet/data/gplas/newmodels/results/S_aureus/09_plasmidspades/GCF_022404575.1_ASM2240457v1/bin_component_1.fasta	NODE_2_length_27195_cov_132.495714_component_1	17280	18746	+	msr(A)_1	1-1467/1467	===============	0/0	100.00	98.98	resfinder	X52085	msr(A)	Erythromycin;Azithromycin;Telithromycin;Quinupristin;Pristinamycin_IA;Virginiamycin_S
/hpc/dla_mm/jkerkvliet/data/gplas/newmodels/results/S_aureus/09_plasmidspades/GCF_022404575.1_ASM2240457v1/bin_component_1.fasta	NODE_2_length_27195_cov_132.495714_component_1	18845	19744	+	mph(C)_2	1-900/900	===============	0/0	100.00	100.00	resfinder	AF167161	mph(C)	Erythromycin;Spiramycin;Telithromycin
/hpc/dla_mm/jkerkvliet/data/gplas/newmodels/results/S_aureus/09_plasmidspades/GCF_022404575.1_ASM2240457v1/bin_component_1.fasta	NODE_2_length_27195_cov_132.495714_component_1	3652	4539	-	blaZ_79	1-888/888	===============	0/0	100.00	99.89	resfinder	KU607584	blaZ	Amoxicillin;Ampicillin;Penicillin;Piperacillin
/hpc/dla_mm/jkerkvliet/data/gplas/newmodels/results/S_aureus/09_plasmidspades/GCF_022404575.1_ASM2240457v1/bin_component_1.fasta	NODE_2_length_27195_cov_132.495714_component_1	9933	10727	-	aph(3')-III_1	1-795/795	===============	0/0	100.00	100.00	resfinder	M26832	aph(3')-III	Amikacin
/hpc/dla_mm/jkerkvliet/data/gplas/newmodels/results/S_aureus/09_plasmidspades/GCF_022404575.1_ASM2240457v1/bin_component_1.fasta	NODE_2_length_27195_cov_132.495714_component_1	17280	18746	+	msr(A)_1	1-1467/1467	===============	0/0	100.00	98.98	resfinder	X52085	msr(A)	Erythromycin;Azithromycin;Telithromycin;Quinupristin;Pristinamycin_IA;Virginiamycin_S
/hpc/dla_mm/jkerkvliet/data/gplas/newmodels/results/S_aureus/09_plasmidspades/GCF_022404575.1_ASM2240457v1/bin_component_1.fasta	NODE_2_length_27195_cov_132.495714_component_1	18845	19744	+	mph(C)_2	1-900/900	===============	0/0	100.00	100.00	resfinder	AF167161	mph(C)	Erythromycin;Spiramycin;Telithromycin
/hpc/dla_mm/jkerkvliet/data/gplas/newmodels/results/S_aureus/09_plasmidspades/GCF_016889945.1_ASM1688994v1/bin_component_0.fasta	NODE_1_length_24139_cov_1288.539731_component_0	3752	4639	+	blaZ_79	1-888/888	===============	0/0	100.00	99.89	resfinder	KU607584	blaZ	Amoxicillin;Ampicillin;Penicillin;Piperacillin
/hpc/dla_mm/jkerkvliet/data/gplas/newmodels/results/S_aureus/09_plasmidspades/GCF_016889945.1_ASM1688994v1/bin_component_0.fasta	NODE_1_length_24139_cov_1288.539731_component_0	21181	22080	-	mph(C)_2	1-900/900	===============	0/0	100.00	100.00	resfinder	AF167161	mph(C)	Erythromycin;Spiramycin;Telithromycin
/hpc/dla_mm/jkerkvliet/data/gplas/newmodels/results/S_aureus/09_plasmidspades/GCF_016889945.1_ASM1688994v1/bin_component_0.fasta	NODE_1_length_24139_cov_1288.539731_component_0	22179	23645	-	msr(A)_1	1-1467/1467	===============	0/0	100.00	98.98	resfinder	X52085	msr(A)	Erythromycin;Azithromycin;Telithromycin;Quinupristin;Pristinamycin_IA;Virginiamycin_S
/hpc/dla_mm/jkerkvliet/data/gplas/newmodels/results/S_aureus/09_plasmidspades/GCF_016889945.1_ASM1688994v1/bin_component_0.fasta	NODE_2_length_8022_cov_1373.623663_component_0	6136	6930	+	aph(3')-III_1	1-795/795	===============	0/0	100.00	100.00	resfinder	M26832	aph(3')-III	Amikacin
/hpc/dla_mm/jkerkvliet/data/gplas/newmodels/results/S_aureus/09_plasmidspades/GCF_016889945.1_ASM1688994v1/bin_component_0.fasta	NODE_1_length_24139_cov_1288.539731_component_0	3752	4639	+	blaZ_79	1-888/888	===============	0/0	100.00	99.89	resfinder	KU607584	blaZ	Amoxicillin;Ampicillin;Penicillin;Piperacillin
/hpc/dla_mm/jkerkvliet/data/gplas/newmodels/results/S_aureus/09_plasmidspades/GCF_016889945.1_ASM1688994v1/bin_component_0.fasta	NODE_1_length_24139_cov_1288.539731_component_0	21181	22080	-	mph(C)_2	1-900/900	===============	0/0	100.00	100.00	resfinder	AF167161	mph(C)	Erythromycin;Spiramycin;Telithromycin
/hpc/dla_mm/jkerkvliet/data/gplas/newmodels/results/S_aureus/09_plasmidspades/GCF_016889945.1_ASM1688994v1/bin_component_0.fasta	NODE_1_length_24139_cov_1288.539731_component_0	22179	23645	-	msr(A)_1	1-1467/1467	===============	0/0	100.00	98.98	resfinder	X52085	msr(A)	Erythromycin;Azithromycin;Telithromycin;Quinupristin;Pristinamycin_IA;Virginiamycin_S
/hpc/dla_mm/jkerkvliet/data/gplas/newmodels/results/S_aureus/09_plasmidspades/GCF_016889945.1_ASM1688994v1/bin_component_0.fasta	NODE_2_length_8022_cov_1373.623663_component_0	6136	6930	+	aph(3')-III_1	1-795/795	===============	0/0	100.00	100.00	resfinder	M26832	aph(3')-III	Amikacin
/hpc/dla_mm/jkerkvliet/data/gplas/newmodels/results/S_aureus/09_plasmidspades/GCF_022369595.1_ASM2236959v1/bin_component_1.fasta	NODE_4_length_2600_cov_330.103922_component_1	396	1130	-	erm(C)_2	1-735/735	===============	0/0	100.00	100.00	resfinder	M19652	erm(C)	Erythromycin;Lincomycin;Clindamycin;Quinupristin;Pristinamycin_IA;Virginiamycin_S
/hpc/dla_mm/jkerkvliet/data/gplas/newmodels/results/S_aureus/09_plasmidspades/GCF_022369595.1_ASM2236959v1/bin_component_0.fasta	NODE_1_length_23567_cov_58.432679_component_0	4114	5001	+	blaZ_79	1-888/888	===============	0/0	100.00	99.89	resfinder	KU607584	blaZ	Amoxicillin;Ampicillin;Penicillin;Piperacillin
/hpc/dla_mm/jkerkvliet/data/gplas/newmodels/results/S_aureus/09_plasmidspades/GCF_022369595.1_ASM2236959v1/bin_component_0.fasta	NODE_1_length_23567_cov_58.432679_component_0	15946	16845	-	mph(C)_2	1-900/900	===============	0/0	100.00	100.00	resfinder	AF167161	mph(C)	Erythromycin;Spiramycin;Telithromycin
/hpc/dla_mm/jkerkvliet/data/gplas/newmodels/results/S_aureus/09_plasmidspades/GCF_022369595.1_ASM2236959v1/bin_component_0.fasta	NODE_1_length_23567_cov_58.432679_component_0	16944	18410	-	msr(A)_1	1-1467/1467	===============	0/0	100.00	98.98	resfinder	X52085	msr(A)	Erythromycin;Azithromycin;Telithromycin;Quinupristin;Pristinamycin_IA;Virginiamycin_S
/hpc/dla_mm/jkerkvliet/data/gplas/newmodels/results/S_aureus/09_plasmidspades/GCF_022369595.1_ASM2236959v1/bin_component_0.fasta	NODE_3_length_3205_cov_60.805222_component_0	1396	2190	+	aph(3')-III_1	1-795/795	===============	0/0	100.00	100.00	resfinder	M26832	aph(3')-III	Amikacin
/hpc/dla_mm/jkerkvliet/data/gplas/newmodels/results/S_aureus/09_plasmidspades/GCF_022369595.1_ASM2236959v1/bin_component_1.fasta	NODE_4_length_2600_cov_330.103922_component_1	396	1130	-	erm(C)_2	1-735/735	===============	0/0	100.00	100.00	resfinder	M19652	erm(C)	Erythromycin;Lincomycin;Clindamycin;Quinupristin;Pristinamycin_IA;Virginiamycin_S
/hpc/dla_mm/jkerkvliet/data/gplas/newmodels/results/S_aureus/09_plasmidspades/GCF_022369595.1_ASM2236959v1/bin_component_0.fasta	NODE_1_length_23567_cov_58.432679_component_0	4114	5001	+	blaZ_79	1-888/888	===============	0/0	100.00	99.89	resfinder	KU607584	blaZ	Amoxicillin;Ampicillin;Penicillin;Piperacillin
/hpc/dla_mm/jkerkvliet/data/gplas/newmodels/results/S_aureus/09_plasmidspades/GCF_022369595.1_ASM2236959v1/bin_component_0.fasta	NODE_1_length_23567_cov_58.432679_component_0	15946	16845	-	mph(C)_2	1-900/900	===============	0/0	100.00	100.00	resfinder	AF167161	mph(C)	Erythromycin;Spiramycin;Telithromycin
/hpc/dla_mm/jkerkvliet/data/gplas/newmodels/results/S_aureus/09_plasmidspades/GCF_022369595.1_ASM2236959v1/bin_component_0.fasta	NODE_1_length_23567_cov_58.432679_component_0	16944	18410	-	msr(A)_1	1-1467/1467	===============	0/0	100.00	98.98	resfinder	X52085	msr(A)	Erythromycin;Azithromycin;Telithromycin;Quinupristin;Pristinamycin_IA;Virginiamycin_S
/hpc/dla_mm/jkerkvliet/data/gplas/newmodels/results/S_aureus/09_plasmidspades/GCF_022369595.1_ASM2236959v1/bin_component_0.fasta	NODE_3_length_3205_cov_60.805222_component_0	1396	2190	+	aph(3')-III_1	1-795/795	===============	0/0	100.00	100.00	resfinder	M26832	aph(3')-III	Amikacin
/hpc/dla_mm/jkerkvliet/data/gplas/newmodels/results/S_aureus/09_plasmidspades/GCF_019653615.1_ASM1965361v1/bin_component_1.fasta	NODE_5_length_2568_cov_417.877158_component_1	1370	2104	+	erm(C)_13	1-735/735	===============	0/0	100.00	100.00	resfinder	M13761	erm(C)	Erythromycin;Lincomycin;Clindamycin;Quinupristin;Pristinamycin_IA;Virginiamycin_S
/hpc/dla_mm/jkerkvliet/data/gplas/newmodels/results/S_aureus/09_plasmidspades/GCF_019653615.1_ASM1965361v1/bin_component_0.fasta	NODE_2_length_7709_cov_83.266889_component_0	39	926	-	blaZ_78	1-888/888	===============	0/0	100.00	99.89	resfinder	KU607301	blaZ	Amoxicillin;Ampicillin;Penicillin;Piperacillin
/hpc/dla_mm/jkerkvliet/data/gplas/newmodels/results/S_aureus/09_plasmidspades/GCF_019653615.1_ASM1965361v1/bin_component_1.fasta	NODE_5_length_2568_cov_417.877158_component_1	1370	2104	+	erm(C)_13	1-735/735	===============	0/0	100.00	100.00	resfinder	M13761	erm(C)	Erythromycin;Lincomycin;Clindamycin;Quinupristin;Pristinamycin_IA;Virginiamycin_S
/hpc/dla_mm/jkerkvliet/data/gplas/newmodels/results/S_aureus/09_plasmidspades/GCF_019653615.1_ASM1965361v1/bin_component_0.fasta	NODE_2_length_7709_cov_83.266889_component_0	39	926	-	blaZ_78	1-888/888	===============	0/0	100.00	99.89	resfinder	KU607301	blaZ	Amoxicillin;Ampicillin;Penicillin;Piperacillin
/hpc/dla_mm/jkerkvliet/data/gplas/newmodels/results/S_aureus/09_plasmidspades/GCF_022404775.1_ASM2240477v1/bin_component_1.fasta	NODE_3_length_20818_cov_137.636170_component_1	10752	11639	+	blaZ_79	1-888/888	===============	0/0	100.00	99.21	resfinder	KU607584	blaZ	Amoxicillin;Ampicillin;Penicillin;Piperacillin
/hpc/dla_mm/jkerkvliet/data/gplas/newmodels/results/S_aureus/09_plasmidspades/GCF_022404775.1_ASM2240477v1/bin_component_1.fasta	NODE_3_length_20818_cov_137.636170_component_1	10752	11639	+	blaZ_79	1-888/888	===============	0/0	100.00	99.21	resfinder	KU607584	blaZ	Amoxicillin;Ampicillin;Penicillin;Piperacillin
/hpc/dla_mm/jkerkvliet/data/gplas/newmodels/results/S_aureus/09_plasmidspades/GCF_022404615.1_ASM2240461v1/bin_component_0.fasta	NODE_1_length_23598_cov_78.006476_component_0	4114	5001	+	blaZ_79	1-888/888	===============	0/0	100.00	99.89	resfinder	KU607584	blaZ	Amoxicillin;Ampicillin;Penicillin;Piperacillin
/hpc/dla_mm/jkerkvliet/data/gplas/newmodels/results/S_aureus/09_plasmidspades/GCF_022404615.1_ASM2240461v1/bin_component_0.fasta	NODE_1_length_23598_cov_78.006476_component_0	15977	16876	-	mph(C)_2	1-900/900	===============	0/0	100.00	100.00	resfinder	AF167161	mph(C)	Erythromycin;Spiramycin;Telithromycin
/hpc/dla_mm/jkerkvliet/data/gplas/newmodels/results/S_aureus/09_plasmidspades/GCF_022404615.1_ASM2240461v1/bin_component_0.fasta	NODE_1_length_23598_cov_78.006476_component_0	16975	18441	-	msr(A)_1	1-1467/1467	===============	0/0	100.00	98.98	resfinder	X52085	msr(A)	Erythromycin;Azithromycin;Telithromycin;Quinupristin;Pristinamycin_IA;Virginiamycin_S
/hpc/dla_mm/jkerkvliet/data/gplas/newmodels/results/S_aureus/09_plasmidspades/GCF_022404615.1_ASM2240461v1/bin_component_0.fasta	NODE_2_length_3205_cov_81.070228_component_0	1396	2190	+	aph(3')-III_1	1-795/795	===============	0/0	100.00	100.00	resfinder	M26832	aph(3')-III	Amikacin
/hpc/dla_mm/jkerkvliet/data/gplas/newmodels/results/S_aureus/09_plasmidspades/GCF_022404615.1_ASM2240461v1/bin_component_0.fasta	NODE_1_length_23598_cov_78.006476_component_0	4114	5001	+	blaZ_79	1-888/888	===============	0/0	100.00	99.89	resfinder	KU607584	blaZ	Amoxicillin;Ampicillin;Penicillin;Piperacillin
/hpc/dla_mm/jkerkvliet/data/gplas/newmodels/results/S_aureus/09_plasmidspades/GCF_022404615.1_ASM2240461v1/bin_component_0.fasta	NODE_1_length_23598_cov_78.006476_component_0	15977	16876	-	mph(C)_2	1-900/900	===============	0/0	100.00	100.00	resfinder	AF167161	mph(C)	Erythromycin;Spiramycin;Telithromycin
/hpc/dla_mm/jkerkvliet/data/gplas/newmodels/results/S_aureus/09_plasmidspades/GCF_022404615.1_ASM2240461v1/bin_component_0.fasta	NODE_1_length_23598_cov_78.006476_component_0	16975	18441	-	msr(A)_1	1-1467/1467	===============	0/0	100.00	98.98	resfinder	X52085	msr(A)	Erythromycin;Azithromycin;Telithromycin;Quinupristin;Pristinamycin_IA;Virginiamycin_S
/hpc/dla_mm/jkerkvliet/data/gplas/newmodels/results/S_aureus/09_plasmidspades/GCF_022404615.1_ASM2240461v1/bin_component_0.fasta	NODE_2_length_3205_cov_81.070228_component_0	1396	2190	+	aph(3')-III_1	1-795/795	===============	0/0	100.00	100.00	resfinder	M26832	aph(3')-III	Amikacin
/hpc/dla_mm/jkerkvliet/data/gplas/newmodels/results/S_aureus/09_plasmidspades/GCF_018093065.1_ASM1809306v1/bin_component_5.fasta	NODE_6_length_22739_cov_18.017292_component_5	21185	22072	-	blaZ_138	1-888/888	===============	0/0	100.00	99.89	resfinder	CP003979	blaZ	Amoxicillin;Ampicillin;Penicillin;Piperacillin
/hpc/dla_mm/jkerkvliet/data/gplas/newmodels/results/S_aureus/09_plasmidspades/GCF_018093065.1_ASM1809306v1/bin_component_5.fasta	NODE_6_length_22739_cov_18.017292_component_5	21185	22072	-	blaZ_138	1-888/888	===============	0/0	100.00	99.89	resfinder	CP003979	blaZ	Amoxicillin;Ampicillin;Penicillin;Piperacillin
/hpc/dla_mm/jkerkvliet/data/gplas/newmodels/results/S_aureus/09_plasmidspades/GCF_016889145.1_ASM1688914v1/bin_component_0.fasta	NODE_1_length_24139_cov_1663.449381_component_0	495	1961	+	msr(A)_1	1-1467/1467	===============	0/0	100.00	98.98	resfinder	X52085	msr(A)	Erythromycin;Azithromycin;Telithromycin;Quinupristin;Pristinamycin_IA;Virginiamycin_S
/hpc/dla_mm/jkerkvliet/data/gplas/newmodels/results/S_aureus/09_plasmidspades/GCF_016889145.1_ASM1688914v1/bin_component_0.fasta	NODE_1_length_24139_cov_1663.449381_component_0	2060	2959	+	mph(C)_2	1-900/900	===============	0/0	100.00	100.00	resfinder	AF167161	mph(C)	Erythromycin;Spiramycin;Telithromycin
/hpc/dla_mm/jkerkvliet/data/gplas/newmodels/results/S_aureus/09_plasmidspades/GCF_016889145.1_ASM1688914v1/bin_component_0.fasta	NODE_1_length_24139_cov_1663.449381_component_0	19501	20388	-	blaZ_79	1-888/888	===============	0/0	100.00	99.89	resfinder	KU607584	blaZ	Amoxicillin;Ampicillin;Penicillin;Piperacillin
/hpc/dla_mm/jkerkvliet/data/gplas/newmodels/results/S_aureus/09_plasmidspades/GCF_016889145.1_ASM1688914v1/bin_component_0.fasta	NODE_4_length_3300_cov_1441.311511_component_0	1414	2208	+	aph(3')-III_1	1-795/795	===============	0/0	100.00	100.00	resfinder	M26832	aph(3')-III	Amikacin
/hpc/dla_mm/jkerkvliet/data/gplas/newmodels/results/S_aureus/09_plasmidspades/GCF_016889145.1_ASM1688914v1/bin_component_0.fasta	NODE_1_length_24139_cov_1663.449381_component_0	495	1961	+	msr(A)_1	1-1467/1467	===============	0/0	100.00	98.98	resfinder	X52085	msr(A)	Erythromycin;Azithromycin;Telithromycin;Quinupristin;Pristinamycin_IA;Virginiamycin_S
/hpc/dla_mm/jkerkvliet/data/gplas/newmodels/results/S_aureus/09_plasmidspades/GCF_016889145.1_ASM1688914v1/bin_component_0.fasta	NODE_1_length_24139_cov_1663.449381_component_0	2060	2959	+	mph(C)_2	1-900/900	===============	0/0	100.00	100.00	resfinder	AF167161	mph(C)	Erythromycin;Spiramycin;Telithromycin
/hpc/dla_mm/jkerkvliet/data/gplas/newmodels/results/S_aureus/09_plasmidspades/GCF_016889145.1_ASM1688914v1/bin_component_0.fasta	NODE_1_length_24139_cov_1663.449381_component_0	19501	20388	-	blaZ_79	1-888/888	===============	0/0	100.00	99.89	resfinder	KU607584	blaZ	Amoxicillin;Ampicillin;Penicillin;Piperacillin
/hpc/dla_mm/jkerkvliet/data/gplas/newmodels/results/S_aureus/09_plasmidspades/GCF_016889145.1_ASM1688914v1/bin_component_0.fasta	NODE_4_length_3300_cov_1441.311511_component_0	1414	2208	+	aph(3')-III_1	1-795/795	===============	0/0	100.00	100.00	resfinder	M26832	aph(3')-III	Amikacin
/hpc/dla_mm/jkerkvliet/data/gplas/newmodels/results/S_aureus/09_plasmidspades/GCF_016591995.1_ASM1659199v1/bin_component_6.fasta	NODE_9_length_14397_cov_29.818781_component_6	1427	2158	+	erm(A)_1	1-732/732	===============	0/0	100.00	100.00	resfinder	X03216	erm(A)	Erythromycin;Lincomycin;Clindamycin;Quinupristin;Pristinamycin_IA;Virginiamycin_S
/hpc/dla_mm/jkerkvliet/data/gplas/newmodels/results/S_aureus/09_plasmidspades/GCF_016591995.1_ASM1659199v1/bin_component_6.fasta	NODE_9_length_14397_cov_29.818781_component_6	2284	3066	-	ant(9)-Ia_1	1-783/783	===============	0/0	100.00	100.00	resfinder	X02588	ant(9)-Ia	
/hpc/dla_mm/jkerkvliet/data/gplas/newmodels/results/S_aureus/09_plasmidspades/GCF_016591995.1_ASM1659199v1/bin_component_5.fasta	NODE_5_length_22728_cov_31.666785_component_5	3638	4525	-	blaZ_79	1-888/888	===============	0/0	100.00	99.78	resfinder	KU607584	blaZ	Amoxicillin;Ampicillin;Penicillin;Piperacillin
/hpc/dla_mm/jkerkvliet/data/gplas/newmodels/results/S_aureus/09_plasmidspades/GCF_016591995.1_ASM1659199v1/bin_component_6.fasta	NODE_9_length_14397_cov_29.818781_component_6	1427	2158	+	erm(A)_1	1-732/732	===============	0/0	100.00	100.00	resfinder	X03216	erm(A)	Erythromycin;Lincomycin;Clindamycin;Quinupristin;Pristinamycin_IA;Virginiamycin_S
/hpc/dla_mm/jkerkvliet/data/gplas/newmodels/results/S_aureus/09_plasmidspades/GCF_016591995.1_ASM1659199v1/bin_component_6.fasta	NODE_9_length_14397_cov_29.818781_component_6	2284	3066	-	ant(9)-Ia_1	1-783/783	===============	0/0	100.00	100.00	resfinder	X02588	ant(9)-Ia	
/hpc/dla_mm/jkerkvliet/data/gplas/newmodels/results/S_aureus/09_plasmidspades/GCF_016591995.1_ASM1659199v1/bin_component_5.fasta	NODE_5_length_22728_cov_31.666785_component_5	3638	4525	-	blaZ_79	1-888/888	===============	0/0	100.00	99.78	resfinder	KU607584	blaZ	Amoxicillin;Ampicillin;Penicillin;Piperacillin
/hpc/dla_mm/jkerkvliet/data/gplas/newmodels/results/S_aureus/09_plasmidspades/GCF_022404715.1_ASM2240471v1/bin_component_1.fasta	NODE_2_length_20857_cov_416.411915_component_1	16754	17641	+	blaZ_79	1-888/888	===============	0/0	100.00	99.21	resfinder	KU607584	blaZ	Amoxicillin;Ampicillin;Penicillin;Piperacillin
/hpc/dla_mm/jkerkvliet/data/gplas/newmodels/results/S_aureus/09_plasmidspades/GCF_022404715.1_ASM2240471v1/bin_component_1.fasta	NODE_2_length_20857_cov_416.411915_component_1	16754	17641	+	blaZ_79	1-888/888	===============	0/0	100.00	99.21	resfinder	KU607584	blaZ	Amoxicillin;Ampicillin;Penicillin;Piperacillin
/hpc/dla_mm/jkerkvliet/data/gplas/newmodels/results/S_aureus/09_plasmidspades/GCF_022405515.1_ASM2240551v1/bin_component_0.fasta	NODE_1_length_20857_cov_80.311770_component_0	10742	11629	+	blaZ_79	1-888/888	===============	0/0	100.00	99.10	resfinder	KU607584	blaZ	Amoxicillin;Ampicillin;Penicillin;Piperacillin
/hpc/dla_mm/jkerkvliet/data/gplas/newmodels/results/S_aureus/09_plasmidspades/GCF_022405515.1_ASM2240551v1/bin_component_0.fasta	NODE_1_length_20857_cov_80.311770_component_0	10742	11629	+	blaZ_79	1-888/888	===============	0/0	100.00	99.10	resfinder	KU607584	blaZ	Amoxicillin;Ampicillin;Penicillin;Piperacillin
/hpc/dla_mm/jkerkvliet/data/gplas/newmodels/results/S_aureus/09_plasmidspades/GCF_903932595.1_P3.1/bin_component_0.fasta	NODE_1_length_30171_cov_306.708281_component_0	2370	3257	+	blaZ_78	1-888/888	===============	0/0	100.00	99.66	resfinder	KU607301	blaZ	Amoxicillin;Ampicillin;Penicillin;Piperacillin
/hpc/dla_mm/jkerkvliet/data/gplas/newmodels/results/S_aureus/09_plasmidspades/GCF_903932595.1_P3.1/bin_component_0.fasta	NODE_1_length_30171_cov_306.708281_component_0	2370	3257	+	blaZ_78	1-888/888	===============	0/0	100.00	99.66	resfinder	KU607301	blaZ	Amoxicillin;Ampicillin;Penicillin;Piperacillin
/hpc/dla_mm/jkerkvliet/data/gplas/newmodels/results/S_aureus/09_plasmidspades/GCF_022405375.1_ASM2240537v1/bin_component_0.fasta	NODE_1_length_27395_cov_64.212483_component_0	6345	7244	+	blaZ_29	1-900/900	===============	0/0	100.00	100.00	resfinder	JDXN01000019	blaZ	Amoxicillin;Ampicillin;Penicillin;Piperacillin
/hpc/dla_mm/jkerkvliet/data/gplas/newmodels/results/S_aureus/09_plasmidspades/GCF_022405375.1_ASM2240537v1/bin_component_0.fasta	NODE_1_length_27395_cov_64.212483_component_0	6345	7244	+	blaZ_29	1-900/900	===============	0/0	100.00	100.00	resfinder	JDXN01000019	blaZ	Amoxicillin;Ampicillin;Penicillin;Piperacillin
/hpc/dla_mm/jkerkvliet/data/gplas/newmodels/results/S_aureus/09_plasmidspades/GCF_022226995.1_ASM2222699v1/bin_component_0.fasta	NODE_1_length_13038_cov_549.270354_component_0	5679	6566	+	blaZ_79	1-888/888	===============	0/0	100.00	99.89	resfinder	KU607584	blaZ	Amoxicillin;Ampicillin;Penicillin;Piperacillin
/hpc/dla_mm/jkerkvliet/data/gplas/newmodels/results/S_aureus/09_plasmidspades/GCF_022226995.1_ASM2222699v1/bin_component_0.fasta	NODE_1_length_13038_cov_549.270354_component_0	5679	6566	+	blaZ_79	1-888/888	===============	0/0	100.00	99.89	resfinder	KU607584	blaZ	Amoxicillin;Ampicillin;Penicillin;Piperacillin
/hpc/dla_mm/jkerkvliet/data/gplas/newmodels/results/S_aureus/09_plasmidspades/GCF_022404695.1_ASM2240469v1/bin_component_1.fasta	NODE_2_length_20818_cov_207.817699_component_1	19944	20818	-	blaZ_79	14-888/888	===============	0/0	98.54	99.43	resfinder	KU607584	blaZ	Amoxicillin;Ampicillin;Penicillin;Piperacillin
/hpc/dla_mm/jkerkvliet/data/gplas/newmodels/results/S_aureus/09_plasmidspades/GCF_022404695.1_ASM2240469v1/bin_component_1.fasta	NODE_2_length_20818_cov_207.817699_component_1	19944	20818	-	blaZ_79	14-888/888	===============	0/0	98.54	99.43	resfinder	KU607584	blaZ	Amoxicillin;Ampicillin;Penicillin;Piperacillin
/hpc/dla_mm/jkerkvliet/data/gplas/newmodels/results/S_aureus/09_plasmidspades/GCF_022405555.1_ASM2240555v1/bin_component_0.fasta	NODE_1_length_27396_cov_64.226264_component_0	4289	5188	-	blaZ_29	1-900/900	===============	0/0	100.00	100.00	resfinder	JDXN01000019	blaZ	Amoxicillin;Ampicillin;Penicillin;Piperacillin
/hpc/dla_mm/jkerkvliet/data/gplas/newmodels/results/S_aureus/09_plasmidspades/GCF_022405555.1_ASM2240555v1/bin_component_0.fasta	NODE_1_length_27396_cov_64.226264_component_0	4289	5188	-	blaZ_29	1-900/900	===============	0/0	100.00	100.00	resfinder	JDXN01000019	blaZ	Amoxicillin;Ampicillin;Penicillin;Piperacillin
/hpc/dla_mm/jkerkvliet/data/gplas/newmodels/results/S_aureus/09_plasmidspades/GCF_022405185.1_ASM2240518v1/bin_component_0.fasta	NODE_1_length_16818_cov_41.337128_component_0	9665	11131	-	msr(A)_1	1-1467/1467	===============	0/0	100.00	99.73	resfinder	X52085	msr(A)	Erythromycin;Azithromycin;Telithromycin;Quinupristin;Pristinamycin_IA;Virginiamycin_S
/hpc/dla_mm/jkerkvliet/data/gplas/newmodels/results/S_aureus/09_plasmidspades/GCF_022405185.1_ASM2240518v1/bin_component_0.fasta	NODE_1_length_16818_cov_41.337128_component_0	9665	11131	-	msr(A)_1	1-1467/1467	===============	0/0	100.00	99.73	resfinder	X52085	msr(A)	Erythromycin;Azithromycin;Telithromycin;Quinupristin;Pristinamycin_IA;Virginiamycin_S
/hpc/dla_mm/jkerkvliet/data/gplas/newmodels/results/S_aureus/09_plasmidspades/GCF_022405055.1_ASM2240505v1/bin_component_1.fasta	NODE_2_length_17456_cov_57.656472_component_1	1	755	+	blaZ_11	92-846/846	.==============	0/0	89.24	100.00	resfinder	AJ400722	blaZ	Amoxicillin;Ampicillin;Penicillin;Piperacillin
/hpc/dla_mm/jkerkvliet/data/gplas/newmodels/results/S_aureus/09_plasmidspades/GCF_022405055.1_ASM2240505v1/bin_component_1.fasta	NODE_2_length_17456_cov_57.656472_component_1	1	755	+	blaZ_11	92-846/846	.==============	0/0	89.24	100.00	resfinder	AJ400722	blaZ	Amoxicillin;Ampicillin;Penicillin;Piperacillin
/hpc/dla_mm/jkerkvliet/data/gplas/newmodels/results/S_aureus/09_plasmidspades/GCF_022405595.1_ASM2240559v1/bin_component_0.fasta	NODE_2_length_8779_cov_92.043117_component_0	2177	3076	-	blaZ_29	1-900/900	===============	0/0	100.00	100.00	resfinder	JDXN01000019	blaZ	Amoxicillin;Ampicillin;Penicillin;Piperacillin
/hpc/dla_mm/jkerkvliet/data/gplas/newmodels/results/S_aureus/09_plasmidspades/GCF_022405595.1_ASM2240559v1/bin_component_0.fasta	NODE_2_length_8779_cov_92.043117_component_0	2177	3076	-	blaZ_29	1-900/900	===============	0/0	100.00	100.00	resfinder	JDXN01000019	blaZ	Amoxicillin;Ampicillin;Penicillin;Piperacillin
/hpc/dla_mm/jkerkvliet/data/gplas/newmodels/results/S_aureus/09_plasmidspades/GCF_022405355.1_ASM2240535v1/bin_component_1.fasta	NODE_2_length_27195_cov_77.389796_component_1	6109	6903	+	aph(3')-III_1	1-795/795	===============	0/0	100.00	100.00	resfinder	M26832	aph(3')-III	Amikacin
/hpc/dla_mm/jkerkvliet/data/gplas/newmodels/results/S_aureus/09_plasmidspades/GCF_022405355.1_ASM2240535v1/bin_component_1.fasta	NODE_2_length_27195_cov_77.389796_component_1	12297	13184	+	blaZ_79	1-888/888	===============	0/0	100.00	99.89	resfinder	KU607584	blaZ	Amoxicillin;Ampicillin;Penicillin;Piperacillin
/hpc/dla_mm/jkerkvliet/data/gplas/newmodels/results/S_aureus/09_plasmidspades/GCF_022405355.1_ASM2240535v1/bin_component_1.fasta	NODE_2_length_27195_cov_77.389796_component_1	24160	25059	-	mph(C)_2	1-900/900	===============	0/0	100.00	100.00	resfinder	AF167161	mph(C)	Erythromycin;Spiramycin;Telithromycin
/hpc/dla_mm/jkerkvliet/data/gplas/newmodels/results/S_aureus/09_plasmidspades/GCF_022405355.1_ASM2240535v1/bin_component_1.fasta	NODE_2_length_27195_cov_77.389796_component_1	25158	26624	-	msr(A)_1	1-1467/1467	===============	0/0	100.00	98.91	resfinder	X52085	msr(A)	Erythromycin;Azithromycin;Telithromycin;Quinupristin;Pristinamycin_IA;Virginiamycin_S
/hpc/dla_mm/jkerkvliet/data/gplas/newmodels/results/S_aureus/09_plasmidspades/GCF_022405355.1_ASM2240535v1/bin_component_1.fasta	NODE_2_length_27195_cov_77.389796_component_1	6109	6903	+	aph(3')-III_1	1-795/795	===============	0/0	100.00	100.00	resfinder	M26832	aph(3')-III	Amikacin
/hpc/dla_mm/jkerkvliet/data/gplas/newmodels/results/S_aureus/09_plasmidspades/GCF_022405355.1_ASM2240535v1/bin_component_1.fasta	NODE_2_length_27195_cov_77.389796_component_1	12297	13184	+	blaZ_79	1-888/888	===============	0/0	100.00	99.89	resfinder	KU607584	blaZ	Amoxicillin;Ampicillin;Penicillin;Piperacillin
/hpc/dla_mm/jkerkvliet/data/gplas/newmodels/results/S_aureus/09_plasmidspades/GCF_022405355.1_ASM2240535v1/bin_component_1.fasta	NODE_2_length_27195_cov_77.389796_component_1	24160	25059	-	mph(C)_2	1-900/900	===============	0/0	100.00	100.00	resfinder	AF167161	mph(C)	Erythromycin;Spiramycin;Telithromycin
/hpc/dla_mm/jkerkvliet/data/gplas/newmodels/results/S_aureus/09_plasmidspades/GCF_022405355.1_ASM2240535v1/bin_component_1.fasta	NODE_2_length_27195_cov_77.389796_component_1	25158	26624	-	msr(A)_1	1-1467/1467	===============	0/0	100.00	98.91	resfinder	X52085	msr(A)	Erythromycin;Azithromycin;Telithromycin;Quinupristin;Pristinamycin_IA;Virginiamycin_S
/hpc/dla_mm/jkerkvliet/data/gplas/newmodels/results/S_aureus/09_plasmidspades/GCF_017088385.1_ASM1708838v1/bin_component_2.fasta	NODE_5_length_13844_cov_140.767487_component_2	6386	7273	-	blaZ_79	1-888/888	===============	0/0	100.00	99.21	resfinder	KU607584	blaZ	Amoxicillin;Ampicillin;Penicillin;Piperacillin
/hpc/dla_mm/jkerkvliet/data/gplas/newmodels/results/S_aureus/09_plasmidspades/GCF_017088385.1_ASM1708838v1/bin_component_2.fasta	NODE_5_length_13844_cov_140.767487_component_2	6386	7273	-	blaZ_79	1-888/888	===============	0/0	100.00	99.21	resfinder	KU607584	blaZ	Amoxicillin;Ampicillin;Penicillin;Piperacillin
/hpc/dla_mm/jkerkvliet/data/gplas/newmodels/results/S_aureus/09_plasmidspades/GCF_022405575.1_ASM2240557v1/bin_component_1.fasta	NODE_2_length_24782_cov_51.983776_component_1	7412	8299	-	blaZ_79	1-888/888	===============	0/0	100.00	99.89	resfinder	KU607584	blaZ	Amoxicillin;Ampicillin;Penicillin;Piperacillin
/hpc/dla_mm/jkerkvliet/data/gplas/newmodels/results/S_aureus/09_plasmidspades/GCF_022405575.1_ASM2240557v1/bin_component_1.fasta	NODE_2_length_24782_cov_51.983776_component_1	7412	8299	-	blaZ_79	1-888/888	===============	0/0	100.00	99.89	resfinder	KU607584	blaZ	Amoxicillin;Ampicillin;Penicillin;Piperacillin
/hpc/dla_mm/jkerkvliet/data/gplas/newmodels/results/S_aureus/09_plasmidspades/GCF_022369535.1_ASM2236953v1/bin_component_1.fasta	NODE_3_length_17456_cov_94.039818_component_1	303	1190	-	blaZ_78	1-888/888	===============	0/0	100.00	99.66	resfinder	KU607301	blaZ	Amoxicillin;Ampicillin;Penicillin;Piperacillin
/hpc/dla_mm/jkerkvliet/data/gplas/newmodels/results/S_aureus/09_plasmidspades/GCF_022369535.1_ASM2236953v1/bin_component_1.fasta	NODE_3_length_17456_cov_94.039818_component_1	303	1190	-	blaZ_78	1-888/888	===============	0/0	100.00	99.66	resfinder	KU607301	blaZ	Amoxicillin;Ampicillin;Penicillin;Piperacillin
/hpc/dla_mm/jkerkvliet/data/gplas/newmodels/results/S_aureus/09_plasmidspades/GCF_022404675.1_ASM2240467v1/bin_component_1.fasta	NODE_3_length_13275_cov_133.900137_component_1	6690	7577	+	blaZ_79	1-888/888	===============	0/0	100.00	99.89	resfinder	KU607584	blaZ	Amoxicillin;Ampicillin;Penicillin;Piperacillin
/hpc/dla_mm/jkerkvliet/data/gplas/newmodels/results/S_aureus/09_plasmidspades/GCF_022404675.1_ASM2240467v1/bin_component_1.fasta	NODE_3_length_13275_cov_133.900137_component_1	6690	7577	+	blaZ_79	1-888/888	===============	0/0	100.00	99.89	resfinder	KU607584	blaZ	Amoxicillin;Ampicillin;Penicillin;Piperacillin
/hpc/dla_mm/jkerkvliet/data/gplas/newmodels/results/S_aureus/09_plasmidspades/GCF_022405275.1_ASM2240527v1/bin_component_1.fasta	NODE_2_length_27395_cov_59.324373_component_1	19162	20061	+	blaZ_29	1-900/900	===============	0/0	100.00	100.00	resfinder	JDXN01000019	blaZ	Amoxicillin;Ampicillin;Penicillin;Piperacillin
/hpc/dla_mm/jkerkvliet/data/gplas/newmodels/results/S_aureus/09_plasmidspades/GCF_022405275.1_ASM2240527v1/bin_component_1.fasta	NODE_2_length_27395_cov_59.324373_component_1	19162	20061	+	blaZ_29	1-900/900	===============	0/0	100.00	100.00	resfinder	JDXN01000019	blaZ	Amoxicillin;Ampicillin;Penicillin;Piperacillin
/hpc/dla_mm/jkerkvliet/data/gplas/newmodels/results/S_aureus/09_plasmidspades/GCF_022405415.1_ASM2240541v1/bin_component_2.fasta	NODE_3_length_2493_cov_515.687658_component_2	397	1131	-	erm(C)_2	1-735/735	===============	0/0	100.00	100.00	resfinder	M19652	erm(C)	Erythromycin;Lincomycin;Clindamycin;Quinupristin;Pristinamycin_IA;Virginiamycin_S
/hpc/dla_mm/jkerkvliet/data/gplas/newmodels/results/S_aureus/09_plasmidspades/GCF_022405415.1_ASM2240541v1/bin_component_2.fasta	NODE_3_length_2493_cov_515.687658_component_2	397	1131	-	erm(C)_2	1-735/735	===============	0/0	100.00	100.00	resfinder	M19652	erm(C)	Erythromycin;Lincomycin;Clindamycin;Quinupristin;Pristinamycin_IA;Virginiamycin_S
/hpc/dla_mm/jkerkvliet/data/gplas/newmodels/results/S_aureus/09_plasmidspades/GCF_018409145.1_ASM1840914v1/bin_component_1.fasta	NODE_8_length_18528_cov_1185.394000_component_1	14073	14960	+	blaZ_79	1-888/888	===============	0/0	100.00	99.78	resfinder	KU607584	blaZ	Amoxicillin;Ampicillin;Penicillin;Piperacillin
/hpc/dla_mm/jkerkvliet/data/gplas/newmodels/results/S_aureus/09_plasmidspades/GCF_018409145.1_ASM1840914v1/bin_component_0.fasta	NODE_12_length_1918_cov_18.459658_component_0	80	1519	-	aac(6')-aph(2'')_1	1-1440/1440	===============	0/0	100.00	100.00	resfinder	M13771	aac(6')-aph(2'')	Amikacin;Gentamicin;Tobramycin
/hpc/dla_mm/jkerkvliet/data/gplas/newmodels/results/S_aureus/09_plasmidspades/GCF_018409145.1_ASM1840914v1/bin_component_0.fasta	NODE_1_length_285923_cov_85.326142_component_0	284895	285665	-	aadD_1	1-771/771	===============	0/0	100.00	99.74	resfinder	AF181950	aadD	Amikacin;Tobramycin
/hpc/dla_mm/jkerkvliet/data/gplas/newmodels/results/S_aureus/09_plasmidspades/GCF_018409145.1_ASM1840914v1/bin_component_0.fasta	NODE_2_length_132746_cov_73.813850_component_0	47106	49025	+	tet(M)_4	1-1920/1920	===============	0/0	100.00	99.84	resfinder	X75073	tet(M)	Doxycycline;Tetracycline;Minocycline
/hpc/dla_mm/jkerkvliet/data/gplas/newmodels/results/S_aureus/09_plasmidspades/GCF_018409145.1_ASM1840914v1/bin_component_1.fasta	NODE_8_length_18528_cov_1185.394000_component_1	14073	14960	+	blaZ_79	1-888/888	===============	0/0	100.00	99.78	resfinder	KU607584	blaZ	Amoxicillin;Ampicillin;Penicillin;Piperacillin
/hpc/dla_mm/jkerkvliet/data/gplas/newmodels/results/S_aureus/09_plasmidspades/GCF_018409145.1_ASM1840914v1/bin_component_0.fasta	NODE_12_length_1918_cov_18.459658_component_0	80	1519	-	aac(6')-aph(2'')_1	1-1440/1440	===============	0/0	100.00	100.00	resfinder	M13771	aac(6')-aph(2'')	Amikacin;Gentamicin;Tobramycin
/hpc/dla_mm/jkerkvliet/data/gplas/newmodels/results/S_aureus/09_plasmidspades/GCF_018409145.1_ASM1840914v1/bin_component_0.fasta	NODE_1_length_285923_cov_85.326142_component_0	284895	285665	-	aadD_1	1-771/771	===============	0/0	100.00	99.74	resfinder	AF181950	aadD	Amikacin;Tobramycin
/hpc/dla_mm/jkerkvliet/data/gplas/newmodels/results/S_aureus/09_plasmidspades/GCF_018409145.1_ASM1840914v1/bin_component_0.fasta	NODE_2_length_132746_cov_73.813850_component_0	47106	49025	+	tet(M)_4	1-1920/1920	===============	0/0	100.00	99.84	resfinder	X75073	tet(M)	Doxycycline;Tetracycline;Minocycline
/hpc/dla_mm/jkerkvliet/data/gplas/newmodels/results/S_aureus/09_plasmidspades/GCF_022369695.1_ASM2236969v1/bin_component_1.fasta	NODE_2_length_24781_cov_92.344325_component_1	18745	19632	+	blaZ_79	1-888/888	===============	0/0	100.00	99.89	resfinder	KU607584	blaZ	Amoxicillin;Ampicillin;Penicillin;Piperacillin
/hpc/dla_mm/jkerkvliet/data/gplas/newmodels/results/S_aureus/09_plasmidspades/GCF_022369695.1_ASM2236969v1/bin_component_1.fasta	NODE_2_length_24781_cov_92.344325_component_1	18745	19632	+	blaZ_79	1-888/888	===============	0/0	100.00	99.89	resfinder	KU607584	blaZ	Amoxicillin;Ampicillin;Penicillin;Piperacillin
/hpc/dla_mm/jkerkvliet/data/gplas/newmodels/results/S_aureus/09_plasmidspades/GCF_017088305.1_ASM1708830v1/bin_component_1.fasta	NODE_13_length_10775_cov_30.865395_component_1	3857	4495	-	fusC_1	1-639/639	===============	0/0	100.00	100.00	resfinder	KF527883	fusC	Fusidic_acid
/hpc/dla_mm/jkerkvliet/data/gplas/newmodels/results/S_aureus/09_plasmidspades/GCF_017088305.1_ASM1708830v1/bin_component_4.fasta	NODE_9_length_20706_cov_76.994134_component_4	13509	14396	+	blaZ_79	1-888/888	===============	0/0	100.00	99.21	resfinder	KU607584	blaZ	Amoxicillin;Ampicillin;Penicillin;Piperacillin
/hpc/dla_mm/jkerkvliet/data/gplas/newmodels/results/S_aureus/09_plasmidspades/GCF_017088305.1_ASM1708830v1/bin_component_1.fasta	NODE_13_length_10775_cov_30.865395_component_1	3857	4495	-	fusC_1	1-639/639	===============	0/0	100.00	100.00	resfinder	KF527883	fusC	Fusidic_acid
/hpc/dla_mm/jkerkvliet/data/gplas/newmodels/results/S_aureus/09_plasmidspades/GCF_017088305.1_ASM1708830v1/bin_component_4.fasta	NODE_9_length_20706_cov_76.994134_component_4	13509	14396	+	blaZ_79	1-888/888	===============	0/0	100.00	99.21	resfinder	KU607584	blaZ	Amoxicillin;Ampicillin;Penicillin;Piperacillin
/hpc/dla_mm/jkerkvliet/data/gplas/newmodels/results/S_aureus/09_plasmidspades/GCF_022404595.1_ASM2240459v1/bin_component_1.fasta	NODE_2_length_20818_cov_110.537770_component_1	11120	12007	-	blaZ_79	1-888/888	===============	0/0	100.00	99.21	resfinder	KU607584	blaZ	Amoxicillin;Ampicillin;Penicillin;Piperacillin
/hpc/dla_mm/jkerkvliet/data/gplas/newmodels/results/S_aureus/09_plasmidspades/GCF_022404595.1_ASM2240459v1/bin_component_1.fasta	NODE_2_length_20818_cov_110.537770_component_1	11120	12007	-	blaZ_79	1-888/888	===============	0/0	100.00	99.21	resfinder	KU607584	blaZ	Amoxicillin;Ampicillin;Penicillin;Piperacillin
/hpc/dla_mm/jkerkvliet/data/gplas/newmodels/results/S_aureus/09_plasmidspades/GCF_018135565.1_ASM1813556v1/bin_component_4.fasta	NODE_5_length_4474_cov_1083.680464_component_4	2220	3068	-	str_2	1-849/849	===============	0/0	100.00	99.88	resfinder	FN435330	str	Streptomycin
/hpc/dla_mm/jkerkvliet/data/gplas/newmodels/results/S_aureus/09_plasmidspades/GCF_018135565.1_ASM1813556v1/bin_component_4.fasta	NODE_5_length_4474_cov_1083.680464_component_4	2220	3068	-	str_2	1-849/849	===============	0/0	100.00	99.88	resfinder	FN435330	str	Streptomycin
/hpc/dla_mm/jkerkvliet/data/gplas/newmodels/results/S_aureus/09_plasmidspades/GCF_013836745.1_ASM1383674v1/bin_component_0.fasta	NODE_24_length_3486_cov_13.147844_component_0	1434	2075	-	fusB_1	1-642/642	===============	0/0	100.00	100.00	resfinder	AY373761	fusB	Fusidic_acid
/hpc/dla_mm/jkerkvliet/data/gplas/newmodels/results/S_aureus/09_plasmidspades/GCF_013836745.1_ASM1383674v1/bin_component_0.fasta	NODE_24_length_3486_cov_13.147844_component_0	1434	2075	-	fusB_1	1-642/642	===============	0/0	100.00	100.00	resfinder	AY373761	fusB	Fusidic_acid
