#FILE	SEQUENCE	START	END	STRAND	GENE	COVERAGE	COVERAGE_MAP	GAPS	%COVERAGE	%IDENTITY	DATABASE	ACCESSION	PRODUCT	RESISTANCE
/home/dla_mm/jkerkvliet/data/gplas/reconstructing_amr_plasmids/validation_pipeline/results/A_baumannii/07_gplas_cc/GCF_019458485.1_ASM1945848v1_results/GCF_019458485.1_ASM1945848v1_bin_1.fasta	S49_LN:i:2383_dp:f:1.0419392173233675	1088	2293	+	tet(B)_1	1-1206/1206	===============	0/0	100.00	100.00	resfinder	AP000342	tet(B)	Doxycycline;Minocycline;Tetracycline
/home/dla_mm/jkerkvliet/data/gplas/reconstructing_amr_plasmids/validation_pipeline/results/A_baumannii/07_gplas_cc/GCF_019458485.1_ASM1945848v1_results/GCF_019458485.1_ASM1945848v1_bin_1.fasta	S5_LN:i:245145_dp:f:1.0	75	1226	+	blaADC-25_1	1-1152/1152	===============	0/0	100.00	96.27	resfinder	EF016355	blaADC-25	
/home/dla_mm/jkerkvliet/data/gplas/reconstructing_amr_plasmids/validation_pipeline/results/A_baumannii/07_gplas_cc/GCF_019903215.1_ASM1990321v1_results/GCF_019903215.1_ASM1990321v1_bin_1.fasta	S54_LN:i:2383_dp:f:1.1720368135002668	1088	2293	+	tet(B)_1	1-1206/1206	===============	0/0	100.00	100.00	resfinder	AP000342	tet(B)	Doxycycline;Minocycline;Tetracycline
/home/dla_mm/jkerkvliet/data/gplas/reconstructing_amr_plasmids/validation_pipeline/results/A_baumannii/07_gplas_cc/GCF_014322245.1_ASM1432224v1_results/GCF_014322245.1_ASM1432224v1_bin_1.fasta	S25_LN:i:41975_dp:f:1.2194168303981958	7205	8065	-	aac(3)-IId_1	1-861/861	===============	0/0	100.00	99.88	resfinder	EU022314	aac(3)-IId	Apramycin;Dibekacin;Gentamicin;Netilmicin;Sisomicin;Tobramycin
/home/dla_mm/jkerkvliet/data/gplas/reconstructing_amr_plasmids/validation_pipeline/results/A_baumannii/07_gplas_cc/GCF_014322245.1_ASM1432224v1_results/GCF_014322245.1_ASM1432224v1_bin_1.fasta	S32_LN:i:19299_dp:f:1.3109326472138132	611	1732	-	tet(39)_1	1-1122/1122	===============	0/0	100.00	100.00	resfinder	KT346360	tet(39)	Doxycycline;Tetracycline
/home/dla_mm/jkerkvliet/data/gplas/reconstructing_amr_plasmids/validation_pipeline/results/A_baumannii/07_gplas_cc/GCF_014322245.1_ASM1432224v1_results/GCF_014322245.1_ASM1432224v1_bin_1.fasta	S32_LN:i:19299_dp:f:1.3109326472138132	4448	5332	-	mph(E)_1	1-885/885	===============	0/0	100.00	100.00	resfinder	DQ839391	mph(E)	Erythromycin
/home/dla_mm/jkerkvliet/data/gplas/reconstructing_amr_plasmids/validation_pipeline/results/A_baumannii/07_gplas_cc/GCF_014322245.1_ASM1432224v1_results/GCF_014322245.1_ASM1432224v1_bin_1.fasta	S32_LN:i:19299_dp:f:1.3109326472138132	5388	6863	-	msr(E)_1	1-1476/1476	===============	0/0	100.00	100.00	resfinder	FR751518	msr(E)	Azithromycin;Erythromycin;Pristinamycin_IA;Quinupristin;Virginiamycin_S
/home/dla_mm/jkerkvliet/data/gplas/reconstructing_amr_plasmids/validation_pipeline/results/A_baumannii/07_gplas_cc/GCF_018831125.1_ASM1883112v1_results/GCF_018831125.1_ASM1883112v1_bin_1.fasta	S43_LN:i:17882_dp:f:1.324274907517093	15207	16009	+	aph(3'')-Ib_2	2-804/804	===============	0/0	99.88	100.00	resfinder	AF024602	aph(3'')-Ib	Streptomycin
/home/dla_mm/jkerkvliet/data/gplas/reconstructing_amr_plasmids/validation_pipeline/results/A_baumannii/07_gplas_cc/GCF_018831125.1_ASM1883112v1_results/GCF_018831125.1_ASM1883112v1_bin_1.fasta	S43_LN:i:17882_dp:f:1.324274907517093	16009	16845	+	aph(6)-Id_1	1-837/837	===============	0/0	100.00	100.00	resfinder	M28829	aph(6)-Id	Streptomycin
/home/dla_mm/jkerkvliet/data/gplas/reconstructing_amr_plasmids/validation_pipeline/results/A_baumannii/07_gplas_cc/GCF_018831125.1_ASM1883112v1_results/GCF_018831125.1_ASM1883112v1_bin_1.fasta	S58_LN:i:4579_dp:f:1.3096693996275033	398	1873	+	msr(E)_1	1-1476/1476	===============	0/0	100.00	100.00	resfinder	FR751518	msr(E)	Azithromycin;Erythromycin;Pristinamycin_IA;Quinupristin;Virginiamycin_S
/home/dla_mm/jkerkvliet/data/gplas/reconstructing_amr_plasmids/validation_pipeline/results/A_baumannii/07_gplas_cc/GCF_018831125.1_ASM1883112v1_results/GCF_018831125.1_ASM1883112v1_bin_1.fasta	S58_LN:i:4579_dp:f:1.3096693996275033	1929	2813	+	mph(E)_1	1-885/885	===============	0/0	100.00	100.00	resfinder	DQ839391	mph(E)	Erythromycin
/home/dla_mm/jkerkvliet/data/gplas/reconstructing_amr_plasmids/validation_pipeline/results/A_baumannii/07_gplas_cc/GCF_018831125.1_ASM1883112v1_results/GCF_018831125.1_ASM1883112v1_bin_2.fasta	S54_LN:i:6078_dp:f:9.369893360280269	1644	2177	+	ant(2'')-Ia_13	1-534/534	===============	0/0	100.00	99.06	resfinder	DQ176450	ant(2'')-Ia	Gentamicin;Tobramycin
/home/dla_mm/jkerkvliet/data/gplas/reconstructing_amr_plasmids/validation_pipeline/results/A_baumannii/07_gplas_cc/GCF_016919525.1_ASM1691952v2_results/GCF_016919525.1_ASM1691952v2_bin_1.fasta	S174_LN:i:5997_dp:f:0.4591510553555168	2438	3304	-	sul1_5	1-867/867	===============	0/0	100.00	99.89	resfinder	EU780013	sul1	Sulfamethoxazole
/home/dla_mm/jkerkvliet/data/gplas/reconstructing_amr_plasmids/validation_pipeline/results/A_baumannii/07_gplas_cc/GCF_016919525.1_ASM1691952v2_results/GCF_016919525.1_ASM1691952v2_bin_1.fasta	S174_LN:i:5997_dp:f:0.4591510553555168	3748	4321	-	dfrA7_5	1-570/570	========/======	3/4	100.00	98.78	resfinder	AJ419170	dfrA7	Trimethoprim
/home/dla_mm/jkerkvliet/data/gplas/reconstructing_amr_plasmids/validation_pipeline/results/A_baumannii/07_gplas_cc/GCF_016919525.1_ASM1691952v2_results/GCF_016919525.1_ASM1691952v2_bin_1.fasta	S174_LN:i:5997_dp:f:0.4591510553555168	4403	4982	-	aac(6')-Ib_1	27-606/606	===============	0/0	95.71	99.66	resfinder	M21682	aac(6')-Ib	Amikacin;Kanamycin;Tobramycin
/home/dla_mm/jkerkvliet/data/gplas/reconstructing_amr_plasmids/validation_pipeline/results/A_baumannii/07_gplas_cc/GCF_016919525.1_ASM1691952v2_results/GCF_016919525.1_ASM1691952v2_bin_1.fasta	S174_LN:i:5997_dp:f:0.4591510553555168	5095	5958	-	blaGES-11_1	1-864/864	===============	0/0	100.00	100.00	resfinder	FJ854362	blaGES-11	Amoxicillin;Amoxicillin+Clavulanic_acid;Ampicillin;Ampicillin+Clavulanic_acid;Cefoxitin;Ceftazidime;Piperacillin;Ticarcillin
/home/dla_mm/jkerkvliet/data/gplas/reconstructing_amr_plasmids/validation_pipeline/results/A_baumannii/07_gplas_cc/GCF_016919525.1_ASM1691952v2_results/GCF_016919525.1_ASM1691952v2_bin_1.fasta	S182_LN:i:4970_dp:f:1.5087578262723427	241	774	+	ant(2'')-Ia_1	1-534/534	===============	0/0	100.00	100.00	resfinder	X04555	ant(2'')-Ia	Gentamicin;Tobramycin
/home/dla_mm/jkerkvliet/data/gplas/reconstructing_amr_plasmids/validation_pipeline/results/A_baumannii/07_gplas_cc/GCF_016919525.1_ASM1691952v2_results/GCF_016919525.1_ASM1691952v2_bin_1.fasta	S182_LN:i:4970_dp:f:1.5087578262723427	1029	2288	+	cmlA1_2	1-1260/1260	===============	0/0	100.00	99.60	resfinder	AB212941	cmlA1	Chloramphenicol
/home/dla_mm/jkerkvliet/data/gplas/reconstructing_amr_plasmids/validation_pipeline/results/A_baumannii/07_gplas_cc/GCF_016919525.1_ASM1691952v2_results/GCF_016919525.1_ASM1691952v2_bin_1.fasta	S182_LN:i:4970_dp:f:1.5087578262723427	2371	3172	+	aadA2_1	18-819/819	===============	0/0	97.92	99.88	resfinder	NC_010870	aadA2	Spectinomycin;Streptomycin
/home/dla_mm/jkerkvliet/data/gplas/reconstructing_amr_plasmids/validation_pipeline/results/A_baumannii/07_gplas_cc/GCF_016919525.1_ASM1691952v2_results/GCF_016919525.1_ASM1691952v2_bin_1.fasta	S182_LN:i:4970_dp:f:1.5087578262723427	3202	4005	+	aph(3'')-Ib_5	1-804/804	===============	0/0	100.00	97.89	resfinder	AF321551	aph(3'')-Ib	Streptomycin
/home/dla_mm/jkerkvliet/data/gplas/reconstructing_amr_plasmids/validation_pipeline/results/A_baumannii/07_gplas_cc/GCF_016919525.1_ASM1691952v2_results/GCF_016919525.1_ASM1691952v2_bin_1.fasta	S182_LN:i:4970_dp:f:1.5087578262723427	4005	4841	+	aph(6)-Id_1	1-837/837	===============	0/0	100.00	99.04	resfinder	M28829	aph(6)-Id	Streptomycin
/home/dla_mm/jkerkvliet/data/gplas/reconstructing_amr_plasmids/validation_pipeline/results/A_baumannii/07_gplas_cc/GCF_013787185.1_ASM1378718v1_results/GCF_013787185.1_ASM1378718v1_bin_2.fasta	S80_LN:i:11191_dp:f:0.528589021586124	5196	6011	-	sul2_2	1-816/816	===============	0/0	100.00	100.00	resfinder	AY034138	sul2	Sulfamethoxazole
/home/dla_mm/jkerkvliet/data/gplas/reconstructing_amr_plasmids/validation_pipeline/results/A_baumannii/07_gplas_cc/GCF_020810655.1_ASM2081065v1_results/GCF_020810655.1_ASM2081065v1_bin_2.fasta	S39_LN:i:1162_dp:f:1.9647999644942447	329	1144	-	sul2_2	1-816/816	===============	0/0	100.00	100.00	resfinder	AY034138	sul2	Sulfamethoxazole
/home/dla_mm/jkerkvliet/data/gplas/reconstructing_amr_plasmids/validation_pipeline/results/A_baumannii/07_gplas_cc/GCF_020810655.1_ASM2081065v1_results/GCF_020810655.1_ASM2081065v1_bin_1.fasta	S25_LN:i:11069_dp:f:8.370303054981568	7950	9071	+	tet(39)_1	1-1122/1122	===============	0/0	100.00	100.00	resfinder	KT346360	tet(39)	Doxycycline;Tetracycline
/home/dla_mm/jkerkvliet/data/gplas/reconstructing_amr_plasmids/validation_pipeline/results/A_baumannii/07_gplas_cc/GCF_021609965.1_ASM2160996v1_results/GCF_021609965.1_ASM2160996v1_bin_1.fasta	S50_LN:i:2383_dp:f:1.008259338570788	91	1296	-	tet(B)_1	1-1206/1206	===============	0/0	100.00	100.00	resfinder	AP000342	tet(B)	Doxycycline;Minocycline;Tetracycline
/home/dla_mm/jkerkvliet/data/gplas/reconstructing_amr_plasmids/validation_pipeline/results/A_baumannii/07_gplas_cc/GCF_021609965.1_ASM2160996v1_results/GCF_021609965.1_ASM2160996v1_bin_1.fasta	S5_LN:i:245145_dp:f:1.0	75	1226	+	blaADC-25_1	1-1152/1152	===============	0/0	100.00	96.27	resfinder	EF016355	blaADC-25	
/home/dla_mm/jkerkvliet/data/gplas/reconstructing_amr_plasmids/validation_pipeline/results/A_baumannii/07_gplas_cc/GCF_016919505.2_ASM1691950v2_results/GCF_016919505.2_ASM1691950v2_bin_1.fasta	S133_LN:i:5997_dp:f:0.3297589200901693	2438	3304	-	sul1_5	1-867/867	===============	0/0	100.00	99.89	resfinder	EU780013	sul1	Sulfamethoxazole
/home/dla_mm/jkerkvliet/data/gplas/reconstructing_amr_plasmids/validation_pipeline/results/A_baumannii/07_gplas_cc/GCF_016919505.2_ASM1691950v2_results/GCF_016919505.2_ASM1691950v2_bin_1.fasta	S133_LN:i:5997_dp:f:0.3297589200901693	3748	4321	-	dfrA7_5	1-570/570	========/======	3/4	100.00	98.78	resfinder	AJ419170	dfrA7	Trimethoprim
/home/dla_mm/jkerkvliet/data/gplas/reconstructing_amr_plasmids/validation_pipeline/results/A_baumannii/07_gplas_cc/GCF_016919505.2_ASM1691950v2_results/GCF_016919505.2_ASM1691950v2_bin_1.fasta	S133_LN:i:5997_dp:f:0.3297589200901693	4403	4982	-	aac(6')-Ib_1	27-606/606	===============	0/0	95.71	99.66	resfinder	M21682	aac(6')-Ib	Amikacin;Kanamycin;Tobramycin
/home/dla_mm/jkerkvliet/data/gplas/reconstructing_amr_plasmids/validation_pipeline/results/A_baumannii/07_gplas_cc/GCF_016919505.2_ASM1691950v2_results/GCF_016919505.2_ASM1691950v2_bin_1.fasta	S133_LN:i:5997_dp:f:0.3297589200901693	5095	5958	-	blaGES-11_1	1-864/864	===============	0/0	100.00	100.00	resfinder	FJ854362	blaGES-11	Amoxicillin;Amoxicillin+Clavulanic_acid;Ampicillin;Ampicillin+Clavulanic_acid;Cefoxitin;Ceftazidime;Piperacillin;Ticarcillin
/home/dla_mm/jkerkvliet/data/gplas/reconstructing_amr_plasmids/validation_pipeline/results/A_baumannii/07_gplas_cc/GCF_016919505.2_ASM1691950v2_results/GCF_016919505.2_ASM1691950v2_bin_1.fasta	S139_LN:i:4970_dp:f:0.46853531456812025	130	966	-	aph(6)-Id_1	1-837/837	===============	0/0	100.00	99.04	resfinder	M28829	aph(6)-Id	Streptomycin
/home/dla_mm/jkerkvliet/data/gplas/reconstructing_amr_plasmids/validation_pipeline/results/A_baumannii/07_gplas_cc/GCF_016919505.2_ASM1691950v2_results/GCF_016919505.2_ASM1691950v2_bin_1.fasta	S139_LN:i:4970_dp:f:0.46853531456812025	966	1769	-	aph(3'')-Ib_5	1-804/804	===============	0/0	100.00	97.89	resfinder	AF321551	aph(3'')-Ib	Streptomycin
/home/dla_mm/jkerkvliet/data/gplas/reconstructing_amr_plasmids/validation_pipeline/results/A_baumannii/07_gplas_cc/GCF_016919505.2_ASM1691950v2_results/GCF_016919505.2_ASM1691950v2_bin_1.fasta	S139_LN:i:4970_dp:f:0.46853531456812025	1799	2600	-	aadA2_1	18-819/819	===============	0/0	97.92	99.88	resfinder	NC_010870	aadA2	Spectinomycin;Streptomycin
/home/dla_mm/jkerkvliet/data/gplas/reconstructing_amr_plasmids/validation_pipeline/results/A_baumannii/07_gplas_cc/GCF_016919505.2_ASM1691950v2_results/GCF_016919505.2_ASM1691950v2_bin_1.fasta	S139_LN:i:4970_dp:f:0.46853531456812025	2683	3942	-	cmlA1_2	1-1260/1260	===============	0/0	100.00	99.60	resfinder	AB212941	cmlA1	Chloramphenicol
/home/dla_mm/jkerkvliet/data/gplas/reconstructing_amr_plasmids/validation_pipeline/results/A_baumannii/07_gplas_cc/GCF_016919505.2_ASM1691950v2_results/GCF_016919505.2_ASM1691950v2_bin_1.fasta	S139_LN:i:4970_dp:f:0.46853531456812025	4197	4730	-	ant(2'')-Ia_1	1-534/534	===============	0/0	100.00	100.00	resfinder	X04555	ant(2'')-Ia	Gentamicin;Tobramycin
/home/dla_mm/jkerkvliet/data/gplas/reconstructing_amr_plasmids/validation_pipeline/results/A_baumannii/07_gplas_cc/GCF_017753625.1_ASM1775362v1_results/GCF_017753625.1_ASM1775362v1_bin_1.fasta	S18_LN:i:2383_dp:f:1.2696431788084754	91	1296	-	tet(B)_1	1-1206/1206	===============	0/0	100.00	100.00	resfinder	AP000342	tet(B)	Doxycycline;Minocycline;Tetracycline
/home/dla_mm/jkerkvliet/data/gplas/reconstructing_amr_plasmids/validation_pipeline/results/A_baumannii/07_gplas_cc/GCF_017753625.1_ASM1775362v1_results/GCF_017753625.1_ASM1775362v1_bin_1.fasta	S19_LN:i:1580_dp:f:2.675270015912573	438	1253	+	sul2_2	1-816/816	===============	0/0	100.00	100.00	resfinder	AY034138	sul2	Sulfamethoxazole
/home/dla_mm/jkerkvliet/data/gplas/reconstructing_amr_plasmids/validation_pipeline/results/A_baumannii/07_gplas_cc/GCF_017753625.1_ASM1775362v1_results/GCF_017753625.1_ASM1775362v1_bin_2.fasta	S11_LN:i:71430_dp:f:2.099067377990425	5766	6578	-	blaNDM-1_1	1-813/813	===============	0/0	100.00	100.00	resfinder	FN396876	blaNDM-1	Amoxicillin;Amoxicillin+Clavulanic_acid;Ampicillin;Ampicillin+Clavulanic_acid;Cefepime;Cefixime;Cefotaxime;Cefoxitin;Ceftazidime;Ertapenem;Imipenem;Meropenem;Piperacillin;Piperacillin+Tazobactam;Temocillin
/home/dla_mm/jkerkvliet/data/gplas/reconstructing_amr_plasmids/validation_pipeline/results/A_baumannii/07_gplas_cc/GCF_017753625.1_ASM1775362v1_results/GCF_017753625.1_ASM1775362v1_bin_2.fasta	S11_LN:i:71430_dp:f:2.099067377990425	63366	64226	+	aac(3)-IId_1	1-861/861	===============	0/0	100.00	99.88	resfinder	EU022314	aac(3)-IId	Apramycin;Dibekacin;Gentamicin;Netilmicin;Sisomicin;Tobramycin
/home/dla_mm/jkerkvliet/data/gplas/reconstructing_amr_plasmids/validation_pipeline/results/A_baumannii/07_gplas_cc/GCF_017753625.1_ASM1775362v1_results/GCF_017753625.1_ASM1775362v1_bin_2.fasta	S14_LN:i:15233_dp:f:2.140052014913104	804	1688	-	mph(E)_1	1-885/885	===============	0/0	100.00	100.00	resfinder	DQ839391	mph(E)	Erythromycin
/home/dla_mm/jkerkvliet/data/gplas/reconstructing_amr_plasmids/validation_pipeline/results/A_baumannii/07_gplas_cc/GCF_017753625.1_ASM1775362v1_results/GCF_017753625.1_ASM1775362v1_bin_2.fasta	S14_LN:i:15233_dp:f:2.140052014913104	1744	3219	-	msr(E)_1	1-1476/1476	===============	0/0	100.00	100.00	resfinder	FR751518	msr(E)	Azithromycin;Erythromycin;Pristinamycin_IA;Quinupristin;Virginiamycin_S
/home/dla_mm/jkerkvliet/data/gplas/reconstructing_amr_plasmids/validation_pipeline/results/A_baumannii/07_gplas_cc/GCF_021484905.1_ASM2148490v1_results/GCF_021484905.1_ASM2148490v1_bin_1.fasta	S49_LN:i:2383_dp:f:1.2431428590697335	1088	2293	+	tet(B)_1	1-1206/1206	===============	0/0	100.00	100.00	resfinder	AP000342	tet(B)	Doxycycline;Minocycline;Tetracycline
/home/dla_mm/jkerkvliet/data/gplas/reconstructing_amr_plasmids/validation_pipeline/results/A_baumannii/07_gplas_cc/GCF_021484905.1_ASM2148490v1_results/GCF_021484905.1_ASM2148490v1_bin_1.fasta	S5_LN:i:245144_dp:f:1.0	243919	245070	-	blaADC-25_1	1-1152/1152	===============	0/0	100.00	96.27	resfinder	EF016355	blaADC-25	
/home/dla_mm/jkerkvliet/data/gplas/reconstructing_amr_plasmids/validation_pipeline/results/A_baumannii/07_gplas_cc/GCF_014705825.1_ASM1470582v1_results/GCF_014705825.1_ASM1470582v1_bin_1.fasta	S49_LN:i:3657_dp:f:2.8391521793310983	2688	3257	+	dfrA19_2	1-570/570	===============	0/0	100.00	100.00	resfinder	EU855687	dfrA19	Trimethoprim
/home/dla_mm/jkerkvliet/data/gplas/reconstructing_amr_plasmids/validation_pipeline/results/A_baumannii/07_gplas_cc/GCF_014705825.1_ASM1470582v1_results/GCF_014705825.1_ASM1470582v1_bin_1.fasta	S51_LN:i:2833_dp:f:2.2344329260947204	398	1873	+	msr(E)_1	1-1476/1476	===============	0/0	100.00	100.00	resfinder	FR751518	msr(E)	Azithromycin;Erythromycin;Pristinamycin_IA;Quinupristin;Virginiamycin_S
/home/dla_mm/jkerkvliet/data/gplas/reconstructing_amr_plasmids/validation_pipeline/results/A_baumannii/07_gplas_cc/GCF_014705825.1_ASM1470582v1_results/GCF_014705825.1_ASM1470582v1_bin_1.fasta	S51_LN:i:2833_dp:f:2.2344329260947204	1929	2813	+	mph(E)_1	1-885/885	===============	0/0	100.00	100.00	resfinder	DQ839391	mph(E)	Erythromycin
/home/dla_mm/jkerkvliet/data/gplas/reconstructing_amr_plasmids/validation_pipeline/results/A_baumannii/07_gplas_cc/GCF_014705825.1_ASM1470582v1_results/GCF_014705825.1_ASM1470582v1_bin_1.fasta	S57_LN:i:1308_dp:f:5.62936512840968	25	891	-	sul1_5	1-867/867	===============	0/0	100.00	99.89	resfinder	EU780013	sul1	Sulfamethoxazole
/home/dla_mm/jkerkvliet/data/gplas/reconstructing_amr_plasmids/validation_pipeline/results/A_baumannii/07_gplas_cc/GCF_019903235.1_ASM1990323v1_results/GCF_019903235.1_ASM1990323v1_bin_4.fasta	S74_LN:i:15065_dp:f:1.3711951323944065	13195	14010	-	sul2_2	1-816/816	===============	0/0	100.00	100.00	resfinder	AY034138	sul2	Sulfamethoxazole
/home/dla_mm/jkerkvliet/data/gplas/reconstructing_amr_plasmids/validation_pipeline/results/A_baumannii/07_gplas_cc/GCF_019903235.1_ASM1990323v1_results/GCF_019903235.1_ASM1990323v1_bin_1.fasta	S113_LN:i:9323_dp:f:1.9247707707769932	336	1961	-	mcr-4.3_1	1-1626/1626	===============	0/0	100.00	99.88	resfinder	MG026621	mcr-4.3	Colistin
