GCF_906464875.1_BX8117,plasmid_AF632,NZ_OD940439.1,5153,5153
GCF_906464875.1_BX8117,plasmid_AD582,NZ_OD940439.1,17201,30924
GCF_906464875.1_BX8117,plasmid_AD582,NZ_OD940437.1,15014,30924
GCF_022648285.1_ASM2264828v1,plasmid_AC671,NZ_CP076492.1,6853,6853
GCF_022648285.1_ASM2264828v1,plasmid_AB529,NZ_CP076490.1,14370,19823
GCF_022648285.1_ASM2264828v1,plasmid_AB529,NZ_CP076492.1,5433,19823
GCF_022648285.1_ASM2264828v1,plasmid_AC345,NZ_CP076488.1,49250,23999
GCF_022648285.1_ASM2264828v1,plasmid_AC345,NZ_CP076491.1,2383,23999
GCF_022648285.1_ASM2264828v1,plasmid_AE309,NZ_CP076489.1,68333,66305
GCF_022648285.1_ASM2264828v1,plasmid_AE309,NZ_CP076492.1,3944,66305
GCF_022648285.1_ASM2264828v1,plasmid_AE315,NZ_CP076489.1,19448,22313
GCF_022648285.1_ASM2264828v1,plasmid_AE315,NZ_CP076492.1,2865,22313
GCF_022648285.1_ASM2264828v1,plasmid_AB528,NZ_CP076491.1,40660,48984
GCF_022648285.1_ASM2264828v1,plasmid_AB528,NZ_CP076488.1,13014,48984
GCF_022648285.1_ASM2264828v1,plasmid_AB528,NZ_CP076489.1,7464,48984
GCF_022648285.1_ASM2264828v1,plasmid_AB528,NZ_CP076492.1,1024,48984
GCF_022648285.1_ASM2264828v1,plasmid_novel_c5a31371f06503f19fe47d61a3f1f319,NZ_CP076492.1,1229,1229
GCF_906464865.1_WE0438,plasmid_AD582,NZ_OD940421.1,55788,56837
GCF_906464865.1_WE0438,plasmid_AD582,NZ_OD940420.1,4129,56837
GCF_906464865.1_WE0438,plasmid_AB528,NZ_OD940420.1,29571,29571
GCF_020844125.1_ASM2084412v1,plasmid_AB920,NZ_CP063980.1,7377,8395
GCF_020844125.1_ASM2084412v1,plasmid_AB920,NZ_CP063981.1,8395,8395
GCF_020844125.1_ASM2084412v1,plasmid_AE312,NZ_CP063981.1,56701,56701
GCF_906464915.2_WE0254,plasmid_AA769,NZ_OD940440.2,13572,13572
GCF_906464915.2_WE0254,plasmid_AB528,NZ_OU538996.1,62366,62366
GCF_906464895.1_WE0851,plasmid_AD055,NZ_OD940424.1,10942,22598
GCF_906464895.1_WE0851,plasmid_AD055,NZ_OD940425.1,5797,22598
GCF_906464895.1_WE0851,plasmid_AD055,NZ_OD940422.1,2374,22598
GCF_906464895.1_WE0851,plasmid_AD055,NZ_OD940426.1,1919,22598
GCF_906464895.1_WE0851,plasmid_AD055,NZ_OD940428.1,1340,22598
GCF_906464895.1_WE0851,plasmid_AA010,NZ_OD940427.1,1958,1958
GCF_022648595.1_ASM2264859v1,plasmid_AC671,NZ_CP076502.1,6847,6853
GCF_022648595.1_ASM2264859v1,plasmid_AB529,NZ_CP076500.1,14388,19823
GCF_022648595.1_ASM2264859v1,plasmid_AB529,NZ_CP076502.1,5433,19823
GCF_022648595.1_ASM2264859v1,plasmid_AC345,NZ_CP076498.1,48068,24002
GCF_022648595.1_ASM2264859v1,plasmid_AC345,NZ_CP076501.1,2383,24002
GCF_022648595.1_ASM2264859v1,plasmid_AE309,NZ_CP076499.1,68337,66305
GCF_022648595.1_ASM2264859v1,plasmid_AE309,NZ_CP076502.1,3943,66305
GCF_022648595.1_ASM2264859v1,plasmid_AE315,NZ_CP076499.1,19448,22312
GCF_022648595.1_ASM2264859v1,plasmid_AE315,NZ_CP076502.1,2864,22312
GCF_022648595.1_ASM2264859v1,plasmid_AB528,NZ_CP076501.1,41471,48984
GCF_022648595.1_ASM2264859v1,plasmid_AB528,NZ_CP076499.1,7460,48984
GCF_022648595.1_ASM2264859v1,plasmid_AB528,NZ_CP076498.1,9843,48984
GCF_022648595.1_ASM2264859v1,plasmid_AB528,NZ_CP076502.1,1023,48984
GCF_022648595.1_ASM2264859v1,plasmid_novel_c5a31371f06503f19fe47d61a3f1f319,NZ_CP076502.1,1229,1229
GCF_021655635.1_ASM2165563v1,plasmid_AF568,NZ_AP025272.1,27486,27486
GCF_013344605.1_ASM1334460v1,plasmid_AB530,NZ_CP046109.1,72185,72185
GCF_013344605.1_ASM1334460v1,plasmid_AB530,NZ_CP046110.1,8133,72185
GCF_013344605.1_ASM1334460v1,plasmid_AB530,NZ_CP046108.1,5882,72185
GCF_013344605.1_ASM1334460v1,plasmid_AE310,NZ_CP046110.1,24973,24973
GCF_906464925.1_BX5936,plasmid_AD582,NZ_OD940436.1,50393,50393
GCF_906464925.1_BX5936,plasmid_novel_4b148a40d2efd7fffb48173927429124,NZ_OD940435.1,9978,9978
GCF_906464925.1_BX5936,plasmid_AE311,NZ_OD940435.1,54731,54732
GCF_906464925.1_BX5936,plasmid_AE311,NZ_OD940434.1,6380,54732
GCF_906464835.1_TM6294,plasmid_AD582,NZ_OD940432.1,58047,62316
GCF_906464835.1_TM6294,plasmid_AD582,NZ_OD940431.1,6631,62316
GCF_906464835.1_TM6294,plasmid_AD582,NZ_OD940433.1,2361,62316
GCF_906464835.1_TM6294,plasmid_AE311,NZ_OD940433.1,31091,49053
GCF_906464835.1_TM6294,plasmid_AE311,NZ_OD940432.1,14853,49053
GCF_906464835.1_TM6294,plasmid_AE311,NZ_OD940431.1,15019,49053
GCF_906464835.1_TM6294,plasmid_AD414,NZ_OD940433.1,15475,15475
GCF_022648425.1_ASM2264842v1,plasmid_AC671,NZ_CP076497.1,6853,6853
GCF_022648425.1_ASM2264842v1,plasmid_novel_8e6646f35dbafb6c803c2aac77f12f2d,NZ_CP076497.1,1229,1229
GCF_022648425.1_ASM2264842v1,plasmid_AB529,NZ_CP076495.1,14362,19823
GCF_022648425.1_ASM2264842v1,plasmid_AB529,NZ_CP076497.1,5433,19823
GCF_022648425.1_ASM2264842v1,plasmid_AC345,NZ_CP076493.1,47950,24002
GCF_022648425.1_ASM2264842v1,plasmid_AC345,NZ_CP076496.1,2383,24002
GCF_022648425.1_ASM2264842v1,plasmid_AE309,NZ_CP076494.1,68336,66305
GCF_022648425.1_ASM2264842v1,plasmid_AE309,NZ_CP076497.1,3943,66305
GCF_022648425.1_ASM2264842v1,plasmid_AE315,NZ_CP076494.1,19448,22312
GCF_022648425.1_ASM2264842v1,plasmid_AE315,NZ_CP076497.1,2864,22312
GCF_022648425.1_ASM2264842v1,plasmid_AB528,NZ_CP076496.1,41143,48984
GCF_022648425.1_ASM2264842v1,plasmid_AB528,NZ_CP076494.1,7436,48984
GCF_022648425.1_ASM2264842v1,plasmid_AB528,NZ_CP076493.1,12171,48984
GCF_022648425.1_ASM2264842v1,plasmid_AB528,NZ_CP076497.1,1024,48984
