GCF_906464875.1_BX8117,plasmid_AF632,0
GCF_906464875.1_BX8117,plasmid_AD582,1
GCF_022648285.1_ASM2264828v1,plasmid_AC671,0
GCF_022648285.1_ASM2264828v1,plasmid_AB529,0
GCF_022648285.1_ASM2264828v1,plasmid_AC345,2
GCF_022648285.1_ASM2264828v1,plasmid_AE309,2
GCF_022648285.1_ASM2264828v1,plasmid_AE315,0
GCF_022648285.1_ASM2264828v1,plasmid_AB528,5
GCF_022648285.1_ASM2264828v1,plasmid_novel_c5a31371f06503f19fe47d61a3f1f319,0
GCF_906464865.1_WE0438,plasmid_AD582,1
GCF_906464865.1_WE0438,plasmid_AB528,0
GCF_020844125.1_ASM2084412v1,plasmid_AB920,2
GCF_020844125.1_ASM2084412v1,plasmid_AE312,0
GCF_906464915.2_WE0254,plasmid_AA769,0
GCF_906464915.2_WE0254,plasmid_AB528,0
GCF_906464895.1_WE0851,plasmid_AD055,0
GCF_906464895.1_WE0851,plasmid_AA010,0
GCF_022648595.1_ASM2264859v1,plasmid_AC671,0
GCF_022648595.1_ASM2264859v1,plasmid_AB529,0
GCF_022648595.1_ASM2264859v1,plasmid_AC345,2
GCF_022648595.1_ASM2264859v1,plasmid_AE309,2
GCF_022648595.1_ASM2264859v1,plasmid_AE315,0
GCF_022648595.1_ASM2264859v1,plasmid_AB528,4
GCF_022648595.1_ASM2264859v1,plasmid_novel_c5a31371f06503f19fe47d61a3f1f319,0
GCF_021655635.1_ASM2165563v1,plasmid_AF568,0
GCF_013344605.1_ASM1334460v1,plasmid_AB530,2
GCF_013344605.1_ASM1334460v1,plasmid_AE310,0
GCF_906464925.1_BX5936,plasmid_AD582,0
GCF_906464925.1_BX5936,plasmid_novel_4b148a40d2efd7fffb48173927429124,0
GCF_906464925.1_BX5936,plasmid_AE311,1
GCF_906464835.1_TM6294,plasmid_AD582,2
GCF_906464835.1_TM6294,plasmid_AE311,2
GCF_906464835.1_TM6294,plasmid_AD414,0
GCF_022648425.1_ASM2264842v1,plasmid_AC671,0
GCF_022648425.1_ASM2264842v1,plasmid_novel_8e6646f35dbafb6c803c2aac77f12f2d,0
GCF_022648425.1_ASM2264842v1,plasmid_AB529,0
GCF_022648425.1_ASM2264842v1,plasmid_AC345,2
GCF_022648425.1_ASM2264842v1,plasmid_AE309,2
GCF_022648425.1_ASM2264842v1,plasmid_AE315,0
GCF_022648425.1_ASM2264842v1,plasmid_AB528,5
