GCF_906464875.1_BX8117,0
GCF_906464875.1_BX8117,0
GCF_022648285.1_ASM2264828v1,0
GCF_022648285.1_ASM2264828v1,0
GCF_022648285.1_ASM2264828v1,0
GCF_022648285.1_ASM2264828v1,0
GCF_022648285.1_ASM2264828v1,0
GCF_022648285.1_ASM2264828v1,0
GCF_022648285.1_ASM2264828v1,0
GCF_906464865.1_WE0438,0
GCF_906464865.1_WE0438,0
GCF_020844125.1_ASM2084412v1,0
GCF_020844125.1_ASM2084412v1,0
GCF_906464915.2_WE0254,0
GCF_906464915.2_WE0254,0
GCF_906464895.1_WE0851,0
GCF_906464895.1_WE0851,0
GCF_022648595.1_ASM2264859v1,0
GCF_022648595.1_ASM2264859v1,0
GCF_022648595.1_ASM2264859v1,0
GCF_022648595.1_ASM2264859v1,0
GCF_022648595.1_ASM2264859v1,0
GCF_022648595.1_ASM2264859v1,0
GCF_022648595.1_ASM2264859v1,0
GCF_021655635.1_ASM2165563v1,0
GCF_013344605.1_ASM1334460v1,0
GCF_013344605.1_ASM1334460v1,0
GCF_906464925.1_BX5936,0
GCF_906464925.1_BX5936,0
GCF_906464925.1_BX5936,0
GCF_906464835.1_TM6294,0
GCF_906464835.1_TM6294,0
GCF_906464835.1_TM6294,0
GCF_022648425.1_ASM2264842v1,0
GCF_022648425.1_ASM2264842v1,0
GCF_022648425.1_ASM2264842v1,0
GCF_022648425.1_ASM2264842v1,0
GCF_022648425.1_ASM2264842v1,0
GCF_022648425.1_ASM2264842v1,0
GCF_022648425.1_ASM2264842v1,0
