#FILE	SEQUENCE	START	END	STRAND	GENE	COVERAGE	COVERAGE_MAP	GAPS	%COVERAGE	%IDENTITY	DATABASE	ACCESSION	PRODUCT	RESISTANCE
/hpc/dla_mm/jkerkvliet/data/gplas/newmodels/results/A_baumannii/08_mobsuite/GCF_016127515.1_ASM1612751v1/plasmid_AC163.fasta	S40_LN:i:2445_dp:f:1.9957112007668112	1590	2411	-	blaOXA-23_1	1-822/822	===============	0/0	100.00	100.00	resfinder	AY795964	blaOXA-23	Imipenem;Meropenem
/hpc/dla_mm/jkerkvliet/data/gplas/newmodels/results/A_baumannii/08_mobsuite/GCF_016903215.1_ASM1690321v1/plasmid_AC237.fasta	S31_LN:i:17433_dp:f:0.9390710401433966	4152	5036	-	mph(E)_1	1-885/885	===============	0/0	100.00	100.00	resfinder	DQ839391	mph(E)	Erythromycin
/hpc/dla_mm/jkerkvliet/data/gplas/newmodels/results/A_baumannii/08_mobsuite/GCF_016903215.1_ASM1690321v1/plasmid_AC237.fasta	S31_LN:i:17433_dp:f:0.9390710401433966	5092	6567	-	msr(E)_1	1-1476/1476	===============	0/0	100.00	100.00	resfinder	FR751518	msr(E)	
/hpc/dla_mm/jkerkvliet/data/gplas/newmodels/results/A_baumannii/08_mobsuite/GCF_016903215.1_ASM1690321v1/plasmid_AC237.fasta	S31_LN:i:17433_dp:f:0.9390710401433966	8866	9639	-	armA_1	1-774/774	===============	0/0	100.00	100.00	resfinder	AY220558	armA	Amikacin;Gentamicin;Tobramycin
/hpc/dla_mm/jkerkvliet/data/gplas/newmodels/results/A_baumannii/08_mobsuite/GCF_016903215.1_ASM1690321v1/plasmid_AC237.fasta	S31_LN:i:17433_dp:f:0.9390710401433966	12984	13850	-	sul1_5	1-867/867	===============	0/0	100.00	99.89	resfinder	EU780013	sul1	Sulfamethoxazole
/hpc/dla_mm/jkerkvliet/data/gplas/newmodels/results/A_baumannii/08_mobsuite/GCF_016903215.1_ASM1690321v1/plasmid_AC237.fasta	S31_LN:i:17433_dp:f:0.9390710401433966	14328	15129	-	ant(3'')-Ia_1	171-972/972	..=============	0/0	82.51	99.75	resfinder	X02340	ant(3'')-Ia	Streptomycin
/hpc/dla_mm/jkerkvliet/data/gplas/newmodels/results/A_baumannii/08_mobsuite/GCF_016903215.1_ASM1690321v1/plasmid_AC237.fasta	S31_LN:i:17433_dp:f:0.9390710401433966	15177	15809	-	catB8_1	1-633/633	===============	0/0	100.00	100.00	resfinder	AF227506	catB8	Chloramphenicol
/hpc/dla_mm/jkerkvliet/data/gplas/newmodels/results/A_baumannii/08_mobsuite/GCF_016903215.1_ASM1690321v1/plasmid_AC237.fasta	S44_LN:i:1054_dp:f:0.9861949893596863	50	865	-	aph(3')-Ia_7	1-816/816	===============	0/0	100.00	99.88	resfinder	X62115	aph(3')-Ia	
/hpc/dla_mm/jkerkvliet/data/gplas/newmodels/results/A_baumannii/08_mobsuite/GCF_016903215.1_ASM1690321v1/plasmid_AC163.fasta	S41_LN:i:2681_dp:f:1.0103211106607175	159	980	+	blaOXA-23_1	1-822/822	===============	0/0	100.00	100.00	resfinder	AY795964	blaOXA-23	Imipenem;Meropenem
/hpc/dla_mm/jkerkvliet/data/gplas/newmodels/results/A_baumannii/08_mobsuite/GCF_018604365.1_ASM1860436v1/plasmid_AC163.fasta	S55_LN:i:2445_dp:f:3.9901824667877785	35	856	+	blaOXA-23_1	1-822/822	===============	0/0	100.00	100.00	resfinder	AY795964	blaOXA-23	Imipenem;Meropenem
/hpc/dla_mm/jkerkvliet/data/gplas/newmodels/results/A_baumannii/08_mobsuite/GCF_021609965.1_ASM2160996v1/plasmid_AC715.fasta	S48_LN:i:2811_dp:f:0.5554741107930742	1	723	+	aph(6)-Id_1	115-837/837	..=============	0/0	86.38	100.00	resfinder	M28829	aph(6)-Id	Streptomycin
/hpc/dla_mm/jkerkvliet/data/gplas/newmodels/results/A_baumannii/08_mobsuite/GCF_021609965.1_ASM2160996v1/plasmid_AC715.fasta	S50_LN:i:2383_dp:f:1.008259338570788	91	1296	-	tet(B)_1	1-1206/1206	===============	0/0	100.00	100.00	resfinder	AP000342	tet(B)	Doxycycline;Tetracycline;Minocycline
/hpc/dla_mm/jkerkvliet/data/gplas/newmodels/results/A_baumannii/08_mobsuite/GCF_021609965.1_ASM2160996v1/plasmid_AC715.fasta	S60_LN:i:1164_dp:f:0.6409125119193307	22	837	+	sul2_2	1-816/816	===============	0/0	100.00	100.00	resfinder	AY034138	sul2	Sulfamethoxazole
/hpc/dla_mm/jkerkvliet/data/gplas/newmodels/results/A_baumannii/08_mobsuite/GCF_021609965.1_ASM2160996v1/plasmid_AC163.fasta	S49_LN:i:2445_dp:f:2.287574241600143	1590	2411	-	blaOXA-23_1	1-822/822	===============	0/0	100.00	100.00	resfinder	AY795964	blaOXA-23	Imipenem;Meropenem
/hpc/dla_mm/jkerkvliet/data/gplas/newmodels/results/A_baumannii/08_mobsuite/GCF_016919525.1_ASM1691952v2/plasmid_AE271.fasta	S151_LN:i:8431_dp:f:0.8019232667462222	6536	7360	-	blaOXA-69_1	1-825/825	===============	0/0	100.00	100.00	resfinder	AY859527	blaOXA-69	Amoxicillin;Ampicillin
/hpc/dla_mm/jkerkvliet/data/gplas/newmodels/results/A_baumannii/08_mobsuite/GCF_016919525.1_ASM1691952v2/plasmid_AB082.fasta	S174_LN:i:5997_dp:f:0.4591510553555168	2438	3304	-	sul1_5	1-867/867	===============	0/0	100.00	99.89	resfinder	EU780013	sul1	Sulfamethoxazole
/hpc/dla_mm/jkerkvliet/data/gplas/newmodels/results/A_baumannii/08_mobsuite/GCF_016919525.1_ASM1691952v2/plasmid_AB082.fasta	S174_LN:i:5997_dp:f:0.4591510553555168	3748	4321	-	dfrA7_5	1-570/570	========/======	3/4	100.00	98.78	resfinder	AJ419170	dfrA7	Trimethoprim
/hpc/dla_mm/jkerkvliet/data/gplas/newmodels/results/A_baumannii/08_mobsuite/GCF_016919525.1_ASM1691952v2/plasmid_AB082.fasta	S174_LN:i:5997_dp:f:0.4591510553555168	4403	4982	-	aac(6')-Ib_1	27-606/606	===============	0/0	95.71	99.66	resfinder	M21682	aac(6')-Ib	Amikacin;Tobramycin
/hpc/dla_mm/jkerkvliet/data/gplas/newmodels/results/A_baumannii/08_mobsuite/GCF_016919525.1_ASM1691952v2/plasmid_AB082.fasta	S174_LN:i:5997_dp:f:0.4591510553555168	5095	5958	-	blaGES-11_1	1-864/864	===============	0/0	100.00	100.00	resfinder	FJ854362	blaGES-11	
/hpc/dla_mm/jkerkvliet/data/gplas/newmodels/results/A_baumannii/08_mobsuite/GCF_016919525.1_ASM1691952v2/plasmid_AB082.fasta	S182_LN:i:4970_dp:f:1.5087578262723427	241	774	+	ant(2'')-Ia_1	1-534/534	===============	0/0	100.00	100.00	resfinder	X04555	ant(2'')-Ia	Gentamicin;Tobramycin
/hpc/dla_mm/jkerkvliet/data/gplas/newmodels/results/A_baumannii/08_mobsuite/GCF_016919525.1_ASM1691952v2/plasmid_AB082.fasta	S182_LN:i:4970_dp:f:1.5087578262723427	1029	2288	+	cmlA1_2	1-1260/1260	===============	0/0	100.00	99.60	resfinder	AB212941	cmlA1	Chloramphenicol
/hpc/dla_mm/jkerkvliet/data/gplas/newmodels/results/A_baumannii/08_mobsuite/GCF_016919525.1_ASM1691952v2/plasmid_AB082.fasta	S182_LN:i:4970_dp:f:1.5087578262723427	2371	3172	+	aadA2_1	18-819/819	===============	0/0	97.92	99.88	resfinder	NC_010870	aadA2	Streptomycin
/hpc/dla_mm/jkerkvliet/data/gplas/newmodels/results/A_baumannii/08_mobsuite/GCF_016919525.1_ASM1691952v2/plasmid_AB082.fasta	S182_LN:i:4970_dp:f:1.5087578262723427	3202	4005	+	aph(3'')-Ib_5	1-804/804	===============	0/0	100.00	97.89	resfinder	AF321551	aph(3'')-Ib	Streptomycin
/hpc/dla_mm/jkerkvliet/data/gplas/newmodels/results/A_baumannii/08_mobsuite/GCF_016919525.1_ASM1691952v2/plasmid_AB082.fasta	S182_LN:i:4970_dp:f:1.5087578262723427	4005	4841	+	aph(6)-Id_1	1-837/837	===============	0/0	100.00	99.04	resfinder	M28829	aph(6)-Id	Streptomycin
/hpc/dla_mm/jkerkvliet/data/gplas/newmodels/results/A_baumannii/08_mobsuite/GCF_019458485.1_ASM1945848v1/plasmid_AC715.fasta	S46_LN:i:2811_dp:f:0.564167922046155	1	723	+	aph(6)-Id_1	115-837/837	..=============	0/0	86.38	100.00	resfinder	M28829	aph(6)-Id	Streptomycin
/hpc/dla_mm/jkerkvliet/data/gplas/newmodels/results/A_baumannii/08_mobsuite/GCF_019458485.1_ASM1945848v1/plasmid_AC715.fasta	S49_LN:i:2383_dp:f:1.0419392173233675	1088	2293	+	tet(B)_1	1-1206/1206	===============	0/0	100.00	100.00	resfinder	AP000342	tet(B)	Doxycycline;Tetracycline;Minocycline
/hpc/dla_mm/jkerkvliet/data/gplas/newmodels/results/A_baumannii/08_mobsuite/GCF_019458485.1_ASM1945848v1/plasmid_AC715.fasta	S57_LN:i:1164_dp:f:0.5864619439427171	328	1143	-	sul2_2	1-816/816	===============	0/0	100.00	100.00	resfinder	AY034138	sul2	Sulfamethoxazole
/hpc/dla_mm/jkerkvliet/data/gplas/newmodels/results/A_baumannii/08_mobsuite/GCF_019458485.1_ASM1945848v1/plasmid_AC163.fasta	S48_LN:i:2445_dp:f:2.310495177431907	1590	2411	-	blaOXA-23_1	1-822/822	===============	0/0	100.00	100.00	resfinder	AY795964	blaOXA-23	Imipenem;Meropenem
/hpc/dla_mm/jkerkvliet/data/gplas/newmodels/results/A_baumannii/08_mobsuite/GCF_013787185.1_ASM1378718v1/plasmid_AB114.fasta	S80_LN:i:11191_dp:f:0.528589021586124	5196	6011	-	sul2_2	1-816/816	===============	0/0	100.00	100.00	resfinder	AY034138	sul2	Sulfamethoxazole
/hpc/dla_mm/jkerkvliet/data/gplas/newmodels/results/A_baumannii/08_mobsuite/GCF_013372085.1_ASM1337208v1/plasmid_AC716.fasta	S15_LN:i:20369_dp:f:1.516360949164666	3004	3819	+	sul2_2	1-816/816	===============	0/0	100.00	100.00	resfinder	AY034138	sul2	Sulfamethoxazole
/hpc/dla_mm/jkerkvliet/data/gplas/newmodels/results/A_baumannii/08_mobsuite/GCF_014705885.1_ASM1470588v1/plasmid_AB114.fasta	S80_LN:i:1462_dp:f:0.9983676131465793	626	1441	-	sul2_2	1-816/816	===============	0/0	100.00	100.00	resfinder	AY034138	sul2	Sulfamethoxazole
/hpc/dla_mm/jkerkvliet/data/gplas/newmodels/results/A_baumannii/08_mobsuite/GCF_018808925.1_ASM1880892v1/plasmid_AC716.fasta	S47_LN:i:8669_dp:f:1.1587811825294319	1	790	-	aph(3'')-Ib_2	2-791/804	===============	0/0	98.26	100.00	resfinder	AF024602	aph(3'')-Ib	Streptomycin
/hpc/dla_mm/jkerkvliet/data/gplas/newmodels/results/A_baumannii/08_mobsuite/GCF_018808925.1_ASM1880892v1/plasmid_AC716.fasta	S55_LN:i:3361_dp:f:0.9418418255709268	2525	3340	-	sul2_2	1-816/816	===============	0/0	100.00	100.00	resfinder	AY034138	sul2	Sulfamethoxazole
/hpc/dla_mm/jkerkvliet/data/gplas/newmodels/results/A_baumannii/08_mobsuite/GCF_020810655.1_ASM2081065v1/plasmid_AA858.fasta	S16_LN:i:84925_dp:f:1.0251737953159745	1508	2374	-	sul1_5	1-867/867	===============	0/0	100.00	99.89	resfinder	EU780013	sul1	Sulfamethoxazole
/hpc/dla_mm/jkerkvliet/data/gplas/newmodels/results/A_baumannii/08_mobsuite/GCF_020810655.1_ASM2081065v1/plasmid_AA858.fasta	S16_LN:i:84925_dp:f:1.0251737953159745	2852	3663	-	ant(3'')-Ia_1	161-972/972	..=============	0/0	83.54	99.88	resfinder	X02340	ant(3'')-Ia	Streptomycin
/hpc/dla_mm/jkerkvliet/data/gplas/newmodels/results/A_baumannii/08_mobsuite/GCF_020810655.1_ASM2081065v1/plasmid_AA858.fasta	S16_LN:i:84925_dp:f:1.0251737953159745	3660	4460	-	blaOXA-10_1	1-801/801	===============	0/0	100.00	100.00	resfinder	J03427	blaOXA-10	Amoxicillin;Ampicillin;Aztreonam;Piperacillin;Piperacillin+Tazobactam
/hpc/dla_mm/jkerkvliet/data/gplas/newmodels/results/A_baumannii/08_mobsuite/GCF_020810655.1_ASM2081065v1/plasmid_AA858.fasta	S16_LN:i:84925_dp:f:1.0251737953159745	4725	5984	-	cmlA1_1	1-1260/1260	===============	0/0	100.00	99.68	resfinder	M64556	cmlA1	Chloramphenicol
/hpc/dla_mm/jkerkvliet/data/gplas/newmodels/results/A_baumannii/08_mobsuite/GCF_020810655.1_ASM2081065v1/plasmid_AA858.fasta	S16_LN:i:84925_dp:f:1.0251737953159745	6305	6794	-	ARR-3_4	54-543/543	.==============	0/0	90.24	99.80	resfinder	FM207631	ARR-3	
/hpc/dla_mm/jkerkvliet/data/gplas/newmodels/results/A_baumannii/08_mobsuite/GCF_020810655.1_ASM2081065v1/plasmid_AA858.fasta	S16_LN:i:84925_dp:f:1.0251737953159745	6868	7350	-	dfrA14_5	1-483/483	===============	0/0	100.00	99.59	resfinder	DQ388123	dfrA14	Trimethoprim
/hpc/dla_mm/jkerkvliet/data/gplas/newmodels/results/A_baumannii/08_mobsuite/GCF_020810655.1_ASM2081065v1/plasmid_AA667.fasta	S24_LN:i:16107_dp:f:1.027611111147019	3943	4803	+	blaTEM-106_1	1-861/861	===============	0/0	100.00	99.77	resfinder	AY101578	blaTEM-106	Amoxicillin;Ampicillin;Aztreonam;Cefepime;Cefotaxime;Ceftazidime;Ceftriaxone;Piperacillin;Ticarcillin
/hpc/dla_mm/jkerkvliet/data/gplas/newmodels/results/A_baumannii/08_mobsuite/GCF_020810655.1_ASM2081065v1/plasmid_AA667.fasta	S24_LN:i:16107_dp:f:1.027611111147019	4945	5805	+	aac(3)-IIa_1	1-861/861	===============	0/0	100.00	100.00	resfinder	X51534	aac(3)-IIa	Gentamicin;Tobramycin
/hpc/dla_mm/jkerkvliet/data/gplas/newmodels/results/A_baumannii/08_mobsuite/GCF_020810655.1_ASM2081065v1/plasmid_AA667.fasta	S24_LN:i:16107_dp:f:1.027611111147019	14694	15560	+	blaSCO-1_1	1-867/867	===============	0/0	100.00	100.00	resfinder	EF063111	blaSCO-1	
/hpc/dla_mm/jkerkvliet/data/gplas/newmodels/results/A_baumannii/08_mobsuite/GCF_020810655.1_ASM2081065v1/plasmid_AA667.fasta	S29_LN:i:3236_dp:f:1.9539732944148887	1108	2321	-	floR_2	1-1214/1215	===============	0/0	99.92	98.35	resfinder	AF118107	floR	Chloramphenicol;Florfenicol
/hpc/dla_mm/jkerkvliet/data/gplas/newmodels/results/A_baumannii/08_mobsuite/GCF_020810655.1_ASM2081065v1/plasmid_AA667.fasta	S39_LN:i:1162_dp:f:1.9647999644942447	329	1144	-	sul2_2	1-816/816	===============	0/0	100.00	100.00	resfinder	AY034138	sul2	Sulfamethoxazole
/hpc/dla_mm/jkerkvliet/data/gplas/newmodels/results/A_baumannii/08_mobsuite/GCF_020810655.1_ASM2081065v1/plasmid_AA667.fasta	S43_LN:i:1012_dp:f:1.0236195144631015	131	946	-	aph(3')-Ia_7	1-816/816	===============	0/0	100.00	100.00	resfinder	X62115	aph(3')-Ia	
/hpc/dla_mm/jkerkvliet/data/gplas/newmodels/results/A_baumannii/08_mobsuite/GCF_020810655.1_ASM2081065v1/plasmid_AC163.fasta	S25_LN:i:11069_dp:f:8.370303054981568	7950	9071	+	tet(39)_1	1-1122/1122	===============	0/0	100.00	100.00	resfinder	KT346360	tet(39)	Doxycycline;Tetracycline
/hpc/dla_mm/jkerkvliet/data/gplas/newmodels/results/A_baumannii/08_mobsuite/GCF_021484905.1_ASM2148490v1/plasmid_AC715.fasta	S46_LN:i:2811_dp:f:1.0327294754442709	1	723	+	aph(6)-Id_1	115-837/837	..=============	0/0	86.38	100.00	resfinder	M28829	aph(6)-Id	Streptomycin
/hpc/dla_mm/jkerkvliet/data/gplas/newmodels/results/A_baumannii/08_mobsuite/GCF_021484905.1_ASM2148490v1/plasmid_AC715.fasta	S49_LN:i:2383_dp:f:1.2431428590697335	1088	2293	+	tet(B)_1	1-1206/1206	===============	0/0	100.00	100.00	resfinder	AP000342	tet(B)	Doxycycline;Tetracycline;Minocycline
/hpc/dla_mm/jkerkvliet/data/gplas/newmodels/results/A_baumannii/08_mobsuite/GCF_021484905.1_ASM2148490v1/plasmid_AC715.fasta	S59_LN:i:1164_dp:f:1.055518702608674	328	1143	-	sul2_2	1-816/816	===============	0/0	100.00	100.00	resfinder	AY034138	sul2	Sulfamethoxazole
/hpc/dla_mm/jkerkvliet/data/gplas/newmodels/results/A_baumannii/08_mobsuite/GCF_021484905.1_ASM2148490v1/plasmid_AC163.fasta	S48_LN:i:2445_dp:f:2.1914847314811094	1590	2411	-	blaOXA-23_1	1-822/822	===============	0/0	100.00	100.00	resfinder	AY795964	blaOXA-23	Imipenem;Meropenem
/hpc/dla_mm/jkerkvliet/data/gplas/newmodels/results/A_baumannii/08_mobsuite/GCF_019903235.1_ASM1990323v1/plasmid_AE204.fasta	S113_LN:i:9323_dp:f:1.9247707707769932	336	1961	-	mcr-4.3_1	1-1626/1626	===============	0/0	100.00	99.88	resfinder	MG026621	mcr-4.3	Colistin
/hpc/dla_mm/jkerkvliet/data/gplas/newmodels/results/A_baumannii/08_mobsuite/GCF_014705805.1_ASM1470580v1/plasmid_AB114.fasta	S70_LN:i:1462_dp:f:0.8122571560153504	626	1441	-	sul2_2	1-816/816	===============	0/0	100.00	100.00	resfinder	AY034138	sul2	Sulfamethoxazole
/hpc/dla_mm/jkerkvliet/data/gplas/newmodels/results/A_baumannii/08_mobsuite/GCF_014705805.1_ASM1470580v1/plasmid_AB082.fasta	S59_LN:i:2521_dp:f:1.6364836841164134	737	1603	-	sul1_5	1-867/867	===============	0/0	100.00	99.89	resfinder	EU780013	sul1	Sulfamethoxazole
/hpc/dla_mm/jkerkvliet/data/gplas/newmodels/results/A_baumannii/08_mobsuite/GCF_016903135.1_ASM1690313v1/plasmid_AB595.fasta	S45_LN:i:6054_dp:f:1.0257016820066025	2976	3902	+	blaPER-1_1	1-927/927	===============	0/0	100.00	100.00	resfinder	GU944725	blaPER-1	
/hpc/dla_mm/jkerkvliet/data/gplas/newmodels/results/A_baumannii/08_mobsuite/GCF_016903135.1_ASM1690313v1/plasmid_AB595.fasta	S52_LN:i:4136_dp:f:0.9711796586647328	22	837	+	sul2_2	1-816/816	===============	0/0	100.00	100.00	resfinder	AY034138	sul2	Sulfamethoxazole
/hpc/dla_mm/jkerkvliet/data/gplas/newmodels/results/A_baumannii/08_mobsuite/GCF_016903135.1_ASM1690313v1/plasmid_AB595.fasta	S52_LN:i:4136_dp:f:0.9711796586647328	3450	4136	-	aph(6)-Id_1	151-837/837	..=============	0/0	82.08	100.00	resfinder	M28829	aph(6)-Id	Streptomycin
/hpc/dla_mm/jkerkvliet/data/gplas/newmodels/results/A_baumannii/08_mobsuite/GCF_016903135.1_ASM1690313v1/plasmid_AB082.fasta	S55_LN:i:1614_dp:f:3.059483115791761	28	849	+	blaOXA-23_1	1-822/822	===============	0/0	100.00	100.00	resfinder	AY795964	blaOXA-23	Imipenem;Meropenem
/hpc/dla_mm/jkerkvliet/data/gplas/newmodels/results/A_baumannii/08_mobsuite/GCF_017753625.1_ASM1775362v1/plasmid_AB114.fasta	S18_LN:i:2383_dp:f:1.2696431788084754	91	1296	-	tet(B)_1	1-1206/1206	===============	0/0	100.00	100.00	resfinder	AP000342	tet(B)	Doxycycline;Tetracycline;Minocycline
/hpc/dla_mm/jkerkvliet/data/gplas/newmodels/results/A_baumannii/08_mobsuite/GCF_017753625.1_ASM1775362v1/plasmid_AB114.fasta	S19_LN:i:1580_dp:f:2.675270015912573	438	1253	+	sul2_2	1-816/816	===============	0/0	100.00	100.00	resfinder	AY034138	sul2	Sulfamethoxazole
/hpc/dla_mm/jkerkvliet/data/gplas/newmodels/results/A_baumannii/08_mobsuite/GCF_017753625.1_ASM1775362v1/plasmid_AC861.fasta	S11_LN:i:71430_dp:f:2.099067377990425	5766	6578	-	blaNDM-1_1	1-813/813	===============	0/0	100.00	100.00	resfinder	FN396876	blaNDM-1	Amoxicillin;Amoxicillin+Clavulanic_acid;Ampicillin;Ampicillin+Clavulanic_acid;Cefepime;Cefixime;Cefotaxime;Cefoxitin;Ceftazidime;Ertapenem;Imipenem;Meropenem;Piperacillin;Piperacillin+Tazobactam
/hpc/dla_mm/jkerkvliet/data/gplas/newmodels/results/A_baumannii/08_mobsuite/GCF_017753625.1_ASM1775362v1/plasmid_AC861.fasta	S11_LN:i:71430_dp:f:2.099067377990425	63366	64226	+	aac(3)-IId_1	1-861/861	===============	0/0	100.00	99.88	resfinder	EU022314	aac(3)-IId	Gentamicin;Tobramycin
/hpc/dla_mm/jkerkvliet/data/gplas/newmodels/results/A_baumannii/08_mobsuite/GCF_017753625.1_ASM1775362v1/plasmid_AC861.fasta	S14_LN:i:15233_dp:f:2.140052014913104	804	1688	-	mph(E)_1	1-885/885	===============	0/0	100.00	100.00	resfinder	DQ839391	mph(E)	Erythromycin
/hpc/dla_mm/jkerkvliet/data/gplas/newmodels/results/A_baumannii/08_mobsuite/GCF_017753625.1_ASM1775362v1/plasmid_AC861.fasta	S14_LN:i:15233_dp:f:2.140052014913104	1744	3219	-	msr(E)_1	1-1476/1476	===============	0/0	100.00	100.00	resfinder	FR751518	msr(E)	
/hpc/dla_mm/jkerkvliet/data/gplas/newmodels/results/A_baumannii/08_mobsuite/GCF_019903215.1_ASM1990321v1/plasmid_AC715.fasta	S54_LN:i:2383_dp:f:1.1720368135002668	1088	2293	+	tet(B)_1	1-1206/1206	===============	0/0	100.00	100.00	resfinder	AP000342	tet(B)	Doxycycline;Tetracycline;Minocycline
/hpc/dla_mm/jkerkvliet/data/gplas/newmodels/results/A_baumannii/08_mobsuite/GCF_019903215.1_ASM1990321v1/plasmid_AC715.fasta	S58_LN:i:1163_dp:f:0.719563173376217	328	1143	-	sul2_2	1-816/816	===============	0/0	100.00	99.88	resfinder	AY034138	sul2	Sulfamethoxazole
/hpc/dla_mm/jkerkvliet/data/gplas/newmodels/results/A_baumannii/08_mobsuite/GCF_019903215.1_ASM1990321v1/plasmid_AC163.fasta	S53_LN:i:2445_dp:f:0.910439721337217	1590	2411	-	blaOXA-23_1	1-822/822	===============	0/0	100.00	100.00	resfinder	AY795964	blaOXA-23	Imipenem;Meropenem
/hpc/dla_mm/jkerkvliet/data/gplas/newmodels/results/A_baumannii/08_mobsuite/GCF_016919505.2_ASM1691950v2/plasmid_AB082.fasta	S133_LN:i:5997_dp:f:0.3297589200901693	2438	3304	-	sul1_5	1-867/867	===============	0/0	100.00	99.89	resfinder	EU780013	sul1	Sulfamethoxazole
/hpc/dla_mm/jkerkvliet/data/gplas/newmodels/results/A_baumannii/08_mobsuite/GCF_016919505.2_ASM1691950v2/plasmid_AB082.fasta	S133_LN:i:5997_dp:f:0.3297589200901693	3748	4321	-	dfrA7_5	1-570/570	========/======	3/4	100.00	98.78	resfinder	AJ419170	dfrA7	Trimethoprim
/hpc/dla_mm/jkerkvliet/data/gplas/newmodels/results/A_baumannii/08_mobsuite/GCF_016919505.2_ASM1691950v2/plasmid_AB082.fasta	S133_LN:i:5997_dp:f:0.3297589200901693	4403	4982	-	aac(6')-Ib_1	27-606/606	===============	0/0	95.71	99.66	resfinder	M21682	aac(6')-Ib	Amikacin;Tobramycin
/hpc/dla_mm/jkerkvliet/data/gplas/newmodels/results/A_baumannii/08_mobsuite/GCF_016919505.2_ASM1691950v2/plasmid_AB082.fasta	S133_LN:i:5997_dp:f:0.3297589200901693	5095	5958	-	blaGES-11_1	1-864/864	===============	0/0	100.00	100.00	resfinder	FJ854362	blaGES-11	
/hpc/dla_mm/jkerkvliet/data/gplas/newmodels/results/A_baumannii/08_mobsuite/GCF_016919505.2_ASM1691950v2/plasmid_AB082.fasta	S139_LN:i:4970_dp:f:0.46853531456812025	130	966	-	aph(6)-Id_1	1-837/837	===============	0/0	100.00	99.04	resfinder	M28829	aph(6)-Id	Streptomycin
/hpc/dla_mm/jkerkvliet/data/gplas/newmodels/results/A_baumannii/08_mobsuite/GCF_016919505.2_ASM1691950v2/plasmid_AB082.fasta	S139_LN:i:4970_dp:f:0.46853531456812025	966	1769	-	aph(3'')-Ib_5	1-804/804	===============	0/0	100.00	97.89	resfinder	AF321551	aph(3'')-Ib	Streptomycin
/hpc/dla_mm/jkerkvliet/data/gplas/newmodels/results/A_baumannii/08_mobsuite/GCF_016919505.2_ASM1691950v2/plasmid_AB082.fasta	S139_LN:i:4970_dp:f:0.46853531456812025	1799	2600	-	aadA2_1	18-819/819	===============	0/0	97.92	99.88	resfinder	NC_010870	aadA2	Streptomycin
/hpc/dla_mm/jkerkvliet/data/gplas/newmodels/results/A_baumannii/08_mobsuite/GCF_016919505.2_ASM1691950v2/plasmid_AB082.fasta	S139_LN:i:4970_dp:f:0.46853531456812025	2683	3942	-	cmlA1_2	1-1260/1260	===============	0/0	100.00	99.60	resfinder	AB212941	cmlA1	Chloramphenicol
/hpc/dla_mm/jkerkvliet/data/gplas/newmodels/results/A_baumannii/08_mobsuite/GCF_016919505.2_ASM1691950v2/plasmid_AB082.fasta	S139_LN:i:4970_dp:f:0.46853531456812025	4197	4730	-	ant(2'')-Ia_1	1-534/534	===============	0/0	100.00	100.00	resfinder	X04555	ant(2'')-Ia	Gentamicin;Tobramycin
/hpc/dla_mm/jkerkvliet/data/gplas/newmodels/results/A_baumannii/08_mobsuite/GCF_014322245.1_ASM1432224v1/plasmid_AB114.fasta	S52_LN:i:2767_dp:f:1.0148702424706426	1397	2212	-	sul2_2	1-816/816	===============	0/0	100.00	100.00	resfinder	AY034138	sul2	Sulfamethoxazole
/hpc/dla_mm/jkerkvliet/data/gplas/newmodels/results/A_baumannii/08_mobsuite/GCF_014322245.1_ASM1432224v1/plasmid_AC861.fasta	S25_LN:i:41975_dp:f:1.2194168303981958	7205	8065	-	aac(3)-IId_1	1-861/861	===============	0/0	100.00	99.88	resfinder	EU022314	aac(3)-IId	Gentamicin;Tobramycin
/hpc/dla_mm/jkerkvliet/data/gplas/newmodels/results/A_baumannii/08_mobsuite/GCF_014322245.1_ASM1432224v1/plasmid_AC861.fasta	S32_LN:i:19299_dp:f:1.3109326472138132	611	1732	-	tet(39)_1	1-1122/1122	===============	0/0	100.00	100.00	resfinder	KT346360	tet(39)	Doxycycline;Tetracycline
/hpc/dla_mm/jkerkvliet/data/gplas/newmodels/results/A_baumannii/08_mobsuite/GCF_014322245.1_ASM1432224v1/plasmid_AC861.fasta	S32_LN:i:19299_dp:f:1.3109326472138132	4448	5332	-	mph(E)_1	1-885/885	===============	0/0	100.00	100.00	resfinder	DQ839391	mph(E)	Erythromycin
/hpc/dla_mm/jkerkvliet/data/gplas/newmodels/results/A_baumannii/08_mobsuite/GCF_014322245.1_ASM1432224v1/plasmid_AC861.fasta	S32_LN:i:19299_dp:f:1.3109326472138132	5388	6863	-	msr(E)_1	1-1476/1476	===============	0/0	100.00	100.00	resfinder	FR751518	msr(E)	
/hpc/dla_mm/jkerkvliet/data/gplas/newmodels/results/A_baumannii/08_mobsuite/GCF_014705845.1_ASM1470584v1/plasmid_AB114.fasta	S73_LN:i:1462_dp:f:1.6399506383823947	626	1441	-	sul2_2	1-816/816	===============	0/0	100.00	100.00	resfinder	AY034138	sul2	Sulfamethoxazole
/hpc/dla_mm/jkerkvliet/data/gplas/newmodels/results/A_baumannii/08_mobsuite/GCF_018831125.1_ASM1883112v1/plasmid_AC716.fasta	S43_LN:i:17882_dp:f:1.324274907517093	15207	16009	+	aph(3'')-Ib_2	2-804/804	===============	0/0	99.88	100.00	resfinder	AF024602	aph(3'')-Ib	Streptomycin
/hpc/dla_mm/jkerkvliet/data/gplas/newmodels/results/A_baumannii/08_mobsuite/GCF_018831125.1_ASM1883112v1/plasmid_AC716.fasta	S43_LN:i:17882_dp:f:1.324274907517093	16009	16845	+	aph(6)-Id_1	1-837/837	===============	0/0	100.00	100.00	resfinder	M28829	aph(6)-Id	Streptomycin
/hpc/dla_mm/jkerkvliet/data/gplas/newmodels/results/A_baumannii/08_mobsuite/GCF_018831125.1_ASM1883112v1/plasmid_AC716.fasta	S58_LN:i:4579_dp:f:1.3096693996275033	398	1873	+	msr(E)_1	1-1476/1476	===============	0/0	100.00	100.00	resfinder	FR751518	msr(E)	
/hpc/dla_mm/jkerkvliet/data/gplas/newmodels/results/A_baumannii/08_mobsuite/GCF_018831125.1_ASM1883112v1/plasmid_AC716.fasta	S58_LN:i:4579_dp:f:1.3096693996275033	1929	2813	+	mph(E)_1	1-885/885	===============	0/0	100.00	100.00	resfinder	DQ839391	mph(E)	Erythromycin
/hpc/dla_mm/jkerkvliet/data/gplas/newmodels/results/A_baumannii/08_mobsuite/GCF_018831125.1_ASM1883112v1/plasmid_AB082.fasta	S64_LN:i:2445_dp:f:1.7911843825522802	35	856	+	blaOXA-23_1	1-822/822	===============	0/0	100.00	100.00	resfinder	AY795964	blaOXA-23	Imipenem;Meropenem
/hpc/dla_mm/jkerkvliet/data/gplas/newmodels/results/A_baumannii/08_mobsuite/GCF_018831125.1_ASM1883112v1/plasmid_AB702.fasta	S54_LN:i:6078_dp:f:9.369893360280269	1644	2177	+	ant(2'')-Ia_13	1-534/534	===============	0/0	100.00	99.06	resfinder	DQ176450	ant(2'')-Ia	Gentamicin;Tobramycin
