<?xml version='1.0' encoding='UTF-8' ?>
<svg xmlns='http://www.w3.org/2000/svg' xmlns:xlink='http://www.w3.org/1999/xlink' class='svglite' width='720.00pt' height='576.00pt' viewBox='0 0 720.00 576.00'>
<defs>
  <style type='text/css'><![CDATA[
    .svglite line, .svglite polyline, .svglite polygon, .svglite path, .svglite rect, .svglite circle {
      fill: none;
      stroke: #000000;
      stroke-linecap: round;
      stroke-linejoin: round;
      stroke-miterlimit: 10.00;
    }
    .svglite text {
      white-space: pre;
    }
  ]]></style>
</defs>
<rect width='100%' height='100%' style='stroke: none; fill: #FFFFFF;'/>
<defs>
  <clipPath id='cpMC4wMHw3MjAuMDB8MC4wMHw1NzYuMDA='>
    <rect x='0.00' y='0.00' width='720.00' height='576.00' />
  </clipPath>
</defs>
<g clip-path='url(#cpMC4wMHw3MjAuMDB8MC4wMHw1NzYuMDA=)'>
</g>
<defs>
  <clipPath id='cpNjAuNzV8NzE0LjUyfDExLjkwfDUyNy4xNA=='>
    <rect x='60.75' y='11.90' width='653.77' height='515.24' />
  </clipPath>
</defs>
<g clip-path='url(#cpNjAuNzV8NzE0LjUyfDExLjkwfDUyNy4xNA==)'>
<polyline points='60.75,420.80 714.52,420.80 ' style='stroke-width: 0.53; stroke: #EBEBEB; stroke-linecap: butt;' />
<polyline points='60.75,254.95 714.52,254.95 ' style='stroke-width: 0.53; stroke: #EBEBEB; stroke-linecap: butt;' />
<polyline points='60.75,89.11 714.52,89.11 ' style='stroke-width: 0.53; stroke: #EBEBEB; stroke-linecap: butt;' />
<polyline points='69.54,527.14 69.54,11.90 ' style='stroke-width: 0.53; stroke: #EBEBEB; stroke-linecap: butt;' />
<polyline points='236.96,527.14 236.96,11.90 ' style='stroke-width: 0.53; stroke: #EBEBEB; stroke-linecap: butt;' />
<polyline points='404.38,527.14 404.38,11.90 ' style='stroke-width: 0.53; stroke: #EBEBEB; stroke-linecap: butt;' />
<polyline points='571.80,527.14 571.80,11.90 ' style='stroke-width: 0.53; stroke: #EBEBEB; stroke-linecap: butt;' />
<polyline points='60.75,503.72 714.52,503.72 ' style='stroke-width: 1.07; stroke: #EBEBEB; stroke-linecap: butt;' />
<polyline points='60.75,337.88 714.52,337.88 ' style='stroke-width: 1.07; stroke: #EBEBEB; stroke-linecap: butt;' />
<polyline points='60.75,172.03 714.52,172.03 ' style='stroke-width: 1.07; stroke: #EBEBEB; stroke-linecap: butt;' />
<rect x='90.47' y='492.83' width='8.37' height='10.89' style='stroke-width: 1.07; stroke-linecap: butt; stroke-linejoin: miter; fill: #B5B5B5;' />
<rect x='98.84' y='492.83' width='8.37' height='10.89' style='stroke-width: 1.07; stroke-linecap: butt; stroke-linejoin: miter; fill: #B5B5B5;' />
<rect x='107.21' y='503.72' width='8.37' height='0.00' style='stroke-width: 1.07; stroke-linecap: butt; stroke-linejoin: miter; fill: #B5B5B5;' />
<rect x='115.58' y='503.72' width='8.37' height='0.00' style='stroke-width: 1.07; stroke-linecap: butt; stroke-linejoin: miter; fill: #B5B5B5;' />
<rect x='123.95' y='492.83' width='8.37' height='10.89' style='stroke-width: 1.07; stroke-linecap: butt; stroke-linejoin: miter; fill: #B5B5B5;' />
<rect x='132.32' y='503.72' width='8.37' height='0.00' style='stroke-width: 1.07; stroke-linecap: butt; stroke-linejoin: miter; fill: #B5B5B5;' />
<rect x='140.69' y='503.72' width='8.37' height='0.00' style='stroke-width: 1.07; stroke-linecap: butt; stroke-linejoin: miter; fill: #B5B5B5;' />
<rect x='149.06' y='503.72' width='8.37' height='0.00' style='stroke-width: 1.07; stroke-linecap: butt; stroke-linejoin: miter; fill: #B5B5B5;' />
<rect x='157.43' y='492.83' width='8.37' height='10.89' style='stroke-width: 1.07; stroke-linecap: butt; stroke-linejoin: miter; fill: #B5B5B5;' />
<rect x='165.81' y='481.94' width='8.37' height='21.79' style='stroke-width: 1.07; stroke-linecap: butt; stroke-linejoin: miter; fill: #B5B5B5;' />
<rect x='174.18' y='492.83' width='8.37' height='10.89' style='stroke-width: 1.07; stroke-linecap: butt; stroke-linejoin: miter; fill: #B5B5B5;' />
<rect x='182.55' y='481.94' width='8.37' height='21.79' style='stroke-width: 1.07; stroke-linecap: butt; stroke-linejoin: miter; fill: #B5B5B5;' />
<rect x='190.92' y='460.15' width='8.37' height='43.57' style='stroke-width: 1.07; stroke-linecap: butt; stroke-linejoin: miter; fill: #B5B5B5;' />
<rect x='199.29' y='492.83' width='8.37' height='10.89' style='stroke-width: 1.07; stroke-linecap: butt; stroke-linejoin: miter; fill: #B5B5B5;' />
<rect x='207.66' y='416.58' width='8.37' height='87.14' style='stroke-width: 1.07; stroke-linecap: butt; stroke-linejoin: miter; fill: #B5B5B5;' />
<rect x='216.03' y='329.44' width='8.37' height='174.29' style='stroke-width: 1.07; stroke-linecap: butt; stroke-linejoin: miter; fill: #B5B5B5;' />
<rect x='224.40' y='362.11' width='8.37' height='141.61' style='stroke-width: 1.07; stroke-linecap: butt; stroke-linejoin: miter; fill: #B5B5B5;' />
<rect x='232.77' y='362.11' width='8.37' height='141.61' style='stroke-width: 1.07; stroke-linecap: butt; stroke-linejoin: miter; fill: #B5B5B5;' />
<rect x='241.14' y='253.18' width='8.37' height='250.54' style='stroke-width: 1.07; stroke-linecap: butt; stroke-linejoin: miter; fill: #B5B5B5;' />
<rect x='249.51' y='340.33' width='8.37' height='163.40' style='stroke-width: 1.07; stroke-linecap: butt; stroke-linejoin: miter; fill: #B5B5B5;' />
<rect x='257.89' y='220.50' width='8.37' height='283.22' style='stroke-width: 1.07; stroke-linecap: butt; stroke-linejoin: miter; fill: #B5B5B5;' />
<rect x='266.26' y='296.76' width='8.37' height='206.97' style='stroke-width: 1.07; stroke-linecap: butt; stroke-linejoin: miter; fill: #B5B5B5;' />
<rect x='274.63' y='394.79' width='8.37' height='108.93' style='stroke-width: 1.07; stroke-linecap: butt; stroke-linejoin: miter; fill: #B5B5B5;' />
<rect x='283.00' y='416.58' width='8.37' height='87.14' style='stroke-width: 1.07; stroke-linecap: butt; stroke-linejoin: miter; fill: #B5B5B5;' />
<rect x='291.37' y='351.22' width='8.37' height='152.50' style='stroke-width: 1.07; stroke-linecap: butt; stroke-linejoin: miter; fill: #B5B5B5;' />
<rect x='299.74' y='362.11' width='8.37' height='141.61' style='stroke-width: 1.07; stroke-linecap: butt; stroke-linejoin: miter; fill: #B5B5B5;' />
<rect x='308.11' y='231.40' width='8.37' height='272.33' style='stroke-width: 1.07; stroke-linecap: butt; stroke-linejoin: miter; fill: #B5B5B5;' />
<rect x='316.48' y='318.54' width='8.37' height='185.18' style='stroke-width: 1.07; stroke-linecap: butt; stroke-linejoin: miter; fill: #B5B5B5;' />
<rect x='324.85' y='438.37' width='8.37' height='65.36' style='stroke-width: 1.07; stroke-linecap: butt; stroke-linejoin: miter; fill: #B5B5B5;' />
<rect x='333.22' y='416.58' width='8.37' height='87.14' style='stroke-width: 1.07; stroke-linecap: butt; stroke-linejoin: miter; fill: #B5B5B5;' />
<rect x='341.60' y='383.90' width='8.37' height='119.82' style='stroke-width: 1.07; stroke-linecap: butt; stroke-linejoin: miter; fill: #B5B5B5;' />
<rect x='349.97' y='438.37' width='8.37' height='65.36' style='stroke-width: 1.07; stroke-linecap: butt; stroke-linejoin: miter; fill: #B5B5B5;' />
<rect x='358.34' y='460.15' width='8.37' height='43.57' style='stroke-width: 1.07; stroke-linecap: butt; stroke-linejoin: miter; fill: #B5B5B5;' />
<rect x='366.71' y='394.79' width='8.37' height='108.93' style='stroke-width: 1.07; stroke-linecap: butt; stroke-linejoin: miter; fill: #B5B5B5;' />
<rect x='375.08' y='438.37' width='8.37' height='65.36' style='stroke-width: 1.07; stroke-linecap: butt; stroke-linejoin: miter; fill: #B5B5B5;' />
<rect x='383.45' y='427.47' width='8.37' height='76.25' style='stroke-width: 1.07; stroke-linecap: butt; stroke-linejoin: miter; fill: #B5B5B5;' />
<rect x='391.82' y='449.26' width='8.37' height='54.47' style='stroke-width: 1.07; stroke-linecap: butt; stroke-linejoin: miter; fill: #B5B5B5;' />
<rect x='400.19' y='416.58' width='8.37' height='87.14' style='stroke-width: 1.07; stroke-linecap: butt; stroke-linejoin: miter; fill: #B5B5B5;' />
<rect x='408.56' y='351.22' width='8.37' height='152.50' style='stroke-width: 1.07; stroke-linecap: butt; stroke-linejoin: miter; fill: #B5B5B5;' />
<rect x='416.93' y='285.86' width='8.37' height='217.86' style='stroke-width: 1.07; stroke-linecap: butt; stroke-linejoin: miter; fill: #B5B5B5;' />
<rect x='425.30' y='318.54' width='8.37' height='185.18' style='stroke-width: 1.07; stroke-linecap: butt; stroke-linejoin: miter; fill: #B5B5B5;' />
<rect x='433.68' y='329.44' width='8.37' height='174.29' style='stroke-width: 1.07; stroke-linecap: butt; stroke-linejoin: miter; fill: #B5B5B5;' />
<rect x='442.05' y='427.47' width='8.37' height='76.25' style='stroke-width: 1.07; stroke-linecap: butt; stroke-linejoin: miter; fill: #B5B5B5;' />
<rect x='450.42' y='329.44' width='8.37' height='174.29' style='stroke-width: 1.07; stroke-linecap: butt; stroke-linejoin: miter; fill: #B5B5B5;' />
<rect x='458.79' y='373.01' width='8.37' height='130.72' style='stroke-width: 1.07; stroke-linecap: butt; stroke-linejoin: miter; fill: #B5B5B5;' />
<rect x='467.16' y='362.11' width='8.37' height='141.61' style='stroke-width: 1.07; stroke-linecap: butt; stroke-linejoin: miter; fill: #B5B5B5;' />
<rect x='475.53' y='416.58' width='8.37' height='87.14' style='stroke-width: 1.07; stroke-linecap: butt; stroke-linejoin: miter; fill: #B5B5B5;' />
<rect x='483.90' y='35.32' width='8.37' height='468.40' style='stroke-width: 1.07; stroke-linecap: butt; stroke-linejoin: miter; fill: #B5B5B5;' />
<rect x='492.27' y='340.33' width='8.37' height='163.40' style='stroke-width: 1.07; stroke-linecap: butt; stroke-linejoin: miter; fill: #B5B5B5;' />
<rect x='500.64' y='427.47' width='8.37' height='76.25' style='stroke-width: 1.07; stroke-linecap: butt; stroke-linejoin: miter; fill: #B5B5B5;' />
<rect x='509.01' y='427.47' width='8.37' height='76.25' style='stroke-width: 1.07; stroke-linecap: butt; stroke-linejoin: miter; fill: #B5B5B5;' />
<rect x='517.38' y='427.47' width='8.37' height='76.25' style='stroke-width: 1.07; stroke-linecap: butt; stroke-linejoin: miter; fill: #B5B5B5;' />
<rect x='525.76' y='133.36' width='8.37' height='370.36' style='stroke-width: 1.07; stroke-linecap: butt; stroke-linejoin: miter; fill: #B5B5B5;' />
<rect x='534.13' y='373.01' width='8.37' height='130.72' style='stroke-width: 1.07; stroke-linecap: butt; stroke-linejoin: miter; fill: #B5B5B5;' />
<rect x='542.50' y='449.26' width='8.37' height='54.47' style='stroke-width: 1.07; stroke-linecap: butt; stroke-linejoin: miter; fill: #B5B5B5;' />
<rect x='550.87' y='405.69' width='8.37' height='98.04' style='stroke-width: 1.07; stroke-linecap: butt; stroke-linejoin: miter; fill: #B5B5B5;' />
<rect x='559.24' y='438.37' width='8.37' height='65.36' style='stroke-width: 1.07; stroke-linecap: butt; stroke-linejoin: miter; fill: #B5B5B5;' />
<rect x='567.61' y='471.05' width='8.37' height='32.68' style='stroke-width: 1.07; stroke-linecap: butt; stroke-linejoin: miter; fill: #B5B5B5;' />
<rect x='575.98' y='405.69' width='8.37' height='98.04' style='stroke-width: 1.07; stroke-linecap: butt; stroke-linejoin: miter; fill: #B5B5B5;' />
<rect x='584.35' y='481.94' width='8.37' height='21.79' style='stroke-width: 1.07; stroke-linecap: butt; stroke-linejoin: miter; fill: #B5B5B5;' />
<rect x='592.72' y='438.37' width='8.37' height='65.36' style='stroke-width: 1.07; stroke-linecap: butt; stroke-linejoin: miter; fill: #B5B5B5;' />
<rect x='601.09' y='460.15' width='8.37' height='43.57' style='stroke-width: 1.07; stroke-linecap: butt; stroke-linejoin: miter; fill: #B5B5B5;' />
<rect x='609.47' y='481.94' width='8.37' height='21.79' style='stroke-width: 1.07; stroke-linecap: butt; stroke-linejoin: miter; fill: #B5B5B5;' />
<rect x='617.84' y='481.94' width='8.37' height='21.79' style='stroke-width: 1.07; stroke-linecap: butt; stroke-linejoin: miter; fill: #B5B5B5;' />
<rect x='626.21' y='492.83' width='8.37' height='10.89' style='stroke-width: 1.07; stroke-linecap: butt; stroke-linejoin: miter; fill: #B5B5B5;' />
<rect x='634.58' y='471.05' width='8.37' height='32.68' style='stroke-width: 1.07; stroke-linecap: butt; stroke-linejoin: miter; fill: #B5B5B5;' />
<rect x='642.95' y='481.94' width='8.37' height='21.79' style='stroke-width: 1.07; stroke-linecap: butt; stroke-linejoin: miter; fill: #B5B5B5;' />
<rect x='651.32' y='503.72' width='8.37' height='0.00' style='stroke-width: 1.07; stroke-linecap: butt; stroke-linejoin: miter; fill: #B5B5B5;' />
<rect x='659.69' y='492.83' width='8.37' height='10.89' style='stroke-width: 1.07; stroke-linecap: butt; stroke-linejoin: miter; fill: #B5B5B5;' />
<rect x='668.06' y='503.72' width='8.37' height='0.00' style='stroke-width: 1.07; stroke-linecap: butt; stroke-linejoin: miter; fill: #B5B5B5;' />
<rect x='676.43' y='492.83' width='8.37' height='10.89' style='stroke-width: 1.07; stroke-linecap: butt; stroke-linejoin: miter; fill: #B5B5B5;' />
<polygon points='98.81,500.12 99.96,500.05 101.10,499.98 102.24,499.91 103.38,499.84 104.52,499.77 105.66,499.70 106.80,499.63 107.95,499.56 109.09,499.48 110.23,499.41 111.37,499.33 112.51,499.25 113.65,499.17 114.79,499.08 115.94,498.99 117.08,498.90 118.22,498.80 119.36,498.69 120.50,498.58 121.64,498.47 122.78,498.35 123.93,498.22 125.07,498.08 126.21,497.93 127.35,497.78 128.49,497.61 129.63,497.43 130.78,497.25 131.92,497.05 133.06,496.83 134.20,496.61 135.34,496.37 136.48,496.11 137.62,495.84 138.77,495.55 139.91,495.25 141.05,494.92 142.19,494.58 143.33,494.22 144.47,493.83 145.61,493.43 146.76,493.00 147.90,492.55 149.04,492.07 150.18,491.56 151.32,491.04 152.46,490.47 153.60,489.89 154.75,489.27 155.89,488.62 157.03,487.94 158.17,487.23 159.31,486.49 160.45,485.70 161.59,484.88 162.74,484.03 163.88,483.13 165.02,482.19 166.16,481.22 167.30,480.21 168.44,479.15 169.58,478.05 170.73,476.92 171.87,475.72 173.01,474.48 174.15,473.21 175.29,471.88 176.43,470.50 177.57,469.08 178.72,467.62 179.86,466.10 181.00,464.53 182.14,462.92 183.28,461.25 184.42,459.53 185.56,457.77 186.71,455.97 187.85,454.10 188.99,452.19 190.13,450.25 191.27,448.24 192.41,446.20 193.56,444.11 194.70,441.99 195.84,439.81 196.98,437.60 198.12,435.35 199.26,433.06 200.40,430.74 201.55,428.39 202.69,426.01 203.83,423.60 204.97,421.16 206.11,418.71 207.25,416.23 208.39,413.74 209.54,411.23 210.68,408.72 211.82,406.19 212.96,403.67 214.10,401.14 215.24,398.62 216.38,396.10 217.53,393.59 218.67,391.09 219.81,388.62 220.95,386.16 222.09,383.73 223.23,381.33 224.37,378.95 225.52,376.61 226.66,374.31 227.80,372.06 228.94,369.84 230.08,367.68 231.22,365.57 232.36,363.51 233.51,361.50 234.65,359.57 235.79,357.69 236.93,355.87 238.07,354.12 239.21,352.45 240.35,350.84 241.50,349.29 242.64,347.84 243.78,346.46 244.92,345.13 246.06,343.90 247.20,342.75 248.34,341.66 249.49,340.64 250.63,339.73 251.77,338.87 252.91,338.08 254.05,337.39 255.19,336.77 256.33,336.20 257.48,335.71 258.62,335.31 259.76,334.96 260.90,334.67 262.04,334.46 263.18,334.31 264.33,334.21 265.47,334.17 266.61,334.20 267.75,334.27 268.89,334.38 270.03,334.56 271.17,334.78 272.32,335.04 273.46,335.35 274.60,335.70 275.74,336.08 276.88,336.49 278.02,336.95 279.16,337.43 280.31,337.94 281.45,338.48 282.59,339.05 283.73,339.64 284.87,340.25 286.01,340.90 287.15,341.56 288.30,342.23 289.44,342.94 290.58,343.66 291.72,344.40 292.86,345.16 294.00,345.94 295.14,346.74 296.29,347.55 297.43,348.39 298.57,349.24 299.71,350.11 300.85,351.00 301.99,351.91 303.13,352.83 304.28,353.77 305.42,354.74 306.56,355.73 307.70,356.73 308.84,357.76 309.98,358.81 311.12,359.87 312.27,360.95 313.41,362.06 314.55,363.18 315.69,364.32 316.83,365.48 317.97,366.65 319.11,367.85 320.26,369.05 321.40,370.27 322.54,371.51 323.68,372.75 324.82,374.01 325.96,375.28 327.11,376.55 328.25,377.82 329.39,379.11 330.53,380.39 331.67,381.67 332.81,382.95 333.95,384.22 335.10,385.49 336.24,386.74 337.38,387.99 338.52,389.22 339.66,390.43 340.80,391.63 341.94,392.80 343.09,393.95 344.23,395.07 345.37,396.17 346.51,397.23 347.65,398.27 348.79,399.26 349.93,400.22 351.08,401.14 352.22,402.02 353.36,402.85 354.50,403.64 355.64,404.39 356.78,405.07 357.92,405.72 359.07,406.32 360.21,406.85 361.35,407.34 362.49,407.78 363.63,408.15 364.77,408.46 365.91,408.73 367.06,408.94 368.20,409.08 369.34,409.16 370.48,409.19 371.62,409.16 372.76,409.06 373.90,408.91 375.05,408.71 376.19,408.43 377.33,408.11 378.47,407.73 379.61,407.29 380.75,406.79 381.89,406.25 383.04,405.65 384.18,404.99 385.32,404.29 386.46,403.55 387.60,402.74 388.74,401.90 389.88,401.02 391.03,400.09 392.17,399.12 393.31,398.13 394.45,397.10 395.59,396.02 396.73,394.93 397.88,393.81 399.02,392.66 400.16,391.49 401.30,390.30 402.44,389.10 403.58,387.87 404.72,386.64 405.87,385.40 407.01,384.15 408.15,382.90 409.29,381.64 410.43,380.38 411.57,379.13 412.71,377.88 413.86,376.63 415.00,375.40 416.14,374.17 417.28,372.96 418.42,371.75 419.56,370.56 420.70,369.39 421.85,368.23 422.99,367.09 424.13,365.97 425.27,364.86 426.41,363.78 427.55,362.72 428.69,361.67 429.84,360.64 430.98,359.64 432.12,358.66 433.26,357.70 434.40,356.75 435.54,355.83 436.68,354.93 437.83,354.05 438.97,353.19 440.11,352.34 441.25,351.51 442.39,350.71 443.53,349.92 444.67,349.15 445.82,348.40 446.96,347.67 448.10,346.96 449.24,346.26 450.38,345.59 451.52,344.93 452.66,344.29 453.81,343.67 454.95,343.07 456.09,342.49 457.23,341.93 458.37,341.39 459.51,340.88 460.66,340.39 461.80,339.92 462.94,339.49 464.08,339.07 465.22,338.68 466.36,338.33 467.50,338.00 468.65,337.69 469.79,337.43 470.93,337.20 472.07,337.00 473.21,336.83 474.35,336.70 475.49,336.61 476.64,336.54 477.78,336.53 478.92,336.55 480.06,336.60 481.20,336.69 482.34,336.83 483.48,336.99 484.63,337.20 485.77,337.45 486.91,337.74 488.05,338.06 489.19,338.42 490.33,338.82 491.47,339.26 492.62,339.72 493.76,340.23 494.90,340.77 496.04,341.34 497.18,341.95 498.32,342.59 499.46,343.25 500.61,343.95 501.75,344.68 502.89,345.43 504.03,346.20 505.17,347.02 506.31,347.85 507.45,348.70 508.60,349.58 509.74,350.49 510.88,351.42 512.02,352.37 513.16,353.35 514.30,354.34 515.44,355.36 516.59,356.40 517.73,357.46 518.87,358.54 520.01,359.64 521.15,360.77 522.29,361.92 523.44,363.09 524.58,364.28 525.72,365.50 526.86,366.73 528.00,367.99 529.14,369.27 530.28,370.58 531.43,371.90 532.57,373.25 533.71,374.62 534.85,376.01 535.99,377.42 537.13,378.86 538.27,380.31 539.42,381.78 540.56,383.28 541.70,384.79 542.84,386.31 543.98,387.86 545.12,389.42 546.26,391.00 547.41,392.58 548.55,394.19 549.69,395.80 550.83,397.41 551.97,399.04 553.11,400.67 554.25,402.31 555.40,403.95 556.54,405.59 557.68,407.22 558.82,408.86 559.96,410.49 561.10,412.12 562.24,413.74 563.39,415.35 564.53,416.95 565.67,418.54 566.81,420.12 567.95,421.68 569.09,423.22 570.23,424.76 571.38,426.27 572.52,427.76 573.66,429.24 574.80,430.70 575.94,432.13 577.08,433.55 578.22,434.94 579.37,436.31 580.51,437.66 581.65,438.99 582.79,440.30 583.93,441.58 585.07,442.84 586.21,444.08 587.36,445.29 588.50,446.48 589.64,447.66 590.78,448.81 591.92,449.94 593.06,451.05 594.21,452.14 595.35,453.21 596.49,454.25 597.63,455.29 598.77,456.30 599.91,457.29 601.05,458.27 602.20,459.23 603.34,460.17 604.48,461.10 605.62,462.01 606.76,462.91 607.90,463.79 609.04,464.66 610.19,465.51 611.33,466.35 612.47,467.17 613.61,467.99 614.75,468.78 615.89,469.57 617.03,470.34 618.18,471.11 619.32,471.85 620.46,472.59 621.60,473.32 622.74,474.03 623.88,474.73 625.02,475.43 626.17,476.11 627.31,476.78 628.45,477.44 629.59,478.09 630.73,478.72 631.87,479.35 633.01,479.97 634.16,480.57 635.30,481.17 636.44,481.76 637.58,482.33 638.72,482.90 639.86,483.45 641.00,484.00 642.15,484.54 643.29,485.06 644.43,485.58 645.57,486.09 646.71,486.59 647.85,487.08 648.99,487.56 650.14,488.03 651.28,488.50 652.42,488.95 653.56,489.40 654.70,489.83 655.84,490.26 656.99,490.68 658.13,491.09 659.27,491.49 660.41,491.88 661.55,492.27 662.69,492.64 663.83,493.01 664.98,493.38 666.12,493.73 667.26,494.07 668.40,494.41 669.54,494.74 670.68,495.06 671.82,495.38 672.97,495.68 674.11,495.98 675.25,496.27 676.39,496.56 677.53,496.83 678.67,497.10 679.81,497.37 680.96,497.62 682.10,497.87 682.10,503.72 680.96,503.72 679.81,503.72 678.67,503.72 677.53,503.72 676.39,503.72 675.25,503.72 674.11,503.72 672.97,503.72 671.82,503.72 670.68,503.72 669.54,503.72 668.40,503.72 667.26,503.72 666.12,503.72 664.98,503.72 663.83,503.72 662.69,503.72 661.55,503.72 660.41,503.72 659.27,503.72 658.13,503.72 656.99,503.72 655.84,503.72 654.70,503.72 653.56,503.72 652.42,503.72 651.28,503.72 650.14,503.72 648.99,503.72 647.85,503.72 646.71,503.72 645.57,503.72 644.43,503.72 643.29,503.72 642.15,503.72 641.00,503.72 639.86,503.72 638.72,503.72 637.58,503.72 636.44,503.72 635.30,503.72 634.16,503.72 633.01,503.72 631.87,503.72 630.73,503.72 629.59,503.72 628.45,503.72 627.31,503.72 626.17,503.72 625.02,503.72 623.88,503.72 622.74,503.72 621.60,503.72 620.46,503.72 619.32,503.72 618.18,503.72 617.03,503.72 615.89,503.72 614.75,503.72 613.61,503.72 612.47,503.72 611.33,503.72 610.19,503.72 609.04,503.72 607.90,503.72 606.76,503.72 605.62,503.72 604.48,503.72 603.34,503.72 602.20,503.72 601.05,503.72 599.91,503.72 598.77,503.72 597.63,503.72 596.49,503.72 595.35,503.72 594.21,503.72 593.06,503.72 591.92,503.72 590.78,503.72 589.64,503.72 588.50,503.72 587.36,503.72 586.21,503.72 585.07,503.72 583.93,503.72 582.79,503.72 581.65,503.72 580.51,503.72 579.37,503.72 578.22,503.72 577.08,503.72 575.94,503.72 574.80,503.72 573.66,503.72 572.52,503.72 571.38,503.72 570.23,503.72 569.09,503.72 567.95,503.72 566.81,503.72 565.67,503.72 564.53,503.72 563.39,503.72 562.24,503.72 561.10,503.72 559.96,503.72 558.82,503.72 557.68,503.72 556.54,503.72 555.40,503.72 554.25,503.72 553.11,503.72 551.97,503.72 550.83,503.72 549.69,503.72 548.55,503.72 547.41,503.72 546.26,503.72 545.12,503.72 543.98,503.72 542.84,503.72 541.70,503.72 540.56,503.72 539.42,503.72 538.27,503.72 537.13,503.72 535.99,503.72 534.85,503.72 533.71,503.72 532.57,503.72 531.43,503.72 530.28,503.72 529.14,503.72 528.00,503.72 526.86,503.72 525.72,503.72 524.58,503.72 523.44,503.72 522.29,503.72 521.15,503.72 520.01,503.72 518.87,503.72 517.73,503.72 516.59,503.72 515.44,503.72 514.30,503.72 513.16,503.72 512.02,503.72 510.88,503.72 509.74,503.72 508.60,503.72 507.45,503.72 506.31,503.72 505.17,503.72 504.03,503.72 502.89,503.72 501.75,503.72 500.61,503.72 499.46,503.72 498.32,503.72 497.18,503.72 496.04,503.72 494.90,503.72 493.76,503.72 492.62,503.72 491.47,503.72 490.33,503.72 489.19,503.72 488.05,503.72 486.91,503.72 485.77,503.72 484.63,503.72 483.48,503.72 482.34,503.72 481.20,503.72 480.06,503.72 478.92,503.72 477.78,503.72 476.64,503.72 475.49,503.72 474.35,503.72 473.21,503.72 472.07,503.72 470.93,503.72 469.79,503.72 468.65,503.72 467.50,503.72 466.36,503.72 465.22,503.72 464.08,503.72 462.94,503.72 461.80,503.72 460.66,503.72 459.51,503.72 458.37,503.72 457.23,503.72 456.09,503.72 454.95,503.72 453.81,503.72 452.66,503.72 451.52,503.72 450.38,503.72 449.24,503.72 448.10,503.72 446.96,503.72 445.82,503.72 444.67,503.72 443.53,503.72 442.39,503.72 441.25,503.72 440.11,503.72 438.97,503.72 437.83,503.72 436.68,503.72 435.54,503.72 434.40,503.72 433.26,503.72 432.12,503.72 430.98,503.72 429.84,503.72 428.69,503.72 427.55,503.72 426.41,503.72 425.27,503.72 424.13,503.72 422.99,503.72 421.85,503.72 420.70,503.72 419.56,503.72 418.42,503.72 417.28,503.72 416.14,503.72 415.00,503.72 413.86,503.72 412.71,503.72 411.57,503.72 410.43,503.72 409.29,503.72 408.15,503.72 407.01,503.72 405.87,503.72 404.72,503.72 403.58,503.72 402.44,503.72 401.30,503.72 400.16,503.72 399.02,503.72 397.88,503.72 396.73,503.72 395.59,503.72 394.45,503.72 393.31,503.72 392.17,503.72 391.03,503.72 389.88,503.72 388.74,503.72 387.60,503.72 386.46,503.72 385.32,503.72 384.18,503.72 383.04,503.72 381.89,503.72 380.75,503.72 379.61,503.72 378.47,503.72 377.33,503.72 376.19,503.72 375.05,503.72 373.90,503.72 372.76,503.72 371.62,503.72 370.48,503.72 369.34,503.72 368.20,503.72 367.06,503.72 365.91,503.72 364.77,503.72 363.63,503.72 362.49,503.72 361.35,503.72 360.21,503.72 359.07,503.72 357.92,503.72 356.78,503.72 355.64,503.72 354.50,503.72 353.36,503.72 352.22,503.72 351.08,503.72 349.93,503.72 348.79,503.72 347.65,503.72 346.51,503.72 345.37,503.72 344.23,503.72 343.09,503.72 341.94,503.72 340.80,503.72 339.66,503.72 338.52,503.72 337.38,503.72 336.24,503.72 335.10,503.72 333.95,503.72 332.81,503.72 331.67,503.72 330.53,503.72 329.39,503.72 328.25,503.72 327.11,503.72 325.96,503.72 324.82,503.72 323.68,503.72 322.54,503.72 321.40,503.72 320.26,503.72 319.11,503.72 317.97,503.72 316.83,503.72 315.69,503.72 314.55,503.72 313.41,503.72 312.27,503.72 311.12,503.72 309.98,503.72 308.84,503.72 307.70,503.72 306.56,503.72 305.42,503.72 304.28,503.72 303.13,503.72 301.99,503.72 300.85,503.72 299.71,503.72 298.57,503.72 297.43,503.72 296.29,503.72 295.14,503.72 294.00,503.72 292.86,503.72 291.72,503.72 290.58,503.72 289.44,503.72 288.30,503.72 287.15,503.72 286.01,503.72 284.87,503.72 283.73,503.72 282.59,503.72 281.45,503.72 280.31,503.72 279.16,503.72 278.02,503.72 276.88,503.72 275.74,503.72 274.60,503.72 273.46,503.72 272.32,503.72 271.17,503.72 270.03,503.72 268.89,503.72 267.75,503.72 266.61,503.72 265.47,503.72 264.33,503.72 263.18,503.72 262.04,503.72 260.90,503.72 259.76,503.72 258.62,503.72 257.48,503.72 256.33,503.72 255.19,503.72 254.05,503.72 252.91,503.72 251.77,503.72 250.63,503.72 249.49,503.72 248.34,503.72 247.20,503.72 246.06,503.72 244.92,503.72 243.78,503.72 242.64,503.72 241.50,503.72 240.35,503.72 239.21,503.72 238.07,503.72 236.93,503.72 235.79,503.72 234.65,503.72 233.51,503.72 232.36,503.72 231.22,503.72 230.08,503.72 228.94,503.72 227.80,503.72 226.66,503.72 225.52,503.72 224.37,503.72 223.23,503.72 222.09,503.72 220.95,503.72 219.81,503.72 218.67,503.72 217.53,503.72 216.38,503.72 215.24,503.72 214.10,503.72 212.96,503.72 211.82,503.72 210.68,503.72 209.54,503.72 208.39,503.72 207.25,503.72 206.11,503.72 204.97,503.72 203.83,503.72 202.69,503.72 201.55,503.72 200.40,503.72 199.26,503.72 198.12,503.72 196.98,503.72 195.84,503.72 194.70,503.72 193.56,503.72 192.41,503.72 191.27,503.72 190.13,503.72 188.99,503.72 187.85,503.72 186.71,503.72 185.56,503.72 184.42,503.72 183.28,503.72 182.14,503.72 181.00,503.72 179.86,503.72 178.72,503.72 177.57,503.72 176.43,503.72 175.29,503.72 174.15,503.72 173.01,503.72 171.87,503.72 170.73,503.72 169.58,503.72 168.44,503.72 167.30,503.72 166.16,503.72 165.02,503.72 163.88,503.72 162.74,503.72 161.59,503.72 160.45,503.72 159.31,503.72 158.17,503.72 157.03,503.72 155.89,503.72 154.75,503.72 153.60,503.72 152.46,503.72 151.32,503.72 150.18,503.72 149.04,503.72 147.90,503.72 146.76,503.72 145.61,503.72 144.47,503.72 143.33,503.72 142.19,503.72 141.05,503.72 139.91,503.72 138.77,503.72 137.62,503.72 136.48,503.72 135.34,503.72 134.20,503.72 133.06,503.72 131.92,503.72 130.78,503.72 129.63,503.72 128.49,503.72 127.35,503.72 126.21,503.72 125.07,503.72 123.93,503.72 122.78,503.72 121.64,503.72 120.50,503.72 119.36,503.72 118.22,503.72 117.08,503.72 115.94,503.72 114.79,503.72 113.65,503.72 112.51,503.72 111.37,503.72 110.23,503.72 109.09,503.72 107.95,503.72 106.80,503.72 105.66,503.72 104.52,503.72 103.38,503.72 102.24,503.72 101.10,503.72 99.96,503.72 98.81,503.72 ' style='stroke-width: 0.00; stroke: none; stroke-linecap: butt; fill: #FF9933; fill-opacity: 0.50;' />
<polyline points='98.81,500.12 99.96,500.05 101.10,499.98 102.24,499.91 103.38,499.84 104.52,499.77 105.66,499.70 106.80,499.63 107.95,499.56 109.09,499.48 110.23,499.41 111.37,499.33 112.51,499.25 113.65,499.17 114.79,499.08 115.94,498.99 117.08,498.90 118.22,498.80 119.36,498.69 120.50,498.58 121.64,498.47 122.78,498.35 123.93,498.22 125.07,498.08 126.21,497.93 127.35,497.78 128.49,497.61 129.63,497.43 130.78,497.25 131.92,497.05 133.06,496.83 134.20,496.61 135.34,496.37 136.48,496.11 137.62,495.84 138.77,495.55 139.91,495.25 141.05,494.92 142.19,494.58 143.33,494.22 144.47,493.83 145.61,493.43 146.76,493.00 147.90,492.55 149.04,492.07 150.18,491.56 151.32,491.04 152.46,490.47 153.60,489.89 154.75,489.27 155.89,488.62 157.03,487.94 158.17,487.23 159.31,486.49 160.45,485.70 161.59,484.88 162.74,484.03 163.88,483.13 165.02,482.19 166.16,481.22 167.30,480.21 168.44,479.15 169.58,478.05 170.73,476.92 171.87,475.72 173.01,474.48 174.15,473.21 175.29,471.88 176.43,470.50 177.57,469.08 178.72,467.62 179.86,466.10 181.00,464.53 182.14,462.92 183.28,461.25 184.42,459.53 185.56,457.77 186.71,455.97 187.85,454.10 188.99,452.19 190.13,450.25 191.27,448.24 192.41,446.20 193.56,444.11 194.70,441.99 195.84,439.81 196.98,437.60 198.12,435.35 199.26,433.06 200.40,430.74 201.55,428.39 202.69,426.01 203.83,423.60 204.97,421.16 206.11,418.71 207.25,416.23 208.39,413.74 209.54,411.23 210.68,408.72 211.82,406.19 212.96,403.67 214.10,401.14 215.24,398.62 216.38,396.10 217.53,393.59 218.67,391.09 219.81,388.62 220.95,386.16 222.09,383.73 223.23,381.33 224.37,378.95 225.52,376.61 226.66,374.31 227.80,372.06 228.94,369.84 230.08,367.68 231.22,365.57 232.36,363.51 233.51,361.50 234.65,359.57 235.79,357.69 236.93,355.87 238.07,354.12 239.21,352.45 240.35,350.84 241.50,349.29 242.64,347.84 243.78,346.46 244.92,345.13 246.06,343.90 247.20,342.75 248.34,341.66 249.49,340.64 250.63,339.73 251.77,338.87 252.91,338.08 254.05,337.39 255.19,336.77 256.33,336.20 257.48,335.71 258.62,335.31 259.76,334.96 260.90,334.67 262.04,334.46 263.18,334.31 264.33,334.21 265.47,334.17 266.61,334.20 267.75,334.27 268.89,334.38 270.03,334.56 271.17,334.78 272.32,335.04 273.46,335.35 274.60,335.70 275.74,336.08 276.88,336.49 278.02,336.95 279.16,337.43 280.31,337.94 281.45,338.48 282.59,339.05 283.73,339.64 284.87,340.25 286.01,340.90 287.15,341.56 288.30,342.23 289.44,342.94 290.58,343.66 291.72,344.40 292.86,345.16 294.00,345.94 295.14,346.74 296.29,347.55 297.43,348.39 298.57,349.24 299.71,350.11 300.85,351.00 301.99,351.91 303.13,352.83 304.28,353.77 305.42,354.74 306.56,355.73 307.70,356.73 308.84,357.76 309.98,358.81 311.12,359.87 312.27,360.95 313.41,362.06 314.55,363.18 315.69,364.32 316.83,365.48 317.97,366.65 319.11,367.85 320.26,369.05 321.40,370.27 322.54,371.51 323.68,372.75 324.82,374.01 325.96,375.28 327.11,376.55 328.25,377.82 329.39,379.11 330.53,380.39 331.67,381.67 332.81,382.95 333.95,384.22 335.10,385.49 336.24,386.74 337.38,387.99 338.52,389.22 339.66,390.43 340.80,391.63 341.94,392.80 343.09,393.95 344.23,395.07 345.37,396.17 346.51,397.23 347.65,398.27 348.79,399.26 349.93,400.22 351.08,401.14 352.22,402.02 353.36,402.85 354.50,403.64 355.64,404.39 356.78,405.07 357.92,405.72 359.07,406.32 360.21,406.85 361.35,407.34 362.49,407.78 363.63,408.15 364.77,408.46 365.91,408.73 367.06,408.94 368.20,409.08 369.34,409.16 370.48,409.19 371.62,409.16 372.76,409.06 373.90,408.91 375.05,408.71 376.19,408.43 377.33,408.11 378.47,407.73 379.61,407.29 380.75,406.79 381.89,406.25 383.04,405.65 384.18,404.99 385.32,404.29 386.46,403.55 387.60,402.74 388.74,401.90 389.88,401.02 391.03,400.09 392.17,399.12 393.31,398.13 394.45,397.10 395.59,396.02 396.73,394.93 397.88,393.81 399.02,392.66 400.16,391.49 401.30,390.30 402.44,389.10 403.58,387.87 404.72,386.64 405.87,385.40 407.01,384.15 408.15,382.90 409.29,381.64 410.43,380.38 411.57,379.13 412.71,377.88 413.86,376.63 415.00,375.40 416.14,374.17 417.28,372.96 418.42,371.75 419.56,370.56 420.70,369.39 421.85,368.23 422.99,367.09 424.13,365.97 425.27,364.86 426.41,363.78 427.55,362.72 428.69,361.67 429.84,360.64 430.98,359.64 432.12,358.66 433.26,357.70 434.40,356.75 435.54,355.83 436.68,354.93 437.83,354.05 438.97,353.19 440.11,352.34 441.25,351.51 442.39,350.71 443.53,349.92 444.67,349.15 445.82,348.40 446.96,347.67 448.10,346.96 449.24,346.26 450.38,345.59 451.52,344.93 452.66,344.29 453.81,343.67 454.95,343.07 456.09,342.49 457.23,341.93 458.37,341.39 459.51,340.88 460.66,340.39 461.80,339.92 462.94,339.49 464.08,339.07 465.22,338.68 466.36,338.33 467.50,338.00 468.65,337.69 469.79,337.43 470.93,337.20 472.07,337.00 473.21,336.83 474.35,336.70 475.49,336.61 476.64,336.54 477.78,336.53 478.92,336.55 480.06,336.60 481.20,336.69 482.34,336.83 483.48,336.99 484.63,337.20 485.77,337.45 486.91,337.74 488.05,338.06 489.19,338.42 490.33,338.82 491.47,339.26 492.62,339.72 493.76,340.23 494.90,340.77 496.04,341.34 497.18,341.95 498.32,342.59 499.46,343.25 500.61,343.95 501.75,344.68 502.89,345.43 504.03,346.20 505.17,347.02 506.31,347.85 507.45,348.70 508.60,349.58 509.74,350.49 510.88,351.42 512.02,352.37 513.16,353.35 514.30,354.34 515.44,355.36 516.59,356.40 517.73,357.46 518.87,358.54 520.01,359.64 521.15,360.77 522.29,361.92 523.44,363.09 524.58,364.28 525.72,365.50 526.86,366.73 528.00,367.99 529.14,369.27 530.28,370.58 531.43,371.90 532.57,373.25 533.71,374.62 534.85,376.01 535.99,377.42 537.13,378.86 538.27,380.31 539.42,381.78 540.56,383.28 541.70,384.79 542.84,386.31 543.98,387.86 545.12,389.42 546.26,391.00 547.41,392.58 548.55,394.19 549.69,395.80 550.83,397.41 551.97,399.04 553.11,400.67 554.25,402.31 555.40,403.95 556.54,405.59 557.68,407.22 558.82,408.86 559.96,410.49 561.10,412.12 562.24,413.74 563.39,415.35 564.53,416.95 565.67,418.54 566.81,420.12 567.95,421.68 569.09,423.22 570.23,424.76 571.38,426.27 572.52,427.76 573.66,429.24 574.80,430.70 575.94,432.13 577.08,433.55 578.22,434.94 579.37,436.31 580.51,437.66 581.65,438.99 582.79,440.30 583.93,441.58 585.07,442.84 586.21,444.08 587.36,445.29 588.50,446.48 589.64,447.66 590.78,448.81 591.92,449.94 593.06,451.05 594.21,452.14 595.35,453.21 596.49,454.25 597.63,455.29 598.77,456.30 599.91,457.29 601.05,458.27 602.20,459.23 603.34,460.17 604.48,461.10 605.62,462.01 606.76,462.91 607.90,463.79 609.04,464.66 610.19,465.51 611.33,466.35 612.47,467.17 613.61,467.99 614.75,468.78 615.89,469.57 617.03,470.34 618.18,471.11 619.32,471.85 620.46,472.59 621.60,473.32 622.74,474.03 623.88,474.73 625.02,475.43 626.17,476.11 627.31,476.78 628.45,477.44 629.59,478.09 630.73,478.72 631.87,479.35 633.01,479.97 634.16,480.57 635.30,481.17 636.44,481.76 637.58,482.33 638.72,482.90 639.86,483.45 641.00,484.00 642.15,484.54 643.29,485.06 644.43,485.58 645.57,486.09 646.71,486.59 647.85,487.08 648.99,487.56 650.14,488.03 651.28,488.50 652.42,488.95 653.56,489.40 654.70,489.83 655.84,490.26 656.99,490.68 658.13,491.09 659.27,491.49 660.41,491.88 661.55,492.27 662.69,492.64 663.83,493.01 664.98,493.38 666.12,493.73 667.26,494.07 668.40,494.41 669.54,494.74 670.68,495.06 671.82,495.38 672.97,495.68 674.11,495.98 675.25,496.27 676.39,496.56 677.53,496.83 678.67,497.10 679.81,497.37 680.96,497.62 682.10,497.87 ' style='stroke-width: 1.07; stroke-linecap: butt;' />
<line x1='370.89' y1='527.14' x2='370.89' y2='11.90' style='stroke-width: 1.07; stroke-dasharray: 5.69,5.69; stroke-linecap: butt;' />
</g>
<g clip-path='url(#cpMC4wMHw3MjAuMDB8MC4wMHw1NzYuMDA=)'>
<text x='55.82' y='510.18' text-anchor='end' style='font-size: 18.00px;fill: #4D4D4D; font-family: "Arial";' textLength='25.02px' lengthAdjust='spacingAndGlyphs'>0.0</text>
<text x='55.82' y='344.33' text-anchor='end' style='font-size: 18.00px;fill: #4D4D4D; font-family: "Arial";' textLength='25.02px' lengthAdjust='spacingAndGlyphs'>0.5</text>
<text x='55.82' y='178.49' text-anchor='end' style='font-size: 18.00px;fill: #4D4D4D; font-family: "Arial";' textLength='25.02px' lengthAdjust='spacingAndGlyphs'>1.0</text>
<text x='153.25' y='544.99' text-anchor='middle' style='font-size: 18.00px;fill: #4D4D4D; font-family: "Arial";' textLength='10.01px' lengthAdjust='spacingAndGlyphs'>3</text>
<text x='320.67' y='544.99' text-anchor='middle' style='font-size: 18.00px;fill: #4D4D4D; font-family: "Arial";' textLength='10.01px' lengthAdjust='spacingAndGlyphs'>4</text>
<text x='488.09' y='544.99' text-anchor='middle' style='font-size: 18.00px;fill: #4D4D4D; font-family: "Arial";' textLength='10.01px' lengthAdjust='spacingAndGlyphs'>5</text>
<text x='655.51' y='544.99' text-anchor='middle' style='font-size: 18.00px;fill: #4D4D4D; font-family: "Arial";' textLength='10.01px' lengthAdjust='spacingAndGlyphs'>6</text>
<text x='387.64' y='566.10' text-anchor='middle' style='font-size: 20.00px; font-weight: bold; font-family: "Arial";' textLength='108.87px' lengthAdjust='spacingAndGlyphs'>log (length)</text>
<text transform='translate(22.75,269.52) rotate(-90)' text-anchor='middle' style='font-size: 24.00px; font-weight: bold; font-family: "Arial";' textLength='86.70px' lengthAdjust='spacingAndGlyphs'>Density</text>
<text x='387.64' y='6.20' text-anchor='middle' style='font-size: 0.00px; font-weight: bold; font-family: "Arial";' textLength='13.47px' lengthAdjust='spacingAndGlyphs'>Plasmids length distribution</text>
</g>
</svg>
