GCF_013796485.1_ASM1379648v1,GCF_013796485.1_ASM1379648v1_bin_3,NZ_CP056886.1,4512,4512
GCF_013796485.1_ASM1379648v1,GCF_013796485.1_ASM1379648v1_bin_4,NZ_CP056887.1,3980,3980
GCF_013796485.1_ASM1379648v1,GCF_013796485.1_ASM1379648v1_bin_1,NZ_CP056885.1,96143,96474
GCF_013796485.1_ASM1379648v1,GCF_013796485.1_ASM1379648v1_bin_2,NZ_CP056884.1,176952,177004
GCF_904863135.1_INF310,GCF_904863135.1_INF310_bin_5,NZ_LR890261.1,9294,9294
GCF_904863135.1_INF310,GCF_904863135.1_INF310_bin_2,NZ_LR890256.1,114164,114164
GCF_904863135.1_INF310,GCF_904863135.1_INF310_bin_4,NZ_LR890257.1,111123,111123
GCF_904863135.1_INF310,GCF_904863135.1_INF310_bin_3,NZ_LR890255.1,156000,160964
GCF_904863135.1_INF310,GCF_904863135.1_INF310_bin_3,NZ_LR890256.1,4964,160964
GCF_904863135.1_INF310,GCF_904863135.1_INF310_bin_1,NZ_LR890258.1,69066,130361
GCF_904863135.1_INF310,GCF_904863135.1_INF310_bin_1,NZ_LR890259.1,61295,130361
GCF_904866555.1_INF102,GCF_904866555.1_INF102_bin_3,NZ_LR890731.1,8712,8712
GCF_904866555.1_INF102,GCF_904866555.1_INF102_bin_4,NZ_LR890734.1,1919,1919
GCF_904866555.1_INF102,GCF_904866555.1_INF102_bin_1,NZ_LR890727.1,85498,294166
GCF_904866555.1_INF102,GCF_904866555.1_INF102_bin_1,NZ_LR890728.1,104804,294166
GCF_904866555.1_INF102,GCF_904866555.1_INF102_bin_1,NZ_LR890730.1,41891,294166
GCF_904866555.1_INF102,GCF_904866555.1_INF102_bin_1,NZ_LR890726.1,61921,294166
GCF_904866555.1_INF102,GCF_904866555.1_INF102_bin_2,NZ_LR890729.1,103830,103830
GCF_016804025.1_ASM1680402v1,GCF_016804025.1_ASM1680402v1_bin_1,NZ_CP053018.1,200282,200523
GCF_016804025.1_ASM1680402v1,GCF_016804025.1_ASM1680402v1_bin_3,NZ_CP053020.1,5596,5596
GCF_016804025.1_ASM1680402v1,GCF_016804025.1_ASM1680402v1_bin_2,NZ_CP053017.1,138818,138818
GCF_013791265.1_ASM1379126v1,GCF_013791265.1_ASM1379126v1_bin_3,NZ_CP056833.1,3980,3980
GCF_013791265.1_ASM1379126v1,GCF_013791265.1_ASM1379126v1_bin_1,NZ_CP056831.1,136670,136670
GCF_013791265.1_ASM1379126v1,GCF_013791265.1_ASM1379126v1_bin_2,NZ_CP056832.1,5733,5733
GCF_904866195.1_INF327,GCF_904866195.1_INF327_bin_1,NZ_LR890572.1,115258,113042
GCF_904866195.1_INF327,GCF_904866195.1_INF327_bin_3,NZ_LR890575.1,3223,3223
GCF_904866195.1_INF327,GCF_904866195.1_INF327_bin_Unbinned,NZ_LR890573.1,210184,310451
GCF_904866195.1_INF327,GCF_904866195.1_INF327_bin_Unbinned,NZ_LR890571.1,100267,310451
GCF_904866195.1_INF327,GCF_904866195.1_INF327_bin_2,NZ_LR890574.1,4064,4064
GCF_920103885.1_DJ,GCF_920103885.1_DJ_bin_4,NZ_OV049809.1,1549,1549
GCF_920103885.1_DJ,GCF_920103885.1_DJ_bin_3,NZ_OV049810.1,2056,2056
GCF_920103885.1_DJ,GCF_920103885.1_DJ_bin_1,NZ_OV049808.1,55441,209830
GCF_920103885.1_DJ,GCF_920103885.1_DJ_bin_1,NZ_OV049815.1,20576,209830
GCF_920103885.1_DJ,GCF_920103885.1_DJ_bin_1,NZ_OV049814.1,106863,209830
GCF_920103885.1_DJ,GCF_920103885.1_DJ_bin_1,NZ_OV049813.1,32555,209830
GCF_920103885.1_DJ,GCF_920103885.1_DJ_bin_2,NZ_OV049811.1,4715,4715
GCF_904865805.1_INF144,GCF_904865805.1_INF144_bin_1,NZ_LR890570.1,185388,185388
GCF_013735155.1_ASM1373515v1,GCF_013735155.1_ASM1373515v1_bin_5,NZ_CP056391.1,2173,2173
GCF_013735155.1_ASM1373515v1,GCF_013735155.1_ASM1373515v1_bin_1,NZ_CP056386.1,54870,54870
GCF_013735155.1_ASM1373515v1,GCF_013735155.1_ASM1373515v1_bin_2,NZ_CP056386.1,111628,111628
GCF_013735155.1_ASM1373515v1,GCF_013735155.1_ASM1373515v1_bin_Unbinned,NZ_CP056388.1,4013,12537
GCF_013735155.1_ASM1373515v1,GCF_013735155.1_ASM1373515v1_bin_Unbinned,NZ_CP056387.1,3664,12537
GCF_013735155.1_ASM1373515v1,GCF_013735155.1_ASM1373515v1_bin_Unbinned,NZ_CP056390.1,3418,12537
GCF_013735155.1_ASM1373515v1,GCF_013735155.1_ASM1373515v1_bin_3,NZ_CP056386.1,69088,145117
GCF_013735155.1_ASM1373515v1,GCF_013735155.1_ASM1373515v1_bin_3,NZ_CP056385.1,76029,145117
GCF_013735155.1_ASM1373515v1,GCF_013735155.1_ASM1373515v1_bin_4,NZ_CP056389.1,4426,4426
GCF_904866205.1_INF145,GCF_904866205.1_INF145_bin_1,NZ_LR890585.1,5629,5921
GCF_904866205.1_INF145,GCF_904866205.1_INF145_bin_2,NZ_LR890586.1,4439,4439
GCF_022369815.1_ASM2236981v1,GCF_022369815.1_ASM2236981v1_bin_2,NZ_CP070894.1,4167,4167
GCF_022369815.1_ASM2236981v1,GCF_022369815.1_ASM2236981v1_bin_1,NZ_CP070892.1,112696,455269
GCF_022369815.1_ASM2236981v1,GCF_022369815.1_ASM2236981v1_bin_1,NZ_CP070891.1,311255,455269
GCF_022369815.1_ASM2236981v1,GCF_022369815.1_ASM2236981v1_bin_1,NZ_CP070893.1,31315,455269
GCF_904863365.1_INF049,GCF_904863365.1_INF049_bin_2,NZ_LR890366.1,3405,10107
GCF_904863365.1_INF049,GCF_904863365.1_INF049_bin_2,NZ_LR890364.1,4211,10107
GCF_904863365.1_INF049,GCF_904863365.1_INF049_bin_2,NZ_LR890367.1,470,10107
GCF_904863365.1_INF049,GCF_904863365.1_INF049_bin_2,NZ_LR890365.1,2020,10107
GCF_904863365.1_INF049,GCF_904863365.1_INF049_bin_1,NZ_LR890361.1,200724,330218
GCF_904863365.1_INF049,GCF_904863365.1_INF049_bin_1,NZ_LR890363.1,64041,330218
GCF_904863365.1_INF049,GCF_904863365.1_INF049_bin_1,NZ_LR890362.1,65453,330218
GCF_904864605.1_INF044,GCF_904864605.1_INF044_bin_3,NZ_LR890398.1,3559,3559
GCF_904864605.1_INF044,GCF_904864605.1_INF044_bin_2,NZ_LR890397.1,4411,4411
GCF_904864605.1_INF044,GCF_904864605.1_INF044_bin_1,NZ_LR890396.1,195869,195921
GCF_904864545.1_KSB1_9J,GCF_904864545.1_KSB1_9J_bin_2,NZ_LR890435.1,177897,177897
GCF_904864545.1_KSB1_9J,GCF_904864545.1_KSB1_9J_bin_1,NZ_LR890437.1,33332,33332
GCF_017894285.1_ASM1789428v1,GCF_017894285.1_ASM1789428v1_bin_1,NZ_CP058359.1,153455,168719
GCF_017894285.1_ASM1789428v1,GCF_017894285.1_ASM1789428v1_bin_1,NZ_CP058358.1,15264,168719
GCF_017894285.1_ASM1789428v1,GCF_017894285.1_ASM1789428v1_bin_2,NZ_CP058360.1,95858,95858
GCF_904864465.1_INF298,GCF_904864465.1_INF298_bin_2,NZ_LR890429.1,111123,111123
GCF_904864465.1_INF298,GCF_904864465.1_INF298_bin_1,NZ_LR890427.1,156000,406032
GCF_904864465.1_INF298,GCF_904864465.1_INF298_bin_1,NZ_LR890430.1,68790,406032
GCF_904864465.1_INF298,GCF_904864465.1_INF298_bin_1,NZ_LR890428.1,119943,406032
GCF_904864465.1_INF298,GCF_904864465.1_INF298_bin_1,NZ_LR890431.1,61297,406032
GCF_904864465.1_INF298,GCF_904864465.1_INF298_bin_3,NZ_LR890433.1,9294,9294
GCF_016904415.1_ASM1690441v1,GCF_016904415.1_ASM1690441v1_bin_2,NZ_CP070109.1,4149,11066
GCF_016904415.1_ASM1690441v1,GCF_016904415.1_ASM1690441v1_bin_3,no_correct_alignments,0,0
GCF_016904415.1_ASM1690441v1,GCF_016904415.1_ASM1690441v1_bin_6,no_correct_alignments,0,0
GCF_016904415.1_ASM1690441v1,GCF_016904415.1_ASM1690441v1_bin_4,no_correct_alignments,0,0
GCF_016904415.1_ASM1690441v1,GCF_016904415.1_ASM1690441v1_bin_5,no_correct_alignments,0,0
GCF_016904415.1_ASM1690441v1,GCF_016904415.1_ASM1690441v1_bin_1,NZ_CP070110.1,75546,227322
GCF_016904415.1_ASM1690441v1,GCF_016904415.1_ASM1690441v1_bin_1,NZ_CP070108.1,151776,227322
GCF_002852785.2_ASM285278v2,GCF_002852785.2_ASM285278v2_bin_1,NZ_CP043359.1,110303,112856
GCF_002852785.2_ASM285278v2,GCF_002852785.2_ASM285278v2_bin_1,NZ_CP043358.1,2553,112856
GCF_002852785.2_ASM285278v2,GCF_002852785.2_ASM285278v2_bin_4,NZ_CP043360.1,10060,10060
GCF_002852785.2_ASM285278v2,GCF_002852785.2_ASM285278v2_bin_3,NZ_CP043358.1,26966,30170
GCF_002852785.2_ASM285278v2,GCF_002852785.2_ASM285278v2_bin_3,NZ_CP043359.1,3204,30170
GCF_002852785.2_ASM285278v2,GCF_002852785.2_ASM285278v2_bin_2,NZ_CP043358.1,90928,98783
GCF_002852785.2_ASM285278v2,GCF_002852785.2_ASM285278v2_bin_2,NZ_CP043359.1,7855,98783
GCF_002852785.2_ASM285278v2,GCF_002852785.2_ASM285278v2_bin_5,NZ_CP043361.1,5596,5596
GCF_904866295.1_KSB2_1C,GCF_904866295.1_KSB2_1C_bin_5,NZ_LR890620.1,2080,2080
GCF_904866295.1_KSB2_1C,GCF_904866295.1_KSB2_1C_bin_1,NZ_LR890621.1,128946,128946
GCF_904866295.1_KSB2_1C,GCF_904866295.1_KSB2_1C_bin_2,NZ_LR890621.1,73284,73284
GCF_904866295.1_KSB2_1C,GCF_904866295.1_KSB2_1C_bin_4,NZ_LR890623.1,3412,3412
GCF_904866295.1_KSB2_1C,GCF_904866295.1_KSB2_1C_bin_3,NZ_LR890622.1,3759,3759
GCF_013729075.1_ASM1372907v1,GCF_013729075.1_ASM1372907v1_bin_2,NZ_CP056277.1,45681,45681
GCF_013729075.1_ASM1372907v1,GCF_013729075.1_ASM1372907v1_bin_1,NZ_CP056276.1,238936,239199
GCF_013730675.1_ASM1373067v1,GCF_013730675.1_ASM1373067v1_bin_1,NZ_CP056298.1,117149,117149
GCF_904866405.1_INF279,GCF_904866405.1_INF279_bin_2,NZ_LR890679.1,142444,285314
GCF_904866405.1_INF279,GCF_904866405.1_INF279_bin_2,NZ_LR890681.1,52504,285314
GCF_904866405.1_INF279,GCF_904866405.1_INF279_bin_2,NZ_LR890680.1,90279,285314
GCF_904866405.1_INF279,GCF_904866405.1_INF279_bin_1,NZ_LR890682.1,5341,5341
GCF_904866405.1_INF279,GCF_904866405.1_INF279_bin_3,NZ_LR890683.1,3400,3514
GCF_904866405.1_INF279,GCF_904866405.1_INF279_bin_5,NZ_LR890685.1,2723,2723
GCF_904866405.1_INF279,GCF_904866405.1_INF279_bin_4,NZ_LR890684.1,3128,3223
GCF_904863285.1_INF231,GCF_904863285.1_INF231_bin_2,NZ_LR890358.1,3664,3664
GCF_904863285.1_INF231,GCF_904863285.1_INF231_bin_3,NZ_LR890359.1,2667,2667
GCF_904863285.1_INF231,GCF_904863285.1_INF231_bin_1,NZ_LR890357.1,185604,185604
GCF_904864475.1_INF168,GCF_904864475.1_INF168_bin_1,NZ_LR890472.1,173850,173850
GCF_012029895.2_ASM1202989v2,GCF_012029895.2_ASM1202989v2_bin_1,NZ_CP061381.1,150221,150221
GCF_012029895.2_ASM1202989v2,GCF_012029895.2_ASM1202989v2_bin_2,NZ_CP061382.1,42905,42905
GCF_012029895.2_ASM1202989v2,GCF_012029895.2_ASM1202989v2_bin_3,NZ_CP061383.1,3701,3701
GCF_012029895.2_ASM1202989v2,GCF_012029895.2_ASM1202989v2_bin_4,NZ_CP061384.1,1934,1934
GCF_013826045.1_ASM1382604v1,GCF_013826045.1_ASM1382604v1_bin_4,NZ_CP057317.1,32438,32438
GCF_013826045.1_ASM1382604v1,GCF_013826045.1_ASM1382604v1_bin_3,NZ_CP057314.1,192170,302887
GCF_013826045.1_ASM1382604v1,GCF_013826045.1_ASM1382604v1_bin_3,NZ_CP057316.1,109658,302887
GCF_013826045.1_ASM1382604v1,GCF_013826045.1_ASM1382604v1_bin_2,NZ_CP057315.1,141066,141066
GCF_013826045.1_ASM1382604v1,GCF_013826045.1_ASM1382604v1_bin_Unbinned,NZ_CP057317.1,2460,2460
GCF_013826045.1_ASM1382604v1,GCF_013826045.1_ASM1382604v1_bin_1,NZ_CP057318.1,43813,43813
GCF_904865825.1_INF018,GCF_904865825.1_INF018_bin_6,NZ_LR890496.1,3223,3223
GCF_904865825.1_INF018,GCF_904865825.1_INF018_bin_3,NZ_LR890494.1,4986,4986
GCF_904865825.1_INF018,GCF_904865825.1_INF018_bin_7,NZ_LR890497.1,3012,3012
GCF_904865825.1_INF018,GCF_904865825.1_INF018_bin_1,no_correct_alignments,0,0
GCF_904865825.1_INF018,GCF_904865825.1_INF018_bin_4,NZ_LR890495.1,3385,3385
GCF_904865825.1_INF018,GCF_904865825.1_INF018_bin_5,NZ_LR890498.1,2870,2873
GCF_904865825.1_INF018,GCF_904865825.1_INF018_bin_2,no_correct_alignments,0,0
GCF_904865825.1_INF018,GCF_904865825.1_INF018_bin_8,NZ_LR890499.1,1916,1916
GCF_003038135.2_ASM303813v2,GCF_003038135.2_ASM303813v2_bin_2,NZ_CP043354.1,78621,81651
GCF_003038135.2_ASM303813v2,GCF_003038135.2_ASM303813v2_bin_2,NZ_CP043355.1,3030,81651
GCF_003038135.2_ASM303813v2,GCF_003038135.2_ASM303813v2_bin_3,NZ_CP043356.1,5596,5596
GCF_003038135.2_ASM303813v2,GCF_003038135.2_ASM303813v2_bin_1,NZ_CP043353.1,50892,115302
GCF_003038135.2_ASM303813v2,GCF_003038135.2_ASM303813v2_bin_1,NZ_CP043355.1,64410,115302
GCF_013736155.1_ASM1373615v1,GCF_013736155.1_ASM1373615v1_bin_4,NZ_CP056439.1,3514,3514
GCF_013736155.1_ASM1373615v1,GCF_013736155.1_ASM1373615v1_bin_3,NZ_CP056438.1,5726,5907
GCF_013736155.1_ASM1373615v1,GCF_013736155.1_ASM1373615v1_bin_2,NZ_CP056436.1,107037,107037
GCF_013736155.1_ASM1373615v1,GCF_013736155.1_ASM1373615v1_bin_1,NZ_CP056434.1,74855,376988
GCF_013736155.1_ASM1373615v1,GCF_013736155.1_ASM1373615v1_bin_1,NZ_CP056433.1,174020,376988
GCF_013736155.1_ASM1373615v1,GCF_013736155.1_ASM1373615v1_bin_1,NZ_CP056432.1,1223,376988
GCF_013736155.1_ASM1373615v1,GCF_013736155.1_ASM1373615v1_bin_1,NZ_CP056437.1,34782,376988
GCF_013736155.1_ASM1373615v1,GCF_013736155.1_ASM1373615v1_bin_1,NZ_CP056435.1,92031,376988
GCF_013736155.1_ASM1373615v1,GCF_013736155.1_ASM1373615v1_bin_5,NZ_CP056440.1,1763,1917
GCF_020526065.1_ASM2052606v1,GCF_020526065.1_ASM2052606v1_bin_2,no_correct_alignments,0,0
GCF_020526065.1_ASM2052606v1,GCF_020526065.1_ASM2052606v1_bin_1,no_correct_alignments,0,0
GCF_020149785.1_ASM2014978v1,GCF_020149785.1_ASM2014978v1_bin_4,NZ_CP083800.1,4048,4048
GCF_020149785.1_ASM2014978v1,GCF_020149785.1_ASM2014978v1_bin_1,NZ_CP083797.1,200876,207390
GCF_020149785.1_ASM2014978v1,GCF_020149785.1_ASM2014978v1_bin_1,NZ_CP083798.1,6514,207390
GCF_020149785.1_ASM2014978v1,GCF_020149785.1_ASM2014978v1_bin_5,NZ_CP083801.1,3514,3514
GCF_020149785.1_ASM2014978v1,GCF_020149785.1_ASM2014978v1_bin_2,NZ_CP083797.1,34468,34468
GCF_020149785.1_ASM2014978v1,GCF_020149785.1_ASM2014978v1_bin_Unbinned,NZ_CP083799.1,31359,32974
GCF_020149785.1_ASM2014978v1,GCF_020149785.1_ASM2014978v1_bin_Unbinned,NZ_CP083797.1,1615,32974
GCF_020149785.1_ASM2014978v1,GCF_020149785.1_ASM2014978v1_bin_3,NZ_CP083798.1,96256,96256
GCF_015694065.1_ASM1569406v1,GCF_015694065.1_ASM1569406v1_bin_4,no_correct_alignments,0,0
GCF_015694065.1_ASM1569406v1,GCF_015694065.1_ASM1569406v1_bin_3,no_correct_alignments,0,0
GCF_015694065.1_ASM1569406v1,GCF_015694065.1_ASM1569406v1_bin_5,no_correct_alignments,0,0
GCF_015694065.1_ASM1569406v1,GCF_015694065.1_ASM1569406v1_bin_1,NZ_CP065174.1,207023,552791
GCF_015694065.1_ASM1569406v1,GCF_015694065.1_ASM1569406v1_bin_1,NZ_CP065175.1,109272,552791
GCF_015694065.1_ASM1569406v1,GCF_015694065.1_ASM1569406v1_bin_1,NZ_CP065173.1,167928,552791
GCF_015694065.1_ASM1569406v1,GCF_015694065.1_ASM1569406v1_bin_1,NZ_CP065176.1,66990,552791
GCF_015694065.1_ASM1569406v1,GCF_015694065.1_ASM1569406v1_bin_2,no_correct_alignments,0,0
GCF_015694065.1_ASM1569406v1,GCF_015694065.1_ASM1569406v1_bin_6,no_correct_alignments,0,0
GCF_904863435.1_KSB1_1B,GCF_904863435.1_KSB1_1B_bin_Unbinned,NZ_LR890295.1,55939,58669
GCF_904863435.1_KSB1_1B,GCF_904863435.1_KSB1_1B_bin_Unbinned,NZ_LR890294.1,2730,58669
GCF_904863435.1_KSB1_1B,GCF_904863435.1_KSB1_1B_bin_6,NZ_LR890298.1,5393,5393
GCF_904863435.1_KSB1_1B,GCF_904863435.1_KSB1_1B_bin_1,NZ_LR890294.1,56830,56830
GCF_904863435.1_KSB1_1B,GCF_904863435.1_KSB1_1B_bin_3,NZ_LR890293.1,113743,113743
GCF_904863435.1_KSB1_1B,GCF_904863435.1_KSB1_1B_bin_5,NZ_LR890297.1,5585,5585
GCF_904863435.1_KSB1_1B,GCF_904863435.1_KSB1_1B_bin_4,NZ_LR890296.1,6134,6134
GCF_904863435.1_KSB1_1B,GCF_904863435.1_KSB1_1B_bin_2,NZ_LR890292.1,88137,88137
GCF_904866375.1_INF242,GCF_904866375.1_INF242_bin_2,NZ_LR890626.1,5074,5251
GCF_904866375.1_INF242,GCF_904866375.1_INF242_bin_1,NZ_LR890625.1,224938,225022
GCF_013895695.1_ASM1389569v1,GCF_013895695.1_ASM1389569v1_bin_1,NZ_CP057724.1,42975,42975
GCF_013895695.1_ASM1389569v1,GCF_013895695.1_ASM1389569v1_bin_2,NZ_CP057723.1,141298,141337
GCF_016903795.1_ASM1690379v1,GCF_016903795.1_ASM1690379v1_bin_2,NZ_CP069967.1,44255,44255
GCF_016903795.1_ASM1690379v1,GCF_016903795.1_ASM1690379v1_bin_1,NZ_CP069969.1,193501,193504
GCF_016903795.1_ASM1690379v1,GCF_016903795.1_ASM1690379v1_bin_3,no_correct_alignments,0,0
GCF_016904095.1_ASM1690409v1,GCF_016904095.1_ASM1690409v1_bin_1,NZ_CP070047.1,198730,198730
GCF_002853115.2_ASM285311v2,GCF_002853115.2_ASM285311v2_bin_1,NZ_CP073286.1,215656,216412
GCF_020526005.1_ASM2052600v1,GCF_020526005.1_ASM2052600v1_bin_2,NZ_CP084854.1,110871,110871
GCF_020526005.1_ASM2052600v1,GCF_020526005.1_ASM2052600v1_bin_1,NZ_CP084853.1,173946,173946
GCF_021057265.1_ASM2105726v1,GCF_021057265.1_ASM2105726v1_bin_3,no_correct_alignments,0,0
GCF_021057265.1_ASM2105726v1,GCF_021057265.1_ASM2105726v1_bin_2,no_correct_alignments,0,0
GCF_021057265.1_ASM2105726v1,GCF_021057265.1_ASM2105726v1_bin_1,NZ_CP084985.1,346720,346720
GCF_021057265.1_ASM2105726v1,GCF_021057265.1_ASM2105726v1_bin_Unbinned,NZ_CP084984.1,2317,146953
GCF_020525645.1_ASM2052564v1,GCF_020525645.1_ASM2052564v1_bin_1,NZ_CP084858.1,4369,4369
GCF_016903775.1_ASM1690377v1,GCF_016903775.1_ASM1690377v1_bin_2,NZ_CP069965.1,5463,5463
GCF_016903775.1_ASM1690377v1,GCF_016903775.1_ASM1690377v1_bin_1,NZ_CP069964.1,222637,222637
GCF_016903775.1_ASM1690377v1,GCF_016903775.1_ASM1690377v1_bin_3,no_correct_alignments,0,0
GCF_904864505.1_INF331,GCF_904864505.1_INF331_bin_1,NZ_LR890425.1,182452,182452
GCF_013745295.1_ASM1374529v1,GCF_013745295.1_ASM1374529v1_bin_2,NZ_CP056331.1,5167,5167
GCF_013745295.1_ASM1374529v1,GCF_013745295.1_ASM1374529v1_bin_1,NZ_CP056330.1,6757,6757
GCF_013745295.1_ASM1374529v1,GCF_013745295.1_ASM1374529v1_bin_3,NZ_CP056332.1,4074,4074
GCF_016903235.1_ASM1690323v1,GCF_016903235.1_ASM1690323v1_bin_7,no_correct_alignments,0,0
GCF_016903235.1_ASM1690323v1,GCF_016903235.1_ASM1690323v1_bin_5,no_correct_alignments,0,0
GCF_016903235.1_ASM1690323v1,GCF_016903235.1_ASM1690323v1_bin_1,NZ_CP069854.1,41085,42732
GCF_016903235.1_ASM1690323v1,GCF_016903235.1_ASM1690323v1_bin_6,no_correct_alignments,0,0
GCF_016903235.1_ASM1690323v1,GCF_016903235.1_ASM1690323v1_bin_2,NZ_CP069858.1,2851,38067
GCF_016903235.1_ASM1690323v1,GCF_016903235.1_ASM1690323v1_bin_2,NZ_CP069856.1,4217,38067
GCF_016903235.1_ASM1690323v1,GCF_016903235.1_ASM1690323v1_bin_3,NZ_CP069854.1,54205,57886
GCF_016903235.1_ASM1690323v1,GCF_016903235.1_ASM1690323v1_bin_Unbinned,no_correct_alignments,0,0
GCF_016903235.1_ASM1690323v1,GCF_016903235.1_ASM1690323v1_bin_4,NZ_CP069855.1,93571,93571
GCF_020149895.1_ASM2014989v1,GCF_020149895.1_ASM2014989v1_bin_1,NZ_CP083769.1,232954,232954
GCF_020149895.1_ASM2014989v1,GCF_020149895.1_ASM2014989v1_bin_5,NZ_CP083774.1,2833,2833
GCF_020149895.1_ASM2014989v1,GCF_020149895.1_ASM2014989v1_bin_3,NZ_CP083772.1,5214,5214
GCF_020149895.1_ASM2014989v1,GCF_020149895.1_ASM2014989v1_bin_4,NZ_CP083773.1,4176,4176
GCF_020149895.1_ASM2014989v1,GCF_020149895.1_ASM2014989v1_bin_2,NZ_CP083771.1,6352,6352
GCF_020525845.1_ASM2052584v1,GCF_020525845.1_ASM2052584v1_bin_3,NZ_CP084865.1,2160,2160
GCF_020525845.1_ASM2052584v1,GCF_020525845.1_ASM2052584v1_bin_4,NZ_CP084863.1,3557,3629
GCF_020525845.1_ASM2052584v1,GCF_020525845.1_ASM2052584v1_bin_2,NZ_CP084864.1,3202,3202
GCF_020525845.1_ASM2052584v1,GCF_020525845.1_ASM2052584v1_bin_1,NZ_CP084861.1,198554,241378
GCF_020525845.1_ASM2052584v1,GCF_020525845.1_ASM2052584v1_bin_1,NZ_CP084862.1,42824,241378
GCF_904864595.1_INF333,GCF_904864595.1_INF333_bin_2,NZ_LR890384.1,3750,10962
GCF_904864595.1_INF333,GCF_904864595.1_INF333_bin_3,NZ_LR890386.1,3223,3223
GCF_904864595.1_INF333,GCF_904864595.1_INF333_bin_1,NZ_LR890385.1,149024,149024
GCF_904865695.1_INF319,GCF_904865695.1_INF319_bin_2,no_correct_alignments,0,0
GCF_904865695.1_INF319,GCF_904865695.1_INF319_bin_1,NZ_LR890544.1,110937,343554
GCF_904865695.1_INF319,GCF_904865695.1_INF319_bin_1,NZ_LR890543.1,232617,343554
GCF_904865695.1_INF319,GCF_904865695.1_INF319_bin_4,NZ_LR890545.1,58277,58277
GCF_904865695.1_INF319,GCF_904865695.1_INF319_bin_3,NZ_LR890546.1,47247,47329
GCF_020525865.1_ASM2052586v1,GCF_020525865.1_ASM2052586v1_bin_1,NZ_CP084824.1,187074,187076
GCF_020525865.1_ASM2052586v1,GCF_020525865.1_ASM2052586v1_bin_2,no_correct_alignments,0,0
GCF_904863225.1_KSB1_6J,GCF_904863225.1_KSB1_6J_bin_2,NZ_LR890232.1,4064,4064
GCF_904863225.1_KSB1_6J,GCF_904863225.1_KSB1_6J_bin_3,NZ_LR890233.1,3223,3223
GCF_904863225.1_KSB1_6J,GCF_904863225.1_KSB1_6J_bin_1,NZ_LR890231.1,55397,55397
GCF_904866445.1_INF305,GCF_904866445.1_INF305_bin_3,NZ_LR890706.1,69066,130451
GCF_904866445.1_INF305,GCF_904866445.1_INF305_bin_3,NZ_LR890707.1,61295,130451
GCF_904866445.1_INF305,GCF_904866445.1_INF305_bin_4,NZ_LR890705.1,111123,111123
GCF_904866445.1_INF305,GCF_904866445.1_INF305_bin_2,NZ_LR890704.1,112362,112362
GCF_904866445.1_INF305,GCF_904866445.1_INF305_bin_5,NZ_LR890709.1,9294,9294
GCF_904866445.1_INF305,GCF_904866445.1_INF305_bin_1,NZ_LR890703.1,151334,156298
GCF_904866445.1_INF305,GCF_904866445.1_INF305_bin_1,NZ_LR890704.1,4964,156298
GCF_021166235.1_ASM2116623v1,GCF_021166235.1_ASM2116623v1_bin_3,NZ_CP089025.1,3511,3511
GCF_021166235.1_ASM2116623v1,GCF_021166235.1_ASM2116623v1_bin_1,NZ_CP089029.1,61023,342208
GCF_021166235.1_ASM2116623v1,GCF_021166235.1_ASM2116623v1_bin_1,NZ_CP089028.1,42262,342208
GCF_021166235.1_ASM2116623v1,GCF_021166235.1_ASM2116623v1_bin_1,NZ_CP089030.1,220855,342208
GCF_021166235.1_ASM2116623v1,GCF_021166235.1_ASM2116623v1_bin_1,NZ_CP089027.1,18860,342208
GCF_021166235.1_ASM2116623v1,GCF_021166235.1_ASM2116623v1_bin_2,NZ_CP089026.1,3631,3631
GCF_904863275.1_INF188,GCF_904863275.1_INF188_bin_3,NZ_LR890311.1,2703,2756
GCF_904863275.1_INF188,GCF_904863275.1_INF188_bin_1,NZ_LR890308.1,246146,246146
GCF_904863275.1_INF188,GCF_904863275.1_INF188_bin_2,NZ_LR890309.1,4443,4443
GCF_018310495.1_ASM1831049v1,GCF_018310495.1_ASM1831049v1_bin_1,NZ_CP074088.1,303427,347132
GCF_018310495.1_ASM1831049v1,GCF_018310495.1_ASM1831049v1_bin_1,NZ_CP074090.1,43399,347132
GCF_018310495.1_ASM1831049v1,GCF_018310495.1_ASM1831049v1_bin_2,NZ_CP074091.1,4167,4167
GCF_017639065.1_ASM1763906v1,GCF_017639065.1_ASM1763906v1_bin_3,NZ_CP067260.1,3005,3005
GCF_017639065.1_ASM1763906v1,GCF_017639065.1_ASM1763906v1_bin_1,NZ_CP067256.1,161484,211495
GCF_017639065.1_ASM1763906v1,GCF_017639065.1_ASM1763906v1_bin_1,NZ_CP067257.1,49974,211495
GCF_017639065.1_ASM1763906v1,GCF_017639065.1_ASM1763906v1_bin_2,NZ_CP067259.1,3357,3357
GCF_016903515.1_ASM1690351v1,GCF_016903515.1_ASM1690351v1_bin_7,NZ_CP070180.1,5167,5167
GCF_016903515.1_ASM1690351v1,GCF_016903515.1_ASM1690351v1_bin_8,NZ_CP070179.1,4062,4062
GCF_016903515.1_ASM1690351v1,GCF_016903515.1_ASM1690351v1_bin_5,no_correct_alignments,0,0
GCF_016903515.1_ASM1690351v1,GCF_016903515.1_ASM1690351v1_bin_3,NZ_CP070184.1,4823,4823
GCF_016903515.1_ASM1690351v1,GCF_016903515.1_ASM1690351v1_bin_2,NZ_CP070182.1,1506,1506
GCF_016903515.1_ASM1690351v1,GCF_016903515.1_ASM1690351v1_bin_6,NZ_CP070183.1,5180,5214
GCF_016903515.1_ASM1690351v1,GCF_016903515.1_ASM1690351v1_bin_4,NZ_CP070186.1,4438,4476
GCF_016903515.1_ASM1690351v1,GCF_016903515.1_ASM1690351v1_bin_1,NZ_CP070178.1,60187,193410
GCF_016903515.1_ASM1690351v1,GCF_016903515.1_ASM1690351v1_bin_1,NZ_CP070187.1,12285,193410
GCF_016903515.1_ASM1690351v1,GCF_016903515.1_ASM1690351v1_bin_1,NZ_CP070185.1,29379,193410
GCF_016903515.1_ASM1690351v1,GCF_016903515.1_ASM1690351v1_bin_9,NZ_CP070181.1,2579,2579
GCF_016903515.1_ASM1690351v1,GCF_016903515.1_ASM1690351v1_bin_10,no_correct_alignments,0,0
GCF_016727425.1_ASM1672742v1,GCF_016727425.1_ASM1672742v1_bin_3,NZ_CP068141.1,3991,3991
GCF_016727425.1_ASM1672742v1,GCF_016727425.1_ASM1672742v1_bin_1,NZ_CP068140.1,187399,187399
GCF_016727425.1_ASM1672742v1,GCF_016727425.1_ASM1672742v1_bin_4,NZ_CP068142.1,3407,3407
GCF_016727425.1_ASM1672742v1,GCF_016727425.1_ASM1672742v1_bin_2,no_correct_alignments,0,0
GCF_016727425.1_ASM1672742v1,GCF_016727425.1_ASM1672742v1_bin_Unbinned,no_correct_alignments,0,0
GCF_013813035.1_ASM1381303v1,GCF_013813035.1_ASM1381303v1_bin_1,NZ_CP057100.1,2644,2644
GCF_021655435.1_ASM2165543v1,GCF_021655435.1_ASM2165543v1_bin_1,NZ_AP024569.1,207535,207535
GCF_016066475.1_ASM1606647v1,GCF_016066475.1_ASM1606647v1_bin_2,NZ_CP065835.1,5542,5542
GCF_016066475.1_ASM1606647v1,GCF_016066475.1_ASM1606647v1_bin_4,NZ_CP065837.1,3550,3550
GCF_016066475.1_ASM1606647v1,GCF_016066475.1_ASM1606647v1_bin_1,NZ_CP065834.1,257911,258846
GCF_016066475.1_ASM1606647v1,GCF_016066475.1_ASM1606647v1_bin_3,NZ_CP065836.1,4165,4165
GCF_904865685.1_INF182,GCF_904865685.1_INF182_bin_1,NZ_LR890555.1,111779,111779
GCF_013834745.1_ASM1383474v1,GCF_013834745.1_ASM1383474v1_bin_2,NZ_CP057461.1,4671,4671
GCF_013834745.1_ASM1383474v1,GCF_013834745.1_ASM1383474v1_bin_3,NZ_CP057462.1,3959,3959
GCF_013834745.1_ASM1383474v1,GCF_013834745.1_ASM1383474v1_bin_1,NZ_CP057460.1,224482,224482
GCF_013737695.1_ASM1373769v1,GCF_013737695.1_ASM1373769v1_bin_1,NZ_CP056531.1,154077,270638
GCF_013737695.1_ASM1373769v1,GCF_013737695.1_ASM1373769v1_bin_1,NZ_CP056533.1,49140,270638
GCF_013737695.1_ASM1373769v1,GCF_013737695.1_ASM1373769v1_bin_1,NZ_CP056532.1,65698,270638
GCF_013737695.1_ASM1373769v1,GCF_013737695.1_ASM1373769v1_bin_1,NZ_CP056530.1,1723,270638
GCF_013737695.1_ASM1373769v1,GCF_013737695.1_ASM1373769v1_bin_3,NZ_CP056537.1,4728,4772
GCF_013737695.1_ASM1373769v1,GCF_013737695.1_ASM1373769v1_bin_2,NZ_CP056535.1,3664,4830
GCF_013737695.1_ASM1373769v1,GCF_013737695.1_ASM1373769v1_bin_2,NZ_CP056534.1,1166,4830
GCF_013737695.1_ASM1373769v1,GCF_013737695.1_ASM1373769v1_bin_4,NZ_CP056538.1,3398,3398
GCF_904863425.1_INF348,GCF_904863425.1_INF348_bin_1,NZ_LR890325.1,89258,89258
GCF_904863425.1_INF348,GCF_904863425.1_INF348_bin_3,NZ_LR890325.1,35810,36008
GCF_904863425.1_INF348,GCF_904863425.1_INF348_bin_2,NZ_LR890324.1,117187,117187
GCF_904863265.1_INF156,GCF_904863265.1_INF156_bin_1,NZ_LR890287.1,145221,145221
GCF_016903735.1_ASM1690373v1,GCF_016903735.1_ASM1690373v1_bin_3,NZ_CP069949.1,4167,4167
GCF_016903735.1_ASM1690373v1,GCF_016903735.1_ASM1690373v1_bin_1,NZ_CP069948.1,78006,147043
GCF_016903735.1_ASM1690373v1,GCF_016903735.1_ASM1690373v1_bin_1,NZ_CP069947.1,79816,147043
GCF_016903735.1_ASM1690373v1,GCF_016903735.1_ASM1690373v1_bin_1,NZ_CP069946.1,2560,147043
GCF_016903735.1_ASM1690373v1,GCF_016903735.1_ASM1690373v1_bin_2,no_correct_alignments,0,0
GCF_016903395.1_ASM1690339v1,GCF_016903395.1_ASM1690339v1_bin_7,NZ_CP069901.1,3223,3223
GCF_016903395.1_ASM1690339v1,GCF_016903395.1_ASM1690339v1_bin_8,no_correct_alignments,0,0
GCF_016903395.1_ASM1690339v1,GCF_016903395.1_ASM1690339v1_bin_3,no_correct_alignments,0,0
GCF_016903395.1_ASM1690339v1,GCF_016903395.1_ASM1690339v1_bin_2,NZ_CP069905.1,3424,3424
GCF_016903395.1_ASM1690339v1,GCF_016903395.1_ASM1690339v1_bin_1,NZ_CP069904.1,291395,363687
GCF_016903395.1_ASM1690339v1,GCF_016903395.1_ASM1690339v1_bin_1,NZ_CP069903.1,72292,363687
GCF_016903395.1_ASM1690339v1,GCF_016903395.1_ASM1690339v1_bin_1,NZ_CP069906.1,21398,363687
GCF_016903395.1_ASM1690339v1,GCF_016903395.1_ASM1690339v1_bin_6,NZ_CP069909.1,4809,4809
GCF_016903395.1_ASM1690339v1,GCF_016903395.1_ASM1690339v1_bin_5,no_correct_alignments,0,0
GCF_016903395.1_ASM1690339v1,GCF_016903395.1_ASM1690339v1_bin_4,NZ_CP069902.1,54848,69811
GCF_016903395.1_ASM1690339v1,GCF_016903395.1_ASM1690339v1_bin_4,NZ_CP069908.1,8911,69811
GCF_904863055.1_INF022,GCF_904863055.1_INF022_bin_4,NZ_LR890211.1,102130,106214
GCF_904863055.1_INF022,GCF_904863055.1_INF022_bin_4,NZ_LR890210.1,4084,106214
GCF_904863055.1_INF022,GCF_904863055.1_INF022_bin_3,NZ_LR890210.1,160044,160044
GCF_904863055.1_INF022,GCF_904863055.1_INF022_bin_2,NZ_LR890214.1,1263,1263
GCF_904863055.1_INF022,GCF_904863055.1_INF022_bin_1,NZ_LR890212.1,3130,3130
GCF_003937135.2_ASM393713v2,GCF_003937135.2_ASM393713v2_bin_2,NZ_CP078035.1,97918,130421
GCF_003937135.2_ASM393713v2,GCF_003937135.2_ASM393713v2_bin_2,NZ_CP078034.1,31825,130421
GCF_003937135.2_ASM393713v2,GCF_003937135.2_ASM393713v2_bin_1,NZ_CP078036.1,62999,307836
GCF_003937135.2_ASM393713v2,GCF_003937135.2_ASM393713v2_bin_1,NZ_CP078034.1,244278,307836
GCF_003937135.2_ASM393713v2,GCF_003937135.2_ASM393713v2_bin_1,NZ_CP078033.1,1606,307836
GCF_019798185.1_ASM1979818v1,GCF_019798185.1_ASM1979818v1_bin_6,NZ_CP073795.1,5463,5463
GCF_019798185.1_ASM1979818v1,GCF_019798185.1_ASM1979818v1_bin_4,NZ_CP073793.1,28816,28816
GCF_019798185.1_ASM1979818v1,GCF_019798185.1_ASM1979818v1_bin_3,NZ_CP073793.1,8960,8960
GCF_019798185.1_ASM1979818v1,GCF_019798185.1_ASM1979818v1_bin_7,NZ_CP073796.1,4947,4947
GCF_019798185.1_ASM1979818v1,GCF_019798185.1_ASM1979818v1_bin_2,NZ_CP073793.1,28843,28843
GCF_019798185.1_ASM1979818v1,GCF_019798185.1_ASM1979818v1_bin_5,NZ_CP073794.1,8801,8801
GCF_019798185.1_ASM1979818v1,GCF_019798185.1_ASM1979818v1_bin_1,NZ_CP073792.1,150880,150881
GCF_020525965.1_ASM2052596v1,GCF_020525965.1_ASM2052596v1_bin_2,NZ_CP084836.1,6365,38930
GCF_020525965.1_ASM2052596v1,GCF_020525965.1_ASM2052596v1_bin_2,NZ_CP084837.1,2737,38930
GCF_020525965.1_ASM2052596v1,GCF_020525965.1_ASM2052596v1_bin_2,NZ_CP084832.1,20657,38930
GCF_020525965.1_ASM2052596v1,GCF_020525965.1_ASM2052596v1_bin_2,NZ_CP084838.1,2614,38930
GCF_020525965.1_ASM2052596v1,GCF_020525965.1_ASM2052596v1_bin_2,NZ_CP084842.1,2350,38930
GCF_020525965.1_ASM2052596v1,GCF_020525965.1_ASM2052596v1_bin_2,NZ_CP084840.1,2111,38930
GCF_020525965.1_ASM2052596v1,GCF_020525965.1_ASM2052596v1_bin_2,NZ_CP084839.1,2096,38930
GCF_020525965.1_ASM2052596v1,GCF_020525965.1_ASM2052596v1_bin_5,NZ_CP084841.1,4134,4134
GCF_020525965.1_ASM2052596v1,GCF_020525965.1_ASM2052596v1_bin_4,NZ_CP084832.1,1131,1131
GCF_020525965.1_ASM2052596v1,GCF_020525965.1_ASM2052596v1_bin_1,NZ_CP084831.1,42295,222257
GCF_020525965.1_ASM2052596v1,GCF_020525965.1_ASM2052596v1_bin_1,NZ_CP084833.1,109287,222257
GCF_020525965.1_ASM2052596v1,GCF_020525965.1_ASM2052596v1_bin_1,NZ_CP084834.1,15625,222257
GCF_020525965.1_ASM2052596v1,GCF_020525965.1_ASM2052596v1_bin_1,NZ_CP084832.1,50369,222257
GCF_020525965.1_ASM2052596v1,GCF_020525965.1_ASM2052596v1_bin_1,NZ_CP084835.1,4681,222257
GCF_020525965.1_ASM2052596v1,GCF_020525965.1_ASM2052596v1_bin_3,NZ_CP084831.1,40933,94597
GCF_020525965.1_ASM2052596v1,GCF_020525965.1_ASM2052596v1_bin_3,NZ_CP084832.1,11391,94597
GCF_020525965.1_ASM2052596v1,GCF_020525965.1_ASM2052596v1_bin_3,NZ_CP084834.1,45753,94597
GCF_020525965.1_ASM2052596v1,GCF_020525965.1_ASM2052596v1_bin_3,NZ_CP084830.1,1468,94597
GCF_904864535.1_INF313,GCF_904864535.1_INF313_bin_5,NZ_LR890421.1,2723,2723
GCF_904864535.1_INF313,GCF_904864535.1_INF313_bin_2,NZ_LR890418.1,5599,5783
GCF_904864535.1_INF313,GCF_904864535.1_INF313_bin_3,NZ_LR890419.1,3216,3514
GCF_904864535.1_INF313,GCF_904864535.1_INF313_bin_1,NZ_LR890416.1,144105,196609
GCF_904864535.1_INF313,GCF_904864535.1_INF313_bin_1,NZ_LR890417.1,52504,196609
GCF_904864535.1_INF313,GCF_904864535.1_INF313_bin_4,NZ_LR890420.1,3223,3223
GCF_013783245.1_ASM1378324v1,GCF_013783245.1_ASM1378324v1_bin_2,NZ_CP056218.1,4805,4805
GCF_013783245.1_ASM1378324v1,GCF_013783245.1_ASM1378324v1_bin_1,NZ_CP056217.1,144699,144699
GCF_020525885.1_ASM2052588v1,GCF_020525885.1_ASM2052588v1_bin_1,NZ_CP084869.1,216483,216640
GCF_016903195.1_ASM1690319v1,GCF_016903195.1_ASM1690319v1_bin_1,NZ_CP069848.1,54063,79554
GCF_016903195.1_ASM1690319v1,GCF_016903195.1_ASM1690319v1_bin_1,NZ_CP069844.1,27761,79554
GCF_016903195.1_ASM1690319v1,GCF_016903195.1_ASM1690319v1_bin_1,NZ_CP069845.1,12870,79554
GCF_016903195.1_ASM1690319v1,GCF_016903195.1_ASM1690319v1_bin_1,NZ_CP069849.1,8001,79554
GCF_016903195.1_ASM1690319v1,GCF_016903195.1_ASM1690319v1_bin_1,NZ_CP069846.1,1471,79554
GCF_016903195.1_ASM1690319v1,GCF_016903195.1_ASM1690319v1_bin_3,NZ_CP069844.1,1014,1014
GCF_016903195.1_ASM1690319v1,GCF_016903195.1_ASM1690319v1_bin_3,NZ_CP069849.1,3041,1014
GCF_016903195.1_ASM1690319v1,GCF_016903195.1_ASM1690319v1_bin_3,NZ_CP069845.1,3041,1014
GCF_016903195.1_ASM1690319v1,GCF_016903195.1_ASM1690319v1_bin_Unbinned,NZ_CP069847.1,100400,101678
GCF_016903195.1_ASM1690319v1,GCF_016903195.1_ASM1690319v1_bin_Unbinned,NZ_CP069848.1,1278,101678
GCF_016903195.1_ASM1690319v1,GCF_016903195.1_ASM1690319v1_bin_4,NZ_CP069850.1,5698,5698
GCF_016903195.1_ASM1690319v1,GCF_016903195.1_ASM1690319v1_bin_2,NZ_CP069846.1,199659,199660
GCF_016903195.1_ASM1690319v1,GCF_016903195.1_ASM1690319v1_bin_5,no_correct_alignments,0,0
GCF_904865795.1_KSB2_10B,GCF_904865795.1_KSB2_10B_bin_Unbinned,NZ_LR890484.1,100267,107291
GCF_904865795.1_KSB2_10B,GCF_904865795.1_KSB2_10B_bin_Unbinned,NZ_LR890485.1,7024,107291
GCF_904865795.1_KSB2_10B,GCF_904865795.1_KSB2_10B_bin_3,NZ_LR890487.1,4016,4064
GCF_904865795.1_KSB2_10B,GCF_904865795.1_KSB2_10B_bin_2,NZ_LR890486.1,32108,32108
GCF_904865795.1_KSB2_10B,GCF_904865795.1_KSB2_10B_bin_2,NZ_LR890484.1,1353,32108
GCF_904865795.1_KSB2_10B,GCF_904865795.1_KSB2_10B_bin_1,NZ_LR890485.1,134597,134597
GCF_904865795.1_KSB2_10B,GCF_904865795.1_KSB2_10B_bin_4,NZ_LR890488.1,3223,3223
GCF_904863145.1_INF072,GCF_904863145.1_INF072_bin_1,NZ_LR890186.1,223039,223039
GCF_904863145.1_INF072,GCF_904863145.1_INF072_bin_3,NZ_LR890188.1,3302,3302
GCF_904863145.1_INF072,GCF_904863145.1_INF072_bin_2,NZ_LR890187.1,4693,4693
GCF_016903895.1_ASM1690389v1,GCF_016903895.1_ASM1690389v1_bin_1,NZ_CP069995.1,137328,137389
GCF_021497265.1_ASM2149726v1,GCF_021497265.1_ASM2149726v1_bin_1,NZ_CP053863.1,207746,211267
GCF_021497265.1_ASM2149726v1,GCF_021497265.1_ASM2149726v1_bin_1,NZ_CP053862.1,3521,211267
GCF_021497265.1_ASM2149726v1,GCF_021497265.1_ASM2149726v1_bin_2,NZ_CP053864.1,110998,111002
GCF_016903475.1_ASM1690347v1,GCF_016903475.1_ASM1690347v1_bin_3,no_correct_alignments,0,0
GCF_016903475.1_ASM1690347v1,GCF_016903475.1_ASM1690347v1_bin_2,no_correct_alignments,0,0
GCF_016903475.1_ASM1690347v1,GCF_016903475.1_ASM1690347v1_bin_1,NZ_CP070173.1,153423,204730
GCF_016903475.1_ASM1690347v1,GCF_016903475.1_ASM1690347v1_bin_1,NZ_CP070174.1,55187,204730
GCF_016904275.1_ASM1690427v1,GCF_016904275.1_ASM1690427v1_bin_2,NZ_CP070086.1,38630,42553
GCF_016904275.1_ASM1690427v1,GCF_016904275.1_ASM1690427v1_bin_2,NZ_CP070084.1,3923,42553
GCF_016904275.1_ASM1690427v1,GCF_016904275.1_ASM1690427v1_bin_3,NZ_CP070084.1,18094,18094
GCF_016904275.1_ASM1690427v1,GCF_016904275.1_ASM1690427v1_bin_4,NZ_CP070085.1,5585,5585
GCF_016904275.1_ASM1690427v1,GCF_016904275.1_ASM1690427v1_bin_5,no_correct_alignments,0,0
GCF_016904275.1_ASM1690427v1,GCF_016904275.1_ASM1690427v1_bin_Unbinned,NZ_CP070082.1,10358,10358
GCF_016904275.1_ASM1690427v1,GCF_016904275.1_ASM1690427v1_bin_Unbinned,NZ_CP070087.1,1061,10358
GCF_016904275.1_ASM1690427v1,GCF_016904275.1_ASM1690427v1_bin_1,NZ_CP070083.1,152720,156446
GCF_016904275.1_ASM1690427v1,GCF_016904275.1_ASM1690427v1_bin_1,NZ_CP070084.1,3726,156446
GCF_904863395.1_INF250,GCF_904863395.1_INF250_bin_1,NZ_LR890374.1,142444,272064
GCF_904863395.1_INF250,GCF_904863395.1_INF250_bin_1,NZ_LR890376.1,45601,272064
GCF_904863395.1_INF250,GCF_904863395.1_INF250_bin_1,NZ_LR890375.1,83933,272064
GCF_904863395.1_INF250,GCF_904863395.1_INF250_bin_4,NZ_LR890379.1,3223,3223
GCF_904863395.1_INF250,GCF_904863395.1_INF250_bin_2,NZ_LR890376.1,7342,9680
GCF_904863395.1_INF250,GCF_904863395.1_INF250_bin_2,NZ_LR890375.1,2338,9680
GCF_904863395.1_INF250,GCF_904863395.1_INF250_bin_3,NZ_LR890378.1,3514,3514
GCF_904863395.1_INF250,GCF_904863395.1_INF250_bin_5,NZ_LR890380.1,2723,2723
GCF_904865715.1_KSB1_5H,GCF_904865715.1_KSB1_5H_bin_1,NZ_LR890501.1,127820,248256
GCF_904865715.1_KSB1_5H,GCF_904865715.1_KSB1_5H_bin_1,NZ_LR890502.1,120436,248256
GCF_904865715.1_KSB1_5H,GCF_904865715.1_KSB1_5H_bin_4,NZ_LR890507.1,9294,9294
GCF_904865715.1_KSB1_5H,GCF_904865715.1_KSB1_5H_bin_3,NZ_LR890503.1,111123,111123
GCF_904865715.1_KSB1_5H,GCF_904865715.1_KSB1_5H_bin_2,NZ_LR890504.1,68766,89535
GCF_904865715.1_KSB1_5H,GCF_904865715.1_KSB1_5H_bin_2,NZ_LR890505.1,20769,89535
GCF_904865715.1_KSB1_5H,GCF_904865715.1_KSB1_5H_bin_5,no_correct_alignments,0,0
GCF_016066295.1_ASM1606629v1,GCF_016066295.1_ASM1606629v1_bin_1,NZ_CP065832.1,198141,200200
GCF_016066295.1_ASM1606629v1,GCF_016066295.1_ASM1606629v1_bin_1,NZ_CP065831.1,2059,200200
GCF_021655515.1_ASM2165551v1,GCF_021655515.1_ASM2165551v1_bin_2,NZ_AP024580.1,173702,173702
GCF_021655515.1_ASM2165551v1,GCF_021655515.1_ASM2165551v1_bin_1,NZ_AP024579.1,12391,19380
GCF_021655515.1_ASM2165551v1,GCF_021655515.1_ASM2165551v1_bin_1,NZ_AP024581.1,19380,19380
GCF_021655515.1_ASM2165551v1,GCF_021655515.1_ASM2165551v1_bin_1,NZ_AP024580.1,19380,19380
GCF_904864525.1_INF350,GCF_904864525.1_INF350_bin_1,NZ_LR890423.1,150352,150352
GCF_904863115.1_INF329,GCF_904863115.1_INF329_bin_1,NZ_LR890241.1,183617,183617
GCF_904863115.1_INF329,GCF_904863115.1_INF329_bin_2,NZ_LR890242.1,4064,4064
GCF_904864445.1_KSB1_6G,GCF_904864445.1_KSB1_6G_bin_5,NZ_LR890463.1,1602,1612
GCF_904864445.1_KSB1_6G,GCF_904864445.1_KSB1_6G_bin_3,NZ_LR890461.1,4665,4665
GCF_904864445.1_KSB1_6G,GCF_904864445.1_KSB1_6G_bin_4,NZ_LR890462.1,3514,3514
GCF_904864445.1_KSB1_6G,GCF_904864445.1_KSB1_6G_bin_2,NZ_LR890460.1,5840,5840
GCF_904864445.1_KSB1_6G,GCF_904864445.1_KSB1_6G_bin_1,NZ_LR890458.1,225805,383912
GCF_904864445.1_KSB1_6G,GCF_904864445.1_KSB1_6G_bin_1,NZ_LR890459.1,158105,383912
GCF_013811445.1_ASM1381144v1,GCF_013811445.1_ASM1381144v1_bin_1,NZ_CP057067.1,234830,234830
GCF_013811445.1_ASM1381144v1,GCF_013811445.1_ASM1381144v1_bin_2,NZ_CP057068.1,204383,204383
GCF_016903495.1_ASM1690349v1,GCF_016903495.1_ASM1690349v1_bin_1,NZ_CP069941.1,220234,220234
GCF_016903495.1_ASM1690349v1,GCF_016903495.1_ASM1690349v1_bin_2,no_correct_alignments,0,0
GCF_904866505.1_INF323,GCF_904866505.1_INF323_bin_4,NZ_LR890739.1,3514,3514
GCF_904866505.1_INF323,GCF_904866505.1_INF323_bin_2,NZ_LR890736.1,120209,120209
GCF_904866505.1_INF323,GCF_904866505.1_INF323_bin_1,NZ_LR890737.1,211113,226572
GCF_904866505.1_INF323,GCF_904866505.1_INF323_bin_1,NZ_LR890736.1,15441,226572
GCF_904866505.1_INF323,GCF_904866505.1_INF323_bin_3,NZ_LR890738.1,122835,122835
GCF_016629585.1_ASM1662958v1,GCF_016629585.1_ASM1662958v1_bin_3,NZ_AP024174.1,31443,35336
GCF_016629585.1_ASM1662958v1,GCF_016629585.1_ASM1662958v1_bin_3,NZ_AP024175.1,3893,35336
GCF_016629585.1_ASM1662958v1,GCF_016629585.1_ASM1662958v1_bin_4,NZ_AP024177.1,47258,47260
GCF_016629585.1_ASM1662958v1,GCF_016629585.1_ASM1662958v1_bin_1,NZ_AP024175.1,25560,51732
GCF_016629585.1_ASM1662958v1,GCF_016629585.1_ASM1662958v1_bin_1,NZ_AP024174.1,26172,51732
GCF_016629585.1_ASM1662958v1,GCF_016629585.1_ASM1662958v1_bin_Unbinned,NZ_AP024174.1,23782,42229
GCF_016629585.1_ASM1662958v1,GCF_016629585.1_ASM1662958v1_bin_Unbinned,NZ_AP024175.1,14830,42229
GCF_016629585.1_ASM1662958v1,GCF_016629585.1_ASM1662958v1_bin_Unbinned,NZ_AP024179.1,3617,42229
GCF_016629585.1_ASM1662958v1,GCF_016629585.1_ASM1662958v1_bin_5,NZ_AP024180.1,2966,9004
GCF_016629585.1_ASM1662958v1,GCF_016629585.1_ASM1662958v1_bin_5,NZ_AP024178.1,5783,9004
GCF_016629585.1_ASM1662958v1,GCF_016629585.1_ASM1662958v1_bin_2,NZ_AP024174.1,114137,151001
GCF_016629585.1_ASM1662958v1,GCF_016629585.1_ASM1662958v1_bin_2,NZ_AP024175.1,36864,151001
GCF_016629585.1_ASM1662958v1,GCF_016629585.1_ASM1662958v1_bin_6,NZ_AP024176.1,110494,110494
GCF_904865755.1_INF341,GCF_904865755.1_INF341_bin_1,NZ_LR890491.1,190649,190649
GCF_904865755.1_INF341,GCF_904865755.1_INF341_bin_2,NZ_LR890492.1,9294,9294
GCF_016903255.1_ASM1690325v1,GCF_016903255.1_ASM1690325v1_bin_2,NZ_CP069863.1,162808,162876
GCF_016903255.1_ASM1690325v1,GCF_016903255.1_ASM1690325v1_bin_1,NZ_CP069862.1,124567,141471
GCF_016903255.1_ASM1690325v1,GCF_016903255.1_ASM1690325v1_bin_1,NZ_CP069863.1,16904,141471
GCF_016903255.1_ASM1690325v1,GCF_016903255.1_ASM1690325v1_bin_3,no_correct_alignments,0,0
GCF_016903875.1_ASM1690387v1,GCF_016903875.1_ASM1690387v1_bin_2,no_correct_alignments,0,0
GCF_016903875.1_ASM1690387v1,GCF_016903875.1_ASM1690387v1_bin_1,NZ_CP069993.1,177068,177068
GCF_016066025.1_ASM1606602v1,GCF_016066025.1_ASM1606602v1_bin_2,NZ_CP065827.1,110785,110785
GCF_016066025.1_ASM1606602v1,GCF_016066025.1_ASM1606602v1_bin_3,NZ_CP065828.1,4444,4444
GCF_016066025.1_ASM1606602v1,GCF_016066025.1_ASM1606602v1_bin_1,NZ_CP065826.1,189688,189688
GCF_016066025.1_ASM1606602v1,GCF_016066025.1_ASM1606602v1_bin_5,NZ_CP065830.1,3303,3303
GCF_016066025.1_ASM1606602v1,GCF_016066025.1_ASM1606602v1_bin_4,NZ_CP065829.1,3674,3674
GCF_020525905.1_ASM2052590v1,GCF_020525905.1_ASM2052590v1_bin_1,NZ_CP084826.1,109041,109041
GCF_003261955.3_ASM326195v3,GCF_003261955.3_ASM326195v3_bin_1,NZ_CP033396.2,50893,79454
GCF_003261955.3_ASM326195v3,GCF_003261955.3_ASM326195v3_bin_1,NZ_CP033395.2,28561,79454
GCF_003261955.3_ASM326195v3,GCF_003261955.3_ASM326195v3_bin_3,NZ_CP033394.2,49365,97122
GCF_003261955.3_ASM326195v3,GCF_003261955.3_ASM326195v3_bin_3,NZ_CP033395.2,5178,97122
GCF_003261955.3_ASM326195v3,GCF_003261955.3_ASM326195v3_bin_4,NZ_CP033393.2,5423,5596
GCF_003261955.3_ASM326195v3,GCF_003261955.3_ASM326195v3_bin_2,NZ_CP033392.2,9222,9222
GCF_001185665.2_ASM118566v3,GCF_001185665.2_ASM118566v3_bin_3,NZ_CP073057.1,2527,2527
GCF_001185665.2_ASM118566v3,GCF_001185665.2_ASM118566v3_bin_3,NZ_CP073055.1,2527,2527
GCF_001185665.2_ASM118566v3,GCF_001185665.2_ASM118566v3_bin_Unbinned,NZ_CP073055.1,142346,174436
GCF_001185665.2_ASM118566v3,GCF_001185665.2_ASM118566v3_bin_Unbinned,NZ_CP073058.1,31364,174436
GCF_001185665.2_ASM118566v3,GCF_001185665.2_ASM118566v3_bin_2,NZ_CP073056.1,87514,87514
GCF_001185665.2_ASM118566v3,GCF_001185665.2_ASM118566v3_bin_1,NZ_CP073055.1,139721,139726
GCF_013792545.1_ASM1379254v1,GCF_013792545.1_ASM1379254v1_bin_6,NZ_CP056857.1,55736,55736
GCF_013792545.1_ASM1379254v1,GCF_013792545.1_ASM1379254v1_bin_3,NZ_CP056855.1,62060,62232
GCF_013792545.1_ASM1379254v1,GCF_013792545.1_ASM1379254v1_bin_5,NZ_CP056856.1,6104,6104
GCF_013792545.1_ASM1379254v1,GCF_013792545.1_ASM1379254v1_bin_1,NZ_CP056855.1,96941,96941
GCF_013792545.1_ASM1379254v1,GCF_013792545.1_ASM1379254v1_bin_2,NZ_CP056856.1,96120,96120
GCF_013792545.1_ASM1379254v1,GCF_013792545.1_ASM1379254v1_bin_8,NZ_CP056860.1,1916,1916
GCF_013792545.1_ASM1379254v1,GCF_013792545.1_ASM1379254v1_bin_7,NZ_CP056859.1,2330,2330
GCF_013792545.1_ASM1379254v1,GCF_013792545.1_ASM1379254v1_bin_4,NZ_CP056858.1,37871,37871
GCF_013704985.1_ASM1370498v1,GCF_013704985.1_ASM1370498v1_bin_2,NZ_CP055452.1,83918,83918
GCF_013704985.1_ASM1370498v1,GCF_013704985.1_ASM1370498v1_bin_7,NZ_CP055457.1,2988,2988
GCF_013704985.1_ASM1370498v1,GCF_013704985.1_ASM1370498v1_bin_4,NZ_CP055455.1,3155,3193
GCF_013704985.1_ASM1370498v1,GCF_013704985.1_ASM1370498v1_bin_1,NZ_CP055453.1,41042,42978
GCF_013704985.1_ASM1370498v1,GCF_013704985.1_ASM1370498v1_bin_5,NZ_CP055456.1,3100,3142
GCF_013704985.1_ASM1370498v1,GCF_013704985.1_ASM1370498v1_bin_3,NZ_CP055452.1,124949,124949
GCF_013704985.1_ASM1370498v1,GCF_013704985.1_ASM1370498v1_bin_6,NZ_CP055454.1,38470,38470
GCF_904866335.1_INF266,GCF_904866335.1_INF266_bin_1,NZ_LR890649.1,173413,173413
GCF_904866335.1_INF266,GCF_904866335.1_INF266_bin_2,NZ_LR890650.1,57283,57283
GCF_904865735.1_INF361,GCF_904865735.1_INF361_bin_1,NZ_LR890528.1,166438,166438
GCF_904865735.1_INF361,GCF_904865735.1_INF361_bin_2,NZ_LR890529.1,115618,115618
GCF_904865735.1_INF361,GCF_904865735.1_INF361_bin_3,NZ_LR890530.1,3514,3514
GCF_021655495.1_ASM2165549v1,GCF_021655495.1_ASM2165549v1_bin_1,NZ_AP024578.1,31857,31857
GCF_021655495.1_ASM2165549v1,GCF_021655495.1_ASM2165549v1_bin_1,NZ_AP024577.1,31857,31857
GCF_021655495.1_ASM2165549v1,GCF_021655495.1_ASM2165549v1_bin_2,NZ_AP024577.1,173701,173701
GCF_904863335.1_KSB1_5B,GCF_904863335.1_KSB1_5B_bin_1,NZ_LR890355.1,55020,55125
GCF_904863335.1_KSB1_5B,GCF_904863335.1_KSB1_5B_bin_2,NZ_LR890354.1,92394,92394
GCF_904863335.1_KSB1_5B,GCF_904863335.1_KSB1_5B_bin_3,NZ_LR890354.1,35560,35560
GCF_012029935.2_ASM1202993v2,GCF_012029935.2_ASM1202993v2_bin_1,NZ_CP061405.1,146168,213052
GCF_012029935.2_ASM1202993v2,GCF_012029935.2_ASM1202993v2_bin_1,NZ_CP061407.1,66874,213052
GCF_012029935.2_ASM1202993v2,GCF_012029935.2_ASM1202993v2_bin_2,NZ_CP061406.1,74477,74482
GCF_016903155.1_ASM1690315v1,GCF_016903155.1_ASM1690315v1_bin_2,NZ_CP069823.1,9294,9294
GCF_016903155.1_ASM1690315v1,GCF_016903155.1_ASM1690315v1_bin_4,NZ_CP069824.1,4167,4167
GCF_016903155.1_ASM1690315v1,GCF_016903155.1_ASM1690315v1_bin_1,NZ_CP069822.1,162377,163939
GCF_016903155.1_ASM1690315v1,GCF_016903155.1_ASM1690315v1_bin_1,NZ_CP069821.1,1562,163939
GCF_016903155.1_ASM1690315v1,GCF_016903155.1_ASM1690315v1_bin_3,no_correct_alignments,0,0
GCF_904865815.1_INF281,GCF_904865815.1_INF281_bin_3,NZ_LR890518.1,111123,111123
GCF_904865815.1_INF281,GCF_904865815.1_INF281_bin_2,NZ_LR890519.1,68766,130061
GCF_904865815.1_INF281,GCF_904865815.1_INF281_bin_2,NZ_LR890520.1,61295,130061
GCF_904865815.1_INF281,GCF_904865815.1_INF281_bin_1,NZ_LR890516.1,127820,248256
GCF_904865815.1_INF281,GCF_904865815.1_INF281_bin_1,NZ_LR890517.1,120436,248256
GCF_904865815.1_INF281,GCF_904865815.1_INF281_bin_4,NZ_LR890521.1,53943,53943
GCF_904865815.1_INF281,GCF_904865815.1_INF281_bin_5,NZ_LR890522.1,9294,9294
GCF_013731735.1_ASM1373173v1,GCF_013731735.1_ASM1373173v1_bin_2,NZ_CP056312.1,4056,4056
GCF_013731735.1_ASM1373173v1,GCF_013731735.1_ASM1373173v1_bin_3,NZ_CP056313.1,2799,2799
GCF_013731735.1_ASM1373173v1,GCF_013731735.1_ASM1373173v1_bin_1,NZ_CP056308.1,169222,363301
GCF_013731735.1_ASM1373173v1,GCF_013731735.1_ASM1373173v1_bin_1,NZ_CP056309.1,109664,363301
GCF_013731735.1_ASM1373173v1,GCF_013731735.1_ASM1373173v1_bin_1,NZ_CP056310.1,84415,363301
GCF_012029695.2_ASM1202969v2,GCF_012029695.2_ASM1202969v2_bin_2,NZ_CP061395.1,9294,9294
GCF_012029695.2_ASM1202969v2,GCF_012029695.2_ASM1202969v2_bin_1,NZ_CP061391.1,110866,438517
GCF_012029695.2_ASM1202969v2,GCF_012029695.2_ASM1202969v2_bin_1,NZ_CP061390.1,174826,438517
GCF_012029695.2_ASM1202969v2,GCF_012029695.2_ASM1202969v2_bin_1,NZ_CP061392.1,60061,438517
GCF_012029695.2_ASM1202969v2,GCF_012029695.2_ASM1202969v2_bin_1,NZ_CP061393.1,51633,438517
GCF_012029695.2_ASM1202969v2,GCF_012029695.2_ASM1202969v2_bin_1,NZ_CP061394.1,40440,438517
GCF_013805705.1_ASM1380570v1,GCF_013805705.1_ASM1380570v1_bin_3,NZ_CP057037.1,4671,4671
GCF_013805705.1_ASM1380570v1,GCF_013805705.1_ASM1380570v1_bin_2,NZ_CP057036.1,86316,86316
GCF_013805705.1_ASM1380570v1,GCF_013805705.1_ASM1380570v1_bin_1,NZ_CP057035.1,185029,185029
GCF_020080145.1_ASM2008014v1,GCF_020080145.1_ASM2008014v1_bin_1,NZ_CP083446.1,299691,338811
GCF_020080145.1_ASM2008014v1,GCF_020080145.1_ASM2008014v1_bin_1,NZ_CP083447.1,36425,338811
GCF_020080145.1_ASM2008014v1,GCF_020080145.1_ASM2008014v1_bin_1,NZ_CP083445.1,1313,338811
GCF_904865675.1_INF358,GCF_904865675.1_INF358_bin_1,NZ_LR890475.1,257857,257857
GCF_904866325.1_INF299,GCF_904866325.1_INF299_bin_4,NZ_LR890639.1,9294,9294
GCF_904866325.1_INF299,GCF_904866325.1_INF299_bin_2,NZ_LR890633.1,156000,275128
GCF_904866325.1_INF299,GCF_904866325.1_INF299_bin_2,NZ_LR890634.1,119128,275128
GCF_904866325.1_INF299,GCF_904866325.1_INF299_bin_1,NZ_LR890636.1,69066,130361
GCF_904866325.1_INF299,GCF_904866325.1_INF299_bin_1,NZ_LR890637.1,61295,130361
GCF_904866325.1_INF299,GCF_904866325.1_INF299_bin_3,NZ_LR890635.1,111123,111123
GCF_019798005.1_ASM1979800v1,GCF_019798005.1_ASM1979800v1_bin_4,NZ_CP073787.1,4627,4627
GCF_019798005.1_ASM1979800v1,GCF_019798005.1_ASM1979800v1_bin_1,NZ_CP073785.1,110316,110316
GCF_019798005.1_ASM1979800v1,GCF_019798005.1_ASM1979800v1_bin_3,NZ_CP073786.1,110542,110542
GCF_019798005.1_ASM1979800v1,GCF_019798005.1_ASM1979800v1_bin_2,NZ_CP073784.1,214228,214228
GCF_904866315.1_INF346,GCF_904866315.1_INF346_bin_3,NZ_LR890647.1,4616,4616
GCF_904866315.1_INF346,GCF_904866315.1_INF346_bin_1,NZ_LR890644.1,38056,38056
GCF_904866315.1_INF346,GCF_904866315.1_INF346_bin_2,NZ_LR890646.1,5542,5542
GCF_016904315.1_ASM1690431v1,GCF_016904315.1_ASM1690431v1_bin_1,NZ_CP070093.1,194632,195413
GCF_016904315.1_ASM1690431v1,GCF_016904315.1_ASM1690431v1_bin_2,NZ_CP070094.1,4071,4071
GCF_904863295.1_KSB2_2B,GCF_904863295.1_KSB2_2B_bin_4,NZ_LR890346.1,4064,4064
GCF_904863295.1_KSB2_2B,GCF_904863295.1_KSB2_2B_bin_2,NZ_LR890344.1,191630,191647
GCF_904863295.1_KSB2_2B,GCF_904863295.1_KSB2_2B_bin_1,NZ_LR890344.1,17819,8913
GCF_904863295.1_KSB2_2B,GCF_904863295.1_KSB2_2B_bin_1,NZ_LR890343.1,8910,8913
GCF_904863295.1_KSB2_2B,GCF_904863295.1_KSB2_2B_bin_1,NZ_LR890345.1,2186,8913
GCF_904863295.1_KSB2_2B,GCF_904863295.1_KSB2_2B_bin_5,NZ_LR890347.1,3223,3223
GCF_904863295.1_KSB2_2B,GCF_904863295.1_KSB2_2B_bin_3,NZ_LR890343.1,1299,29441
GCF_904863295.1_KSB2_2B,GCF_904863295.1_KSB2_2B_bin_6,no_correct_alignments,0,0
GCF_015694085.1_ASM1569408v1,GCF_015694085.1_ASM1569408v1_bin_4,NZ_CP065171.1,2723,2723
GCF_015694085.1_ASM1569408v1,GCF_015694085.1_ASM1569408v1_bin_3,NZ_CP065170.1,3058,3223
GCF_015694085.1_ASM1569408v1,GCF_015694085.1_ASM1569408v1_bin_2,NZ_CP065169.1,3514,3514
GCF_015694085.1_ASM1569408v1,GCF_015694085.1_ASM1569408v1_bin_1,NZ_CP065168.1,142453,142453
GCF_904863355.1_INF148,GCF_904863355.1_INF148_bin_2,NZ_LR890382.1,4064,4064
GCF_904863355.1_INF148,GCF_904863355.1_INF148_bin_3,NZ_LR890383.1,3223,3223
GCF_904863355.1_INF148,GCF_904863355.1_INF148_bin_1,NZ_LR890381.1,210232,210232
GCF_904866395.1_INF321,GCF_904866395.1_INF321_bin_3,NZ_LR890673.1,3620,3690
GCF_904866395.1_INF321,GCF_904866395.1_INF321_bin_2,NZ_LR890672.1,4286,7464
GCF_904866395.1_INF321,GCF_904866395.1_INF321_bin_2,NZ_LR890675.1,3074,7464
GCF_904866395.1_INF321,GCF_904866395.1_INF321_bin_1,NZ_LR890671.1,99416,307258
GCF_904866395.1_INF321,GCF_904866395.1_INF321_bin_1,NZ_LR890670.1,71139,307258
GCF_904866395.1_INF321,GCF_904866395.1_INF321_bin_1,NZ_LR890669.1,14564,307258
GCF_904866395.1_INF321,GCF_904866395.1_INF321_bin_6,NZ_LR890678.1,1240,1240
GCF_904866395.1_INF321,GCF_904866395.1_INF321_bin_5,NZ_LR890676.1,3109,3109
GCF_904866395.1_INF321,GCF_904866395.1_INF321_bin_4,NZ_LR890674.1,3415,3415
GCF_904863095.1_INF174,GCF_904863095.1_INF174_bin_2,NZ_LR890247.1,4369,4369
GCF_904863095.1_INF174,GCF_904863095.1_INF174_bin_1,NZ_LR890246.1,221748,221748
GCF_015138775.1_ASM1513877v1,GCF_015138775.1_ASM1513877v1_bin_1,NZ_AP022528.1,130579,168899
GCF_015138775.1_ASM1513877v1,GCF_015138775.1_ASM1513877v1_bin_1,NZ_AP022529.1,38319,168899
GCF_015138775.1_ASM1513877v1,GCF_015138775.1_ASM1513877v1_bin_2,NZ_AP022531.1,3860,3860
GCF_015138775.1_ASM1513877v1,GCF_015138775.1_ASM1513877v1_bin_3,NZ_AP022530.1,4906,4906
GCF_013782105.1_ASM1378210v1,GCF_013782105.1_ASM1378210v1_bin_3,NZ_CP056196.1,5783,5783
GCF_013782105.1_ASM1378210v1,GCF_013782105.1_ASM1378210v1_bin_4,NZ_CP056197.1,2426,2426
GCF_013782105.1_ASM1378210v1,GCF_013782105.1_ASM1378210v1_bin_2,NZ_CP056195.1,14959,14959
GCF_013782105.1_ASM1378210v1,GCF_013782105.1_ASM1378210v1_bin_1,NZ_CP056194.1,50602,286777
GCF_013782105.1_ASM1378210v1,GCF_013782105.1_ASM1378210v1_bin_1,NZ_CP056192.1,180349,286777
GCF_013782105.1_ASM1378210v1,GCF_013782105.1_ASM1378210v1_bin_1,NZ_CP056193.1,55826,286777
GCF_018283505.2_ASM1828350v2,GCF_018283505.2_ASM1828350v2_bin_2,NZ_CP084396.1,4167,4167
GCF_018283505.2_ASM1828350v2,GCF_018283505.2_ASM1828350v2_bin_1,NZ_CP084394.1,112696,440810
GCF_018283505.2_ASM1828350v2,GCF_018283505.2_ASM1828350v2_bin_1,NZ_CP084395.1,340340,440810
GCF_016903115.1_ASM1690311v1,GCF_016903115.1_ASM1690311v1_bin_6,no_correct_alignments,0,0
GCF_016903115.1_ASM1690311v1,GCF_016903115.1_ASM1690311v1_bin_4,NZ_CP069835.1,4823,4823
GCF_016903115.1_ASM1690311v1,GCF_016903115.1_ASM1690311v1_bin_7,NZ_CP069830.1,5167,5167
GCF_016903115.1_ASM1690311v1,GCF_016903115.1_ASM1690311v1_bin_3,NZ_CP069834.1,9797,9797
GCF_016903115.1_ASM1690311v1,GCF_016903115.1_ASM1690311v1_bin_1,NZ_CP069833.1,75657,75657
GCF_016903115.1_ASM1690311v1,GCF_016903115.1_ASM1690311v1_bin_11,NZ_CP069837.1,1506,1506
GCF_016903115.1_ASM1690311v1,GCF_016903115.1_ASM1690311v1_bin_2,NZ_CP069829.1,32154,48084
GCF_016903115.1_ASM1690311v1,GCF_016903115.1_ASM1690311v1_bin_2,NZ_CP069834.1,15918,48084
GCF_016903115.1_ASM1690311v1,GCF_016903115.1_ASM1690311v1_bin_5,NZ_CP069831.1,4476,4476
GCF_016903115.1_ASM1690311v1,GCF_016903115.1_ASM1690311v1_bin_8,NZ_CP069832.1,4062,4062
GCF_016903115.1_ASM1690311v1,GCF_016903115.1_ASM1690311v1_bin_9,NZ_CP069836.1,2579,2579
GCF_016903115.1_ASM1690311v1,GCF_016903115.1_ASM1690311v1_bin_10,NZ_CP069838.1,2297,2297
GCF_904863325.1_INF354,GCF_904863325.1_INF354_bin_3,NZ_LR890373.1,2723,2723
GCF_904863325.1_INF354,GCF_904863325.1_INF354_bin_2,NZ_LR890372.1,2997,3223
GCF_904863325.1_INF354,GCF_904863325.1_INF354_bin_1,NZ_LR890369.1,142444,299293
GCF_904863325.1_INF354,GCF_904863325.1_INF354_bin_1,NZ_LR890371.1,53503,299293
GCF_904863325.1_INF354,GCF_904863325.1_INF354_bin_1,NZ_LR890370.1,103346,299293
GCF_020525985.1_ASM2052598v1,GCF_020525985.1_ASM2052598v1_bin_4,NZ_CP084844.1,24051,24055
GCF_020525985.1_ASM2052598v1,GCF_020525985.1_ASM2052598v1_bin_5,no_correct_alignments,0,0
GCF_020525985.1_ASM2052598v1,GCF_020525985.1_ASM2052598v1_bin_6,NZ_CP084847.1,2442,17397
GCF_020525985.1_ASM2052598v1,GCF_020525985.1_ASM2052598v1_bin_6,NZ_CP084844.1,14955,17397
GCF_020525985.1_ASM2052598v1,GCF_020525985.1_ASM2052598v1_bin_3,NZ_CP084846.1,49259,51144
GCF_020525985.1_ASM2052598v1,GCF_020525985.1_ASM2052598v1_bin_3,NZ_CP084844.1,1885,51144
GCF_020525985.1_ASM2052598v1,GCF_020525985.1_ASM2052598v1_bin_8,NZ_CP084850.1,4018,4018
GCF_020525985.1_ASM2052598v1,GCF_020525985.1_ASM2052598v1_bin_9,no_correct_alignments,0,0
GCF_020525985.1_ASM2052598v1,GCF_020525985.1_ASM2052598v1_bin_2,NZ_CP084847.1,25507,52531
GCF_020525985.1_ASM2052598v1,GCF_020525985.1_ASM2052598v1_bin_2,NZ_CP084844.1,12287,52531
GCF_020525985.1_ASM2052598v1,GCF_020525985.1_ASM2052598v1_bin_2,NZ_CP084846.1,11189,52531
GCF_020525985.1_ASM2052598v1,GCF_020525985.1_ASM2052598v1_bin_1,NZ_CP084847.1,6110,155422
GCF_020525985.1_ASM2052598v1,GCF_020525985.1_ASM2052598v1_bin_1,NZ_CP084845.1,110699,155422
GCF_020525985.1_ASM2052598v1,GCF_020525985.1_ASM2052598v1_bin_1,NZ_CP084844.1,27875,155422
GCF_020525985.1_ASM2052598v1,GCF_020525985.1_ASM2052598v1_bin_1,NZ_CP084846.1,2668,155422
GCF_020525985.1_ASM2052598v1,GCF_020525985.1_ASM2052598v1_bin_1,NZ_CP084843.1,2496,155422
GCF_020525985.1_ASM2052598v1,GCF_020525985.1_ASM2052598v1_bin_7,NZ_CP084848.1,1324,22108
GCF_020525985.1_ASM2052598v1,GCF_020525985.1_ASM2052598v1_bin_7,NZ_CP084843.1,33382,22108
GCF_020526025.1_ASM2052602v1,GCF_020526025.1_ASM2052602v1_bin_1,NZ_CP084872.1,144830,144830
GCF_904866475.1_KSB2_9B,GCF_904866475.1_KSB2_9B_bin_Unbinned,NZ_LR890711.1,64896,79114
GCF_904866475.1_KSB2_9B,GCF_904866475.1_KSB2_9B_bin_Unbinned,NZ_LR890712.1,14218,79114
GCF_904866475.1_KSB2_9B,GCF_904866475.1_KSB2_9B_bin_5,NZ_LR890712.1,6236,6236
GCF_904866475.1_KSB2_9B,GCF_904866475.1_KSB2_9B_bin_3,NZ_LR890711.1,79133,79134
GCF_904866475.1_KSB2_9B,GCF_904866475.1_KSB2_9B_bin_1,NZ_LR890712.1,38466,38466
GCF_904866475.1_KSB2_9B,GCF_904866475.1_KSB2_9B_bin_4,NZ_LR890711.1,45720,45734
GCF_904866475.1_KSB2_9B,GCF_904866475.1_KSB2_9B_bin_2,NZ_LR890713.1,30900,40602
GCF_904866475.1_KSB2_9B,GCF_904866475.1_KSB2_9B_bin_2,NZ_LR890711.1,9702,40602
GCF_016903955.1_ASM1690395v1,GCF_016903955.1_ASM1690395v1_bin_1,NZ_CP070016.1,218594,218596
GCF_016903955.1_ASM1690395v1,GCF_016903955.1_ASM1690395v1_bin_3,no_correct_alignments,0,0
GCF_016903955.1_ASM1690395v1,GCF_016903955.1_ASM1690395v1_bin_2,NZ_CP070017.1,5627,5627
GCF_012029975.2_ASM1202997v2,GCF_012029975.2_ASM1202997v2_bin_4,NZ_CP061402.1,9294,9294
GCF_012029975.2_ASM1202997v2,GCF_012029975.2_ASM1202997v2_bin_1,NZ_CP061400.1,56134,56134
GCF_012029975.2_ASM1202997v2,GCF_012029975.2_ASM1202997v2_bin_2,NZ_CP061401.1,26894,26894
GCF_012029975.2_ASM1202997v2,GCF_012029975.2_ASM1202997v2_bin_5,NZ_CP061403.1,3258,3549
GCF_012029975.2_ASM1202997v2,GCF_012029975.2_ASM1202997v2_bin_3,NZ_CP061401.1,35953,35953
GCF_020525485.1_ASM2052548v1,GCF_020525485.1_ASM2052548v1_bin_2,NZ_CP084866.1,30626,30626
GCF_020525485.1_ASM2052548v1,GCF_020525485.1_ASM2052548v1_bin_2,NZ_CP084867.1,30626,30626
GCF_020525485.1_ASM2052548v1,GCF_020525485.1_ASM2052548v1_bin_1,NZ_CP084867.1,181456,181456
GCF_904865745.1_INF247,GCF_904865745.1_INF247_bin_1,NZ_LR890563.1,134420,134420
GCF_013724605.1_ASM1372460v1,GCF_013724605.1_ASM1372460v1_bin_4,NZ_CP056222.1,9315,9315
GCF_013724605.1_ASM1372460v1,GCF_013724605.1_ASM1372460v1_bin_2,NZ_CP056225.1,27228,50370
GCF_013724605.1_ASM1372460v1,GCF_013724605.1_ASM1372460v1_bin_2,NZ_CP056226.1,23142,50370
GCF_013724605.1_ASM1372460v1,GCF_013724605.1_ASM1372460v1_bin_3,NZ_CP056225.1,1925,3298
GCF_013724605.1_ASM1372460v1,GCF_013724605.1_ASM1372460v1_bin_3,NZ_CP056226.1,1373,3298
GCF_013724605.1_ASM1372460v1,GCF_013724605.1_ASM1372460v1_bin_6,no_correct_alignments,0,0
GCF_013724605.1_ASM1372460v1,GCF_013724605.1_ASM1372460v1_bin_1,NZ_CP056224.1,109848,256495
GCF_013724605.1_ASM1372460v1,GCF_013724605.1_ASM1372460v1_bin_1,NZ_CP056223.1,146646,256495
GCF_013724605.1_ASM1372460v1,GCF_013724605.1_ASM1372460v1_bin_5,NZ_CP056227.1,3223,3223
GCF_017894305.1_ASM1789430v1,GCF_017894305.1_ASM1789430v1_bin_1,NZ_CP058362.1,186645,186645
GCF_017894305.1_ASM1789430v1,GCF_017894305.1_ASM1789430v1_bin_2,NZ_CP058363.1,95858,95858
GCF_017894305.1_ASM1789430v1,GCF_017894305.1_ASM1789430v1_bin_3,NZ_CP058363.1,35913,35913
GCF_021496545.1_ASM2149654v1,GCF_021496545.1_ASM2149654v1_bin_2,no_correct_alignments,0,0
GCF_021496545.1_ASM2149654v1,GCF_021496545.1_ASM2149654v1_bin_1,no_correct_alignments,0,0
GCF_013735895.1_ASM1373589v1,GCF_013735895.1_ASM1373589v1_bin_4,NZ_CP056428.1,25549,25549
GCF_013735895.1_ASM1373589v1,GCF_013735895.1_ASM1373589v1_bin_6,NZ_CP056430.1,3733,3733
GCF_013735895.1_ASM1373589v1,GCF_013735895.1_ASM1373589v1_bin_7,NZ_CP056431.1,2836,2836
GCF_013735895.1_ASM1373589v1,GCF_013735895.1_ASM1373589v1_bin_5,NZ_CP056429.1,5783,5783
GCF_013735895.1_ASM1373589v1,GCF_013735895.1_ASM1373589v1_bin_1,NZ_CP056426.1,171901,171907
GCF_013735895.1_ASM1373589v1,GCF_013735895.1_ASM1373589v1_bin_2,NZ_CP056427.1,50025,50025
GCF_013735895.1_ASM1373589v1,GCF_013735895.1_ASM1373589v1_bin_3,NZ_CP056427.1,3187,3187
GCF_904865785.1_INF142,GCF_904865785.1_INF142_bin_6,NZ_LR890553.1,3825,3825
GCF_904865785.1_INF142,GCF_904865785.1_INF142_bin_3,NZ_LR890549.1,136394,136394
GCF_904865785.1_INF142,GCF_904865785.1_INF142_bin_5,NZ_LR890551.1,4273,4273
GCF_904865785.1_INF142,GCF_904865785.1_INF142_bin_2,NZ_LR890550.1,58820,58820
GCF_904865785.1_INF142,GCF_904865785.1_INF142_bin_4,NZ_LR890552.1,4536,4536
GCF_904865785.1_INF142,GCF_904865785.1_INF142_bin_1,NZ_LR890548.1,129000,130694
GCF_904865785.1_INF142,GCF_904865785.1_INF142_bin_1,NZ_LR890550.1,1694,130694
GCF_904863245.1_INF355,GCF_904863245.1_INF355_bin_3,NZ_LR890280.1,3514,3514
GCF_904863245.1_INF355,GCF_904863245.1_INF355_bin_2,NZ_LR890279.1,115618,115618
GCF_904863245.1_INF355,GCF_904863245.1_INF355_bin_1,NZ_LR890278.1,161473,161473
GCF_904866235.1_INF122,GCF_904866235.1_INF122_bin_1,NZ_LR890601.1,64339,64339
GCF_904866235.1_INF122,GCF_904866235.1_INF122_bin_2,NZ_LR890602.1,6573,6573
GCF_012030545.2_ASM1203054v2,GCF_012030545.2_ASM1203054v2_bin_1,NZ_CP061386.1,158899,266638
GCF_012030545.2_ASM1203054v2,GCF_012030545.2_ASM1203054v2_bin_1,NZ_CP061387.1,96637,266638
GCF_012030545.2_ASM1203054v2,GCF_012030545.2_ASM1203054v2_bin_1,NZ_CP061388.1,11102,266638
GCF_904866485.1_KSB1_1H,GCF_904866485.1_KSB1_1H_bin_3,NZ_LR890725.1,3223,3223
GCF_904866485.1_KSB1_1H,GCF_904866485.1_KSB1_1H_bin_2,NZ_LR890723.1,116136,116136
GCF_904866485.1_KSB1_1H,GCF_904866485.1_KSB1_1H_bin_1,NZ_LR890724.1,94363,94363
GCF_013796245.1_ASM1379624v1,GCF_013796245.1_ASM1379624v1_bin_3,NZ_CP056881.1,4512,4512
GCF_013796245.1_ASM1379624v1,GCF_013796245.1_ASM1379624v1_bin_2,NZ_CP056880.1,95164,95164
GCF_013796245.1_ASM1379624v1,GCF_013796245.1_ASM1379624v1_bin_4,NZ_CP056882.1,3845,3980
GCF_013796245.1_ASM1379624v1,GCF_013796245.1_ASM1379624v1_bin_1,NZ_CP056879.1,180820,180820
GCF_904866535.1_KSB1_8C,GCF_904866535.1_KSB1_8C_bin_1,NZ_LR890752.1,150545,184712
GCF_904866535.1_KSB1_8C,GCF_904866535.1_KSB1_8C_bin_1,NZ_LR890753.1,34081,184712
GCF_014788765.1_ASM1478876v1,GCF_014788765.1_ASM1478876v1_bin_1,NZ_CP061833.1,162085,188471
GCF_014788765.1_ASM1478876v1,GCF_014788765.1_ASM1478876v1_bin_1,NZ_CP061834.1,26362,188471
GCF_014788765.1_ASM1478876v1,GCF_014788765.1_ASM1478876v1_bin_2,NZ_CP061834.1,6108,6108
GCF_014788765.1_ASM1478876v1,GCF_014788765.1_ASM1478876v1_bin_2,NZ_CP061833.1,6108,6108
GCF_013811845.1_ASM1381184v1,GCF_013811845.1_ASM1381184v1_bin_1,NZ_CP057070.1,3770,3770
GCF_013811845.1_ASM1381184v1,GCF_013811845.1_ASM1381184v1_bin_2,NZ_CP057069.1,4996,4996
GCF_013811845.1_ASM1381184v1,GCF_013811845.1_ASM1381184v1_bin_3,NZ_CP057071.1,2020,2020
GCF_904866465.1_INF161,GCF_904866465.1_INF161_bin_2,NZ_LR890720.1,96828,96828
GCF_904866465.1_INF161,GCF_904866465.1_INF161_bin_1,NZ_LR890721.1,85250,85250
GCF_020149825.1_ASM2014982v1,GCF_020149825.1_ASM2014982v1_bin_1,NZ_CP083786.1,37960,38071
GCF_020149825.1_ASM2014982v1,GCF_020149825.1_ASM2014982v1_bin_4,NZ_CP083789.1,4268,4268
GCF_020149825.1_ASM2014982v1,GCF_020149825.1_ASM2014982v1_bin_3,NZ_CP083788.1,4408,4616
GCF_020149825.1_ASM2014982v1,GCF_020149825.1_ASM2014982v1_bin_2,NZ_CP083787.1,5542,5542
GCF_014905815.1_ASM1490581v1,GCF_014905815.1_ASM1490581v1_bin_4,NZ_AP023457.1,9294,9294
GCF_014905815.1_ASM1490581v1,GCF_014905815.1_ASM1490581v1_bin_5,NZ_AP023458.1,3991,3991
GCF_014905815.1_ASM1490581v1,GCF_014905815.1_ASM1490581v1_bin_2,NZ_AP023455.1,165401,165418
GCF_014905815.1_ASM1490581v1,GCF_014905815.1_ASM1490581v1_bin_3,NZ_AP023456.1,40184,40184
GCF_014905815.1_ASM1490581v1,GCF_014905815.1_ASM1490581v1_bin_1,NZ_AP023454.1,83335,83335
GCF_014169335.1_ASM1416933v1,GCF_014169335.1_ASM1416933v1_bin_1,NZ_AP022140.1,83914,84024
GCF_014169335.1_ASM1416933v1,GCF_014169335.1_ASM1416933v1_bin_2,NZ_AP022141.1,3852,3852
GCF_014169335.1_ASM1416933v1,GCF_014169335.1_ASM1416933v1_bin_3,no_correct_alignments,0,0
GCF_019798025.1_ASM1979802v1,GCF_019798025.1_ASM1979802v1_bin_2,NZ_CP073790.1,1212,1212
GCF_019798025.1_ASM1979802v1,GCF_019798025.1_ASM1979802v1_bin_1,NZ_CP073790.1,33469,33469
GCF_016904035.1_ASM1690403v1,GCF_016904035.1_ASM1690403v1_bin_1,NZ_CP070038.1,126781,221245
GCF_016904035.1_ASM1690403v1,GCF_016904035.1_ASM1690403v1_bin_1,NZ_CP070039.1,94239,221245
GCF_019797985.1_ASM1979798v1,GCF_019797985.1_ASM1979798v1_bin_2,NZ_CP073629.1,3991,3991
GCF_019797985.1_ASM1979798v1,GCF_019797985.1_ASM1979798v1_bin_1,NZ_CP073628.1,224472,224472
GCF_014168655.1_ASM1416865v1,GCF_014168655.1_ASM1416865v1_bin_1,NZ_AP021930.1,133516,247721
GCF_014168655.1_ASM1416865v1,GCF_014168655.1_ASM1416865v1_bin_1,NZ_AP021931.1,114011,247721
GCF_014168655.1_ASM1416865v1,GCF_014168655.1_ASM1416865v1_bin_2,NZ_AP021932.1,3981,3981
GCF_013734035.1_ASM1373403v1,GCF_013734035.1_ASM1373403v1_bin_4,NZ_CP056377.1,5525,5525
GCF_013734035.1_ASM1373403v1,GCF_013734035.1_ASM1373403v1_bin_7,NZ_CP056380.1,1916,1916
GCF_013734035.1_ASM1373403v1,GCF_013734035.1_ASM1373403v1_bin_5,NZ_CP056378.1,4416,4416
GCF_013734035.1_ASM1373403v1,GCF_013734035.1_ASM1373403v1_bin_6,NZ_CP056379.1,4018,4018
GCF_013734035.1_ASM1373403v1,GCF_013734035.1_ASM1373403v1_bin_3,NZ_CP056376.1,5783,5783
GCF_013734035.1_ASM1373403v1,GCF_013734035.1_ASM1373403v1_bin_2,NZ_CP056375.1,107685,107685
GCF_013734035.1_ASM1373403v1,GCF_013734035.1_ASM1373403v1_bin_1,NZ_CP056374.1,90962,222931
GCF_013734035.1_ASM1373403v1,GCF_013734035.1_ASM1373403v1_bin_1,NZ_CP056373.1,131969,222931
GCF_021228815.1_ASM2122881v1,GCF_021228815.1_ASM2122881v1_bin_1,NZ_CP089384.1,91988,91988
GCF_020149875.1_ASM2014987v1,GCF_020149875.1_ASM2014987v1_bin_3,NZ_CP083776.1,33329,33330
GCF_020149875.1_ASM2014987v1,GCF_020149875.1_ASM2014987v1_bin_5,NZ_CP083780.1,4740,4740
GCF_020149875.1_ASM2014987v1,GCF_020149875.1_ASM2014987v1_bin_6,NZ_CP083781.1,3594,3643
GCF_020149875.1_ASM2014987v1,GCF_020149875.1_ASM2014987v1_bin_2,NZ_CP083775.1,9110,266401
GCF_020149875.1_ASM2014987v1,GCF_020149875.1_ASM2014987v1_bin_2,NZ_CP083777.1,66885,266401
GCF_020149875.1_ASM2014987v1,GCF_020149875.1_ASM2014987v1_bin_2,NZ_CP083776.1,190406,266401
GCF_020149875.1_ASM2014987v1,GCF_020149875.1_ASM2014987v1_bin_7,NZ_CP083782.1,3549,3549
GCF_020149875.1_ASM2014987v1,GCF_020149875.1_ASM2014987v1_bin_1,NZ_CP083778.1,33609,33609
GCF_020149875.1_ASM2014987v1,GCF_020149875.1_ASM2014987v1_bin_4,NZ_CP083779.1,5521,5521
GCF_020149875.1_ASM2014987v1,GCF_020149875.1_ASM2014987v1_bin_8,NZ_CP083783.1,2892,2892
GCF_904866415.1_INF201,GCF_904866415.1_INF201_bin_1,NZ_LR890687.1,158146,158146
GCF_904866415.1_INF201,GCF_904866415.1_INF201_bin_2,NZ_LR890688.1,4387,4387
GCF_904866415.1_INF201,GCF_904866415.1_INF201_bin_3,NZ_LR890689.1,4268,4268
GCF_904866415.1_INF201,GCF_904866415.1_INF201_bin_4,NZ_LR890690.1,2665,2665
GCF_021655475.1_ASM2165547v1,GCF_021655475.1_ASM2165547v1_bin_2,NZ_AP024573.1,173701,173701
GCF_021655475.1_ASM2165547v1,GCF_021655475.1_ASM2165547v1_bin_3,NZ_AP024574.1,110870,110870
GCF_021655475.1_ASM2165547v1,GCF_021655475.1_ASM2165547v1_bin_1,NZ_AP024573.1,33834,33834
GCF_021655475.1_ASM2165547v1,GCF_021655475.1_ASM2165547v1_bin_1,NZ_AP024575.1,33834,33834
GCF_904863205.1_INF008,GCF_904863205.1_INF008_bin_1,NZ_LR890203.1,143093,143179
GCF_904863405.1_INF215,GCF_904863405.1_INF215_bin_1,NZ_LR890318.1,174809,214725
GCF_904863405.1_INF215,GCF_904863405.1_INF215_bin_1,NZ_LR890319.1,39916,214725
GCF_016904595.1_ASM1690459v1,GCF_016904595.1_ASM1690459v1_bin_1,NZ_CP070159.1,223909,224205
GCF_016904595.1_ASM1690459v1,GCF_016904595.1_ASM1690459v1_bin_4,NZ_CP070160.1,2058,2058
GCF_016904595.1_ASM1690459v1,GCF_016904595.1_ASM1690459v1_bin_3,no_correct_alignments,0,0
GCF_016904595.1_ASM1690459v1,GCF_016904595.1_ASM1690459v1_bin_2,no_correct_alignments,0,0
GCF_014189335.1_ASM1418933v1,GCF_014189335.1_ASM1418933v1_bin_4,no_correct_alignments,0,0
GCF_014189335.1_ASM1418933v1,GCF_014189335.1_ASM1418933v1_bin_3,no_correct_alignments,0,0
GCF_014189335.1_ASM1418933v1,GCF_014189335.1_ASM1418933v1_bin_1,NZ_CP047272.1,194985,478874
GCF_014189335.1_ASM1418933v1,GCF_014189335.1_ASM1418933v1_bin_2,no_correct_alignments,0,0
GCF_022369925.1_ASM2236992v1,GCF_022369925.1_ASM2236992v1_bin_5,NZ_CP071031.1,4167,4167
GCF_022369925.1_ASM2236992v1,GCF_022369925.1_ASM2236992v1_bin_1,NZ_CP071029.1,112696,112696
GCF_022369925.1_ASM2236992v1,GCF_022369925.1_ASM2236992v1_bin_3,NZ_CP071028.1,184981,184985
GCF_022369925.1_ASM2236992v1,GCF_022369925.1_ASM2236992v1_bin_4,NZ_CP071028.1,53491,96890
GCF_022369925.1_ASM2236992v1,GCF_022369925.1_ASM2236992v1_bin_4,NZ_CP071030.1,43399,96890
GCF_022369925.1_ASM2236992v1,GCF_022369925.1_ASM2236992v1_bin_2,NZ_CP071028.1,76305,76305
GCF_014168575.1_ASM1416857v1,GCF_014168575.1_ASM1416857v1_bin_1,NZ_AP021910.1,134521,206116
GCF_014168575.1_ASM1416857v1,GCF_014168575.1_ASM1416857v1_bin_1,NZ_AP021911.1,69519,206116
GCF_014168575.1_ASM1416857v1,GCF_014168575.1_ASM1416857v1_bin_3,NZ_AP021913.1,4163,4163
GCF_014168575.1_ASM1416857v1,GCF_014168575.1_ASM1416857v1_bin_2,NZ_AP021912.1,4572,4572
GCF_013611495.1_ASM1361149v1,GCF_013611495.1_ASM1361149v1_bin_3,NZ_CP055515.1,2775,2799
GCF_013611495.1_ASM1361149v1,GCF_013611495.1_ASM1361149v1_bin_5,NZ_CP055516.1,1919,1919
GCF_013611495.1_ASM1361149v1,GCF_013611495.1_ASM1361149v1_bin_2,NZ_CP055514.1,3970,4056
GCF_013611495.1_ASM1361149v1,GCF_013611495.1_ASM1361149v1_bin_1,NZ_CP055510.1,221593,405220
GCF_013611495.1_ASM1361149v1,GCF_013611495.1_ASM1361149v1_bin_1,NZ_CP055512.1,73943,405220
GCF_013611495.1_ASM1361149v1,GCF_013611495.1_ASM1361149v1_bin_1,NZ_CP055511.1,109672,405220
GCF_013611495.1_ASM1361149v1,GCF_013611495.1_ASM1361149v1_bin_4,NZ_CP055513.1,35237,35237
GCF_904864515.1_KSB2_2C,GCF_904864515.1_KSB2_2C_bin_3,NZ_LR890394.1,1916,1916
GCF_904864515.1_KSB2_2C,GCF_904864515.1_KSB2_2C_bin_Unbinned,NZ_LR890391.1,100267,124786
GCF_904864515.1_KSB2_2C,GCF_904864515.1_KSB2_2C_bin_2,NZ_LR890393.1,3223,3223
GCF_904864515.1_KSB2_2C,GCF_904864515.1_KSB2_2C_bin_1,NZ_LR890392.1,149114,149114
GCF_904866425.1_INF065,GCF_904866425.1_INF065_bin_1,NZ_LR890666.1,188925,188925
GCF_904866425.1_INF065,GCF_904866425.1_INF065_bin_2,NZ_LR890667.1,5825,5825
GCF_904866425.1_INF065,GCF_904866425.1_INF065_bin_3,NZ_LR890668.1,5542,5542
GCF_904863195.1_INF133,GCF_904863195.1_INF133_bin_6,NZ_LR890190.1,1879,1916
GCF_904863195.1_INF133,GCF_904863195.1_INF133_bin_3,NZ_LR890195.1,3619,3619
GCF_904863195.1_INF133,GCF_904863195.1_INF133_bin_4,NZ_LR890196.1,3377,3377
GCF_904863195.1_INF133,GCF_904863195.1_INF133_bin_1,NZ_LR890193.1,107442,469749
GCF_904863195.1_INF133,GCF_904863195.1_INF133_bin_1,NZ_LR890192.1,166693,469749
GCF_904863195.1_INF133,GCF_904863195.1_INF133_bin_1,NZ_LR890191.1,195614,469749
GCF_904863195.1_INF133,GCF_904863195.1_INF133_bin_2,NZ_LR890194.1,4064,4064
GCF_904863195.1_INF133,GCF_904863195.1_INF133_bin_5,NZ_LR890197.1,3223,3223
GCF_904866255.1_INF223,GCF_904866255.1_INF223_bin_1,NZ_LR890595.1,6240,6240
GCF_904866255.1_INF223,GCF_904866255.1_INF223_bin_3,NZ_LR890596.1,224554,224554
GCF_904866255.1_INF223,GCF_904866255.1_INF223_bin_2,NZ_LR890597.1,54051,54051
GCF_904863075.1_INF334,GCF_904863075.1_INF334_bin_2,NZ_LR890237.1,112069,112069
GCF_904863075.1_INF334,GCF_904863075.1_INF334_bin_4,NZ_LR890239.1,3619,3619
GCF_904863075.1_INF334,GCF_904863075.1_INF334_bin_1,NZ_LR890236.1,160591,160591
GCF_904863075.1_INF334,GCF_904863075.1_INF334_bin_3,NZ_LR890238.1,3712,3712
GCF_021655455.1_ASM2165545v1,GCF_021655455.1_ASM2165545v1_bin_1,NZ_AP024571.1,207535,207535
GCF_904863215.1_INF277,GCF_904863215.1_INF277_bin_Unbinned,NZ_LR890204.1,100654,104556
GCF_904863215.1_INF277,GCF_904863215.1_INF277_bin_Unbinned,NZ_LR890205.1,11706,104556
GCF_904863215.1_INF277,GCF_904863215.1_INF277_bin_2,NZ_LR890206.1,94255,94255
GCF_904863215.1_INF277,GCF_904863215.1_INF277_bin_3,NZ_LR890207.1,3088,3223
GCF_904863215.1_INF277,GCF_904863215.1_INF277_bin_1,NZ_LR890205.1,145079,145079
GCF_904863215.1_INF277,GCF_904863215.1_INF277_bin_4,NZ_LR890208.1,1916,1916
GCF_904864625.1_INF171,GCF_904864625.1_INF171_bin_1,NZ_LR890447.1,156683,156683
GCF_904864625.1_INF171,GCF_904864625.1_INF171_bin_6,NZ_LR890450.1,2442,2442
GCF_904864625.1_INF171,GCF_904864625.1_INF171_bin_3,NZ_LR890446.1,5200,2600
GCF_904864625.1_INF171,GCF_904864625.1_INF171_bin_2,NZ_LR890446.1,39272,39272
GCF_904864625.1_INF171,GCF_904864625.1_INF171_bin_5,NZ_LR890449.1,3966,3966
GCF_904864625.1_INF171,GCF_904864625.1_INF171_bin_4,NZ_LR890448.1,29473,29473
GCF_016903295.1_ASM1690329v1,GCF_016903295.1_ASM1690329v1_bin_4,NZ_CP069876.1,3373,3373
GCF_016903295.1_ASM1690329v1,GCF_016903295.1_ASM1690329v1_bin_1,NZ_CP069875.1,134529,144696
GCF_016903295.1_ASM1690329v1,GCF_016903295.1_ASM1690329v1_bin_Unbinned,no_correct_alignments,0,0
GCF_016903295.1_ASM1690329v1,GCF_016903295.1_ASM1690329v1_bin_5,no_correct_alignments,0,0
GCF_016903295.1_ASM1690329v1,GCF_016903295.1_ASM1690329v1_bin_2,NZ_CP069878.1,3664,5106
GCF_016903295.1_ASM1690329v1,GCF_016903295.1_ASM1690329v1_bin_2,NZ_CP069881.1,1442,5106
GCF_016903295.1_ASM1690329v1,GCF_016903295.1_ASM1690329v1_bin_3,no_correct_alignments,0,0
GCF_016903295.1_ASM1690329v1,GCF_016903295.1_ASM1690329v1_bin_6,no_correct_alignments,0,0
GCF_018075085.1_ASM1807508v1,GCF_018075085.1_ASM1807508v1_bin_2,NZ_CP072951.1,22660,22660
GCF_018075085.1_ASM1807508v1,GCF_018075085.1_ASM1807508v1_bin_3,NZ_CP072952.1,2328,2328
GCF_018075085.1_ASM1807508v1,GCF_018075085.1_ASM1807508v1_bin_1,NZ_CP072950.1,169228,181243
GCF_018075085.1_ASM1807508v1,GCF_018075085.1_ASM1807508v1_bin_1,NZ_CP072949.1,12015,181243
GCF_904863125.1_INF357,GCF_904863125.1_INF357_bin_3,NZ_LR890219.1,4938,4938
GCF_904863125.1_INF357,GCF_904863125.1_INF357_bin_2,NZ_LR890218.1,170152,170178
GCF_904863125.1_INF357,GCF_904863125.1_INF357_bin_1,NZ_LR890220.1,3539,6708
GCF_904863125.1_INF357,GCF_904863125.1_INF357_bin_1,NZ_LR890221.1,3169,6708
GCF_904863125.1_INF357,GCF_904863125.1_INF357_bin_4,NZ_LR890223.1,3302,3302
GCF_904863125.1_INF357,GCF_904863125.1_INF357_bin_5,NZ_LR890224.1,2892,2892
GCF_013731305.1_ASM1373130v1,GCF_013731305.1_ASM1373130v1_bin_2,NZ_CP056303.1,108572,108572
GCF_013731305.1_ASM1373130v1,GCF_013731305.1_ASM1373130v1_bin_1,NZ_CP056302.1,223352,223352
GCF_014170015.1_ASM1417001v1,GCF_014170015.1_ASM1417001v1_bin_1,NZ_CP054286.1,126198,204257
GCF_014170015.1_ASM1417001v1,GCF_014170015.1_ASM1417001v1_bin_1,NZ_CP054287.1,77873,204257
GCF_016904295.1_ASM1690429v1,GCF_016904295.1_ASM1690429v1_bin_1,NZ_CP070089.1,203786,203786
GCF_016904295.1_ASM1690429v1,GCF_016904295.1_ASM1690429v1_bin_3,NZ_CP070091.1,4832,4832
GCF_016904295.1_ASM1690429v1,GCF_016904295.1_ASM1690429v1_bin_2,no_correct_alignments,0,0
GCF_016904295.1_ASM1690429v1,GCF_016904295.1_ASM1690429v1_bin_5,no_correct_alignments,0,0
GCF_016904295.1_ASM1690429v1,GCF_016904295.1_ASM1690429v1_bin_4,NZ_CP070091.1,4000,4000
GCF_904864645.1_INF079,GCF_904864645.1_INF079_bin_1,NZ_LR890465.1,215145,215145
GCF_904866435.1_INF119,GCF_904866435.1_INF119_bin_1,NZ_LR890692.1,211916,211916
GCF_904865845.1_INF302,GCF_904865845.1_INF302_bin_2,NZ_LR890558.1,30755,30755
GCF_904865845.1_INF302,GCF_904865845.1_INF302_bin_1,NZ_LR890557.1,202332,202332
GCF_904865845.1_INF302,GCF_904865845.1_INF302_bin_4,NZ_LR890560.1,3223,3223
GCF_904865845.1_INF302,GCF_904865845.1_INF302_bin_3,NZ_LR890559.1,4064,4064
GCF_014170935.1_ASM1417093v1,GCF_014170935.1_ASM1417093v1_bin_3,no_correct_alignments,0,0
GCF_014170935.1_ASM1417093v1,GCF_014170935.1_ASM1417093v1_bin_2,NZ_AP022083.1,3768,3768
GCF_014170935.1_ASM1417093v1,GCF_014170935.1_ASM1417093v1_bin_1,NZ_AP022079.1,194324,383242
GCF_014170935.1_ASM1417093v1,GCF_014170935.1_ASM1417093v1_bin_1,NZ_AP022080.1,159928,383242
GCF_014170935.1_ASM1417093v1,GCF_014170935.1_ASM1417093v1_bin_1,NZ_AP022081.1,28819,383242
GCF_014170935.1_ASM1417093v1,GCF_014170935.1_ASM1417093v1_bin_Unbinned,NZ_AP022082.1,41084,47818
GCF_014170935.1_ASM1417093v1,GCF_014170935.1_ASM1417093v1_bin_Unbinned,NZ_AP022081.1,6734,47818
GCF_014170935.1_ASM1417093v1,GCF_014170935.1_ASM1417093v1_bin_4,NZ_AP022084.1,3729,3729
