GCF_013796485.1_ASM1379648v1,GCF_013796485.1_ASM1379648v1_bin_3,0
GCF_013796485.1_ASM1379648v1,GCF_013796485.1_ASM1379648v1_bin_4,0
GCF_013796485.1_ASM1379648v1,GCF_013796485.1_ASM1379648v1_bin_1,0
GCF_013796485.1_ASM1379648v1,GCF_013796485.1_ASM1379648v1_bin_2,0
GCF_904863135.1_INF310,GCF_904863135.1_INF310_bin_5,0
GCF_904863135.1_INF310,GCF_904863135.1_INF310_bin_2,0
GCF_904863135.1_INF310,GCF_904863135.1_INF310_bin_4,0
GCF_904863135.1_INF310,GCF_904863135.1_INF310_bin_3,0
GCF_904863135.1_INF310,GCF_904863135.1_INF310_bin_1,0
GCF_904866555.1_INF102,GCF_904866555.1_INF102_bin_3,0
GCF_904866555.1_INF102,GCF_904866555.1_INF102_bin_4,0
GCF_904866555.1_INF102,GCF_904866555.1_INF102_bin_1,0
GCF_904866555.1_INF102,GCF_904866555.1_INF102_bin_2,0
GCF_016804025.1_ASM1680402v1,GCF_016804025.1_ASM1680402v1_bin_1,0
GCF_016804025.1_ASM1680402v1,GCF_016804025.1_ASM1680402v1_bin_3,0
GCF_016804025.1_ASM1680402v1,GCF_016804025.1_ASM1680402v1_bin_2,0
GCF_013791265.1_ASM1379126v1,GCF_013791265.1_ASM1379126v1_bin_3,0
GCF_013791265.1_ASM1379126v1,GCF_013791265.1_ASM1379126v1_bin_1,0
GCF_013791265.1_ASM1379126v1,GCF_013791265.1_ASM1379126v1_bin_2,0
GCF_904866195.1_INF327,GCF_904866195.1_INF327_bin_1,1
GCF_904866195.1_INF327,GCF_904866195.1_INF327_bin_3,0
GCF_904866195.1_INF327,GCF_904866195.1_INF327_bin_Unbinned,0
GCF_904866195.1_INF327,GCF_904866195.1_INF327_bin_2,0
GCF_920103885.1_DJ,GCF_920103885.1_DJ_bin_4,0
GCF_920103885.1_DJ,GCF_920103885.1_DJ_bin_3,0
GCF_920103885.1_DJ,GCF_920103885.1_DJ_bin_1,1
GCF_920103885.1_DJ,GCF_920103885.1_DJ_bin_2,0
GCF_904865805.1_INF144,GCF_904865805.1_INF144_bin_1,0
GCF_013735155.1_ASM1373515v1,GCF_013735155.1_ASM1373515v1_bin_5,0
GCF_013735155.1_ASM1373515v1,GCF_013735155.1_ASM1373515v1_bin_1,0
GCF_013735155.1_ASM1373515v1,GCF_013735155.1_ASM1373515v1_bin_2,0
GCF_013735155.1_ASM1373515v1,GCF_013735155.1_ASM1373515v1_bin_Unbinned,0
GCF_013735155.1_ASM1373515v1,GCF_013735155.1_ASM1373515v1_bin_3,0
GCF_013735155.1_ASM1373515v1,GCF_013735155.1_ASM1373515v1_bin_4,0
GCF_904866205.1_INF145,GCF_904866205.1_INF145_bin_1,0
GCF_904866205.1_INF145,GCF_904866205.1_INF145_bin_2,0
GCF_022369815.1_ASM2236981v1,GCF_022369815.1_ASM2236981v1_bin_2,0
GCF_022369815.1_ASM2236981v1,GCF_022369815.1_ASM2236981v1_bin_1,0
GCF_904863365.1_INF049,GCF_904863365.1_INF049_bin_2,0
GCF_904863365.1_INF049,GCF_904863365.1_INF049_bin_1,0
GCF_904864605.1_INF044,GCF_904864605.1_INF044_bin_3,0
GCF_904864605.1_INF044,GCF_904864605.1_INF044_bin_2,0
GCF_904864605.1_INF044,GCF_904864605.1_INF044_bin_1,0
GCF_904864545.1_KSB1_9J,GCF_904864545.1_KSB1_9J_bin_2,0
GCF_904864545.1_KSB1_9J,GCF_904864545.1_KSB1_9J_bin_1,0
GCF_017894285.1_ASM1789428v1,GCF_017894285.1_ASM1789428v1_bin_1,0
GCF_017894285.1_ASM1789428v1,GCF_017894285.1_ASM1789428v1_bin_2,0
GCF_904864465.1_INF298,GCF_904864465.1_INF298_bin_2,0
GCF_904864465.1_INF298,GCF_904864465.1_INF298_bin_1,0
GCF_904864465.1_INF298,GCF_904864465.1_INF298_bin_3,0
GCF_016904415.1_ASM1690441v1,GCF_016904415.1_ASM1690441v1_bin_2,0
GCF_016904415.1_ASM1690441v1,GCF_016904415.1_ASM1690441v1_bin_3,0
GCF_016904415.1_ASM1690441v1,GCF_016904415.1_ASM1690441v1_bin_6,0
GCF_016904415.1_ASM1690441v1,GCF_016904415.1_ASM1690441v1_bin_4,0
GCF_016904415.1_ASM1690441v1,GCF_016904415.1_ASM1690441v1_bin_5,0
GCF_016904415.1_ASM1690441v1,GCF_016904415.1_ASM1690441v1_bin_1,0
GCF_002852785.2_ASM285278v2,GCF_002852785.2_ASM285278v2_bin_1,0
GCF_002852785.2_ASM285278v2,GCF_002852785.2_ASM285278v2_bin_4,0
GCF_002852785.2_ASM285278v2,GCF_002852785.2_ASM285278v2_bin_3,0
GCF_002852785.2_ASM285278v2,GCF_002852785.2_ASM285278v2_bin_2,0
GCF_002852785.2_ASM285278v2,GCF_002852785.2_ASM285278v2_bin_5,0
GCF_904866295.1_KSB2_1C,GCF_904866295.1_KSB2_1C_bin_5,0
GCF_904866295.1_KSB2_1C,GCF_904866295.1_KSB2_1C_bin_1,0
GCF_904866295.1_KSB2_1C,GCF_904866295.1_KSB2_1C_bin_2,0
GCF_904866295.1_KSB2_1C,GCF_904866295.1_KSB2_1C_bin_4,0
GCF_904866295.1_KSB2_1C,GCF_904866295.1_KSB2_1C_bin_3,0
GCF_013729075.1_ASM1372907v1,GCF_013729075.1_ASM1372907v1_bin_2,0
GCF_013729075.1_ASM1372907v1,GCF_013729075.1_ASM1372907v1_bin_1,0
GCF_013730675.1_ASM1373067v1,GCF_013730675.1_ASM1373067v1_bin_1,0
GCF_904866405.1_INF279,GCF_904866405.1_INF279_bin_2,0
GCF_904866405.1_INF279,GCF_904866405.1_INF279_bin_1,0
GCF_904866405.1_INF279,GCF_904866405.1_INF279_bin_3,0
GCF_904866405.1_INF279,GCF_904866405.1_INF279_bin_5,0
GCF_904866405.1_INF279,GCF_904866405.1_INF279_bin_4,0
GCF_904863285.1_INF231,GCF_904863285.1_INF231_bin_2,0
GCF_904863285.1_INF231,GCF_904863285.1_INF231_bin_3,0
GCF_904863285.1_INF231,GCF_904863285.1_INF231_bin_1,0
GCF_904864475.1_INF168,GCF_904864475.1_INF168_bin_1,0
GCF_012029895.2_ASM1202989v2,GCF_012029895.2_ASM1202989v2_bin_1,0
GCF_012029895.2_ASM1202989v2,GCF_012029895.2_ASM1202989v2_bin_2,0
GCF_012029895.2_ASM1202989v2,GCF_012029895.2_ASM1202989v2_bin_3,0
GCF_012029895.2_ASM1202989v2,GCF_012029895.2_ASM1202989v2_bin_4,0
GCF_013826045.1_ASM1382604v1,GCF_013826045.1_ASM1382604v1_bin_4,0
GCF_013826045.1_ASM1382604v1,GCF_013826045.1_ASM1382604v1_bin_3,0
GCF_013826045.1_ASM1382604v1,GCF_013826045.1_ASM1382604v1_bin_2,0
GCF_013826045.1_ASM1382604v1,GCF_013826045.1_ASM1382604v1_bin_Unbinned,0
GCF_013826045.1_ASM1382604v1,GCF_013826045.1_ASM1382604v1_bin_1,0
GCF_904865825.1_INF018,GCF_904865825.1_INF018_bin_6,0
GCF_904865825.1_INF018,GCF_904865825.1_INF018_bin_3,0
GCF_904865825.1_INF018,GCF_904865825.1_INF018_bin_7,0
GCF_904865825.1_INF018,GCF_904865825.1_INF018_bin_1,0
GCF_904865825.1_INF018,GCF_904865825.1_INF018_bin_4,0
GCF_904865825.1_INF018,GCF_904865825.1_INF018_bin_5,0
GCF_904865825.1_INF018,GCF_904865825.1_INF018_bin_2,0
GCF_904865825.1_INF018,GCF_904865825.1_INF018_bin_8,0
GCF_003038135.2_ASM303813v2,GCF_003038135.2_ASM303813v2_bin_2,0
GCF_003038135.2_ASM303813v2,GCF_003038135.2_ASM303813v2_bin_3,0
GCF_003038135.2_ASM303813v2,GCF_003038135.2_ASM303813v2_bin_1,0
GCF_013736155.1_ASM1373615v1,GCF_013736155.1_ASM1373615v1_bin_4,0
GCF_013736155.1_ASM1373615v1,GCF_013736155.1_ASM1373615v1_bin_3,0
GCF_013736155.1_ASM1373615v1,GCF_013736155.1_ASM1373615v1_bin_2,0
GCF_013736155.1_ASM1373615v1,GCF_013736155.1_ASM1373615v1_bin_1,0
GCF_013736155.1_ASM1373615v1,GCF_013736155.1_ASM1373615v1_bin_5,0
GCF_020526065.1_ASM2052606v1,GCF_020526065.1_ASM2052606v1_bin_2,0
GCF_020526065.1_ASM2052606v1,GCF_020526065.1_ASM2052606v1_bin_1,0
GCF_020149785.1_ASM2014978v1,GCF_020149785.1_ASM2014978v1_bin_4,0
GCF_020149785.1_ASM2014978v1,GCF_020149785.1_ASM2014978v1_bin_1,0
GCF_020149785.1_ASM2014978v1,GCF_020149785.1_ASM2014978v1_bin_5,0
GCF_020149785.1_ASM2014978v1,GCF_020149785.1_ASM2014978v1_bin_2,0
GCF_020149785.1_ASM2014978v1,GCF_020149785.1_ASM2014978v1_bin_Unbinned,0
GCF_020149785.1_ASM2014978v1,GCF_020149785.1_ASM2014978v1_bin_3,0
GCF_015694065.1_ASM1569406v1,GCF_015694065.1_ASM1569406v1_bin_4,0
GCF_015694065.1_ASM1569406v1,GCF_015694065.1_ASM1569406v1_bin_3,0
GCF_015694065.1_ASM1569406v1,GCF_015694065.1_ASM1569406v1_bin_5,0
GCF_015694065.1_ASM1569406v1,GCF_015694065.1_ASM1569406v1_bin_1,0
GCF_015694065.1_ASM1569406v1,GCF_015694065.1_ASM1569406v1_bin_2,0
GCF_015694065.1_ASM1569406v1,GCF_015694065.1_ASM1569406v1_bin_6,0
GCF_904863435.1_KSB1_1B,GCF_904863435.1_KSB1_1B_bin_Unbinned,0
GCF_904863435.1_KSB1_1B,GCF_904863435.1_KSB1_1B_bin_6,0
GCF_904863435.1_KSB1_1B,GCF_904863435.1_KSB1_1B_bin_1,0
GCF_904863435.1_KSB1_1B,GCF_904863435.1_KSB1_1B_bin_3,0
GCF_904863435.1_KSB1_1B,GCF_904863435.1_KSB1_1B_bin_5,0
GCF_904863435.1_KSB1_1B,GCF_904863435.1_KSB1_1B_bin_4,0
GCF_904863435.1_KSB1_1B,GCF_904863435.1_KSB1_1B_bin_2,0
GCF_904866375.1_INF242,GCF_904866375.1_INF242_bin_2,0
GCF_904866375.1_INF242,GCF_904866375.1_INF242_bin_1,0
GCF_013895695.1_ASM1389569v1,GCF_013895695.1_ASM1389569v1_bin_1,0
GCF_013895695.1_ASM1389569v1,GCF_013895695.1_ASM1389569v1_bin_2,0
GCF_016903795.1_ASM1690379v1,GCF_016903795.1_ASM1690379v1_bin_2,0
GCF_016903795.1_ASM1690379v1,GCF_016903795.1_ASM1690379v1_bin_1,0
GCF_016903795.1_ASM1690379v1,GCF_016903795.1_ASM1690379v1_bin_3,0
GCF_016904095.1_ASM1690409v1,GCF_016904095.1_ASM1690409v1_bin_1,0
GCF_002853115.2_ASM285311v2,GCF_002853115.2_ASM285311v2_bin_1,0
GCF_020526005.1_ASM2052600v1,GCF_020526005.1_ASM2052600v1_bin_2,0
GCF_020526005.1_ASM2052600v1,GCF_020526005.1_ASM2052600v1_bin_1,0
GCF_021057265.1_ASM2105726v1,GCF_021057265.1_ASM2105726v1_bin_3,0
GCF_021057265.1_ASM2105726v1,GCF_021057265.1_ASM2105726v1_bin_2,0
GCF_021057265.1_ASM2105726v1,GCF_021057265.1_ASM2105726v1_bin_1,0
GCF_021057265.1_ASM2105726v1,GCF_021057265.1_ASM2105726v1_bin_Unbinned,1
GCF_020525645.1_ASM2052564v1,GCF_020525645.1_ASM2052564v1_bin_1,0
GCF_016903775.1_ASM1690377v1,GCF_016903775.1_ASM1690377v1_bin_2,0
GCF_016903775.1_ASM1690377v1,GCF_016903775.1_ASM1690377v1_bin_1,0
GCF_016903775.1_ASM1690377v1,GCF_016903775.1_ASM1690377v1_bin_3,0
GCF_904864505.1_INF331,GCF_904864505.1_INF331_bin_1,0
GCF_013745295.1_ASM1374529v1,GCF_013745295.1_ASM1374529v1_bin_2,0
GCF_013745295.1_ASM1374529v1,GCF_013745295.1_ASM1374529v1_bin_1,0
GCF_013745295.1_ASM1374529v1,GCF_013745295.1_ASM1374529v1_bin_3,0
GCF_016903235.1_ASM1690323v1,GCF_016903235.1_ASM1690323v1_bin_7,0
GCF_016903235.1_ASM1690323v1,GCF_016903235.1_ASM1690323v1_bin_5,0
GCF_016903235.1_ASM1690323v1,GCF_016903235.1_ASM1690323v1_bin_1,0
GCF_016903235.1_ASM1690323v1,GCF_016903235.1_ASM1690323v1_bin_6,0
GCF_016903235.1_ASM1690323v1,GCF_016903235.1_ASM1690323v1_bin_2,0
GCF_016903235.1_ASM1690323v1,GCF_016903235.1_ASM1690323v1_bin_3,0
GCF_016903235.1_ASM1690323v1,GCF_016903235.1_ASM1690323v1_bin_Unbinned,0
GCF_016903235.1_ASM1690323v1,GCF_016903235.1_ASM1690323v1_bin_4,0
GCF_020149895.1_ASM2014989v1,GCF_020149895.1_ASM2014989v1_bin_1,0
GCF_020149895.1_ASM2014989v1,GCF_020149895.1_ASM2014989v1_bin_5,0
GCF_020149895.1_ASM2014989v1,GCF_020149895.1_ASM2014989v1_bin_3,0
GCF_020149895.1_ASM2014989v1,GCF_020149895.1_ASM2014989v1_bin_4,0
GCF_020149895.1_ASM2014989v1,GCF_020149895.1_ASM2014989v1_bin_2,0
GCF_020525845.1_ASM2052584v1,GCF_020525845.1_ASM2052584v1_bin_3,0
GCF_020525845.1_ASM2052584v1,GCF_020525845.1_ASM2052584v1_bin_4,0
GCF_020525845.1_ASM2052584v1,GCF_020525845.1_ASM2052584v1_bin_2,0
GCF_020525845.1_ASM2052584v1,GCF_020525845.1_ASM2052584v1_bin_1,0
GCF_904864595.1_INF333,GCF_904864595.1_INF333_bin_2,0
GCF_904864595.1_INF333,GCF_904864595.1_INF333_bin_3,0
GCF_904864595.1_INF333,GCF_904864595.1_INF333_bin_1,0
GCF_904865695.1_INF319,GCF_904865695.1_INF319_bin_2,0
GCF_904865695.1_INF319,GCF_904865695.1_INF319_bin_1,0
GCF_904865695.1_INF319,GCF_904865695.1_INF319_bin_4,0
GCF_904865695.1_INF319,GCF_904865695.1_INF319_bin_3,0
GCF_020525865.1_ASM2052586v1,GCF_020525865.1_ASM2052586v1_bin_1,0
GCF_020525865.1_ASM2052586v1,GCF_020525865.1_ASM2052586v1_bin_2,0
GCF_904863225.1_KSB1_6J,GCF_904863225.1_KSB1_6J_bin_2,0
GCF_904863225.1_KSB1_6J,GCF_904863225.1_KSB1_6J_bin_3,0
GCF_904863225.1_KSB1_6J,GCF_904863225.1_KSB1_6J_bin_1,0
GCF_904866445.1_INF305,GCF_904866445.1_INF305_bin_3,0
GCF_904866445.1_INF305,GCF_904866445.1_INF305_bin_4,0
GCF_904866445.1_INF305,GCF_904866445.1_INF305_bin_2,0
GCF_904866445.1_INF305,GCF_904866445.1_INF305_bin_5,0
GCF_904866445.1_INF305,GCF_904866445.1_INF305_bin_1,0
GCF_021166235.1_ASM2116623v1,GCF_021166235.1_ASM2116623v1_bin_3,0
GCF_021166235.1_ASM2116623v1,GCF_021166235.1_ASM2116623v1_bin_1,1
GCF_021166235.1_ASM2116623v1,GCF_021166235.1_ASM2116623v1_bin_2,0
GCF_904863275.1_INF188,GCF_904863275.1_INF188_bin_3,0
GCF_904863275.1_INF188,GCF_904863275.1_INF188_bin_1,0
GCF_904863275.1_INF188,GCF_904863275.1_INF188_bin_2,0
GCF_018310495.1_ASM1831049v1,GCF_018310495.1_ASM1831049v1_bin_1,0
GCF_018310495.1_ASM1831049v1,GCF_018310495.1_ASM1831049v1_bin_2,0
GCF_017639065.1_ASM1763906v1,GCF_017639065.1_ASM1763906v1_bin_3,0
GCF_017639065.1_ASM1763906v1,GCF_017639065.1_ASM1763906v1_bin_1,0
GCF_017639065.1_ASM1763906v1,GCF_017639065.1_ASM1763906v1_bin_2,0
GCF_016903515.1_ASM1690351v1,GCF_016903515.1_ASM1690351v1_bin_7,0
GCF_016903515.1_ASM1690351v1,GCF_016903515.1_ASM1690351v1_bin_8,0
GCF_016903515.1_ASM1690351v1,GCF_016903515.1_ASM1690351v1_bin_5,0
GCF_016903515.1_ASM1690351v1,GCF_016903515.1_ASM1690351v1_bin_3,0
GCF_016903515.1_ASM1690351v1,GCF_016903515.1_ASM1690351v1_bin_2,0
GCF_016903515.1_ASM1690351v1,GCF_016903515.1_ASM1690351v1_bin_6,0
GCF_016903515.1_ASM1690351v1,GCF_016903515.1_ASM1690351v1_bin_4,0
GCF_016903515.1_ASM1690351v1,GCF_016903515.1_ASM1690351v1_bin_1,0
GCF_016903515.1_ASM1690351v1,GCF_016903515.1_ASM1690351v1_bin_9,0
GCF_016903515.1_ASM1690351v1,GCF_016903515.1_ASM1690351v1_bin_10,0
GCF_016727425.1_ASM1672742v1,GCF_016727425.1_ASM1672742v1_bin_3,0
GCF_016727425.1_ASM1672742v1,GCF_016727425.1_ASM1672742v1_bin_1,0
GCF_016727425.1_ASM1672742v1,GCF_016727425.1_ASM1672742v1_bin_4,0
GCF_016727425.1_ASM1672742v1,GCF_016727425.1_ASM1672742v1_bin_2,0
GCF_016727425.1_ASM1672742v1,GCF_016727425.1_ASM1672742v1_bin_Unbinned,0
GCF_013813035.1_ASM1381303v1,GCF_013813035.1_ASM1381303v1_bin_1,0
GCF_021655435.1_ASM2165543v1,GCF_021655435.1_ASM2165543v1_bin_1,0
GCF_016066475.1_ASM1606647v1,GCF_016066475.1_ASM1606647v1_bin_2,0
GCF_016066475.1_ASM1606647v1,GCF_016066475.1_ASM1606647v1_bin_4,0
GCF_016066475.1_ASM1606647v1,GCF_016066475.1_ASM1606647v1_bin_1,0
GCF_016066475.1_ASM1606647v1,GCF_016066475.1_ASM1606647v1_bin_3,0
GCF_904865685.1_INF182,GCF_904865685.1_INF182_bin_1,0
GCF_013834745.1_ASM1383474v1,GCF_013834745.1_ASM1383474v1_bin_2,0
GCF_013834745.1_ASM1383474v1,GCF_013834745.1_ASM1383474v1_bin_3,0
GCF_013834745.1_ASM1383474v1,GCF_013834745.1_ASM1383474v1_bin_1,0
GCF_013737695.1_ASM1373769v1,GCF_013737695.1_ASM1373769v1_bin_1,0
GCF_013737695.1_ASM1373769v1,GCF_013737695.1_ASM1373769v1_bin_3,0
GCF_013737695.1_ASM1373769v1,GCF_013737695.1_ASM1373769v1_bin_2,0
GCF_013737695.1_ASM1373769v1,GCF_013737695.1_ASM1373769v1_bin_4,0
GCF_904863425.1_INF348,GCF_904863425.1_INF348_bin_1,0
GCF_904863425.1_INF348,GCF_904863425.1_INF348_bin_3,0
GCF_904863425.1_INF348,GCF_904863425.1_INF348_bin_2,0
GCF_904863265.1_INF156,GCF_904863265.1_INF156_bin_1,0
GCF_016903735.1_ASM1690373v1,GCF_016903735.1_ASM1690373v1_bin_3,0
GCF_016903735.1_ASM1690373v1,GCF_016903735.1_ASM1690373v1_bin_1,2
GCF_016903735.1_ASM1690373v1,GCF_016903735.1_ASM1690373v1_bin_2,0
GCF_016903395.1_ASM1690339v1,GCF_016903395.1_ASM1690339v1_bin_7,0
GCF_016903395.1_ASM1690339v1,GCF_016903395.1_ASM1690339v1_bin_8,0
GCF_016903395.1_ASM1690339v1,GCF_016903395.1_ASM1690339v1_bin_3,0
GCF_016903395.1_ASM1690339v1,GCF_016903395.1_ASM1690339v1_bin_2,0
GCF_016903395.1_ASM1690339v1,GCF_016903395.1_ASM1690339v1_bin_1,3
GCF_016903395.1_ASM1690339v1,GCF_016903395.1_ASM1690339v1_bin_6,0
GCF_016903395.1_ASM1690339v1,GCF_016903395.1_ASM1690339v1_bin_5,0
GCF_016903395.1_ASM1690339v1,GCF_016903395.1_ASM1690339v1_bin_4,0
GCF_904863055.1_INF022,GCF_904863055.1_INF022_bin_4,0
GCF_904863055.1_INF022,GCF_904863055.1_INF022_bin_3,0
GCF_904863055.1_INF022,GCF_904863055.1_INF022_bin_2,0
GCF_904863055.1_INF022,GCF_904863055.1_INF022_bin_1,0
GCF_003937135.2_ASM393713v2,GCF_003937135.2_ASM393713v2_bin_2,0
GCF_003937135.2_ASM393713v2,GCF_003937135.2_ASM393713v2_bin_1,1
GCF_019798185.1_ASM1979818v1,GCF_019798185.1_ASM1979818v1_bin_6,0
GCF_019798185.1_ASM1979818v1,GCF_019798185.1_ASM1979818v1_bin_4,0
GCF_019798185.1_ASM1979818v1,GCF_019798185.1_ASM1979818v1_bin_3,0
GCF_019798185.1_ASM1979818v1,GCF_019798185.1_ASM1979818v1_bin_7,0
GCF_019798185.1_ASM1979818v1,GCF_019798185.1_ASM1979818v1_bin_2,0
GCF_019798185.1_ASM1979818v1,GCF_019798185.1_ASM1979818v1_bin_5,0
GCF_019798185.1_ASM1979818v1,GCF_019798185.1_ASM1979818v1_bin_1,0
GCF_020525965.1_ASM2052596v1,GCF_020525965.1_ASM2052596v1_bin_2,0
GCF_020525965.1_ASM2052596v1,GCF_020525965.1_ASM2052596v1_bin_5,0
GCF_020525965.1_ASM2052596v1,GCF_020525965.1_ASM2052596v1_bin_4,0
GCF_020525965.1_ASM2052596v1,GCF_020525965.1_ASM2052596v1_bin_1,0
GCF_020525965.1_ASM2052596v1,GCF_020525965.1_ASM2052596v1_bin_3,2
GCF_904864535.1_INF313,GCF_904864535.1_INF313_bin_5,0
GCF_904864535.1_INF313,GCF_904864535.1_INF313_bin_2,0
GCF_904864535.1_INF313,GCF_904864535.1_INF313_bin_3,0
GCF_904864535.1_INF313,GCF_904864535.1_INF313_bin_1,0
GCF_904864535.1_INF313,GCF_904864535.1_INF313_bin_4,0
GCF_013783245.1_ASM1378324v1,GCF_013783245.1_ASM1378324v1_bin_2,0
GCF_013783245.1_ASM1378324v1,GCF_013783245.1_ASM1378324v1_bin_1,0
GCF_020525885.1_ASM2052588v1,GCF_020525885.1_ASM2052588v1_bin_1,0
GCF_016903195.1_ASM1690319v1,GCF_016903195.1_ASM1690319v1_bin_1,4
GCF_016903195.1_ASM1690319v1,GCF_016903195.1_ASM1690319v1_bin_3,1
GCF_016903195.1_ASM1690319v1,GCF_016903195.1_ASM1690319v1_bin_Unbinned,0
GCF_016903195.1_ASM1690319v1,GCF_016903195.1_ASM1690319v1_bin_4,0
GCF_016903195.1_ASM1690319v1,GCF_016903195.1_ASM1690319v1_bin_2,0
GCF_016903195.1_ASM1690319v1,GCF_016903195.1_ASM1690319v1_bin_5,0
GCF_904865795.1_KSB2_10B,GCF_904865795.1_KSB2_10B_bin_Unbinned,0
GCF_904865795.1_KSB2_10B,GCF_904865795.1_KSB2_10B_bin_3,0
GCF_904865795.1_KSB2_10B,GCF_904865795.1_KSB2_10B_bin_2,1
GCF_904865795.1_KSB2_10B,GCF_904865795.1_KSB2_10B_bin_1,0
GCF_904865795.1_KSB2_10B,GCF_904865795.1_KSB2_10B_bin_4,0
GCF_904863145.1_INF072,GCF_904863145.1_INF072_bin_1,0
GCF_904863145.1_INF072,GCF_904863145.1_INF072_bin_3,0
GCF_904863145.1_INF072,GCF_904863145.1_INF072_bin_2,0
GCF_016903895.1_ASM1690389v1,GCF_016903895.1_ASM1690389v1_bin_1,0
GCF_021497265.1_ASM2149726v1,GCF_021497265.1_ASM2149726v1_bin_1,0
GCF_021497265.1_ASM2149726v1,GCF_021497265.1_ASM2149726v1_bin_2,0
GCF_016903475.1_ASM1690347v1,GCF_016903475.1_ASM1690347v1_bin_3,0
GCF_016903475.1_ASM1690347v1,GCF_016903475.1_ASM1690347v1_bin_2,0
GCF_016903475.1_ASM1690347v1,GCF_016903475.1_ASM1690347v1_bin_1,1
GCF_016904275.1_ASM1690427v1,GCF_016904275.1_ASM1690427v1_bin_2,0
GCF_016904275.1_ASM1690427v1,GCF_016904275.1_ASM1690427v1_bin_3,0
GCF_016904275.1_ASM1690427v1,GCF_016904275.1_ASM1690427v1_bin_4,0
GCF_016904275.1_ASM1690427v1,GCF_016904275.1_ASM1690427v1_bin_5,0
GCF_016904275.1_ASM1690427v1,GCF_016904275.1_ASM1690427v1_bin_Unbinned,1
GCF_016904275.1_ASM1690427v1,GCF_016904275.1_ASM1690427v1_bin_1,0
GCF_904863395.1_INF250,GCF_904863395.1_INF250_bin_1,0
GCF_904863395.1_INF250,GCF_904863395.1_INF250_bin_4,0
GCF_904863395.1_INF250,GCF_904863395.1_INF250_bin_2,0
GCF_904863395.1_INF250,GCF_904863395.1_INF250_bin_3,0
GCF_904863395.1_INF250,GCF_904863395.1_INF250_bin_5,0
GCF_904865715.1_KSB1_5H,GCF_904865715.1_KSB1_5H_bin_1,0
GCF_904865715.1_KSB1_5H,GCF_904865715.1_KSB1_5H_bin_4,0
GCF_904865715.1_KSB1_5H,GCF_904865715.1_KSB1_5H_bin_3,0
GCF_904865715.1_KSB1_5H,GCF_904865715.1_KSB1_5H_bin_2,0
GCF_904865715.1_KSB1_5H,GCF_904865715.1_KSB1_5H_bin_5,0
GCF_016066295.1_ASM1606629v1,GCF_016066295.1_ASM1606629v1_bin_1,0
GCF_021655515.1_ASM2165551v1,GCF_021655515.1_ASM2165551v1_bin_2,0
GCF_021655515.1_ASM2165551v1,GCF_021655515.1_ASM2165551v1_bin_1,2
GCF_904864525.1_INF350,GCF_904864525.1_INF350_bin_1,0
GCF_904863115.1_INF329,GCF_904863115.1_INF329_bin_1,0
GCF_904863115.1_INF329,GCF_904863115.1_INF329_bin_2,0
GCF_904864445.1_KSB1_6G,GCF_904864445.1_KSB1_6G_bin_5,0
GCF_904864445.1_KSB1_6G,GCF_904864445.1_KSB1_6G_bin_3,0
GCF_904864445.1_KSB1_6G,GCF_904864445.1_KSB1_6G_bin_4,0
GCF_904864445.1_KSB1_6G,GCF_904864445.1_KSB1_6G_bin_2,0
GCF_904864445.1_KSB1_6G,GCF_904864445.1_KSB1_6G_bin_1,0
GCF_013811445.1_ASM1381144v1,GCF_013811445.1_ASM1381144v1_bin_1,0
GCF_013811445.1_ASM1381144v1,GCF_013811445.1_ASM1381144v1_bin_2,0
GCF_016903495.1_ASM1690349v1,GCF_016903495.1_ASM1690349v1_bin_1,0
GCF_016903495.1_ASM1690349v1,GCF_016903495.1_ASM1690349v1_bin_2,0
GCF_904866505.1_INF323,GCF_904866505.1_INF323_bin_4,0
GCF_904866505.1_INF323,GCF_904866505.1_INF323_bin_2,0
GCF_904866505.1_INF323,GCF_904866505.1_INF323_bin_1,0
GCF_904866505.1_INF323,GCF_904866505.1_INF323_bin_3,0
GCF_016629585.1_ASM1662958v1,GCF_016629585.1_ASM1662958v1_bin_3,0
GCF_016629585.1_ASM1662958v1,GCF_016629585.1_ASM1662958v1_bin_4,0
GCF_016629585.1_ASM1662958v1,GCF_016629585.1_ASM1662958v1_bin_1,0
GCF_016629585.1_ASM1662958v1,GCF_016629585.1_ASM1662958v1_bin_Unbinned,0
GCF_016629585.1_ASM1662958v1,GCF_016629585.1_ASM1662958v1_bin_5,0
GCF_016629585.1_ASM1662958v1,GCF_016629585.1_ASM1662958v1_bin_2,0
GCF_016629585.1_ASM1662958v1,GCF_016629585.1_ASM1662958v1_bin_6,0
GCF_904865755.1_INF341,GCF_904865755.1_INF341_bin_1,0
GCF_904865755.1_INF341,GCF_904865755.1_INF341_bin_2,0
GCF_016903255.1_ASM1690325v1,GCF_016903255.1_ASM1690325v1_bin_2,0
GCF_016903255.1_ASM1690325v1,GCF_016903255.1_ASM1690325v1_bin_1,0
GCF_016903255.1_ASM1690325v1,GCF_016903255.1_ASM1690325v1_bin_3,0
GCF_016903875.1_ASM1690387v1,GCF_016903875.1_ASM1690387v1_bin_2,0
GCF_016903875.1_ASM1690387v1,GCF_016903875.1_ASM1690387v1_bin_1,0
GCF_016066025.1_ASM1606602v1,GCF_016066025.1_ASM1606602v1_bin_2,0
GCF_016066025.1_ASM1606602v1,GCF_016066025.1_ASM1606602v1_bin_3,0
GCF_016066025.1_ASM1606602v1,GCF_016066025.1_ASM1606602v1_bin_1,0
GCF_016066025.1_ASM1606602v1,GCF_016066025.1_ASM1606602v1_bin_5,0
GCF_016066025.1_ASM1606602v1,GCF_016066025.1_ASM1606602v1_bin_4,0
GCF_020525905.1_ASM2052590v1,GCF_020525905.1_ASM2052590v1_bin_1,0
GCF_003261955.3_ASM326195v3,GCF_003261955.3_ASM326195v3_bin_1,0
GCF_003261955.3_ASM326195v3,GCF_003261955.3_ASM326195v3_bin_3,1
GCF_003261955.3_ASM326195v3,GCF_003261955.3_ASM326195v3_bin_4,0
GCF_003261955.3_ASM326195v3,GCF_003261955.3_ASM326195v3_bin_2,0
GCF_001185665.2_ASM118566v3,GCF_001185665.2_ASM118566v3_bin_3,1
GCF_001185665.2_ASM118566v3,GCF_001185665.2_ASM118566v3_bin_Unbinned,0
GCF_001185665.2_ASM118566v3,GCF_001185665.2_ASM118566v3_bin_2,0
GCF_001185665.2_ASM118566v3,GCF_001185665.2_ASM118566v3_bin_1,0
GCF_013792545.1_ASM1379254v1,GCF_013792545.1_ASM1379254v1_bin_6,0
GCF_013792545.1_ASM1379254v1,GCF_013792545.1_ASM1379254v1_bin_3,0
GCF_013792545.1_ASM1379254v1,GCF_013792545.1_ASM1379254v1_bin_5,0
GCF_013792545.1_ASM1379254v1,GCF_013792545.1_ASM1379254v1_bin_1,0
GCF_013792545.1_ASM1379254v1,GCF_013792545.1_ASM1379254v1_bin_2,0
GCF_013792545.1_ASM1379254v1,GCF_013792545.1_ASM1379254v1_bin_8,0
GCF_013792545.1_ASM1379254v1,GCF_013792545.1_ASM1379254v1_bin_7,0
GCF_013792545.1_ASM1379254v1,GCF_013792545.1_ASM1379254v1_bin_4,0
GCF_013704985.1_ASM1370498v1,GCF_013704985.1_ASM1370498v1_bin_2,0
GCF_013704985.1_ASM1370498v1,GCF_013704985.1_ASM1370498v1_bin_7,0
GCF_013704985.1_ASM1370498v1,GCF_013704985.1_ASM1370498v1_bin_4,0
GCF_013704985.1_ASM1370498v1,GCF_013704985.1_ASM1370498v1_bin_1,0
GCF_013704985.1_ASM1370498v1,GCF_013704985.1_ASM1370498v1_bin_5,0
GCF_013704985.1_ASM1370498v1,GCF_013704985.1_ASM1370498v1_bin_3,0
GCF_013704985.1_ASM1370498v1,GCF_013704985.1_ASM1370498v1_bin_6,0
GCF_904866335.1_INF266,GCF_904866335.1_INF266_bin_1,0
GCF_904866335.1_INF266,GCF_904866335.1_INF266_bin_2,0
GCF_904865735.1_INF361,GCF_904865735.1_INF361_bin_1,0
GCF_904865735.1_INF361,GCF_904865735.1_INF361_bin_2,0
GCF_904865735.1_INF361,GCF_904865735.1_INF361_bin_3,0
GCF_021655495.1_ASM2165549v1,GCF_021655495.1_ASM2165549v1_bin_1,2
GCF_021655495.1_ASM2165549v1,GCF_021655495.1_ASM2165549v1_bin_2,0
GCF_904863335.1_KSB1_5B,GCF_904863335.1_KSB1_5B_bin_1,0
GCF_904863335.1_KSB1_5B,GCF_904863335.1_KSB1_5B_bin_2,0
GCF_904863335.1_KSB1_5B,GCF_904863335.1_KSB1_5B_bin_3,0
GCF_012029935.2_ASM1202993v2,GCF_012029935.2_ASM1202993v2_bin_1,0
GCF_012029935.2_ASM1202993v2,GCF_012029935.2_ASM1202993v2_bin_2,0
GCF_016903155.1_ASM1690315v1,GCF_016903155.1_ASM1690315v1_bin_2,0
GCF_016903155.1_ASM1690315v1,GCF_016903155.1_ASM1690315v1_bin_4,0
GCF_016903155.1_ASM1690315v1,GCF_016903155.1_ASM1690315v1_bin_1,0
GCF_016903155.1_ASM1690315v1,GCF_016903155.1_ASM1690315v1_bin_3,0
GCF_904865815.1_INF281,GCF_904865815.1_INF281_bin_3,0
GCF_904865815.1_INF281,GCF_904865815.1_INF281_bin_2,0
GCF_904865815.1_INF281,GCF_904865815.1_INF281_bin_1,0
GCF_904865815.1_INF281,GCF_904865815.1_INF281_bin_4,0
GCF_904865815.1_INF281,GCF_904865815.1_INF281_bin_5,0
GCF_013731735.1_ASM1373173v1,GCF_013731735.1_ASM1373173v1_bin_2,0
GCF_013731735.1_ASM1373173v1,GCF_013731735.1_ASM1373173v1_bin_3,0
GCF_013731735.1_ASM1373173v1,GCF_013731735.1_ASM1373173v1_bin_1,0
GCF_012029695.2_ASM1202969v2,GCF_012029695.2_ASM1202969v2_bin_2,0
GCF_012029695.2_ASM1202969v2,GCF_012029695.2_ASM1202969v2_bin_1,0
GCF_013805705.1_ASM1380570v1,GCF_013805705.1_ASM1380570v1_bin_3,0
GCF_013805705.1_ASM1380570v1,GCF_013805705.1_ASM1380570v1_bin_2,0
GCF_013805705.1_ASM1380570v1,GCF_013805705.1_ASM1380570v1_bin_1,0
GCF_020080145.1_ASM2008014v1,GCF_020080145.1_ASM2008014v1_bin_1,0
GCF_904865675.1_INF358,GCF_904865675.1_INF358_bin_1,0
GCF_904866325.1_INF299,GCF_904866325.1_INF299_bin_4,0
GCF_904866325.1_INF299,GCF_904866325.1_INF299_bin_2,0
GCF_904866325.1_INF299,GCF_904866325.1_INF299_bin_1,0
GCF_904866325.1_INF299,GCF_904866325.1_INF299_bin_3,0
GCF_019798005.1_ASM1979800v1,GCF_019798005.1_ASM1979800v1_bin_4,0
GCF_019798005.1_ASM1979800v1,GCF_019798005.1_ASM1979800v1_bin_1,0
GCF_019798005.1_ASM1979800v1,GCF_019798005.1_ASM1979800v1_bin_3,0
GCF_019798005.1_ASM1979800v1,GCF_019798005.1_ASM1979800v1_bin_2,0
GCF_904866315.1_INF346,GCF_904866315.1_INF346_bin_3,0
GCF_904866315.1_INF346,GCF_904866315.1_INF346_bin_1,0
GCF_904866315.1_INF346,GCF_904866315.1_INF346_bin_2,0
GCF_016904315.1_ASM1690431v1,GCF_016904315.1_ASM1690431v1_bin_1,0
GCF_016904315.1_ASM1690431v1,GCF_016904315.1_ASM1690431v1_bin_2,0
GCF_904863295.1_KSB2_2B,GCF_904863295.1_KSB2_2B_bin_4,0
GCF_904863295.1_KSB2_2B,GCF_904863295.1_KSB2_2B_bin_2,0
GCF_904863295.1_KSB2_2B,GCF_904863295.1_KSB2_2B_bin_1,2
GCF_904863295.1_KSB2_2B,GCF_904863295.1_KSB2_2B_bin_5,0
GCF_904863295.1_KSB2_2B,GCF_904863295.1_KSB2_2B_bin_3,0
GCF_904863295.1_KSB2_2B,GCF_904863295.1_KSB2_2B_bin_6,0
GCF_015694085.1_ASM1569408v1,GCF_015694085.1_ASM1569408v1_bin_4,0
GCF_015694085.1_ASM1569408v1,GCF_015694085.1_ASM1569408v1_bin_3,0
GCF_015694085.1_ASM1569408v1,GCF_015694085.1_ASM1569408v1_bin_2,0
GCF_015694085.1_ASM1569408v1,GCF_015694085.1_ASM1569408v1_bin_1,0
GCF_904863355.1_INF148,GCF_904863355.1_INF148_bin_2,0
GCF_904863355.1_INF148,GCF_904863355.1_INF148_bin_3,0
GCF_904863355.1_INF148,GCF_904863355.1_INF148_bin_1,0
GCF_904866395.1_INF321,GCF_904866395.1_INF321_bin_3,0
GCF_904866395.1_INF321,GCF_904866395.1_INF321_bin_2,0
GCF_904866395.1_INF321,GCF_904866395.1_INF321_bin_1,0
GCF_904866395.1_INF321,GCF_904866395.1_INF321_bin_6,0
GCF_904866395.1_INF321,GCF_904866395.1_INF321_bin_5,0
GCF_904866395.1_INF321,GCF_904866395.1_INF321_bin_4,0
GCF_904863095.1_INF174,GCF_904863095.1_INF174_bin_2,0
GCF_904863095.1_INF174,GCF_904863095.1_INF174_bin_1,0
GCF_015138775.1_ASM1513877v1,GCF_015138775.1_ASM1513877v1_bin_1,0
GCF_015138775.1_ASM1513877v1,GCF_015138775.1_ASM1513877v1_bin_2,0
GCF_015138775.1_ASM1513877v1,GCF_015138775.1_ASM1513877v1_bin_3,0
GCF_013782105.1_ASM1378210v1,GCF_013782105.1_ASM1378210v1_bin_3,0
GCF_013782105.1_ASM1378210v1,GCF_013782105.1_ASM1378210v1_bin_4,0
GCF_013782105.1_ASM1378210v1,GCF_013782105.1_ASM1378210v1_bin_2,0
GCF_013782105.1_ASM1378210v1,GCF_013782105.1_ASM1378210v1_bin_1,0
GCF_018283505.2_ASM1828350v2,GCF_018283505.2_ASM1828350v2_bin_2,0
GCF_018283505.2_ASM1828350v2,GCF_018283505.2_ASM1828350v2_bin_1,2
GCF_016903115.1_ASM1690311v1,GCF_016903115.1_ASM1690311v1_bin_6,0
GCF_016903115.1_ASM1690311v1,GCF_016903115.1_ASM1690311v1_bin_4,0
GCF_016903115.1_ASM1690311v1,GCF_016903115.1_ASM1690311v1_bin_7,0
GCF_016903115.1_ASM1690311v1,GCF_016903115.1_ASM1690311v1_bin_3,0
GCF_016903115.1_ASM1690311v1,GCF_016903115.1_ASM1690311v1_bin_1,0
GCF_016903115.1_ASM1690311v1,GCF_016903115.1_ASM1690311v1_bin_11,0
GCF_016903115.1_ASM1690311v1,GCF_016903115.1_ASM1690311v1_bin_2,0
GCF_016903115.1_ASM1690311v1,GCF_016903115.1_ASM1690311v1_bin_5,0
GCF_016903115.1_ASM1690311v1,GCF_016903115.1_ASM1690311v1_bin_8,0
GCF_016903115.1_ASM1690311v1,GCF_016903115.1_ASM1690311v1_bin_9,0
GCF_016903115.1_ASM1690311v1,GCF_016903115.1_ASM1690311v1_bin_10,0
GCF_904863325.1_INF354,GCF_904863325.1_INF354_bin_3,0
GCF_904863325.1_INF354,GCF_904863325.1_INF354_bin_2,0
GCF_904863325.1_INF354,GCF_904863325.1_INF354_bin_1,0
GCF_020525985.1_ASM2052598v1,GCF_020525985.1_ASM2052598v1_bin_4,0
GCF_020525985.1_ASM2052598v1,GCF_020525985.1_ASM2052598v1_bin_5,0
GCF_020525985.1_ASM2052598v1,GCF_020525985.1_ASM2052598v1_bin_6,0
GCF_020525985.1_ASM2052598v1,GCF_020525985.1_ASM2052598v1_bin_3,0
GCF_020525985.1_ASM2052598v1,GCF_020525985.1_ASM2052598v1_bin_8,0
GCF_020525985.1_ASM2052598v1,GCF_020525985.1_ASM2052598v1_bin_9,0
GCF_020525985.1_ASM2052598v1,GCF_020525985.1_ASM2052598v1_bin_2,2
GCF_020525985.1_ASM2052598v1,GCF_020525985.1_ASM2052598v1_bin_1,0
GCF_020525985.1_ASM2052598v1,GCF_020525985.1_ASM2052598v1_bin_7,1
GCF_020526025.1_ASM2052602v1,GCF_020526025.1_ASM2052602v1_bin_1,0
GCF_904866475.1_KSB2_9B,GCF_904866475.1_KSB2_9B_bin_Unbinned,0
GCF_904866475.1_KSB2_9B,GCF_904866475.1_KSB2_9B_bin_5,0
GCF_904866475.1_KSB2_9B,GCF_904866475.1_KSB2_9B_bin_3,0
GCF_904866475.1_KSB2_9B,GCF_904866475.1_KSB2_9B_bin_1,0
GCF_904866475.1_KSB2_9B,GCF_904866475.1_KSB2_9B_bin_4,0
GCF_904866475.1_KSB2_9B,GCF_904866475.1_KSB2_9B_bin_2,0
GCF_016903955.1_ASM1690395v1,GCF_016903955.1_ASM1690395v1_bin_1,0
GCF_016903955.1_ASM1690395v1,GCF_016903955.1_ASM1690395v1_bin_3,0
GCF_016903955.1_ASM1690395v1,GCF_016903955.1_ASM1690395v1_bin_2,0
GCF_012029975.2_ASM1202997v2,GCF_012029975.2_ASM1202997v2_bin_4,0
GCF_012029975.2_ASM1202997v2,GCF_012029975.2_ASM1202997v2_bin_1,0
GCF_012029975.2_ASM1202997v2,GCF_012029975.2_ASM1202997v2_bin_2,0
GCF_012029975.2_ASM1202997v2,GCF_012029975.2_ASM1202997v2_bin_5,0
GCF_012029975.2_ASM1202997v2,GCF_012029975.2_ASM1202997v2_bin_3,0
GCF_020525485.1_ASM2052548v1,GCF_020525485.1_ASM2052548v1_bin_2,2
GCF_020525485.1_ASM2052548v1,GCF_020525485.1_ASM2052548v1_bin_1,0
GCF_904865745.1_INF247,GCF_904865745.1_INF247_bin_1,0
GCF_013724605.1_ASM1372460v1,GCF_013724605.1_ASM1372460v1_bin_4,0
GCF_013724605.1_ASM1372460v1,GCF_013724605.1_ASM1372460v1_bin_2,0
GCF_013724605.1_ASM1372460v1,GCF_013724605.1_ASM1372460v1_bin_3,0
GCF_013724605.1_ASM1372460v1,GCF_013724605.1_ASM1372460v1_bin_6,0
GCF_013724605.1_ASM1372460v1,GCF_013724605.1_ASM1372460v1_bin_1,0
GCF_013724605.1_ASM1372460v1,GCF_013724605.1_ASM1372460v1_bin_5,0
GCF_017894305.1_ASM1789430v1,GCF_017894305.1_ASM1789430v1_bin_1,0
GCF_017894305.1_ASM1789430v1,GCF_017894305.1_ASM1789430v1_bin_2,0
GCF_017894305.1_ASM1789430v1,GCF_017894305.1_ASM1789430v1_bin_3,0
GCF_021496545.1_ASM2149654v1,GCF_021496545.1_ASM2149654v1_bin_2,0
GCF_021496545.1_ASM2149654v1,GCF_021496545.1_ASM2149654v1_bin_1,0
GCF_013735895.1_ASM1373589v1,GCF_013735895.1_ASM1373589v1_bin_4,0
GCF_013735895.1_ASM1373589v1,GCF_013735895.1_ASM1373589v1_bin_6,0
GCF_013735895.1_ASM1373589v1,GCF_013735895.1_ASM1373589v1_bin_7,0
GCF_013735895.1_ASM1373589v1,GCF_013735895.1_ASM1373589v1_bin_5,0
GCF_013735895.1_ASM1373589v1,GCF_013735895.1_ASM1373589v1_bin_1,0
GCF_013735895.1_ASM1373589v1,GCF_013735895.1_ASM1373589v1_bin_2,0
GCF_013735895.1_ASM1373589v1,GCF_013735895.1_ASM1373589v1_bin_3,0
GCF_904865785.1_INF142,GCF_904865785.1_INF142_bin_6,0
GCF_904865785.1_INF142,GCF_904865785.1_INF142_bin_3,0
GCF_904865785.1_INF142,GCF_904865785.1_INF142_bin_5,0
GCF_904865785.1_INF142,GCF_904865785.1_INF142_bin_2,0
GCF_904865785.1_INF142,GCF_904865785.1_INF142_bin_4,0
GCF_904865785.1_INF142,GCF_904865785.1_INF142_bin_1,0
GCF_904863245.1_INF355,GCF_904863245.1_INF355_bin_3,0
GCF_904863245.1_INF355,GCF_904863245.1_INF355_bin_2,0
GCF_904863245.1_INF355,GCF_904863245.1_INF355_bin_1,0
GCF_904866235.1_INF122,GCF_904866235.1_INF122_bin_1,0
GCF_904866235.1_INF122,GCF_904866235.1_INF122_bin_2,0
GCF_012030545.2_ASM1203054v2,GCF_012030545.2_ASM1203054v2_bin_1,0
GCF_904866485.1_KSB1_1H,GCF_904866485.1_KSB1_1H_bin_3,0
GCF_904866485.1_KSB1_1H,GCF_904866485.1_KSB1_1H_bin_2,0
GCF_904866485.1_KSB1_1H,GCF_904866485.1_KSB1_1H_bin_1,0
GCF_013796245.1_ASM1379624v1,GCF_013796245.1_ASM1379624v1_bin_3,0
GCF_013796245.1_ASM1379624v1,GCF_013796245.1_ASM1379624v1_bin_2,0
GCF_013796245.1_ASM1379624v1,GCF_013796245.1_ASM1379624v1_bin_4,0
GCF_013796245.1_ASM1379624v1,GCF_013796245.1_ASM1379624v1_bin_1,0
GCF_904866535.1_KSB1_8C,GCF_904866535.1_KSB1_8C_bin_1,0
GCF_014788765.1_ASM1478876v1,GCF_014788765.1_ASM1478876v1_bin_1,0
GCF_014788765.1_ASM1478876v1,GCF_014788765.1_ASM1478876v1_bin_2,2
GCF_013811845.1_ASM1381184v1,GCF_013811845.1_ASM1381184v1_bin_1,0
GCF_013811845.1_ASM1381184v1,GCF_013811845.1_ASM1381184v1_bin_2,0
GCF_013811845.1_ASM1381184v1,GCF_013811845.1_ASM1381184v1_bin_3,0
GCF_904866465.1_INF161,GCF_904866465.1_INF161_bin_2,0
GCF_904866465.1_INF161,GCF_904866465.1_INF161_bin_1,0
GCF_020149825.1_ASM2014982v1,GCF_020149825.1_ASM2014982v1_bin_1,0
GCF_020149825.1_ASM2014982v1,GCF_020149825.1_ASM2014982v1_bin_4,0
GCF_020149825.1_ASM2014982v1,GCF_020149825.1_ASM2014982v1_bin_3,0
GCF_020149825.1_ASM2014982v1,GCF_020149825.1_ASM2014982v1_bin_2,0
GCF_014905815.1_ASM1490581v1,GCF_014905815.1_ASM1490581v1_bin_4,0
GCF_014905815.1_ASM1490581v1,GCF_014905815.1_ASM1490581v1_bin_5,0
GCF_014905815.1_ASM1490581v1,GCF_014905815.1_ASM1490581v1_bin_2,0
GCF_014905815.1_ASM1490581v1,GCF_014905815.1_ASM1490581v1_bin_3,0
GCF_014905815.1_ASM1490581v1,GCF_014905815.1_ASM1490581v1_bin_1,0
GCF_014169335.1_ASM1416933v1,GCF_014169335.1_ASM1416933v1_bin_1,0
GCF_014169335.1_ASM1416933v1,GCF_014169335.1_ASM1416933v1_bin_2,0
GCF_014169335.1_ASM1416933v1,GCF_014169335.1_ASM1416933v1_bin_3,0
GCF_019798025.1_ASM1979802v1,GCF_019798025.1_ASM1979802v1_bin_2,0
GCF_019798025.1_ASM1979802v1,GCF_019798025.1_ASM1979802v1_bin_1,0
GCF_016904035.1_ASM1690403v1,GCF_016904035.1_ASM1690403v1_bin_1,0
GCF_019797985.1_ASM1979798v1,GCF_019797985.1_ASM1979798v1_bin_2,0
GCF_019797985.1_ASM1979798v1,GCF_019797985.1_ASM1979798v1_bin_1,0
GCF_014168655.1_ASM1416865v1,GCF_014168655.1_ASM1416865v1_bin_1,0
GCF_014168655.1_ASM1416865v1,GCF_014168655.1_ASM1416865v1_bin_2,0
GCF_013734035.1_ASM1373403v1,GCF_013734035.1_ASM1373403v1_bin_4,0
GCF_013734035.1_ASM1373403v1,GCF_013734035.1_ASM1373403v1_bin_7,0
GCF_013734035.1_ASM1373403v1,GCF_013734035.1_ASM1373403v1_bin_5,0
GCF_013734035.1_ASM1373403v1,GCF_013734035.1_ASM1373403v1_bin_6,0
GCF_013734035.1_ASM1373403v1,GCF_013734035.1_ASM1373403v1_bin_3,0
GCF_013734035.1_ASM1373403v1,GCF_013734035.1_ASM1373403v1_bin_2,0
GCF_013734035.1_ASM1373403v1,GCF_013734035.1_ASM1373403v1_bin_1,0
GCF_021228815.1_ASM2122881v1,GCF_021228815.1_ASM2122881v1_bin_1,0
GCF_020149875.1_ASM2014987v1,GCF_020149875.1_ASM2014987v1_bin_3,0
GCF_020149875.1_ASM2014987v1,GCF_020149875.1_ASM2014987v1_bin_5,0
GCF_020149875.1_ASM2014987v1,GCF_020149875.1_ASM2014987v1_bin_6,0
GCF_020149875.1_ASM2014987v1,GCF_020149875.1_ASM2014987v1_bin_2,0
GCF_020149875.1_ASM2014987v1,GCF_020149875.1_ASM2014987v1_bin_7,0
GCF_020149875.1_ASM2014987v1,GCF_020149875.1_ASM2014987v1_bin_1,0
GCF_020149875.1_ASM2014987v1,GCF_020149875.1_ASM2014987v1_bin_4,0
GCF_020149875.1_ASM2014987v1,GCF_020149875.1_ASM2014987v1_bin_8,0
GCF_904866415.1_INF201,GCF_904866415.1_INF201_bin_1,0
GCF_904866415.1_INF201,GCF_904866415.1_INF201_bin_2,0
GCF_904866415.1_INF201,GCF_904866415.1_INF201_bin_3,0
GCF_904866415.1_INF201,GCF_904866415.1_INF201_bin_4,0
GCF_021655475.1_ASM2165547v1,GCF_021655475.1_ASM2165547v1_bin_2,0
GCF_021655475.1_ASM2165547v1,GCF_021655475.1_ASM2165547v1_bin_3,0
GCF_021655475.1_ASM2165547v1,GCF_021655475.1_ASM2165547v1_bin_1,2
GCF_904863205.1_INF008,GCF_904863205.1_INF008_bin_1,0
GCF_904863405.1_INF215,GCF_904863405.1_INF215_bin_1,0
GCF_016904595.1_ASM1690459v1,GCF_016904595.1_ASM1690459v1_bin_1,0
GCF_016904595.1_ASM1690459v1,GCF_016904595.1_ASM1690459v1_bin_4,0
GCF_016904595.1_ASM1690459v1,GCF_016904595.1_ASM1690459v1_bin_3,0
GCF_016904595.1_ASM1690459v1,GCF_016904595.1_ASM1690459v1_bin_2,0
GCF_014189335.1_ASM1418933v1,GCF_014189335.1_ASM1418933v1_bin_4,0
GCF_014189335.1_ASM1418933v1,GCF_014189335.1_ASM1418933v1_bin_3,0
GCF_014189335.1_ASM1418933v1,GCF_014189335.1_ASM1418933v1_bin_1,0
GCF_014189335.1_ASM1418933v1,GCF_014189335.1_ASM1418933v1_bin_2,0
GCF_022369925.1_ASM2236992v1,GCF_022369925.1_ASM2236992v1_bin_5,0
GCF_022369925.1_ASM2236992v1,GCF_022369925.1_ASM2236992v1_bin_1,0
GCF_022369925.1_ASM2236992v1,GCF_022369925.1_ASM2236992v1_bin_3,0
GCF_022369925.1_ASM2236992v1,GCF_022369925.1_ASM2236992v1_bin_4,0
GCF_022369925.1_ASM2236992v1,GCF_022369925.1_ASM2236992v1_bin_2,0
GCF_014168575.1_ASM1416857v1,GCF_014168575.1_ASM1416857v1_bin_1,0
GCF_014168575.1_ASM1416857v1,GCF_014168575.1_ASM1416857v1_bin_3,0
GCF_014168575.1_ASM1416857v1,GCF_014168575.1_ASM1416857v1_bin_2,0
GCF_013611495.1_ASM1361149v1,GCF_013611495.1_ASM1361149v1_bin_3,0
GCF_013611495.1_ASM1361149v1,GCF_013611495.1_ASM1361149v1_bin_5,0
GCF_013611495.1_ASM1361149v1,GCF_013611495.1_ASM1361149v1_bin_2,0
GCF_013611495.1_ASM1361149v1,GCF_013611495.1_ASM1361149v1_bin_1,0
GCF_013611495.1_ASM1361149v1,GCF_013611495.1_ASM1361149v1_bin_4,0
GCF_904864515.1_KSB2_2C,GCF_904864515.1_KSB2_2C_bin_3,0
GCF_904864515.1_KSB2_2C,GCF_904864515.1_KSB2_2C_bin_Unbinned,0
GCF_904864515.1_KSB2_2C,GCF_904864515.1_KSB2_2C_bin_2,0
GCF_904864515.1_KSB2_2C,GCF_904864515.1_KSB2_2C_bin_1,0
GCF_904866425.1_INF065,GCF_904866425.1_INF065_bin_1,0
GCF_904866425.1_INF065,GCF_904866425.1_INF065_bin_2,0
GCF_904866425.1_INF065,GCF_904866425.1_INF065_bin_3,0
GCF_904863195.1_INF133,GCF_904863195.1_INF133_bin_6,0
GCF_904863195.1_INF133,GCF_904863195.1_INF133_bin_3,0
GCF_904863195.1_INF133,GCF_904863195.1_INF133_bin_4,0
GCF_904863195.1_INF133,GCF_904863195.1_INF133_bin_1,0
GCF_904863195.1_INF133,GCF_904863195.1_INF133_bin_2,0
GCF_904863195.1_INF133,GCF_904863195.1_INF133_bin_5,0
GCF_904866255.1_INF223,GCF_904866255.1_INF223_bin_1,0
GCF_904866255.1_INF223,GCF_904866255.1_INF223_bin_3,0
GCF_904866255.1_INF223,GCF_904866255.1_INF223_bin_2,0
GCF_904863075.1_INF334,GCF_904863075.1_INF334_bin_2,0
GCF_904863075.1_INF334,GCF_904863075.1_INF334_bin_4,0
GCF_904863075.1_INF334,GCF_904863075.1_INF334_bin_1,0
GCF_904863075.1_INF334,GCF_904863075.1_INF334_bin_3,0
GCF_021655455.1_ASM2165545v1,GCF_021655455.1_ASM2165545v1_bin_1,0
GCF_904863215.1_INF277,GCF_904863215.1_INF277_bin_Unbinned,2
GCF_904863215.1_INF277,GCF_904863215.1_INF277_bin_2,0
GCF_904863215.1_INF277,GCF_904863215.1_INF277_bin_3,0
GCF_904863215.1_INF277,GCF_904863215.1_INF277_bin_1,0
GCF_904863215.1_INF277,GCF_904863215.1_INF277_bin_4,0
GCF_904864625.1_INF171,GCF_904864625.1_INF171_bin_1,0
GCF_904864625.1_INF171,GCF_904864625.1_INF171_bin_6,0
GCF_904864625.1_INF171,GCF_904864625.1_INF171_bin_3,1
GCF_904864625.1_INF171,GCF_904864625.1_INF171_bin_2,0
GCF_904864625.1_INF171,GCF_904864625.1_INF171_bin_5,0
GCF_904864625.1_INF171,GCF_904864625.1_INF171_bin_4,0
GCF_016903295.1_ASM1690329v1,GCF_016903295.1_ASM1690329v1_bin_4,0
GCF_016903295.1_ASM1690329v1,GCF_016903295.1_ASM1690329v1_bin_1,0
GCF_016903295.1_ASM1690329v1,GCF_016903295.1_ASM1690329v1_bin_Unbinned,0
GCF_016903295.1_ASM1690329v1,GCF_016903295.1_ASM1690329v1_bin_5,0
GCF_016903295.1_ASM1690329v1,GCF_016903295.1_ASM1690329v1_bin_2,0
GCF_016903295.1_ASM1690329v1,GCF_016903295.1_ASM1690329v1_bin_3,0
GCF_016903295.1_ASM1690329v1,GCF_016903295.1_ASM1690329v1_bin_6,0
GCF_018075085.1_ASM1807508v1,GCF_018075085.1_ASM1807508v1_bin_2,0
GCF_018075085.1_ASM1807508v1,GCF_018075085.1_ASM1807508v1_bin_3,0
GCF_018075085.1_ASM1807508v1,GCF_018075085.1_ASM1807508v1_bin_1,0
GCF_904863125.1_INF357,GCF_904863125.1_INF357_bin_3,0
GCF_904863125.1_INF357,GCF_904863125.1_INF357_bin_2,0
GCF_904863125.1_INF357,GCF_904863125.1_INF357_bin_1,0
GCF_904863125.1_INF357,GCF_904863125.1_INF357_bin_4,0
GCF_904863125.1_INF357,GCF_904863125.1_INF357_bin_5,0
GCF_013731305.1_ASM1373130v1,GCF_013731305.1_ASM1373130v1_bin_2,0
GCF_013731305.1_ASM1373130v1,GCF_013731305.1_ASM1373130v1_bin_1,0
GCF_014170015.1_ASM1417001v1,GCF_014170015.1_ASM1417001v1_bin_1,2
GCF_016904295.1_ASM1690429v1,GCF_016904295.1_ASM1690429v1_bin_1,0
GCF_016904295.1_ASM1690429v1,GCF_016904295.1_ASM1690429v1_bin_3,0
GCF_016904295.1_ASM1690429v1,GCF_016904295.1_ASM1690429v1_bin_2,0
GCF_016904295.1_ASM1690429v1,GCF_016904295.1_ASM1690429v1_bin_5,0
GCF_016904295.1_ASM1690429v1,GCF_016904295.1_ASM1690429v1_bin_4,0
GCF_904864645.1_INF079,GCF_904864645.1_INF079_bin_1,0
GCF_904866435.1_INF119,GCF_904866435.1_INF119_bin_1,0
GCF_904865845.1_INF302,GCF_904865845.1_INF302_bin_2,0
GCF_904865845.1_INF302,GCF_904865845.1_INF302_bin_1,0
GCF_904865845.1_INF302,GCF_904865845.1_INF302_bin_4,0
GCF_904865845.1_INF302,GCF_904865845.1_INF302_bin_3,0
GCF_014170935.1_ASM1417093v1,GCF_014170935.1_ASM1417093v1_bin_3,0
GCF_014170935.1_ASM1417093v1,GCF_014170935.1_ASM1417093v1_bin_2,0
GCF_014170935.1_ASM1417093v1,GCF_014170935.1_ASM1417093v1_bin_1,0
GCF_014170935.1_ASM1417093v1,GCF_014170935.1_ASM1417093v1_bin_Unbinned,0
GCF_014170935.1_ASM1417093v1,GCF_014170935.1_ASM1417093v1_bin_4,0
