GCF_904866195.1_INF327,GCF_904866195.1_INF327_bin_1,NZ_LR890572.1,S49_LN_i_1108_dp_f_4.213633103003995,1108,99360,100467
GCF_904866195.1_INF327,GCF_904866195.1_INF327_bin_1,NZ_LR890572.1,S49_LN_i_1108_dp_f_4.213633103003995,1108,132111,133218
GCF_904866195.1_INF327,GCF_904866195.1_INF327_bin_1,NZ_LR890572.1,S49_LN_i_1108_dp_f_4.213633103003995,1108,78156,79263
GCF_920103885.1_DJ,GCF_920103885.1_DJ_bin_1,NZ_OV049814.1,S68_LN_i_5700_dp_f_1.0771691566084274,5700,99239,104938
GCF_920103885.1_DJ,GCF_920103885.1_DJ_bin_1,NZ_OV049808.1,S68_LN_i_5700_dp_f_1.0771691566084274,5700,4826939,4832638
GCF_021057265.1_ASM2105726v1,GCF_021057265.1_ASM2105726v1_bin_Unbinned,NZ_CP084984.1,S75_LN_i_1159_dp_f_2.7674511324675057,1159,2339311,2340469
GCF_021057265.1_ASM2105726v1,GCF_021057265.1_ASM2105726v1_bin_Unbinned,NZ_CP084984.1,S75_LN_i_1159_dp_f_2.7674511324675057,1158,1832295,1833454
GCF_021166235.1_ASM2116623v1,GCF_021166235.1_ASM2116623v1_bin_1,NZ_CP089029.1,S102_LN_i_1026_dp_f_0.8785645154149287,1025,119319,120343
GCF_021166235.1_ASM2116623v1,GCF_021166235.1_ASM2116623v1_bin_1,NZ_CP089028.1,S102_LN_i_1026_dp_f_0.8785645154149287,1026,66502,67527
GCF_016903735.1_ASM1690373v1,GCF_016903735.1_ASM1690373v1_bin_1,NZ_CP069948.1,S33_LN_i_10779_dp_f_4.346112592976208,10779,7846,18624
GCF_016903735.1_ASM1690373v1,GCF_016903735.1_ASM1690373v1_bin_1,NZ_CP069947.1,S33_LN_i_10779_dp_f_4.346112592976208,10779,80160,90938
GCF_016903735.1_ASM1690373v1,GCF_016903735.1_ASM1690373v1_bin_1,NZ_CP069946.1,S48_LN_i_2560_dp_f_3.2580474678747073,2560,1730745,1733304
GCF_016903735.1_ASM1690373v1,GCF_016903735.1_ASM1690373v1_bin_1,NZ_CP069948.1,S48_LN_i_2560_dp_f_3.2580474678747073,2560,23908,26467
GCF_016903395.1_ASM1690339v1,GCF_016903395.1_ASM1690339v1_bin_1,NZ_CP069903.1,S46_LN_i_13743_dp_f_1.7630413926404482,13743,80810,94552
GCF_016903395.1_ASM1690339v1,GCF_016903395.1_ASM1690339v1_bin_1,NZ_CP069906.1,S46_LN_i_13743_dp_f_1.7630413926404482,13741,13295,27035
GCF_016903395.1_ASM1690339v1,GCF_016903395.1_ASM1690339v1_bin_1,NZ_CP069904.1,S62_LN_i_4443_dp_f_1.5955724324179144,4443,58542,62984
GCF_016903395.1_ASM1690339v1,GCF_016903395.1_ASM1690339v1_bin_1,NZ_CP069906.1,S62_LN_i_4443_dp_f_1.5955724324179144,4411,7541,11951
GCF_016903395.1_ASM1690339v1,GCF_016903395.1_ASM1690339v1_bin_1,NZ_CP069904.1,S68_LN_i_3247_dp_f_1.5288764574603277,3247,64187,67433
GCF_016903395.1_ASM1690339v1,GCF_016903395.1_ASM1690339v1_bin_1,NZ_CP069906.1,S68_LN_i_3247_dp_f_1.5288764574603277,3246,3093,6338
GCF_003937135.2_ASM393713v2,GCF_003937135.2_ASM393713v2_bin_1,NZ_CP078033.1,S76_LN_i_1606_dp_f_4.725938753574866,1606,2389036,2390641
GCF_003937135.2_ASM393713v2,GCF_003937135.2_ASM393713v2_bin_1,NZ_CP078034.1,S76_LN_i_1606_dp_f_4.725938753574866,1606,61028,62633
GCF_020525965.1_ASM2052596v1,GCF_020525965.1_ASM2052596v1_bin_3,NZ_CP084831.1,S73_LN_i_3969_dp_f_0.6901077476343754,3969,156636,160604
GCF_020525965.1_ASM2052596v1,GCF_020525965.1_ASM2052596v1_bin_3,NZ_CP084832.1,S73_LN_i_3969_dp_f_0.6901077476343754,3969,83031,86999
GCF_020525965.1_ASM2052596v1,GCF_020525965.1_ASM2052596v1_bin_3,NZ_CP084831.1,S99_LN_i_1468_dp_f_0.9445585144687023,1468,35120,36587
GCF_020525965.1_ASM2052596v1,GCF_020525965.1_ASM2052596v1_bin_3,NZ_CP084832.1,S99_LN_i_1468_dp_f_0.9445585144687023,1468,73092,74559
GCF_020525965.1_ASM2052596v1,GCF_020525965.1_ASM2052596v1_bin_3,NZ_CP084830.1,S99_LN_i_1468_dp_f_0.9445585144687023,1468,2629056,2630523
GCF_016903195.1_ASM1690319v1,GCF_016903195.1_ASM1690319v1_bin_1,NZ_CP069845.1,S54_LN_i_4290_dp_f_2.351429833505867,4290,19494,23783
GCF_016903195.1_ASM1690319v1,GCF_016903195.1_ASM1690319v1_bin_1,NZ_CP069845.1,S54_LN_i_4290_dp_f_2.351429833505867,4290,33725,38014
GCF_016903195.1_ASM1690319v1,GCF_016903195.1_ASM1690319v1_bin_1,NZ_CP069845.1,S54_LN_i_4290_dp_f_2.351429833505867,4290,5774,10063
GCF_016903195.1_ASM1690319v1,GCF_016903195.1_ASM1690319v1_bin_1,NZ_CP069844.1,S54_LN_i_4290_dp_f_2.351429833505867,4290,11371,15660
GCF_016903195.1_ASM1690319v1,GCF_016903195.1_ASM1690319v1_bin_1,NZ_CP069844.1,S55_LN_i_4261_dp_f_2.0269634692902527,4261,40176,44436
GCF_016903195.1_ASM1690319v1,GCF_016903195.1_ASM1690319v1_bin_1,NZ_CP069849.1,S55_LN_i_4261_dp_f_2.0269634692902527,4261,29235,33495
GCF_016903195.1_ASM1690319v1,GCF_016903195.1_ASM1690319v1_bin_1,NZ_CP069844.1,S65_LN_i_2270_dp_f_3.5090903928746653,2270,37429,39698
GCF_016903195.1_ASM1690319v1,GCF_016903195.1_ASM1690319v1_bin_1,NZ_CP069848.1,S65_LN_i_2270_dp_f_3.5090903928746653,2270,21823,24092
GCF_016903195.1_ASM1690319v1,GCF_016903195.1_ASM1690319v1_bin_1,NZ_CP069849.1,S65_LN_i_2270_dp_f_3.5090903928746653,2270,33973,36242
GCF_016903195.1_ASM1690319v1,GCF_016903195.1_ASM1690319v1_bin_1,NZ_CP069844.1,S73_LN_i_1471_dp_f_2.770671575380138,1471,35830,37300
GCF_016903195.1_ASM1690319v1,GCF_016903195.1_ASM1690319v1_bin_1,NZ_CP069849.1,S73_LN_i_1471_dp_f_2.770671575380138,1470,36371,37840
GCF_016903195.1_ASM1690319v1,GCF_016903195.1_ASM1690319v1_bin_1,NZ_CP069846.1,S73_LN_i_1471_dp_f_2.770671575380138,1471,94568,96038
GCF_016903195.1_ASM1690319v1,GCF_016903195.1_ASM1690319v1_bin_3,NZ_CP069844.1,S83_LN_i_1014_dp_f_4.505643339880308,1014,417,1430
GCF_016903195.1_ASM1690319v1,GCF_016903195.1_ASM1690319v1_bin_3,NZ_CP069849.1,S83_LN_i_1014_dp_f_4.505643339880308,1014,10249,11262
GCF_016903195.1_ASM1690319v1,GCF_016903195.1_ASM1690319v1_bin_3,NZ_CP069849.1,S83_LN_i_1014_dp_f_4.505643339880308,1014,17929,18942
GCF_016903195.1_ASM1690319v1,GCF_016903195.1_ASM1690319v1_bin_3,NZ_CP069845.1,S83_LN_i_1014_dp_f_4.505643339880308,1014,12634,13647
GCF_016903195.1_ASM1690319v1,GCF_016903195.1_ASM1690319v1_bin_3,NZ_CP069845.1,S83_LN_i_1014_dp_f_4.505643339880308,1014,44678,45691
GCF_016903195.1_ASM1690319v1,GCF_016903195.1_ASM1690319v1_bin_3,NZ_CP069849.1,S83_LN_i_1014_dp_f_4.505643339880308,1013,2569,3583
GCF_016903195.1_ASM1690319v1,GCF_016903195.1_ASM1690319v1_bin_3,NZ_CP069845.1,S83_LN_i_1014_dp_f_4.505643339880308,1013,52358,53370
GCF_904865795.1_KSB2_10B,GCF_904865795.1_KSB2_10B_bin_2,NZ_LR890486.1,S48_LN_i_1353_dp_f_2.6559819173296053,1353,26226,27578
GCF_904865795.1_KSB2_10B,GCF_904865795.1_KSB2_10B_bin_2,NZ_LR890484.1,S48_LN_i_1353_dp_f_2.6559819173296053,1353,3160069,3161421
GCF_016903475.1_ASM1690347v1,GCF_016903475.1_ASM1690347v1_bin_1,NZ_CP070173.1,S79_LN_i_2449_dp_f_2.9185652889340052,2449,133637,136085
GCF_016903475.1_ASM1690347v1,GCF_016903475.1_ASM1690347v1_bin_1,NZ_CP070173.1,S79_LN_i_2449_dp_f_2.9185652889340052,2449,102069,104517
GCF_016903475.1_ASM1690347v1,GCF_016903475.1_ASM1690347v1_bin_1,NZ_CP070173.1,S79_LN_i_2449_dp_f_2.9185652889340052,2449,117853,120301
GCF_016904275.1_ASM1690427v1,GCF_016904275.1_ASM1690427v1_bin_Unbinned,NZ_CP070087.1,S91_LN_i_1061_dp_f_8.667085127050397,1061,1347589,1348649
GCF_016904275.1_ASM1690427v1,GCF_016904275.1_ASM1690427v1_bin_Unbinned,NZ_CP070082.1,S91_LN_i_1061_dp_f_8.667085127050397,1061,715,1775
GCF_021655515.1_ASM2165551v1,GCF_021655515.1_ASM2165551v1_bin_1,NZ_AP024579.1,S36_LN_i_12391_dp_f_11.716492005683115,12391,609465,621855
GCF_021655515.1_ASM2165551v1,GCF_021655515.1_ASM2165551v1_bin_1,NZ_AP024581.1,S36_LN_i_12391_dp_f_11.716492005683115,12391,24114,36504
GCF_021655515.1_ASM2165551v1,GCF_021655515.1_ASM2165551v1_bin_1,NZ_AP024580.1,S36_LN_i_12391_dp_f_11.716492005683115,12391,93664,106054
GCF_021655515.1_ASM2165551v1,GCF_021655515.1_ASM2165551v1_bin_1,NZ_AP024580.1,S37_LN_i_6989_dp_f_10.510230067507692,6989,83042,90030
GCF_021655515.1_ASM2165551v1,GCF_021655515.1_ASM2165551v1_bin_1,NZ_AP024581.1,S37_LN_i_6989_dp_f_10.510230067507692,6989,13492,20480
GCF_003261955.3_ASM326195v3,GCF_003261955.3_ASM326195v3_bin_3,NZ_CP033395.2,S64_LN_i_5178_dp_f_5.939094513378264,5178,39622,44799
GCF_003261955.3_ASM326195v3,GCF_003261955.3_ASM326195v3_bin_3,NZ_CP033394.2,S64_LN_i_5178_dp_f_5.939094513378264,5178,53202,58379
GCF_001185665.2_ASM118566v3,GCF_001185665.2_ASM118566v3_bin_3,NZ_CP073057.1,S72_LN_i_2527_dp_f_3.660920084952521,2527,103881,106407
GCF_001185665.2_ASM118566v3,GCF_001185665.2_ASM118566v3_bin_3,NZ_CP073055.1,S72_LN_i_2527_dp_f_3.660920084952521,2527,124204,126730
GCF_021655495.1_ASM2165549v1,GCF_021655495.1_ASM2165549v1_bin_1,NZ_AP024578.1,S33_LN_i_19466_dp_f_13.164373191627186,19466,1014,20479
GCF_021655495.1_ASM2165549v1,GCF_021655495.1_ASM2165549v1_bin_1,NZ_AP024577.1,S33_LN_i_19466_dp_f_13.164373191627186,19466,70564,90029
GCF_021655495.1_ASM2165549v1,GCF_021655495.1_ASM2165549v1_bin_1,NZ_AP024578.1,S35_LN_i_12391_dp_f_12.848828448343546,12391,24114,36504
GCF_021655495.1_ASM2165549v1,GCF_021655495.1_ASM2165549v1_bin_1,NZ_AP024577.1,S35_LN_i_12391_dp_f_12.848828448343546,12391,93664,106054
GCF_904863295.1_KSB2_2B,GCF_904863295.1_KSB2_2B_bin_1,NZ_LR890344.1,S28_LN_i_6727_dp_f_7.179697845361699,6723,146910,153632
GCF_904863295.1_KSB2_2B,GCF_904863295.1_KSB2_2B_bin_1,NZ_LR890343.1,S28_LN_i_6727_dp_f_7.179697845361699,6724,300525,307248
GCF_904863295.1_KSB2_2B,GCF_904863295.1_KSB2_2B_bin_1,NZ_LR890344.1,S28_LN_i_6727_dp_f_7.179697845361699,6726,162551,169276
GCF_904863295.1_KSB2_2B,GCF_904863295.1_KSB2_2B_bin_1,NZ_LR890345.1,S41_LN_i_2186_dp_f_7.937639686276365,2186,6955,9140
GCF_904863295.1_KSB2_2B,GCF_904863295.1_KSB2_2B_bin_1,NZ_LR890344.1,S41_LN_i_2186_dp_f_7.937639686276365,2185,170095,172279
GCF_904863295.1_KSB2_2B,GCF_904863295.1_KSB2_2B_bin_1,NZ_LR890344.1,S41_LN_i_2186_dp_f_7.937639686276365,2185,154453,156639
GCF_904863295.1_KSB2_2B,GCF_904863295.1_KSB2_2B_bin_1,NZ_LR890343.1,S41_LN_i_2186_dp_f_7.937639686276365,2186,297519,299704
GCF_018283505.2_ASM1828350v2,GCF_018283505.2_ASM1828350v2_bin_1,NZ_CP084395.1,S35_LN_i_7423_dp_f_2.17703345612732,7423,215636,223058
GCF_018283505.2_ASM1828350v2,GCF_018283505.2_ASM1828350v2_bin_1,NZ_CP084395.1,S35_LN_i_7423_dp_f_2.17703345612732,7423,249435,256857
GCF_018283505.2_ASM1828350v2,GCF_018283505.2_ASM1828350v2_bin_1,NZ_CP084395.1,S39_LN_i_5098_dp_f_1.6021095318485306,5098,258650,263747
GCF_018283505.2_ASM1828350v2,GCF_018283505.2_ASM1828350v2_bin_1,NZ_CP084395.1,S39_LN_i_5098_dp_f_1.6021095318485306,5098,224851,229948
GCF_020525985.1_ASM2052598v1,GCF_020525985.1_ASM2052598v1_bin_2,NZ_CP084846.1,S164_LN_i_1209_dp_f_0.9873172017498306,1209,53757,54965
GCF_020525985.1_ASM2052598v1,GCF_020525985.1_ASM2052598v1_bin_2,NZ_CP084847.1,S164_LN_i_1209_dp_f_0.9873172017498306,1208,39136,40343
GCF_020525985.1_ASM2052598v1,GCF_020525985.1_ASM2052598v1_bin_2,NZ_CP084846.1,S167_LN_i_1167_dp_f_1.5305190948101832,1167,47887,49053
GCF_020525985.1_ASM2052598v1,GCF_020525985.1_ASM2052598v1_bin_2,NZ_CP084844.1,S167_LN_i_1167_dp_f_1.5305190948101832,1165,138759,139923
GCF_020525985.1_ASM2052598v1,GCF_020525985.1_ASM2052598v1_bin_7,NZ_CP084843.1,S79_LN_i_16691_dp_f_1.819085128569674,16691,801973,818663
GCF_020525985.1_ASM2052598v1,GCF_020525985.1_ASM2052598v1_bin_7,NZ_CP084843.1,S79_LN_i_16691_dp_f_1.819085128569674,16691,4867333,4884023
GCF_020525485.1_ASM2052548v1,GCF_020525485.1_ASM2052548v1_bin_2,NZ_CP084866.1,S29_LN_i_25348_dp_f_1.433246614460094,25348,2736348,2761695
GCF_020525485.1_ASM2052548v1,GCF_020525485.1_ASM2052548v1_bin_2,NZ_CP084867.1,S29_LN_i_25348_dp_f_1.433246614460094,25348,102237,127584
GCF_020525485.1_ASM2052548v1,GCF_020525485.1_ASM2052548v1_bin_2,NZ_CP084867.1,S35_LN_i_5278_dp_f_1.299803036151052,5278,128642,133919
GCF_020525485.1_ASM2052548v1,GCF_020525485.1_ASM2052548v1_bin_2,NZ_CP084866.1,S35_LN_i_5278_dp_f_1.299803036151052,5278,2762753,2768030
GCF_014788765.1_ASM1478876v1,GCF_014788765.1_ASM1478876v1_bin_2,NZ_CP061834.1,S59_LN_i_3922_dp_f_1.3231683866863546,3922,30701,34622
GCF_014788765.1_ASM1478876v1,GCF_014788765.1_ASM1478876v1_bin_2,NZ_CP061833.1,S59_LN_i_3922_dp_f_1.3231683866863546,3922,77908,81829
GCF_014788765.1_ASM1478876v1,GCF_014788765.1_ASM1478876v1_bin_2,NZ_CP061834.1,S66_LN_i_2186_dp_f_1.5206334663055543,2186,26145,28330
GCF_014788765.1_ASM1478876v1,GCF_014788765.1_ASM1478876v1_bin_2,NZ_CP061833.1,S66_LN_i_2186_dp_f_1.5206334663055543,2186,73352,75537
GCF_021655475.1_ASM2165547v1,GCF_021655475.1_ASM2165547v1_bin_1,NZ_AP024573.1,S30_LN_i_19466_dp_f_6.226118910002208,19466,70564,90029
GCF_021655475.1_ASM2165547v1,GCF_021655475.1_ASM2165547v1_bin_1,NZ_AP024575.1,S30_LN_i_19466_dp_f_6.226118910002208,19466,1014,20479
GCF_021655475.1_ASM2165547v1,GCF_021655475.1_ASM2165547v1_bin_1,NZ_AP024575.1,S32_LN_i_14368_dp_f_5.952831479000405,14368,22137,36504
GCF_021655475.1_ASM2165547v1,GCF_021655475.1_ASM2165547v1_bin_1,NZ_AP024573.1,S32_LN_i_14368_dp_f_5.952831479000405,14368,91687,106054
GCF_904863215.1_INF277,GCF_904863215.1_INF277_bin_Unbinned,NZ_LR890205.1,S46_LN_i_2186_dp_f_4.2382309731155114,2186,175821,178006
GCF_904863215.1_INF277,GCF_904863215.1_INF277_bin_Unbinned,NZ_LR890205.1,S46_LN_i_2186_dp_f_4.2382309731155114,2186,168279,170464
GCF_904863215.1_INF277,GCF_904863215.1_INF277_bin_Unbinned,NZ_LR890205.1,S46_LN_i_2186_dp_f_4.2382309731155114,2186,183363,185548
GCF_904863215.1_INF277,GCF_904863215.1_INF277_bin_Unbinned,NZ_LR890205.1,S50_LN_i_1716_dp_f_5.756107573172046,1716,165804,167519
GCF_904863215.1_INF277,GCF_904863215.1_INF277_bin_Unbinned,NZ_LR890205.1,S50_LN_i_1716_dp_f_5.756107573172046,1716,173346,175061
GCF_904863215.1_INF277,GCF_904863215.1_INF277_bin_Unbinned,NZ_LR890205.1,S50_LN_i_1716_dp_f_5.756107573172046,1716,180888,182603
GCF_904864625.1_INF171,GCF_904864625.1_INF171_bin_3,NZ_LR890446.1,S29_LN_i_2600_dp_f_1.999817085329158,2600,1603673,1606272
GCF_904864625.1_INF171,GCF_904864625.1_INF171_bin_3,NZ_LR890446.1,S29_LN_i_2600_dp_f_1.999817085329158,2600,514486,517085
GCF_014170015.1_ASM1417001v1,GCF_014170015.1_ASM1417001v1_bin_1,NZ_CP054287.1,S68_LN_i_1131_dp_f_0.42510797623687085,1130,15707,16836
GCF_014170015.1_ASM1417001v1,GCF_014170015.1_ASM1417001v1_bin_1,NZ_CP054286.1,S68_LN_i_1131_dp_f_0.42510797623687085,1124,158862,159985
GCF_014170015.1_ASM1417001v1,GCF_014170015.1_ASM1417001v1_bin_1,NZ_CP054286.1,S69_LN_i_1131_dp_f_0.40891192813209953,1130,158863,159992
GCF_014170015.1_ASM1417001v1,GCF_014170015.1_ASM1417001v1_bin_1,NZ_CP054287.1,S69_LN_i_1131_dp_f_0.40891192813209953,1124,15714,16837
