GCF_000240185.1_ASM24018v2,NC_016845.1
GCF_000281435.2_ASM28143v2,NZ_CP007727.1
GCF_000281535.2_ASM28153v2,NZ_CP008827.1
GCF_000364385.3_ASM36438v3,NZ_CP006659.2
GCF_000417225.2_ASM41722v2,NZ_CP011976.1
GCF_000417265.2_ASM41726v2,NZ_CP011985.1
GCF_000465975.2_ASM46597v2,NZ_CP012883.1
GCF_000512165.1_ASM51216v1,NZ_CP003999.1
GCF_000597905.1_ASM59790v1,NZ_CP006918.1
GCF_000598005.1_ASM59800v1,NZ_CP006923.1
GCF_000695935.1_ASM69593v1,NZ_CP007731.1
GCF_000714675.1_ASM71467v1,NZ_CP008797.1
GCF_000717515.1_ASM71751v1,NZ_CP008831.1
GCF_000733255.1_ASM73325v1,NZ_CP006798.1
GCF_000739495.1_ASM73949v1,NZ_CP009114.1
GCF_000742755.1_ASM74275v1,NZ_CP009208.1
GCF_000764615.1_ASM76461v1,NZ_CP008929.1
GCF_000775375.1_ASM77537v1,NZ_CP009771.1
GCF_000775395.1_ASM77539v1,NZ_CP009775.1
GCF_000775955.1_ASM77595v1,NZ_CP009461.1
GCF_000784945.1_ASM78494v1,NZ_CP009863.1
GCF_000784985.1_ASM78498v1,NZ_CP009872.1
GCF_000785005.1_ASM78500v1,NZ_CP009876.1
GCF_000813205.1_ASM81320v1,NZ_CP006738.1
GCF_000814305.1_ASM81430v1,NZ_CP010392.1
GCF_000814805.1_ASM81480v1,NZ_CP006722.1
GCF_000968155.1_ASM96815v1,NZ_FO834906.1
GCF_001022035.1_ASM102203v1,NZ_CP011578.1
GCF_001022175.1_ASM102217v1,NZ_CP011624.1
GCF_001022235.1_ASM102223v1,NZ_CP011647.1
GCF_001185665.2_ASM118566v3,NZ_CP073054.1
GCF_001307175.1_ASM130717v1,NZ_CP012753.1
GCF_001316565.3_ASM131656v3,NZ_CP023487.1
GCF_001455995.1_MS6671.v1,NZ_LN824133.1
GCF_001456055.3_ASM145605v3,NZ_CP012987.1
GCF_001456095.3_ASM145609v3,NZ_CP012992.1
GCF_001456135.1_ASM145613v1,NZ_CP013322.1
GCF_001482345.1_ASM148234v1,NZ_CP013711.1
GCF_001521895.1_ASM152189v1,NZ_CP014004.1
GCF_001529935.1_ASM152993v1,NZ_CP014010.1
GCF_001530015.1_ASM153001v1,NZ_CP014008.1
GCF_001548315.1_ASM154831v1,NZ_AP014950.1
GCF_001611055.1_ASM161105v1,NZ_CP012743.1
GCF_001611095.1_ASM161109v1,NZ_CP012744.1
GCF_001644765.1_ASM164476v1,NZ_CP015500.1
GCF_001646625.1_ASM164662v1,NZ_CP015753.1
GCF_001648215.1_ASM164821v1,NZ_CP014755.1
GCF_001663195.1_ASM166319v1,NZ_CP015990.1
GCF_001663295.1_ASM166329v1,NZ_CP014762.1
GCF_001663435.1_ASM166343v1,NZ_CP015025.1
GCF_001663455.1_ASM166345v1,NZ_CP015130.1
GCF_001675125.1_ASM167512v1,NZ_CP014647.1
GCF_001676825.1_ASM167682v1,NZ_CP016159.1
GCF_001699105.2_ASM169910v2,NZ_CP052761.1
GCF_001701425.2_ASM170142v2,NZ_CP027042.1
GCF_001701835.2_ASM170183v2,NZ_CP027036.1
GCF_001701845.2_ASM170184v2,NZ_CP027048.1
GCF_001702045.2_ASM170204v2,NZ_CP027053.1
GCF_001704235.1_ASM170423v1,NZ_CP016811.1
GCF_001705385.1_ASM170538v1,NZ_CP015822.1
GCF_001708225.1_ASM170822v1,NZ_CP016814.1
GCF_001708245.1_ASM170824v1,NZ_CP016813.1
GCF_001709275.1_ASM170927v1,NZ_CP016923.1
GCF_001709295.1_ASM170929v1,NZ_CP016926.1
GCF_001718115.2_ASM171811v2,NZ_CP089427.1
GCF_001721725.1_ASM172172v1,NZ_CP012560.1
GCF_001741545.1_ASM174154v1,NZ_CP012568.1
GCF_001741665.1_ASM174166v1,NZ_CP012561.1
GCF_001746535.1_ASM174653v1,NZ_CP012745.1
GCF_001855315.1_ASM185531v1,NZ_CP012426.1
GCF_001870165.1_ASM187016v1,NZ_CP017934.1
GCF_001885255.2_ASM188525v2,NZ_CP018140.1
GCF_001887985.4_ASM188798v4,NZ_CP026585.3
GCF_001887995.2_ASM188799v2,NZ_CP031885.1
GCF_001902195.1_ASM190219v1,NZ_CP018428.1
GCF_001902215.1_ASM190221v1,NZ_CP018427.1
GCF_001902235.1_ASM190223v1,NZ_CP018437.1
GCF_001902255.1_ASM190225v1,NZ_CP018356.1
GCF_001902335.1_ASM190233v1,NZ_CP018337.1
GCF_001902355.1_ASM190235v1,NZ_CP018364.1
GCF_001902415.1_ASM190241v1,NZ_CP018438.1
GCF_001902435.1_ASM190243v1,NZ_CP018447.1
GCF_001902475.1_ASM190247v1,NZ_CP018454.1
GCF_001902515.1_ASM190251v1,NZ_CP018450.1
GCF_001902535.1_ASM190253v1,NZ_CP018352.1
GCF_001908515.1_ASM190851v1,NZ_CP018671.1
GCF_001908595.1_ASM190859v1,NZ_CP018686.1
GCF_001908625.1_ASM190862v1,NZ_CP018701.1
GCF_001908655.1_ASM190865v1,NZ_CP018707.1
GCF_001908675.1_ASM190867v1,NZ_CP018713.1
GCF_001908695.1_ASM190869v1,NZ_CP018719.1
GCF_001908715.1_ASM190871v1,NZ_CP018676.1
GCF_001908875.1_ASM190887v1,NZ_CP018695.1
GCF_001908895.1_ASM190889v1,NZ_CP018692.1
GCF_001913175.1_ASM191317v1,NZ_CP018735.1
GCF_001922465.1_ASM192246v1,NZ_CP018816.1
GCF_001936035.1_ASM193603v1,NZ_CP015134.1
GCF_001939885.2_ASM193988v2,NZ_CP019160.1
GCF_001952835.1_ASM195283v1,NZ_CP019219.1
GCF_001952875.1_ASM195287v1,NZ_CP015382.1
GCF_001952895.1_ASM195289v1,NZ_CP015385.1
GCF_001952915.1_ASM195291v1,NZ_CP015392.1
GCF_001956965.1_ASM195696v1,NZ_CP017985.1
GCF_002055765.1_ASM205576v1,NZ_CP020061.1
GCF_002055855.1_ASM205585v1,NZ_CP020067.1
GCF_002056385.1_ASM205638v1,NZ_CP020071.1
GCF_002056475.1_ASM205647v1,NZ_CP020108.1
GCF_002113865.1_ASM211386v1,NZ_CP020901.1
GCF_002116885.1_ASM211688v1,NZ_CP015120.1
GCF_002156725.1_ASM215672v1,NZ_CP020837.1
GCF_002156745.1_ASM215674v1,NZ_CP020841.1
GCF_002156785.1_ASM215678v1,NZ_CP020853.1
GCF_002163895.1_ASM216389v1,NZ_CP019047.1
GCF_002164835.4_ASM216483v4,NZ_CP028542.3
GCF_002164855.2_ASM216485v2,NZ_CP031721.1
GCF_002180075.1_ASM218007v1,NZ_CP021539.1
GCF_002180155.1_ASM218015v1,NZ_CP021549.1
GCF_002180175.1_ASM218017v1,NZ_CP021685.1
GCF_002180255.1_ASM218025v1,NZ_CP021696.1
GCF_002180295.1_ASM218029v1,NZ_CP021718.1
GCF_002180315.1_ASM218031v1,NZ_CP021708.1
GCF_002192315.1_ASM219231v1,NZ_CP021740.1
GCF_002192335.1_ASM219233v1,NZ_CP021751.1
GCF_002192375.1_ASM219237v1,NZ_CP021757.1
GCF_002197225.1_ASM219722v1,NZ_CP021833.1
GCF_002197505.1_ASM219750v1,NZ_CP021859.1
GCF_002202195.1_ASM220219v1,NZ_CP021960.1
GCF_002202215.1_ASM220221v1,NZ_CP021939.1
GCF_002202235.1_ASM220223v1,NZ_CP021944.1
GCF_002202255.1_ASM220225v1,NZ_CP021950.1
GCF_002202275.1_ASM220227v1,NZ_CP021955.1
GCF_002209405.1_ASM220940v1,NZ_CP022023.1
GCF_002211905.1_ASM221190v1,NZ_CP022127.1
GCF_002243445.1_ASM224344v1,NZ_CP022573.1
GCF_002248115.2_ASM224811v3,NZ_CP041099.1
GCF_002249975.2_ASM224997v3,NZ_CP022691.2
GCF_002251875.2_ASM225187v3,NZ_CP041092.1
GCF_002257765.2_ASM225776v2,NZ_CP036361.1
GCF_002257935.4_ASM225793v4,NZ_CP028391.2
GCF_002258055.3_ASM225805v3,NZ_CP028806.2
GCF_002258145.4_ASM225814v4,NZ_CP027068.3
GCF_002269295.1_ASM226929v1,NZ_CP022882.1
GCF_002278055.1_ASM227805v1,NZ_CP022997.1
GCF_002300675.1_ASM230067v2,NZ_CP036320.1
GCF_002587165.1_ASM258716v1,NZ_CP023941.1
GCF_002587885.1_ASM258788v1,NZ_CP023946.1
GCF_002591075.1_ASM259107v1,NZ_CP023913.1
GCF_002741685.1_ASM274168v1,NZ_CP024191.1
GCF_002752775.1_ASM275277v1,NZ_CP024489.1
GCF_002752905.1_ASM275290v1,NZ_CP024496.1
GCF_002752955.1_ASM275295v1,NZ_CP024458.1
GCF_002752975.1_ASM275297v1,NZ_CP024563.1
GCF_002752995.1_ASM275299v1,NZ_CP024542.1
GCF_002753055.1_ASM275305v1,NZ_CP024521.1
GCF_002753075.1_ASM275307v1,NZ_CP024528.1
GCF_002753165.1_ASM275316v1,NZ_CP024535.1
GCF_002753355.1_ASM275335v1,NZ_CP024545.1
GCF_002753375.1_ASM275337v1,NZ_CP024548.1
GCF_002753405.1_ASM275340v1,NZ_CP024549.1
GCF_002753555.1_ASM275355v1,NZ_CP024556.1
GCF_002753605.1_ASM275360v1,NZ_CP024570.1
GCF_002761315.1_ASM276131v1,NZ_CP017994.1
GCF_002761515.1_ASM276151v1,NZ_CP018056.1
GCF_002786755.1_ASM278675v1,NZ_CP024838.1
GCF_002787755.1_ASM278775v1,NZ_CP024834.1
GCF_002811305.2_ASM281130v2,NZ_CP036371.1
GCF_002811325.3_ASM281132v3,NZ_CP028583.2
GCF_002811335.3_ASM281133v4,NZ_CP025963.2
GCF_002812365.1_ASM281236v1,NZ_CP025005.1
GCF_002812385.1_ASM281238v1,NZ_CP025008.1
GCF_002812665.1_ASM281266v1,NZ_CP025037.1
GCF_002813595.1_ASM281359v1,NZ_CP025080.1
GCF_002814015.1_ASM281401v1,NZ_CP018306.1
GCF_002833425.1_ASM283342v1,NZ_CP025143.1
GCF_002833445.1_ASM283344v1,NZ_CP025140.1
GCF_002833465.1_ASM283346v1,NZ_CP025146.1
GCF_002848545.1_ASM284854v1,NZ_CP025456.1
GCF_002848565.1_ASM284856v1,NZ_CP025466.1
GCF_002848585.1_ASM284858v1,NZ_CP025461.1
GCF_002850275.3_ASM285027v3,NZ_CP025541.3
GCF_002852365.2_ASM285236v2,NZ_CP036300.1
GCF_002852785.2_ASM285278v2,NZ_CP043357.1
GCF_002852945.3_ASM285294v3,NZ_CP028783.2
GCF_002852975.3_ASM285297v3,NZ_CP029384.2
GCF_002852995.3_ASM285299v3,NZ_CP028787.2
GCF_002853115.2_ASM285311v2,NZ_CP073285.1
GCF_002853435.3_ASM285343v3,NZ_CP028548.2
GCF_002853475.2_ASM285347v2,NZ_CP037963.1
GCF_002893825.1_ASM289382v1,NZ_CP025951.1
GCF_002903005.1_ASM290300v1,NZ_CP026177.1
GCF_002903025.1_ASM290302v1,NZ_CP026178.1
GCF_002909775.1_ASM290977v2,NZ_CP036327.1
GCF_002918585.2_ASM291858v2,NZ_CP036450.1
GCF_002935085.1_ASM293508v1,NZ_CP026392.1
GCF_002944845.1_ASM294484v1,NZ_CP026586.1
GCF_002948565.1_ASM294856v1,NZ_CP026751.1
GCF_002951555.1_ASM295155v1,NZ_CP018883.1
GCF_002951595.1_ASM295159v1,NZ_CP018885.1
GCF_002951635.1_ASM295163v1,NZ_CP014123.1
GCF_002966875.1_ASM296687v1,NZ_CP025211.1
GCF_002967795.2_ASM296779v2,NZ_CP053364.1
GCF_002968475.1_ASM296847v1,NZ_CP027146.1
GCF_002968495.1_ASM296849v1,NZ_CP027160.1
GCF_002970375.3_ASM297037v3,NZ_CP034039.1
GCF_002970895.1_ASM297089v1,NZ_CP027189.1
GCF_003006175.1_ASM300617v1,NZ_CP024429.1
GCF_003010735.1_ASM301073v1,NZ_CP027612.1
GCF_003030145.1_ASM303014v1,NZ_CP028176.1
GCF_003031325.1_ASM303132v1,NZ_CP024874.1
GCF_003031345.1_ASM303134v1,NZ_CP024916.1
GCF_003031505.1_ASM303150v1,NZ_CP020498.1
GCF_003037005.2_ASM303700v2,NZ_CP036305.1
GCF_003037325.3_ASM303732v3,NZ_CP028797.2
GCF_003037615.2_ASM303761v2,NZ_CP029388.1
GCF_003038135.2_ASM303813v2,NZ_CP043353.1
GCF_003038215.3_ASM303821v3,NZ_CP028793.2
GCF_003054385.1_ASM305438v1,NZ_CP028716.1
GCF_003069525.1_ASM306952v1,NZ_CP028932.1
GCF_003071305.1_ASM307130v1,NZ_CP028953.1
GCF_003073235.1_ASM307323v1,NZ_CP024038.1
GCF_003073315.1_ASM307331v1,NZ_CP028990.1
GCF_003073335.1_ASM307333v1,NZ_CP028994.1
GCF_003073675.1_ASM307367v1,NZ_CP029099.1
GCF_003074015.1_ASM307401v1,NZ_CP029137.1
GCF_003076555.1_ASM307655v1,NZ_CP026495.1
GCF_003181055.1_ASM318105v1,NZ_CP029582.1
GCF_003181095.1_ASM318109v1,NZ_CP029587.1
GCF_003181135.1_ASM318113v1,NZ_CP029590.1
GCF_003186535.1_ASM318653v1,NZ_CP021165.1
GCF_003194285.1_ASM319428v1,NZ_CP023249.1
GCF_003203435.1_ASM320343v1,NZ_CP023722.1
GCF_003204175.1_ASM320417v1,NZ_CP029738.1
GCF_003204465.1_ASM320446v1,NZ_CP029722.1
GCF_003261955.3_ASM326195v3,NZ_CP033396.2
GCF_003267985.1_ASM326798v1,NZ_CP022611.1
GCF_003285145.1_ASM328514v1,NZ_CP030174.1
GCF_003286975.1_ASM328697v1,NZ_CP030172.1
GCF_003286995.1_ASM328699v1,NZ_CP030269.1
GCF_003288375.1_ASM328837v1,NZ_CP030341.1
GCF_003330945.1_ASM333094v1,NZ_CP030923.1
GCF_003367555.1_ASM336755v1,NZ_CP026130.1
GCF_003408615.1_ASM340861v1,NZ_CP031577.1
GCF_003429545.1_ASM342954v1,NZ_CP029689.1
GCF_003432145.1_ASM343214v1,NZ_CP031789.1
GCF_003432165.1_ASM343216v1,NZ_CP031800.1
GCF_003432185.1_ASM343218v1,NZ_CP031808.1
GCF_003432205.1_ASM343220v1,NZ_CP031814.1
GCF_003432245.1_ASM343224v1,NZ_CP031792.1
GCF_003432265.1_ASM343226v1,NZ_CP031798.1
GCF_003432285.1_ASM343228v1,NZ_CP031795.1
GCF_003432405.1_ASM343240v1,NZ_CP031613.1
GCF_003443755.1_ASM344375v1,NZ_CP023416.1
GCF_003571525.1_ASM357152v1,NZ_CP032167.1
GCF_003571545.1_ASM357154v1,NZ_CP032178.1
GCF_003571585.1_ASM357158v1,NZ_CP032175.1
GCF_003571605.1_ASM357160v1,NZ_CP032185.1
GCF_003571645.1_ASM357164v1,NZ_CP032200.1
GCF_003571705.1_ASM357170v1,NZ_CP032207.1
GCF_003571745.1_ASM357174v1,NZ_CP032222.1
GCF_003574235.1_ASM357423v1,NZ_AP018747.1
GCF_003574255.1_ASM357425v1,NZ_AP018750.1
GCF_003574275.1_ASM357427v1,NZ_AP018753.1
GCF_003584585.1_ASM358458v1,NZ_AP018671.1
GCF_003590665.1_ASM359066v1,NZ_CP031817.1
GCF_003597695.1_ASM359769v1,NZ_CP022916.1
GCF_003597715.1_ASM359771v1,NZ_CP022922.1
GCF_003597735.1_ASM359773v1,NZ_CP022919.1
GCF_003597755.1_ASM359775v1,NZ_CP022924.1
GCF_003660185.1_ASM366018v1,NZ_CP032831.1
GCF_003660205.1_ASM366020v1,NZ_CP032833.1
GCF_003692695.1_ASM369269v1,NZ_CP028478.1
GCF_003711065.1_ASM371106v1,NZ_CP033405.1
GCF_003790485.1_ASM379048v1,NZ_CP033625.1
GCF_003812085.1_ASM381208v1,NZ_CP033756.1
GCF_003812085.1_ASM381208v1,NZ_CP033757.1
GCF_003812105.1_ASM381210v1,NZ_CP033777.1
GCF_003850165.1_ASM385016v1,NZ_CP033946.1
GCF_003855315.1_ASM385531v1,NZ_CP034045.1
GCF_003855515.1_ASM385551v1,NZ_CP034082.1
GCF_003855535.1_ASM385553v1,NZ_CP034076.1
GCF_003855555.1_ASM385555v1,NZ_CP034077.1
GCF_003856475.1_ASM385647v1,NZ_CP034123.1
GCF_003856595.1_ASM385659v1,NZ_CP023839.1
GCF_003931835.1_ASM393183v1,NZ_CP034249.1
GCF_003932915.1_ASM393291v1,NZ_CP024707.1
GCF_003934185.1_ASM393418v1,NZ_CP034281.1
GCF_003937135.2_ASM393713v2,NZ_CP078033.1
GCF_003953905.1_ASM395390v1,NZ_CP026021.1
GCF_004006035.1_ASM400603v1,NZ_CP034760.1
GCF_004010995.1_ASM401099v1,NZ_CP025576.1
GCF_004014965.1_ASM401496v1,NZ_CP025684.1
GCF_004118955.1_ASM411895v1,NZ_CP035383.1
GCF_004119955.1_ASM411995v1,NZ_CP026132.1
GCF_004119975.1_ASM411997v1,NZ_CP026136.1
GCF_004119995.1_ASM411999v1,NZ_CP026140.1
GCF_004120035.1_ASM412003v1,NZ_CP026160.1
GCF_004120055.1_ASM412005v1,NZ_CP026162.1
GCF_004120075.1_ASM412007v1,NZ_CP026145.1
GCF_004120095.1_ASM412009v1,NZ_CP026149.1
GCF_004120115.1_ASM412011v1,NZ_CP026155.1
GCF_004120135.1_ASM412013v1,NZ_CP026159.1
GCF_004120155.1_ASM412015v1,NZ_CP026164.1
GCF_004120175.1_ASM412017v1,NZ_CP026157.1
GCF_004135795.1_ASM413579v1,NZ_CP034408.1
GCF_004137665.1_ASM413766v1,NZ_CP035531.1
GCF_004141975.1_ASM414197v1,NZ_CP035540.1
GCF_004295385.1_ASM429538v1,NZ_CP036187.1
GCF_004295405.1_ASM429540v1,NZ_CP036190.1
GCF_004295605.1_ASM429560v1,NZ_CP035929.1
GCF_004319525.1_ASM431952v1,NZ_CP036335.1
GCF_004322795.1_ASM432279v1,NZ_CP036365.1
GCF_004322955.1_ASM432295v1,NZ_CP036442.1
GCF_004322995.1_ASM432299v1,NZ_CP036438.1
GCF_004332075.1_ASM433207v1,NZ_CP034778.1
GCF_004801235.1_ASM480123v1,NZ_CP031849.1
GCF_004924315.1_ASM492431v1,NZ_CP037742.1
GCF_005853785.1_ASM585378v1,NZ_CP040533.1
GCF_005854025.1_ASM585402v1,NZ_CP040545.1
GCF_005854245.1_ASM585424v1,NZ_CP040539.1
GCF_005885775.1_ASM588577v1,NZ_CP040593.1
GCF_005944305.1_ASM594430v1,NZ_CP040724.1
GCF_006304565.1_ASM630456v1,NZ_CP032163.1
GCF_006364295.1_ASM636429v1,NZ_CP040993.1
GCF_006459145.1_ASM645914v1,NZ_CP041082.1
GCF_006494895.1_ASM649489v1,NZ_CP033954.1
GCF_006494915.1_ASM649491v1,NZ_CP033960.1
GCF_006965405.1_ASM696540v3,NZ_CP041353.1
GCF_006974165.1_ASM697416v1,NZ_CP040363.1
GCF_007197815.1_ASM719781v1,NZ_CP041644.1
GCF_007421865.2_ASM742186v2,NZ_CP054403.1
GCF_007421875.2_ASM742187v2,NZ_CP054400.1
GCF_007421885.2_ASM742188v2,NZ_CP054406.1
GCF_007833555.1_ASM783355v1,NZ_CP030070.1
GCF_007833575.1_ASM783357v1,NZ_CP030072.1
GCF_007873865.1_ASM787386v1,NZ_CP041639.1
GCF_007954925.2_ASM795492v2,NZ_CP082753.1
GCF_007955015.2_ASM795501v2,NZ_CP082759.1
GCF_007955105.2_ASM795510v2,NZ_CP082765.1
GCF_008065415.1_ASM806541v1,NZ_CP041927.1
GCF_008121515.1_ASM812151v1,NZ_CP043047.1
GCF_008122285.1_ASM812228v1,NZ_CP041022.1
GCF_008369685.1_ASM836968v1,NZ_CP043562.1
GCF_008632415.1_ASM863241v1,NZ_CP043932.1
GCF_008693405.1_ASM869340v1,NZ_CP044039.1
GCF_008693425.1_ASM869342v1,NZ_CP044033.1
GCF_008693445.1_ASM869344v1,NZ_CP044047.1
GCF_008728415.1_ASM872841v1,NZ_CP044258.1
GCF_008728695.1_ASM872869v1,NZ_CP041373.1
GCF_008931345.1_ASM893134v1,NZ_CP042481.1
GCF_008931565.1_ASM893156v1,NZ_CP042520.1
GCF_009025895.1_ASM902589v1,NZ_CP045015.1
GCF_009387775.1_ASM938777v1,NZ_CP035202.1
GCF_009387815.1_ASM938781v1,NZ_CP035210.1
GCF_009387915.1_ASM938791v1,NZ_CP035196.1
GCF_009387945.1_ASM938794v1,NZ_CP035194.1
GCF_009497695.1_ASM949769v1,NZ_CP026011.1
GCF_009497735.1_ASM949773v1,NZ_CP026017.1
GCF_009497755.1_ASM949775v1,NZ_CP026023.1
GCF_009556655.1_ASM955665v1,NZ_CP045661.1
GCF_009601745.1_ASM960174v1,NZ_CP045694.1
GCF_009648995.1_ASM964899v1,NZ_CP045782.1
GCF_009660375.2_ASM966037v2,NZ_CP063011.1
GCF_009661415.2_ASM966141v2,NZ_CP062997.1
GCF_009661455.2_ASM966145v2,NZ_CP063003.1
GCF_009661485.2_ASM966148v2,NZ_CP062986.1
GCF_009661535.2_ASM966153v2,NZ_CP063019.1
GCF_009661615.2_ASM966161v2,NZ_CP063008.1
GCF_009661725.2_ASM966172v2,NZ_CP063023.1
GCF_009684575.1_ASM968457v1,NZ_CP034415.1
GCF_009720445.1_ASM972044v1,NZ_CP041946.1
GCF_009731405.1_ASM973140v1,NZ_AP021880.1
GCF_009734105.1_ASM973410v1,NZ_CP046381.1
GCF_009738595.2_ASM973859v2,NZ_CP058325.1
GCF_009755705.1_ASM975570v1,NZ_CP046612.1
GCF_009791475.1_ASM979147v1,NZ_CP046949.1
GCF_009791495.1_ASM979149v1,NZ_CP046939.1
GCF_009833945.1_ASM983394v1,NZ_CP047160.1
GCF_009834285.1_ASM983428v1,NZ_CP032240.1
GCF_009856585.1_ASM985658v1,NZ_CP047192.1
GCF_009867115.1_ASM986711v1,NZ_CP037928.1
GCF_009884395.1_ASM988439v1,NZ_CP045193.1
GCF_009884415.1_ASM988441v1,NZ_CP045674.1
GCF_009906875.1_ASM990687v1,NZ_CP047649.1
GCF_009906895.1_ASM990689v1,NZ_CP047648.1
GCF_009909305.1_ASM990930v1,NZ_CP047677.1
GCF_009909325.1_ASM990932v1,NZ_CP047675.1
GCF_009914235.1_ASM991423v1,NZ_CP040122.1
GCF_009914255.1_ASM991425v1,NZ_CP040391.1
GCF_009930975.1_ASM993097v1,NZ_CP030292.1
GCF_009930995.1_ASM993099v1,NZ_CP030296.1
GCF_009931015.1_ASM993101v1,NZ_CP030300.1
GCF_009931035.1_ASM993103v1,NZ_CP030302.1
GCF_009931055.1_ASM993105v1,NZ_CP030313.1
GCF_009931075.1_ASM993107v1,NZ_CP030311.1
GCF_009931095.1_ASM993109v1,NZ_CP030315.1
GCF_009931175.1_ASM993117v1,NZ_CP030320.1
GCF_010183645.1_ASM1018364v1,NZ_CP039808.1
GCF_010183685.1_ASM1018368v1,NZ_CP039819.1
GCF_010367305.1_ASM1036730v1,NZ_AP019665.1
GCF_010450855.1_ASM1045085v1,NZ_CP048430.1
GCF_010586985.1_ASM1058698v1,NZ_CP040861.1
GCF_011006575.1_ASM1100657v1,NZ_CP047633.1
GCF_011022255.1_ASM1102225v1,NZ_CP048933.1
GCF_011045595.1_ASM1104559v1,NZ_CP042858.1
GCF_011045775.1_ASM1104577v1,NZ_CP047336.1
GCF_011065365.1_ASM1106536v1,NZ_CP034321.1
GCF_011066505.1_ASM1106650v1,NZ_CP045263.1
GCF_011068365.1_ASM1106836v1,NZ_CP049604.1
GCF_011106605.1_ASM1110660v1,NZ_CP040028.1
GCF_011106775.1_ASM1110677v1,NZ_CP040033.1
GCF_011106795.1_ASM1110679v1,NZ_CP040038.1
GCF_011129215.1_ASM1112921v1,NZ_CP040023.1
GCF_011742055.2_ASM1174205v2,NZ_CP059468.1
GCF_011742285.2_ASM1174228v2,NZ_CP058940.1
GCF_011742415.2_ASM1174241v2,NZ_CP053771.1
GCF_011742505.2_ASM1174250v2,NZ_CP060421.1
GCF_011742515.2_ASM1174251v2,NZ_CP054170.1
GCF_011742585.2_ASM1174258v2,NZ_CP053765.1
GCF_011752495.1_ASM1175249v1,NZ_CP039524.1
GCF_011764365.2_ASM1176436v2,NZ_AP023337.1
GCF_011769725.1_ASM1176972v1,NZ_CP050360.1
GCF_011769805.1_ASM1176980v1,NZ_CP050371.1
GCF_011769825.1_ASM1176982v1,NZ_CP050376.1
GCF_012029695.2_ASM1202969v2,NZ_CP061389.1
GCF_012029895.2_ASM1202989v2,NZ_CP061380.1
GCF_012029935.2_ASM1202993v2,NZ_CP061404.1
GCF_012029945.2_ASM1202994v2,NZ_CP061396.1
GCF_012029975.2_ASM1202997v2,NZ_CP061399.1
GCF_012030545.2_ASM1203054v2,NZ_CP061385.1
GCF_012113615.1_ASM1211361v1,NZ_CP050822.1
GCF_012113635.1_ASM1211363v1,NZ_CP050826.1
GCF_012113655.1_ASM1211365v1,NZ_CP050829.1
GCF_012166915.1_ASM1216691v1,NZ_CP050834.1
GCF_012167075.1_ASM1216707v1,NZ_CP050840.1
GCF_012167215.1_ASM1216721v1,NZ_CP050843.1
GCF_012167385.1_ASM1216738v1,NZ_CP050845.1
GCF_012168575.2_ASM1216857v2,NZ_CP050858.1
GCF_012169405.1_ASM1216940v1,NZ_CP042977.1
GCF_012944055.1_ASM1294405v1,NZ_CP052036.1
GCF_013168295.1_ASM1316829v1,NZ_AP023148.1
GCF_013282295.1_ASM1328229v1,NZ_CP042882.1
GCF_013283935.1_ASM1328393v1,NZ_CP054063.1
GCF_013305305.1_ASM1330530v1,NZ_CP054268.1
GCF_013305325.1_ASM1330532v1,NZ_CP054303.1
GCF_013348885.1_ASM1334888v1,NZ_CP054762.1
GCF_013348905.1_ASM1334890v1,NZ_CP054720.1
GCF_013348925.1_ASM1334892v1,NZ_CP054756.1
GCF_013348945.1_ASM1334894v1,NZ_CP054732.1
GCF_013348965.1_ASM1334896v1,NZ_CP054726.1
GCF_013348985.1_ASM1334898v1,NZ_CP054738.1
GCF_013349005.1_ASM1334900v1,NZ_CP054744.1
GCF_013349025.1_ASM1334902v1,NZ_CP054750.1
GCF_013349045.1_ASM1334904v1,NZ_CP054768.1
GCF_013349065.1_ASM1334906v1,NZ_CP054774.1
GCF_013349085.1_ASM1334908v1,NZ_CP054780.1
GCF_013376535.2_ASM1337653v2,NZ_CP051159.1
GCF_013376555.1_ASM1337655v1,NZ_CP051160.1
GCF_013376595.1_ASM1337659v1,NZ_CP051161.1
GCF_013378155.1_ASM1337815v1,NZ_CP039936.1
GCF_013378175.1_ASM1337817v1,NZ_CP039939.1
GCF_013378195.1_ASM1337819v1,NZ_CP039942.1
GCF_013378215.1_ASM1337821v1,NZ_CP039945.1
GCF_013378235.1_ASM1337823v1,NZ_CP039948.1
GCF_013378255.1_ASM1337825v1,NZ_CP039951.1
GCF_013378275.1_ASM1337827v1,NZ_CP039954.1
GCF_013378295.1_ASM1337829v1,NZ_CP039957.1
GCF_013378315.1_ASM1337831v1,NZ_CP039960.1
GCF_013407605.1_ASM1340760v1,NZ_CP042309.1
GCF_013407715.1_ASM1340771v1,NZ_CP042310.1
GCF_013407825.1_ASM1340782v1,NZ_CP042311.1
GCF_013408255.1_ASM1340825v1,NZ_CP042314.1
GCF_013408385.1_ASM1340838v1,NZ_CP042315.1
GCF_013408625.1_ASM1340862v1,NZ_CP042317.1
GCF_013408755.1_ASM1340875v1,NZ_CP042318.1
GCF_013409055.1_ASM1340905v1,NZ_CP042320.1
GCF_013409165.1_ASM1340916v1,NZ_CP042321.1
GCF_013416035.1_ASM1341603v1,NZ_CP049716.1
GCF_013416055.1_ASM1341605v1,NZ_CP049719.1
GCF_013416085.1_ASM1341608v1,NZ_CP049947.1
GCF_013416105.1_ASM1341610v1,NZ_CP049950.1
GCF_013416125.1_ASM1341612v1,NZ_CP049953.1
GCF_013423825.1_ASM1342382v1,NZ_CP058960.1
GCF_013426775.1_ASM1342677v1,NZ_AP023264.1
GCF_013611495.1_ASM1361149v1,NZ_CP055509.1
GCF_013694405.1_ASM1369440v1,NZ_CP059312.1
GCF_013694425.1_ASM1369442v1,NZ_CP059317.1
GCF_013704985.1_ASM1370498v1,NZ_CP055451.1
GCF_013724605.1_ASM1372460v1,NZ_CP056222.1
GCF_013729075.1_ASM1372907v1,NZ_CP056275.1
GCF_013730675.1_ASM1373067v1,NZ_CP056297.1
GCF_013731305.1_ASM1373130v1,NZ_CP056301.1
GCF_013731735.1_ASM1373173v1,NZ_CP056307.1
GCF_013734035.1_ASM1373403v1,NZ_CP056372.1
GCF_013735155.1_ASM1373515v1,NZ_CP056385.1
GCF_013735895.1_ASM1373589v1,NZ_CP056425.1
GCF_013736155.1_ASM1373615v1,NZ_CP056432.1
GCF_013737695.1_ASM1373769v1,NZ_CP056530.1
GCF_013745295.1_ASM1374529v1,NZ_CP056329.1
GCF_013782105.1_ASM1378210v1,NZ_CP056191.1
GCF_013783245.1_ASM1378324v1,NZ_CP056216.1
GCF_013791265.1_ASM1379126v1,NZ_CP056830.1
GCF_013792545.1_ASM1379254v1,NZ_CP056854.1
GCF_013796245.1_ASM1379624v1,NZ_CP056878.1
GCF_013796485.1_ASM1379648v1,NZ_CP056883.1
GCF_013805705.1_ASM1380570v1,NZ_CP057034.1
GCF_013811445.1_ASM1381144v1,NZ_CP057066.1
GCF_013811845.1_ASM1381184v1,NZ_CP057069.1
GCF_013813035.1_ASM1381303v1,NZ_CP057099.1
GCF_013826045.1_ASM1382604v1,NZ_CP057313.1
GCF_013834745.1_ASM1383474v1,NZ_CP057459.1
GCF_013895695.1_ASM1389569v1,NZ_CP057722.1
GCF_014041505.2_ASM1404150v2,NZ_CP066534.1
GCF_014041645.2_ASM1404164v2,NZ_CP066528.1
GCF_014041735.2_ASM1404173v2,NZ_CP066523.1
GCF_014041845.2_ASM1404184v2,NZ_CP066517.1
GCF_014123345.1_ASM1412334v1,NZ_CP059889.1
GCF_014168575.1_ASM1416857v1,NZ_AP021909.1
GCF_014168655.1_ASM1416865v1,NZ_AP021929.1
GCF_014169335.1_ASM1416933v1,NZ_AP022139.1
GCF_014170015.1_ASM1417001v1,NZ_CP054285.1
GCF_014170935.1_ASM1417093v1,NZ_AP022078.1
GCF_014189335.1_ASM1418933v1,NZ_CP047271.1
GCF_014304835.1_ASM1430483v1,NZ_CP060281.1
GCF_014361115.1_ASM1436111v1,NZ_CP060744.1
GCF_014490685.2_ASM1449068v2,NZ_CP072905.1
GCF_014495765.1_ASM1449576v1,NZ_CP061053.1
GCF_014495785.1_ASM1449578v1,NZ_CP061062.1
GCF_014524525.1_ASM1452452v1,NZ_CP053035.1
GCF_014725775.1_ASM1472577v1,NZ_CP061350.1
GCF_014764345.1_ASM1476434v1,NZ_CP061700.1
GCF_014788765.1_ASM1478876v1,NZ_CP061832.1
GCF_014826045.1_ASM1482604v1,NZ_CP060049.1
GCF_014840955.1_ASM1484095v1,NZ_CP061842.1
GCF_014854815.1_ASM1485481v1,NZ_CP031934.1
GCF_014883955.1_ASM1488395v1,NZ_CP062792.1
GCF_014905815.1_ASM1490581v1,NZ_AP023453.1
GCF_014961485.1_ASM1496148v1,NZ_CP063147.1
GCF_015022235.1_ASM1502223v2,NZ_CP066543.1
GCF_015024285.2_ASM1502428v2,NZ_CP065034.1
GCF_015074925.1_ASM1507492v1,NZ_CP063277.1
GCF_015138775.1_ASM1513877v1,NZ_AP022527.1
GCF_015219805.1_ASM1521980v1,NZ_CP063215.1
GCF_015238555.1_ASM1523855v1,NZ_CP063747.1
GCF_015238655.1_ASM1523865v1,NZ_CP050336.1
GCF_015238895.1_ASM1523889v1,NZ_CP050342.1
GCF_015239135.1_ASM1523913v1,NZ_CP050348.1
GCF_015239295.1_ASM1523929v1,NZ_CP050354.1
GCF_015243235.1_ASM1524323v1,NZ_CP063759.1
GCF_015277755.1_ASM1527775v1,NZ_CP063833.1
GCF_015277915.1_ASM1527791v1,NZ_CP063858.1
GCF_015277935.1_ASM1527793v1,NZ_CP063856.1
GCF_015277955.1_ASM1527795v1,NZ_CP063851.1
GCF_015277975.1_ASM1527797v1,NZ_CP063863.1
GCF_015277995.1_ASM1527799v1,NZ_CP063865.1
GCF_015278055.1_ASM1527805v1,NZ_CP063871.1
GCF_015278095.1_ASM1527809v1,NZ_CP063881.1
GCF_015283665.1_ASM1528366v1,NZ_CP063904.1
GCF_015283885.1_ASM1528388v1,NZ_CP063885.1
GCF_015284665.1_ASM1528466v1,NZ_CP063890.1
GCF_015284925.1_ASM1528492v1,NZ_CP063927.1
GCF_015285145.1_ASM1528514v1,NZ_CP063930.1
GCF_015286225.1_ASM1528622v1,NZ_CP063906.1
GCF_015286445.1_ASM1528644v1,NZ_CP063908.1
GCF_015287605.1_ASM1528760v1,NZ_CP063913.1
GCF_015288205.1_ASM1528820v1,NZ_CP063919.1
GCF_015288605.1_ASM1528860v1,NZ_CP063922.1
GCF_015289145.1_ASM1528914v1,NZ_CP063925.1
GCF_015289545.1_ASM1528954v1,NZ_CP063934.1
GCF_015289765.1_ASM1528976v1,NZ_CP063943.1
GCF_015289985.1_ASM1528998v1,NZ_CP063939.1
GCF_015290145.1_ASM1529014v1,NZ_CP063936.1
GCF_015290925.1_ASM1529092v1,NZ_CP063945.1
GCF_015290985.1_ASM1529098v1,NZ_CP028850.1
GCF_015338385.1_ASM1533838v1,NZ_CP064129.1
GCF_015353095.1_ASM1535309v1,NZ_CP064174.1
GCF_015355835.1_ASM1535583v1,NZ_CP064205.1
GCF_015355855.1_ASM1535585v1,NZ_CP064208.1
GCF_015355875.1_ASM1535587v1,NZ_CP064258.1
GCF_015355895.1_ASM1535589v1,NZ_CP064211.1
GCF_015355915.1_ASM1535591v1,NZ_CP064223.1
GCF_015355935.1_ASM1535593v1,NZ_CP064217.1
GCF_015355955.1_ASM1535595v1,NZ_CP064229.1
GCF_015355975.1_ASM1535597v1,NZ_CP064232.1
GCF_015355995.1_ASM1535599v1,NZ_CP064235.1
GCF_015356015.1_ASM1535601v1,NZ_CP064241.1
GCF_015356035.1_ASM1535603v1,NZ_CP064246.1
GCF_015356055.1_ASM1535605v1,NZ_CP064252.1
GCF_015694065.1_ASM1569406v1,NZ_CP065172.1
GCF_015694085.1_ASM1569408v1,NZ_CP065167.1
GCF_015774895.1_ASM1577489v1,NZ_CP065341.1
GCF_015774955.1_ASM1577495v1,NZ_CP065347.1
GCF_015775135.1_ASM1577513v1,NZ_CP065343.1
GCF_015775275.1_ASM1577527v1,NZ_CP065351.1
GCF_015832035.1_ASM1583203v1,NZ_CP065401.1
GCF_015910145.1_ASM1591014v1,NZ_CP047700.1
GCF_015910165.1_ASM1591016v1,NZ_CP047707.1
GCF_015992265.1_ASM1599226v1,NZ_CP065444.1
GCF_015992285.1_ASM1599228v1,NZ_CP065457.1
GCF_015992305.1_ASM1599230v1,NZ_CP065460.1
GCF_015992325.1_ASM1599232v1,NZ_CP065464.1
GCF_015992345.1_ASM1599234v1,NZ_CP065436.1
GCF_015992385.1_ASM1599238v1,NZ_CP065438.1
GCF_015992405.1_ASM1599240v1,NZ_CP065441.1
GCF_015992425.1_ASM1599242v1,NZ_CP065447.1
GCF_015999625.1_ASM1599962v1,NZ_CP065554.1
GCF_016066025.1_ASM1606602v1,NZ_CP065825.1
GCF_016066295.1_ASM1606629v1,NZ_CP065831.1
GCF_016066475.1_ASM1606647v1,NZ_CP065833.1
GCF_016067835.1_ASM1606783v1,NZ_CP065453.1
GCF_016071735.1_ASM1607173v1,NZ_CP064352.1
GCF_016403065.1_ASM1640306v1,NZ_CP066249.1
GCF_016403085.1_ASM1640308v1,NZ_CP066254.1
GCF_016629585.1_ASM1662958v1,NZ_AP024173.1
GCF_016694775.1_ASM1669477v1,NZ_CP068033.1
GCF_016727425.1_ASM1672742v1,NZ_CP068139.1
GCF_016772535.1_ASM1677253v1,NZ_CP068602.1
GCF_016772555.1_ASM1677255v1,NZ_CP068610.1
GCF_016772575.1_ASM1677257v1,NZ_CP068614.1
GCF_016772595.1_ASM1677259v1,NZ_CP068618.1
GCF_016774435.1_ASM1677443v1,NZ_CP068689.1
GCF_016774455.1_ASM1677445v1,NZ_CP068684.1
GCF_016780025.1_ASM1678002v1,NZ_CP068797.1
GCF_016780145.1_ASM1678014v1,NZ_CP068798.1
GCF_016800965.1_ASM1680096v1,NZ_CP068972.1
GCF_016801375.1_ASM1680137v1,NZ_CP069046.1
GCF_016804025.1_ASM1680402v1,NZ_CP053016.1
GCF_016812055.1_ASM1681205v1,NZ_CP069170.1
GCF_016864395.1_ASM1686439v1,NZ_CP017777.1
GCF_016903115.1_ASM1690311v1,NZ_CP069828.1
GCF_016903155.1_ASM1690315v1,NZ_CP069821.1
GCF_016903195.1_ASM1690319v1,NZ_CP069847.1
GCF_016903235.1_ASM1690323v1,NZ_CP069853.1
GCF_016903255.1_ASM1690325v1,NZ_CP069861.1
GCF_016903295.1_ASM1690329v1,NZ_CP069873.1
GCF_016903395.1_ASM1690339v1,NZ_CP069907.1
GCF_016903455.1_ASM1690345v1,NZ_CP069939.1
GCF_016903475.1_ASM1690347v1,NZ_CP070172.1
GCF_016903495.1_ASM1690349v1,NZ_CP069940.1
GCF_016903515.1_ASM1690351v1,NZ_CP070177.1
GCF_016903735.1_ASM1690373v1,NZ_CP069946.1
GCF_016903755.1_ASM1690375v1,NZ_CP069961.1
GCF_016903775.1_ASM1690377v1,NZ_CP069962.1
GCF_016903795.1_ASM1690379v1,NZ_CP069968.1
GCF_016903875.1_ASM1690387v1,NZ_CP069992.1
GCF_016903895.1_ASM1690389v1,NZ_CP069994.1
GCF_016903955.1_ASM1690395v1,NZ_CP070015.1
GCF_016904035.1_ASM1690403v1,NZ_CP070037.1
GCF_016904095.1_ASM1690409v1,NZ_CP070046.1
GCF_016904275.1_ASM1690427v1,NZ_CP070087.1
GCF_016904295.1_ASM1690429v1,NZ_CP070088.1
GCF_016904315.1_ASM1690431v1,NZ_CP070092.1
GCF_016904415.1_ASM1690441v1,NZ_CP070105.1
GCF_016904595.1_ASM1690459v1,NZ_CP070158.1
GCF_016904635.1_ASM1690463v1,NZ_CP070169.1
GCF_016925215.1_ASM1692521v1,NZ_CP070410.1
GCF_016925235.1_ASM1692523v1,NZ_CP070415.1
GCF_016925275.1_ASM1692527v1,NZ_CP070425.1
GCF_016925295.1_ASM1692529v1,NZ_CP070430.1
GCF_016925315.1_ASM1692531v1,NZ_CP070435.1
GCF_016925355.1_ASM1692535v1,NZ_CP070445.1
GCF_016925375.1_ASM1692537v1,NZ_CP070449.1
GCF_016925415.1_ASM1692541v1,NZ_CP070459.1
GCF_016925435.1_ASM1692543v1,NZ_CP070464.1
GCF_016939535.1_ASM1693953v1,NZ_CP070528.1
GCF_016939675.1_ASM1693967v1,NZ_CP070564.1
GCF_016939695.1_ASM1693969v1,NZ_CP070568.1
GCF_016939755.1_ASM1693975v1,NZ_CP070579.1
GCF_016939775.1_ASM1693977v1,NZ_CP070586.1
GCF_016939815.1_ASM1693981v1,NZ_CP070598.1
GCF_016939835.1_ASM1693983v1,NZ_CP070602.1
GCF_017084505.1_ASM1708450v1,NZ_CP070898.1
GCF_017086485.1_ASM1708648v1,NZ_CP070970.1
GCF_017277455.1_ASM1727745v1,NZ_CP071150.1
GCF_017301375.1_ASM1730137v1,NZ_CP071279.1
GCF_017310305.1_ASM1731030v1,NZ_CP061948.1
GCF_017310325.1_ASM1731032v1,NZ_CP061952.1
GCF_017310345.1_ASM1731034v1,NZ_CP061957.1
GCF_017310365.1_ASM1731036v1,NZ_CP061961.1
GCF_017310385.1_ASM1731038v1,NZ_CP061965.1
GCF_017310405.1_ASM1731040v1,NZ_CP061970.1
GCF_017310425.1_ASM1731042v1,NZ_CP061975.1
GCF_017310565.1_ASM1731056v1,NZ_CP068572.1
GCF_017315205.1_ASM1731520v1,NZ_CP071324.1
GCF_017351975.1_ASM1735197v1,NZ_CP071464.1
GCF_017357925.1_ASM1735792v1,NZ_CP071385.1
GCF_017639065.1_ASM1763906v1,NZ_CP067255.1
GCF_017742895.1_ASM1774289v1,NZ_CP072422.1
GCF_017742915.1_ASM1774291v1,NZ_CP072408.1
GCF_017742935.1_ASM1774293v1,NZ_CP072413.1
GCF_017742955.1_ASM1774295v1,NZ_CP072403.1
GCF_017743095.1_ASM1774309v1,NZ_CP072492.1
GCF_017743115.1_ASM1774311v1,NZ_CP072494.1
GCF_017743135.1_ASM1774313v1,NZ_CP072496.1
GCF_017809835.1_ASM1780983v1,NZ_CP072463.1
GCF_017815715.1_ASM1781571v1,NZ_CP072653.1
GCF_017815795.1_ASM1781579v1,NZ_CP051490.1
GCF_017894285.1_ASM1789428v1,NZ_CP058358.1
GCF_017894305.1_ASM1789430v1,NZ_CP058361.1
GCF_017916195.1_ASM1791619v1,NZ_CP072825.1
GCF_017916215.1_ASM1791621v1,NZ_CP072826.1
GCF_018075085.1_ASM1807508v1,NZ_CP072949.1
GCF_018075325.1_ASM1807532v1,NZ_CP072996.1
GCF_018128445.1_ASM1812844v1,NZ_CP071080.1
GCF_018128465.1_ASM1812846v1,NZ_CP071086.1
GCF_018138305.2_ASM1813830v2,NZ_CP082791.1
GCF_018140905.1_ASM1814090v1,NZ_CP073302.1
GCF_018274525.2_ASM1827452v2,NZ_CP086664.1
GCF_018278725.1_ASM1827872v1,NZ_CP073782.1
GCF_018279185.1_ASM1827918v1,NZ_CP047595.1
GCF_018279325.1_ASM1827932v1,NZ_CP065949.1
GCF_018283505.2_ASM1828350v2,NZ_CP084397.1
GCF_018310495.1_ASM1831049v1,NZ_CP074087.1
GCF_018314115.1_ASM1831411v1,NZ_CP073906.1
GCF_018314145.1_ASM1831414v1,NZ_CP074116.1
GCF_018336835.1_ASM1833683v1,NZ_CP055294.1
GCF_018394355.1_ASM1839435v1,NZ_CP074580.1
GCF_018449045.1_ASM1844904v1,NZ_CP075256.1
GCF_018449065.1_ASM1844906v1,NZ_CP075286.1
GCF_018454365.1_ASM1845436v1,NZ_CP075316.1
GCF_018487825.1_ASM1848782v1,NZ_CP075452.1
GCF_018502565.1_ASM1850256v1,NZ_CP075548.1
GCF_018502585.1_ASM1850258v1,NZ_CP075552.1
GCF_018604345.1_ASM1860434v1,NZ_CP068015.1
GCF_018604385.1_ASM1860438v1,NZ_CP075890.1
GCF_018604765.1_ASM1860476v1,NZ_CP071819.1
GCF_018623335.1_ASM1862333v1,NZ_CP076008.1
GCF_018831545.1_ASM1883154v1,NZ_CP058226.1
GCF_018885345.1_ASM1888534v1,NZ_CP076518.1
GCF_019038575.1_ASM1903857v1,NZ_CP076863.1
GCF_019107685.1_ASM1910768v1,NZ_CP077779.1
GCF_019107705.1_ASM1910770v1,NZ_CP077773.1
GCF_019134695.1_ASM1913469v1,NZ_CP077763.1
GCF_019286375.1_ASM1928637v1,NZ_CP079115.1
GCF_019286455.1_ASM1928645v1,NZ_CP079120.1
GCF_019286515.1_ASM1928651v1,NZ_CP079131.1
GCF_019286635.1_ASM1928663v1,NZ_CP079138.1
GCF_019286695.1_ASM1928669v1,NZ_CP079145.1
GCF_019286755.1_ASM1928675v1,NZ_CP079150.1
GCF_019286855.1_ASM1928685v1,NZ_CP079155.1
GCF_019286955.1_ASM1928695v1,NZ_CP079164.1
GCF_019287035.1_ASM1928703v1,NZ_CP079172.1
GCF_019287095.1_ASM1928709v1,NZ_CP079179.1
GCF_019287195.1_ASM1928719v1,NZ_CP079186.1
GCF_019317005.1_ASM1931700v1,NZ_CP079599.1
GCF_019317025.1_ASM1931702v1,NZ_CP079606.1
GCF_019317045.1_ASM1931704v1,NZ_CP079624.1
GCF_019317065.1_ASM1931706v1,NZ_CP079617.1
GCF_019317085.1_ASM1931708v1,NZ_CP079629.1
GCF_019317105.1_ASM1931710v1,NZ_CP079634.1
GCF_019317125.1_ASM1931712v1,NZ_CP079636.1
GCF_019317145.1_ASM1931714v1,NZ_CP079642.1
GCF_019317165.1_ASM1931716v1,NZ_CP079645.1
GCF_019317185.1_ASM1931718v1,NZ_CP079655.1
GCF_019317205.1_ASM1931720v1,NZ_CP079668.1
GCF_019317225.1_ASM1931722v1,NZ_CP079673.1
GCF_019317245.1_ASM1931724v1,NZ_CP079683.1
GCF_019317265.1_ASM1931726v1,NZ_CP079692.1
GCF_019334545.1_ASM1933454v1,NZ_CP079725.1
GCF_019334625.1_ASM1933462v1,NZ_CP079762.1
GCF_019334705.1_ASM1933470v1,NZ_CP079807.1
GCF_019434255.1_ASM1943425v1,NZ_CP080309.1
GCF_019434275.1_ASM1943427v1,NZ_CP080297.1
GCF_019434295.1_ASM1943429v1,NZ_CP080303.1
GCF_019443545.1_ASM1944354v1,NZ_CP080353.1
GCF_019443565.1_ASM1944356v1,NZ_CP080346.1
GCF_019443585.1_ASM1944358v1,NZ_CP080362.1
GCF_019444195.1_ASM1944419v1,NZ_CP078122.1
GCF_019444635.1_ASM1944463v1,NZ_CP040833.1
GCF_019454345.1_ASM1945434v1,NZ_CP067060.1
GCF_019455345.1_ASM1945534v1,NZ_CP059295.1
GCF_019702965.1_ASM1970296v1,NZ_AP024750.1
GCF_019702985.1_ASM1970298v1,NZ_AP024753.1
GCF_019703005.1_ASM1970300v1,NZ_AP024756.1
GCF_019703025.1_ASM1970302v1,NZ_AP024760.1
GCF_019703045.1_ASM1970304v1,NZ_AP024763.1
GCF_019703065.1_ASM1970306v1,NZ_AP024766.1
GCF_019703085.1_ASM1970308v1,NZ_AP024769.1
GCF_019703105.1_ASM1970310v1,NZ_AP024772.1
GCF_019703125.1_ASM1970312v1,NZ_AP024775.1
GCF_019703145.1_ASM1970314v1,NZ_AP024778.1
GCF_019703165.1_ASM1970316v1,NZ_AP024781.1
GCF_019703185.1_ASM1970318v1,NZ_AP024784.1
GCF_019703205.1_ASM1970320v1,NZ_AP024788.1
GCF_019703225.1_ASM1970322v1,NZ_AP024792.1
GCF_019703245.1_ASM1970324v1,NZ_AP024795.1
GCF_019793595.1_ASM1979359v1,NZ_CP081820.1
GCF_019797985.1_ASM1979798v1,NZ_CP073627.1
GCF_019798005.1_ASM1979800v1,NZ_CP073783.1
GCF_019798025.1_ASM1979802v1,NZ_CP073788.1
GCF_019798185.1_ASM1979818v1,NZ_CP073791.1
GCF_019823765.1_ASM1982376v1,NZ_CP082001.1
GCF_019823785.1_ASM1982378v1,NZ_CP082005.1
GCF_019823805.1_ASM1982380v1,NZ_CP082010.1
GCF_019823835.1_ASM1982383v1,NZ_CP082019.1
GCF_019823855.1_ASM1982385v1,NZ_CP082014.1
GCF_019823875.1_ASM1982387v1,NZ_CP082032.1
GCF_019823895.1_ASM1982389v1,NZ_CP082029.1
GCF_019823915.1_ASM1982391v1,NZ_CP082041.1
GCF_019823935.1_ASM1982393v1,NZ_CP082024.1
GCF_019823955.1_ASM1982395v1,NZ_CP082037.1
GCF_019880265.1_ASM1988026v1,NZ_CP082290.1
GCF_019900305.1_ASM1990030v1,NZ_CP081894.1
GCF_019900325.1_ASM1990032v1,NZ_CP081896.1
GCF_019900345.1_ASM1990034v1,NZ_CP081897.1
GCF_019900745.2_ASM1990074v2,NZ_CP081889.1
GCF_019900765.2_ASM1990076v2,NZ_CP081890.1
GCF_019900785.1_ASM1990078v1,NZ_CP081891.1
GCF_019900805.1_ASM1990080v1,NZ_CP081892.1
GCF_019915305.1_ASM1991530v1,NZ_CP082805.1
GCF_019915325.1_ASM1991532v1,NZ_CP082796.1
GCF_019915345.1_ASM1991534v1,NZ_CP082799.1
GCF_020023465.1_ASM2002346v1,NZ_CP072460.1
GCF_020080125.1_ASM2008012v1,NZ_CP083443.1
GCF_020080145.1_ASM2008014v1,NZ_CP083445.1
GCF_020149785.1_ASM2014978v1,NZ_CP083796.1
GCF_020149825.1_ASM2014982v1,NZ_CP083784.1
GCF_020149875.1_ASM2014987v1,NZ_CP083775.1
GCF_020149895.1_ASM2014989v1,NZ_CP083768.1
GCF_020172745.1_ASM2017274v1,NZ_CP072456.1
GCF_020215625.1_ASM2021562v1,NZ_CP084044.1
GCF_020221715.1_ASM2022171v1,NZ_CP084168.1
GCF_020405265.1_ASM2040526v1,NZ_CP084492.1
GCF_020405285.1_ASM2040528v1,NZ_CP084497.1
GCF_020459305.1_ASM2045930v1,NZ_CP084103.1
GCF_020520185.1_ASM2052018v1,NZ_CP084705.1
GCF_020525485.1_ASM2052548v1,NZ_CP084866.1
GCF_020525505.1_ASM2052550v1,NZ_CP084859.1
GCF_020525645.1_ASM2052564v1,NZ_CP084856.1
GCF_020525845.1_ASM2052584v1,NZ_CP084860.1
GCF_020525865.1_ASM2052586v1,NZ_CP084823.1
GCF_020525885.1_ASM2052588v1,NZ_CP084868.1
GCF_020525905.1_ASM2052590v1,NZ_CP084825.1
GCF_020525945.1_ASM2052594v1,NZ_CP084829.1
GCF_020525965.1_ASM2052596v1,NZ_CP084830.1
GCF_020525985.1_ASM2052598v1,NZ_CP084843.1
GCF_020526005.1_ASM2052600v1,NZ_CP084852.1
GCF_020526025.1_ASM2052602v1,NZ_CP084871.1
GCF_020526045.1_ASM2052604v1,NZ_CP084873.1
GCF_020526065.1_ASM2052606v1,NZ_CP084870.1
GCF_020535145.1_ASM2053514v1,NZ_CP084986.1
GCF_020641015.1_ASM2064101v1,NZ_CP085478.1
GCF_020695545.1_ASM2069554v1,NZ_CP085729.1
GCF_020695665.1_ASM2069566v1,NZ_CP085740.1
GCF_020736285.1_ASM2073628v1,NZ_CP085889.1
GCF_020808985.1_ASM2080898v1,NZ_CP086285.1
GCF_020906545.1_ASM2090654v1,NZ_CP086724.1
GCF_020911785.1_ASM2091178v1,NZ_CP087122.1
GCF_020911805.1_ASM2091180v1,NZ_CP087123.1
GCF_020990405.1_ASM2099040v1,NZ_CP087669.1
GCF_020991145.1_ASM2099114v1,NZ_CP087706.1
GCF_021057265.1_ASM2105726v1,NZ_CP084984.1
GCF_021135615.1_ASM2113561v1,NZ_CP082967.1
GCF_021137615.1_ASM2113761v1,NZ_CP082975.1
GCF_021137635.1_ASM2113763v1,NZ_CP082978.1
GCF_021137655.1_ASM2113765v1,NZ_CP082985.1
GCF_021137675.1_ASM2113767v1,NZ_CP082988.1
GCF_021137695.1_ASM2113769v1,NZ_CP082995.1
GCF_021137715.1_ASM2113771v1,NZ_CP083000.1
GCF_021137735.1_ASM2113773v1,NZ_CP083007.1
GCF_021137755.1_ASM2113775v1,NZ_CP083011.1
GCF_021137775.1_ASM2113777v1,NZ_CP083016.1
GCF_021137795.1_ASM2113779v1,NZ_CP083021.1
GCF_021137815.1_ASM2113781v1,NZ_CP083026.1
GCF_021137835.1_ASM2113783v1,NZ_CP083032.1
GCF_021137855.1_ASM2113785v1,NZ_CP083036.1
GCF_021137875.1_ASM2113787v1,NZ_CP083043.1
GCF_021137895.1_ASM2113789v1,NZ_CP083047.1
GCF_021137915.1_ASM2113791v1,NZ_CP083051.1
GCF_021137935.1_ASM2113793v1,NZ_CP083055.1
GCF_021137955.1_ASM2113795v1,NZ_CP083063.1
GCF_021137975.1_ASM2113797v1,NZ_CP083066.1
GCF_021138035.1_ASM2113803v1,NZ_CP083070.1
GCF_021138155.1_ASM2113815v1,NZ_CP083075.1
GCF_021166055.1_ASM2116605v1,NZ_CP088982.1
GCF_021166075.1_ASM2116607v1,NZ_CP088985.1
GCF_021166095.1_ASM2116609v1,NZ_CP088988.1
GCF_021166115.1_ASM2116611v1,NZ_CP088991.1
GCF_021166135.1_ASM2116613v1,NZ_CP089001.1
GCF_021166155.1_ASM2116615v1,NZ_CP088997.1
GCF_021166175.1_ASM2116617v1,NZ_CP089012.1
GCF_021166195.1_ASM2116619v1,NZ_CP089014.1
GCF_021166215.1_ASM2116621v1,NZ_CP089021.1
GCF_021166235.1_ASM2116623v1,NZ_CP089024.1
GCF_021172125.1_ASM2117212v1,NZ_CP089097.1
GCF_021228815.1_ASM2122881v1,NZ_CP089383.1
GCF_021249265.1_ASM2124926v1,NZ_CP089598.1
GCF_021389995.1_ASM2138999v1,NZ_CP089989.1
GCF_021390015.1_ASM2139001v1,NZ_CP089986.1
GCF_021397585.1_ASM2139758v1,NZ_CP090126.1
GCF_021397755.1_ASM2139775v1,NZ_CP090242.1
GCF_021398155.1_ASM2139815v1,NZ_CP090203.1
GCF_021398445.1_ASM2139844v1,NZ_CP080584.1
GCF_021431985.1_ASM2143198v1,NZ_CP090398.1
GCF_021432005.1_ASM2143200v1,NZ_CP090397.1
GCF_021432105.1_ASM2143210v1,NZ_CP090389.1
GCF_021432125.1_ASM2143212v1,NZ_CP090393.1
GCF_021441845.1_ASM2144184v1,NZ_CP090429.1
GCF_021442005.1_ASM2144200v1,NZ_CP090432.1
GCF_021442045.1_ASM2144204v1,NZ_CP090468.1
GCF_021442065.1_ASM2144206v1,NZ_CP090462.1
GCF_021460155.1_ASM2146015v1,NZ_CP086128.1
GCF_021464465.1_ASM2146446v1,NZ_CP073351.1
GCF_021484965.1_ASM2148496v1,NZ_CP090622.1
GCF_021484985.1_ASM2148498v1,NZ_CP090623.1
GCF_021485005.1_ASM2148500v1,NZ_CP090626.1
GCF_021485025.1_ASM2148502v1,NZ_CP090629.1
GCF_021496095.1_ASM2149609v1,NZ_CP090931.1
GCF_021496545.1_ASM2149654v1,NZ_CP055293.1
GCF_021497265.1_ASM2149726v1,NZ_CP053862.1
GCF_021497485.1_ASM2149748v1,NZ_CP066151.1
GCF_021498005.1_ASM2149800v1,NZ_CP053875.1
GCF_021535085.1_ASM2153508v1,NZ_CP091061.1
GCF_021535105.1_ASM2153510v1,NZ_CP091058.1
GCF_021560095.1_ASM2156009v1,NZ_CP091068.1
GCF_021655415.1_ASM2165541v1,NZ_AP025246.1
GCF_021655435.1_ASM2165543v1,NZ_AP024568.1
GCF_021655455.1_ASM2165545v1,NZ_AP024570.1
GCF_021655475.1_ASM2165547v1,NZ_AP024572.1
GCF_021655495.1_ASM2165549v1,NZ_AP024576.1
GCF_021655515.1_ASM2165551v1,NZ_AP024579.1
GCF_021729765.1_ASM2172976v1,NZ_CP058548.1
GCF_021729785.1_ASM2172978v1,NZ_CP058544.1
GCF_021729905.1_ASM2172990v1,NZ_CP063992.1
GCF_021729925.1_ASM2172992v1,NZ_CP063878.1
GCF_021768325.1_ASM2176832v1,NZ_CP082154.1
GCF_021899575.1_ASM2189957v1,NZ_CP091582.1
GCF_021899615.1_ASM2189961v1,NZ_CP091594.1
GCF_021899755.1_ASM2189975v1,NZ_CP091601.1
GCF_021952745.1_ASM2195274v1,NZ_CP085863.1
GCF_021952765.1_ASM2195276v1,NZ_CP085866.1
GCF_022009655.1_ASM2200965v1,NZ_CP091650.1
GCF_022059905.1_ASM2205990v1,NZ_CP091846.1
GCF_022213405.2_ASM2221340v2,NZ_CP091992.1
GCF_022213425.1_ASM2221342v1,NZ_CP091978.1
GCF_022353525.1_ASM2235352v1,NZ_CP055162.1
GCF_022353585.1_ASM2235358v1,NZ_CP055174.1
GCF_022353645.1_ASM2235364v1,NZ_CP054967.1
GCF_022353665.1_ASM2235366v1,NZ_CP054972.1
GCF_022353705.1_ASM2235370v1,NZ_CP054984.1
GCF_022353765.1_ASM2235376v1,NZ_CP054997.1
GCF_022353805.1_ASM2235380v1,NZ_CP055003.1
GCF_022353825.1_ASM2235382v1,NZ_CP055005.1
GCF_022353985.1_ASM2235398v1,NZ_CP055033.1
GCF_022354105.1_ASM2235410v1,NZ_CP055057.1
GCF_022354125.1_ASM2235412v1,NZ_CP055061.1
GCF_022354165.1_ASM2235416v1,NZ_CP055066.1
GCF_022354285.1_ASM2235428v1,NZ_CP055186.1
GCF_022354365.1_ASM2235436v1,NZ_CP055210.1
GCF_022354525.1_ASM2235452v1,NZ_CP092336.1
GCF_022354545.1_ASM2235454v1,NZ_CP055087.1
GCF_022354625.1_ASM2235462v1,NZ_CP055096.1
GCF_022354665.1_ASM2235466v1,NZ_CP055106.1
GCF_022354725.1_ASM2235472v1,NZ_CP055119.1
GCF_022369815.1_ASM2236981v1,NZ_CP070890.1
GCF_022369925.1_ASM2236992v1,NZ_CP071027.1
GCF_022453565.1_ASM2245356v1,NZ_CP092648.1
GCF_022453645.1_ASM2245364v1,NZ_CP092656.1
GCF_022492855.1_ASM2249285v1,NZ_CP092753.1
GCF_022492875.1_ASM2249287v1,NZ_CP092759.1
GCF_022492895.1_ASM2249289v1,NZ_CP092765.1
GCF_022493975.1_ASM2249397v1,NZ_CP058857.1
GCF_022494195.1_ASM2249419v1,NZ_CP058866.1
GCF_022494215.1_ASM2249421v1,NZ_CP058869.1
GCF_022494255.1_ASM2249425v1,NZ_CP058743.1
GCF_022494375.1_ASM2249437v1,NZ_CP058752.1
GCF_022494395.1_ASM2249439v1,NZ_CP058758.1
GCF_022533505.1_ASM2253350v1,NZ_CP092786.1
GCF_022533525.1_ASM2253352v1,NZ_CP092793.1
GCF_022539425.1_ASM2253942v1,NZ_CP092901.1
GCF_022558365.1_ASM2255836v1,NZ_CP073002.1
GCF_022559765.1_ASM2255976v1,NZ_CP088120.1
GCF_022559785.1_ASM2255978v1,NZ_CP088126.1
GCF_022570755.1_ASM2257075v1,NZ_CP093151.1
GCF_022577075.1_ASM2257707v1,NZ_CP084241.1
GCF_022592575.1_ASM2259257v1,NZ_CP079781.1
GCF_022592735.1_ASM2259273v1,NZ_CP091048.1
GCF_022699305.1_ASM2269930v1,NZ_CP093852.1
GCF_022699325.1_ASM2269932v1,NZ_CP093856.1
GCF_022699345.1_ASM2269934v1,NZ_CP093854.1
GCF_022701055.1_ASM2270105v1,NZ_CP069203.1
GCF_022701075.1_ASM2270107v1,NZ_CP069365.1
GCF_022749215.1_ASM2274921v1,NZ_CP094227.1
GCF_022749475.1_ASM2274947v1,NZ_CP094237.1
GCF_022759625.1_ASM2275962v1,NZ_CP086464.1
GCF_022759645.1_ASM2275964v1,NZ_CP086461.1
GCF_022759665.1_ASM2275966v1,NZ_CP086458.1
GCF_022759685.1_ASM2275968v1,NZ_CP086455.1
GCF_022759705.1_ASM2275970v1,NZ_CP086467.1
GCF_022759925.1_ASM2275992v1,NZ_CP086439.1
GCF_022759945.1_ASM2275994v1,NZ_CP086431.1
GCF_022759965.1_ASM2275996v1,NZ_CP086423.1
GCF_022759985.1_ASM2275998v1,NZ_CP086416.1
GCF_022760005.1_ASM2276000v1,NZ_CP086447.1
GCF_022809875.1_ASM2280987v1,NZ_CP094479.1
GCF_900323945.1_CNR48,NZ_LS399318.1
GCF_900497045.1_ASM90049704v1,NZ_LR025088.1
GCF_900497055.1_KP920,NZ_LR025092.1
GCF_900497475.1_ASM90049747v1,NZ_LR025099.1
GCF_900622605.1_AJ218,NZ_LR130541.1
GCF_900622645.1_KPC2,NZ_LR130548.1
GCF_900635125.1_36252_B01,NZ_LR133964.1
GCF_900635995.1_38273_C01,NZ_LR134210.1
GCF_900635995.1_38273_C01,NZ_LR134213.1
GCF_900636455.1_42166_D01,NZ_LR134276.1
GCF_900636455.1_42166_D01,NZ_LR134280.1
GCF_901421925.1_38656_F01,NZ_LR588408.1
GCF_901422065.1_40345_F01,NZ_LR588412.1
GCF_902723695.1_Kpn154,NZ_LR745042.1
GCF_902723705.1_Kpn2166,NZ_LR745045.1
GCF_902827215.1_SB5881,NZ_LR792628.1
GCF_904863055.1_INF022,NZ_LR890209.1
GCF_904863075.1_INF334,NZ_LR890235.1
GCF_904863095.1_INF174,NZ_LR890245.1
GCF_904863115.1_INF329,NZ_LR890240.1
GCF_904863125.1_INF357,NZ_LR890217.1
GCF_904863135.1_INF310,NZ_LR890254.1
GCF_904863145.1_INF072,NZ_LR890185.1
GCF_904863195.1_INF133,NZ_LR890189.1
GCF_904863205.1_INF008,NZ_LR890202.1
GCF_904863215.1_INF277,NZ_LR890204.1
GCF_904863225.1_KSB1_6J,NZ_LR890230.1
GCF_904863245.1_INF355,NZ_LR890277.1
GCF_904863265.1_INF156,NZ_LR890286.1
GCF_904863275.1_INF188,NZ_LR890307.1
GCF_904863285.1_INF231,NZ_LR890356.1
GCF_904863295.1_KSB2_2B,NZ_LR890343.1
GCF_904863325.1_INF354,NZ_LR890369.1
GCF_904863335.1_KSB1_5B,NZ_LR890353.1
GCF_904863355.1_INF148,NZ_LR890381.1
GCF_904863365.1_INF049,NZ_LR890360.1
GCF_904863395.1_INF250,NZ_LR890374.1
GCF_904863405.1_INF215,NZ_LR890317.1
GCF_904863425.1_INF348,NZ_LR890323.1
GCF_904863435.1_KSB1_1B,NZ_LR890291.1
GCF_904864445.1_KSB1_6G,NZ_LR890457.1
GCF_904864465.1_INF298,NZ_LR890426.1
GCF_904864475.1_INF168,NZ_LR890471.1
GCF_904864505.1_INF331,NZ_LR890424.1
GCF_904864515.1_KSB2_2C,NZ_LR890391.1
GCF_904864525.1_INF350,NZ_LR890422.1
GCF_904864535.1_INF313,NZ_LR890415.1
GCF_904864545.1_KSB1_9J,NZ_LR890434.1
GCF_904864565.1_INF032,NZ_LR890456.1
GCF_904864595.1_INF333,NZ_LR890384.1
GCF_904864605.1_INF044,NZ_LR890395.1
GCF_904864625.1_INF171,NZ_LR890446.1
GCF_904864645.1_INF079,NZ_LR890464.1
GCF_904865675.1_INF358,NZ_LR890474.1
GCF_904865685.1_INF182,NZ_LR890554.1
GCF_904865695.1_INF319,NZ_LR890542.1
GCF_904865715.1_KSB1_5H,NZ_LR890500.1
GCF_904865735.1_INF361,NZ_LR890527.1
GCF_904865745.1_INF247,NZ_LR890562.1
GCF_904865755.1_INF341,NZ_LR890490.1
GCF_904865765.1_KSB2_9A,NZ_LR890564.1
GCF_904865785.1_INF142,NZ_LR890547.1
GCF_904865795.1_KSB2_10B,NZ_LR890484.1
GCF_904865805.1_INF144,NZ_LR890569.1
GCF_904865815.1_INF281,NZ_LR890515.1
GCF_904865825.1_INF018,NZ_LR890493.1
GCF_904865845.1_INF302,NZ_LR890556.1
GCF_904866195.1_INF327,NZ_LR890571.1
GCF_904866205.1_INF145,NZ_LR890583.1
GCF_904866215.1_INF359,NZ_LR890616.1
GCF_904866235.1_INF122,NZ_LR890600.1
GCF_904866255.1_INF223,NZ_LR890595.1
GCF_904866285.1_INF344,NZ_LR890640.1
GCF_904866295.1_KSB2_1C,NZ_LR890620.1
GCF_904866315.1_INF346,NZ_LR890643.1
GCF_904866325.1_INF299,NZ_LR890632.1
GCF_904866335.1_INF266,NZ_LR890648.1
GCF_904866375.1_INF242,NZ_LR890624.1
GCF_904866395.1_INF321,NZ_LR890669.1
GCF_904866405.1_INF279,NZ_LR890679.1
GCF_904866415.1_INF201,NZ_LR890686.1
GCF_904866425.1_INF065,NZ_LR890665.1
GCF_904866435.1_INF119,NZ_LR890691.1
GCF_904866445.1_INF305,NZ_LR890702.1
GCF_904866465.1_INF161,NZ_LR890719.1
GCF_904866475.1_KSB2_9B,NZ_LR890710.1
GCF_904866485.1_KSB1_1H,NZ_LR890722.1
GCF_904866505.1_INF323,NZ_LR890735.1
GCF_904866535.1_KSB1_8C,NZ_LR890751.1
GCF_904866555.1_INF102,NZ_LR890726.1
GCF_910589455.1_Kp1-VIM,NZ_OU342706.1
GCF_911728565.1_sample22_klebsiella_pneumoniae,NZ_OU453210.1
GCF_920103885.1_DJ,NZ_OV049808.1
