"isolate"	"contig_number"	"true_chromosome_occurences"	"true_plasmidome_occurences"	"true_classification"	"species"	"chromosome"	"plasmid"	"repeat_category_predicted"	"metric_classification"	"contig_length"	"log_contig_length"	"nr_chromosome_matches"	"nr_plasmid_matches"	"nr_unclassified"	"total_matches"	"chromsome_fraction"	"plasmid_fraction"	"final_classification"
"GCF_016727585.1_ASM1672758v1"	"20"	5	0	"repeat chromosome"	"S. aureus"	1	0	"repeat chromosome"	"TN"	3011	3.47871075551276	319	1	0	320	1	0	"chromosome"
"GCF_016727585.1_ASM1672758v1"	"22"	5	0	"repeat chromosome"	"S. aureus"	1	0	"repeat chromosome"	"TN"	1649	3.21722065564452	76	0	0	76	1	0	"chromosome"
"GCF_016727585.1_ASM1672758v1"	"23"	2	0	"repeat chromosome"	"S. aureus"	1	0	"repeat chromosome"	"TN"	1566	3.19479175772192	5	0	0	5	1	0	"chromosome"
"GCF_016727585.1_ASM1672758v1"	"24"	8	0	"repeat chromosome"	"S. aureus"	1	0	"repeat chromosome"	"TN"	1513	3.17983892802319	30	0	0	30	1	0	"chromosome"
"GCF_016889145.1_ASM1688914v1"	"19"	6	0	"repeat chromosome"	"S. aureus"	1	0	"repeat chromosome"	"TN"	3121	3.49429376866533	275	0	0	275	1	0	"chromosome"
"GCF_016889145.1_ASM1688914v1"	"24"	6	0	"repeat chromosome"	"S. aureus"	1	0	"repeat chromosome"	"TN"	1644	3.21590181320403	560	0	0	560	1	0	"chromosome"
"GCF_016889145.1_ASM1688914v1"	"25"	2	0	"repeat chromosome"	"S. aureus"	1	0	"repeat chromosome"	"TN"	1452	3.16196661636407	64	0	0	64	1	0	"chromosome"
"GCF_016889145.1_ASM1688914v1"	"26"	2	0	"repeat chromosome"	"S. aureus"	1	0	"repeat chromosome"	"TN"	1210	3.08278537031645	193	1	0	194	0.99	0.01	"chromosome"
"GCF_016889145.1_ASM1688914v1"	"27"	2	0	"repeat chromosome"	"S. aureus"	1	0	"repeat chromosome"	"TN"	1179	3.07151380509509	149	0	0	149	1	0	"chromosome"
"GCF_016894285.1_ASM1689428v1"	"14"	1	0	"chromosome"	"S. aureus"	1	0	"repeat chromosome"	"TN"	35043	4.54460127865114	1	0	0	1	1	0	"chromosome"
"GCF_016894285.1_ASM1689428v1"	"15"	1	0	"chromosome"	"S. aureus"	1	0	"repeat chromosome"	"TN"	21997	4.34236345480917	1	0	0	1	1	0	"chromosome"
"GCF_016894285.1_ASM1689428v1"	"16"	6	0	"repeat chromosome"	"S. aureus"	1	0	"repeat chromosome"	"TN"	2936	3.46775605124403	49	0	0	49	1	0	"chromosome"
"GCF_016894285.1_ASM1689428v1"	"18"	6	0	"repeat chromosome"	"S. aureus"	1	0	"repeat chromosome"	"TN"	1538	3.18695633546541	80	1	0	81	0.99	0.01	"chromosome"
"GCF_017088305.1_ASM1708830v1"	"12"	1	0	"chromosome"	"S. aureus"	1	0	"repeat chromosome"	"TN"	42602	4.6294299880364	1	0	0	1	1	0	"chromosome"
"GCF_017088305.1_ASM1708830v1"	"15"	5	0	"repeat chromosome"	"S. aureus"	1	0	"repeat chromosome"	"TN"	3121	3.49429376866533	275	0	0	275	1	0	"chromosome"
"GCF_017088305.1_ASM1708830v1"	"18"	6	0	"repeat chromosome"	"S. aureus"	1	0	"repeat chromosome"	"TN"	1534	3.18582535961296	80	1	0	81	0.99	0.01	"chromosome"
"GCF_017088385.1_ASM1708838v1"	"21"	6	0	"repeat chromosome"	"S. aureus"	1	0	"repeat chromosome"	"TN"	3093	3.49037992000318	197	1	0	198	0.99	0.01	"chromosome"
"GCF_017161095.1_ASM1716109v1"	"18"	6	0	"repeat chromosome"	"S. aureus"	1	0	"repeat chromosome"	"TN"	2991	3.47581641303132	77	0	0	77	1	0	"chromosome"
"GCF_017161095.1_ASM1716109v1"	"21"	6	0	"repeat chromosome"	"S. aureus"	1	0	"repeat chromosome"	"TN"	1636	3.2137832993353	90	0	0	90	1	0	"chromosome"
"GCF_017161095.1_ASM1716109v1"	"22"	5	0	"repeat chromosome"	"S. aureus"	1	0	"repeat chromosome"	"TN"	1384	3.14113609012074	141	0	0	141	1	0	"chromosome"
"GCF_018093225.1_ASM1809322v1"	"30"	1	0	"chromosome"	"S. aureus"	1	0	"repeat chromosome"	"TN"	24545	4.38996303643589	4	0	0	4	1	0	"chromosome"
"GCF_018093225.1_ASM1809322v1"	"40"	1	0	"chromosome"	"S. aureus"	1	0	"repeat chromosome"	"TN"	12112	4.083215862156	1	0	0	1	1	0	"chromosome"
"GCF_018093225.1_ASM1809322v1"	"53"	6	0	"repeat chromosome"	"S. aureus"	1	0	"repeat chromosome"	"TN"	3121	3.49429376866533	45	0	0	45	1	0	"chromosome"
"GCF_018093225.1_ASM1809322v1"	"57"	1	0	"chromosome"	"S. aureus"	1	0	"repeat chromosome"	"TN"	2238	3.34986008219233	25	0	0	25	1	0	"chromosome"
"GCF_018093225.1_ASM1809322v1"	"63"	6	0	"repeat chromosome"	"S. aureus"	1	0	"repeat chromosome"	"TN"	1615	3.20817252666712	530	0	0	530	1	0	"chromosome"
"GCF_018093225.1_ASM1809322v1"	"64"	3	0	"repeat chromosome"	"S. aureus"	1	0	"repeat chromosome"	"TN"	1535	3.18610837981321	48	0	0	48	1	0	"chromosome"
"GCF_018135565.1_ASM1813556v1"	"35"	5	0	"repeat chromosome"	"S. aureus"	1	0	"repeat chromosome"	"TN"	2960	3.47129171105894	56	0	0	56	1	0	"chromosome"
"GCF_018135565.1_ASM1813556v1"	"38"	5	0	"repeat chromosome"	"S. aureus"	1	0	"repeat chromosome"	"TN"	1622	3.21005084987514	581	0	0	581	1	0	"chromosome"
"GCF_018135565.1_ASM1813556v1"	"41"	1	0	"chromosome"	"S. aureus"	1	0	"repeat chromosome"	"TN"	1212	3.08350261983027	52	0	0	52	1	0	"chromosome"
"GCF_019653615.1_ASM1965361v1"	"53"	6	0	"repeat chromosome"	"S. aureus"	1	0	"repeat chromosome"	"TN"	3121	3.49429376866533	275	0	0	275	1	0	"chromosome"
"GCF_019653615.1_ASM1965361v1"	"60"	6	0	"repeat chromosome"	"S. aureus"	1	0	"repeat chromosome"	"TN"	1644	3.21590181320403	560	0	0	560	1	0	"chromosome"
"GCF_019653615.1_ASM1965361v1"	"61"	1	0	"chromosome"	"S. aureus"	1	0	"repeat chromosome"	"TN"	1552	3.19089171692217	0	1	0	1	0	1	"plasmid"
"GCF_019653615.1_ASM1965361v1"	"64"	13	0	"repeat chromosome"	"S. aureus"	1	0	"repeat chromosome"	"TN"	1324	3.12188798510368	85	11	0	96	0.89	0.11	"chromosome"
"GCF_019653615.1_ASM1965361v1"	"65"	3	0	"repeat chromosome"	"S. aureus"	1	0	"repeat chromosome"	"TN"	1278	3.10653085382238	1	0	0	1	1	0	"chromosome"
"GCF_019653615.1_ASM1965361v1"	"66"	2	0	"repeat chromosome"	"S. aureus"	1	0	"repeat chromosome"	"TN"	1209	3.08242630086077	2	0	0	2	1	0	"chromosome"
"GCF_019653615.1_ASM1965361v1"	"67"	2	0	"repeat chromosome"	"S. aureus"	1	0	"repeat chromosome"	"TN"	1179	3.07151380509509	2	0	0	2	1	0	"chromosome"
"GCF_019653615.1_ASM1965361v1"	"69"	9	0	"repeat chromosome"	"S. aureus"	1	0	"repeat chromosome"	"TN"	1010	3.00432137378264	4	0	0	4	1	0	"chromosome"
"GCF_022369595.1_ASM2236959v1"	"19"	6	0	"repeat chromosome"	"S. aureus"	1	0	"repeat chromosome"	"TN"	3121	3.49429376866533	275	0	0	275	1	0	"chromosome"
"GCF_022369595.1_ASM2236959v1"	"24"	6	0	"repeat chromosome"	"S. aureus"	1	0	"repeat chromosome"	"TN"	1632	3.21272015441784	569	0	0	569	1	0	"chromosome"
"GCF_022369595.1_ASM2236959v1"	"25"	2	0	"repeat chromosome"	"S. aureus"	1	0	"repeat chromosome"	"TN"	1566	3.19479175772192	63	0	0	63	1	0	"chromosome"
"GCF_022369595.1_ASM2236959v1"	"26"	2	0	"repeat chromosome"	"S. aureus"	1	0	"repeat chromosome"	"TN"	1210	3.08278537031645	193	1	0	194	0.99	0.01	"chromosome"
"GCF_022369595.1_ASM2236959v1"	"27"	2	0	"repeat chromosome"	"S. aureus"	1	0	"repeat chromosome"	"TN"	1179	3.07151380509509	149	0	0	149	1	0	"chromosome"
"GCF_022369695.1_ASM2236969v1"	"12"	1	0	"chromosome"	"S. aureus"	1	0	"repeat chromosome"	"TN"	43001	4.63347855533382	1	0	0	1	1	0	"chromosome"
"GCF_022369695.1_ASM2236969v1"	"20"	5	0	"repeat chromosome"	"S. aureus"	1	0	"repeat chromosome"	"TN"	3121	3.49429376866533	275	0	0	275	1	0	"chromosome"
"GCF_022369695.1_ASM2236969v1"	"22"	5	0	"repeat chromosome"	"S. aureus"	1	0	"repeat chromosome"	"TN"	1684	3.22634208716363	68	0	0	68	1	0	"chromosome"
"GCF_022404595.1_ASM2240459v1"	"16"	1	0	"chromosome"	"S. aureus"	1	0	"repeat chromosome"	"TN"	4415	3.64493070791359	4	0	0	4	1	0	"chromosome"
"GCF_022404595.1_ASM2240459v1"	"17"	6	0	"repeat chromosome"	"S. aureus"	1	0	"repeat chromosome"	"TN"	3121	3.49429376866533	275	0	0	275	1	0	"chromosome"
"GCF_022404595.1_ASM2240459v1"	"19"	1	0	"chromosome"	"S. aureus"	1	0	"repeat chromosome"	"TN"	2257	3.35353155907776	2	0	0	2	1	0	"chromosome"
"GCF_022404595.1_ASM2240459v1"	"22"	6	0	"repeat chromosome"	"S. aureus"	1	0	"repeat chromosome"	"TN"	1620	3.20951501454263	77	0	0	77	1	0	"chromosome"
"GCF_022404595.1_ASM2240459v1"	"23"	2	0	"repeat chromosome"	"S. aureus"	1	0	"repeat chromosome"	"TN"	1389	3.14270224573762	1	0	0	1	1	0	"chromosome"
"GCF_022404635.1_ASM2240463v1"	"13"	6	0	"repeat chromosome"	"S. aureus"	1	0	"repeat chromosome"	"TN"	3009	3.47842218774008	44	0	0	44	1	0	"chromosome"
"GCF_022404635.1_ASM2240463v1"	"14"	6	0	"repeat chromosome"	"S. aureus"	1	0	"repeat chromosome"	"TN"	1613	3.20763436738896	19	0	0	19	1	0	"chromosome"
"GCF_022404635.1_ASM2240463v1"	"15"	4	0	"repeat chromosome"	"S. aureus"	1	0	"repeat chromosome"	"TN"	1223	3.08742645703629	31	3	0	34	0.91	0.09	"chromosome"
"GCF_022404675.1_ASM2240467v1"	"13"	1	0	"chromosome"	"S. aureus"	1	0	"repeat chromosome"	"TN"	36546	4.56283984988506	11	0	0	11	1	0	"chromosome"
"GCF_022404675.1_ASM2240467v1"	"17"	1	0	"chromosome"	"S. aureus"	1	0	"repeat chromosome"	"TN"	13955	4.14472984082465	2	0	0	2	1	0	"chromosome"
"GCF_022404675.1_ASM2240467v1"	"19"	1	0	"chromosome"	"S. aureus"	1	0	"repeat chromosome"	"TN"	6229	3.79441833087414	46	0	0	46	1	0	"chromosome"
"GCF_022404675.1_ASM2240467v1"	"21"	6	0	"repeat chromosome"	"S. aureus"	1	0	"repeat chromosome"	"TN"	3121	3.49429376866533	275	0	0	275	1	0	"chromosome"
"GCF_022404675.1_ASM2240467v1"	"27"	6	0	"repeat chromosome"	"S. aureus"	1	0	"repeat chromosome"	"TN"	1644	3.21590181320403	560	0	0	560	1	0	"chromosome"
"GCF_022404675.1_ASM2240467v1"	"28"	2	0	"repeat chromosome"	"S. aureus"	1	0	"repeat chromosome"	"TN"	1210	3.08278537031645	193	1	0	194	0.99	0.01	"chromosome"
"GCF_022404675.1_ASM2240467v1"	"29"	2	0	"repeat chromosome"	"S. aureus"	1	0	"repeat chromosome"	"TN"	1179	3.07151380509509	149	0	0	149	1	0	"chromosome"
"GCF_022404695.1_ASM2240469v1"	"16"	1	0	"chromosome"	"S. aureus"	1	0	"repeat chromosome"	"TN"	4432	3.64659975172037	4	0	0	4	1	0	"chromosome"
"GCF_022404695.1_ASM2240469v1"	"17"	2	0	"repeat chromosome"	"S. aureus"	1	0	"repeat chromosome"	"TN"	3557	3.55108386518578	4	0	0	4	1	0	"chromosome"
"GCF_022404695.1_ASM2240469v1"	"18"	6	0	"repeat chromosome"	"S. aureus"	1	0	"repeat chromosome"	"TN"	3121	3.49429376866533	275	0	0	275	1	0	"chromosome"
"GCF_022404695.1_ASM2240469v1"	"20"	1	0	"chromosome"	"S. aureus"	1	0	"repeat chromosome"	"TN"	2247	3.35160307241913	2	0	0	2	1	0	"chromosome"
"GCF_022404695.1_ASM2240469v1"	"22"	2	0	"repeat chromosome"	"S. aureus"	1	0	"repeat chromosome"	"TN"	1978	3.29622628726116	5	0	0	5	1	0	"chromosome"
"GCF_022404695.1_ASM2240469v1"	"24"	6	0	"repeat chromosome"	"S. aureus"	1	0	"repeat chromosome"	"TN"	1620	3.20951501454263	530	0	0	530	1	0	"chromosome"
"GCF_022404735.1_ASM2240473v1"	"12"	6	0	"repeat chromosome"	"S. aureus"	1	0	"repeat chromosome"	"TN"	3121	3.49429376866533	275	0	0	275	1	0	"chromosome"
"GCF_022404735.1_ASM2240473v1"	"15"	6	0	"repeat chromosome"	"S. aureus"	1	0	"repeat chromosome"	"TN"	1620	3.20951501454263	77	0	0	77	1	0	"chromosome"
"GCF_022404735.1_ASM2240473v1"	"9"	1	0	"chromosome"	"S. aureus"	1	0	"repeat chromosome"	"TN"	42490	4.62828673108951	1	0	0	1	1	0	"chromosome"
"GCF_022404755.1_ASM2240475v1"	"11"	1	0	"chromosome"	"S. aureus"	1	0	"repeat chromosome"	"TN"	29253	4.46617041115788	1	0	0	1	1	0	"chromosome"
"GCF_022404755.1_ASM2240475v1"	"13"	1	0	"chromosome"	"S. aureus"	1	0	"repeat chromosome"	"TN"	7464	3.87297163073844	1	0	0	1	1	0	"chromosome"
"GCF_022404755.1_ASM2240475v1"	"14"	2	0	"repeat chromosome"	"S. aureus"	1	0	"repeat chromosome"	"TN"	7388	3.8685268867682	1	0	0	1	1	0	"chromosome"
"GCF_022404755.1_ASM2240475v1"	"16"	6	0	"repeat chromosome"	"S. aureus"	1	0	"repeat chromosome"	"TN"	3121	3.49429376866533	275	0	0	275	1	0	"chromosome"
"GCF_022404755.1_ASM2240475v1"	"18"	6	0	"repeat chromosome"	"S. aureus"	1	0	"repeat chromosome"	"TN"	1684	3.22634208716363	490	0	0	490	1	0	"chromosome"
"GCF_022405075.1_ASM2240507v1"	"30"	1	0	"chromosome"	"S. aureus"	1	0	"repeat chromosome"	"TN"	15390	4.18723861983148	1	0	0	1	1	0	"chromosome"
"GCF_022405075.1_ASM2240507v1"	"37"	2	0	"repeat chromosome"	"S. aureus"	1	0	"repeat chromosome"	"TN"	3348	3.52478544932122	1	0	0	1	1	0	"chromosome"
"GCF_022405075.1_ASM2240507v1"	"38"	6	0	"repeat chromosome"	"S. aureus"	1	0	"repeat chromosome"	"TN"	3011	3.47871075551276	279	0	0	279	1	0	"chromosome"
"GCF_022405075.1_ASM2240507v1"	"43"	6	0	"repeat chromosome"	"S. aureus"	1	0	"repeat chromosome"	"TN"	1579	3.19838213000829	575	0	0	575	1	0	"chromosome"
"GCF_022405075.1_ASM2240507v1"	"45"	1	0	"chromosome"	"S. aureus"	1	0	"repeat chromosome"	"TN"	1323	3.1215598441875	3	0	0	3	1	0	"chromosome"
"GCF_022405075.1_ASM2240507v1"	"47"	13	0	"repeat chromosome"	"S. aureus"	1	0	"repeat chromosome"	"TN"	1244	3.0948203803548	9	0	0	9	1	0	"chromosome"
"GCF_022405075.1_ASM2240507v1"	"48"	1	0	"chromosome"	"S. aureus"	1	0	"repeat chromosome"	"TN"	1068	3.02857125269254	1	0	0	1	1	0	"chromosome"
"GCF_022405145.1_ASM2240514v1"	"17"	1	0	"chromosome"	"S. aureus"	1	0	"repeat chromosome"	"TN"	18339	4.26337565050944	1	0	0	1	1	0	"chromosome"
"GCF_022405145.1_ASM2240514v1"	"19"	6	0	"repeat chromosome"	"S. aureus"	1	0	"repeat chromosome"	"TN"	3121	3.49429376866533	275	0	0	275	1	0	"chromosome"
"GCF_022405145.1_ASM2240514v1"	"21"	6	0	"repeat chromosome"	"S. aureus"	1	0	"repeat chromosome"	"TN"	1552	3.19089171692217	80	1	0	81	0.99	0.01	"chromosome"
"GCF_022405145.1_ASM2240514v1"	"22"	1	0	"chromosome"	"S. aureus"	1	0	"repeat chromosome"	"TN"	1525	3.1832698436828	6	0	0	6	1	0	"chromosome"
"GCF_022405145.1_ASM2240514v1"	"23"	2	0	"repeat chromosome"	"S. aureus"	1	0	"repeat chromosome"	"TN"	1429	3.15503222879097	15	0	0	15	1	0	"chromosome"
"GCF_022405145.1_ASM2240514v1"	"24"	2	0	"repeat chromosome"	"S. aureus"	1	0	"repeat chromosome"	"TN"	1003	3.00130093302042	1	0	0	1	1	0	"chromosome"
"GCF_022405185.1_ASM2240518v1"	"16"	6	0	"repeat chromosome"	"S. aureus"	1	0	"repeat chromosome"	"TN"	3221	3.50799072481969	102	0	0	102	1	0	"chromosome"
"GCF_022405185.1_ASM2240518v1"	"19"	6	0	"repeat chromosome"	"S. aureus"	1	0	"repeat chromosome"	"TN"	1617	3.2087100199064	97	0	0	97	1	0	"chromosome"
"GCF_022405205.1_ASM2240520v1"	"15"	6	0	"repeat chromosome"	"S. aureus"	1	0	"repeat chromosome"	"TN"	3119	3.49401537475714	245	1	0	246	1	0	"chromosome"
"GCF_022405205.1_ASM2240520v1"	"17"	6	0	"repeat chromosome"	"S. aureus"	1	0	"repeat chromosome"	"TN"	1641	3.21510858105309	558	0	0	558	1	0	"chromosome"
"GCF_022405205.1_ASM2240520v1"	"18"	6	0	"repeat chromosome"	"S. aureus"	1	0	"repeat chromosome"	"TN"	1501	3.17638069224327	141	0	0	141	1	0	"chromosome"
"GCF_022405235.1_ASM2240523v1"	"14"	1	0	"chromosome"	"S. aureus"	1	0	"repeat chromosome"	"TN"	6383	3.80502484442981	1	0	0	1	1	0	"chromosome"
"GCF_022405235.1_ASM2240523v1"	"15"	6	0	"repeat chromosome"	"S. aureus"	1	0	"repeat chromosome"	"TN"	3121	3.49429376866533	275	0	0	275	1	0	"chromosome"
"GCF_022405235.1_ASM2240523v1"	"16"	1	0	"chromosome"	"S. aureus"	1	0	"repeat chromosome"	"TN"	1989	3.29863478312444	3	0	0	3	1	0	"chromosome"
"GCF_022405235.1_ASM2240523v1"	"18"	6	0	"repeat chromosome"	"S. aureus"	1	0	"repeat chromosome"	"TN"	1620	3.20951501454263	530	0	0	530	1	0	"chromosome"
"GCF_022405235.1_ASM2240523v1"	"19"	1	0	"chromosome"	"S. aureus"	1	0	"repeat chromosome"	"TN"	1333	3.12483014941386	13	0	0	13	1	0	"chromosome"
"GCF_022405255.1_ASM2240525v1"	"13"	6	0	"repeat chromosome"	"S. aureus"	1	0	"repeat chromosome"	"TN"	3119	3.49401537475714	50	0	0	50	1	0	"chromosome"
"GCF_022405255.1_ASM2240525v1"	"15"	6	0	"repeat chromosome"	"S. aureus"	1	0	"repeat chromosome"	"TN"	1641	3.21510858105309	558	0	0	558	1	0	"chromosome"
"GCF_022405255.1_ASM2240525v1"	"16"	6	0	"repeat chromosome"	"S. aureus"	1	0	"repeat chromosome"	"TN"	1501	3.17638069224327	141	0	0	141	1	0	"chromosome"
"GCF_022405275.1_ASM2240527v1"	"13"	1	0	"chromosome"	"S. aureus"	1	0	"repeat chromosome"	"TN"	44254	4.64595253151782	1	0	0	1	1	0	"chromosome"
"GCF_022405275.1_ASM2240527v1"	"20"	6	0	"repeat chromosome"	"S. aureus"	1	0	"repeat chromosome"	"TN"	2992	3.47596158919242	52	0	0	52	1	0	"chromosome"
"GCF_022405275.1_ASM2240527v1"	"23"	2	0	"repeat chromosome"	"S. aureus"	1	0	"repeat chromosome"	"TN"	1644	3.21590181320403	75	0	0	75	1	0	"chromosome"
"GCF_022405275.1_ASM2240527v1"	"24"	6	0	"repeat chromosome"	"S. aureus"	1	0	"repeat chromosome"	"TN"	1641	3.21510858105309	558	0	0	558	1	0	"chromosome"
"GCF_022405275.1_ASM2240527v1"	"25"	8	0	"repeat chromosome"	"S. aureus"	1	0	"repeat chromosome"	"TN"	1501	3.17638069224327	141	0	0	141	1	0	"chromosome"
"GCF_022405295.1_ASM2240529v1"	"10"	6	0	"repeat chromosome"	"S. aureus"	1	0	"repeat chromosome"	"TN"	1560	3.19312459835446	586	0	0	586	1	0	"chromosome"
"GCF_022405295.1_ASM2240529v1"	"9"	6	0	"repeat chromosome"	"S. aureus"	1	0	"repeat chromosome"	"TN"	2991	3.47581641303132	399	1	0	400	1	0	"chromosome"
"GCF_022405315.1_ASM2240531v1"	"18"	6	0	"repeat chromosome"	"S. aureus"	1	0	"repeat chromosome"	"TN"	3039	3.48273070007994	55	0	0	55	1	0	"chromosome"
"GCF_022405315.1_ASM2240531v1"	"19"	6	0	"repeat chromosome"	"S. aureus"	1	0	"repeat chromosome"	"TN"	1504	3.17724783625562	584	0	0	584	1	0	"chromosome"
"GCF_022405315.1_ASM2240531v1"	"20"	2	0	"repeat chromosome"	"S. aureus"	1	0	"repeat chromosome"	"TN"	1484	3.17143390094301	14	0	0	14	1	0	"chromosome"
"GCF_022405315.1_ASM2240531v1"	"21"	5	0	"repeat chromosome"	"S. aureus"	1	0	"repeat chromosome"	"TN"	1454	3.16256440652302	14	1	0	15	0.93	0.07	"chromosome"
"GCF_022405375.1_ASM2240537v1"	"20"	6	0	"repeat chromosome"	"S. aureus"	1	0	"repeat chromosome"	"TN"	2992	3.47596158919242	52	0	0	52	1	0	"chromosome"
"GCF_022405375.1_ASM2240537v1"	"23"	2	0	"repeat chromosome"	"S. aureus"	1	0	"repeat chromosome"	"TN"	1644	3.21590181320403	75	0	0	75	1	0	"chromosome"
"GCF_022405375.1_ASM2240537v1"	"24"	6	0	"repeat chromosome"	"S. aureus"	1	0	"repeat chromosome"	"TN"	1641	3.21510858105309	558	0	0	558	1	0	"chromosome"
"GCF_022405375.1_ASM2240537v1"	"25"	8	0	"repeat chromosome"	"S. aureus"	1	0	"repeat chromosome"	"TN"	1450	3.16136800223497	142	0	0	142	1	0	"chromosome"
"GCF_022405395.1_ASM2240539v1"	"18"	6	0	"repeat chromosome"	"S. aureus"	1	0	"repeat chromosome"	"TN"	2992	3.47596158919242	23	0	0	23	1	0	"chromosome"
"GCF_022405395.1_ASM2240539v1"	"21"	2	0	"repeat chromosome"	"S. aureus"	1	0	"repeat chromosome"	"TN"	1644	3.21590181320403	75	0	0	75	1	0	"chromosome"
"GCF_022405395.1_ASM2240539v1"	"22"	6	0	"repeat chromosome"	"S. aureus"	1	0	"repeat chromosome"	"TN"	1641	3.21510858105309	558	0	0	558	1	0	"chromosome"
"GCF_022405395.1_ASM2240539v1"	"23"	8	0	"repeat chromosome"	"S. aureus"	1	0	"repeat chromosome"	"TN"	1451	3.16166741243774	142	0	0	142	1	0	"chromosome"
"GCF_022405415.1_ASM2240541v1"	"19"	6	0	"repeat chromosome"	"S. aureus"	1	0	"repeat chromosome"	"TN"	3039	3.48273070007994	278	0	0	278	1	0	"chromosome"
"GCF_022405415.1_ASM2240541v1"	"21"	6	0	"repeat chromosome"	"S. aureus"	1	0	"repeat chromosome"	"TN"	1504	3.17724783625562	102	1	0	103	0.99	0.01	"chromosome"
"GCF_022405415.1_ASM2240541v1"	"22"	7	0	"repeat chromosome"	"S. aureus"	1	0	"repeat chromosome"	"TN"	1390	3.14301480025409	14	0	0	14	1	0	"chromosome"
"GCF_022405435.1_ASM2240543v1"	"15"	1	0	"chromosome"	"S. aureus"	1	0	"repeat chromosome"	"TN"	43621	4.63969561744405	1	0	0	1	1	0	"chromosome"
"GCF_022405435.1_ASM2240543v1"	"19"	6	0	"repeat chromosome"	"S. aureus"	1	0	"repeat chromosome"	"TN"	3135	3.49623754516674	153	0	0	153	1	0	"chromosome"
"GCF_022405435.1_ASM2240543v1"	"22"	6	0	"repeat chromosome"	"S. aureus"	1	0	"repeat chromosome"	"TN"	1649	3.21722065564452	76	0	0	76	1	0	"chromosome"
"GCF_022405435.1_ASM2240543v1"	"23"	2	0	"repeat chromosome"	"S. aureus"	1	0	"repeat chromosome"	"TN"	1566	3.19479175772192	5	0	0	5	1	0	"chromosome"
"GCF_022405435.1_ASM2240543v1"	"24"	2	0	"repeat chromosome"	"S. aureus"	1	0	"repeat chromosome"	"TN"	1056	3.02366391819779	1	0	0	1	1	0	"chromosome"
"GCF_022405455.1_ASM2240545v1"	"14"	1	0	"chromosome"	"S. aureus"	1	0	"repeat chromosome"	"TN"	26458	4.42255701211936	1	0	0	1	1	0	"chromosome"
"GCF_022405455.1_ASM2240545v1"	"17"	1	0	"chromosome"	"S. aureus"	1	0	"repeat chromosome"	"TN"	10401	4.01707509637606	1	0	0	1	1	0	"chromosome"
"GCF_022405455.1_ASM2240545v1"	"19"	6	0	"repeat chromosome"	"S. aureus"	1	0	"repeat chromosome"	"TN"	3121	3.49429376866533	50	0	0	50	1	0	"chromosome"
"GCF_022405455.1_ASM2240545v1"	"21"	2	0	"repeat chromosome"	"S. aureus"	1	0	"repeat chromosome"	"TN"	2871	3.45803319249651	1	0	0	1	1	0	"chromosome"
"GCF_022405455.1_ASM2240545v1"	"23"	6	0	"repeat chromosome"	"S. aureus"	1	0	"repeat chromosome"	"TN"	1641	3.21510858105309	558	0	0	558	1	0	"chromosome"
"GCF_022405455.1_ASM2240545v1"	"24"	6	0	"repeat chromosome"	"S. aureus"	1	0	"repeat chromosome"	"TN"	1450	3.16136800223497	142	0	0	142	1	0	"chromosome"
"GCF_022405475.1_ASM2240547v1"	"21"	1	0	"chromosome"	"S. aureus"	1	0	"repeat chromosome"	"TN"	43414	4.63762980191556	1	0	0	1	1	0	"chromosome"
"GCF_022405475.1_ASM2240547v1"	"36"	6	0	"repeat chromosome"	"S. aureus"	1	0	"repeat chromosome"	"TN"	3011	3.47871075551276	279	0	0	279	1	0	"chromosome"
"GCF_022405475.1_ASM2240547v1"	"40"	6	0	"repeat chromosome"	"S. aureus"	1	0	"repeat chromosome"	"TN"	1563	3.19395897801919	575	0	0	575	1	0	"chromosome"
"GCF_022405475.1_ASM2240547v1"	"41"	9	0	"repeat chromosome"	"S. aureus"	1	0	"repeat chromosome"	"TN"	1523	3.18269990333604	2	0	0	2	1	0	"chromosome"
"GCF_022405475.1_ASM2240547v1"	"42"	15	0	"repeat chromosome"	"S. aureus"	1	0	"repeat chromosome"	"TN"	1372	3.13735411137073	8	0	0	8	1	0	"chromosome"
"GCF_022405495.1_ASM2240549v1"	"36"	2	0	"repeat chromosome"	"S. aureus"	1	0	"repeat chromosome"	"TN"	5082	3.70603466071435	60	0	0	60	1	0	"chromosome"
"GCF_022405495.1_ASM2240549v1"	"37"	6	0	"repeat chromosome"	"S. aureus"	1	0	"repeat chromosome"	"TN"	3011	3.47871075551276	279	0	0	279	1	0	"chromosome"
"GCF_022405495.1_ASM2240549v1"	"40"	6	0	"repeat chromosome"	"S. aureus"	1	0	"repeat chromosome"	"TN"	1578	3.1981069988734	575	0	0	575	1	0	"chromosome"
"GCF_022405495.1_ASM2240549v1"	"41"	15	0	"repeat chromosome"	"S. aureus"	1	0	"repeat chromosome"	"TN"	1372	3.13735411137073	8	0	0	8	1	0	"chromosome"
"GCF_022405495.1_ASM2240549v1"	"42"	11	0	"repeat chromosome"	"S. aureus"	1	0	"repeat chromosome"	"TN"	1259	3.10002573010786	7	0	0	7	1	0	"chromosome"
"GCF_022405495.1_ASM2240549v1"	"43"	2	0	"repeat chromosome"	"S. aureus"	1	0	"repeat chromosome"	"TN"	1217	3.08529057823006	7	0	0	7	1	0	"chromosome"
"GCF_022405495.1_ASM2240549v1"	"44"	2	0	"repeat chromosome"	"S. aureus"	1	0	"repeat chromosome"	"TN"	1057	3.02407498730743	19	0	0	19	1	0	"chromosome"
"GCF_022405515.1_ASM2240551v1"	"11"	6	0	"repeat chromosome"	"S. aureus"	1	0	"repeat chromosome"	"TN"	3009	3.47842218774008	44	0	0	44	1	0	"chromosome"
"GCF_022405515.1_ASM2240551v1"	"12"	6	0	"repeat chromosome"	"S. aureus"	1	0	"repeat chromosome"	"TN"	1636	3.2137832993353	569	0	0	569	1	0	"chromosome"
"GCF_022405515.1_ASM2240551v1"	"13"	4	0	"repeat chromosome"	"S. aureus"	1	0	"repeat chromosome"	"TN"	1223	3.08742645703629	31	3	0	34	0.91	0.09	"chromosome"
"GCF_022405555.1_ASM2240555v1"	"13"	1	0	"chromosome"	"S. aureus"	1	0	"repeat chromosome"	"TN"	44225	4.64566784158176	1	0	0	1	1	0	"chromosome"
"GCF_022405555.1_ASM2240555v1"	"23"	6	0	"repeat chromosome"	"S. aureus"	1	0	"repeat chromosome"	"TN"	3121	3.49429376866533	2	0	0	2	1	0	"chromosome"
"GCF_022405555.1_ASM2240555v1"	"26"	6	0	"repeat chromosome"	"S. aureus"	1	0	"repeat chromosome"	"TN"	1641	3.21510858105309	558	0	0	558	1	0	"chromosome"
"GCF_022405555.1_ASM2240555v1"	"27"	10	0	"repeat chromosome"	"S. aureus"	1	0	"repeat chromosome"	"TN"	1451	3.16166741243774	142	0	0	142	1	0	"chromosome"
"GCF_022405575.1_ASM2240557v1"	"13"	6	0	"repeat chromosome"	"S. aureus"	1	0	"repeat chromosome"	"TN"	3025	3.48072537898849	120	0	0	120	1	0	"chromosome"
"GCF_022405575.1_ASM2240557v1"	"14"	6	0	"repeat chromosome"	"S. aureus"	1	0	"repeat chromosome"	"TN"	1684	3.22634208716363	68	0	0	68	1	0	"chromosome"
"GCF_022405595.1_ASM2240559v1"	"19"	6	0	"repeat chromosome"	"S. aureus"	1	0	"repeat chromosome"	"TN"	3121	3.49429376866533	275	0	0	275	1	0	"chromosome"
"GCF_022405595.1_ASM2240559v1"	"23"	6	0	"repeat chromosome"	"S. aureus"	1	0	"repeat chromosome"	"TN"	1644	3.21590181320403	560	0	0	560	1	0	"chromosome"
"GCF_022405595.1_ASM2240559v1"	"24"	2	0	"repeat chromosome"	"S. aureus"	1	0	"repeat chromosome"	"TN"	1210	3.08278537031645	193	1	0	194	0.99	0.01	"chromosome"
"GCF_022405595.1_ASM2240559v1"	"25"	2	0	"repeat chromosome"	"S. aureus"	1	0	"repeat chromosome"	"TN"	1179	3.07151380509509	149	0	0	149	1	0	"chromosome"
"GCF_022405615.1_ASM2240561v1"	"21"	0	1	"plasmid"	"S. aureus"	1	0	"repeat chromosome"	"FN"	43414	4.63762980191556	1	0	0	1	1	0	"chromosome"
"GCF_022405615.1_ASM2240561v1"	"34"	6	0	"repeat chromosome"	"S. aureus"	1	0	"repeat chromosome"	"TN"	2991	3.47581641303132	7	0	0	7	1	0	"chromosome"
"GCF_022405615.1_ASM2240561v1"	"38"	6	0	"repeat chromosome"	"S. aureus"	1	0	"repeat chromosome"	"TN"	1563	3.19395897801919	575	0	0	575	1	0	"chromosome"
"GCF_022405615.1_ASM2240561v1"	"39"	9	0	"repeat chromosome"	"S. aureus"	1	0	"repeat chromosome"	"TN"	1522	3.18241465243455	2	0	0	2	1	0	"chromosome"
"GCF_022405615.1_ASM2240561v1"	"40"	15	0	"repeat chromosome"	"S. aureus"	1	0	"repeat chromosome"	"TN"	1372	3.13735411137073	8	0	0	8	1	0	"chromosome"
"GCF_022405895.1_ASM2240589v1"	"16"	1	0	"chromosome"	"S. aureus"	1	0	"repeat chromosome"	"TN"	31117	4.49299771986491	1	0	0	1	1	0	"chromosome"
"GCF_022405895.1_ASM2240589v1"	"17"	1	0	"chromosome"	"S. aureus"	1	0	"repeat chromosome"	"TN"	11767	4.07066575345373	1	0	0	1	1	0	"chromosome"
"GCF_022405895.1_ASM2240589v1"	"23"	6	0	"repeat chromosome"	"S. aureus"	1	0	"repeat chromosome"	"TN"	3039	3.48273070007994	55	0	0	55	1	0	"chromosome"
"GCF_022405895.1_ASM2240589v1"	"24"	6	0	"repeat chromosome"	"S. aureus"	1	0	"repeat chromosome"	"TN"	1552	3.19089171692217	80	1	0	81	0.99	0.01	"chromosome"
"GCF_022405895.1_ASM2240589v1"	"25"	5	0	"repeat chromosome"	"S. aureus"	1	0	"repeat chromosome"	"TN"	1389	3.14270224573762	14	0	0	14	1	0	"chromosome"
