GCF_019670425.1_ASM1967042v1,.,9
GCF_015241115.1_ASM1524111v1,.,5
GCF_001833255.2_ASM183325v2,.,14
GCF_013161805.1_ASM1316180v1,.,10
GCF_021397625.1_ASM2139762v1,.,11
GCF_001972625.2_ASM197262v2,.,4
GCF_019670305.1_ASM1967030v1,.,6
GCF_014250355.1_ASM1425035v1,.,6
GCF_019670245.1_ASM1967024v1,.,2
GCF_015240995.1_ASM1524099v1,.,9
GCF_020736345.1_ASM2073634v1,.,6
GCF_016454525.1_ASM1645452v1,.,6
GCF_016454765.1_ASM1645476v1,.,6
GCF_016452065.1_ASM1645206v1,.,11
GCF_019670385.1_ASM1967038v1,.,11
GCF_016028495.1_ASM1602849v1,.,9
GCF_014334175.1_ASM1433417v1,.,8
GCF_001973785.2_ASM197378v2,.,6
GCF_022162985.1_ASM2216298v1,.,5
GCF_013415925.1_ASM1341592v1,.,9
GCF_022655645.1_ASM2265564v1,.,8
GCF_016454225.1_ASM1645422v1,.,10
GCF_019670465.1_ASM1967046v1,.,6
GCF_022533545.1_ASM2253354v1,.,18
GCF_016454425.1_ASM1645442v1,.,9
GCF_016127435.1_ASM1612743v1,.,6
GCF_022936425.1_ASM2293642v1,.,4
GCF_001713515.2_ASM171351v2,.,5
GCF_003067445.2_ASM306744v2,.,11
GCF_014858565.1_ASM1485856v1,.,6
GCF_002266205.2_ASM226620v2,.,5
GCF_022870605.1_ASM2287060v1,.,15
GCF_022936485.1_ASM2293648v1,.,2
GCF_015074885.1_ASM1507488v1,.,5
GCF_003064405.2_ASM306440v2,.,14
GCF_002265865.2_ASM226586v2,.,5
GCF_016025375.1_ASM1602537v1,.,3
GCF_019670285.1_ASM1967028v1,.,10
GCF_016454585.1_ASM1645458v1,.,7
GCF_016452165.1_ASM1645216v1,.,11
GCF_003068025.2_ASM306802v2,.,6
GCF_016454545.1_ASM1645454v1,.,5
GCF_021397675.1_ASM2139767v1,.,10
GCF_014334255.1_ASM1433425v1,.,5
GCF_001834735.2_ASM183473v2,.,7
GCF_014334235.1_ASM1433423v1,.,3
GCF_016889645.1_ASM1688964v1,.,5
GCF_020736305.1_ASM2073630v1,.,7
GCF_016026715.1_ASM1602671v1,.,8
GCF_022936365.1_ASM2293636v1,.,2
GCF_016454665.1_ASM1645466v1,.,6
GCF_015240635.1_ASM1524063v1,.,5
GCF_016454245.1_ASM1645424v1,.,8
GCF_016454725.1_ASM1645472v1,.,4
GCF_019670365.1_ASM1967036v1,.,7
GCF_016454465.1_ASM1645446v1,.,5
GCF_002507865.2_ASM250786v2,.,4
GCF_001831985.2_ASM183198v2,.,10
GCF_015074905.1_ASM1507490v1,.,5
GCF_019428465.1_ASM1942846v1,.,5
GCF_022936385.1_ASM2293638v1,.,3
GCF_006461325.2_ASM646132v2,.,17
GCF_001972545.2_ASM197254v2,.,4
GCF_016454445.1_ASM1645444v1,.,10
GCF_016127835.1_ASM1612783v1,.,4
GCF_015240855.1_ASM1524085v1,.,9
GCF_016454385.1_ASM1645438v1,.,4
GCF_016952595.1_ASM1695259v1,.,7
GCF_015159575.1_ASM1515957v1,.,4
GCF_022226915.1_ASM2222691v1,.,6
GCF_003067765.2_ASM306776v2,.,5
GCF_002507915.2_ASM250791v2,.,4
GCF_021397645.1_ASM2139764v1,.,10
GCF_016025435.1_ASM1602543v1,.,7
GCF_019670345.1_ASM1967034v1,.,11
GCF_020736325.1_ASM2073632v1,.,7
GCF_016454345.1_ASM1645434v1,.,9
GCF_013348865.1_ASM1334886v1,.,14
GCF_014334195.1_ASM1433419v1,.,5
GCF_001652385.2_ASM165238v2,.,9
GCF_016454505.1_ASM1645450v1,.,3
GCF_018340585.1_ASM1834058v1,.,6
GCF_016025415.1_ASM1602541v1,.,11
GCF_016454205.1_ASM1645420v1,.,4
GCF_003067925.2_ASM306792v2,.,16
GCF_016454325.1_ASM1645432v1,.,9
GCF_016452005.1_ASM1645200v1,.,8
GCF_001834965.2_ASM183496v2,.,17
GCF_016454365.1_ASM1645436v1,.,8
GCF_019670405.1_ASM1967040v1,.,6
GCF_006461415.2_ASM646141v2,.,4
GCF_016454265.1_ASM1645426v1,.,8
GCF_016454185.1_ASM1645418v1,.,5
GCF_016451985.1_ASM1645198v1,.,7
