"software","variable","value","species"
"RFplasmid","recall",0.81,"General"
"Centrifuge_new","recall",0.84,"General"
"Platon","recall",0.63,"General"
"plasmidEC","recall",0.79,"General"
"RFplasmid","precision",0.61,"General"
"Centrifuge_new","precision",0.85,"General"
"Platon","precision",0.59,"General"
"plasmidEC","precision",0.85,"General"
"RFplasmid","f1_score",0.7,"General"
"Centrifuge_new","f1_score",0.84,"General"
"Platon","f1_score",0.61,"General"
"plasmidEC","f1_score",0.82,"General"
