"software","FN","FP","TN","TP","recall","precision","f1_score"
"RFplasmid",324,853,21133,1350,0.81,0.61,0.7
"Centrifuge_new",274,239,21747,1400,0.84,0.85,0.84
"Platon",613,723,21263,1061,0.63,0.59,0.61
"plasmidEC",346,229,21757,1328,0.79,0.85,0.82
