"software","FN","FP","TN","TP","recall","precision","f1_score"
"RFplasmid",123,353,4990,662,0.84,0.65,0.73
"Centrifuge",107,70,5273,678,0.86,0.91,0.88
"Platon",242,110,5233,543,0.69,0.83,0.75
"plasmidEC",120,72,5271,665,0.85,0.9,0.87
