"software","variable","value","species"
"RFplasmid","recall",0.84,"General"
"Centrifuge","recall",0.86,"General"
"Platon","recall",0.69,"General"
"plasmidEC","recall",0.85,"General"
"RFplasmid","precision",0.65,"General"
"Centrifuge","precision",0.91,"General"
"Platon","precision",0.83,"General"
"plasmidEC","precision",0.9,"General"
"RFplasmid","f1_score",0.73,"General"
"Centrifuge","f1_score",0.88,"General"
"Platon","f1_score",0.75,"General"
"plasmidEC","f1_score",0.87,"General"
