"software","arg_classification","reference_id","recovered_length","true_plasmid_length","recall_length"
"RFplasmid","ARG-plasmid","NZ_AP024171.1",24391,24653,0.99
"RFplasmid","ARG-plasmid","NZ_AP024512.1",20239,20501,0.99
"RFplasmid","ARG-plasmid","NZ_CP058614.1",2473,2473,1
"RFplasmid","ARG-plasmid","NZ_CP062315.1",26024,27035,0.96
"RFplasmid","ARG-plasmid","NZ_CP062319.1",24654,24654,1
"RFplasmid","ARG-plasmid","NZ_CP062321.1",27068,27068,1
"RFplasmid","ARG-plasmid","NZ_CP062323.1",20691,20691,1
"RFplasmid","ARG-plasmid","NZ_CP062325.1",26385,27068,0.97
"RFplasmid","ARG-plasmid","NZ_CP062328.1",20730,20730,1
"RFplasmid","ARG-plasmid","NZ_CP062332.1",12863,13162,0.98
"RFplasmid","ARG-plasmid","NZ_CP062335.1",20691,20691,1
"RFplasmid","ARG-plasmid","NZ_CP062337.1",20730,20730,1
"RFplasmid","ARG-plasmid","NZ_CP062341.1",20721,20721,1
"RFplasmid","ARG-plasmid","NZ_CP062343.1",20691,20691,1
"RFplasmid","ARG-plasmid","NZ_CP062345.1",17329,17329,1
"RFplasmid","ARG-plasmid","NZ_CP062349.1",20653,20653,1
"RFplasmid","ARG-plasmid","NZ_CP062351.1",16691,16691,1
"RFplasmid","ARG-plasmid","NZ_CP062355.1",20680,20680,1
"RFplasmid","ARG-plasmid","NZ_CP062359.1",27268,27268,1
"RFplasmid","ARG-plasmid","NZ_CP062365.1",27117,27473,0.99
"RFplasmid","ARG-plasmid","NZ_CP062367.1",25316,27068,0.94
"RFplasmid","ARG-plasmid","NZ_CP062369.1",27268,27268,1
"RFplasmid","ARG-plasmid","NZ_CP062371.1",27267,27267,1
"RFplasmid","ARG-plasmid","NZ_CP062375.1",2366,2366,1
"RFplasmid","ARG-plasmid","NZ_CP062377.1",19781,19781,1
"RFplasmid","ARG-plasmid","NZ_CP062379.1",27265,27265,1
"RFplasmid","ARG-plasmid","NZ_CP062385.1",20730,20730,1
"RFplasmid","ARG-plasmid","NZ_CP062389.1",27269,27269,1
"RFplasmid","ARG-plasmid","NZ_CP062392.1",24655,24655,1
"RFplasmid","ARG-plasmid","NZ_CP062394.1",27025,27439,0.98
"RFplasmid","ARG-plasmid","NZ_CP068144.1",19758,19758,1
"RFplasmid","ARG-plasmid","NZ_CP069471.1",31620,32634,0.97
"RFplasmid","ARG-plasmid","NZ_CP070984.1",20730,20730,1
"RFplasmid","ARG-plasmid","NZ_CP070988.1",2473,2473,1
"RFplasmid","ARG-plasmid","NZ_CP073064.1",4397,4397,1
"RFplasmid","ARG-plasmid","NZ_CP092053.1",13032,13162,0.99
"RFplasmid","non-ARG-plasmid","NZ_CP046477.1",16100,16100,1
"RFplasmid","non-ARG-plasmid","NZ_CP055226.1",3125,3125,1
"RFplasmid","non-ARG-plasmid","NZ_CP062316.1",3111,3111,1
"RFplasmid","non-ARG-plasmid","NZ_CP062317.1",2473,2473,1
"RFplasmid","non-ARG-plasmid","NZ_CP062327.1",28841,28841,1
"RFplasmid","non-ARG-plasmid","NZ_CP062330.1",3332,3332,1
"RFplasmid","non-ARG-plasmid","NZ_CP062333.1",2981,3111,0.96
"RFplasmid","non-ARG-plasmid","NZ_CP062339.1",2564,2564,1
"RFplasmid","non-ARG-plasmid","NZ_CP062347.1",39036,45230,0.86
"RFplasmid","non-ARG-plasmid","NZ_CP062353.1",29018,29018,1
"RFplasmid","non-ARG-plasmid","NZ_CP062357.1",29018,29018,1
"RFplasmid","non-ARG-plasmid","NZ_CP062361.1",31943,42244,0.76
"RFplasmid","non-ARG-plasmid","NZ_CP062363.1",33094,34972,0.95
"RFplasmid","non-ARG-plasmid","NZ_CP062373.1",28364,28956,0.98
"RFplasmid","non-ARG-plasmid","NZ_CP062374.1",3566,3566,1
"RFplasmid","non-ARG-plasmid","NZ_CP062381.1",37438,39353,0.95
"RFplasmid","non-ARG-plasmid","NZ_CP062383.1",39284,43339,0.91
"RFplasmid","non-ARG-plasmid","NZ_CP062387.1",2416,2416,1
"RFplasmid","non-ARG-plasmid","NZ_CP062391.1",37087,37087,1
"RFplasmid","non-ARG-plasmid","NZ_CP062396.1",NA,NA,0
"RFplasmid","non-ARG-plasmid","NZ_CP062397.1",37438,39353,0.95
"RFplasmid","non-ARG-plasmid","NZ_CP062440.1",3126,3126,1
"RFplasmid","non-ARG-plasmid","NZ_CP069472.1",3111,3125,1
"RFplasmid","non-ARG-plasmid","NZ_CP069800.1",2539,2539,1
"RFplasmid","non-ARG-plasmid","NZ_CP070985.1",2397,2393,1
"RFplasmid","non-ARG-plasmid","NZ_CP070992.1",27816,36441,0.76
"RFplasmid","non-ARG-plasmid","NZ_CP071105.1",4264,4265,1
"RFplasmid","non-ARG-plasmid","NZ_CP071106.1",2751,2921,0.94
"RFplasmid","non-ARG-plasmid","NZ_CP092054.1",2995,3125,0.96
"Centrifuge","ARG-plasmid","NZ_AP024171.1",1917,24653,0.08
"Centrifuge","ARG-plasmid","NZ_AP024512.1",20239,20501,0.99
"Centrifuge","ARG-plasmid","NZ_CP058614.1",NA,NA,0
"Centrifuge","ARG-plasmid","NZ_CP062315.1",26024,27035,0.96
"Centrifuge","ARG-plasmid","NZ_CP062319.1",24654,24654,1
"Centrifuge","ARG-plasmid","NZ_CP062321.1",NA,NA,0
"Centrifuge","ARG-plasmid","NZ_CP062323.1",20691,20691,1
"Centrifuge","ARG-plasmid","NZ_CP062325.1",26385,27068,0.97
"Centrifuge","ARG-plasmid","NZ_CP062328.1",NA,NA,0
"Centrifuge","ARG-plasmid","NZ_CP062332.1",12863,13162,0.98
"Centrifuge","ARG-plasmid","NZ_CP062335.1",20691,20691,1
"Centrifuge","ARG-plasmid","NZ_CP062337.1",NA,NA,0
"Centrifuge","ARG-plasmid","NZ_CP062341.1",20721,20721,1
"Centrifuge","ARG-plasmid","NZ_CP062343.1",20691,20691,1
"Centrifuge","ARG-plasmid","NZ_CP062345.1",17329,17329,1
"Centrifuge","ARG-plasmid","NZ_CP062349.1",20653,20653,1
"Centrifuge","ARG-plasmid","NZ_CP062351.1",16691,16691,1
"Centrifuge","ARG-plasmid","NZ_CP062355.1",20680,20680,1
"Centrifuge","ARG-plasmid","NZ_CP062359.1",27268,27268,1
"Centrifuge","ARG-plasmid","NZ_CP062365.1",NA,NA,0
"Centrifuge","ARG-plasmid","NZ_CP062367.1",25316,27068,0.94
"Centrifuge","ARG-plasmid","NZ_CP062369.1",27268,27268,1
"Centrifuge","ARG-plasmid","NZ_CP062371.1",27267,27267,1
"Centrifuge","ARG-plasmid","NZ_CP062375.1",2366,2366,1
"Centrifuge","ARG-plasmid","NZ_CP062377.1",19781,19781,1
"Centrifuge","ARG-plasmid","NZ_CP062379.1",27265,27265,1
"Centrifuge","ARG-plasmid","NZ_CP062385.1",20730,20730,1
"Centrifuge","ARG-plasmid","NZ_CP062389.1",27269,27269,1
"Centrifuge","ARG-plasmid","NZ_CP062392.1",24655,24655,1
"Centrifuge","ARG-plasmid","NZ_CP062394.1",27025,27439,0.98
"Centrifuge","ARG-plasmid","NZ_CP068144.1",19758,19758,1
"Centrifuge","ARG-plasmid","NZ_CP069471.1",31620,32634,0.97
"Centrifuge","ARG-plasmid","NZ_CP070984.1",NA,NA,0
"Centrifuge","ARG-plasmid","NZ_CP070988.1",2473,2473,1
"Centrifuge","ARG-plasmid","NZ_CP073064.1",4397,4397,1
"Centrifuge","ARG-plasmid","NZ_CP092053.1",13032,13162,0.99
"Centrifuge","non-ARG-plasmid","NZ_CP046477.1",16100,16100,1
"Centrifuge","non-ARG-plasmid","NZ_CP055226.1",3125,3125,1
"Centrifuge","non-ARG-plasmid","NZ_CP062316.1",3111,3111,1
"Centrifuge","non-ARG-plasmid","NZ_CP062317.1",2473,2473,1
"Centrifuge","non-ARG-plasmid","NZ_CP062327.1",28841,28841,1
"Centrifuge","non-ARG-plasmid","NZ_CP062330.1",NA,NA,0
"Centrifuge","non-ARG-plasmid","NZ_CP062333.1",2981,3111,0.96
"Centrifuge","non-ARG-plasmid","NZ_CP062339.1",2564,2564,1
"Centrifuge","non-ARG-plasmid","NZ_CP062347.1",25563,45230,0.57
"Centrifuge","non-ARG-plasmid","NZ_CP062353.1",29018,29018,1
"Centrifuge","non-ARG-plasmid","NZ_CP062357.1",29018,29018,1
"Centrifuge","non-ARG-plasmid","NZ_CP062361.1",31943,42244,0.76
"Centrifuge","non-ARG-plasmid","NZ_CP062363.1",33094,34972,0.95
"Centrifuge","non-ARG-plasmid","NZ_CP062373.1",28364,28956,0.98
"Centrifuge","non-ARG-plasmid","NZ_CP062374.1",3566,3566,1
"Centrifuge","non-ARG-plasmid","NZ_CP062381.1",23839,39353,0.61
"Centrifuge","non-ARG-plasmid","NZ_CP062383.1",39284,43339,0.91
"Centrifuge","non-ARG-plasmid","NZ_CP062387.1",2416,2416,1
"Centrifuge","non-ARG-plasmid","NZ_CP062391.1",37087,37087,1
"Centrifuge","non-ARG-plasmid","NZ_CP062396.1",NA,NA,0
"Centrifuge","non-ARG-plasmid","NZ_CP062397.1",23839,39353,0.61
"Centrifuge","non-ARG-plasmid","NZ_CP062440.1",3126,3126,1
"Centrifuge","non-ARG-plasmid","NZ_CP069472.1",3111,3125,1
"Centrifuge","non-ARG-plasmid","NZ_CP069800.1",2539,2539,1
"Centrifuge","non-ARG-plasmid","NZ_CP070985.1",NA,NA,0
"Centrifuge","non-ARG-plasmid","NZ_CP070992.1",27816,36441,0.76
"Centrifuge","non-ARG-plasmid","NZ_CP071105.1",4264,4265,1
"Centrifuge","non-ARG-plasmid","NZ_CP071106.1",2751,2921,0.94
"Centrifuge","non-ARG-plasmid","NZ_CP092054.1",2995,3125,0.96
"Platon","ARG-plasmid","NZ_AP024171.1",24391,24653,0.99
"Platon","ARG-plasmid","NZ_AP024512.1",20239,20501,0.99
"Platon","ARG-plasmid","NZ_CP058614.1",2473,2473,1
"Platon","ARG-plasmid","NZ_CP062315.1",26024,27035,0.96
"Platon","ARG-plasmid","NZ_CP062319.1",24654,24654,1
"Platon","ARG-plasmid","NZ_CP062321.1",27068,27068,1
"Platon","ARG-plasmid","NZ_CP062323.1",20691,20691,1
"Platon","ARG-plasmid","NZ_CP062325.1",26385,27068,0.97
"Platon","ARG-plasmid","NZ_CP062328.1",20730,20730,1
"Platon","ARG-plasmid","NZ_CP062332.1",12863,13162,0.98
"Platon","ARG-plasmid","NZ_CP062335.1",20691,20691,1
"Platon","ARG-plasmid","NZ_CP062337.1",20730,20730,1
"Platon","ARG-plasmid","NZ_CP062341.1",20721,20721,1
"Platon","ARG-plasmid","NZ_CP062343.1",20691,20691,1
"Platon","ARG-plasmid","NZ_CP062345.1",17329,17329,1
"Platon","ARG-plasmid","NZ_CP062349.1",20653,20653,1
"Platon","ARG-plasmid","NZ_CP062351.1",16691,16691,1
"Platon","ARG-plasmid","NZ_CP062355.1",20680,20680,1
"Platon","ARG-plasmid","NZ_CP062359.1",27268,27268,1
"Platon","ARG-plasmid","NZ_CP062365.1",27117,27473,0.99
"Platon","ARG-plasmid","NZ_CP062367.1",25316,27068,0.94
"Platon","ARG-plasmid","NZ_CP062369.1",27268,27268,1
"Platon","ARG-plasmid","NZ_CP062371.1",27267,27267,1
"Platon","ARG-plasmid","NZ_CP062375.1",2366,2366,1
"Platon","ARG-plasmid","NZ_CP062377.1",19781,19781,1
"Platon","ARG-plasmid","NZ_CP062379.1",27265,27265,1
"Platon","ARG-plasmid","NZ_CP062385.1",20730,20730,1
"Platon","ARG-plasmid","NZ_CP062389.1",27269,27269,1
"Platon","ARG-plasmid","NZ_CP062392.1",24655,24655,1
"Platon","ARG-plasmid","NZ_CP062394.1",27025,27439,0.98
"Platon","ARG-plasmid","NZ_CP068144.1",19758,19758,1
"Platon","ARG-plasmid","NZ_CP069471.1",31620,32634,0.97
"Platon","ARG-plasmid","NZ_CP070984.1",20730,20730,1
"Platon","ARG-plasmid","NZ_CP070988.1",2473,2473,1
"Platon","ARG-plasmid","NZ_CP073064.1",4397,4397,1
"Platon","ARG-plasmid","NZ_CP092053.1",13032,13162,0.99
"Platon","non-ARG-plasmid","NZ_CP046477.1",16100,16100,1
"Platon","non-ARG-plasmid","NZ_CP055226.1",3125,3125,1
"Platon","non-ARG-plasmid","NZ_CP062316.1",3111,3111,1
"Platon","non-ARG-plasmid","NZ_CP062317.1",2473,2473,1
"Platon","non-ARG-plasmid","NZ_CP062327.1",28841,28841,1
"Platon","non-ARG-plasmid","NZ_CP062330.1",3332,3332,1
"Platon","non-ARG-plasmid","NZ_CP062333.1",2981,3111,0.96
"Platon","non-ARG-plasmid","NZ_CP062339.1",2564,2564,1
"Platon","non-ARG-plasmid","NZ_CP062347.1",39036,45230,0.86
"Platon","non-ARG-plasmid","NZ_CP062353.1",29018,29018,1
"Platon","non-ARG-plasmid","NZ_CP062357.1",29018,29018,1
"Platon","non-ARG-plasmid","NZ_CP062361.1",31943,42244,0.76
"Platon","non-ARG-plasmid","NZ_CP062363.1",33094,34972,0.95
"Platon","non-ARG-plasmid","NZ_CP062373.1",NA,NA,0
"Platon","non-ARG-plasmid","NZ_CP062374.1",3566,3566,1
"Platon","non-ARG-plasmid","NZ_CP062381.1",37438,39353,0.95
"Platon","non-ARG-plasmid","NZ_CP062383.1",39284,43339,0.91
"Platon","non-ARG-plasmid","NZ_CP062387.1",2416,2416,1
"Platon","non-ARG-plasmid","NZ_CP062391.1",37087,37087,1
"Platon","non-ARG-plasmid","NZ_CP062396.1",NA,NA,0
"Platon","non-ARG-plasmid","NZ_CP062397.1",37438,39353,0.95
"Platon","non-ARG-plasmid","NZ_CP062440.1",3126,3126,1
"Platon","non-ARG-plasmid","NZ_CP069472.1",3111,3125,1
"Platon","non-ARG-plasmid","NZ_CP069800.1",2539,2539,1
"Platon","non-ARG-plasmid","NZ_CP070985.1",2397,2393,1
"Platon","non-ARG-plasmid","NZ_CP070992.1",27816,36441,0.76
"Platon","non-ARG-plasmid","NZ_CP071105.1",4264,4265,1
"Platon","non-ARG-plasmid","NZ_CP071106.1",2751,2921,0.94
"Platon","non-ARG-plasmid","NZ_CP092054.1",2995,3125,0.96
"plasmidEC","ARG-plasmid","NZ_AP024171.1",24391,24653,0.99
"plasmidEC","ARG-plasmid","NZ_AP024512.1",20239,20501,0.99
"plasmidEC","ARG-plasmid","NZ_CP058614.1",2473,2473,1
"plasmidEC","ARG-plasmid","NZ_CP062315.1",26024,27035,0.96
"plasmidEC","ARG-plasmid","NZ_CP062319.1",24654,24654,1
"plasmidEC","ARG-plasmid","NZ_CP062321.1",27068,27068,1
"plasmidEC","ARG-plasmid","NZ_CP062323.1",20691,20691,1
"plasmidEC","ARG-plasmid","NZ_CP062325.1",26385,27068,0.97
"plasmidEC","ARG-plasmid","NZ_CP062328.1",20730,20730,1
"plasmidEC","ARG-plasmid","NZ_CP062332.1",12863,13162,0.98
"plasmidEC","ARG-plasmid","NZ_CP062335.1",20691,20691,1
"plasmidEC","ARG-plasmid","NZ_CP062337.1",20730,20730,1
"plasmidEC","ARG-plasmid","NZ_CP062341.1",20721,20721,1
"plasmidEC","ARG-plasmid","NZ_CP062343.1",20691,20691,1
"plasmidEC","ARG-plasmid","NZ_CP062345.1",17329,17329,1
"plasmidEC","ARG-plasmid","NZ_CP062349.1",20653,20653,1
"plasmidEC","ARG-plasmid","NZ_CP062351.1",16691,16691,1
"plasmidEC","ARG-plasmid","NZ_CP062355.1",20680,20680,1
"plasmidEC","ARG-plasmid","NZ_CP062359.1",27268,27268,1
"plasmidEC","ARG-plasmid","NZ_CP062365.1",27117,27473,0.99
"plasmidEC","ARG-plasmid","NZ_CP062367.1",25316,27068,0.94
"plasmidEC","ARG-plasmid","NZ_CP062369.1",27268,27268,1
"plasmidEC","ARG-plasmid","NZ_CP062371.1",27267,27267,1
"plasmidEC","ARG-plasmid","NZ_CP062375.1",2366,2366,1
"plasmidEC","ARG-plasmid","NZ_CP062377.1",19781,19781,1
"plasmidEC","ARG-plasmid","NZ_CP062379.1",27265,27265,1
"plasmidEC","ARG-plasmid","NZ_CP062385.1",20730,20730,1
"plasmidEC","ARG-plasmid","NZ_CP062389.1",27269,27269,1
"plasmidEC","ARG-plasmid","NZ_CP062392.1",24655,24655,1
"plasmidEC","ARG-plasmid","NZ_CP062394.1",27025,27439,0.98
"plasmidEC","ARG-plasmid","NZ_CP068144.1",19758,19758,1
"plasmidEC","ARG-plasmid","NZ_CP069471.1",31620,32634,0.97
"plasmidEC","ARG-plasmid","NZ_CP070984.1",20730,20730,1
"plasmidEC","ARG-plasmid","NZ_CP070988.1",2473,2473,1
"plasmidEC","ARG-plasmid","NZ_CP073064.1",4397,4397,1
"plasmidEC","ARG-plasmid","NZ_CP092053.1",13032,13162,0.99
"plasmidEC","non-ARG-plasmid","NZ_CP046477.1",16100,16100,1
"plasmidEC","non-ARG-plasmid","NZ_CP055226.1",3125,3125,1
"plasmidEC","non-ARG-plasmid","NZ_CP062316.1",3111,3111,1
"plasmidEC","non-ARG-plasmid","NZ_CP062317.1",2473,2473,1
"plasmidEC","non-ARG-plasmid","NZ_CP062327.1",28841,28841,1
"plasmidEC","non-ARG-plasmid","NZ_CP062330.1",3332,3332,1
"plasmidEC","non-ARG-plasmid","NZ_CP062333.1",2981,3111,0.96
"plasmidEC","non-ARG-plasmid","NZ_CP062339.1",2564,2564,1
"plasmidEC","non-ARG-plasmid","NZ_CP062347.1",39036,45230,0.86
"plasmidEC","non-ARG-plasmid","NZ_CP062353.1",29018,29018,1
"plasmidEC","non-ARG-plasmid","NZ_CP062357.1",29018,29018,1
"plasmidEC","non-ARG-plasmid","NZ_CP062361.1",31943,42244,0.76
"plasmidEC","non-ARG-plasmid","NZ_CP062363.1",33094,34972,0.95
"plasmidEC","non-ARG-plasmid","NZ_CP062373.1",28364,28956,0.98
"plasmidEC","non-ARG-plasmid","NZ_CP062374.1",3566,3566,1
"plasmidEC","non-ARG-plasmid","NZ_CP062381.1",37438,39353,0.95
"plasmidEC","non-ARG-plasmid","NZ_CP062383.1",39284,43339,0.91
"plasmidEC","non-ARG-plasmid","NZ_CP062387.1",2416,2416,1
"plasmidEC","non-ARG-plasmid","NZ_CP062391.1",37087,37087,1
"plasmidEC","non-ARG-plasmid","NZ_CP062396.1",NA,NA,0
"plasmidEC","non-ARG-plasmid","NZ_CP062397.1",37438,39353,0.95
"plasmidEC","non-ARG-plasmid","NZ_CP062440.1",3126,3126,1
"plasmidEC","non-ARG-plasmid","NZ_CP069472.1",3111,3125,1
"plasmidEC","non-ARG-plasmid","NZ_CP069800.1",2539,2539,1
"plasmidEC","non-ARG-plasmid","NZ_CP070985.1",2397,2393,1
"plasmidEC","non-ARG-plasmid","NZ_CP070992.1",27816,36441,0.76
"plasmidEC","non-ARG-plasmid","NZ_CP071105.1",4264,4265,1
"plasmidEC","non-ARG-plasmid","NZ_CP071106.1",2751,2921,0.94
"plasmidEC","non-ARG-plasmid","NZ_CP092054.1",2995,3125,0.96
