"true_classification","variable","value","species"
"chromosome","count",2117,"S. aureus"
"plasmid","count",85,"S. aureus"
"repeat chromosome","count",325,"S. aureus"
"unaligned","count",101,"S. aureus"
"chromosome","percentage",80.56,"S. aureus"
"plasmid","percentage",3.23,"S. aureus"
"repeat chromosome","percentage",12.37,"S. aureus"
"unaligned","percentage",3.84,"S. aureus"
