"arg_plasmid","length_classification","count","species"
"ARG-plasmid","large",35,"S. aureus"
"ARG-plasmid","small",5,"S. aureus"
"non-ARG-plasmid","large",14,"S. aureus"
"non-ARG-plasmid","small",17,"S. aureus"
