"strain","bin_name","reference_id","self_alignment_length","length_classification","true_nr_args","arg_plasmid","variable","value","software","species"
"GCF_019903155.1_ASM1990315v1","bin_component_1","NZ_CP059544.1",11020,"small",0,"non-ARG-plasmid","Precision(bp)",0.981,"plasmidSPAdes","A. baumannii"
"GCF_019903155.1_ASM1990315v1","bin_component_2","NZ_CP059545.1",7369,"small",0,"non-ARG-plasmid","Precision(bp)",0.979,"plasmidSPAdes","A. baumannii"
"GCF_015910475.1_ASM1591047v1","bin_component_1","NZ_CP065434.1",6208,"small",0,"non-ARG-plasmid","Precision(bp)",0.376,"plasmidSPAdes","A. baumannii"
"GCF_015910475.1_ASM1591047v1","bin_component_1","NZ_CP065433.1",8936,"small",0,"non-ARG-plasmid","Precision(bp)",0.462,"plasmidSPAdes","A. baumannii"
"GCF_013372085.1_ASM1337208v1","bin_component_1","NZ_CP053099.1",13409,"small",0,"non-ARG-plasmid","Precision(bp)",0.989,"plasmidSPAdes","A. baumannii"
"GCF_013372085.1_ASM1337208v1","bin_component_2","NZ_CP053100.1",11302,"small",0,"non-ARG-plasmid","Precision(bp)",0.986,"plasmidSPAdes","A. baumannii"
"GCF_020985285.1_ASM2098528v1","bin_component_1","NZ_CP087596.1",5870,"small",0,"non-ARG-plasmid","Precision(bp)",0.974,"plasmidSPAdes","A. baumannii"
"GCF_020985285.1_ASM2098528v1","bin_component_0","NZ_CP087595.1",8432,"small",0,"non-ARG-plasmid","Precision(bp)",0.982,"plasmidSPAdes","A. baumannii"
"GCF_019458485.1_ASM1945848v1","bin_component_1","NZ_CP080456.1",8593,"small",0,"non-ARG-plasmid","Precision(bp)",0.971,"plasmidSPAdes","A. baumannii"
"GCF_019458485.1_ASM1945848v1","bin_component_3","NZ_CP080454.1",2725,"small",0,"non-ARG-plasmid","Precision(bp)",0.915,"plasmidSPAdes","A. baumannii"
"GCF_019458485.1_ASM1945848v1","bin_component_4","NZ_CP080453.1",2178,"small",0,"non-ARG-plasmid","Precision(bp)",0.917,"plasmidSPAdes","A. baumannii"
"GCF_019458485.1_ASM1945848v1","bin_component_2","NZ_CP080455.1",6772,"small",0,"non-ARG-plasmid","Precision(bp)",0.982,"plasmidSPAdes","A. baumannii"
"GCF_014705825.1_ASM1470582v1","bin_component_1","NZ_CP061526.1",14639,"small",0,"non-ARG-plasmid","Precision(bp)",0.983,"plasmidSPAdes","A. baumannii"
"GCF_005519135.2_ASM551913v2","bin_component_1","NZ_CP031381.2",17616,"small",1,"ARG-plasmid","Precision(bp)",0.404,"plasmidSPAdes","A. baumannii"
"GCF_016919525.1_ASM1691952v2","bin_component_4","NZ_CP070360.1",8731,"small",0,"non-ARG-plasmid","Precision(bp)",0.971,"plasmidSPAdes","A. baumannii"
"GCF_016919525.1_ASM1691952v2","bin_component_5","NZ_CP070359.1",1967,"small",0,"non-ARG-plasmid","Precision(bp)",0.879,"plasmidSPAdes","A. baumannii"
"GCF_019703285.1_ASM1970328v1","bin_component_1","NZ_AP024811.1",3496,"small",0,"non-ARG-plasmid","Precision(bp)",0.966,"plasmidSPAdes","A. baumannii"
"GCF_019703285.1_ASM1970328v1","bin_component_0","NZ_AP024804.1",12817,"small",0,"non-ARG-plasmid","Precision(bp)",0.177,"plasmidSPAdes","A. baumannii"
"GCF_019703285.1_ASM1970328v1","bin_component_0","NZ_AP024806.1",8091,"small",0,"non-ARG-plasmid","Precision(bp)",0.123,"plasmidSPAdes","A. baumannii"
"GCF_019703285.1_ASM1970328v1","bin_component_0","NZ_AP024805.1",10771,"small",0,"non-ARG-plasmid","Precision(bp)",0.149,"plasmidSPAdes","A. baumannii"
"GCF_019703285.1_ASM1970328v1","bin_component_0","NZ_AP024807.1",7104,"small",0,"non-ARG-plasmid","Precision(bp)",0.097,"plasmidSPAdes","A. baumannii"
"GCF_019703285.1_ASM1970328v1","bin_component_2","NZ_AP024812.1",2425,"small",0,"non-ARG-plasmid","Precision(bp)",0.965,"plasmidSPAdes","A. baumannii"
"GCF_014322245.1_ASM1432224v1","bin_component_2","NZ_CP047976.1",9132,"small",0,"non-ARG-plasmid","Precision(bp)",0.661,"plasmidSPAdes","A. baumannii"
"GCF_016903135.1_ASM1690313v1","bin_component_1","NZ_CP069842.1",14879,"small",0,"non-ARG-plasmid","Precision(bp)",0.99,"plasmidSPAdes","A. baumannii"
"GCF_018831125.1_ASM1883112v1","bin_component_1","NZ_CP048132.1",6078,"small",1,"ARG-plasmid","Precision(bp)",0.97,"plasmidSPAdes","A. baumannii"
"GCF_017753625.1_ASM1775362v1","bin_component_0","NZ_CP072529.1",NA,"small",0,"non-ARG-plasmid","Precision(bp)",0.058,"plasmidSPAdes","A. baumannii"
"GCF_019903235.1_ASM1990323v1","bin_component_1","NZ_CP061713.1",4261,"small",0,"non-ARG-plasmid","Precision(bp)",0.983,"plasmidSPAdes","A. baumannii"
"GCF_019903235.1_ASM1990323v1","bin_component_0","NZ_CP061707.1",19024,"small",1,"ARG-plasmid","Precision(bp)",0.067,"plasmidSPAdes","A. baumannii"
"GCF_019903235.1_ASM1990323v1","bin_component_0","NZ_CP061708.1",18169,"small",0,"non-ARG-plasmid","Precision(bp)",0.067,"plasmidSPAdes","A. baumannii"
"GCF_019903235.1_ASM1990323v1","bin_component_0","NZ_CP061712.1",5922,"small",0,"non-ARG-plasmid","Precision(bp)",0.006,"plasmidSPAdes","A. baumannii"
"GCF_019903235.1_ASM1990323v1","bin_component_0","NZ_CP061711.1",6763,"small",0,"non-ARG-plasmid","Precision(bp)",0.024,"plasmidSPAdes","A. baumannii"
"GCF_019903235.1_ASM1990323v1","bin_component_0","NZ_CP061710.1",7696,"small",0,"non-ARG-plasmid","Precision(bp)",0.031,"plasmidSPAdes","A. baumannii"
"GCF_019903235.1_ASM1990323v1","bin_component_0","NZ_CP061709.1",9499,"small",0,"non-ARG-plasmid","Precision(bp)",0.041,"plasmidSPAdes","A. baumannii"
"GCF_016919505.2_ASM1691950v2","bin_component_5","NZ_CP070364.1",8731,"small",0,"non-ARG-plasmid","Precision(bp)",0.971,"plasmidSPAdes","A. baumannii"
"GCF_016919505.2_ASM1691950v2","bin_component_8","NZ_CP070363.1",1967,"small",0,"non-ARG-plasmid","Precision(bp)",0.879,"plasmidSPAdes","A. baumannii"
"GCF_020810655.1_ASM2081065v1","bin_component_0","NZ_CP085789.1",10984,"small",1,"ARG-plasmid","Precision(bp)",0.618,"plasmidSPAdes","A. baumannii"
"GCF_020810655.1_ASM2081065v1","bin_component_0","NZ_CP085790.1",5797,"small",0,"non-ARG-plasmid","Precision(bp)",0.341,"plasmidSPAdes","A. baumannii"
"GCF_018831485.1_ASM1883148v1","bin_component_0","NZ_CP049315.1",11844,"small",0,"non-ARG-plasmid","Precision(bp)",0.987,"plasmidSPAdes","A. baumannii"
"GCF_016903215.1_ASM1690321v1","bin_component_0","NZ_CP069852.1",8731,"small",0,"non-ARG-plasmid","Precision(bp)",0.983,"plasmidSPAdes","A. baumannii"
"GCF_020132105.1_ASM2013210v1","bin_component_0","NZ_CP082953.1",9205,"small",0,"non-ARG-plasmid","Precision(bp)",0.983,"plasmidSPAdes","A. baumannii"
"GCF_013787185.1_ASM1378718v1","bin_component_3","NZ_CP059388.1",9458,"small",0,"non-ARG-plasmid","Precision(bp)",0.974,"plasmidSPAdes","A. baumannii"
"GCF_013787185.1_ASM1378718v1","bin_component_4","NZ_CP059390.1",4721,"small",0,"non-ARG-plasmid","Precision(bp)",0.946,"plasmidSPAdes","A. baumannii"
"GCF_014169655.1_ASM1416965v1","bin_component_2","NZ_AP022240.1",10735,"small",0,"non-ARG-plasmid","Precision(bp)",0.986,"plasmidSPAdes","A. baumannii"
"GCF_016127515.1_ASM1612751v1","bin_component_1","NZ_CP066017.1",8731,"small",0,"non-ARG-plasmid","Precision(bp)",0.98,"plasmidSPAdes","A. baumannii"
"GCF_019903155.1_ASM1990315v1","bin_component_1","NZ_CP059544.1",11020,"small",0,"non-ARG-plasmid","Recall(bp)",0.995,"plasmidSPAdes","A. baumannii"
"GCF_019903155.1_ASM1990315v1","bin_component_2","NZ_CP059545.1",7369,"small",0,"non-ARG-plasmid","Recall(bp)",0.99,"plasmidSPAdes","A. baumannii"
"GCF_015910475.1_ASM1591047v1","bin_component_1","NZ_CP065434.1",6208,"small",0,"non-ARG-plasmid","Recall(bp)",0.806,"plasmidSPAdes","A. baumannii"
"GCF_015910475.1_ASM1591047v1","bin_component_1","NZ_CP065433.1",8936,"small",0,"non-ARG-plasmid","Recall(bp)",0.702,"plasmidSPAdes","A. baumannii"
"GCF_013372085.1_ASM1337208v1","bin_component_1","NZ_CP053099.1",13409,"small",0,"non-ARG-plasmid","Recall(bp)",0.994,"plasmidSPAdes","A. baumannii"
"GCF_013372085.1_ASM1337208v1","bin_component_2","NZ_CP053100.1",11302,"small",0,"non-ARG-plasmid","Recall(bp)",0.993,"plasmidSPAdes","A. baumannii"
"GCF_020985285.1_ASM2098528v1","bin_component_1","NZ_CP087596.1",5870,"small",0,"non-ARG-plasmid","Recall(bp)",0.987,"plasmidSPAdes","A. baumannii"
"GCF_020985285.1_ASM2098528v1","bin_component_0","NZ_CP087595.1",8432,"small",0,"non-ARG-plasmid","Recall(bp)",0.991,"plasmidSPAdes","A. baumannii"
"GCF_019458485.1_ASM1945848v1","bin_component_1","NZ_CP080456.1",8593,"small",0,"non-ARG-plasmid","Recall(bp)",0.985,"plasmidSPAdes","A. baumannii"
"GCF_019458485.1_ASM1945848v1","bin_component_3","NZ_CP080454.1",2725,"small",0,"non-ARG-plasmid","Recall(bp)",0.958,"plasmidSPAdes","A. baumannii"
"GCF_019458485.1_ASM1945848v1","bin_component_4","NZ_CP080453.1",2178,"small",0,"non-ARG-plasmid","Recall(bp)",0.971,"plasmidSPAdes","A. baumannii"
"GCF_019458485.1_ASM1945848v1","bin_component_2","NZ_CP080455.1",6772,"small",0,"non-ARG-plasmid","Recall(bp)",1,"plasmidSPAdes","A. baumannii"
"GCF_014705825.1_ASM1470582v1","bin_component_1","NZ_CP061526.1",14639,"small",0,"non-ARG-plasmid","Recall(bp)",0.991,"plasmidSPAdes","A. baumannii"
"GCF_005519135.2_ASM551913v2","bin_component_1","NZ_CP031381.2",17616,"small",1,"ARG-plasmid","Recall(bp)",0.815,"plasmidSPAdes","A. baumannii"
"GCF_016919525.1_ASM1691952v2","bin_component_4","NZ_CP070360.1",8731,"small",0,"non-ARG-plasmid","Recall(bp)",0.985,"plasmidSPAdes","A. baumannii"
"GCF_016919525.1_ASM1691952v2","bin_component_5","NZ_CP070359.1",1967,"small",0,"non-ARG-plasmid","Recall(bp)",0.935,"plasmidSPAdes","A. baumannii"
"GCF_019703285.1_ASM1970328v1","bin_component_1","NZ_AP024811.1",3496,"small",0,"non-ARG-plasmid","Recall(bp)",0.981,"plasmidSPAdes","A. baumannii"
"GCF_019703285.1_ASM1970328v1","bin_component_0","NZ_AP024804.1",12817,"small",0,"non-ARG-plasmid","Recall(bp)",1,"plasmidSPAdes","A. baumannii"
"GCF_019703285.1_ASM1970328v1","bin_component_0","NZ_AP024806.1",8091,"small",0,"non-ARG-plasmid","Recall(bp)",0.994,"plasmidSPAdes","A. baumannii"
"GCF_019703285.1_ASM1970328v1","bin_component_0","NZ_AP024805.1",10771,"small",0,"non-ARG-plasmid","Recall(bp)",0.994,"plasmidSPAdes","A. baumannii"
"GCF_019703285.1_ASM1970328v1","bin_component_0","NZ_AP024807.1",7104,"small",0,"non-ARG-plasmid","Recall(bp)",0.988,"plasmidSPAdes","A. baumannii"
"GCF_019703285.1_ASM1970328v1","bin_component_2","NZ_AP024812.1",2425,"small",0,"non-ARG-plasmid","Recall(bp)",0.986,"plasmidSPAdes","A. baumannii"
"GCF_014322245.1_ASM1432224v1","bin_component_2","NZ_CP047976.1",9132,"small",0,"non-ARG-plasmid","Recall(bp)",0.992,"plasmidSPAdes","A. baumannii"
"GCF_016903135.1_ASM1690313v1","bin_component_1","NZ_CP069842.1",14879,"small",0,"non-ARG-plasmid","Recall(bp)",0.995,"plasmidSPAdes","A. baumannii"
"GCF_018831125.1_ASM1883112v1","bin_component_1","NZ_CP048132.1",6078,"small",1,"ARG-plasmid","Recall(bp)",0.979,"plasmidSPAdes","A. baumannii"
"GCF_017753625.1_ASM1775362v1","bin_component_0","NZ_CP072529.1",NA,"small",0,"non-ARG-plasmid","Recall(bp)",0.978,"plasmidSPAdes","A. baumannii"
"GCF_019903235.1_ASM1990323v1","bin_component_1","NZ_CP061713.1",4261,"small",0,"non-ARG-plasmid","Recall(bp)",1,"plasmidSPAdes","A. baumannii"
"GCF_019903235.1_ASM1990323v1","bin_component_0","NZ_CP061707.1",19024,"small",1,"ARG-plasmid","Recall(bp)",0.874,"plasmidSPAdes","A. baumannii"
"GCF_019903235.1_ASM1990323v1","bin_component_0","NZ_CP061708.1",18169,"small",0,"non-ARG-plasmid","Recall(bp)",0.913,"plasmidSPAdes","A. baumannii"
"GCF_019903235.1_ASM1990323v1","bin_component_0","NZ_CP061712.1",5922,"small",0,"non-ARG-plasmid","Recall(bp)",0.269,"plasmidSPAdes","A. baumannii"
"GCF_019903235.1_ASM1990323v1","bin_component_0","NZ_CP061711.1",6763,"small",0,"non-ARG-plasmid","Recall(bp)",0.908,"plasmidSPAdes","A. baumannii"
"GCF_019903235.1_ASM1990323v1","bin_component_0","NZ_CP061710.1",7696,"small",0,"non-ARG-plasmid","Recall(bp)",0.99,"plasmidSPAdes","A. baumannii"
"GCF_019903235.1_ASM1990323v1","bin_component_0","NZ_CP061709.1",9499,"small",0,"non-ARG-plasmid","Recall(bp)",0.673,"plasmidSPAdes","A. baumannii"
"GCF_016919505.2_ASM1691950v2","bin_component_5","NZ_CP070364.1",8731,"small",0,"non-ARG-plasmid","Recall(bp)",0.985,"plasmidSPAdes","A. baumannii"
"GCF_016919505.2_ASM1691950v2","bin_component_8","NZ_CP070363.1",1967,"small",0,"non-ARG-plasmid","Recall(bp)",0.935,"plasmidSPAdes","A. baumannii"
"GCF_020810655.1_ASM2081065v1","bin_component_0","NZ_CP085789.1",10984,"small",1,"ARG-plasmid","Recall(bp)",0.987,"plasmidSPAdes","A. baumannii"
"GCF_020810655.1_ASM2081065v1","bin_component_0","NZ_CP085790.1",5797,"small",0,"non-ARG-plasmid","Recall(bp)",0.865,"plasmidSPAdes","A. baumannii"
"GCF_018831485.1_ASM1883148v1","bin_component_0","NZ_CP049315.1",11844,"small",0,"non-ARG-plasmid","Recall(bp)",0.993,"plasmidSPAdes","A. baumannii"
"GCF_016903215.1_ASM1690321v1","bin_component_0","NZ_CP069852.1",8731,"small",0,"non-ARG-plasmid","Recall(bp)",0.991,"plasmidSPAdes","A. baumannii"
"GCF_020132105.1_ASM2013210v1","bin_component_0","NZ_CP082953.1",9205,"small",0,"non-ARG-plasmid","Recall(bp)",0.992,"plasmidSPAdes","A. baumannii"
"GCF_013787185.1_ASM1378718v1","bin_component_3","NZ_CP059388.1",9458,"small",0,"non-ARG-plasmid","Recall(bp)",0.987,"plasmidSPAdes","A. baumannii"
"GCF_013787185.1_ASM1378718v1","bin_component_4","NZ_CP059390.1",4721,"small",0,"non-ARG-plasmid","Recall(bp)",0.971,"plasmidSPAdes","A. baumannii"
"GCF_014169655.1_ASM1416965v1","bin_component_2","NZ_AP022240.1",10735,"small",0,"non-ARG-plasmid","Recall(bp)",0.993,"plasmidSPAdes","A. baumannii"
"GCF_016127515.1_ASM1612751v1","bin_component_1","NZ_CP066017.1",8731,"small",0,"non-ARG-plasmid","Recall(bp)",0.837,"plasmidSPAdes","A. baumannii"
"GCF_019903155.1_ASM1990315v1","bin_component_1","NZ_CP059544.1",11020,"small",0,"non-ARG-plasmid","F1-Score(bp)",0.988,"plasmidSPAdes","A. baumannii"
"GCF_019903155.1_ASM1990315v1","bin_component_2","NZ_CP059545.1",7369,"small",0,"non-ARG-plasmid","F1-Score(bp)",0.984,"plasmidSPAdes","A. baumannii"
"GCF_015910475.1_ASM1591047v1","bin_component_1","NZ_CP065434.1",6208,"small",0,"non-ARG-plasmid","F1-Score(bp)",0.513,"plasmidSPAdes","A. baumannii"
"GCF_015910475.1_ASM1591047v1","bin_component_1","NZ_CP065433.1",8936,"small",0,"non-ARG-plasmid","F1-Score(bp)",0.557,"plasmidSPAdes","A. baumannii"
"GCF_013372085.1_ASM1337208v1","bin_component_1","NZ_CP053099.1",13409,"small",0,"non-ARG-plasmid","F1-Score(bp)",0.991,"plasmidSPAdes","A. baumannii"
"GCF_013372085.1_ASM1337208v1","bin_component_2","NZ_CP053100.1",11302,"small",0,"non-ARG-plasmid","F1-Score(bp)",0.989,"plasmidSPAdes","A. baumannii"
"GCF_020985285.1_ASM2098528v1","bin_component_1","NZ_CP087596.1",5870,"small",0,"non-ARG-plasmid","F1-Score(bp)",0.98,"plasmidSPAdes","A. baumannii"
"GCF_020985285.1_ASM2098528v1","bin_component_0","NZ_CP087595.1",8432,"small",0,"non-ARG-plasmid","F1-Score(bp)",0.986,"plasmidSPAdes","A. baumannii"
"GCF_019458485.1_ASM1945848v1","bin_component_1","NZ_CP080456.1",8593,"small",0,"non-ARG-plasmid","F1-Score(bp)",0.978,"plasmidSPAdes","A. baumannii"
"GCF_019458485.1_ASM1945848v1","bin_component_3","NZ_CP080454.1",2725,"small",0,"non-ARG-plasmid","F1-Score(bp)",0.936,"plasmidSPAdes","A. baumannii"
"GCF_019458485.1_ASM1945848v1","bin_component_4","NZ_CP080453.1",2178,"small",0,"non-ARG-plasmid","F1-Score(bp)",0.943,"plasmidSPAdes","A. baumannii"
"GCF_019458485.1_ASM1945848v1","bin_component_2","NZ_CP080455.1",6772,"small",0,"non-ARG-plasmid","F1-Score(bp)",0.991,"plasmidSPAdes","A. baumannii"
"GCF_014705825.1_ASM1470582v1","bin_component_1","NZ_CP061526.1",14639,"small",0,"non-ARG-plasmid","F1-Score(bp)",0.987,"plasmidSPAdes","A. baumannii"
"GCF_005519135.2_ASM551913v2","bin_component_1","NZ_CP031381.2",17616,"small",1,"ARG-plasmid","F1-Score(bp)",0.54,"plasmidSPAdes","A. baumannii"
"GCF_016919525.1_ASM1691952v2","bin_component_4","NZ_CP070360.1",8731,"small",0,"non-ARG-plasmid","F1-Score(bp)",0.978,"plasmidSPAdes","A. baumannii"
"GCF_016919525.1_ASM1691952v2","bin_component_5","NZ_CP070359.1",1967,"small",0,"non-ARG-plasmid","F1-Score(bp)",0.906,"plasmidSPAdes","A. baumannii"
"GCF_019703285.1_ASM1970328v1","bin_component_1","NZ_AP024811.1",3496,"small",0,"non-ARG-plasmid","F1-Score(bp)",0.973,"plasmidSPAdes","A. baumannii"
"GCF_019703285.1_ASM1970328v1","bin_component_0","NZ_AP024804.1",12817,"small",0,"non-ARG-plasmid","F1-Score(bp)",0.301,"plasmidSPAdes","A. baumannii"
"GCF_019703285.1_ASM1970328v1","bin_component_0","NZ_AP024806.1",8091,"small",0,"non-ARG-plasmid","F1-Score(bp)",0.219,"plasmidSPAdes","A. baumannii"
"GCF_019703285.1_ASM1970328v1","bin_component_0","NZ_AP024805.1",10771,"small",0,"non-ARG-plasmid","F1-Score(bp)",0.259,"plasmidSPAdes","A. baumannii"
"GCF_019703285.1_ASM1970328v1","bin_component_0","NZ_AP024807.1",7104,"small",0,"non-ARG-plasmid","F1-Score(bp)",0.177,"plasmidSPAdes","A. baumannii"
"GCF_019703285.1_ASM1970328v1","bin_component_2","NZ_AP024812.1",2425,"small",0,"non-ARG-plasmid","F1-Score(bp)",0.975,"plasmidSPAdes","A. baumannii"
"GCF_014322245.1_ASM1432224v1","bin_component_2","NZ_CP047976.1",9132,"small",0,"non-ARG-plasmid","F1-Score(bp)",0.793,"plasmidSPAdes","A. baumannii"
"GCF_016903135.1_ASM1690313v1","bin_component_1","NZ_CP069842.1",14879,"small",0,"non-ARG-plasmid","F1-Score(bp)",0.992,"plasmidSPAdes","A. baumannii"
"GCF_018831125.1_ASM1883112v1","bin_component_1","NZ_CP048132.1",6078,"small",1,"ARG-plasmid","F1-Score(bp)",0.974,"plasmidSPAdes","A. baumannii"
"GCF_017753625.1_ASM1775362v1","bin_component_0","NZ_CP072529.1",NA,"small",0,"non-ARG-plasmid","F1-Score(bp)",0.11,"plasmidSPAdes","A. baumannii"
"GCF_019903235.1_ASM1990323v1","bin_component_1","NZ_CP061713.1",4261,"small",0,"non-ARG-plasmid","F1-Score(bp)",0.991,"plasmidSPAdes","A. baumannii"
"GCF_019903235.1_ASM1990323v1","bin_component_0","NZ_CP061707.1",19024,"small",1,"ARG-plasmid","F1-Score(bp)",0.124,"plasmidSPAdes","A. baumannii"
"GCF_019903235.1_ASM1990323v1","bin_component_0","NZ_CP061708.1",18169,"small",0,"non-ARG-plasmid","F1-Score(bp)",0.125,"plasmidSPAdes","A. baumannii"
"GCF_019903235.1_ASM1990323v1","bin_component_0","NZ_CP061712.1",5922,"small",0,"non-ARG-plasmid","F1-Score(bp)",0.012,"plasmidSPAdes","A. baumannii"
"GCF_019903235.1_ASM1990323v1","bin_component_0","NZ_CP061711.1",6763,"small",0,"non-ARG-plasmid","F1-Score(bp)",0.047,"plasmidSPAdes","A. baumannii"
"GCF_019903235.1_ASM1990323v1","bin_component_0","NZ_CP061710.1",7696,"small",0,"non-ARG-plasmid","F1-Score(bp)",0.06,"plasmidSPAdes","A. baumannii"
"GCF_019903235.1_ASM1990323v1","bin_component_0","NZ_CP061709.1",9499,"small",0,"non-ARG-plasmid","F1-Score(bp)",0.077,"plasmidSPAdes","A. baumannii"
"GCF_016919505.2_ASM1691950v2","bin_component_5","NZ_CP070364.1",8731,"small",0,"non-ARG-plasmid","F1-Score(bp)",0.978,"plasmidSPAdes","A. baumannii"
"GCF_016919505.2_ASM1691950v2","bin_component_8","NZ_CP070363.1",1967,"small",0,"non-ARG-plasmid","F1-Score(bp)",0.906,"plasmidSPAdes","A. baumannii"
"GCF_020810655.1_ASM2081065v1","bin_component_0","NZ_CP085789.1",10984,"small",1,"ARG-plasmid","F1-Score(bp)",0.76,"plasmidSPAdes","A. baumannii"
"GCF_020810655.1_ASM2081065v1","bin_component_0","NZ_CP085790.1",5797,"small",0,"non-ARG-plasmid","F1-Score(bp)",0.489,"plasmidSPAdes","A. baumannii"
"GCF_018831485.1_ASM1883148v1","bin_component_0","NZ_CP049315.1",11844,"small",0,"non-ARG-plasmid","F1-Score(bp)",0.99,"plasmidSPAdes","A. baumannii"
"GCF_016903215.1_ASM1690321v1","bin_component_0","NZ_CP069852.1",8731,"small",0,"non-ARG-plasmid","F1-Score(bp)",0.987,"plasmidSPAdes","A. baumannii"
"GCF_020132105.1_ASM2013210v1","bin_component_0","NZ_CP082953.1",9205,"small",0,"non-ARG-plasmid","F1-Score(bp)",0.987,"plasmidSPAdes","A. baumannii"
"GCF_013787185.1_ASM1378718v1","bin_component_3","NZ_CP059388.1",9458,"small",0,"non-ARG-plasmid","F1-Score(bp)",0.98,"plasmidSPAdes","A. baumannii"
"GCF_013787185.1_ASM1378718v1","bin_component_4","NZ_CP059390.1",4721,"small",0,"non-ARG-plasmid","F1-Score(bp)",0.958,"plasmidSPAdes","A. baumannii"
"GCF_014169655.1_ASM1416965v1","bin_component_2","NZ_AP022240.1",10735,"small",0,"non-ARG-plasmid","F1-Score(bp)",0.989,"plasmidSPAdes","A. baumannii"
"GCF_016127515.1_ASM1612751v1","bin_component_1","NZ_CP066017.1",8731,"small",0,"non-ARG-plasmid","F1-Score(bp)",0.903,"plasmidSPAdes","A. baumannii"
"GCF_016903135.1_ASM1690313v1","GCF_016903135.1_ASM1690313v1_bin_2","NZ_CP069842.1",14879,"small",0,"non-ARG-plasmid","Precision(bp)",1,"gplas2.0_plasmidEC","A. baumannii"
"GCF_020810655.1_ASM2081065v1","GCF_020810655.1_ASM2081065v1_bin_1","NZ_CP085789.1",10984,"small",1,"ARG-plasmid","Precision(bp)",0.992,"gplas2.0_plasmidEC","A. baumannii"
"GCF_020810655.1_ASM2081065v1","GCF_020810655.1_ASM2081065v1_bin_3","NZ_CP085790.1",5797,"small",0,"non-ARG-plasmid","Precision(bp)",0.986,"gplas2.0_plasmidEC","A. baumannii"
"GCF_019703285.1_ASM1970328v1","GCF_019703285.1_ASM1970328v1_bin_10","NZ_AP024812.1",2425,"small",0,"non-ARG-plasmid","Precision(bp)",0.992,"gplas2.0_plasmidEC","A. baumannii"
"GCF_019703285.1_ASM1970328v1","GCF_019703285.1_ASM1970328v1_bin_4","NZ_AP024805.1",10771,"small",0,"non-ARG-plasmid","Precision(bp)",1,"gplas2.0_plasmidEC","A. baumannii"
"GCF_019703285.1_ASM1970328v1","GCF_019703285.1_ASM1970328v1_bin_2","NZ_AP024813.1",2278,"small",0,"non-ARG-plasmid","Precision(bp)",1,"gplas2.0_plasmidEC","A. baumannii"
"GCF_019703285.1_ASM1970328v1","GCF_019703285.1_ASM1970328v1_bin_5","NZ_AP024810.1",2833,"small",0,"non-ARG-plasmid","Precision(bp)",1,"gplas2.0_plasmidEC","A. baumannii"
"GCF_019703285.1_ASM1970328v1","GCF_019703285.1_ASM1970328v1_bin_3","NZ_AP024806.1",8091,"small",0,"non-ARG-plasmid","Precision(bp)",1,"gplas2.0_plasmidEC","A. baumannii"
"GCF_019703285.1_ASM1970328v1","GCF_019703285.1_ASM1970328v1_bin_6","NZ_AP024804.1",12817,"small",0,"non-ARG-plasmid","Precision(bp)",1,"gplas2.0_plasmidEC","A. baumannii"
"GCF_019703285.1_ASM1970328v1","GCF_019703285.1_ASM1970328v1_bin_8","NZ_AP024808.1",5049,"small",0,"non-ARG-plasmid","Precision(bp)",1,"gplas2.0_plasmidEC","A. baumannii"
"GCF_019703285.1_ASM1970328v1","GCF_019703285.1_ASM1970328v1_bin_9","NZ_AP024811.1",3496,"small",0,"non-ARG-plasmid","Precision(bp)",1,"gplas2.0_plasmidEC","A. baumannii"
"GCF_019703285.1_ASM1970328v1","GCF_019703285.1_ASM1970328v1_bin_7","NZ_AP024807.1",7104,"small",0,"non-ARG-plasmid","Precision(bp)",1,"gplas2.0_plasmidEC","A. baumannii"
"GCF_019458485.1_ASM1945848v1","GCF_019458485.1_ASM1945848v1_bin_4","NZ_CP080453.1",2178,"small",0,"non-ARG-plasmid","Precision(bp)",1,"gplas2.0_plasmidEC","A. baumannii"
"GCF_019458485.1_ASM1945848v1","GCF_019458485.1_ASM1945848v1_bin_3","NZ_CP080454.1",2725,"small",0,"non-ARG-plasmid","Precision(bp)",1,"gplas2.0_plasmidEC","A. baumannii"
"GCF_019458485.1_ASM1945848v1","GCF_019458485.1_ASM1945848v1_bin_2","NZ_CP080455.1",6772,"small",0,"non-ARG-plasmid","Precision(bp)",1,"gplas2.0_plasmidEC","A. baumannii"
"GCF_013787185.1_ASM1378718v1","GCF_013787185.1_ASM1378718v1_bin_3","NZ_CP059388.1",9458,"small",0,"non-ARG-plasmid","Precision(bp)",1,"gplas2.0_plasmidEC","A. baumannii"
"GCF_013787185.1_ASM1378718v1","GCF_013787185.1_ASM1378718v1_bin_4","NZ_CP059389.1",5688,"small",0,"non-ARG-plasmid","Precision(bp)",1,"gplas2.0_plasmidEC","A. baumannii"
"GCF_013787185.1_ASM1378718v1","GCF_013787185.1_ASM1378718v1_bin_5","NZ_CP059390.1",4721,"small",0,"non-ARG-plasmid","Precision(bp)",1,"gplas2.0_plasmidEC","A. baumannii"
"GCF_013372085.1_ASM1337208v1","GCF_013372085.1_ASM1337208v1_bin_2","NZ_CP053099.1",13409,"small",0,"non-ARG-plasmid","Precision(bp)",1,"gplas2.0_plasmidEC","A. baumannii"
"GCF_013372085.1_ASM1337208v1","GCF_013372085.1_ASM1337208v1_bin_3","NZ_CP053100.1",11302,"small",0,"non-ARG-plasmid","Precision(bp)",1,"gplas2.0_plasmidEC","A. baumannii"
"GCF_018604365.1_ASM1860436v1","GCF_018604365.1_ASM1860436v1_bin_1","NZ_CP071764.1",1932,"small",0,"non-ARG-plasmid","Precision(bp)",0.848,"gplas2.0_plasmidEC","A. baumannii"
"GCF_020985285.1_ASM2098528v1","GCF_020985285.1_ASM2098528v1_bin_1","NZ_CP087595.1",8432,"small",0,"non-ARG-plasmid","Precision(bp)",0.984,"gplas2.0_plasmidEC","A. baumannii"
"GCF_020985285.1_ASM2098528v1","GCF_020985285.1_ASM2098528v1_bin_2","NZ_CP087596.1",5870,"small",0,"non-ARG-plasmid","Precision(bp)",1,"gplas2.0_plasmidEC","A. baumannii"
"GCF_018831485.1_ASM1883148v1","GCF_018831485.1_ASM1883148v1_bin_1","NZ_CP049315.1",11844,"small",0,"non-ARG-plasmid","Precision(bp)",1,"gplas2.0_plasmidEC","A. baumannii"
"GCF_019903235.1_ASM1990323v1","GCF_019903235.1_ASM1990323v1_bin_7","NZ_CP061713.1",4261,"small",0,"non-ARG-plasmid","Precision(bp)",0.95,"gplas2.0_plasmidEC","A. baumannii"
"GCF_019903235.1_ASM1990323v1","GCF_019903235.1_ASM1990323v1_bin_6","NZ_CP061711.1",6763,"small",0,"non-ARG-plasmid","Precision(bp)",1,"gplas2.0_plasmidEC","A. baumannii"
"GCF_019903235.1_ASM1990323v1","GCF_019903235.1_ASM1990323v1_bin_4","NZ_CP061712.1",5922,"small",0,"non-ARG-plasmid","Precision(bp)",0.205,"gplas2.0_plasmidEC","A. baumannii"
"GCF_019903235.1_ASM1990323v1","GCF_019903235.1_ASM1990323v1_bin_4","NZ_CP061707.1",19024,"small",1,"ARG-plasmid","Precision(bp)",0.723,"gplas2.0_plasmidEC","A. baumannii"
"GCF_019903235.1_ASM1990323v1","GCF_019903235.1_ASM1990323v1_bin_3","NZ_CP061710.1",7696,"small",0,"non-ARG-plasmid","Precision(bp)",0.409,"gplas2.0_plasmidEC","A. baumannii"
"GCF_019903235.1_ASM1990323v1","GCF_019903235.1_ASM1990323v1_bin_5","NZ_CP061708.1",18169,"small",0,"non-ARG-plasmid","Precision(bp)",1,"gplas2.0_plasmidEC","A. baumannii"
"GCF_018808925.1_ASM1880892v1","GCF_018808925.1_ASM1880892v1_bin_2","NZ_CP048850.1",2277,"small",0,"non-ARG-plasmid","Precision(bp)",1,"gplas2.0_plasmidEC","A. baumannii"
"GCF_015910475.1_ASM1591047v1","GCF_015910475.1_ASM1591047v1_bin_1","NZ_CP065434.1",6208,"small",0,"non-ARG-plasmid","Precision(bp)",1,"gplas2.0_plasmidEC","A. baumannii"
"GCF_015910475.1_ASM1591047v1","GCF_015910475.1_ASM1591047v1_bin_2","NZ_CP065433.1",8936,"small",0,"non-ARG-plasmid","Precision(bp)",1,"gplas2.0_plasmidEC","A. baumannii"
"GCF_014322245.1_ASM1432224v1","GCF_014322245.1_ASM1432224v1_bin_3","NZ_CP047976.1",9132,"small",0,"non-ARG-plasmid","Precision(bp)",1,"gplas2.0_plasmidEC","A. baumannii"
"GCF_019903155.1_ASM1990315v1","GCF_019903155.1_ASM1990315v1_bin_3","NZ_CP059545.1",7369,"small",0,"non-ARG-plasmid","Precision(bp)",1,"gplas2.0_plasmidEC","A. baumannii"
"GCF_019903155.1_ASM1990315v1","GCF_019903155.1_ASM1990315v1_bin_2","NZ_CP059544.1",11020,"small",0,"non-ARG-plasmid","Precision(bp)",1,"gplas2.0_plasmidEC","A. baumannii"
"GCF_016919505.2_ASM1691950v2","GCF_016919505.2_ASM1691950v2_bin_3","NZ_CP070363.1",1967,"small",0,"non-ARG-plasmid","Precision(bp)",1,"gplas2.0_plasmidEC","A. baumannii"
"GCF_020132105.1_ASM2013210v1","GCF_020132105.1_ASM2013210v1_bin_1","NZ_CP082953.1",9205,"small",0,"non-ARG-plasmid","Precision(bp)",1,"gplas2.0_plasmidEC","A. baumannii"
"GCF_018831125.1_ASM1883112v1","GCF_018831125.1_ASM1883112v1_bin_2","NZ_CP048132.1",6078,"small",1,"ARG-plasmid","Precision(bp)",1,"gplas2.0_plasmidEC","A. baumannii"
"GCF_016919525.1_ASM1691952v2","GCF_016919525.1_ASM1691952v2_bin_2","NZ_CP070359.1",1967,"small",0,"non-ARG-plasmid","Precision(bp)",1,"gplas2.0_plasmidEC","A. baumannii"
"GCF_014169655.1_ASM1416965v1","GCF_014169655.1_ASM1416965v1_bin_2","NZ_AP022240.1",10735,"small",0,"non-ARG-plasmid","Precision(bp)",1,"gplas2.0_plasmidEC","A. baumannii"
"GCF_014705825.1_ASM1470582v1","GCF_014705825.1_ASM1470582v1_bin_2","NZ_CP061526.1",14639,"small",0,"non-ARG-plasmid","Precision(bp)",1,"gplas2.0_plasmidEC","A. baumannii"
"GCF_016903135.1_ASM1690313v1","GCF_016903135.1_ASM1690313v1_bin_2","NZ_CP069842.1",14879,"small",0,"non-ARG-plasmid","Recall(bp)",0.925,"gplas2.0_plasmidEC","A. baumannii"
"GCF_020810655.1_ASM2081065v1","GCF_020810655.1_ASM2081065v1_bin_1","NZ_CP085789.1",10984,"small",1,"ARG-plasmid","Recall(bp)",0.984,"gplas2.0_plasmidEC","A. baumannii"
"GCF_020810655.1_ASM2081065v1","GCF_020810655.1_ASM2081065v1_bin_3","NZ_CP085790.1",5797,"small",0,"non-ARG-plasmid","Recall(bp)",0.824,"gplas2.0_plasmidEC","A. baumannii"
"GCF_019703285.1_ASM1970328v1","GCF_019703285.1_ASM1970328v1_bin_10","NZ_AP024812.1",2425,"small",0,"non-ARG-plasmid","Recall(bp)",0.992,"gplas2.0_plasmidEC","A. baumannii"
"GCF_019703285.1_ASM1970328v1","GCF_019703285.1_ASM1970328v1_bin_4","NZ_AP024805.1",10771,"small",0,"non-ARG-plasmid","Recall(bp)",0.994,"gplas2.0_plasmidEC","A. baumannii"
"GCF_019703285.1_ASM1970328v1","GCF_019703285.1_ASM1970328v1_bin_2","NZ_AP024813.1",2278,"small",0,"non-ARG-plasmid","Recall(bp)",1,"gplas2.0_plasmidEC","A. baumannii"
"GCF_019703285.1_ASM1970328v1","GCF_019703285.1_ASM1970328v1_bin_5","NZ_AP024810.1",2833,"small",0,"non-ARG-plasmid","Recall(bp)",0.718,"gplas2.0_plasmidEC","A. baumannii"
"GCF_019703285.1_ASM1970328v1","GCF_019703285.1_ASM1970328v1_bin_3","NZ_AP024806.1",8091,"small",0,"non-ARG-plasmid","Recall(bp)",0.904,"gplas2.0_plasmidEC","A. baumannii"
"GCF_019703285.1_ASM1970328v1","GCF_019703285.1_ASM1970328v1_bin_6","NZ_AP024804.1",12817,"small",0,"non-ARG-plasmid","Recall(bp)",1,"gplas2.0_plasmidEC","A. baumannii"
"GCF_019703285.1_ASM1970328v1","GCF_019703285.1_ASM1970328v1_bin_8","NZ_AP024808.1",5049,"small",0,"non-ARG-plasmid","Recall(bp)",1,"gplas2.0_plasmidEC","A. baumannii"
"GCF_019703285.1_ASM1970328v1","GCF_019703285.1_ASM1970328v1_bin_9","NZ_AP024811.1",3496,"small",0,"non-ARG-plasmid","Recall(bp)",1,"gplas2.0_plasmidEC","A. baumannii"
"GCF_019703285.1_ASM1970328v1","GCF_019703285.1_ASM1970328v1_bin_7","NZ_AP024807.1",7104,"small",0,"non-ARG-plasmid","Recall(bp)",1,"gplas2.0_plasmidEC","A. baumannii"
"GCF_019458485.1_ASM1945848v1","GCF_019458485.1_ASM1945848v1_bin_4","NZ_CP080453.1",2178,"small",0,"non-ARG-plasmid","Recall(bp)",1,"gplas2.0_plasmidEC","A. baumannii"
"GCF_019458485.1_ASM1945848v1","GCF_019458485.1_ASM1945848v1_bin_3","NZ_CP080454.1",2725,"small",0,"non-ARG-plasmid","Recall(bp)",1,"gplas2.0_plasmidEC","A. baumannii"
"GCF_019458485.1_ASM1945848v1","GCF_019458485.1_ASM1945848v1_bin_2","NZ_CP080455.1",6772,"small",0,"non-ARG-plasmid","Recall(bp)",0.839,"gplas2.0_plasmidEC","A. baumannii"
"GCF_013787185.1_ASM1378718v1","GCF_013787185.1_ASM1378718v1_bin_3","NZ_CP059388.1",9458,"small",0,"non-ARG-plasmid","Recall(bp)",1,"gplas2.0_plasmidEC","A. baumannii"
"GCF_013787185.1_ASM1378718v1","GCF_013787185.1_ASM1378718v1_bin_4","NZ_CP059389.1",5688,"small",0,"non-ARG-plasmid","Recall(bp)",1,"gplas2.0_plasmidEC","A. baumannii"
"GCF_013787185.1_ASM1378718v1","GCF_013787185.1_ASM1378718v1_bin_5","NZ_CP059390.1",4721,"small",0,"non-ARG-plasmid","Recall(bp)",1,"gplas2.0_plasmidEC","A. baumannii"
"GCF_013372085.1_ASM1337208v1","GCF_013372085.1_ASM1337208v1_bin_2","NZ_CP053099.1",13409,"small",0,"non-ARG-plasmid","Recall(bp)",1,"gplas2.0_plasmidEC","A. baumannii"
"GCF_013372085.1_ASM1337208v1","GCF_013372085.1_ASM1337208v1_bin_3","NZ_CP053100.1",11302,"small",0,"non-ARG-plasmid","Recall(bp)",1,"gplas2.0_plasmidEC","A. baumannii"
"GCF_018604365.1_ASM1860436v1","GCF_018604365.1_ASM1860436v1_bin_1","NZ_CP071764.1",1932,"small",0,"non-ARG-plasmid","Recall(bp)",0.848,"gplas2.0_plasmidEC","A. baumannii"
"GCF_020985285.1_ASM2098528v1","GCF_020985285.1_ASM2098528v1_bin_1","NZ_CP087595.1",8432,"small",0,"non-ARG-plasmid","Recall(bp)",0.984,"gplas2.0_plasmidEC","A. baumannii"
"GCF_020985285.1_ASM2098528v1","GCF_020985285.1_ASM2098528v1_bin_2","NZ_CP087596.1",5870,"small",0,"non-ARG-plasmid","Recall(bp)",1,"gplas2.0_plasmidEC","A. baumannii"
"GCF_018831485.1_ASM1883148v1","GCF_018831485.1_ASM1883148v1_bin_1","NZ_CP049315.1",11844,"small",0,"non-ARG-plasmid","Recall(bp)",1,"gplas2.0_plasmidEC","A. baumannii"
"GCF_019903235.1_ASM1990323v1","GCF_019903235.1_ASM1990323v1_bin_7","NZ_CP061713.1",4261,"small",0,"non-ARG-plasmid","Recall(bp)",0.95,"gplas2.0_plasmidEC","A. baumannii"
"GCF_019903235.1_ASM1990323v1","GCF_019903235.1_ASM1990323v1_bin_6","NZ_CP061711.1",6763,"small",0,"non-ARG-plasmid","Recall(bp)",1,"gplas2.0_plasmidEC","A. baumannii"
"GCF_019903235.1_ASM1990323v1","GCF_019903235.1_ASM1990323v1_bin_4","NZ_CP061712.1",5922,"small",0,"non-ARG-plasmid","Recall(bp)",0.809,"gplas2.0_plasmidEC","A. baumannii"
"GCF_019903235.1_ASM1990323v1","GCF_019903235.1_ASM1990323v1_bin_4","NZ_CP061707.1",19024,"small",1,"ARG-plasmid","Recall(bp)",0.874,"gplas2.0_plasmidEC","A. baumannii"
"GCF_019903235.1_ASM1990323v1","GCF_019903235.1_ASM1990323v1_bin_3","NZ_CP061710.1",7696,"small",0,"non-ARG-plasmid","Recall(bp)",0.963,"gplas2.0_plasmidEC","A. baumannii"
"GCF_019903235.1_ASM1990323v1","GCF_019903235.1_ASM1990323v1_bin_5","NZ_CP061708.1",18169,"small",0,"non-ARG-plasmid","Recall(bp)",0.509,"gplas2.0_plasmidEC","A. baumannii"
"GCF_018808925.1_ASM1880892v1","GCF_018808925.1_ASM1880892v1_bin_2","NZ_CP048850.1",2277,"small",0,"non-ARG-plasmid","Recall(bp)",1,"gplas2.0_plasmidEC","A. baumannii"
"GCF_015910475.1_ASM1591047v1","GCF_015910475.1_ASM1591047v1_bin_1","NZ_CP065434.1",6208,"small",0,"non-ARG-plasmid","Recall(bp)",0.774,"gplas2.0_plasmidEC","A. baumannii"
"GCF_015910475.1_ASM1591047v1","GCF_015910475.1_ASM1591047v1_bin_2","NZ_CP065433.1",8936,"small",0,"non-ARG-plasmid","Recall(bp)",0.728,"gplas2.0_plasmidEC","A. baumannii"
"GCF_014322245.1_ASM1432224v1","GCF_014322245.1_ASM1432224v1_bin_3","NZ_CP047976.1",9132,"small",0,"non-ARG-plasmid","Recall(bp)",0.856,"gplas2.0_plasmidEC","A. baumannii"
"GCF_019903155.1_ASM1990315v1","GCF_019903155.1_ASM1990315v1_bin_3","NZ_CP059545.1",7369,"small",0,"non-ARG-plasmid","Recall(bp)",1,"gplas2.0_plasmidEC","A. baumannii"
"GCF_019903155.1_ASM1990315v1","GCF_019903155.1_ASM1990315v1_bin_2","NZ_CP059544.1",11020,"small",0,"non-ARG-plasmid","Recall(bp)",1,"gplas2.0_plasmidEC","A. baumannii"
"GCF_016919505.2_ASM1691950v2","GCF_016919505.2_ASM1691950v2_bin_3","NZ_CP070363.1",1967,"small",0,"non-ARG-plasmid","Recall(bp)",1,"gplas2.0_plasmidEC","A. baumannii"
"GCF_020132105.1_ASM2013210v1","GCF_020132105.1_ASM2013210v1_bin_1","NZ_CP082953.1",9205,"small",0,"non-ARG-plasmid","Recall(bp)",1,"gplas2.0_plasmidEC","A. baumannii"
"GCF_018831125.1_ASM1883112v1","GCF_018831125.1_ASM1883112v1_bin_2","NZ_CP048132.1",6078,"small",1,"ARG-plasmid","Recall(bp)",1,"gplas2.0_plasmidEC","A. baumannii"
"GCF_016919525.1_ASM1691952v2","GCF_016919525.1_ASM1691952v2_bin_2","NZ_CP070359.1",1967,"small",0,"non-ARG-plasmid","Recall(bp)",1,"gplas2.0_plasmidEC","A. baumannii"
"GCF_014169655.1_ASM1416965v1","GCF_014169655.1_ASM1416965v1_bin_2","NZ_AP022240.1",10735,"small",0,"non-ARG-plasmid","Recall(bp)",1,"gplas2.0_plasmidEC","A. baumannii"
"GCF_014705825.1_ASM1470582v1","GCF_014705825.1_ASM1470582v1_bin_2","NZ_CP061526.1",14639,"small",0,"non-ARG-plasmid","Recall(bp)",1,"gplas2.0_plasmidEC","A. baumannii"
"GCF_016903135.1_ASM1690313v1","GCF_016903135.1_ASM1690313v1_bin_2","NZ_CP069842.1",14879,"small",0,"non-ARG-plasmid","F1-Score(bp)",0.961,"gplas2.0_plasmidEC","A. baumannii"
"GCF_020810655.1_ASM2081065v1","GCF_020810655.1_ASM2081065v1_bin_1","NZ_CP085789.1",10984,"small",1,"ARG-plasmid","F1-Score(bp)",0.988,"gplas2.0_plasmidEC","A. baumannii"
"GCF_020810655.1_ASM2081065v1","GCF_020810655.1_ASM2081065v1_bin_3","NZ_CP085790.1",5797,"small",0,"non-ARG-plasmid","F1-Score(bp)",0.898,"gplas2.0_plasmidEC","A. baumannii"
"GCF_019703285.1_ASM1970328v1","GCF_019703285.1_ASM1970328v1_bin_10","NZ_AP024812.1",2425,"small",0,"non-ARG-plasmid","F1-Score(bp)",0.992,"gplas2.0_plasmidEC","A. baumannii"
"GCF_019703285.1_ASM1970328v1","GCF_019703285.1_ASM1970328v1_bin_4","NZ_AP024805.1",10771,"small",0,"non-ARG-plasmid","F1-Score(bp)",0.997,"gplas2.0_plasmidEC","A. baumannii"
"GCF_019703285.1_ASM1970328v1","GCF_019703285.1_ASM1970328v1_bin_2","NZ_AP024813.1",2278,"small",0,"non-ARG-plasmid","F1-Score(bp)",1,"gplas2.0_plasmidEC","A. baumannii"
"GCF_019703285.1_ASM1970328v1","GCF_019703285.1_ASM1970328v1_bin_5","NZ_AP024810.1",2833,"small",0,"non-ARG-plasmid","F1-Score(bp)",0.836,"gplas2.0_plasmidEC","A. baumannii"
"GCF_019703285.1_ASM1970328v1","GCF_019703285.1_ASM1970328v1_bin_3","NZ_AP024806.1",8091,"small",0,"non-ARG-plasmid","F1-Score(bp)",0.95,"gplas2.0_plasmidEC","A. baumannii"
"GCF_019703285.1_ASM1970328v1","GCF_019703285.1_ASM1970328v1_bin_6","NZ_AP024804.1",12817,"small",0,"non-ARG-plasmid","F1-Score(bp)",1,"gplas2.0_plasmidEC","A. baumannii"
"GCF_019703285.1_ASM1970328v1","GCF_019703285.1_ASM1970328v1_bin_8","NZ_AP024808.1",5049,"small",0,"non-ARG-plasmid","F1-Score(bp)",1,"gplas2.0_plasmidEC","A. baumannii"
"GCF_019703285.1_ASM1970328v1","GCF_019703285.1_ASM1970328v1_bin_9","NZ_AP024811.1",3496,"small",0,"non-ARG-plasmid","F1-Score(bp)",1,"gplas2.0_plasmidEC","A. baumannii"
"GCF_019703285.1_ASM1970328v1","GCF_019703285.1_ASM1970328v1_bin_7","NZ_AP024807.1",7104,"small",0,"non-ARG-plasmid","F1-Score(bp)",1,"gplas2.0_plasmidEC","A. baumannii"
"GCF_019458485.1_ASM1945848v1","GCF_019458485.1_ASM1945848v1_bin_4","NZ_CP080453.1",2178,"small",0,"non-ARG-plasmid","F1-Score(bp)",1,"gplas2.0_plasmidEC","A. baumannii"
"GCF_019458485.1_ASM1945848v1","GCF_019458485.1_ASM1945848v1_bin_3","NZ_CP080454.1",2725,"small",0,"non-ARG-plasmid","F1-Score(bp)",1,"gplas2.0_plasmidEC","A. baumannii"
"GCF_019458485.1_ASM1945848v1","GCF_019458485.1_ASM1945848v1_bin_2","NZ_CP080455.1",6772,"small",0,"non-ARG-plasmid","F1-Score(bp)",0.912,"gplas2.0_plasmidEC","A. baumannii"
"GCF_013787185.1_ASM1378718v1","GCF_013787185.1_ASM1378718v1_bin_3","NZ_CP059388.1",9458,"small",0,"non-ARG-plasmid","F1-Score(bp)",1,"gplas2.0_plasmidEC","A. baumannii"
"GCF_013787185.1_ASM1378718v1","GCF_013787185.1_ASM1378718v1_bin_4","NZ_CP059389.1",5688,"small",0,"non-ARG-plasmid","F1-Score(bp)",1,"gplas2.0_plasmidEC","A. baumannii"
"GCF_013787185.1_ASM1378718v1","GCF_013787185.1_ASM1378718v1_bin_5","NZ_CP059390.1",4721,"small",0,"non-ARG-plasmid","F1-Score(bp)",1,"gplas2.0_plasmidEC","A. baumannii"
"GCF_013372085.1_ASM1337208v1","GCF_013372085.1_ASM1337208v1_bin_2","NZ_CP053099.1",13409,"small",0,"non-ARG-plasmid","F1-Score(bp)",1,"gplas2.0_plasmidEC","A. baumannii"
"GCF_013372085.1_ASM1337208v1","GCF_013372085.1_ASM1337208v1_bin_3","NZ_CP053100.1",11302,"small",0,"non-ARG-plasmid","F1-Score(bp)",1,"gplas2.0_plasmidEC","A. baumannii"
"GCF_018604365.1_ASM1860436v1","GCF_018604365.1_ASM1860436v1_bin_1","NZ_CP071764.1",1932,"small",0,"non-ARG-plasmid","F1-Score(bp)",0.848,"gplas2.0_plasmidEC","A. baumannii"
"GCF_020985285.1_ASM2098528v1","GCF_020985285.1_ASM2098528v1_bin_1","NZ_CP087595.1",8432,"small",0,"non-ARG-plasmid","F1-Score(bp)",0.984,"gplas2.0_plasmidEC","A. baumannii"
"GCF_020985285.1_ASM2098528v1","GCF_020985285.1_ASM2098528v1_bin_2","NZ_CP087596.1",5870,"small",0,"non-ARG-plasmid","F1-Score(bp)",1,"gplas2.0_plasmidEC","A. baumannii"
"GCF_018831485.1_ASM1883148v1","GCF_018831485.1_ASM1883148v1_bin_1","NZ_CP049315.1",11844,"small",0,"non-ARG-plasmid","F1-Score(bp)",1,"gplas2.0_plasmidEC","A. baumannii"
"GCF_019903235.1_ASM1990323v1","GCF_019903235.1_ASM1990323v1_bin_7","NZ_CP061713.1",4261,"small",0,"non-ARG-plasmid","F1-Score(bp)",0.95,"gplas2.0_plasmidEC","A. baumannii"
"GCF_019903235.1_ASM1990323v1","GCF_019903235.1_ASM1990323v1_bin_6","NZ_CP061711.1",6763,"small",0,"non-ARG-plasmid","F1-Score(bp)",1,"gplas2.0_plasmidEC","A. baumannii"
"GCF_019903235.1_ASM1990323v1","GCF_019903235.1_ASM1990323v1_bin_4","NZ_CP061712.1",5922,"small",0,"non-ARG-plasmid","F1-Score(bp)",0.327,"gplas2.0_plasmidEC","A. baumannii"
"GCF_019903235.1_ASM1990323v1","GCF_019903235.1_ASM1990323v1_bin_4","NZ_CP061707.1",19024,"small",1,"ARG-plasmid","F1-Score(bp)",0.791,"gplas2.0_plasmidEC","A. baumannii"
"GCF_019903235.1_ASM1990323v1","GCF_019903235.1_ASM1990323v1_bin_3","NZ_CP061710.1",7696,"small",0,"non-ARG-plasmid","F1-Score(bp)",0.574,"gplas2.0_plasmidEC","A. baumannii"
"GCF_019903235.1_ASM1990323v1","GCF_019903235.1_ASM1990323v1_bin_5","NZ_CP061708.1",18169,"small",0,"non-ARG-plasmid","F1-Score(bp)",0.675,"gplas2.0_plasmidEC","A. baumannii"
"GCF_018808925.1_ASM1880892v1","GCF_018808925.1_ASM1880892v1_bin_2","NZ_CP048850.1",2277,"small",0,"non-ARG-plasmid","F1-Score(bp)",1,"gplas2.0_plasmidEC","A. baumannii"
"GCF_015910475.1_ASM1591047v1","GCF_015910475.1_ASM1591047v1_bin_1","NZ_CP065434.1",6208,"small",0,"non-ARG-plasmid","F1-Score(bp)",0.873,"gplas2.0_plasmidEC","A. baumannii"
"GCF_015910475.1_ASM1591047v1","GCF_015910475.1_ASM1591047v1_bin_2","NZ_CP065433.1",8936,"small",0,"non-ARG-plasmid","F1-Score(bp)",0.843,"gplas2.0_plasmidEC","A. baumannii"
"GCF_014322245.1_ASM1432224v1","GCF_014322245.1_ASM1432224v1_bin_3","NZ_CP047976.1",9132,"small",0,"non-ARG-plasmid","F1-Score(bp)",0.922,"gplas2.0_plasmidEC","A. baumannii"
"GCF_019903155.1_ASM1990315v1","GCF_019903155.1_ASM1990315v1_bin_3","NZ_CP059545.1",7369,"small",0,"non-ARG-plasmid","F1-Score(bp)",1,"gplas2.0_plasmidEC","A. baumannii"
"GCF_019903155.1_ASM1990315v1","GCF_019903155.1_ASM1990315v1_bin_2","NZ_CP059544.1",11020,"small",0,"non-ARG-plasmid","F1-Score(bp)",1,"gplas2.0_plasmidEC","A. baumannii"
"GCF_016919505.2_ASM1691950v2","GCF_016919505.2_ASM1691950v2_bin_3","NZ_CP070363.1",1967,"small",0,"non-ARG-plasmid","F1-Score(bp)",1,"gplas2.0_plasmidEC","A. baumannii"
"GCF_020132105.1_ASM2013210v1","GCF_020132105.1_ASM2013210v1_bin_1","NZ_CP082953.1",9205,"small",0,"non-ARG-plasmid","F1-Score(bp)",1,"gplas2.0_plasmidEC","A. baumannii"
"GCF_018831125.1_ASM1883112v1","GCF_018831125.1_ASM1883112v1_bin_2","NZ_CP048132.1",6078,"small",1,"ARG-plasmid","F1-Score(bp)",1,"gplas2.0_plasmidEC","A. baumannii"
"GCF_016919525.1_ASM1691952v2","GCF_016919525.1_ASM1691952v2_bin_2","NZ_CP070359.1",1967,"small",0,"non-ARG-plasmid","F1-Score(bp)",1,"gplas2.0_plasmidEC","A. baumannii"
"GCF_014169655.1_ASM1416965v1","GCF_014169655.1_ASM1416965v1_bin_2","NZ_AP022240.1",10735,"small",0,"non-ARG-plasmid","F1-Score(bp)",1,"gplas2.0_plasmidEC","A. baumannii"
"GCF_014705825.1_ASM1470582v1","GCF_014705825.1_ASM1470582v1_bin_2","NZ_CP061526.1",14639,"small",0,"non-ARG-plasmid","F1-Score(bp)",1,"gplas2.0_plasmidEC","A. baumannii"
"GCF_018604365.1_ASM1860436v1","plasmid_AE296","NZ_CP071764.1",1932,"small",0,"non-ARG-plasmid","Precision(bp)",0.848,"MOB-suite","A. baumannii"
"GCF_014705825.1_ASM1470582v1","plasmid_AC163","NZ_CP061526.1",14639,"small",0,"non-ARG-plasmid","Precision(bp)",1,"MOB-suite","A. baumannii"
"GCF_005519135.2_ASM551913v2","plasmid_AE027","NZ_CP031381.2",17616,"small",1,"ARG-plasmid","Precision(bp)",1,"MOB-suite","A. baumannii"
"GCF_015910475.1_ASM1591047v1","plasmid_AB337","NZ_CP065434.1",6208,"small",0,"non-ARG-plasmid","Precision(bp)",1,"MOB-suite","A. baumannii"
"GCF_015910475.1_ASM1591047v1","plasmid_AE689","NZ_CP065433.1",8936,"small",0,"non-ARG-plasmid","Precision(bp)",0.867,"MOB-suite","A. baumannii"
"GCF_018808925.1_ASM1880892v1","plasmid_AE296","NZ_CP048850.1",2277,"small",0,"non-ARG-plasmid","Precision(bp)",1,"MOB-suite","A. baumannii"
"GCF_019903235.1_ASM1990323v1","plasmid_AB348","NZ_CP061712.1",5922,"small",0,"non-ARG-plasmid","Precision(bp)",1,"MOB-suite","A. baumannii"
"GCF_019903235.1_ASM1990323v1","plasmid_AE271","NZ_CP061709.1",9499,"small",0,"non-ARG-plasmid","Precision(bp)",0.114,"MOB-suite","A. baumannii"
"GCF_020132105.1_ASM2013210v1","plasmid_AE688","NZ_CP082953.1",9205,"small",0,"non-ARG-plasmid","Precision(bp)",1,"MOB-suite","A. baumannii"
"GCF_013372085.1_ASM1337208v1","plasmid_AE186","NZ_CP053099.1",13409,"small",0,"non-ARG-plasmid","Precision(bp)",1,"MOB-suite","A. baumannii"
"GCF_013372085.1_ASM1337208v1","plasmid_AC162","NZ_CP053100.1",11302,"small",0,"non-ARG-plasmid","Precision(bp)",1,"MOB-suite","A. baumannii"
"GCF_016919525.1_ASM1691952v2","plasmid_AF524","NZ_CP070359.1",1967,"small",0,"non-ARG-plasmid","Precision(bp)",1,"MOB-suite","A. baumannii"
"GCF_016919525.1_ASM1691952v2","plasmid_AC163","NZ_CP070360.1",8731,"small",0,"non-ARG-plasmid","Precision(bp)",1,"MOB-suite","A. baumannii"
"GCF_019703285.1_ASM1970328v1","plasmid_AE690","NZ_AP024804.1",12817,"small",0,"non-ARG-plasmid","Precision(bp)",0.899,"MOB-suite","A. baumannii"
"GCF_019703285.1_ASM1970328v1","plasmid_AE296","NZ_AP024813.1",2278,"small",0,"non-ARG-plasmid","Precision(bp)",1,"MOB-suite","A. baumannii"
"GCF_019703285.1_ASM1970328v1","plasmid_AH281","NZ_AP024811.1",3496,"small",0,"non-ARG-plasmid","Precision(bp)",1,"MOB-suite","A. baumannii"
"GCF_019703285.1_ASM1970328v1","plasmid_AC598","NZ_AP024806.1",8091,"small",0,"non-ARG-plasmid","Precision(bp)",1,"MOB-suite","A. baumannii"
"GCF_019703285.1_ASM1970328v1","plasmid_AD743","NZ_AP024807.1",7104,"small",0,"non-ARG-plasmid","Precision(bp)",0.668,"MOB-suite","A. baumannii"
"GCF_019703285.1_ASM1970328v1","plasmid_AD743","NZ_AP024805.1",10771,"small",0,"non-ARG-plasmid","Precision(bp)",0.332,"MOB-suite","A. baumannii"
"GCF_013787185.1_ASM1378718v1","plasmid_AD825","NZ_CP059390.1",4721,"small",0,"non-ARG-plasmid","Precision(bp)",1,"MOB-suite","A. baumannii"
"GCF_013787185.1_ASM1378718v1","plasmid_AB340","NZ_CP059388.1",9458,"small",0,"non-ARG-plasmid","Precision(bp)",1,"MOB-suite","A. baumannii"
"GCF_013787185.1_ASM1378718v1","plasmid_AD743","NZ_CP059389.1",5688,"small",0,"non-ARG-plasmid","Precision(bp)",0.39,"MOB-suite","A. baumannii"
"GCF_018831125.1_ASM1883112v1","plasmid_AB702","NZ_CP048132.1",6078,"small",1,"ARG-plasmid","Precision(bp)",1,"MOB-suite","A. baumannii"
"GCF_018831125.1_ASM1883112v1","plasmid_AB082","NZ_CP048133.1",8730,"small",0,"non-ARG-plasmid","Precision(bp)",0.111,"MOB-suite","A. baumannii"
"GCF_019903155.1_ASM1990315v1","plasmid_AD745","NZ_CP059545.1",7369,"small",0,"non-ARG-plasmid","Precision(bp)",1,"MOB-suite","A. baumannii"
"GCF_014322245.1_ASM1432224v1","plasmid_AD743","NZ_CP047976.1",9132,"small",0,"non-ARG-plasmid","Precision(bp)",1,"MOB-suite","A. baumannii"
"GCF_020985285.1_ASM2098528v1","plasmid_AD745","NZ_CP087595.1",8432,"small",0,"non-ARG-plasmid","Precision(bp)",0.984,"MOB-suite","A. baumannii"
"GCF_016903215.1_ASM1690321v1","plasmid_AC163","NZ_CP069852.1",8731,"small",0,"non-ARG-plasmid","Precision(bp)",0.765,"MOB-suite","A. baumannii"
"GCF_014169655.1_ASM1416965v1","plasmid_AD743","NZ_AP022240.1",10735,"small",0,"non-ARG-plasmid","Precision(bp)",1,"MOB-suite","A. baumannii"
"GCF_020810655.1_ASM2081065v1","plasmid_AB337","NZ_CP085790.1",5797,"small",0,"non-ARG-plasmid","Precision(bp)",1,"MOB-suite","A. baumannii"
"GCF_020810655.1_ASM2081065v1","plasmid_AB338","NZ_CP085790.1",5797,"small",0,"non-ARG-plasmid","Precision(bp)",0.956,"MOB-suite","A. baumannii"
"GCF_020810655.1_ASM2081065v1","plasmid_AC163","NZ_CP085789.1",10984,"small",1,"ARG-plasmid","Precision(bp)",0.992,"MOB-suite","A. baumannii"
"GCF_016127515.1_ASM1612751v1","plasmid_AC163","NZ_CP066017.1",8731,"small",0,"non-ARG-plasmid","Precision(bp)",0.716,"MOB-suite","A. baumannii"
"GCF_016919505.2_ASM1691950v2","plasmid_AF524","NZ_CP070363.1",1967,"small",0,"non-ARG-plasmid","Precision(bp)",1,"MOB-suite","A. baumannii"
"GCF_016919505.2_ASM1691950v2","plasmid_AC163","NZ_CP070364.1",8731,"small",0,"non-ARG-plasmid","Precision(bp)",1,"MOB-suite","A. baumannii"
"GCF_019458485.1_ASM1945848v1","plasmid_AB878","NZ_CP080454.1",2725,"small",0,"non-ARG-plasmid","Precision(bp)",1,"MOB-suite","A. baumannii"
"GCF_019458485.1_ASM1945848v1","plasmid_AB879","NZ_CP080453.1",2178,"small",0,"non-ARG-plasmid","Precision(bp)",1,"MOB-suite","A. baumannii"
"GCF_019458485.1_ASM1945848v1","plasmid_AC163","NZ_CP080456.1",8593,"small",0,"non-ARG-plasmid","Precision(bp)",0.705,"MOB-suite","A. baumannii"
"GCF_018831485.1_ASM1883148v1","plasmid_AC163","NZ_CP049315.1",11844,"small",0,"non-ARG-plasmid","Precision(bp)",1,"MOB-suite","A. baumannii"
"GCF_016903135.1_ASM1690313v1","plasmid_AD036","NZ_CP069842.1",14879,"small",0,"non-ARG-plasmid","Precision(bp)",0.925,"MOB-suite","A. baumannii"
"GCF_018604365.1_ASM1860436v1","plasmid_AE296","NZ_CP071764.1",1932,"small",0,"non-ARG-plasmid","Recall(bp)",0.848,"MOB-suite","A. baumannii"
"GCF_014705825.1_ASM1470582v1","plasmid_AC163","NZ_CP061526.1",14639,"small",0,"non-ARG-plasmid","Recall(bp)",1,"MOB-suite","A. baumannii"
"GCF_005519135.2_ASM551913v2","plasmid_AE027","NZ_CP031381.2",17616,"small",1,"ARG-plasmid","Recall(bp)",0.726,"MOB-suite","A. baumannii"
"GCF_015910475.1_ASM1591047v1","plasmid_AB337","NZ_CP065434.1",6208,"small",0,"non-ARG-plasmid","Recall(bp)",0.774,"MOB-suite","A. baumannii"
"GCF_015910475.1_ASM1591047v1","plasmid_AE689","NZ_CP065433.1",8936,"small",0,"non-ARG-plasmid","Recall(bp)",0.728,"MOB-suite","A. baumannii"
"GCF_018808925.1_ASM1880892v1","plasmid_AE296","NZ_CP048850.1",2277,"small",0,"non-ARG-plasmid","Recall(bp)",1,"MOB-suite","A. baumannii"
"GCF_019903235.1_ASM1990323v1","plasmid_AB348","NZ_CP061712.1",5922,"small",0,"non-ARG-plasmid","Recall(bp)",0.809,"MOB-suite","A. baumannii"
"GCF_019903235.1_ASM1990323v1","plasmid_AE271","NZ_CP061709.1",9499,"small",0,"non-ARG-plasmid","Recall(bp)",0.481,"MOB-suite","A. baumannii"
"GCF_020132105.1_ASM2013210v1","plasmid_AE688","NZ_CP082953.1",9205,"small",0,"non-ARG-plasmid","Recall(bp)",1,"MOB-suite","A. baumannii"
"GCF_013372085.1_ASM1337208v1","plasmid_AE186","NZ_CP053099.1",13409,"small",0,"non-ARG-plasmid","Recall(bp)",1,"MOB-suite","A. baumannii"
"GCF_013372085.1_ASM1337208v1","plasmid_AC162","NZ_CP053100.1",11302,"small",0,"non-ARG-plasmid","Recall(bp)",1,"MOB-suite","A. baumannii"
"GCF_016919525.1_ASM1691952v2","plasmid_AF524","NZ_CP070359.1",1967,"small",0,"non-ARG-plasmid","Recall(bp)",1,"MOB-suite","A. baumannii"
"GCF_016919525.1_ASM1691952v2","plasmid_AC163","NZ_CP070360.1",8731,"small",0,"non-ARG-plasmid","Recall(bp)",1,"MOB-suite","A. baumannii"
"GCF_019703285.1_ASM1970328v1","plasmid_AE690","NZ_AP024804.1",12817,"small",0,"non-ARG-plasmid","Recall(bp)",1,"MOB-suite","A. baumannii"
"GCF_019703285.1_ASM1970328v1","plasmid_AE296","NZ_AP024813.1",2278,"small",0,"non-ARG-plasmid","Recall(bp)",1,"MOB-suite","A. baumannii"
"GCF_019703285.1_ASM1970328v1","plasmid_AH281","NZ_AP024811.1",3496,"small",0,"non-ARG-plasmid","Recall(bp)",1,"MOB-suite","A. baumannii"
"GCF_019703285.1_ASM1970328v1","plasmid_AC598","NZ_AP024806.1",8091,"small",0,"non-ARG-plasmid","Recall(bp)",0.904,"MOB-suite","A. baumannii"
"GCF_019703285.1_ASM1970328v1","plasmid_AD743","NZ_AP024807.1",7104,"small",0,"non-ARG-plasmid","Recall(bp)",1,"MOB-suite","A. baumannii"
"GCF_019703285.1_ASM1970328v1","plasmid_AD743","NZ_AP024805.1",10771,"small",0,"non-ARG-plasmid","Recall(bp)",0.326,"MOB-suite","A. baumannii"
"GCF_013787185.1_ASM1378718v1","plasmid_AD825","NZ_CP059390.1",4721,"small",0,"non-ARG-plasmid","Recall(bp)",1,"MOB-suite","A. baumannii"
"GCF_013787185.1_ASM1378718v1","plasmid_AB340","NZ_CP059388.1",9458,"small",0,"non-ARG-plasmid","Recall(bp)",1,"MOB-suite","A. baumannii"
"GCF_013787185.1_ASM1378718v1","plasmid_AD743","NZ_CP059389.1",5688,"small",0,"non-ARG-plasmid","Recall(bp)",1,"MOB-suite","A. baumannii"
"GCF_018831125.1_ASM1883112v1","plasmid_AB702","NZ_CP048132.1",6078,"small",1,"ARG-plasmid","Recall(bp)",1,"MOB-suite","A. baumannii"
"GCF_018831125.1_ASM1883112v1","plasmid_AB082","NZ_CP048133.1",8730,"small",0,"non-ARG-plasmid","Recall(bp)",1,"MOB-suite","A. baumannii"
"GCF_019903155.1_ASM1990315v1","plasmid_AD745","NZ_CP059545.1",7369,"small",0,"non-ARG-plasmid","Recall(bp)",1,"MOB-suite","A. baumannii"
"GCF_014322245.1_ASM1432224v1","plasmid_AD743","NZ_CP047976.1",9132,"small",0,"non-ARG-plasmid","Recall(bp)",0.856,"MOB-suite","A. baumannii"
"GCF_020985285.1_ASM2098528v1","plasmid_AD745","NZ_CP087595.1",8432,"small",0,"non-ARG-plasmid","Recall(bp)",0.984,"MOB-suite","A. baumannii"
"GCF_016903215.1_ASM1690321v1","plasmid_AC163","NZ_CP069852.1",8731,"small",0,"non-ARG-plasmid","Recall(bp)",1,"MOB-suite","A. baumannii"
"GCF_014169655.1_ASM1416965v1","plasmid_AD743","NZ_AP022240.1",10735,"small",0,"non-ARG-plasmid","Recall(bp)",1,"MOB-suite","A. baumannii"
"GCF_020810655.1_ASM2081065v1","plasmid_AB337","NZ_CP085790.1",5797,"small",0,"non-ARG-plasmid","Recall(bp)",0.56,"MOB-suite","A. baumannii"
"GCF_020810655.1_ASM2081065v1","plasmid_AB338","NZ_CP085790.1",5797,"small",0,"non-ARG-plasmid","Recall(bp)",0.264,"MOB-suite","A. baumannii"
"GCF_020810655.1_ASM2081065v1","plasmid_AC163","NZ_CP085789.1",10984,"small",1,"ARG-plasmid","Recall(bp)",0.984,"MOB-suite","A. baumannii"
"GCF_016127515.1_ASM1612751v1","plasmid_AC163","NZ_CP066017.1",8731,"small",0,"non-ARG-plasmid","Recall(bp)",0.847,"MOB-suite","A. baumannii"
"GCF_016919505.2_ASM1691950v2","plasmid_AF524","NZ_CP070363.1",1967,"small",0,"non-ARG-plasmid","Recall(bp)",1,"MOB-suite","A. baumannii"
"GCF_016919505.2_ASM1691950v2","plasmid_AC163","NZ_CP070364.1",8731,"small",0,"non-ARG-plasmid","Recall(bp)",1,"MOB-suite","A. baumannii"
"GCF_019458485.1_ASM1945848v1","plasmid_AB878","NZ_CP080454.1",2725,"small",0,"non-ARG-plasmid","Recall(bp)",1,"MOB-suite","A. baumannii"
"GCF_019458485.1_ASM1945848v1","plasmid_AB879","NZ_CP080453.1",2178,"small",0,"non-ARG-plasmid","Recall(bp)",1,"MOB-suite","A. baumannii"
"GCF_019458485.1_ASM1945848v1","plasmid_AC163","NZ_CP080456.1",8593,"small",0,"non-ARG-plasmid","Recall(bp)",0.984,"MOB-suite","A. baumannii"
"GCF_018831485.1_ASM1883148v1","plasmid_AC163","NZ_CP049315.1",11844,"small",0,"non-ARG-plasmid","Recall(bp)",1,"MOB-suite","A. baumannii"
"GCF_016903135.1_ASM1690313v1","plasmid_AD036","NZ_CP069842.1",14879,"small",0,"non-ARG-plasmid","Recall(bp)",0.925,"MOB-suite","A. baumannii"
"GCF_018604365.1_ASM1860436v1","plasmid_AE296","NZ_CP071764.1",1932,"small",0,"non-ARG-plasmid","F1-Score(bp)",0.848,"MOB-suite","A. baumannii"
"GCF_014705825.1_ASM1470582v1","plasmid_AC163","NZ_CP061526.1",14639,"small",0,"non-ARG-plasmid","F1-Score(bp)",1,"MOB-suite","A. baumannii"
"GCF_005519135.2_ASM551913v2","plasmid_AE027","NZ_CP031381.2",17616,"small",1,"ARG-plasmid","F1-Score(bp)",0.841,"MOB-suite","A. baumannii"
"GCF_015910475.1_ASM1591047v1","plasmid_AB337","NZ_CP065434.1",6208,"small",0,"non-ARG-plasmid","F1-Score(bp)",0.873,"MOB-suite","A. baumannii"
"GCF_015910475.1_ASM1591047v1","plasmid_AE689","NZ_CP065433.1",8936,"small",0,"non-ARG-plasmid","F1-Score(bp)",0.791,"MOB-suite","A. baumannii"
"GCF_018808925.1_ASM1880892v1","plasmid_AE296","NZ_CP048850.1",2277,"small",0,"non-ARG-plasmid","F1-Score(bp)",1,"MOB-suite","A. baumannii"
"GCF_019903235.1_ASM1990323v1","plasmid_AB348","NZ_CP061712.1",5922,"small",0,"non-ARG-plasmid","F1-Score(bp)",0.894,"MOB-suite","A. baumannii"
"GCF_019903235.1_ASM1990323v1","plasmid_AE271","NZ_CP061709.1",9499,"small",0,"non-ARG-plasmid","F1-Score(bp)",0.184,"MOB-suite","A. baumannii"
"GCF_020132105.1_ASM2013210v1","plasmid_AE688","NZ_CP082953.1",9205,"small",0,"non-ARG-plasmid","F1-Score(bp)",1,"MOB-suite","A. baumannii"
"GCF_013372085.1_ASM1337208v1","plasmid_AE186","NZ_CP053099.1",13409,"small",0,"non-ARG-plasmid","F1-Score(bp)",1,"MOB-suite","A. baumannii"
"GCF_013372085.1_ASM1337208v1","plasmid_AC162","NZ_CP053100.1",11302,"small",0,"non-ARG-plasmid","F1-Score(bp)",1,"MOB-suite","A. baumannii"
"GCF_016919525.1_ASM1691952v2","plasmid_AF524","NZ_CP070359.1",1967,"small",0,"non-ARG-plasmid","F1-Score(bp)",1,"MOB-suite","A. baumannii"
"GCF_016919525.1_ASM1691952v2","plasmid_AC163","NZ_CP070360.1",8731,"small",0,"non-ARG-plasmid","F1-Score(bp)",1,"MOB-suite","A. baumannii"
"GCF_019703285.1_ASM1970328v1","plasmid_AE690","NZ_AP024804.1",12817,"small",0,"non-ARG-plasmid","F1-Score(bp)",0.947,"MOB-suite","A. baumannii"
"GCF_019703285.1_ASM1970328v1","plasmid_AE296","NZ_AP024813.1",2278,"small",0,"non-ARG-plasmid","F1-Score(bp)",1,"MOB-suite","A. baumannii"
"GCF_019703285.1_ASM1970328v1","plasmid_AH281","NZ_AP024811.1",3496,"small",0,"non-ARG-plasmid","F1-Score(bp)",1,"MOB-suite","A. baumannii"
"GCF_019703285.1_ASM1970328v1","plasmid_AC598","NZ_AP024806.1",8091,"small",0,"non-ARG-plasmid","F1-Score(bp)",0.95,"MOB-suite","A. baumannii"
"GCF_019703285.1_ASM1970328v1","plasmid_AD743","NZ_AP024807.1",7104,"small",0,"non-ARG-plasmid","F1-Score(bp)",0.801,"MOB-suite","A. baumannii"
"GCF_019703285.1_ASM1970328v1","plasmid_AD743","NZ_AP024805.1",10771,"small",0,"non-ARG-plasmid","F1-Score(bp)",0.329,"MOB-suite","A. baumannii"
"GCF_013787185.1_ASM1378718v1","plasmid_AD825","NZ_CP059390.1",4721,"small",0,"non-ARG-plasmid","F1-Score(bp)",1,"MOB-suite","A. baumannii"
"GCF_013787185.1_ASM1378718v1","plasmid_AB340","NZ_CP059388.1",9458,"small",0,"non-ARG-plasmid","F1-Score(bp)",1,"MOB-suite","A. baumannii"
"GCF_013787185.1_ASM1378718v1","plasmid_AD743","NZ_CP059389.1",5688,"small",0,"non-ARG-plasmid","F1-Score(bp)",0.561,"MOB-suite","A. baumannii"
"GCF_018831125.1_ASM1883112v1","plasmid_AB702","NZ_CP048132.1",6078,"small",1,"ARG-plasmid","F1-Score(bp)",1,"MOB-suite","A. baumannii"
"GCF_018831125.1_ASM1883112v1","plasmid_AB082","NZ_CP048133.1",8730,"small",0,"non-ARG-plasmid","F1-Score(bp)",0.2,"MOB-suite","A. baumannii"
"GCF_019903155.1_ASM1990315v1","plasmid_AD745","NZ_CP059545.1",7369,"small",0,"non-ARG-plasmid","F1-Score(bp)",1,"MOB-suite","A. baumannii"
"GCF_014322245.1_ASM1432224v1","plasmid_AD743","NZ_CP047976.1",9132,"small",0,"non-ARG-plasmid","F1-Score(bp)",0.922,"MOB-suite","A. baumannii"
"GCF_020985285.1_ASM2098528v1","plasmid_AD745","NZ_CP087595.1",8432,"small",0,"non-ARG-plasmid","F1-Score(bp)",0.984,"MOB-suite","A. baumannii"
"GCF_016903215.1_ASM1690321v1","plasmid_AC163","NZ_CP069852.1",8731,"small",0,"non-ARG-plasmid","F1-Score(bp)",0.867,"MOB-suite","A. baumannii"
"GCF_014169655.1_ASM1416965v1","plasmid_AD743","NZ_AP022240.1",10735,"small",0,"non-ARG-plasmid","F1-Score(bp)",1,"MOB-suite","A. baumannii"
"GCF_020810655.1_ASM2081065v1","plasmid_AB337","NZ_CP085790.1",5797,"small",0,"non-ARG-plasmid","F1-Score(bp)",0.718,"MOB-suite","A. baumannii"
"GCF_020810655.1_ASM2081065v1","plasmid_AB338","NZ_CP085790.1",5797,"small",0,"non-ARG-plasmid","F1-Score(bp)",0.414,"MOB-suite","A. baumannii"
"GCF_020810655.1_ASM2081065v1","plasmid_AC163","NZ_CP085789.1",10984,"small",1,"ARG-plasmid","F1-Score(bp)",0.988,"MOB-suite","A. baumannii"
"GCF_016127515.1_ASM1612751v1","plasmid_AC163","NZ_CP066017.1",8731,"small",0,"non-ARG-plasmid","F1-Score(bp)",0.776,"MOB-suite","A. baumannii"
"GCF_016919505.2_ASM1691950v2","plasmid_AF524","NZ_CP070363.1",1967,"small",0,"non-ARG-plasmid","F1-Score(bp)",1,"MOB-suite","A. baumannii"
"GCF_016919505.2_ASM1691950v2","plasmid_AC163","NZ_CP070364.1",8731,"small",0,"non-ARG-plasmid","F1-Score(bp)",1,"MOB-suite","A. baumannii"
"GCF_019458485.1_ASM1945848v1","plasmid_AB878","NZ_CP080454.1",2725,"small",0,"non-ARG-plasmid","F1-Score(bp)",1,"MOB-suite","A. baumannii"
"GCF_019458485.1_ASM1945848v1","plasmid_AB879","NZ_CP080453.1",2178,"small",0,"non-ARG-plasmid","F1-Score(bp)",1,"MOB-suite","A. baumannii"
"GCF_019458485.1_ASM1945848v1","plasmid_AC163","NZ_CP080456.1",8593,"small",0,"non-ARG-plasmid","F1-Score(bp)",0.821,"MOB-suite","A. baumannii"
"GCF_018831485.1_ASM1883148v1","plasmid_AC163","NZ_CP049315.1",11844,"small",0,"non-ARG-plasmid","F1-Score(bp)",1,"MOB-suite","A. baumannii"
"GCF_016903135.1_ASM1690313v1","plasmid_AD036","NZ_CP069842.1",14879,"small",0,"non-ARG-plasmid","F1-Score(bp)",0.925,"MOB-suite","A. baumannii"
