"software","variable","value","percentage","replicon_origin","species"
"gplas2.0_plasmidEC","Detected",36,"60","Plasmidome","A. baumannii"
"MOB-suite","Detected",42,"70","Plasmidome","A. baumannii"
"plasmidSPAdes","Detected",39,"65","Plasmidome","A. baumannii"
"gplas2.0_plasmidEC","Contamination",10,"not_applicable","Chromosome","A. baumannii"
"MOB-suite","Contamination",47,"not_applicable","Chromosome","A. baumannii"
"plasmidSPAdes","Contamination",62,"not_applicable","Chromosome","A. baumannii"
"gplas2.0_plasmidEC","Not detected",24,"40","Plasmidome","A. baumannii"
"MOB-suite","Not detected",18,"30","Plasmidome","A. baumannii"
"plasmidSPAdes","Not detected",21,"35","Plasmidome","A. baumannii"
