"true_classification","strain","repeats_per_strain","species"
"ambiguous","GCF_005519135.2_ASM551913v2",9,"A. baumannii"
"ambiguous","GCF_014322245.1_ASM1432224v1",10,"A. baumannii"
"ambiguous","GCF_016903135.1_ASM1690313v1",7,"A. baumannii"
"ambiguous","GCF_018808925.1_ASM1880892v1",37,"A. baumannii"
"ambiguous","GCF_018831125.1_ASM1883112v1",13,"A. baumannii"
"ambiguous","GCF_019458485.1_ASM1945848v1",3,"A. baumannii"
"ambiguous","GCF_019703285.1_ASM1970328v1",2,"A. baumannii"
"ambiguous","GCF_019903235.1_ASM1990323v1",15,"A. baumannii"
"repeat chromosome","GCF_005519135.2_ASM551913v2",8,"A. baumannii"
"repeat chromosome","GCF_013372085.1_ASM1337208v1",14,"A. baumannii"
"repeat chromosome","GCF_013787185.1_ASM1378718v1",34,"A. baumannii"
"repeat chromosome","GCF_014159355.1_ASM1415935v1",22,"A. baumannii"
"repeat chromosome","GCF_014169655.1_ASM1416965v1",17,"A. baumannii"
"repeat chromosome","GCF_014322245.1_ASM1432224v1",29,"A. baumannii"
"repeat chromosome","GCF_014705785.1_ASM1470578v1",57,"A. baumannii"
"repeat chromosome","GCF_014705805.1_ASM1470580v1",57,"A. baumannii"
"repeat chromosome","GCF_014705825.1_ASM1470582v1",38,"A. baumannii"
"repeat chromosome","GCF_014705845.1_ASM1470584v1",55,"A. baumannii"
"repeat chromosome","GCF_014705865.1_ASM1470586v1",42,"A. baumannii"
"repeat chromosome","GCF_014705885.1_ASM1470588v1",57,"A. baumannii"
"repeat chromosome","GCF_015732435.1_ASM1573243v1",57,"A. baumannii"
"repeat chromosome","GCF_015910475.1_ASM1591047v1",40,"A. baumannii"
"repeat chromosome","GCF_016127515.1_ASM1612751v1",38,"A. baumannii"
"repeat chromosome","GCF_016903135.1_ASM1690313v1",21,"A. baumannii"
"repeat chromosome","GCF_016903215.1_ASM1690321v1",26,"A. baumannii"
"repeat chromosome","GCF_016919505.2_ASM1691950v2",17,"A. baumannii"
"repeat chromosome","GCF_016919525.1_ASM1691952v2",23,"A. baumannii"
"repeat chromosome","GCF_017753625.1_ASM1775362v1",10,"A. baumannii"
"repeat chromosome","GCF_018135585.1_ASM1813558v1",14,"A. baumannii"
"repeat chromosome","GCF_018604365.1_ASM1860436v1",24,"A. baumannii"
"repeat chromosome","GCF_018808925.1_ASM1880892v1",9,"A. baumannii"
"repeat chromosome","GCF_018831125.1_ASM1883112v1",11,"A. baumannii"
"repeat chromosome","GCF_018831465.1_ASM1883146v1",8,"A. baumannii"
"repeat chromosome","GCF_018831485.1_ASM1883148v1",9,"A. baumannii"
"repeat chromosome","GCF_019458485.1_ASM1945848v1",42,"A. baumannii"
"repeat chromosome","GCF_019703285.1_ASM1970328v1",16,"A. baumannii"
"repeat chromosome","GCF_019903155.1_ASM1990315v1",17,"A. baumannii"
"repeat chromosome","GCF_019903195.1_ASM1990319v1",14,"A. baumannii"
"repeat chromosome","GCF_019903215.1_ASM1990321v1",17,"A. baumannii"
"repeat chromosome","GCF_019903235.1_ASM1990323v1",28,"A. baumannii"
"repeat chromosome","GCF_020132105.1_ASM2013210v1",17,"A. baumannii"
"repeat chromosome","GCF_020810655.1_ASM2081065v1",22,"A. baumannii"
"repeat chromosome","GCF_020985285.1_ASM2098528v1",31,"A. baumannii"
"repeat chromosome","GCF_021484905.1_ASM2148490v1",95,"A. baumannii"
"repeat chromosome","GCF_021609965.1_ASM2160996v1",65,"A. baumannii"
"repeat plasmid","GCF_014322245.1_ASM1432224v1",2,"A. baumannii"
"repeat plasmid","GCF_015910475.1_ASM1591047v1",3,"A. baumannii"
"repeat plasmid","GCF_016919505.2_ASM1691950v2",2,"A. baumannii"
"repeat plasmid","GCF_016919525.1_ASM1691952v2",5,"A. baumannii"
"repeat plasmid","GCF_017753625.1_ASM1775362v1",4,"A. baumannii"
"repeat plasmid","GCF_018135585.1_ASM1813558v1",2,"A. baumannii"
"repeat plasmid","GCF_019903235.1_ASM1990323v1",3,"A. baumannii"
