GCF_001831985.2_ASM183198v2,NODE_1_length_102955_cov_82.786874_component_1,102955,
GCF_001831985.2_ASM183198v2,NODE_6_length_22438_cov_86.693126_component_1,22438,
GCF_001831985.2_ASM183198v2,NODE_7_length_6121_cov_85.543349_component_1,6121,
GCF_001831985.2_ASM183198v2,NODE_11_length_1147_cov_175.010280_component_1,1147,
GCF_001831985.2_ASM183198v2,NODE_12_length_1107_cov_91.078641_component_1,1107,
GCF_016454525.1_ASM1645452v1,NODE_2_length_9802_cov_77.655194_component_0,9802,
GCF_016454205.1_ASM1645420v1,NODE_7_length_2177_cov_13.827317_component_0,2177,
GCF_016454205.1_ASM1645420v1,NODE_9_length_1060_cov_23.416935_component_0,1060,
GCF_006461325.2_ASM646132v2,NODE_1_length_36712_cov_2247.819954_component_0,36712,
GCF_006461325.2_ASM646132v2,NODE_2_length_35902_cov_6.622275_component_0,35902,
GCF_006461325.2_ASM646132v2,NODE_6_length_5101_cov_27.848129_component_0,5101,
GCF_013348865.1_ASM1334886v1,NODE_5_length_34412_cov_150.085431_component_0,34412,
GCF_016127435.1_ASM1612743v1,NODE_10_length_12318_cov_2.643085_component_10,12318,
GCF_016127435.1_ASM1612743v1,NODE_11_length_12225_cov_2.928136_component_11,12225,
GCF_016127435.1_ASM1612743v1,NODE_12_length_11549_cov_3.232915_component_12,11549,
GCF_016127435.1_ASM1612743v1,NODE_13_length_11494_cov_2.415433_component_13,11494,
GCF_016127435.1_ASM1612743v1,NODE_14_length_10825_cov_2.857183_component_14,10825,
GCF_016127435.1_ASM1612743v1,NODE_18_length_5463_cov_29.238582_component_16,5463,
GCF_016454425.1_ASM1645442v1,NODE_5_length_4951_cov_2492.611733_component_1,4951,
GCF_016454425.1_ASM1645442v1,NODE_7_length_3577_cov_2709.473333_component_1,3577,
GCF_016454425.1_ASM1645442v1,NODE_9_length_2939_cov_1732.245377_component_1,2939,
GCF_016454425.1_ASM1645442v1,NODE_12_length_1547_cov_1655.133099_component_1,1547,
GCF_016454425.1_ASM1645442v1,NODE_15_length_1295_cov_1664.422089_component_1,1295,
GCF_016454425.1_ASM1645442v1,NODE_16_length_1214_cov_1494.896044_component_1,1214,
GCF_001834965.2_ASM183496v2,NODE_2_length_26099_cov_152.295212_component_1,26099,
GCF_014334255.1_ASM1433425v1,NODE_6_length_2092_cov_3.032570_component_0,2092,
GCF_016025415.1_ASM1602541v1,NODE_2_length_70469_cov_67.319368_component_0,70469,
GCF_016025415.1_ASM1602541v1,NODE_3_length_25398_cov_68.301492_component_0,25398,
