GCF_016025395.1_ASM1602539v1,plasmid_AD312,NZ_CP065566.1,23168,21710
GCF_016454205.1_ASM1645420v1,plasmid_AA163,no_correct_alignments,0,0
GCF_016454205.1_ASM1645420v1,plasmid_AB038,no_correct_alignments,0,0
GCF_016454205.1_ASM1645420v1,plasmid_AA474,NZ_CP051351.1,106996,110493
GCF_016454205.1_ASM1645420v1,plasmid_AA474,NZ_CP051352.1,3492,110493
GCF_016454205.1_ASM1645420v1,plasmid_AC120,NZ_CP051352.1,4822,4822
GCF_016454205.1_ASM1645420v1,plasmid_AA974,no_correct_alignments,0,0
GCF_016454205.1_ASM1645420v1,plasmid_AA521,no_correct_alignments,0,0
GCF_016454205.1_ASM1645420v1,plasmid_AB241,no_correct_alignments,0,0
GCF_016454205.1_ASM1645420v1,plasmid_AB233,no_correct_alignments,0,0
GCF_001973785.2_ASM197378v2,plasmid_AB461,NZ_CP075123.1,55316,53533
GCF_001973785.2_ASM197378v2,plasmid_AB461,NZ_CP075122.1,2160,53533
GCF_001973785.2_ASM197378v2,plasmid_AB233,NZ_CP075124.1,32833,32950
GCF_001834735.2_ASM183473v2,plasmid_AB544,NZ_CP075133.1,121991,121992
GCF_021397675.1_ASM2139767v1,plasmid_AA738,NZ_CP090134.1,274256,255864
GCF_021397675.1_ASM2139767v1,plasmid_AA738,NZ_CP090133.1,2130,255864
GCF_021397675.1_ASM2139767v1,plasmid_AA001,NZ_CP090135.1,50749,49549
GCF_021397675.1_ASM2139767v1,plasmid_AA162,NZ_CP090136.1,4593,4593
GCF_003064405.2_ASM306440v2,plasmid_AD306,NZ_CP077695.1,25879,25879
GCF_003064405.2_ASM306440v2,plasmid_AB544,NZ_CP077694.1,126495,125348
GCF_016454525.1_ASM1645452v1,plasmid_AA860,NZ_CP051397.1,179727,177058
GCF_016454525.1_ASM1645452v1,plasmid_AD097,NZ_CP051397.1,4065,5335
GCF_016454525.1_ASM1645452v1,plasmid_AD097,NZ_CP051396.1,7620,5335
GCF_019670225.1_ASM1967022v1,plasmid_AC120,NZ_AP023293.1,7574,10235
GCF_019670225.1_ASM1967022v1,plasmid_AC120,NZ_AP023292.1,4388,10235
GCF_019670225.1_ASM1967022v1,plasmid_AC082,NZ_AP023292.1,21878,20543
GCF_015241115.1_ASM1524111v1,plasmid_AD482,NZ_CP063710.1,3087,3272
GCF_015241115.1_ASM1524111v1,plasmid_AB461,NZ_CP063709.1,59072,59072
GCF_015241115.1_ASM1524111v1,plasmid_AB461,NZ_CP063708.1,1029,59072
GCF_014334175.1_ASM1433417v1,plasmid_AA859,NZ_CP060509.1,131244,131244
GCF_014334175.1_ASM1433417v1,plasmid_AA163,NZ_CP060510.1,3372,3372
GCF_014334175.1_ASM1433417v1,plasmid_AA474,NZ_CP060509.1,64970,63016
GCF_014334175.1_ASM1433417v1,plasmid_AA474,NZ_CP060508.1,3908,63016
GCF_014334175.1_ASM1433417v1,plasmid_AB042,NZ_CP060511.1,2978,2978
GCF_016025375.1_ASM1602537v1,plasmid_AB238,NZ_CP065565.1,1982,1982
GCF_015074905.1_ASM1507490v1,plasmid_AA473,NZ_CP063296.1,95858,97212
GCF_015074905.1_ASM1507490v1,plasmid_AA473,NZ_CP063295.1,2708,97212
GCF_015074905.1_ASM1507490v1,plasmid_AD158,NZ_CP063297.1,33702,42126
GCF_015074905.1_ASM1507490v1,plasmid_AD158,NZ_CP063295.1,8424,42126
GCF_015074905.1_ASM1507490v1,plasmid_AD486,NZ_CP063299.1,3257,3257
GCF_015074905.1_ASM1507490v1,plasmid_AE235,NZ_CP063300.1,1718,1718
GCF_015074905.1_ASM1507490v1,plasmid_AA860,NZ_CP063295.1,129782,128648
GCF_015074905.1_ASM1507490v1,plasmid_AA575,NZ_CP063298.1,4234,4234
GCF_015074905.1_ASM1507490v1,plasmid_AC082,NZ_CP063295.1,14463,14463
GCF_019670265.1_ASM1967026v1,plasmid_AC082,NZ_AP023299.1,24924,24924
GCF_014334195.1_ASM1433419v1,plasmid_AB957,NZ_CP060513.1,8055,8055
GCF_014334195.1_ASM1433419v1,plasmid_AB537,NZ_CP060514.1,41605,43717
GCF_014334195.1_ASM1433419v1,plasmid_AC358,NZ_CP060513.1,242419,241318
GCF_014334195.1_ASM1433419v1,plasmid_AC358,NZ_CP060512.1,1101,241318
GCF_016889645.1_ASM1688964v1,plasmid_AA622,NZ_CP069519.1,128163,128163
GCF_015159575.1_ASM1515957v1,plasmid_AB241,NZ_CP063331.1,2097,2097
GCF_016025435.1_ASM1602543v1,plasmid_AA474,NZ_CP065573.1,83532,87176
GCF_016025435.1_ASM1602543v1,plasmid_AA474,NZ_CP065572.1,3644,87176
GCF_019670445.1_ASM1967044v1,plasmid_AA738,NZ_AP023318.1,146901,158671
GCF_019670445.1_ASM1967044v1,plasmid_AA738,NZ_AP023317.1,11770,158671
GCF_019670285.1_ASM1967028v1,plasmid_AA594,NZ_AP023301.1,113977,111894
GCF_019670285.1_ASM1967028v1,plasmid_AA594,NZ_AP023300.1,1530,111894
GCF_019670285.1_ASM1967028v1,plasmid_AC120,NZ_AP023302.1,7257,8995
GCF_019670285.1_ASM1967028v1,plasmid_AC120,NZ_AP023300.1,3337,8995
GCF_019670285.1_ASM1967028v1,plasmid_AC082,NZ_AP023300.1,17893,23462
GCF_019670285.1_ASM1967028v1,plasmid_AC082,NZ_AP023301.1,5569,23462
GCF_002507715.2_ASM250771v2,plasmid_AA832,NZ_CP075106.1,40977,40977
GCF_016454505.1_ASM1645450v1,plasmid_AA860,NZ_CP051395.1,151399,151399
GCF_002266205.2_ASM226620v2,plasmid_novel_54ca33bc88ed474de1677e5f0d068020,no_correct_alignments,0,0
GCF_018340585.1_ASM1834058v1,plasmid_AA974,NZ_CP073717.1,3904,3904
GCF_001652385.2_ASM165238v2,plasmid_AB460,NZ_CP075142.1,74600,72860
GCF_002266085.2_ASM226608v2,plasmid_AB232,NZ_CP075114.1,74591,74591
GCF_019670365.1_ASM1967036v1,plasmid_AA738,NZ_AP023310.1,223478,223478
GCF_014858545.1_ASM1485854v1,plasmid_AA738,NZ_CP062224.1,255905,250602
GCF_014394985.2_ASM1439498v2,plasmid_AD312,NZ_CP060730.2,14029,10724
GCF_003067445.2_ASM306744v2,plasmid_AC357,NZ_CP077705.1,67728,67728
GCF_020736325.1_ASM2073632v1,plasmid_AG658,NZ_CP085980.1,8145,10002
GCF_020736325.1_ASM2073632v1,plasmid_AG658,NZ_CP085981.1,1857,10002
GCF_020736325.1_ASM2073632v1,plasmid_AC358,NZ_CP085982.1,262986,267860
GCF_020736325.1_ASM2073632v1,plasmid_AC358,NZ_CP085981.1,3168,267860
GCF_020736325.1_ASM2073632v1,plasmid_AC358,NZ_CP085980.1,1056,267860
GCF_020736325.1_ASM2073632v1,plasmid_AB233,NZ_CP085980.1,43109,43109
GCF_022533545.1_ASM2253354v1,plasmid_novel_55554ec6b5757b7cb919dd142f8309bb,NZ_CP092862.1,42553,40615
GCF_022533545.1_ASM2253354v1,plasmid_novel_55554ec6b5757b7cb919dd142f8309bb,NZ_CP092861.1,17442,40615
GCF_003067925.2_ASM306792v2,plasmid_AD306,NZ_CP077701.1,26022,26022
GCF_003067925.2_ASM306792v2,plasmid_AB544,NZ_CP077700.1,122744,122744
GCF_016026715.1_ASM1602671v1,plasmid_AB460,NZ_CP065638.1,93617,93617
GCF_016454725.1_ASM1645472v1,plasmid_AA163,NZ_CP051419.1,3372,3372
GCF_016454725.1_ASM1645472v1,plasmid_AB038,NZ_CP051423.1,2444,2444
GCF_016454725.1_ASM1645472v1,plasmid_AB444,NZ_CP051421.1,5430,5430
GCF_016454725.1_ASM1645472v1,plasmid_AA474,NZ_CP051420.1,83774,83776
GCF_016454725.1_ASM1645472v1,plasmid_AA860,NZ_CP051426.1,180542,177874
GCF_016454725.1_ASM1645472v1,plasmid_AD097,NZ_CP051426.1,4065,4065
GCF_016454725.1_ASM1645472v1,plasmid_AA372,NZ_CP051424.1,57273,58411
GCF_016454725.1_ASM1645472v1,plasmid_AB241,NZ_CP051422.1,2096,2096
GCF_022936345.1_ASM2293634v1,plasmid_AA941,NZ_CP091998.1,19803,19803
GCF_016454645.1_ASM1645464v1,plasmid_AA474,NZ_CP051411.1,111110,106327
GCF_016454645.1_ASM1645464v1,plasmid_AA738,NZ_CP051412.1,230809,233375
GCF_016454645.1_ASM1645464v1,plasmid_AA738,NZ_CP051411.1,8198,233375
GCF_016454645.1_ASM1645464v1,plasmid_AA738,NZ_CP051410.1,1056,233375
GCF_022655645.1_ASM2265564v1,plasmid_AA669,NZ_CP093389.1,3176,3176
GCF_022655645.1_ASM2265564v1,plasmid_AA974,NZ_CP093388.1,3910,3910
GCF_022655645.1_ASM2265564v1,plasmid_AB460,NZ_CP093387.1,93495,93495
GCF_015240995.1_ASM1524099v1,plasmid_AA667,NZ_CP063706.1,6749,6749
GCF_015240995.1_ASM1524099v1,plasmid_AC120,NZ_CP063707.1,6972,6974
GCF_015240995.1_ASM1524099v1,plasmid_AB461,NZ_CP063706.1,73940,72415
GCF_015240995.1_ASM1524099v1,plasmid_AB461,NZ_CP063707.1,1714,72415
GCF_015240995.1_ASM1524099v1,plasmid_AC411,NZ_CP063706.1,5645,5645
GCF_016454445.1_ASM1645444v1,plasmid_AA303,NZ_CP051388.1,116981,116983
GCF_016454445.1_ASM1645444v1,plasmid_AA303,NZ_CP051386.1,1713,116983
GCF_016454445.1_ASM1645444v1,plasmid_AA303,NZ_CP051387.1,1713,116983
GCF_016454445.1_ASM1645444v1,plasmid_AA669,no_correct_alignments,0,0
GCF_016454445.1_ASM1645444v1,plasmid_AA627,NZ_CP051387.1,112237,107379
GCF_016454445.1_ASM1645444v1,plasmid_AA162,no_correct_alignments,0,0
GCF_016454265.1_ASM1645426v1,plasmid_AA860,NZ_CP051360.1,157141,157141
GCF_016454265.1_ASM1645426v1,plasmid_AA524,no_correct_alignments,0,0
GCF_016454265.1_ASM1645426v1,plasmid_AA738,NZ_CP051359.1,232770,229362
GCF_016454265.1_ASM1645426v1,plasmid_AA738,NZ_CP051358.1,1954,229362
GCF_016454265.1_ASM1645426v1,plasmid_AA738,NZ_CP051360.1,1710,229362
GCF_016028495.1_ASM1602849v1,plasmid_AB460,NZ_CP065719.1,93617,93617
GCF_019428465.1_ASM1942846v1,plasmid_AA619,NZ_CP080094.1,31572,31572
GCF_019428465.1_ASM1942846v1,plasmid_AB461,NZ_CP080092.1,59072,59072
GCF_019428465.1_ASM1942846v1,plasmid_AB461,NZ_CP080091.1,1029,59072
GCF_019428465.1_ASM1942846v1,plasmid_AB233,NZ_CP080093.1,54307,54307
GCF_016454365.1_ASM1645436v1,plasmid_AA998,NZ_CP051377.1,93670,299890
GCF_016454365.1_ASM1645436v1,plasmid_AA998,NZ_CP051379.1,213230,299890
GCF_016454365.1_ASM1645436v1,plasmid_AB037,NZ_CP051376.1,3829,3830
GCF_016454365.1_ASM1645436v1,plasmid_AD486,NZ_CP051378.1,3188,3188
GCF_022162985.1_ASM2216298v1,plasmid_AB039,NZ_CP091879.1,3967,3967
GCF_016454385.1_ASM1645438v1,plasmid_AA474,NZ_CP051383.1,109663,113766
GCF_016454385.1_ASM1645438v1,plasmid_AA524,no_correct_alignments,0,0
GCF_016454385.1_ASM1645438v1,plasmid_AA738,NZ_CP051382.1,233289,229317
GCF_020736345.1_ASM2073634v1,plasmid_AB037,no_correct_alignments,0,0
GCF_020736345.1_ASM2073634v1,plasmid_AC082,NZ_CP085987.1,17854,17854
GCF_020736345.1_ASM2073634v1,plasmid_AB042,no_correct_alignments,0,0
GCF_020736345.1_ASM2073634v1,plasmid_AA378,NZ_CP085986.1,78565,84867
GCF_020736345.1_ASM2073634v1,plasmid_AA378,NZ_CP085987.1,6302,84867
GCF_013348865.1_ASM1334886v1,plasmid_AB161,no_correct_alignments,0,0
GCF_013328855.1_ASM1332885v1,plasmid_AB233,NZ_CP054423.1,42668,42668
GCF_013328855.1_ASM1332885v1,plasmid_AB233,NZ_CP054422.1,40489,42668
GCF_022936425.1_ASM2293642v1,plasmid_AA971,NZ_CP092011.1,5725,5728
GCF_022936425.1_ASM2293642v1,plasmid_AC237,NZ_CP092009.1,16388,16388
GCF_022936425.1_ASM2293642v1,plasmid_AA002,NZ_CP092010.1,60686,63982
GCF_022936425.1_ASM2293642v1,plasmid_AA002,NZ_CP092009.1,4218,63982
GCF_015074885.1_ASM1507488v1,plasmid_AA473,NZ_CP063290.1,111326,111326
GCF_015074885.1_ASM1507488v1,plasmid_AA473,NZ_CP063289.1,1657,111326
GCF_015074885.1_ASM1507488v1,plasmid_AB461,NZ_CP063291.1,58193,58193
GCF_015074885.1_ASM1507488v1,plasmid_AD338,NZ_CP063292.1,5633,5633
GCF_015074885.1_ASM1507488v1,plasmid_AA668,NZ_CP063293.1,3610,3610
GCF_022936485.1_ASM2293648v1,plasmid_AA162,NZ_CP092013.1,4593,4593
GCF_001972625.2_ASM197262v2,plasmid_AB445,no_correct_alignments,0,0
GCF_001972625.2_ASM197262v2,plasmid_AB461,NZ_CP075121.1,49599,49599
GCF_001972625.2_ASM197262v2,plasmid_AE809,no_correct_alignments,0,0
GCF_001972625.2_ASM197262v2,plasmid_AB241,no_correct_alignments,0,0
GCF_015240635.1_ASM1524063v1,plasmid_AB461,NZ_CP063701.1,59072,59072
GCF_015240635.1_ASM1524063v1,plasmid_AB461,NZ_CP063700.1,1029,59072
GCF_019670465.1_ASM1967046v1,plasmid_AD672,NZ_AP023319.1,19464,19464
GCF_019670465.1_ASM1967046v1,plasmid_AC082,NZ_AP023319.1,24012,24012
GCF_015240855.1_ASM1524085v1,plasmid_novel_683662154dc0ef3a97a9400e6742d457,NZ_CP063702.1,6821,6821
GCF_015240855.1_ASM1524085v1,plasmid_AB461,NZ_CP063703.1,99953,96902
GCF_015240855.1_ASM1524085v1,plasmid_AB461,NZ_CP063702.1,2746,96902
GCF_015240855.1_ASM1524085v1,plasmid_AA662,NZ_CP063704.1,4888,4888
GCF_016952595.1_ASM1695259v1,plasmid_AB037,NZ_CP051362.1,3830,3830
GCF_016952595.1_ASM1695259v1,plasmid_AD486,no_correct_alignments,0,0
GCF_016952595.1_ASM1695259v1,plasmid_AB460,NZ_CP051364.1,95409,93700
GCF_001834965.2_ASM183496v2,plasmid_AD306,no_correct_alignments,0,0
GCF_001834965.2_ASM183496v2,plasmid_AB544,NZ_CP075126.1,126670,125523
GCF_016454425.1_ASM1645442v1,plasmid_AB961,NZ_CP051385.1,12268,6136
GCF_016454425.1_ASM1645442v1,plasmid_AA667,no_correct_alignments,0,0
GCF_016454425.1_ASM1645442v1,plasmid_AA423,NZ_CP051385.1,99144,91756
GCF_016454425.1_ASM1645442v1,plasmid_AA423,NZ_CP051384.1,3609,91756
GCF_016454425.1_ASM1645442v1,plasmid_AB039,no_correct_alignments,0,0
GCF_003067765.2_ASM306776v2,plasmid_AD306,NZ_CP077698.1,26030,26030
GCF_003067765.2_ASM306776v2,plasmid_AC207,NZ_CP077697.1,88124,88124
GCF_003068025.2_ASM306802v2,plasmid_AD306,NZ_CP077709.1,26031,26031
GCF_003068025.2_ASM306802v2,plasmid_AB544,NZ_CP077707.1,125700,124553
GCF_003068025.2_ASM306802v2,plasmid_AA378,NZ_CP077708.1,96045,96045
GCF_022670675.1_ASM2267067v1,plasmid_AG835,NZ_CP093400.1,11458,11458
GCF_022670675.1_ASM2267067v1,plasmid_AC358,NZ_CP093400.1,121159,310210
GCF_022670675.1_ASM2267067v1,plasmid_AC358,NZ_CP093401.1,190149,310210
GCF_014334235.1_ASM1433423v1,plasmid_AB037,NZ_CP060521.1,3830,3830
GCF_014334235.1_ASM1433423v1,plasmid_AD481,NZ_CP060520.1,4073,4073
GCF_014334235.1_ASM1433423v1,plasmid_AA738,NZ_CP060518.1,231558,231558
GCF_014334235.1_ASM1433423v1,plasmid_AA372,NZ_CP060519.1,61124,61124
GCF_016454225.1_ASM1645422v1,plasmid_AC774,NZ_CP051355.1,9265,9267
GCF_016454225.1_ASM1645422v1,plasmid_AA474,NZ_CP051354.1,102702,103760
GCF_016454225.1_ASM1645422v1,plasmid_AA474,NZ_CP051355.1,1058,103760
GCF_016454225.1_ASM1645422v1,plasmid_AA474,NZ_CP051353.1,1058,103760
GCF_016454185.1_ASM1645418v1,plasmid_AA473,NZ_CP051349.1,121800,80730
GCF_016454585.1_ASM1645458v1,plasmid_AA627,NZ_CP051403.1,84226,84227
GCF_016454585.1_ASM1645458v1,plasmid_AD530,NZ_CP051403.1,12250,13562
GCF_016454585.1_ASM1645458v1,plasmid_AD530,NZ_CP051402.1,7872,13562
GCF_021397625.1_ASM2139762v1,plasmid_AA738,NZ_CP090138.1,276313,255828
GCF_021397625.1_ASM2139762v1,plasmid_AA738,NZ_CP090137.1,2130,255828
GCF_021397625.1_ASM2139762v1,plasmid_AA738,NZ_CP090140.1,2130,255828
GCF_021397625.1_ASM2139762v1,plasmid_AA001,NZ_CP090139.1,50749,49549
GCF_021397625.1_ASM2139762v1,plasmid_AA162,NZ_CP090138.1,4597,4597
GCF_021397625.1_ASM2139762v1,plasmid_AA162,NZ_CP090140.1,4597,4597
GCF_016452005.1_ASM1645200v1,plasmid_AA474,NZ_CP051312.1,98427,98429
GCF_016452005.1_ASM1645200v1,plasmid_AA474,NZ_CP051311.1,2442,98429
GCF_016452005.1_ASM1645200v1,plasmid_AA738,NZ_CP051311.1,235131,229211
GCF_016452005.1_ASM1645200v1,plasmid_AA738,NZ_CP051310.1,2437,229211
GCF_016452005.1_ASM1645200v1,plasmid_AA738,NZ_CP051312.1,1954,229211
GCF_016452005.1_ASM1645200v1,plasmid_AA579,no_correct_alignments,0,0
GCF_016454325.1_ASM1645432v1,plasmid_AA474,NZ_CP051371.1,99749,110953
GCF_016454325.1_ASM1645432v1,plasmid_AA474,NZ_CP051370.1,13940,110953
GCF_016454325.1_ASM1645432v1,plasmid_AC509,no_correct_alignments,0,0
GCF_016025415.1_ASM1602541v1,plasmid_AA998,NZ_CP065568.1,226430,225288
GCF_016025415.1_ASM1602541v1,plasmid_AA998,NZ_CP065567.1,5725,225288
GCF_016025415.1_ASM1602541v1,plasmid_AA473,NZ_CP065569.1,5788,101146
GCF_016025415.1_ASM1602541v1,plasmid_AB443,NZ_CP065570.1,5570,5570
GCF_016025415.1_ASM1602541v1,plasmid_AA579,NZ_CP065571.1,3984,4073
GCF_016454245.1_ASM1645424v1,plasmid_AA860,NZ_CP051357.1,155880,155881
GCF_016127435.1_ASM1612743v1,plasmid_AA474,NZ_CP066010.1,85406,85406
GCF_016127435.1_ASM1612743v1,plasmid_AC120,NZ_CP066008.1,8688,8688
GCF_016127435.1_ASM1612743v1,plasmid_AB460,NZ_CP066011.1,93469,93488
GCF_020736305.1_ASM2073630v1,plasmid_AC358,NZ_CP085984.1,267068,267061
GCF_020736305.1_ASM2073630v1,plasmid_AC358,NZ_CP085983.1,4226,267061
GCF_020736305.1_ASM2073630v1,plasmid_AC358,NZ_CP085985.1,1056,267061
GCF_020736305.1_ASM2073630v1,plasmid_AB233,NZ_CP085985.1,49921,50777
GCF_014334255.1_ASM1433425v1,plasmid_AA619,NZ_CP060524.1,33310,33310
GCF_014334255.1_ASM1433425v1,plasmid_AB461,NZ_CP060523.1,59072,59072
GCF_014334255.1_ASM1433425v1,plasmid_AB461,NZ_CP060522.1,1029,59072
GCF_014334255.1_ASM1433425v1,plasmid_AB241,NZ_CP060525.1,2096,2096
GCF_001831985.2_ASM183198v2,plasmid_AD306,NZ_CP075136.1,26031,26031
GCF_001831985.2_ASM183198v2,plasmid_AB544,no_correct_alignments,0,0
GCF_002265865.2_ASM226586v2,plasmid_AB042,no_correct_alignments,0,0
GCF_014805785.2_ASM1480578v2,plasmid_AD312,NZ_CP061929.2,14029,10724
GCF_019670305.1_ASM1967030v1,plasmid_AA323,NZ_AP023303.1,70589,70589
GCF_019670305.1_ASM1967030v1,plasmid_AC082,NZ_AP023303.1,24924,24924
GCF_013161805.1_ASM1316180v1,plasmid_AA474,NZ_CP053576.1,61895,90198
GCF_013161805.1_ASM1316180v1,plasmid_AA474,NZ_CP053578.1,21243,90198
GCF_013161805.1_ASM1316180v1,plasmid_AA579,no_correct_alignments,0,0
GCF_013161805.1_ASM1316180v1,plasmid_AB074,no_correct_alignments,0,0
GCF_019670425.1_ASM1967042v1,plasmid_AA738,NZ_AP023316.1,223478,235248
GCF_019670425.1_ASM1967042v1,plasmid_AA738,NZ_AP023315.1,24156,235248
GCF_013415925.1_ASM1341592v1,plasmid_AA998,NZ_CP058809.1,93853,287141
GCF_013415925.1_ASM1341592v1,plasmid_AA998,NZ_CP058810.1,194207,287141
GCF_013415925.1_ASM1341592v1,plasmid_AA998,NZ_CP058811.1,1442,287141
GCF_013415925.1_ASM1341592v1,plasmid_AA474,NZ_CP058811.1,86677,86703
GCF_013415925.1_ASM1341592v1,plasmid_AA974,NZ_CP058808.1,3752,3752
GCF_016454465.1_ASM1645446v1,plasmid_AC120,NZ_CP051390.1,10734,10734
GCF_016454465.1_ASM1645446v1,plasmid_AA162,no_correct_alignments,0,0
GCF_019670165.1_ASM1967016v1,plasmid_AC082,NZ_AP023289.1,24156,24156
GCF_014250355.1_ASM1425035v1,plasmid_AF757,NZ_CP060171.1,1975,1975
GCF_014250355.1_ASM1425035v1,plasmid_AB460,NZ_CP060170.1,92042,92042
GCF_014840915.2_ASM1484091v2,plasmid_AD312,NZ_CP062004.2,14029,10724
GCF_019670385.1_ASM1967038v1,plasmid_AA998,NZ_AP023312.1,192389,196975
GCF_019670385.1_ASM1967038v1,plasmid_AA998,NZ_AP023311.1,23770,196975
GCF_019670385.1_ASM1967038v1,plasmid_AG658,NZ_AP023312.1,5756,5756
GCF_006461415.2_ASM646141v2,plasmid_AA627,NZ_CP050832.1,146982,146982
GCF_022226915.1_ASM2222691v1,plasmid_AA372,NZ_CP092076.1,60449,60449
GCF_016454285.1_ASM1645428v1,plasmid_AC120,NZ_CP051365.1,8688,8688
GCF_016454285.1_ASM1645428v1,plasmid_AB461,NZ_CP051367.1,49438,49438
GCF_016454345.1_ASM1645434v1,plasmid_AA627,NZ_CP051373.1,116691,105065
GCF_016454345.1_ASM1645434v1,plasmid_AB056,NZ_CP051375.1,3605,3605
GCF_016127835.1_ASM1612783v1,plasmid_AB461,NZ_CP066048.1,56914,56914
GCF_002507915.2_ASM250791v2,plasmid_AC207,NZ_CP075111.1,68754,68756
GCF_002507915.2_ASM250791v2,plasmid_AA979,no_correct_alignments,0,0
GCF_022936385.1_ASM2293638v1,plasmid_AA162,NZ_CP092005.1,4593,4593
GCF_001833255.2_ASM183325v2,plasmid_AD306,NZ_CP075131.1,25878,26031
GCF_001833255.2_ASM183325v2,plasmid_AB544,NZ_CP075130.1,127355,126208
GCF_019670405.1_ASM1967040v1,plasmid_AA737,NZ_AP023314.1,14127,14127
GCF_019670405.1_ASM1967040v1,plasmid_AG658,NZ_AP023314.1,10420,10420
GCF_019670405.1_ASM1967040v1,plasmid_AA316,NZ_AP023314.1,67053,84947
GCF_019670405.1_ASM1967040v1,plasmid_AA316,NZ_AP023313.1,17894,84947
GCF_022870605.1_ASM2287060v1,plasmid_AA163,NZ_CP058674.1,3371,3371
GCF_022870605.1_ASM2287060v1,plasmid_AA738,NZ_CP058672.1,196862,184485
GCF_022870605.1_ASM2287060v1,plasmid_AA738,NZ_CP058673.1,5113,184485
GCF_022870605.1_ASM2287060v1,plasmid_AA738,NZ_CP058671.1,41136,184485
GCF_022870605.1_ASM2287060v1,plasmid_AC024,NZ_CP058673.1,43955,43955
GCF_022870605.1_ASM2287060v1,plasmid_AC024,NZ_CP058672.1,4158,43955
GCF_022870605.1_ASM2287060v1,plasmid_AC031,NZ_CP058672.1,33676,33680
GCF_016454165.1_ASM1645416v1,plasmid_AA176,NZ_CP051347.1,143209,143209
GCF_016454165.1_ASM1645416v1,plasmid_AA176,NZ_CP051348.1,2456,143209
GCF_016454165.1_ASM1645416v1,plasmid_AA176,NZ_CP051346.1,1045,143209
GCF_016454165.1_ASM1645416v1,plasmid_AC024,NZ_CP051348.1,44627,44628
GCF_001972545.2_ASM197254v2,plasmid_AB711,no_correct_alignments,0,0
GCF_001972545.2_ASM197254v2,plasmid_AB461,NZ_CP075119.1,49594,49594
GCF_021397645.1_ASM2139764v1,plasmid_AA738,NZ_CP090142.1,274183,255828
GCF_021397645.1_ASM2139764v1,plasmid_AA738,NZ_CP090141.1,2130,255828
GCF_021397645.1_ASM2139764v1,plasmid_AA001,NZ_CP090143.1,50749,49549
GCF_021397645.1_ASM2139764v1,plasmid_AA162,NZ_CP090144.1,4593,4593
GCF_016454545.1_ASM1645454v1,plasmid_AB443,NZ_CP051399.1,4054,4198
GCF_016454545.1_ASM1645454v1,plasmid_AA163,NZ_CP051401.1,3372,3372
GCF_016454545.1_ASM1645454v1,plasmid_AA860,NZ_CP051400.1,163760,161092
GCF_016452165.1_ASM1645216v1,plasmid_AA998,NZ_CP053054.1,93670,295656
GCF_016452165.1_ASM1645216v1,plasmid_AA998,NZ_CP053053.1,206592,295656
GCF_016452165.1_ASM1645216v1,plasmid_AA998,NZ_CP053052.1,17842,295656
GCF_016452165.1_ASM1645216v1,plasmid_AA998,NZ_CP053051.1,1003,295656
GCF_016452165.1_ASM1645216v1,plasmid_AB037,NZ_CP054465.1,3829,3830
GCF_016452165.1_ASM1645216v1,plasmid_AD486,NZ_CP054466.1,3188,3188
GCF_001713515.2_ASM171351v2,plasmid_AB461,NZ_CP074662.1,52776,52919
GCF_001713515.2_ASM171351v2,plasmid_AB461,NZ_CP074661.1,1893,52919
GCF_001713515.2_ASM171351v2,plasmid_AA979,no_correct_alignments,0,0
GCF_001713515.2_ASM171351v2,plasmid_AA372,no_correct_alignments,0,0
GCF_019670205.1_ASM1967020v1,plasmid_AC082,NZ_AP023291.1,26816,24156
GCF_016452045.1_ASM1645204v1,plasmid_AA860,NZ_CP051316.1,165692,165695
GCF_019670325.1_ASM1967032v1,plasmid_AA738,NZ_AP023305.1,126249,132312
GCF_019670325.1_ASM1967032v1,plasmid_AA738,NZ_AP023304.1,8721,132312
GCF_019670245.1_ASM1967024v1,plasmid_AC082,NZ_AP023294.1,34475,34475
GCF_019670245.1_ASM1967024v1,plasmid_AB447,NZ_AP023296.1,6835,6835
GCF_019670245.1_ASM1967024v1,plasmid_AA579,NZ_AP023298.1,4060,4060
GCF_019670245.1_ASM1967024v1,plasmid_AA316,NZ_AP023295.1,59800,59801
GCF_019670345.1_ASM1967034v1,plasmid_AA737,NZ_AP023307.1,14127,14127
GCF_019670345.1_ASM1967034v1,plasmid_AC120,NZ_AP023308.1,7257,11675
GCF_019670345.1_ASM1967034v1,plasmid_AC120,NZ_AP023307.1,2680,11675
GCF_019670345.1_ASM1967034v1,plasmid_AC120,NZ_AP023306.1,3337,11675
GCF_019670345.1_ASM1967034v1,plasmid_AG658,NZ_AP023307.1,23890,23890
GCF_019670345.1_ASM1967034v1,plasmid_AA316,NZ_AP023307.1,73498,89308
GCF_019670345.1_ASM1967034v1,plasmid_AA316,NZ_AP023306.1,19423,89308
GCF_016451985.1_ASM1645198v1,plasmid_AA860,NZ_CP051308.1,149138,174861
GCF_016451985.1_ASM1645198v1,plasmid_AA860,NZ_CP051307.1,52501,174861
GCF_016451985.1_ASM1645198v1,plasmid_AC357,NZ_CP051309.1,48525,48530
GCF_016454665.1_ASM1645466v1,plasmid_AC247,NZ_CP051413.1,17799,17799
GCF_016454665.1_ASM1645466v1,plasmid_AA163,NZ_CP051414.1,3371,3372
GCF_016454665.1_ASM1645466v1,plasmid_AC527,no_correct_alignments,0,0
GCF_016454665.1_ASM1645466v1,plasmid_AA667,NZ_CP051413.1,7506,10825
GCF_016454665.1_ASM1645466v1,plasmid_AA667,NZ_CP051415.1,3319,10825
GCF_016454665.1_ASM1645466v1,plasmid_AC293,NZ_CP051413.1,7693,4508
GCF_006461325.2_ASM646132v2,plasmid_AF576,NZ_CP069167.1,35785,35785
GCF_006461325.2_ASM646132v2,plasmid_AA738,NZ_CP069167.1,102686,102686
GCF_006461325.2_ASM646132v2,plasmid_AC288,NZ_CP069167.1,22476,22476
GCF_016452065.1_ASM1645206v1,plasmid_AA474,NZ_CP051318.1,20169,83659
GCF_016452065.1_ASM1645206v1,plasmid_AA860,NZ_CP051319.1,165486,165768
GCF_016452065.1_ASM1645206v1,plasmid_AA860,NZ_CP051318.1,17442,165768
GCF_016452065.1_ASM1645206v1,plasmid_AB056,no_correct_alignments,0,0
GCF_002507865.2_ASM250786v2,plasmid_AD337,no_correct_alignments,0,0
GCF_014858565.1_ASM1485856v1,plasmid_AG590,NZ_CP062227.1,3172,3172
GCF_014858565.1_ASM1485856v1,plasmid_AA738,NZ_CP062226.1,252212,246909
GCF_022936365.1_ASM2293636v1,plasmid_AC247,NZ_CP092000.1,18862,19874
GCF_022936365.1_ASM2293636v1,plasmid_AC247,NZ_CP091999.1,1012,19874
GCF_022936365.1_ASM2293636v1,plasmid_AA537,NZ_CP092003.1,4018,4018
GCF_022936365.1_ASM2293636v1,plasmid_AA979,NZ_CP092002.1,4820,4820
GCF_016454765.1_ASM1645476v1,plasmid_AA998,NZ_CP053049.1,221967,271626
GCF_016454765.1_ASM1645476v1,plasmid_AA998,NZ_CP053050.1,50553,271626
GCF_016454765.1_ASM1645476v1,plasmid_AD672,NZ_CP053048.1,42317,21159
