GCF_021397675.1_ASM2139767v1,GCF_021397675.1_ASM2139767v1_bin_Unbinned,NZ_CP090134.1,S32_LN_i_3793_dp_f_2.360679254222759,3793,216042,219834
GCF_021397675.1_ASM2139767v1,GCF_021397675.1_ASM2139767v1_bin_Unbinned,NZ_CP090134.1,S32_LN_i_3793_dp_f_2.360679254222759,3793,163359,167151
GCF_021397675.1_ASM2139767v1,GCF_021397675.1_ASM2139767v1_bin_Unbinned,NZ_CP090134.1,S43_LN_i_1629_dp_f_2.1271174410584797,1629,213592,215220
GCF_021397675.1_ASM2139767v1,GCF_021397675.1_ASM2139767v1_bin_Unbinned,NZ_CP090134.1,S43_LN_i_1629_dp_f_2.1271174410584797,1629,167973,169601
GCF_014858565.1_ASM1485856v1,GCF_014858565.1_ASM1485856v1_bin_1,NZ_CP062226.1,S36_LN_i_1630_dp_f_1.2191826568019595,1630,96026,97655
GCF_014858565.1_ASM1485856v1,GCF_014858565.1_ASM1485856v1_bin_1,NZ_CP062226.1,S36_LN_i_1630_dp_f_1.2191826568019595,1630,141293,142922
GCF_016952595.1_ASM1695259v1,GCF_016952595.1_ASM1695259v1_bin_1,NZ_CP051364.1,S40_LN_i_1740_dp_f_1.28283717919784,1740,66474,68213
GCF_016952595.1_ASM1695259v1,GCF_016952595.1_ASM1695259v1_bin_1,NZ_CP051364.1,S40_LN_i_1740_dp_f_1.28283717919784,1740,52917,54656
GCF_016452165.1_ASM1645216v1,GCF_016452165.1_ASM1645216v1_bin_3,NZ_CP053053.1,S39_LN_i_5674_dp_f_5.844517519626498,5674,213338,219011
GCF_016452165.1_ASM1645216v1,GCF_016452165.1_ASM1645216v1_bin_3,NZ_CP053052.1,S39_LN_i_5674_dp_f_5.844517519626498,5674,17081,22754
GCF_016452165.1_ASM1645216v1,GCF_016452165.1_ASM1645216v1_bin_3,NZ_CP053053.1,S39_LN_i_5674_dp_f_5.844517519626498,5674,2582,8255
GCF_016025435.1_ASM1602543v1,GCF_016025435.1_ASM1602543v1_bin_2,NZ_CP065572.1,S35_LN_i_1101_dp_f_2.3122457347490757,1101,3993842,3994942
GCF_016025435.1_ASM1602543v1,GCF_016025435.1_ASM1602543v1_bin_2,NZ_CP065572.1,S35_LN_i_1101_dp_f_2.3122457347490757,1101,3995702,3996802
GCF_019670385.1_ASM1967038v1,GCF_019670385.1_ASM1967038v1_bin_1,NZ_AP023312.1,S35_LN_i_6084_dp_f_2.155763559276845,6084,95841,101924
GCF_019670385.1_ASM1967038v1,GCF_019670385.1_ASM1967038v1_bin_1,NZ_AP023311.1,S35_LN_i_6084_dp_f_2.155763559276845,6084,1141637,1147720
GCF_019670385.1_ASM1967038v1,GCF_019670385.1_ASM1967038v1_bin_1,NZ_AP023311.1,S37_LN_i_5705_dp_f_2.614730307156763,5705,1135163,1140867
GCF_019670385.1_ASM1967038v1,GCF_019670385.1_ASM1967038v1_bin_1,NZ_AP023312.1,S37_LN_i_5705_dp_f_2.614730307156763,5705,89367,95071
GCF_001713515.2_ASM171351v2,GCF_001713515.2_ASM171351v2_bin_2,NZ_CP074662.1,S25_LN_i_1783_dp_f_0.2880700089415109,1782,27790,29571
GCF_001713515.2_ASM171351v2,GCF_001713515.2_ASM171351v2_bin_2,NZ_CP074662.1,S25_LN_i_1783_dp_f_0.2880700089415109,1781,29870,31650
GCF_021397645.1_ASM2139764v1,GCF_021397645.1_ASM2139764v1_bin_3,NZ_CP090142.1,S37_LN_i_3755_dp_f_2.340557274819536,3755,117974,121728
GCF_021397645.1_ASM2139764v1,GCF_021397645.1_ASM2139764v1_bin_3,NZ_CP090142.1,S37_LN_i_3755_dp_f_2.340557274819536,3755,170619,174373
GCF_021397645.1_ASM2139764v1,GCF_021397645.1_ASM2139764v1_bin_3,NZ_CP090142.1,S48_LN_i_1630_dp_f_2.49688280186092,1630,122549,124178
GCF_021397645.1_ASM2139764v1,GCF_021397645.1_ASM2139764v1_bin_3,NZ_CP090142.1,S48_LN_i_1630_dp_f_2.49688280186092,1630,168169,169798
GCF_016454645.1_ASM1645464v1,GCF_016454645.1_ASM1645464v1_bin_2,NZ_CP051411.1,S35_LN_i_4784_dp_f_0.8329783717589926,4784,13416,18199
GCF_016454645.1_ASM1645464v1,GCF_016454645.1_ASM1645464v1_bin_2,NZ_CP051411.1,S35_LN_i_4784_dp_f_0.8329783717589926,4784,22973,27756
GCF_016454645.1_ASM1645464v1,GCF_016454645.1_ASM1645464v1_bin_2,NZ_CP051411.1,S37_LN_i_4099_dp_f_0.7687678339672773,4099,9157,13255
GCF_016454645.1_ASM1645464v1,GCF_016454645.1_ASM1645464v1_bin_2,NZ_CP051411.1,S37_LN_i_4099_dp_f_0.7687678339672773,4099,18714,22812
GCF_001652385.2_ASM165238v2,GCF_001652385.2_ASM165238v2_bin_1,NZ_CP075142.1,S42_LN_i_1740_dp_f_1.0538073993992543,1740,35549,37288
GCF_001652385.2_ASM165238v2,GCF_001652385.2_ASM165238v2_bin_1,NZ_CP075142.1,S42_LN_i_1740_dp_f_1.0538073993992543,1740,37689,39428
GCF_016454425.1_ASM1645442v1,GCF_016454425.1_ASM1645442v1_bin_1,NZ_CP051385.1,S32_LN_i_6136_dp_f_0.42692731117401816,6136,60758,66893
GCF_016454425.1_ASM1645442v1,GCF_016454425.1_ASM1645442v1_bin_1,NZ_CP051385.1,S32_LN_i_6136_dp_f_0.42692731117401816,6132,48555,54686
GCF_016454425.1_ASM1645442v1,GCF_016454425.1_ASM1645442v1_bin_1,NZ_CP051385.1,S48_LN_i_1968_dp_f_0.6435515088671,1968,45221,47188
GCF_016454425.1_ASM1645442v1,GCF_016454425.1_ASM1645442v1_bin_1,NZ_CP051385.1,S48_LN_i_1968_dp_f_0.6435515088671,1967,57425,59391
GCF_021397625.1_ASM2139762v1,GCF_021397625.1_ASM2139762v1_bin_6,NZ_CP090138.1,S31_LN_i_4597_dp_f_10.963826678902516,4597,89438,94034
GCF_021397625.1_ASM2139762v1,GCF_021397625.1_ASM2139762v1_bin_6,NZ_CP090140.1,S31_LN_i_4597_dp_f_10.963826678902516,4597,1,4597
GCF_021397625.1_ASM2139762v1,GCF_021397625.1_ASM2139762v1_bin_Unbinned,NZ_CP090138.1,S34_LN_i_3755_dp_f_6.660175020043836,3755,222769,226523
GCF_021397625.1_ASM2139762v1,GCF_021397625.1_ASM2139762v1_bin_Unbinned,NZ_CP090138.1,S34_LN_i_3755_dp_f_6.660175020043836,3755,170124,173878
GCF_021397625.1_ASM2139762v1,GCF_021397625.1_ASM2139762v1_bin_Unbinned,NZ_CP090138.1,S45_LN_i_1630_dp_f_6.159278207722498,1630,174699,176328
GCF_021397625.1_ASM2139762v1,GCF_021397625.1_ASM2139762v1_bin_Unbinned,NZ_CP090138.1,S45_LN_i_1630_dp_f_6.159278207722498,1630,220319,221948
GCF_019670425.1_ASM1967042v1,GCF_019670425.1_ASM1967042v1_bin_2,NZ_AP023316.1,S34_LN_i_6084_dp_f_1.978750103319113,6084,97843,103926
GCF_019670425.1_ASM1967042v1,GCF_019670425.1_ASM1967042v1_bin_2,NZ_AP023315.1,S34_LN_i_6084_dp_f_1.978750103319113,6084,1141617,1147700
GCF_019670425.1_ASM1967042v1,GCF_019670425.1_ASM1967042v1_bin_2,NZ_AP023316.1,S36_LN_i_4386_dp_f_2.0769045484807873,4386,106606,110991
GCF_019670425.1_ASM1967042v1,GCF_019670425.1_ASM1967042v1_bin_2,NZ_AP023315.1,S36_LN_i_4386_dp_f_2.0769045484807873,4386,1148521,1152906
GCF_001973785.2_ASM197378v2,GCF_001973785.2_ASM197378v2_bin_1,NZ_CP075123.1,S26_LN_i_1783_dp_f_0.5586407720126398,1783,28874,30656
GCF_001973785.2_ASM197378v2,GCF_001973785.2_ASM197378v2_bin_1,NZ_CP075123.1,S26_LN_i_1783_dp_f_0.5586407720126398,1783,30955,32737
GCF_014858545.1_ASM1485854v1,GCF_014858545.1_ASM1485854v1_bin_Unbinned,NZ_CP062224.1,S33_LN_i_1630_dp_f_1.960381005727376,1630,171175,172804
GCF_014858545.1_ASM1485854v1,GCF_014858545.1_ASM1485854v1_bin_Unbinned,NZ_CP062224.1,S33_LN_i_1630_dp_f_1.960381005727376,1630,101355,102984
