GCF_025144545.1_ASM2514454v1,0
GCF_021498265.1_ASM2149826v1,0
GCF_022221205.1_ASM2222120v1,0
GCF_022221205.1_ASM2222120v1,0
GCF_022879595.1_ASM2287959v1,0
GCF_022879595.1_ASM2287959v1,0
GCF_023347235.1_ASM2334723v1,0
GCF_023347235.1_ASM2334723v1,0
GCF_025232355.1_ASM2523235v1,0
GCF_025150245.1_ASM2515024v1,0
GCF_025150245.1_ASM2515024v1,0
GCF_025150245.1_ASM2515024v1,0
GCF_020002335.2_ASM2000233v2,0
GCF_020002335.2_ASM2000233v2,1
GCF_020002335.2_ASM2000233v2,0
GCF_025146315.1_ASM2514631v1,0
GCF_025146315.1_ASM2514631v1,0
GCF_025146315.1_ASM2514631v1,0
GCF_025146315.1_ASM2514631v1,0
GCF_025146315.1_ASM2514631v1,0
GCF_024734255.1_ASM2473425v1,0
GCF_024734255.1_ASM2473425v1,0
GCF_024734255.1_ASM2473425v1,0
GCF_022869105.1_ASM2286910v1,0
GCF_022869105.1_ASM2286910v1,0
GCF_022869105.1_ASM2286910v1,0
GCF_022869105.1_ASM2286910v1,0
GCF_022869105.1_ASM2286910v1,0
GCF_022869105.1_ASM2286910v1,0
GCF_022869105.1_ASM2286910v1,0
GCF_022869105.1_ASM2286910v1,0
GCF_021496965.1_ASM2149696v1,0
GCF_021497105.1_ASM2149710v1,0
GCF_022069205.1_ASM2206920v1,0
GCF_021903635.1_ASM2190363v1,0
GCF_021903635.1_ASM2190363v1,0
GCF_022922035.1_ASM2292203v1,0
GCF_023573125.1_ASM2357312v1,0
GCF_021484865.1_ASM2148486v1,0
GCF_940143155.1_A18Y016a,0
GCF_022569915.1_ASM2256991v1,0
GCF_021561035.1_ASM2156103v1,0
GCF_021561035.1_ASM2156103v1,1
GCF_023299445.1_ASM2329944v1,0
GCF_025232555.1_ASM2523255v1,0
GCF_024400535.1_ASM2440053v1,0
GCF_024400535.1_ASM2440053v1,0
GCF_024400535.1_ASM2440053v1,0
GCF_024400535.1_ASM2440053v1,0
GCF_022921755.1_ASM2292175v1,0
GCF_022221165.1_ASM2222116v1,0
GCF_022221165.1_ASM2222116v1,0
GCF_022845755.1_ASM2284575v1,0
GCF_022845755.1_ASM2284575v1,0
GCF_023573045.1_ASM2357304v1,0
GCF_022924575.1_ASM2292457v1,0
GCF_022924575.1_ASM2292457v1,0
GCF_022924575.1_ASM2292457v1,0
GCF_023195715.1_ASM2319571v1,0
GCF_023195715.1_ASM2319571v1,0
GCF_023195715.1_ASM2319571v1,0
GCF_023195715.1_ASM2319571v1,0
GCF_023195715.1_ASM2319571v1,0
GCF_023195715.1_ASM2319571v1,0
GCF_023195715.1_ASM2319571v1,0
GCF_022453665.1_ASM2245366v1,0
GCF_022453665.1_ASM2245366v1,0
GCF_021398325.1_ASM2139832v1,0
GCF_021398325.1_ASM2139832v1,0
GCF_021398325.1_ASM2139832v1,0
GCF_022670815.1_ASM2267081v1,0
GCF_022670815.1_ASM2267081v1,0
GCF_022221065.1_ASM2222106v1,0
GCF_022221065.1_ASM2222106v1,0
GCF_022221065.1_ASM2222106v1,0
GCF_022921875.1_ASM2292187v1,0
GCF_022221025.1_ASM2222102v1,0
GCF_022221025.1_ASM2222102v1,0
GCF_022221025.1_ASM2222102v1,0
GCF_022221025.1_ASM2222102v1,0
GCF_932530315.1_mada_132,0
GCF_023347295.1_ASM2334729v1,0
GCF_023347295.1_ASM2334729v1,0
GCF_023347295.1_ASM2334729v1,0
GCF_023347295.1_ASM2334729v1,0
GCF_023373485.1_ASM2337348v1,1
GCF_021559775.1_ASM2155977v1,0
GCF_024089355.1_ASM2408935v1,1
GCF_022674245.1_ASM2267424v1,0
GCF_022674245.1_ASM2267424v1,0
GCF_024218835.1_ASM2421883v1,0
GCF_022318465.1_ASM2231846v1,0
GCF_022318465.1_ASM2231846v1,0
GCF_022879575.1_ASM2287957v1,0
GCF_022569995.1_ASM2256999v1,0
GCF_022569995.1_ASM2256999v1,0
GCF_022569995.1_ASM2256999v1,0
GCF_022569995.1_ASM2256999v1,0
GCF_022569995.1_ASM2256999v1,0
GCF_022370755.2_ASM2237075v2,0
GCF_023347335.1_ASM2334733v1,0
GCF_023347335.1_ASM2334733v1,0
GCF_023347335.1_ASM2334733v1,0
GCF_023347335.1_ASM2334733v1,0
GCF_023299765.1_ASM2329976v1,0
GCF_025147485.1_ASM2514748v1,0
GCF_025147485.1_ASM2514748v1,0
GCF_025147485.1_ASM2514748v1,0
GCF_025147485.1_ASM2514748v1,0
GCF_025147485.1_ASM2514748v1,1
GCF_025147485.1_ASM2514748v1,0
GCF_025147485.1_ASM2514748v1,0
GCF_025151385.1_ASM2515138v1,0
GCF_022921195.1_ASM2292119v1,0
GCF_022921195.1_ASM2292119v1,0
GCF_022921195.1_ASM2292119v1,0
GCF_025152405.1_ASM2515240v1,0
GCF_025152405.1_ASM2515240v1,0
GCF_025152405.1_ASM2515240v1,1
GCF_025152405.1_ASM2515240v1,0
GCF_023347535.1_ASM2334753v1,0
GCF_023347535.1_ASM2334753v1,0
GCF_025232495.1_ASM2523249v1,0
GCF_025232495.1_ASM2523249v1,0
GCF_025232495.1_ASM2523249v1,0
GCF_022570415.1_ASM2257041v1,0
GCF_024804185.1_ASM2480418v1,0
GCF_024804185.1_ASM2480418v1,0
GCF_024804185.1_ASM2480418v1,0
GCF_024804185.1_ASM2480418v1,0
GCF_024804185.1_ASM2480418v1,0
GCF_024804185.1_ASM2480418v1,0
GCF_024804185.1_ASM2480418v1,0
GCF_024804185.1_ASM2480418v1,0
GCF_024804185.1_ASM2480418v1,0
GCF_024804185.1_ASM2480418v1,0
GCF_025152275.1_ASM2515227v1,0
GCF_025152275.1_ASM2515227v1,1
GCF_023242175.1_ASM2324217v1,0
GCF_021513635.1_ASM2151363v1,0
GCF_021513615.1_ASM2151361v1,0
GCF_022870525.1_ASM2287052v1,0
GCF_022870525.1_ASM2287052v1,0
GCF_022220905.1_ASM2222090v1,0
GCF_024334025.1_ASM2433402v1,0
GCF_905331345.2_AI3010v1_cpp,1
GCF_905331345.2_AI3010v1_cpp,0
GCF_905331345.2_AI3010v1_cpp,0
GCF_905331345.2_AI3010v1_cpp,0
GCF_905331345.2_AI3010v1_cpp,0
GCF_905331345.2_AI3010v1_cpp,0
GCF_025148635.1_ASM2514863v1,0
GCF_020641075.2_ASM2064107v2,0
GCF_020641075.2_ASM2064107v2,0
GCF_025145845.1_ASM2514584v1,0
GCF_022921975.1_ASM2292197v1,0
GCF_022921975.1_ASM2292197v1,0
GCF_024086695.1_ASM2408669v1,0
GCF_003594935.2_ASM359493v2,0
GCF_003594935.2_ASM359493v2,0
GCF_003594935.2_ASM359493v2,0
GCF_003594935.2_ASM359493v2,0
GCF_003594935.2_ASM359493v2,0
GCF_003594935.2_ASM359493v2,0
GCF_003594935.2_ASM359493v2,0
GCF_003594935.2_ASM359493v2,0
GCF_003594935.2_ASM359493v2,0
GCF_003594935.2_ASM359493v2,0
GCF_024582835.1_ASM2458283v1,0
GCF_024582835.1_ASM2458283v1,0
GCF_024582835.1_ASM2458283v1,0
GCF_024582835.1_ASM2458283v1,0
GCF_022871105.1_ASM2287110v1,0
GCF_023330585.1_ASM2333058v1,0
GCF_023920105.1_ASM2392010v1,0
GCF_023920105.1_ASM2392010v1,1
GCF_023920105.1_ASM2392010v1,0
GCF_905337805.2_AN2353v1_cp,0
GCF_905337805.2_AN2353v1_cp,0
GCF_905337805.2_AN2353v1_cp,0
GCF_022220505.1_ASM2222050v1,0
GCF_022220505.1_ASM2222050v1,0
GCF_022220505.1_ASM2222050v1,0
GCF_021459865.1_ASM2145986v1,0
GCF_021459865.1_ASM2145986v1,0
GCF_002103235.2_ASM210323v2,0
GCF_023734115.1_ASM2373411v1,0
GCF_023734115.1_ASM2373411v1,0
GCF_023347275.1_ASM2334727v1,0
GCF_023347275.1_ASM2334727v1,0
GCF_020641415.2_ASM2064141v2,0
GCF_024137845.1_ASM2413784v1,1
GCF_024137845.1_ASM2413784v1,0
GCF_025147765.1_ASM2514776v1,0
GCF_021513115.1_ASM2151311v1,0
GCF_021513115.1_ASM2151311v1,0
GCF_021513115.1_ASM2151311v1,0
GCF_024758745.1_ASM2475874v1,0
GCF_024758745.1_ASM2475874v1,0
GCF_024758745.1_ASM2475874v1,0
GCF_024917775.1_ASM2491777v1,0
GCF_024917775.1_ASM2491777v1,0
GCF_023573605.1_ASM2357360v1,0
GCF_023573605.1_ASM2357360v1,0
GCF_021391475.1_ASM2139147v1,0
GCF_024334045.1_ASM2433404v1,0
GCF_025146415.1_ASM2514641v1,0
GCF_022220925.1_ASM2222092v1,0
GCF_022220925.1_ASM2222092v1,0
GCF_022220925.1_ASM2222092v1,0
GCF_021474225.1_ASM2147422v1,0
GCF_021474225.1_ASM2147422v1,0
GCF_021474225.1_ASM2147422v1,0
GCF_025232275.1_ASM2523227v1,0
GCF_020641365.2_ASM2064136v2,0
GCF_025252385.1_ASM2525238v1,0
GCF_023195815.2_ASM2319581v2,0
GCF_022832855.1_ASM2283285v1,0
GCF_022832855.1_ASM2283285v1,0
GCF_022832855.1_ASM2283285v1,0
GCF_022832875.1_ASM2283287v1,1
GCF_023573005.1_ASM2357300v1,0
GCF_023573005.1_ASM2357300v1,0
GCF_023242195.1_ASM2324219v1,0
GCF_022923615.1_ASM2292361v1,0
GCF_022923615.1_ASM2292361v1,0
GCF_021398345.1_ASM2139834v1,0
GCF_021398345.1_ASM2139834v1,0
GCF_025146005.1_ASM2514600v1,0
GCF_022832975.1_ASM2283297v1,0
GCF_022832975.1_ASM2283297v1,0
GCF_022832975.1_ASM2283297v1,0
GCF_024704525.1_ASM2470452v1,0
GCF_024704525.1_ASM2470452v1,2
GCF_024704525.1_ASM2470452v1,0
GCF_020641085.2_ASM2064108v2,0
GCF_940588555.1_hadza_2261_Bf14,0
GCF_023509255.1_ASM2350925v1,0
GCF_023509255.1_ASM2350925v1,0
GCF_023375325.1_ASM2337532v1,0
GCF_023375325.1_ASM2337532v1,0
GCF_022569935.1_ASM2256993v1,0
GCF_022569935.1_ASM2256993v1,0
GCF_022569935.1_ASM2256993v1,0
GCF_022569935.1_ASM2256993v1,0
GCF_022569935.1_ASM2256993v1,0
GCF_021733585.2_ASM2173358v3,0
GCF_021733585.2_ASM2173358v3,1
GCF_021733585.2_ASM2173358v3,0
GCF_022923695.1_ASM2292369v1,0
GCF_021496885.1_ASM2149688v1,0
GCF_022592395.1_ASM2259239v1,0
GCF_024734235.1_ASM2473423v1,0
GCF_024734235.1_ASM2473423v1,0
GCF_023573625.1_ASM2357362v1,0
GCF_023205955.1_ASM2320595v1,0
GCF_022845775.1_ASM2284577v1,0
GCF_022221005.1_ASM2222100v1,0
GCF_022221005.1_ASM2222100v1,0
GCF_022221005.1_ASM2222100v1,0
GCF_022924515.1_ASM2292451v1,0
GCF_023611785.1_ASM2361178v1,1
GCF_023611785.1_ASM2361178v1,0
GCF_023611785.1_ASM2361178v1,0
GCF_023611785.1_ASM2361178v1,0
GCF_022318505.1_ASM2231850v1,0
GCF_022221085.1_ASM2222108v1,0
GCF_022221085.1_ASM2222108v1,0
GCF_022221245.1_ASM2222124v1,0
GCF_022221245.1_ASM2222124v1,0
GCF_022221245.1_ASM2222124v1,0
GCF_022349965.1_ASM2234996v1,0
GCF_024206775.1_ASM2420677v1,0
GCF_024206775.1_ASM2420677v1,0
GCF_021513095.1_ASM2151309v1,0
GCF_021513095.1_ASM2151309v1,0
GCF_021513095.1_ASM2151309v1,0
GCF_021513095.1_ASM2151309v1,0
GCF_022537925.1_ASM2253792v1,1
GCF_905335825.2_AN2340v1_cp,0
GCF_905335825.2_AN2340v1_cp,0
GCF_022921935.1_ASM2292193v1,0
GCF_024498715.1_ASM2449871v1,0
GCF_024397415.1_ASM2439741v1,0
GCF_024397415.1_ASM2439741v1,0
GCF_022819225.1_ASM2281922v1,0
GCF_022374935.2_ASM2237493v2,0
GCF_024610975.1_ASM2461097v1,0
GCF_021729985.1_ASM2172998v1,0
GCF_021729985.1_ASM2172998v1,0
GCF_022220605.1_ASM2222060v1,0
GCF_022220605.1_ASM2222060v1,0
GCF_022220605.1_ASM2222060v1,0
GCF_025148285.1_ASM2514828v1,0
GCF_025148285.1_ASM2514828v1,0
GCF_025148285.1_ASM2514828v1,0
GCF_025148285.1_ASM2514828v1,1
GCF_025148285.1_ASM2514828v1,0
GCF_025148285.1_ASM2514828v1,0
GCF_025148285.1_ASM2514828v1,0
GCF_022570475.1_ASM2257047v1,0
GCF_022570475.1_ASM2257047v1,0
GCF_022570475.1_ASM2257047v1,0
GCF_022570475.1_ASM2257047v1,0
GCF_023517795.1_ASM2351779v1,0
GCF_021459805.1_ASM2145980v1,0
GCF_024498835.1_ASM2449883v1,0
GCF_004636745.1_ASM463674v2,0
GCF_004636745.1_ASM463674v2,0
GCF_022923775.1_ASM2292377v1,0
GCF_022170805.1_ASM2217080v1,0
GCF_022170805.1_ASM2217080v1,0
GCF_022170805.1_ASM2217080v1,0
GCF_022170805.1_ASM2217080v1,0
GCF_022170805.1_ASM2217080v1,1
GCF_022170785.1_ASM2217078v1,0
GCF_022170785.1_ASM2217078v1,0
GCF_022170785.1_ASM2217078v1,0
GCF_022220525.1_ASM2222052v1,0
GCF_022220525.1_ASM2222052v1,0
GCF_022220525.1_ASM2222052v1,0
GCF_022220525.1_ASM2222052v1,0
GCF_024722495.1_ASM2472249v1,0
GCF_024722495.1_ASM2472249v1,0
GCF_022374895.2_ASM2237489v2,0
GCF_022374895.2_ASM2237489v2,0
GCF_022374895.2_ASM2237489v2,0
GCF_022014735.1_ASM2201473v1,0
GCF_022014735.1_ASM2201473v1,0
GCF_022221145.1_ASM2222114v1,0
GCF_022221145.1_ASM2222114v1,0
GCF_022221145.1_ASM2222114v1,0
GCF_020172765.2_ASM2017276v2,0
GCF_020172765.2_ASM2017276v2,0
GCF_020172765.2_ASM2017276v2,0
GCF_020172765.2_ASM2017276v2,0
GCF_020172765.2_ASM2017276v2,0
GCF_024498815.1_ASM2449881v1,0
GCF_024498815.1_ASM2449881v1,0
GCF_021390035.1_ASM2139003v1,0
GCF_021390035.1_ASM2139003v1,0
GCF_021586915.1_ASM2158691v1,0
GCF_021586915.1_ASM2158691v1,0
GCF_021586915.1_ASM2158691v1,0
GCF_025232515.1_ASM2523251v1,0
GCF_025232515.1_ASM2523251v1,0
GCF_023078435.1_ASM2307843v1,1
GCF_022924735.1_ASM2292473v1,0
GCF_020641395.2_ASM2064139v2,0
GCF_020641395.2_ASM2064139v2,0
GCF_020641395.2_ASM2064139v2,0
GCF_020641395.2_ASM2064139v2,0
GCF_020641395.2_ASM2064139v2,0
GCF_020641395.2_ASM2064139v2,0
GCF_025148445.1_ASM2514844v1,1
GCF_025148445.1_ASM2514844v1,0
GCF_025148445.1_ASM2514844v1,0
GCF_025148445.1_ASM2514844v1,0
GCF_023573085.1_ASM2357308v1,0
GCF_023573085.1_ASM2357308v1,0
GCF_022439505.1_ASM2243950v1,0
GCF_022845735.1_ASM2284573v1,0
GCF_022845735.1_ASM2284573v1,0
GCF_022845735.1_ASM2284573v1,0
GCF_022592155.1_ASM2259215v1,0
GCF_022592155.1_ASM2259215v1,0
GCF_022592155.1_ASM2259215v1,0
GCF_025151535.1_ASM2515153v1,0
GCF_025151535.1_ASM2515153v1,4
GCF_025151535.1_ASM2515153v1,0
GCF_024758625.1_ASM2475862v1,0
GCF_905322535.1_AI2624v1_cpp,0
GCF_905322535.1_AI2624v1_cpp,0
GCF_905322535.1_AI2624v1_cpp,0
GCF_905322535.1_AI2624v1_cpp,0
GCF_905337845.2_AN2351v1_cp,0
GCF_025147325.1_ASM2514732v1,1
GCF_024800705.1_ASM2480070v1,0
GCF_024800705.1_ASM2480070v1,0
GCF_022221125.1_ASM2222112v1,0
GCF_022221125.1_ASM2222112v1,0
GCF_022221125.1_ASM2222112v1,0
GCF_022221125.1_ASM2222112v1,0
GCF_022845595.1_ASM2284559v1,0
GCF_022846335.1_ASM2284633v1,1
GCF_024612035.1_ASM2461203v1,0
GCF_024612035.1_ASM2461203v1,0
GCF_022343705.1_ASM2234370v1,0
GCF_022343705.1_ASM2234370v1,0
GCF_022343705.1_ASM2234370v1,0
GCF_024206695.1_ASM2420669v1,0
GCF_024206695.1_ASM2420669v1,0
GCF_024206695.1_ASM2420669v1,0
GCF_022559705.1_ASM2255970v1,3
GCF_024158965.2_ASM2415896v2,0
GCF_024112375.1_ASM2411237v1,1
GCF_025147085.1_ASM2514708v1,0
GCF_023375305.1_ASM2337530v1,0
GCF_023375305.1_ASM2337530v1,0
GCF_023375305.1_ASM2337530v1,0
GCF_024206735.1_ASM2420673v1,0
GCF_023973165.1_ASM2397316v1,0
GCF_022812285.1_ASM2281228v1,0
GCF_022812285.1_ASM2281228v1,0
GCF_025147905.1_ASM2514790v1,0
GCF_025147905.1_ASM2514790v1,0
GCF_025147905.1_ASM2514790v1,0
GCF_025147905.1_ASM2514790v1,1
GCF_025147905.1_ASM2514790v1,0
GCF_025147905.1_ASM2514790v1,0
GCF_020641355.2_ASM2064135v2,0
GCF_020641355.2_ASM2064135v2,0
GCF_020641355.2_ASM2064135v2,0
GCF_023374275.1_ASM2337427v1,0
GCF_023374275.1_ASM2337427v1,0
GCF_018588615.2_ASM1858861v2,0
GCF_018588615.2_ASM1858861v2,0
GCF_024205845.1_ASM2420584v1,0
GCF_024205845.1_ASM2420584v1,0
GCF_021650955.1_ASM2165095v1,0
GCF_021650955.1_ASM2165095v1,0
GCF_024204625.1_ASM2420462v1,0
GCF_022221285.1_ASM2222128v1,0
GCF_022221285.1_ASM2222128v1,0
GCF_022221285.1_ASM2222128v1,0
GCF_025144995.1_ASM2514499v1,0
GCF_021459905.1_ASM2145990v1,0
GCF_021459905.1_ASM2145990v1,0
GCF_021459905.1_ASM2145990v1,0
GCF_905330835.2_AI2945v1_cpp,0
GCF_905330835.2_AI2945v1_cpp,0
GCF_021497145.1_ASM2149714v1,0
GCF_025232635.1_ASM2523263v1,0
GCF_022869765.1_ASM2286976v1,0
GCF_022869765.1_ASM2286976v1,0
GCF_022869765.1_ASM2286976v1,2
GCF_022869765.1_ASM2286976v1,0
GCF_004636665.1_ASM463666v2,0
GCF_905331365.1_AI3013v2_cpp,0
GCF_905331365.1_AI3013v2_cpp,0
GCF_905331365.1_AI3013v2_cpp,0
GCF_022220985.1_ASM2222098v1,0
GCF_022220985.1_ASM2222098v1,0
GCF_022220985.1_ASM2222098v1,0
GCF_022220985.1_ASM2222098v1,0
GCF_022179545.1_ASM2217954v1,0
GCF_022810945.1_ASM2281094v1,0
GCF_022810945.1_ASM2281094v1,0
GCF_022068765.1_ASM2206876v1,0
GCF_024741855.1_ASM2474185v1,1
GCF_024741855.1_ASM2474185v1,5
GCF_024917635.1_ASM2491763v1,0
GCF_024917635.1_ASM2491763v1,0
GCF_024917635.1_ASM2491763v1,0
GCF_024917635.1_ASM2491763v1,0
GCF_022923555.1_ASM2292355v1,0
GCF_022922915.1_ASM2292291v1,0
GCF_022922915.1_ASM2292291v1,0
GCF_022922915.1_ASM2292291v1,0
GCF_022221345.1_ASM2222134v1,0
GCF_022221345.1_ASM2222134v1,0
GCF_024734275.1_ASM2473427v1,0
GCF_024734275.1_ASM2473427v1,0
GCF_023573565.1_ASM2357356v1,0
GCF_022220585.1_ASM2222058v1,0
GCF_022220585.1_ASM2222058v1,0
GCF_025149465.1_ASM2514946v1,0
GCF_025149465.1_ASM2514946v1,1
GCF_025149465.1_ASM2514946v1,0
GCF_022163605.1_ASM2216360v1,0
GCF_022163605.1_ASM2216360v1,0
GCF_022163605.1_ASM2216360v1,0
GCF_022170825.1_ASM2217082v1,0
GCF_025232235.1_ASM2523223v1,0
GCF_022845615.1_ASM2284561v1,0
GCF_021559755.1_ASM2155975v1,0
GCF_024401005.1_ASM2440100v1,0
GCF_021590045.1_ASM2159004v1,0
GCF_021590045.1_ASM2159004v1,0
GCF_021590045.1_ASM2159004v1,0
GCF_002844715.2_ASM284471v2,0
GCF_002844715.2_ASM284471v2,0
GCF_025311455.1_ASM2531145v1,0
GCF_021496035.1_ASM2149603v1,0
GCF_021496035.1_ASM2149603v1,2
GCF_021496035.1_ASM2149603v1,0
GCF_022845795.1_ASM2284579v1,0
GCF_022845795.1_ASM2284579v1,0
GCF_023651955.1_ASM2365195v1,0
GCF_022533445.1_ASM2253344v1,0
GCF_023822665.1_ASM2382266v1,0
GCF_023822665.1_ASM2382266v1,2
GCF_023822665.1_ASM2382266v1,0
GCF_025232125.1_ASM2523212v1,0
GCF_023206795.1_ASM2320679v1,0
GCF_023206795.1_ASM2320679v1,0
GCF_022922015.1_ASM2292201v1,0
GCF_024205905.1_ASM2420590v1,0
GCF_024205905.1_ASM2420590v1,0
GCF_024205905.1_ASM2420590v1,0
GCF_022221265.1_ASM2222126v1,0
GCF_022221265.1_ASM2222126v1,0
GCF_021496325.1_ASM2149632v1,0
GCF_022439565.1_ASM2243956v1,0
GCF_022439565.1_ASM2243956v1,0
GCF_024206635.1_ASM2420663v1,0
GCF_024206635.1_ASM2420663v1,0
GCF_024206635.1_ASM2420663v1,0
GCF_021899855.1_ASM2189985v1,0
GCF_021899855.1_ASM2189985v1,0
GCF_021899855.1_ASM2189985v1,0
GCF_021899855.1_ASM2189985v1,1
GCF_021899855.1_ASM2189985v1,0
GCF_023639785.1_ASM2363978v1,0
GCF_022370835.2_ASM2237083v2,0
GCF_022370835.2_ASM2237083v2,0
GCF_024206795.1_ASM2420679v1,0
GCF_024206795.1_ASM2420679v1,0
GCF_024206795.1_ASM2420679v1,0
GCF_024206795.1_ASM2420679v1,1
GCF_024206795.1_ASM2420679v1,0
GCF_024206795.1_ASM2420679v1,0
GCF_023611765.1_ASM2361176v1,0
GCF_023611765.1_ASM2361176v1,2
GCF_023611765.1_ASM2361176v1,0
GCF_022879615.1_ASM2287961v1,0
GCF_022879615.1_ASM2287961v1,0
GCF_022879615.1_ASM2287961v1,0
GCF_022879615.1_ASM2287961v1,0
GCF_022453545.1_ASM2245354v1,0
GCF_025149915.1_ASM2514991v1,0
GCF_025149915.1_ASM2514991v1,0
GCF_025149915.1_ASM2514991v1,0
GCF_025149915.1_ASM2514991v1,0
GCF_022810965.1_ASM2281096v1,0
GCF_022810965.1_ASM2281096v1,0
GCF_022810965.1_ASM2281096v1,0
GCF_021498305.1_ASM2149830v1,0
GCF_021498305.1_ASM2149830v1,0
GCF_022845675.1_ASM2284567v1,0
GCF_024205225.1_ASM2420522v1,0
GCF_022318545.1_ASM2231854v1,1
GCF_022924555.1_ASM2292455v1,0
GCF_018588665.2_ASM1858866v2,0
GCF_018588665.2_ASM1858866v2,0
GCF_024054255.2_ASM2405425v2,0
GCF_024054255.2_ASM2405425v2,0
GCF_905331265.2_AI2999v1_cpp,0
GCF_905331265.2_AI2999v1_cpp,0
GCF_023278615.1_ASM2327861v1,0
GCF_023278615.1_ASM2327861v1,0
GCF_023278615.1_ASM2327861v1,0
GCF_024205945.1_ASM2420594v1,0
GCF_024205945.1_ASM2420594v1,0
GCF_024205945.1_ASM2420594v1,0
GCF_024205945.1_ASM2420594v1,0
GCF_024205945.1_ASM2420594v1,0
GCF_024205945.1_ASM2420594v1,0
GCF_022221325.1_ASM2222132v1,0
GCF_022221325.1_ASM2222132v1,0
GCF_022221325.1_ASM2222132v1,0
GCF_021498285.1_ASM2149828v1,0
GCF_023169825.1_ASM2316982v1,2
GCF_022318525.1_ASM2231852v1,0
GCF_022318525.1_ASM2231852v1,0
GCF_021513055.1_ASM2151305v1,0
GCF_021513055.1_ASM2151305v1,0
GCF_022870785.1_ASM2287078v1,0
GCF_022870785.1_ASM2287078v1,0
GCF_022221045.1_ASM2222104v1,0
GCF_022221045.1_ASM2222104v1,0
GCF_022221045.1_ASM2222104v1,0
GCF_022221045.1_ASM2222104v1,0
GCF_022819325.1_ASM2281932v1,0
GCF_022819325.1_ASM2281932v1,0
GCF_024053515.2_ASM2405351v2,0
GCF_024053515.2_ASM2405351v2,0
GCF_024053515.2_ASM2405351v2,0
GCF_025232595.1_ASM2523259v1,0
GCF_025232595.1_ASM2523259v1,0
GCF_025232595.1_ASM2523259v1,0
GCF_022921175.1_ASM2292117v1,0
GCF_021459825.1_ASM2145982v1,0
GCF_021459825.1_ASM2145982v1,0
GCF_023611705.1_ASM2361170v1,0
GCF_023611705.1_ASM2361170v1,0
GCF_023611705.1_ASM2361170v1,0
GCF_023611705.1_ASM2361170v1,0
GCF_903815225.1_hybrid_BB1455,0
GCF_903815225.1_hybrid_BB1455,0
GCF_903815225.1_hybrid_BB1455,0
GCF_903815225.1_hybrid_BB1455,0
GCF_903815225.1_hybrid_BB1455,0
GCF_903815225.1_hybrid_BB1455,0
GCF_903815225.1_hybrid_BB1455,0
GCF_025146135.1_ASM2514613v1,0
GCF_025146135.1_ASM2514613v1,0
GCF_025150745.1_ASM2515074v1,0
GCF_025150745.1_ASM2515074v1,0
GCF_025150745.1_ASM2515074v1,0
GCF_025150745.1_ASM2515074v1,0
GCF_025150745.1_ASM2515074v1,0
GCF_025150745.1_ASM2515074v1,0
GCF_023169925.1_ASM2316992v1,0
GCF_905329885.2_AI2826v1_cpp,0
GCF_905329885.2_AI2826v1_cpp,0
GCF_905329885.2_AI2826v1_cpp,0
GCF_023375285.1_ASM2337528v1,0
GCF_023822205.1_ASM2382220v1,0
GCF_023822205.1_ASM2382220v1,0
GCF_023822205.1_ASM2382220v1,3
GCF_023822205.1_ASM2382220v1,0
GCF_022430545.2_ASM2243054v2,0
GCF_022430545.2_ASM2243054v2,0
GCF_905330865.2_AI2946v1_cpp,0
GCF_905330865.2_AI2946v1_cpp,0
GCF_022318445.1_ASM2231844v1,2
GCF_022318445.1_ASM2231844v1,0
GCF_025149125.1_ASM2514912v1,0
GCF_025149125.1_ASM2514912v1,0
GCF_025232255.1_ASM2523225v1,0
GCF_025232255.1_ASM2523225v1,0
GCF_905333855.2_AI2913v1_cp,0
GCF_022810865.1_ASM2281086v1,0
GCF_022810865.1_ASM2281086v1,0
GCF_022810865.1_ASM2281086v1,0
GCF_022221185.1_ASM2222118v1,0
GCF_022221185.1_ASM2222118v1,0
GCF_022221185.1_ASM2222118v1,0
GCF_022221185.1_ASM2222118v1,0
GCF_023278025.1_ASM2327802v1,0
GCF_023278025.1_ASM2327802v1,0
GCF_023757925.1_ASM2375792v1,0
GCF_023757925.1_ASM2375792v1,0
GCF_023757925.1_ASM2375792v1,0
GCF_023757925.1_ASM2375792v1,0
GCF_023757925.1_ASM2375792v1,0
GCF_023757925.1_ASM2375792v1,0
GCF_022433565.1_ASM2243356v1,0
GCF_022871085.1_ASM2287108v1,0
GCF_022318485.1_ASM2231848v1,0
GCF_022318485.1_ASM2231848v1,0
GCF_025149625.1_ASM2514962v1,0
GCF_025149625.1_ASM2514962v1,0
GCF_024498735.1_ASM2449873v1,0
GCF_024498735.1_ASM2449873v1,0
GCF_024498735.1_ASM2449873v1,0
GCF_022833145.1_ASM2283314v1,0
GCF_022833145.1_ASM2283314v1,0
GCF_023300045.1_ASM2330004v1,0
GCF_023300045.1_ASM2330004v1,0
GCF_023300045.1_ASM2330004v1,0
GCF_023300045.1_ASM2330004v1,0
GCF_021398305.1_ASM2139830v1,0
GCF_021398305.1_ASM2139830v1,0
GCF_021398305.1_ASM2139830v1,0
GCF_021398305.1_ASM2139830v1,0
GCF_021398305.1_ASM2139830v1,0
GCF_000508125.2_ASM50812v2,0
GCF_021513575.1_ASM2151357v1,0
GCF_022846195.1_ASM2284619v1,0
GCF_022846195.1_ASM2284619v1,0
GCF_022846195.1_ASM2284619v1,0
GCF_022846195.1_ASM2284619v1,0
GCF_024224615.1_ASM2422461v1,0
GCF_024224615.1_ASM2422461v1,0
GCF_024224615.1_ASM2422461v1,0
GCF_022478075.1_ASM2247807v1,0
GCF_022478075.1_ASM2247807v1,1
GCF_024400855.1_ASM2440085v1,0
GCF_000327395.2_ASM32739v2,0
GCF_000327395.2_ASM32739v2,0
GCF_000327395.2_ASM32739v2,0
GCF_025151215.1_ASM2515121v1,0
GCF_025151215.1_ASM2515121v1,1
GCF_025151215.1_ASM2515121v1,0
GCF_025151215.1_ASM2515121v1,0
GCF_025151215.1_ASM2515121v1,0
GCF_025151215.1_ASM2515121v1,0
GCF_025151215.1_ASM2515121v1,0
GCF_025151215.1_ASM2515121v1,0
GCF_025151215.1_ASM2515121v1,0
GCF_025151215.1_ASM2515121v1,0
GCF_025215645.1_ASM2521564v1,0
GCF_025215645.1_ASM2521564v1,0
GCF_024611995.1_ASM2461199v1,0
GCF_024611995.1_ASM2461199v1,0
GCF_023509275.1_ASM2350927v1,0
GCF_023370115.1_ASM2337011v1,0
GCF_021459845.1_ASM2145984v1,0
GCF_021459845.1_ASM2145984v1,0
GCF_022879815.1_ASM2287981v1,0
GCF_022023995.1_ASM2202399v1,0
GCF_024401155.1_ASM2440115v1,0
GCF_024401155.1_ASM2440115v1,0
GCF_022845815.1_ASM2284581v1,0
GCF_023823085.1_ASM2382308v1,0
GCF_023823085.1_ASM2382308v1,0
GCF_023823085.1_ASM2382308v1,0
GCF_023823085.1_ASM2382308v1,0
GCF_023823085.1_ASM2382308v1,0
GCF_023823085.1_ASM2382308v1,0
GCF_023823085.1_ASM2382308v1,0
GCF_023823085.1_ASM2382308v1,0
GCF_023823085.1_ASM2382308v1,0
GCF_023823085.1_ASM2382308v1,0
GCF_022870725.1_ASM2287072v1,0
GCF_025311515.1_ASM2531151v1,0
GCF_025311515.1_ASM2531151v1,0
GCF_025311515.1_ASM2531151v1,0
GCF_022221305.1_ASM2222130v1,0
GCF_022221305.1_ASM2222130v1,0
GCF_021545335.1_ASM2154533v1,0
GCF_021545335.1_ASM2154533v1,1
GCF_021918005.1_ASM2191800v1,0
GCF_023375135.1_ASM2337513v1,0
GCF_024205865.1_ASM2420586v1,0
GCF_024205865.1_ASM2420586v1,0
GCF_024205865.1_ASM2420586v1,0
GCF_022922175.1_ASM2292217v1,0
GCF_022370635.1_ASM2237063v1,0
GCF_022370635.1_ASM2237063v1,0
GCF_022370635.1_ASM2237063v1,0
GCF_022370635.1_ASM2237063v1,0
GCF_905338045.2_AI3057v1_cp,0
GCF_905338045.2_AI3057v1_cp,0
GCF_905338045.2_AI3057v1_cp,0
GCF_905338045.2_AI3057v1_cp,0
GCF_905338045.2_AI3057v1_cp,0
GCF_024717335.1_ASM2471733v1,0
GCF_022349945.1_ASM2234994v1,0
GCF_022810925.1_ASM2281092v1,0
GCF_022810925.1_ASM2281092v1,0
GCF_022810925.1_ASM2281092v1,0
GCF_022810925.1_ASM2281092v1,0
GCF_022810925.1_ASM2281092v1,0
GCF_025150085.1_ASM2515008v1,0
GCF_025150085.1_ASM2515008v1,0
GCF_025150085.1_ASM2515008v1,0
GCF_025150085.1_ASM2515008v1,0
GCF_022439525.1_ASM2243952v1,0
GCF_022439525.1_ASM2243952v1,1
GCF_022439525.1_ASM2243952v1,0
GCF_025144665.1_ASM2514466v1,0
GCF_025144665.1_ASM2514466v1,0
GCF_021513075.1_ASM2151307v1,0
GCF_021513075.1_ASM2151307v1,0
GCF_021513075.1_ASM2151307v1,0
GCF_024224355.1_ASM2422435v1,0
GCF_024224355.1_ASM2422435v1,0
GCF_022845835.1_ASM2284583v1,0
GCF_022845835.1_ASM2284583v1,0
GCF_024802605.1_ASM2480260v1,0
GCF_024802605.1_ASM2480260v1,0
GCF_024917295.1_ASM2491729v1,0
GCF_024917295.1_ASM2491729v1,1
GCF_021391455.1_ASM2139145v1,0
GCF_022570115.1_ASM2257011v1,0
GCF_022570115.1_ASM2257011v1,0
GCF_022570115.1_ASM2257011v1,0
GCF_022570115.1_ASM2257011v1,0
GCF_023547145.1_ASM2354714v1,0
GCF_023547145.1_ASM2354714v1,0
GCF_023547145.1_ASM2354714v1,0
GCF_942548115.1_Leaf245_closed,0
GCF_024206655.1_ASM2420665v1,0
GCF_024206655.1_ASM2420665v1,0
GCF_024206655.1_ASM2420665v1,0
GCF_024206655.1_ASM2420665v1,0
GCF_022846055.1_ASM2284605v1,0
GCF_022647665.1_ASM2264766v1,0
GCF_022647665.1_ASM2264766v1,0
GCF_022647665.1_ASM2264766v1,0
GCF_022647665.1_ASM2264766v1,1
GCF_022647665.1_ASM2264766v1,0
GCF_023204995.1_ASM2320499v1,0
GCF_023204995.1_ASM2320499v1,0
GCF_025311475.1_ASM2531147v1,0
GCF_025311475.1_ASM2531147v1,0
GCF_025311475.1_ASM2531147v1,1
GCF_025349945.1_ASM2534994v1,0
GCF_025349945.1_ASM2534994v1,0
GCF_025349945.1_ASM2534994v1,0
GCF_025349945.1_ASM2534994v1,1
GCF_025349945.1_ASM2534994v1,0
GCF_025349945.1_ASM2534994v1,0
GCF_022374875.1_ASM2237487v1,1
GCF_022374875.1_ASM2237487v1,1
GCF_024206715.1_ASM2420671v1,0
GCF_024918215.1_ASM2491821v1,0
GCF_024918215.1_ASM2491821v1,0
GCF_024918215.1_ASM2491821v1,0
GCF_023299345.1_ASM2329934v1,0
GCF_023299345.1_ASM2329934v1,0
GCF_022923275.1_ASM2292327v1,0
GCF_022924435.1_ASM2292443v1,0
GCF_022439585.1_ASM2243958v1,0
GCF_022439585.1_ASM2243958v1,0
GCF_022439585.1_ASM2243958v1,0
GCF_022439585.1_ASM2243958v1,0
GCF_022439585.1_ASM2243958v1,0
GCF_022439585.1_ASM2243958v1,0
GCF_022439585.1_ASM2243958v1,0
GCF_025145285.1_ASM2514528v1,0
GCF_022695635.1_ASM2269563v1,0
GCF_019704155.2_ASM1970415v2,0
GCF_019704155.2_ASM1970415v2,0
GCF_019704155.2_ASM1970415v2,0
GCF_019704155.2_ASM1970415v2,0
GCF_019704155.2_ASM1970415v2,0
GCF_021869705.1_ASM2186970v1,0
GCF_021869705.1_ASM2186970v1,0
GCF_021869705.1_ASM2186970v1,0
GCF_021869705.1_ASM2186970v1,0
GCF_021869705.1_ASM2186970v1,0
GCF_021869705.1_ASM2186970v1,2
GCF_021869705.1_ASM2186970v1,0
GCF_021869705.1_ASM2186970v1,0
GCF_021869705.1_ASM2186970v1,0
GCF_021869705.1_ASM2186970v1,0
GCF_024498775.1_ASM2449877v1,0
GCF_000484505.2_ASM48450v2,0
GCF_000484505.2_ASM48450v2,0
GCF_024206675.1_ASM2420667v1,0
GCF_024206675.1_ASM2420667v1,0
GCF_024206675.1_ASM2420667v1,0
GCF_022220685.1_ASM2222068v1,0
GCF_022220685.1_ASM2222068v1,0
GCF_022220685.1_ASM2222068v1,0
GCF_025149285.1_ASM2514928v1,0
GCF_025149285.1_ASM2514928v1,0
GCF_025149285.1_ASM2514928v1,0
GCF_025149285.1_ASM2514928v1,0
GCF_023299565.1_ASM2329956v1,0
GCF_023299565.1_ASM2329956v1,0
GCF_023299565.1_ASM2329956v1,0
GCF_025148125.1_ASM2514812v1,0
GCF_021513475.1_ASM2151347v1,0
GCF_021513475.1_ASM2151347v1,0
GCF_021513475.1_ASM2151347v1,0
GCF_020641455.2_ASM2064145v2,0
GCF_023008225.1_ASM2300822v1,0
GCF_023008225.1_ASM2300822v1,1
GCF_023008225.1_ASM2300822v1,0
GCF_023008225.1_ASM2300822v1,0
GCF_023008225.1_ASM2300822v1,0
GCF_025149785.1_ASM2514978v1,0
GCF_022318405.1_ASM2231840v1,0
GCF_022318405.1_ASM2231840v1,1
GCF_024758665.1_ASM2475866v1,0
GCF_024758665.1_ASM2475866v1,0
GCF_024758665.1_ASM2475866v1,0
GCF_023205595.1_ASM2320559v1,0
GCF_023205595.1_ASM2320559v1,0
GCF_023205595.1_ASM2320559v1,1
GCF_023205595.1_ASM2320559v1,0
GCF_932530395.1_mada_104,0
GCF_022220645.1_ASM2222064v1,0
GCF_022220645.1_ASM2222064v1,0
GCF_022220645.1_ASM2222064v1,0
GCF_022220645.1_ASM2222064v1,0
GCF_022220645.1_ASM2222064v1,0
GCF_022922655.1_ASM2292265v1,0
GCF_021496365.1_ASM2149636v1,0
GCF_021496365.1_ASM2149636v1,0
GCF_021496365.1_ASM2149636v1,0
GCF_025145645.1_ASM2514564v1,0
GCF_025145645.1_ASM2514564v1,0
GCF_025145645.1_ASM2514564v1,0
GCF_025311495.1_ASM2531149v1,0
GCF_025311495.1_ASM2531149v1,0
GCF_025311495.1_ASM2531149v1,0
GCF_024734685.1_ASM2473468v1,0
GCF_024158105.2_ASM2415810v2,0
GCF_024498795.1_ASM2449879v1,0
GCF_024917615.1_ASM2491761v1,0
GCF_024917615.1_ASM2491761v1,0
GCF_024206615.1_ASM2420661v1,0
GCF_024206615.1_ASM2420661v1,0
GCF_022220545.1_ASM2222054v1,0
GCF_022220545.1_ASM2222054v1,0
GCF_023347255.1_ASM2334725v1,0
GCF_023347255.1_ASM2334725v1,0
GCF_023347255.1_ASM2334725v1,0
GCF_024918255.1_ASM2491825v1,0
GCF_024918255.1_ASM2491825v1,0
GCF_025232535.1_ASM2523253v1,0
GCF_021459945.1_ASM2145994v1,0
GCF_021459945.1_ASM2145994v1,0
GCF_021459945.1_ASM2145994v1,0
GCF_024498855.1_ASM2449885v1,0
GCF_905338025.2_AN2363v1_cp,0
GCF_905338025.2_AN2363v1_cp,0
GCF_021398655.1_ASM2139865v1,0
GCF_021398655.1_ASM2139865v1,0
GCF_022570455.1_ASM2257045v1,0
GCF_022570455.1_ASM2257045v1,0
GCF_022070465.1_ASM2207046v1,0
GCF_022070465.1_ASM2207046v1,1
GCF_903815275.1_hybrid_BB1454,0
GCF_903815275.1_hybrid_BB1454,0
GCF_903815275.1_hybrid_BB1454,0
GCF_903815275.1_hybrid_BB1454,1
GCF_903815275.1_hybrid_BB1454,0
GCF_903815275.1_hybrid_BB1454,0
GCF_022049065.2_ASM2204906v2,0
GCF_022049065.2_ASM2204906v2,0
GCF_022049065.2_ASM2204906v2,0
GCF_024722515.1_ASM2472251v1,0
GCF_022788635.1_ASM2278863v1,0
GCF_022592275.1_ASM2259227v1,0
GCF_022592275.1_ASM2259227v1,0
GCF_022592275.1_ASM2259227v1,0
GCF_022592275.1_ASM2259227v1,0
GCF_022592275.1_ASM2259227v1,0
GCF_002844755.2_ASM284475v2,0
GCF_002844755.2_ASM284475v2,0
GCF_002844755.2_ASM284475v2,0
GCF_022343725.1_ASM2234372v1,0
GCF_022343725.1_ASM2234372v1,0
GCF_022343725.1_ASM2234372v1,0
GCF_022343725.1_ASM2234372v1,0
GCF_022343725.1_ASM2234372v1,0
GCF_022533465.1_ASM2253346v1,1
GCF_025146565.1_ASM2514656v1,0
GCF_025150895.1_ASM2515089v1,0
GCF_025150895.1_ASM2515089v1,3
GCF_022221105.1_ASM2222110v1,0
GCF_024498755.1_ASM2449875v1,0
GCF_024498755.1_ASM2449875v1,0
GCF_022394675.1_ASM2239467v1,0
GCF_022394675.1_ASM2239467v1,0
GCF_022394675.1_ASM2239467v1,0
GCF_022394675.1_ASM2239467v1,0
GCF_905322525.2_AI2623v1_cpp,0
GCF_905322525.2_AI2623v1_cpp,0
GCF_905322525.2_AI2623v1_cpp,0
GCF_905322525.2_AI2623v1_cpp,0
GCF_905322525.2_AI2623v1_cpp,0
GCF_022221225.1_ASM2222122v1,0
GCF_022221225.1_ASM2222122v1,0
GCF_022220665.1_ASM2222066v1,0
GCF_022220665.1_ASM2222066v1,0
GCF_022220665.1_ASM2222066v1,0
GCF_025369755.1_ASM2536975v1,0
GCF_025369755.1_ASM2536975v1,1
GCF_024917395.1_ASM2491739v1,0
GCF_021513035.1_ASM2151303v1,0
GCF_021513035.1_ASM2151303v1,0
GCF_021513035.1_ASM2151303v1,0
GCF_023347355.1_ASM2334735v1,0
GCF_023347355.1_ASM2334735v1,0
GCF_024205205.1_ASM2420520v1,0
GCF_025148785.1_ASM2514878v1,0
GCF_022924535.1_ASM2292453v1,0
GCF_024498875.1_ASM2449887v1,0
GCF_024498875.1_ASM2449887v1,0
GCF_024637915.1_ASM2463791v1,0
GCF_024637915.1_ASM2463791v1,0
GCF_024637915.1_ASM2463791v1,0
GCF_024637915.1_ASM2463791v1,0
GCF_024089335.1_ASM2408933v1,0
GCF_023509295.1_ASM2350929v1,0
GCF_024917575.1_ASM2491757v1,0
GCF_024917575.1_ASM2491757v1,0
GCF_024917575.1_ASM2491757v1,0
GCF_023822185.1_ASM2382218v1,0
GCF_025232575.1_ASM2523257v1,0
GCF_025232575.1_ASM2523257v1,0
GCF_025232575.1_ASM2523257v1,0
GCF_022924455.1_ASM2292445v1,0
GCF_023509315.1_ASM2350931v1,0
GCF_022921855.1_ASM2292185v1,0
GCF_022921855.1_ASM2292185v1,0
GCF_022921855.1_ASM2292185v1,0
GCF_022921855.1_ASM2292185v1,0
GCF_022921855.1_ASM2292185v1,0
GCF_022921855.1_ASM2292185v1,0
GCF_023375175.1_ASM2337517v1,0
GCF_023375175.1_ASM2337517v1,0
GCF_023375175.1_ASM2337517v1,0
GCF_023375175.1_ASM2337517v1,0
GCF_022648965.1_ASM2264896v1,0
GCF_022648965.1_ASM2264896v1,0
GCF_022220625.1_ASM2222062v1,0
GCF_022220625.1_ASM2222062v1,0
GCF_022220625.1_ASM2222062v1,0
GCF_022220965.1_ASM2222096v1,0
GCF_022220965.1_ASM2222096v1,0
GCF_022220965.1_ASM2222096v1,0
GCF_024498675.1_ASM2449867v1,0
GCF_022349985.1_ASM2234998v1,0
GCF_022921215.1_ASM2292121v1,0
GCF_022921215.1_ASM2292121v1,0
GCF_021559795.1_ASM2155979v1,0
GCF_021559795.1_ASM2155979v1,0
GCF_021559795.1_ASM2155979v1,0
GCF_021559795.1_ASM2155979v1,0
GCF_023573065.1_ASM2357306v1,0
GCF_022923515.1_ASM2292351v1,0
GCF_022923515.1_ASM2292351v1,0
GCF_022318385.1_ASM2231838v1,0
GCF_022923675.1_ASM2292367v1,0
GCF_024225115.1_ASM2422511v1,0
GCF_024225115.1_ASM2422511v1,0
GCF_024721565.1_ASM2472156v1,0
GCF_020641425.2_ASM2064142v2,0
GCF_023347315.1_ASM2334731v1,0
GCF_021497085.1_ASM2149708v1,0
GCF_022591735.1_ASM2259173v1,0
GCF_022591735.1_ASM2259173v1,0
GCF_022591735.1_ASM2259173v1,0
GCF_022809815.1_ASM2280981v1,0
GCF_022809815.1_ASM2280981v1,0
GCF_022569895.1_ASM2256989v1,0
GCF_022569895.1_ASM2256989v1,0
GCF_024498695.1_ASM2449869v1,0
GCF_024498695.1_ASM2449869v1,0
GCF_024453835.1_ASM2445383v1,0
GCF_024453835.1_ASM2445383v1,0
GCF_021496345.1_ASM2149634v1,0
GCF_024206755.1_ASM2420675v1,0
GCF_024206755.1_ASM2420675v1,0
GCF_024206755.1_ASM2420675v1,0
GCF_024206755.1_ASM2420675v1,0
GCF_021498245.1_ASM2149824v1,0
GCF_024918795.1_ASM2491879v1,1
GCF_025151715.1_ASM2515171v1,0
GCF_025151715.1_ASM2515171v1,1
GCF_024206595.1_ASM2420659v1,0
GCF_024206595.1_ASM2420659v1,0
GCF_024206595.1_ASM2420659v1,0
GCF_024917675.1_ASM2491767v1,0
GCF_024917675.1_ASM2491767v1,0
GCF_022921995.1_ASM2292199v1,0
GCF_022569975.1_ASM2256997v1,0
GCF_022569975.1_ASM2256997v1,0
GCF_022569975.1_ASM2256997v1,0
GCF_023824315.1_ASM2382431v1,0
GCF_023824315.1_ASM2382431v1,0
GCF_023824315.1_ASM2382431v1,0
GCF_023824315.1_ASM2382431v1,0
GCF_023824315.1_ASM2382431v1,0
GCF_021498225.1_ASM2149822v1,0
GCF_024637975.1_ASM2463797v1,0
GCF_024637975.1_ASM2463797v1,1
GCF_022925295.1_ASM2292529v1,0
GCF_022925295.1_ASM2292529v1,0
GCF_022925295.1_ASM2292529v1,0
GCF_023983475.1_ASM2398347v1,0
GCF_023983475.1_ASM2398347v1,0
GCF_023983475.1_ASM2398347v1,0
GCF_018588605.2_ASM1858860v2,1
GCF_024917315.1_ASM2491731v1,0
GCF_024917315.1_ASM2491731v1,0
GCF_025151045.1_ASM2515104v1,0
GCF_025151045.1_ASM2515104v1,0
GCF_024346605.1_ASM2434660v1,0
GCF_024346605.1_ASM2434660v1,0
GCF_024346605.1_ASM2434660v1,0
GCF_024346605.1_ASM2434660v1,0
GCF_024346605.1_ASM2434660v1,0
GCF_024346605.1_ASM2434660v1,0
GCF_024346605.1_ASM2434660v1,0
GCF_023205075.1_ASM2320507v1,1
GCF_021432745.1_ASM2143274v1,0
GCF_021432745.1_ASM2143274v1,0
GCF_021432745.1_ASM2143274v1,0
GCF_021432745.1_ASM2143274v1,1
GCF_021432745.1_ASM2143274v1,0
GCF_025232655.1_ASM2523265v1,0
GCF_021919345.1_ASM2191934v1,0
GCF_024917695.1_ASM2491769v1,0
GCF_024917695.1_ASM2491769v1,0
GCF_024917695.1_ASM2491769v1,1
GCF_024917695.1_ASM2491769v1,0
GCF_021397795.1_ASM2139779v1,0
GCF_021397795.1_ASM2139779v1,1
GCF_022921835.1_ASM2292183v1,0
GCF_905333885.2_AI2918v1_cp,0
GCF_905333885.2_AI2918v1_cp,0
GCF_905333885.2_AI2918v1_cp,0
GCF_905333885.2_AI2918v1_cp,0
GCF_021496075.1_ASM2149607v1,0
GCF_021496075.1_ASM2149607v1,1
GCF_021496075.1_ASM2149607v1,0
GCF_025152575.1_ASM2515257v1,0
GCF_025152575.1_ASM2515257v1,0
GCF_000487995.2_ASM48799v2,1
GCF_000487995.2_ASM48799v2,0
GCF_000487995.2_ASM48799v2,0
GCF_024126335.1_ASM2412633v1,0
GCF_022846315.1_ASM2284631v1,0
GCF_022846315.1_ASM2284631v1,0
GCF_024205965.1_ASM2420596v1,0
GCF_025370975.1_ASM2537097v1,0
GCF_023347215.1_ASM2334721v1,0
GCF_023347215.1_ASM2334721v1,0
GCF_023347215.1_ASM2334721v1,0
GCF_020641095.2_ASM2064109v2,0
GCF_020641095.2_ASM2064109v2,0
GCF_020641095.2_ASM2064109v2,0
GCF_022318425.1_ASM2231842v1,0
GCF_905329555.2_AI2744v1_cpp,0
GCF_905329555.2_AI2744v1_cpp,0
GCF_905329555.2_AI2744v1_cpp,0
GCF_021537535.1_ASM2153753v1,0
GCF_021537535.1_ASM2153753v1,0
GCF_021537535.1_ASM2153753v1,0
GCF_022014815.1_ASM2201481v1,0
GCF_022014815.1_ASM2201481v1,0
GCF_022921895.1_ASM2292189v1,0
GCF_022923575.1_ASM2292357v1,0
GCF_022923575.1_ASM2292357v1,0
GCF_022846375.1_ASM2284637v1,0
GCF_022846375.1_ASM2284637v1,0
GCF_022921235.1_ASM2292123v1,0
GCF_021496905.1_ASM2149690v1,0
GCF_022591895.1_ASM2259189v1,0
GCF_022591895.1_ASM2259189v1,0
GCF_022591895.1_ASM2259189v1,0
GCF_022591895.1_ASM2259189v1,0
GCF_022591895.1_ASM2259189v1,0
GCF_023299185.1_ASM2329918v1,0
GCF_023299185.1_ASM2329918v1,0
GCF_022069905.1_ASM2206990v1,0
GCF_022220565.1_ASM2222056v1,0
GCF_022220565.1_ASM2222056v1,0
GCF_014779555.2_ASM1477955v2,0
GCF_021459885.1_ASM2145988v1,0
GCF_021459885.1_ASM2145988v1,0
GCF_025146775.1_ASM2514677v1,0
GCF_022220945.1_ASM2222094v1,0
GCF_022220945.1_ASM2222094v1,0
GCF_022220945.1_ASM2222094v1,0
GCF_022220945.1_ASM2222094v1,0
GCF_023375155.1_ASM2337515v1,0
GCF_023375155.1_ASM2337515v1,0
GCF_023375155.1_ASM2337515v1,0
GCF_023375155.1_ASM2337515v1,0
GCF_022220405.1_ASM2222040v1,0
GCF_022220405.1_ASM2222040v1,0
