GCF_020002335.2_ASM2000233v2,NODE_3_length_27091_cov_73.719115_component_0,27091,
GCF_020002335.2_ASM2000233v2,NODE_13_length_12689_cov_71.927656_component_0,12689,
GCF_021561035.1_ASM2156103v1,NODE_1_length_48064_cov_40.941235_component_0,48064,
GCF_021561035.1_ASM2156103v1,NODE_2_length_21613_cov_66.513683_component_0,21613,
GCF_021561035.1_ASM2156103v1,NODE_3_length_8266_cov_71.373265_component_0,8266,
GCF_021561035.1_ASM2156103v1,NODE_7_length_1535_cov_105.580966_component_0,1535,
GCF_021561035.1_ASM2156103v1,NODE_8_length_1312_cov_73.469198_component_0,1312,
GCF_024400535.1_ASM2440053v1,NODE_5_length_4430_cov_2.376981_component_2,4430,
GCF_022921755.1_ASM2292175v1,NODE_3_length_1383_cov_1.884380_component_0,1383,
GCF_023373485.1_ASM2337348v1,NODE_3_length_1432_cov_157.614760_component_0,1432,
GCF_024089355.1_ASM2408935v1,NODE_13_length_1800_cov_317.663958_component_0,1800,
GCF_025147485.1_ASM2514748v1,NODE_30_length_13419_cov_1041.675097_component_2,13419,
GCF_025147485.1_ASM2514748v1,NODE_35_length_6597_cov_1082.349282_component_2,6597,
GCF_025147485.1_ASM2514748v1,NODE_38_length_6133_cov_987.824778_component_2,6133,
GCF_025147485.1_ASM2514748v1,NODE_41_length_5287_cov_1306.571292_component_2,5287,
GCF_025147485.1_ASM2514748v1,NODE_42_length_4616_cov_1000.412629_component_2,4616,
GCF_025152405.1_ASM2515240v1,NODE_22_length_3120_cov_45.879935_component_0,3120,
GCF_025152275.1_ASM2515227v1,NODE_12_length_2361_cov_1608.145707_component_0,2361,
GCF_905331345.2_AI3010v1_cpp,NODE_11_length_3117_cov_17.654605_component_1,3117,
GCF_024137845.1_ASM2413784v1,NODE_2_length_8181_cov_3941.857354_component_1,8181,
GCF_025252385.1_ASM2525238v1,NODE_12_length_6379_cov_3177.566804_component_0,6379,
GCF_025252385.1_ASM2525238v1,NODE_21_length_2636_cov_2946.145760_component_0,2636,
GCF_022832875.1_ASM2283287v1,NODE_22_length_1062_cov_40.158289_component_0,1062,
GCF_021398345.1_ASM2139834v1,NODE_15_length_8154_cov_16.945559_component_0,8154,
GCF_021398345.1_ASM2139834v1,NODE_16_length_4909_cov_23.566081_component_0,4909,
GCF_021398345.1_ASM2139834v1,NODE_20_length_2268_cov_7.588510_component_0,2268,
GCF_021398345.1_ASM2139834v1,NODE_22_length_1533_cov_6.208393_component_0,1533,
GCF_024704525.1_ASM2470452v1,NODE_134_length_1186_cov_13.050992_component_0,1186,
GCF_024704525.1_ASM2470452v1,NODE_137_length_1034_cov_13.222712_component_0,1034,
GCF_021733585.2_ASM2173358v3,NODE_28_length_2398_cov_27.428264_component_0,2398,
GCF_021733585.2_ASM2173358v3,NODE_30_length_2158_cov_71.146564_component_0,2158,
GCF_021733585.2_ASM2173358v3,NODE_36_length_1025_cov_25.372363_component_0,1025,
GCF_023573625.1_ASM2357362v1,NODE_6_length_2188_cov_2.292279_component_0,2188,
GCF_023611785.1_ASM2361178v1,NODE_14_length_1703_cov_885.035055_component_1,1703,
GCF_022537925.1_ASM2253792v1,NODE_6_length_35491_cov_29.465324_component_0,35491,
GCF_022537925.1_ASM2253792v1,NODE_17_length_11688_cov_22.837912_component_0,11688,
GCF_022537925.1_ASM2253792v1,NODE_19_length_4980_cov_39.941464_component_0,4980,
GCF_022537925.1_ASM2253792v1,NODE_20_length_3417_cov_13.948204_component_0,3417,
GCF_022537925.1_ASM2253792v1,NODE_22_length_3124_cov_21.065967_component_0,3124,
GCF_022537925.1_ASM2253792v1,NODE_25_length_1905_cov_50.263676_component_0,1905,
GCF_022537925.1_ASM2253792v1,NODE_26_length_1661_cov_18.246212_component_0,1661,
GCF_022537925.1_ASM2253792v1,NODE_27_length_1600_cov_24.604071_component_0,1600,
GCF_025148285.1_ASM2514828v1,NODE_28_length_1034_cov_410.716037_component_0,1034,
GCF_022170805.1_ASM2217080v1,NODE_39_length_1279_cov_110.065724_component_2,1279,
GCF_021586915.1_ASM2158691v1,NODE_4_length_2308_cov_2044.530491_component_2,2308,
GCF_021586915.1_ASM2158691v1,NODE_5_length_1940_cov_2438.824600_component_2,1940,
GCF_023078435.1_ASM2307843v1,NODE_4_length_1439_cov_141.956681_component_0,1439,
GCF_025148445.1_ASM2514844v1,NODE_6_length_2311_cov_1117.429965_component_1,2311,
GCF_025151535.1_ASM2515153v1,NODE_1_length_48974_cov_292.702856_component_0,48974,
GCF_025151535.1_ASM2515153v1,NODE_2_length_12630_cov_337.253280_component_0,12630,
GCF_025151535.1_ASM2515153v1,NODE_11_length_3430_cov_730.320593_component_0,3430,
GCF_025151535.1_ASM2515153v1,NODE_18_length_2016_cov_1228.216216_component_0,2016,
GCF_025151535.1_ASM2515153v1,NODE_27_length_1346_cov_169.932610_component_0,1346,
GCF_025151535.1_ASM2515153v1,NODE_29_length_1135_cov_140.298148_component_0,1135,
GCF_025151535.1_ASM2515153v1,NODE_30_length_1056_cov_483.692308_component_0,1056,
GCF_025147325.1_ASM2514732v1,NODE_2_length_8379_cov_938.879505_component_0,8379,
GCF_022846335.1_ASM2284633v1,NODE_29_length_1033_cov_110.107064_component_0,1033,
GCF_022559705.1_ASM2255970v1,NODE_18_length_1862_cov_474.740056_component_0,1862,
GCF_022559705.1_ASM2255970v1,NODE_23_length_1654_cov_403.693088_component_0,1654,
GCF_022559705.1_ASM2255970v1,NODE_43_length_1099_cov_1132.610568_component_0,1099,
GCF_024112375.1_ASM2411237v1,NODE_1_length_3846_cov_2.160527_component_0,3846,
GCF_024112375.1_ASM2411237v1,NODE_3_length_3733_cov_9.780921_component_0,3733,
GCF_024112375.1_ASM2411237v1,NODE_4_length_2999_cov_1.486769_component_0,2999,
GCF_024112375.1_ASM2411237v1,NODE_6_length_2210_cov_1.774844_component_0,2210,
GCF_024112375.1_ASM2411237v1,NODE_7_length_1631_cov_2.884309_component_0,1631,
GCF_024112375.1_ASM2411237v1,NODE_8_length_1433_cov_1.374426_component_0,1433,
GCF_024112375.1_ASM2411237v1,NODE_9_length_1425_cov_1.777350_component_0,1425,
GCF_024112375.1_ASM2411237v1,NODE_10_length_1422_cov_1.668726_component_0,1422,
GCF_022869765.1_ASM2286976v1,NODE_1_length_49770_cov_204.169782_component_0,49770,
GCF_022869765.1_ASM2286976v1,NODE_2_length_31748_cov_215.456822_component_0,31748,
GCF_022869765.1_ASM2286976v1,NODE_3_length_22780_cov_263.693741_component_0,22780,
GCF_022869765.1_ASM2286976v1,NODE_4_length_18313_cov_512.481301_component_0,18313,
GCF_022869765.1_ASM2286976v1,NODE_5_length_13601_cov_251.695282_component_0,13601,
GCF_022869765.1_ASM2286976v1,NODE_6_length_11920_cov_208.246306_component_0,11920,
GCF_022869765.1_ASM2286976v1,NODE_7_length_9186_cov_251.635306_component_0,9186,
GCF_022869765.1_ASM2286976v1,NODE_8_length_5986_cov_246.705365_component_0,5986,
GCF_022869765.1_ASM2286976v1,NODE_10_length_3390_cov_310.831874_component_0,3390,
GCF_022869765.1_ASM2286976v1,NODE_11_length_3355_cov_258.805064_component_0,3355,
GCF_022869765.1_ASM2286976v1,NODE_12_length_2935_cov_272.194192_component_0,2935,
GCF_022869765.1_ASM2286976v1,NODE_16_length_1721_cov_263.408151_component_0,1721,
GCF_022869765.1_ASM2286976v1,NODE_18_length_1558_cov_261.120864_component_0,1558,
GCF_022869765.1_ASM2286976v1,NODE_19_length_1460_cov_317.715112_component_0,1460,
GCF_022869765.1_ASM2286976v1,NODE_20_length_1322_cov_514.035341_component_0,1322,
GCF_022869765.1_ASM2286976v1,NODE_21_length_1240_cov_420.492691_component_0,1240,
GCF_024741855.1_ASM2474185v1,NODE_4_length_16550_cov_33.928125_component_1,16550,
GCF_024741855.1_ASM2474185v1,NODE_1_length_60639_cov_17.352399_component_0,60639,
GCF_024741855.1_ASM2474185v1,NODE_2_length_30199_cov_19.889582_component_0,30199,
GCF_024741855.1_ASM2474185v1,NODE_3_length_16738_cov_50.197347_component_0,16738,
GCF_024741855.1_ASM2474185v1,NODE_5_length_6978_cov_82.457470_component_0,6978,
GCF_024741855.1_ASM2474185v1,NODE_6_length_2600_cov_120.854935_component_0,2600,
GCF_024741855.1_ASM2474185v1,NODE_7_length_2290_cov_87.516945_component_0,2290,
GCF_025149465.1_ASM2514946v1,NODE_17_length_4843_cov_12.483918_component_0,4843,
GCF_025149465.1_ASM2514946v1,NODE_30_length_2251_cov_1084.760474_component_0,2251,
GCF_025149465.1_ASM2514946v1,NODE_36_length_1278_cov_19.309076_component_0,1278,
GCF_022163605.1_ASM2216360v1,NODE_2_length_4735_cov_7.165385_component_0,4735,
GCF_021496035.1_ASM2149603v1,NODE_12_length_3197_cov_261.429981_component_0,3197,
GCF_023651955.1_ASM2365195v1,NODE_2_length_2920_cov_5.051706_component_0,2920,
GCF_023651955.1_ASM2365195v1,NODE_3_length_1757_cov_4.357738_component_0,1757,
GCF_023651955.1_ASM2365195v1,NODE_4_length_1287_cov_5.029752_component_0,1287,
GCF_023651955.1_ASM2365195v1,NODE_5_length_1203_cov_1.099467_component_0,1203,
GCF_023822665.1_ASM2382266v1,NODE_12_length_3364_cov_237.679964_component_0,3364,
GCF_023822665.1_ASM2382266v1,NODE_18_length_1363_cov_181.576453_component_0,1363,
GCF_021899855.1_ASM2189985v1,NODE_7_length_4406_cov_14.355691_component_0,4406,
GCF_022370835.2_ASM2237083v2,NODE_3_length_2654_cov_2.433716_component_1,2654,
GCF_022370835.2_ASM2237083v2,NODE_5_length_1601_cov_2.066486_component_1,1601,
GCF_024206795.1_ASM2420679v1,NODE_222_length_2092_cov_3203.939454_component_0,2092,
GCF_023611765.1_ASM2361176v1,NODE_6_length_3645_cov_461.347814_component_0,3645,
GCF_022318545.1_ASM2231854v1,NODE_3_length_1261_cov_77.800676_component_0,1261,
GCF_023169825.1_ASM2316982v1,NODE_4_length_14379_cov_139.165571_component_0,14379,
GCF_022318525.1_ASM2231852v1,NODE_4_length_1261_cov_78.505068_component_1,1261,
GCF_023822205.1_ASM2382220v1,NODE_3_length_14931_cov_4.926777_component_0,14931,
GCF_023822205.1_ASM2382220v1,NODE_4_length_10343_cov_4.316464_component_0,10343,
GCF_023822205.1_ASM2382220v1,NODE_6_length_9146_cov_4.733673_component_0,9146,
GCF_023822205.1_ASM2382220v1,NODE_8_length_7539_cov_2.711549_component_0,7539,
GCF_023822205.1_ASM2382220v1,NODE_12_length_5929_cov_58.669252_component_0,5929,
GCF_023822205.1_ASM2382220v1,NODE_13_length_4951_cov_5.127902_component_0,4951,
GCF_023822205.1_ASM2382220v1,NODE_14_length_3682_cov_3.720394_component_0,3682,
GCF_023822205.1_ASM2382220v1,NODE_15_length_3157_cov_4.717822_component_0,3157,
GCF_023822205.1_ASM2382220v1,NODE_16_length_2802_cov_5.009720_component_0,2802,
GCF_023822205.1_ASM2382220v1,NODE_18_length_1823_cov_5.204599_component_0,1823,
GCF_022318445.1_ASM2231844v1,NODE_5_length_5769_cov_52.789353_component_1,5769,
GCF_023757925.1_ASM2375792v1,NODE_14_length_1939_cov_13.540816_component_3,1939,
GCF_023757925.1_ASM2375792v1,NODE_17_length_1586_cov_7.683234_component_3,1586,
GCF_023757925.1_ASM2375792v1,NODE_20_length_1166_cov_2.269054_component_3,1166,
GCF_022478075.1_ASM2247807v1,NODE_10_length_2234_cov_686.325452_component_0,2234,
GCF_025151215.1_ASM2515121v1,NODE_12_length_5037_cov_1215.555399_component_7,5037,
GCF_025151215.1_ASM2515121v1,NODE_23_length_2317_cov_9.142352_component_7,2317,
GCF_025151215.1_ASM2515121v1,NODE_32_length_1205_cov_15.339130_component_7,1205,
GCF_021545335.1_ASM2154533v1,NODE_2_length_398404_cov_107.518544_component_0,398404,
GCF_021545335.1_ASM2154533v1,NODE_4_length_246498_cov_99.545534_component_0,246498,
GCF_021545335.1_ASM2154533v1,NODE_13_length_85563_cov_96.039293_component_0,85563,
GCF_021545335.1_ASM2154533v1,NODE_22_length_12744_cov_110.659509_component_0,12744,
GCF_021545335.1_ASM2154533v1,NODE_24_length_8548_cov_94.818675_component_0,8548,
GCF_021545335.1_ASM2154533v1,NODE_27_length_2913_cov_90.374824_component_0,2913,
GCF_022439525.1_ASM2243952v1,NODE_5_length_2016_cov_60.355214_component_0,2016,
GCF_024917295.1_ASM2491729v1,NODE_24_length_1010_cov_98.011518_component_0,1010,
GCF_022647665.1_ASM2264766v1,NODE_18_length_2001_cov_268.689189_component_0,2001,
GCF_023204995.1_ASM2320499v1,NODE_14_length_2438_cov_7.980093_component_0,2438,
GCF_023204995.1_ASM2320499v1,NODE_17_length_2192_cov_2.618913_component_0,2192,
GCF_023204995.1_ASM2320499v1,NODE_18_length_2183_cov_5.116809_component_0,2183,
GCF_023204995.1_ASM2320499v1,NODE_19_length_1664_cov_2.147448_component_0,1664,
GCF_023204995.1_ASM2320499v1,NODE_20_length_1663_cov_2.023960_component_0,1663,
GCF_023204995.1_ASM2320499v1,NODE_21_length_1610_cov_5.984344_component_0,1610,
GCF_023204995.1_ASM2320499v1,NODE_22_length_1503_cov_4.762272_component_0,1503,
GCF_023204995.1_ASM2320499v1,NODE_23_length_1494_cov_4.484121_component_0,1494,
GCF_023204995.1_ASM2320499v1,NODE_24_length_1151_cov_2.727188_component_0,1151,
GCF_023204995.1_ASM2320499v1,NODE_26_length_1104_cov_6.417722_component_0,1104,
GCF_023204995.1_ASM2320499v1,NODE_27_length_1080_cov_1.988036_component_0,1080,
GCF_025311475.1_ASM2531147v1,NODE_8_length_1898_cov_117.766685_component_2,1898,
GCF_025349945.1_ASM2534994v1,NODE_44_length_1317_cov_153.919328_component_0,1317,
GCF_022374875.1_ASM2237487v1,NODE_2_length_28937_cov_54.959320_component_1,28937,
GCF_022374875.1_ASM2237487v1,NODE_1_length_33340_cov_59.440069_component_0,33340,
GCF_022374875.1_ASM2237487v1,NODE_3_length_12682_cov_60.475986_component_0,12682,
GCF_022374875.1_ASM2237487v1,NODE_4_length_8754_cov_53.699200_component_0,8754,
GCF_022374875.1_ASM2237487v1,NODE_5_length_8490_cov_49.868468_component_0,8490,
GCF_022374875.1_ASM2237487v1,NODE_6_length_7845_cov_54.873557_component_0,7845,
GCF_022374875.1_ASM2237487v1,NODE_7_length_6059_cov_69.493931_component_0,6059,
GCF_022374875.1_ASM2237487v1,NODE_8_length_3715_cov_54.535659_component_0,3715,
GCF_022374875.1_ASM2237487v1,NODE_10_length_1784_cov_54.367532_component_0,1784,
GCF_022374875.1_ASM2237487v1,NODE_11_length_1622_cov_50.777926_component_0,1622,
GCF_022374875.1_ASM2237487v1,NODE_12_length_1491_cov_108.356305_component_0,1491,
GCF_021869705.1_ASM2186970v1,NODE_20_length_67155_cov_4.632294_component_0,67155,
GCF_021869705.1_ASM2186970v1,NODE_29_length_40583_cov_4.660075_component_0,40583,
GCF_021869705.1_ASM2186970v1,NODE_32_length_38259_cov_4.114190_component_0,38259,
GCF_021869705.1_ASM2186970v1,NODE_36_length_34816_cov_4.716889_component_0,34816,
GCF_021869705.1_ASM2186970v1,NODE_39_length_25354_cov_4.638525_component_0,25354,
GCF_021869705.1_ASM2186970v1,NODE_40_length_24651_cov_4.717832_component_0,24651,
GCF_021869705.1_ASM2186970v1,NODE_41_length_24071_cov_4.702592_component_0,24071,
GCF_021869705.1_ASM2186970v1,NODE_42_length_23583_cov_4.757381_component_0,23583,
GCF_021869705.1_ASM2186970v1,NODE_51_length_14909_cov_3.877764_component_0,14909,
GCF_021869705.1_ASM2186970v1,NODE_52_length_13646_cov_4.728794_component_0,13646,
GCF_021869705.1_ASM2186970v1,NODE_53_length_13099_cov_4.650591_component_0,13099,
GCF_021869705.1_ASM2186970v1,NODE_55_length_12798_cov_4.529597_component_0,12798,
GCF_021869705.1_ASM2186970v1,NODE_56_length_12771_cov_4.706239_component_0,12771,
GCF_021869705.1_ASM2186970v1,NODE_57_length_12645_cov_4.539943_component_0,12645,
GCF_021869705.1_ASM2186970v1,NODE_63_length_10061_cov_3.934796_component_0,10061,
GCF_021869705.1_ASM2186970v1,NODE_64_length_9130_cov_4.588424_component_0,9130,
GCF_021869705.1_ASM2186970v1,NODE_65_length_8510_cov_4.555556_component_0,8510,
GCF_021869705.1_ASM2186970v1,NODE_68_length_7836_cov_4.468617_component_0,7836,
GCF_021869705.1_ASM2186970v1,NODE_70_length_7525_cov_3.019871_component_0,7525,
GCF_021869705.1_ASM2186970v1,NODE_75_length_5755_cov_4.673477_component_0,5755,
GCF_021869705.1_ASM2186970v1,NODE_78_length_5323_cov_4.724552_component_0,5323,
GCF_021869705.1_ASM2186970v1,NODE_80_length_4966_cov_4.370219_component_0,4966,
GCF_021869705.1_ASM2186970v1,NODE_82_length_4829_cov_3.888889_component_0,4829,
GCF_021869705.1_ASM2186970v1,NODE_84_length_4766_cov_4.661335_component_0,4766,
GCF_021869705.1_ASM2186970v1,NODE_87_length_4093_cov_4.506225_component_0,4093,
GCF_021869705.1_ASM2186970v1,NODE_94_length_3099_cov_11.058901_component_0,3099,
GCF_021869705.1_ASM2186970v1,NODE_95_length_3088_cov_4.039522_component_0,3088,
GCF_021869705.1_ASM2186970v1,NODE_97_length_2996_cov_9.413840_component_0,2996,
GCF_021869705.1_ASM2186970v1,NODE_100_length_2719_cov_9.738077_component_0,2719,
GCF_021869705.1_ASM2186970v1,NODE_101_length_2670_cov_2.066332_component_0,2670,
GCF_021869705.1_ASM2186970v1,NODE_102_length_2616_cov_4.663253_component_0,2616,
GCF_021869705.1_ASM2186970v1,NODE_104_length_2519_cov_4.298935_component_0,2519,
GCF_021869705.1_ASM2186970v1,NODE_105_length_2514_cov_4.293394_component_0,2514,
GCF_021869705.1_ASM2186970v1,NODE_107_length_2475_cov_3.338616_component_0,2475,
GCF_021869705.1_ASM2186970v1,NODE_108_length_2463_cov_4.258592_component_0,2463,
GCF_021869705.1_ASM2186970v1,NODE_110_length_2327_cov_9.586667_component_0,2327,
GCF_021869705.1_ASM2186970v1,NODE_111_length_2326_cov_2.132503_component_0,2326,
GCF_021869705.1_ASM2186970v1,NODE_112_length_2203_cov_2.224365_component_0,2203,
GCF_021869705.1_ASM2186970v1,NODE_114_length_2013_cov_8.968492_component_0,2013,
GCF_021869705.1_ASM2186970v1,NODE_115_length_2001_cov_11.211538_component_0,2001,
GCF_021869705.1_ASM2186970v1,NODE_117_length_1884_cov_3.817377_component_0,1884,
GCF_021869705.1_ASM2186970v1,NODE_118_length_1844_cov_4.545557_component_0,1844,
GCF_021869705.1_ASM2186970v1,NODE_119_length_1841_cov_3.380952_component_0,1841,
GCF_021869705.1_ASM2186970v1,NODE_120_length_1830_cov_3.907587_component_0,1830,
GCF_021869705.1_ASM2186970v1,NODE_121_length_1807_cov_12.869364_component_0,1807,
GCF_021869705.1_ASM2186970v1,NODE_122_length_1721_cov_3.845499_component_0,1721,
GCF_021869705.1_ASM2186970v1,NODE_123_length_1692_cov_9.331889_component_0,1692,
GCF_021869705.1_ASM2186970v1,NODE_124_length_1680_cov_10.228322_component_0,1680,
GCF_021869705.1_ASM2186970v1,NODE_125_length_1680_cov_8.807860_component_0,1680,
GCF_021869705.1_ASM2186970v1,NODE_126_length_1660_cov_4.618446_component_0,1660,
GCF_021869705.1_ASM2186970v1,NODE_128_length_1621_cov_3.047927_component_0,1621,
GCF_021869705.1_ASM2186970v1,NODE_129_length_1600_cov_10.747866_component_0,1600,
GCF_021869705.1_ASM2186970v1,NODE_130_length_1577_cov_4.734667_component_0,1577,
GCF_021869705.1_ASM2186970v1,NODE_133_length_1560_cov_10.745111_component_0,1560,
GCF_021869705.1_ASM2186970v1,NODE_134_length_1551_cov_3.497286_component_0,1551,
GCF_021869705.1_ASM2186970v1,NODE_136_length_1535_cov_4.287380_component_0,1535,
GCF_021869705.1_ASM2186970v1,NODE_137_length_1527_cov_2.911034_component_0,1527,
GCF_021869705.1_ASM2186970v1,NODE_138_length_1458_cov_9.202028_component_0,1458,
GCF_021869705.1_ASM2186970v1,NODE_139_length_1455_cov_2.567489_component_0,1455,
GCF_021869705.1_ASM2186970v1,NODE_140_length_1397_cov_10.828030_component_0,1397,
GCF_021869705.1_ASM2186970v1,NODE_141_length_1371_cov_1.259660_component_0,1371,
GCF_021869705.1_ASM2186970v1,NODE_143_length_1290_cov_3.861500_component_0,1290,
GCF_021869705.1_ASM2186970v1,NODE_145_length_1238_cov_20.621878_component_0,1238,
GCF_021869705.1_ASM2186970v1,NODE_146_length_1228_cov_1.862728_component_0,1228,
GCF_021869705.1_ASM2186970v1,NODE_147_length_1228_cov_1.249348_component_0,1228,
GCF_021869705.1_ASM2186970v1,NODE_148_length_1226_cov_3.400348_component_0,1226,
GCF_021869705.1_ASM2186970v1,NODE_149_length_1207_cov_4.000000_component_0,1207,
GCF_021869705.1_ASM2186970v1,NODE_150_length_1188_cov_2.484248_component_0,1188,
GCF_021869705.1_ASM2186970v1,NODE_152_length_1175_cov_4.183060_component_0,1175,
GCF_021869705.1_ASM2186970v1,NODE_153_length_1171_cov_10.149909_component_0,1171,
GCF_021869705.1_ASM2186970v1,NODE_154_length_1138_cov_3.691800_component_0,1138,
GCF_021869705.1_ASM2186970v1,NODE_155_length_1105_cov_1.635214_component_0,1105,
GCF_021869705.1_ASM2186970v1,NODE_156_length_1095_cov_2.953831_component_0,1095,
GCF_021869705.1_ASM2186970v1,NODE_157_length_1030_cov_5.827912_component_0,1030,
GCF_021869705.1_ASM2186970v1,NODE_23_length_50433_cov_4.733696_component_2,50433,
GCF_021869705.1_ASM2186970v1,NODE_48_length_15635_cov_4.686335_component_8,15635,
GCF_023008225.1_ASM2300822v1,NODE_13_length_1821_cov_257.464450_component_3,1821,
GCF_022318405.1_ASM2231840v1,NODE_4_length_4512_cov_67.292672_component_0,4512,
GCF_022318405.1_ASM2231840v1,NODE_5_length_1261_cov_72.098818_component_0,1261,
GCF_023205595.1_ASM2320559v1,NODE_28_length_1235_cov_532.102542_component_0,1235,
GCF_022070465.1_ASM2207046v1,NODE_6_length_1006_cov_75.812702_component_0,1006,
GCF_903815275.1_hybrid_BB1454,NODE_17_length_1884_cov_276.681844_component_0,1884,
GCF_022343725.1_ASM2234372v1,NODE_3_length_2775_cov_7.093750_component_0,2775,
GCF_022343725.1_ASM2234372v1,NODE_5_length_2344_cov_6.158585_component_0,2344,
GCF_022343725.1_ASM2234372v1,NODE_7_length_1722_cov_4.670066_component_0,1722,
GCF_022343725.1_ASM2234372v1,NODE_8_length_1669_cov_6.422553_component_0,1669,
GCF_022343725.1_ASM2234372v1,NODE_9_length_1367_cov_3.569360_component_0,1367,
GCF_022343725.1_ASM2234372v1,NODE_11_length_1170_cov_3.817040_component_0,1170,
GCF_022533465.1_ASM2253346v1,NODE_1_length_6224_cov_1058.836506_component_0,6224,
GCF_022533465.1_ASM2253346v1,NODE_2_length_3694_cov_6.808405_component_0,3694,
GCF_022533465.1_ASM2253346v1,NODE_3_length_2119_cov_4.506366_component_0,2119,
GCF_025150895.1_ASM2515089v1,NODE_9_length_1069_cov_455.658777_component_0,1069,
GCF_025150895.1_ASM2515089v1,NODE_10_length_1024_cov_565.835913_component_0,1024,
GCF_025369755.1_ASM2536975v1,NODE_2_length_64041_cov_84.012768_component_0,64041,
GCF_025369755.1_ASM2536975v1,NODE_9_length_2286_cov_109.681757_component_0,2286,
GCF_025369755.1_ASM2536975v1,NODE_19_length_1159_cov_79.694746_component_0,1159,
GCF_023822185.1_ASM2382218v1,NODE_16_length_4832_cov_2.247821_component_0,4832,
GCF_023822185.1_ASM2382218v1,NODE_21_length_1834_cov_1.114821_component_0,1834,
GCF_022921855.1_ASM2292185v1,NODE_41_length_1428_cov_2.310881_component_3,1428,
GCF_022921855.1_ASM2292185v1,NODE_48_length_1102_cov_1.903415_component_3,1102,
GCF_022921855.1_ASM2292185v1,NODE_30_length_2498_cov_2.470467_component_0,2498,
GCF_022921855.1_ASM2292185v1,NODE_31_length_2427_cov_2.245106_component_0,2427,
GCF_022921855.1_ASM2292185v1,NODE_34_length_1911_cov_2.139586_component_0,1911,
GCF_022921855.1_ASM2292185v1,NODE_35_length_1807_cov_1.638150_component_0,1807,
GCF_022921855.1_ASM2292185v1,NODE_36_length_1797_cov_1.552907_component_0,1797,
GCF_022921855.1_ASM2292185v1,NODE_37_length_1545_cov_2.244550_component_0,1545,
GCF_022921855.1_ASM2292185v1,NODE_42_length_1356_cov_2.409695_component_0,1356,
GCF_022921855.1_ASM2292185v1,NODE_43_length_1223_cov_2.042757_component_0,1223,
GCF_022921855.1_ASM2292185v1,NODE_46_length_1151_cov_1.370577_component_0,1151,
GCF_022921855.1_ASM2292185v1,NODE_49_length_1089_cov_1.263834_component_0,1089,
GCF_021496345.1_ASM2149634v1,NODE_2_length_9215_cov_675.529438_component_0,9215,
GCF_024918795.1_ASM2491879v1,NODE_19_length_3919_cov_428.829193_component_0,3919,
GCF_024918795.1_ASM2491879v1,NODE_36_length_1170_cov_1945.811659_component_0,1170,
GCF_025151715.1_ASM2515171v1,NODE_9_length_2607_cov_261.563088_component_0,2607,
GCF_025151715.1_ASM2515171v1,NODE_11_length_2155_cov_4.568095_component_0,2155,
GCF_025151715.1_ASM2515171v1,NODE_14_length_1341_cov_3.923017_component_0,1341,
GCF_023824315.1_ASM2382431v1,NODE_2_length_4511_cov_5.844159_component_0,4511,
GCF_023824315.1_ASM2382431v1,NODE_6_length_1530_cov_5.695114_component_0,1530,
GCF_024637975.1_ASM2463797v1,NODE_6_length_1217_cov_1293.774561_component_0,1217,
GCF_018588605.2_ASM1858860v2,NODE_41_length_1477_cov_67.477857_component_0,1477,
GCF_024346605.1_ASM2434660v1,NODE_9_length_12904_cov_4.837442_component_5,12904,
GCF_023205075.1_ASM2320507v1,NODE_2_length_19240_cov_1182.615509_component_0,19240,
GCF_021432745.1_ASM2143274v1,NODE_10_length_1604_cov_203.854617_component_0,1604,
GCF_021397795.1_ASM2139779v1,NODE_4_length_1432_cov_193.245756_component_0,1432,
GCF_021496075.1_ASM2149607v1,NODE_8_length_1064_cov_159.808722_component_0,1064,
GCF_000487995.2_ASM48799v2,NODE_7_length_4823_cov_539.155831_component_1,4823,
GCF_022069905.1_ASM2206990v1,NODE_53_length_1595_cov_2.336627_component_0,1595,
GCF_022069905.1_ASM2206990v1,NODE_56_length_1083_cov_1.525845_component_0,1083,
