<?xml version='1.0' encoding='UTF-8' ?>
<svg xmlns='http://www.w3.org/2000/svg' xmlns:xlink='http://www.w3.org/1999/xlink' class='svglite' width='504.00pt' height='360.00pt' viewBox='0 0 504.00 360.00'>
<defs>
  <style type='text/css'><![CDATA[
    .svglite line, .svglite polyline, .svglite polygon, .svglite path, .svglite rect, .svglite circle {
      fill: none;
      stroke: #000000;
      stroke-linecap: round;
      stroke-linejoin: round;
      stroke-miterlimit: 10.00;
    }
    .svglite text {
      white-space: pre;
    }
  ]]></style>
</defs>
<rect width='100%' height='100%' style='stroke: none; fill: #FFFFFF;'/>
<defs>
  <clipPath id='cpMC4wMHw1MDQuMDB8MC4wMHwzNjAuMDA='>
    <rect x='0.00' y='0.00' width='504.00' height='360.00' />
  </clipPath>
</defs>
<g clip-path='url(#cpMC4wMHw1MDQuMDB8MC4wMHwzNjAuMDA=)'>
</g>
<defs>
  <clipPath id='cpMC4wMHw1MDQuMDB8MC4wMHw5MC4wMA=='>
    <rect x='0.00' y='0.00' width='504.00' height='90.00' />
  </clipPath>
</defs>
<g clip-path='url(#cpMC4wMHw1MDQuMDB8MC4wMHw5MC4wMA==)'>
<rect x='0.00' y='0.00' width='504.00' height='90.00' style='stroke-width: 1.07; stroke: #FFFFFF; fill: #FFFFFF;' />
</g>
<g clip-path='url(#cpMC4wMHw1MDQuMDB8MC4wMHwzNjAuMDA=)'>
</g>
<defs>
  <clipPath id='cpNDYuMzN8NDk4LjUyfDUuNDh8NzAuNjM='>
    <rect x='46.33' y='5.48' width='452.19' height='65.15' />
  </clipPath>
</defs>
<g clip-path='url(#cpNDYuMzN8NDk4LjUyfDUuNDh8NzAuNjM=)'>
<rect x='46.33' y='5.48' width='452.19' height='65.15' style='stroke-width: 1.07; stroke: none; fill: #FFFFFF;' />
<polyline points='46.33,60.08 498.52,60.08 ' style='stroke-width: 0.53; stroke: #EBEBEB; stroke-linecap: butt;' />
<polyline points='46.33,44.89 498.52,44.89 ' style='stroke-width: 0.53; stroke: #EBEBEB; stroke-linecap: butt;' />
<polyline points='46.33,29.70 498.52,29.70 ' style='stroke-width: 0.53; stroke: #EBEBEB; stroke-linecap: butt;' />
<polyline points='46.33,14.52 498.52,14.52 ' style='stroke-width: 0.53; stroke: #EBEBEB; stroke-linecap: butt;' />
<polyline points='46.33,67.67 498.52,67.67 ' style='stroke-width: 1.07; stroke: #EBEBEB; stroke-linecap: butt;' />
<polyline points='46.33,52.48 498.52,52.48 ' style='stroke-width: 1.07; stroke: #EBEBEB; stroke-linecap: butt;' />
<polyline points='46.33,37.30 498.52,37.30 ' style='stroke-width: 1.07; stroke: #EBEBEB; stroke-linecap: butt;' />
<polyline points='46.33,22.11 498.52,22.11 ' style='stroke-width: 1.07; stroke: #EBEBEB; stroke-linecap: butt;' />
<polyline points='46.33,6.92 498.52,6.92 ' style='stroke-width: 1.07; stroke: #EBEBEB; stroke-linecap: butt;' />
<polyline points='131.11,70.63 131.11,5.48 ' style='stroke-width: 1.07; stroke: #EBEBEB; stroke-linecap: butt;' />
<polyline points='272.42,70.63 272.42,5.48 ' style='stroke-width: 1.07; stroke: #EBEBEB; stroke-linecap: butt;' />
<polyline points='413.73,70.63 413.73,5.48 ' style='stroke-width: 1.07; stroke: #EBEBEB; stroke-linecap: butt;' />
<rect x='67.52' y='8.44' width='127.18' height='59.23' style='stroke-width: 1.07; stroke: none; stroke-linecap: butt; stroke-linejoin: miter; fill: #00FF93;' />
<rect x='208.83' y='58.05' width='127.18' height='9.62' style='stroke-width: 1.07; stroke: none; stroke-linecap: butt; stroke-linejoin: miter; fill: #FFC300;' />
<rect x='350.14' y='55.52' width='127.18' height='12.15' style='stroke-width: 1.07; stroke: none; stroke-linecap: butt; stroke-linejoin: miter; fill: #F11212;' />
<rect x='46.33' y='5.48' width='452.19' height='65.15' style='stroke-width: 1.07; stroke: #333333;' />
</g>
<g clip-path='url(#cpMC4wMHw1MDQuMDB8MC4wMHwzNjAuMDA=)'>
<text x='41.40' y='71.98' text-anchor='end' style='font-size: 12.00px;fill: #4D4D4D; font-family: "Arial";' textLength='6.67px' lengthAdjust='spacingAndGlyphs'>0</text>
<text x='41.40' y='56.79' text-anchor='end' style='font-size: 12.00px;fill: #4D4D4D; font-family: "Arial";' textLength='13.35px' lengthAdjust='spacingAndGlyphs'>30</text>
<text x='41.40' y='41.60' text-anchor='end' style='font-size: 12.00px;fill: #4D4D4D; font-family: "Arial";' textLength='13.35px' lengthAdjust='spacingAndGlyphs'>60</text>
<text x='41.40' y='26.41' text-anchor='end' style='font-size: 12.00px;fill: #4D4D4D; font-family: "Arial";' textLength='13.35px' lengthAdjust='spacingAndGlyphs'>90</text>
<text x='41.40' y='11.23' text-anchor='end' style='font-size: 12.00px;fill: #4D4D4D; font-family: "Arial";' textLength='20.02px' lengthAdjust='spacingAndGlyphs'>120</text>
<polyline points='43.59,67.67 46.33,67.67 ' style='stroke-width: 1.07; stroke: #333333; stroke-linecap: butt;' />
<polyline points='43.59,52.48 46.33,52.48 ' style='stroke-width: 1.07; stroke: #333333; stroke-linecap: butt;' />
<polyline points='43.59,37.30 46.33,37.30 ' style='stroke-width: 1.07; stroke: #333333; stroke-linecap: butt;' />
<polyline points='43.59,22.11 46.33,22.11 ' style='stroke-width: 1.07; stroke: #333333; stroke-linecap: butt;' />
<polyline points='43.59,6.92 46.33,6.92 ' style='stroke-width: 1.07; stroke: #333333; stroke-linecap: butt;' />
<polyline points='131.11,73.37 131.11,70.63 ' style='stroke-width: 1.07; stroke: #333333; stroke-linecap: butt;' />
<polyline points='272.42,73.37 272.42,70.63 ' style='stroke-width: 1.07; stroke: #333333; stroke-linecap: butt;' />
<polyline points='413.73,73.37 413.73,70.63 ' style='stroke-width: 1.07; stroke: #333333; stroke-linecap: butt;' />
<text transform='translate(131.62,76.07) rotate(-45)' text-anchor='end' style='font-size: 0.00px;fill: #4D4D4D; font-family: "Arial";' textLength='2.94px' lengthAdjust='spacingAndGlyphs'>gplas2</text>
<text transform='translate(272.93,76.07) rotate(-45)' text-anchor='end' style='font-size: 0.00px;fill: #4D4D4D; font-family: "Arial";' textLength='4.72px' lengthAdjust='spacingAndGlyphs'>MOB-suite</text>
<text transform='translate(414.24,76.07) rotate(-45)' text-anchor='end' style='font-size: 0.00px;fill: #4D4D4D; font-family: "Arial";' textLength='7.06px' lengthAdjust='spacingAndGlyphs'>plasmidSPAdes</text>
<text x='272.42' y='84.52' text-anchor='middle' style='font-size: 0.00px; font-weight: bold; font-family: "Arial";' textLength='4.22px' lengthAdjust='spacingAndGlyphs'>Software</text>
<text transform='translate(15.55,38.06) rotate(-90)' text-anchor='middle' style='font-size: 14.00px; font-weight: bold; font-family: "Arial";' textLength='244.14px' lengthAdjust='spacingAndGlyphs'>Number of contaminated predictions</text>
</g>
<defs>
  <clipPath id='cpMC4wMHw1MDQuMDB8OTAuMDB8MzYwLjAw'>
    <rect x='0.00' y='90.00' width='504.00' height='270.00' />
  </clipPath>
</defs>
<g clip-path='url(#cpMC4wMHw1MDQuMDB8OTAuMDB8MzYwLjAw)'>
<rect x='0.00' y='90.00' width='504.00' height='270.00' style='stroke-width: 1.07; stroke: #FFFFFF; fill: #FFFFFF;' />
</g>
<g clip-path='url(#cpMC4wMHw1MDQuMDB8MC4wMHwzNjAuMDA=)'>
</g>
<defs>
  <clipPath id='cpNjAuMDF8NDk4LjUyfDEzNC42OHwzMjguMjA='>
    <rect x='60.01' y='134.68' width='438.51' height='193.52' />
  </clipPath>
</defs>
<g clip-path='url(#cpNjAuMDF8NDk4LjUyfDEzNC42OHwzMjguMjA=)'>
<rect x='60.01' y='134.68' width='438.51' height='193.52' style='stroke-width: 1.07; stroke: none; fill: #FFFFFF;' />
<polyline points='60.01,296.60 498.52,296.60 ' style='stroke-width: 0.53; stroke: #EBEBEB; stroke-linecap: butt;' />
<polyline points='60.01,250.62 498.52,250.62 ' style='stroke-width: 0.53; stroke: #EBEBEB; stroke-linecap: butt;' />
<polyline points='60.01,204.63 498.52,204.63 ' style='stroke-width: 0.53; stroke: #EBEBEB; stroke-linecap: butt;' />
<polyline points='60.01,158.64 498.52,158.64 ' style='stroke-width: 0.53; stroke: #EBEBEB; stroke-linecap: butt;' />
<polyline points='60.01,319.60 498.52,319.60 ' style='stroke-width: 1.07; stroke: #EBEBEB; stroke-linecap: butt;' />
<polyline points='60.01,273.61 498.52,273.61 ' style='stroke-width: 1.07; stroke: #EBEBEB; stroke-linecap: butt;' />
<polyline points='60.01,227.62 498.52,227.62 ' style='stroke-width: 1.07; stroke: #EBEBEB; stroke-linecap: butt;' />
<polyline points='60.01,181.64 498.52,181.64 ' style='stroke-width: 1.07; stroke: #EBEBEB; stroke-linecap: butt;' />
<polyline points='60.01,135.65 498.52,135.65 ' style='stroke-width: 1.07; stroke: #EBEBEB; stroke-linecap: butt;' />
<polyline points='142.23,328.20 142.23,134.68 ' style='stroke-width: 1.07; stroke: #EBEBEB; stroke-linecap: butt;' />
<polyline points='279.26,328.20 279.26,134.68 ' style='stroke-width: 1.07; stroke: #EBEBEB; stroke-linecap: butt;' />
<polyline points='416.30,328.20 416.30,134.68 ' style='stroke-width: 1.07; stroke: #EBEBEB; stroke-linecap: butt;' />
<line x1='142.23' y1='306.94' x2='142.23' y2='297.46' style='stroke-width: 1.07; stroke: #333333; stroke-linecap: butt;' />
<line x1='142.23' y1='318.42' x2='142.23' y2='319.37' style='stroke-width: 1.07; stroke: #333333; stroke-linecap: butt;' />
<polygon points='90.84,306.94 90.84,318.42 193.62,318.42 193.62,306.94 90.84,306.94 ' style='stroke-width: 1.07; stroke: #333333; stroke-linecap: butt; stroke-linejoin: miter; fill: #FFFFFF;' />
<line x1='90.84' y1='314.79' x2='193.62' y2='314.79' style='stroke-width: 2.13; stroke: #333333; stroke-linecap: butt; stroke-linejoin: miter;' />
<line x1='279.26' y1='316.15' x2='279.26' y2='312.80' style='stroke-width: 1.07; stroke: #333333; stroke-linecap: butt;' />
<line x1='279.26' y1='318.85' x2='279.26' y2='319.30' style='stroke-width: 1.07; stroke: #333333; stroke-linecap: butt;' />
<polygon points='227.88,316.15 227.88,318.85 330.65,318.85 330.65,316.15 227.88,316.15 ' style='stroke-width: 1.07; stroke: #333333; stroke-linecap: butt; stroke-linejoin: miter; fill: #FFFFFF;' />
<line x1='227.88' y1='317.90' x2='330.65' y2='317.90' style='stroke-width: 2.13; stroke: #333333; stroke-linecap: butt; stroke-linejoin: miter;' />
<circle cx='416.30' cy='143.47' r='1.95' style='stroke-width: 0.71; stroke: #333333; fill: #333333;' />
<circle cx='416.30' cy='195.98' r='1.95' style='stroke-width: 0.71; stroke: #333333; fill: #333333;' />
<circle cx='416.30' cy='235.85' r='1.95' style='stroke-width: 0.71; stroke: #333333; fill: #333333;' />
<circle cx='416.30' cy='216.17' r='1.95' style='stroke-width: 0.71; stroke: #333333; fill: #333333;' />
<line x1='416.30' y1='292.61' x2='416.30' y2='284.95' style='stroke-width: 1.07; stroke: #333333; stroke-linecap: butt;' />
<line x1='416.30' y1='316.56' x2='416.30' y2='319.40' style='stroke-width: 1.07; stroke: #333333; stroke-linecap: butt;' />
<polygon points='364.91,292.61 364.91,316.56 467.69,316.56 467.69,292.61 364.91,292.61 ' style='stroke-width: 1.07; stroke: #333333; stroke-linecap: butt; stroke-linejoin: miter; fill: #FFFFFF;' />
<line x1='364.91' y1='310.58' x2='467.69' y2='310.58' style='stroke-width: 2.13; stroke: #333333; stroke-linecap: butt; stroke-linejoin: miter;' />
<circle cx='92.71' cy='308.15' r='1.95' style='stroke-width: 0.71; stroke: #00FF93; stroke-opacity: 0.30; fill: #00FF93; fill-opacity: 0.30;' />
<circle cx='162.22' cy='313.79' r='1.95' style='stroke-width: 0.71; stroke: #00FF93; stroke-opacity: 0.30; fill: #00FF93; fill-opacity: 0.30;' />
<circle cx='185.74' cy='317.96' r='1.95' style='stroke-width: 0.71; stroke: #00FF93; stroke-opacity: 0.30; fill: #00FF93; fill-opacity: 0.30;' />
<circle cx='161.57' cy='308.48' r='1.95' style='stroke-width: 0.71; stroke: #00FF93; stroke-opacity: 0.30; fill: #00FF93; fill-opacity: 0.30;' />
<circle cx='103.90' cy='319.35' r='1.95' style='stroke-width: 0.71; stroke: #00FF93; stroke-opacity: 0.30; fill: #00FF93; fill-opacity: 0.30;' />
<circle cx='170.87' cy='315.03' r='1.95' style='stroke-width: 0.71; stroke: #00FF93; stroke-opacity: 0.30; fill: #00FF93; fill-opacity: 0.30;' />
<circle cx='134.05' cy='306.45' r='1.95' style='stroke-width: 0.71; stroke: #00FF93; stroke-opacity: 0.30; fill: #00FF93; fill-opacity: 0.30;' />
<circle cx='174.50' cy='306.94' r='1.95' style='stroke-width: 0.71; stroke: #00FF93; stroke-opacity: 0.30; fill: #00FF93; fill-opacity: 0.30;' />
<circle cx='173.14' cy='317.93' r='1.95' style='stroke-width: 0.71; stroke: #00FF93; stroke-opacity: 0.30; fill: #00FF93; fill-opacity: 0.30;' />
<circle cx='174.18' cy='310.35' r='1.95' style='stroke-width: 0.71; stroke: #00FF93; stroke-opacity: 0.30; fill: #00FF93; fill-opacity: 0.30;' />
<circle cx='188.96' cy='303.54' r='1.95' style='stroke-width: 0.71; stroke: #00FF93; stroke-opacity: 0.30; fill: #00FF93; fill-opacity: 0.30;' />
<circle cx='172.42' cy='319.34' r='1.95' style='stroke-width: 0.71; stroke: #00FF93; stroke-opacity: 0.30; fill: #00FF93; fill-opacity: 0.30;' />
<circle cx='154.67' cy='318.42' r='1.95' style='stroke-width: 0.71; stroke: #00FF93; stroke-opacity: 0.30; fill: #00FF93; fill-opacity: 0.30;' />
<circle cx='105.32' cy='317.90' r='1.95' style='stroke-width: 0.71; stroke: #00FF93; stroke-opacity: 0.30; fill: #00FF93; fill-opacity: 0.30;' />
<circle cx='128.11' cy='316.48' r='1.95' style='stroke-width: 0.71; stroke: #00FF93; stroke-opacity: 0.30; fill: #00FF93; fill-opacity: 0.30;' />
<circle cx='126.62' cy='304.47' r='1.95' style='stroke-width: 0.71; stroke: #00FF93; stroke-opacity: 0.30; fill: #00FF93; fill-opacity: 0.30;' />
<circle cx='148.13' cy='306.45' r='1.95' style='stroke-width: 0.71; stroke: #00FF93; stroke-opacity: 0.30; fill: #00FF93; fill-opacity: 0.30;' />
<circle cx='179.42' cy='306.45' r='1.95' style='stroke-width: 0.71; stroke: #00FF93; stroke-opacity: 0.30; fill: #00FF93; fill-opacity: 0.30;' />
<circle cx='157.53' cy='318.87' r='1.95' style='stroke-width: 0.71; stroke: #00FF93; stroke-opacity: 0.30; fill: #00FF93; fill-opacity: 0.30;' />
<circle cx='162.51' cy='300.69' r='1.95' style='stroke-width: 0.71; stroke: #00FF93; stroke-opacity: 0.30; fill: #00FF93; fill-opacity: 0.30;' />
<circle cx='111.69' cy='314.12' r='1.95' style='stroke-width: 0.71; stroke: #00FF93; stroke-opacity: 0.30; fill: #00FF93; fill-opacity: 0.30;' />
<circle cx='174.50' cy='318.87' r='1.95' style='stroke-width: 0.71; stroke: #00FF93; stroke-opacity: 0.30; fill: #00FF93; fill-opacity: 0.30;' />
<circle cx='171.41' cy='305.92' r='1.95' style='stroke-width: 0.71; stroke: #00FF93; stroke-opacity: 0.30; fill: #00FF93; fill-opacity: 0.30;' />
<circle cx='91.46' cy='317.79' r='1.95' style='stroke-width: 0.71; stroke: #00FF93; stroke-opacity: 0.30; fill: #00FF93; fill-opacity: 0.30;' />
<circle cx='140.43' cy='319.35' r='1.95' style='stroke-width: 0.71; stroke: #00FF93; stroke-opacity: 0.30; fill: #00FF93; fill-opacity: 0.30;' />
<circle cx='158.24' cy='314.38' r='1.95' style='stroke-width: 0.71; stroke: #00FF93; stroke-opacity: 0.30; fill: #00FF93; fill-opacity: 0.30;' />
<circle cx='163.66' cy='311.39' r='1.95' style='stroke-width: 0.71; stroke: #00FF93; stroke-opacity: 0.30; fill: #00FF93; fill-opacity: 0.30;' />
<circle cx='150.86' cy='317.45' r='1.95' style='stroke-width: 0.71; stroke: #00FF93; stroke-opacity: 0.30; fill: #00FF93; fill-opacity: 0.30;' />
<circle cx='133.71' cy='301.48' r='1.95' style='stroke-width: 0.71; stroke: #00FF93; stroke-opacity: 0.30; fill: #00FF93; fill-opacity: 0.30;' />
<circle cx='157.44' cy='316.49' r='1.95' style='stroke-width: 0.71; stroke: #00FF93; stroke-opacity: 0.30; fill: #00FF93; fill-opacity: 0.30;' />
<circle cx='112.13' cy='318.80' r='1.95' style='stroke-width: 0.71; stroke: #00FF93; stroke-opacity: 0.30; fill: #00FF93; fill-opacity: 0.30;' />
<circle cx='161.51' cy='302.24' r='1.95' style='stroke-width: 0.71; stroke: #00FF93; stroke-opacity: 0.30; fill: #00FF93; fill-opacity: 0.30;' />
<circle cx='113.45' cy='316.44' r='1.95' style='stroke-width: 0.71; stroke: #00FF93; stroke-opacity: 0.30; fill: #00FF93; fill-opacity: 0.30;' />
<circle cx='192.10' cy='318.40' r='1.95' style='stroke-width: 0.71; stroke: #00FF93; stroke-opacity: 0.30; fill: #00FF93; fill-opacity: 0.30;' />
<circle cx='109.64' cy='303.00' r='1.95' style='stroke-width: 0.71; stroke: #00FF93; stroke-opacity: 0.30; fill: #00FF93; fill-opacity: 0.30;' />
<circle cx='158.88' cy='306.63' r='1.95' style='stroke-width: 0.71; stroke: #00FF93; stroke-opacity: 0.30; fill: #00FF93; fill-opacity: 0.30;' />
<circle cx='182.50' cy='318.51' r='1.95' style='stroke-width: 0.71; stroke: #00FF93; stroke-opacity: 0.30; fill: #00FF93; fill-opacity: 0.30;' />
<circle cx='163.16' cy='306.43' r='1.95' style='stroke-width: 0.71; stroke: #00FF93; stroke-opacity: 0.30; fill: #00FF93; fill-opacity: 0.30;' />
<circle cx='106.56' cy='318.30' r='1.95' style='stroke-width: 0.71; stroke: #00FF93; stroke-opacity: 0.30; fill: #00FF93; fill-opacity: 0.30;' />
<circle cx='177.80' cy='319.35' r='1.95' style='stroke-width: 0.71; stroke: #00FF93; stroke-opacity: 0.30; fill: #00FF93; fill-opacity: 0.30;' />
<circle cx='178.34' cy='304.36' r='1.95' style='stroke-width: 0.71; stroke: #00FF93; stroke-opacity: 0.30; fill: #00FF93; fill-opacity: 0.30;' />
<circle cx='155.69' cy='317.79' r='1.95' style='stroke-width: 0.71; stroke: #00FF93; stroke-opacity: 0.30; fill: #00FF93; fill-opacity: 0.30;' />
<circle cx='102.15' cy='319.35' r='1.95' style='stroke-width: 0.71; stroke: #00FF93; stroke-opacity: 0.30; fill: #00FF93; fill-opacity: 0.30;' />
<circle cx='165.80' cy='307.24' r='1.95' style='stroke-width: 0.71; stroke: #00FF93; stroke-opacity: 0.30; fill: #00FF93; fill-opacity: 0.30;' />
<circle cx='128.06' cy='309.86' r='1.95' style='stroke-width: 0.71; stroke: #00FF93; stroke-opacity: 0.30; fill: #00FF93; fill-opacity: 0.30;' />
<circle cx='133.04' cy='303.56' r='1.95' style='stroke-width: 0.71; stroke: #00FF93; stroke-opacity: 0.30; fill: #00FF93; fill-opacity: 0.30;' />
<circle cx='192.39' cy='318.42' r='1.95' style='stroke-width: 0.71; stroke: #00FF93; stroke-opacity: 0.30; fill: #00FF93; fill-opacity: 0.30;' />
<circle cx='184.72' cy='297.46' r='1.95' style='stroke-width: 0.71; stroke: #00FF93; stroke-opacity: 0.30; fill: #00FF93; fill-opacity: 0.30;' />
<circle cx='166.55' cy='318.42' r='1.95' style='stroke-width: 0.71; stroke: #00FF93; stroke-opacity: 0.30; fill: #00FF93; fill-opacity: 0.30;' />
<circle cx='89.06' cy='319.30' r='1.95' style='stroke-width: 0.71; stroke: #00FF93; stroke-opacity: 0.30; fill: #00FF93; fill-opacity: 0.30;' />
<circle cx='149.42' cy='307.35' r='1.95' style='stroke-width: 0.71; stroke: #00FF93; stroke-opacity: 0.30; fill: #00FF93; fill-opacity: 0.30;' />
<circle cx='190.19' cy='318.70' r='1.95' style='stroke-width: 0.71; stroke: #00FF93; stroke-opacity: 0.30; fill: #00FF93; fill-opacity: 0.30;' />
<circle cx='165.60' cy='310.69' r='1.95' style='stroke-width: 0.71; stroke: #00FF93; stroke-opacity: 0.30; fill: #00FF93; fill-opacity: 0.30;' />
<circle cx='177.65' cy='305.41' r='1.95' style='stroke-width: 0.71; stroke: #00FF93; stroke-opacity: 0.30; fill: #00FF93; fill-opacity: 0.30;' />
<circle cx='93.14' cy='318.82' r='1.95' style='stroke-width: 0.71; stroke: #00FF93; stroke-opacity: 0.30; fill: #00FF93; fill-opacity: 0.30;' />
<circle cx='140.18' cy='308.25' r='1.95' style='stroke-width: 0.71; stroke: #00FF93; stroke-opacity: 0.30; fill: #00FF93; fill-opacity: 0.30;' />
<circle cx='184.99' cy='311.24' r='1.95' style='stroke-width: 0.71; stroke: #00FF93; stroke-opacity: 0.30; fill: #00FF93; fill-opacity: 0.30;' />
<circle cx='113.74' cy='319.12' r='1.95' style='stroke-width: 0.71; stroke: #00FF93; stroke-opacity: 0.30; fill: #00FF93; fill-opacity: 0.30;' />
<circle cx='101.39' cy='318.03' r='1.95' style='stroke-width: 0.71; stroke: #00FF93; stroke-opacity: 0.30; fill: #00FF93; fill-opacity: 0.30;' />
<circle cx='189.99' cy='299.86' r='1.95' style='stroke-width: 0.71; stroke: #00FF93; stroke-opacity: 0.30; fill: #00FF93; fill-opacity: 0.30;' />
<circle cx='136.79' cy='310.07' r='1.95' style='stroke-width: 0.71; stroke: #00FF93; stroke-opacity: 0.30; fill: #00FF93; fill-opacity: 0.30;' />
<circle cx='96.61' cy='318.70' r='1.95' style='stroke-width: 0.71; stroke: #00FF93; stroke-opacity: 0.30; fill: #00FF93; fill-opacity: 0.30;' />
<circle cx='164.72' cy='307.38' r='1.95' style='stroke-width: 0.71; stroke: #00FF93; stroke-opacity: 0.30; fill: #00FF93; fill-opacity: 0.30;' />
<circle cx='153.52' cy='304.33' r='1.95' style='stroke-width: 0.71; stroke: #00FF93; stroke-opacity: 0.30; fill: #00FF93; fill-opacity: 0.30;' />
<circle cx='102.66' cy='311.24' r='1.95' style='stroke-width: 0.71; stroke: #00FF93; stroke-opacity: 0.30; fill: #00FF93; fill-opacity: 0.30;' />
<circle cx='121.23' cy='319.25' r='1.95' style='stroke-width: 0.71; stroke: #00FF93; stroke-opacity: 0.30; fill: #00FF93; fill-opacity: 0.30;' />
<circle cx='177.82' cy='312.04' r='1.95' style='stroke-width: 0.71; stroke: #00FF93; stroke-opacity: 0.30; fill: #00FF93; fill-opacity: 0.30;' />
<circle cx='129.66' cy='318.48' r='1.95' style='stroke-width: 0.71; stroke: #00FF93; stroke-opacity: 0.30; fill: #00FF93; fill-opacity: 0.30;' />
<circle cx='152.67' cy='318.43' r='1.95' style='stroke-width: 0.71; stroke: #00FF93; stroke-opacity: 0.30; fill: #00FF93; fill-opacity: 0.30;' />
<circle cx='108.63' cy='307.50' r='1.95' style='stroke-width: 0.71; stroke: #00FF93; stroke-opacity: 0.30; fill: #00FF93; fill-opacity: 0.30;' />
<circle cx='165.72' cy='319.12' r='1.95' style='stroke-width: 0.71; stroke: #00FF93; stroke-opacity: 0.30; fill: #00FF93; fill-opacity: 0.30;' />
<circle cx='100.57' cy='318.22' r='1.95' style='stroke-width: 0.71; stroke: #00FF93; stroke-opacity: 0.30; fill: #00FF93; fill-opacity: 0.30;' />
<circle cx='190.71' cy='303.08' r='1.95' style='stroke-width: 0.71; stroke: #00FF93; stroke-opacity: 0.30; fill: #00FF93; fill-opacity: 0.30;' />
<circle cx='108.80' cy='319.12' r='1.95' style='stroke-width: 0.71; stroke: #00FF93; stroke-opacity: 0.30; fill: #00FF93; fill-opacity: 0.30;' />
<circle cx='136.20' cy='317.86' r='1.95' style='stroke-width: 0.71; stroke: #00FF93; stroke-opacity: 0.30; fill: #00FF93; fill-opacity: 0.30;' />
<circle cx='156.99' cy='303.99' r='1.95' style='stroke-width: 0.71; stroke: #00FF93; stroke-opacity: 0.30; fill: #00FF93; fill-opacity: 0.30;' />
<circle cx='170.54' cy='316.38' r='1.95' style='stroke-width: 0.71; stroke: #00FF93; stroke-opacity: 0.30; fill: #00FF93; fill-opacity: 0.30;' />
<circle cx='138.77' cy='316.08' r='1.95' style='stroke-width: 0.71; stroke: #00FF93; stroke-opacity: 0.30; fill: #00FF93; fill-opacity: 0.30;' />
<circle cx='167.41' cy='300.08' r='1.95' style='stroke-width: 0.71; stroke: #00FF93; stroke-opacity: 0.30; fill: #00FF93; fill-opacity: 0.30;' />
<circle cx='98.17' cy='319.35' r='1.95' style='stroke-width: 0.71; stroke: #00FF93; stroke-opacity: 0.30; fill: #00FF93; fill-opacity: 0.30;' />
<circle cx='185.37' cy='306.80' r='1.95' style='stroke-width: 0.71; stroke: #00FF93; stroke-opacity: 0.30; fill: #00FF93; fill-opacity: 0.30;' />
<circle cx='174.25' cy='298.39' r='1.95' style='stroke-width: 0.71; stroke: #00FF93; stroke-opacity: 0.30; fill: #00FF93; fill-opacity: 0.30;' />
<circle cx='170.30' cy='319.28' r='1.95' style='stroke-width: 0.71; stroke: #00FF93; stroke-opacity: 0.30; fill: #00FF93; fill-opacity: 0.30;' />
<circle cx='93.13' cy='316.31' r='1.95' style='stroke-width: 0.71; stroke: #00FF93; stroke-opacity: 0.30; fill: #00FF93; fill-opacity: 0.30;' />
<circle cx='191.05' cy='316.97' r='1.95' style='stroke-width: 0.71; stroke: #00FF93; stroke-opacity: 0.30; fill: #00FF93; fill-opacity: 0.30;' />
<circle cx='104.96' cy='316.86' r='1.95' style='stroke-width: 0.71; stroke: #00FF93; stroke-opacity: 0.30; fill: #00FF93; fill-opacity: 0.30;' />
<circle cx='146.45' cy='313.36' r='1.95' style='stroke-width: 0.71; stroke: #00FF93; stroke-opacity: 0.30; fill: #00FF93; fill-opacity: 0.30;' />
<circle cx='117.66' cy='308.26' r='1.95' style='stroke-width: 0.71; stroke: #00FF93; stroke-opacity: 0.30; fill: #00FF93; fill-opacity: 0.30;' />
<circle cx='196.33' cy='302.80' r='1.95' style='stroke-width: 0.71; stroke: #00FF93; stroke-opacity: 0.30; fill: #00FF93; fill-opacity: 0.30;' />
<circle cx='124.95' cy='316.10' r='1.95' style='stroke-width: 0.71; stroke: #00FF93; stroke-opacity: 0.30; fill: #00FF93; fill-opacity: 0.30;' />
<circle cx='126.20' cy='312.17' r='1.95' style='stroke-width: 0.71; stroke: #00FF93; stroke-opacity: 0.30; fill: #00FF93; fill-opacity: 0.30;' />
<circle cx='123.27' cy='318.88' r='1.95' style='stroke-width: 0.71; stroke: #00FF93; stroke-opacity: 0.30; fill: #00FF93; fill-opacity: 0.30;' />
<circle cx='144.77' cy='307.86' r='1.95' style='stroke-width: 0.71; stroke: #00FF93; stroke-opacity: 0.30; fill: #00FF93; fill-opacity: 0.30;' />
<circle cx='190.33' cy='319.30' r='1.95' style='stroke-width: 0.71; stroke: #00FF93; stroke-opacity: 0.30; fill: #00FF93; fill-opacity: 0.30;' />
<circle cx='158.55' cy='302.11' r='1.95' style='stroke-width: 0.71; stroke: #00FF93; stroke-opacity: 0.30; fill: #00FF93; fill-opacity: 0.30;' />
<circle cx='174.95' cy='310.57' r='1.95' style='stroke-width: 0.71; stroke: #00FF93; stroke-opacity: 0.30; fill: #00FF93; fill-opacity: 0.30;' />
<circle cx='107.04' cy='306.43' r='1.95' style='stroke-width: 0.71; stroke: #00FF93; stroke-opacity: 0.30; fill: #00FF93; fill-opacity: 0.30;' />
<circle cx='162.29' cy='304.50' r='1.95' style='stroke-width: 0.71; stroke: #00FF93; stroke-opacity: 0.30; fill: #00FF93; fill-opacity: 0.30;' />
<circle cx='190.90' cy='318.42' r='1.95' style='stroke-width: 0.71; stroke: #00FF93; stroke-opacity: 0.30; fill: #00FF93; fill-opacity: 0.30;' />
<circle cx='180.15' cy='311.33' r='1.95' style='stroke-width: 0.71; stroke: #00FF93; stroke-opacity: 0.30; fill: #00FF93; fill-opacity: 0.30;' />
<circle cx='101.03' cy='312.87' r='1.95' style='stroke-width: 0.71; stroke: #00FF93; stroke-opacity: 0.30; fill: #00FF93; fill-opacity: 0.30;' />
<circle cx='146.92' cy='311.31' r='1.95' style='stroke-width: 0.71; stroke: #00FF93; stroke-opacity: 0.30; fill: #00FF93; fill-opacity: 0.30;' />
<circle cx='88.39' cy='319.28' r='1.95' style='stroke-width: 0.71; stroke: #00FF93; stroke-opacity: 0.30; fill: #00FF93; fill-opacity: 0.30;' />
<circle cx='110.50' cy='304.98' r='1.95' style='stroke-width: 0.71; stroke: #00FF93; stroke-opacity: 0.30; fill: #00FF93; fill-opacity: 0.30;' />
<circle cx='129.17' cy='317.52' r='1.95' style='stroke-width: 0.71; stroke: #00FF93; stroke-opacity: 0.30; fill: #00FF93; fill-opacity: 0.30;' />
<circle cx='158.64' cy='313.35' r='1.95' style='stroke-width: 0.71; stroke: #00FF93; stroke-opacity: 0.30; fill: #00FF93; fill-opacity: 0.30;' />
<circle cx='114.72' cy='318.74' r='1.95' style='stroke-width: 0.71; stroke: #00FF93; stroke-opacity: 0.30; fill: #00FF93; fill-opacity: 0.30;' />
<circle cx='158.68' cy='314.79' r='1.95' style='stroke-width: 0.71; stroke: #00FF93; stroke-opacity: 0.30; fill: #00FF93; fill-opacity: 0.30;' />
<circle cx='141.81' cy='307.30' r='1.95' style='stroke-width: 0.71; stroke: #00FF93; stroke-opacity: 0.30; fill: #00FF93; fill-opacity: 0.30;' />
<circle cx='108.55' cy='317.55' r='1.95' style='stroke-width: 0.71; stroke: #00FF93; stroke-opacity: 0.30; fill: #00FF93; fill-opacity: 0.30;' />
<circle cx='160.84' cy='316.00' r='1.95' style='stroke-width: 0.71; stroke: #00FF93; stroke-opacity: 0.30; fill: #00FF93; fill-opacity: 0.30;' />
<circle cx='157.44' cy='304.26' r='1.95' style='stroke-width: 0.71; stroke: #00FF93; stroke-opacity: 0.30; fill: #00FF93; fill-opacity: 0.30;' />
<circle cx='167.15' cy='319.37' r='1.95' style='stroke-width: 0.71; stroke: #00FF93; stroke-opacity: 0.30; fill: #00FF93; fill-opacity: 0.30;' />
<circle cx='98.69' cy='318.42' r='1.95' style='stroke-width: 0.71; stroke: #00FF93; stroke-opacity: 0.30; fill: #00FF93; fill-opacity: 0.30;' />
<circle cx='193.08' cy='319.02' r='1.95' style='stroke-width: 0.71; stroke: #00FF93; stroke-opacity: 0.30; fill: #00FF93; fill-opacity: 0.30;' />
<circle cx='180.78' cy='318.69' r='1.95' style='stroke-width: 0.71; stroke: #00FF93; stroke-opacity: 0.30; fill: #00FF93; fill-opacity: 0.30;' />
<circle cx='125.98' cy='316.48' r='1.95' style='stroke-width: 0.71; stroke: #00FF93; stroke-opacity: 0.30; fill: #00FF93; fill-opacity: 0.30;' />
<circle cx='317.01' cy='316.15' r='1.95' style='stroke-width: 0.71; stroke: #FFC300; stroke-opacity: 0.30; fill: #FFC300; fill-opacity: 0.30;' />
<circle cx='331.28' cy='314.63' r='1.95' style='stroke-width: 0.71; stroke: #FFC300; stroke-opacity: 0.30; fill: #FFC300; fill-opacity: 0.30;' />
<circle cx='294.66' cy='317.55' r='1.95' style='stroke-width: 0.71; stroke: #FFC300; stroke-opacity: 0.30; fill: #FFC300; fill-opacity: 0.30;' />
<circle cx='248.06' cy='318.65' r='1.95' style='stroke-width: 0.71; stroke: #FFC300; stroke-opacity: 0.30; fill: #FFC300; fill-opacity: 0.30;' />
<circle cx='304.59' cy='312.80' r='1.95' style='stroke-width: 0.71; stroke: #FFC300; stroke-opacity: 0.30; fill: #FFC300; fill-opacity: 0.30;' />
<circle cx='279.59' cy='317.90' r='1.95' style='stroke-width: 0.71; stroke: #FFC300; stroke-opacity: 0.30; fill: #FFC300; fill-opacity: 0.30;' />
<circle cx='240.82' cy='316.48' r='1.95' style='stroke-width: 0.71; stroke: #FFC300; stroke-opacity: 0.30; fill: #FFC300; fill-opacity: 0.30;' />
<circle cx='326.67' cy='319.05' r='1.95' style='stroke-width: 0.71; stroke: #FFC300; stroke-opacity: 0.30; fill: #FFC300; fill-opacity: 0.30;' />
<circle cx='242.95' cy='319.16' r='1.95' style='stroke-width: 0.71; stroke: #FFC300; stroke-opacity: 0.30; fill: #FFC300; fill-opacity: 0.30;' />
<circle cx='293.02' cy='319.29' r='1.95' style='stroke-width: 0.71; stroke: #FFC300; stroke-opacity: 0.30; fill: #FFC300; fill-opacity: 0.30;' />
<circle cx='263.16' cy='319.15' r='1.95' style='stroke-width: 0.71; stroke: #FFC300; stroke-opacity: 0.30; fill: #FFC300; fill-opacity: 0.30;' />
<circle cx='289.95' cy='314.63' r='1.95' style='stroke-width: 0.71; stroke: #FFC300; stroke-opacity: 0.30; fill: #FFC300; fill-opacity: 0.30;' />
<circle cx='279.38' cy='318.28' r='1.95' style='stroke-width: 0.71; stroke: #FFC300; stroke-opacity: 0.30; fill: #FFC300; fill-opacity: 0.30;' />
<circle cx='328.36' cy='318.25' r='1.95' style='stroke-width: 0.71; stroke: #FFC300; stroke-opacity: 0.30; fill: #FFC300; fill-opacity: 0.30;' />
<circle cx='237.06' cy='319.30' r='1.95' style='stroke-width: 0.71; stroke: #FFC300; stroke-opacity: 0.30; fill: #FFC300; fill-opacity: 0.30;' />
<circle cx='240.18' cy='318.07' r='1.95' style='stroke-width: 0.71; stroke: #FFC300; stroke-opacity: 0.30; fill: #FFC300; fill-opacity: 0.30;' />
<circle cx='285.78' cy='316.14' r='1.95' style='stroke-width: 0.71; stroke: #FFC300; stroke-opacity: 0.30; fill: #FFC300; fill-opacity: 0.30;' />
<circle cx='322.66' cy='314.64' r='1.95' style='stroke-width: 0.71; stroke: #FFC300; stroke-opacity: 0.30; fill: #FFC300; fill-opacity: 0.30;' />
<circle cx='273.49' cy='317.74' r='1.95' style='stroke-width: 0.71; stroke: #FFC300; stroke-opacity: 0.30; fill: #FFC300; fill-opacity: 0.30;' />
<circle cx='436.77' cy='318.45' r='1.95' style='stroke-width: 0.71; stroke: #F11212; stroke-opacity: 0.30; fill: #F11212; fill-opacity: 0.30;' />
<circle cx='399.64' cy='317.89' r='1.95' style='stroke-width: 0.71; stroke: #F11212; stroke-opacity: 0.30; fill: #F11212; fill-opacity: 0.30;' />
<circle cx='437.99' cy='284.95' r='1.95' style='stroke-width: 0.71; stroke: #F11212; stroke-opacity: 0.30; fill: #F11212; fill-opacity: 0.30;' />
<circle cx='436.73' cy='299.10' r='1.95' style='stroke-width: 0.71; stroke: #F11212; stroke-opacity: 0.30; fill: #F11212; fill-opacity: 0.30;' />
<circle cx='445.09' cy='316.53' r='1.95' style='stroke-width: 0.71; stroke: #F11212; stroke-opacity: 0.30; fill: #F11212; fill-opacity: 0.30;' />
<circle cx='422.36' cy='302.83' r='1.95' style='stroke-width: 0.71; stroke: #F11212; stroke-opacity: 0.30; fill: #F11212; fill-opacity: 0.30;' />
<circle cx='404.75' cy='285.75' r='1.95' style='stroke-width: 0.71; stroke: #F11212; stroke-opacity: 0.30; fill: #F11212; fill-opacity: 0.30;' />
<circle cx='414.15' cy='316.65' r='1.95' style='stroke-width: 0.71; stroke: #F11212; stroke-opacity: 0.30; fill: #F11212; fill-opacity: 0.30;' />
<circle cx='403.57' cy='319.15' r='1.95' style='stroke-width: 0.71; stroke: #F11212; stroke-opacity: 0.30; fill: #F11212; fill-opacity: 0.30;' />
<circle cx='369.66' cy='310.13' r='1.95' style='stroke-width: 0.71; stroke: #F11212; stroke-opacity: 0.30; fill: #F11212; fill-opacity: 0.30;' />
<circle cx='454.26' cy='143.47' r='1.95' style='stroke-width: 0.71; stroke: #F11212; stroke-opacity: 0.30; fill: #F11212; fill-opacity: 0.30;' />
<circle cx='411.41' cy='319.40' r='1.95' style='stroke-width: 0.71; stroke: #F11212; stroke-opacity: 0.30; fill: #F11212; fill-opacity: 0.30;' />
<circle cx='439.97' cy='294.90' r='1.95' style='stroke-width: 0.71; stroke: #F11212; stroke-opacity: 0.30; fill: #F11212; fill-opacity: 0.30;' />
<circle cx='387.87' cy='311.56' r='1.95' style='stroke-width: 0.71; stroke: #F11212; stroke-opacity: 0.30; fill: #F11212; fill-opacity: 0.30;' />
<circle cx='407.37' cy='195.98' r='1.95' style='stroke-width: 0.71; stroke: #F11212; stroke-opacity: 0.30; fill: #F11212; fill-opacity: 0.30;' />
<circle cx='435.07' cy='311.04' r='1.95' style='stroke-width: 0.71; stroke: #F11212; stroke-opacity: 0.30; fill: #F11212; fill-opacity: 0.30;' />
<circle cx='381.72' cy='311.04' r='1.95' style='stroke-width: 0.71; stroke: #F11212; stroke-opacity: 0.30; fill: #F11212; fill-opacity: 0.30;' />
<circle cx='370.96' cy='317.67' r='1.95' style='stroke-width: 0.71; stroke: #F11212; stroke-opacity: 0.30; fill: #F11212; fill-opacity: 0.30;' />
<circle cx='420.56' cy='315.16' r='1.95' style='stroke-width: 0.71; stroke: #F11212; stroke-opacity: 0.30; fill: #F11212; fill-opacity: 0.30;' />
<circle cx='422.07' cy='235.85' r='1.95' style='stroke-width: 0.71; stroke: #F11212; stroke-opacity: 0.30; fill: #F11212; fill-opacity: 0.30;' />
<circle cx='460.27' cy='216.17' r='1.95' style='stroke-width: 0.71; stroke: #F11212; stroke-opacity: 0.30; fill: #F11212; fill-opacity: 0.30;' />
<circle cx='410.59' cy='315.95' r='1.95' style='stroke-width: 0.71; stroke: #F11212; stroke-opacity: 0.30; fill: #F11212; fill-opacity: 0.30;' />
<circle cx='368.26' cy='301.54' r='1.95' style='stroke-width: 0.71; stroke: #F11212; stroke-opacity: 0.30; fill: #F11212; fill-opacity: 0.30;' />
<circle cx='397.52' cy='303.07' r='1.95' style='stroke-width: 0.71; stroke: #F11212; stroke-opacity: 0.30; fill: #F11212; fill-opacity: 0.30;' />
<rect x='60.01' y='134.68' width='438.51' height='193.52' style='stroke-width: 1.07; stroke: #333333;' />
</g>
<g clip-path='url(#cpMC4wMHw1MDQuMDB8MC4wMHwzNjAuMDA=)'>
<text x='55.08' y='323.90' text-anchor='end' style='font-size: 12.00px;fill: #4D4D4D; font-family: "Arial";' textLength='33.70px' lengthAdjust='spacingAndGlyphs'>0e+00</text>
<text x='55.08' y='277.92' text-anchor='end' style='font-size: 12.00px;fill: #4D4D4D; font-family: "Arial";' textLength='33.70px' lengthAdjust='spacingAndGlyphs'>2e+05</text>
<text x='55.08' y='231.93' text-anchor='end' style='font-size: 12.00px;fill: #4D4D4D; font-family: "Arial";' textLength='33.70px' lengthAdjust='spacingAndGlyphs'>4e+05</text>
<text x='55.08' y='185.94' text-anchor='end' style='font-size: 12.00px;fill: #4D4D4D; font-family: "Arial";' textLength='33.70px' lengthAdjust='spacingAndGlyphs'>6e+05</text>
<text x='55.08' y='139.96' text-anchor='end' style='font-size: 12.00px;fill: #4D4D4D; font-family: "Arial";' textLength='33.70px' lengthAdjust='spacingAndGlyphs'>8e+05</text>
<polyline points='57.27,319.60 60.01,319.60 ' style='stroke-width: 1.07; stroke: #333333; stroke-linecap: butt;' />
<polyline points='57.27,273.61 60.01,273.61 ' style='stroke-width: 1.07; stroke: #333333; stroke-linecap: butt;' />
<polyline points='57.27,227.62 60.01,227.62 ' style='stroke-width: 1.07; stroke: #333333; stroke-linecap: butt;' />
<polyline points='57.27,181.64 60.01,181.64 ' style='stroke-width: 1.07; stroke: #333333; stroke-linecap: butt;' />
<polyline points='57.27,135.65 60.01,135.65 ' style='stroke-width: 1.07; stroke: #333333; stroke-linecap: butt;' />
<polyline points='142.23,330.94 142.23,328.20 ' style='stroke-width: 1.07; stroke: #333333; stroke-linecap: butt;' />
<polyline points='279.26,330.94 279.26,328.20 ' style='stroke-width: 1.07; stroke: #333333; stroke-linecap: butt;' />
<polyline points='416.30,330.94 416.30,328.20 ' style='stroke-width: 1.07; stroke: #333333; stroke-linecap: butt;' />
<text transform='translate(142.74,333.64) rotate(-45)' text-anchor='end' style='font-size: 0.00px;fill: #4D4D4D; font-family: "Arial";' textLength='2.94px' lengthAdjust='spacingAndGlyphs'>gplas2</text>
<text transform='translate(279.77,333.64) rotate(-45)' text-anchor='end' style='font-size: 0.00px;fill: #4D4D4D; font-family: "Arial";' textLength='4.72px' lengthAdjust='spacingAndGlyphs'>MOB-suite</text>
<text transform='translate(416.81,333.64) rotate(-45)' text-anchor='end' style='font-size: 0.00px;fill: #4D4D4D; font-family: "Arial";' textLength='7.06px' lengthAdjust='spacingAndGlyphs'>plasmidSPAdes</text>
<text x='279.26' y='351.44' text-anchor='middle' style='font-size: 14.00px; font-weight: bold; font-family: "Arial";' textLength='59.10px' lengthAdjust='spacingAndGlyphs'>Software</text>
<text transform='translate(15.55,231.44) rotate(-90)' text-anchor='middle' style='font-size: 14.00px; font-weight: bold; font-family: "Arial";' textLength='189.72px' lengthAdjust='spacingAndGlyphs'>Chromosome contamination</text>
<rect x='143.86' y='95.48' width='270.81' height='28.24' style='stroke-width: 1.07; stroke: none; fill: #FFFFFF;' />
<text x='149.34' y='109.96' style='font-size: 0.00px; font-family: "Arial";' textLength='3.77px' lengthAdjust='spacingAndGlyphs'>software</text>
<rect x='149.34' y='100.96' width='17.28' height='17.28' style='stroke-width: 1.07; stroke: none; fill: #FFFFFF;' />
<circle cx='157.98' cy='109.60' r='1.95' style='stroke-width: 0.71; stroke: #00FF93; stroke-opacity: 0.30; fill: #00FF93; fill-opacity: 0.30;' />
<rect x='207.86' y='100.96' width='17.28' height='17.28' style='stroke-width: 1.07; stroke: none; fill: #FFFFFF;' />
<circle cx='216.50' cy='109.60' r='1.95' style='stroke-width: 0.71; stroke: #FFC300; stroke-opacity: 0.30; fill: #FFC300; fill-opacity: 0.30;' />
<rect x='294.78' y='100.96' width='17.28' height='17.28' style='stroke-width: 1.07; stroke: none; fill: #FFFFFF;' />
<circle cx='303.42' cy='109.60' r='1.95' style='stroke-width: 0.71; stroke: #F11212; stroke-opacity: 0.30; fill: #F11212; fill-opacity: 0.30;' />
<text x='166.62' y='114.62' style='font-size: 14.00px; font-family: "Arial";' textLength='41.24px' lengthAdjust='spacingAndGlyphs'>gplas2</text>
<text x='225.14' y='114.62' style='font-size: 14.00px; font-family: "Arial";' textLength='66.12px' lengthAdjust='spacingAndGlyphs'>MOB-suite</text>
<text x='312.06' y='114.62' style='font-size: 14.00px; font-family: "Arial";' textLength='98.81px' lengthAdjust='spacingAndGlyphs'>plasmidSPAdes</text>
</g>
</svg>
