<?xml version='1.0' encoding='UTF-8' ?>
<svg xmlns='http://www.w3.org/2000/svg' xmlns:xlink='http://www.w3.org/1999/xlink' class='svglite' width='504.00pt' height='360.00pt' viewBox='0 0 504.00 360.00'>
<defs>
  <style type='text/css'><![CDATA[
    .svglite line, .svglite polyline, .svglite polygon, .svglite path, .svglite rect, .svglite circle {
      fill: none;
      stroke: #000000;
      stroke-linecap: round;
      stroke-linejoin: round;
      stroke-miterlimit: 10.00;
    }
    .svglite text {
      white-space: pre;
    }
  ]]></style>
</defs>
<rect width='100%' height='100%' style='stroke: none; fill: #FFFFFF;'/>
<defs>
  <clipPath id='cpMC4wMHw1MDQuMDB8MC4wMHwzNjAuMDA='>
    <rect x='0.00' y='0.00' width='504.00' height='360.00' />
  </clipPath>
</defs>
<g clip-path='url(#cpMC4wMHw1MDQuMDB8MC4wMHwzNjAuMDA=)'>
<rect x='0.00' y='0.000000000000057' width='504.00' height='360.00' style='stroke-width: 1.07; stroke: #FFFFFF; fill: #FFFFFF;' />
</g>
<defs>
  <clipPath id='cpNTUuMzZ8MjYyLjc4fDg1LjMxfDIxMi45OA=='>
    <rect x='55.36' y='85.31' width='207.42' height='127.67' />
  </clipPath>
</defs>
<g clip-path='url(#cpNTUuMzZ8MjYyLjc4fDg1LjMxfDIxMi45OA==)'>
<rect x='55.36' y='85.31' width='207.42' height='127.67' style='stroke-width: 1.07; stroke: none; fill: #FFFFFF;' />
<polyline points='55.36,193.05 262.78,193.05 ' style='stroke-width: 0.53; stroke: #EBEBEB; stroke-linecap: butt;' />
<polyline points='55.36,163.94 262.78,163.94 ' style='stroke-width: 0.53; stroke: #EBEBEB; stroke-linecap: butt;' />
<polyline points='55.36,134.83 262.78,134.83 ' style='stroke-width: 0.53; stroke: #EBEBEB; stroke-linecap: butt;' />
<polyline points='55.36,105.72 262.78,105.72 ' style='stroke-width: 0.53; stroke: #EBEBEB; stroke-linecap: butt;' />
<polyline points='55.36,207.61 262.78,207.61 ' style='stroke-width: 1.07; stroke: #EBEBEB; stroke-linecap: butt;' />
<polyline points='55.36,178.50 262.78,178.50 ' style='stroke-width: 1.07; stroke: #EBEBEB; stroke-linecap: butt;' />
<polyline points='55.36,149.39 262.78,149.39 ' style='stroke-width: 1.07; stroke: #EBEBEB; stroke-linecap: butt;' />
<polyline points='55.36,120.27 262.78,120.27 ' style='stroke-width: 1.07; stroke: #EBEBEB; stroke-linecap: butt;' />
<polyline points='55.36,91.16 262.78,91.16 ' style='stroke-width: 1.07; stroke: #EBEBEB; stroke-linecap: butt;' />
<polyline points='94.25,212.98 94.25,85.31 ' style='stroke-width: 1.07; stroke: #EBEBEB; stroke-linecap: butt;' />
<polyline points='159.07,212.98 159.07,85.31 ' style='stroke-width: 1.07; stroke: #EBEBEB; stroke-linecap: butt;' />
<polyline points='223.89,212.98 223.89,85.31 ' style='stroke-width: 1.07; stroke: #EBEBEB; stroke-linecap: butt;' />
<line x1='94.25' y1='91.16' x2='94.25' y2='91.16' style='stroke-width: 1.07; stroke: #333333; stroke-linecap: butt;' />
<line x1='94.25' y1='138.09' x2='94.25' y2='160.45' style='stroke-width: 1.07; stroke: #333333; stroke-linecap: butt;' />
<polygon points='69.95,91.16 69.95,138.09 118.56,138.09 118.56,91.16 69.95,91.16 ' style='stroke-width: 1.07; stroke: #333333; stroke-linecap: butt; stroke-linejoin: miter; fill: #FFFFFF;' />
<line x1='69.95' y1='113.75' x2='118.56' y2='113.75' style='stroke-width: 2.13; stroke: #333333; stroke-linecap: butt; stroke-linejoin: miter;' />
<circle cx='159.07' cy='133.78' r='1.95' style='stroke-width: 0.71; stroke: #333333; fill: #333333;' />
<circle cx='159.07' cy='142.86' r='1.95' style='stroke-width: 0.71; stroke: #333333; fill: #333333;' />
<circle cx='159.07' cy='151.25' r='1.95' style='stroke-width: 0.71; stroke: #333333; fill: #333333;' />
<line x1='159.07' y1='91.16' x2='159.07' y2='91.16' style='stroke-width: 1.07; stroke: #333333; stroke-linecap: butt;' />
<line x1='159.07' y1='103.50' x2='159.07' y2='106.07' style='stroke-width: 1.07; stroke: #333333; stroke-linecap: butt;' />
<polygon points='134.76,91.16 134.76,103.50 183.38,103.50 183.38,91.16 134.76,91.16 ' style='stroke-width: 1.07; stroke: #333333; stroke-linecap: butt; stroke-linejoin: miter; fill: #FFFFFF;' />
<line x1='134.76' y1='91.16' x2='183.38' y2='91.16' style='stroke-width: 2.13; stroke: #333333; stroke-linecap: butt; stroke-linejoin: miter;' />
<circle cx='223.89' cy='93.49' r='1.95' style='stroke-width: 0.71; stroke: #333333; fill: #333333;' />
<circle cx='223.89' cy='207.14' r='1.95' style='stroke-width: 0.71; stroke: #333333; fill: #333333;' />
<line x1='223.89' y1='148.92' x2='223.89' y2='140.19' style='stroke-width: 1.07; stroke: #333333; stroke-linecap: butt;' />
<line x1='223.89' y1='167.43' x2='223.89' y2='175.47' style='stroke-width: 1.07; stroke: #333333; stroke-linecap: butt;' />
<polygon points='199.58,148.92 199.58,167.43 248.20,167.43 248.20,148.92 199.58,148.92 ' style='stroke-width: 1.07; stroke: #333333; stroke-linecap: butt; stroke-linejoin: miter; fill: #FFFFFF;' />
<line x1='199.58' y1='157.65' x2='248.20' y2='157.65' style='stroke-width: 2.13; stroke: #333333; stroke-linecap: butt; stroke-linejoin: miter;' />
<circle cx='107.89' cy='91.14' r='1.95' style='stroke-width: 0.71; stroke: #00FF93; stroke-opacity: 0.30; fill: #00FF93; fill-opacity: 0.30;' />
<circle cx='113.54' cy='91.16' r='1.95' style='stroke-width: 0.71; stroke: #00FF93; stroke-opacity: 0.30; fill: #00FF93; fill-opacity: 0.30;' />
<circle cx='74.96' cy='91.14' r='1.95' style='stroke-width: 0.71; stroke: #00FF93; stroke-opacity: 0.30; fill: #00FF93; fill-opacity: 0.30;' />
<circle cx='118.66' cy='133.16' r='1.95' style='stroke-width: 0.71; stroke: #00FF93; stroke-opacity: 0.30; fill: #00FF93; fill-opacity: 0.30;' />
<circle cx='114.84' cy='160.41' r='1.95' style='stroke-width: 0.71; stroke: #00FF93; stroke-opacity: 0.30; fill: #00FF93; fill-opacity: 0.30;' />
<circle cx='93.50' cy='137.27' r='1.95' style='stroke-width: 0.71; stroke: #00FF93; stroke-opacity: 0.30; fill: #00FF93; fill-opacity: 0.30;' />
<circle cx='95.26' cy='158.43' r='1.95' style='stroke-width: 0.71; stroke: #00FF93; stroke-opacity: 0.30; fill: #00FF93; fill-opacity: 0.30;' />
<circle cx='99.87' cy='152.57' r='1.95' style='stroke-width: 0.71; stroke: #00FF93; stroke-opacity: 0.30; fill: #00FF93; fill-opacity: 0.30;' />
<circle cx='71.77' cy='138.91' r='1.95' style='stroke-width: 0.71; stroke: #00FF93; stroke-opacity: 0.30; fill: #00FF93; fill-opacity: 0.30;' />
<circle cx='90.78' cy='124.32' r='1.95' style='stroke-width: 0.71; stroke: #00FF93; stroke-opacity: 0.30; fill: #00FF93; fill-opacity: 0.30;' />
<circle cx='84.76' cy='91.18' r='1.95' style='stroke-width: 0.71; stroke: #00FF93; stroke-opacity: 0.30; fill: #00FF93; fill-opacity: 0.30;' />
<circle cx='103.83' cy='93.62' r='1.95' style='stroke-width: 0.71; stroke: #00FF93; stroke-opacity: 0.30; fill: #00FF93; fill-opacity: 0.30;' />
<circle cx='112.65' cy='91.14' r='1.95' style='stroke-width: 0.71; stroke: #00FF93; stroke-opacity: 0.30; fill: #00FF93; fill-opacity: 0.30;' />
<circle cx='109.81' cy='113.71' r='1.95' style='stroke-width: 0.71; stroke: #00FF93; stroke-opacity: 0.30; fill: #00FF93; fill-opacity: 0.30;' />
<circle cx='111.81' cy='91.17' r='1.95' style='stroke-width: 0.71; stroke: #00FF93; stroke-opacity: 0.30; fill: #00FF93; fill-opacity: 0.30;' />
<circle cx='166.73' cy='91.17' r='1.95' style='stroke-width: 0.71; stroke: #FFC300; stroke-opacity: 0.30; fill: #FFC300; fill-opacity: 0.30;' />
<circle cx='183.06' cy='91.12' r='1.95' style='stroke-width: 0.71; stroke: #FFC300; stroke-opacity: 0.30; fill: #FFC300; fill-opacity: 0.30;' />
<circle cx='136.85' cy='91.17' r='1.95' style='stroke-width: 0.71; stroke: #FFC300; stroke-opacity: 0.30; fill: #FFC300; fill-opacity: 0.30;' />
<circle cx='146.97' cy='106.03' r='1.95' style='stroke-width: 0.71; stroke: #FFC300; stroke-opacity: 0.30; fill: #FFC300; fill-opacity: 0.30;' />
<circle cx='136.36' cy='91.17' r='1.95' style='stroke-width: 0.71; stroke: #FFC300; stroke-opacity: 0.30; fill: #FFC300; fill-opacity: 0.30;' />
<circle cx='152.31' cy='91.17' r='1.95' style='stroke-width: 0.71; stroke: #FFC300; stroke-opacity: 0.30; fill: #FFC300; fill-opacity: 0.30;' />
<circle cx='148.50' cy='91.18' r='1.95' style='stroke-width: 0.71; stroke: #FFC300; stroke-opacity: 0.30; fill: #FFC300; fill-opacity: 0.30;' />
<circle cx='139.80' cy='106.05' r='1.95' style='stroke-width: 0.71; stroke: #FFC300; stroke-opacity: 0.30; fill: #FFC300; fill-opacity: 0.30;' />
<circle cx='154.37' cy='91.14' r='1.95' style='stroke-width: 0.71; stroke: #FFC300; stroke-opacity: 0.30; fill: #FFC300; fill-opacity: 0.30;' />
<circle cx='140.06' cy='91.13' r='1.95' style='stroke-width: 0.71; stroke: #FFC300; stroke-opacity: 0.30; fill: #FFC300; fill-opacity: 0.30;' />
<circle cx='167.97' cy='91.19' r='1.95' style='stroke-width: 0.71; stroke: #FFC300; stroke-opacity: 0.30; fill: #FFC300; fill-opacity: 0.30;' />
<circle cx='138.30' cy='106.11' r='1.95' style='stroke-width: 0.71; stroke: #FFC300; stroke-opacity: 0.30; fill: #FFC300; fill-opacity: 0.30;' />
<circle cx='161.94' cy='91.25' r='1.95' style='stroke-width: 0.71; stroke: #FFC300; stroke-opacity: 0.30; fill: #FFC300; fill-opacity: 0.30;' />
<circle cx='168.08' cy='91.19' r='1.95' style='stroke-width: 0.71; stroke: #FFC300; stroke-opacity: 0.30; fill: #FFC300; fill-opacity: 0.30;' />
<circle cx='145.94' cy='103.52' r='1.95' style='stroke-width: 0.71; stroke: #FFC300; stroke-opacity: 0.30; fill: #FFC300; fill-opacity: 0.30;' />
<circle cx='179.31' cy='133.76' r='1.95' style='stroke-width: 0.71; stroke: #FFC300; stroke-opacity: 0.30; fill: #FFC300; fill-opacity: 0.30;' />
<circle cx='140.73' cy='91.17' r='1.95' style='stroke-width: 0.71; stroke: #FFC300; stroke-opacity: 0.30; fill: #FFC300; fill-opacity: 0.30;' />
<circle cx='172.58' cy='93.29' r='1.95' style='stroke-width: 0.71; stroke: #FFC300; stroke-opacity: 0.30; fill: #FFC300; fill-opacity: 0.30;' />
<circle cx='180.83' cy='91.19' r='1.95' style='stroke-width: 0.71; stroke: #FFC300; stroke-opacity: 0.30; fill: #FFC300; fill-opacity: 0.30;' />
<circle cx='156.56' cy='142.87' r='1.95' style='stroke-width: 0.71; stroke: #FFC300; stroke-opacity: 0.30; fill: #FFC300; fill-opacity: 0.30;' />
<circle cx='138.92' cy='151.24' r='1.95' style='stroke-width: 0.71; stroke: #FFC300; stroke-opacity: 0.30; fill: #FFC300; fill-opacity: 0.30;' />
<circle cx='140.03' cy='91.18' r='1.95' style='stroke-width: 0.71; stroke: #FFC300; stroke-opacity: 0.30; fill: #FFC300; fill-opacity: 0.30;' />
<circle cx='184.77' cy='91.18' r='1.95' style='stroke-width: 0.71; stroke: #FFC300; stroke-opacity: 0.30; fill: #FFC300; fill-opacity: 0.30;' />
<circle cx='171.33' cy='91.15' r='1.95' style='stroke-width: 0.71; stroke: #FFC300; stroke-opacity: 0.30; fill: #FFC300; fill-opacity: 0.30;' />
<circle cx='135.66' cy='91.12' r='1.95' style='stroke-width: 0.71; stroke: #FFC300; stroke-opacity: 0.30; fill: #FFC300; fill-opacity: 0.30;' />
<circle cx='247.97' cy='93.50' r='1.95' style='stroke-width: 0.71; stroke: #F11212; stroke-opacity: 0.30; fill: #F11212; fill-opacity: 0.30;' />
<circle cx='201.12' cy='157.68' r='1.95' style='stroke-width: 0.71; stroke: #F11212; stroke-opacity: 0.30; fill: #F11212; fill-opacity: 0.30;' />
<circle cx='239.33' cy='157.68' r='1.95' style='stroke-width: 0.71; stroke: #F11212; stroke-opacity: 0.30; fill: #F11212; fill-opacity: 0.30;' />
<circle cx='248.18' cy='159.36' r='1.95' style='stroke-width: 0.71; stroke: #F11212; stroke-opacity: 0.30; fill: #F11212; fill-opacity: 0.30;' />
<circle cx='229.27' cy='175.44' r='1.95' style='stroke-width: 0.71; stroke: #F11212; stroke-opacity: 0.30; fill: #F11212; fill-opacity: 0.30;' />
<circle cx='231.91' cy='140.15' r='1.95' style='stroke-width: 0.71; stroke: #F11212; stroke-opacity: 0.30; fill: #F11212; fill-opacity: 0.30;' />
<circle cx='211.54' cy='207.18' r='1.95' style='stroke-width: 0.71; stroke: #F11212; stroke-opacity: 0.30; fill: #F11212; fill-opacity: 0.30;' />
<rect x='55.36' y='85.31' width='207.42' height='127.67' style='stroke-width: 1.07; stroke: #333333;' />
</g>
<g clip-path='url(#cpMC4wMHw1MDQuMDB8MC4wMHwzNjAuMDA=)'>
</g>
<defs>
  <clipPath id='cpNTUuMzZ8MjYyLjc4fDIxOC40NnwzNDYuMTM='>
    <rect x='55.36' y='218.46' width='207.42' height='127.67' />
  </clipPath>
</defs>
<g clip-path='url(#cpNTUuMzZ8MjYyLjc4fDIxOC40NnwzNDYuMTM=)'>
<rect x='55.36' y='218.46' width='207.42' height='127.67' style='stroke-width: 1.07; stroke: none; fill: #FFFFFF;' />
<polyline points='55.36,326.20 262.78,326.20 ' style='stroke-width: 0.53; stroke: #EBEBEB; stroke-linecap: butt;' />
<polyline points='55.36,297.09 262.78,297.09 ' style='stroke-width: 0.53; stroke: #EBEBEB; stroke-linecap: butt;' />
<polyline points='55.36,267.98 262.78,267.98 ' style='stroke-width: 0.53; stroke: #EBEBEB; stroke-linecap: butt;' />
<polyline points='55.36,238.86 262.78,238.86 ' style='stroke-width: 0.53; stroke: #EBEBEB; stroke-linecap: butt;' />
<polyline points='55.36,340.76 262.78,340.76 ' style='stroke-width: 1.07; stroke: #EBEBEB; stroke-linecap: butt;' />
<polyline points='55.36,311.64 262.78,311.64 ' style='stroke-width: 1.07; stroke: #EBEBEB; stroke-linecap: butt;' />
<polyline points='55.36,282.53 262.78,282.53 ' style='stroke-width: 1.07; stroke: #EBEBEB; stroke-linecap: butt;' />
<polyline points='55.36,253.42 262.78,253.42 ' style='stroke-width: 1.07; stroke: #EBEBEB; stroke-linecap: butt;' />
<polyline points='55.36,224.31 262.78,224.31 ' style='stroke-width: 1.07; stroke: #EBEBEB; stroke-linecap: butt;' />
<polyline points='94.25,346.13 94.25,218.46 ' style='stroke-width: 1.07; stroke: #EBEBEB; stroke-linecap: butt;' />
<polyline points='159.07,346.13 159.07,218.46 ' style='stroke-width: 1.07; stroke: #EBEBEB; stroke-linecap: butt;' />
<polyline points='223.89,346.13 223.89,218.46 ' style='stroke-width: 1.07; stroke: #EBEBEB; stroke-linecap: butt;' />
<line x1='94.25' y1='224.31' x2='94.25' y2='224.31' style='stroke-width: 1.07; stroke: #333333; stroke-linecap: butt;' />
<line x1='94.25' y1='261.69' x2='94.25' y2='267.16' style='stroke-width: 1.07; stroke: #333333; stroke-linecap: butt;' />
<polygon points='69.95,224.31 69.95,261.69 118.56,261.69 118.56,224.31 69.95,224.31 ' style='stroke-width: 1.07; stroke: #333333; stroke-linecap: butt; stroke-linejoin: miter; fill: #FFFFFF;' />
<line x1='69.95' y1='226.64' x2='118.56' y2='226.64' style='stroke-width: 2.13; stroke: #333333; stroke-linecap: butt; stroke-linejoin: miter;' />
<line x1='159.07' y1='237.67' x2='159.07' y2='224.31' style='stroke-width: 1.07; stroke: #333333; stroke-linecap: butt;' />
<line x1='159.07' y1='274.56' x2='159.07' y2='329.23' style='stroke-width: 1.07; stroke: #333333; stroke-linecap: butt;' />
<polygon points='134.76,237.67 134.76,274.56 183.38,274.56 183.38,237.67 134.76,237.67 ' style='stroke-width: 1.07; stroke: #333333; stroke-linecap: butt; stroke-linejoin: miter; fill: #FFFFFF;' />
<line x1='134.76' y1='250.16' x2='183.38' y2='250.16' style='stroke-width: 2.13; stroke: #333333; stroke-linecap: butt; stroke-linejoin: miter;' />
<circle cx='223.89' cy='299.65' r='1.95' style='stroke-width: 0.71; stroke: #333333; fill: #333333;' />
<line x1='223.89' y1='225.97' x2='223.89' y2='224.66' style='stroke-width: 1.07; stroke: #333333; stroke-linecap: butt;' />
<line x1='223.89' y1='247.25' x2='223.89' y2='247.25' style='stroke-width: 1.07; stroke: #333333; stroke-linecap: butt;' />
<polygon points='199.58,225.97 199.58,247.25 248.20,247.25 248.20,225.97 199.58,225.97 ' style='stroke-width: 1.07; stroke: #333333; stroke-linecap: butt; stroke-linejoin: miter; fill: #FFFFFF;' />
<line x1='199.58' y1='228.09' x2='248.20' y2='228.09' style='stroke-width: 2.13; stroke: #333333; stroke-linecap: butt; stroke-linejoin: miter;' />
<circle cx='85.31' cy='267.21' r='1.95' style='stroke-width: 0.71; stroke: #00FF93; stroke-opacity: 0.30; fill: #00FF93; fill-opacity: 0.30;' />
<circle cx='90.91' cy='226.67' r='1.95' style='stroke-width: 0.71; stroke: #00FF93; stroke-opacity: 0.30; fill: #00FF93; fill-opacity: 0.30;' />
<circle cx='74.91' cy='261.71' r='1.95' style='stroke-width: 0.71; stroke: #00FF93; stroke-opacity: 0.30; fill: #00FF93; fill-opacity: 0.30;' />
<circle cx='106.50' cy='224.31' r='1.95' style='stroke-width: 0.71; stroke: #00FF93; stroke-opacity: 0.30; fill: #00FF93; fill-opacity: 0.30;' />
<circle cx='120.13' cy='224.32' r='1.95' style='stroke-width: 0.71; stroke: #00FF93; stroke-opacity: 0.30; fill: #00FF93; fill-opacity: 0.30;' />
<circle cx='133.36' cy='224.30' r='1.95' style='stroke-width: 0.71; stroke: #FFC300; stroke-opacity: 0.30; fill: #FFC300; fill-opacity: 0.30;' />
<circle cx='162.61' cy='224.27' r='1.95' style='stroke-width: 0.71; stroke: #FFC300; stroke-opacity: 0.30; fill: #FFC300; fill-opacity: 0.30;' />
<circle cx='156.99' cy='224.34' r='1.95' style='stroke-width: 0.71; stroke: #FFC300; stroke-opacity: 0.30; fill: #FFC300; fill-opacity: 0.30;' />
<circle cx='157.68' cy='256.35' r='1.95' style='stroke-width: 0.71; stroke: #FFC300; stroke-opacity: 0.30; fill: #FFC300; fill-opacity: 0.30;' />
<circle cx='151.28' cy='329.27' r='1.95' style='stroke-width: 0.71; stroke: #FFC300; stroke-opacity: 0.30; fill: #FFC300; fill-opacity: 0.30;' />
<circle cx='151.11' cy='244.11' r='1.95' style='stroke-width: 0.71; stroke: #FFC300; stroke-opacity: 0.30; fill: #FFC300; fill-opacity: 0.30;' />
<circle cx='173.84' cy='256.33' r='1.95' style='stroke-width: 0.71; stroke: #FFC300; stroke-opacity: 0.30; fill: #FFC300; fill-opacity: 0.30;' />
<circle cx='153.98' cy='329.20' r='1.95' style='stroke-width: 0.71; stroke: #FFC300; stroke-opacity: 0.30; fill: #FFC300; fill-opacity: 0.30;' />
<circle cx='146.45' cy='242.91' r='1.95' style='stroke-width: 0.71; stroke: #FFC300; stroke-opacity: 0.30; fill: #FFC300; fill-opacity: 0.30;' />
<circle cx='158.22' cy='256.20' r='1.95' style='stroke-width: 0.71; stroke: #FFC300; stroke-opacity: 0.30; fill: #FFC300; fill-opacity: 0.30;' />
<circle cx='137.91' cy='329.21' r='1.95' style='stroke-width: 0.71; stroke: #FFC300; stroke-opacity: 0.30; fill: #FFC300; fill-opacity: 0.30;' />
<circle cx='183.30' cy='242.08' r='1.95' style='stroke-width: 0.71; stroke: #FFC300; stroke-opacity: 0.30; fill: #FFC300; fill-opacity: 0.30;' />
<circle cx='249.06' cy='299.66' r='1.95' style='stroke-width: 0.71; stroke: #F11212; stroke-opacity: 0.30; fill: #F11212; fill-opacity: 0.30;' />
<circle cx='244.38' cy='226.40' r='1.95' style='stroke-width: 0.71; stroke: #F11212; stroke-opacity: 0.30; fill: #F11212; fill-opacity: 0.30;' />
<circle cx='212.32' cy='229.82' r='1.95' style='stroke-width: 0.71; stroke: #F11212; stroke-opacity: 0.30; fill: #F11212; fill-opacity: 0.30;' />
<circle cx='204.44' cy='224.63' r='1.95' style='stroke-width: 0.71; stroke: #F11212; stroke-opacity: 0.30; fill: #F11212; fill-opacity: 0.30;' />
<rect x='55.36' y='218.46' width='207.42' height='127.67' style='stroke-width: 1.07; stroke: #333333;' />
</g>
<g clip-path='url(#cpMC4wMHw1MDQuMDB8MC4wMHwzNjAuMDA=)'>
</g>
<defs>
  <clipPath id='cpMjY4LjI2fDQ3NS42OHw4NS4zMXwyMTIuOTg='>
    <rect x='268.26' y='85.31' width='207.42' height='127.67' />
  </clipPath>
</defs>
<g clip-path='url(#cpMjY4LjI2fDQ3NS42OHw4NS4zMXwyMTIuOTg=)'>
<rect x='268.26' y='85.31' width='207.42' height='127.67' style='stroke-width: 1.07; stroke: none; fill: #FFFFFF;' />
<polyline points='268.26,193.05 475.68,193.05 ' style='stroke-width: 0.53; stroke: #EBEBEB; stroke-linecap: butt;' />
<polyline points='268.26,163.94 475.68,163.94 ' style='stroke-width: 0.53; stroke: #EBEBEB; stroke-linecap: butt;' />
<polyline points='268.26,134.83 475.68,134.83 ' style='stroke-width: 0.53; stroke: #EBEBEB; stroke-linecap: butt;' />
<polyline points='268.26,105.72 475.68,105.72 ' style='stroke-width: 0.53; stroke: #EBEBEB; stroke-linecap: butt;' />
<polyline points='268.26,207.61 475.68,207.61 ' style='stroke-width: 1.07; stroke: #EBEBEB; stroke-linecap: butt;' />
<polyline points='268.26,178.50 475.68,178.50 ' style='stroke-width: 1.07; stroke: #EBEBEB; stroke-linecap: butt;' />
<polyline points='268.26,149.39 475.68,149.39 ' style='stroke-width: 1.07; stroke: #EBEBEB; stroke-linecap: butt;' />
<polyline points='268.26,120.27 475.68,120.27 ' style='stroke-width: 1.07; stroke: #EBEBEB; stroke-linecap: butt;' />
<polyline points='268.26,91.16 475.68,91.16 ' style='stroke-width: 1.07; stroke: #EBEBEB; stroke-linecap: butt;' />
<polyline points='307.15,212.98 307.15,85.31 ' style='stroke-width: 1.07; stroke: #EBEBEB; stroke-linecap: butt;' />
<polyline points='371.97,212.98 371.97,85.31 ' style='stroke-width: 1.07; stroke: #EBEBEB; stroke-linecap: butt;' />
<polyline points='436.79,212.98 436.79,85.31 ' style='stroke-width: 1.07; stroke: #EBEBEB; stroke-linecap: butt;' />
<line x1='307.15' y1='99.66' x2='307.15' y2='91.16' style='stroke-width: 1.07; stroke: #333333; stroke-linecap: butt;' />
<line x1='307.15' y1='126.33' x2='307.15' y2='149.04' style='stroke-width: 1.07; stroke: #333333; stroke-linecap: butt;' />
<polygon points='282.85,99.66 282.85,126.33 331.46,126.33 331.46,99.66 282.85,99.66 ' style='stroke-width: 1.07; stroke: #333333; stroke-linecap: butt; stroke-linejoin: miter; fill: #FFFFFF;' />
<line x1='282.85' y1='100.59' x2='331.46' y2='100.59' style='stroke-width: 2.13; stroke: #333333; stroke-linecap: butt; stroke-linejoin: miter;' />
<line x1='371.97' y1='116.08' x2='371.97' y2='94.07' style='stroke-width: 1.07; stroke: #333333; stroke-linecap: butt;' />
<line x1='371.97' y1='160.10' x2='371.97' y2='183.97' style='stroke-width: 1.07; stroke: #333333; stroke-linecap: butt;' />
<polygon points='347.67,116.08 347.67,160.10 396.28,160.10 396.28,116.08 347.67,116.08 ' style='stroke-width: 1.07; stroke: #333333; stroke-linecap: butt; stroke-linejoin: miter; fill: #FFFFFF;' />
<line x1='347.67' y1='143.10' x2='396.28' y2='143.10' style='stroke-width: 2.13; stroke: #333333; stroke-linecap: butt; stroke-linejoin: miter;' />
<line x1='436.79' y1='98.50' x2='436.79' y2='97.92' style='stroke-width: 1.07; stroke: #333333; stroke-linecap: butt;' />
<line x1='436.79' y1='140.94' x2='436.79' y2='201.79' style='stroke-width: 1.07; stroke: #333333; stroke-linecap: butt;' />
<polygon points='412.48,98.50 412.48,140.94 461.10,140.94 461.10,98.50 412.48,98.50 ' style='stroke-width: 1.07; stroke: #333333; stroke-linecap: butt; stroke-linejoin: miter; fill: #FFFFFF;' />
<line x1='412.48' y1='99.78' x2='461.10' y2='99.78' style='stroke-width: 2.13; stroke: #333333; stroke-linecap: butt; stroke-linejoin: miter;' />
<circle cx='328.26' cy='132.31' r='1.95' style='stroke-width: 0.71; stroke: #00FF93; stroke-opacity: 0.30; fill: #00FF93; fill-opacity: 0.30;' />
<circle cx='294.36' cy='99.88' r='1.95' style='stroke-width: 0.71; stroke: #00FF93; stroke-opacity: 0.30; fill: #00FF93; fill-opacity: 0.30;' />
<circle cx='311.79' cy='91.19' r='1.95' style='stroke-width: 0.71; stroke: #00FF93; stroke-opacity: 0.30; fill: #00FF93; fill-opacity: 0.30;' />
<circle cx='310.52' cy='146.83' r='1.95' style='stroke-width: 0.71; stroke: #00FF93; stroke-opacity: 0.30; fill: #00FF93; fill-opacity: 0.30;' />
<circle cx='327.03' cy='100.59' r='1.95' style='stroke-width: 0.71; stroke: #00FF93; stroke-opacity: 0.30; fill: #00FF93; fill-opacity: 0.30;' />
<circle cx='328.55' cy='142.61' r='1.95' style='stroke-width: 0.71; stroke: #00FF93; stroke-opacity: 0.30; fill: #00FF93; fill-opacity: 0.30;' />
<circle cx='289.70' cy='100.47' r='1.95' style='stroke-width: 0.71; stroke: #00FF93; stroke-opacity: 0.30; fill: #00FF93; fill-opacity: 0.30;' />
<circle cx='323.19' cy='105.06' r='1.95' style='stroke-width: 0.71; stroke: #00FF93; stroke-opacity: 0.30; fill: #00FF93; fill-opacity: 0.30;' />
<circle cx='290.45' cy='100.64' r='1.95' style='stroke-width: 0.71; stroke: #00FF93; stroke-opacity: 0.30; fill: #00FF93; fill-opacity: 0.30;' />
<circle cx='304.28' cy='98.64' r='1.95' style='stroke-width: 0.71; stroke: #00FF93; stroke-opacity: 0.30; fill: #00FF93; fill-opacity: 0.30;' />
<circle cx='316.57' cy='99.70' r='1.95' style='stroke-width: 0.71; stroke: #00FF93; stroke-opacity: 0.30; fill: #00FF93; fill-opacity: 0.30;' />
<circle cx='323.98' cy='101.65' r='1.95' style='stroke-width: 0.71; stroke: #00FF93; stroke-opacity: 0.30; fill: #00FF93; fill-opacity: 0.30;' />
<circle cx='320.23' cy='149.07' r='1.95' style='stroke-width: 0.71; stroke: #00FF93; stroke-opacity: 0.30; fill: #00FF93; fill-opacity: 0.30;' />
<circle cx='323.39' cy='95.21' r='1.95' style='stroke-width: 0.71; stroke: #00FF93; stroke-opacity: 0.30; fill: #00FF93; fill-opacity: 0.30;' />
<circle cx='299.52' cy='121.86' r='1.95' style='stroke-width: 0.71; stroke: #00FF93; stroke-opacity: 0.30; fill: #00FF93; fill-opacity: 0.30;' />
<circle cx='303.61' cy='126.37' r='1.95' style='stroke-width: 0.71; stroke: #00FF93; stroke-opacity: 0.30; fill: #00FF93; fill-opacity: 0.30;' />
<circle cx='307.13' cy='97.82' r='1.95' style='stroke-width: 0.71; stroke: #00FF93; stroke-opacity: 0.30; fill: #00FF93; fill-opacity: 0.30;' />
<circle cx='394.64' cy='106.22' r='1.95' style='stroke-width: 0.71; stroke: #FFC300; stroke-opacity: 0.30; fill: #FFC300; fill-opacity: 0.30;' />
<circle cx='388.72' cy='143.10' r='1.95' style='stroke-width: 0.71; stroke: #FFC300; stroke-opacity: 0.30; fill: #FFC300; fill-opacity: 0.30;' />
<circle cx='376.95' cy='183.86' r='1.95' style='stroke-width: 0.71; stroke: #FFC300; stroke-opacity: 0.30; fill: #FFC300; fill-opacity: 0.30;' />
<circle cx='353.49' cy='143.06' r='1.95' style='stroke-width: 0.71; stroke: #FFC300; stroke-opacity: 0.30; fill: #FFC300; fill-opacity: 0.30;' />
<circle cx='364.20' cy='183.87' r='1.95' style='stroke-width: 0.71; stroke: #FFC300; stroke-opacity: 0.30; fill: #FFC300; fill-opacity: 0.30;' />
<circle cx='362.28' cy='143.09' r='1.95' style='stroke-width: 0.71; stroke: #FFC300; stroke-opacity: 0.30; fill: #FFC300; fill-opacity: 0.30;' />
<circle cx='352.44' cy='184.01' r='1.95' style='stroke-width: 0.71; stroke: #FFC300; stroke-opacity: 0.30; fill: #FFC300; fill-opacity: 0.30;' />
<circle cx='394.44' cy='121.54' r='1.95' style='stroke-width: 0.71; stroke: #FFC300; stroke-opacity: 0.30; fill: #FFC300; fill-opacity: 0.30;' />
<circle cx='389.48' cy='138.98' r='1.95' style='stroke-width: 0.71; stroke: #FFC300; stroke-opacity: 0.30; fill: #FFC300; fill-opacity: 0.30;' />
<circle cx='374.58' cy='101.67' r='1.95' style='stroke-width: 0.71; stroke: #FFC300; stroke-opacity: 0.30; fill: #FFC300; fill-opacity: 0.30;' />
<circle cx='393.65' cy='159.72' r='1.95' style='stroke-width: 0.71; stroke: #FFC300; stroke-opacity: 0.30; fill: #FFC300; fill-opacity: 0.30;' />
<circle cx='392.53' cy='160.45' r='1.95' style='stroke-width: 0.71; stroke: #FFC300; stroke-opacity: 0.30; fill: #FFC300; fill-opacity: 0.30;' />
<circle cx='370.71' cy='117.33' r='1.95' style='stroke-width: 0.71; stroke: #FFC300; stroke-opacity: 0.30; fill: #FFC300; fill-opacity: 0.30;' />
<circle cx='380.13' cy='114.76' r='1.95' style='stroke-width: 0.71; stroke: #FFC300; stroke-opacity: 0.30; fill: #FFC300; fill-opacity: 0.30;' />
<circle cx='382.64' cy='94.05' r='1.95' style='stroke-width: 0.71; stroke: #FFC300; stroke-opacity: 0.30; fill: #FFC300; fill-opacity: 0.30;' />
<circle cx='454.25' cy='97.87' r='1.95' style='stroke-width: 0.71; stroke: #F11212; stroke-opacity: 0.30; fill: #F11212; fill-opacity: 0.30;' />
<circle cx='446.69' cy='99.62' r='1.95' style='stroke-width: 0.71; stroke: #F11212; stroke-opacity: 0.30; fill: #F11212; fill-opacity: 0.30;' />
<circle cx='439.63' cy='98.46' r='1.95' style='stroke-width: 0.71; stroke: #F11212; stroke-opacity: 0.30; fill: #F11212; fill-opacity: 0.30;' />
<circle cx='451.93' cy='99.78' r='1.95' style='stroke-width: 0.71; stroke: #F11212; stroke-opacity: 0.30; fill: #F11212; fill-opacity: 0.30;' />
<circle cx='431.64' cy='98.46' r='1.95' style='stroke-width: 0.71; stroke: #F11212; stroke-opacity: 0.30; fill: #F11212; fill-opacity: 0.30;' />
<circle cx='429.73' cy='103.55' r='1.95' style='stroke-width: 0.71; stroke: #F11212; stroke-opacity: 0.30; fill: #F11212; fill-opacity: 0.30;' />
<circle cx='456.46' cy='98.47' r='1.95' style='stroke-width: 0.71; stroke: #F11212; stroke-opacity: 0.30; fill: #F11212; fill-opacity: 0.30;' />
<circle cx='436.15' cy='184.06' r='1.95' style='stroke-width: 0.71; stroke: #F11212; stroke-opacity: 0.30; fill: #F11212; fill-opacity: 0.30;' />
<circle cx='452.30' cy='178.38' r='1.95' style='stroke-width: 0.71; stroke: #F11212; stroke-opacity: 0.30; fill: #F11212; fill-opacity: 0.30;' />
<circle cx='428.05' cy='101.49' r='1.95' style='stroke-width: 0.71; stroke: #F11212; stroke-opacity: 0.30; fill: #F11212; fill-opacity: 0.30;' />
<circle cx='437.28' cy='201.76' r='1.95' style='stroke-width: 0.71; stroke: #F11212; stroke-opacity: 0.30; fill: #F11212; fill-opacity: 0.30;' />
<rect x='268.26' y='85.31' width='207.42' height='127.67' style='stroke-width: 1.07; stroke: #333333;' />
</g>
<g clip-path='url(#cpMC4wMHw1MDQuMDB8MC4wMHwzNjAuMDA=)'>
</g>
<defs>
  <clipPath id='cpMjY4LjI2fDQ3NS42OHwyMTguNDZ8MzQ2LjEz'>
    <rect x='268.26' y='218.46' width='207.42' height='127.67' />
  </clipPath>
</defs>
<g clip-path='url(#cpMjY4LjI2fDQ3NS42OHwyMTguNDZ8MzQ2LjEz)'>
<rect x='268.26' y='218.46' width='207.42' height='127.67' style='stroke-width: 1.07; stroke: none; fill: #FFFFFF;' />
<polyline points='268.26,326.20 475.68,326.20 ' style='stroke-width: 0.53; stroke: #EBEBEB; stroke-linecap: butt;' />
<polyline points='268.26,297.09 475.68,297.09 ' style='stroke-width: 0.53; stroke: #EBEBEB; stroke-linecap: butt;' />
<polyline points='268.26,267.98 475.68,267.98 ' style='stroke-width: 0.53; stroke: #EBEBEB; stroke-linecap: butt;' />
<polyline points='268.26,238.86 475.68,238.86 ' style='stroke-width: 0.53; stroke: #EBEBEB; stroke-linecap: butt;' />
<polyline points='268.26,340.76 475.68,340.76 ' style='stroke-width: 1.07; stroke: #EBEBEB; stroke-linecap: butt;' />
<polyline points='268.26,311.64 475.68,311.64 ' style='stroke-width: 1.07; stroke: #EBEBEB; stroke-linecap: butt;' />
<polyline points='268.26,282.53 475.68,282.53 ' style='stroke-width: 1.07; stroke: #EBEBEB; stroke-linecap: butt;' />
<polyline points='268.26,253.42 475.68,253.42 ' style='stroke-width: 1.07; stroke: #EBEBEB; stroke-linecap: butt;' />
<polyline points='268.26,224.31 475.68,224.31 ' style='stroke-width: 1.07; stroke: #EBEBEB; stroke-linecap: butt;' />
<polyline points='307.15,346.13 307.15,218.46 ' style='stroke-width: 1.07; stroke: #EBEBEB; stroke-linecap: butt;' />
<polyline points='371.97,346.13 371.97,218.46 ' style='stroke-width: 1.07; stroke: #EBEBEB; stroke-linecap: butt;' />
<polyline points='436.79,346.13 436.79,218.46 ' style='stroke-width: 1.07; stroke: #EBEBEB; stroke-linecap: butt;' />
<line x1='307.15' y1='230.95' x2='307.15' y2='228.15' style='stroke-width: 1.07; stroke: #333333; stroke-linecap: butt;' />
<line x1='307.15' y1='244.80' x2='307.15' y2='256.33' style='stroke-width: 1.07; stroke: #333333; stroke-linecap: butt;' />
<polygon points='282.85,230.95 282.85,244.80 331.46,244.80 331.46,230.95 282.85,230.95 ' style='stroke-width: 1.07; stroke: #333333; stroke-linecap: butt; stroke-linejoin: miter; fill: #FFFFFF;' />
<line x1='282.85' y1='231.30' x2='331.46' y2='231.30' style='stroke-width: 2.13; stroke: #333333; stroke-linecap: butt; stroke-linejoin: miter;' />
<line x1='371.97' y1='250.39' x2='371.97' y2='228.15' style='stroke-width: 1.07; stroke: #333333; stroke-linecap: butt;' />
<line x1='371.97' y1='310.48' x2='371.97' y2='310.48' style='stroke-width: 1.07; stroke: #333333; stroke-linecap: butt;' />
<polygon points='347.67,250.39 347.67,310.48 396.28,310.48 396.28,250.39 347.67,250.39 ' style='stroke-width: 1.07; stroke: #333333; stroke-linecap: butt; stroke-linejoin: miter; fill: #FFFFFF;' />
<line x1='347.67' y1='286.37' x2='396.28' y2='286.37' style='stroke-width: 2.13; stroke: #333333; stroke-linecap: butt; stroke-linejoin: miter;' />
<line x1='436.79' y1='227.74' x2='436.79' y2='224.54' style='stroke-width: 1.07; stroke: #333333; stroke-linecap: butt;' />
<line x1='436.79' y1='242.71' x2='436.79' y2='246.43' style='stroke-width: 1.07; stroke: #333333; stroke-linecap: butt;' />
<polygon points='412.48,227.74 412.48,242.71 461.10,242.71 461.10,227.74 412.48,227.74 ' style='stroke-width: 1.07; stroke: #333333; stroke-linecap: butt; stroke-linejoin: miter; fill: #FFFFFF;' />
<line x1='412.48' y1='228.50' x2='461.10' y2='228.50' style='stroke-width: 2.13; stroke: #333333; stroke-linecap: butt; stroke-linejoin: miter;' />
<circle cx='296.47' cy='228.16' r='1.95' style='stroke-width: 0.71; stroke: #00FF93; stroke-opacity: 0.30; fill: #00FF93; fill-opacity: 0.30;' />
<circle cx='329.35' cy='231.33' r='1.95' style='stroke-width: 0.71; stroke: #00FF93; stroke-opacity: 0.30; fill: #00FF93; fill-opacity: 0.30;' />
<circle cx='287.84' cy='233.05' r='1.95' style='stroke-width: 0.71; stroke: #00FF93; stroke-opacity: 0.30; fill: #00FF93; fill-opacity: 0.30;' />
<circle cx='323.36' cy='234.67' r='1.95' style='stroke-width: 0.71; stroke: #00FF93; stroke-opacity: 0.30; fill: #00FF93; fill-opacity: 0.30;' />
<circle cx='314.39' cy='228.73' r='1.95' style='stroke-width: 0.71; stroke: #00FF93; stroke-opacity: 0.30; fill: #00FF93; fill-opacity: 0.30;' />
<circle cx='283.90' cy='230.91' r='1.95' style='stroke-width: 0.71; stroke: #00FF93; stroke-opacity: 0.30; fill: #00FF93; fill-opacity: 0.30;' />
<circle cx='314.20' cy='256.30' r='1.95' style='stroke-width: 0.71; stroke: #00FF93; stroke-opacity: 0.30; fill: #00FF93; fill-opacity: 0.30;' />
<circle cx='316.87' cy='231.03' r='1.95' style='stroke-width: 0.71; stroke: #00FF93; stroke-opacity: 0.30; fill: #00FF93; fill-opacity: 0.30;' />
<circle cx='305.28' cy='255.06' r='1.95' style='stroke-width: 0.71; stroke: #00FF93; stroke-opacity: 0.30; fill: #00FF93; fill-opacity: 0.30;' />
<circle cx='319.08' cy='230.97' r='1.95' style='stroke-width: 0.71; stroke: #00FF93; stroke-opacity: 0.30; fill: #00FF93; fill-opacity: 0.30;' />
<circle cx='322.18' cy='254.89' r='1.95' style='stroke-width: 0.71; stroke: #00FF93; stroke-opacity: 0.30; fill: #00FF93; fill-opacity: 0.30;' />
<circle cx='376.43' cy='228.11' r='1.95' style='stroke-width: 0.71; stroke: #FFC300; stroke-opacity: 0.30; fill: #FFC300; fill-opacity: 0.30;' />
<circle cx='365.83' cy='286.36' r='1.95' style='stroke-width: 0.71; stroke: #FFC300; stroke-opacity: 0.30; fill: #FFC300; fill-opacity: 0.30;' />
<circle cx='372.99' cy='286.81' r='1.95' style='stroke-width: 0.71; stroke: #FFC300; stroke-opacity: 0.30; fill: #FFC300; fill-opacity: 0.30;' />
<circle cx='391.54' cy='310.45' r='1.95' style='stroke-width: 0.71; stroke: #FFC300; stroke-opacity: 0.30; fill: #FFC300; fill-opacity: 0.30;' />
<circle cx='393.99' cy='251.77' r='1.95' style='stroke-width: 0.71; stroke: #FFC300; stroke-opacity: 0.30; fill: #FFC300; fill-opacity: 0.30;' />
<circle cx='381.88' cy='310.52' r='1.95' style='stroke-width: 0.71; stroke: #FFC300; stroke-opacity: 0.30; fill: #FFC300; fill-opacity: 0.30;' />
<circle cx='380.70' cy='250.35' r='1.95' style='stroke-width: 0.71; stroke: #FFC300; stroke-opacity: 0.30; fill: #FFC300; fill-opacity: 0.30;' />
<circle cx='376.30' cy='310.45' r='1.95' style='stroke-width: 0.71; stroke: #FFC300; stroke-opacity: 0.30; fill: #FFC300; fill-opacity: 0.30;' />
<circle cx='367.82' cy='250.40' r='1.95' style='stroke-width: 0.71; stroke: #FFC300; stroke-opacity: 0.30; fill: #FFC300; fill-opacity: 0.30;' />
<circle cx='425.14' cy='228.49' r='1.95' style='stroke-width: 0.71; stroke: #F11212; stroke-opacity: 0.30; fill: #F11212; fill-opacity: 0.30;' />
<circle cx='443.63' cy='227.48' r='1.95' style='stroke-width: 0.71; stroke: #F11212; stroke-opacity: 0.30; fill: #F11212; fill-opacity: 0.30;' />
<circle cx='411.28' cy='224.56' r='1.95' style='stroke-width: 0.71; stroke: #F11212; stroke-opacity: 0.30; fill: #F11212; fill-opacity: 0.30;' />
<circle cx='427.85' cy='228.01' r='1.95' style='stroke-width: 0.71; stroke: #F11212; stroke-opacity: 0.30; fill: #F11212; fill-opacity: 0.30;' />
<circle cx='424.57' cy='244.89' r='1.95' style='stroke-width: 0.71; stroke: #F11212; stroke-opacity: 0.30; fill: #F11212; fill-opacity: 0.30;' />
<circle cx='416.46' cy='228.02' r='1.95' style='stroke-width: 0.71; stroke: #F11212; stroke-opacity: 0.30; fill: #F11212; fill-opacity: 0.30;' />
<circle cx='461.26' cy='242.60' r='1.95' style='stroke-width: 0.71; stroke: #F11212; stroke-opacity: 0.30; fill: #F11212; fill-opacity: 0.30;' />
<circle cx='417.13' cy='228.73' r='1.95' style='stroke-width: 0.71; stroke: #F11212; stroke-opacity: 0.30; fill: #F11212; fill-opacity: 0.30;' />
<circle cx='411.76' cy='242.81' r='1.95' style='stroke-width: 0.71; stroke: #F11212; stroke-opacity: 0.30; fill: #F11212; fill-opacity: 0.30;' />
<circle cx='417.71' cy='246.46' r='1.95' style='stroke-width: 0.71; stroke: #F11212; stroke-opacity: 0.30; fill: #F11212; fill-opacity: 0.30;' />
<circle cx='425.44' cy='226.06' r='1.95' style='stroke-width: 0.71; stroke: #F11212; stroke-opacity: 0.30; fill: #F11212; fill-opacity: 0.30;' />
<rect x='268.26' y='218.46' width='207.42' height='127.67' style='stroke-width: 1.07; stroke: #333333;' />
</g>
<g clip-path='url(#cpMC4wMHw1MDQuMDB8MC4wMHwzNjAuMDA=)'>
</g>
<defs>
  <clipPath id='cpNTUuMzZ8MjYyLjc4fDYyLjQ4fDg1LjMx'>
    <rect x='55.36' y='62.48' width='207.42' height='22.84' />
  </clipPath>
</defs>
<g clip-path='url(#cpNTUuMzZ8MjYyLjc4fDYyLjQ4fDg1LjMx)'>
<rect x='55.36' y='62.48' width='207.42' height='22.84' style='stroke-width: 1.07; stroke: #333333; fill: #D9D9D9;' />
<text x='159.07' y='79.28' text-anchor='middle' style='font-size: 15.00px;fill: #1A1A1A; font-family: "Arial";' textLength='60.04px' lengthAdjust='spacingAndGlyphs'>accuracy</text>
</g>
<g clip-path='url(#cpMC4wMHw1MDQuMDB8MC4wMHwzNjAuMDA=)'>
</g>
<defs>
  <clipPath id='cpMjY4LjI2fDQ3NS42OHw2Mi40OHw4NS4zMQ=='>
    <rect x='268.26' y='62.48' width='207.42' height='22.84' />
  </clipPath>
</defs>
<g clip-path='url(#cpMjY4LjI2fDQ3NS42OHw2Mi40OHw4NS4zMQ==)'>
<rect x='268.26' y='62.48' width='207.42' height='22.84' style='stroke-width: 1.07; stroke: #333333; fill: #D9D9D9;' />
<text x='371.97' y='79.28' text-anchor='middle' style='font-size: 15.00px;fill: #1A1A1A; font-family: "Arial";' textLength='92.57px' lengthAdjust='spacingAndGlyphs'>completeness</text>
</g>
<g clip-path='url(#cpMC4wMHw1MDQuMDB8MC4wMHwzNjAuMDA=)'>
</g>
<defs>
  <clipPath id='cpNDc1LjY4fDQ5OC41Mnw4NS4zMXwyMTIuOTg='>
    <rect x='475.68' y='85.31' width='22.84' height='127.67' />
  </clipPath>
</defs>
<g clip-path='url(#cpNDc1LjY4fDQ5OC41Mnw4NS4zMXwyMTIuOTg=)'>
<rect x='475.68' y='85.31' width='22.84' height='127.67' style='stroke-width: 1.07; stroke: #333333; fill: #D9D9D9;' />
<text transform='translate(481.72,149.15) rotate(90)' text-anchor='middle' style='font-size: 15.00px;fill: #1A1A1A; font-family: "Arial";' textLength='89.20px' lengthAdjust='spacingAndGlyphs'>ARG-plasmid</text>
</g>
<g clip-path='url(#cpMC4wMHw1MDQuMDB8MC4wMHwzNjAuMDA=)'>
</g>
<defs>
  <clipPath id='cpNDc1LjY4fDQ5OC41MnwyMTguNDZ8MzQ2LjEz'>
    <rect x='475.68' y='218.46' width='22.84' height='127.67' />
  </clipPath>
</defs>
<g clip-path='url(#cpNDc1LjY4fDQ5OC41MnwyMTguNDZ8MzQ2LjEz)'>
<rect x='475.68' y='218.46' width='22.84' height='127.67' style='stroke-width: 1.07; stroke: #333333; fill: #D9D9D9;' />
<text transform='translate(481.72,282.30) rotate(90)' text-anchor='middle' style='font-size: 15.00px;fill: #1A1A1A; font-family: "Arial";' textLength='119.23px' lengthAdjust='spacingAndGlyphs'>non-ARG-plasmid</text>
</g>
<g clip-path='url(#cpMC4wMHw1MDQuMDB8MC4wMHwzNjAuMDA=)'>
<polyline points='94.25,348.87 94.25,346.13 ' style='stroke-width: 1.07; stroke: #333333; stroke-linecap: butt;' />
<polyline points='159.07,348.87 159.07,346.13 ' style='stroke-width: 1.07; stroke: #333333; stroke-linecap: butt;' />
<polyline points='223.89,348.87 223.89,346.13 ' style='stroke-width: 1.07; stroke: #333333; stroke-linecap: butt;' />
<text transform='translate(94.76,351.57) rotate(-45)' text-anchor='end' style='font-size: 0.00px;fill: #4D4D4D; font-family: "Arial";' textLength='2.94px' lengthAdjust='spacingAndGlyphs'>gplas2</text>
<text transform='translate(159.58,351.57) rotate(-45)' text-anchor='end' style='font-size: 0.00px;fill: #4D4D4D; font-family: "Arial";' textLength='4.72px' lengthAdjust='spacingAndGlyphs'>MOB-suite</text>
<text transform='translate(224.40,351.57) rotate(-45)' text-anchor='end' style='font-size: 0.00px;fill: #4D4D4D; font-family: "Arial";' textLength='7.06px' lengthAdjust='spacingAndGlyphs'>plasmidSPAdes</text>
<polyline points='307.15,348.87 307.15,346.13 ' style='stroke-width: 1.07; stroke: #333333; stroke-linecap: butt;' />
<polyline points='371.97,348.87 371.97,346.13 ' style='stroke-width: 1.07; stroke: #333333; stroke-linecap: butt;' />
<polyline points='436.79,348.87 436.79,346.13 ' style='stroke-width: 1.07; stroke: #333333; stroke-linecap: butt;' />
<text transform='translate(307.66,351.57) rotate(-45)' text-anchor='end' style='font-size: 0.00px;fill: #4D4D4D; font-family: "Arial";' textLength='2.94px' lengthAdjust='spacingAndGlyphs'>gplas2</text>
<text transform='translate(372.48,351.57) rotate(-45)' text-anchor='end' style='font-size: 0.00px;fill: #4D4D4D; font-family: "Arial";' textLength='4.72px' lengthAdjust='spacingAndGlyphs'>MOB-suite</text>
<text transform='translate(437.30,351.57) rotate(-45)' text-anchor='end' style='font-size: 0.00px;fill: #4D4D4D; font-family: "Arial";' textLength='7.06px' lengthAdjust='spacingAndGlyphs'>plasmidSPAdes</text>
<text x='50.43' y='212.27' text-anchor='end' style='font-size: 13.00px;fill: #4D4D4D; font-family: "Arial";' textLength='25.30px' lengthAdjust='spacingAndGlyphs'>0.00</text>
<text x='50.43' y='183.16' text-anchor='end' style='font-size: 13.00px;fill: #4D4D4D; font-family: "Arial";' textLength='25.30px' lengthAdjust='spacingAndGlyphs'>0.25</text>
<text x='50.43' y='154.05' text-anchor='end' style='font-size: 13.00px;fill: #4D4D4D; font-family: "Arial";' textLength='25.30px' lengthAdjust='spacingAndGlyphs'>0.50</text>
<text x='50.43' y='124.94' text-anchor='end' style='font-size: 13.00px;fill: #4D4D4D; font-family: "Arial";' textLength='25.30px' lengthAdjust='spacingAndGlyphs'>0.75</text>
<text x='50.43' y='95.82' text-anchor='end' style='font-size: 13.00px;fill: #4D4D4D; font-family: "Arial";' textLength='25.30px' lengthAdjust='spacingAndGlyphs'>1.00</text>
<polyline points='52.62,207.61 55.36,207.61 ' style='stroke-width: 1.07; stroke: #333333; stroke-linecap: butt;' />
<polyline points='52.62,178.50 55.36,178.50 ' style='stroke-width: 1.07; stroke: #333333; stroke-linecap: butt;' />
<polyline points='52.62,149.39 55.36,149.39 ' style='stroke-width: 1.07; stroke: #333333; stroke-linecap: butt;' />
<polyline points='52.62,120.27 55.36,120.27 ' style='stroke-width: 1.07; stroke: #333333; stroke-linecap: butt;' />
<polyline points='52.62,91.16 55.36,91.16 ' style='stroke-width: 1.07; stroke: #333333; stroke-linecap: butt;' />
<text x='50.43' y='345.42' text-anchor='end' style='font-size: 13.00px;fill: #4D4D4D; font-family: "Arial";' textLength='25.30px' lengthAdjust='spacingAndGlyphs'>0.00</text>
<text x='50.43' y='316.31' text-anchor='end' style='font-size: 13.00px;fill: #4D4D4D; font-family: "Arial";' textLength='25.30px' lengthAdjust='spacingAndGlyphs'>0.25</text>
<text x='50.43' y='287.19' text-anchor='end' style='font-size: 13.00px;fill: #4D4D4D; font-family: "Arial";' textLength='25.30px' lengthAdjust='spacingAndGlyphs'>0.50</text>
<text x='50.43' y='258.08' text-anchor='end' style='font-size: 13.00px;fill: #4D4D4D; font-family: "Arial";' textLength='25.30px' lengthAdjust='spacingAndGlyphs'>0.75</text>
<text x='50.43' y='228.97' text-anchor='end' style='font-size: 13.00px;fill: #4D4D4D; font-family: "Arial";' textLength='25.30px' lengthAdjust='spacingAndGlyphs'>1.00</text>
<polyline points='52.62,340.76 55.36,340.76 ' style='stroke-width: 1.07; stroke: #333333; stroke-linecap: butt;' />
<polyline points='52.62,311.64 55.36,311.64 ' style='stroke-width: 1.07; stroke: #333333; stroke-linecap: butt;' />
<polyline points='52.62,282.53 55.36,282.53 ' style='stroke-width: 1.07; stroke: #333333; stroke-linecap: butt;' />
<polyline points='52.62,253.42 55.36,253.42 ' style='stroke-width: 1.07; stroke: #333333; stroke-linecap: butt;' />
<polyline points='52.62,224.31 55.36,224.31 ' style='stroke-width: 1.07; stroke: #333333; stroke-linecap: butt;' />
<text x='265.52' y='354.52' text-anchor='middle' style='font-size: 0.00px; font-weight: bold; font-family: "Arial";' textLength='4.22px' lengthAdjust='spacingAndGlyphs'>Software</text>
<text transform='translate(18.43,215.72) rotate(-90)' text-anchor='middle' style='font-size: 18.00px; font-weight: bold; font-family: "Arial";' textLength='48.02px' lengthAdjust='spacingAndGlyphs'>Value</text>
<rect x='100.40' y='23.28' width='330.24' height='28.24' style='stroke-width: 1.07; stroke: none; fill: #FFFFFF;' />
<text x='105.88' y='37.76' style='font-size: 0.00px; font-family: "Arial";' textLength='3.77px' lengthAdjust='spacingAndGlyphs'>software</text>
<rect x='105.88' y='28.76' width='17.28' height='17.28' style='stroke-width: 1.07; stroke: none; fill: #FFFFFF;' />
<circle cx='114.52' cy='37.40' r='1.95' style='stroke-width: 0.71; stroke: #00FF93; stroke-opacity: 0.30; fill: #00FF93; fill-opacity: 0.30;' />
<rect x='176.19' y='28.76' width='17.28' height='17.28' style='stroke-width: 1.07; stroke: none; fill: #FFFFFF;' />
<circle cx='184.83' cy='37.40' r='1.95' style='stroke-width: 0.71; stroke: #FFC300; stroke-opacity: 0.30; fill: #FFC300; fill-opacity: 0.30;' />
<rect x='283.00' y='28.76' width='17.28' height='17.28' style='stroke-width: 1.07; stroke: none; fill: #FFFFFF;' />
<circle cx='291.64' cy='37.40' r='1.95' style='stroke-width: 0.71; stroke: #F11212; stroke-opacity: 0.30; fill: #F11212; fill-opacity: 0.30;' />
<text x='123.16' y='43.85' style='font-size: 18.00px; font-family: "Arial";' textLength='53.03px' lengthAdjust='spacingAndGlyphs'>gplas2</text>
<text x='193.47' y='43.85' style='font-size: 18.00px; font-family: "Arial";' textLength='85.02px' lengthAdjust='spacingAndGlyphs'>MOB-suite</text>
<text x='300.28' y='43.85' style='font-size: 18.00px; font-family: "Arial";' textLength='127.04px' lengthAdjust='spacingAndGlyphs'>plasmidSPAdes</text>
<text x='55.36' y='14.94' style='font-size: 13.20px; font-family: "Arial";' textLength='107.02px' lengthAdjust='spacingAndGlyphs'>E. faecalis metrics</text>
</g>
</svg>
