<?xml version='1.0' encoding='UTF-8' ?>
<svg xmlns='http://www.w3.org/2000/svg' xmlns:xlink='http://www.w3.org/1999/xlink' class='svglite' width='504.00pt' height='360.00pt' viewBox='0 0 504.00 360.00'>
<defs>
  <style type='text/css'><![CDATA[
    .svglite line, .svglite polyline, .svglite polygon, .svglite path, .svglite rect, .svglite circle {
      fill: none;
      stroke: #000000;
      stroke-linecap: round;
      stroke-linejoin: round;
      stroke-miterlimit: 10.00;
    }
    .svglite text {
      white-space: pre;
    }
  ]]></style>
</defs>
<rect width='100%' height='100%' style='stroke: none; fill: #FFFFFF;'/>
<defs>
  <clipPath id='cpMC4wMHw1MDQuMDB8MC4wMHwzNjAuMDA='>
    <rect x='0.00' y='0.00' width='504.00' height='360.00' />
  </clipPath>
</defs>
<g clip-path='url(#cpMC4wMHw1MDQuMDB8MC4wMHwzNjAuMDA=)'>
</g>
<defs>
  <clipPath id='cpNDUuNzF8NDk4LjUyfDExLjY4fDMxMS4xOQ=='>
    <rect x='45.71' y='11.68' width='452.81' height='299.51' />
  </clipPath>
</defs>
<g clip-path='url(#cpNDUuNzF8NDk4LjUyfDExLjY4fDMxMS4xOQ==)'>
<polyline points='45.71,250.35 498.52,250.35 ' style='stroke-width: 0.53; stroke: #EBEBEB; stroke-linecap: butt;' />
<polyline points='45.71,155.90 498.52,155.90 ' style='stroke-width: 0.53; stroke: #EBEBEB; stroke-linecap: butt;' />
<polyline points='45.71,61.46 498.52,61.46 ' style='stroke-width: 0.53; stroke: #EBEBEB; stroke-linecap: butt;' />
<polyline points='118.95,311.19 118.95,11.68 ' style='stroke-width: 0.53; stroke: #EBEBEB; stroke-linecap: butt;' />
<polyline points='214.68,311.19 214.68,11.68 ' style='stroke-width: 0.53; stroke: #EBEBEB; stroke-linecap: butt;' />
<polyline points='310.41,311.19 310.41,11.68 ' style='stroke-width: 0.53; stroke: #EBEBEB; stroke-linecap: butt;' />
<polyline points='406.14,311.19 406.14,11.68 ' style='stroke-width: 0.53; stroke: #EBEBEB; stroke-linecap: butt;' />
<polyline points='45.71,297.57 498.52,297.57 ' style='stroke-width: 1.07; stroke: #EBEBEB; stroke-linecap: butt;' />
<polyline points='45.71,203.13 498.52,203.13 ' style='stroke-width: 1.07; stroke: #EBEBEB; stroke-linecap: butt;' />
<polyline points='45.71,108.68 498.52,108.68 ' style='stroke-width: 1.07; stroke: #EBEBEB; stroke-linecap: butt;' />
<polyline points='45.71,14.23 498.52,14.23 ' style='stroke-width: 1.07; stroke: #EBEBEB; stroke-linecap: butt;' />
<rect x='66.29' y='280.56' width='9.57' height='17.02' style='stroke-width: 1.07; stroke-linecap: butt; stroke-linejoin: miter; fill: #B5B5B5;' />
<rect x='75.87' y='297.57' width='9.57' height='0.00' style='stroke-width: 1.07; stroke-linecap: butt; stroke-linejoin: miter; fill: #B5B5B5;' />
<rect x='85.44' y='297.57' width='9.57' height='0.00' style='stroke-width: 1.07; stroke-linecap: butt; stroke-linejoin: miter; fill: #B5B5B5;' />
<rect x='95.01' y='297.57' width='9.57' height='0.00' style='stroke-width: 1.07; stroke-linecap: butt; stroke-linejoin: miter; fill: #B5B5B5;' />
<rect x='104.59' y='297.57' width='9.57' height='0.00' style='stroke-width: 1.07; stroke-linecap: butt; stroke-linejoin: miter; fill: #B5B5B5;' />
<rect x='114.16' y='297.57' width='9.57' height='0.00' style='stroke-width: 1.07; stroke-linecap: butt; stroke-linejoin: miter; fill: #B5B5B5;' />
<rect x='123.73' y='263.54' width='9.57' height='34.04' style='stroke-width: 1.07; stroke-linecap: butt; stroke-linejoin: miter; fill: #B5B5B5;' />
<rect x='133.31' y='297.57' width='9.57' height='0.00' style='stroke-width: 1.07; stroke-linecap: butt; stroke-linejoin: miter; fill: #B5B5B5;' />
<rect x='142.88' y='297.57' width='9.57' height='0.00' style='stroke-width: 1.07; stroke-linecap: butt; stroke-linejoin: miter; fill: #B5B5B5;' />
<rect x='152.45' y='297.57' width='9.57' height='0.00' style='stroke-width: 1.07; stroke-linecap: butt; stroke-linejoin: miter; fill: #B5B5B5;' />
<rect x='162.03' y='263.54' width='9.57' height='34.04' style='stroke-width: 1.07; stroke-linecap: butt; stroke-linejoin: miter; fill: #B5B5B5;' />
<rect x='171.60' y='280.56' width='9.57' height='17.02' style='stroke-width: 1.07; stroke-linecap: butt; stroke-linejoin: miter; fill: #B5B5B5;' />
<rect x='181.17' y='297.57' width='9.57' height='0.00' style='stroke-width: 1.07; stroke-linecap: butt; stroke-linejoin: miter; fill: #B5B5B5;' />
<rect x='190.74' y='280.56' width='9.57' height='17.02' style='stroke-width: 1.07; stroke-linecap: butt; stroke-linejoin: miter; fill: #B5B5B5;' />
<rect x='200.32' y='212.49' width='9.57' height='85.09' style='stroke-width: 1.07; stroke-linecap: butt; stroke-linejoin: miter; fill: #B5B5B5;' />
<rect x='209.89' y='297.57' width='9.57' height='0.00' style='stroke-width: 1.07; stroke-linecap: butt; stroke-linejoin: miter; fill: #B5B5B5;' />
<rect x='219.46' y='297.57' width='9.57' height='0.00' style='stroke-width: 1.07; stroke-linecap: butt; stroke-linejoin: miter; fill: #B5B5B5;' />
<rect x='229.04' y='297.57' width='9.57' height='0.00' style='stroke-width: 1.07; stroke-linecap: butt; stroke-linejoin: miter; fill: #B5B5B5;' />
<rect x='238.61' y='297.57' width='9.57' height='0.00' style='stroke-width: 1.07; stroke-linecap: butt; stroke-linejoin: miter; fill: #B5B5B5;' />
<rect x='248.18' y='280.56' width='9.57' height='17.02' style='stroke-width: 1.07; stroke-linecap: butt; stroke-linejoin: miter; fill: #B5B5B5;' />
<rect x='257.76' y='280.56' width='9.57' height='17.02' style='stroke-width: 1.07; stroke-linecap: butt; stroke-linejoin: miter; fill: #B5B5B5;' />
<rect x='267.33' y='280.56' width='9.57' height='17.02' style='stroke-width: 1.07; stroke-linecap: butt; stroke-linejoin: miter; fill: #B5B5B5;' />
<rect x='276.90' y='297.57' width='9.57' height='0.00' style='stroke-width: 1.07; stroke-linecap: butt; stroke-linejoin: miter; fill: #B5B5B5;' />
<rect x='286.48' y='280.56' width='9.57' height='17.02' style='stroke-width: 1.07; stroke-linecap: butt; stroke-linejoin: miter; fill: #B5B5B5;' />
<rect x='296.05' y='297.57' width='9.57' height='0.00' style='stroke-width: 1.07; stroke-linecap: butt; stroke-linejoin: miter; fill: #B5B5B5;' />
<rect x='305.62' y='297.57' width='9.57' height='0.00' style='stroke-width: 1.07; stroke-linecap: butt; stroke-linejoin: miter; fill: #B5B5B5;' />
<rect x='315.20' y='280.56' width='9.57' height='17.02' style='stroke-width: 1.07; stroke-linecap: butt; stroke-linejoin: miter; fill: #B5B5B5;' />
<rect x='324.77' y='280.56' width='9.57' height='17.02' style='stroke-width: 1.07; stroke-linecap: butt; stroke-linejoin: miter; fill: #B5B5B5;' />
<rect x='334.34' y='280.56' width='9.57' height='17.02' style='stroke-width: 1.07; stroke-linecap: butt; stroke-linejoin: miter; fill: #B5B5B5;' />
<rect x='343.91' y='280.56' width='9.57' height='17.02' style='stroke-width: 1.07; stroke-linecap: butt; stroke-linejoin: miter; fill: #B5B5B5;' />
<rect x='353.49' y='280.56' width='9.57' height='17.02' style='stroke-width: 1.07; stroke-linecap: butt; stroke-linejoin: miter; fill: #B5B5B5;' />
<rect x='363.06' y='195.47' width='9.57' height='102.11' style='stroke-width: 1.07; stroke-linecap: butt; stroke-linejoin: miter; fill: #B5B5B5;' />
<rect x='372.63' y='178.45' width='9.57' height='119.12' style='stroke-width: 1.07; stroke-linecap: butt; stroke-linejoin: miter; fill: #B5B5B5;' />
<rect x='382.21' y='263.54' width='9.57' height='34.04' style='stroke-width: 1.07; stroke-linecap: butt; stroke-linejoin: miter; fill: #B5B5B5;' />
<rect x='391.78' y='178.45' width='9.57' height='119.12' style='stroke-width: 1.07; stroke-linecap: butt; stroke-linejoin: miter; fill: #B5B5B5;' />
<rect x='401.35' y='25.29' width='9.57' height='272.28' style='stroke-width: 1.07; stroke-linecap: butt; stroke-linejoin: miter; fill: #B5B5B5;' />
<rect x='410.93' y='25.29' width='9.57' height='272.28' style='stroke-width: 1.07; stroke-linecap: butt; stroke-linejoin: miter; fill: #B5B5B5;' />
<rect x='420.50' y='42.31' width='9.57' height='255.26' style='stroke-width: 1.07; stroke-linecap: butt; stroke-linejoin: miter; fill: #B5B5B5;' />
<rect x='430.07' y='93.36' width='9.57' height='204.21' style='stroke-width: 1.07; stroke-linecap: butt; stroke-linejoin: miter; fill: #B5B5B5;' />
<rect x='439.65' y='263.54' width='9.57' height='34.04' style='stroke-width: 1.07; stroke-linecap: butt; stroke-linejoin: miter; fill: #B5B5B5;' />
<rect x='449.22' y='229.50' width='9.57' height='68.07' style='stroke-width: 1.07; stroke-linecap: butt; stroke-linejoin: miter; fill: #B5B5B5;' />
<rect x='458.79' y='297.57' width='9.57' height='0.00' style='stroke-width: 1.07; stroke-linecap: butt; stroke-linejoin: miter; fill: #B5B5B5;' />
<rect x='468.37' y='246.52' width='9.57' height='51.05' style='stroke-width: 1.07; stroke-linecap: butt; stroke-linejoin: miter; fill: #B5B5B5;' />
<polygon points='69.82,292.93 70.60,292.94 71.39,292.97 72.17,293.00 72.95,293.05 73.73,293.11 74.51,293.19 75.29,293.27 76.07,293.37 76.85,293.48 77.63,293.60 78.42,293.72 79.20,293.86 79.98,293.99 80.76,294.14 81.54,294.29 82.32,294.44 83.10,294.59 83.88,294.74 84.66,294.89 85.45,295.04 86.23,295.18 87.01,295.33 87.79,295.46 88.57,295.59 89.35,295.72 90.13,295.83 90.91,295.94 91.69,296.04 92.48,296.13 93.26,296.21 94.04,296.28 94.82,296.34 95.60,296.38 96.38,296.42 97.16,296.44 97.94,296.45 98.72,296.44 99.51,296.42 100.29,296.39 101.07,296.34 101.85,296.28 102.63,296.20 103.41,296.11 104.19,296.00 104.97,295.88 105.75,295.75 106.54,295.59 107.32,295.42 108.10,295.24 108.88,295.04 109.66,294.83 110.44,294.60 111.22,294.35 112.00,294.10 112.78,293.84 113.57,293.56 114.35,293.27 115.13,292.97 115.91,292.67 116.69,292.36 117.47,292.05 118.25,291.74 119.03,291.42 119.81,291.11 120.60,290.80 121.38,290.50 122.16,290.20 122.94,289.92 123.72,289.64 124.50,289.38 125.28,289.14 126.06,288.91 126.84,288.70 127.63,288.51 128.41,288.34 129.19,288.19 129.97,288.06 130.75,287.95 131.53,287.87 132.31,287.80 133.09,287.76 133.87,287.73 134.66,287.73 135.44,287.74 136.22,287.77 137.00,287.81 137.78,287.86 138.56,287.92 139.34,287.98 140.12,288.05 140.90,288.12 141.69,288.19 142.47,288.26 143.25,288.32 144.03,288.37 144.81,288.41 145.59,288.44 146.37,288.45 147.15,288.45 147.93,288.44 148.72,288.40 149.50,288.34 150.28,288.27 151.06,288.18 151.84,288.06 152.62,287.93 153.40,287.78 154.18,287.61 154.96,287.43 155.75,287.23 156.53,287.02 157.31,286.79 158.09,286.56 158.87,286.32 159.65,286.07 160.43,285.82 161.21,285.57 161.99,285.32 162.78,285.06 163.56,284.81 164.34,284.56 165.12,284.32 165.90,284.08 166.68,283.85 167.46,283.62 168.24,283.40 169.02,283.18 169.81,282.97 170.59,282.77 171.37,282.56 172.15,282.36 172.93,282.16 173.71,281.96 174.49,281.76 175.27,281.55 176.05,281.34 176.84,281.12 177.62,280.89 178.40,280.64 179.18,280.39 179.96,280.12 180.74,279.83 181.52,279.53 182.30,279.21 183.08,278.87 183.87,278.51 184.65,278.13 185.43,277.74 186.21,277.32 186.99,276.90 187.77,276.45 188.55,276.00 189.33,275.53 190.11,275.06 190.90,274.58 191.68,274.11 192.46,273.64 193.24,273.17 194.02,272.72 194.80,272.29 195.58,271.87 196.36,271.49 197.14,271.13 197.93,270.80 198.71,270.52 199.49,270.29 200.27,270.10 201.05,269.95 201.83,269.86 202.61,269.83 203.39,269.86 204.17,269.95 204.96,270.09 205.74,270.30 206.52,270.58 207.30,270.91 208.08,271.30 208.86,271.74 209.64,272.26 210.42,272.82 211.20,273.43 211.99,274.08 212.77,274.77 213.55,275.51 214.33,276.27 215.11,277.06 215.89,277.87 216.67,278.70 217.45,279.54 218.23,280.39 219.02,281.23 219.80,282.08 220.58,282.91 221.36,283.72 222.14,284.52 222.92,285.30 223.70,286.04 224.48,286.75 225.26,287.44 226.05,288.08 226.83,288.69 227.61,289.25 228.39,289.77 229.17,290.24 229.95,290.68 230.73,291.05 231.51,291.38 232.29,291.67 233.08,291.91 233.86,292.11 234.64,292.25 235.42,292.35 236.20,292.40 236.98,292.42 237.76,292.39 238.54,292.32 239.32,292.21 240.11,292.07 240.89,291.89 241.67,291.68 242.45,291.44 243.23,291.17 244.01,290.88 244.79,290.56 245.57,290.23 246.35,289.88 247.14,289.51 247.92,289.14 248.70,288.76 249.48,288.37 250.26,287.98 251.04,287.59 251.82,287.20 252.60,286.83 253.38,286.46 254.17,286.10 254.95,285.76 255.73,285.43 256.51,285.13 257.29,284.84 258.07,284.58 258.85,284.34 259.63,284.13 260.41,283.94 261.20,283.78 261.98,283.65 262.76,283.55 263.54,283.48 264.32,283.43 265.10,283.41 265.88,283.42 266.66,283.46 267.44,283.52 268.23,283.61 269.01,283.71 269.79,283.84 270.57,283.99 271.35,284.16 272.13,284.34 272.91,284.53 273.69,284.74 274.47,284.97 275.26,285.19 276.04,285.43 276.82,285.68 277.60,285.92 278.38,286.17 279.16,286.43 279.94,286.68 280.72,286.93 281.50,287.18 282.29,287.43 283.07,287.67 283.85,287.91 284.63,288.14 285.41,288.37 286.19,288.58 286.97,288.80 287.75,289.00 288.53,289.19 289.32,289.37 290.10,289.54 290.88,289.70 291.66,289.84 292.44,289.98 293.22,290.10 294.00,290.21 294.78,290.30 295.56,290.37 296.35,290.44 297.13,290.48 297.91,290.51 298.69,290.53 299.47,290.52 300.25,290.50 301.03,290.47 301.81,290.41 302.59,290.34 303.38,290.25 304.16,290.15 304.94,290.03 305.72,289.89 306.50,289.74 307.28,289.58 308.06,289.40 308.84,289.22 309.62,289.01 310.41,288.80 311.19,288.59 311.97,288.36 312.75,288.13 313.53,287.88 314.31,287.64 315.09,287.39 315.87,287.14 316.65,286.88 317.44,286.62 318.22,286.36 319.00,286.10 319.78,285.84 320.56,285.57 321.34,285.31 322.12,285.04 322.90,284.78 323.68,284.51 324.47,284.23 325.25,283.96 326.03,283.68 326.81,283.40 327.59,283.11 328.37,282.81 329.15,282.50 329.93,282.18 330.71,281.85 331.50,281.50 332.28,281.14 333.06,280.76 333.84,280.35 334.62,279.92 335.40,279.46 336.18,278.98 336.96,278.47 337.74,277.92 338.53,277.34 339.31,276.72 340.09,276.06 340.87,275.36 341.65,274.61 342.43,273.82 343.21,272.98 343.99,272.11 344.77,271.17 345.56,270.18 346.34,269.15 347.12,268.08 347.90,266.95 348.68,265.77 349.46,264.55 350.24,263.29 351.02,261.99 351.80,260.64 352.59,259.26 353.37,257.85 354.15,256.41 354.93,254.95 355.71,253.46 356.49,251.96 357.27,250.45 358.05,248.93 358.83,247.41 359.62,245.89 360.40,244.37 361.18,242.87 361.96,241.37 362.74,239.90 363.52,238.45 364.30,237.01 365.08,235.59 365.86,234.20 366.65,232.83 367.43,231.49 368.21,230.15 368.99,228.84 369.77,227.54 370.55,226.25 371.33,224.96 372.11,223.67 372.89,222.37 373.68,221.04 374.46,219.70 375.24,218.32 376.02,216.90 376.80,215.43 377.58,213.88 378.36,212.27 379.14,210.59 379.92,208.82 380.71,206.92 381.49,204.93 382.27,202.82 383.05,200.60 383.83,198.24 384.61,195.72 385.39,193.08 386.17,190.30 386.95,187.39 387.74,184.29 388.52,181.06 389.30,177.70 390.08,174.21 390.86,170.58 391.64,166.81 392.42,162.93 393.20,158.96 393.98,154.90 394.77,150.74 395.55,146.52 396.33,142.26 397.11,137.97 397.89,133.66 398.67,129.35 399.45,125.07 400.23,120.82 401.01,116.63 401.80,112.52 402.58,108.52 403.36,104.63 404.14,100.86 404.92,97.23 405.70,93.80 406.48,90.55 407.26,87.47 408.04,84.58 408.83,81.95 409.61,79.56 410.39,77.39 411.17,75.45 411.95,73.75 412.73,72.38 413.51,71.26 414.29,70.39 415.07,69.76 415.86,69.44 416.64,69.42 417.42,69.65 418.20,70.13 418.98,70.85 419.76,71.92 420.54,73.23 421.32,74.78 422.10,76.56 422.89,78.60 423.67,80.92 424.45,83.44 425.23,86.18 426.01,89.12 426.79,92.30 427.57,95.68 428.35,99.23 429.13,102.94 429.92,106.81 430.70,110.87 431.48,115.04 432.26,119.33 433.04,123.72 433.82,128.22 434.60,132.80 435.38,137.43 436.16,142.11 436.95,146.83 437.73,151.56 438.51,156.30 439.29,161.01 440.07,165.71 440.85,170.36 441.63,174.95 442.41,179.47 443.19,183.92 443.98,188.28 444.76,192.52 445.54,196.65 446.32,200.68 447.10,204.59 447.88,208.36 448.66,211.98 449.44,215.48 450.22,218.85 451.01,222.09 451.79,225.16 452.57,228.09 453.35,230.91 454.13,233.60 454.91,236.16 455.69,238.58 456.47,240.90 457.25,243.11 458.04,245.23 458.82,247.22 459.60,249.13 460.38,250.96 461.16,252.71 461.94,254.40 462.72,256.00 463.50,257.55 464.28,259.06 465.07,260.51 465.85,261.92 466.63,263.28 467.41,264.62 468.19,265.92 468.97,267.20 468.97,297.57 468.19,297.57 467.41,297.57 466.63,297.57 465.85,297.57 465.07,297.57 464.28,297.57 463.50,297.57 462.72,297.57 461.94,297.57 461.16,297.57 460.38,297.57 459.60,297.57 458.82,297.57 458.04,297.57 457.25,297.57 456.47,297.57 455.69,297.57 454.91,297.57 454.13,297.57 453.35,297.57 452.57,297.57 451.79,297.57 451.01,297.57 450.22,297.57 449.44,297.57 448.66,297.57 447.88,297.57 447.10,297.57 446.32,297.57 445.54,297.57 444.76,297.57 443.98,297.57 443.19,297.57 442.41,297.57 441.63,297.57 440.85,297.57 440.07,297.57 439.29,297.57 438.51,297.57 437.73,297.57 436.95,297.57 436.16,297.57 435.38,297.57 434.60,297.57 433.82,297.57 433.04,297.57 432.26,297.57 431.48,297.57 430.70,297.57 429.92,297.57 429.13,297.57 428.35,297.57 427.57,297.57 426.79,297.57 426.01,297.57 425.23,297.57 424.45,297.57 423.67,297.57 422.89,297.57 422.10,297.57 421.32,297.57 420.54,297.57 419.76,297.57 418.98,297.57 418.20,297.57 417.42,297.57 416.64,297.57 415.86,297.57 415.07,297.57 414.29,297.57 413.51,297.57 412.73,297.57 411.95,297.57 411.17,297.57 410.39,297.57 409.61,297.57 408.83,297.57 408.04,297.57 407.26,297.57 406.48,297.57 405.70,297.57 404.92,297.57 404.14,297.57 403.36,297.57 402.58,297.57 401.80,297.57 401.01,297.57 400.23,297.57 399.45,297.57 398.67,297.57 397.89,297.57 397.11,297.57 396.33,297.57 395.55,297.57 394.77,297.57 393.98,297.57 393.20,297.57 392.42,297.57 391.64,297.57 390.86,297.57 390.08,297.57 389.30,297.57 388.52,297.57 387.74,297.57 386.95,297.57 386.17,297.57 385.39,297.57 384.61,297.57 383.83,297.57 383.05,297.57 382.27,297.57 381.49,297.57 380.71,297.57 379.92,297.57 379.14,297.57 378.36,297.57 377.58,297.57 376.80,297.57 376.02,297.57 375.24,297.57 374.46,297.57 373.68,297.57 372.89,297.57 372.11,297.57 371.33,297.57 370.55,297.57 369.77,297.57 368.99,297.57 368.21,297.57 367.43,297.57 366.65,297.57 365.86,297.57 365.08,297.57 364.30,297.57 363.52,297.57 362.74,297.57 361.96,297.57 361.18,297.57 360.40,297.57 359.62,297.57 358.83,297.57 358.05,297.57 357.27,297.57 356.49,297.57 355.71,297.57 354.93,297.57 354.15,297.57 353.37,297.57 352.59,297.57 351.80,297.57 351.02,297.57 350.24,297.57 349.46,297.57 348.68,297.57 347.90,297.57 347.12,297.57 346.34,297.57 345.56,297.57 344.77,297.57 343.99,297.57 343.21,297.57 342.43,297.57 341.65,297.57 340.87,297.57 340.09,297.57 339.31,297.57 338.53,297.57 337.74,297.57 336.96,297.57 336.18,297.57 335.40,297.57 334.62,297.57 333.84,297.57 333.06,297.57 332.28,297.57 331.50,297.57 330.71,297.57 329.93,297.57 329.15,297.57 328.37,297.57 327.59,297.57 326.81,297.57 326.03,297.57 325.25,297.57 324.47,297.57 323.68,297.57 322.90,297.57 322.12,297.57 321.34,297.57 320.56,297.57 319.78,297.57 319.00,297.57 318.22,297.57 317.44,297.57 316.65,297.57 315.87,297.57 315.09,297.57 314.31,297.57 313.53,297.57 312.75,297.57 311.97,297.57 311.19,297.57 310.41,297.57 309.62,297.57 308.84,297.57 308.06,297.57 307.28,297.57 306.50,297.57 305.72,297.57 304.94,297.57 304.16,297.57 303.38,297.57 302.59,297.57 301.81,297.57 301.03,297.57 300.25,297.57 299.47,297.57 298.69,297.57 297.91,297.57 297.13,297.57 296.35,297.57 295.56,297.57 294.78,297.57 294.00,297.57 293.22,297.57 292.44,297.57 291.66,297.57 290.88,297.57 290.10,297.57 289.32,297.57 288.53,297.57 287.75,297.57 286.97,297.57 286.19,297.57 285.41,297.57 284.63,297.57 283.85,297.57 283.07,297.57 282.29,297.57 281.50,297.57 280.72,297.57 279.94,297.57 279.16,297.57 278.38,297.57 277.60,297.57 276.82,297.57 276.04,297.57 275.26,297.57 274.47,297.57 273.69,297.57 272.91,297.57 272.13,297.57 271.35,297.57 270.57,297.57 269.79,297.57 269.01,297.57 268.23,297.57 267.44,297.57 266.66,297.57 265.88,297.57 265.10,297.57 264.32,297.57 263.54,297.57 262.76,297.57 261.98,297.57 261.20,297.57 260.41,297.57 259.63,297.57 258.85,297.57 258.07,297.57 257.29,297.57 256.51,297.57 255.73,297.57 254.95,297.57 254.17,297.57 253.38,297.57 252.60,297.57 251.82,297.57 251.04,297.57 250.26,297.57 249.48,297.57 248.70,297.57 247.92,297.57 247.14,297.57 246.35,297.57 245.57,297.57 244.79,297.57 244.01,297.57 243.23,297.57 242.45,297.57 241.67,297.57 240.89,297.57 240.11,297.57 239.32,297.57 238.54,297.57 237.76,297.57 236.98,297.57 236.20,297.57 235.42,297.57 234.64,297.57 233.86,297.57 233.08,297.57 232.29,297.57 231.51,297.57 230.73,297.57 229.95,297.57 229.17,297.57 228.39,297.57 227.61,297.57 226.83,297.57 226.05,297.57 225.26,297.57 224.48,297.57 223.70,297.57 222.92,297.57 222.14,297.57 221.36,297.57 220.58,297.57 219.80,297.57 219.02,297.57 218.23,297.57 217.45,297.57 216.67,297.57 215.89,297.57 215.11,297.57 214.33,297.57 213.55,297.57 212.77,297.57 211.99,297.57 211.20,297.57 210.42,297.57 209.64,297.57 208.86,297.57 208.08,297.57 207.30,297.57 206.52,297.57 205.74,297.57 204.96,297.57 204.17,297.57 203.39,297.57 202.61,297.57 201.83,297.57 201.05,297.57 200.27,297.57 199.49,297.57 198.71,297.57 197.93,297.57 197.14,297.57 196.36,297.57 195.58,297.57 194.80,297.57 194.02,297.57 193.24,297.57 192.46,297.57 191.68,297.57 190.90,297.57 190.11,297.57 189.33,297.57 188.55,297.57 187.77,297.57 186.99,297.57 186.21,297.57 185.43,297.57 184.65,297.57 183.87,297.57 183.08,297.57 182.30,297.57 181.52,297.57 180.74,297.57 179.96,297.57 179.18,297.57 178.40,297.57 177.62,297.57 176.84,297.57 176.05,297.57 175.27,297.57 174.49,297.57 173.71,297.57 172.93,297.57 172.15,297.57 171.37,297.57 170.59,297.57 169.81,297.57 169.02,297.57 168.24,297.57 167.46,297.57 166.68,297.57 165.90,297.57 165.12,297.57 164.34,297.57 163.56,297.57 162.78,297.57 161.99,297.57 161.21,297.57 160.43,297.57 159.65,297.57 158.87,297.57 158.09,297.57 157.31,297.57 156.53,297.57 155.75,297.57 154.96,297.57 154.18,297.57 153.40,297.57 152.62,297.57 151.84,297.57 151.06,297.57 150.28,297.57 149.50,297.57 148.72,297.57 147.93,297.57 147.15,297.57 146.37,297.57 145.59,297.57 144.81,297.57 144.03,297.57 143.25,297.57 142.47,297.57 141.69,297.57 140.90,297.57 140.12,297.57 139.34,297.57 138.56,297.57 137.78,297.57 137.00,297.57 136.22,297.57 135.44,297.57 134.66,297.57 133.87,297.57 133.09,297.57 132.31,297.57 131.53,297.57 130.75,297.57 129.97,297.57 129.19,297.57 128.41,297.57 127.63,297.57 126.84,297.57 126.06,297.57 125.28,297.57 124.50,297.57 123.72,297.57 122.94,297.57 122.16,297.57 121.38,297.57 120.60,297.57 119.81,297.57 119.03,297.57 118.25,297.57 117.47,297.57 116.69,297.57 115.91,297.57 115.13,297.57 114.35,297.57 113.57,297.57 112.78,297.57 112.00,297.57 111.22,297.57 110.44,297.57 109.66,297.57 108.88,297.57 108.10,297.57 107.32,297.57 106.54,297.57 105.75,297.57 104.97,297.57 104.19,297.57 103.41,297.57 102.63,297.57 101.85,297.57 101.07,297.57 100.29,297.57 99.51,297.57 98.72,297.57 97.94,297.57 97.16,297.57 96.38,297.57 95.60,297.57 94.82,297.57 94.04,297.57 93.26,297.57 92.48,297.57 91.69,297.57 90.91,297.57 90.13,297.57 89.35,297.57 88.57,297.57 87.79,297.57 87.01,297.57 86.23,297.57 85.45,297.57 84.66,297.57 83.88,297.57 83.10,297.57 82.32,297.57 81.54,297.57 80.76,297.57 79.98,297.57 79.20,297.57 78.42,297.57 77.63,297.57 76.85,297.57 76.07,297.57 75.29,297.57 74.51,297.57 73.73,297.57 72.95,297.57 72.17,297.57 71.39,297.57 70.60,297.57 69.82,297.57 ' style='stroke-width: 0.00; stroke: none; stroke-linecap: butt; fill: #FF9933; fill-opacity: 0.50;' />
<polyline points='69.82,292.93 70.60,292.94 71.39,292.97 72.17,293.00 72.95,293.05 73.73,293.11 74.51,293.19 75.29,293.27 76.07,293.37 76.85,293.48 77.63,293.60 78.42,293.72 79.20,293.86 79.98,293.99 80.76,294.14 81.54,294.29 82.32,294.44 83.10,294.59 83.88,294.74 84.66,294.89 85.45,295.04 86.23,295.18 87.01,295.33 87.79,295.46 88.57,295.59 89.35,295.72 90.13,295.83 90.91,295.94 91.69,296.04 92.48,296.13 93.26,296.21 94.04,296.28 94.82,296.34 95.60,296.38 96.38,296.42 97.16,296.44 97.94,296.45 98.72,296.44 99.51,296.42 100.29,296.39 101.07,296.34 101.85,296.28 102.63,296.20 103.41,296.11 104.19,296.00 104.97,295.88 105.75,295.75 106.54,295.59 107.32,295.42 108.10,295.24 108.88,295.04 109.66,294.83 110.44,294.60 111.22,294.35 112.00,294.10 112.78,293.84 113.57,293.56 114.35,293.27 115.13,292.97 115.91,292.67 116.69,292.36 117.47,292.05 118.25,291.74 119.03,291.42 119.81,291.11 120.60,290.80 121.38,290.50 122.16,290.20 122.94,289.92 123.72,289.64 124.50,289.38 125.28,289.14 126.06,288.91 126.84,288.70 127.63,288.51 128.41,288.34 129.19,288.19 129.97,288.06 130.75,287.95 131.53,287.87 132.31,287.80 133.09,287.76 133.87,287.73 134.66,287.73 135.44,287.74 136.22,287.77 137.00,287.81 137.78,287.86 138.56,287.92 139.34,287.98 140.12,288.05 140.90,288.12 141.69,288.19 142.47,288.26 143.25,288.32 144.03,288.37 144.81,288.41 145.59,288.44 146.37,288.45 147.15,288.45 147.93,288.44 148.72,288.40 149.50,288.34 150.28,288.27 151.06,288.18 151.84,288.06 152.62,287.93 153.40,287.78 154.18,287.61 154.96,287.43 155.75,287.23 156.53,287.02 157.31,286.79 158.09,286.56 158.87,286.32 159.65,286.07 160.43,285.82 161.21,285.57 161.99,285.32 162.78,285.06 163.56,284.81 164.34,284.56 165.12,284.32 165.90,284.08 166.68,283.85 167.46,283.62 168.24,283.40 169.02,283.18 169.81,282.97 170.59,282.77 171.37,282.56 172.15,282.36 172.93,282.16 173.71,281.96 174.49,281.76 175.27,281.55 176.05,281.34 176.84,281.12 177.62,280.89 178.40,280.64 179.18,280.39 179.96,280.12 180.74,279.83 181.52,279.53 182.30,279.21 183.08,278.87 183.87,278.51 184.65,278.13 185.43,277.74 186.21,277.32 186.99,276.90 187.77,276.45 188.55,276.00 189.33,275.53 190.11,275.06 190.90,274.58 191.68,274.11 192.46,273.64 193.24,273.17 194.02,272.72 194.80,272.29 195.58,271.87 196.36,271.49 197.14,271.13 197.93,270.80 198.71,270.52 199.49,270.29 200.27,270.10 201.05,269.95 201.83,269.86 202.61,269.83 203.39,269.86 204.17,269.95 204.96,270.09 205.74,270.30 206.52,270.58 207.30,270.91 208.08,271.30 208.86,271.74 209.64,272.26 210.42,272.82 211.20,273.43 211.99,274.08 212.77,274.77 213.55,275.51 214.33,276.27 215.11,277.06 215.89,277.87 216.67,278.70 217.45,279.54 218.23,280.39 219.02,281.23 219.80,282.08 220.58,282.91 221.36,283.72 222.14,284.52 222.92,285.30 223.70,286.04 224.48,286.75 225.26,287.44 226.05,288.08 226.83,288.69 227.61,289.25 228.39,289.77 229.17,290.24 229.95,290.68 230.73,291.05 231.51,291.38 232.29,291.67 233.08,291.91 233.86,292.11 234.64,292.25 235.42,292.35 236.20,292.40 236.98,292.42 237.76,292.39 238.54,292.32 239.32,292.21 240.11,292.07 240.89,291.89 241.67,291.68 242.45,291.44 243.23,291.17 244.01,290.88 244.79,290.56 245.57,290.23 246.35,289.88 247.14,289.51 247.92,289.14 248.70,288.76 249.48,288.37 250.26,287.98 251.04,287.59 251.82,287.20 252.60,286.83 253.38,286.46 254.17,286.10 254.95,285.76 255.73,285.43 256.51,285.13 257.29,284.84 258.07,284.58 258.85,284.34 259.63,284.13 260.41,283.94 261.20,283.78 261.98,283.65 262.76,283.55 263.54,283.48 264.32,283.43 265.10,283.41 265.88,283.42 266.66,283.46 267.44,283.52 268.23,283.61 269.01,283.71 269.79,283.84 270.57,283.99 271.35,284.16 272.13,284.34 272.91,284.53 273.69,284.74 274.47,284.97 275.26,285.19 276.04,285.43 276.82,285.68 277.60,285.92 278.38,286.17 279.16,286.43 279.94,286.68 280.72,286.93 281.50,287.18 282.29,287.43 283.07,287.67 283.85,287.91 284.63,288.14 285.41,288.37 286.19,288.58 286.97,288.80 287.75,289.00 288.53,289.19 289.32,289.37 290.10,289.54 290.88,289.70 291.66,289.84 292.44,289.98 293.22,290.10 294.00,290.21 294.78,290.30 295.56,290.37 296.35,290.44 297.13,290.48 297.91,290.51 298.69,290.53 299.47,290.52 300.25,290.50 301.03,290.47 301.81,290.41 302.59,290.34 303.38,290.25 304.16,290.15 304.94,290.03 305.72,289.89 306.50,289.74 307.28,289.58 308.06,289.40 308.84,289.22 309.62,289.01 310.41,288.80 311.19,288.59 311.97,288.36 312.75,288.13 313.53,287.88 314.31,287.64 315.09,287.39 315.87,287.14 316.65,286.88 317.44,286.62 318.22,286.36 319.00,286.10 319.78,285.84 320.56,285.57 321.34,285.31 322.12,285.04 322.90,284.78 323.68,284.51 324.47,284.23 325.25,283.96 326.03,283.68 326.81,283.40 327.59,283.11 328.37,282.81 329.15,282.50 329.93,282.18 330.71,281.85 331.50,281.50 332.28,281.14 333.06,280.76 333.84,280.35 334.62,279.92 335.40,279.46 336.18,278.98 336.96,278.47 337.74,277.92 338.53,277.34 339.31,276.72 340.09,276.06 340.87,275.36 341.65,274.61 342.43,273.82 343.21,272.98 343.99,272.11 344.77,271.17 345.56,270.18 346.34,269.15 347.12,268.08 347.90,266.95 348.68,265.77 349.46,264.55 350.24,263.29 351.02,261.99 351.80,260.64 352.59,259.26 353.37,257.85 354.15,256.41 354.93,254.95 355.71,253.46 356.49,251.96 357.27,250.45 358.05,248.93 358.83,247.41 359.62,245.89 360.40,244.37 361.18,242.87 361.96,241.37 362.74,239.90 363.52,238.45 364.30,237.01 365.08,235.59 365.86,234.20 366.65,232.83 367.43,231.49 368.21,230.15 368.99,228.84 369.77,227.54 370.55,226.25 371.33,224.96 372.11,223.67 372.89,222.37 373.68,221.04 374.46,219.70 375.24,218.32 376.02,216.90 376.80,215.43 377.58,213.88 378.36,212.27 379.14,210.59 379.92,208.82 380.71,206.92 381.49,204.93 382.27,202.82 383.05,200.60 383.83,198.24 384.61,195.72 385.39,193.08 386.17,190.30 386.95,187.39 387.74,184.29 388.52,181.06 389.30,177.70 390.08,174.21 390.86,170.58 391.64,166.81 392.42,162.93 393.20,158.96 393.98,154.90 394.77,150.74 395.55,146.52 396.33,142.26 397.11,137.97 397.89,133.66 398.67,129.35 399.45,125.07 400.23,120.82 401.01,116.63 401.80,112.52 402.58,108.52 403.36,104.63 404.14,100.86 404.92,97.23 405.70,93.80 406.48,90.55 407.26,87.47 408.04,84.58 408.83,81.95 409.61,79.56 410.39,77.39 411.17,75.45 411.95,73.75 412.73,72.38 413.51,71.26 414.29,70.39 415.07,69.76 415.86,69.44 416.64,69.42 417.42,69.65 418.20,70.13 418.98,70.85 419.76,71.92 420.54,73.23 421.32,74.78 422.10,76.56 422.89,78.60 423.67,80.92 424.45,83.44 425.23,86.18 426.01,89.12 426.79,92.30 427.57,95.68 428.35,99.23 429.13,102.94 429.92,106.81 430.70,110.87 431.48,115.04 432.26,119.33 433.04,123.72 433.82,128.22 434.60,132.80 435.38,137.43 436.16,142.11 436.95,146.83 437.73,151.56 438.51,156.30 439.29,161.01 440.07,165.71 440.85,170.36 441.63,174.95 442.41,179.47 443.19,183.92 443.98,188.28 444.76,192.52 445.54,196.65 446.32,200.68 447.10,204.59 447.88,208.36 448.66,211.98 449.44,215.48 450.22,218.85 451.01,222.09 451.79,225.16 452.57,228.09 453.35,230.91 454.13,233.60 454.91,236.16 455.69,238.58 456.47,240.90 457.25,243.11 458.04,245.23 458.82,247.22 459.60,249.13 460.38,250.96 461.16,252.71 461.94,254.40 462.72,256.00 463.50,257.55 464.28,259.06 465.07,260.51 465.85,261.92 466.63,263.28 467.41,264.62 468.19,265.92 468.97,267.20 ' style='stroke-width: 1.07; stroke-linecap: butt;' />
<line x1='310.41' y1='311.19' x2='310.41' y2='11.68' style='stroke-width: 1.07; stroke-dasharray: 5.69,5.69; stroke-linecap: butt;' />
</g>
<g clip-path='url(#cpMC4wMHw1MDQuMDB8MC4wMHwzNjAuMDA=)'>
<text x='40.78' y='304.03' text-anchor='end' style='font-size: 18.00px;fill: #4D4D4D; font-family: "Arial";' textLength='10.01px' lengthAdjust='spacingAndGlyphs'>0</text>
<text x='40.78' y='209.58' text-anchor='end' style='font-size: 18.00px;fill: #4D4D4D; font-family: "Arial";' textLength='10.01px' lengthAdjust='spacingAndGlyphs'>1</text>
<text x='40.78' y='115.13' text-anchor='end' style='font-size: 18.00px;fill: #4D4D4D; font-family: "Arial";' textLength='10.01px' lengthAdjust='spacingAndGlyphs'>2</text>
<text x='40.78' y='20.69' text-anchor='end' style='font-size: 18.00px;fill: #4D4D4D; font-family: "Arial";' textLength='10.01px' lengthAdjust='spacingAndGlyphs'>3</text>
<text x='71.08' y='329.03' text-anchor='middle' style='font-size: 18.00px;fill: #4D4D4D; font-family: "Arial";' textLength='25.02px' lengthAdjust='spacingAndGlyphs'>3.0</text>
<text x='166.81' y='329.03' text-anchor='middle' style='font-size: 18.00px;fill: #4D4D4D; font-family: "Arial";' textLength='25.02px' lengthAdjust='spacingAndGlyphs'>3.5</text>
<text x='262.54' y='329.03' text-anchor='middle' style='font-size: 18.00px;fill: #4D4D4D; font-family: "Arial";' textLength='25.02px' lengthAdjust='spacingAndGlyphs'>4.0</text>
<text x='358.27' y='329.03' text-anchor='middle' style='font-size: 18.00px;fill: #4D4D4D; font-family: "Arial";' textLength='25.02px' lengthAdjust='spacingAndGlyphs'>4.5</text>
<text x='454.01' y='329.03' text-anchor='middle' style='font-size: 18.00px;fill: #4D4D4D; font-family: "Arial";' textLength='25.02px' lengthAdjust='spacingAndGlyphs'>5.0</text>
<text x='272.12' y='350.12' text-anchor='middle' style='font-size: 20.00px; font-weight: bold; font-family: "Arial";' textLength='108.87px' lengthAdjust='spacingAndGlyphs'>log (length)</text>
<text transform='translate(22.75,161.43) rotate(-90)' text-anchor='middle' style='font-size: 24.00px; font-weight: bold; font-family: "Arial";' textLength='86.70px' lengthAdjust='spacingAndGlyphs'>Density</text>
<text x='272.12' y='6.20' text-anchor='middle' style='font-size: 0.00px; font-weight: bold; font-family: "Arial";' textLength='13.47px' lengthAdjust='spacingAndGlyphs'>Plasmids length distribution</text>
</g>
</svg>
