GCA_014169155.1_ASM1416915v1,S62_LN_i_5344_dp_f_0.2598031399842057
GCA_014169615.1_ASM1416961v1,S71_LN_i_1718_dp_f_84.3738572740346
GCA_014169895.1_ASM1416989v1,S61_LN_i_1546_dp_f_236.8792232031635
GCA_014169895.1_ASM1416989v1,S62_LN_i_1531_dp_f_162.06805702138854
GCA_014169115.1_ASM1416911v1,S136_LN_i_1549_dp_f_85.87587449049829
GCA_014170595.1_ASM1417059v1,S76_LN_i_2337_dp_f_36.374211879482424
GCA_014169175.1_ASM1416917v1,S77_LN_i_1458_dp_f_173.3788864551831
GCA_014169415.1_ASM1416941v1,S106_LN_i_1718_dp_f_89.29836139175063
GCA_014169575.1_ASM1416957v1,S131_LN_i_1549_dp_f_113.90797209405905
GCA_014169575.1_ASM1416957v1,S134_LN_i_1459_dp_f_64.46480539622539
GCA_008275005.1_ASM827500v1,S18_LN_i_3048_dp_f_80.5051072816717
GCA_014171015.1_ASM1417101v1,S54_LN_i_4351_dp_f_0.47292276746105394
GCA_014171015.1_ASM1417101v1,S76_LN_i_1626_dp_f_0.502229728442,
GCA_008275105.1_ASM827510v1,S28_LN_i_2783_dp_f_40.924285861117
GCA_013819985.1_ASM1381998v1,S32_LN_i_25729_dp_f_1.0753277141600404
GCA_013819985.1_ASM1381998v1,S40_LN_i_9114_dp_f_1.120757828036923
GCA_013819985.1_ASM1381998v1,S46_LN_i_3040_dp_f_1.0332571398339068
GCA_014168835.1_ASM1416883v1,S79_LN_i_1549_dp_f_128.4294900091635
GCA_013790285.1_ASM1379028v1,S35_LN_i_1474_dp_f_89.2316720321447
GCA_014168955.1_ASM1416895v1,S64_LN_i_1549_dp_f_64.17512732274152
GCA_014117345.1_ASM1411734v1,S54_LN_i_16364_dp_f_0.31996618901590496
GCA_014117345.1_ASM1411734v1,S71_LN_i_5386_dp_f_0.8128810655179509
GCA_014117345.1_ASM1411734v1,S80_LN_i_2875_dp_f_0.31134783817206513
