"strain","bin_name","reference_id","self_alignment_length","length_classification","true_nr_args","arg_plasmid","variable","value","software","species"
"GCF_015159575.1_ASM1515957v1","bin_component_0","NZ_CP063331.1",2097,"small",0,"non-ARG-plasmid","Precision(bp)",0.886,"plasmidSPAdes","S. enterica"
"GCF_014250355.1_ASM1425035v1","bin_component_3","NZ_CP060171.1",1975,"small",0,"non-ARG-plasmid","Precision(bp)",0.925,"plasmidSPAdes","S. enterica"
"GCF_018340585.1_ASM1834058v1","bin_component_1","NZ_CP073717.1",3904,"small",0,"non-ARG-plasmid","Precision(bp)",0.981,"plasmidSPAdes","S. enterica"
"GCF_018340585.1_ASM1834058v1","bin_component_0","NZ_CP073716.1",4712,"small",0,"non-ARG-plasmid","Precision(bp)",0.968,"plasmidSPAdes","S. enterica"
"GCF_019670285.1_ASM1967028v1","bin_component_0","NZ_AP023302.1",7257,"small",0,"non-ARG-plasmid","Precision(bp)",0.052,"plasmidSPAdes","S. enterica"
"GCF_022655645.1_ASM2265564v1","bin_component_3","NZ_CP093389.1",3176,"small",0,"non-ARG-plasmid","Precision(bp)",0.976,"plasmidSPAdes","S. enterica"
"GCF_022655645.1_ASM2265564v1","bin_component_2","NZ_CP093388.1",3910,"small",0,"non-ARG-plasmid","Precision(bp)",0.961,"plasmidSPAdes","S. enterica"
"GCF_015241115.1_ASM1524111v1","bin_component_0","NZ_CP063710.1",3087,"small",0,"non-ARG-plasmid","Precision(bp)",0.92,"plasmidSPAdes","S. enterica"
"GCF_016454545.1_ASM1645454v1","bin_component_3","NZ_CP051399.1",4054,"small",0,"non-ARG-plasmid","Precision(bp)",0.941,"plasmidSPAdes","S. enterica"
"GCF_016454545.1_ASM1645454v1","bin_component_4","NZ_CP051401.1",3372,"small",0,"non-ARG-plasmid","Precision(bp)",0.927,"plasmidSPAdes","S. enterica"
"GCF_015074905.1_ASM1507490v1","bin_component_3","NZ_CP063299.1",3257,"small",0,"non-ARG-plasmid","Precision(bp)",0.925,"plasmidSPAdes","S. enterica"
"GCF_015074905.1_ASM1507490v1","bin_component_4","NZ_CP063300.1",1718,"small",0,"non-ARG-plasmid","Precision(bp)",0.862,"plasmidSPAdes","S. enterica"
"GCF_015074905.1_ASM1507490v1","bin_component_2","NZ_CP063298.1",4234,"small",0,"non-ARG-plasmid","Precision(bp)",0.942,"plasmidSPAdes","S. enterica"
"GCF_022936385.1_ASM2293638v1","bin_component_0","NZ_CP092005.1",4593,"small",0,"non-ARG-plasmid","Precision(bp)",0.967,"plasmidSPAdes","S. enterica"
"GCF_016454205.1_ASM1645420v1","bin_component_0","NZ_CP051352.1",8314,"small",3,"ARG-plasmid","Precision(bp)",0.081,"plasmidSPAdes","S. enterica"
"GCF_016025375.1_ASM1602537v1","bin_component_0","NZ_CP065565.1",1982,"small",0,"non-ARG-plasmid","Precision(bp)",0.88,"plasmidSPAdes","S. enterica"
"GCF_014334175.1_ASM1433417v1","bin_component_3","NZ_CP060510.1",3372,"small",0,"non-ARG-plasmid","Precision(bp)",0.957,"plasmidSPAdes","S. enterica"
"GCF_014334175.1_ASM1433417v1","bin_component_4","NZ_CP060511.1",2978,"small",1,"ARG-plasmid","Precision(bp)",0.959,"plasmidSPAdes","S. enterica"
"GCF_015240855.1_ASM1524085v1","bin_component_1","NZ_CP063704.1",4888,"small",0,"non-ARG-plasmid","Precision(bp)",0.949,"plasmidSPAdes","S. enterica"
"GCF_022936485.1_ASM2293648v1","bin_component_0","NZ_CP092013.1",4593,"small",0,"non-ARG-plasmid","Precision(bp)",0.952,"plasmidSPAdes","S. enterica"
"GCF_016454225.1_ASM1645422v1","bin_component_1","NZ_CP051355.1",10323,"small",1,"ARG-plasmid","Precision(bp)",0.976,"plasmidSPAdes","S. enterica"
"GCF_021397645.1_ASM2139764v1","bin_component_2","NZ_CP090144.1",4593,"small",0,"non-ARG-plasmid","Precision(bp)",0.946,"plasmidSPAdes","S. enterica"
"GCF_016127435.1_ASM1612743v1","bin_component_1","NZ_CP066008.1",8688,"small",3,"ARG-plasmid","Precision(bp)",0.054,"plasmidSPAdes","S. enterica"
"GCF_022936365.1_ASM2293636v1","bin_component_1","NZ_CP092002.1",4820,"small",0,"non-ARG-plasmid","Precision(bp)",0.969,"plasmidSPAdes","S. enterica"
"GCF_022936365.1_ASM2293636v1","bin_component_0","NZ_CP092001.1",5649,"small",0,"non-ARG-plasmid","Precision(bp)",0.973,"plasmidSPAdes","S. enterica"
"GCF_022936365.1_ASM2293636v1","bin_component_2","NZ_CP092003.1",4018,"small",0,"non-ARG-plasmid","Precision(bp)",0.962,"plasmidSPAdes","S. enterica"
"GCF_015240995.1_ASM1524099v1","bin_component_0","NZ_CP063707.1",8686,"small",3,"ARG-plasmid","Precision(bp)",0.069,"plasmidSPAdes","S. enterica"
"GCF_016454365.1_ASM1645436v1","bin_component_1","NZ_CP051378.1",3188,"small",0,"non-ARG-plasmid","Precision(bp)",0.923,"plasmidSPAdes","S. enterica"
"GCF_016454665.1_ASM1645466v1","bin_component_1","NZ_CP051415.1",3319,"small",0,"non-ARG-plasmid","Precision(bp)",0.926,"plasmidSPAdes","S. enterica"
"GCF_016454665.1_ASM1645466v1","bin_component_0","NZ_CP051414.1",3371,"small",0,"non-ARG-plasmid","Precision(bp)",0.927,"plasmidSPAdes","S. enterica"
"GCF_019670345.1_ASM1967034v1","bin_component_0","NZ_AP023308.1",7257,"small",0,"non-ARG-plasmid","Precision(bp)",0.052,"plasmidSPAdes","S. enterica"
"GCF_022162985.1_ASM2216298v1","bin_component_0","NZ_CP091879.1",3967,"small",0,"non-ARG-plasmid","Precision(bp)",0.973,"plasmidSPAdes","S. enterica"
"GCF_016452165.1_ASM1645216v1","bin_component_2","NZ_CP054466.1",3188,"small",0,"non-ARG-plasmid","Precision(bp)",0.923,"plasmidSPAdes","S. enterica"
"GCF_016454725.1_ASM1645472v1","bin_component_3","NZ_CP051419.1",3372,"small",0,"non-ARG-plasmid","Precision(bp)",0.927,"plasmidSPAdes","S. enterica"
"GCF_016454725.1_ASM1645472v1","bin_component_4","NZ_CP051423.1",2444,"small",0,"non-ARG-plasmid","Precision(bp)",0.901,"plasmidSPAdes","S. enterica"
"GCF_016454725.1_ASM1645472v1","bin_component_5","NZ_CP051422.1",2096,"small",0,"non-ARG-plasmid","Precision(bp)",0.886,"plasmidSPAdes","S. enterica"
"GCF_022870605.1_ASM2287060v1","bin_component_1","NZ_CP058674.1",3371,"small",0,"non-ARG-plasmid","Precision(bp)",0.955,"plasmidSPAdes","S. enterica"
"GCF_022936425.1_ASM2293642v1","bin_component_1","NZ_CP092011.1",5725,"small",0,"non-ARG-plasmid","Precision(bp)",0.973,"plasmidSPAdes","S. enterica"
"GCF_015074885.1_ASM1507488v1","bin_component_3","NZ_CP063293.1",3610,"small",0,"non-ARG-plasmid","Precision(bp)",0.932,"plasmidSPAdes","S. enterica"
"GCF_015074885.1_ASM1507488v1","bin_component_2","NZ_CP063292.1",5633,"small",0,"non-ARG-plasmid","Precision(bp)",0.956,"plasmidSPAdes","S. enterica"
"GCF_021397675.1_ASM2139767v1","bin_component_1","NZ_CP090136.1",4593,"small",0,"non-ARG-plasmid","Precision(bp)",0.946,"plasmidSPAdes","S. enterica"
"GCF_019670245.1_ASM1967024v1","bin_component_1","NZ_AP023297.1",4869,"small",0,"non-ARG-plasmid","Precision(bp)",0.969,"plasmidSPAdes","S. enterica"
"GCF_019670245.1_ASM1967024v1","bin_component_2","NZ_AP023298.1",4060,"small",0,"non-ARG-plasmid","Precision(bp)",0.963,"plasmidSPAdes","S. enterica"
"GCF_016454345.1_ASM1645434v1","bin_component_1","NZ_CP051375.1",3605,"small",0,"non-ARG-plasmid","Precision(bp)",0.932,"plasmidSPAdes","S. enterica"
"GCF_014858565.1_ASM1485856v1","bin_component_0","NZ_CP062227.1",3172,"small",0,"non-ARG-plasmid","Precision(bp)",0.923,"plasmidSPAdes","S. enterica"
"GCF_014334255.1_ASM1433425v1","bin_component_4","NZ_CP060525.1",2096,"small",0,"non-ARG-plasmid","Precision(bp)",0.886,"plasmidSPAdes","S. enterica"
"GCF_016025415.1_ASM1602541v1","bin_component_1","NZ_CP065570.1",5570,"small",0,"non-ARG-plasmid","Precision(bp)",0.955,"plasmidSPAdes","S. enterica"
"GCF_016025415.1_ASM1602541v1","bin_component_0","NZ_CP065569.1",5788,"small",2,"ARG-plasmid","Precision(bp)",0.018,"plasmidSPAdes","S. enterica"
"GCF_016025415.1_ASM1602541v1","bin_component_2","NZ_CP065571.1",3984,"small",0,"non-ARG-plasmid","Precision(bp)",0.94,"plasmidSPAdes","S. enterica"
"GCF_016454465.1_ASM1645446v1","bin_component_0","NZ_CP051390.1",10734,"small",4,"ARG-plasmid","Precision(bp)",0.922,"plasmidSPAdes","S. enterica"
"GCF_014334235.1_ASM1433423v1","bin_component_1","NZ_CP060520.1",4073,"small",0,"non-ARG-plasmid","Precision(bp)",0.965,"plasmidSPAdes","S. enterica"
"GCF_014334235.1_ASM1433423v1","bin_component_2","NZ_CP060521.1",3830,"small",0,"non-ARG-plasmid","Precision(bp)",0.936,"plasmidSPAdes","S. enterica"
"GCF_015159575.1_ASM1515957v1","bin_component_0","NZ_CP063331.1",2097,"small",0,"non-ARG-plasmid","Recall(bp)",0.939,"plasmidSPAdes","S. enterica"
"GCF_014250355.1_ASM1425035v1","bin_component_3","NZ_CP060171.1",1975,"small",0,"non-ARG-plasmid","Recall(bp)",0.961,"plasmidSPAdes","S. enterica"
"GCF_018340585.1_ASM1834058v1","bin_component_1","NZ_CP073717.1",3904,"small",0,"non-ARG-plasmid","Recall(bp)",1,"plasmidSPAdes","S. enterica"
"GCF_018340585.1_ASM1834058v1","bin_component_0","NZ_CP073716.1",4712,"small",0,"non-ARG-plasmid","Recall(bp)",0.984,"plasmidSPAdes","S. enterica"
"GCF_019670285.1_ASM1967028v1","bin_component_0","NZ_AP023302.1",7257,"small",0,"non-ARG-plasmid","Recall(bp)",0.982,"plasmidSPAdes","S. enterica"
"GCF_022655645.1_ASM2265564v1","bin_component_3","NZ_CP093389.1",3176,"small",0,"non-ARG-plasmid","Recall(bp)",1,"plasmidSPAdes","S. enterica"
"GCF_022655645.1_ASM2265564v1","bin_component_2","NZ_CP093388.1",3910,"small",0,"non-ARG-plasmid","Recall(bp)",0.98,"plasmidSPAdes","S. enterica"
"GCF_015241115.1_ASM1524111v1","bin_component_0","NZ_CP063710.1",3087,"small",0,"non-ARG-plasmid","Recall(bp)",0.955,"plasmidSPAdes","S. enterica"
"GCF_016454545.1_ASM1645454v1","bin_component_3","NZ_CP051399.1",4054,"small",0,"non-ARG-plasmid","Recall(bp)",0.97,"plasmidSPAdes","S. enterica"
"GCF_016454545.1_ASM1645454v1","bin_component_4","NZ_CP051401.1",3372,"small",0,"non-ARG-plasmid","Recall(bp)",0.962,"plasmidSPAdes","S. enterica"
"GCF_015074905.1_ASM1507490v1","bin_component_3","NZ_CP063299.1",3257,"small",0,"non-ARG-plasmid","Recall(bp)",0.961,"plasmidSPAdes","S. enterica"
"GCF_015074905.1_ASM1507490v1","bin_component_4","NZ_CP063300.1",1718,"small",0,"non-ARG-plasmid","Recall(bp)",0.926,"plasmidSPAdes","S. enterica"
"GCF_015074905.1_ASM1507490v1","bin_component_2","NZ_CP063298.1",4234,"small",0,"non-ARG-plasmid","Recall(bp)",0.97,"plasmidSPAdes","S. enterica"
"GCF_022936385.1_ASM2293638v1","bin_component_0","NZ_CP092005.1",4593,"small",0,"non-ARG-plasmid","Recall(bp)",0.983,"plasmidSPAdes","S. enterica"
"GCF_016454205.1_ASM1645420v1","bin_component_0","NZ_CP051352.1",8314,"small",3,"ARG-plasmid","Recall(bp)",1.065,"plasmidSPAdes","S. enterica"
"GCF_016025375.1_ASM1602537v1","bin_component_0","NZ_CP065565.1",1982,"small",0,"non-ARG-plasmid","Recall(bp)",0.936,"plasmidSPAdes","S. enterica"
"GCF_014334175.1_ASM1433417v1","bin_component_3","NZ_CP060510.1",3372,"small",0,"non-ARG-plasmid","Recall(bp)",0.993,"plasmidSPAdes","S. enterica"
"GCF_014334175.1_ASM1433417v1","bin_component_4","NZ_CP060511.1",2978,"small",1,"ARG-plasmid","Recall(bp)",1,"plasmidSPAdes","S. enterica"
"GCF_015240855.1_ASM1524085v1","bin_component_1","NZ_CP063704.1",4888,"small",0,"non-ARG-plasmid","Recall(bp)",0.974,"plasmidSPAdes","S. enterica"
"GCF_022936485.1_ASM2293648v1","bin_component_0","NZ_CP092013.1",4593,"small",0,"non-ARG-plasmid","Recall(bp)",0.968,"plasmidSPAdes","S. enterica"
"GCF_016454225.1_ASM1645422v1","bin_component_1","NZ_CP051355.1",10323,"small",1,"ARG-plasmid","Recall(bp)",0.975,"plasmidSPAdes","S. enterica"
"GCF_021397645.1_ASM2139764v1","bin_component_2","NZ_CP090144.1",4593,"small",0,"non-ARG-plasmid","Recall(bp)",0.972,"plasmidSPAdes","S. enterica"
"GCF_016127435.1_ASM1612743v1","bin_component_1","NZ_CP066008.1",8688,"small",3,"ARG-plasmid","Recall(bp)",0.991,"plasmidSPAdes","S. enterica"
"GCF_022936365.1_ASM2293636v1","bin_component_1","NZ_CP092002.1",4820,"small",0,"non-ARG-plasmid","Recall(bp)",0.984,"plasmidSPAdes","S. enterica"
"GCF_022936365.1_ASM2293636v1","bin_component_0","NZ_CP092001.1",5649,"small",0,"non-ARG-plasmid","Recall(bp)",0.986,"plasmidSPAdes","S. enterica"
"GCF_022936365.1_ASM2293636v1","bin_component_2","NZ_CP092003.1",4018,"small",0,"non-ARG-plasmid","Recall(bp)",0.981,"plasmidSPAdes","S. enterica"
"GCF_015240995.1_ASM1524099v1","bin_component_0","NZ_CP063707.1",8686,"small",3,"ARG-plasmid","Recall(bp)",0.795,"plasmidSPAdes","S. enterica"
"GCF_016454365.1_ASM1645436v1","bin_component_1","NZ_CP051378.1",3188,"small",0,"non-ARG-plasmid","Recall(bp)",0.96,"plasmidSPAdes","S. enterica"
"GCF_016454665.1_ASM1645466v1","bin_component_1","NZ_CP051415.1",3319,"small",0,"non-ARG-plasmid","Recall(bp)",0.962,"plasmidSPAdes","S. enterica"
"GCF_016454665.1_ASM1645466v1","bin_component_0","NZ_CP051414.1",3371,"small",0,"non-ARG-plasmid","Recall(bp)",0.962,"plasmidSPAdes","S. enterica"
"GCF_019670345.1_ASM1967034v1","bin_component_0","NZ_AP023308.1",7257,"small",0,"non-ARG-plasmid","Recall(bp)",0.982,"plasmidSPAdes","S. enterica"
"GCF_022162985.1_ASM2216298v1","bin_component_0","NZ_CP091879.1",3967,"small",0,"non-ARG-plasmid","Recall(bp)",0.986,"plasmidSPAdes","S. enterica"
"GCF_016452165.1_ASM1645216v1","bin_component_2","NZ_CP054466.1",3188,"small",0,"non-ARG-plasmid","Recall(bp)",0.96,"plasmidSPAdes","S. enterica"
"GCF_016454725.1_ASM1645472v1","bin_component_3","NZ_CP051419.1",3372,"small",0,"non-ARG-plasmid","Recall(bp)",0.962,"plasmidSPAdes","S. enterica"
"GCF_016454725.1_ASM1645472v1","bin_component_4","NZ_CP051423.1",2444,"small",0,"non-ARG-plasmid","Recall(bp)",0.948,"plasmidSPAdes","S. enterica"
"GCF_016454725.1_ASM1645472v1","bin_component_5","NZ_CP051422.1",2096,"small",0,"non-ARG-plasmid","Recall(bp)",0.939,"plasmidSPAdes","S. enterica"
"GCF_022870605.1_ASM2287060v1","bin_component_1","NZ_CP058674.1",3371,"small",0,"non-ARG-plasmid","Recall(bp)",0.977,"plasmidSPAdes","S. enterica"
"GCF_022936425.1_ASM2293642v1","bin_component_1","NZ_CP092011.1",5725,"small",0,"non-ARG-plasmid","Recall(bp)",0.987,"plasmidSPAdes","S. enterica"
"GCF_015074885.1_ASM1507488v1","bin_component_3","NZ_CP063293.1",3610,"small",0,"non-ARG-plasmid","Recall(bp)",0.965,"plasmidSPAdes","S. enterica"
"GCF_015074885.1_ASM1507488v1","bin_component_2","NZ_CP063292.1",5633,"small",0,"non-ARG-plasmid","Recall(bp)",0.977,"plasmidSPAdes","S. enterica"
"GCF_021397675.1_ASM2139767v1","bin_component_1","NZ_CP090136.1",4593,"small",0,"non-ARG-plasmid","Recall(bp)",0.972,"plasmidSPAdes","S. enterica"
"GCF_019670245.1_ASM1967024v1","bin_component_1","NZ_AP023297.1",4869,"small",0,"non-ARG-plasmid","Recall(bp)",0.984,"plasmidSPAdes","S. enterica"
"GCF_019670245.1_ASM1967024v1","bin_component_2","NZ_AP023298.1",4060,"small",0,"non-ARG-plasmid","Recall(bp)",0.981,"plasmidSPAdes","S. enterica"
"GCF_016454345.1_ASM1645434v1","bin_component_1","NZ_CP051375.1",3605,"small",0,"non-ARG-plasmid","Recall(bp)",0.965,"plasmidSPAdes","S. enterica"
"GCF_014858565.1_ASM1485856v1","bin_component_0","NZ_CP062227.1",3172,"small",0,"non-ARG-plasmid","Recall(bp)",0.96,"plasmidSPAdes","S. enterica"
"GCF_014334255.1_ASM1433425v1","bin_component_4","NZ_CP060525.1",2096,"small",0,"non-ARG-plasmid","Recall(bp)",0.939,"plasmidSPAdes","S. enterica"
"GCF_016025415.1_ASM1602541v1","bin_component_1","NZ_CP065570.1",5570,"small",0,"non-ARG-plasmid","Recall(bp)",0.977,"plasmidSPAdes","S. enterica"
"GCF_016025415.1_ASM1602541v1","bin_component_0","NZ_CP065569.1",5788,"small",2,"ARG-plasmid","Recall(bp)",0.681,"plasmidSPAdes","S. enterica"
"GCF_016025415.1_ASM1602541v1","bin_component_2","NZ_CP065571.1",3984,"small",0,"non-ARG-plasmid","Recall(bp)",0.969,"plasmidSPAdes","S. enterica"
"GCF_016454465.1_ASM1645446v1","bin_component_0","NZ_CP051390.1",10734,"small",4,"ARG-plasmid","Recall(bp)",0.983,"plasmidSPAdes","S. enterica"
"GCF_014334235.1_ASM1433423v1","bin_component_1","NZ_CP060520.1",4073,"small",0,"non-ARG-plasmid","Recall(bp)",0.995,"plasmidSPAdes","S. enterica"
"GCF_014334235.1_ASM1433423v1","bin_component_2","NZ_CP060521.1",3830,"small",0,"non-ARG-plasmid","Recall(bp)",0.967,"plasmidSPAdes","S. enterica"
"GCF_015159575.1_ASM1515957v1","bin_component_0","NZ_CP063331.1",2097,"small",0,"non-ARG-plasmid","F1-Score(bp)",0.912,"plasmidSPAdes","S. enterica"
"GCF_014250355.1_ASM1425035v1","bin_component_3","NZ_CP060171.1",1975,"small",0,"non-ARG-plasmid","F1-Score(bp)",0.943,"plasmidSPAdes","S. enterica"
"GCF_018340585.1_ASM1834058v1","bin_component_1","NZ_CP073717.1",3904,"small",0,"non-ARG-plasmid","F1-Score(bp)",0.99,"plasmidSPAdes","S. enterica"
"GCF_018340585.1_ASM1834058v1","bin_component_0","NZ_CP073716.1",4712,"small",0,"non-ARG-plasmid","F1-Score(bp)",0.976,"plasmidSPAdes","S. enterica"
"GCF_019670285.1_ASM1967028v1","bin_component_0","NZ_AP023302.1",7257,"small",0,"non-ARG-plasmid","F1-Score(bp)",0.099,"plasmidSPAdes","S. enterica"
"GCF_022655645.1_ASM2265564v1","bin_component_3","NZ_CP093389.1",3176,"small",0,"non-ARG-plasmid","F1-Score(bp)",0.988,"plasmidSPAdes","S. enterica"
"GCF_022655645.1_ASM2265564v1","bin_component_2","NZ_CP093388.1",3910,"small",0,"non-ARG-plasmid","F1-Score(bp)",0.97,"plasmidSPAdes","S. enterica"
"GCF_015241115.1_ASM1524111v1","bin_component_0","NZ_CP063710.1",3087,"small",0,"non-ARG-plasmid","F1-Score(bp)",0.937,"plasmidSPAdes","S. enterica"
"GCF_016454545.1_ASM1645454v1","bin_component_3","NZ_CP051399.1",4054,"small",0,"non-ARG-plasmid","F1-Score(bp)",0.955,"plasmidSPAdes","S. enterica"
"GCF_016454545.1_ASM1645454v1","bin_component_4","NZ_CP051401.1",3372,"small",0,"non-ARG-plasmid","F1-Score(bp)",0.944,"plasmidSPAdes","S. enterica"
"GCF_015074905.1_ASM1507490v1","bin_component_3","NZ_CP063299.1",3257,"small",0,"non-ARG-plasmid","F1-Score(bp)",0.943,"plasmidSPAdes","S. enterica"
"GCF_015074905.1_ASM1507490v1","bin_component_4","NZ_CP063300.1",1718,"small",0,"non-ARG-plasmid","F1-Score(bp)",0.893,"plasmidSPAdes","S. enterica"
"GCF_015074905.1_ASM1507490v1","bin_component_2","NZ_CP063298.1",4234,"small",0,"non-ARG-plasmid","F1-Score(bp)",0.956,"plasmidSPAdes","S. enterica"
"GCF_022936385.1_ASM2293638v1","bin_component_0","NZ_CP092005.1",4593,"small",0,"non-ARG-plasmid","F1-Score(bp)",0.975,"plasmidSPAdes","S. enterica"
"GCF_016454205.1_ASM1645420v1","bin_component_0","NZ_CP051352.1",8314,"small",3,"ARG-plasmid","F1-Score(bp)",0.151,"plasmidSPAdes","S. enterica"
"GCF_016025375.1_ASM1602537v1","bin_component_0","NZ_CP065565.1",1982,"small",0,"non-ARG-plasmid","F1-Score(bp)",0.907,"plasmidSPAdes","S. enterica"
"GCF_014334175.1_ASM1433417v1","bin_component_3","NZ_CP060510.1",3372,"small",0,"non-ARG-plasmid","F1-Score(bp)",0.975,"plasmidSPAdes","S. enterica"
"GCF_014334175.1_ASM1433417v1","bin_component_4","NZ_CP060511.1",2978,"small",1,"ARG-plasmid","F1-Score(bp)",0.979,"plasmidSPAdes","S. enterica"
"GCF_015240855.1_ASM1524085v1","bin_component_1","NZ_CP063704.1",4888,"small",0,"non-ARG-plasmid","F1-Score(bp)",0.961,"plasmidSPAdes","S. enterica"
"GCF_022936485.1_ASM2293648v1","bin_component_0","NZ_CP092013.1",4593,"small",0,"non-ARG-plasmid","F1-Score(bp)",0.96,"plasmidSPAdes","S. enterica"
"GCF_016454225.1_ASM1645422v1","bin_component_1","NZ_CP051355.1",10323,"small",1,"ARG-plasmid","F1-Score(bp)",0.975,"plasmidSPAdes","S. enterica"
"GCF_021397645.1_ASM2139764v1","bin_component_2","NZ_CP090144.1",4593,"small",0,"non-ARG-plasmid","F1-Score(bp)",0.959,"plasmidSPAdes","S. enterica"
"GCF_016127435.1_ASM1612743v1","bin_component_1","NZ_CP066008.1",8688,"small",3,"ARG-plasmid","F1-Score(bp)",0.102,"plasmidSPAdes","S. enterica"
"GCF_022936365.1_ASM2293636v1","bin_component_1","NZ_CP092002.1",4820,"small",0,"non-ARG-plasmid","F1-Score(bp)",0.976,"plasmidSPAdes","S. enterica"
"GCF_022936365.1_ASM2293636v1","bin_component_0","NZ_CP092001.1",5649,"small",0,"non-ARG-plasmid","F1-Score(bp)",0.979,"plasmidSPAdes","S. enterica"
"GCF_022936365.1_ASM2293636v1","bin_component_2","NZ_CP092003.1",4018,"small",0,"non-ARG-plasmid","F1-Score(bp)",0.971,"plasmidSPAdes","S. enterica"
"GCF_015240995.1_ASM1524099v1","bin_component_0","NZ_CP063707.1",8686,"small",3,"ARG-plasmid","F1-Score(bp)",0.127,"plasmidSPAdes","S. enterica"
"GCF_016454365.1_ASM1645436v1","bin_component_1","NZ_CP051378.1",3188,"small",0,"non-ARG-plasmid","F1-Score(bp)",0.941,"plasmidSPAdes","S. enterica"
"GCF_016454665.1_ASM1645466v1","bin_component_1","NZ_CP051415.1",3319,"small",0,"non-ARG-plasmid","F1-Score(bp)",0.944,"plasmidSPAdes","S. enterica"
"GCF_016454665.1_ASM1645466v1","bin_component_0","NZ_CP051414.1",3371,"small",0,"non-ARG-plasmid","F1-Score(bp)",0.944,"plasmidSPAdes","S. enterica"
"GCF_019670345.1_ASM1967034v1","bin_component_0","NZ_AP023308.1",7257,"small",0,"non-ARG-plasmid","F1-Score(bp)",0.099,"plasmidSPAdes","S. enterica"
"GCF_022162985.1_ASM2216298v1","bin_component_0","NZ_CP091879.1",3967,"small",0,"non-ARG-plasmid","F1-Score(bp)",0.979,"plasmidSPAdes","S. enterica"
"GCF_016452165.1_ASM1645216v1","bin_component_2","NZ_CP054466.1",3188,"small",0,"non-ARG-plasmid","F1-Score(bp)",0.941,"plasmidSPAdes","S. enterica"
"GCF_016454725.1_ASM1645472v1","bin_component_3","NZ_CP051419.1",3372,"small",0,"non-ARG-plasmid","F1-Score(bp)",0.944,"plasmidSPAdes","S. enterica"
"GCF_016454725.1_ASM1645472v1","bin_component_4","NZ_CP051423.1",2444,"small",0,"non-ARG-plasmid","F1-Score(bp)",0.924,"plasmidSPAdes","S. enterica"
"GCF_016454725.1_ASM1645472v1","bin_component_5","NZ_CP051422.1",2096,"small",0,"non-ARG-plasmid","F1-Score(bp)",0.912,"plasmidSPAdes","S. enterica"
"GCF_022870605.1_ASM2287060v1","bin_component_1","NZ_CP058674.1",3371,"small",0,"non-ARG-plasmid","F1-Score(bp)",0.966,"plasmidSPAdes","S. enterica"
"GCF_022936425.1_ASM2293642v1","bin_component_1","NZ_CP092011.1",5725,"small",0,"non-ARG-plasmid","F1-Score(bp)",0.98,"plasmidSPAdes","S. enterica"
"GCF_015074885.1_ASM1507488v1","bin_component_3","NZ_CP063293.1",3610,"small",0,"non-ARG-plasmid","F1-Score(bp)",0.948,"plasmidSPAdes","S. enterica"
"GCF_015074885.1_ASM1507488v1","bin_component_2","NZ_CP063292.1",5633,"small",0,"non-ARG-plasmid","F1-Score(bp)",0.966,"plasmidSPAdes","S. enterica"
"GCF_021397675.1_ASM2139767v1","bin_component_1","NZ_CP090136.1",4593,"small",0,"non-ARG-plasmid","F1-Score(bp)",0.959,"plasmidSPAdes","S. enterica"
"GCF_019670245.1_ASM1967024v1","bin_component_1","NZ_AP023297.1",4869,"small",0,"non-ARG-plasmid","F1-Score(bp)",0.976,"plasmidSPAdes","S. enterica"
"GCF_019670245.1_ASM1967024v1","bin_component_2","NZ_AP023298.1",4060,"small",0,"non-ARG-plasmid","F1-Score(bp)",0.972,"plasmidSPAdes","S. enterica"
"GCF_016454345.1_ASM1645434v1","bin_component_1","NZ_CP051375.1",3605,"small",0,"non-ARG-plasmid","F1-Score(bp)",0.948,"plasmidSPAdes","S. enterica"
"GCF_014858565.1_ASM1485856v1","bin_component_0","NZ_CP062227.1",3172,"small",0,"non-ARG-plasmid","F1-Score(bp)",0.941,"plasmidSPAdes","S. enterica"
"GCF_014334255.1_ASM1433425v1","bin_component_4","NZ_CP060525.1",2096,"small",0,"non-ARG-plasmid","F1-Score(bp)",0.912,"plasmidSPAdes","S. enterica"
"GCF_016025415.1_ASM1602541v1","bin_component_1","NZ_CP065570.1",5570,"small",0,"non-ARG-plasmid","F1-Score(bp)",0.966,"plasmidSPAdes","S. enterica"
"GCF_016025415.1_ASM1602541v1","bin_component_0","NZ_CP065569.1",5788,"small",2,"ARG-plasmid","F1-Score(bp)",0.035,"plasmidSPAdes","S. enterica"
"GCF_016025415.1_ASM1602541v1","bin_component_2","NZ_CP065571.1",3984,"small",0,"non-ARG-plasmid","F1-Score(bp)",0.954,"plasmidSPAdes","S. enterica"
"GCF_016454465.1_ASM1645446v1","bin_component_0","NZ_CP051390.1",10734,"small",4,"ARG-plasmid","F1-Score(bp)",0.952,"plasmidSPAdes","S. enterica"
"GCF_014334235.1_ASM1433423v1","bin_component_1","NZ_CP060520.1",4073,"small",0,"non-ARG-plasmid","F1-Score(bp)",0.98,"plasmidSPAdes","S. enterica"
"GCF_014334235.1_ASM1433423v1","bin_component_2","NZ_CP060521.1",3830,"small",0,"non-ARG-plasmid","F1-Score(bp)",0.951,"plasmidSPAdes","S. enterica"
"GCF_018340585.1_ASM1834058v1","GCF_018340585.1_ASM1834058v1_bin_2","NZ_CP073717.1",3904,"small",0,"non-ARG-plasmid","Precision(bp)",1,"gplas2","S. enterica"
"GCF_018340585.1_ASM1834058v1","GCF_018340585.1_ASM1834058v1_bin_1","NZ_CP073716.1",4712,"small",0,"non-ARG-plasmid","Precision(bp)",1,"gplas2","S. enterica"
"GCF_022936365.1_ASM2293636v1","GCF_022936365.1_ASM2293636v1_bin_4","NZ_CP092003.1",4018,"small",0,"non-ARG-plasmid","Precision(bp)",1,"gplas2","S. enterica"
"GCF_022936365.1_ASM2293636v1","GCF_022936365.1_ASM2293636v1_bin_2","NZ_CP092001.1",5649,"small",0,"non-ARG-plasmid","Precision(bp)",1,"gplas2","S. enterica"
"GCF_022936365.1_ASM2293636v1","GCF_022936365.1_ASM2293636v1_bin_3","NZ_CP092002.1",4820,"small",0,"non-ARG-plasmid","Precision(bp)",1,"gplas2","S. enterica"
"GCF_022655645.1_ASM2265564v1","GCF_022655645.1_ASM2265564v1_bin_3","NZ_CP093389.1",3176,"small",0,"non-ARG-plasmid","Precision(bp)",1,"gplas2","S. enterica"
"GCF_022655645.1_ASM2265564v1","GCF_022655645.1_ASM2265564v1_bin_2","NZ_CP093388.1",3910,"small",0,"non-ARG-plasmid","Precision(bp)",1,"gplas2","S. enterica"
"GCF_021397675.1_ASM2139767v1","GCF_021397675.1_ASM2139767v1_bin_6","NZ_CP090136.1",4593,"small",0,"non-ARG-plasmid","Precision(bp)",1,"gplas2","S. enterica"
"GCF_016952595.1_ASM1695259v1","GCF_016952595.1_ASM1695259v1_bin_3","NZ_CP051362.1",3830,"small",0,"non-ARG-plasmid","Precision(bp)",1,"gplas2","S. enterica"
"GCF_016452165.1_ASM1645216v1","GCF_016452165.1_ASM1645216v1_bin_5","NZ_CP054466.1",3188,"small",0,"non-ARG-plasmid","Precision(bp)",1,"gplas2","S. enterica"
"GCF_016452165.1_ASM1645216v1","GCF_016452165.1_ASM1645216v1_bin_4","NZ_CP054465.1",3829,"small",0,"non-ARG-plasmid","Precision(bp)",1,"gplas2","S. enterica"
"GCF_014334175.1_ASM1433417v1","GCF_014334175.1_ASM1433417v1_bin_3","NZ_CP060511.1",2978,"small",1,"ARG-plasmid","Precision(bp)",1,"gplas2","S. enterica"
"GCF_014334175.1_ASM1433417v1","GCF_014334175.1_ASM1433417v1_bin_2","NZ_CP060510.1",3372,"small",0,"non-ARG-plasmid","Precision(bp)",1,"gplas2","S. enterica"
"GCF_022936385.1_ASM2293638v1","GCF_022936385.1_ASM2293638v1_bin_2","NZ_CP092005.1",4593,"small",0,"non-ARG-plasmid","Precision(bp)",1,"gplas2","S. enterica"
"GCF_022936425.1_ASM2293642v1","GCF_022936425.1_ASM2293642v1_bin_3","NZ_CP092011.1",5725,"small",0,"non-ARG-plasmid","Precision(bp)",0.999,"gplas2","S. enterica"
"GCF_016454345.1_ASM1645434v1","GCF_016454345.1_ASM1645434v1_bin_2","NZ_CP051375.1",3605,"small",0,"non-ARG-plasmid","Precision(bp)",1,"gplas2","S. enterica"
"GCF_014334255.1_ASM1433425v1","GCF_014334255.1_ASM1433425v1_bin_3","NZ_CP060525.1",2096,"small",0,"non-ARG-plasmid","Precision(bp)",1,"gplas2","S. enterica"
"GCF_015240855.1_ASM1524085v1","GCF_015240855.1_ASM1524085v1_bin_5","NZ_CP063704.1",4888,"small",0,"non-ARG-plasmid","Precision(bp)",1,"gplas2","S. enterica"
"GCF_022936485.1_ASM2293648v1","GCF_022936485.1_ASM2293648v1_bin_2","NZ_CP092013.1",4593,"small",0,"non-ARG-plasmid","Precision(bp)",1,"gplas2","S. enterica"
"GCF_018340585.1_ASM1834058v1","GCF_018340585.1_ASM1834058v1_bin_2","NZ_CP073717.1",3904,"small",0,"non-ARG-plasmid","Recall(bp)",1,"gplas2","S. enterica"
"GCF_018340585.1_ASM1834058v1","GCF_018340585.1_ASM1834058v1_bin_1","NZ_CP073716.1",4712,"small",0,"non-ARG-plasmid","Recall(bp)",1,"gplas2","S. enterica"
"GCF_022936365.1_ASM2293636v1","GCF_022936365.1_ASM2293636v1_bin_4","NZ_CP092003.1",4018,"small",0,"non-ARG-plasmid","Recall(bp)",1,"gplas2","S. enterica"
"GCF_022936365.1_ASM2293636v1","GCF_022936365.1_ASM2293636v1_bin_2","NZ_CP092001.1",5649,"small",0,"non-ARG-plasmid","Recall(bp)",1,"gplas2","S. enterica"
"GCF_022936365.1_ASM2293636v1","GCF_022936365.1_ASM2293636v1_bin_3","NZ_CP092002.1",4820,"small",0,"non-ARG-plasmid","Recall(bp)",1,"gplas2","S. enterica"
"GCF_022655645.1_ASM2265564v1","GCF_022655645.1_ASM2265564v1_bin_3","NZ_CP093389.1",3176,"small",0,"non-ARG-plasmid","Recall(bp)",1,"gplas2","S. enterica"
"GCF_022655645.1_ASM2265564v1","GCF_022655645.1_ASM2265564v1_bin_2","NZ_CP093388.1",3910,"small",0,"non-ARG-plasmid","Recall(bp)",1,"gplas2","S. enterica"
"GCF_021397675.1_ASM2139767v1","GCF_021397675.1_ASM2139767v1_bin_6","NZ_CP090136.1",4593,"small",0,"non-ARG-plasmid","Recall(bp)",1,"gplas2","S. enterica"
"GCF_016952595.1_ASM1695259v1","GCF_016952595.1_ASM1695259v1_bin_3","NZ_CP051362.1",3830,"small",0,"non-ARG-plasmid","Recall(bp)",0.995,"gplas2","S. enterica"
"GCF_016452165.1_ASM1645216v1","GCF_016452165.1_ASM1645216v1_bin_5","NZ_CP054466.1",3188,"small",0,"non-ARG-plasmid","Recall(bp)",1,"gplas2","S. enterica"
"GCF_016452165.1_ASM1645216v1","GCF_016452165.1_ASM1645216v1_bin_4","NZ_CP054465.1",3829,"small",0,"non-ARG-plasmid","Recall(bp)",1,"gplas2","S. enterica"
"GCF_014334175.1_ASM1433417v1","GCF_014334175.1_ASM1433417v1_bin_3","NZ_CP060511.1",2978,"small",1,"ARG-plasmid","Recall(bp)",1,"gplas2","S. enterica"
"GCF_014334175.1_ASM1433417v1","GCF_014334175.1_ASM1433417v1_bin_2","NZ_CP060510.1",3372,"small",0,"non-ARG-plasmid","Recall(bp)",1,"gplas2","S. enterica"
"GCF_022936385.1_ASM2293638v1","GCF_022936385.1_ASM2293638v1_bin_2","NZ_CP092005.1",4593,"small",0,"non-ARG-plasmid","Recall(bp)",1,"gplas2","S. enterica"
"GCF_022936425.1_ASM2293642v1","GCF_022936425.1_ASM2293642v1_bin_3","NZ_CP092011.1",5725,"small",0,"non-ARG-plasmid","Recall(bp)",0.999,"gplas2","S. enterica"
"GCF_016454345.1_ASM1645434v1","GCF_016454345.1_ASM1645434v1_bin_2","NZ_CP051375.1",3605,"small",0,"non-ARG-plasmid","Recall(bp)",1,"gplas2","S. enterica"
"GCF_014334255.1_ASM1433425v1","GCF_014334255.1_ASM1433425v1_bin_3","NZ_CP060525.1",2096,"small",0,"non-ARG-plasmid","Recall(bp)",1,"gplas2","S. enterica"
"GCF_015240855.1_ASM1524085v1","GCF_015240855.1_ASM1524085v1_bin_5","NZ_CP063704.1",4888,"small",0,"non-ARG-plasmid","Recall(bp)",1,"gplas2","S. enterica"
"GCF_022936485.1_ASM2293648v1","GCF_022936485.1_ASM2293648v1_bin_2","NZ_CP092013.1",4593,"small",0,"non-ARG-plasmid","Recall(bp)",1,"gplas2","S. enterica"
"GCF_018340585.1_ASM1834058v1","GCF_018340585.1_ASM1834058v1_bin_2","NZ_CP073717.1",3904,"small",0,"non-ARG-plasmid","F1-Score(bp)",1,"gplas2","S. enterica"
"GCF_018340585.1_ASM1834058v1","GCF_018340585.1_ASM1834058v1_bin_1","NZ_CP073716.1",4712,"small",0,"non-ARG-plasmid","F1-Score(bp)",1,"gplas2","S. enterica"
"GCF_022936365.1_ASM2293636v1","GCF_022936365.1_ASM2293636v1_bin_4","NZ_CP092003.1",4018,"small",0,"non-ARG-plasmid","F1-Score(bp)",1,"gplas2","S. enterica"
"GCF_022936365.1_ASM2293636v1","GCF_022936365.1_ASM2293636v1_bin_2","NZ_CP092001.1",5649,"small",0,"non-ARG-plasmid","F1-Score(bp)",1,"gplas2","S. enterica"
"GCF_022936365.1_ASM2293636v1","GCF_022936365.1_ASM2293636v1_bin_3","NZ_CP092002.1",4820,"small",0,"non-ARG-plasmid","F1-Score(bp)",1,"gplas2","S. enterica"
"GCF_022655645.1_ASM2265564v1","GCF_022655645.1_ASM2265564v1_bin_3","NZ_CP093389.1",3176,"small",0,"non-ARG-plasmid","F1-Score(bp)",1,"gplas2","S. enterica"
"GCF_022655645.1_ASM2265564v1","GCF_022655645.1_ASM2265564v1_bin_2","NZ_CP093388.1",3910,"small",0,"non-ARG-plasmid","F1-Score(bp)",1,"gplas2","S. enterica"
"GCF_021397675.1_ASM2139767v1","GCF_021397675.1_ASM2139767v1_bin_6","NZ_CP090136.1",4593,"small",0,"non-ARG-plasmid","F1-Score(bp)",1,"gplas2","S. enterica"
"GCF_016952595.1_ASM1695259v1","GCF_016952595.1_ASM1695259v1_bin_3","NZ_CP051362.1",3830,"small",0,"non-ARG-plasmid","F1-Score(bp)",0.997,"gplas2","S. enterica"
"GCF_016452165.1_ASM1645216v1","GCF_016452165.1_ASM1645216v1_bin_5","NZ_CP054466.1",3188,"small",0,"non-ARG-plasmid","F1-Score(bp)",1,"gplas2","S. enterica"
"GCF_016452165.1_ASM1645216v1","GCF_016452165.1_ASM1645216v1_bin_4","NZ_CP054465.1",3829,"small",0,"non-ARG-plasmid","F1-Score(bp)",1,"gplas2","S. enterica"
"GCF_014334175.1_ASM1433417v1","GCF_014334175.1_ASM1433417v1_bin_3","NZ_CP060511.1",2978,"small",1,"ARG-plasmid","F1-Score(bp)",1,"gplas2","S. enterica"
"GCF_014334175.1_ASM1433417v1","GCF_014334175.1_ASM1433417v1_bin_2","NZ_CP060510.1",3372,"small",0,"non-ARG-plasmid","F1-Score(bp)",1,"gplas2","S. enterica"
"GCF_022936385.1_ASM2293638v1","GCF_022936385.1_ASM2293638v1_bin_2","NZ_CP092005.1",4593,"small",0,"non-ARG-plasmid","F1-Score(bp)",1,"gplas2","S. enterica"
"GCF_022936425.1_ASM2293642v1","GCF_022936425.1_ASM2293642v1_bin_3","NZ_CP092011.1",5725,"small",0,"non-ARG-plasmid","F1-Score(bp)",0.999,"gplas2","S. enterica"
"GCF_016454345.1_ASM1645434v1","GCF_016454345.1_ASM1645434v1_bin_2","NZ_CP051375.1",3605,"small",0,"non-ARG-plasmid","F1-Score(bp)",1,"gplas2","S. enterica"
"GCF_014334255.1_ASM1433425v1","GCF_014334255.1_ASM1433425v1_bin_3","NZ_CP060525.1",2096,"small",0,"non-ARG-plasmid","F1-Score(bp)",1,"gplas2","S. enterica"
"GCF_015240855.1_ASM1524085v1","GCF_015240855.1_ASM1524085v1_bin_5","NZ_CP063704.1",4888,"small",0,"non-ARG-plasmid","F1-Score(bp)",1,"gplas2","S. enterica"
"GCF_022936485.1_ASM2293648v1","GCF_022936485.1_ASM2293648v1_bin_2","NZ_CP092013.1",4593,"small",0,"non-ARG-plasmid","F1-Score(bp)",1,"gplas2","S. enterica"
"GCF_016454205.1_ASM1645420v1","plasmid_AA474","NZ_CP051352.1",8314,"small",3,"ARG-plasmid","Precision(bp)",0.032,"MOB-suite","S. enterica"
"GCF_016454205.1_ASM1645420v1","plasmid_AC120","NZ_CP051352.1",8314,"small",3,"ARG-plasmid","Precision(bp)",1,"MOB-suite","S. enterica"
"GCF_021397675.1_ASM2139767v1","plasmid_AA162","NZ_CP090136.1",4593,"small",0,"non-ARG-plasmid","Precision(bp)",1,"MOB-suite","S. enterica"
"GCF_014334175.1_ASM1433417v1","plasmid_AA163","NZ_CP060510.1",3372,"small",0,"non-ARG-plasmid","Precision(bp)",1,"MOB-suite","S. enterica"
"GCF_014334175.1_ASM1433417v1","plasmid_AB042","NZ_CP060511.1",2978,"small",1,"ARG-plasmid","Precision(bp)",1,"MOB-suite","S. enterica"
"GCF_019670285.1_ASM1967028v1","plasmid_AC120","NZ_AP023302.1",7257,"small",0,"non-ARG-plasmid","Precision(bp)",0.629,"MOB-suite","S. enterica"
"GCF_018340585.1_ASM1834058v1","plasmid_AA974","NZ_CP073717.1",3904,"small",0,"non-ARG-plasmid","Precision(bp)",1,"MOB-suite","S. enterica"
"GCF_022655645.1_ASM2265564v1","plasmid_AA669","NZ_CP093389.1",3176,"small",0,"non-ARG-plasmid","Precision(bp)",1,"MOB-suite","S. enterica"
"GCF_022655645.1_ASM2265564v1","plasmid_AA974","NZ_CP093388.1",3910,"small",0,"non-ARG-plasmid","Precision(bp)",1,"MOB-suite","S. enterica"
"GCF_022936425.1_ASM2293642v1","plasmid_AA971","NZ_CP092011.1",5725,"small",0,"non-ARG-plasmid","Precision(bp)",0.999,"MOB-suite","S. enterica"
"GCF_022936485.1_ASM2293648v1","plasmid_AA162","NZ_CP092013.1",4593,"small",0,"non-ARG-plasmid","Precision(bp)",1,"MOB-suite","S. enterica"
"GCF_015240855.1_ASM1524085v1","plasmid_AA662","NZ_CP063704.1",4888,"small",0,"non-ARG-plasmid","Precision(bp)",1,"MOB-suite","S. enterica"
"GCF_016952595.1_ASM1695259v1","plasmid_AB037","NZ_CP051362.1",3830,"small",0,"non-ARG-plasmid","Precision(bp)",1,"MOB-suite","S. enterica"
"GCF_014334255.1_ASM1433425v1","plasmid_AB241","NZ_CP060525.1",2096,"small",0,"non-ARG-plasmid","Precision(bp)",1,"MOB-suite","S. enterica"
"GCF_016454465.1_ASM1645446v1","plasmid_AC120","NZ_CP051390.1",10734,"small",4,"ARG-plasmid","Precision(bp)",1,"MOB-suite","S. enterica"
"GCF_016454345.1_ASM1645434v1","plasmid_AB056","NZ_CP051375.1",3605,"small",0,"non-ARG-plasmid","Precision(bp)",1,"MOB-suite","S. enterica"
"GCF_022936385.1_ASM2293638v1","plasmid_AA162","NZ_CP092005.1",4593,"small",0,"non-ARG-plasmid","Precision(bp)",1,"MOB-suite","S. enterica"
"GCF_016452165.1_ASM1645216v1","plasmid_AB037","NZ_CP054465.1",3829,"small",0,"non-ARG-plasmid","Precision(bp)",1,"MOB-suite","S. enterica"
"GCF_016452165.1_ASM1645216v1","plasmid_AD486","NZ_CP054466.1",3188,"small",0,"non-ARG-plasmid","Precision(bp)",1,"MOB-suite","S. enterica"
"GCF_019670345.1_ASM1967034v1","plasmid_AC120","NZ_AP023308.1",7257,"small",0,"non-ARG-plasmid","Precision(bp)",0.485,"MOB-suite","S. enterica"
"GCF_022936365.1_ASM2293636v1","plasmid_AA537","NZ_CP092003.1",4018,"small",0,"non-ARG-plasmid","Precision(bp)",1,"MOB-suite","S. enterica"
"GCF_022936365.1_ASM2293636v1","plasmid_AA979","NZ_CP092002.1",4820,"small",0,"non-ARG-plasmid","Precision(bp)",1,"MOB-suite","S. enterica"
"GCF_016454205.1_ASM1645420v1","plasmid_AA474","NZ_CP051352.1",8314,"small",3,"ARG-plasmid","Recall(bp)",0.365,"MOB-suite","S. enterica"
"GCF_016454205.1_ASM1645420v1","plasmid_AC120","NZ_CP051352.1",8314,"small",3,"ARG-plasmid","Recall(bp)",0.504,"MOB-suite","S. enterica"
"GCF_021397675.1_ASM2139767v1","plasmid_AA162","NZ_CP090136.1",4593,"small",0,"non-ARG-plasmid","Recall(bp)",1,"MOB-suite","S. enterica"
"GCF_014334175.1_ASM1433417v1","plasmid_AA163","NZ_CP060510.1",3372,"small",0,"non-ARG-plasmid","Recall(bp)",1,"MOB-suite","S. enterica"
"GCF_014334175.1_ASM1433417v1","plasmid_AB042","NZ_CP060511.1",2978,"small",1,"ARG-plasmid","Recall(bp)",1,"MOB-suite","S. enterica"
"GCF_019670285.1_ASM1967028v1","plasmid_AC120","NZ_AP023302.1",7257,"small",0,"non-ARG-plasmid","Recall(bp)",0.78,"MOB-suite","S. enterica"
"GCF_018340585.1_ASM1834058v1","plasmid_AA974","NZ_CP073717.1",3904,"small",0,"non-ARG-plasmid","Recall(bp)",1,"MOB-suite","S. enterica"
"GCF_022655645.1_ASM2265564v1","plasmid_AA669","NZ_CP093389.1",3176,"small",0,"non-ARG-plasmid","Recall(bp)",1,"MOB-suite","S. enterica"
"GCF_022655645.1_ASM2265564v1","plasmid_AA974","NZ_CP093388.1",3910,"small",0,"non-ARG-plasmid","Recall(bp)",1,"MOB-suite","S. enterica"
"GCF_022936425.1_ASM2293642v1","plasmid_AA971","NZ_CP092011.1",5725,"small",0,"non-ARG-plasmid","Recall(bp)",0.999,"MOB-suite","S. enterica"
"GCF_022936485.1_ASM2293648v1","plasmid_AA162","NZ_CP092013.1",4593,"small",0,"non-ARG-plasmid","Recall(bp)",1,"MOB-suite","S. enterica"
"GCF_015240855.1_ASM1524085v1","plasmid_AA662","NZ_CP063704.1",4888,"small",0,"non-ARG-plasmid","Recall(bp)",1,"MOB-suite","S. enterica"
"GCF_016952595.1_ASM1695259v1","plasmid_AB037","NZ_CP051362.1",3830,"small",0,"non-ARG-plasmid","Recall(bp)",0.995,"MOB-suite","S. enterica"
"GCF_014334255.1_ASM1433425v1","plasmid_AB241","NZ_CP060525.1",2096,"small",0,"non-ARG-plasmid","Recall(bp)",1,"MOB-suite","S. enterica"
"GCF_016454465.1_ASM1645446v1","plasmid_AC120","NZ_CP051390.1",10734,"small",4,"ARG-plasmid","Recall(bp)",0.973,"MOB-suite","S. enterica"
"GCF_016454345.1_ASM1645434v1","plasmid_AB056","NZ_CP051375.1",3605,"small",0,"non-ARG-plasmid","Recall(bp)",1,"MOB-suite","S. enterica"
"GCF_022936385.1_ASM2293638v1","plasmid_AA162","NZ_CP092005.1",4593,"small",0,"non-ARG-plasmid","Recall(bp)",1,"MOB-suite","S. enterica"
"GCF_016452165.1_ASM1645216v1","plasmid_AB037","NZ_CP054465.1",3829,"small",0,"non-ARG-plasmid","Recall(bp)",1,"MOB-suite","S. enterica"
"GCF_016452165.1_ASM1645216v1","plasmid_AD486","NZ_CP054466.1",3188,"small",0,"non-ARG-plasmid","Recall(bp)",1,"MOB-suite","S. enterica"
"GCF_019670345.1_ASM1967034v1","plasmid_AC120","NZ_AP023308.1",7257,"small",0,"non-ARG-plasmid","Recall(bp)",0.78,"MOB-suite","S. enterica"
"GCF_022936365.1_ASM2293636v1","plasmid_AA537","NZ_CP092003.1",4018,"small",0,"non-ARG-plasmid","Recall(bp)",1,"MOB-suite","S. enterica"
"GCF_022936365.1_ASM2293636v1","plasmid_AA979","NZ_CP092002.1",4820,"small",0,"non-ARG-plasmid","Recall(bp)",1,"MOB-suite","S. enterica"
"GCF_016454205.1_ASM1645420v1","plasmid_AA474","NZ_CP051352.1",8314,"small",3,"ARG-plasmid","F1-Score(bp)",0.059,"MOB-suite","S. enterica"
"GCF_016454205.1_ASM1645420v1","plasmid_AC120","NZ_CP051352.1",8314,"small",3,"ARG-plasmid","F1-Score(bp)",0.67,"MOB-suite","S. enterica"
"GCF_021397675.1_ASM2139767v1","plasmid_AA162","NZ_CP090136.1",4593,"small",0,"non-ARG-plasmid","F1-Score(bp)",1,"MOB-suite","S. enterica"
"GCF_014334175.1_ASM1433417v1","plasmid_AA163","NZ_CP060510.1",3372,"small",0,"non-ARG-plasmid","F1-Score(bp)",1,"MOB-suite","S. enterica"
"GCF_014334175.1_ASM1433417v1","plasmid_AB042","NZ_CP060511.1",2978,"small",1,"ARG-plasmid","F1-Score(bp)",1,"MOB-suite","S. enterica"
"GCF_019670285.1_ASM1967028v1","plasmid_AC120","NZ_AP023302.1",7257,"small",0,"non-ARG-plasmid","F1-Score(bp)",0.696,"MOB-suite","S. enterica"
"GCF_018340585.1_ASM1834058v1","plasmid_AA974","NZ_CP073717.1",3904,"small",0,"non-ARG-plasmid","F1-Score(bp)",1,"MOB-suite","S. enterica"
"GCF_022655645.1_ASM2265564v1","plasmid_AA669","NZ_CP093389.1",3176,"small",0,"non-ARG-plasmid","F1-Score(bp)",1,"MOB-suite","S. enterica"
"GCF_022655645.1_ASM2265564v1","plasmid_AA974","NZ_CP093388.1",3910,"small",0,"non-ARG-plasmid","F1-Score(bp)",1,"MOB-suite","S. enterica"
"GCF_022936425.1_ASM2293642v1","plasmid_AA971","NZ_CP092011.1",5725,"small",0,"non-ARG-plasmid","F1-Score(bp)",0.999,"MOB-suite","S. enterica"
"GCF_022936485.1_ASM2293648v1","plasmid_AA162","NZ_CP092013.1",4593,"small",0,"non-ARG-plasmid","F1-Score(bp)",1,"MOB-suite","S. enterica"
"GCF_015240855.1_ASM1524085v1","plasmid_AA662","NZ_CP063704.1",4888,"small",0,"non-ARG-plasmid","F1-Score(bp)",1,"MOB-suite","S. enterica"
"GCF_016952595.1_ASM1695259v1","plasmid_AB037","NZ_CP051362.1",3830,"small",0,"non-ARG-plasmid","F1-Score(bp)",0.997,"MOB-suite","S. enterica"
"GCF_014334255.1_ASM1433425v1","plasmid_AB241","NZ_CP060525.1",2096,"small",0,"non-ARG-plasmid","F1-Score(bp)",1,"MOB-suite","S. enterica"
"GCF_016454465.1_ASM1645446v1","plasmid_AC120","NZ_CP051390.1",10734,"small",4,"ARG-plasmid","F1-Score(bp)",0.986,"MOB-suite","S. enterica"
"GCF_016454345.1_ASM1645434v1","plasmid_AB056","NZ_CP051375.1",3605,"small",0,"non-ARG-plasmid","F1-Score(bp)",1,"MOB-suite","S. enterica"
"GCF_022936385.1_ASM2293638v1","plasmid_AA162","NZ_CP092005.1",4593,"small",0,"non-ARG-plasmid","F1-Score(bp)",1,"MOB-suite","S. enterica"
"GCF_016452165.1_ASM1645216v1","plasmid_AB037","NZ_CP054465.1",3829,"small",0,"non-ARG-plasmid","F1-Score(bp)",1,"MOB-suite","S. enterica"
"GCF_016452165.1_ASM1645216v1","plasmid_AD486","NZ_CP054466.1",3188,"small",0,"non-ARG-plasmid","F1-Score(bp)",1,"MOB-suite","S. enterica"
"GCF_019670345.1_ASM1967034v1","plasmid_AC120","NZ_AP023308.1",7257,"small",0,"non-ARG-plasmid","F1-Score(bp)",0.598,"MOB-suite","S. enterica"
"GCF_022936365.1_ASM2293636v1","plasmid_AA537","NZ_CP092003.1",4018,"small",0,"non-ARG-plasmid","F1-Score(bp)",1,"MOB-suite","S. enterica"
"GCF_022936365.1_ASM2293636v1","plasmid_AA979","NZ_CP092002.1",4820,"small",0,"non-ARG-plasmid","F1-Score(bp)",1,"MOB-suite","S. enterica"
