"strain","reference_id","classification","true_plasmid_length","true_nr_args","arg_plasmid","length_classification"
"GCF_000732045.2_ASM73204v2","NZ_CP075038.1","plasmid",147099,0,"non-ARG-plasmid","large"
"GCF_001652385.2_ASM165238v2","NZ_CP075142.1","plasmid",75400,0,"non-ARG-plasmid","large"
"GCF_001713515.2_ASM171351v2","NZ_CP074662.1","plasmid",58711,0,"non-ARG-plasmid","large"
"GCF_001756025.2_ASM175602v2","NZ_CP074664.1","plasmid",93960,0,"non-ARG-plasmid","large"
"GCF_001831715.2_ASM183171v2","NZ_CP075139.1","plasmid",123781,0,"non-ARG-plasmid","large"
"GCF_001831985.2_ASM183198v2","NZ_CP075136.1","plasmid",26158,0,"non-ARG-plasmid","large"
"GCF_001833255.2_ASM183325v2","NZ_CP075130.1","plasmid",137164,0,"non-ARG-plasmid","large"
"GCF_001833255.2_ASM183325v2","NZ_CP075131.1","plasmid",26158,0,"non-ARG-plasmid","large"
"GCF_001834735.2_ASM183473v2","NZ_CP075133.1","plasmid",124149,0,"non-ARG-plasmid","large"
"GCF_001834965.2_ASM183496v2","NZ_CP075126.1","plasmid",136500,0,"non-ARG-plasmid","large"
"GCF_001972545.2_ASM197254v2","NZ_CP075119.1","plasmid",61453,0,"non-ARG-plasmid","large"
"GCF_001972625.2_ASM197262v2","NZ_CP075121.1","plasmid",61453,0,"non-ARG-plasmid","large"
"GCF_001973785.2_ASM197378v2","NZ_CP075123.1","plasmid",61453,0,"non-ARG-plasmid","large"
"GCF_001973785.2_ASM197378v2","NZ_CP075124.1","plasmid",33067,0,"non-ARG-plasmid","large"
"GCF_002266085.2_ASM226608v2","NZ_CP075114.1","plasmid",74688,0,"non-ARG-plasmid","large"
"GCF_002507915.2_ASM250791v2","NZ_CP075111.1","plasmid",101510,0,"non-ARG-plasmid","large"
"GCF_003064165.2_ASM306416v2","NZ_CP077692.1","plasmid",137180,0,"non-ARG-plasmid","large"
"GCF_003064405.2_ASM306440v2","NZ_CP077694.1","plasmid",137153,0,"non-ARG-plasmid","large"
"GCF_003064405.2_ASM306440v2","NZ_CP077695.1","plasmid",26031,0,"non-ARG-plasmid","large"
"GCF_003067445.2_ASM306744v2","NZ_CP077705.1","plasmid",67728,0,"non-ARG-plasmid","large"
"GCF_003067765.2_ASM306776v2","NZ_CP077697.1","plasmid",94857,0,"non-ARG-plasmid","large"
"GCF_003067765.2_ASM306776v2","NZ_CP077698.1","plasmid",26030,0,"non-ARG-plasmid","large"
"GCF_003067925.2_ASM306792v2","NZ_CP077700.1","plasmid",136494,0,"non-ARG-plasmid","large"
"GCF_003067925.2_ASM306792v2","NZ_CP077701.1","plasmid",26022,0,"non-ARG-plasmid","large"
"GCF_003067985.2_ASM306798v2","NZ_CP077703.1","plasmid",85811,0,"non-ARG-plasmid","large"
"GCF_003068025.2_ASM306802v2","NZ_CP077707.1","plasmid",137180,0,"non-ARG-plasmid","large"
"GCF_003068025.2_ASM306802v2","NZ_CP077708.1","plasmid",96045,0,"non-ARG-plasmid","large"
"GCF_003068025.2_ASM306802v2","NZ_CP077709.1","plasmid",26031,0,"non-ARG-plasmid","large"
"GCF_006461325.2_ASM646132v2","NZ_CP069167.1","plasmid",217773,17,"ARG-plasmid","large"
"GCF_006461415.2_ASM646141v2","NZ_CP050832.1","plasmid",152940,13,"ARG-plasmid","large"
"GCF_013161805.1_ASM1316180v1","NZ_CP053576.1","plasmid",63301,1,"ARG-plasmid","large"
"GCF_013161805.1_ASM1316180v1","NZ_CP053577.1","plasmid",215249,0,"non-ARG-plasmid","large"
"GCF_013161805.1_ASM1316180v1","NZ_CP053578.1","plasmid",21243,0,"non-ARG-plasmid","large"
"GCF_013328855.1_ASM1332885v1","NZ_CP054423.1","plasmid",42668,0,"non-ARG-plasmid","large"
"GCF_013348865.1_ASM1334886v1","NZ_CP054717.1","plasmid",162029,0,"non-ARG-plasmid","large"
"GCF_013348865.1_ASM1334886v1","NZ_CP054718.1","plasmid",118798,0,"non-ARG-plasmid","large"
"GCF_013348865.1_ASM1334886v1","NZ_CP054716.1","plasmid",51651,0,"non-ARG-plasmid","large"
"GCF_013415925.1_ASM1341592v1","NZ_CP058808.1","plasmid",3752,0,"non-ARG-plasmid","small"
"GCF_013415925.1_ASM1341592v1","NZ_CP058809.1","plasmid",93853,0,"non-ARG-plasmid","large"
"GCF_013415925.1_ASM1341592v1","NZ_CP058810.1","plasmid",205772,11,"ARG-plasmid","large"
"GCF_013415925.1_ASM1341592v1","NZ_CP058811.1","plasmid",90483,2,"ARG-plasmid","large"
"GCF_014250355.1_ASM1425035v1","NZ_CP060170.1","plasmid",93813,0,"non-ARG-plasmid","large"
"GCF_014250355.1_ASM1425035v1","NZ_CP060171.1","plasmid",1975,0,"non-ARG-plasmid","small"
"GCF_014334175.1_ASM1433417v1","NZ_CP060509.1","plasmid",209422,5,"ARG-plasmid","large"
"GCF_014334175.1_ASM1433417v1","NZ_CP060510.1","plasmid",3372,0,"non-ARG-plasmid","small"
"GCF_014334175.1_ASM1433417v1","NZ_CP060511.1","plasmid",2978,1,"ARG-plasmid","small"
"GCF_014334195.1_ASM1433419v1","NZ_CP060513.1","plasmid",254662,3,"ARG-plasmid","large"
"GCF_014334195.1_ASM1433419v1","NZ_CP060514.1","plasmid",41605,0,"non-ARG-plasmid","large"
"GCF_014334235.1_ASM1433423v1","NZ_CP060518.1","plasmid",233305,8,"ARG-plasmid","large"
"GCF_014334235.1_ASM1433423v1","NZ_CP060519.1","plasmid",64443,1,"ARG-plasmid","large"
"GCF_014334235.1_ASM1433423v1","NZ_CP060520.1","plasmid",4073,0,"non-ARG-plasmid","small"
"GCF_014334235.1_ASM1433423v1","NZ_CP060521.1","plasmid",3830,0,"non-ARG-plasmid","small"
"GCF_014334255.1_ASM1433425v1","NZ_CP060523.1","plasmid",59372,0,"non-ARG-plasmid","large"
"GCF_014334255.1_ASM1433425v1","NZ_CP060524.1","plasmid",33310,1,"ARG-plasmid","large"
"GCF_014334255.1_ASM1433425v1","NZ_CP060525.1","plasmid",2096,0,"non-ARG-plasmid","small"
"GCF_014858545.1_ASM1485854v1","NZ_CP062224.1","plasmid",270696,14,"ARG-plasmid","large"
"GCF_014858565.1_ASM1485856v1","NZ_CP062227.1","plasmid",3172,0,"non-ARG-plasmid","small"
"GCF_014858565.1_ASM1485856v1","NZ_CP062226.1","plasmid",265014,13,"ARG-plasmid","large"
"GCF_015074885.1_ASM1507488v1","NZ_CP063290.1","plasmid",113786,3,"ARG-plasmid","large"
"GCF_015074885.1_ASM1507488v1","NZ_CP063293.1","plasmid",3610,0,"non-ARG-plasmid","small"
"GCF_015074885.1_ASM1507488v1","NZ_CP063292.1","plasmid",5633,0,"non-ARG-plasmid","small"
"GCF_015074885.1_ASM1507488v1","NZ_CP063291.1","plasmid",59372,0,"non-ARG-plasmid","large"
"GCF_015074905.1_ASM1507490v1","NZ_CP063300.1","plasmid",1718,0,"non-ARG-plasmid","small"
"GCF_015074905.1_ASM1507490v1","NZ_CP063296.1","plasmid",102507,3,"ARG-plasmid","large"
"GCF_015074905.1_ASM1507490v1","NZ_CP063295.1","plasmid",159330,12,"ARG-plasmid","large"
"GCF_015074905.1_ASM1507490v1","NZ_CP063299.1","plasmid",3257,0,"non-ARG-plasmid","small"
"GCF_015074905.1_ASM1507490v1","NZ_CP063297.1","plasmid",34894,0,"non-ARG-plasmid","large"
"GCF_015074905.1_ASM1507490v1","NZ_CP063298.1","plasmid",4234,0,"non-ARG-plasmid","small"
"GCF_015159575.1_ASM1515957v1","NZ_CP063331.1","plasmid",2097,0,"non-ARG-plasmid","small"
"GCF_015240635.1_ASM1524063v1","NZ_CP063701.1","plasmid",59372,0,"non-ARG-plasmid","large"
"GCF_015240855.1_ASM1524085v1","NZ_CP063703.1","plasmid",115352,8,"ARG-plasmid","large"
"GCF_015240855.1_ASM1524085v1","NZ_CP063704.1","plasmid",4888,0,"non-ARG-plasmid","small"
"GCF_015240995.1_ASM1524099v1","NZ_CP063706.1","plasmid",95694,7,"ARG-plasmid","large"
"GCF_015240995.1_ASM1524099v1","NZ_CP063707.1","plasmid",8688,3,"ARG-plasmid","small"
"GCF_015241115.1_ASM1524111v1","NZ_CP063710.1","plasmid",3272,0,"non-ARG-plasmid","small"
"GCF_015241115.1_ASM1524111v1","NZ_CP063709.1","plasmid",59372,0,"non-ARG-plasmid","large"
"GCF_016025375.1_ASM1602537v1","NZ_CP065565.1","plasmid",1982,0,"non-ARG-plasmid","small"
"GCF_016025415.1_ASM1602541v1","NZ_CP065568.1","plasmid",247565,10,"ARG-plasmid","large"
"GCF_016025415.1_ASM1602541v1","NZ_CP065571.1","plasmid",4073,0,"non-ARG-plasmid","small"
"GCF_016025415.1_ASM1602541v1","NZ_CP065570.1","plasmid",5570,0,"non-ARG-plasmid","small"
"GCF_016025415.1_ASM1602541v1","NZ_CP065569.1","plasmid",9344,2,"ARG-plasmid","small"
"GCF_016025435.1_ASM1602543v1","NZ_CP065573.1","plasmid",84218,0,"non-ARG-plasmid","large"
"GCF_016026715.1_ASM1602671v1","NZ_CP065638.1","plasmid",93933,0,"non-ARG-plasmid","large"
"GCF_016028495.1_ASM1602849v1","NZ_CP065719.1","plasmid",93933,0,"non-ARG-plasmid","large"
"GCF_016127435.1_ASM1612743v1","NZ_CP066008.1","plasmid",8688,3,"ARG-plasmid","small"
"GCF_016127435.1_ASM1612743v1","NZ_CP066010.1","plasmid",86768,0,"non-ARG-plasmid","large"
"GCF_016127435.1_ASM1612743v1","NZ_CP066011.1","plasmid",93851,0,"non-ARG-plasmid","large"
"GCF_016127835.1_ASM1612783v1","NZ_CP066048.1","plasmid",59372,0,"non-ARG-plasmid","large"
"GCF_016451985.1_ASM1645198v1","NZ_CP051308.1","plasmid",154276,11,"ARG-plasmid","large"
"GCF_016451985.1_ASM1645198v1","NZ_CP051309.1","plasmid",48529,0,"non-ARG-plasmid","large"
"GCF_016452005.1_ASM1645200v1","NZ_CP051311.1","plasmid",239428,5,"ARG-plasmid","large"
"GCF_016452005.1_ASM1645200v1","NZ_CP051312.1","plasmid",101468,1,"ARG-plasmid","large"
"GCF_016452045.1_ASM1645204v1","NZ_CP051316.1","plasmid",170832,11,"ARG-plasmid","large"
"GCF_016452065.1_ASM1645206v1","NZ_CP051319.1","plasmid",170814,10,"ARG-plasmid","large"
"GCF_016452065.1_ASM1645206v1","NZ_CP051318.1","plasmid",105973,4,"ARG-plasmid","large"
"GCF_016452165.1_ASM1645216v1","NZ_CP053053.1","plasmid",219745,9,"ARG-plasmid","large"
"GCF_016452165.1_ASM1645216v1","NZ_CP053054.1","plasmid",94046,0,"non-ARG-plasmid","large"
"GCF_016452165.1_ASM1645216v1","NZ_CP053052.1","plasmid",25682,5,"ARG-plasmid","large"
"GCF_016452165.1_ASM1645216v1","NZ_CP054465.1","plasmid",3829,0,"non-ARG-plasmid","small"
"GCF_016452165.1_ASM1645216v1","NZ_CP054466.1","plasmid",3188,0,"non-ARG-plasmid","small"
"GCF_016454165.1_ASM1645416v1","NZ_CP051347.1","plasmid",146811,3,"ARG-plasmid","large"
"GCF_016454165.1_ASM1645416v1","NZ_CP051348.1","plasmid",48581,0,"non-ARG-plasmid","large"
"GCF_016454205.1_ASM1645420v1","NZ_CP051351.1","plasmid",109942,4,"ARG-plasmid","large"
"GCF_016454205.1_ASM1645420v1","NZ_CP051352.1","plasmid",9569,3,"ARG-plasmid","small"
"GCF_016454225.1_ASM1645422v1","NZ_CP051354.1","plasmid",104600,4,"ARG-plasmid","large"
"GCF_016454225.1_ASM1645422v1","NZ_CP051355.1","plasmid",10454,1,"ARG-plasmid","small"
"GCF_016454245.1_ASM1645424v1","NZ_CP051357.1","plasmid",161620,8,"ARG-plasmid","large"
"GCF_016454265.1_ASM1645426v1","NZ_CP051359.1","plasmid",234536,5,"ARG-plasmid","large"
"GCF_016454265.1_ASM1645426v1","NZ_CP051360.1","plasmid",167068,11,"ARG-plasmid","large"
"GCF_016454265.1_ASM1645426v1","NZ_CP051361.1","plasmid",95358,0,"non-ARG-plasmid","large"
"GCF_016454285.1_ASM1645428v1","NZ_CP051367.1","plasmid",49582,0,"non-ARG-plasmid","large"
"GCF_016454285.1_ASM1645428v1","NZ_CP051365.1","plasmid",8688,3,"ARG-plasmid","small"
"GCF_016454305.1_ASM1645430v1","NZ_CP051369.1","plasmid",136285,0,"non-ARG-plasmid","large"
"GCF_016454325.1_ASM1645432v1","NZ_CP051371.1","plasmid",101673,3,"ARG-plasmid","large"
"GCF_016454345.1_ASM1645434v1","NZ_CP051374.1","plasmid",194325,0,"non-ARG-plasmid","large"
"GCF_016454345.1_ASM1645434v1","NZ_CP051373.1","plasmid",122954,8,"ARG-plasmid","large"
"GCF_016454345.1_ASM1645434v1","NZ_CP051375.1","plasmid",3605,0,"non-ARG-plasmid","small"
"GCF_016454365.1_ASM1645436v1","NZ_CP051379.1","plasmid",224721,12,"ARG-plasmid","large"
"GCF_016454365.1_ASM1645436v1","NZ_CP051377.1","plasmid",94046,0,"non-ARG-plasmid","large"
"GCF_016454365.1_ASM1645436v1","NZ_CP051376.1","plasmid",3829,0,"non-ARG-plasmid","small"
"GCF_016454365.1_ASM1645436v1","NZ_CP051378.1","plasmid",3188,0,"non-ARG-plasmid","small"
"GCF_016454385.1_ASM1645438v1","NZ_CP051382.1","plasmid",235025,5,"ARG-plasmid","large"
"GCF_016454385.1_ASM1645438v1","NZ_CP051383.1","plasmid",112349,3,"ARG-plasmid","large"
"GCF_016454425.1_ASM1645442v1","NZ_CP051385.1","plasmid",111658,1,"ARG-plasmid","large"
"GCF_016454445.1_ASM1645444v1","NZ_CP051387.1","plasmid",131331,9,"ARG-plasmid","large"
"GCF_016454445.1_ASM1645444v1","NZ_CP051388.1","plasmid",120420,5,"ARG-plasmid","large"
"GCF_016454465.1_ASM1645446v1","NZ_CP051390.1","plasmid",11037,4,"ARG-plasmid","small"
"GCF_016454505.1_ASM1645450v1","NZ_CP051395.1","plasmid",155923,8,"ARG-plasmid","large"
"GCF_016454525.1_ASM1645452v1","NZ_CP051397.1","plasmid",191208,11,"ARG-plasmid","large"
"GCF_016454545.1_ASM1645454v1","NZ_CP051400.1","plasmid",183507,11,"ARG-plasmid","large"
"GCF_016454545.1_ASM1645454v1","NZ_CP051399.1","plasmid",4198,0,"non-ARG-plasmid","small"
"GCF_016454545.1_ASM1645454v1","NZ_CP051401.1","plasmid",3372,0,"non-ARG-plasmid","small"
"GCF_016454585.1_ASM1645458v1","NZ_CP051403.1","plasmid",102040,9,"ARG-plasmid","large"
"GCF_016454605.1_ASM1645460v1","NZ_CP051405.1","plasmid",99003,1,"ARG-plasmid","large"
"GCF_016454605.1_ASM1645460v1","NZ_CP051406.1","plasmid",95919,0,"non-ARG-plasmid","large"
"GCF_016454645.1_ASM1645464v1","NZ_CP051411.1","plasmid",125574,7,"ARG-plasmid","large"
"GCF_016454645.1_ASM1645464v1","NZ_CP051412.1","plasmid",232583,5,"ARG-plasmid","large"
"GCF_016454665.1_ASM1645466v1","NZ_CP051414.1","plasmid",3371,0,"non-ARG-plasmid","small"
"GCF_016454665.1_ASM1645466v1","NZ_CP051415.1","plasmid",3319,0,"non-ARG-plasmid","small"
"GCF_016454705.1_ASM1645470v1","NZ_CP051417.1","plasmid",10910,4,"ARG-plasmid","small"
"GCF_016454705.1_ASM1645470v1","NZ_CP051418.1","plasmid",4593,0,"non-ARG-plasmid","small"
"GCF_016454725.1_ASM1645472v1","NZ_CP051426.1","plasmid",188725,12,"ARG-plasmid","large"
"GCF_016454725.1_ASM1645472v1","NZ_CP051420.1","plasmid",83778,0,"non-ARG-plasmid","large"
"GCF_016454725.1_ASM1645472v1","NZ_CP051424.1","plasmid",57420,0,"non-ARG-plasmid","large"
"GCF_016454725.1_ASM1645472v1","NZ_CP051421.1","plasmid",8496,1,"ARG-plasmid","small"
"GCF_016454725.1_ASM1645472v1","NZ_CP051419.1","plasmid",3372,0,"non-ARG-plasmid","small"
"GCF_016454725.1_ASM1645472v1","NZ_CP051423.1","plasmid",2444,0,"non-ARG-plasmid","small"
"GCF_016454725.1_ASM1645472v1","NZ_CP051422.1","plasmid",2096,0,"non-ARG-plasmid","small"
"GCF_016454765.1_ASM1645476v1","NZ_CP053049.1","plasmid",224991,4,"ARG-plasmid","large"
"GCF_016454765.1_ASM1645476v1","NZ_CP053050.1","plasmid",54008,6,"ARG-plasmid","large"
"GCF_016889645.1_ASM1688964v1","NZ_CP069519.1","plasmid",128163,0,"non-ARG-plasmid","large"
"GCF_016952595.1_ASM1695259v1","NZ_CP051362.1","plasmid",3848,0,"non-ARG-plasmid","small"
"GCF_016952595.1_ASM1695259v1","NZ_CP051364.1","plasmid",107602,0,"non-ARG-plasmid","large"
"GCF_018340585.1_ASM1834058v1","NZ_CP073716.1","plasmid",4712,0,"non-ARG-plasmid","small"
"GCF_018340585.1_ASM1834058v1","NZ_CP073717.1","plasmid",3904,0,"non-ARG-plasmid","small"
"GCF_019426245.1_ASM1942624v1","NZ_CP066852.1","plasmid",37718,0,"non-ARG-plasmid","large"
"GCF_019428465.1_ASM1942846v1","NZ_CP080092.1","plasmid",59372,0,"non-ARG-plasmid","large"
"GCF_019428465.1_ASM1942846v1","NZ_CP080093.1","plasmid",56813,2,"ARG-plasmid","large"
"GCF_019428465.1_ASM1942846v1","NZ_CP080094.1","plasmid",33310,1,"ARG-plasmid","large"
"GCF_019670225.1_ASM1967022v1","NZ_AP023293.1","plasmid",7618,0,"non-ARG-plasmid","small"
"GCF_019670245.1_ASM1967024v1","NZ_AP023295.1","plasmid",60222,0,"non-ARG-plasmid","large"
"GCF_019670245.1_ASM1967024v1","NZ_AP023296.1","plasmid",6835,0,"non-ARG-plasmid","small"
"GCF_019670245.1_ASM1967024v1","NZ_AP023297.1","plasmid",4869,0,"non-ARG-plasmid","small"
"GCF_019670245.1_ASM1967024v1","NZ_AP023298.1","plasmid",4060,0,"non-ARG-plasmid","small"
"GCF_019670285.1_ASM1967028v1","NZ_AP023301.1","plasmid",131843,12,"ARG-plasmid","large"
"GCF_019670285.1_ASM1967028v1","NZ_AP023302.1","plasmid",7257,0,"non-ARG-plasmid","small"
"GCF_019670325.1_ASM1967032v1","NZ_AP023305.1","plasmid",128709,5,"ARG-plasmid","large"
"GCF_019670345.1_ASM1967034v1","NZ_AP023307.1","plasmid",131843,12,"ARG-plasmid","large"
"GCF_019670345.1_ASM1967034v1","NZ_AP023308.1","plasmid",7257,0,"non-ARG-plasmid","small"
"GCF_019670365.1_ASM1967036v1","NZ_AP023310.1","plasmid",229829,10,"ARG-plasmid","large"
"GCF_019670385.1_ASM1967038v1","NZ_AP023312.1","plasmid",230500,9,"ARG-plasmid","large"
"GCF_019670405.1_ASM1967040v1","NZ_AP023314.1","plasmid",99131,4,"ARG-plasmid","large"
"GCF_019670425.1_ASM1967042v1","NZ_AP023316.1","plasmid",229829,10,"ARG-plasmid","large"
"GCF_019670445.1_ASM1967044v1","NZ_AP023318.1","plasmid",151734,11,"ARG-plasmid","large"
"GCF_020736305.1_ASM2073630v1","NZ_CP085984.1","plasmid",280239,5,"ARG-plasmid","large"
"GCF_020736305.1_ASM2073630v1","NZ_CP085985.1","plasmid",53154,3,"ARG-plasmid","large"
"GCF_020736325.1_ASM2073632v1","NZ_CP085982.1","plasmid",272840,2,"ARG-plasmid","large"
"GCF_020736325.1_ASM2073632v1","NZ_CP085980.1","plasmid",53986,4,"ARG-plasmid","large"
"GCF_020736345.1_ASM2073634v1","NZ_CP085986.1","plasmid",79333,0,"non-ARG-plasmid","large"
"GCF_021397625.1_ASM2139762v1","NZ_CP090138.1","plasmid",300750,16,"ARG-plasmid","large"
"GCF_021397625.1_ASM2139762v1","NZ_CP090139.1","plasmid",53329,1,"ARG-plasmid","large"
"GCF_021397625.1_ASM2139762v1","NZ_CP090140.1","plasmid",6727,0,"non-ARG-plasmid","small"
"GCF_021397645.1_ASM2139764v1","NZ_CP090142.1","plasmid",294023,16,"ARG-plasmid","large"
"GCF_021397645.1_ASM2139764v1","NZ_CP090144.1","plasmid",4593,0,"non-ARG-plasmid","small"
"GCF_021397645.1_ASM2139764v1","NZ_CP090143.1","plasmid",53329,1,"ARG-plasmid","large"
"GCF_021397675.1_ASM2139767v1","NZ_CP090134.1","plasmid",294023,16,"ARG-plasmid","large"
"GCF_021397675.1_ASM2139767v1","NZ_CP090136.1","plasmid",4593,0,"non-ARG-plasmid","small"
"GCF_021397675.1_ASM2139767v1","NZ_CP090135.1","plasmid",53329,1,"ARG-plasmid","large"
"GCF_022162985.1_ASM2216298v1","NZ_CP091879.1","plasmid",3967,0,"non-ARG-plasmid","small"
"GCF_022226915.1_ASM2222691v1","NZ_CP092076.1","plasmid",62386,0,"non-ARG-plasmid","large"
"GCF_022533545.1_ASM2253354v1","NZ_CP092862.1","plasmid",246756,0,"non-ARG-plasmid","large"
"GCF_022655645.1_ASM2265564v1","NZ_CP093387.1","plasmid",93849,0,"non-ARG-plasmid","large"
"GCF_022655645.1_ASM2265564v1","NZ_CP093388.1","plasmid",3910,0,"non-ARG-plasmid","small"
"GCF_022655645.1_ASM2265564v1","NZ_CP093389.1","plasmid",3176,0,"non-ARG-plasmid","small"
"GCF_022655705.1_ASM2265570v1","NZ_CP093393.1","plasmid",58608,0,"non-ARG-plasmid","large"
"GCF_022670675.1_ASM2267067v1","NZ_CP093401.1","plasmid",195315,5,"ARG-plasmid","large"
"GCF_022870605.1_ASM2287060v1","NZ_CP058672.1","plasmid",242694,2,"ARG-plasmid","large"
"GCF_022870605.1_ASM2287060v1","NZ_CP058673.1","plasmid",51521,0,"non-ARG-plasmid","large"
"GCF_022870605.1_ASM2287060v1","NZ_CP058674.1","plasmid",3371,0,"non-ARG-plasmid","small"
"GCF_022936365.1_ASM2293636v1","NZ_CP092000.1","plasmid",19682,6,"ARG-plasmid","large"
"GCF_022936365.1_ASM2293636v1","NZ_CP092001.1","plasmid",5649,0,"non-ARG-plasmid","small"
"GCF_022936365.1_ASM2293636v1","NZ_CP092002.1","plasmid",4820,0,"non-ARG-plasmid","small"
"GCF_022936365.1_ASM2293636v1","NZ_CP092003.1","plasmid",4018,0,"non-ARG-plasmid","small"
"GCF_022936385.1_ASM2293638v1","NZ_CP092005.1","plasmid",4593,0,"non-ARG-plasmid","small"
"GCF_022936425.1_ASM2293642v1","NZ_CP092010.1","plasmid",63499,1,"ARG-plasmid","large"
"GCF_022936425.1_ASM2293642v1","NZ_CP092011.1","plasmid",5728,0,"non-ARG-plasmid","small"
"GCF_022936485.1_ASM2293648v1","NZ_CP092013.1","plasmid",4593,0,"non-ARG-plasmid","small"
