"strain","bin_name","reference_id","alignment_length","bin_length","classification","Chromosome_contamination","software","species"
"GCF_016025395.1_ASM1602539v1","plasmid_AD312","NZ_CP065566.1",23168,21710,"chromosome",0.933,"MOB-suite","S. enterica"
"GCF_019670225.1_ASM1967022v1","plasmid_AC120","NZ_AP023292.1",4388,10235,"chromosome",0.258,"MOB-suite","S. enterica"
"GCF_019670225.1_ASM1967022v1","plasmid_AC082","NZ_AP023292.1",21878,20543,"chromosome",0.935,"MOB-suite","S. enterica"
"GCF_019670265.1_ASM1967026v1","plasmid_AC082","NZ_AP023299.1",24924,24924,"chromosome",1,"MOB-suite","S. enterica"
"GCF_016025435.1_ASM1602543v1","plasmid_AA474","NZ_CP065572.1",3644,87176,"chromosome",0.042,"MOB-suite","S. enterica"
"GCF_019670445.1_ASM1967044v1","plasmid_AA738","NZ_AP023317.1",11770,158671,"chromosome",0.074,"MOB-suite","S. enterica"
"GCF_019670285.1_ASM1967028v1","plasmid_AC120","NZ_AP023300.1",3337,8995,"chromosome",0.193,"MOB-suite","S. enterica"
"GCF_019670285.1_ASM1967028v1","plasmid_AC082","NZ_AP023300.1",17893,23462,"chromosome",0.763,"MOB-suite","S. enterica"
"GCF_002507715.2_ASM250771v2","plasmid_AA832","NZ_CP075106.1",40977,40977,"chromosome",1,"MOB-suite","S. enterica"
"GCF_014394985.2_ASM1439498v2","plasmid_AD312","NZ_CP060730.2",14029,10724,"chromosome",0.692,"MOB-suite","S. enterica"
"GCF_020736325.1_ASM2073632v1","plasmid_AG658","NZ_CP085981.1",1857,10002,"chromosome",0.186,"MOB-suite","S. enterica"
"GCF_022936345.1_ASM2293634v1","plasmid_AA941","NZ_CP091998.1",19803,19803,"chromosome",1,"MOB-suite","S. enterica"
"GCF_020736345.1_ASM2073634v1","plasmid_AC082","NZ_CP085987.1",17854,17854,"chromosome",1,"MOB-suite","S. enterica"
"GCF_020736345.1_ASM2073634v1","plasmid_AA378","NZ_CP085987.1",6302,84867,"chromosome",0.074,"MOB-suite","S. enterica"
"GCF_022936425.1_ASM2293642v1","plasmid_AC237","NZ_CP092009.1",16388,16388,"chromosome",1,"MOB-suite","S. enterica"
"GCF_022936425.1_ASM2293642v1","plasmid_AA002","NZ_CP092009.1",4218,63982,"chromosome",0.034,"MOB-suite","S. enterica"
"GCF_019670465.1_ASM1967046v1","plasmid_AD672","NZ_AP023319.1",19464,19464,"chromosome",1,"MOB-suite","S. enterica"
"GCF_019670465.1_ASM1967046v1","plasmid_AC082","NZ_AP023319.1",24012,24012,"chromosome",1,"MOB-suite","S. enterica"
"GCF_015240855.1_ASM1524085v1","plasmid_novel_683662154dc0ef3a97a9400e6742d457","NZ_CP063702.1",6821,6821,"chromosome",1,"MOB-suite","S. enterica"
"GCF_022670675.1_ASM2267067v1","plasmid_AG835","NZ_CP093400.1",11458,11458,"chromosome",1,"MOB-suite","S. enterica"
"GCF_022670675.1_ASM2267067v1","plasmid_AC358","NZ_CP093400.1",121159,310210,"chromosome",0.391,"MOB-suite","S. enterica"
"GCF_016454185.1_ASM1645418v1","plasmid_AA473","NZ_CP051349.1",121800,80730,"chromosome",0.985,"MOB-suite","S. enterica"
"GCF_016454325.1_ASM1645432v1","plasmid_AA474","NZ_CP051370.1",13940,110953,"chromosome",0.101,"MOB-suite","S. enterica"
"GCF_016025415.1_ASM1602541v1","plasmid_AA998","NZ_CP065567.1",5725,225288,"chromosome",0.005,"MOB-suite","S. enterica"
"GCF_014805785.2_ASM1480578v2","plasmid_AD312","NZ_CP061929.2",14029,10724,"chromosome",0.692,"MOB-suite","S. enterica"
"GCF_019670305.1_ASM1967030v1","plasmid_AA323","NZ_AP023303.1",70589,70589,"chromosome",1,"MOB-suite","S. enterica"
"GCF_019670305.1_ASM1967030v1","plasmid_AC082","NZ_AP023303.1",24924,24924,"chromosome",1,"MOB-suite","S. enterica"
"GCF_019670425.1_ASM1967042v1","plasmid_AA738","NZ_AP023315.1",24156,235248,"chromosome",0.05,"MOB-suite","S. enterica"
"GCF_019670165.1_ASM1967016v1","plasmid_AC082","NZ_AP023289.1",24156,24156,"chromosome",1,"MOB-suite","S. enterica"
"GCF_014840915.2_ASM1484091v2","plasmid_AD312","NZ_CP062004.2",14029,10724,"chromosome",0.692,"MOB-suite","S. enterica"
"GCF_019670385.1_ASM1967038v1","plasmid_AA998","NZ_AP023311.1",23770,196975,"chromosome",0.03,"MOB-suite","S. enterica"
"GCF_019670405.1_ASM1967040v1","plasmid_AA316","NZ_AP023313.1",17894,84947,"chromosome",0.211,"MOB-suite","S. enterica"
"GCF_001713515.2_ASM171351v2","plasmid_AB461","NZ_CP074661.1",1893,52919,"chromosome",0.036,"MOB-suite","S. enterica"
"GCF_019670205.1_ASM1967020v1","plasmid_AC082","NZ_AP023291.1",26816,24156,"chromosome",0.945,"MOB-suite","S. enterica"
"GCF_019670325.1_ASM1967032v1","plasmid_AA738","NZ_AP023304.1",8721,132312,"chromosome",0.036,"MOB-suite","S. enterica"
"GCF_019670245.1_ASM1967024v1","plasmid_AC082","NZ_AP023294.1",34475,34475,"chromosome",1,"MOB-suite","S. enterica"
"GCF_019670345.1_ASM1967034v1","plasmid_AC120","NZ_AP023306.1",3337,11675,"chromosome",0.149,"MOB-suite","S. enterica"
"GCF_019670345.1_ASM1967034v1","plasmid_AA316","NZ_AP023306.1",19423,89308,"chromosome",0.2,"MOB-suite","S. enterica"
"GCF_016454665.1_ASM1645466v1","plasmid_AC247","NZ_CP051413.1",17799,17799,"chromosome",1,"MOB-suite","S. enterica"
"GCF_016454665.1_ASM1645466v1","plasmid_AA667","NZ_CP051413.1",7506,10825,"chromosome",0.693,"MOB-suite","S. enterica"
"GCF_016454665.1_ASM1645466v1","plasmid_AC293","NZ_CP051413.1",7693,4508,"chromosome",0.293,"MOB-suite","S. enterica"
"GCF_022936365.1_ASM2293636v1","plasmid_AC247","NZ_CP091999.1",1012,19874,"chromosome",0.051,"MOB-suite","S. enterica"
"GCF_014250355.1_ASM1425035v1","bin_component_1","NZ_CP060169.1",27312,25693,"chromosome",0.779,"plasmidSPAdes","S. enterica"
"GCF_014250355.1_ASM1425035v1","bin_component_0","NZ_CP060169.1",98552,98552,"chromosome",1,"plasmidSPAdes","S. enterica"
"GCF_020736305.1_ASM2073630v1","bin_component_0","NZ_CP085983.1",1057,10700,"chromosome",0.099,"plasmidSPAdes","S. enterica"
"GCF_003064405.2_ASM306440v2","bin_component_1","NZ_CP077693.1",24813,26390,"chromosome",0.94,"plasmidSPAdes","S. enterica"
"GCF_003064405.2_ASM306440v2","bin_component_3","NZ_CP077693.1",12982,14379,"chromosome",0.596,"plasmidSPAdes","S. enterica"
"GCF_003064405.2_ASM306440v2","bin_component_4","NZ_CP077693.1",8996,8996,"chromosome",1,"plasmidSPAdes","S. enterica"
"GCF_003064405.2_ASM306440v2","bin_component_2","NZ_CP077693.1",24667,24794,"chromosome",0.99,"plasmidSPAdes","S. enterica"
"GCF_003067925.2_ASM306792v2","bin_component_1","NZ_CP077699.1",42060,29310,"chromosome",0.268,"plasmidSPAdes","S. enterica"
"GCF_020736345.1_ASM2073634v1","bin_component_1","NZ_CP085987.1",15540,15542,"chromosome",1,"plasmidSPAdes","S. enterica"
"GCF_020736345.1_ASM2073634v1","bin_component_0","NZ_CP085987.1",30564,31058,"chromosome",0.98,"plasmidSPAdes","S. enterica"
"GCF_020736345.1_ASM2073634v1","bin_component_2","NZ_CP085987.1",12181,13414,"chromosome",0.908,"plasmidSPAdes","S. enterica"
"GCF_022655645.1_ASM2265564v1","bin_component_1","NZ_CP093386.1",13002,16395,"chromosome",0.578,"plasmidSPAdes","S. enterica"
"GCF_001831985.2_ASM183198v2","bin_component_0","NZ_CP075135.1",238603,212110,"chromosome",0.956,"plasmidSPAdes","S. enterica"
"GCF_016454185.1_ASM1645418v1","bin_component_0","NZ_CP051349.1",41067,41068,"chromosome",1,"plasmidSPAdes","S. enterica"
"GCF_016454525.1_ASM1645452v1","bin_component_0","NZ_CP051396.1",37962,48018,"chromosome",0.785,"plasmidSPAdes","S. enterica"
"GCF_006461325.2_ASM646132v2","bin_component_0","NZ_CP069166.1",51285,127806,"chromosome",0.236,"plasmidSPAdes","S. enterica"
"GCF_014334175.1_ASM1433417v1","bin_component_1","NZ_CP060508.1",41112,41226,"chromosome",0.997,"plasmidSPAdes","S. enterica"
"GCF_013348865.1_ASM1334886v1","bin_component_0","NZ_CP054715.1",43280,399135,"chromosome",0.099,"plasmidSPAdes","S. enterica"
"GCF_015240855.1_ASM1524085v1","bin_component_0","NZ_CP063702.1",2998,104957,"chromosome",0.029,"plasmidSPAdes","S. enterica"
"GCF_003067445.2_ASM306744v2","bin_component_1","NZ_CP077704.1",36937,22407,"chromosome",0.116,"plasmidSPAdes","S. enterica"
"GCF_016454585.1_ASM1645458v1","bin_component_1","NZ_CP051402.1",9783,11208,"chromosome",0.873,"plasmidSPAdes","S. enterica"
"GCF_019670465.1_ASM1967046v1","bin_component_0","NZ_AP023319.1",42544,43961,"chromosome",0.936,"plasmidSPAdes","S. enterica"
"GCF_001833255.2_ASM183325v2","bin_component_0","NZ_CP075129.1",374163,347096,"chromosome",0.972,"plasmidSPAdes","S. enterica"
"GCF_001833255.2_ASM183325v2","bin_component_2","NZ_CP075129.1",15555,16828,"chromosome",0.924,"plasmidSPAdes","S. enterica"
"GCF_001713515.2_ASM171351v2","bin_component_2","NZ_CP074661.1",37442,34016,"chromosome",0.86,"plasmidSPAdes","S. enterica"
"GCF_022533545.1_ASM2253354v1","bin_component_1","NZ_CP092861.1",14089,14737,"chromosome",0.956,"plasmidSPAdes","S. enterica"
"GCF_022533545.1_ASM2253354v1","bin_component_0","NZ_CP092861.1",76979,236521,"chromosome",0.109,"plasmidSPAdes","S. enterica"
"GCF_003068025.2_ASM306802v2","bin_component_3","NZ_CP077706.1",31796,14482,"chromosome",0.498,"plasmidSPAdes","S. enterica"
"GCF_016454305.1_ASM1645430v1","bin_component_0","NZ_CP051368.1",12369,13276,"chromosome",0.932,"plasmidSPAdes","S. enterica"
"GCF_016028495.1_ASM1602849v1","bin_component_2","NZ_CP065718.1",18349,11265,"chromosome",0.22,"plasmidSPAdes","S. enterica"
"GCF_016026715.1_ASM1602671v1","bin_component_1","NZ_CP065639.1",18350,11265,"chromosome",0.22,"plasmidSPAdes","S. enterica"
"GCF_022870605.1_ASM2287060v1","bin_component_0","NZ_CP058671.1",78982,313795,"chromosome",0.183,"plasmidSPAdes","S. enterica"
"GCF_016454425.1_ASM1645442v1","bin_component_1","NZ_CP051384.1",21450,35570,"chromosome",0.483,"plasmidSPAdes","S. enterica"
"GCF_016454425.1_ASM1645442v1","bin_component_2","NZ_CP051384.1",8872,8872,"chromosome",1,"plasmidSPAdes","S. enterica"
"GCF_016127835.1_ASM1612783v1","bin_component_1","NZ_CP066047.1",37520,37597,"chromosome",0.996,"plasmidSPAdes","S. enterica"
"GCF_019670305.1_ASM1967030v1","bin_component_0","NZ_AP023303.1",1712,1712,"chromosome",1,"plasmidSPAdes","S. enterica"
"GCF_016454385.1_ASM1645438v1","bin_component_1","NZ_CP051381.1",38999,40629,"chromosome",0.96,"plasmidSPAdes","S. enterica"
"GCF_002266205.2_ASM226620v2","bin_component_0","NZ_CP075115.1",16578,16581,"chromosome",1,"plasmidSPAdes","S. enterica"
"GCF_001834965.2_ASM183496v2","bin_component_2","NZ_CP075125.1",24759,23239,"chromosome",0.857,"plasmidSPAdes","S. enterica"
"GCF_016025415.1_ASM1602541v1","bin_component_0","NZ_CP065567.1",3083,361552,"chromosome",0.003,"plasmidSPAdes","S. enterica"
"GCF_020736325.1_ASM2073632v1","bin_component_1","NZ_CP085981.1",40366,40478,"chromosome",0.997,"plasmidSPAdes","S. enterica"
"GCF_020736325.1_ASM2073632v1","bin_component_3","NZ_CP085981.1",15601,15601,"chromosome",1,"plasmidSPAdes","S. enterica"
"GCF_020736325.1_ASM2073632v1","bin_component_2","NZ_CP085981.1",35227,35575,"chromosome",0.99,"plasmidSPAdes","S. enterica"
"GCF_020736345.1_ASM2073634v1","GCF_020736345.1_ASM2073634v1_bin_1","NZ_CP085987.1",12386,90951,"chromosome",0.136,"gplas2","S. enterica"
"GCF_019670465.1_ASM1967046v1","GCF_019670465.1_ASM1967046v1_bin_1","NZ_AP023319.1",6302,6302,"chromosome",1,"gplas2","S. enterica"
"GCF_019670285.1_ASM1967028v1","GCF_019670285.1_ASM1967028v1_bin_4","NZ_AP023300.1",7841,7841,"chromosome",1,"gplas2","S. enterica"
"GCF_019670225.1_ASM1967022v1","GCF_019670225.1_ASM1967022v1_bin_1","NZ_AP023292.1",21847,21847,"chromosome",1,"gplas2","S. enterica"
"GCF_019670265.1_ASM1967026v1","GCF_019670265.1_ASM1967026v1_bin_1","NZ_AP023299.1",6302,6302,"chromosome",1,"gplas2","S. enterica"
"GCF_022936345.1_ASM2293634v1","GCF_022936345.1_ASM2293634v1_bin_1","NZ_CP091998.1",14538,14538,"chromosome",1,"gplas2","S. enterica"
"GCF_022936345.1_ASM2293634v1","GCF_022936345.1_ASM2293634v1_bin_2","NZ_CP091998.1",3071,3071,"chromosome",1,"gplas2","S. enterica"
"GCF_016952595.1_ASM1695259v1","GCF_016952595.1_ASM1695259v1_bin_2","NZ_CP051363.1",7001,7001,"chromosome",1,"gplas2","S. enterica"
"GCF_022670675.1_ASM2267067v1","GCF_022670675.1_ASM2267067v1_bin_1","NZ_CP093400.1",85424,273373,"chromosome",0.312,"gplas2","S. enterica"
"GCF_016452165.1_ASM1645216v1","GCF_016452165.1_ASM1645216v1_bin_2","NZ_CP053051.1",7001,140885,"chromosome",0.05,"gplas2","S. enterica"
"GCF_019670345.1_ASM1967034v1","GCF_019670345.1_ASM1967034v1_bin_2","NZ_AP023306.1",7841,7841,"chromosome",1,"gplas2","S. enterica"
"GCF_016025435.1_ASM1602543v1","GCF_016025435.1_ASM1602543v1_bin_1","NZ_CP065572.1",14851,14851,"chromosome",1,"gplas2","S. enterica"
"GCF_016454185.1_ASM1645418v1","GCF_016454185.1_ASM1645418v1_bin_1","NZ_CP051349.1",39913,39914,"chromosome",1,"gplas2","S. enterica"
"GCF_019670385.1_ASM1967038v1","GCF_019670385.1_ASM1967038v1_bin_1","NZ_AP023311.1",17705,204223,"chromosome",0.029,"gplas2","S. enterica"
"GCF_014394985.2_ASM1439498v2","GCF_014394985.2_ASM1439498v2_bin_1","NZ_CP060730.2",36097,36097,"chromosome",1,"gplas2","S. enterica"
"GCF_019670305.1_ASM1967030v1","GCF_019670305.1_ASM1967030v1_bin_1","NZ_AP023303.1",76891,76891,"chromosome",1,"gplas2","S. enterica"
"GCF_016025375.1_ASM1602537v1","GCF_016025375.1_ASM1602537v1_bin_1","NZ_CP065564.1",8084,8084,"chromosome",1,"gplas2","S. enterica"
"GCF_019670245.1_ASM1967024v1","GCF_019670245.1_ASM1967024v1_bin_2","NZ_AP023294.1",12386,12386,"chromosome",1,"gplas2","S. enterica"
"GCF_019670245.1_ASM1967024v1","GCF_019670245.1_ASM1967024v1_bin_Unbinned","NZ_AP023294.1",54963,54963,"chromosome",1,"gplas2","S. enterica"
"GCF_002507715.2_ASM250771v2","GCF_002507715.2_ASM250771v2_bin_1","NZ_CP075106.1",7000,7000,"chromosome",1,"gplas2","S. enterica"
"GCF_022936385.1_ASM2293638v1","GCF_022936385.1_ASM2293638v1_bin_1","NZ_CP092004.1",14399,14399,"chromosome",1,"gplas2","S. enterica"
"GCF_014805785.2_ASM1480578v2","GCF_014805785.2_ASM1480578v2_bin_1","NZ_CP061929.2",37180,37180,"chromosome",1,"gplas2","S. enterica"
"GCF_019670205.1_ASM1967020v1","GCF_019670205.1_ASM1967020v1_bin_1","NZ_AP023291.1",16742,16742,"chromosome",1,"gplas2","S. enterica"
"GCF_015159575.1_ASM1515957v1","GCF_015159575.1_ASM1515957v1_bin_Unbinned","NZ_CP063330.1",8084,8084,"chromosome",1,"gplas2","S. enterica"
"GCF_016454425.1_ASM1645442v1","GCF_016454425.1_ASM1645442v1_bin_Unbinned","NZ_CP051384.1",114502,117825,"chromosome",0.972,"gplas2","S. enterica"
"GCF_016025395.1_ASM1602539v1","GCF_016025395.1_ASM1602539v1_bin_3","NZ_CP065566.1",1040,1040,"chromosome",1,"gplas2","S. enterica"
"GCF_016025395.1_ASM1602539v1","GCF_016025395.1_ASM1602539v1_bin_1","NZ_CP065566.1",11168,11168,"chromosome",1,"gplas2","S. enterica"
"GCF_016025395.1_ASM1602539v1","GCF_016025395.1_ASM1602539v1_bin_2","NZ_CP065566.1",1708,1708,"chromosome",1,"gplas2","S. enterica"
"GCF_022936425.1_ASM2293642v1","GCF_022936425.1_ASM2293642v1_bin_2","NZ_CP092009.1",17002,17002,"chromosome",1,"gplas2","S. enterica"
"GCF_016454665.1_ASM1645466v1","GCF_016454665.1_ASM1645466v1_bin_1","NZ_CP051413.1",27767,27767,"chromosome",1,"gplas2","S. enterica"
"GCF_015240855.1_ASM1524085v1","GCF_015240855.1_ASM1524085v1_bin_4","NZ_CP063702.1",6821,6821,"chromosome",1,"gplas2","S. enterica"
"GCF_022936485.1_ASM2293648v1","GCF_022936485.1_ASM2293648v1_bin_1","NZ_CP092012.1",14399,14399,"chromosome",1,"gplas2","S. enterica"
"GCF_014840915.2_ASM1484091v2","GCF_014840915.2_ASM1484091v2_bin_1","NZ_CP062004.2",37180,37180,"chromosome",1,"gplas2","S. enterica"
