"true_classification","variable","value","species"
"ambiguous","count",52,"S. enterica"
"chromosome","count",4821,"S. enterica"
"plasmid","count",716,"S. enterica"
"repeat chromosome","count",852,"S. enterica"
"repeat plasmid","count",92,"S. enterica"
"unaligned","count",192,"S. enterica"
"ambiguous","percentage",0.77,"S. enterica"
"chromosome","percentage",71.69,"S. enterica"
"plasmid","percentage",10.65,"S. enterica"
"repeat chromosome","percentage",12.67,"S. enterica"
"repeat plasmid","percentage",1.37,"S. enterica"
"unaligned","percentage",2.86,"S. enterica"
