GCF_907177285.1_USZ_VRE53_P46_hybrid_assembly,GCF_907177285.1_USZ_VRE53_P46_hybrid_assembly_bin_1,NZ_OU016038.1,4602
GCF_023299745.1_ASM2329974v1,GCF_023299745.1_ASM2329974v1_bin_1,NZ_CP097028.1,132
GCF_023299325.1_ASM2329932v1,GCF_023299325.1_ASM2329932v1_bin_1,NZ_CP097014.1,2682
GCF_019175525.1_ASM1917552v1,GCF_019175525.1_ASM1917552v1_bin_1,NZ_CP072896.1,55
