GCF_019653615.1_ASM1965361v1,bin_component_0,NZ_CP077098.1,NODE_7_length_1324_cov_603.184443_component_0,1324,1246730,1248053
GCF_019653615.1_ASM1965361v1,bin_component_0,NZ_CP077098.1,NODE_7_length_1324_cov_603.184443_component_0,1324,2544324,2545647
GCF_019653615.1_ASM1965361v1,bin_component_0,NZ_CP077098.1,NODE_7_length_1324_cov_603.184443_component_0,1324,287853,289176
GCF_019653615.1_ASM1965361v1,bin_component_0,NZ_CP077098.1,NODE_7_length_1324_cov_603.184443_component_0,1324,429311,430634
GCF_019653615.1_ASM1965361v1,bin_component_0,NZ_CP077098.1,NODE_7_length_1324_cov_603.184443_component_0,1324,1880511,1881834
GCF_019653615.1_ASM1965361v1,bin_component_0,NZ_CP077098.1,NODE_7_length_1324_cov_603.184443_component_0,1324,1954125,1955448
GCF_019653615.1_ASM1965361v1,bin_component_0,NZ_CP077098.1,NODE_7_length_1324_cov_603.184443_component_0,1324,1691885,1693208
GCF_019653615.1_ASM1965361v1,bin_component_0,NZ_CP077098.1,NODE_7_length_1324_cov_603.184443_component_0,1324,79437,80760
GCF_019653615.1_ASM1965361v1,bin_component_0,NZ_CP077098.1,NODE_7_length_1324_cov_603.184443_component_0,1324,2515146,2516469
GCF_019653615.1_ASM1965361v1,bin_component_0,NZ_CP077098.1,NODE_7_length_1324_cov_603.184443_component_0,1324,1322154,1323477
GCF_019653615.1_ASM1965361v1,bin_component_0,NZ_CP077098.1,NODE_7_length_1324_cov_603.184443_component_0,1323,1927937,1929259
GCF_019653615.1_ASM1965361v1,bin_component_0,NZ_CP077098.1,NODE_7_length_1324_cov_603.184443_component_0,1323,1243485,1244807
GCF_019653615.1_ASM1965361v1,bin_component_0,NZ_CP077098.1,NODE_7_length_1324_cov_603.184443_component_0,1323,637154,638476
GCF_013008375.1_ASM1300837v1,bin_component_1,NZ_CP053101.1,NODE_3_length_3142_cov_331.804665_component_1,3142,2247403,2250544
GCF_013008375.1_ASM1300837v1,bin_component_1,NZ_CP053101.1,NODE_3_length_3142_cov_331.804665_component_1,3142,2134084,2137225
GCF_013008375.1_ASM1300837v1,bin_component_1,NZ_CP053101.1,NODE_3_length_3142_cov_331.804665_component_1,3141,1945542,1948682
GCF_013008375.1_ASM1300837v1,bin_component_1,NZ_CP053101.1,NODE_3_length_3142_cov_331.804665_component_1,3141,522665,525805
GCF_013008375.1_ASM1300837v1,bin_component_1,NZ_CP053101.1,NODE_3_length_3142_cov_331.804665_component_1,3141,478270,481410
GCF_013008375.1_ASM1300837v1,bin_component_1,NZ_CP053101.1,NODE_3_length_3142_cov_331.804665_component_1,3141,527981,531121
GCF_013008375.1_ASM1300837v1,bin_component_1,NZ_CP053101.1,NODE_8_length_1704_cov_309.941176_component_1,1704,525953,527656
GCF_013008375.1_ASM1300837v1,bin_component_1,NZ_CP053101.1,NODE_8_length_1704_cov_309.941176_component_1,1704,476242,477945
GCF_013008375.1_ASM1300837v1,bin_component_1,NZ_CP053101.1,NODE_8_length_1704_cov_309.941176_component_1,1704,2137671,2139374
GCF_013008375.1_ASM1300837v1,bin_component_1,NZ_CP053101.1,NODE_8_length_1704_cov_309.941176_component_1,1704,520620,522323
GCF_013008375.1_ASM1300837v1,bin_component_1,NZ_CP053101.1,NODE_8_length_1704_cov_309.941176_component_1,1704,2250792,2252495
GCF_013008375.1_ASM1300837v1,bin_component_1,NZ_CP053101.1,NODE_8_length_1704_cov_309.941176_component_1,1690,1949053,1950742
GCF_013008375.1_ASM1300837v1,bin_component_0,NZ_CP053101.1,NODE_7_length_2197_cov_252.555089_component_0,2197,2565156,2567352
GCF_013008375.1_ASM1300837v1,bin_component_0,NZ_CP053101.1,NODE_7_length_2197_cov_252.555089_component_0,2197,1363931,1366127
GCF_013008375.1_ASM1300837v1,bin_component_0,NZ_CP053101.1,NODE_9_length_1548_cov_260.727395_component_0,1548,2574184,2575731
GCF_013008375.1_ASM1300837v1,bin_component_0,NZ_CP053101.1,NODE_9_length_1548_cov_260.727395_component_0,1548,1371933,1373480
GCF_016727585.1_ASM1672758v1,bin_component_3,NZ_CP068143.1,NODE_73_length_1662_cov_1004.461199_component_3,1662,397079,398740
GCF_016727585.1_ASM1672758v1,bin_component_3,NZ_CP068143.1,NODE_73_length_1662_cov_1004.461199_component_3,1661,1372498,1374158
GCF_016727585.1_ASM1672758v1,bin_component_0,NZ_CP068143.1,NODE_72_length_1663_cov_2832.715637_component_0,1663,2289210,2290872
GCF_016727585.1_ASM1672758v1,bin_component_0,NZ_CP068143.1,NODE_72_length_1663_cov_2832.715637_component_0,1663,569992,571654
GCF_016727585.1_ASM1672758v1,bin_component_0,NZ_CP068143.1,NODE_72_length_1663_cov_2832.715637_component_0,1663,683555,685217
GCF_016727585.1_ASM1672758v1,bin_component_0,NZ_CP068143.1,NODE_72_length_1663_cov_2832.715637_component_0,1663,2245027,2246689
GCF_016727585.1_ASM1672758v1,bin_component_0,NZ_CP068143.1,NODE_72_length_1663_cov_2832.715637_component_0,1649,861478,863126
GCF_016727585.1_ASM1672758v1,bin_component_0,NZ_CP068143.1,NODE_76_length_1453_cov_2854.808140_component_0,1453,572650,574102
GCF_016727585.1_ASM1672758v1,bin_component_0,NZ_CP068143.1,NODE_76_length_1453_cov_2854.808140_component_0,1453,864063,865515
GCF_016727585.1_ASM1672758v1,bin_component_0,NZ_CP068143.1,NODE_76_length_1453_cov_2854.808140_component_0,1453,686108,687560
GCF_016727585.1_ASM1672758v1,bin_component_0,NZ_CP068143.1,NODE_76_length_1453_cov_2854.808140_component_0,1453,2286762,2288214
GCF_016727585.1_ASM1672758v1,bin_component_0,NZ_CP068143.1,NODE_76_length_1453_cov_2854.808140_component_0,1453,2242743,2244195
GCF_016727585.1_ASM1672758v1,bin_component_0,NZ_CP068143.1,NODE_81_length_1149_cov_2403.660448_component_0,1149,2288138,2289286
GCF_016727585.1_ASM1672758v1,bin_component_0,NZ_CP068143.1,NODE_81_length_1149_cov_2403.660448_component_0,1149,571578,572726
GCF_013836745.1_ASM1383674v1,bin_component_0,NZ_CP058613.1,NODE_25_length_3110_cov_1183.898780_component_0,3110,2378789,2381898
GCF_013836745.1_ASM1383674v1,bin_component_0,NZ_CP058613.1,NODE_25_length_3110_cov_1183.898780_component_0,3110,671283,674392
GCF_013836745.1_ASM1383674v1,bin_component_0,NZ_CP058613.1,NODE_25_length_3110_cov_1183.898780_component_0,3110,2422783,2425892
GCF_013836745.1_ASM1383674v1,bin_component_0,NZ_CP058613.1,NODE_25_length_3110_cov_1183.898780_component_0,3110,789574,792683
GCF_013836745.1_ASM1383674v1,bin_component_0,NZ_CP058613.1,NODE_25_length_3110_cov_1183.898780_component_0,3110,2373611,2376720
GCF_013836745.1_ASM1383674v1,bin_component_0,NZ_CP058613.1,NODE_25_length_3110_cov_1183.898780_component_0,3110,1932655,1935764
GCF_013836745.1_ASM1383674v1,bin_component_0,NZ_CP058613.1,NODE_29_length_1818_cov_644.408386_component_0,1818,822259,824076
GCF_013836745.1_ASM1383674v1,bin_component_0,NZ_CP058613.1,NODE_29_length_1818_cov_644.408386_component_0,1818,1748184,1750001
GCF_013836745.1_ASM1383674v1,bin_component_0,NZ_CP058613.1,NODE_29_length_1818_cov_644.408386_component_0,1818,765760,767577
GCF_013836745.1_ASM1383674v1,bin_component_0,NZ_CP058613.1,NODE_29_length_1818_cov_644.408386_component_0,1818,2024560,2026377
GCF_013836745.1_ASM1383674v1,bin_component_0,NZ_CP058613.1,NODE_29_length_1818_cov_644.408386_component_0,1818,1886524,1888341
GCF_013836745.1_ASM1383674v1,bin_component_0,NZ_CP058613.1,NODE_29_length_1818_cov_644.408386_component_0,1818,1874941,1876758
GCF_013836745.1_ASM1383674v1,bin_component_0,NZ_CP058613.1,NODE_29_length_1818_cov_644.408386_component_0,1818,1891903,1893720
GCF_013836745.1_ASM1383674v1,bin_component_0,NZ_CP058613.1,NODE_29_length_1818_cov_644.408386_component_0,1818,1862291,1864108
GCF_013836745.1_ASM1383674v1,bin_component_0,NZ_CP058613.1,NODE_29_length_1818_cov_644.408386_component_0,1818,186830,188647
GCF_013836745.1_ASM1383674v1,bin_component_0,NZ_CP058613.1,NODE_29_length_1818_cov_644.408386_component_0,1818,1215895,1217712
GCF_013836745.1_ASM1383674v1,bin_component_0,NZ_CP058613.1,NODE_29_length_1818_cov_644.408386_component_0,1818,2739231,2741048
GCF_013836745.1_ASM1383674v1,bin_component_0,NZ_CP058613.1,NODE_29_length_1818_cov_644.408386_component_0,1818,330293,332110
GCF_013836745.1_ASM1383674v1,bin_component_0,NZ_CP058613.1,NODE_29_length_1818_cov_644.408386_component_0,1818,2319609,2321426
GCF_013836745.1_ASM1383674v1,bin_component_0,NZ_CP058613.1,NODE_29_length_1818_cov_644.408386_component_0,1818,1439532,1441349
GCF_013836745.1_ASM1383674v1,bin_component_0,NZ_CP058613.1,NODE_29_length_1818_cov_644.408386_component_0,1818,2774157,2775974
GCF_013836745.1_ASM1383674v1,bin_component_0,NZ_CP058613.1,NODE_29_length_1818_cov_644.408386_component_0,1818,2608676,2610493
GCF_013836745.1_ASM1383674v1,bin_component_0,NZ_CP058613.1,NODE_29_length_1818_cov_644.408386_component_0,1818,1319066,1320883
GCF_013836745.1_ASM1383674v1,bin_component_0,NZ_CP058613.1,NODE_29_length_1818_cov_644.408386_component_0,1818,249173,250990
GCF_013836745.1_ASM1383674v1,bin_component_0,NZ_CP058613.1,NODE_29_length_1818_cov_644.408386_component_0,1818,2134882,2136699
GCF_013836745.1_ASM1383674v1,bin_component_0,NZ_CP058613.1,NODE_30_length_1734_cov_1120.305975_component_0,1734,2382152,2383885
GCF_013836745.1_ASM1383674v1,bin_component_0,NZ_CP058613.1,NODE_30_length_1734_cov_1120.305975_component_0,1734,2376940,2378673
GCF_013836745.1_ASM1383674v1,bin_component_0,NZ_CP058613.1,NODE_30_length_1734_cov_1120.305975_component_0,1733,787378,789110
GCF_013836745.1_ASM1383674v1,bin_component_0,NZ_CP058613.1,NODE_30_length_1734_cov_1120.305975_component_0,1733,669087,670819
GCF_013836745.1_ASM1383674v1,bin_component_0,NZ_CP058613.1,NODE_30_length_1734_cov_1120.305975_component_0,1734,2426112,2427845
GCF_013836745.1_ASM1383674v1,bin_component_0,NZ_CP058613.1,NODE_30_length_1734_cov_1120.305975_component_0,1731,1936155,1937885
GCF_013836525.1_ASM1383652v1,bin_component_0,NZ_CP058615.1,NODE_32_length_1789_cov_638.450350_component_0,1789,216511,218299
GCF_013836525.1_ASM1383652v1,bin_component_0,NZ_CP058615.1,NODE_32_length_1789_cov_638.450350_component_0,1789,2778488,2780276
GCF_013836525.1_ASM1383652v1,bin_component_0,NZ_CP058615.1,NODE_32_length_1789_cov_638.450350_component_0,1789,360003,361791
GCF_013836525.1_ASM1383652v1,bin_component_0,NZ_CP058615.1,NODE_32_length_1789_cov_638.450350_component_0,1789,879662,881450
GCF_013836525.1_ASM1383652v1,bin_component_0,NZ_CP058615.1,NODE_32_length_1789_cov_638.450350_component_0,1789,2633650,2635438
GCF_013836525.1_ASM1383652v1,bin_component_0,NZ_CP058615.1,NODE_32_length_1789_cov_638.450350_component_0,1789,851943,853731
GCF_013836525.1_ASM1383652v1,bin_component_0,NZ_CP058615.1,NODE_32_length_1789_cov_638.450350_component_0,1789,1036592,1038380
GCF_013836525.1_ASM1383652v1,bin_component_0,NZ_CP058615.1,NODE_32_length_1789_cov_638.450350_component_0,1789,1681149,1682937
GCF_013836525.1_ASM1383652v1,bin_component_0,NZ_CP058615.1,NODE_32_length_1789_cov_638.450350_component_0,1789,278854,280642
GCF_013836525.1_ASM1383652v1,bin_component_0,NZ_CP058615.1,NODE_32_length_1789_cov_638.450350_component_0,1789,1577981,1579769
GCF_013836525.1_ASM1383652v1,bin_component_0,NZ_CP058615.1,NODE_32_length_1789_cov_638.450350_component_0,1789,1023913,1025701
GCF_013836525.1_ASM1383652v1,bin_component_0,NZ_CP058615.1,NODE_32_length_1789_cov_638.450350_component_0,1789,2819361,2821149
GCF_013836525.1_ASM1383652v1,bin_component_0,NZ_CP058615.1,NODE_32_length_1789_cov_638.450350_component_0,1789,795445,797233
GCF_013836525.1_ASM1383652v1,bin_component_0,NZ_CP058615.1,NODE_32_length_1789_cov_638.450350_component_0,1789,1457515,1459303
GCF_013836525.1_ASM1383652v1,bin_component_0,NZ_CP058615.1,NODE_32_length_1789_cov_638.450350_component_0,1789,1012346,1014134
GCF_013836525.1_ASM1383652v1,bin_component_0,NZ_CP058615.1,NODE_32_length_1789_cov_638.450350_component_0,1789,2201156,2202944
GCF_013836525.1_ASM1383652v1,bin_component_0,NZ_CP058615.1,NODE_32_length_1789_cov_638.450350_component_0,1789,73317,75105
GCF_013836525.1_ASM1383652v1,bin_component_0,NZ_CP058615.1,NODE_33_length_1734_cov_1311.512372_component_0,1734,2407150,2408883
GCF_013836525.1_ASM1383652v1,bin_component_0,NZ_CP058615.1,NODE_33_length_1734_cov_1311.512372_component_0,1734,2401938,2403671
GCF_013836525.1_ASM1383652v1,bin_component_0,NZ_CP058615.1,NODE_33_length_1734_cov_1311.512372_component_0,1733,698772,700504
GCF_013836525.1_ASM1383652v1,bin_component_0,NZ_CP058615.1,NODE_33_length_1734_cov_1311.512372_component_0,1733,817062,818794
GCF_013836525.1_ASM1383652v1,bin_component_0,NZ_CP058615.1,NODE_33_length_1734_cov_1311.512372_component_0,1734,2451111,2452844
GCF_013836525.1_ASM1383652v1,bin_component_0,NZ_CP058615.1,NODE_33_length_1734_cov_1311.512372_component_0,1730,968155,969884
GCF_013836525.1_ASM1383652v1,bin_component_0,NZ_CP058615.1,NODE_34_length_1593_cov_1438.207784_component_0,1593,2400126,2401718
GCF_013836525.1_ASM1383652v1,bin_component_0,NZ_CP058615.1,NODE_34_length_1593_cov_1438.207784_component_0,1593,700968,702560
GCF_013836525.1_ASM1383652v1,bin_component_0,NZ_CP058615.1,NODE_34_length_1593_cov_1438.207784_component_0,1593,2405304,2406896
GCF_013836525.1_ASM1383652v1,bin_component_0,NZ_CP058615.1,NODE_34_length_1593_cov_1438.207784_component_0,1593,819258,820850
GCF_013836525.1_ASM1383652v1,bin_component_0,NZ_CP058615.1,NODE_34_length_1593_cov_1438.207784_component_0,1593,2449299,2450891
GCF_013836525.1_ASM1383652v1,bin_component_0,NZ_CP058615.1,NODE_34_length_1593_cov_1438.207784_component_0,1592,970275,971866
GCF_013836525.1_ASM1383652v1,bin_component_0,NZ_CP058615.1,NODE_36_length_1453_cov_1326.882994_component_0,1453,2447771,2449223
GCF_013836525.1_ASM1383652v1,bin_component_0,NZ_CP058615.1,NODE_36_length_1453_cov_1326.882994_component_0,1453,2403776,2405228
GCF_013836525.1_ASM1383652v1,bin_component_0,NZ_CP058615.1,NODE_36_length_1453_cov_1326.882994_component_0,1453,702636,704088
GCF_013836525.1_ASM1383652v1,bin_component_0,NZ_CP058615.1,NODE_36_length_1453_cov_1326.882994_component_0,1453,820926,822378
GCF_013836525.1_ASM1383652v1,bin_component_0,NZ_CP058615.1,NODE_36_length_1453_cov_1326.882994_component_0,1453,2398598,2400050
GCF_013836525.1_ASM1383652v1,bin_component_0,NZ_CP058615.1,NODE_36_length_1453_cov_1326.882994_component_0,1452,971942,973393
GCF_017088385.1_ASM1708838v1,bin_component_1,NZ_CP070983.1,NODE_15_length_1445_cov_586.597222_component_1,1445,471672,473116
GCF_017088385.1_ASM1708838v1,bin_component_1,NZ_CP070983.1,NODE_15_length_1445_cov_586.597222_component_1,1445,1904466,1905910
GCF_017088385.1_ASM1708838v1,bin_component_1,NZ_CP070983.1,NODE_15_length_1445_cov_586.597222_component_1,1445,521589,523033
GCF_017088385.1_ASM1708838v1,bin_component_1,NZ_CP070983.1,NODE_15_length_1445_cov_586.597222_component_1,1445,516272,517716
GCF_017088385.1_ASM1708838v1,bin_component_1,NZ_CP070983.1,NODE_15_length_1445_cov_586.597222_component_1,1445,2193122,2194566
GCF_017088385.1_ASM1708838v1,bin_component_1,NZ_CP070983.1,NODE_15_length_1445_cov_586.597222_component_1,1444,2080276,2081719
GCF_017088385.1_ASM1708838v1,bin_component_1,NZ_CP070983.1,NODE_16_length_1162_cov_373.705991_component_1,1162,2195264,2196425
GCF_017088385.1_ASM1708838v1,bin_component_1,NZ_CP070983.1,NODE_16_length_1162_cov_373.705991_component_1,1162,2082417,2083578
GCF_016889145.1_ASM1688914v1,bin_component_1,NZ_CP069470.1,NODE_6_length_3121_cov_2610.502628_component_1,3121,2341045,2344165
GCF_016889145.1_ASM1688914v1,bin_component_1,NZ_CP069470.1,NODE_6_length_3121_cov_2610.502628_component_1,3121,602000,605120
GCF_016889145.1_ASM1688914v1,bin_component_1,NZ_CP069470.1,NODE_6_length_3121_cov_2610.502628_component_1,3121,718308,721428
GCF_016889145.1_ASM1688914v1,bin_component_1,NZ_CP069470.1,NODE_6_length_3121_cov_2610.502628_component_1,3121,2335867,2338987
GCF_016889145.1_ASM1688914v1,bin_component_1,NZ_CP069470.1,NODE_6_length_3121_cov_2610.502628_component_1,3121,2385297,2388417
GCF_016889145.1_ASM1688914v1,bin_component_1,NZ_CP069470.1,NODE_6_length_3121_cov_2610.502628_component_1,3121,896460,899580
GCF_016889145.1_ASM1688914v1,bin_component_1,NZ_CP069470.1,NODE_7_length_1703_cov_2545.232472_component_1,1703,2344450,2346152
GCF_016889145.1_ASM1688914v1,bin_component_1,NZ_CP069470.1,NODE_7_length_1703_cov_2545.232472_component_1,1703,2388730,2390432
GCF_016889145.1_ASM1688914v1,bin_component_1,NZ_CP069470.1,NODE_7_length_1703_cov_2545.232472_component_1,1703,2339238,2340940
GCF_016889145.1_ASM1688914v1,bin_component_1,NZ_CP069470.1,NODE_7_length_1703_cov_2545.232472_component_1,1702,600048,601749
GCF_016889145.1_ASM1688914v1,bin_component_1,NZ_CP069470.1,NODE_7_length_1703_cov_2545.232472_component_1,1702,716356,718057
GCF_016889145.1_ASM1688914v1,bin_component_1,NZ_CP069470.1,NODE_7_length_1703_cov_2545.232472_component_1,1700,894339,896038
GCF_022226995.1_ASM2222699v1,bin_component_1,NZ_CP092052.1,NODE_2_length_6112_cov_280.253591_component_1,6112,628282,634393
GCF_022226995.1_ASM2222699v1,bin_component_1,NZ_CP092052.1,NODE_2_length_6112_cov_280.253591_component_1,6112,2790992,2797103
GCF_022226995.1_ASM2222699v1,bin_component_2,NZ_CP092052.1,NODE_5_length_3121_cov_962.627202_component_2,3121,1929087,1932207
GCF_022226995.1_ASM2222699v1,bin_component_2,NZ_CP092052.1,NODE_5_length_3121_cov_962.627202_component_2,3121,508667,511787
GCF_022226995.1_ASM2222699v1,bin_component_2,NZ_CP092052.1,NODE_5_length_3121_cov_962.627202_component_2,3121,2223500,2226620
GCF_022226995.1_ASM2222699v1,bin_component_2,NZ_CP092052.1,NODE_5_length_3121_cov_962.627202_component_2,3121,459237,462357
GCF_022226995.1_ASM2222699v1,bin_component_2,NZ_CP092052.1,NODE_5_length_3121_cov_962.627202_component_2,3121,503489,506609
GCF_022226995.1_ASM2222699v1,bin_component_2,NZ_CP092052.1,NODE_5_length_3121_cov_962.627202_component_2,3121,2107191,2110311
GCF_022226995.1_ASM2222699v1,bin_component_2,NZ_CP092052.1,NODE_8_length_1659_cov_840.860973_component_2,1659,506758,508416
GCF_022226995.1_ASM2222699v1,bin_component_2,NZ_CP092052.1,NODE_8_length_1659_cov_840.860973_component_2,1659,457266,458924
GCF_022226995.1_ASM2222699v1,bin_component_2,NZ_CP092052.1,NODE_8_length_1659_cov_840.860973_component_2,1659,1932629,1934287
GCF_022226995.1_ASM2222699v1,bin_component_2,NZ_CP092052.1,NODE_8_length_1659_cov_840.860973_component_2,1659,2110562,2112220
GCF_022226995.1_ASM2222699v1,bin_component_2,NZ_CP092052.1,NODE_8_length_1659_cov_840.860973_component_2,1659,501546,503204
GCF_022226995.1_ASM2222699v1,bin_component_2,NZ_CP092052.1,NODE_8_length_1659_cov_840.860973_component_2,1659,2226871,2228529
GCF_018093225.1_ASM1809322v1,bin_component_0,NZ_CP071104.1,NODE_30_length_3121_cov_1840.077488_component_0,3121,490203,493323
GCF_018093225.1_ASM1809322v1,bin_component_0,NZ_CP071104.1,NODE_30_length_3121_cov_1840.077488_component_0,3121,1998356,2001476
GCF_018093225.1_ASM1809322v1,bin_component_0,NZ_CP071104.1,NODE_30_length_3121_cov_1840.077488_component_0,3121,1863225,1866345
GCF_018093225.1_ASM1809322v1,bin_component_0,NZ_CP071104.1,NODE_30_length_3121_cov_1840.077488_component_0,3120,440248,443369
GCF_018093225.1_ASM1809322v1,bin_component_0,NZ_CP071104.1,NODE_30_length_3121_cov_1840.077488_component_0,3120,485025,488146
GCF_018093225.1_ASM1809322v1,bin_component_0,NZ_CP071104.1,NODE_30_length_3121_cov_1840.077488_component_0,3119,2112268,2115390
GCF_018093225.1_ASM1809322v1,bin_component_0,NZ_CP071104.1,NODE_38_length_1606_cov_247.237999_component_0,1605,9271,10877
GCF_018093225.1_ASM1809322v1,bin_component_0,NZ_CP071104.1,NODE_38_length_1606_cov_247.237999_component_0,1605,1534130,1535736
GCF_018093225.1_ASM1809322v1,bin_component_0,NZ_CP071104.1,NODE_38_length_1606_cov_247.237999_component_0,1606,2087763,2089368
GCF_022405145.1_ASM2240514v1,bin_component_0,NZ_CP062348.1,NODE_9_length_1429_cov_220.916283_component_0,1429,17300,18728
GCF_022405145.1_ASM2240514v1,bin_component_0,NZ_CP062348.1,NODE_9_length_1429_cov_220.916283_component_0,1429,1756658,1758086
GCF_022226975.1_ASM2222697v1,bin_component_1,NZ_CP092055.1,NODE_3_length_3122_cov_1034.210955_component_1,3122,516215,519336
GCF_022226975.1_ASM2222697v1,bin_component_1,NZ_CP092055.1,NODE_3_length_3122_cov_1034.210955_component_1,3122,510994,514115
GCF_022226975.1_ASM2222697v1,bin_component_1,NZ_CP092055.1,NODE_3_length_3122_cov_1034.210955_component_1,3122,2129646,2132767
GCF_022226975.1_ASM2222697v1,bin_component_1,NZ_CP092055.1,NODE_3_length_3122_cov_1034.210955_component_1,3122,466955,470076
GCF_022226975.1_ASM2222697v1,bin_component_1,NZ_CP092055.1,NODE_3_length_3122_cov_1034.210955_component_1,3122,2018051,2021172
GCF_022226975.1_ASM2222697v1,bin_component_1,NZ_CP092055.1,NODE_3_length_3122_cov_1034.210955_component_1,3122,1844523,1847644
GCF_022226975.1_ASM2222697v1,bin_component_1,NZ_CP092055.1,NODE_4_length_1748_cov_924.025399_component_1,1748,508963,510710
GCF_022226975.1_ASM2222697v1,bin_component_1,NZ_CP092055.1,NODE_4_length_1748_cov_924.025399_component_1,1748,514218,515965
GCF_022226975.1_ASM2222697v1,bin_component_1,NZ_CP092055.1,NODE_4_length_1748_cov_924.025399_component_1,1748,2021499,2023246
GCF_022226975.1_ASM2222697v1,bin_component_1,NZ_CP092055.1,NODE_4_length_1748_cov_924.025399_component_1,1747,464959,466705
GCF_022226975.1_ASM2222697v1,bin_component_1,NZ_CP092055.1,NODE_4_length_1748_cov_924.025399_component_1,1747,2133035,2134781
GCF_022226975.1_ASM2222697v1,bin_component_1,NZ_CP092055.1,NODE_4_length_1748_cov_924.025399_component_1,1746,1847866,1849611
GCF_015475575.1_ASM1547557v1,bin_component_0,NZ_CP055225.1,NODE_1_length_5030_cov_1459.164221_component_0,5030,2294241,2299270
GCF_015475575.1_ASM1547557v1,bin_component_0,NZ_CP055225.1,NODE_1_length_5030_cov_1459.164221_component_0,5030,2177931,2182960
GCF_015475575.1_ASM1547557v1,bin_component_0,NZ_CP055225.1,NODE_1_length_5030_cov_1459.164221_component_0,5030,563083,568112
GCF_903932595.1_P3.1,bin_component_1,NZ_LR822060.1,NODE_5_length_2270_cov_479.457364_component_1,2270,1605147,1607416
GCF_903932595.1_P3.1,bin_component_1,NZ_LR822060.1,NODE_5_length_2270_cov_479.457364_component_1,2270,2903522,2905791
GCF_903932595.1_P3.1,bin_component_1,NZ_LR822060.1,NODE_5_length_2270_cov_479.457364_component_1,2270,109431,111700
GCF_903932595.1_P3.1,bin_component_1,NZ_LR822060.1,NODE_5_length_2270_cov_479.457364_component_1,2270,2739402,2741671
GCF_903932595.1_P3.1,bin_component_1,NZ_LR822060.1,NODE_5_length_2270_cov_479.457364_component_1,2270,1599969,1602238
GCF_903932595.1_P3.1,bin_component_1,NZ_LR822060.1,NODE_5_length_2270_cov_479.457364_component_1,2270,1649442,1651711
GCF_903932595.1_P3.1,bin_component_1,NZ_LR822060.1,NODE_6_length_1659_cov_456.892541_component_1,1659,2901446,2903104
GCF_903932595.1_P3.1,bin_component_1,NZ_LR822060.1,NODE_6_length_1659_cov_456.892541_component_1,1659,1652024,1653682
GCF_903932595.1_P3.1,bin_component_1,NZ_LR822060.1,NODE_6_length_1659_cov_456.892541_component_1,1659,2737326,2738984
GCF_903932595.1_P3.1,bin_component_1,NZ_LR822060.1,NODE_6_length_1659_cov_456.892541_component_1,1659,1602489,1604147
GCF_903932595.1_P3.1,bin_component_1,NZ_LR822060.1,NODE_6_length_1659_cov_456.892541_component_1,1659,1607701,1609359
GCF_903932595.1_P3.1,bin_component_1,NZ_LR822060.1,NODE_6_length_1659_cov_456.892541_component_1,1659,107351,109009
GCF_016591995.1_ASM1659199v1,bin_component_3,NZ_AP024170.1,NODE_27_length_1501_cov_105.722707_component_3,1501,671360,672860
GCF_016591995.1_ASM1659199v1,bin_component_3,NZ_AP024170.1,NODE_27_length_1501_cov_105.722707_component_3,1501,1953405,1954905
GCF_016591995.1_ASM1659199v1,bin_component_3,NZ_AP024170.1,NODE_27_length_1501_cov_105.722707_component_3,1501,2170893,2172393
GCF_016591995.1_ASM1659199v1,bin_component_3,NZ_AP024170.1,NODE_27_length_1501_cov_105.722707_component_3,1501,881176,882676
GCF_016591995.1_ASM1659199v1,bin_component_3,NZ_AP024170.1,NODE_27_length_1501_cov_105.722707_component_3,1501,1800313,1801813
GCF_016591995.1_ASM1659199v1,bin_component_3,NZ_AP024170.1,NODE_27_length_1501_cov_105.722707_component_3,1501,426774,428274
GCF_016591995.1_ASM1659199v1,bin_component_3,NZ_AP024170.1,NODE_27_length_1501_cov_105.722707_component_3,1500,1132254,1133755
GCF_016591995.1_ASM1659199v1,bin_component_3,NZ_AP024170.1,NODE_27_length_1501_cov_105.722707_component_3,1500,2596871,2598372
GCF_016591995.1_ASM1659199v1,bin_component_3,NZ_AP024170.1,NODE_30_length_1324_cov_154.700084_component_3,1324,668811,670134
GCF_016591995.1_ASM1659199v1,bin_component_3,NZ_AP024170.1,NODE_30_length_1324_cov_154.700084_component_3,1324,958057,959380
GCF_016591995.1_ASM1659199v1,bin_component_3,NZ_AP024170.1,NODE_30_length_1324_cov_154.700084_component_3,1323,973835,975157
GCF_016591995.1_ASM1659199v1,bin_component_3,NZ_AP024170.1,NODE_30_length_1324_cov_154.700084_component_3,1323,1401665,1402987
GCF_016591995.1_ASM1659199v1,bin_component_3,NZ_AP024170.1,NODE_30_length_1324_cov_154.700084_component_3,1323,850154,851476
GCF_016591995.1_ASM1659199v1,bin_component_3,NZ_AP024170.1,NODE_30_length_1324_cov_154.700084_component_3,1323,970592,971916
GCF_016591995.1_ASM1659199v1,bin_component_0,NZ_AP024170.1,NODE_20_length_2992_cov_260.116928_component_0,2992,508285,511276
GCF_016591995.1_ASM1659199v1,bin_component_0,NZ_AP024170.1,NODE_20_length_2992_cov_260.116928_component_0,2992,2260811,2263802
GCF_016591995.1_ASM1659199v1,bin_component_0,NZ_AP024170.1,NODE_20_length_2992_cov_260.116928_component_0,2992,552575,555566
GCF_016591995.1_ASM1659199v1,bin_component_0,NZ_AP024170.1,NODE_20_length_2992_cov_260.116928_component_0,2992,2145723,2148714
GCF_016591995.1_ASM1659199v1,bin_component_0,NZ_AP024170.1,NODE_20_length_2992_cov_260.116928_component_0,2992,1957581,1960572
GCF_016591995.1_ASM1659199v1,bin_component_0,NZ_AP024170.1,NODE_23_length_1685_cov_213.049422_component_0,1685,550589,552273
GCF_016591995.1_ASM1659199v1,bin_component_0,NZ_AP024170.1,NODE_23_length_1685_cov_213.049422_component_0,1685,506270,507954
GCF_016591995.1_ASM1659199v1,bin_component_0,NZ_AP024170.1,NODE_23_length_1685_cov_213.049422_component_0,1685,2264238,2265922
GCF_016591995.1_ASM1659199v1,bin_component_0,NZ_AP024170.1,NODE_23_length_1685_cov_213.049422_component_0,1684,2149150,2150833
GCF_016591995.1_ASM1659199v1,bin_component_0,NZ_AP024170.1,NODE_23_length_1685_cov_213.049422_component_0,1682,1961012,1962693
GCF_018093105.1_ASM1809310v1,bin_component_0,NZ_CP071100.1,NODE_11_length_3009_cov_2897.518043_component_0,3009,1951482,1954490
GCF_018093105.1_ASM1809310v1,bin_component_0,NZ_CP071100.1,NODE_11_length_3009_cov_2897.518043_component_0,3009,2086286,2089294
GCF_018093105.1_ASM1809310v1,bin_component_0,NZ_CP071100.1,NODE_11_length_3009_cov_2897.518043_component_0,3008,454862,457871
GCF_018093105.1_ASM1809310v1,bin_component_0,NZ_CP071100.1,NODE_11_length_3009_cov_2897.518043_component_0,3008,498795,501804
GCF_018093105.1_ASM1809310v1,bin_component_0,NZ_CP071100.1,NODE_11_length_3009_cov_2897.518043_component_0,2991,504111,507101
GCF_018093105.1_ASM1809310v1,bin_component_0,NZ_CP071100.1,NODE_11_length_3009_cov_2897.518043_component_0,2990,2200586,2203575
GCF_018093105.1_ASM1809310v1,bin_component_0,NZ_CP071100.1,NODE_14_length_1690_cov_2259.643634_component_0,1690,2089542,2091231
GCF_018093105.1_ASM1809310v1,bin_component_0,NZ_CP071100.1,NODE_14_length_1690_cov_2259.643634_component_0,1690,2203932,2205621
GCF_018093105.1_ASM1809310v1,bin_component_0,NZ_CP071100.1,NODE_14_length_1690_cov_2259.643634_component_0,1690,1954863,1956552
GCF_018093105.1_ASM1809310v1,bin_component_0,NZ_CP071100.1,NODE_14_length_1690_cov_2259.643634_component_0,1689,502082,503772
GCF_018093105.1_ASM1809310v1,bin_component_0,NZ_CP071100.1,NODE_14_length_1690_cov_2259.643634_component_0,1689,452726,454416
GCF_022404775.1_ASM2240477v1,bin_component_0,NZ_CP062342.1,NODE_5_length_6519_cov_122.274718_component_0,6519,946914,953432
GCF_022404775.1_ASM2240477v1,bin_component_0,NZ_CP062342.1,NODE_5_length_6519_cov_122.274718_component_0,6519,2771295,2777813
GCF_018093205.1_ASM1809320v1,bin_component_1,NZ_CP071102.1,NODE_19_length_1442_cov_886.296578_component_1,1442,1511319,1512760
GCF_018093205.1_ASM1809320v1,bin_component_1,NZ_CP071102.1,NODE_19_length_1442_cov_886.296578_component_1,1442,2653167,2654608
GCF_018093205.1_ASM1809320v1,bin_component_1,NZ_CP071102.1,NODE_19_length_1442_cov_886.296578_component_1,1442,2539760,2541201
GCF_018093205.1_ASM1809320v1,bin_component_1,NZ_CP071102.1,NODE_19_length_1442_cov_886.296578_component_1,1441,1462075,1463515
GCF_018093205.1_ASM1809320v1,bin_component_1,NZ_CP071102.1,NODE_19_length_1442_cov_886.296578_component_1,1442,109540,110981
GCF_018093205.1_ASM1809320v1,bin_component_1,NZ_CP071102.1,NODE_19_length_1442_cov_886.296578_component_1,1435,1467301,1468735
GCF_018093205.1_ASM1809320v1,bin_component_1,NZ_CP071102.1,NODE_21_length_1347_cov_822.044262_component_1,1347,2654482,2655828
GCF_018093205.1_ASM1809320v1,bin_component_1,NZ_CP071102.1,NODE_21_length_1347_cov_822.044262_component_1,1346,2541075,2542420
GCF_018093205.1_ASM1809320v1,bin_component_1,NZ_CP071102.1,NODE_21_length_1347_cov_822.044262_component_1,1347,1510099,1511445
GCF_018093205.1_ASM1809320v1,bin_component_1,NZ_CP071102.1,NODE_21_length_1347_cov_822.044262_component_1,1346,110855,112200
GCF_018093205.1_ASM1809320v1,bin_component_1,NZ_CP071102.1,NODE_21_length_1347_cov_822.044262_component_1,1345,1460857,1462201
GCF_018093205.1_ASM1809320v1,bin_component_1,NZ_CP071102.1,NODE_21_length_1347_cov_822.044262_component_1,1346,1466076,1467423
GCF_018093205.1_ASM1809320v1,bin_component_1,NZ_CP071102.1,NODE_23_length_1009_cov_750.024943_component_1,1009,107586,108594
GCF_018093205.1_ASM1809320v1,bin_component_1,NZ_CP071102.1,NODE_23_length_1009_cov_750.024943_component_1,1009,2537992,2539000
GCF_018093205.1_ASM1809320v1,bin_component_1,NZ_CP071102.1,NODE_23_length_1009_cov_750.024943_component_1,1009,1513597,1514605
GCF_018093205.1_ASM1809320v1,bin_component_1,NZ_CP071102.1,NODE_23_length_1009_cov_750.024943_component_1,1009,2651305,2652313
GCF_018093205.1_ASM1809320v1,bin_component_1,NZ_CP071102.1,NODE_23_length_1009_cov_750.024943_component_1,1008,1464259,1465266
GCF_018093205.1_ASM1809320v1,bin_component_1,NZ_CP071102.1,NODE_23_length_1009_cov_750.024943_component_1,1005,1469512,1470516
GCF_016889945.1_ASM1688994v1,bin_component_1,NZ_CP069565.1,NODE_5_length_3121_cov_1972.226018_component_1,3121,1181321,1184441
GCF_016889945.1_ASM1688994v1,bin_component_1,NZ_CP069565.1,NODE_5_length_3121_cov_1972.226018_component_1,3121,64254,67374
GCF_016889945.1_ASM1688994v1,bin_component_1,NZ_CP069565.1,NODE_5_length_3121_cov_1972.226018_component_1,3121,59076,62196
GCF_016889945.1_ASM1688994v1,bin_component_1,NZ_CP069565.1,NODE_5_length_3121_cov_1972.226018_component_1,3121,1297629,1300749
GCF_016889945.1_ASM1688994v1,bin_component_1,NZ_CP069565.1,NODE_5_length_3121_cov_1972.226018_component_1,3121,108506,111626
GCF_016889945.1_ASM1688994v1,bin_component_1,NZ_CP069565.1,NODE_5_length_3121_cov_1972.226018_component_1,3121,1475781,1478901
GCF_016889945.1_ASM1688994v1,bin_component_1,NZ_CP069565.1,NODE_6_length_1703_cov_1944.200492_component_1,1703,67659,69361
GCF_016889945.1_ASM1688994v1,bin_component_1,NZ_CP069565.1,NODE_6_length_1703_cov_1944.200492_component_1,1703,111939,113641
GCF_016889945.1_ASM1688994v1,bin_component_1,NZ_CP069565.1,NODE_6_length_1703_cov_1944.200492_component_1,1703,62447,64149
GCF_016889945.1_ASM1688994v1,bin_component_1,NZ_CP069565.1,NODE_6_length_1703_cov_1944.200492_component_1,1702,1295677,1297378
GCF_016889945.1_ASM1688994v1,bin_component_1,NZ_CP069565.1,NODE_6_length_1703_cov_1944.200492_component_1,1702,1179369,1181070
GCF_016889945.1_ASM1688994v1,bin_component_1,NZ_CP069565.1,NODE_6_length_1703_cov_1944.200492_component_1,1700,1473660,1475359
GCF_016894285.1_ASM1689428v1,bin_component_0,NZ_CP069799.1,NODE_15_length_1613_cov_1990.464844_component_0,1613,489446,491058
GCF_016894285.1_ASM1689428v1,bin_component_0,NZ_CP069799.1,NODE_15_length_1613_cov_1990.464844_component_0,1613,1949050,1950662
GCF_016894285.1_ASM1689428v1,bin_component_0,NZ_CP069799.1,NODE_15_length_1613_cov_1990.464844_component_0,1613,538802,540414
GCF_016894285.1_ASM1689428v1,bin_component_0,NZ_CP069799.1,NODE_15_length_1613_cov_1990.464844_component_0,1613,533562,535174
GCF_016894285.1_ASM1689428v1,bin_component_0,NZ_CP069799.1,NODE_15_length_1613_cov_1990.464844_component_0,1613,2237257,2238869
GCF_016894285.1_ASM1689428v1,bin_component_0,NZ_CP069799.1,NODE_15_length_1613_cov_1990.464844_component_0,1613,2124154,2125766
GCF_016894285.1_ASM1689428v1,bin_component_0,NZ_CP069799.1,NODE_16_length_1412_cov_1791.279401_component_0,1412,1947563,1948974
GCF_016894285.1_ASM1689428v1,bin_component_0,NZ_CP069799.1,NODE_16_length_1412_cov_1791.279401_component_0,1412,540490,541901
GCF_016894285.1_ASM1689428v1,bin_component_0,NZ_CP069799.1,NODE_16_length_1412_cov_1791.279401_component_0,1412,491134,492545
GCF_016894285.1_ASM1689428v1,bin_component_0,NZ_CP069799.1,NODE_16_length_1412_cov_1791.279401_component_0,1412,2235770,2237181
GCF_016894285.1_ASM1689428v1,bin_component_0,NZ_CP069799.1,NODE_16_length_1412_cov_1791.279401_component_0,1412,535250,536661
GCF_016894285.1_ASM1689428v1,bin_component_0,NZ_CP069799.1,NODE_16_length_1412_cov_1791.279401_component_0,1412,2122667,2124078
GCF_016894285.1_ASM1689428v1,bin_component_0,NZ_CP069799.1,NODE_17_length_1137_cov_1573.914151_component_0,1137,536807,537943
GCF_016894285.1_ASM1689428v1,bin_component_0,NZ_CP069799.1,NODE_17_length_1137_cov_1573.914151_component_0,1137,487451,488587
GCF_016894285.1_ASM1689428v1,bin_component_0,NZ_CP069799.1,NODE_17_length_1137_cov_1573.914151_component_0,1137,531473,532609
GCF_016894285.1_ASM1689428v1,bin_component_0,NZ_CP069799.1,NODE_17_length_1137_cov_1573.914151_component_0,1136,2126625,2127760
GCF_016894285.1_ASM1689428v1,bin_component_0,NZ_CP069799.1,NODE_17_length_1137_cov_1573.914151_component_0,1137,2239833,2240969
GCF_016894285.1_ASM1689428v1,bin_component_0,NZ_CP069799.1,NODE_17_length_1137_cov_1573.914151_component_0,1134,1951630,1952763
GCF_022405335.1_ASM2240533v1,bin_component_1,NZ_CP062364.1,NODE_3_length_3121_cov_146.506012_component_1,3121,499364,502484
GCF_022405335.1_ASM2240533v1,bin_component_1,NZ_CP062364.1,NODE_3_length_3121_cov_146.506012_component_1,3121,2005174,2008294
GCF_022405335.1_ASM2240533v1,bin_component_1,NZ_CP062364.1,NODE_3_length_3121_cov_146.506012_component_1,3121,454576,457696
GCF_022405335.1_ASM2240533v1,bin_component_1,NZ_CP062364.1,NODE_3_length_3121_cov_146.506012_component_1,3121,504604,507724
GCF_022405335.1_ASM2240533v1,bin_component_1,NZ_CP062364.1,NODE_3_length_3121_cov_146.506012_component_1,3121,2122535,2125655
GCF_022405335.1_ASM2240533v1,bin_component_1,NZ_CP062364.1,NODE_3_length_3121_cov_146.506012_component_1,3117,1871974,1875090
GCF_021869805.1_ASM2186980v1,bin_component_0,NZ_CP086215.1,NODE_1_length_3121_cov_496.706636_component_0,3121,2686488,2689608
GCF_021869805.1_ASM2186980v1,bin_component_0,NZ_CP086215.1,NODE_1_length_3121_cov_496.706636_component_0,3121,108122,111242
GCF_021869805.1_ASM2186980v1,bin_component_0,NZ_CP086215.1,NODE_1_length_3121_cov_496.706636_component_0,3121,1558836,1561956
GCF_021869805.1_ASM2186980v1,bin_component_0,NZ_CP086215.1,NODE_1_length_3121_cov_496.706636_component_0,3121,1603127,1606247
GCF_021869805.1_ASM2186980v1,bin_component_0,NZ_CP086215.1,NODE_1_length_3121_cov_496.706636_component_0,3121,2801575,2804695
GCF_021869805.1_ASM2186980v1,bin_component_0,NZ_CP086215.1,NODE_1_length_3121_cov_496.706636_component_0,3121,1553658,1556778
GCF_021869805.1_ASM2186980v1,bin_component_0,NZ_CP086215.1,NODE_3_length_1703_cov_437.819803_component_0,1703,2684368,2686070
GCF_021869805.1_ASM2186980v1,bin_component_0,NZ_CP086215.1,NODE_3_length_1703_cov_437.819803_component_0,1703,1606560,1608262
GCF_021869805.1_ASM2186980v1,bin_component_0,NZ_CP086215.1,NODE_3_length_1703_cov_437.819803_component_0,1703,1562241,1563943
GCF_021869805.1_ASM2186980v1,bin_component_0,NZ_CP086215.1,NODE_3_length_1703_cov_437.819803_component_0,1703,1557029,1558731
GCF_021869805.1_ASM2186980v1,bin_component_0,NZ_CP086215.1,NODE_3_length_1703_cov_437.819803_component_0,1702,2799456,2801157
GCF_021869805.1_ASM2186980v1,bin_component_0,NZ_CP086215.1,NODE_3_length_1703_cov_437.819803_component_0,1700,106001,107700
GCF_018135565.1_ASM1813556v1,bin_component_3,NZ_CP073065.1,NODE_7_length_3085_cov_1067.114029_component_3,3085,563721,566805
GCF_018135565.1_ASM1813556v1,bin_component_3,NZ_CP073065.1,NODE_7_length_3085_cov_1067.114029_component_3,3085,1906132,1909216
GCF_018135565.1_ASM1813556v1,bin_component_3,NZ_CP073065.1,NODE_7_length_3085_cov_1067.114029_component_3,3085,519141,522225
GCF_018135565.1_ASM1813556v1,bin_component_3,NZ_CP073065.1,NODE_7_length_3085_cov_1067.114029_component_3,3085,2088353,2091437
GCF_018135565.1_ASM1813556v1,bin_component_3,NZ_CP073065.1,NODE_7_length_3085_cov_1067.114029_component_3,3085,2215642,2218726
GCF_018409145.1_ASM1840914v1,bin_component_0,NZ_AP024511.1,NODE_13_length_1780_cov_2032.504537_component_0,1780,2710050,2711829
GCF_018409145.1_ASM1840914v1,bin_component_0,NZ_AP024511.1,NODE_13_length_1780_cov_2032.504537_component_0,1780,2824837,2826616
GCF_018409145.1_ASM1840914v1,bin_component_0,NZ_AP024511.1,NODE_13_length_1780_cov_2032.504537_component_0,1780,149063,150842
GCF_018409145.1_ASM1840914v1,bin_component_0,NZ_AP024511.1,NODE_13_length_1780_cov_2032.504537_component_0,1780,1625409,1627188
GCF_018409145.1_ASM1840914v1,bin_component_0,NZ_AP024511.1,NODE_13_length_1780_cov_2032.504537_component_0,1780,1581118,1582897
GCF_018409145.1_ASM1840914v1,bin_component_0,NZ_AP024511.1,NODE_15_length_1327_cov_706.772500_component_0,1327,806381,807707
GCF_018409145.1_ASM1840914v1,bin_component_0,NZ_AP024511.1,NODE_15_length_1327_cov_706.772500_component_0,1327,1972271,1973597
GCF_018409145.1_ASM1840914v1,bin_component_0,NZ_AP024511.1,NODE_15_length_1327_cov_706.772500_component_0,1325,1169482,1170806
GCF_018409145.1_ASM1840914v1,bin_component_0,NZ_AP024511.1,NODE_15_length_1327_cov_706.772500_component_0,1325,1136739,1138063
GCF_018409145.1_ASM1840914v1,bin_component_0,NZ_AP024511.1,NODE_15_length_1327_cov_706.772500_component_0,1324,1139982,1141305
GCF_017088305.1_ASM1708830v1,bin_component_3,NZ_CP070986.1,NODE_18_length_1748_cov_511.533214_component_3,1748,511608,513355
GCF_017088305.1_ASM1708830v1,bin_component_3,NZ_CP070986.1,NODE_18_length_1748_cov_511.533214_component_3,1748,560971,562718
GCF_017088305.1_ASM1708830v1,bin_component_3,NZ_CP070986.1,NODE_18_length_1748_cov_511.533214_component_3,1746,555762,557507
GCF_017088305.1_ASM1708830v1,bin_component_3,NZ_CP070986.1,NODE_18_length_1748_cov_511.533214_component_3,1744,2098748,2100491
GCF_017088305.1_ASM1708830v1,bin_component_3,NZ_CP070986.1,NODE_18_length_1748_cov_511.533214_component_3,1747,2212171,2213919
GCF_017088305.1_ASM1708830v1,bin_component_3,NZ_CP070986.1,NODE_19_length_1593_cov_600.094987_component_3,1593,2096791,2098383
GCF_017088305.1_ASM1708830v1,bin_component_3,NZ_CP070986.1,NODE_19_length_1593_cov_600.094987_component_3,1593,1918979,1920571
GCF_017088305.1_ASM1708830v1,bin_component_3,NZ_CP070986.1,NODE_19_length_1593_cov_600.094987_component_3,1593,513561,515153
GCF_017088305.1_ASM1708830v1,bin_component_3,NZ_CP070986.1,NODE_19_length_1593_cov_600.094987_component_3,1593,557746,559338
GCF_017088305.1_ASM1708830v1,bin_component_3,NZ_CP070986.1,NODE_19_length_1593_cov_600.094987_component_3,1593,2210252,2211844
GCF_017088305.1_ASM1708830v1,bin_component_3,NZ_CP070986.1,NODE_19_length_1593_cov_600.094987_component_3,1592,562940,564531
GCF_017088305.1_ASM1708830v1,bin_component_3,NZ_CP070986.1,NODE_20_length_1453_cov_594.263808_component_3,1453,1917451,1918903
GCF_017088305.1_ASM1708830v1,bin_component_3,NZ_CP070986.1,NODE_20_length_1453_cov_594.263808_component_3,1453,564607,566059
GCF_017088305.1_ASM1708830v1,bin_component_3,NZ_CP070986.1,NODE_20_length_1453_cov_594.263808_component_3,1453,2208724,2210176
GCF_017088305.1_ASM1708830v1,bin_component_3,NZ_CP070986.1,NODE_20_length_1453_cov_594.263808_component_3,1453,559414,560866
GCF_017088305.1_ASM1708830v1,bin_component_3,NZ_CP070986.1,NODE_20_length_1453_cov_594.263808_component_3,1452,2095264,2096715
GCF_017161095.1_ASM1716109v1,bin_component_1,NZ_CP046476.1,NODE_2_length_2991_cov_2925.981812_component_1,2991,2049029,2052019
GCF_017161095.1_ASM1716109v1,bin_component_1,NZ_CP046476.1,NODE_2_length_2991_cov_2925.981812_component_1,2991,507795,510785
GCF_017161095.1_ASM1716109v1,bin_component_1,NZ_CP046476.1,NODE_2_length_2991_cov_2925.981812_component_1,2991,1869316,1872306
GCF_017161095.1_ASM1716109v1,bin_component_1,NZ_CP046476.1,NODE_2_length_2991_cov_2925.981812_component_1,2991,512973,515963
GCF_017161095.1_ASM1716109v1,bin_component_1,NZ_CP046476.1,NODE_2_length_2991_cov_2925.981812_component_1,2991,463265,466255
GCF_017161095.1_ASM1716109v1,bin_component_1,NZ_CP046476.1,NODE_2_length_2991_cov_2925.981812_component_1,2991,2164195,2167185
GCF_017161095.1_ASM1716109v1,bin_component_1,NZ_CP046476.1,NODE_5_length_1137_cov_2918.497170_component_1,1137,461191,462327
GCF_017161095.1_ASM1716109v1,bin_component_1,NZ_CP046476.1,NODE_5_length_1137_cov_2918.497170_component_1,1137,511020,512156
GCF_017161095.1_ASM1716109v1,bin_component_1,NZ_CP046476.1,NODE_5_length_1137_cov_2918.497170_component_1,1137,505808,506944
GCF_017161095.1_ASM1716109v1,bin_component_1,NZ_CP046476.1,NODE_5_length_1137_cov_2918.497170_component_1,1136,2052957,2054092
GCF_017161095.1_ASM1716109v1,bin_component_1,NZ_CP046476.1,NODE_5_length_1137_cov_2918.497170_component_1,1137,2168063,2169199
GCF_017161095.1_ASM1716109v1,bin_component_1,NZ_CP046476.1,NODE_5_length_1137_cov_2918.497170_component_1,1134,1873294,1874427
GCF_903932605.1_HU-14,bin_component_1,NZ_LR822061.1,NODE_5_length_2270_cov_1244.365253_component_1,2270,1650777,1653046
GCF_903932605.1_HU-14,bin_component_1,NZ_LR822061.1,NODE_5_length_2270_cov_1244.365253_component_1,2270,2904857,2907126
GCF_903932605.1_HU-14,bin_component_1,NZ_LR822061.1,NODE_5_length_2270_cov_1244.365253_component_1,2270,109431,111700
GCF_903932605.1_HU-14,bin_component_1,NZ_LR822061.1,NODE_5_length_2270_cov_1244.365253_component_1,2270,1606482,1608751
GCF_903932605.1_HU-14,bin_component_1,NZ_LR822061.1,NODE_5_length_2270_cov_1244.365253_component_1,2270,2740737,2743006
GCF_903932605.1_HU-14,bin_component_1,NZ_LR822061.1,NODE_5_length_2270_cov_1244.365253_component_1,2270,1601304,1603573
GCF_903932605.1_HU-14,bin_component_1,NZ_LR822061.1,NODE_6_length_1659_cov_1178.976612_component_1,1659,1653359,1655017
GCF_903932605.1_HU-14,bin_component_1,NZ_LR822061.1,NODE_6_length_1659_cov_1178.976612_component_1,1659,1609036,1610694
GCF_903932605.1_HU-14,bin_component_1,NZ_LR822061.1,NODE_6_length_1659_cov_1178.976612_component_1,1659,2738661,2740319
GCF_903932605.1_HU-14,bin_component_1,NZ_LR822061.1,NODE_6_length_1659_cov_1178.976612_component_1,1659,2902781,2904439
GCF_903932605.1_HU-14,bin_component_1,NZ_LR822061.1,NODE_6_length_1659_cov_1178.976612_component_1,1659,1603824,1605482
GCF_903932605.1_HU-14,bin_component_1,NZ_LR822061.1,NODE_6_length_1659_cov_1178.976612_component_1,1659,107351,109009
GCF_022405495.1_ASM2240549v1,bin_component_1,NZ_CP062382.1,NODE_4_length_5082_cov_62.145510_component_1,5082,2400888,2405969
GCF_022405495.1_ASM2240549v1,bin_component_1,NZ_CP062382.1,NODE_4_length_5082_cov_62.145510_component_1,5082,2855533,2860614
GCF_022405495.1_ASM2240549v1,bin_component_1,NZ_CP062382.1,NODE_8_length_1770_cov_59.683506_component_1,1770,2399245,2401014
GCF_022405495.1_ASM2240549v1,bin_component_1,NZ_CP062382.1,NODE_8_length_1770_cov_59.683506_component_1,1770,2860488,2862257
GCF_022405495.1_ASM2240549v1,bin_component_1,NZ_CP062382.1,NODE_12_length_1057_cov_65.197849_component_1,1057,2854039,2855095
GCF_022405495.1_ASM2240549v1,bin_component_1,NZ_CP062382.1,NODE_12_length_1057_cov_65.197849_component_1,1057,2406406,2407462
GCF_022405495.1_ASM2240549v1,bin_component_2,NZ_CP062382.1,NODE_6_length_3126_cov_174.107036_component_2,3126,1608101,1611226
GCF_022405495.1_ASM2240549v1,bin_component_2,NZ_CP062382.1,NODE_6_length_3126_cov_174.107036_component_2,3126,118299,121424
GCF_022405495.1_ASM2240549v1,bin_component_2,NZ_CP062382.1,NODE_6_length_3126_cov_174.107036_component_2,3121,2683518,2686638
GCF_022405495.1_ASM2240549v1,bin_component_2,NZ_CP062382.1,NODE_6_length_3126_cov_174.107036_component_2,3121,1602895,1606015
GCF_022405495.1_ASM2240549v1,bin_component_2,NZ_CP062382.1,NODE_6_length_3126_cov_174.107036_component_2,3121,1652457,1655577
GCF_022405495.1_ASM2240549v1,bin_component_2,NZ_CP062382.1,NODE_6_length_3126_cov_174.107036_component_2,3121,2798322,2801442
