"arg_plasmid","length_classification","count","species"
"ARG-plasmid","large",392,"S. enterica"
"ARG-plasmid","small",36,"S. enterica"
"non-ARG-plasmid","large",447,"S. enterica"
"non-ARG-plasmid","small",258,"S. enterica"
