GCF_904865805.1_INF144,assembly,NZ_LR890569.1,163
GCF_014170935.1_ASM1417093v1,assembly,NZ_AP022078.1,142
GCF_003261955.3_ASM326195v3,assembly,NZ_CP033396.2,918
GCF_002852785.2_ASM285278v2,assembly,NZ_CP043357.1,174
GCF_016903515.1_ASM1690351v1,assembly,NZ_CP070177.1,15414
GCF_904863135.1_INF310,assembly,NZ_LR890254.1,59
GCF_904866405.1_INF279,assembly,NZ_LR890679.1,25
GCF_904864535.1_INF313,assembly,NZ_LR890415.1,73
GCF_016066025.1_ASM1606602v1,assembly,NZ_CP065825.1,384
GCF_013783245.1_ASM1378324v1,assembly,NZ_CP056216.1,376
GCF_021166235.1_ASM2116623v1,assembly,NZ_CP089024.1,123
GCF_021166235.1_ASM2116623v1,assembly,NZ_CP089030.1,82
GCF_012030545.2_ASM1203054v2,assembly,NZ_CP061385.1,56
GCF_014170015.1_ASM1417001v1,assembly,NZ_CP054285.1,209
GCF_014170015.1_ASM1417001v1,assembly,NZ_CP054286.1,1123
GCF_014170015.1_ASM1417001v1,assembly,NZ_CP054287.1,1123
GCF_904866425.1_INF065,assembly,NZ_LR890665.1,275
GCF_016903775.1_ASM1690377v1,assembly,NZ_CP069962.1,102
GCF_016903115.1_ASM1690311v1,assembly,NZ_CP069828.1,3408
GCF_904863265.1_INF156,assembly,NZ_LR890286.1,38
GCF_904864595.1_INF333,assembly,NZ_LR890384.1,1628
GCF_002853115.2_ASM285311v2,assembly,NZ_CP073285.1,107
GCF_904866505.1_INF323,assembly,NZ_LR890735.1,327
GCF_904864545.1_KSB1_9J,assembly,NZ_LR890434.1,1681
GCF_904866215.1_INF359,assembly,NZ_LR890616.1,61
GCF_020149895.1_ASM2014989v1,assembly,NZ_CP083768.1,358
GCF_904863245.1_INF355,assembly,NZ_LR890277.1,168
GCF_020526005.1_ASM2052600v1,assembly,NZ_CP084852.1,521
GCF_020525985.1_ASM2052598v1,assembly,NZ_CP084844.1,139
GCF_003038135.2_ASM303813v2,assembly,NZ_CP043353.1,174
GCF_904865695.1_INF319,assembly,NZ_LR890542.1,83
GCF_016629585.1_ASM1662958v1,assembly,NZ_AP024173.1,878
GCF_016629585.1_ASM1662958v1,assembly,NZ_AP024174.1,52
GCF_016629585.1_ASM1662958v1,assembly,NZ_AP024175.1,361
GCF_020149875.1_ASM2014987v1,assembly,NZ_CP083775.1,90
GCF_020149875.1_ASM2014987v1,assembly,NZ_CP083776.1,195
GCF_904866485.1_KSB1_1H,assembly,NZ_LR890722.1,200
GCF_904866485.1_KSB1_1H,assembly,NZ_LR890723.1,9
GCF_904865825.1_INF018,assembly,NZ_LR890493.1,9
GCF_020525965.1_ASM2052596v1,assembly,NZ_CP084830.1,119
GCF_020525965.1_ASM2052596v1,assembly,NZ_CP084834.1,1958
GCF_904866325.1_INF299,assembly,NZ_LR890632.1,637
GCF_016903295.1_ASM1690329v1,assembly,NZ_CP069873.1,1100
GCF_019798185.1_ASM1979818v1,assembly,NZ_CP073791.1,282
GCF_904866195.1_INF327,assembly,NZ_LR890571.1,254
GCF_017639065.1_ASM1763906v1,assembly,NZ_CP067255.1,80
GCF_904863055.1_INF022,assembly,NZ_LR890209.1,168
GCF_013782105.1_ASM1378210v1,assembly,NZ_CP056191.1,9
GCF_904863225.1_KSB1_6J,assembly,NZ_LR890230.1,326
GCF_016903235.1_ASM1690323v1,assembly,NZ_CP069853.1,9
GCF_904865805.1_INF144,assembly,NZ_LR890569.1,163
GCF_001185665.2_ASM118566v3,assembly,NZ_CP073054.1,189
GCF_904864645.1_INF079,assembly,NZ_LR890464.1,101
GCF_020149825.1_ASM2014982v1,assembly,NZ_CP083784.1,57
GCF_904863205.1_INF008,assembly,NZ_LR890203.1,51
GCF_904865765.1_KSB2_9A,assembly,NZ_LR890564.1,212968
GCF_904865765.1_KSB2_9A,assembly,NZ_LR890565.1,1120
GCF_016066475.1_ASM1606647v1,assembly,NZ_CP065833.1,367
GCF_904866445.1_INF305,assembly,NZ_LR890702.1,779
GCF_020525865.1_ASM2052586v1,assembly,NZ_CP084824.1,61
GCF_002852785.2_ASM285278v2,assembly,NZ_CP043357.1,174
GCF_904866475.1_KSB2_9B,assembly,NZ_LR890710.1,52
GCF_904866475.1_KSB2_9B,assembly,NZ_LR890711.1,203
GCF_904865675.1_INF358,assembly,NZ_LR890475.1,54
GCF_020525905.1_ASM2052590v1,assembly,NZ_CP084825.1,3200
GCF_013737695.1_ASM1373769v1,assembly,NZ_CP056530.1,124
GCF_019797985.1_ASM1979798v1,assembly,NZ_CP073627.1,291
GCF_904863225.1_KSB1_6J,assembly,NZ_LR890230.1,326
GCF_016066475.1_ASM1606647v1,assembly,NZ_CP065833.1,367
GCF_017639065.1_ASM1763906v1,assembly,NZ_CP067255.1,80
GCF_904864645.1_INF079,assembly,NZ_LR890464.1,101
GCF_904866375.1_INF242,assembly,NZ_LR890625.1,84
GCF_904866325.1_INF299,assembly,NZ_LR890632.1,637
GCF_016903115.1_ASM1690311v1,assembly,NZ_CP069828.1,3408
GCF_012030545.2_ASM1203054v2,assembly,NZ_CP061385.1,56
GCF_904865785.1_INF142,assembly,NZ_LR890547.1,128
GCF_904866205.1_INF145,assembly,NZ_LR890583.1,40
GCF_018075085.1_ASM1807508v1,assembly,NZ_CP072949.1,59
GCF_904866215.1_INF359,assembly,NZ_LR890616.1,61
GCF_020526025.1_ASM2052602v1,assembly,NZ_CP084871.1,558
GCF_014170935.1_ASM1417093v1,assembly,NZ_AP022078.1,142
GCF_904863335.1_KSB1_5B,assembly,NZ_LR890353.1,340
GCF_904866425.1_INF065,assembly,NZ_LR890665.1,275
GCF_003937135.2_ASM393713v2,assembly,NZ_CP078033.1,1425
GCF_003937135.2_ASM393713v2,assembly,NZ_CP078034.1,148
GCF_003937135.2_ASM393713v2,assembly,NZ_CP078035.1,301
GCF_013783245.1_ASM1378324v1,assembly,NZ_CP056216.1,376
GCF_014170015.1_ASM1417001v1,assembly,NZ_CP054285.1,209
GCF_014170015.1_ASM1417001v1,assembly,NZ_CP054286.1,1123
GCF_014170015.1_ASM1417001v1,assembly,NZ_CP054287.1,1123
GCF_904866195.1_INF327,assembly,NZ_LR890571.1,254
GCF_904863295.1_KSB2_2B,assembly,NZ_LR890343.1,373
GCF_020149895.1_ASM2014989v1,assembly,NZ_CP083768.1,358
GCF_904864625.1_INF171,assembly,NZ_LR890446.1,74
GCF_904864605.1_INF044,assembly,NZ_LR890396.1,59
GCF_013826045.1_ASM1382604v1,assembly,NZ_CP057314.1,1058
GCF_016903235.1_ASM1690323v1,assembly,NZ_CP069853.1,9
GCF_002853115.2_ASM285311v2,assembly,NZ_CP073285.1,107
GCF_018310495.1_ASM1831049v1,assembly,NZ_CP074087.1,1157
GCF_018310495.1_ASM1831049v1,assembly,NZ_CP074088.1,233
GCF_904866555.1_INF102,assembly,NZ_LR890726.1,219
GCF_904866555.1_INF102,assembly,NZ_LR890727.1,51
GCF_904866555.1_INF102,assembly,NZ_LR890728.1,192
GCF_904866445.1_INF305,assembly,NZ_LR890702.1,779
GCF_020525985.1_ASM2052598v1,assembly,NZ_CP084844.1,139
GCF_904865765.1_KSB2_9A,assembly,NZ_LR890564.1,212968
GCF_904865765.1_KSB2_9A,assembly,NZ_LR890565.1,1120
GCF_904866475.1_KSB2_9B,assembly,NZ_LR890710.1,52
GCF_904866475.1_KSB2_9B,assembly,NZ_LR890711.1,203
GCF_904863265.1_INF156,assembly,NZ_LR890286.1,38
GCF_016629585.1_ASM1662958v1,assembly,NZ_AP024173.1,878
GCF_016629585.1_ASM1662958v1,assembly,NZ_AP024174.1,52
GCF_016629585.1_ASM1662958v1,assembly,NZ_AP024175.1,361
GCF_904864595.1_INF333,assembly,NZ_LR890384.1,1628
GCF_904866485.1_KSB1_1H,assembly,NZ_LR890722.1,200
GCF_904866485.1_KSB1_1H,assembly,NZ_LR890723.1,9
GCF_016066025.1_ASM1606602v1,assembly,NZ_CP065825.1,384
GCF_904863125.1_INF357,assembly,NZ_LR890217.1,376
GCF_002852785.2_ASM285278v2,assembly,NZ_CP043357.1,174
GCF_904865825.1_INF018,assembly,NZ_LR890493.1,9
GCF_020525865.1_ASM2052586v1,assembly,NZ_CP084824.1,61
GCF_904863055.1_INF022,assembly,NZ_LR890209.1,168
GCF_020526005.1_ASM2052600v1,assembly,NZ_CP084852.1,521
GCF_904866505.1_INF323,assembly,NZ_LR890735.1,327
GCF_003038135.2_ASM303813v2,assembly,NZ_CP043353.1,174
GCF_904863135.1_INF310,assembly,NZ_LR890254.1,59
GCF_001185665.2_ASM118566v3,assembly,NZ_CP073054.1,189
GCF_904863205.1_INF008,assembly,NZ_LR890203.1,51
GCF_020525885.1_ASM2052588v1,assembly,NZ_CP084868.1,109
GCF_016804025.1_ASM1680402v1,assembly,NZ_CP053016.1,280
GCF_016804025.1_ASM1680402v1,assembly,NZ_CP053018.1,165
GCF_904866235.1_INF122,assembly,NZ_LR890600.1,114
GCF_016903775.1_ASM1690377v1,assembly,NZ_CP069962.1,102
GCF_904866395.1_INF321,assembly,NZ_LR890669.1,107
GCF_012029935.2_ASM1202993v2,assembly,NZ_CP061404.1,48
GCF_016903515.1_ASM1690351v1,assembly,NZ_CP070177.1,15414
GCF_020525965.1_ASM2052596v1,assembly,NZ_CP084830.1,119
GCF_020525965.1_ASM2052596v1,assembly,NZ_CP084834.1,1958
GCF_904865675.1_INF358,assembly,NZ_LR890475.1,54
GCF_013782105.1_ASM1378210v1,assembly,NZ_CP056191.1,9
GCF_021166235.1_ASM2116623v1,assembly,NZ_CP089024.1,123
GCF_021166235.1_ASM2116623v1,assembly,NZ_CP089030.1,82
GCF_904863435.1_KSB1_1B,assembly,NZ_LR890291.1,656
GCF_020149875.1_ASM2014987v1,assembly,NZ_CP083775.1,90
GCF_020149875.1_ASM2014987v1,assembly,NZ_CP083776.1,195
GCF_904864535.1_INF313,assembly,NZ_LR890415.1,73
GCF_013796485.1_ASM1379648v1,assembly,NZ_CP056884.1,52
GCF_904866405.1_INF279,assembly,NZ_LR890679.1,25
GCF_904864545.1_KSB1_9J,assembly,NZ_LR890434.1,1681
GCF_904865685.1_INF182,assembly,NZ_LR890554.1,574
GCF_016066295.1_ASM1606629v1,assembly,NZ_CP065831.1,322
GCF_003261955.3_ASM326195v3,assembly,NZ_CP033396.2,918
GCF_904865805.1_INF144,assembly,NZ_LR890569.1,163
GCF_020525905.1_ASM2052590v1,assembly,NZ_CP084825.1,3200
GCF_019798185.1_ASM1979818v1,assembly,NZ_CP073791.1,282
GCF_904863395.1_INF250,assembly,NZ_LR890374.1,28
GCF_016903295.1_ASM1690329v1,assembly,NZ_CP069873.1,1100
GCF_904865695.1_INF319,assembly,NZ_LR890542.1,83
GCF_020149825.1_ASM2014982v1,assembly,NZ_CP083784.1,57
GCF_904863245.1_INF355,assembly,NZ_LR890277.1,168
GCF_020525885.1_ASM2052588v1,assembly,NZ_CP084868.1,109
GCF_013796485.1_ASM1379648v1,assembly,NZ_CP056884.1,52
GCF_003261955.3_ASM326195v3,assembly,NZ_CP033396.2,918
GCF_013783245.1_ASM1378324v1,assembly,NZ_CP056216.1,376
GCF_021166235.1_ASM2116623v1,assembly,NZ_CP089024.1,123
GCF_021166235.1_ASM2116623v1,assembly,NZ_CP089030.1,82
GCF_904863295.1_KSB2_2B,assembly,NZ_LR890343.1,373
GCF_904866475.1_KSB2_9B,assembly,NZ_LR890710.1,52
GCF_904866475.1_KSB2_9B,assembly,NZ_LR890711.1,203
GCF_017639065.1_ASM1763906v1,assembly,NZ_CP067255.1,80
GCF_003038135.2_ASM303813v2,assembly,NZ_CP043353.1,174
GCF_020525865.1_ASM2052586v1,assembly,NZ_CP084824.1,61
GCF_904864535.1_INF313,assembly,NZ_LR890415.1,73
GCF_904866395.1_INF321,assembly,NZ_LR890669.1,107
GCF_904863435.1_KSB1_1B,assembly,NZ_LR890291.1,656
GCF_016903775.1_ASM1690377v1,assembly,NZ_CP069962.1,102
GCF_904866505.1_INF323,assembly,NZ_LR890735.1,327
GCF_013737695.1_ASM1373769v1,assembly,NZ_CP056530.1,124
GCF_020525905.1_ASM2052590v1,assembly,NZ_CP084825.1,3200
GCF_904865695.1_INF319,assembly,NZ_LR890542.1,83
GCF_904866375.1_INF242,assembly,NZ_LR890625.1,84
GCF_904863225.1_KSB1_6J,assembly,NZ_LR890230.1,326
GCF_904864645.1_INF079,assembly,NZ_LR890464.1,101
GCF_016903295.1_ASM1690329v1,assembly,NZ_CP069873.1,1100
GCF_016629585.1_ASM1662958v1,assembly,NZ_AP024173.1,878
GCF_016629585.1_ASM1662958v1,assembly,NZ_AP024174.1,52
GCF_016629585.1_ASM1662958v1,assembly,NZ_AP024175.1,361
GCF_904864605.1_INF044,assembly,NZ_LR890396.1,59
GCF_012030545.2_ASM1203054v2,assembly,NZ_CP061385.1,56
GCF_020149895.1_ASM2014989v1,assembly,NZ_CP083768.1,358
GCF_904866205.1_INF145,assembly,NZ_LR890583.1,40
GCF_904865765.1_KSB2_9A,assembly,NZ_LR890564.1,212968
GCF_904865765.1_KSB2_9A,assembly,NZ_LR890565.1,1120
GCF_904866405.1_INF279,assembly,NZ_LR890679.1,25
GCF_904866195.1_INF327,assembly,NZ_LR890571.1,254
GCF_904865675.1_INF358,assembly,NZ_LR890475.1,54
GCF_018075085.1_ASM1807508v1,assembly,NZ_CP072949.1,59
GCF_904866235.1_INF122,assembly,NZ_LR890600.1,114
GCF_904863265.1_INF156,assembly,NZ_LR890286.1,38
GCF_904865825.1_INF018,assembly,NZ_LR890493.1,9
GCF_013735895.1_ASM1373589v1,assembly,NZ_CP056425.1,141
GCF_013735895.1_ASM1373589v1,assembly,NZ_CP056427.1,1
GCF_904864595.1_INF333,assembly,NZ_LR890384.1,1628
GCF_003937135.2_ASM393713v2,assembly,NZ_CP078033.1,1425
GCF_003937135.2_ASM393713v2,assembly,NZ_CP078034.1,148
GCF_003937135.2_ASM393713v2,assembly,NZ_CP078035.1,301
GCF_014170935.1_ASM1417093v1,assembly,NZ_AP022078.1,142
GCF_904866325.1_INF299,assembly,NZ_LR890632.1,637
GCF_013782105.1_ASM1378210v1,assembly,NZ_CP056191.1,9
GCF_020149875.1_ASM2014987v1,assembly,NZ_CP083775.1,90
GCF_020149875.1_ASM2014987v1,assembly,NZ_CP083776.1,195
GCF_904863245.1_INF355,assembly,NZ_LR890277.1,168
GCF_016903115.1_ASM1690311v1,assembly,NZ_CP069828.1,3408
GCF_904864625.1_INF171,assembly,NZ_LR890446.1,74
GCF_020526005.1_ASM2052600v1,assembly,NZ_CP084852.1,521
GCF_904864545.1_KSB1_9J,assembly,NZ_LR890434.1,1681
GCF_012029935.2_ASM1202993v2,assembly,NZ_CP061404.1,48
GCF_904863335.1_KSB1_5B,assembly,NZ_LR890353.1,340
GCF_904866425.1_INF065,assembly,NZ_LR890665.1,275
GCF_016804025.1_ASM1680402v1,assembly,NZ_CP053016.1,280
GCF_016804025.1_ASM1680402v1,assembly,NZ_CP053018.1,165
GCF_904863125.1_INF357,assembly,NZ_LR890217.1,376
GCF_013826045.1_ASM1382604v1,assembly,NZ_CP057314.1,1058
GCF_016066025.1_ASM1606602v1,assembly,NZ_CP065825.1,384
GCF_020526025.1_ASM2052602v1,assembly,NZ_CP084871.1,558
GCF_002852785.2_ASM285278v2,assembly,NZ_CP043357.1,174
GCF_904863055.1_INF022,assembly,NZ_LR890209.1,168
GCF_016903515.1_ASM1690351v1,assembly,NZ_CP070177.1,15414
GCF_904863135.1_INF310,assembly,NZ_LR890254.1,59
GCF_904866485.1_KSB1_1H,assembly,NZ_LR890722.1,200
GCF_904866485.1_KSB1_1H,assembly,NZ_LR890723.1,9
GCF_002853115.2_ASM285311v2,assembly,NZ_CP073285.1,107
GCF_020525985.1_ASM2052598v1,assembly,NZ_CP084844.1,139
GCF_904865785.1_INF142,assembly,NZ_LR890547.1,128
GCF_904863395.1_INF250,assembly,NZ_LR890374.1,28
GCF_904865805.1_INF144,assembly,NZ_LR890569.1,163
GCF_001185665.2_ASM118566v3,assembly,NZ_CP073054.1,189
GCF_904866555.1_INF102,assembly,NZ_LR890726.1,219
GCF_904866555.1_INF102,assembly,NZ_LR890727.1,51
GCF_904866555.1_INF102,assembly,NZ_LR890728.1,192
GCF_020149825.1_ASM2014982v1,assembly,NZ_CP083784.1,57
GCF_016066295.1_ASM1606629v1,assembly,NZ_CP065831.1,322
GCF_016903235.1_ASM1690323v1,assembly,NZ_CP069853.1,9
GCF_019797985.1_ASM1979798v1,assembly,NZ_CP073627.1,291
GCF_904863205.1_INF008,assembly,NZ_LR890203.1,51
GCF_014170015.1_ASM1417001v1,assembly,NZ_CP054285.1,209
GCF_014170015.1_ASM1417001v1,assembly,NZ_CP054286.1,1123
GCF_014170015.1_ASM1417001v1,assembly,NZ_CP054287.1,1123
GCF_019798185.1_ASM1979818v1,assembly,NZ_CP073791.1,282
GCF_904865685.1_INF182,assembly,NZ_LR890554.1,574
GCF_018310495.1_ASM1831049v1,assembly,NZ_CP074087.1,1157
GCF_018310495.1_ASM1831049v1,assembly,NZ_CP074088.1,233
GCF_016066475.1_ASM1606647v1,assembly,NZ_CP065833.1,367
GCF_904866215.1_INF359,assembly,NZ_LR890616.1,61
GCF_020525965.1_ASM2052596v1,assembly,NZ_CP084830.1,119
GCF_020525965.1_ASM2052596v1,assembly,NZ_CP084834.1,1958
GCF_904866445.1_INF305,assembly,NZ_LR890702.1,779
