GCF_028335625.1,GCF_028335625.1_bin_2,NZ_CP116551.1,36178,36178
GCF_028335625.1,GCF_028335625.1_bin_4,NZ_CP116552.1,32977,32977
GCF_028335625.1,GCF_028335625.1_bin_3,NZ_CP116549.1,18266,73580
GCF_028335625.1,GCF_028335625.1_bin_3,NZ_CP116550.1,74589,73580
GCF_028335625.1,GCF_028335625.1_bin_1,NZ_CP116549.1,141538,149900
GCF_028335625.1,GCF_028335625.1_bin_1,NZ_CP116550.1,71390,149900
GCF_019456595.1,GCF_019456595.1_bin_2,NZ_CP074110.1,14642,14642
GCF_019456595.1,GCF_019456595.1_bin_1,NZ_CP074110.1,139088,135429
GCF_019456595.1,GCF_019456595.1_bin_1,NZ_CP074109.1,37323,135429
GCF_907176135.1,GCF_907176135.1_bin_5,NZ_OU015950.1,4350,3199
GCF_907176135.1,GCF_907176135.1_bin_1,NZ_OU015948.1,41128,226675
GCF_907176135.1,GCF_907176135.1_bin_1,NZ_OU015947.1,187225,226675
GCF_907176135.1,GCF_907176135.1_bin_1,NZ_OU015946.1,68717,226675
GCF_907176135.1,GCF_907176135.1_bin_1,NZ_OU015949.1,1772,226675
GCF_907176135.1,GCF_907176135.1_bin_4,NZ_OU015950.1,4632,3304
GCF_907176135.1,GCF_907176135.1_bin_3,NZ_OU015952.1,4206,4206
GCF_907176135.1,GCF_907176135.1_bin_8,NZ_OU015953.1,2947,2947
GCF_907176135.1,GCF_907176135.1_bin_7,NZ_OU015951.1,6174,6174
GCF_907176135.1,GCF_907176135.1_bin_6,NZ_OU015954.1,1760,1760
GCF_907176135.1,GCF_907176135.1_bin_2,NZ_OU015947.1,3544,7546
GCF_907176135.1,GCF_907176135.1_bin_2,NZ_OU015946.1,1772,7546
GCF_907176135.1,GCF_907176135.1_bin_2,NZ_OU015949.1,7546,7546
GCF_020162155.1,GCF_020162155.1_bin_1,NZ_CP083914.1,40018,212900
GCF_020162155.1,GCF_020162155.1_bin_1,NZ_CP083913.1,175645,212900
GCF_020162155.1,GCF_020162155.1_bin_1,NZ_CP083912.1,72713,212900
GCF_020162155.1,GCF_020162155.1_bin_4,NZ_CP083916.1,3200,3200
GCF_020162155.1,GCF_020162155.1_bin_5,NZ_CP083919.1,1979,1979
GCF_020162155.1,GCF_020162155.1_bin_3,NZ_CP083918.1,2710,2710
GCF_020162155.1,GCF_020162155.1_bin_2,NZ_CP083917.1,2800,2800
GCF_020162155.1,GCF_020162155.1_bin_Unbinned,NZ_CP083915.1,5773,5773
GCF_028335245.1,GCF_028335245.1_bin_1,NZ_CP116518.1,117229,126829
GCF_028335245.1,GCF_028335245.1_bin_1,NZ_CP116517.1,31565,126829
GCF_028335245.1,GCF_028335245.1_bin_1,NZ_CP116519.1,5433,126829
GCF_028335245.1,GCF_028335245.1_bin_Unbinned,NZ_CP116517.1,1918,1918
GCF_028335245.1,GCF_028335245.1_bin_2,NZ_CP116519.1,66025,63251
GCF_019175445.1,GCF_019175445.1_bin_1,NZ_CP072882.1,145998,145108
GCF_019175445.1,GCF_019175445.1_bin_1,NZ_CP072881.1,25610,145108
GCF_021398505.1,GCF_021398505.1_bin_3,no_correct_alignments,0,0
GCF_021398505.1,GCF_021398505.1_bin_2,NZ_CP083180.1,107638,106414
GCF_021398505.1,GCF_021398505.1_bin_2,NZ_CP083179.1,3600,106414
GCF_021398505.1,GCF_021398505.1_bin_1,NZ_CP083180.1,3922,66051
GCF_021228615.1,GCF_021228615.1_bin_4,NZ_CP089320.1,100409,95143
GCF_021228615.1,GCF_021228615.1_bin_4,NZ_CP089321.1,4153,95143
GCF_021228615.1,GCF_021228615.1_bin_4,NZ_CP089319.1,46592,95143
GCF_021228615.1,GCF_021228615.1_bin_4,NZ_CP089322.1,4117,95143
GCF_021228615.1,GCF_021228615.1_bin_1,NZ_CP089320.1,31773,71205
GCF_021228615.1,GCF_021228615.1_bin_1,NZ_CP089321.1,48443,71205
GCF_021228615.1,GCF_021228615.1_bin_1,NZ_CP089319.1,20286,71205
GCF_021228615.1,GCF_021228615.1_bin_Unbinned,NZ_CP089323.1,7715,7715
GCF_021228615.1,GCF_021228615.1_bin_2,NZ_CP089322.1,30409,31988
GCF_021228615.1,GCF_021228615.1_bin_2,NZ_CP089319.1,26147,31988
GCF_021228615.1,GCF_021228615.1_bin_2,NZ_CP089320.1,4461,31988
GCF_021228615.1,GCF_021228615.1_bin_2,NZ_CP089323.1,4268,31988
GCF_021228615.1,GCF_021228615.1_bin_3,NZ_CP089320.1,65582,65593
GCF_021228615.1,GCF_021228615.1_bin_3,NZ_CP089319.1,18910,65593
GCF_021228615.1,GCF_021228615.1_bin_3,NZ_CP089322.1,1772,65593
GCF_021228615.1,GCF_021228615.1_bin_5,no_correct_alignments,0,0
GCF_022647825.1,GCF_022647825.1_bin_1,NZ_CP076472.1,177029,307902
GCF_022647825.1,GCF_022647825.1_bin_1,NZ_CP076475.1,23400,307902
GCF_022647825.1,GCF_022647825.1_bin_1,NZ_CP076474.1,56526,307902
GCF_022647825.1,GCF_022647825.1_bin_1,NZ_CP076473.1,71065,307902
GCF_022647825.1,GCF_022647825.1_bin_1,NZ_CP076471.1,63546,307902
GCF_022647825.1,GCF_022647825.1_bin_2,NZ_CP076476.1,4374,4374
GCF_022647825.1,GCF_022647825.1_bin_Unbinned,NZ_CP076473.1,6110,6131
GCF_028335525.1,GCF_028335525.1_bin_1,NZ_CP116537.1,121860,145001
GCF_028335525.1,GCF_028335525.1_bin_1,NZ_CP116538.1,23141,145001
GCF_028335525.1,GCF_028335525.1_bin_1,NZ_CP116536.1,1066,145001
GCF_028335525.1,GCF_028335525.1_bin_2,NZ_CP116539.1,15523,15523
GCF_028335525.1,GCF_028335525.1_bin_Unbinned,NZ_CP116536.1,5648,5648
GCF_019175425.1,GCF_019175425.1_bin_1,NZ_CP072879.1,206343,232506
GCF_019175425.1,GCF_019175425.1_bin_1,NZ_CP072880.1,36051,232506
GCF_019175425.1,GCF_019175425.1_bin_1,NZ_CP072878.1,3435,232506
GCF_016415505.1,GCF_016415505.1_bin_7,NZ_CP066666.1,4374,4374
GCF_016415505.1,GCF_016415505.1_bin_6,NZ_CP066665.1,5212,5212
GCF_016415505.1,GCF_016415505.1_bin_4,NZ_CP066663.1,7442,7443
GCF_016415505.1,GCF_016415505.1_bin_4,NZ_CP066659.1,14168,7443
GCF_016415505.1,GCF_016415505.1_bin_4,NZ_CP066662.1,1771,7443
GCF_016415505.1,GCF_016415505.1_bin_2,NZ_CP066662.1,41177,40076
GCF_016415505.1,GCF_016415505.1_bin_2,NZ_CP066660.1,4278,40076
GCF_016415505.1,GCF_016415505.1_bin_2,NZ_CP066659.1,22759,40076
GCF_016415505.1,GCF_016415505.1_bin_1,NZ_CP066661.1,61921,66362
GCF_016415505.1,GCF_016415505.1_bin_1,NZ_CP066660.1,4677,66362
GCF_016415505.1,GCF_016415505.1_bin_1,NZ_CP066662.1,7248,66362
GCF_016415505.1,GCF_016415505.1_bin_1,NZ_CP066659.1,25138,66362
GCF_016415505.1,GCF_016415505.1_bin_1,NZ_CP066663.1,1771,66362
GCF_016415505.1,GCF_016415505.1_bin_5,NZ_CP066664.1,6202,6303
GCF_016415505.1,GCF_016415505.1_bin_3,NZ_CP066660.1,161419,159409
GCF_016415505.1,GCF_016415505.1_bin_3,NZ_CP066661.1,4677,159409
GCF_016415505.1,GCF_016415505.1_bin_3,NZ_CP066659.1,71131,159409
GCF_016415505.1,GCF_016415505.1_bin_3,NZ_CP066662.1,4268,159409
GCF_016406525.1,GCF_016406525.1_bin_3,NZ_CP066449.1,4156,4156
GCF_016406525.1,GCF_016406525.1_bin_1,NZ_CP066444.1,167807,202158
GCF_016406525.1,GCF_016406525.1_bin_1,NZ_CP066445.1,49453,202158
GCF_016406525.1,GCF_016406525.1_bin_1,NZ_CP066443.1,91625,202158
GCF_016406525.1,GCF_016406525.1_bin_1,NZ_CP066446.1,4008,202158
GCF_016406525.1,GCF_016406525.1_bin_2,NZ_CP066446.1,38545,39720
GCF_016406525.1,GCF_016406525.1_bin_2,NZ_CP066445.1,1499,39720
GCF_016406525.1,GCF_016406525.1_bin_2,NZ_CP066443.1,46093,39720
GCF_016406525.1,GCF_016406525.1_bin_2,NZ_CP066444.1,2294,39720
GCF_016406525.1,GCF_016406525.1_bin_4,NZ_CP066447.1,5368,9217
GCF_016406525.1,GCF_016406525.1_bin_4,NZ_CP066448.1,5323,9217
GCF_016406525.1,GCF_016406525.1_bin_5,no_correct_alignments,0,0
GCF_028335225.1,GCF_028335225.1_bin_3,NZ_CP116535.1,12180,13304
GCF_028335225.1,GCF_028335225.1_bin_3,NZ_CP116534.1,1124,13304
GCF_028335225.1,GCF_028335225.1_bin_1,NZ_CP116533.1,138631,134439
GCF_028335225.1,GCF_028335225.1_bin_1,NZ_CP116532.1,7217,134439
GCF_028335225.1,GCF_028335225.1_bin_2,NZ_CP116534.1,16795,16795
GCF_028335225.1,GCF_028335225.1_bin_Unbinned,NZ_CP116534.1,2886,2886
GCF_016406385.1,GCF_016406385.1_bin_2,NZ_CP066422.1,176499,174054
GCF_016406385.1,GCF_016406385.1_bin_2,NZ_CP066424.1,6589,174054
GCF_016406385.1,GCF_016406385.1_bin_2,NZ_CP066423.1,4671,174054
GCF_016406385.1,GCF_016406385.1_bin_2,NZ_CP066421.1,54250,174054
GCF_016406385.1,GCF_016406385.1_bin_2,NZ_CP066425.1,3544,174054
GCF_016406385.1,GCF_016406385.1_bin_4,NZ_CP066422.1,1772,9258
GCF_016406385.1,GCF_016406385.1_bin_4,NZ_CP066425.1,11030,9258
GCF_016406385.1,GCF_016406385.1_bin_1,NZ_CP066423.1,54816,54816
GCF_016406385.1,GCF_016406385.1_bin_1,NZ_CP066422.1,4671,54816
GCF_016406385.1,GCF_016406385.1_bin_1,NZ_CP066421.1,10722,54816
GCF_016406385.1,GCF_016406385.1_bin_3,NZ_CP066424.1,21145,21145
GCF_016406385.1,GCF_016406385.1_bin_3,NZ_CP066421.1,31004,21145
GCF_016406385.1,GCF_016406385.1_bin_6,NZ_CP066426.1,4374,4374
GCF_016406385.1,GCF_016406385.1_bin_5,NZ_CP066425.1,1260,1260
GCF_028335465.1,GCF_028335465.1_bin_2,NZ_CP116525.1,48241,48241
GCF_028335465.1,GCF_028335465.1_bin_2,NZ_CP116524.1,7036,48241
GCF_028335465.1,GCF_028335465.1_bin_1,NZ_CP116524.1,89862,86794
GCF_028335465.1,GCF_028335465.1_bin_1,NZ_CP116526.1,4931,86794
GCF_028335465.1,GCF_028335465.1_bin_1,NZ_CP116525.1,1823,86794
GCF_028335465.1,GCF_028335465.1_bin_1,NZ_CP116523.1,9587,86794
GCF_028335465.1,GCF_028335465.1_bin_1,NZ_CP116527.1,1124,86794
GCF_028335465.1,GCF_028335465.1_bin_Unbinned,NZ_CP116527.1,2886,2886
GCF_028335465.1,GCF_028335465.1_bin_Unbinned,NZ_CP116526.1,2886,2886
GCF_028335465.1,GCF_028335465.1_bin_3,NZ_CP116524.1,37408,37408
GCF_028335465.1,GCF_028335465.1_bin_3,NZ_CP116525.1,3390,37408
GCF_028335465.1,GCF_028335465.1_bin_3,NZ_CP116523.1,1387,37408
GCF_028335465.1,GCF_028335465.1_bin_4,NZ_CP116526.1,17919,29825
GCF_028335465.1,GCF_028335465.1_bin_4,NZ_CP116527.1,13030,29825
GCF_016406365.1,GCF_016406365.1_bin_3,NZ_CP066420.1,1980,1980
GCF_016406365.1,GCF_016406365.1_bin_1,NZ_CP066417.1,176995,237680
GCF_016406365.1,GCF_016406365.1_bin_1,NZ_CP066416.1,51075,237680
GCF_016406365.1,GCF_016406365.1_bin_1,NZ_CP066415.1,180104,237680
GCF_016406365.1,GCF_016406365.1_bin_1,NZ_CP066418.1,9508,237680
GCF_016406365.1,GCF_016406365.1_bin_4,NZ_CP066420.1,1980,1980
GCF_016406365.1,GCF_016406365.1_bin_2,NZ_CP066419.1,6303,6303
GCF_016415545.1,GCF_016415545.1_bin_3,NZ_CP066656.1,12670,12670
GCF_016415545.1,GCF_016415545.1_bin_3,NZ_CP066653.1,2998,12670
GCF_016415545.1,GCF_016415545.1_bin_2,NZ_CP066658.1,6027,6027
GCF_016415545.1,GCF_016415545.1_bin_4,NZ_CP066657.1,6303,6303
GCF_016415545.1,GCF_016415545.1_bin_1,NZ_CP066654.1,113072,123499
GCF_016415545.1,GCF_016415545.1_bin_1,NZ_CP066653.1,86248,123499
GCF_016415545.1,GCF_016415545.1_bin_1,NZ_CP066655.1,17151,123499
GCF_016406605.1,GCF_016406605.1_bin_3,NZ_CP066475.1,52150,51238
GCF_016406605.1,GCF_016406605.1_bin_3,NZ_CP066476.1,2807,51238
GCF_016406605.1,GCF_016406605.1_bin_3,NZ_CP066473.1,49270,51238
GCF_016406605.1,GCF_016406605.1_bin_3,NZ_CP066474.1,8165,51238
GCF_016406605.1,GCF_016406605.1_bin_5,NZ_CP066478.1,5212,5212
GCF_016406605.1,GCF_016406605.1_bin_6,NZ_CP066479.1,4374,4374
GCF_016406605.1,GCF_016406605.1_bin_1,NZ_CP066476.1,61921,61921
GCF_016406605.1,GCF_016406605.1_bin_1,NZ_CP066474.1,4677,61921
GCF_016406605.1,GCF_016406605.1_bin_1,NZ_CP066475.1,2807,61921
GCF_016406605.1,GCF_016406605.1_bin_1,NZ_CP066473.1,12762,61921
GCF_016406605.1,GCF_016406605.1_bin_4,NZ_CP066477.1,6094,6303
GCF_016406605.1,GCF_016406605.1_bin_2,NZ_CP066474.1,167835,162461
GCF_016406605.1,GCF_016406605.1_bin_2,NZ_CP066476.1,4677,162461
GCF_016406605.1,GCF_016406605.1_bin_2,NZ_CP066473.1,27185,162461
GCF_016406605.1,GCF_016406605.1_bin_2,NZ_CP066475.1,4278,162461
GCF_019456575.1,GCF_019456575.1_bin_1,NZ_CP074108.1,138259,132844
GCF_019456575.1,GCF_019456575.1_bin_1,NZ_CP074107.1,26780,132844
GCF_016415445.1,GCF_016415445.1_bin_4,NZ_CP066633.1,6311,6311
GCF_016415445.1,GCF_016415445.1_bin_1,NZ_CP066630.1,130046,128974
GCF_016415445.1,GCF_016415445.1_bin_1,NZ_CP066629.1,70582,128974
GCF_016415445.1,GCF_016415445.1_bin_1,NZ_CP066631.1,9910,128974
GCF_016415445.1,GCF_016415445.1_bin_1,NZ_CP066632.1,1326,128974
GCF_016415445.1,GCF_016415445.1_bin_7,NZ_CP066636.1,3007,3007
GCF_016415445.1,GCF_016415445.1_bin_5,NZ_CP066634.1,4305,4305
GCF_016415445.1,GCF_016415445.1_bin_6,NZ_CP066635.1,4074,4074
GCF_016415445.1,GCF_016415445.1_bin_3,NZ_CP066632.1,24685,23320
GCF_016415445.1,GCF_016415445.1_bin_3,NZ_CP066629.1,5343,23320
GCF_016415445.1,GCF_016415445.1_bin_2,NZ_CP066631.1,50935,50301
GCF_016415445.1,GCF_016415445.1_bin_2,NZ_CP066630.1,10032,50301
GCF_016415445.1,GCF_016415445.1_bin_2,NZ_CP066629.1,12544,50301
GCF_022647945.1,GCF_022647945.1_bin_2,NZ_CP076482.1,4374,4374
GCF_022647945.1,GCF_022647945.1_bin_1,NZ_CP076478.1,177029,321266
GCF_022647945.1,GCF_022647945.1_bin_1,NZ_CP076479.1,77117,321266
GCF_022647945.1,GCF_022647945.1_bin_1,NZ_CP076481.1,30702,321266
GCF_022647945.1,GCF_022647945.1_bin_1,NZ_CP076480.1,56526,321266
GCF_022647945.1,GCF_022647945.1_bin_1,NZ_CP076477.1,63546,321266
GCF_016406565.1,GCF_016406565.1_bin_3,NZ_CP066430.1,48501,48501
GCF_016406565.1,GCF_016406565.1_bin_3,NZ_CP066428.1,26957,48501
GCF_016406565.1,GCF_016406565.1_bin_1,NZ_CP066428.1,169964,169645
GCF_016406565.1,GCF_016406565.1_bin_1,NZ_CP066430.1,31296,169645
GCF_016406565.1,GCF_016406565.1_bin_1,NZ_CP066427.1,121859,169645
GCF_016406565.1,GCF_016406565.1_bin_1,NZ_CP066429.1,4008,169645
GCF_016406565.1,GCF_016406565.1_bin_2,NZ_CP066429.1,38547,37048
GCF_016406565.1,GCF_016406565.1_bin_2,NZ_CP066427.1,17106,37048
GCF_016406565.1,GCF_016406565.1_bin_2,NZ_CP066428.1,3519,37048
GCF_016406565.1,GCF_016406565.1_bin_2,NZ_CP066430.1,1499,37048
GCF_016406565.1,GCF_016406565.1_bin_6,NZ_CP066431.1,6303,6303
GCF_016406565.1,GCF_016406565.1_bin_5,NZ_CP066433.1,1831,1831
GCF_016406565.1,GCF_016406565.1_bin_4,NZ_CP066432.1,4156,4156
GCF_028335265.1,GCF_028335265.1_bin_2,NZ_CP116521.1,147467,157587
GCF_028335265.1,GCF_028335265.1_bin_2,NZ_CP116520.1,40338,157587
GCF_028335265.1,GCF_028335265.1_bin_1,NZ_CP116522.1,39615,42160
GCF_028335265.1,GCF_028335265.1_bin_1,NZ_CP116520.1,16747,42160
GCF_028335265.1,GCF_028335265.1_bin_1,NZ_CP116521.1,9975,42160
GCF_019175525.1,GCF_019175525.1_bin_1,NZ_CP072896.1,35454,35509
GCF_019175525.1,GCF_019175525.1_bin_Unbinned,NZ_CP072894.1,12847,12847
GCF_016406585.1,GCF_016406585.1_bin_5,NZ_CP066485.1,1980,1980
GCF_016406585.1,GCF_016406585.1_bin_3,NZ_CP066482.1,52051,52051
GCF_016406585.1,GCF_016406585.1_bin_3,NZ_CP066481.1,30243,52051
GCF_016406585.1,GCF_016406585.1_bin_3,NZ_CP066480.1,45564,52051
GCF_016406585.1,GCF_016406585.1_bin_3,NZ_CP066483.1,1499,52051
GCF_016406585.1,GCF_016406585.1_bin_1,NZ_CP066481.1,171631,169248
GCF_016406585.1,GCF_016406585.1_bin_1,NZ_CP066482.1,31297,169248
GCF_016406585.1,GCF_016406585.1_bin_1,NZ_CP066480.1,139034,169248
GCF_016406585.1,GCF_016406585.1_bin_1,NZ_CP066483.1,3873,169248
GCF_016406585.1,GCF_016406585.1_bin_4,NZ_CP066484.1,6303,6303
GCF_016406585.1,GCF_016406585.1_bin_2,NZ_CP066483.1,28444,32302
GCF_016406585.1,GCF_016406585.1_bin_2,NZ_CP066480.1,69429,32302
GCF_016406585.1,GCF_016406585.1_bin_2,NZ_CP066481.1,9052,32302
GCF_016406585.1,GCF_016406585.1_bin_2,NZ_CP066482.1,2552,32302
GCF_016406465.1,GCF_016406465.1_bin_8,NZ_CP066397.1,4372,4372
GCF_016406465.1,GCF_016406465.1_bin_5,NZ_CP066400.1,1472,1472
GCF_016406465.1,GCF_016406465.1_bin_7,NZ_CP066408.1,4466,4466
GCF_016406465.1,GCF_016406465.1_bin_2,NZ_CP066404.1,55537,148221
GCF_016406465.1,GCF_016406465.1_bin_2,NZ_CP066405.1,22577,148221
GCF_016406465.1,GCF_016406465.1_bin_2,NZ_CP066403.1,65409,148221
GCF_016406465.1,GCF_016406465.1_bin_2,NZ_CP066401.1,19585,148221
GCF_016406465.1,GCF_016406465.1_bin_2,NZ_CP066396.1,25602,148221
GCF_016406465.1,GCF_016406465.1_bin_2,NZ_CP066406.1,1499,148221
GCF_016406465.1,GCF_016406465.1_bin_3,NZ_CP066401.1,105549,103218
GCF_016406465.1,GCF_016406465.1_bin_3,NZ_CP066404.1,7746,103218
GCF_016406465.1,GCF_016406465.1_bin_3,NZ_CP066396.1,97389,103218
GCF_016406465.1,GCF_016406465.1_bin_3,NZ_CP066402.1,3544,103218
GCF_016406465.1,GCF_016406465.1_bin_3,NZ_CP066406.1,1499,103218
GCF_016406465.1,GCF_016406465.1_bin_3,NZ_CP066405.1,2398,103218
GCF_016406465.1,GCF_016406465.1_bin_3,NZ_CP066403.1,1329,103218
GCF_016406465.1,GCF_016406465.1_bin_6,NZ_CP066407.1,6173,6173
GCF_016406465.1,GCF_016406465.1_bin_9,NZ_CP066398.1,2055,2055
GCF_016406465.1,GCF_016406465.1_bin_4,NZ_CP066399.1,1518,1518
GCF_016406465.1,GCF_016406465.1_bin_1,NZ_CP066406.1,26075,106292
GCF_016406465.1,GCF_016406465.1_bin_1,NZ_CP066402.1,83667,106292
GCF_016406465.1,GCF_016406465.1_bin_1,NZ_CP066396.1,17660,106292
GCF_016406465.1,GCF_016406465.1_bin_1,NZ_CP066401.1,3271,106292
GCF_016406465.1,GCF_016406465.1_bin_1,NZ_CP066404.1,2998,106292
GCF_023299745.1,GCF_023299745.1_bin_1,NZ_CP097027.1,37692,142722
GCF_023299745.1,GCF_023299745.1_bin_1,NZ_CP097028.1,144533,142722
GCF_023299745.1,GCF_023299745.1_bin_1,NZ_CP097029.1,7766,142722
GCF_023299745.1,GCF_023299745.1_bin_2,NZ_CP097029.1,42527,42527
GCF_023299745.1,GCF_023299745.1_bin_2,NZ_CP097028.1,10302,42527
GCF_019977495.1,GCF_019977495.1_bin_6,no_correct_alignments,0,0
GCF_019977495.1,GCF_019977495.1_bin_3,NZ_AP024833.1,58078,58078
GCF_019977495.1,GCF_019977495.1_bin_3,NZ_AP024832.1,1160,58078
GCF_019977495.1,GCF_019977495.1_bin_7,NZ_AP024836.1,5850,5850
GCF_019977495.1,GCF_019977495.1_bin_8,no_correct_alignments,0,0
GCF_019977495.1,GCF_019977495.1_bin_4,NZ_AP024834.1,8800,8801
GCF_019977495.1,GCF_019977495.1_bin_2,NZ_AP024832.1,15643,15643
GCF_019977495.1,GCF_019977495.1_bin_9,no_correct_alignments,0,0
GCF_019977495.1,GCF_019977495.1_bin_1,NZ_AP024832.1,58499,60973
GCF_019977495.1,GCF_019977495.1_bin_1,NZ_AP024831.1,27515,60973
GCF_019977495.1,GCF_019977495.1_bin_5,NZ_AP024835.1,5837,5843
GCF_028335585.1,GCF_028335585.1_bin_1,NZ_CP116545.1,32812,211750
GCF_028335585.1,GCF_028335585.1_bin_1,NZ_CP116543.1,41751,211750
GCF_028335585.1,GCF_028335585.1_bin_1,NZ_CP116544.1,183245,211750
GCF_019175465.1,GCF_019175465.1_bin_1,NZ_CP072887.1,18707,18707
GCF_019175465.1,GCF_019175465.1_bin_3,NZ_CP072886.1,47826,47826
GCF_019175465.1,GCF_019175465.1_bin_3,NZ_CP072887.1,1124,47826
GCF_019175465.1,GCF_019175465.1_bin_2,NZ_CP072885.1,162586,176920
GCF_019175465.1,GCF_019175465.1_bin_2,NZ_CP072884.1,25563,176920
GCF_019175465.1,GCF_019175465.1_bin_2,NZ_CP072887.1,1124,176920
GCF_019175465.1,GCF_019175465.1_bin_2,NZ_CP072886.1,1124,176920
GCF_019175465.1,GCF_019175465.1_bin_Unbinned,NZ_CP072886.1,2885,2885
GCF_019175465.1,GCF_019175465.1_bin_Unbinned,NZ_CP072887.1,2885,2885
GCF_028335565.1,GCF_028335565.1_bin_2,NZ_CP116542.1,32977,32977
GCF_028335565.1,GCF_028335565.1_bin_1,NZ_CP116541.1,144884,141478
GCF_028335565.1,GCF_028335565.1_bin_1,NZ_CP116540.1,39833,141478
GCF_016126675.1,GCF_016126675.1_bin_2,NZ_CP065929.1,108459,166133
GCF_016126675.1,GCF_016126675.1_bin_2,NZ_CP065928.1,111642,166133
GCF_016126675.1,GCF_016126675.1_bin_2,NZ_CP065931.1,55259,166133
GCF_016126675.1,GCF_016126675.1_bin_2,NZ_CP065930.1,1378,166133
GCF_016126675.1,GCF_016126675.1_bin_2,NZ_CP065932.1,1009,166133
GCF_016126675.1,GCF_016126675.1_bin_4,NZ_CP065933.1,9316,9316
GCF_016126675.1,GCF_016126675.1_bin_3,NZ_CP065932.1,38034,36621
GCF_016126675.1,GCF_016126675.1_bin_3,NZ_CP065928.1,11718,36621
GCF_016126675.1,GCF_016126675.1_bin_3,NZ_CP065930.1,4446,36621
GCF_016126675.1,GCF_016126675.1_bin_3,NZ_CP065931.1,1009,36621
GCF_016126675.1,GCF_016126675.1_bin_1,NZ_CP065934.1,3702,7652
GCF_016126675.1,GCF_016126675.1_bin_1,NZ_CP065935.1,1848,7652
GCF_023375365.1,GCF_023375365.1_bin_3,NZ_CP091212.1,21711,21711
GCF_023375365.1,GCF_023375365.1_bin_1,NZ_CP091210.1,147189,133337
GCF_023375365.1,GCF_023375365.1_bin_2,NZ_CP091211.1,81851,83049
GCF_023375365.1,GCF_023375365.1_bin_2,NZ_CP091210.1,2396,83049
GCF_016415385.1,GCF_016415385.1_bin_2,NZ_CP066610.1,32340,30871
GCF_016415385.1,GCF_016415385.1_bin_2,NZ_CP066606.1,19337,30871
GCF_016415385.1,GCF_016415385.1_bin_2,NZ_CP066609.1,2938,30871
GCF_016415385.1,GCF_016415385.1_bin_2,NZ_CP066608.1,2938,30871
GCF_016415385.1,GCF_016415385.1_bin_4,NZ_CP066607.1,1831,1831
GCF_016415385.1,GCF_016415385.1_bin_3,NZ_CP066612.1,4088,4156
GCF_016415385.1,GCF_016415385.1_bin_5,NZ_CP066611.1,6303,6303
GCF_016415385.1,GCF_016415385.1_bin_1,NZ_CP066608.1,173864,202074
GCF_016415385.1,GCF_016415385.1_bin_1,NZ_CP066609.1,53884,202074
GCF_016415385.1,GCF_016415385.1_bin_1,NZ_CP066606.1,137952,202074
GCF_016415385.1,GCF_016415385.1_bin_1,NZ_CP066610.1,2938,202074
GCF_022648125.1,GCF_022648125.1_bin_3,NZ_CP076487.1,4374,4374
GCF_022648125.1,GCF_022648125.1_bin_2,NZ_CP076484.1,110698,100542
GCF_022648125.1,GCF_022648125.1_bin_2,NZ_CP076483.1,45511,100542
GCF_022648125.1,GCF_022648125.1_bin_2,NZ_CP076486.1,2570,100542
GCF_022648125.1,GCF_022648125.1_bin_Unbinned,NZ_CP076485.1,6219,6219
GCF_022648125.1,GCF_022648125.1_bin_1,NZ_CP076484.1,133148,217204
GCF_022648125.1,GCF_022648125.1_bin_1,NZ_CP076486.1,30699,217204
GCF_022648125.1,GCF_022648125.1_bin_1,NZ_CP076485.1,71065,217204
GCF_022648125.1,GCF_022648125.1_bin_1,NZ_CP076483.1,39689,217204
GCF_015325925.1,GCF_015325925.1_bin_2,NZ_CP064052.1,27125,27125
GCF_015325925.1,GCF_015325925.1_bin_2,NZ_CP064049.1,31239,27125
GCF_015325925.1,GCF_015325925.1_bin_2,NZ_CP064051.1,1443,27125
GCF_015325925.1,GCF_015325925.1_bin_2,NZ_CP064050.1,4003,27125
GCF_015325925.1,GCF_015325925.1_bin_1,NZ_CP064050.1,175796,237344
GCF_015325925.1,GCF_015325925.1_bin_1,NZ_CP064051.1,56957,237344
GCF_015325925.1,GCF_015325925.1_bin_1,NZ_CP064049.1,80675,237344
GCF_015325925.1,GCF_015325925.1_bin_1,NZ_CP064052.1,7976,237344
GCF_015325925.1,GCF_015325925.1_bin_3,NZ_CP064053.1,4372,4372
GCF_016406425.1,GCF_016406425.1_bin_1,NZ_CP066452.1,145450,202521
GCF_016406425.1,GCF_016406425.1_bin_1,NZ_CP066453.1,50552,202521
GCF_016406425.1,GCF_016406425.1_bin_1,NZ_CP066451.1,157066,202521
GCF_016406425.1,GCF_016406425.1_bin_1,NZ_CP066454.1,4008,202521
GCF_016406425.1,GCF_016406425.1_bin_2,NZ_CP066454.1,37536,36038
GCF_016406425.1,GCF_016406425.1_bin_2,NZ_CP066451.1,2998,36038
GCF_016406425.1,GCF_016406425.1_bin_2,NZ_CP066452.1,2998,36038
GCF_016406425.1,GCF_016406425.1_bin_2,NZ_CP066453.1,1499,36038
GCF_016406425.1,GCF_016406425.1_bin_3,NZ_CP066455.1,5358,9217
GCF_016406425.1,GCF_016406425.1_bin_4,NZ_CP066456.1,1809,1980
GCF_016415425.1,GCF_016415425.1_bin_3,NZ_CP066646.1,1980,1980
GCF_016415425.1,GCF_016415425.1_bin_1,NZ_CP066648.1,172822,236951
GCF_016415425.1,GCF_016415425.1_bin_1,NZ_CP066647.1,51037,236951
GCF_016415425.1,GCF_016415425.1_bin_1,NZ_CP066649.1,40030,236951
GCF_016415425.1,GCF_016415425.1_bin_1,NZ_CP066645.1,152235,236951
GCF_016415425.1,GCF_016415425.1_bin_1,NZ_CP066652.1,3316,236951
GCF_016415425.1,GCF_016415425.1_bin_2,NZ_CP066650.1,4315,9208
GCF_016415425.1,GCF_016415425.1_bin_2,NZ_CP066651.1,4307,9208
GCF_023375345.1,GCF_023375345.1_bin_Unbinned,NZ_CP091206.1,129095,129095
GCF_023375345.1,GCF_023375345.1_bin_1,NZ_CP091207.1,107100,163956
GCF_023375345.1,GCF_023375345.1_bin_1,NZ_CP091208.1,30023,163956
GCF_023375345.1,GCF_023375345.1_bin_1,NZ_CP091209.1,17374,163956
GCF_023375345.1,GCF_023375345.1_bin_1,NZ_CP091206.1,11796,163956
GCF_023375205.1,GCF_023375205.1_bin_2,NZ_CP088193.1,15313,13003
GCF_023375205.1,GCF_023375205.1_bin_2,NZ_CP088191.1,1070,13003
GCF_023375205.1,GCF_023375205.1_bin_3,NZ_CP088193.1,10478,10478
GCF_023375205.1,GCF_023375205.1_bin_4,NZ_CP088194.1,4147,4147
GCF_023375205.1,GCF_023375205.1_bin_1,NZ_CP088192.1,169774,166820
GCF_023375205.1,GCF_023375205.1_bin_1,NZ_CP088193.1,4620,166820
GCF_023375205.1,GCF_023375205.1_bin_1,NZ_CP088191.1,15386,166820
GCF_016415465.1,GCF_016415465.1_bin_3,NZ_CP066627.1,4088,4156
GCF_016415465.1,GCF_016415465.1_bin_6,NZ_CP066626.1,6303,6303
GCF_016415465.1,GCF_016415465.1_bin_4,NZ_CP066628.1,1831,1831
GCF_016415465.1,GCF_016415465.1_bin_5,NZ_CP066626.1,6303,6303
GCF_016415465.1,GCF_016415465.1_bin_1,NZ_CP066623.1,176644,199260
GCF_016415465.1,GCF_016415465.1_bin_1,NZ_CP066624.1,49866,199260
GCF_016415465.1,GCF_016415465.1_bin_1,NZ_CP066622.1,147225,199260
GCF_016415465.1,GCF_016415465.1_bin_1,NZ_CP066625.1,4008,199260
GCF_016415465.1,GCF_016415465.1_bin_2,NZ_CP066625.1,37964,36465
GCF_016415465.1,GCF_016415465.1_bin_2,NZ_CP066624.1,1499,36465
GCF_016415465.1,GCF_016415465.1_bin_2,NZ_CP066622.1,14108,36465
GCF_016415465.1,GCF_016415465.1_bin_2,NZ_CP066623.1,5018,36465
GCF_015999405.1,GCF_015999405.1_bin_2,NZ_CP065524.1,33157,72619
GCF_015999405.1,GCF_015999405.1_bin_2,NZ_CP065525.1,59314,72619
GCF_015999405.1,GCF_015999405.1_bin_2,NZ_CP065523.1,16443,72619
GCF_015999405.1,GCF_015999405.1_bin_7,no_correct_alignments,0,0
GCF_015999405.1,GCF_015999405.1_bin_3,NZ_CP065524.1,63649,42966
GCF_015999405.1,GCF_015999405.1_bin_3,NZ_CP065525.1,9314,42966
GCF_015999405.1,GCF_015999405.1_bin_4,NZ_CP065525.1,15327,15327
GCF_015999405.1,GCF_015999405.1_bin_4,NZ_CP065526.1,1771,15327
GCF_015999405.1,GCF_015999405.1_bin_4,NZ_CP065523.1,3543,15327
GCF_015999405.1,GCF_015999405.1_bin_8,no_correct_alignments,0,0
GCF_015999405.1,GCF_015999405.1_bin_1,NZ_CP065525.1,104766,107181
GCF_015999405.1,GCF_015999405.1_bin_1,NZ_CP065526.1,4168,107181
GCF_015999405.1,GCF_015999405.1_bin_1,NZ_CP065523.1,19645,107181
GCF_015999405.1,GCF_015999405.1_bin_9,no_correct_alignments,0,0
GCF_015999405.1,GCF_015999405.1_bin_5,NZ_CP065526.1,14429,17382
GCF_015999405.1,GCF_015999405.1_bin_5,NZ_CP065523.1,26704,17382
GCF_015999405.1,GCF_015999405.1_bin_6,no_correct_alignments,0,0
GCF_015999405.1,GCF_015999405.1_bin_Unbinned,NZ_CP065525.1,3496,3497
GCF_016406405.1,GCF_016406405.1_bin_3,NZ_CP066435.1,144683,186699
GCF_016406405.1,GCF_016406405.1_bin_3,NZ_CP066437.1,54674,186699
GCF_016406405.1,GCF_016406405.1_bin_3,NZ_CP066436.1,4073,186699
GCF_016406405.1,GCF_016406405.1_bin_3,NZ_CP066434.1,141109,186699
GCF_016406405.1,GCF_016406405.1_bin_3,NZ_CP066438.1,4008,186699
GCF_016406405.1,GCF_016406405.1_bin_6,no_correct_alignments,0,0
GCF_016406405.1,GCF_016406405.1_bin_2,NZ_CP066438.1,33279,32820
GCF_016406405.1,GCF_016406405.1_bin_2,NZ_CP066435.1,5599,32820
GCF_016406405.1,GCF_016406405.1_bin_2,NZ_CP066437.1,2998,32820
GCF_016406405.1,GCF_016406405.1_bin_2,NZ_CP066434.1,29494,32820
GCF_016406405.1,GCF_016406405.1_bin_7,no_correct_alignments,0,0
GCF_016406405.1,GCF_016406405.1_bin_1,NZ_CP066437.1,2747,65409
GCF_016406405.1,GCF_016406405.1_bin_1,NZ_CP066436.1,65409,65409
GCF_016406405.1,GCF_016406405.1_bin_1,NZ_CP066435.1,1326,65409
GCF_016406405.1,GCF_016406405.1_bin_5,NZ_CP066441.1,4156,4156
GCF_016406405.1,GCF_016406405.1_bin_4,NZ_CP066439.1,7900,14940
GCF_016406405.1,GCF_016406405.1_bin_4,NZ_CP066434.1,1897,14940
GCF_016406405.1,GCF_016406405.1_bin_4,NZ_CP066440.1,6883,14940
GCF_907177285.1,GCF_907177285.1_bin_1,NZ_OU016036.1,18262,107923
GCF_907177285.1,GCF_907177285.1_bin_1,NZ_OU016040.1,1772,107923
GCF_907177285.1,GCF_907177285.1_bin_1,NZ_OU016037.1,3544,107923
GCF_907177285.1,GCF_907177285.1_bin_1,NZ_OU016038.1,103233,107923
GCF_907177285.1,GCF_907177285.1_bin_5,NZ_OU016041.1,6501,5174
GCF_907177285.1,GCF_907177285.1_bin_2,NZ_OU016037.1,187900,226116
GCF_907177285.1,GCF_907177285.1_bin_2,NZ_OU016039.1,41129,226116
GCF_907177285.1,GCF_907177285.1_bin_2,NZ_OU016036.1,84180,226116
GCF_907177285.1,GCF_907177285.1_bin_2,NZ_OU016040.1,1772,226116
GCF_907177285.1,GCF_907177285.1_bin_2,NZ_OU016038.1,3110,226116
GCF_907177285.1,GCF_907177285.1_bin_4,NZ_OU016043.1,4206,4206
GCF_907177285.1,GCF_907177285.1_bin_8,NZ_OU016044.1,2947,2947
GCF_907177285.1,GCF_907177285.1_bin_6,NZ_OU016045.1,1760,1760
GCF_907177285.1,GCF_907177285.1_bin_7,NZ_OU016042.1,6174,6174
GCF_907177285.1,GCF_907177285.1_bin_3,NZ_OU016040.1,7546,7546
GCF_907177285.1,GCF_907177285.1_bin_3,NZ_OU016036.1,3544,7546
GCF_907177285.1,GCF_907177285.1_bin_3,NZ_OU016037.1,3544,7546
GCF_907177285.1,GCF_907177285.1_bin_3,NZ_OU016038.1,1772,7546
GCF_023375385.1,GCF_023375385.1_bin_1,NZ_CP091214.1,137845,166492
GCF_023375385.1,GCF_023375385.1_bin_1,NZ_CP091216.1,23421,166492
GCF_023375385.1,GCF_023375385.1_bin_1,NZ_CP091213.1,47051,166492
GCF_016406505.1,GCF_016406505.1_bin_3,NZ_CP066461.1,36912,50232
GCF_016406505.1,GCF_016406505.1_bin_3,NZ_CP066457.1,37120,50232
GCF_016406505.1,GCF_016406505.1_bin_3,NZ_CP066458.1,2202,50232
GCF_016406505.1,GCF_016406505.1_bin_3,NZ_CP066459.1,13394,50232
GCF_016406505.1,GCF_016406505.1_bin_5,NZ_CP066462.1,6193,6303
GCF_016406505.1,GCF_016406505.1_bin_5,NZ_CP066463.1,1069,6303
GCF_016406505.1,GCF_016406505.1_bin_6,NZ_CP066463.1,1069,6168
GCF_016406505.1,GCF_016406505.1_bin_6,NZ_CP066462.1,1069,6168
GCF_016406505.1,GCF_016406505.1_bin_2,NZ_CP066458.1,4677,61922
GCF_016406505.1,GCF_016406505.1_bin_2,NZ_CP066460.1,61922,61922
GCF_016406505.1,GCF_016406505.1_bin_2,NZ_CP066461.1,2808,61922
GCF_016406505.1,GCF_016406505.1_bin_2,NZ_CP066457.1,10970,61922
GCF_016406505.1,GCF_016406505.1_bin_1,NZ_CP066459.1,74160,85841
GCF_016406505.1,GCF_016406505.1_bin_1,NZ_CP066461.1,11496,85841
GCF_016406505.1,GCF_016406505.1_bin_1,NZ_CP066460.1,2808,85841
GCF_016406505.1,GCF_016406505.1_bin_1,NZ_CP066457.1,28459,85841
GCF_016406505.1,GCF_016406505.1_bin_1,NZ_CP066458.1,4522,85841
GCF_016406505.1,GCF_016406505.1_bin_8,NZ_CP066465.1,4374,4374
GCF_016406505.1,GCF_016406505.1_bin_4,NZ_CP066458.1,167244,167742
GCF_016406505.1,GCF_016406505.1_bin_4,NZ_CP066460.1,4677,167742
GCF_016406505.1,GCF_016406505.1_bin_4,NZ_CP066457.1,83869,167742
GCF_016406505.1,GCF_016406505.1_bin_4,NZ_CP066461.1,4267,167742
GCF_016406505.1,GCF_016406505.1_bin_4,NZ_CP066459.1,1038,167742
GCF_016406505.1,GCF_016406505.1_bin_7,NZ_CP066464.1,5212,5212
GCF_023299325.1,GCF_023299325.1_bin_2,NZ_CP097016.1,34623,34623
GCF_023299325.1,GCF_023299325.1_bin_2,NZ_CP097015.1,2774,34623
GCF_023299325.1,GCF_023299325.1_bin_2,NZ_CP097014.1,2423,34623
GCF_023299325.1,GCF_023299325.1_bin_1,NZ_CP097015.1,191316,229273
GCF_023299325.1,GCF_023299325.1_bin_1,NZ_CP097014.1,95304,229273
GCF_023299325.1,GCF_023299325.1_bin_1,NZ_CP097016.1,2774,229273
GCF_023299325.1,GCF_023299325.1_bin_Unbinned,NZ_CP097014.1,11045,11045
GCF_016415325.1,GCF_016415325.1_bin_3,NZ_CP066595.1,4156,4156
GCF_016415325.1,GCF_016415325.1_bin_4,NZ_CP066596.1,5780,9208
GCF_016415325.1,GCF_016415325.1_bin_4,NZ_CP066597.1,4307,9208
GCF_016415325.1,GCF_016415325.1_bin_5,no_correct_alignments,0,0
GCF_016415325.1,GCF_016415325.1_bin_2,NZ_CP066594.1,35108,33609
GCF_016415325.1,GCF_016415325.1_bin_2,NZ_CP066591.1,15607,33609
GCF_016415325.1,GCF_016415325.1_bin_2,NZ_CP066592.1,3519,33609
GCF_016415325.1,GCF_016415325.1_bin_2,NZ_CP066593.1,1499,33609
GCF_016415325.1,GCF_016415325.1_bin_1,NZ_CP066593.1,51775,200697
GCF_016415325.1,GCF_016415325.1_bin_1,NZ_CP066592.1,172022,200697
GCF_016415325.1,GCF_016415325.1_bin_1,NZ_CP066591.1,155772,200697
GCF_016415325.1,GCF_016415325.1_bin_1,NZ_CP066594.1,4008,200697
GCF_016415565.1,GCF_016415565.1_bin_3,NZ_CP066671.1,6122,6122
GCF_016415565.1,GCF_016415565.1_bin_4,NZ_CP066672.1,5991,5992
GCF_016415565.1,GCF_016415565.1_bin_1,NZ_CP066667.1,152235,187227
GCF_016415565.1,GCF_016415565.1_bin_1,NZ_CP066668.1,113119,187227
GCF_016415565.1,GCF_016415565.1_bin_1,NZ_CP066670.1,17151,187227
GCF_016415565.1,GCF_016415565.1_bin_2,NZ_CP066669.1,19872,19872
GCF_016415565.1,GCF_016415565.1_bin_2,NZ_CP066667.1,5996,19872
GCF_023299725.1,GCF_023299725.1_bin_4,NZ_CP097026.1,10140,10410
GCF_023299725.1,GCF_023299725.1_bin_4,NZ_CP097024.1,1124,10410
GCF_023299725.1,GCF_023299725.1_bin_4,NZ_CP097022.1,1124,10410
GCF_023299725.1,GCF_023299725.1_bin_3,NZ_CP097024.1,16880,16880
GCF_023299725.1,GCF_023299725.1_bin_2,NZ_CP097022.1,66950,169792
GCF_023299725.1,GCF_023299725.1_bin_2,NZ_CP097023.1,130413,169792
GCF_023299725.1,GCF_023299725.1_bin_2,NZ_CP097024.1,1124,169792
GCF_023299725.1,GCF_023299725.1_bin_2,NZ_CP097026.1,1124,169792
GCF_023299725.1,GCF_023299725.1_bin_Unbinned,NZ_CP097024.1,2885,2885
GCF_023299725.1,GCF_023299725.1_bin_Unbinned,NZ_CP097026.1,2885,2885
GCF_023299725.1,GCF_023299725.1_bin_1,NZ_CP097025.1,19232,19232
GCF_023299725.1,GCF_023299725.1_bin_1,NZ_CP097022.1,6056,19232
GCF_028335605.1,GCF_028335605.1_bin_2,NZ_CP116548.1,32978,32978
GCF_028335605.1,GCF_028335605.1_bin_1,NZ_CP116547.1,146337,142932
GCF_028335605.1,GCF_028335605.1_bin_1,NZ_CP116546.1,48543,142932
GCF_023375425.1,GCF_023375425.1_bin_1,NZ_CP091222.1,161038,157375
GCF_023375425.1,GCF_023375425.1_bin_1,NZ_CP091221.1,5008,157375
GCF_023375425.1,GCF_023375425.1_bin_2,NZ_CP091223.1,18781,18781
GCF_016415365.1,GCF_016415365.1_bin_1,NZ_CP066615.1,173851,200736
GCF_016415365.1,GCF_016415365.1_bin_1,NZ_CP066616.1,53884,200736
GCF_016415365.1,GCF_016415365.1_bin_1,NZ_CP066614.1,135300,200736
GCF_016415365.1,GCF_016415365.1_bin_1,NZ_CP066617.1,2938,200736
GCF_016415365.1,GCF_016415365.1_bin_2,NZ_CP066617.1,32340,31909
GCF_016415365.1,GCF_016415365.1_bin_2,NZ_CP066614.1,30755,31909
GCF_016415365.1,GCF_016415365.1_bin_2,NZ_CP066616.1,2938,31909
GCF_016415365.1,GCF_016415365.1_bin_2,NZ_CP066615.1,5014,31909
GCF_016415365.1,GCF_016415365.1_bin_4,NZ_CP066621.1,1831,1831
GCF_016415365.1,GCF_016415365.1_bin_3,NZ_CP066619.1,4088,4156
GCF_016415365.1,GCF_016415365.1_bin_5,NZ_CP066618.1,6303,6303
GCF_009938285.1,GCF_009938285.1_bin_8,NZ_AP022344.1,6258,6303
GCF_009938285.1,GCF_009938285.1_bin_6,NZ_AP022342.1,25761,25764
GCF_009938285.1,GCF_009938285.1_bin_3,NZ_AP022342.1,76158,76448
GCF_009938285.1,GCF_009938285.1_bin_3,NZ_AP022341.1,38738,76448
GCF_009938285.1,GCF_009938285.1_bin_1,NZ_AP022343.1,81773,81776
GCF_009938285.1,GCF_009938285.1_bin_4,NZ_AP022342.1,12728,12730
GCF_009938285.1,GCF_009938285.1_bin_4,NZ_AP022341.1,7333,12730
GCF_009938285.1,GCF_009938285.1_bin_Isolated_1,NZ_AP022342.1,5822,5824
GCF_009938285.1,GCF_009938285.1_bin_2,NZ_AP022342.1,60605,119998
GCF_009938285.1,GCF_009938285.1_bin_2,NZ_AP022341.1,68260,119998
GCF_009938285.1,GCF_009938285.1_bin_9,no_correct_alignments,0,0
GCF_009938285.1,GCF_009938285.1_bin_Isolated_2,NZ_AP022342.1,2318,2319
GCF_009938285.1,GCF_009938285.1_bin_Isolated_3,NZ_AP022342.1,13644,13644
GCF_009938285.1,GCF_009938285.1_bin_5,NZ_AP022342.1,9122,9123
GCF_009938285.1,GCF_009938285.1_bin_5,NZ_AP022341.1,15108,9123
GCF_009938285.1,GCF_009938285.1_bin_5,NZ_AP022343.1,1511,9123
GCF_009938285.1,GCF_009938285.1_bin_7,NZ_AP022343.1,16814,16817
GCF_016406545.1,GCF_016406545.1_bin_4,NZ_CP066414.1,1881,1980
GCF_016406545.1,GCF_016406545.1_bin_3,NZ_CP066413.1,6245,6303
GCF_016406545.1,GCF_016406545.1_bin_1,NZ_CP066409.1,184234,211176
GCF_016406545.1,GCF_016406545.1_bin_1,NZ_CP066410.1,175786,211176
GCF_016406545.1,GCF_016406545.1_bin_1,NZ_CP066411.1,25770,211176
GCF_016406545.1,GCF_016406545.1_bin_1,NZ_CP066412.1,9508,211176
GCF_016406545.1,GCF_016406545.1_bin_2,NZ_CP066411.1,49866,49866
GCF_016406545.1,GCF_016406545.1_bin_2,NZ_CP066409.1,22079,49866
GCF_016406545.1,GCF_016406545.1_bin_2,NZ_CP066410.1,27268,49866
GCF_016415485.1,GCF_016415485.1_bin_1,NZ_CP066674.1,147238,255142
GCF_016415485.1,GCF_016415485.1_bin_1,NZ_CP066673.1,167021,255142
GCF_016415485.1,GCF_016415485.1_bin_1,NZ_CP066676.1,20767,255142
GCF_016415485.1,GCF_016415485.1_bin_1,NZ_CP066675.1,4637,255142
GCF_016415485.1,GCF_016415485.1_bin_5,NZ_CP066679.1,4305,4305
GCF_016415485.1,GCF_016415485.1_bin_4,NZ_CP066675.1,19236,19236
GCF_016415485.1,GCF_016415485.1_bin_4,NZ_CP066676.1,3138,19236
GCF_016415485.1,GCF_016415485.1_bin_4,NZ_CP066674.1,1499,19236
GCF_016415485.1,GCF_016415485.1_bin_4,NZ_CP066673.1,1499,19236
GCF_016415485.1,GCF_016415485.1_bin_2,NZ_CP066677.1,7016,7016
GCF_016415485.1,GCF_016415485.1_bin_3,NZ_CP066678.1,6162,6162
GCF_016406445.1,GCF_016406445.1_bin_1,NZ_CP066390.1,136630,281865
GCF_016406445.1,GCF_016406445.1_bin_1,NZ_CP066392.1,20437,281865
GCF_016406445.1,GCF_016406445.1_bin_1,NZ_CP066389.1,211426,281865
GCF_016406445.1,GCF_016406445.1_bin_1,NZ_CP066391.1,50564,281865
GCF_016406445.1,GCF_016406445.1_bin_4,NZ_CP066395.1,3199,3199
GCF_016406445.1,GCF_016406445.1_bin_2,NZ_CP066393.1,6172,6172
GCF_016406445.1,GCF_016406445.1_bin_3,NZ_CP066394.1,4375,4375
GCF_015999605.1,GCF_015999605.1_bin_4,no_correct_alignments,0,0
GCF_015999605.1,GCF_015999605.1_bin_1,NZ_CP065549.1,178151,204341
GCF_015999605.1,GCF_015999605.1_bin_1,NZ_CP065548.1,51776,204341
GCF_015999605.1,GCF_015999605.1_bin_1,NZ_CP065547.1,151895,204341
GCF_015999605.1,GCF_015999605.1_bin_1,NZ_CP065550.1,4008,204341
GCF_015999605.1,GCF_015999605.1_bin_2,NZ_CP065550.1,38427,36929
GCF_015999605.1,GCF_015999605.1_bin_2,NZ_CP065547.1,14108,36929
GCF_015999605.1,GCF_015999605.1_bin_2,NZ_CP065549.1,5018,36929
GCF_015999605.1,GCF_015999605.1_bin_2,NZ_CP065548.1,1499,36929
GCF_015999605.1,GCF_015999605.1_bin_3,NZ_CP065551.1,3782,10040
GCF_015999605.1,GCF_015999605.1_bin_3,NZ_CP065552.1,2521,10040
GCF_028335205.1,GCF_028335205.1_bin_2,NZ_CP116516.1,26565,32235
GCF_028335205.1,GCF_028335205.1_bin_2,NZ_CP116515.1,5670,32235
GCF_028335205.1,GCF_028335205.1_bin_3,NZ_CP116514.1,16879,16879
GCF_028335205.1,GCF_028335205.1_bin_1,NZ_CP116515.1,108904,131889
GCF_028335205.1,GCF_028335205.1_bin_1,NZ_CP116516.1,28281,131889
GCF_028335205.1,GCF_028335205.1_bin_1,NZ_CP116514.1,12016,131889
GCF_907176815.1,GCF_907176815.1_bin_6,NZ_OU016031.1,3303,3304
GCF_907176815.1,GCF_907176815.1_bin_7,NZ_OU016031.1,1871,1871
GCF_907176815.1,GCF_907176815.1_bin_10,NZ_OU016034.1,2947,2947
GCF_907176815.1,GCF_907176815.1_bin_9,NZ_OU016032.1,6174,6174
GCF_907176815.1,GCF_907176815.1_bin_2,NZ_OU016028.1,51886,51886
GCF_907176815.1,GCF_907176815.1_bin_2,NZ_OU016027.1,12767,51886
GCF_907176815.1,GCF_907176815.1_bin_8,NZ_OU016035.1,1596,1760
GCF_907176815.1,GCF_907176815.1_bin_4,NZ_OU016030.1,5774,7546
GCF_907176815.1,GCF_907176815.1_bin_4,NZ_OU016027.1,3544,7546
GCF_907176815.1,GCF_907176815.1_bin_4,NZ_OU016028.1,3544,7546
GCF_907176815.1,GCF_907176815.1_bin_1,NZ_OU016028.1,68653,107329
GCF_907176815.1,GCF_907176815.1_bin_1,NZ_OU016029.1,41128,107329
GCF_907176815.1,GCF_907176815.1_bin_1,NZ_OU016027.1,35805,107329
GCF_907176815.1,GCF_907176815.1_bin_5,NZ_OU016033.1,4206,4206
GCF_907176815.1,GCF_907176815.1_bin_3,NZ_OU016028.1,66661,64889
GCF_907176815.1,GCF_907176815.1_bin_3,NZ_OU016027.1,14260,64889
GCF_016406345.1,GCF_016406345.1_bin_1,NZ_CP066468.1,176943,229349
GCF_016406345.1,GCF_016406345.1_bin_1,NZ_CP066467.1,50567,229349
GCF_016406345.1,GCF_016406345.1_bin_1,NZ_CP066466.1,173820,229349
GCF_016406345.1,GCF_016406345.1_bin_1,NZ_CP066469.1,9508,229349
GCF_016406345.1,GCF_016406345.1_bin_3,NZ_CP066472.1,1980,1980
GCF_016406345.1,GCF_016406345.1_bin_2,NZ_CP066470.1,3782,10049
GCF_016406345.1,GCF_016406345.1_bin_2,NZ_CP066471.1,2530,10049
GCF_016406345.1,GCF_016406345.1_bin_4,NZ_CP066472.1,1980,1980
GCF_023299805.1,GCF_023299805.1_bin_2,NZ_CP097064.1,26001,26019
GCF_023299805.1,GCF_023299805.1_bin_1,NZ_CP097062.1,56359,56359
GCF_023299805.1,GCF_023299805.1_bin_1,NZ_CP097061.1,13650,56359
GCF_023299805.1,GCF_023299805.1_bin_3,NZ_CP097063.1,46546,50597
GCF_023299805.1,GCF_023299805.1_bin_3,NZ_CP097064.1,4051,50597
GCF_023299805.1,GCF_023299805.1_bin_4,NZ_CP097065.1,5254,5254
GCF_015476295.1,GCF_015476295.1_bin_3,NZ_CP064344.1,56233,52165
GCF_015476295.1,GCF_015476295.1_bin_3,NZ_CP064343.1,11684,52165
GCF_015476295.1,GCF_015476295.1_bin_3,NZ_CP064347.1,1359,52165
GCF_015476295.1,GCF_015476295.1_bin_Isolated_1,NZ_CP064344.1,18000,18005
GCF_015476295.1,GCF_015476295.1_bin_2,NZ_CP064346.1,26292,26292
GCF_015476295.1,GCF_015476295.1_bin_2,NZ_CP064343.1,9006,26292
GCF_015476295.1,GCF_015476295.1_bin_2,NZ_CP064344.1,1462,26292
GCF_015476295.1,GCF_015476295.1_bin_9,NZ_CP064349.1,4260,4465
GCF_015476295.1,GCF_015476295.1_bin_5,NZ_CP064344.1,52409,49115
GCF_015476295.1,GCF_015476295.1_bin_5,NZ_CP064343.1,10985,49115
GCF_015476295.1,GCF_015476295.1_bin_1,NZ_CP064343.1,29110,94098
GCF_015476295.1,GCF_015476295.1_bin_1,NZ_CP064345.1,95860,94098
GCF_015476295.1,GCF_015476295.1_bin_1,NZ_CP064344.1,1125,94098
GCF_015476295.1,GCF_015476295.1_bin_6,NZ_CP064347.1,8242,19991
GCF_015476295.1,GCF_015476295.1_bin_6,NZ_CP064346.1,11749,19991
GCF_015476295.1,GCF_015476295.1_bin_6,NZ_CP064343.1,17541,19991
GCF_015476295.1,GCF_015476295.1_bin_6,NZ_CP064344.1,6896,19991
GCF_015476295.1,GCF_015476295.1_bin_4,NZ_CP064344.1,27611,23536
GCF_015476295.1,GCF_015476295.1_bin_4,NZ_CP064347.1,1359,23536
GCF_015476295.1,GCF_015476295.1_bin_4,NZ_CP064343.1,2718,23536
GCF_015476295.1,GCF_015476295.1_bin_7,NZ_CP064344.1,19834,24965
GCF_015476295.1,GCF_015476295.1_bin_7,NZ_CP064343.1,3357,24965
GCF_015476295.1,GCF_015476295.1_bin_8,NZ_CP064348.1,6173,6173
GCF_907165365.1,GCF_907165365.1_bin_7,NZ_OU015716.1,1760,1760
GCF_907165365.1,GCF_907165365.1_bin_6,NZ_OU015715.1,1893,1893
GCF_907165365.1,GCF_907165365.1_bin_4,NZ_OU015713.1,4206,4206
GCF_907165365.1,GCF_907165365.1_bin_8,NZ_OU015712.1,7019,7019
GCF_907165365.1,GCF_907165365.1_bin_5,NZ_OU015714.1,3304,3304
GCF_907165365.1,GCF_907165365.1_bin_5,NZ_OU015715.1,1328,3304
GCF_907165365.1,GCF_907165365.1_bin_1,NZ_OU015711.1,41548,139943
GCF_907165365.1,GCF_907165365.1_bin_1,NZ_OU015710.1,98603,139943
GCF_907165365.1,GCF_907165365.1_bin_1,NZ_OU015708.1,5072,139943
GCF_907165365.1,GCF_907165365.1_bin_1,NZ_OU015709.1,1110,139943
GCF_907165365.1,GCF_907165365.1_bin_3,NZ_OU015709.1,141363,137265
GCF_907165365.1,GCF_907165365.1_bin_3,NZ_OU015708.1,22501,137265
GCF_907165365.1,GCF_907165365.1_bin_2,NZ_OU015709.1,52646,48548
GCF_907165365.1,GCF_907165365.1_bin_2,NZ_OU015708.1,5591,48548
GCF_017584065.1,GCF_017584065.1_bin_Unbinned,NZ_CP071930.1,9156,9156
GCF_017584065.1,GCF_017584065.1_bin_1,NZ_CP071929.1,5450,167101
GCF_017584065.1,GCF_017584065.1_bin_1,NZ_CP071930.1,165279,167101
GCF_017584065.1,GCF_017584065.1_bin_1,NZ_CP071931.1,25860,167101
GCF_017584065.1,GCF_017584065.1_bin_3,NZ_CP071927.1,7713,7713
GCF_017584065.1,GCF_017584065.1_bin_3,NZ_CP071931.1,8860,7713
GCF_017584065.1,GCF_017584065.1_bin_3,NZ_CP071926.1,1772,7713
GCF_017584065.1,GCF_017584065.1_bin_3,NZ_CP071930.1,1768,7713
GCF_017584065.1,GCF_017584065.1_bin_6,NZ_CP071927.1,1772,6144
GCF_017584065.1,GCF_017584065.1_bin_6,NZ_CP071931.1,8860,6144
GCF_017584065.1,GCF_017584065.1_bin_6,NZ_CP071926.1,6144,6144
GCF_017584065.1,GCF_017584065.1_bin_6,NZ_CP071930.1,1768,6144
GCF_017584065.1,GCF_017584065.1_bin_2,NZ_CP071928.1,8736,8736
GCF_017584065.1,GCF_017584065.1_bin_7,NZ_CP071924.1,2857,2857
GCF_017584065.1,GCF_017584065.1_bin_4,NZ_CP071925.1,5591,5591
GCF_017584065.1,GCF_017584065.1_bin_5,NZ_CP071929.1,13951,13951
GCF_015999425.1,GCF_015999425.1_bin_Isolated_1,NZ_CP065529.1,2010,2010
GCF_015999425.1,GCF_015999425.1_bin_4,NZ_CP065527.1,37860,36000
GCF_015999425.1,GCF_015999425.1_bin_4,NZ_CP065529.1,6437,36000
GCF_015999425.1,GCF_015999425.1_bin_5,NZ_CP065529.1,39279,32194
GCF_015999425.1,GCF_015999425.1_bin_5,NZ_CP065527.1,31242,32194
GCF_015999425.1,GCF_015999425.1_bin_2,NZ_CP065529.1,26013,25009
GCF_015999425.1,GCF_015999425.1_bin_2,NZ_CP065527.1,2026,25009
GCF_015999425.1,GCF_015999425.1_bin_8,no_correct_alignments,0,0
GCF_015999425.1,GCF_015999425.1_bin_1,NZ_CP065528.1,4077,4078
GCF_015999425.1,GCF_015999425.1_bin_10,no_correct_alignments,0,0
GCF_015999425.1,GCF_015999425.1_bin_6,NZ_CP065529.1,39764,39777
GCF_015999425.1,GCF_015999425.1_bin_6,NZ_CP065527.1,27191,39777
GCF_015999425.1,GCF_015999425.1_bin_7,NZ_CP065528.1,1879,13601
GCF_015999425.1,GCF_015999425.1_bin_7,NZ_CP065530.1,14939,13601
GCF_015999425.1,GCF_015999425.1_bin_Unbinned,NZ_CP065527.1,2137,2137
GCF_015999425.1,GCF_015999425.1_bin_9,no_correct_alignments,0,0
GCF_015999425.1,GCF_015999425.1_bin_3,NZ_CP065527.1,10748,60225
GCF_015999425.1,GCF_015999425.1_bin_3,NZ_CP065529.1,62015,60225
GCF_023375405.1,GCF_023375405.1_bin_1,NZ_CP091219.1,17235,17235
GCF_023375405.1,GCF_023375405.1_bin_2,NZ_CP091217.1,65667,179327
GCF_023375405.1,GCF_023375405.1_bin_2,NZ_CP091218.1,149869,179327
GCF_023375405.1,GCF_023375405.1_bin_2,NZ_CP091219.1,1065,179327
GCF_023375405.1,GCF_023375405.1_bin_3,NZ_CP091220.1,5688,5688
GCF_026409165.1,GCF_026409165.1_bin_1,NZ_CP112865.1,45956,122064
GCF_026409165.1,GCF_026409165.1_bin_1,NZ_CP112863.1,18484,122064
GCF_026409165.1,GCF_026409165.1_bin_1,NZ_CP112862.1,106255,122064
GCF_026409165.1,GCF_026409165.1_bin_1,NZ_CP112864.1,2679,122064
GCF_026409165.1,GCF_026409165.1_bin_2,NZ_CP112863.1,98947,90562
GCF_026409165.1,GCF_026409165.1_bin_2,NZ_CP112864.1,4865,90562
GCF_026409165.1,GCF_026409165.1_bin_2,NZ_CP112862.1,45610,90562
GCF_026409165.1,GCF_026409165.1_bin_2,NZ_CP112865.1,5182,90562
GCF_026409165.1,GCF_026409165.1_bin_3,NZ_CP112863.1,92118,88575
GCF_026409165.1,GCF_026409165.1_bin_3,NZ_CP112862.1,50816,88575
GCF_026409165.1,GCF_026409165.1_bin_4,NZ_CP112864.1,80858,80937
GCF_026409165.1,GCF_026409165.1_bin_4,NZ_CP112862.1,9002,80937
GCF_026409165.1,GCF_026409165.1_bin_4,NZ_CP112863.1,5848,80937
GCF_026409165.1,GCF_026409165.1_bin_4,NZ_CP112865.1,2444,80937
GCF_020162175.1,GCF_020162175.1_bin_2,NZ_CP083927.1,2800,2800
GCF_020162175.1,GCF_020162175.1_bin_1,NZ_CP083921.1,181797,219443
GCF_020162175.1,GCF_020162175.1_bin_1,NZ_CP083922.1,41112,219443
GCF_020162175.1,GCF_020162175.1_bin_1,NZ_CP083920.1,76588,219443
GCF_020162175.1,GCF_020162175.1_bin_1,NZ_CP083923.1,1439,219443
GCF_020162175.1,GCF_020162175.1_bin_1,NZ_CP083926.1,1329,219443
GCF_020162175.1,GCF_020162175.1_bin_5,NZ_CP083929.1,1979,1979
GCF_020162175.1,GCF_020162175.1_bin_3,NZ_CP083928.1,2710,2710
GCF_020162175.1,GCF_020162175.1_bin_Unbinned,NZ_CP083924.1,5773,5773
GCF_020162175.1,GCF_020162175.1_bin_4,NZ_CP083926.1,3039,3200
GCF_020162175.1,GCF_020162175.1_bin_4,NZ_CP083922.1,1329,3200
GCF_016406485.1,GCF_016406485.1_bin_Unbinned,NZ_CP066383.1,3221,3221
GCF_016406485.1,GCF_016406485.1_bin_Unbinned,NZ_CP066385.1,3221,3221
GCF_016406485.1,GCF_016406485.1_bin_5,NZ_CP066386.1,6771,6771
GCF_016406485.1,GCF_016406485.1_bin_5,NZ_CP066381.1,14176,6771
GCF_016406485.1,GCF_016406485.1_bin_5,NZ_CP066382.1,1772,6771
GCF_016406485.1,GCF_016406485.1_bin_1,NZ_CP066383.1,89823,136756
GCF_016406485.1,GCF_016406485.1_bin_1,NZ_CP066382.1,16597,136756
GCF_016406485.1,GCF_016406485.1_bin_1,NZ_CP066384.1,49586,136756
GCF_016406485.1,GCF_016406485.1_bin_1,NZ_CP066381.1,19647,136756
GCF_016406485.1,GCF_016406485.1_bin_1,NZ_CP066385.1,1365,136756
GCF_016406485.1,GCF_016406485.1_bin_3,NZ_CP066383.1,7969,33358
GCF_016406485.1,GCF_016406485.1_bin_3,NZ_CP066385.1,33358,33358
GCF_016406485.1,GCF_016406485.1_bin_3,NZ_CP066381.1,4095,33358
GCF_016406485.1,GCF_016406485.1_bin_3,NZ_CP066384.1,2730,33358
GCF_016406485.1,GCF_016406485.1_bin_4,NZ_CP066382.1,52854,51694
GCF_016406485.1,GCF_016406485.1_bin_4,NZ_CP066384.1,8219,51694
GCF_016406485.1,GCF_016406485.1_bin_4,NZ_CP066381.1,1124,51694
GCF_016406485.1,GCF_016406485.1_bin_2,NZ_CP066382.1,162298,157295
GCF_016406485.1,GCF_016406485.1_bin_2,NZ_CP066383.1,4264,157295
GCF_016406485.1,GCF_016406485.1_bin_2,NZ_CP066385.1,4264,157295
GCF_016406485.1,GCF_016406485.1_bin_2,NZ_CP066381.1,60139,157295
GCF_016406485.1,GCF_016406485.1_bin_2,NZ_CP066386.1,1772,157295
GCF_016406485.1,GCF_016406485.1_bin_2,NZ_CP066384.1,2730,157295
GCF_016406485.1,GCF_016406485.1_bin_7,NZ_CP066388.1,4461,4461
GCF_016406485.1,GCF_016406485.1_bin_6,NZ_CP066387.1,6303,6303
GCF_028335485.1,GCF_028335485.1_bin_1,NZ_CP116529.1,136634,133567
GCF_028335485.1,GCF_028335485.1_bin_1,NZ_CP116531.1,1124,133567
GCF_028335485.1,GCF_028335485.1_bin_1,NZ_CP116530.1,1124,133567
GCF_028335485.1,GCF_028335485.1_bin_1,NZ_CP116528.1,7217,133567
GCF_028335485.1,GCF_028335485.1_bin_Unbinned,NZ_CP116531.1,2886,2886
GCF_028335485.1,GCF_028335485.1_bin_2,NZ_CP116530.1,16593,16593
GCF_028335485.1,GCF_028335485.1_bin_3,NZ_CP116531.1,13304,13304
GCF_028335485.1,GCF_028335485.1_bin_3,NZ_CP116530.1,1124,13304
