GCF_019703285.1_ASM1970328v1,plasmid_AB413,0
GCF_019703285.1_ASM1970328v1,plasmid_AE272,0
GCF_019703285.1_ASM1970328v1,plasmid_AE690,0
GCF_019703285.1_ASM1970328v1,plasmid_AC965,1
GCF_019703285.1_ASM1970328v1,plasmid_AE271,0
GCF_019703285.1_ASM1970328v1,plasmid_AE296,0
GCF_019703285.1_ASM1970328v1,plasmid_AH281,0
GCF_019703285.1_ASM1970328v1,plasmid_AC598,0
GCF_019703285.1_ASM1970328v1,plasmid_AD743,0
GCF_020810655.1_ASM2081065v1,plasmid_AB337,0
GCF_020810655.1_ASM2081065v1,plasmid_AA858,0
GCF_020810655.1_ASM2081065v1,plasmid_AA667,2
GCF_020810655.1_ASM2081065v1,plasmid_AB338,0
GCF_020810655.1_ASM2081065v1,plasmid_AC163,0
GCF_015910475.1_ASM1591047v1,plasmid_AB337,0
GCF_015910475.1_ASM1591047v1,plasmid_AE689,1
GCF_014169655.1_ASM1416965v1,plasmid_AB114,0
GCF_014169655.1_ASM1416965v1,plasmid_AD743,0
GCF_021609965.1_ASM2160996v1,plasmid_AF972,3
GCF_021609965.1_ASM2160996v1,plasmid_AB879,0
GCF_021609965.1_ASM2160996v1,plasmid_AC715,2
GCF_021609965.1_ASM2160996v1,plasmid_AC163,2
GCF_018604365.1_ASM1860436v1,plasmid_AF972,1
GCF_018604365.1_ASM1860436v1,plasmid_AE272,1
GCF_018604365.1_ASM1860436v1,plasmid_AE296,0
GCF_018604365.1_ASM1860436v1,plasmid_AC715,2
GCF_018604365.1_ASM1860436v1,plasmid_AC163,1
GCF_014322245.1_ASM1432224v1,plasmid_AB685,0
GCF_014322245.1_ASM1432224v1,plasmid_AB114,2
GCF_014322245.1_ASM1432224v1,plasmid_AE271,0
GCF_014322245.1_ASM1432224v1,plasmid_AC861,2
GCF_014322245.1_ASM1432224v1,plasmid_AD096,0
GCF_014322245.1_ASM1432224v1,plasmid_AD743,0
GCF_014705865.1_ASM1470586v1,plasmid_AB114,2
GCF_014705865.1_ASM1470586v1,plasmid_AF972,0
GCF_014705865.1_ASM1470586v1,plasmid_AE272,0
GCF_019903215.1_ASM1990321v1,plasmid_AC715,1
GCF_019903215.1_ASM1990321v1,plasmid_AC163,1
GCF_014705805.1_ASM1470580v1,plasmid_AB114,1
GCF_014705805.1_ASM1470580v1,plasmid_AE272,0
GCF_014705805.1_ASM1470580v1,plasmid_AB082,3
GCF_020132105.1_ASM2013210v1,plasmid_AE688,0
GCF_015732435.1_ASM1573243v1,plasmid_AF972,8
GCF_015732435.1_ASM1573243v1,plasmid_AE272,0
GCF_015732435.1_ASM1573243v1,plasmid_AE271,1
GCF_015732435.1_ASM1573243v1,plasmid_AE689,0
GCF_018831485.1_ASM1883148v1,plasmid_AC163,0
GCF_019903155.1_ASM1990315v1,plasmid_AB114,1
GCF_019903155.1_ASM1990315v1,plasmid_AD745,0
GCF_019458485.1_ASM1945848v1,plasmid_AB878,0
GCF_019458485.1_ASM1945848v1,plasmid_AF972,3
GCF_019458485.1_ASM1945848v1,plasmid_AB879,0
GCF_019458485.1_ASM1945848v1,plasmid_AC715,2
GCF_019458485.1_ASM1945848v1,plasmid_AC163,2
GCF_016903215.1_ASM1690321v1,plasmid_AE272,1
GCF_016903215.1_ASM1690321v1,plasmid_AC237,0
GCF_016903215.1_ASM1690321v1,plasmid_AC163,0
GCF_018808925.1_ASM1880892v1,plasmid_AE272,0
GCF_018808925.1_ASM1880892v1,plasmid_AE296,0
GCF_018808925.1_ASM1880892v1,plasmid_AC716,2
GCF_018808925.1_ASM1880892v1,plasmid_AD036,0
GCF_018808925.1_ASM1880892v1,plasmid_AF874,0
GCF_014705785.1_ASM1470578v1,plasmid_AE272,1
GCF_017753625.1_ASM1775362v1,plasmid_AB114,2
GCF_017753625.1_ASM1775362v1,plasmid_AC861,0
GCF_016919525.1_ASM1691952v2,plasmid_AF972,1
GCF_016919525.1_ASM1691952v2,plasmid_AE272,1
GCF_016919525.1_ASM1691952v2,plasmid_AE271,0
GCF_016919525.1_ASM1691952v2,plasmid_AF524,0
GCF_016919525.1_ASM1691952v2,plasmid_AB082,3
GCF_016919525.1_ASM1691952v2,plasmid_AH171,0
GCF_016919525.1_ASM1691952v2,plasmid_AD096,0
GCF_016919525.1_ASM1691952v2,plasmid_AC163,0
GCF_020985285.1_ASM2098528v1,plasmid_AD745,0
GCF_021484905.1_ASM2148490v1,plasmid_AB878,0
GCF_021484905.1_ASM2148490v1,plasmid_AF972,3
GCF_021484905.1_ASM2148490v1,plasmid_AB879,0
GCF_021484905.1_ASM2148490v1,plasmid_AC715,2
GCF_021484905.1_ASM2148490v1,plasmid_AC163,2
GCF_005519135.2_ASM551913v2,plasmid_AE272,0
GCF_005519135.2_ASM551913v2,plasmid_AB082,1
GCF_005519135.2_ASM551913v2,plasmid_AE027,0
GCF_014705825.1_ASM1470582v1,plasmid_AE272,1
GCF_014705825.1_ASM1470582v1,plasmid_AC163,0
GCF_018135585.1_ASM1813558v1,plasmid_AB406,2
GCF_018135585.1_ASM1813558v1,plasmid_AB413,0
GCF_018135585.1_ASM1813558v1,plasmid_AE272,0
GCF_018831125.1_ASM1883112v1,plasmid_AE271,0
GCF_018831125.1_ASM1883112v1,plasmid_AC716,1
GCF_018831125.1_ASM1883112v1,plasmid_AB702,0
GCF_018831125.1_ASM1883112v1,plasmid_AB082,2
GCF_013372085.1_ASM1337208v1,plasmid_AC716,3
GCF_013372085.1_ASM1337208v1,plasmid_AE186,0
GCF_013372085.1_ASM1337208v1,plasmid_AC162,0
GCF_014705845.1_ASM1470584v1,plasmid_AB114,3
GCF_014705845.1_ASM1470584v1,plasmid_AE272,0
GCF_016127515.1_ASM1612751v1,plasmid_AC715,1
GCF_016127515.1_ASM1612751v1,plasmid_AC163,2
GCF_014705885.1_ASM1470588v1,plasmid_AB114,3
GCF_014705885.1_ASM1470588v1,plasmid_AE272,0
GCF_014705885.1_ASM1470588v1,plasmid_AD096,0
GCF_016919505.2_ASM1691950v2,plasmid_AF972,1
GCF_016919505.2_ASM1691950v2,plasmid_AE272,1
GCF_016919505.2_ASM1691950v2,plasmid_AE271,0
GCF_016919505.2_ASM1691950v2,plasmid_AF524,0
GCF_016919505.2_ASM1691950v2,plasmid_AB082,1
GCF_016919505.2_ASM1691950v2,plasmid_AH171,0
GCF_016919505.2_ASM1691950v2,plasmid_AD096,0
GCF_016919505.2_ASM1691950v2,plasmid_AC163,0
GCF_019903235.1_ASM1990323v1,plasmid_AB348,0
GCF_019903235.1_ASM1990323v1,plasmid_AE204,0
GCF_019903235.1_ASM1990323v1,plasmid_AE272,0
GCF_019903235.1_ASM1990323v1,plasmid_novel_8f6e6eeff90e98d77a322e58569027c7,0
GCF_019903235.1_ASM1990323v1,plasmid_AE271,1
GCF_019903235.1_ASM1990323v1,plasmid_AH171,0
GCF_016903135.1_ASM1690313v1,plasmid_AB082,4
GCF_016903135.1_ASM1690313v1,plasmid_AB595,0
GCF_016903135.1_ASM1690313v1,plasmid_AD036,1
GCF_014159355.1_ASM1415935v1,plasmid_novel_791ac9a2fe26c962086c2e39f4f3a87c,0
GCF_014159355.1_ASM1415935v1,plasmid_AE272,0
GCF_014159355.1_ASM1415935v1,plasmid_AB826,0
GCF_014159355.1_ASM1415935v1,plasmid_AE271,0
GCF_013787185.1_ASM1378718v1,plasmid_AB409,1
GCF_013787185.1_ASM1378718v1,plasmid_AB114,1
GCF_013787185.1_ASM1378718v1,plasmid_AD825,0
GCF_013787185.1_ASM1378718v1,plasmid_AE272,0
GCF_013787185.1_ASM1378718v1,plasmid_AE271,1
GCF_013787185.1_ASM1378718v1,plasmid_AB340,0
GCF_013787185.1_ASM1378718v1,plasmid_AD096,0
GCF_013787185.1_ASM1378718v1,plasmid_AD743,2
