GCF_000006945.2_ASM694v2,NC_003277.2
GCF_000008105.1_ASM810v1,NC_006855.1
GCF_000008105.1_ASM810v1,NC_006856.1
GCF_000016045.1_ASM1604v1,NC_011079.1
GCF_000016045.1_ASM1604v1,NC_009140.1
GCF_000018385.1_ASM1838v1,NC_012124.1
GCF_000020705.1_ASM2070v1,NC_011082.1
GCF_000020705.1_ASM2070v1,NC_011081.1
GCF_000020745.1_ASM2074v1,NC_011092.1
GCF_000020745.1_ASM2074v1,NC_011093.1
GCF_000020885.1_ASM2088v1,NC_011148.1
GCF_000020925.1_ASM2092v1,NC_011204.1
GCF_000022165.1_ASM2216v1,NC_016855.1
GCF_000188735.1_ASM18873v1,NC_016858.1
GCF_000188735.1_ASM18873v1,NC_017675.1
GCF_000188735.1_ASM18873v1,NC_016859.1
GCF_000195995.1_ASM19599v1,NC_003384.1
GCF_000195995.1_ASM19599v1,NC_003385.1
GCF_000210855.2_ASM21085v2,NC_017718.1
GCF_000210855.2_ASM21085v2,NC_017719.1
GCF_000210855.2_ASM21085v2,NC_017720.1
GCF_000213635.1_ASM21363v1,NC_016864.1
GCF_000240905.2_ASM24090v3,NZ_CP019187.1
GCF_000240905.2_ASM24090v3,NZ_CP019188.1
GCF_000245535.1_ASM24553v1,NC_016825.1
GCF_000252875.1_ASM25287v1,NC_017054.1
GCF_000258365.1_ASM25836v1,NC_017624.1
GCF_000272715.4_ASM27271v4,NZ_CP009564.1
GCF_000272735.4_ASM27273v4,NZ_CP009562.1
GCF_000272755.4_ASM27275v4,NZ_CP009563.1
GCF_000272775.4_ASM27277v4,NZ_CP009560.1
GCF_000272835.4_ASM27283v4,NZ_CP009570.1
GCF_000272895.2_ASM27289v3,NZ_CP009567.1
GCF_000272895.2_ASM27289v3,NZ_CP009568.1
GCF_000272895.2_ASM27289v3,NZ_CP009566.1
GCF_000280315.2_ASM28031v2,NZ_CP007599.1
GCF_000329365.2_ASM32936v2,NZ_CP007529.1
GCF_000330485.2_ASM33048v2,NZ_CP012348.1
GCF_000335875.2_ASM33587v2,NZ_CP011395.1
GCF_000341425.1_ASM34142v1,NC_020306.1
GCF_000341425.1_ASM34142v1,NC_020308.1
GCF_000430085.2_ASM43008v2,NC_021813.2
GCF_000430085.2_ASM43008v2,NC_021842.2
GCF_000430105.1_ASM43010v1,NC_021811.1
GCF_000430105.1_ASM43010v1,NC_021841.1
GCF_000430105.1_ASM43010v1,NC_021869.1
GCF_000430125.1_ASM43012v1,NC_021845.1
GCF_000430125.1_ASM43012v1,NC_021819.1
GCF_000430145.2_ASM43014v3,NC_021815.1
GCF_000430145.2_ASM43014v3,NC_021843.1
GCF_000430145.2_ASM43014v3,NC_021816.1
GCF_000439415.2_ASM43941v2,NZ_CP039501.1
GCF_000486345.2_ASM48634v2,NZ_CP017729.1
GCF_000486585.2_ASM48658v2,NZ_CP019193.1
GCF_000487035.2_ASM48703v2,NZ_CP019200.1
GCF_000487035.2_ASM48703v2,NZ_CP019199.1
GCF_000487155.2_ASM48715v2,NZ_CP019182.1
GCF_000487295.3_ASM48729v3,NZ_CP012345.2
GCF_000487935.2_ASM48793v2,NZ_CP017724.1
GCF_000487935.2_ASM48793v2,NZ_CP017725.1
GCF_000487935.2_ASM48793v2,NZ_CP017726.1
GCF_000493295.2_ASM49329v2,NZ_CP019190.1
GCF_000493295.2_ASM49329v2,NZ_CP019191.1
GCF_000493535.2_DT2,NZ_LN999012.1
GCF_000505365.2_ASM50536v2,NZ_CP012834.1
GCF_000505365.2_ASM50536v2,NZ_CP012835.1
GCF_000505705.1_ASM50570v1,NZ_CP005994.1
GCF_000612325.1_ASM61232v1,NZ_CP007508.1
GCF_000636135.1_ASM63613v1,NZ_CP007582.1
GCF_000698515.2_ASM69851v2,NZ_CP039497.1
GCF_000715155.1_ASM71515v2,NZ_CP008745.1
GCF_000732045.2_ASM73204v2,NZ_CP075038.1
GCF_000743055.1_ASM74305v1,NZ_CP009103.1
GCF_000754375.1_ASM75437v1,NZ_CP008927.1
GCF_000783815.2_ASM78381v2,NZ_CP026053.1
GCF_000783815.2_ASM78381v2,NZ_CP026054.1
GCF_000988525.3_ASM98852v3,NZ_CP014707.1
GCF_001006525.1_ASM100652v1,NZ_CP011435.1
GCF_001006525.1_ASM100652v1,NZ_CP011434.1
GCF_001006525.1_ASM100652v1,NZ_CP011433.1
GCF_001006525.1_ASM100652v1,NZ_CP011432.1
GCF_001006525.1_ASM100652v1,NZ_CP011430.1
GCF_001006525.1_ASM100652v1,NZ_CP011429.1
GCF_001006525.1_ASM100652v1,NZ_CP011431.1
GCF_001293505.1_ASM129350v1,NZ_CP012683.1
GCF_001293505.1_ASM129350v1,NZ_CP012684.1
GCF_001293505.1_ASM129350v1,NZ_CP012682.1
GCF_001305235.1_ASM130523v1,NZ_CP009767.1
GCF_001409135.1_10259,NZ_LN890519.1
GCF_001409155.1_98_11262,NZ_LN890523.1
GCF_001409175.1_99_3134,NZ_LN890525.1
GCF_001409175.1_99_3134,NZ_LN890526.1
GCF_001409195.1_C2346,NZ_LN890521.1
GCF_001441205.1_ASM144120v1,NZ_CP012922.1
GCF_001441205.1_ASM144120v1,NZ_CP012923.1
GCF_001441225.1_ASM144122v1,NZ_CP012925.1
GCF_001441225.1_ASM144122v1,NZ_CP012927.1
GCF_001441225.1_ASM144122v1,NZ_CP012926.1
GCF_001441225.1_ASM144122v1,NZ_CP012928.1
GCF_001441225.1_ASM144122v1,NZ_CP012929.1
GCF_001441245.1_ASM144124v1,NZ_CP012932.1
GCF_001441245.1_ASM144124v1,NZ_CP012931.1
GCF_001441245.1_ASM144124v1,NZ_CP012933.1
GCF_001441245.1_ASM144124v1,NZ_CP012934.1
GCF_001441245.1_ASM144124v1,NZ_CP012935.1
GCF_001441245.1_ASM144124v1,NZ_CP012936.1
GCF_001447095.1_ASM144709v1,NZ_CP013224.1
GCF_001447095.1_ASM144709v1,NZ_CP013225.1
GCF_001447115.1_ASM144711v1,NZ_CP013221.1
GCF_001447115.1_ASM144711v1,NZ_CP013223.1
GCF_001448485.2_ASM144848v2,NZ_CP022501.1
GCF_001448485.2_ASM144848v2,NZ_CP022502.1
GCF_001448665.2_ASM144866v2,NZ_CP030289.1
GCF_001448665.2_ASM144866v2,NZ_CP030290.1
GCF_001448665.2_ASM144866v2,NZ_CP030291.1
GCF_001448785.2_ASM144878v2,NZ_CP030176.1
GCF_001448785.2_ASM144878v2,NZ_CP030177.1
GCF_001457675.1_NCTC10384,NZ_LN868944.1
GCF_001457675.1_NCTC10384,NZ_LN868945.1
GCF_001457675.1_NCTC10384,NZ_LN868946.1
GCF_001484025.1_ASM148402v1,NZ_CP013098.1
GCF_001535315.2_ASM153531v2,NZ_CP014995.1
GCF_001558355.2_ASM155835v2,NZ_CP014050.2
GCF_001576255.1_ASM157625v1,NZ_CP014359.1
GCF_001576275.1_ASM157627v1,NZ_CP014357.1
GCF_001577505.1_ASM157750v1,NZ_CP014537.1
GCF_001612515.1_ASM161251v1,NZ_CP014997.1
GCF_001620115.1_ASM162011v1,NZ_CP014658.1
GCF_001620135.2_ASM162013v2,NZ_CP014660.1
GCF_001620155.1_ASM162015v1,NZ_CP014662.1
GCF_001620205.2_ASM162020v2,NZ_CP014622.1
GCF_001623645.2_ASM162364v2,NZ_CP016864.1
GCF_001623645.2_ASM162364v2,NZ_CP016865.1
GCF_001623645.2_ASM162364v2,NZ_CP016866.1
GCF_001623645.2_ASM162364v2,NZ_CP016867.1
GCF_001623685.1_ASM162368v1,NZ_CP014968.1
GCF_001623725.1_ASM162372v1,NZ_CP014970.1
GCF_001623765.2_ASM162376v2,NZ_CP014972.2
GCF_001623765.2_ASM162376v2,NZ_CP014973.1
GCF_001623765.2_ASM162376v2,NZ_CP014974.1
GCF_001623805.1_ASM162380v1,NZ_CP014976.1
GCF_001623825.2_ASM162382v2,NZ_CP014980.1
GCF_001623845.1_ASM162384v1,NZ_CP014978.1
GCF_001629755.1_ASM162975v1,NZ_CP011290.1
GCF_001629755.1_ASM162975v1,NZ_CP011291.1
GCF_001629775.1_ASM162977v1,NZ_CP011293.1
GCF_001629775.1_ASM162977v1,NZ_CP011294.1
GCF_001647045.1_ASM164704v1,NZ_CP011944.1
GCF_001647045.1_ASM164704v1,NZ_CP011945.1
GCF_001647045.1_ASM164704v1,NZ_CP011943.1
GCF_001647755.1_ASM164775v1,NZ_CP015725.1
GCF_001652385.2_ASM165238v2,NZ_CP075142.1
GCF_001689935.1_ASM168993v1,NZ_CP016505.1
GCF_001689935.1_ASM168993v1,NZ_CP016506.1
GCF_001690005.1_ASM169000v1,NZ_CP016508.1
GCF_001690005.1_ASM169000v1,NZ_CP016509.1
GCF_001690055.1_ASM169005v1,NZ_CP016515.1
GCF_001690055.1_ASM169005v1,NZ_CP016516.1
GCF_001690075.1_ASM169007v1,NZ_CP016518.1
GCF_001690075.1_ASM169007v1,NZ_CP016519.1
GCF_001690075.1_ASM169007v1,NZ_CP016520.1
GCF_001690095.1_ASM169009v1,NZ_CP016531.1
GCF_001690095.1_ASM169009v1,NZ_CP016532.1
GCF_001690095.1_ASM169009v1,NZ_CP016533.1
GCF_001690115.1_ASM169011v1,NZ_CP016522.1
GCF_001690115.1_ASM169011v1,NZ_CP016523.1
GCF_001690115.1_ASM169011v1,NZ_CP016524.1
GCF_001692495.1_ASM169249v1,NZ_CP016564.1
GCF_001692515.1_ASM169251v1,NZ_CP016574.1
GCF_001692515.1_ASM169251v1,NZ_CP016575.1
GCF_001692535.1_ASM169253v1,NZ_CP016580.1
GCF_001692555.1_ASM169255v1,NZ_CP016562.1
GCF_001692575.1_ASM169257v1,NZ_CP016570.1
GCF_001692575.1_ASM169257v1,NZ_CP016571.1
GCF_001692575.1_ASM169257v1,NZ_CP016572.1
GCF_001692595.1_ASM169259v1,NZ_CP016566.1
GCF_001692595.1_ASM169259v1,NZ_CP016567.1
GCF_001692595.1_ASM169259v1,NZ_CP016568.1
GCF_001692615.1_ASM169261v1,NZ_CP016577.1
GCF_001692615.1_ASM169261v1,NZ_CP016578.1
GCF_001692635.1_ASM169263v1,NZ_CP016587.1
GCF_001705055.1_ASM170505v1,NZ_CP012397.1
GCF_001705365.1_ASM170536v1,NZ_CP015158.1
GCF_001713515.2_ASM171351v2,NZ_CP074662.1
GCF_001729225.1_ASM172922v1,NZ_CP016386.1
GCF_001729225.1_ASM172922v1,NZ_CP016387.1
GCF_001729225.1_ASM172922v1,NZ_CP016388.1
GCF_001729225.1_ASM172922v1,NZ_CP016389.1
GCF_001729225.1_ASM172922v1,NZ_CP016390.1
GCF_001756025.2_ASM175602v2,NZ_CP074664.1
GCF_001831715.2_ASM183171v2,NZ_CP075139.1
GCF_001831985.2_ASM183198v2,NZ_CP075136.1
GCF_001833255.2_ASM183325v2,NZ_CP075130.1
GCF_001833255.2_ASM183325v2,NZ_CP075131.1
GCF_001834735.2_ASM183473v2,NZ_CP075133.1
GCF_001834965.2_ASM183496v2,NZ_CP075126.1
GCF_001887015.1_ASM188701v1,NZ_CP017620.1
GCF_001890165.1_ASM189016v1,NZ_CP016011.1
GCF_001890185.1_ASM189018v1,NZ_CP016013.1
GCF_001931555.1_ASM193155v1,NZ_CP016407.1
GCF_001931575.1_ASM193157v1,NZ_CP016409.1
GCF_001931595.1_ASM193159v1,NZ_CP016411.1
GCF_001931615.1_ASM193161v1,NZ_CP016413.1
GCF_001952995.1_ASM195299v1,NZ_CP019173.1
GCF_001953035.1_ASM195303v1,NZ_CP019180.1
GCF_001953675.1_ASM195367v1,NZ_CP019205.1
GCF_001953695.1_ASM195369v1,NZ_CP019207.1
GCF_001972545.2_ASM197254v2,NZ_CP075119.1
GCF_001972625.2_ASM197262v2,NZ_CP075121.1
GCF_001973275.2_ASM197327v2,NZ_CP022004.1
GCF_001973785.2_ASM197378v2,NZ_CP075123.1
GCF_001973785.2_ASM197378v2,NZ_CP075124.1
GCF_001989635.1_ASM198963v1,NZ_CP019443.1
GCF_001989635.1_ASM198963v1,NZ_CP019444.1
GCF_002128365.1_ASM212836v1,NZ_CP020826.1
GCF_002128385.1_ASM212838v1,NZ_CP020824.1
GCF_002163995.1_ASM216399v1,NZ_CP020923.1
GCF_002163995.1_ASM216399v1,NZ_CP020924.1
GCF_002196535.1_ASM219653v1,NZ_CP017721.1
GCF_002196535.1_ASM219653v1,NZ_CP017722.1
GCF_002201855.1_ASM220185v1,NZ_CP021910.1
GCF_002208195.1_ASM220819v1,NZ_CP022016.1
GCF_002208255.1_ASM220825v1,NZ_CP022036.1
GCF_002208255.1_ASM220825v1,NZ_CP022035.1
GCF_002208315.1_ASM220831v1,NZ_CP022018.1
GCF_002208315.1_ASM220831v1,NZ_CP022017.1
GCF_002208965.1_ASM220896v2,NZ_CP022060.1
GCF_002208965.1_ASM220896v2,NZ_CP022061.1
GCF_002208965.1_ASM220896v2,NZ_CP022063.1
GCF_002208965.1_ASM220896v2,NZ_CP022064.1
GCF_002208965.1_ASM220896v2,NZ_CP022065.1
GCF_002209205.2_ASM220920v2,NZ_CP022066.2
GCF_002209205.2_ASM220920v2,NZ_CP022067.2
GCF_002209205.2_ASM220920v2,NZ_CP022068.1
GCF_002209225.1_ASM220922v2,NZ_CP022071.1
GCF_002209225.1_ASM220922v2,NZ_CP022072.1
GCF_002211585.1_ASM221158v1,NZ_CP022118.1
GCF_002211585.1_ASM221158v1,NZ_CP022119.1
GCF_002211825.1_ASM221182v1,NZ_CP022136.1
GCF_002211825.1_ASM221182v1,NZ_CP022137.1
GCF_002211865.1_ASM221186v1,NZ_CP022140.1
GCF_002211865.1_ASM221186v1,NZ_CP022141.1
GCF_002224405.1_ASM222440v1,NZ_CP022451.1
GCF_002224405.1_ASM222440v1,NZ_CP022452.1
GCF_002224405.1_ASM222440v1,NZ_CP022453.1
GCF_002224405.1_ASM222440v1,NZ_CP022454.1
GCF_002234735.2_ASM223473v2,NZ_CP022492.1
GCF_002234755.2_ASM223475v2,NZ_CP022495.1
GCF_002234795.1_ASM223479v1,NZ_CP022498.1
GCF_002234795.1_ASM223479v1,NZ_CP022499.1
GCF_002238275.1_ASM223827v1,NZ_CP020493.1
GCF_002238275.1_ASM223827v1,NZ_CP020494.1
GCF_002266085.2_ASM226608v2,NZ_CP075114.1
GCF_002290205.1_ASM229020v1,NZ_CP023167.1
GCF_002313085.1_ASM231308v1,NZ_CP017233.1
GCF_002313105.1_ASM231310v1,NZ_CP017178.1
GCF_002313125.1_ASM231312v1,NZ_CP022169.1
GCF_002504105.1_ASM250410v1,NZ_CP022661.1
GCF_002504105.1_ASM250410v1,NZ_CP022662.1
GCF_002504125.1_ASM250412v1,NZ_CP022659.1
GCF_002504125.1_ASM250412v1,NZ_CP022660.1
GCF_002507915.2_ASM250791v2,NZ_CP075111.1
GCF_002741885.1_ASM274188v1,NZ_CP024166.1
GCF_002741885.1_ASM274188v1,NZ_CP024167.1
GCF_002760915.1_ASM276091v1,NZ_CP018636.1
GCF_002760935.1_ASM276093v1,NZ_CP018641.1
GCF_002760955.1_ASM276095v1,NZ_CP018643.1
GCF_002760995.1_ASM276099v1,NZ_CP018646.1
GCF_002761035.1_ASM276103v1,NZ_CP018656.1
GCF_002761055.1_ASM276105v1,NZ_CP018658.1
GCF_002761075.1_ASM276107v1,NZ_CP018660.1
GCF_002761095.1_ASM276109v1,NZ_CP018662.1
GCF_002761095.1_ASM276109v1,NZ_CP018663.1
GCF_002761115.1_ASM276111v1,NZ_CP018634.1
GCF_002761135.1_ASM276113v1,NZ_CP018638.1
GCF_002761135.1_ASM276113v1,NZ_CP018639.1
GCF_002761155.1_ASM276115v1,NZ_CP018649.1
GCF_002761155.1_ASM276115v1,NZ_CP018650.1
GCF_002762135.3_ASM276213v3,NZ_CP025336.1
GCF_002762135.3_ASM276213v3,NZ_CP025337.1
GCF_002762135.3_ASM276213v3,NZ_CP025338.2
GCF_002762135.3_ASM276213v3,NZ_CP025339.1
GCF_002762135.3_ASM276213v3,NZ_CP025340.1
GCF_002763415.1_ASM276341v1,NZ_CP018652.1
GCF_002763415.1_ASM276341v1,NZ_CP018653.1
GCF_002763415.1_ASM276341v1,NZ_CP018654.1
GCF_002813975.1_ASM281397v1,NZ_CP015525.1
GCF_002813995.1_ASM281399v1,NZ_CP015527.1
GCF_002863765.1_ASM286376v1,NZ_CP019175.1
GCF_002863785.1_ASM286378v1,NZ_CP019203.1
GCF_002946675.1_ASM294667v1,NZ_CP026570.1
GCF_002947135.1_ASM294713v1,NZ_CP026701.1
GCF_002953175.1_ASM295317v1,NZ_CP026380.1
GCF_002983965.1_ASM298396v1,NZ_CP027415.1
GCF_002983965.1_ASM298396v1,NZ_CP027413.1
GCF_002983965.1_ASM298396v1,NZ_CP027416.1
GCF_002984035.1_ASM298403v1,NZ_CP027411.1
GCF_002984285.1_ASM298428v1,NZ_CP027409.1
GCF_003030105.1_ASM303010v1,NZ_CP028170.1
GCF_003030105.1_ASM303010v1,NZ_CP028171.1
GCF_003030125.1_ASM303012v1,NZ_CP028173.1
GCF_003030125.1_ASM303012v1,NZ_CP028174.1
GCF_003030125.1_ASM303012v1,NZ_CP028175.1
GCF_003030285.2_ASM303028v2,NZ_CP028200.2
GCF_003031995.1_ASM303199v1,NZ_CP025553.1
GCF_003032015.1_ASM303201v1,NZ_CP025556.1
GCF_003032035.1_ASM303203v1,NZ_CP025557.1
GCF_003032035.1_ASM303203v1,NZ_CP025558.1
GCF_003052785.2_ASM305278v2,NZ_CP029249.1
GCF_003064165.2_ASM306416v2,NZ_CP077692.1
GCF_003064405.2_ASM306440v2,NZ_CP077694.1
GCF_003064405.2_ASM306440v2,NZ_CP077695.1
GCF_003067445.2_ASM306744v2,NZ_CP077705.1
GCF_003067765.2_ASM306776v2,NZ_CP077697.1
GCF_003067765.2_ASM306776v2,NZ_CP077698.1
GCF_003067925.2_ASM306792v2,NZ_CP077700.1
GCF_003067925.2_ASM306792v2,NZ_CP077701.1
GCF_003067985.2_ASM306798v2,NZ_CP077703.1
GCF_003068025.2_ASM306802v2,NZ_CP077707.1
GCF_003068025.2_ASM306802v2,NZ_CP077708.1
GCF_003068025.2_ASM306802v2,NZ_CP077709.1
GCF_003071485.1_ASM307148v1,NZ_CP020913.1
GCF_003181075.1_ASM318107v1,NZ_CP029594.1
GCF_003181155.1_ASM318115v1,NZ_CP029596.1
GCF_003184325.1_ASM318432v1,NZ_CP028156.1
GCF_003184325.1_ASM318432v1,NZ_CP028155.1
GCF_003184425.1_ASM318442v1,NZ_CP028152.1
GCF_003184425.1_ASM318442v1,NZ_CP028153.1
GCF_003184425.1_ASM318442v1,NZ_CP028154.1
GCF_003231095.1_ASM323109v1,NZ_CP029801.1
GCF_003231095.1_ASM323109v1,NZ_CP029802.1
GCF_003312565.1_ASM331256v1,NZ_CP030795.1
GCF_003312565.1_ASM331256v1,NZ_CP030796.1
GCF_003324755.1_ASM332475v1,NZ_CP029990.1
GCF_003324795.1_ASM332479v1,NZ_CP029993.1
GCF_003324795.1_ASM332479v1,NZ_CP029994.1
GCF_003324815.1_ASM332481v1,NZ_CP029996.1
GCF_003324815.1_ASM332481v1,NZ_CP029997.1
GCF_003324815.1_ASM332481v1,NZ_CP029998.1
GCF_003324835.1_ASM332483v1,NZ_CP030000.1
GCF_003324835.1_ASM332483v1,NZ_CP030001.1
GCF_003324855.1_ASM332485v1,NZ_CP030003.1
GCF_003324855.1_ASM332485v1,NZ_CP030004.1
GCF_003324875.1_ASM332487v1,NZ_CP030006.1
GCF_003324915.1_ASM332491v1,NZ_CP030182.1
GCF_003324915.1_ASM332491v1,NZ_CP030183.1
GCF_003324915.1_ASM332491v1,NZ_CP030184.1
GCF_003324955.1_ASM332495v1,NZ_CP030208.1
GCF_003324975.1_ASM332497v1,NZ_CP030210.1
GCF_003324995.1_ASM332499v1,NZ_CP030232.1
GCF_003325075.1_ASM332507v1,NZ_CP030191.1
GCF_003325075.1_ASM332507v1,NZ_CP030192.1
GCF_003325075.1_ASM332507v1,NZ_CP030193.1
GCF_003325095.1_ASM332509v1,NZ_CP030197.1
GCF_003325095.1_ASM332509v1,NZ_CP030198.1
GCF_003325095.1_ASM332509v1,NZ_CP030199.1
GCF_003325095.1_ASM332509v1,NZ_CP030200.1
GCF_003325095.1_ASM332509v1,NZ_CP030201.1
GCF_003325115.1_ASM332511v1,NZ_CP030195.1
GCF_003325135.1_ASM332513v1,NZ_CP030204.1
GCF_003325135.1_ASM332513v1,NZ_CP030205.1
GCF_003325135.1_ASM332513v1,NZ_CP030206.1
GCF_003325155.1_ASM332515v1,NZ_CP030212.1
GCF_003325155.1_ASM332515v1,NZ_CP030213.1
GCF_003325195.1_ASM332519v1,NZ_CP030218.1
GCF_003325215.1_ASM332521v1,NZ_CP030220.1
GCF_003325215.1_ASM332521v1,NZ_CP030221.1
GCF_003325215.1_ASM332521v1,NZ_CP030222.1
GCF_003325255.1_ASM332525v1,NZ_CP030226.1
GCF_003325255.1_ASM332525v1,NZ_CP030227.1
GCF_003325255.1_ASM332525v1,NZ_CP030228.1
GCF_003325255.1_ASM332525v1,NZ_CP030229.1
GCF_003325255.1_ASM332525v1,NZ_CP030230.1
GCF_003325275.1_ASM332527v1,NZ_CP030234.1
GCF_003325335.1_ASM332533v1,NZ_CP030025.1
GCF_003347075.1_ASM334707v1,NZ_CP018220.1
GCF_003429365.1_ASM342936v1,NZ_CP023476.1
GCF_003429425.1_ASM342942v1,NZ_CP023469.1
GCF_003429445.1_ASM342944v1,NZ_CP023471.1
GCF_003515965.1_ASM351596v1,NZ_CP023437.1
GCF_003515965.1_ASM351596v1,NZ_CP023438.1
GCF_003571625.1_ASM357162v1,NZ_CP032192.1
GCF_003571625.1_ASM357162v1,NZ_CP032193.1
GCF_003589785.1_ASM358978v1,NZ_CP032385.1
GCF_003589785.1_ASM358978v1,NZ_CP032386.1
GCF_003589805.1_ASM358980v1,NZ_CP032388.1
GCF_003589805.1_ASM358980v1,NZ_CP032389.1
GCF_003589825.1_ASM358982v1,NZ_CP032391.1
GCF_003589825.1_ASM358982v1,NZ_CP032392.1
GCF_003589845.1_ASM358984v1,NZ_CP032395.1
GCF_003589845.1_ASM358984v1,NZ_CP032394.1
GCF_003589865.1_ASM358986v1,NZ_CP032397.1
GCF_003590695.1_ASM359069v1,NZ_CP032445.1
GCF_003590755.1_ASM359075v1,NZ_CP032450.1
GCF_003595645.1_ASM359564v1,NZ_CP032447.1
GCF_003595645.1_ASM359564v1,NZ_CP032448.1
GCF_003595725.1_ASM359572v1,NZ_CP032380.1
GCF_003595725.1_ASM359572v1,NZ_CP032381.1
GCF_003606225.1_ASM360622v1,NZ_CP022964.1
GCF_003606225.1_ASM360622v1,NZ_CP022965.1
GCF_003691385.1_ASM369138v1,NZ_CP033089.1
GCF_003710125.1_ASM371012v1,NZ_CP033339.1
GCF_003710165.1_ASM371016v1,NZ_CP033341.1
GCF_003710165.1_ASM371016v1,NZ_CP033342.1
GCF_003710185.1_ASM371018v1,NZ_CP033346.1
GCF_003716995.1_ASM371699v1,NZ_CP029924.1
GCF_003717015.1_ASM371701v1,NZ_CP029887.1
GCF_003717035.1_ASM371703v1,NZ_CP029910.1
GCF_003717075.1_ASM371707v1,NZ_CP029929.1
GCF_003717095.1_ASM371709v1,NZ_CP029931.1
GCF_003717115.1_ASM371711v1,NZ_CP029934.1
GCF_003717135.1_ASM371713v1,NZ_CP029935.1
GCF_003717215.1_ASM371721v1,NZ_CP029943.1
GCF_003717355.1_ASM371735v1,NZ_CP029947.1
GCF_003717395.1_ASM371739v1,NZ_CP029948.1
GCF_003717455.1_ASM371745v1,NZ_CP029937.1
GCF_003717475.1_ASM371747v1,NZ_CP029939.1
GCF_003717515.1_ASM371751v1,NZ_CP029951.1
GCF_003717535.1_ASM371753v1,NZ_CP029953.1
GCF_003717575.1_ASM371757v1,NZ_CP029955.1
GCF_003717615.1_ASM371761v1,NZ_CP029860.1
GCF_003717655.1_ASM371765v1,NZ_CP029865.1
GCF_003717675.1_ASM371767v1,NZ_CP029867.1
GCF_003717695.1_ASM371769v1,NZ_CP029869.1
GCF_003717735.1_ASM371773v1,NZ_CP029871.1
GCF_003717755.1_ASM371775v1,NZ_CP029898.1
GCF_003717815.1_ASM371781v1,NZ_CP029874.1
GCF_003717835.1_ASM371783v1,NZ_CP029889.1
GCF_003717875.1_ASM371787v1,NZ_CP029891.1
GCF_003717895.1_ASM371789v1,NZ_CP029893.1
GCF_003717915.1_ASM371791v1,NZ_CP029912.1
GCF_003717975.1_ASM371797v1,NZ_CP029901.1
GCF_003717995.1_ASM371799v1,NZ_CP029876.1
GCF_003718035.1_ASM371803v1,NZ_CP029916.1
GCF_003718075.1_ASM371807v1,NZ_CP029921.1
GCF_003718115.1_ASM371811v1,NZ_CP029884.1
GCF_003718135.1_ASM371813v1,NZ_CP029903.1
GCF_003718195.1_ASM371819v1,NZ_CP029895.1
GCF_003718255.1_ASM371825v1,NZ_CP029905.1
GCF_003718275.1_ASM371827v1,NZ_CP029877.1
GCF_003718295.1_ASM371829v1,NZ_CP029879.1
GCF_003718355.1_ASM371835v1,NZ_CP029847.1
GCF_003718395.1_ASM371839v1,NZ_CP029961.1
GCF_003718415.1_ASM371841v1,NZ_CP029963.1
GCF_003718435.1_ASM371843v1,NZ_CP029965.1
GCF_003718455.1_ASM371845v1,NZ_CP029849.1
GCF_003718475.1_ASM371847v1,NZ_CP029851.1
GCF_003718535.1_ASM371853v1,NZ_CP029857.1
GCF_003718555.1_ASM371855v1,NZ_CP029859.1
GCF_003718575.1_ASM371857v1,NZ_CP029854.1
GCF_003718635.1_ASM371863v1,NZ_CP029926.1
GCF_003718655.1_ASM371865v1,NZ_CP029957.1
GCF_003719235.1_ASM371923v1,NZ_CP029941.1
GCF_003719555.1_ASM371955v1,NZ_CP029645.1
GCF_003719555.1_ASM371955v1,NZ_CP029647.1
GCF_003864015.1_ASM386401v1,NZ_CP034231.1
GCF_003971525.1_ASM397152v1,NZ_CP031360.1
GCF_003971525.1_ASM397152v1,NZ_CP031361.1
GCF_003971525.1_ASM397152v1,NZ_CP031362.1
GCF_003986635.1_ASM398663v1,NZ_CP028312.1
GCF_003986635.1_ASM398663v1,NZ_CP028313.1
GCF_003986655.1_ASM398665v1,NZ_CP028315.1
GCF_003986655.1_ASM398665v1,NZ_CP028316.1
GCF_003986655.1_ASM398665v1,NZ_CP028317.1
GCF_003986675.1_ASM398667v1,NZ_CP028319.1
GCF_003994575.1_ASM399457v1,NZ_CP034714.1
GCF_003994655.1_ASM399465v1,NZ_CP034720.1
GCF_003999215.1_ASM399921v1,NZ_CP025737.1
GCF_004022525.1_ASM402252v1,NZ_CP034969.1
GCF_004124035.2_ASM412403v2,NZ_CP033224.2
GCF_004124035.2_ASM412403v2,NZ_CP033225.2
GCF_004124055.2_ASM412405v2,NZ_CP033256.1
GCF_004124095.2_ASM412409v2,NZ_CP033253.2
GCF_004124095.2_ASM412409v2,NZ_CP033254.2
GCF_004124155.2_ASM412415v2,NZ_CP033347.2
GCF_004124175.2_ASM412417v2,NZ_CP033351.2
GCF_004124195.2_ASM412419v2,NZ_CP033349.2
GCF_004124215.2_ASM412421v2,NZ_CP033353.2
GCF_004124215.2_ASM412421v2,NZ_CP033354.2
GCF_004124215.2_ASM412421v2,NZ_CP033355.2
GCF_004126495.1_ASM412649v1,NZ_CP034075.1
GCF_004135835.1_ASM413583v1,NZ_CP026714.1
GCF_004136055.1_ASM413605v1,NZ_CP025231.1
GCF_004136075.1_ASM413607v1,NZ_CP025233.1
GCF_004136095.1_ASM413609v1,NZ_CP025235.1
GCF_004136095.1_ASM413609v1,NZ_CP025236.1
GCF_004136115.1_ASM413611v1,NZ_CP025244.1
GCF_004136115.1_ASM413611v1,NZ_CP025245.1
GCF_004136135.1_ASM413613v1,NZ_CP025238.1
GCF_004136135.1_ASM413613v1,NZ_CP025239.1
GCF_004136135.1_ASM413613v1,NZ_CP025240.1
GCF_004136155.1_ASM413615v1,NZ_CP025242.1
GCF_004136175.1_ASM413617v1,NZ_CP025247.1
GCF_004194605.3_ASM419460v3,NZ_CP037994.1
GCF_004194635.3_ASM419463v5,NZ_CP037995.1
GCF_004224885.1_ASM422488v2,NZ_CP041209.1
GCF_004224885.1_ASM422488v2,NZ_CP041210.1
GCF_004323995.2_ASM432399v2,NZ_CP047526.1
GCF_004324015.2_ASM432401v2,NZ_CP047530.1
GCF_004324025.2_ASM432402v2,NZ_CP047532.1
GCF_004324025.2_ASM432402v2,NZ_CP047533.1
GCF_004324025.2_ASM432402v2,NZ_CP047534.1
GCF_004324035.2_ASM432403v2,NZ_CP047536.1
GCF_004324045.2_ASM432404v2,NZ_CP047541.1
GCF_004324095.2_ASM432409v2,NZ_CP047543.1
GCF_004324115.2_ASM432411v2,NZ_CP047545.1
GCF_004324125.2_ASM432412v2,NZ_CP047547.1
GCF_004324135.2_ASM432413v2,NZ_CP047554.1
GCF_004324145.2_ASM432414v2,NZ_CP047551.1
GCF_004324145.2_ASM432414v2,NZ_CP047552.1
GCF_004324245.2_ASM432424v2,NZ_CP047528.1
GCF_004324275.2_ASM432427v2,NZ_CP047549.1
GCF_004324315.2_ASM432431v2,NZ_CP047556.1
GCF_004328785.1_ASM432878v1,NZ_CP025279.1
GCF_004328805.1_ASM432880v1,NZ_CP025274.1
GCF_004328805.1_ASM432880v1,NZ_CP025275.1
GCF_004337735.2_ASM433773v2,NZ_CP047523.1
GCF_004337735.2_ASM433773v2,NZ_CP047524.1
GCF_004337745.2_ASM433774v2,NZ_CP047538.1
GCF_004337745.2_ASM433774v2,NZ_CP047539.1
GCF_004358925.1_ASM435892v1,NZ_CP037959.1
GCF_004358925.1_ASM435892v1,NZ_CP037958.1
GCF_004768565.1_ASM476856v1,NZ_CP038592.1
GCF_004768585.1_ASM476858v1,NZ_CP038594.1
GCF_004768605.1_ASM476860v1,NZ_CP038602.1
GCF_004768605.1_ASM476860v1,NZ_CP038603.1
GCF_004768625.1_ASM476862v1,NZ_CP038605.1
GCF_004768625.1_ASM476862v1,NZ_CP038606.1
GCF_004768625.1_ASM476862v1,NZ_CP038607.1
GCF_004768645.1_ASM476864v1,NZ_CP038596.1
GCF_004768645.1_ASM476864v1,NZ_CP038597.1
GCF_004768645.1_ASM476864v1,NZ_CP038598.1
GCF_004768645.1_ASM476864v1,NZ_CP038599.1
GCF_004768645.1_ASM476864v1,NZ_CP038600.1
GCF_004768665.1_ASM476866v1,NZ_CP038609.1
GCF_004768665.1_ASM476866v1,NZ_CP038610.1
GCF_004768665.1_ASM476866v1,NZ_CP038611.1
GCF_004792435.1_ASM479243v1,NZ_CP038848.1
GCF_004798745.1_ASM479874v1,NZ_CP039278.1
GCF_004798765.1_ASM479876v1,NZ_CP039280.1
GCF_004798765.1_ASM479876v1,NZ_CP039281.1
GCF_004798765.1_ASM479876v1,NZ_CP039282.1
GCF_004847005.1_ASM484700v1,NZ_CP039464.1
GCF_004847145.1_ASM484714v1,NZ_CP039466.1
GCF_004847345.1_ASM484734v1,NZ_CP039483.1
GCF_004847505.1_ASM484750v1,NZ_CP039468.1
GCF_004847525.1_ASM484752v1,NZ_CP039470.1
GCF_004847545.1_ASM484754v1,NZ_CP039472.1
GCF_004847585.1_ASM484758v1,NZ_CP039485.1
GCF_004847605.1_ASM484760v1,NZ_CP039474.1
GCF_004847605.1_ASM484760v1,NZ_CP039475.1
GCF_004847885.1_ASM484788v1,NZ_CP039479.1
GCF_004848145.1_ASM484814v1,NZ_CP039481.1
GCF_004848405.1_ASM484840v1,NZ_CP039488.1
GCF_004848545.1_ASM484854v1,NZ_CP039492.1
GCF_004848685.1_ASM484868v1,NZ_CP039490.1
GCF_004848885.1_ASM484888v1,NZ_CP039494.1
GCF_004848885.1_ASM484888v1,NZ_CP039495.1
GCF_004919145.1_ASM491914v1,NZ_CP039562.1
GCF_004919145.1_ASM491914v1,NZ_CP039563.1
GCF_004919165.1_ASM491916v1,NZ_CP039559.1
GCF_004919165.1_ASM491916v1,NZ_CP039560.1
GCF_004919185.1_ASM491918v1,NZ_CP039566.1
GCF_004919225.1_ASM491922v1,NZ_CP039573.1
GCF_004919225.1_ASM491922v1,NZ_CP039574.1
GCF_004919225.1_ASM491922v1,NZ_CP039575.1
GCF_004919265.1_ASM491926v1,NZ_CP039586.1
GCF_004919265.1_ASM491926v1,NZ_CP039587.1
GCF_004919285.1_ASM491928v1,NZ_CP039568.1
GCF_004919305.1_ASM491930v1,NZ_CP039570.1
GCF_004919305.1_ASM491930v1,NZ_CP039571.1
GCF_004919325.1_ASM491932v1,NZ_CP039580.1
GCF_004919325.1_ASM491932v1,NZ_CP039581.1
GCF_004919345.1_ASM491934v1,NZ_CP039583.1
GCF_004919345.1_ASM491934v1,NZ_CP039584.1
GCF_004919365.1_ASM491936v1,NZ_CP039592.1
GCF_004919385.1_ASM491938v1,NZ_CP039594.1
GCF_004919405.1_ASM491940v1,NZ_CP039596.1
GCF_004919405.1_ASM491940v1,NZ_CP039597.1
GCF_004919405.1_ASM491940v1,NZ_CP039598.1
GCF_004919425.1_ASM491942v1,NZ_CP039600.1
GCF_004919425.1_ASM491942v1,NZ_CP039601.1
GCF_004919425.1_ASM491942v1,NZ_CP039602.1
GCF_004919445.1_ASM491944v1,NZ_CP039604.1
GCF_004919445.1_ASM491944v1,NZ_CP039605.1
GCF_004919445.1_ASM491944v1,NZ_CP039606.1
GCF_004919465.1_ASM491946v1,NZ_CP039608.1
GCF_004919465.1_ASM491946v1,NZ_CP039609.1
GCF_004923395.1_ASM492339v1,NZ_CP039504.1
GCF_004923395.1_ASM492339v1,NZ_CP039505.1
GCF_004923395.1_ASM492339v1,NZ_CP039506.1
GCF_004923395.1_ASM492339v1,NZ_CP039507.1
GCF_004923395.1_ASM492339v1,NZ_CP039508.1
GCF_004923415.2_ASM492341v2,NZ_CP039512.1
GCF_004923415.2_ASM492341v2,NZ_CP039511.1
GCF_004923415.2_ASM492341v2,NZ_CP039510.1
GCF_004923415.2_ASM492341v2,NZ_CP039515.1
GCF_004923415.2_ASM492341v2,NZ_CP039514.1
GCF_004923415.2_ASM492341v2,NZ_CP039513.2
GCF_005094845.1_ASM509484v1,NZ_CP039589.1
GCF_005094845.1_ASM509484v1,NZ_CP039590.1
GCF_005144925.1_ASM514492v1,NZ_CP039714.1
GCF_005144925.1_ASM514492v1,NZ_CP039715.1
GCF_005144945.1_ASM514494v1,NZ_CP039717.1
GCF_005144945.1_ASM514494v1,NZ_CP039718.1
GCF_005144985.1_ASM514498v1,NZ_CP039720.1
GCF_005160365.1_ASM516036v1,NZ_CP039855.1
GCF_005160405.1_ASM516040v1,NZ_CP039861.1
GCF_005160405.1_ASM516040v1,NZ_CP039862.1
GCF_005160405.1_ASM516040v1,NZ_CP039863.1
GCF_005160405.1_ASM516040v1,NZ_CP039864.1
GCF_005457265.1_ASM545726v2,NZ_CP040702.1
GCF_005537135.1_ASM553713v1,NZ_CP040319.1
GCF_005537135.1_ASM553713v1,NZ_CP040320.1
GCF_005537375.1_ASM553737v1,NZ_CP040322.1
GCF_005537375.1_ASM553737v1,NZ_CP040323.1
GCF_005844025.1_ASM584402v1,NZ_CP040457.1
GCF_005885835.1_ASM588583v1,NZ_CP040574.1
GCF_005885855.1_ASM588585v1,NZ_CP040563.1
GCF_005885875.1_ASM588587v1,NZ_CP040565.1
GCF_005885895.1_ASM588589v1,NZ_CP040567.1
GCF_005885935.1_ASM588593v1,NZ_CP040569.1
GCF_005889955.1_ASM588995v1,NZ_CP040645.1
GCF_005889975.1_ASM588997v1,NZ_CP040647.1
GCF_005890095.1_ASM589009v1,NZ_CP040649.1
GCF_005890095.1_ASM589009v1,NZ_CP040650.1
GCF_005890175.1_ASM589017v1,NZ_CP040652.1
GCF_005890175.1_ASM589017v1,NZ_CP040653.1
GCF_005954705.1_ASM595470v1,NZ_CP040669.1
GCF_005954705.1_ASM595470v1,NZ_CP040670.1
GCF_006088735.1_ASM608873v1,NZ_CP034480.1
GCF_006165285.1_ASM616528v1,NZ_CP025455.1
GCF_006228345.1_ASM622834v1,NZ_CP039170.1
GCF_006351805.1_ASM635180v1,NZ_CP040901.1
GCF_006365335.1_ASM636533v1,NZ_CP041006.1
GCF_006365335.1_ASM636533v1,NZ_CP041007.1
GCF_006384195.1_ASM638419v1,NZ_CP029837.1
GCF_006384195.1_ASM638419v1,NZ_CP029838.1
GCF_006385115.1_ASM638511v1,NZ_CP041027.1
GCF_006385115.1_ASM638511v1,NZ_CP041028.1
GCF_006461325.2_ASM646132v2,NZ_CP069167.1
GCF_006461415.2_ASM646141v2,NZ_CP050832.1
GCF_006516995.1_ASM651699v1,NZ_CP041172.1
GCF_006517015.1_ASM651701v1,NZ_CP041174.1
GCF_006517015.1_ASM651701v1,NZ_CP041175.1
GCF_006517035.1_ASM651703v1,NZ_CP041180.1
GCF_006517055.1_ASM651705v1,NZ_CP041177.1
GCF_006517055.1_ASM651705v1,NZ_CP041178.1
GCF_006517075.1_ASM651707v1,NZ_CP041182.1
GCF_006741505.1_ASM674150v1,NZ_AP019693.1
GCF_006741505.1_ASM674150v1,NZ_AP019694.1
GCF_007833775.1_ASM783377v1,NZ_CP032305.1
GCF_007833775.1_ASM783377v1,NZ_CP032306.1
GCF_007923125.1_ASM792312v1,NZ_CP035302.1
GCF_008124065.1_ASM812406v1,NZ_CP043215.1
GCF_008124065.1_ASM812406v1,NZ_CP043216.1
GCF_008124445.1_ASM812444v1,NZ_CP043223.1
GCF_008124445.1_ASM812444v1,NZ_CP043224.1
GCF_008313815.1_ASM831381v1,NZ_CP043434.1
GCF_008386295.1_ASM838629v1,NZ_CP043774.1
GCF_008727555.1_ASM872755v1,NZ_CP044201.1
GCF_008727555.1_ASM872755v1,NZ_CP044202.1
GCF_008727575.1_ASM872757v1,NZ_CP044204.1
GCF_008727595.1_ASM872759v1,NZ_CP044182.1
GCF_008727595.1_ASM872759v1,NZ_CP044183.1
GCF_008727615.1_ASM872761v1,NZ_CP044185.1
GCF_008727635.1_ASM872763v1,NZ_CP044187.1
GCF_008727655.1_ASM872765v1,NZ_CP044189.1
GCF_008727655.1_ASM872765v1,NZ_CP044190.1
GCF_008931225.1_ASM893122v1,NZ_CP035916.1
GCF_008931245.1_ASM893124v1,NZ_CP035918.1
GCF_009017295.1_ASM901729v1,NZ_CP044958.1
GCF_009017295.1_ASM901729v1,NZ_CP044959.1
GCF_009017295.1_ASM901729v1,NZ_CP044960.1
GCF_009017315.1_ASM901731v1,NZ_CP044962.1
GCF_009017315.1_ASM901731v1,NZ_CP044963.1
GCF_009017315.1_ASM901731v1,NZ_CP044964.1
GCF_009017315.1_ASM901731v1,NZ_CP044965.1
GCF_009017315.1_ASM901731v1,NZ_CP044966.1
GCF_009017335.1_ASM901733v1,NZ_CP044969.1
GCF_009017335.1_ASM901733v1,NZ_CP044968.1
GCF_009387895.1_ASM938789v1,NZ_CP045448.1
GCF_009387895.1_ASM938789v1,NZ_CP045449.1
GCF_009388185.1_ASM938818v1,NZ_CP045445.1
GCF_009388185.1_ASM938818v1,NZ_CP045446.1
GCF_009497835.1_ASM949783v1,NZ_CP032492.1
GCF_009497835.1_ASM949783v1,NZ_CP032493.1
GCF_009497835.1_ASM949783v1,NZ_CP032491.1
GCF_009497855.1_ASM949785v1,NZ_CP032495.1
GCF_009497855.1_ASM949785v1,NZ_CP032497.1
GCF_009497855.1_ASM949785v1,NZ_CP032499.1
GCF_009497855.1_ASM949785v1,NZ_CP032498.1
GCF_009497855.1_ASM949785v1,NZ_CP032496.1
GCF_009648715.1_ASM964871v1,NZ_CP045752.1
GCF_009648735.1_ASM964873v1,NZ_CP045755.1
GCF_009648735.1_ASM964873v1,NZ_CP045756.1
GCF_009648755.1_ASM964875v1,NZ_CP045758.1
GCF_009648795.1_ASM964879v1,NZ_CP045763.1
GCF_009648795.1_ASM964879v1,NZ_CP045764.1
GCF_009648795.1_ASM964879v1,NZ_CP045765.1
GCF_009648835.1_ASM964883v1,NZ_CP045760.1
GCF_009650355.1_ASM965035v1,NZ_CP045053.1
GCF_009650355.1_ASM965035v1,NZ_CP045054.1
GCF_009650355.1_ASM965035v1,NZ_CP045055.1
GCF_009650375.1_ASM965037v1,NZ_CP045057.1
GCF_009650375.1_ASM965037v1,NZ_CP045058.1
GCF_009650395.1_ASM965039v1,NZ_CP045060.1
GCF_009650395.1_ASM965039v1,NZ_CP045061.1
GCF_009650395.1_ASM965039v1,NZ_CP045062.1
GCF_009664555.1_ASM966455v1,NZ_CP045946.1
GCF_009664575.1_ASM966457v1,NZ_CP045948.1
GCF_009664595.1_ASM966459v1,NZ_CP045950.1
GCF_009664595.1_ASM966459v1,NZ_CP045951.1
GCF_009664615.1_ASM966461v1,NZ_CP045959.1
GCF_009664635.1_ASM966463v1,NZ_CP045953.1
GCF_009664895.1_ASM966489v1,NZ_CP045957.1
GCF_009667745.1_ASM966774v1,NZ_CP043663.1
GCF_009667765.1_ASM966776v1,NZ_CP043665.1
GCF_009667765.1_ASM966776v1,NZ_CP043666.1
GCF_009667835.1_ASM966783v1,NZ_CP043668.1
GCF_009667855.1_ASM966785v1,NZ_CP034178.1
GCF_009728795.1_ASM972879v1,NZ_CP033359.1
GCF_009728795.1_ASM972879v1,NZ_CP033357.1
GCF_009728795.1_ASM972879v1,NZ_CP033358.1
GCF_009728875.2_ASM972887v2,NZ_CP033382.2
GCF_009728875.2_ASM972887v2,NZ_CP033383.2
GCF_009728895.2_ASM972889v2,NZ_CP033385.2
GCF_009728895.2_ASM972889v2,NZ_CP033386.2
GCF_009729955.1_ASM972995v1,NZ_CP046281.1
GCF_009729975.1_ASM972997v1,NZ_CP046282.1
GCF_009729975.1_ASM972997v1,NZ_CP046284.1
GCF_009730015.1_ASM973001v1,NZ_CP046292.1
GCF_009734305.1_ASM973430v1,NZ_CP046430.1
GCF_009756455.1_ASM975645v1,NZ_CP036173.1
GCF_009756515.1_ASM975651v1,NZ_CP037873.1
GCF_009756555.1_ASM975655v1,NZ_CP037875.1
GCF_009756555.1_ASM975655v1,NZ_CP037876.1
GCF_009756585.1_ASM975658v1,NZ_CP037878.1
GCF_009756605.1_ASM975660v1,NZ_CP037880.1
GCF_009806735.1_ASM980673v1,NZ_CP047116.1
GCF_009857075.1_ASM985707v1,NZ_CP047324.1
GCF_009884355.1_ASM988435v1,NZ_CP041972.1
GCF_009884375.1_ASM988437v1,NZ_CP041974.1
GCF_009884375.1_ASM988437v1,NZ_CP041975.1
GCF_010919335.1_ASM1091933v1,NZ_CP047882.1
GCF_011057955.1_ASM1105795v1,NZ_CP043510.1
GCF_011304815.1_ASM1130481v1,NZ_CP035551.1
GCF_011304815.1_ASM1130481v1,NZ_CP035549.1
GCF_011304815.1_ASM1130481v1,NZ_CP035550.1
GCF_011304815.1_ASM1130481v1,NZ_CP035548.1
GCF_011465535.1_ASM1146553v1,NZ_CP045459.1
GCF_011465535.1_ASM1146553v1,NZ_CP045460.1
GCF_011465945.1_ASM1146594v1,NZ_CP045467.1
GCF_011466075.1_ASM1146607v1,NZ_CP045463.1
GCF_011466075.1_ASM1146607v1,NZ_CP045462.1
GCF_011466275.1_ASM1146627v1,NZ_CP045512.1
GCF_011466275.1_ASM1146627v1,NZ_CP045511.1
GCF_011466275.1_ASM1146627v1,NZ_CP045510.1
GCF_011466455.1_ASM1146645v1,NZ_CP045514.1
GCF_011466775.1_ASM1146677v1,NZ_CP045517.1
GCF_011466815.1_ASM1146681v1,NZ_CP045519.1
GCF_011466815.1_ASM1146681v1,NZ_CP045520.1
GCF_011466815.1_ASM1146681v1,NZ_CP045521.1
GCF_012049805.1_ASM1204980v1,NZ_CP050707.1
GCF_012049805.1_ASM1204980v1,NZ_CP050708.1
GCF_012050025.1_ASM1205002v1,NZ_CP050751.1
GCF_012050025.1_ASM1205002v1,NZ_CP050752.1
GCF_012050205.1_ASM1205020v1,NZ_CP050710.1
GCF_012050205.1_ASM1205020v1,NZ_CP050711.1
GCF_012050385.1_ASM1205038v1,NZ_CP050717.1
GCF_012050385.1_ASM1205038v1,NZ_CP050718.1
GCF_012050385.1_ASM1205038v1,NZ_CP050719.1
GCF_012050385.1_ASM1205038v1,NZ_CP050720.1
GCF_012050525.1_ASM1205052v1,NZ_CP050713.1
GCF_012050525.1_ASM1205052v1,NZ_CP050714.1
GCF_012050525.1_ASM1205052v1,NZ_CP050715.1
GCF_012050745.1_ASM1205074v1,NZ_CP050722.1
GCF_012050905.1_ASM1205090v1,NZ_CP050724.1
GCF_012050905.1_ASM1205090v1,NZ_CP050725.1
GCF_012051085.1_ASM1205108v1,NZ_CP050727.1
GCF_012051245.1_ASM1205124v1,NZ_CP050729.1
GCF_012051245.1_ASM1205124v1,NZ_CP050730.1
GCF_012051385.1_ASM1205138v1,NZ_CP050732.1
GCF_012051385.1_ASM1205138v1,NZ_CP050733.1
GCF_012051625.1_ASM1205162v1,NZ_CP050735.1
GCF_012051625.1_ASM1205162v1,NZ_CP050736.1
GCF_012051625.1_ASM1205162v1,NZ_CP050737.1
GCF_012051625.1_ASM1205162v1,NZ_CP050738.1
GCF_012052225.1_ASM1205222v1,NZ_CP050754.1
GCF_012052225.1_ASM1205222v1,NZ_CP050755.1
GCF_012052445.1_ASM1205244v1,NZ_CP050758.1
GCF_012052445.1_ASM1205244v1,NZ_CP050759.1
GCF_012052605.1_ASM1205260v1,NZ_CP050772.1
GCF_012052605.1_ASM1205260v1,NZ_CP050773.1
GCF_012052605.1_ASM1205260v1,NZ_CP050774.1
GCF_012052605.1_ASM1205260v1,NZ_CP050775.1
GCF_012052605.1_ASM1205260v1,NZ_CP050776.1
GCF_012052805.1_ASM1205280v1,NZ_CP050763.1
GCF_012052965.1_ASM1205296v1,NZ_CP050761.1
GCF_012053145.1_ASM1205314v1,NZ_CP050765.1
GCF_012053145.1_ASM1205314v1,NZ_CP050766.1
GCF_012053145.1_ASM1205314v1,NZ_CP050767.1
GCF_012053145.1_ASM1205314v1,NZ_CP050768.1
GCF_012053325.1_ASM1205332v1,NZ_CP050770.1
GCF_012053525.1_ASM1205352v1,NZ_CP050778.1
GCF_012053905.1_ASM1205390v1,NZ_CP050784.1
GCF_012054045.1_ASM1205404v1,NZ_CP050780.1
GCF_012054045.1_ASM1205404v1,NZ_CP050781.1
GCF_012054045.1_ASM1205404v1,NZ_CP050782.1
GCF_012530215.1_ASM1253021v1,NZ_CP051268.1
GCF_013161805.1_ASM1316180v1,NZ_CP053576.1
GCF_013161805.1_ASM1316180v1,NZ_CP053577.1
GCF_013161805.1_ASM1316180v1,NZ_CP053578.1
GCF_013162025.1_ASM1316202v1,NZ_CP053580.1
GCF_013206965.1_ASM1320696v1,NZ_CP053871.1
GCF_013206965.1_ASM1320696v1,NZ_CP053872.1
GCF_013206965.1_ASM1320696v1,NZ_CP053873.1
GCF_013206965.1_ASM1320696v1,NZ_CP053874.1
GCF_013207105.1_ASM1320710v1,NZ_CP053866.1
GCF_013207105.1_ASM1320710v1,NZ_CP053867.1
GCF_013207105.1_ASM1320710v1,NZ_CP053868.1
GCF_013207105.1_ASM1320710v1,NZ_CP053869.1
GCF_013328855.1_ASM1332885v1,NZ_CP054423.1
GCF_013348865.1_ASM1334886v1,NZ_CP054717.1
GCF_013348865.1_ASM1334886v1,NZ_CP054718.1
GCF_013348865.1_ASM1334886v1,NZ_CP054716.1
GCF_013376935.1_ASM1337693v1,NZ_CP039438.1
GCF_013377315.1_ASM1337731v1,NZ_CP039442.1
GCF_013377335.1_ASM1337733v1,NZ_CP039444.1
GCF_013377355.1_ASM1337735v1,NZ_CP039446.1
GCF_013415925.1_ASM1341592v1,NZ_CP058808.1
GCF_013415925.1_ASM1341592v1,NZ_CP058809.1
GCF_013415925.1_ASM1341592v1,NZ_CP058810.1
GCF_013415925.1_ASM1341592v1,NZ_CP058811.1
GCF_013416235.1_ASM1341623v1,NZ_CP050131.1
GCF_014250355.1_ASM1425035v1,NZ_CP060170.1
GCF_014250355.1_ASM1425035v1,NZ_CP060171.1
GCF_014334175.1_ASM1433417v1,NZ_CP060509.1
GCF_014334175.1_ASM1433417v1,NZ_CP060510.1
GCF_014334175.1_ASM1433417v1,NZ_CP060511.1
GCF_014334195.1_ASM1433419v1,NZ_CP060513.1
GCF_014334195.1_ASM1433419v1,NZ_CP060514.1
GCF_014334235.1_ASM1433423v1,NZ_CP060518.1
GCF_014334235.1_ASM1433423v1,NZ_CP060519.1
GCF_014334235.1_ASM1433423v1,NZ_CP060520.1
GCF_014334235.1_ASM1433423v1,NZ_CP060521.1
GCF_014334255.1_ASM1433425v1,NZ_CP060523.1
GCF_014334255.1_ASM1433425v1,NZ_CP060524.1
GCF_014334255.1_ASM1433425v1,NZ_CP060525.1
GCF_014524585.1_ASM1452458v1,NZ_CP060133.1
GCF_014524605.1_ASM1452460v1,NZ_CP060135.1
GCF_014524605.1_ASM1452460v1,NZ_CP060136.1
GCF_014858545.1_ASM1485854v1,NZ_CP062224.1
GCF_014858565.1_ASM1485856v1,NZ_CP062227.1
GCF_014858565.1_ASM1485856v1,NZ_CP062226.1
GCF_015052765.1_ASM1505276v1,NZ_CP061046.1
GCF_015052785.1_ASM1505278v1,NZ_CP061048.1
GCF_015052825.1_ASM1505282v1,NZ_CP061051.1
GCF_015074885.1_ASM1507488v1,NZ_CP063290.1
GCF_015074885.1_ASM1507488v1,NZ_CP063293.1
GCF_015074885.1_ASM1507488v1,NZ_CP063292.1
GCF_015074885.1_ASM1507488v1,NZ_CP063291.1
GCF_015074905.1_ASM1507490v1,NZ_CP063300.1
GCF_015074905.1_ASM1507490v1,NZ_CP063296.1
GCF_015074905.1_ASM1507490v1,NZ_CP063295.1
GCF_015074905.1_ASM1507490v1,NZ_CP063299.1
GCF_015074905.1_ASM1507490v1,NZ_CP063297.1
GCF_015074905.1_ASM1507490v1,NZ_CP063298.1
GCF_015159575.1_ASM1515957v1,NZ_CP063331.1
GCF_015223545.3_ASM1522354v3,NZ_CP063685.2
GCF_015240635.1_ASM1524063v1,NZ_CP063701.1
GCF_015240855.1_ASM1524085v1,NZ_CP063703.1
GCF_015240855.1_ASM1524085v1,NZ_CP063704.1
GCF_015240995.1_ASM1524099v1,NZ_CP063706.1
GCF_015240995.1_ASM1524099v1,NZ_CP063707.1
GCF_015241115.1_ASM1524111v1,NZ_CP063710.1
GCF_015241115.1_ASM1524111v1,NZ_CP063709.1
GCF_015475615.1_ASM1547561v1,NZ_CP064264.1
GCF_015475615.1_ASM1547561v1,NZ_CP064265.1
GCF_015697745.1_ASM1569774v1,NZ_CP061116.1
GCF_015697745.1_ASM1569774v1,NZ_CP061117.1
GCF_015697785.1_ASM1569778v1,NZ_CP061123.1
GCF_015697805.1_ASM1569780v1,NZ_CP061125.1
GCF_015697825.1_ASM1569782v1,NZ_CP061127.1
GCF_015697825.1_ASM1569782v1,NZ_CP061128.1
GCF_015697825.1_ASM1569782v1,NZ_CP061129.1
GCF_015697825.1_ASM1569782v1,NZ_CP061130.1
GCF_015732575.1_S520,NZ_CP061120.1
GCF_015732575.1_S520,NZ_CP061121.1
GCF_016025375.1_ASM1602537v1,NZ_CP065565.1
GCF_016025415.1_ASM1602541v1,NZ_CP065568.1
GCF_016025415.1_ASM1602541v1,NZ_CP065571.1
GCF_016025415.1_ASM1602541v1,NZ_CP065570.1
GCF_016025415.1_ASM1602541v1,NZ_CP065569.1
GCF_016025435.1_ASM1602543v1,NZ_CP065573.1
GCF_016026715.1_ASM1602671v1,NZ_CP065638.1
GCF_016028495.1_ASM1602849v1,NZ_CP065719.1
GCF_016071195.1_ASM1607119v1,NZ_CP060586.1
GCF_016127435.1_ASM1612743v1,NZ_CP066008.1
GCF_016127435.1_ASM1612743v1,NZ_CP066010.1
GCF_016127435.1_ASM1612743v1,NZ_CP066011.1
GCF_016127835.1_ASM1612783v1,NZ_CP066048.1
GCF_016451985.1_ASM1645198v1,NZ_CP051308.1
GCF_016451985.1_ASM1645198v1,NZ_CP051309.1
GCF_016452005.1_ASM1645200v1,NZ_CP051311.1
GCF_016452005.1_ASM1645200v1,NZ_CP051312.1
GCF_016452025.1_ASM1645202v1,NZ_CP051314.1
GCF_016452045.1_ASM1645204v1,NZ_CP051316.1
GCF_016452065.1_ASM1645206v1,NZ_CP051319.1
GCF_016452065.1_ASM1645206v1,NZ_CP051318.1
GCF_016452105.1_ASM1645210v1,NZ_CP051327.1
GCF_016452105.1_ASM1645210v1,NZ_CP051330.1
GCF_016452105.1_ASM1645210v1,NZ_CP051331.1
GCF_016452105.1_ASM1645210v1,NZ_CP051328.1
GCF_016452105.1_ASM1645210v1,NZ_CP051325.1
GCF_016452105.1_ASM1645210v1,NZ_CP051326.1
GCF_016452165.1_ASM1645216v1,NZ_CP053053.1
GCF_016452165.1_ASM1645216v1,NZ_CP053054.1
GCF_016452165.1_ASM1645216v1,NZ_CP053052.1
GCF_016452165.1_ASM1645216v1,NZ_CP054465.1
GCF_016452165.1_ASM1645216v1,NZ_CP054466.1
GCF_016454165.1_ASM1645416v1,NZ_CP051347.1
GCF_016454165.1_ASM1645416v1,NZ_CP051348.1
GCF_016454205.1_ASM1645420v1,NZ_CP051351.1
GCF_016454205.1_ASM1645420v1,NZ_CP051352.1
GCF_016454225.1_ASM1645422v1,NZ_CP051354.1
GCF_016454225.1_ASM1645422v1,NZ_CP051355.1
GCF_016454245.1_ASM1645424v1,NZ_CP051357.1
GCF_016454265.1_ASM1645426v1,NZ_CP051359.1
GCF_016454265.1_ASM1645426v1,NZ_CP051360.1
GCF_016454265.1_ASM1645426v1,NZ_CP051361.1
GCF_016454285.1_ASM1645428v1,NZ_CP051367.1
GCF_016454285.1_ASM1645428v1,NZ_CP051365.1
GCF_016454305.1_ASM1645430v1,NZ_CP051369.1
GCF_016454325.1_ASM1645432v1,NZ_CP051371.1
GCF_016454345.1_ASM1645434v1,NZ_CP051374.1
GCF_016454345.1_ASM1645434v1,NZ_CP051373.1
GCF_016454345.1_ASM1645434v1,NZ_CP051375.1
GCF_016454365.1_ASM1645436v1,NZ_CP051379.1
GCF_016454365.1_ASM1645436v1,NZ_CP051377.1
GCF_016454365.1_ASM1645436v1,NZ_CP051376.1
GCF_016454365.1_ASM1645436v1,NZ_CP051378.1
GCF_016454385.1_ASM1645438v1,NZ_CP051382.1
GCF_016454385.1_ASM1645438v1,NZ_CP051383.1
GCF_016454425.1_ASM1645442v1,NZ_CP051385.1
GCF_016454445.1_ASM1645444v1,NZ_CP051387.1
GCF_016454445.1_ASM1645444v1,NZ_CP051388.1
GCF_016454465.1_ASM1645446v1,NZ_CP051390.1
GCF_016454505.1_ASM1645450v1,NZ_CP051395.1
GCF_016454525.1_ASM1645452v1,NZ_CP051397.1
GCF_016454545.1_ASM1645454v1,NZ_CP051400.1
GCF_016454545.1_ASM1645454v1,NZ_CP051399.1
GCF_016454545.1_ASM1645454v1,NZ_CP051401.1
GCF_016454585.1_ASM1645458v1,NZ_CP051403.1
GCF_016454605.1_ASM1645460v1,NZ_CP051405.1
GCF_016454605.1_ASM1645460v1,NZ_CP051406.1
GCF_016454645.1_ASM1645464v1,NZ_CP051411.1
GCF_016454645.1_ASM1645464v1,NZ_CP051412.1
GCF_016454665.1_ASM1645466v1,NZ_CP051414.1
GCF_016454665.1_ASM1645466v1,NZ_CP051415.1
GCF_016454705.1_ASM1645470v1,NZ_CP051417.1
GCF_016454705.1_ASM1645470v1,NZ_CP051418.1
GCF_016454725.1_ASM1645472v1,NZ_CP051426.1
GCF_016454725.1_ASM1645472v1,NZ_CP051420.1
GCF_016454725.1_ASM1645472v1,NZ_CP051424.1
GCF_016454725.1_ASM1645472v1,NZ_CP051421.1
GCF_016454725.1_ASM1645472v1,NZ_CP051419.1
GCF_016454725.1_ASM1645472v1,NZ_CP051423.1
GCF_016454725.1_ASM1645472v1,NZ_CP051422.1
GCF_016454765.1_ASM1645476v1,NZ_CP053049.1
GCF_016454765.1_ASM1645476v1,NZ_CP053050.1
GCF_016638525.1_ASM1663852v1,NZ_CP067340.1
GCF_016638585.1_ASM1663858v1,NZ_CP067338.1
GCF_016839205.1_ASM1683920v1,NZ_CP069298.1
GCF_016839205.1_ASM1683920v1,NZ_CP069299.1
GCF_016864495.1_ASM1686449v1,NZ_CP043905.1
GCF_016864495.1_ASM1686449v1,NZ_CP043906.1
GCF_016889645.1_ASM1688964v1,NZ_CP069519.1
GCF_016952595.1_ASM1695259v1,NZ_CP051362.1
GCF_016952595.1_ASM1695259v1,NZ_CP051364.1
GCF_017893505.1_ASM1789350v1,NZ_CP067092.1
GCF_017893625.1_ASM1789362v1,NZ_CP067398.1
GCF_018310415.1_ASM1831041v1,NZ_CP074095.1
GCF_018310435.1_ASM1831043v1,NZ_CP074099.1
GCF_018310455.1_ASM1831045v1,NZ_CP074097.1
GCF_018326605.1_ASM1832660v1,NZ_CP074093.1
GCF_018336435.1_ASM1833643v1,NZ_CP047425.1
GCF_018340585.1_ASM1834058v1,NZ_CP073716.1
GCF_018340585.1_ASM1834058v1,NZ_CP073717.1
GCF_018460045.1_ASM1846004v1,NZ_CP075373.1
GCF_019063905.1_ASM1906390v1,NZ_CP077681.1
GCF_019063905.1_ASM1906390v1,NZ_CP077682.1
GCF_019426245.1_ASM1942624v1,NZ_CP066852.1
GCF_019428465.1_ASM1942846v1,NZ_CP080092.1
GCF_019428465.1_ASM1942846v1,NZ_CP080093.1
GCF_019428465.1_ASM1942846v1,NZ_CP080094.1
GCF_019670225.1_ASM1967022v1,NZ_AP023293.1
GCF_019670245.1_ASM1967024v1,NZ_AP023295.1
GCF_019670245.1_ASM1967024v1,NZ_AP023296.1
GCF_019670245.1_ASM1967024v1,NZ_AP023297.1
GCF_019670245.1_ASM1967024v1,NZ_AP023298.1
GCF_019670285.1_ASM1967028v1,NZ_AP023301.1
GCF_019670285.1_ASM1967028v1,NZ_AP023302.1
GCF_019670325.1_ASM1967032v1,NZ_AP023305.1
GCF_019670345.1_ASM1967034v1,NZ_AP023307.1
GCF_019670345.1_ASM1967034v1,NZ_AP023308.1
GCF_019670365.1_ASM1967036v1,NZ_AP023310.1
GCF_019670385.1_ASM1967038v1,NZ_AP023312.1
GCF_019670405.1_ASM1967040v1,NZ_AP023314.1
GCF_019670425.1_ASM1967042v1,NZ_AP023316.1
GCF_019670445.1_ASM1967044v1,NZ_AP023318.1
GCF_019710375.1_ASM1971037v1,NZ_CP081188.1
GCF_019710395.2_ASM1971039v3,NZ_CP081190.2
GCF_019797945.1_ASM1979794v1,NZ_CP081859.1
GCF_019890995.1_ASM1989099v1,NZ_CP082339.1
GCF_019890995.1_ASM1989099v1,NZ_CP082340.1
GCF_019931635.1_ASM1993163v1,NZ_CP082917.1
GCF_019967915.1_ASM1996791v1,NZ_CP082955.1
GCF_019967915.1_ASM1996791v1,NZ_CP082956.1
GCF_019967915.1_ASM1996791v1,NZ_CP082957.1
GCF_019967915.1_ASM1996791v1,NZ_CP082958.1
GCF_019967915.1_ASM1996791v1,NZ_CP082959.1
GCF_019967915.1_ASM1996791v1,NZ_CP082960.1
GCF_019969195.1_ASM1996919v1,NZ_CP077663.1
GCF_019969235.1_ASM1996923v1,NZ_CP077669.1
GCF_019969255.1_ASM1996925v1,NZ_CP077671.1
GCF_020023795.1_ASM2002379v1,NZ_CP077761.1
GCF_020023795.1_ASM2002379v1,NZ_CP077762.1
GCF_020410865.1_ASM2041086v1,NZ_CP084533.1
GCF_020691705.1_ASM2069170v1,NZ_CP085698.1
GCF_020691705.1_ASM2069170v1,NZ_CP085697.1
GCF_020691725.1_ASM2069172v1,NZ_CP085701.1
GCF_020691725.1_ASM2069172v1,NZ_CP085702.1
GCF_020691725.1_ASM2069172v1,NZ_CP085703.1
GCF_020691725.1_ASM2069172v1,NZ_CP085700.1
GCF_020736305.1_ASM2073630v1,NZ_CP085984.1
GCF_020736305.1_ASM2073630v1,NZ_CP085985.1
GCF_020736325.1_ASM2073632v1,NZ_CP085982.1
GCF_020736325.1_ASM2073632v1,NZ_CP085980.1
GCF_020736345.1_ASM2073634v1,NZ_CP085986.1
GCF_021228955.1_ASM2122895v1,NZ_CP089314.1
GCF_021397625.1_ASM2139762v1,NZ_CP090138.1
GCF_021397625.1_ASM2139762v1,NZ_CP090139.1
GCF_021397625.1_ASM2139762v1,NZ_CP090140.1
GCF_021397645.1_ASM2139764v1,NZ_CP090142.1
GCF_021397645.1_ASM2139764v1,NZ_CP090144.1
GCF_021397645.1_ASM2139764v1,NZ_CP090143.1
GCF_021397675.1_ASM2139767v1,NZ_CP090134.1
GCF_021397675.1_ASM2139767v1,NZ_CP090136.1
GCF_021397675.1_ASM2139767v1,NZ_CP090135.1
GCF_021474245.1_ASM2147424v1,NZ_CP090546.1
GCF_021474265.1_ASM2147426v1,NZ_CP090531.1
GCF_021474265.1_ASM2147426v1,NZ_CP090532.1
GCF_021474265.1_ASM2147426v1,NZ_CP090530.1
GCF_021474285.1_ASM2147428v1,NZ_CP090534.1
GCF_021474305.1_ASM2147430v1,NZ_CP090537.1
GCF_021474305.1_ASM2147430v1,NZ_CP090538.1
GCF_021474305.1_ASM2147430v1,NZ_CP090536.1
GCF_021474325.1_ASM2147432v1,NZ_CP090540.1
GCF_021474345.1_ASM2147434v1,NZ_CP090543.1
GCF_021474345.1_ASM2147434v1,NZ_CP090544.1
GCF_021474345.1_ASM2147434v1,NZ_CP090542.1
GCF_021513315.1_ASM2151331v1,NZ_CP068697.1
GCF_021713115.1_ASM2171311v1,NZ_CP091299.1
GCF_022117515.1_ASM2211751v1,NZ_CP092041.1
GCF_022162985.1_ASM2216298v1,NZ_CP091879.1
GCF_022226915.1_ASM2222691v1,NZ_CP092076.1
GCF_022350005.1_ASM2235000v1,NZ_CP092259.1
GCF_022350005.1_ASM2235000v1,NZ_CP092260.1
GCF_022350005.1_ASM2235000v1,NZ_CP092261.1
GCF_022350005.1_ASM2235000v1,NZ_CP092262.1
GCF_022350005.1_ASM2235000v1,NZ_CP092263.1
GCF_022533545.1_ASM2253354v1,NZ_CP092862.1
GCF_022557215.1_ASM2255721v1,NZ_CP092913.1
GCF_022557215.1_ASM2255721v1,NZ_CP092914.1
GCF_022557215.1_ASM2255721v1,NZ_CP092912.1
GCF_022559345.1_ASM2255934v1,NZ_CP060836.1
GCF_022559345.1_ASM2255934v1,NZ_CP060835.1
GCF_022559365.1_ASM2255936v1,NZ_CP060839.1
GCF_022559365.1_ASM2255936v1,NZ_CP060838.1
GCF_022559385.1_ASM2255938v1,NZ_CP060842.1
GCF_022559385.1_ASM2255938v1,NZ_CP060843.1
GCF_022559385.1_ASM2255938v1,NZ_CP060841.1
GCF_022559405.1_ASM2255940v1,NZ_CP060845.1
GCF_022559425.1_ASM2255942v1,NZ_CP060848.1
GCF_022559425.1_ASM2255942v1,NZ_CP060847.1
GCF_022559445.1_ASM2255944v1,NZ_CP060851.1
GCF_022559445.1_ASM2255944v1,NZ_CP060850.1
GCF_022559465.1_ASM2255946v1,NZ_CP060854.1
GCF_022559465.1_ASM2255946v1,NZ_CP060853.1
GCF_022559485.1_ASM2255948v1,NZ_CP060856.1
GCF_022559825.1_ASM2255982v1,NZ_CP088902.1
GCF_022655645.1_ASM2265564v1,NZ_CP093387.1
GCF_022655645.1_ASM2265564v1,NZ_CP093388.1
GCF_022655645.1_ASM2265564v1,NZ_CP093389.1
GCF_022655705.1_ASM2265570v1,NZ_CP093393.1
GCF_022670675.1_ASM2267067v1,NZ_CP093401.1
GCF_022670715.1_ASM2267071v1,NZ_CP093404.1
GCF_022670735.1_ASM2267073v1,NZ_CP093406.1
GCF_022670755.1_ASM2267075v1,NZ_CP093410.1
GCF_022670755.1_ASM2267075v1,NZ_CP093409.1
GCF_022670755.1_ASM2267075v1,NZ_CP093408.1
GCF_022670775.1_ASM2267077v1,NZ_CP093412.1
GCF_022760155.1_ASM2276015v1,NZ_CP094333.1
GCF_022760155.1_ASM2276015v1,NZ_CP094334.1
GCF_022760155.1_ASM2276015v1,NZ_CP094335.1
GCF_022760155.1_ASM2276015v1,NZ_CP094336.1
GCF_022760155.1_ASM2276015v1,NZ_CP094337.1
GCF_022869965.1_ASM2286996v1,NZ_CP064386.1
GCF_022870605.1_ASM2287060v1,NZ_CP058672.1
GCF_022870605.1_ASM2287060v1,NZ_CP058673.1
GCF_022870605.1_ASM2287060v1,NZ_CP058674.1
GCF_022870685.1_ASM2287068v1,NZ_CP068019.1
GCF_022870685.1_ASM2287068v1,NZ_CP068020.1
GCF_022870685.1_ASM2287068v1,NZ_CP068021.1
GCF_022936365.1_ASM2293636v1,NZ_CP092000.1
GCF_022936365.1_ASM2293636v1,NZ_CP092001.1
GCF_022936365.1_ASM2293636v1,NZ_CP092002.1
GCF_022936365.1_ASM2293636v1,NZ_CP092003.1
GCF_022936385.1_ASM2293638v1,NZ_CP092005.1
GCF_022936425.1_ASM2293642v1,NZ_CP092010.1
GCF_022936425.1_ASM2293642v1,NZ_CP092011.1
GCF_022936485.1_ASM2293648v1,NZ_CP092013.1
GCF_023024545.1_ASM2302454v1,NZ_CP093374.1
GCF_900166885.1_39674_D01,NZ_LT795115.1
GCF_900166885.1_39674_D01,NZ_LT795116.1
GCF_900184385.1_STMU2UK,NZ_LT855377.1
GCF_900185485.1_BL60006,NZ_LT882487.1
GCF_904129595.1_S.Tm_LT2p22_assembled,NZ_LR881464.1
GCF_907163145.1_AUSMDU00027944,NZ_OU015341.1
GCF_907163175.1_AUSMDU00004549,NZ_OU015324.1
GCF_907163245.1_AUSMDU00007171,NZ_OU015343.1
GCF_907163245.1_AUSMDU00007171,NZ_OU015344.1
