"true_classification"	"repeat_category_predicted"	"metric_classification"	"frequency"	"species"
"ambiguous"	"ambiguous"	"TP"	7	"A. baumannii"
"ambiguous"	"repeat plasmid"	"TP"	1	"A. baumannii"
"chromosome"	"repeat chromosome"	"TN"	5	"A. baumannii"
"plasmid"	"repeat chromosome"	"FN"	1	"A. baumannii"
"plasmid"	"repeat plasmid"	"TP"	1	"A. baumannii"
"repeat chromosome"	"ambiguous"	"FP"	10	"A. baumannii"
"repeat chromosome"	"Not identified"	"FN"	21	"A. baumannii"
"repeat chromosome"	"repeat chromosome"	"TN"	124	"A. baumannii"
"repeat plasmid"	"ambiguous"	"TP"	1	"A. baumannii"
"repeat plasmid"	"repeat plasmid"	"TP"	4	"A. baumannii"
