"isolate"	"contig_number"	"true_chromosome_occurences"	"true_plasmidome_occurences"	"true_classification"	"species"	"chromosome"	"plasmid"	"repeat_category_predicted"	"metric_classification"	"contig_length"	"log_contig_length"	"nr_chromosome_matches"	"nr_plasmid_matches"	"nr_unclassified"	"total_matches"	"chromsome_fraction"	"plasmid_fraction"	"final_classification"
"GCF_013372085.1_ASM1337208v1"	"18"	2	0	"repeat chromosome"	"A. baumannii"	NA	NA	"Not identified"	"FN"	10278	4.01190861334915	8	3	0	11	0.73	0.27	"chromosome"
"GCF_015732435.1_ASM1573243v1"	"44"	2	0	"repeat chromosome"	"A. baumannii"	NA	NA	"Not identified"	"FN"	7696	3.88626505902976	20	0	0	20	1	0	"chromosome"
"GCF_015732435.1_ASM1573243v1"	"47"	2	0	"repeat chromosome"	"A. baumannii"	NA	NA	"Not identified"	"FN"	6064	3.782759192624	10	1	0	11	0.91	0.09	"chromosome"
"GCF_015732435.1_ASM1573243v1"	"57"	2	0	"repeat chromosome"	"A. baumannii"	NA	NA	"Not identified"	"FN"	1840	3.26481782300954	42	0	0	42	1	0	"chromosome"
"GCF_015732435.1_ASM1573243v1"	"61"	2	0	"repeat chromosome"	"A. baumannii"	NA	NA	"Not identified"	"FN"	1481	3.17055505852121	73	0	0	73	1	0	"chromosome"
"GCF_015732435.1_ASM1573243v1"	"67"	2	0	"repeat chromosome"	"A. baumannii"	NA	NA	"Not identified"	"FN"	1121	3.04960561259497	18	0	0	18	1	0	"chromosome"
"GCF_015910475.1_ASM1591047v1"	"16"	2	0	"repeat chromosome"	"A. baumannii"	NA	NA	"Not identified"	"FN"	14937	4.17426338099512	1	0	0	1	1	0	"chromosome"
"GCF_015910475.1_ASM1591047v1"	"23"	2	0	"repeat chromosome"	"A. baumannii"	NA	NA	"Not identified"	"FN"	3793	3.57898284270279	1	0	0	1	1	0	"chromosome"
"GCF_015910475.1_ASM1591047v1"	"26"	2	0	"repeat chromosome"	"A. baumannii"	NA	NA	"Not identified"	"FN"	2791	3.44575983648863	2	0	0	2	1	0	"chromosome"
"GCF_015910475.1_ASM1591047v1"	"27"	2	0	"repeat chromosome"	"A. baumannii"	NA	NA	"Not identified"	"FN"	2319	3.36530074863799	1	0	0	1	1	0	"chromosome"
"GCF_015910475.1_ASM1591047v1"	"29"	2	0	"repeat chromosome"	"A. baumannii"	NA	NA	"Not identified"	"FN"	2140	3.33041377334919	1	0	0	1	1	0	"chromosome"
"GCF_015910475.1_ASM1591047v1"	"31"	2	0	"repeat chromosome"	"A. baumannii"	NA	NA	"Not identified"	"FN"	1668	3.22219604630172	1	0	0	1	1	0	"chromosome"
"GCF_015910475.1_ASM1591047v1"	"39"	2	0	"repeat chromosome"	"A. baumannii"	NA	NA	"Not identified"	"FN"	1059	3.02489596010748	1	0	0	1	1	0	"chromosome"
"GCF_016127515.1_ASM1612751v1"	"40"	2	0	"repeat chromosome"	"A. baumannii"	NA	NA	"Not identified"	"FN"	2445	3.38827886345964	94	17	0	111	0.85	0.15	"chromosome"
"GCF_018604365.1_ASM1860436v1"	"55"	4	0	"repeat chromosome"	"A. baumannii"	NA	NA	"Not identified"	"FN"	2445	3.38827886345964	94	17	0	111	0.85	0.15	"chromosome"
"GCF_019458485.1_ASM1945848v1"	"48"	2	0	"repeat chromosome"	"A. baumannii"	NA	NA	"Not identified"	"FN"	2445	3.38827886345964	94	17	0	111	0.85	0.15	"chromosome"
"GCF_020810655.1_ASM2081065v1"	"29"	2	0	"repeat chromosome"	"A. baumannii"	NA	NA	"Not identified"	"FN"	3236	3.51000851294023	9	0	0	9	1	0	"chromosome"
"GCF_021484905.1_ASM2148490v1"	"48"	2	0	"repeat chromosome"	"A. baumannii"	NA	NA	"Not identified"	"FN"	2445	3.38827886345964	96	17	0	113	0.85	0.15	"chromosome"
"GCF_021609965.1_ASM2160996v1"	"45"	7	0	"repeat chromosome"	"A. baumannii"	NA	NA	"Not identified"	"FN"	3222	3.5081255360832	8	0	0	8	1	0	"chromosome"
"GCF_021609965.1_ASM2160996v1"	"49"	2	0	"repeat chromosome"	"A. baumannii"	NA	NA	"Not identified"	"FN"	2445	3.38827886345964	96	17	0	113	0.85	0.15	"chromosome"
"GCF_021609965.1_ASM2160996v1"	"55"	7	0	"repeat chromosome"	"A. baumannii"	NA	NA	"Not identified"	"FN"	1429	3.15503222879097	41	2	0	43	0.95	0.05	"chromosome"
"GCF_005519135.2_ASM551913v2"	"30"	0	1	"plasmid"	"A. baumannii"	1	0	"repeat chromosome"	"FN"	7417	3.87022827901179	0	1	0	1	0	1	"plasmid"
"GCF_005519135.2_ASM551913v2"	"31"	6	0	"repeat chromosome"	"A. baumannii"	1	0	"repeat chromosome"	"TN"	5519	3.74186039406526	4	0	0	4	1	0	"chromosome"
"GCF_005519135.2_ASM551913v2"	"33"	2	0	"repeat chromosome"	"A. baumannii"	1	0	"repeat chromosome"	"TN"	1154	3.06220580881971	138	0	0	138	1	0	"chromosome"
"GCF_005519135.2_ASM551913v2"	"34"	7	2	"ambiguous"	"A. baumannii"	1	1	"ambiguous"	"TP"	1075	3.03140846425162	47	31	0	78	0.6	0.4	"unclassified"
"GCF_013372085.1_ASM1337208v1"	"24"	6	0	"repeat chromosome"	"A. baumannii"	1	0	"repeat chromosome"	"TN"	5464	3.73751069067348	9	0	0	9	1	0	"chromosome"
"GCF_013372085.1_ASM1337208v1"	"26"	2	0	"repeat chromosome"	"A. baumannii"	1	1	"ambiguous"	"FP"	1820	3.26007138798507	9	10	0	19	0.47	0.53	"unclassified"
"GCF_013372085.1_ASM1337208v1"	"27"	2	0	"repeat chromosome"	"A. baumannii"	1	0	"repeat chromosome"	"TN"	1310	3.11727129565576	6	4	0	10	0.6	0.4	"unclassified"
"GCF_013372085.1_ASM1337208v1"	"28"	2	0	"repeat chromosome"	"A. baumannii"	1	0	"repeat chromosome"	"TN"	1203	3.08026562733984	77	0	0	77	1	0	"chromosome"
"GCF_014169655.1_ASM1416965v1"	"28"	6	0	"repeat chromosome"	"A. baumannii"	1	0	"repeat chromosome"	"TN"	5517	3.74170298395774	4	0	0	4	1	0	"chromosome"
"GCF_014169655.1_ASM1416965v1"	"30"	2	0	"repeat chromosome"	"A. baumannii"	1	1	"ambiguous"	"FP"	3449	3.53769319436739	1	0	0	1	1	0	"chromosome"
"GCF_014169655.1_ASM1416965v1"	"32"	7	0	"repeat chromosome"	"A. baumannii"	1	0	"repeat chromosome"	"TN"	1282	3.1078880251828	1	0	0	1	1	0	"chromosome"
"GCF_014169655.1_ASM1416965v1"	"33"	2	0	"repeat chromosome"	"A. baumannii"	1	0	"repeat chromosome"	"TN"	1203	3.08026562733984	97	0	0	97	1	0	"chromosome"
"GCF_014322245.1_ASM1432224v1"	"47"	6	0	"repeat chromosome"	"A. baumannii"	1	0	"repeat chromosome"	"TN"	5539	3.74343136514668	1	0	0	1	1	0	"chromosome"
"GCF_014322245.1_ASM1432224v1"	"55"	2	0	"repeat chromosome"	"A. baumannii"	1	0	"repeat chromosome"	"TN"	1701	3.23070431361257	1	0	0	1	1	0	"chromosome"
"GCF_014322245.1_ASM1432224v1"	"58"	9	1	"ambiguous"	"A. baumannii"	1	1	"ambiguous"	"TP"	1318	3.11991541025799	148	2	0	150	0.99	0.01	"chromosome"
"GCF_014322245.1_ASM1432224v1"	"60"	2	0	"repeat chromosome"	"A. baumannii"	1	0	"repeat chromosome"	"TN"	1203	3.08026562733984	3	0	0	3	1	0	"chromosome"
"GCF_014322245.1_ASM1432224v1"	"62"	0	2	"repeat plasmid"	"A. baumannii"	1	1	"ambiguous"	"TP"	1087	3.03622954408629	9	4	0	13	0.69	0.31	"unclassified"
"GCF_014322245.1_ASM1432224v1"	"63"	2	0	"repeat chromosome"	"A. baumannii"	1	0	"repeat chromosome"	"TN"	1039	3.01661554755718	3	0	0	3	1	0	"chromosome"
"GCF_014322245.1_ASM1432224v1"	"64"	17	0	"repeat chromosome"	"A. baumannii"	1	0	"repeat chromosome"	"TN"	1038	3.01619735351244	1	0	0	1	1	0	"chromosome"
"GCF_014705865.1_ASM1470586v1"	"41"	6	0	"repeat chromosome"	"A. baumannii"	1	0	"repeat chromosome"	"TN"	5246	3.71982828625433	85	0	0	85	1	0	"chromosome"
"GCF_014705865.1_ASM1470586v1"	"46"	2	0	"repeat chromosome"	"A. baumannii"	1	0	"repeat chromosome"	"TN"	3964	3.59813364581324	20	0	0	20	1	0	"chromosome"
"GCF_014705865.1_ASM1470586v1"	"49"	2	0	"repeat chromosome"	"A. baumannii"	1	0	"repeat chromosome"	"TN"	2576	3.41094585868777	30	0	0	30	1	0	"chromosome"
"GCF_014705865.1_ASM1470586v1"	"50"	2	0	"repeat chromosome"	"A. baumannii"	1	0	"repeat chromosome"	"TN"	2521	3.40157284567645	21	0	0	21	1	0	"chromosome"
"GCF_014705865.1_ASM1470586v1"	"53"	2	0	"repeat chromosome"	"A. baumannii"	1	0	"repeat chromosome"	"TN"	2062	3.3142886609475	3	0	0	3	1	0	"chromosome"
"GCF_014705865.1_ASM1470586v1"	"60"	2	0	"repeat chromosome"	"A. baumannii"	1	0	"repeat chromosome"	"TN"	1407	3.14829409743475	170	1	0	171	0.99	0.01	"chromosome"
"GCF_014705865.1_ASM1470586v1"	"61"	2	0	"repeat chromosome"	"A. baumannii"	1	0	"repeat chromosome"	"TN"	1395	3.14457420760962	41	0	0	41	1	0	"chromosome"
"GCF_014705865.1_ASM1470586v1"	"62"	3	0	"repeat chromosome"	"A. baumannii"	1	0	"repeat chromosome"	"TN"	1276	3.10585067438514	96	0	0	96	1	0	"chromosome"
"GCF_014705865.1_ASM1470586v1"	"63"	2	0	"repeat chromosome"	"A. baumannii"	1	0	"repeat chromosome"	"TN"	1262	3.10105935490812	164	0	0	164	1	0	"chromosome"
"GCF_014705865.1_ASM1470586v1"	"64"	17	0	"repeat chromosome"	"A. baumannii"	1	0	"repeat chromosome"	"TN"	1180	3.07188200730613	194	21	0	215	0.9	0.1	"chromosome"
"GCF_014705865.1_ASM1470586v1"	"65"	2	0	"repeat chromosome"	"A. baumannii"	1	0	"repeat chromosome"	"TN"	1154	3.06220580881971	138	0	0	138	1	0	"chromosome"
"GCF_015732435.1_ASM1573243v1"	"43"	2	0	"repeat chromosome"	"A. baumannii"	1	0	"repeat chromosome"	"TN"	9791	3.99082705056748	25	0	0	25	1	0	"chromosome"
"GCF_015732435.1_ASM1573243v1"	"49"	6	0	"repeat chromosome"	"A. baumannii"	1	0	"repeat chromosome"	"TN"	5528	3.74256803436614	83	0	0	83	1	0	"chromosome"
"GCF_015732435.1_ASM1573243v1"	"54"	3	0	"repeat chromosome"	"A. baumannii"	1	0	"repeat chromosome"	"TN"	3273	3.514946005308	17	0	0	17	1	0	"chromosome"
"GCF_015732435.1_ASM1573243v1"	"55"	2	0	"repeat chromosome"	"A. baumannii"	1	0	"repeat chromosome"	"TN"	2555	3.40739090447073	2	0	0	2	1	0	"chromosome"
"GCF_015732435.1_ASM1573243v1"	"56"	3	0	"repeat chromosome"	"A. baumannii"	1	0	"repeat chromosome"	"TN"	2446	3.38845645270027	177	1	0	178	0.99	0.01	"chromosome"
"GCF_015732435.1_ASM1573243v1"	"59"	2	0	"repeat chromosome"	"A. baumannii"	1	0	"repeat chromosome"	"TN"	1746	3.24204423936955	87	0	0	87	1	0	"chromosome"
"GCF_015732435.1_ASM1573243v1"	"63"	2	0	"repeat chromosome"	"A. baumannii"	1	0	"repeat chromosome"	"TN"	1336	3.12580645813953	12	0	0	12	1	0	"chromosome"
"GCF_015732435.1_ASM1573243v1"	"65"	2	0	"repeat chromosome"	"A. baumannii"	1	0	"repeat chromosome"	"TN"	1154	3.06220580881971	138	0	0	138	1	0	"chromosome"
"GCF_015732435.1_ASM1573243v1"	"66"	2	0	"repeat chromosome"	"A. baumannii"	1	0	"repeat chromosome"	"TN"	1148	3.05994188806195	42	0	0	42	1	0	"chromosome"
"GCF_015732435.1_ASM1573243v1"	"69"	23	0	"repeat chromosome"	"A. baumannii"	1	0	"repeat chromosome"	"TN"	1009	3.00389116623691	206	29	0	235	0.88	0.12	"chromosome"
"GCF_015910475.1_ASM1591047v1"	"18"	2	0	"repeat chromosome"	"A. baumannii"	1	0	"repeat chromosome"	"TN"	5918	3.77217496082461	1	0	0	1	1	0	"chromosome"
"GCF_015910475.1_ASM1591047v1"	"19"	6	0	"repeat chromosome"	"A. baumannii"	1	0	"repeat chromosome"	"TN"	5507	3.74091507648128	7	0	0	7	1	0	"chromosome"
"GCF_015910475.1_ASM1591047v1"	"24"	2	0	"repeat chromosome"	"A. baumannii"	1	0	"repeat chromosome"	"TN"	3120	3.49415459401844	1	0	0	1	1	0	"chromosome"
"GCF_015910475.1_ASM1591047v1"	"32"	2	0	"repeat chromosome"	"A. baumannii"	1	0	"repeat chromosome"	"TN"	1654	3.21853550521653	8	0	0	8	1	0	"chromosome"
"GCF_015910475.1_ASM1591047v1"	"34"	3	0	"repeat chromosome"	"A. baumannii"	1	0	"repeat chromosome"	"TN"	1358	3.13289976994448	1	0	0	1	1	0	"chromosome"
"GCF_015910475.1_ASM1591047v1"	"35"	3	0	"repeat chromosome"	"A. baumannii"	1	0	"repeat chromosome"	"TN"	1190	3.07554696139253	2	0	0	2	1	0	"chromosome"
"GCF_015910475.1_ASM1591047v1"	"36"	3	0	"repeat chromosome"	"A. baumannii"	1	0	"repeat chromosome"	"TN"	1153	3.0618293072947	151	1	0	152	0.99	0.01	"chromosome"
"GCF_015910475.1_ASM1591047v1"	"40"	0	3	"repeat plasmid"	"A. baumannii"	0	2	"repeat plasmid"	"TP"	1047	3.01994668167884	0	8	0	8	0	1	"plasmid"
"GCF_015910475.1_ASM1591047v1"	"41"	2	0	"repeat chromosome"	"A. baumannii"	1	0	"repeat chromosome"	"TN"	1040	3.01703333929878	91	0	0	91	1	0	"chromosome"
"GCF_015910475.1_ASM1591047v1"	"43"	3	0	"repeat chromosome"	"A. baumannii"	1	0	"repeat chromosome"	"TN"	1025	3.01072386539177	166	1	0	167	0.99	0.01	"chromosome"
"GCF_016127515.1_ASM1612751v1"	"30"	6	0	"repeat chromosome"	"A. baumannii"	1	0	"repeat chromosome"	"TN"	5527	3.74248946458178	20	0	0	20	1	0	"chromosome"
"GCF_016127515.1_ASM1612751v1"	"37"	2	0	"repeat chromosome"	"A. baumannii"	1	0	"repeat chromosome"	"TN"	3232	3.50947135210255	18	0	0	18	1	0	"chromosome"
"GCF_016127515.1_ASM1612751v1"	"38"	2	0	"repeat chromosome"	"A. baumannii"	1	0	"repeat chromosome"	"TN"	3164	3.50023647482564	3	0	0	3	1	0	"chromosome"
"GCF_016127515.1_ASM1612751v1"	"39"	2	0	"repeat chromosome"	"A. baumannii"	1	0	"repeat chromosome"	"TN"	2919	3.46523409498801	6	0	0	6	1	0	"chromosome"
"GCF_016127515.1_ASM1612751v1"	"41"	2	0	"repeat chromosome"	"A. baumannii"	1	0	"repeat chromosome"	"TN"	2265	3.35506820634885	1	0	0	1	1	0	"chromosome"
"GCF_016127515.1_ASM1612751v1"	"45"	1	0	"chromosome"	"A. baumannii"	1	0	"repeat chromosome"	"TN"	1883	3.27485032001666	16	0	0	16	1	0	"chromosome"
"GCF_016127515.1_ASM1612751v1"	"47"	1	0	"chromosome"	"A. baumannii"	1	0	"repeat chromosome"	"TN"	1826	3.26150077319828	9	1	0	10	0.9	0.1	"chromosome"
"GCF_016127515.1_ASM1612751v1"	"48"	2	0	"repeat chromosome"	"A. baumannii"	1	0	"repeat chromosome"	"TN"	1597	3.20330491613848	54	3	0	57	0.95	0.05	"chromosome"
"GCF_016127515.1_ASM1612751v1"	"49"	5	0	"repeat chromosome"	"A. baumannii"	1	0	"repeat chromosome"	"TN"	1550	3.19033169817029	6	0	0	6	1	0	"chromosome"
"GCF_016127515.1_ASM1612751v1"	"54"	2	0	"repeat chromosome"	"A. baumannii"	1	0	"repeat chromosome"	"TN"	1203	3.08026562733984	77	0	0	77	1	0	"chromosome"
"GCF_016127515.1_ASM1612751v1"	"55"	2	0	"repeat chromosome"	"A. baumannii"	1	0	"repeat chromosome"	"TN"	1041	3.01745072951054	20	1	0	21	0.95	0.05	"chromosome"
"GCF_016127515.1_ASM1612751v1"	"56"	11	0	"repeat chromosome"	"A. baumannii"	1	0	"repeat chromosome"	"TN"	1025	3.01072386539177	112	22	0	134	0.84	0.16	"chromosome"
"GCF_017753625.1_ASM1775362v1"	"16"	6	0	"repeat chromosome"	"A. baumannii"	1	0	"repeat chromosome"	"TN"	5538	3.74335295140956	4	0	0	4	1	0	"chromosome"
"GCF_017753625.1_ASM1775362v1"	"19"	0	2	"repeat plasmid"	"A. baumannii"	0	1	"repeat plasmid"	"TP"	1580	3.19865708695442	17	5	0	22	0.77	0.23	"chromosome"
"GCF_017753625.1_ASM1775362v1"	"20"	2	0	"repeat chromosome"	"A. baumannii"	1	0	"repeat chromosome"	"TN"	1492	3.17376882313665	1	0	0	1	1	0	"chromosome"
"GCF_017753625.1_ASM1775362v1"	"21"	2	0	"repeat chromosome"	"A. baumannii"	1	0	"repeat chromosome"	"TN"	1203	3.08026562733984	46	0	0	46	1	0	"chromosome"
"GCF_017753625.1_ASM1775362v1"	"22"	0	2	"repeat plasmid"	"A. baumannii"	0	1	"repeat plasmid"	"TP"	1047	3.01994668167884	31	9	0	40	0.78	0.22	"chromosome"
"GCF_018135585.1_ASM1813558v1"	"22"	5	0	"repeat chromosome"	"A. baumannii"	1	0	"repeat chromosome"	"TN"	5518	3.74178169614317	1	0	0	1	1	0	"chromosome"
"GCF_018135585.1_ASM1813558v1"	"25"	7	0	"repeat chromosome"	"A. baumannii"	1	0	"repeat chromosome"	"TN"	1282	3.1078880251828	1	0	0	1	1	0	"chromosome"
"GCF_018135585.1_ASM1813558v1"	"26"	2	0	"repeat chromosome"	"A. baumannii"	1	0	"repeat chromosome"	"TN"	1203	3.08026562733984	2	0	0	2	1	0	"chromosome"
"GCF_018135585.1_ASM1813558v1"	"27"	0	2	"repeat plasmid"	"A. baumannii"	0	2	"repeat plasmid"	"TP"	1164	3.06595298031387	0	1	0	1	0	1	"plasmid"
"GCF_018604365.1_ASM1860436v1"	"45"	2	0	"repeat chromosome"	"A. baumannii"	1	0	"repeat chromosome"	"TN"	10132	4.00569518111851	33	0	0	33	1	0	"chromosome"
"GCF_018604365.1_ASM1860436v1"	"46"	4	0	"repeat chromosome"	"A. baumannii"	1	0	"repeat chromosome"	"TN"	9771	3.98993901328454	45	1	0	46	0.98	0.02	"chromosome"
"GCF_018604365.1_ASM1860436v1"	"48"	6	0	"repeat chromosome"	"A. baumannii"	1	0	"repeat chromosome"	"TN"	5496	3.74004672405149	1	0	0	1	1	0	"chromosome"
"GCF_018604365.1_ASM1860436v1"	"59"	4	0	"repeat chromosome"	"A. baumannii"	1	0	"repeat chromosome"	"TN"	2236	3.34947179921439	143	20	0	163	0.88	0.12	"chromosome"
"GCF_018604365.1_ASM1860436v1"	"64"	2	0	"repeat chromosome"	"A. baumannii"	1	0	"repeat chromosome"	"TN"	1318	3.11991541025799	148	2	0	150	0.99	0.01	"chromosome"
"GCF_018604365.1_ASM1860436v1"	"66"	2	0	"repeat chromosome"	"A. baumannii"	1	0	"repeat chromosome"	"TN"	1154	3.06220580881971	131	1	0	132	0.99	0.01	"chromosome"
"GCF_018808925.1_ASM1880892v1"	"41"	1	0	"chromosome"	"A. baumannii"	1	0	"repeat chromosome"	"TN"	16590	4.21984638602436	4	0	0	4	1	0	"chromosome"
"GCF_018808925.1_ASM1880892v1"	"5"	1	0	"chromosome"	"A. baumannii"	1	0	"repeat chromosome"	"TN"	228816	5.35948638930263	1	0	0	1	1	0	"chromosome"
"GCF_018808925.1_ASM1880892v1"	"52"	6	0	"repeat chromosome"	"A. baumannii"	1	0	"repeat chromosome"	"TN"	5518	3.74178169614317	1	0	0	1	1	0	"chromosome"
"GCF_018808925.1_ASM1880892v1"	"61"	29	4	"ambiguous"	"A. baumannii"	1	1	"ambiguous"	"TP"	1604	3.20520436394814	1	0	0	1	1	0	"chromosome"
"GCF_018808925.1_ASM1880892v1"	"63"	3	0	"repeat chromosome"	"A. baumannii"	1	0	"repeat chromosome"	"TN"	1304	3.1152775913959	0	1	0	1	0	1	"plasmid"
"GCF_018808925.1_ASM1880892v1"	"64"	3	1	"ambiguous"	"A. baumannii"	1	1	"ambiguous"	"TP"	1181	3.07224989761351	189	20	0	209	0.9	0.1	"chromosome"
"GCF_018831125.1_ASM1883112v1"	"16"	1	0	"chromosome"	"A. baumannii"	1	0	"repeat chromosome"	"TN"	78851	4.89680720548646	1	0	0	1	1	0	"chromosome"
"GCF_018831125.1_ASM1883112v1"	"48"	0	1	"plasmid"	"A. baumannii"	0	1	"repeat plasmid"	"TP"	10449	4.0190747291779	0	15	0	15	0	1	"plasmid"
"GCF_018831125.1_ASM1883112v1"	"56"	6	0	"repeat chromosome"	"A. baumannii"	1	0	"repeat chromosome"	"TN"	5562	3.74523098452814	5	0	0	5	1	0	"chromosome"
"GCF_018831125.1_ASM1883112v1"	"66"	2	2	"ambiguous"	"A. baumannii"	1	1	"ambiguous"	"TP"	1309	3.11693964655076	7	11	0	18	0.39	0.61	"unclassified"
"GCF_018831125.1_ASM1883112v1"	"67"	2	0	"repeat chromosome"	"A. baumannii"	1	0	"repeat chromosome"	"TN"	1203	3.08026562733984	5	0	0	5	1	0	"chromosome"
"GCF_018831125.1_ASM1883112v1"	"68"	3	0	"repeat chromosome"	"A. baumannii"	1	0	"repeat chromosome"	"TN"	1107	3.04414762087872	1	0	0	1	1	0	"chromosome"
"GCF_018831125.1_ASM1883112v1"	"69"	7	2	"ambiguous"	"A. baumannii"	1	1	"ambiguous"	"TP"	1087	3.03622954408629	47	31	0	78	0.6	0.4	"unclassified"
"GCF_018831485.1_ASM1883148v1"	"13"	7	0	"repeat chromosome"	"A. baumannii"	1	0	"repeat chromosome"	"TN"	5558	3.74491854244135	21	0	0	21	1	0	"chromosome"
"GCF_018831485.1_ASM1883148v1"	"15"	2	0	"repeat chromosome"	"A. baumannii"	1	0	"repeat chromosome"	"TN"	1203	3.08026562733984	77	0	0	77	1	0	"chromosome"
"GCF_019458485.1_ASM1945848v1"	"32"	2	0	"repeat chromosome"	"A. baumannii"	1	0	"repeat chromosome"	"TN"	9989	3.9995220131289	2	0	0	2	1	0	"chromosome"
"GCF_019458485.1_ASM1945848v1"	"36"	6	0	"repeat chromosome"	"A. baumannii"	1	0	"repeat chromosome"	"TN"	5558	3.74491854244135	20	0	0	20	1	0	"chromosome"
"GCF_019458485.1_ASM1945848v1"	"42"	2	0	"repeat chromosome"	"A. baumannii"	1	0	"repeat chromosome"	"TN"	3385	3.52955867302116	1	2	0	3	0.33	0.67	"unclassified"
"GCF_019458485.1_ASM1945848v1"	"43"	2	0	"repeat chromosome"	"A. baumannii"	1	0	"repeat chromosome"	"TN"	3280	3.51587384371168	1	2	0	3	0.33	0.67	"unclassified"
"GCF_019458485.1_ASM1945848v1"	"44"	2	0	"repeat chromosome"	"A. baumannii"	1	0	"repeat chromosome"	"TN"	3194	3.50433491180246	13	0	0	13	1	0	"chromosome"
"GCF_019458485.1_ASM1945848v1"	"45"	2	0	"repeat chromosome"	"A. baumannii"	1	0	"repeat chromosome"	"TN"	2996	3.47654180902743	1	0	0	1	1	0	"chromosome"
"GCF_019458485.1_ASM1945848v1"	"50"	2	0	"repeat chromosome"	"A. baumannii"	1	0	"repeat chromosome"	"TN"	2183	3.33905373570914	11	0	0	11	1	0	"chromosome"
"GCF_019458485.1_ASM1945848v1"	"56"	2	0	"repeat chromosome"	"A. baumannii"	1	0	"repeat chromosome"	"TN"	1203	3.08026562733984	77	0	0	77	1	0	"chromosome"
"GCF_019458485.1_ASM1945848v1"	"58"	2	1	"ambiguous"	"A. baumannii"	1	1	"ambiguous"	"TP"	1087	3.03622954408629	47	31	0	78	0.6	0.4	"unclassified"
"GCF_019458485.1_ASM1945848v1"	"59"	20	0	"repeat chromosome"	"A. baumannii"	1	1	"ambiguous"	"FP"	1010	3.00432137378264	206	29	0	235	0.88	0.12	"chromosome"
"GCF_019703285.1_ASM1970328v1"	"104"	6	0	"repeat chromosome"	"A. baumannii"	1	0	"repeat chromosome"	"TN"	5234	3.71883371830386	1	0	0	1	1	0	"chromosome"
"GCF_019703285.1_ASM1970328v1"	"120"	1	1	"ambiguous"	"A. baumannii"	0	1	"repeat plasmid"	"TP"	2570	3.40993312333129	0	1	0	1	0	1	"plasmid"
"GCF_019703285.1_ASM1970328v1"	"126"	2	0	"repeat chromosome"	"A. baumannii"	1	0	"repeat chromosome"	"TN"	1714	3.23401081758718	1	0	0	1	1	0	"chromosome"
"GCF_019703285.1_ASM1970328v1"	"132"	2	0	"repeat chromosome"	"A. baumannii"	1	0	"repeat chromosome"	"TN"	1203	3.08026562733984	1	0	0	1	1	0	"chromosome"
"GCF_019703285.1_ASM1970328v1"	"134"	2	0	"repeat chromosome"	"A. baumannii"	1	0	"repeat chromosome"	"TN"	1136	3.055378331375	1	0	0	1	1	0	"chromosome"
"GCF_019703285.1_ASM1970328v1"	"136"	4	0	"repeat chromosome"	"A. baumannii"	1	0	"repeat chromosome"	"TN"	1041	3.01745072951054	4	1	0	5	0.8	0.2	"chromosome"
"GCF_019903155.1_ASM1990315v1"	"18"	2	0	"repeat chromosome"	"A. baumannii"	1	0	"repeat chromosome"	"TN"	29262	4.46630400597521	1	0	0	1	1	0	"chromosome"
"GCF_019903155.1_ASM1990315v1"	"25"	6	0	"repeat chromosome"	"A. baumannii"	1	0	"repeat chromosome"	"TN"	5529	3.74264658993874	1	0	0	1	1	0	"chromosome"
"GCF_019903155.1_ASM1990315v1"	"27"	2	0	"repeat chromosome"	"A. baumannii"	1	0	"repeat chromosome"	"TN"	2875	3.45863784902565	1	0	0	1	1	0	"chromosome"
"GCF_019903155.1_ASM1990315v1"	"31"	2	0	"repeat chromosome"	"A. baumannii"	1	0	"repeat chromosome"	"TN"	1454	3.16256440652302	2	0	0	2	1	0	"chromosome"
"GCF_019903155.1_ASM1990315v1"	"33"	3	0	"repeat chromosome"	"A. baumannii"	1	0	"repeat chromosome"	"TN"	1276	3.10585067438514	13	4	0	17	0.76	0.24	"chromosome"
"GCF_019903155.1_ASM1990315v1"	"34"	2	0	"repeat chromosome"	"A. baumannii"	1	0	"repeat chromosome"	"TN"	1155	3.06258198422816	79	0	0	79	1	0	"chromosome"
"GCF_019903215.1_ASM1990321v1"	"48"	6	0	"repeat chromosome"	"A. baumannii"	1	0	"repeat chromosome"	"TN"	5497	3.74012573696573	83	0	0	83	1	0	"chromosome"
"GCF_019903215.1_ASM1990321v1"	"52"	7	0	"repeat chromosome"	"A. baumannii"	1	0	"repeat chromosome"	"TN"	2594	3.41396997174806	4	0	0	4	1	0	"chromosome"
"GCF_019903215.1_ASM1990321v1"	"57"	2	0	"repeat chromosome"	"A. baumannii"	1	0	"repeat chromosome"	"TN"	1318	3.11991541025799	148	2	0	150	0.99	0.01	"chromosome"
"GCF_019903215.1_ASM1990321v1"	"59"	2	0	"repeat chromosome"	"A. baumannii"	1	0	"repeat chromosome"	"TN"	1154	3.06220580881971	131	1	0	132	0.99	0.01	"chromosome"
"GCF_020810655.1_ASM2081065v1"	"27"	6	0	"repeat chromosome"	"A. baumannii"	1	0	"repeat chromosome"	"TN"	5517	3.74170298395774	1	0	0	1	1	0	"chromosome"
"GCF_020810655.1_ASM2081065v1"	"35"	3	0	"repeat chromosome"	"A. baumannii"	1	1	"ambiguous"	"FP"	1309	3.11693964655076	0	1	0	1	0	1	"plasmid"
"GCF_020810655.1_ASM2081065v1"	"37"	2	0	"repeat chromosome"	"A. baumannii"	1	0	"repeat chromosome"	"TN"	1203	3.08026562733984	9	0	0	9	1	0	"chromosome"
"GCF_020810655.1_ASM2081065v1"	"38"	3	0	"repeat chromosome"	"A. baumannii"	1	1	"ambiguous"	"FP"	1180	3.07188200730613	28	13	0	41	0.68	0.32	"unclassified"
"GCF_020810655.1_ASM2081065v1"	"39"	2	0	"repeat chromosome"	"A. baumannii"	1	1	"ambiguous"	"FP"	1162	3.06520612805431	96	37	0	133	0.72	0.28	"chromosome"
"GCF_020810655.1_ASM2081065v1"	"42"	2	0	"repeat chromosome"	"A. baumannii"	1	0	"repeat chromosome"	"TN"	1044	3.01870049866624	1	0	0	1	1	0	"chromosome"
"GCF_020810655.1_ASM2081065v1"	"44"	2	0	"repeat chromosome"	"A. baumannii"	1	0	"repeat chromosome"	"TN"	1001	3.00043407747932	8	0	0	8	1	0	"chromosome"
"GCF_020985285.1_ASM2098528v1"	"34"	6	0	"repeat chromosome"	"A. baumannii"	1	0	"repeat chromosome"	"TN"	5558	3.74491854244135	3	0	0	3	1	0	"chromosome"
"GCF_020985285.1_ASM2098528v1"	"38"	2	0	"repeat chromosome"	"A. baumannii"	1	0	"repeat chromosome"	"TN"	2135	3.32939787936104	1	0	0	1	1	0	"chromosome"
"GCF_020985285.1_ASM2098528v1"	"42"	7	0	"repeat chromosome"	"A. baumannii"	1	0	"repeat chromosome"	"TN"	1466	3.16613397030511	3	0	0	3	1	0	"chromosome"
"GCF_020985285.1_ASM2098528v1"	"43"	3	0	"repeat chromosome"	"A. baumannii"	1	0	"repeat chromosome"	"TN"	1465	3.16583762469013	2	0	0	2	1	0	"chromosome"
"GCF_020985285.1_ASM2098528v1"	"44"	8	0	"repeat chromosome"	"A. baumannii"	1	0	"repeat chromosome"	"TN"	1282	3.1078880251828	1	0	0	1	1	0	"chromosome"
"GCF_020985285.1_ASM2098528v1"	"45"	2	0	"repeat chromosome"	"A. baumannii"	1	0	"repeat chromosome"	"TN"	1203	3.08026562733984	77	0	0	77	1	0	"chromosome"
"GCF_020985285.1_ASM2098528v1"	"46"	3	0	"repeat chromosome"	"A. baumannii"	1	0	"repeat chromosome"	"TN"	1019	3.00817418400643	17	1	0	18	0.94	0.06	"chromosome"
"GCF_021484905.1_ASM2148490v1"	"32"	2	0	"repeat chromosome"	"A. baumannii"	1	0	"repeat chromosome"	"TN"	9989	3.9995220131289	2	0	0	2	1	0	"chromosome"
"GCF_021484905.1_ASM2148490v1"	"36"	6	0	"repeat chromosome"	"A. baumannii"	1	0	"repeat chromosome"	"TN"	5558	3.74491854244135	20	0	0	20	1	0	"chromosome"
"GCF_021484905.1_ASM2148490v1"	"42"	2	0	"repeat chromosome"	"A. baumannii"	1	0	"repeat chromosome"	"TN"	3385	3.52955867302116	1	2	0	3	0.33	0.67	"unclassified"
"GCF_021484905.1_ASM2148490v1"	"43"	2	0	"repeat chromosome"	"A. baumannii"	1	0	"repeat chromosome"	"TN"	3280	3.51587384371168	1	2	0	3	0.33	0.67	"unclassified"
"GCF_021484905.1_ASM2148490v1"	"44"	2	0	"repeat chromosome"	"A. baumannii"	1	0	"repeat chromosome"	"TN"	3194	3.50433491180246	13	0	0	13	1	0	"chromosome"
"GCF_021484905.1_ASM2148490v1"	"45"	2	0	"repeat chromosome"	"A. baumannii"	1	0	"repeat chromosome"	"TN"	2996	3.47654180902743	10	0	0	10	1	0	"chromosome"
"GCF_021484905.1_ASM2148490v1"	"50"	2	0	"repeat chromosome"	"A. baumannii"	1	0	"repeat chromosome"	"TN"	2183	3.33905373570914	11	0	0	11	1	0	"chromosome"
"GCF_021484905.1_ASM2148490v1"	"55"	51	0	"repeat chromosome"	"A. baumannii"	1	0	"repeat chromosome"	"TN"	1375	3.13830269816628	43	2	0	45	0.96	0.04	"chromosome"
"GCF_021484905.1_ASM2148490v1"	"58"	2	0	"repeat chromosome"	"A. baumannii"	1	0	"repeat chromosome"	"TN"	1203	3.08026562733984	77	0	0	77	1	0	"chromosome"
"GCF_021484905.1_ASM2148490v1"	"60"	2	0	"repeat chromosome"	"A. baumannii"	1	1	"ambiguous"	"FP"	1087	3.03622954408629	47	31	0	78	0.6	0.4	"unclassified"
"GCF_021484905.1_ASM2148490v1"	"61"	20	0	"repeat chromosome"	"A. baumannii"	1	1	"ambiguous"	"FP"	1025	3.01072386539177	206	29	0	235	0.88	0.12	"chromosome"
"GCF_021609965.1_ASM2160996v1"	"32"	2	0	"repeat chromosome"	"A. baumannii"	1	0	"repeat chromosome"	"TN"	9989	3.9995220131289	2	0	0	2	1	0	"chromosome"
"GCF_021609965.1_ASM2160996v1"	"35"	7	0	"repeat chromosome"	"A. baumannii"	1	0	"repeat chromosome"	"TN"	8223	3.91503029025916	9	0	0	9	1	0	"chromosome"
"GCF_021609965.1_ASM2160996v1"	"37"	6	0	"repeat chromosome"	"A. baumannii"	1	0	"repeat chromosome"	"TN"	5558	3.74491854244135	20	0	0	20	1	0	"chromosome"
"GCF_021609965.1_ASM2160996v1"	"43"	2	0	"repeat chromosome"	"A. baumannii"	1	0	"repeat chromosome"	"TN"	3385	3.52955867302116	1	2	0	3	0.33	0.67	"unclassified"
"GCF_021609965.1_ASM2160996v1"	"44"	2	0	"repeat chromosome"	"A. baumannii"	1	0	"repeat chromosome"	"TN"	3280	3.51587384371168	1	2	0	3	0.33	0.67	"unclassified"
"GCF_021609965.1_ASM2160996v1"	"46"	2	0	"repeat chromosome"	"A. baumannii"	1	0	"repeat chromosome"	"TN"	3194	3.50433491180246	13	0	0	13	1	0	"chromosome"
"GCF_021609965.1_ASM2160996v1"	"47"	2	0	"repeat chromosome"	"A. baumannii"	1	0	"repeat chromosome"	"TN"	2996	3.47654180902743	1	0	0	1	1	0	"chromosome"
"GCF_021609965.1_ASM2160996v1"	"51"	2	0	"repeat chromosome"	"A. baumannii"	1	0	"repeat chromosome"	"TN"	2183	3.33905373570914	11	0	0	11	1	0	"chromosome"
"GCF_021609965.1_ASM2160996v1"	"58"	2	0	"repeat chromosome"	"A. baumannii"	1	0	"repeat chromosome"	"TN"	1203	3.08026562733984	21	0	0	21	1	0	"chromosome"
"GCF_021609965.1_ASM2160996v1"	"61"	2	0	"repeat chromosome"	"A. baumannii"	1	1	"ambiguous"	"FP"	1087	3.03622954408629	47	31	0	78	0.6	0.4	"unclassified"
"GCF_021609965.1_ASM2160996v1"	"62"	20	0	"repeat chromosome"	"A. baumannii"	1	1	"ambiguous"	"FP"	1025	3.01072386539177	206	29	0	235	0.88	0.12	"chromosome"
